[
    {
        "title": "大神太有才了，长相思手办图，可爱死了！！",
        "docid": "7274561788652536354",
        "url": ""
    },
    {
        "title": "《杀戮都市》满分BOOS滑瓢电影所有形态展示",
        "docid": "7278252459938710031",
        "url": "https://www.ixigua.com/7278252459938710031"
    },
    {
        "title": "海贼王漫画1094话完整解说：路飞一击轰飞黄猿！最高权力化身牛鬼",
        "docid": "7286414941660119571",
        "url": "https://www.ixigua.com/7286414941660119571"
    },
    {
        "title": "吕墨菲vs虚拟人物",
        "docid": "7307939324232729140",
        "url": "https://www.ixigua.com/7307939324232729140"
    },
    {
        "title": "@神印王座",
        "docid": "7307842040732058122",
        "url": "https://www.ixigua.com/7307842040732058122"
    },
    {
        "title": "国产漫改天花板！张灵玉首次展现水脏雷，楚岚被虐的怀疑人生",
        "docid": "7278332865635418684",
        "url": "https://www.ixigua.com/7278332865635418684"
    },
    {
        "title": "海贼王 绿牛初次登场成为海军大将之耻",
        "docid": "7292332543729697330",
        "url": "https://www.ixigua.com/7292332543729697330"
    },
    {
        "title": "鄙人先举报了自己的便宜老爹，不然株连九族了！",
        "docid": "7307550488332141094",
        "url": "https://www.ixigua.com/7307550488332141094"
    },
    {
        "title": "#海贼王 恶魔果实是怎样诞生的呢！ #海贼王#动漫推荐",
        "docid": "7302012367439659560",
        "url": "https://www.ixigua.com/7302012367439659560"
    },
    {
        "title": "基德好帅！",
        "docid": "7307912752201204258",
        "url": "https://www.ixigua.com/7307912752201204258"
    },
    {
        "title": "召唤道友",
        "docid": "7307917550850212367",
        "url": "https://www.ixigua.com/7307917550850212367"
    },
    {
        "title": "韩立在乱星海混不下去了，回到天南大陆可谓是称王称霸",
        "docid": "7275908307536052776",
        "url": "https://www.ixigua.com/7275908307536052776"
    },
    {
        "title": "吞噬：罗峰奴役虫族母皇，母皇却要给他造百万大军",
        "docid": "7303728990248763958",
        "url": "https://www.ixigua.com/7303728990248763958"
    },
    {
        "title": "巨熊",
        "docid": "7307833604749722166",
        "url": "https://www.ixigua.com/7307833604749722166"
    },
    {
        "title": "《进击的巨人》完结篇上1",
        "docid": "7294602949216043546",
        "url": "https://www.ixigua.com/7294602949216043546"
    },
    {
        "title": "修仙者大战超人",
        "docid": "7279063050995368467",
        "url": "https://www.ixigua.com/7279063050995368467"
    },
    {
        "title": "宇智波斑",
        "docid": "7307913940292338210",
        "url": "https://www.ixigua.com/7307913940292338210"
    },
    {
        "title": "胆子大进来试试，能看到最后的一定是勇士#手办 #伊藤润二 #恐怖",
        "docid": "7307920887251108363",
        "url": "https://www.ixigua.com/7307920887251108363"
    },
    {
        "title": "一口气看完《超萌栗宝》",
        "docid": "7280840555691672119",
        "url": "https://www.ixigua.com/7280840555691672119"
    },
    {
        "title": "耗时8848小时精心制作，《极致零度》蹲坑版",
        "docid": "7285308023176692279",
        "url": "https://www.ixigua.com/7285308023176692279"
    },
    {
        "title": "\"奥特曼 \"二次元 \"夏日暴击",
        "docid": "7307757732994482726",
        "url": "https://www.ixigua.com/7307757732994482726"
    },
    {
        "title": "最不该放下对敌人仇恨的人--柯尼，比死亡更让人难过",
        "docid": "7293130384815391270",
        "url": "https://www.ixigua.com/7293130384815391270"
    },
    {
        "title": "一人之下：大慈大悲肖施主，出门手提脊梁骨#一人之下 #动漫解说",
        "docid": "7277550974963548707",
        "url": "https://www.ixigua.com/7277550974963548707"
    },
    {
        "title": "看頭像猜主播",
        "docid": "7307808942359642624",
        "url": "https://www.ixigua.com/7307808942359642624"
    },
    {
        "title": "诸天纪第二集",
        "docid": "7307944801587069490",
        "url": "https://www.ixigua.com/7307944801587069490"
    },
    {
        "title": "盘点上海万圣节COS众生相#万圣节上海cos众生相 #上海万圣节",
        "docid": "7296517539532800521",
        "url": "https://www.ixigua.com/7296517539532800521"
    },
    {
        "title": "石昊路上捡到一只小兔纸～竟是太阴玉兔 #国漫 #完美世界",
        "docid": "7276321611681432125",
        "url": "https://www.ixigua.com/7276321611681432125"
    },
    {
        "title": "超人强",
        "docid": "7307261376421069323",
        "url": "https://www.ixigua.com/7307261376421069323"
    },
    {
        "title": "列强还是怀念大清朝了啊！德国驻华使馆发的这幅漫画，是啥意思？",
        "docid": "7308035308027740710",
        "url": ""
    },
    {
        "title": "头像大全",
        "docid": "7307851391509201462",
        "url": "https://www.ixigua.com/7307851391509201462"
    },
    {
        "title": "以前的变身我深信不疑，现在的变身我嗤之以鼻",
        "docid": "7290812422846317110",
        "url": "https://www.ixigua.com/7290812422846317110"
    },
    {
        "title": "八奇技六库仙贼#一人之下 #漫画解说 #漫画 #六库仙贼 #八奇技",
        "docid": "7276040335451816467",
        "url": "https://www.ixigua.com/7276040335451816467"
    },
    {
        "title": "一人之下：武侯奇门的最终绝技三昧真火",
        "docid": "7280091233010385466",
        "url": "https://www.ixigua.com/7280091233010385466"
    },
    {
        "title": "次子和阿尼亚，你们两也太好懂了吧！#动漫推荐",
        "docid": "7295248956941042214",
        "url": "https://www.ixigua.com/7295248956941042214"
    },
    {
        "title": "凡骨1——48（合集）",
        "docid": "7279490266757759500",
        "url": "https://www.ixigua.com/7279490266757759500"
    },
    {
        "title": "最离谱的武器，竟用跳蚤做子弹，高达10万米的射程",
        "docid": "7294236514513322559",
        "url": "https://www.ixigua.com/7294236514513322559"
    },
    {
        "title": "凡人修仙传动漫：吃零食被发现，高冷女神南宫婉也有顽皮的一面！",
        "docid": "7306282188667159077",
        "url": "https://www.ixigua.com/7306282188667159077"
    },
    {
        "title": "变形金刚身高体型大排行：擎天柱和威震天甚至都进不了前十",
        "docid": "7298286758507217420",
        "url": "https://www.ixigua.com/7298286758507217420"
    },
    {
        "title": "一集爆！网飞新作杀杀杀疯了",
        "docid": "7307065060533600768",
        "url": ""
    },
    {
        "title": "未来的世界有多乱，核战争扩散战火四处蔓延，只因掌握了虐杀器官",
        "docid": "7285606583499751936",
        "url": "https://www.ixigua.com/7285606583499751936"
    },
    {
        "title": "#这短短的一生我们最终都会失去  #等到黑夜翻面之后",
        "docid": "7307611081902719528",
        "url": "https://www.ixigua.com/7307611081902719528"
    },
    {
        "title": "【原始星球】50年前的大尺度动画，脑洞之大，至今无人超越！",
        "docid": "7293774043726610955",
        "url": "https://www.ixigua.com/7293774043726610955"
    },
    {
        "title": "一口气看完大圣弃佛成魔",
        "docid": "7284199898730856994",
        "url": "https://www.ixigua.com/7284199898730856994"
    },
    {
        "title": "日本限制级漫画改编，耗资40亿，号称无限流开山鼻祖！",
        "docid": "7298312266191995432",
        "url": "https://www.ixigua.com/7298312266191995432"
    },
    {
        "title": "重生归来的我觉醒了双职业，死灵法师和神话级职业—黑暗战神！",
        "docid": "7279419913633169939",
        "url": "https://www.ixigua.com/7279419913633169939"
    },
    {
        "title": "帮我画衣服",
        "docid": "7307805181092037172",
        "url": "https://www.ixigua.com/7307805181092037172"
    },
    {
        "title": "耗时251342分钟制作，《另类千金》超长剧场版一口气看爽",
        "docid": "7289478401365279268",
        "url": "https://www.ixigua.com/7289478401365279268"
    },
    {
        "title": "来自900年前的支援？深扒巨大机器人的秘密！",
        "docid": "7280085189336760872",
        "url": "https://www.ixigua.com/7280085189336760872"
    },
    {
        "title": "进击的巨人杀不死的莱纳和贝尔托特飞天核爆，夺回玛利亚之墙战斗",
        "docid": "7300819344164913705",
        "url": "https://www.ixigua.com/7300819344164913705"
    },
    {
        "title": "被囚禁十年的男主终于可以重见天日，出狱就对人类展开报复",
        "docid": "7291940432156557864",
        "url": "https://www.ixigua.com/7291940432156557864"
    },
    {
        "title": "一口气20集无法停下，超内涵日漫女主！太会玩了吧！",
        "docid": "7306605020693135891",
        "url": "https://www.ixigua.com/7306605020693135891"
    },
    {
        "title": "凄惨的女主，连续三次送给敌人！#我在抖音看动漫",
        "docid": "7304677889256260115",
        "url": "https://www.ixigua.com/7304677889256260115"
    },
    {
        "title": "用物理打败魔法#动漫剪辑 #超然混剪 #漫剪 #日漫 #动漫",
        "docid": "7277915226832699963",
        "url": "https://www.ixigua.com/7277915226832699963"
    },
    {
        "title": "海贼王漫画1096话完整解说！ 海贼王漫画1096话《熊仔》完整解说",
        "docid": "7294160562525733428",
        "url": "https://www.ixigua.com/7294160562525733428"
    },
    {
        "title": "一人之下：火遍全网的哥的炉子碎了，始作俑者居然是自己干叔叔",
        "docid": "7276835590824264252",
        "url": "https://www.ixigua.com/7276835590824264252"
    },
    {
        "title": "国产漫改天花板！全性老头为对付冯宝宝，竟然变身成了红脸关公",
        "docid": "7278692884130300475",
        "url": "https://www.ixigua.com/7278692884130300475"
    },
    {
        "title": "一口气看完超燃漫画《永远的LV1》，时长3小时17分钟 全程高能",
        "docid": "7287051784407908924",
        "url": "https://www.ixigua.com/7287051784407908924"
    },
    {
        "title": "我被镇压十万年   最新合集",
        "docid": "7288894152098939433",
        "url": "https://www.ixigua.com/7288894152098939433"
    },
    {
        "title": "一口氣看完《惊爆游戏》！女孩內植晶片，被丟進滿是人渣的荒島",
        "docid": "7304959896670503439",
        "url": "https://www.ixigua.com/7304959896670503439"
    },
    {
        "title": "你敢相信这是上世纪八十年代的动漫",
        "docid": "7283064701376791092",
        "url": "https://www.ixigua.com/7283064701376791092"
    },
    {
        "title": "唉#番剧 #动漫少女 #二次元人物 #治愈动漫 #二次元",
        "docid": "7307836581170119194",
        "url": "https://www.ixigua.com/7307836581170119194"
    },
    {
        "title": "如果亚历山大打到了中国。亚历山大：“让我嘎了吧，别来烦我了”",
        "docid": "7304935487595577894",
        "url": "https://www.ixigua.com/7304935487595577894"
    },
    {
        "title": "路飞打败凯多后众人的反应，红发非常欣慰，卡普表示基本操作！",
        "docid": "7279860639466684967",
        "url": "https://www.ixigua.com/7279860639466684967"
    },
    {
        "title": "古雷斯登场也太燃了吧#特摄剧 #德凯奥特曼#钢铁魔人古雷斯",
        "docid": "7285554689620476474",
        "url": "https://www.ixigua.com/7285554689620476474"
    },
    {
        "title": "外星高科技，蓝色钢铁蜘蛛侠，又菜又能打！",
        "docid": "7281998096412705336",
        "url": "https://www.ixigua.com/7281998096412705336"
    },
    {
        "title": "重制版来了",
        "docid": "7307822299871838720",
        "url": "https://www.ixigua.com/7307822299871838720"
    },
    {
        "title": "赤犬小迷弟登场，他暴打百兽海贼团，还扬言要吸干路飞！",
        "docid": "7292683536786686498",
        "url": "https://www.ixigua.com/7292683536786686498"
    },
    {
        "title": "少年歌行：年轻一代的六大高手，无双剑道奇才，无心佛法六通！",
        "docid": "7274934521513509433",
        "url": "https://www.ixigua.com/7274934521513509433"
    },
    {
        "title": "破防了",
        "docid": "7307837354981622312",
        "url": "https://www.ixigua.com/7307837354981622312"
    },
    {
        "title": "动画界有四大挂壁，要论的实力最强最离谱，那肯定是优雅的德鲁比",
        "docid": "7281841439351407143",
        "url": "https://www.ixigua.com/7281841439351407143"
    },
    {
        "title": "少数人才知的20年前魅力老番！这大姐姐太吸睛了！",
        "docid": "7307262290032755234",
        "url": "https://www.ixigua.com/7307262290032755234"
    },
    {
        "title": "这么可爱，一定是个没危险的男孩子吧#全职猎人",
        "docid": "7281279082959438394",
        "url": "https://www.ixigua.com/7281279082959438394"
    },
    {
        "title": "打了一个五常 害怕报复 于是把另外四个也打了",
        "docid": "7287831450966032930",
        "url": "https://www.ixigua.com/7287831450966032930"
    },
    {
        "title": "漫画：你眼中的自己和爸妈眼中的你！",
        "docid": "7285682989600784908",
        "url": ""
    },
    {
        "title": "曾经的同学成为了异世界大BOSS#超好看的动漫推荐",
        "docid": "7307409708367741467",
        "url": "https://www.ixigua.com/7307409708367741467"
    },
    {
        "title": "完美世界：他是荒天帝石昊的挚友，每世都在挖坟只为找到石昊",
        "docid": "7276241067878384163",
        "url": "https://www.ixigua.com/7276241067878384163"
    },
    {
        "title": "谁是神里凌华的狗？",
        "docid": "7308051655205847578",
        "url": "https://www.ixigua.com/7308051655205847578"
    },
    {
        "title": "兵主部一兵卫对战友哈巴赫",
        "docid": "7285186046130651663",
        "url": "https://www.ixigua.com/7285186046130651663"
    },
    {
        "title": "男主的千里马坐骑化形后，竟变成了一位绝世美女",
        "docid": "7305907473704026676",
        "url": "https://www.ixigua.com/7305907473704026676"
    },
    {
        "title": "一则漫画告诉你，这样发朋友圈的，99%是绿茶！",
        "docid": "7296119110834946587",
        "url": ""
    },
    {
        "title": "为满足男友的需求，13岁女孩差点送命，这不是爱情，而是性和犯罪",
        "docid": "7307453620667548175",
        "url": ""
    },
    {
        "title": "人性漫画《手机里的视频》",
        "docid": "7305331171419341366",
        "url": ""
    },
    {
        "title": "十二生肖巨兽版",
        "docid": "7298510626476032527",
        "url": ""
    },
    {
        "title": "便利店女孩1-4",
        "docid": "7307617093221351951",
        "url": ""
    },
    {
        "title": "情侣间“最无解”的问题之一：你介意女友和别人同居过吗？",
        "docid": "7284948101033542180",
        "url": ""
    },
    {
        "title": "十二生肖机甲战士",
        "docid": "7298511556067951104",
        "url": ""
    },
    {
        "title": "猛兽派对，简约手机壁纸！搭配头像萌起来！",
        "docid": "7292054099510657571",
        "url": ""
    },
    {
        "title": "外遇都是“偶然”发生的吗？不，是蓄谋已久！（漫画讲述）",
        "docid": "7274815899159380492",
        "url": ""
    },
    {
        "title": "“都用上AI了，三天的任务，现在给你半天！”",
        "docid": "7297534309396202023",
        "url": ""
    },
    {
        "title": "成年人的友谊，一剪刀下去就没有了！（漫画）",
        "docid": "7293771833160057344",
        "url": ""
    },
    {
        "title": "手机壁纸",
        "docid": "7298550683014578697",
        "url": ""
    },
    {
        "title": "治愈头像 ～ 做自己的女王，活出自己的姿态。",
        "docid": "7307103021123682843",
        "url": ""
    },
    {
        "title": "高清壁纸分享：我爱你，中国🇨🇳",
        "docid": "7283838774642393656",
        "url": ""
    },
    {
        "title": "最美雪地治愈系壁纸",
        "docid": "7305722392130126399",
        "url": ""
    },
    {
        "title": "别人的30岁vs我的30岁",
        "docid": "7305368038290604554",
        "url": ""
    },
    {
        "title": "美图：自由的绿色",
        "docid": "7293424483182903845",
        "url": ""
    },
    {
        "title": "动画《舒克贝塔·五角飞碟》定档12月30日，改编自郑渊洁经典IP",
        "docid": "7307494190336770595",
        "url": ""
    },
    {
        "title": "被公认 最纯净 的手机壁纸",
        "docid": "7279678154644488738",
        "url": ""
    },
    {
        "title": "天子传奇Ⅵ洪武大帝[黄玉郎][谁在乎版][186全]",
        "docid": "7307495275302633993",
        "url": ""
    },
    {
        "title": "排球少年（清晰版）第60话",
        "docid": "7307506886445056563",
        "url": ""
    },
    {
        "title": "三体沉浸式艺术展亮相成都东郊记忆 幻迷打卡“声光电”科幻盛宴",
        "docid": "7307923566937260556",
        "url": ""
    },
    {
        "title": "挖孔屏手机壁纸",
        "docid": "7303410284872794639",
        "url": ""
    },
    {
        "title": "假如战斗机会说话：当米格-15遇到歼-20，一句话令人泪目",
        "docid": "7300038324843332096",
        "url": ""
    },
    {
        "title": "卡通壁纸｜可爱的胖虎",
        "docid": "7296365826608087604",
        "url": ""
    },
    {
        "title": "全国最大同人展延期，线下“次元壁”怎么破？",
        "docid": "7307426818108178971",
        "url": ""
    },
    {
        "title": "福禄头像，萌娃接福",
        "docid": "7281942571252204043",
        "url": ""
    },
    {
        "title": "龙珠全彩漫画451 452回 悟空突然爆气也戈瞬间爆炸 悟饭对战达普拉",
        "docid": "7307065351689585164",
        "url": ""
    },
    {
        "title": "如何参与“蜡笔小新：新次元”投资与制片？中方制片人揭秘幕后故事",
        "docid": "7307451165682303499",
        "url": ""
    },
    {
        "title": "壁纸搬运",
        "docid": "7277439287237624372",
        "url": ""
    },
    {
        "title": "（图表·漫画）［漫话图说］小璇绘生活·寒冬里的“暖经济”",
        "docid": "7308167193840566794",
        "url": ""
    },
    {
        "title": "《蜡笔小新》正在热映 日方制片人：哪个国家的父母都会对5岁的孩子感到棘手",
        "docid": "7307453721728811572",
        "url": ""
    },
    {
        "title": "古人漫画句句有理又分外搞笑",
        "docid": "7294780917690745370",
        "url": ""
    },
    {
        "title": "幽默漫画图，满地的芝麻一样的小事，足以让人崩溃",
        "docid": "7278570546496717353",
        "url": ""
    },
    {
        "title": "被电影蜡笔小新整破防了！网友评论区更是破大防！",
        "docid": "7307187607476322868",
        "url": ""
    },
    {
        "title": "快乐人生，八九不离食",
        "docid": "7305764312965399055",
        "url": ""
    },
    {
        "title": "教师节快乐！粉笔画回忆老师的经典语录，你记得哪句？",
        "docid": "7277005513827582476",
        "url": ""
    },
    {
        "title": "好吃又好看！手绘家乡特产，你最中意哪一款",
        "docid": "7281899693104497193",
        "url": ""
    },
    {
        "title": "可爱的小猫咪头像",
        "docid": "7285183684213260854",
        "url": ""
    },
    {
        "title": "（图表·漫画）［全国交通安全日］文明交通伴我行",
        "docid": "7307968684336169499",
        "url": ""
    },
    {
        "title": "“性教育”有必要普及吗？漫画科普，家长们进来看看",
        "docid": "7277384963782279720",
        "url": ""
    },
    {
        "title": "美图：双手合十，愿你心无挂碍，平安喜乐",
        "docid": "7284688211849396793",
        "url": ""
    },
    {
        "title": "铁臂阿童木 第六卷（上）",
        "docid": "7308170387416744475",
        "url": ""
    },
    {
        "title": "老夫子漫画193",
        "docid": "7307409967928164902",
        "url": ""
    },
    {
        "title": "龙珠全彩系列433 棋逢对手，悟天vs特南克斯(一)",
        "docid": "7308175359839781391",
        "url": ""
    },
    {
        "title": "铁臂阿童木 第六卷（下）",
        "docid": "7308171321735774771",
        "url": ""
    },
    {
        "title": "那些目睹了家暴的孩子，后来怎么样了？漫画揭晓一个女孩的经历",
        "docid": "7278931887685796386",
        "url": ""
    },
    {
        "title": "宫崎骏动画里的海盗都这么可爱",
        "docid": "7292585346062123561",
        "url": ""
    },
    {
        "title": "变形金刚 G1 内战三部曲 之 独裁第3章",
        "docid": "7308174412547965450",
        "url": ""
    },
    {
        "title": "“中年油腻大叔”标准或公布？漫画：对照一看，你占了几个？",
        "docid": "7307972156783837723",
        "url": ""
    },
    {
        "title": "【漫画】我以为在奶茶店遇到真“爱”……",
        "docid": "7307425410734916111",
        "url": ""
    },
    {
        "title": "新华全媒+丨全国交通安全日",
        "docid": "7307950663181320739",
        "url": ""
    },
    {
        "title": "【邪煞降尘】耗时200小时制作完成，挑战你们看不完的极限！",
        "docid": "7280778849363689984",
        "url": "https://www.ixigua.com/7280778849363689984"
    },
    {
        "title": "一断剑，一少年，十年一日，一朝苏醒，众生朝拜，苍天臣服！",
        "docid": "7279773920130138685",
        "url": "https://www.ixigua.com/7279773920130138685"
    },
    {
        "title": "本人在“岷猫恋阿凡”这个账号也发过同类视频",
        "docid": "7307880332190188058",
        "url": "https://www.ixigua.com/7307880332190188058"
    },
    {
        "title": "2022",
        "docid": "7307904928398180875",
        "url": "https://www.ixigua.com/7307904928398180875"
    },
    {
        "title": "毕业发老婆全民婚配的世界，每人都可以进入婚配房里挑选一位伴侣",
        "docid": "7288486154008166952",
        "url": "https://www.ixigua.com/7288486154008166952"
    },
    {
        "title": "故人相逢不相识，他是你等了千年的人啊#动漫 #二次元",
        "docid": "7276032305012212239",
        "url": "https://www.ixigua.com/7276032305012212239"
    },
    {
        "title": "悬挂着急",
        "docid": "7308170705429299751",
        "url": "https://www.ixigua.com/7308170705429299751"
    },
    {
        "title": "不过审的话我重发一下",
        "docid": "7307959987261833754",
        "url": "https://www.ixigua.com/7307959987261833754"
    },
    {
        "title": "将巨人推上顶峰的一段，文戏武戏双绝，艾尔文团长牺牲",
        "docid": "7302329800327496227",
        "url": "https://www.ixigua.com/7302329800327496227"
    },
    {
        "title": "《御兽喵喵》第二集在7分45秒开始#御兽喵喵后续 #男生必看",
        "docid": "7277739545041306172",
        "url": "https://www.ixigua.com/7277739545041306172"
    },
    {
        "title": "坚持每周末更新😄",
        "docid": "7307970499819405851",
        "url": "https://www.ixigua.com/7307970499819405851"
    },
    {
        "title": "情侣头像｜最高级的拿捏，是不在意",
        "docid": "7307834048934707762",
        "url": ""
    },
    {
        "title": "黑猫警长和他的小伙伴们一起带你学反诈",
        "docid": "7308192352517292595",
        "url": ""
    },
    {
        "title": "筑梦师手机超清壁纸231203——第214期（12P）",
        "docid": "7308190357710176783",
        "url": ""
    },
    {
        "title": "🥳雷公马来啦！“海南文明形象IP”发布→",
        "docid": "7307494676087636507",
        "url": ""
    },
    {
        "title": "铁臂阿童木 第十卷（上）",
        "docid": "7308176663903224371",
        "url": ""
    },
    {
        "title": "龙珠全彩系列438 抽签确定，悟空贝吉塔首战同组",
        "docid": "7308188322604876322",
        "url": ""
    },
    {
        "title": "变形金刚 G1 内战三部曲 之 独裁第7章",
        "docid": "7308175360305791525",
        "url": ""
    },
    {
        "title": "变形金刚 G1 内战三部曲 之 独裁第5章",
        "docid": "7308174917717983794",
        "url": ""
    },
    {
        "title": "铁臂阿童木 第九卷（上）",
        "docid": "7308175938788180490",
        "url": ""
    },
    {
        "title": "铁臂阿童木 第八卷（下）",
        "docid": "7308172934517293618",
        "url": ""
    },
    {
        "title": "龙珠全彩系列437 神秘的二人，他们是谁？",
        "docid": "7308186472782266914",
        "url": ""
    },
    {
        "title": "书包女生都可以做任务吗？",
        "docid": "7308016184564122127",
        "url": "https://www.ixigua.com/7308016184564122127"
    },
    {
        "title": "是不是被封面吸引过来了",
        "docid": "7307888618117268018",
        "url": "https://www.ixigua.com/7307888618117268018"
    },
    {
        "title": "祭司这个联名日漫的皮肤好好看，可能还会是双形态呢#红发的魔女",
        "docid": "7308194231271719436",
        "url": "https://www.ixigua.com/7308194231271719436"
    },
    {
        "title": "汉字的优越性岂是他国语言能比的！",
        "docid": "7284228500406567439",
        "url": "https://www.ixigua.com/7284228500406567439"
    },
    {
        "title": "我是格鲁特第二季，格鲁特实在是太可爱了",
        "docid": "7275890058467639865",
        "url": "https://www.ixigua.com/7275890058467639865"
    },
    {
        "title": "阳光的女孩",
        "docid": "7307899009505591860",
        "url": "https://www.ixigua.com/7307899009505591860"
    },
    {
        "title": "历史上难道只有灭佛而没有灭道吗！",
        "docid": "7296403145788228146",
        "url": "https://www.ixigua.com/7296403145788228146"
    },
    {
        "title": "云贵川渝什么都可以说，就是不可以说折耳根！#原创视频",
        "docid": "7281590464258998823",
        "url": "https://www.ixigua.com/7281590464258998823"
    },
    {
        "title": "成长是一种人脱离幼稚变得成熟的过程，或者不只是其他方面的等等",
        "docid": "7308181954950922802",
        "url": "https://www.ixigua.com/7308181954950922802"
    },
    {
        "title": "国漫女神混剪｜奉眠  小舞",
        "docid": "7307814223839494694",
        "url": "https://www.ixigua.com/7307814223839494694"
    },
    {
        "title": "叶倾仙，叶天帝最喜爱的嫡系后代",
        "docid": "7279943558218383924",
        "url": "https://www.ixigua.com/7279943558218383924"
    },
    {
        "title": "魅惑水妖吉巴罗，全身长满珠宝和黄金，专门用歌声蛊惑人心",
        "docid": "7296788925778297379",
        "url": "https://www.ixigua.com/7296788925778297379"
    },
    {
        "title": "可动纸片人。",
        "docid": "7308185825039090217",
        "url": "https://www.ixigua.com/7308185825039090217"
    },
    {
        "title": "海贼王：现今最强确实是赤犬！凯多十棒不如冥狗一拳",
        "docid": "7279447550636556861",
        "url": "https://www.ixigua.com/7279447550636556861"
    },
    {
        "title": "战败的下场",
        "docid": "7306844902791316008",
        "url": "https://www.ixigua.com/7306844902791316008"
    },
    {
        "title": "好看的头像",
        "docid": "7307998181478892095",
        "url": "https://www.ixigua.com/7307998181478892095"
    },
    {
        "title": "贝利亚欺负小赛罗三兄弟，结果弄巧成拙 \"奥特曼 \"少儿动漫",
        "docid": "7308127572083081738",
        "url": "https://www.ixigua.com/7308127572083081738"
    },
    {
        "title": "孙悟空挑战芭朵斯#龙珠 #二次元 #动漫",
        "docid": "7304940501311062578",
        "url": "https://www.ixigua.com/7304940501311062578"
    },
    {
        "title": "娱乐圈最大的bug五条人，淘汰无数次都会复活，音综经典！",
        "docid": "7293896370204312104",
        "url": "https://www.ixigua.com/7293896370204312104"
    },
    {
        "title": "沉睡50年。一觉醒来，我有三个老大儿。#原创动画 #沙雕动画",
        "docid": "7307440235154309641",
        "url": "https://www.ixigua.com/7307440235154309641"
    },
    {
        "title": "《环太平洋2》机甲全盘点，最强机甲竟是由私人制造？",
        "docid": "7307920347817394724",
        "url": ""
    },
    {
        "title": "当代打工人的反骨",
        "docid": "7308160145714872870",
        "url": ""
    },
    {
        "title": "姓氏文字头像分享",
        "docid": "7308230884946215459",
        "url": ""
    },
    {
        "title": "12月的壁纸礼物快来签收",
        "docid": "7308225450621288996",
        "url": ""
    },
    {
        "title": "漫画国门｜红嘴鸥“飞”到了磨憨",
        "docid": "7308217746574541362",
        "url": ""
    },
    {
        "title": "除了“迪迦”能叫出来的名字少之又少",
        "docid": "7308208645559583269",
        "url": ""
    },
    {
        "title": "海贼王：五老星萨坦的果实究竟有多强！幻兽种牛鬼都有哪些能力？",
        "docid": "7286468516243964471",
        "url": "https://www.ixigua.com/7286468516243964471"
    },
    {
        "title": "全职猎人中最凄惨的画面，蚁后临死前依然牵挂蚁王，并为蚁王取名",
        "docid": "7292339854070710796",
        "url": "https://www.ixigua.com/7292339854070710796"
    },
    {
        "title": "这便是它国漫封神的原因吧，世界冲突不断的今天，台词句句炸裂！",
        "docid": "7300140613960532489",
        "url": "https://www.ixigua.com/7300140613960532489"
    },
    {
        "title": "万恶之源之 哈基米 哈基米",
        "docid": "7284084182061023800",
        "url": "https://www.ixigua.com/7284084182061023800"
    },
    {
        "title": "黑丝2",
        "docid": "7308195561856107044",
        "url": "https://www.ixigua.com/7308195561856107044"
    },
    {
        "title": "那不勒斯迎战国米……#搞笑 #沙雕动画 #意甲 #那不勒斯",
        "docid": "7308177304172102183",
        "url": "https://www.ixigua.com/7308177304172102183"
    },
    {
        "title": "没有一个男生会拒绝这样落地！",
        "docid": "7287843312403546664",
        "url": "https://www.ixigua.com/7287843312403546664"
    },
    {
        "title": "玩金花时这是我见过胆子最大的！",
        "docid": "7274925206219850300",
        "url": "https://www.ixigua.com/7274925206219850300"
    },
    {
        "title": "切尔西能否拿下布莱顿……#搞笑 #沙雕动画 #英超 #切尔西",
        "docid": "7308156374108766783",
        "url": "https://www.ixigua.com/7308156374108766783"
    },
    {
        "title": "当你“窜稀”时，身体各个器官会聊啥？漫画揭露：「拉肚子」全程",
        "docid": "7307946883744612864",
        "url": ""
    },
    {
        "title": "《呆呆和瓜瓜》漫画201-210",
        "docid": "7307531819720016425",
        "url": ""
    },
    {
        "title": "盘点海贼王中日美三国的打码方式！还是国内更照顾海迷",
        "docid": "7290866823354909219",
        "url": "https://www.ixigua.com/7290866823354909219"
    },
    {
        "title": "你永远可以相信蜡笔小新的审美，盘点蜡笔小新提到过的日星美女",
        "docid": "7296437455618736691",
        "url": "https://www.ixigua.com/7296437455618736691"
    },
    {
        "title": "生日快乐 🥰🥳，天豪，你潇洒😎 哦吼，开心点😆",
        "docid": "7308207837262381603",
        "url": "https://www.ixigua.com/7308207837262381603"
    },
    {
        "title": "傻逼",
        "docid": "7307916240948101666",
        "url": "https://www.ixigua.com/7307916240948101666"
    },
    {
        "title": "仙逆：节奏做的快的原因，却因为无数网友说过的一句话!",
        "docid": "7283719612586263051",
        "url": "https://www.ixigua.com/7283719612586263051"
    },
    {
        "title": "佐助实力不弱吧，那他是怎么做到总能找到比自己强的人挑战呢",
        "docid": "7291693935502557748",
        "url": "https://www.ixigua.com/7291693935502557748"
    },
    {
        "title": "以前与现在神仙“腾云驾雾”对比，这简直是降维打击啊",
        "docid": "7281818607171043898",
        "url": "https://www.ixigua.com/7281818607171043898"
    },
    {
        "title": "拟人小灰 >:]",
        "docid": "7307916781878936102",
        "url": "https://www.ixigua.com/7307916781878936102"
    },
    {
        "title": "吞噬星空",
        "docid": "7284447269343265320",
        "url": "https://www.ixigua.com/7284447269343265320"
    },
    {
        "title": "你见过能拍飞金刚的圣虎吗？盘点骷髅岛上最可怕的打酱油怪兽！",
        "docid": "7285675670846308923",
        "url": "https://www.ixigua.com/7285675670846308923"
    },
    {
        "title": "8.6分完结！《凡人》过后“最好3D玄幻”？国漫又行了",
        "docid": "7305413763002483234",
        "url": ""
    },
    {
        "title": "黑袍纠察队第四季首支预告 慈眉善目的阿祖 屠夫：是高手大家快退",
        "docid": "7308195036460794378",
        "url": ""
    },
    {
        "title": "全彩漫画 七种武器第六十三卷",
        "docid": "7308253395025625637",
        "url": ""
    },
    {
        "title": "陈婆婆的蜕变7",
        "docid": "7307849681387160116",
        "url": ""
    },
    {
        "title": "假面骑士、奥特曼、超级战队 近1000m超英雄“魂”再聚申城",
        "docid": "7308248638868849171",
        "url": ""
    },
    {
        "title": "全彩漫画 七种武器第六十四卷",
        "docid": "7308253640953872933",
        "url": ""
    },
    {
        "title": "最强人类第一次出门就遭遇世界终极BOSS，打输后误以为自己很菜",
        "docid": "7286756164862214671",
        "url": "https://www.ixigua.com/7286756164862214671"
    },
    {
        "title": "一人之下：不愧是大慈大悲肖自在，修炼这一身的佛门功法",
        "docid": "7276817222356599311",
        "url": "https://www.ixigua.com/7276817222356599311"
    },
    {
        "title": "年底了，稍微总结一下：穷得很稳定😮‍💨",
        "docid": "7306800412231811594",
        "url": ""
    },
    {
        "title": "头像背景图更新了",
        "docid": "7308262913448378895",
        "url": ""
    },
    {
        "title": "这部不存在的动画你看过吗？",
        "docid": "7280874267225522744",
        "url": "https://www.ixigua.com/7280874267225522744"
    },
    {
        "title": "三年动画之巴拉拉老魔仙",
        "docid": "7302389741742195241",
        "url": "https://www.ixigua.com/7302389741742195241"
    },
    {
        "title": "[4k60帧]原神莫娜cos",
        "docid": "7308271513608978980",
        "url": "https://www.ixigua.com/7308271513608978980"
    },
    {
        "title": "中二也要恋爱，六花混剪，百看不厌。",
        "docid": "7308259341860078092",
        "url": "https://www.ixigua.com/7308259341860078092"
    },
    {
        "title": "《二级财政城市》#沙雕动画 #江苏十三太保 #江苏",
        "docid": "7303403581514875428",
        "url": "https://www.ixigua.com/7303403581514875428"
    },
    {
        "title": "今年最流行的可爱表情包，背后的故事到底有多黑暗？",
        "docid": "7308266625445446159",
        "url": ""
    },
    {
        "title": "预祝18岁的自己12.5生日快乐🎂#五等分的花嫁 #二次元#中野一家",
        "docid": "7308212981484454438",
        "url": "https://www.ixigua.com/7308212981484454438"
    },
    {
        "title": "赖皮蛇的大结局，他被龙角反噬，肉身炸毁，称为一条毒龙",
        "docid": "7294188395578950178",
        "url": "https://www.ixigua.com/7294188395578950178"
    },
    {
        "title": "姑娘你是那家神仙",
        "docid": "7308261742633550345",
        "url": "https://www.ixigua.com/7308261742633550345"
    },
    {
        "title": "春丽",
        "docid": "7308232699687698982",
        "url": "https://www.ixigua.com/7308232699687698982"
    },
    {
        "title": "零番队“眼和尚”的实力究竟有多强",
        "docid": "7285154303504417341",
        "url": "https://www.ixigua.com/7285154303504417341"
    },
    {
        "title": "惹谁都不要惹兔子，兔子惹不起啊#沙雕动画 #搞笑 #地球村",
        "docid": "7287059204827939382",
        "url": "https://www.ixigua.com/7287059204827939382"
    },
    {
        "title": "超酷男人头像|哥，告诉你，认真工作的男人最迷人",
        "docid": "7307640787884474880",
        "url": ""
    },
    {
        "title": "阿衰漫画全集连载（5）",
        "docid": "7308283000071127587",
        "url": ""
    },
    {
        "title": "“白云禅师，一个可以单刷兰若寺的人”#混剪 #一定要看到最后",
        "docid": "7301104538566853130",
        "url": "https://www.ixigua.com/7301104538566853130"
    },
    {
        "title": "什么？没看过瘾，那就再来一期！【庞然大物的压迫感】",
        "docid": "7276399151133721124",
        "url": "https://www.ixigua.com/7276399151133721124"
    },
    {
        "title": "值得长期不换的头像。",
        "docid": "7308291278431748660",
        "url": "https://www.ixigua.com/7308291278431748660"
    },
    {
        "title": "盘点超好听的高潮BGM",
        "docid": "7308241230419198500",
        "url": "https://www.ixigua.com/7308241230419198500"
    },
    {
        "title": "石昊遭重创，二秃子：这是我兄弟 你们天人族想找死吗",
        "docid": "7280881482364224041",
        "url": "https://www.ixigua.com/7280881482364224041"
    },
    {
        "title": "魔兽10.2最新动画",
        "docid": "7294073714948506164",
        "url": "https://www.ixigua.com/7294073714948506164"
    },
    {
        "title": "娱乐搞笑的沙雕（唢呐的威力）让你笑口常开！",
        "docid": "7281808396540445221",
        "url": "https://www.ixigua.com/7281808396540445221"
    },
    {
        "title": "路飞从3000万到30亿的悬赏金上涨历程，众人得知后反应各有不同！",
        "docid": "7285517978446234123",
        "url": "https://www.ixigua.com/7285517978446234123"
    },
    {
        "title": "活了120年的老头，被人打断手脚后，实力竟从回巅峰",
        "docid": "7303922020398563890",
        "url": "https://www.ixigua.com/7303922020398563890"
    },
    {
        "title": "变形金刚中的资深绿叶——通天晓",
        "docid": "7308220002572960295",
        "url": ""
    },
    {
        "title": "铁臂阿童木 第十六卷（上）",
        "docid": "7308301707329569330",
        "url": ""
    },
    {
        "title": "时评之道·星访谈²º²³ | ⑨韩羽儿：漫画评论是“用漫画去讲道理”",
        "docid": "7308298582489465378",
        "url": ""
    },
    {
        "title": "铁臂阿童木 第十二卷（下）",
        "docid": "7308185552501654066",
        "url": ""
    },
    {
        "title": "一口气看完沙雕搞笑动漫！唐僧第一次遇到孙悟空事件!搞笑",
        "docid": "7307282848661766695",
        "url": "https://www.ixigua.com/7307282848661766695"
    },
    {
        "title": "一口气看完超火漫画《重生之神级败家》时长2小时56分钟",
        "docid": "7307886528297239092",
        "url": "https://www.ixigua.com/7307886528297239092"
    },
    {
        "title": "铁臂阿童木 第十五卷（下）",
        "docid": "7308301252113646117",
        "url": ""
    },
    {
        "title": "极恶老大同人图",
        "docid": "7308292919633543721",
        "url": "https://www.ixigua.com/7308292919633543721"
    },
    {
        "title": "种花家的神曲  你们觉得谁唱得好听",
        "docid": "7293439587203547686",
        "url": "https://www.ixigua.com/7293439587203547686"
    },
    {
        "title": "爆笑！《集体撩妹》整个流水线都在泡妞，一个比一个厉害",
        "docid": "7276272304374415931",
        "url": "https://www.ixigua.com/7276272304374415931"
    },
    {
        "title": "曼联客场被零封，腾嗨妙计伤波普……#搞笑 #沙雕动画 #曼联",
        "docid": "7308298325823291923",
        "url": "https://www.ixigua.com/7308298325823291923"
    },
    {
        "title": "妙蛙种子爆笑进化，杰尼龟本想用小水枪帮忙，结果反倒害了自己",
        "docid": "7287866061964837413",
        "url": "https://www.ixigua.com/7287866061964837413"
    },
    {
        "title": "【画质修复】我感觉到雷欧仿佛一脚踢到了我的脸上！",
        "docid": "7275708692505625148",
        "url": "https://www.ixigua.com/7275708692505625148"
    },
    {
        "title": "漫画段子，男人女人离婚情绪的走向，你看懂了吗？涨知识了！",
        "docid": "7308150920934900261",
        "url": ""
    },
    {
        "title": "超清全彩版哆啦A梦第十八卷（下）",
        "docid": "7308322332056044042",
        "url": ""
    },
    {
        "title": "阿童木会流泪吗？",
        "docid": "7308321723362296383",
        "url": ""
    },
    {
        "title": "共赴云山花开，2023广州簕杜鹃花展来啦",
        "docid": "7308315654677873192",
        "url": ""
    },
    {
        "title": "超清全彩版哆啦A梦第十九卷（下）",
        "docid": "7308323043284435466",
        "url": ""
    },
    {
        "title": "2023年国创动画发布会给出了68部新作，以下13部强烈推荐收藏！",
        "docid": "7283799740247081530",
        "url": "https://www.ixigua.com/7283799740247081530"
    },
    {
        "title": "当电话卡实名制以后#看一遍笑一遍 #沙雕动画 #原创动画",
        "docid": "7283815289962594873",
        "url": "https://www.ixigua.com/7283815289962594873"
    },
    {
        "title": "蛋仔派对头像",
        "docid": "7308296482439102976",
        "url": "https://www.ixigua.com/7308296482439102976"
    },
    {
        "title": "旧时小院，有意境",
        "docid": "7307938465114112575",
        "url": ""
    },
    {
        "title": "盘点十部靠抄袭出名的国产动画！每一部都在刷新我们认知的底线！",
        "docid": "7275312138791420451",
        "url": "https://www.ixigua.com/7275312138791420451"
    },
    {
        "title": "推荐五部高质量CG动画大电影",
        "docid": "7304202571332190735",
        "url": "https://www.ixigua.com/7304202571332190735"
    },
    {
        "title": "第一集 , 剑来 ！",
        "docid": "7282725895163347492",
        "url": "https://www.ixigua.com/7282725895163347492"
    },
    {
        "title": "必须 团结一致，为了联盟！#科幻 #超燃 #燃剪 #震撼场面 #魔兽CG",
        "docid": "7297563199925289512",
        "url": "https://www.ixigua.com/7297563199925289512"
    },
    {
        "title": "为什么说朋友圈，千万不要设置三天可见？漫画揭晓真相",
        "docid": "7308333126466667034",
        "url": ""
    },
    {
        "title": "佛系头像|放下执念，才得自在",
        "docid": "7296088531347669542",
        "url": ""
    },
    {
        "title": "日漫在国内为何人气越来越低了？平台是关键，国漫已经不输日漫了",
        "docid": "7304111294540448307",
        "url": ""
    },
    {
        "title": "男司机VS女司机，太经典了",
        "docid": "7308328230002835995",
        "url": ""
    },
    {
        "title": "超清全彩版哆啦A梦第二十卷（下）",
        "docid": "7308323730529518089",
        "url": ""
    },
    {
        "title": "壁纸搬运工（十五）黄色壁纸",
        "docid": "7308323811462840895",
        "url": ""
    },
    {
        "title": "50余位原创绘本专家齐聚一堂 来看看他们眼中的璧山",
        "docid": "7308326107248460342",
        "url": ""
    },
    {
        "title": "回忆我的童年（通灵王3-9）",
        "docid": "7308323560354529819",
        "url": ""
    },
    {
        "title": "我在暗网买了一条狗，它的口味很特别",
        "docid": "7301244173066174976",
        "url": "https://www.ixigua.com/7301244173066174976"
    },
    {
        "title": "大灰狼：“听说你穿靴子的猫命很硬” #4k60帧 #影视剪辑",
        "docid": "7304596522006970889",
        "url": "https://www.ixigua.com/7304596522006970889"
    },
    {
        "title": "不要发6我会读成love you",
        "docid": "7308308606112236067",
        "url": "https://www.ixigua.com/7308308606112236067"
    },
    {
        "title": "我开局震惊了女帝",
        "docid": "7308317744959750682",
        "url": "https://www.ixigua.com/7308317744959750682"
    },
    {
        "title": "盘点被作业耽误的神仙嗓音,没想到一开口个个都是王者",
        "docid": "7278272512809501203",
        "url": "https://www.ixigua.com/7278272512809501203"
    },
    {
        "title": "她本为寻荒帮忙而来，最后却为救荒而死",
        "docid": "7301700409377325620",
        "url": "https://www.ixigua.com/7301700409377325620"
    },
    {
        "title": "#斗罗大陆 3分20秒带你欣赏斗罗一重制版结局中的高燃魂技！",
        "docid": "7307908258491335220",
        "url": "https://www.ixigua.com/7307908258491335220"
    },
    {
        "title": "【无pdd】【人声配音】仙子竟一边和师兄对话一边被采补？",
        "docid": "7307572118978626074",
        "url": "https://www.ixigua.com/7307572118978626074"
    },
    {
        "title": "阳光开朗大男孩加。羊村守护者6等于。阳光开朗喜 羊羊。等下一期",
        "docid": "7308265793761116726",
        "url": "https://www.ixigua.com/7308265793761116726"
    },
    {
        "title": "黑丝3",
        "docid": "7308197840189293092",
        "url": "https://www.ixigua.com/7308197840189293092"
    },
    {
        "title": "真实的啃老：独自去大城市打拼，掏空家底，在大城市买个小房小车",
        "docid": "7295179754259350026",
        "url": "https://www.ixigua.com/7295179754259350026"
    },
    {
        "title": "灌篮高手",
        "docid": "7282017298238734889",
        "url": "https://www.ixigua.com/7282017298238734889"
    },
    {
        "title": "你们会选谁呢",
        "docid": "7308240272192864783",
        "url": "https://www.ixigua.com/7308240272192864783"
    },
    {
        "title": "“小小世界开心至上啦啦啦啦啦”已魔怔#动漫剪辑",
        "docid": "7308245832065614348",
        "url": "https://www.ixigua.com/7308245832065614348"
    },
    {
        "title": "妙音门集结众结丹修士围剿极阴岛#凡人修仙传",
        "docid": "7307835907800269349",
        "url": "https://www.ixigua.com/7307835907800269349"
    },
    {
        "title": "机甲才是男生最爱的！",
        "docid": "7308300241269326372",
        "url": "https://www.ixigua.com/7308300241269326372"
    },
    {
        "title": "王者不一般：好消息！无皮村村长出村了，坏消息！是副村长！",
        "docid": "7281916791922786852",
        "url": "https://www.ixigua.com/7281916791922786852"
    },
    {
        "title": "不同收入的男人对待买车的态度，最后不挣钱的最牛！",
        "docid": "7278242302907286027",
        "url": "https://www.ixigua.com/7278242302907286027"
    },
    {
        "title": "失去第一次后，女孩被所有人唾弃，从此患上怪病，从此陷入阴霾",
        "docid": "7304846670553219619",
        "url": ""
    },
    {
        "title": "盘点《龙珠》雅木茶主要技能，拳脚气功全能，泡妞玩梗NO.1",
        "docid": "7308338748327068179",
        "url": ""
    },
    {
        "title": "产业·观察｜阅文集团发布“恒星计划”为潜力作品提供前置IP孵化支持",
        "docid": "7308367998732141110",
        "url": ""
    },
    {
        "title": "《枕刀歌》动画第二季定档12月5日，共14集，超燃硬派武侠回归！",
        "docid": "7308362404294296115",
        "url": ""
    },
    {
        "title": "不想展示的车牌 原声@刚刷的墙  #沙雕动画 #豫村杂闻 #浙江",
        "docid": "7287507791013478948",
        "url": "https://www.ixigua.com/7287507791013478948"
    },
    {
        "title": "“母慈子孝”",
        "docid": "7284129965254115903",
        "url": "https://www.ixigua.com/7284129965254115903"
    },
    {
        "title": "动漫男生2",
        "docid": "7308347423846466099",
        "url": "https://www.ixigua.com/7308347423846466099"
    },
    {
        "title": "人性的漫画，你敢看吗",
        "docid": "7308176265612100147",
        "url": "https://www.ixigua.com/7308176265612100147"
    },
    {
        "title": "盘点世界评分最高的热血番，《灌篮高手》也只能排倒数？",
        "docid": "7296021055448351286",
        "url": "https://www.ixigua.com/7296021055448351286"
    },
    {
        "title": "一时之错 余生遮眼 能与黑白玄翦平分秋色的典庆",
        "docid": "7280466424500322816",
        "url": "https://www.ixigua.com/7280466424500322816"
    },
    {
        "title": "凝光美图",
        "docid": "7308351018843963938",
        "url": "https://www.ixigua.com/7308351018843963938"
    },
    {
        "title": "壁纸最近怎么都不好看？大家给点图吧，此篇叫全球冰封，",
        "docid": "7308265615108768308",
        "url": "https://www.ixigua.com/7308265615108768308"
    },
    {
        "title": "沧元图：死战不退！宫主有可能活不过下集，孟川老爹即将出世！",
        "docid": "7301948195775611444",
        "url": "https://www.ixigua.com/7301948195775611444"
    },
    {
        "title": "神之谷的传奇少年！得到天龙人最强恶魔果实的蒙其D多拉格！#869",
        "docid": "7295633006210122291",
        "url": "https://www.ixigua.com/7295633006210122291"
    },
    {
        "title": "这才是“顶尖强者”出场该有的排面，简直燃爆了！",
        "docid": "7279333752260526607",
        "url": "https://www.ixigua.com/7279333752260526607"
    },
    {
        "title": "七十二变这么用是吧！（之前限流了，修改了一下重发一遍，抱歉）",
        "docid": "7308241347512074752",
        "url": "https://www.ixigua.com/7308241347512074752"
    },
    {
        "title": "三个完美的继承了无牙仔的沙雕基因#可爱 #治愈",
        "docid": "7295728845653541385",
        "url": "https://www.ixigua.com/7295728845653541385"
    },
    {
        "title": "天才樱木花道山王一战个人集锦，湘北的关键先生，不屈的篮球之魂",
        "docid": "7294602609653252660",
        "url": "https://www.ixigua.com/7294602609653252660"
    }
]