[
    {
        "title": "手机壁纸（86）- 万物皆沙石，唯你是星辰",
        "docid": "7300714369170686498",
        "url": ""
    },
    {
        "title": "一口气看完！热血战斗【进击的巨人】第一季，艾伦为梦想而战",
        "docid": "7302053068181340706",
        "url": "https://www.ixigua.com/7302053068181340706"
    },
    {
        "title": "一口气看完超燃漫画《永远的LV1》，时长3小时17分钟 全程高能",
        "docid": "7287051784407908924",
        "url": "https://www.ixigua.com/7287051784407908924"
    },
    {
        "title": "宫崎骏动画里的海盗都这么可爱",
        "docid": "7292585346062123561",
        "url": ""
    },
    {
        "title": "龙珠：发明弗利沙的人真是个天才",
        "docid": "7276341058458681891",
        "url": "https://www.ixigua.com/7276341058458681891"
    },
    {
        "title": "少年鬼王全集，一口气看完！爆肝动画＋漫画！",
        "docid": "7279817947470955042",
        "url": "https://www.ixigua.com/7279817947470955042"
    },
    {
        "title": "小气猫迎来第一次胜利、五鼠也被新鼠王打入天牢#福五鼠",
        "docid": "7279347923018580516",
        "url": "https://www.ixigua.com/7279347923018580516"
    },
    {
        "title": "看吞噬星空修绝世神功",
        "docid": "7303320174533444159",
        "url": "https://www.ixigua.com/7303320174533444159"
    },
    {
        "title": "鬼灭之刃，猗窝座的气息突然消失了，童磨得知後哭的泣不成声",
        "docid": "7302651008256213516",
        "url": "https://www.ixigua.com/7302651008256213516"
    },
    {
        "title": "佐助实力不弱吧，那他是怎么做到总能找到比自己强的人挑战呢",
        "docid": "7291693935502557748",
        "url": "https://www.ixigua.com/7291693935502557748"
    },
    {
        "title": "一口气看完系列蹲坑版《炼狱法师》",
        "docid": "7299878926711685684",
        "url": "https://www.ixigua.com/7299878926711685684"
    },
    {
        "title": "一口气看完《夜钓奇闻》",
        "docid": "7273045848345608759",
        "url": "https://www.ixigua.com/7273045848345608759"
    },
    {
        "title": "破灭之国，将一个人刚升起的希望再次击碎是什么体验",
        "docid": "7292286687303074356",
        "url": "https://www.ixigua.com/7292286687303074356"
    },
    {
        "title": "一人之下：临时工中最被低估的人就是老孟了吧#一人之下",
        "docid": "7278696879653814836",
        "url": "https://www.ixigua.com/7278696879653814836"
    },
    {
        "title": "斗罗中这些角色的配音演员，居然是同一个人，不可思议！",
        "docid": "7273403180329894400",
        "url": "https://www.ixigua.com/7273403180329894400"
    },
    {
        "title": "圆谷预告骗时刻：雷古洛思长相前后不一，小金牛随意摧毁多元宇宙",
        "docid": "7302428929258684979",
        "url": "https://www.ixigua.com/7302428929258684979"
    },
    {
        "title": "这才叫真正的战甲！飞天遁地刀枪不入，还能变出各式各样的武器",
        "docid": "7280395380863599161",
        "url": "https://www.ixigua.com/7280395380863599161"
    },
    {
        "title": "斗罗大陆第二百六十七集：剑斗罗尘心一人阻拦住五位封号斗罗",
        "docid": "7281298630835700258",
        "url": "https://www.ixigua.com/7281298630835700258"
    },
    {
        "title": "斗罗大陆第二百九十四集：唐三的魂环惊呆天使神千仞雪",
        "docid": "7285604998560514619",
        "url": "https://www.ixigua.com/7285604998560514619"
    },
    {
        "title": "男主天生自带暴食技能，没想却是颠覆法则的BUG天赋！",
        "docid": "7285073677178438203",
        "url": "https://www.ixigua.com/7285073677178438203"
    },
    {
        "title": "时间让我上了年纪 却没让我成为一个合格的大人。",
        "docid": "7286513478075318799",
        "url": ""
    },
    {
        "title": "一口气看完《超级太奶》",
        "docid": "7273051933668016695",
        "url": "https://www.ixigua.com/7273051933668016695"
    },
    {
        "title": "假如《叶罗丽》可以氪金升级装备！",
        "docid": "7303533566514856482",
        "url": "https://www.ixigua.com/7303533566514856482"
    },
    {
        "title": "一六三集：李府令饶了妾身叭……",
        "docid": "7303119323336770082",
        "url": "https://www.ixigua.com/7303119323336770082"
    },
    {
        "title": "西游后传魔罗无天，第1集，当年之事，无天脱困 #原创动画",
        "docid": "7303470091642143273",
        "url": "https://www.ixigua.com/7303470091642143273"
    },
    {
        "title": "【头文字D续作】MF GHOST 第8集（简中版）",
        "docid": "7303383876104094249",
        "url": "https://www.ixigua.com/7303383876104094249"
    },
    {
        "title": "上映2周评分飙到8.5，2023最新喜剧动漫，《蟹群大比拼》！",
        "docid": "7302377587320783386",
        "url": "https://www.ixigua.com/7302377587320783386"
    },
    {
        "title": "鹰酱：谁敢惹我?兔子：我敢！鹰酱：谁敢惹我俩？@大头搞笑动画",
        "docid": "7281867631752118844",
        "url": "https://www.ixigua.com/7281867631752118844"
    },
    {
        "title": "百岁老人竟然暴打年轻小伙",
        "docid": "7303097740391776783",
        "url": "https://www.ixigua.com/7303097740391776783"
    },
    {
        "title": "遮天第一个出现的顶级强者",
        "docid": "7291256211670827556",
        "url": "https://www.ixigua.com/7291256211670827556"
    },
    {
        "title": "嘎后无敌大合集来啦，一次看过瘾",
        "docid": "7270435175270449705",
        "url": "https://www.ixigua.com/7270435175270449705"
    },
    {
        "title": "用假死骗过迪迦,甚至吃掉了所有同类,怪兽加佐特才是真的狠人",
        "docid": "7276776964671668795",
        "url": "https://www.ixigua.com/7276776964671668795"
    },
    {
        "title": "五老星为什么都是老者？恶魔的变身藏了哪些细节？",
        "docid": "7287890614526575144",
        "url": "https://www.ixigua.com/7287890614526575144"
    },
    {
        "title": "看看当年动画的尺度，怪不得无法重制回归荧幕！！#太阳之子",
        "docid": "7293742069875802651",
        "url": "https://www.ixigua.com/7293742069875802651"
    },
    {
        "title": "灵笼中诸位最想得到的女神，荷光者梵蒂！#动漫解说 #国漫 #动漫",
        "docid": "7275891990338732601",
        "url": "https://www.ixigua.com/7275891990338732601"
    },
    {
        "title": "【父子大战01】一个敢于向勇次郎宣战的女人，刃牙的母亲江珠！",
        "docid": "7270887849925444148",
        "url": "https://www.ixigua.com/7270887849925444148"
    },
    {
        "title": "十月新番《不死不幸》第七集",
        "docid": "7302557825106969128",
        "url": "https://www.ixigua.com/7302557825106969128"
    },
    {
        "title": "弗利萨火速赶回基地，发现基纽特战队已经全部死亡！",
        "docid": "7277775394147828284",
        "url": "https://www.ixigua.com/7277775394147828284"
    },
    {
        "title": "火影21《当一尾遇到九尾，除了挨打还被夺爱》",
        "docid": "7303574066819138088",
        "url": "https://www.ixigua.com/7303574066819138088"
    },
    {
        "title": "神作预定！有这一部就不亏！2024年1月新番导视！",
        "docid": "7302648155063976482",
        "url": "https://www.ixigua.com/7302648155063976482"
    },
    {
        "title": "赖皮蛇的大结局，他被龙角反噬，肉身炸毁，称为一条毒龙",
        "docid": "7294188395578950178",
        "url": "https://www.ixigua.com/7294188395578950178"
    },
    {
        "title": "峡谷祸害兰陵王被ban了",
        "docid": "7289006784352617018",
        "url": "https://www.ixigua.com/7289006784352617018"
    },
    {
        "title": "刃牙的鬼脑究竟有多可怕？梢江与刃牙时隔半年再次相见！#动漫",
        "docid": "7270864924078047781",
        "url": "https://www.ixigua.com/7270864924078047781"
    },
    {
        "title": "作为青铜树顶尖战力，拥有不死之身的体质，野吕是不是剧情杀？",
        "docid": "7270794314979279416",
        "url": "https://www.ixigua.com/7270794314979279416"
    },
    {
        "title": "埼玉VS雷神索尔！埼玉被召唤到这里为人类而战！他能打赢索尔吗？",
        "docid": "7274954442900931108",
        "url": "https://www.ixigua.com/7274954442900931108"
    },
    {
        "title": "御剑飞行，外星科技加东方仙法，擎天柱瞬秒威震天",
        "docid": "7283731889846747663",
        "url": "https://www.ixigua.com/7283731889846747663"
    },
    {
        "title": "十月新番：不死之身再次被克制  斯波尔开启第二形态",
        "docid": "7302529200857186852",
        "url": "https://www.ixigua.com/7302529200857186852"
    },
    {
        "title": "仙逆：为何王林最终复活了他的老婆却没有复活他的父母呢？",
        "docid": "7285177559959274039",
        "url": "https://www.ixigua.com/7285177559959274039"
    },
    {
        "title": "斗罗大陆第二百二十九集：唐三火力全开大战99级波赛西",
        "docid": "7277919857197351464",
        "url": "https://www.ixigua.com/7277919857197351464"
    },
    {
        "title": "全世界公认的顶级神作，堪比钢炼与猎人的存在",
        "docid": "7283439952606691899",
        "url": "https://www.ixigua.com/7283439952606691899"
    },
    {
        "title": "肥宅龙的智慧，遇人先别上，凡事要商量 #overlord",
        "docid": "7303488914722193958",
        "url": "https://www.ixigua.com/7303488914722193958"
    },
    {
        "title": "地表最强的勇次郎终于遇到了战国时期的剑圣，两人一见面就开打",
        "docid": "7277499763816628793",
        "url": "https://www.ixigua.com/7277499763816628793"
    },
    {
        "title": "你敢信，这个老六只是设置了一个阵法，竟让整个世界都疯狂了起来",
        "docid": "7302912942079476234",
        "url": "https://www.ixigua.com/7302912942079476234"
    },
    {
        "title": "遮天：老疯子最后达到了什么境界，他对叶凡都有哪些帮助呢",
        "docid": "7283439919136145931",
        "url": "https://www.ixigua.com/7283439919136145931"
    },
    {
        "title": "最懂兔子的莫过于大户",
        "docid": "7295295086294729252",
        "url": "https://www.ixigua.com/7295295086294729252"
    },
    {
        "title": "斗罗大陆第三百一十八集：修罗神唐三归来，实力惊呆比比东",
        "docid": "7288191536334897727",
        "url": "https://www.ixigua.com/7288191536334897727"
    },
    {
        "title": "无天慧眼识三界，为何却找不到十七颗舍利？你看它们藏在啥地方！",
        "docid": "7272257637037802018",
        "url": "https://www.ixigua.com/7272257637037802018"
    },
    {
        "title": "接梗王·晏子~晏子，晏子，没有你我可怎么活呀！",
        "docid": "7294203583711412774",
        "url": "https://www.ixigua.com/7294203583711412774"
    },
    {
        "title": "穿越而来的我惊讶的发现，琦玉的天赋、超人的天赋竟然被划为D级",
        "docid": "7286070257964450339",
        "url": "https://www.ixigua.com/7286070257964450339"
    },
    {
        "title": "重生归来的我觉醒了双职业，死灵法师和神话级职业—黑暗战神！",
        "docid": "7279419913633169939",
        "url": "https://www.ixigua.com/7279419913633169939"
    },
    {
        "title": "凡骨1——48（合集）",
        "docid": "7279490266757759500",
        "url": "https://www.ixigua.com/7279490266757759500"
    },
    {
        "title": "香格里拉・开拓异境～粪作猎手挑战神作～ 第8集【蓝光画质】",
        "docid": "7303100786459738674",
        "url": "https://www.ixigua.com/7303100786459738674"
    },
    {
        "title": "一人之下：机智一批冯宝宝，正规公司哪都通",
        "docid": "7274845819851932216",
        "url": "https://www.ixigua.com/7274845819851932216"
    },
    {
        "title": "第一百三十集︱世界大融合。#希望能火 #沙雕修仙动画 #搞笑",
        "docid": "7303517591396745738",
        "url": "https://www.ixigua.com/7303517591396745738"
    },
    {
        "title": "进击的巨人真人版，虽然剧情改了很多，但是特效还是挺不错的",
        "docid": "7280886533366907432",
        "url": "https://www.ixigua.com/7280886533366907432"
    },
    {
        "title": "全职猎人最诡异的武器，横渡虚空的飞鱼镖，外挂级别的逆天技能",
        "docid": "7294590845792027172",
        "url": "https://www.ixigua.com/7294590845792027172"
    },
    {
        "title": "海贼王21个角色蜡笔小新化，你更看好哪个？",
        "docid": "7303616293960221219",
        "url": ""
    },
    {
        "title": "你强谁都是朋友，开战前鹰酱叫嚣，毛熊不理，打赢了要啥毛熊给啥",
        "docid": "7301650448979591717",
        "url": "https://www.ixigua.com/7301650448979591717"
    },
    {
        "title": "十月新番：芙莉莲一行继续向北，时隔一千年她再次遇到精灵",
        "docid": "7302524321765786149",
        "url": "https://www.ixigua.com/7302524321765786149"
    },
    {
        "title": "生在乱古时代，石昊是如何一步步从大荒崛起到征战上苍_#完美世界",
        "docid": "7295988516314415666",
        "url": "https://www.ixigua.com/7295988516314415666"
    },
    {
        "title": "初代目鬼背范马勇一郎现身！",
        "docid": "7273835719167050240",
        "url": "https://www.ixigua.com/7273835719167050240"
    },
    {
        "title": "一个被老鼠逼进疯人院的大狮子#经典动画#老动画#童年回忆",
        "docid": "7288963949792821820",
        "url": "https://www.ixigua.com/7288963949792821820"
    },
    {
        "title": "第100集：长生青牛！傻柱牛掰！#沙雕修仙动画 #二次元",
        "docid": "7303184020429505065",
        "url": "https://www.ixigua.com/7303184020429505065"
    },
    {
        "title": "穿越泽塔世界，开局获得神级迪迦！战力瞬间媲美神秘四奥！",
        "docid": "7279420885533098559",
        "url": "https://www.ixigua.com/7279420885533098559"
    },
    {
        "title": "剑术学府，耗时三天三夜，一口气看个爽。#二次元 #漫画解说",
        "docid": "7275699108022190607",
        "url": "https://www.ixigua.com/7275699108022190607"
    },
    {
        "title": "氰化欢乐秀，这又是两位概念神，一个一心求死一个一心想活",
        "docid": "7303482669801832979",
        "url": "https://www.ixigua.com/7303482669801832979"
    },
    {
        "title": "三个从孤儿院走出的孩子，在一个窒息的家庭，屡次被抛弃",
        "docid": "7271574577145512504",
        "url": "https://www.ixigua.com/7271574577145512504"
    },
    {
        "title": "吞噬钢铁升级的玩家#二次元 #漫画解说 #韩漫",
        "docid": "7275837677025690173",
        "url": "https://www.ixigua.com/7275837677025690173"
    },
    {
        "title": "兔子主动感恩鹰酱，鹰酱居然大吼：滚！",
        "docid": "7277421515920900642",
        "url": "https://www.ixigua.com/7277421515920900642"
    },
    {
        "title": "你见过能拍飞金刚的圣虎吗？盘点骷髅岛上最可怕的打酱油怪兽！",
        "docid": "7285675670846308923",
        "url": "https://www.ixigua.com/7285675670846308923"
    },
    {
        "title": "斗罗2：两大院长抢夺霍雨浩，96级女武神斗罗登场，言少哲慌了",
        "docid": "7297966953610609203",
        "url": "https://www.ixigua.com/7297966953610609203"
    },
    {
        "title": "在这个蓝星上，没有人可以让兔子低头，除了这一位大佬",
        "docid": "7303481530705183270",
        "url": "https://www.ixigua.com/7303481530705183270"
    },
    {
        "title": "啥，我弟弟是重生者",
        "docid": "7288894687316967991",
        "url": "https://www.ixigua.com/7288894687316967991"
    },
    {
        "title": "完美世界：石昊的一身修为全被蛄族废除，仅剩的元神也是岌岌可危",
        "docid": "7299062327457972745",
        "url": "https://www.ixigua.com/7299062327457972745"
    },
    {
        "title": "西游F4（第十四集）车迟国喜提三座驾",
        "docid": "7303467561898017314",
        "url": "https://www.ixigua.com/7303467561898017314"
    },
    {
        "title": "都说兔子家多外吹，原来外面也有很多吹我们的中吹，哪边占优呢",
        "docid": "7303382777284690483",
        "url": "https://www.ixigua.com/7303382777284690483"
    },
    {
        "title": "比起虎杖，这家伙才是主角吧",
        "docid": "7303477474862563859",
        "url": "https://www.ixigua.com/7303477474862563859"
    },
    {
        "title": "黑崎一护vs朽木白哉4",
        "docid": "7302642639693283859",
        "url": "https://www.ixigua.com/7302642639693283859"
    },
    {
        "title": "@可乐王子 @银色子弹 @李高大的视频空间 @炮芯大怪 @炮芯大怪",
        "docid": "7303494294810296847",
        "url": "https://www.ixigua.com/7303494294810296847"
    },
    {
        "title": "日本动漫那么多，为什么是奥特曼在中国年赚几十亿？",
        "docid": "7302003518284825103",
        "url": "https://www.ixigua.com/7302003518284825103"
    },
    {
        "title": "斗罗大陆：小舞为报答星期三，准备给她买新裙子，却被竹青看不起",
        "docid": "7292608778850173474",
        "url": "https://www.ixigua.com/7292608778850173474"
    },
    {
        "title": "斗罗大陆第二百五十五集：唐三的实力惊呆剑斗罗尘心",
        "docid": "7280817931192107583",
        "url": "https://www.ixigua.com/7280817931192107583"
    },
    {
        "title": "咒术回战，乙骨实力达到T1级别，他能打败魔虚罗吗？",
        "docid": "7303520516248175119",
        "url": "https://www.ixigua.com/7303520516248175119"
    },
    {
        "title": "徐晃登场曹焱兵五大虎将联手也太帅了！",
        "docid": "7276794765117653560",
        "url": "https://www.ixigua.com/7276794765117653560"
    },
    {
        "title": "赤犬小迷弟登场，他暴打百兽海贼团，还扬言要吸干路飞！",
        "docid": "7292683536786686498",
        "url": "https://www.ixigua.com/7292683536786686498"
    },
    {
        "title": "缅北同盟军的神秘战法",
        "docid": "7299397878840197684",
        "url": "https://www.ixigua.com/7299397878840197684"
    },
    {
        "title": "结束亦是开始，最终之战，鸿钧彻底败了，尘埃落定！",
        "docid": "7273502134019031591",
        "url": "https://www.ixigua.com/7273502134019031591"
    },
    {
        "title": "生化危机人物篇：完美的生物兵器Verdugo",
        "docid": "7279726326008054308",
        "url": "https://www.ixigua.com/7279726326008054308"
    },
    {
        "title": "【寻娃奶爸】耗时246个小时！女人一胎生了十个娃！#漫画推荐",
        "docid": "7282697208778981948",
        "url": "https://www.ixigua.com/7282697208778981948"
    },
    {
        "title": "斗罗大陆第二百三十四集：七怪强势回归惊呆武魂殿众人",
        "docid": "7278542344222147129",
        "url": "https://www.ixigua.com/7278542344222147129"
    },
    {
        "title": "毕业发老婆全民婚配的世界，每人都可以进入婚配房里挑选一位伴侣",
        "docid": "7288486154008166952",
        "url": "https://www.ixigua.com/7288486154008166952"
    },
    {
        "title": "为了让克里斯塔能够安稳活下去，尤弥尔终于暴露自己巨人的身份",
        "docid": "7303376034072625718",
        "url": "https://www.ixigua.com/7303376034072625718"
    },
    {
        "title": "兔子的火力不足恐惧症有多严重，官方吐槽，最为致命",
        "docid": "7301353145564267045",
        "url": "https://www.ixigua.com/7301353145564267045"
    },
    {
        "title": "论奇犽的家庭地位有多高",
        "docid": "7280091389277241897",
        "url": "https://www.ixigua.com/7280091389277241897"
    },
    {
        "title": "海诺为救朵莉亚，开启时光倒流，回到起点，最终却将彼此忘记~",
        "docid": "7297144950108455458",
        "url": "https://www.ixigua.com/7297144950108455458"
    },
    {
        "title": "【XSX-XGP】女神异闻录5战略版-（新角色）春日部统志郎觉醒",
        "docid": "7303327983954199077",
        "url": "https://www.ixigua.com/7303327983954199077"
    },
    {
        "title": "地球村！鹰酱的创意，由兔子实现！",
        "docid": "7303485569878163980",
        "url": "https://www.ixigua.com/7303485569878163980"
    },
    {
        "title": "S1的超人强又帅又强，绝对是最强的版本",
        "docid": "7287889394294325772",
        "url": "https://www.ixigua.com/7287889394294325772"
    },
    {
        "title": "这才是“顶尖强者”出场该有的排面，简直燃爆了！",
        "docid": "7279333752260526607",
        "url": "https://www.ixigua.com/7279333752260526607"
    },
    {
        "title": "假如西汉将军霍去病的战绩摆到现在会是什么样子 #霍去病#动画",
        "docid": "7290519849641050683",
        "url": "https://www.ixigua.com/7290519849641050683"
    },
    {
        "title": "辛普森一家少有的温情剧情，巴特的童年，家人是他成长的最大动力",
        "docid": "7294201188374086153",
        "url": "https://www.ixigua.com/7294201188374086153"
    },
    {
        "title": "吃瓜群众：你们到底打不打啊 #轻漫计划",
        "docid": "7302353198310916645",
        "url": "https://www.ixigua.com/7302353198310916645"
    },
    {
        "title": "见识一下兵长的高光时刻#撤退的矮人 #兵长 #动漫 #二次元",
        "docid": "7302616202965320211",
        "url": "https://www.ixigua.com/7302616202965320211"
    },
    {
        "title": "完美世界【原著外传】：上苍之上到底有多恐怖",
        "docid": "7302961435473084982",
        "url": "https://www.ixigua.com/7302961435473084982"
    },
    {
        "title": "咒术回战第二季30集，没想到咒术里也有机甲！",
        "docid": "7273558666672865804",
        "url": "https://www.ixigua.com/7273558666672865804"
    },
    {
        "title": "这部不存在的动画你看过吗？",
        "docid": "7280874267225522744",
        "url": "https://www.ixigua.com/7280874267225522744"
    },
    {
        "title": "傲视法师#小咚的漫画 #漫画推荐 #漫画解说 #有声漫画 #傲视法师",
        "docid": "7274530216230748732",
        "url": "https://www.ixigua.com/7274530216230748732"
    },
    {
        "title": "这是一段目击到“八尺大人”的视频短片，高能不高，放心观看",
        "docid": "7276092740101341754",
        "url": "https://www.ixigua.com/7276092740101341754"
    },
    {
        "title": "她本为寻荒帮忙而来，最后却为救荒而死",
        "docid": "7301700409377325620",
        "url": "https://www.ixigua.com/7301700409377325620"
    },
    {
        "title": "可以不爱，但不要伤害，汤姆在天堂看到了曾经的三只小猫！",
        "docid": "7276460340190282252",
        "url": "https://www.ixigua.com/7276460340190282252"
    },
    {
        "title": "绝世唐门：霍雨浩第一次上昊天宗，差点炸毁昊天宗，伊莱克斯身亡",
        "docid": "7280936862645289526",
        "url": "https://www.ixigua.com/7280936862645289526"
    },
    {
        "title": "啊！要把谁推下船？ #海贼王",
        "docid": "7291969869694960163",
        "url": "https://www.ixigua.com/7291969869694960163"
    },
    {
        "title": "这是一群奇葩的酒杯#哲理动画 #讽刺动画",
        "docid": "7286838499779871272",
        "url": "https://www.ixigua.com/7286838499779871272"
    },
    {
        "title": "#儿童动画 #动漫推荐 #轻漫计划",
        "docid": "7284785033846456871",
        "url": "https://www.ixigua.com/7284785033846456871"
    },
    {
        "title": "鹰酱：我要制裁你 兔子：我们遥遥领先",
        "docid": "7274197469087564323",
        "url": "https://www.ixigua.com/7274197469087564323"
    },
    {
        "title": "斗罗大陆第二百四十九集：唐三复活阿银，千仞雪审判坏蛋不乐",
        "docid": "7280103099837088291",
        "url": "https://www.ixigua.com/7280103099837088291"
    },
    {
        "title": "感受来自天神组的极致压迫感",
        "docid": "7285984125855793721",
        "url": "https://www.ixigua.com/7285984125855793721"
    },
    {
        "title": "重甲巨炮的浪漫！金星爆发灭国战争，巨型战争兵器炸平城市",
        "docid": "7283494537656599079",
        "url": "https://www.ixigua.com/7283494537656599079"
    },
    {
        "title": "让人崩溃的四川话，有个锤子，有个毛线，哈哈哈全程爆笑",
        "docid": "7272776663761748520",
        "url": "https://www.ixigua.com/7272776663761748520"
    },
    {
        "title": "乌龟会忍术！四个变异龟人,为了被人类接纳而选择当英雄",
        "docid": "7279692333707493929",
        "url": "https://www.ixigua.com/7279692333707493929"
    },
    {
        "title": "中俄美三家火箭炮对比差距#动画 #搞笑 #脑洞大开 #地球村",
        "docid": "7295315077916262923",
        "url": "https://www.ixigua.com/7295315077916262923"
    },
    {
        "title": "唐舞桐首次使用昊天锤，直接把大家都惊呆了#斗罗大陆2绝世唐门",
        "docid": "7277725478369100349",
        "url": "https://www.ixigua.com/7277725478369100349"
    },
    {
        "title": "【原始星球】50年前的大尺度动画，脑洞之大，至今无人超越！",
        "docid": "7293774043726610955",
        "url": "https://www.ixigua.com/7293774043726610955"
    },
    {
        "title": "吞噬星空：罗峰在百味餐厅英雄救美，高升亮身份帮罗峰解围",
        "docid": "7301289848676024886",
        "url": "https://www.ixigua.com/7301289848676024886"
    },
    {
        "title": "谁才是真的公主#动漫 #二次元 #加查小剧场 #原创动画",
        "docid": "7303342593683751433",
        "url": "https://www.ixigua.com/7303342593683751433"
    },
    {
        "title": "菜花蛇居然被百合铃切片做成了蛇肉火锅 #邪神与厨二病少女",
        "docid": "7303460421233705498",
        "url": "https://www.ixigua.com/7303460421233705498"
    },
    {
        "title": "我的怀疑英语是不是四川话演变过去的#沙雕动画 #看一遍笑一遍",
        "docid": "7292367107180888616",
        "url": "https://www.ixigua.com/7292367107180888616"
    },
    {
        "title": "无法能阻止的疯狂，这绝不仅仅是争夺土地，请停止伤害无辜平民！",
        "docid": "7293092337948426789",
        "url": "https://www.ixigua.com/7293092337948426789"
    },
    {
        "title": "鸿钧妥协，天帝降玉帝，分四极大帝，通天强要紫薇和青华两尊大帝",
        "docid": "7288634886330679871",
        "url": "https://www.ixigua.com/7288634886330679871"
    },
    {
        "title": "汪汪队立大功：珊瑚是怎么加入汪汪队的？",
        "docid": "7287937946291077686",
        "url": "https://www.ixigua.com/7287937946291077686"
    },
    {
        "title": "都这么刺激你了，你为啥还不买房？",
        "docid": "7273073514700571155",
        "url": "https://www.ixigua.com/7273073514700571155"
    },
    {
        "title": "发动地鸣！",
        "docid": "7303465669926847039",
        "url": "https://www.ixigua.com/7303465669926847039"
    },
    {
        "title": "风云十大神兵，英雄火麟都是废铁，大邪王和无双剑最是可惜！",
        "docid": "7295236618099835429",
        "url": ""
    },
    {
        "title": "海贼王：天龙人“家族”总结，目前公布11个，红发也是其中一员",
        "docid": "7295124192276562472",
        "url": ""
    },
    {
        "title": "女生穿丝袜有多麻烦？漫画揭露做女生的一天，实在太累了！",
        "docid": "7290868634099319296",
        "url": ""
    },
    {
        "title": "《一人之下》十大高手：主角张楚岚排不上号，冯宝宝进不了前五",
        "docid": "7274942280035861032",
        "url": ""
    },
    {
        "title": "有没有正派打败反派，但是你更希望反派获胜的角色？沉默上万读者",
        "docid": "7290352051467321856",
        "url": ""
    },
    {
        "title": "人性漫画：《代价》",
        "docid": "7289236928480854539",
        "url": ""
    },
    {
        "title": "捞女精神控制有多可怕？漫画揭秘她们常用的7步捞钱法",
        "docid": "7277502535765279295",
        "url": ""
    },
    {
        "title": "消失的星空卫视：曾经国内巅峰电视台，为何现在却已经无人问津？",
        "docid": "7278704495708701224",
        "url": ""
    },
    {
        "title": "《三体》：将42亿人口集中圈养澳洲，创造最大规模屠杀！",
        "docid": "7291936749625049600",
        "url": ""
    },
    {
        "title": "我，27岁，已婚无娃，出轨两次，负债100万，毁掉婚姻的是恋爱脑",
        "docid": "7283378943422497320",
        "url": ""
    },
    {
        "title": "当今社会的九等福，你是几等福？幽默有趣的漫画，你看懂了吗",
        "docid": "7303359684084941327",
        "url": ""
    },
    {
        "title": "怀孕的妻子，被他们榨干了鲜血",
        "docid": "7274128609411891772",
        "url": ""
    },
    {
        "title": "人性漫画：《互骗》",
        "docid": "7272633103540027916",
        "url": ""
    },
    {
        "title": "当代年轻人的作息时间​​​",
        "docid": "7299263100137407011",
        "url": ""
    },
    {
        "title": "一拳超人（漫画）第123拳",
        "docid": "7288188550141674041",
        "url": ""
    },
    {
        "title": "浅析聂风与步惊云的五场战斗，只有一次五五开，实力持平只是笑话",
        "docid": "7278232940096995897",
        "url": ""
    },
    {
        "title": "Netflix《幽游白书》真人版13选角曝光！户愚吕兄弟获好评",
        "docid": "7303423858336350735",
        "url": ""
    },
    {
        "title": "“灰色强暴”到底有多恐怖？可能就在你身边",
        "docid": "7282979003193967139",
        "url": ""
    },
    {
        "title": "人性漫画：《玩偶服》",
        "docid": "7293033129944990249",
        "url": ""
    },
    {
        "title": "辰东笔下的六大主角，你知道谁才是真正的无敌呢？",
        "docid": "7283375323306230311",
        "url": ""
    },
    {
        "title": "漫画 | 终于明白，为什么程序员干不了管理了！",
        "docid": "7302049349788385855",
        "url": ""
    },
    {
        "title": "漫画：你以为男人爱看的，实际上男人爱看的！",
        "docid": "7280160055381738040",
        "url": ""
    },
    {
        "title": "人性漫画：《欲望控制器》",
        "docid": "7301869690022822454",
        "url": ""
    },
    {
        "title": "后续，不知道的，还以为你和你妈妈才是夫妻！",
        "docid": "7276739963692614199",
        "url": ""
    },
    {
        "title": "近嫁和远嫁的区别，你看懂了吗？生动形象漫画，道出多少人的心声",
        "docid": "7301585873836163624",
        "url": ""
    },
    {
        "title": "刚刚，红猪飞起来了！| 地球知识局",
        "docid": "7303372430284866089",
        "url": ""
    },
    {
        "title": "漫画：以前的审美和现在的审美！",
        "docid": "7288674539947967012",
        "url": ""
    },
    {
        "title": "日漫的审美降级？跨物种进化之余，眼里还透着股清澈的愚蠢",
        "docid": "7300213394932662824",
        "url": ""
    },
    {
        "title": "做“肠镜”检查时，能有多“社死”？（漫画）脚趾头都在抠地",
        "docid": "7283971522505556541",
        "url": ""
    },
    {
        "title": "当代男女白天假装正经，到了晚上却原形毕露（漫画）",
        "docid": "7276481745799627301",
        "url": ""
    },
    {
        "title": "设定猛如虎，表现菜如鸡的动漫角色",
        "docid": "6808554889178776076",
        "url": ""
    },
    {
        "title": "一次游泳，女生被细菌吃掉四肢，最终完成了蜕变，真实改编",
        "docid": "7273291467672551971",
        "url": ""
    },
    {
        "title": "人性漫画:《年轻的保姆》",
        "docid": "7282609208015553063",
        "url": ""
    },
    {
        "title": "锈铁42｜妖刀的真相，“SSS言灵”不想死！不甘心！",
        "docid": "7271436442037977660",
        "url": ""
    },
    {
        "title": "原配夫妻半路夫妻，你看懂了吗？生动形象的漫画！",
        "docid": "7293439491228992019",
        "url": ""
    },
    {
        "title": "圣斗士星矢：全系列神明的准确实力排名",
        "docid": "7148415643535835685",
        "url": ""
    },
    {
        "title": "漫画：男女不同年龄段的择偶标准！",
        "docid": "7270873608749498937",
        "url": ""
    },
    {
        "title": "央视强推的五部超低龄启蒙动画片，这才是低龄小朋友该看的动画片",
        "docid": "7301946405617156644",
        "url": ""
    },
    {
        "title": "《进击的巨人》九大巨人战斗力排名",
        "docid": "7299377895548453411",
        "url": ""
    },
    {
        "title": "经典动画《北斗神拳》最强十大高手排名，你还记得他们吗？",
        "docid": "7300475005522100736",
        "url": ""
    },
    {
        "title": "年度现象级神作，一回归就飙到9.2",
        "docid": "7302992491433722380",
        "url": ""
    },
    {
        "title": "《巴啦啦小魔仙》中的穿帮镜头，简直太离谱，小时候怎么没有发现",
        "docid": "7303075340950241846",
        "url": ""
    },
    {
        "title": "龙珠战斗力全系谱数据：从5到几十亿，原著里一共进行五次阶跃。",
        "docid": "7275483575154229817",
        "url": ""
    },
    {
        "title": "万相之王：七星柱级别学员可以参赛，学院评审难度再度升级",
        "docid": "7303662908054176306",
        "url": ""
    },
    {
        "title": "千万别摸这个敏感部位！虽然特别爽",
        "docid": "7299653904180969995",
        "url": ""
    },
    {
        "title": "斗罗2电视剧，女演员适配度太高，除了天选小舞，柳二龙也有惊喜",
        "docid": "7278136027406090793",
        "url": ""
    },
    {
        "title": "女生死都不承认的事，有女朋友后才知道（漫画）",
        "docid": "7276086221070484022",
        "url": ""
    },
    {
        "title": "生活漫画，夫妻有钱的时候和没钱的时候的区别，内容过于真实",
        "docid": "7288151863738810935",
        "url": ""
    },
    {
        "title": "人性漫画:拥有过分控制欲的男友",
        "docid": "7288215348564787768",
        "url": ""
    },
    {
        "title": "《吞噬星空》七大巅峰巨兽排名",
        "docid": "7271151618907849268",
        "url": ""
    },
    {
        "title": "人到中年：为啥胖成球？",
        "docid": "7272140044134007356",
        "url": ""
    },
    {
        "title": "爸妈以为的大学生活和实际的大学生活，太真实了",
        "docid": "7288510650694173238",
        "url": ""
    },
    {
        "title": "大润发跨界联动接力出版社，首办超市里的童书发布会",
        "docid": "7303571317319041575",
        "url": ""
    },
    {
        "title": "相逢的意义在于彼此照亮",
        "docid": "7301337883053457960",
        "url": ""
    },
    {
        "title": "鬼灭之刃:第134话 重复动作",
        "docid": "7300514208050266658",
        "url": ""
    },
    {
        "title": "女生请警惕这种新型骗局！",
        "docid": "7276696175569322535",
        "url": ""
    },
    {
        "title": "写实漫画，爹和儿子的关系，内容过于真实，看完破防了",
        "docid": "7290401554505531965",
        "url": ""
    },
    {
        "title": "男女交往中，女人最讨厌男人的8种行为！（漫画）",
        "docid": "7271976127286149688",
        "url": ""
    },
    {
        "title": "内心丰盈者，独行也如众",
        "docid": "7297463666427937280",
        "url": ""
    },
    {
        "title": "40岁前嗤之以鼻的8件事，现在做全了",
        "docid": "7302983183434646043",
        "url": ""
    },
    {
        "title": "漫画：出轨率高的女人都有哪些表现？",
        "docid": "7285681241192399414",
        "url": ""
    },
    {
        "title": "冬天在家吃火锅",
        "docid": "7303007309406700067",
        "url": ""
    },
    {
        "title": "三位不同层次的出轨男士，来看下他们后来都怎么样了（漫画）",
        "docid": "7303071198252909082",
        "url": ""
    },
    {
        "title": "“4天不洗头”的女生，会出现什么后果？网友：真的受不了",
        "docid": "7279593511240974900",
        "url": ""
    },
    {
        "title": "今日文案，显眼包短句又来了！",
        "docid": "7287099763768853028",
        "url": ""
    },
    {
        "title": "搞笑句子，趣味十足，有乐有才有道理",
        "docid": "7301967917720125993",
        "url": ""
    },
    {
        "title": "今年口碑最好的四部动漫",
        "docid": "7300539762568593972",
        "url": ""
    },
    {
        "title": "鸡鸣大地，彤彤旭日耀寰球，金鸡喜唱，歌斯盛世乐无穷。",
        "docid": "7296487347120538127",
        "url": ""
    },
    {
        "title": "人性漫画：背叛",
        "docid": "7302842798829781558",
        "url": ""
    },
    {
        "title": "《遮天》段德：无良道士出场就要坑人，真实身份和背景却极其恐怖",
        "docid": "7272306269581918757",
        "url": ""
    },
    {
        "title": "创新创业·筑梦泉城丨钱鑫：做一家改变中国动画影视历史的企业",
        "docid": "7303722714777305640",
        "url": ""
    },
    {
        "title": "人性漫画:《完美配偶》上",
        "docid": "7287420759848157707",
        "url": ""
    },
    {
        "title": "猫眼三姐妹[北条司][18完]",
        "docid": "7303005384309244450",
        "url": ""
    },
    {
        "title": "更适合中国宝宝体质的打工人头像 ​​​",
        "docid": "7278088706542535203",
        "url": ""
    },
    {
        "title": "一组冬天的小漫画，笑坏了！",
        "docid": "7301834138024608266",
        "url": ""
    },
    {
        "title": "黑猫警长 守护安全 | 122展播",
        "docid": "7302387877961630219",
        "url": ""
    },
    {
        "title": "黑色美少女战士，绝美剪影壁纸",
        "docid": "7296285379806724660",
        "url": ""
    },
    {
        "title": "龙珠全彩系列320 那美克星的最后五分钟",
        "docid": "7303746311998882338",
        "url": ""
    },
    {
        "title": "可爱又好玩的臭屁头像",
        "docid": "7302630758898745882",
        "url": ""
    },
    {
        "title": "哆啦A梦超级棒球传45—番外篇",
        "docid": "7303735778856010294",
        "url": ""
    },
    {
        "title": "斗罗1双神对战福利返场？被删减的名场面回归，网友：斗破学习下",
        "docid": "7302760588722422298",
        "url": ""
    },
    {
        "title": "《呆呆和瓜瓜》漫画081-090",
        "docid": "7302450003728433704",
        "url": ""
    },
    {
        "title": "（图表·漫画）［二十四节气·小雪］温水泡脚",
        "docid": "7303732033459896872",
        "url": ""
    },
    {
        "title": "阿拉蕾 210话 全部给我",
        "docid": "7303110484813840915",
        "url": ""
    },
    {
        "title": "职业头像-第5期",
        "docid": "7289432793187123746",
        "url": ""
    },
    {
        "title": "非人哉：以眼还眼，以牙还牙。",
        "docid": "7303385044214022665",
        "url": ""
    },
    {
        "title": "阿拉蕾 219话 东奔西跑的青春PART5",
        "docid": "7303118782153916940",
        "url": ""
    },
    {
        "title": "可爱的幸运头像-第120期",
        "docid": "7302596984878301747",
        "url": ""
    },
    {
        "title": "卡通壁纸｜可爱的胖虎",
        "docid": "7296365826608087604",
        "url": ""
    },
    {
        "title": "BB戰士三國傳戰神決鬥篇001",
        "docid": "7303708616627520039",
        "url": ""
    },
    {
        "title": "2024背景新年壁纸",
        "docid": "7303437822629806626",
        "url": ""
    },
    {
        "title": "哆啦A梦超级棒球传39—番外篇",
        "docid": "7303734800223928851",
        "url": ""
    },
    {
        "title": "绝世唐门：海神阁会议参与者都有谁？9人均是封号斗罗，穆恩最强",
        "docid": "7302636654056030731",
        "url": ""
    },
    {
        "title": "压箱底的熊猫表情包",
        "docid": "7301303787061363254",
        "url": ""
    },
    {
        "title": "哆啦A梦超级棒球传16—19话",
        "docid": "7303729455996928551",
        "url": ""
    },
    {
        "title": "壁纸：细腻胭脂色，演绎复古之风",
        "docid": "7302746248644297256",
        "url": ""
    },
    {
        "title": "龙珠全彩漫画405 406回 悟饭一直不愤怒 沙鲁召唤小沙鲁攻击悟空等人",
        "docid": "7302366357536981545",
        "url": ""
    },
    {
        "title": "全彩漫画 说英雄谁是英雄第十三卷",
        "docid": "7303707400618689036",
        "url": ""
    },
    {
        "title": "无声惊恐漫画：马拉松",
        "docid": "7300407428208919094",
        "url": ""
    },
    {
        "title": "将巨人推上顶峰的一段，文戏武戏双绝，艾尔文团长牺牲",
        "docid": "7302329800327496227",
        "url": "https://www.ixigua.com/7302329800327496227"
    },
    {
        "title": "《风云》中神兵最有特点，强是一方面，帅气的颜值不得不服气！",
        "docid": "7303763157976252937",
        "url": ""
    },
    {
        "title": "筑梦师手机超清壁纸231121——无题（16P）",
        "docid": "7303740386554495529",
        "url": ""
    },
    {
        "title": "《Naruto》Vol.15",
        "docid": "7303767186681627174",
        "url": ""
    },
    {
        "title": "哆啦A梦超级棒球传13—番外篇",
        "docid": "7303729058397864489",
        "url": ""
    },
    {
        "title": "（图表·漫画）［二十四节气·小雪］树木涂白好过冬",
        "docid": "7303732035233792547",
        "url": ""
    },
    {
        "title": "《Naruto》Vol.11",
        "docid": "7303760728622645811",
        "url": ""
    },
    {
        "title": "哆啦A梦超级棒球传51—番外篇",
        "docid": "7303737075567116863",
        "url": ""
    },
    {
        "title": "全彩漫画 风云第三部097—098",
        "docid": "7303741346639004201",
        "url": ""
    },
    {
        "title": "进击的巨人，信息量巨大，墙内世界的真相曝光，希斯特莉亚摔爹",
        "docid": "7297229703914455562",
        "url": "https://www.ixigua.com/7297229703914455562"
    },
    {
        "title": "兔子的赚钱路子有多野，鹰酱直呼顶不住",
        "docid": "7283137974584214071",
        "url": "https://www.ixigua.com/7283137974584214071"
    },
    {
        "title": "萌物出没！精神文明报原创古风表情包上线！",
        "docid": "7303779356353036838",
        "url": ""
    },
    {
        "title": "小丑壁纸",
        "docid": "7303774459780039187",
        "url": ""
    },
    {
        "title": "画济宁丨梁祝文化破茧成蝶",
        "docid": "7303728849962123788",
        "url": ""
    },
    {
        "title": "一个视频，看斑爷在四战中是怎么起舞的",
        "docid": "7290445724238479912",
        "url": "https://www.ixigua.com/7290445724238479912"
    },
    {
        "title": "“Hi，我是宁小柿！”南京市场监管IP形象正式上线！",
        "docid": "7303481632349569545",
        "url": ""
    },
    {
        "title": "《杀戮都市》终极BOSS之战，滑瓢的七重形态揭秘！",
        "docid": "7296344987606712841",
        "url": "https://www.ixigua.com/7296344987606712841"
    },
    {
        "title": "《丝路》：从冠世榴园到“一带一路”，枣庄石榴产业文化开新篇。",
        "docid": "7303737972317258250",
        "url": ""
    },
    {
        "title": "兔子本想拒绝 奈何大户加钱  于是兔子打算挑战自己的软肋",
        "docid": "7293834662093914661",
        "url": "https://www.ixigua.com/7293834662093914661"
    },
    {
        "title": "进击的巨人，罗德雷斯阴差阳错下的超级巨人，艾伦获得硬化能力",
        "docid": "7298682780366897673",
        "url": "https://www.ixigua.com/7298682780366897673"
    },
    {
        "title": "6部反派最终获胜的动漫：主角一个比一个惨；国漫里居然也有过",
        "docid": "7280922078558192128",
        "url": "https://www.ixigua.com/7280922078558192128"
    },
    {
        "title": "种花家一路走来，就是靠着兔子够能打，兔子凶猛可是鹰酱认证的",
        "docid": "7280479426637529656",
        "url": "https://www.ixigua.com/7280479426637529656"
    },
    {
        "title": "一人之下：武侯奇门的最终绝技三昧真火",
        "docid": "7280091233010385466",
        "url": "https://www.ixigua.com/7280091233010385466"
    },
    {
        "title": "作者早就埋下过伏笔，其实五条悟并没有大家以为的那么强大",
        "docid": "7281741436003975743",
        "url": "https://www.ixigua.com/7281741436003975743"
    },
    {
        "title": "斗破苍穹大结局，所有女主住进萧家，萧炎飞升大千世界",
        "docid": "7272309802145940003",
        "url": "https://www.ixigua.com/7272309802145940003"
    },
    {
        "title": "东亚怪物房 兔子来称王",
        "docid": "7302461097527738920",
        "url": "https://www.ixigua.com/7302461097527738920"
    },
    {
        "title": "原来范马勇次郎真的不是地球人#刃牙",
        "docid": "7275636498999804431",
        "url": "https://www.ixigua.com/7275636498999804431"
    },
    {
        "title": "《杀戮都市》满分BOOS滑瓢电影所有形态展示",
        "docid": "7278252459938710031",
        "url": "https://www.ixigua.com/7278252459938710031"
    },
    {
        "title": "《进击的巨人》完结篇上1",
        "docid": "7294602949216043546",
        "url": "https://www.ixigua.com/7294602949216043546"
    },
    {
        "title": "兔子的实力有多强，要么不打，要打就挑最大的打",
        "docid": "7291718348814058018",
        "url": "https://www.ixigua.com/7291718348814058018"
    },
    {
        "title": "最强通灵术，牛头一护登场！",
        "docid": "7294575014567739919",
        "url": "https://www.ixigua.com/7294575014567739919"
    },
    {
        "title": "《小羊肖恩》《小鸡快跑》工作室传来坏消息：黏土快用完了",
        "docid": "7303782445613613583",
        "url": ""
    },
    {
        "title": "黑白漫画 鬼神童子第二卷",
        "docid": "7303795814802162217",
        "url": ""
    },
    {
        "title": "全彩漫画 风云第三部129",
        "docid": "7303787785021063721",
        "url": ""
    },
    {
        "title": "IP平行授权！乐乐茶、奈雪的茶与名侦探柯南联名“撞车”了！",
        "docid": "7303792989254779433",
        "url": ""
    },
    {
        "title": "为什么东亚被称为怪物房？",
        "docid": "7279376730639630848",
        "url": "https://www.ixigua.com/7279376730639630848"
    },
    {
        "title": "全彩漫画 风云第三部124",
        "docid": "7303786611953648164",
        "url": ""
    },
    {
        "title": "盘点进击的巨人里各大巨人的身高排名 下",
        "docid": "7293096528200073754",
        "url": "https://www.ixigua.com/7293096528200073754"
    },
    {
        "title": "假如鹰酱丶兔子和大毛斗地主#脑洞大开 #搞笑 #原创动画",
        "docid": "7276019216178741816",
        "url": "https://www.ixigua.com/7276019216178741816"
    },
    {
        "title": "大户有了东风大棒后“大笑江湖”#脑洞大开 #原创动画 #搞笑",
        "docid": "7279731356442362426",
        "url": "https://www.ixigua.com/7279731356442362426"
    },
    {
        "title": "这绝对是黑崎一护开过最狠的外挂！",
        "docid": "7303571861374403107",
        "url": "https://www.ixigua.com/7303571861374403107"
    },
    {
        "title": "一口气看完：超燃动漫《黑子的篮球》",
        "docid": "7303112929996603955",
        "url": "https://www.ixigua.com/7303112929996603955"
    },
    {
        "title": "浦原和碎蜂？百年前的真相！",
        "docid": "7303480429573734966",
        "url": "https://www.ixigua.com/7303480429573734966"
    },
    {
        "title": "人物志：丸星古介，万年下忍，真背锅王",
        "docid": "7291149174706766370",
        "url": "https://www.ixigua.com/7291149174706766370"
    },
    {
        "title": "兔子看着人畜无害，发起飙来谁都挡不住，鹰挡干鹰熊挡打熊",
        "docid": "7280850495885967907",
        "url": "https://www.ixigua.com/7280850495885967907"
    },
    {
        "title": "一口气看完《虽然等级只有1级，但靠着固有天赋成为世界最强》",
        "docid": "7282284901640962616",
        "url": "https://www.ixigua.com/7282284901640962616"
    },
    {
        "title": "最强人类第一次出门就遭遇世界终极BOSS，打输后误以为自己很菜",
        "docid": "7286756164862214671",
        "url": "https://www.ixigua.com/7286756164862214671"
    },
    {
        "title": "游戏王70集，超魔导剑士VS青眼究极龙",
        "docid": "7303081634260222479",
        "url": "https://www.ixigua.com/7303081634260222479"
    },
    {
        "title": "荒他哥石毅一战惊呆异域众人，谪仙十冠王冒荒他哥抢着对战索明",
        "docid": "7303066397146350116",
        "url": "https://www.ixigua.com/7303066397146350116"
    },
    {
        "title": "一个好钓点是怎么被摧毁的",
        "docid": "7286040582961660477",
        "url": "https://www.ixigua.com/7286040582961660477"
    },
    {
        "title": "新赏资讯丨烬以及旱灾杰克来了！航海王 EX 忠于雷鸣 全阵容揭晓！！",
        "docid": "7302364022949560858",
        "url": ""
    },
    {
        "title": "11月动漫片单丨《星愿》《蜡笔小新》上映",
        "docid": "7303785367189504562",
        "url": ""
    },
    {
        "title": "漫画-阿衰：小衰职业篇（上）",
        "docid": "7303796425849389602",
        "url": ""
    },
    {
        "title": "真实的四大舔狗中，只有沸羊羊才是真小丑，其他三个都不配当舔狗",
        "docid": "7272960653399327290",
        "url": "https://www.ixigua.com/7272960653399327290"
    },
    {
        "title": "蓝星禁忌：别给兔子画饼",
        "docid": "7289115881530098211",
        "url": "https://www.ixigua.com/7289115881530098211"
    },
    {
        "title": "陆瑾，无根生，老天师，异人之下中最强的十大高手，谁才是绝顶？",
        "docid": "7280810952658944548",
        "url": "https://www.ixigua.com/7280810952658944548"
    },
    {
        "title": "一人之下：大慈大悲肖施主，出门手提脊梁骨#一人之下 #动漫解说",
        "docid": "7277550974963548707",
        "url": "https://www.ixigua.com/7277550974963548707"
    },
    {
        "title": "一时之错 余生遮眼 能与黑白玄翦平分秋色的典庆",
        "docid": "7280466424500322816",
        "url": "https://www.ixigua.com/7280466424500322816"
    },
    {
        "title": "当北方蟑螂遇见南方蟑螂#南北差异 #原创动画 #内容过于真实",
        "docid": "7299766093827015205",
        "url": "https://www.ixigua.com/7299766093827015205"
    },
    {
        "title": "狐狸：罗宾我可都听到了#动画 #苍生局 #脑洞大开 #全程高能",
        "docid": "7274210397685711420",
        "url": "https://www.ixigua.com/7274210397685711420"
    },
    {
        "title": "我带领队友控分，揭穿老陆偷拿论文#沙雕动画 #原创动画",
        "docid": "7302724564642234918",
        "url": "https://www.ixigua.com/7302724564642234918"
    },
    {
        "title": "不对比一下，你都不知道兔子现在有多强",
        "docid": "7299743996053160511",
        "url": "https://www.ixigua.com/7299743996053160511"
    },
    {
        "title": "汉字的优越性岂是他国语言能比的！",
        "docid": "7284228500406567439",
        "url": "https://www.ixigua.com/7284228500406567439"
    },
    {
        "title": "鹰酱：兔兄，以后这位置咱一起坐！",
        "docid": "7277522812074623527",
        "url": "https://www.ixigua.com/7277522812074623527"
    },
    {
        "title": "尾田再次公布最强果实，能力超越赤犬艾尼路，最适合索隆",
        "docid": "7295761706716758569",
        "url": "https://www.ixigua.com/7295761706716758569"
    },
    {
        "title": "种花家的神曲  你们觉得谁唱得好听",
        "docid": "7293439587203547686",
        "url": "https://www.ixigua.com/7293439587203547686"
    },
    {
        "title": "狗大户那么有钱，为什么没有国家敢动他",
        "docid": "7280593880431460916",
        "url": "https://www.ixigua.com/7280593880431460916"
    },
    {
        "title": "《海贼王》真人剧，罗罗诺亚·索隆vs鹰眼米霍克",
        "docid": "7273432454197838371",
        "url": "https://www.ixigua.com/7273432454197838371"
    },
    {
        "title": "南方人在山东吃知了猴的尴尬的瞬间 #沙雕动画 #知了猴",
        "docid": "7293814709868986943",
        "url": "https://www.ixigua.com/7293814709868986943"
    },
    {
        "title": "被天照烧到后八位忍者的解决办法",
        "docid": "7285309413861097995",
        "url": "https://www.ixigua.com/7285309413861097995"
    },
    {
        "title": "盘点变形金刚里五大阵营的领袖，哪个更厉害？禁闭老爷谁也不服",
        "docid": "7279992862748443188",
        "url": "https://www.ixigua.com/7279992862748443188"
    },
    {
        "title": "盘点上海万圣节COS众生相#万圣节上海cos众生相 #上海万圣节",
        "docid": "7296517539532800521",
        "url": "https://www.ixigua.com/7296517539532800521"
    },
    {
        "title": "当叶凡回到地球发现地球上居然有一位大帝存在，他是什么反应呢？",
        "docid": "7293834015198020148",
        "url": "https://www.ixigua.com/7293834015198020148"
    },
    {
        "title": "工厂流水线太快了，搞不过来，直接旷工走人 #原创动画 #沙雕动画",
        "docid": "7272671486237508157",
        "url": "https://www.ixigua.com/7272671486237508157"
    },
    {
        "title": "兔子：你敢来航母，我就敢借你东风",
        "docid": "7273482487756816915",
        "url": "https://www.ixigua.com/7273482487756816915"
    },
    {
        "title": "这棋局太大，我怕你把握不住",
        "docid": "7285271350594241035",
        "url": "https://www.ixigua.com/7285271350594241035"
    },
    {
        "title": "奥利巴竟被勇次郎无情的碾压",
        "docid": "7270915386110181929",
        "url": "https://www.ixigua.com/7270915386110181929"
    },
    {
        "title": "史莱克学院八位封号斗罗等级排名，乌龙斗罗钱多多垫底！",
        "docid": "7277465482372842039",
        "url": "https://www.ixigua.com/7277465482372842039"
    },
    {
        "title": "以前的变身我深信不疑，现在的变身我嗤之以鼻",
        "docid": "7290812422846317110",
        "url": "https://www.ixigua.com/7290812422846317110"
    },
    {
        "title": "天才樱木花道山王一战个人集锦，湘北的关键先生，不屈的篮球之魂",
        "docid": "7294602609653252660",
        "url": "https://www.ixigua.com/7294602609653252660"
    },
    {
        "title": "魔界之王达普拉和巴菲迪登场！",
        "docid": "7303477054794629669",
        "url": "https://www.ixigua.com/7303477054794629669"
    },
    {
        "title": "史上最强原始人皮克竟然被吓得落荒而逃",
        "docid": "7285279149068190265",
        "url": "https://www.ixigua.com/7285279149068190265"
    },
    {
        "title": "吸毒是如何一步一步上瘾的，看完这部动画你就明白了",
        "docid": "7278957128067318306",
        "url": "https://www.ixigua.com/7278957128067318306"
    },
    {
        "title": "团藏到底强不强？硬实力强，CPU跟不上",
        "docid": "7271918994733564477",
        "url": "https://www.ixigua.com/7271918994733564477"
    },
    {
        "title": "80 90后的回忆，你是十二星座中哪位黄金圣斗士呢《圣斗士星矢》",
        "docid": "7295744625346609703",
        "url": "https://www.ixigua.com/7295744625346609703"
    },
    {
        "title": "斗罗大陆大结局（上）：比比东陨落，战争就此划上了句点",
        "docid": "7288536179069321762",
        "url": "https://www.ixigua.com/7288536179069321762"
    },
    {
        "title": "《永劫无间》孙悟空与二郎神的终极之战#惊险刺激 #科幻 #cg动画",
        "docid": "7270838807065264679",
        "url": "https://www.ixigua.com/7270838807065264679"
    },
    {
        "title": "这是贝吉塔最想刀了悟空的一集",
        "docid": "7300193748083081747",
        "url": "https://www.ixigua.com/7300193748083081747"
    },
    {
        "title": "我就钓个鱼怎么天天进局子#沙雕动画 #原创动画 #沙雕日常 #动画",
        "docid": "7275715058234032676",
        "url": "https://www.ixigua.com/7275715058234032676"
    },
    {
        "title": "坤爸一生中最高光的时刻 就连坤妈也得在一旁乖乖的端茶倒水",
        "docid": "7273827460289036855",
        "url": "https://www.ixigua.com/7273827460289036855"
    },
    {
        "title": "训练师集合！宝可梦专区南京东路站现已开放挑战！",
        "docid": "7303843016396046848",
        "url": ""
    },
    {
        "title": "手机壁纸原图 | 冬天总要为春天作序",
        "docid": "7303839250767381019",
        "url": ""
    },
    {
        "title": "海贼王1099话情报：暴君与和平主义者称号的来源揭晓！",
        "docid": "7303834175344312832",
        "url": ""
    },
    {
        "title": "龙珠全彩漫画413 414回 闪电沙鲁秒杀特兰克斯 悟饭救贝吉塔失去左手",
        "docid": "7303200829404611135",
        "url": ""
    },
    {
        "title": "手机壁纸|日渐清醒 得失随意",
        "docid": "7303338624748175909",
        "url": ""
    },
    {
        "title": "一口气看完范马刃牙皮可篇#范马刃牙 #刃牙皮可篇 #动漫解说",
        "docid": "7282789780843299328",
        "url": "https://www.ixigua.com/7282789780843299328"
    },
    {
        "title": "这便是它国漫封神的原因吧，世界冲突不断的今天，台词句句炸裂！",
        "docid": "7300140613960532489",
        "url": "https://www.ixigua.com/7300140613960532489"
    },
    {
        "title": "兔子是怎样加入五常的？让鹰酱想起来都害怕@极品雕",
        "docid": "7287039193677562404",
        "url": "https://www.ixigua.com/7287039193677562404"
    },
    {
        "title": "遮天：叶凡为啥不全吃完啊？神果虽然好，但也是有副作用的！",
        "docid": "7301541093718360595",
        "url": "https://www.ixigua.com/7301541093718360595"
    },
    {
        "title": "盘点海贼王中日美三国的打码方式！还是国内更照顾海迷",
        "docid": "7290866823354909219",
        "url": "https://www.ixigua.com/7290866823354909219"
    },
    {
        "title": "全身装饰都是法器，这也太酷了吧！#眷思量 #镜玄 #二次元",
        "docid": "7287558910859280933",
        "url": "https://www.ixigua.com/7287558910859280933"
    },
    {
        "title": "巴霍巴利王男主再次迎来史诗新作 ！",
        "docid": "7300038096165274149",
        "url": "https://www.ixigua.com/7300038096165274149"
    },
    {
        "title": "东风快递有多猛？兔子说漏嘴了，鹰酱好像发现什么了",
        "docid": "7284993975550018106",
        "url": "https://www.ixigua.com/7284993975550018106"
    },
    {
        "title": "犹族比龙族厉害太多？在兔子面前，戴胜鸟又吃瘪了",
        "docid": "7293058556268380713",
        "url": "https://www.ixigua.com/7293058556268380713"
    },
    {
        "title": "骆驼为什么能上空间站，兔子：那可是我榜一大哥@极品雕",
        "docid": "7283699083313840692",
        "url": "https://www.ixigua.com/7283699083313840692"
    },
    {
        "title": "是谁？神秘人指导戴胜鸟搬家！鹰酱直接打寒颤",
        "docid": "7288308441494651444",
        "url": "https://www.ixigua.com/7288308441494651444"
    },
    {
        "title": "兔子：火力覆盖真省事！鹰酱：迂回穿插真省钱",
        "docid": "7287989652244726291",
        "url": "https://www.ixigua.com/7287989652244726291"
    },
    {
        "title": "为什么鹰酱不敢对兔子动手，是怕了吗？",
        "docid": "7275648950999351820",
        "url": "https://www.ixigua.com/7275648950999351820"
    },
    {
        "title": "抵挡巨人的城墙，竟是巨人构成的，敌人保护着人类？进击的巨人",
        "docid": "7292645927544685091",
        "url": "https://www.ixigua.com/7292645927544685091"
    },
    {
        "title": "来自兔子的自信：重型合成旅PK鹰酱的陆军师",
        "docid": "7290045210984186425",
        "url": "https://www.ixigua.com/7290045210984186425"
    },
    {
        "title": "《Naruto》Vol.18",
        "docid": "7303849463591289354",
        "url": ""
    },
    {
        "title": "漫画-阿衰：阿衰和大脸妹回乡下（1）（2）",
        "docid": "7303844713675801140",
        "url": ""
    },
    {
        "title": "外星高科技，蓝色钢铁蜘蛛侠，又菜又能打！",
        "docid": "7281998096412705336",
        "url": "https://www.ixigua.com/7281998096412705336"
    },
    {
        "title": "《Naruto》Vol.17",
        "docid": "7303847902605017650",
        "url": ""
    },
    {
        "title": "天堂镇警局：凯文误入“鳍人社区”，竟惨遭扣留强制配种！",
        "docid": "7303469599990186531",
        "url": "https://www.ixigua.com/7303469599990186531"
    },
    {
        "title": "佩奇：乔治 你是认真的吗？",
        "docid": "7273761440937443859",
        "url": "https://www.ixigua.com/7273761440937443859"
    },
    {
        "title": "兔子：这群可爱的队友...带不动啊带不动",
        "docid": "7292710187067474444",
        "url": "https://www.ixigua.com/7292710187067474444"
    },
    {
        "title": "兔子磨刀霍霍四十年 多少人想上前线还没这资格",
        "docid": "7298896781143147046",
        "url": "https://www.ixigua.com/7298896781143147046"
    },
    {
        "title": "（图表·漫画）［星空有约］观赏土星东方照",
        "docid": "7303832207041430028",
        "url": ""
    },
    {
        "title": "完结！地表最强的称号交给了刃牙",
        "docid": "7273078111598543375",
        "url": "https://www.ixigua.com/7273078111598543375"
    },
    {
        "title": "五常博弈有多野，为何兔子最近老是能破防鹰酱，鹰酱已经没活了",
        "docid": "7286407492031119930",
        "url": "https://www.ixigua.com/7286407492031119930"
    },
    {
        "title": "奥特曼系列五大失败作：创新一定等于成功？这些作品惨遭现实打脸",
        "docid": "7277120246530769465",
        "url": "https://www.ixigua.com/7277120246530769465"
    },
    {
        "title": "斗罗大陆第二百七十九集：两大供奉力战天才唐三",
        "docid": "7283800682103210533",
        "url": "https://www.ixigua.com/7283800682103210533"
    },
    {
        "title": "霸气夫人  #我在抖音看漫画 #有声漫画 #宅家看漫画",
        "docid": "7302962206717674047",
        "url": "https://www.ixigua.com/7302962206717674047"
    },
    {
        "title": "2023年国创动画发布会给出了68部新作，以下13部强烈推荐收藏！",
        "docid": "7283799740247081530",
        "url": "https://www.ixigua.com/7283799740247081530"
    },
    {
        "title": "斗罗大陆第二百九十一集：唐三竟要同时吸收三个九万年魂环",
        "docid": "7285266926861812258",
        "url": "https://www.ixigua.com/7285266926861812258"
    },
    {
        "title": "一张图让你看明白“单双休”的区别，网友：单休哪有双休工资高？",
        "docid": "7299290202567098915",
        "url": ""
    },
    {
        "title": "《Naruto》Vol.23",
        "docid": "7303865482245980722",
        "url": ""
    },
    {
        "title": "胖乎乎的十二生肖头像",
        "docid": "7303385942931489321",
        "url": ""
    },
    {
        "title": "刺客伍六七同人动画，青凤被首领终结，大号柒上线",
        "docid": "7300883864854266380",
        "url": "https://www.ixigua.com/7300883864854266380"
    },
    {
        "title": "一人之下中的六大名师，都无一例外的教跑了徒弟！",
        "docid": "7303844331582915072",
        "url": "https://www.ixigua.com/7303844331582915072"
    },
    {
        "title": "《异人之下》网剧里八奇技的原型出处",
        "docid": "7283063370826285629",
        "url": "https://www.ixigua.com/7283063370826285629"
    },
    {
        "title": "以前与现在神仙“腾云驾雾”对比，这简直是降维打击啊",
        "docid": "7281818607171043898",
        "url": "https://www.ixigua.com/7281818607171043898"
    },
    {
        "title": "火影中表现力极强的27个瞬间",
        "docid": "7289771061711733304",
        "url": "https://www.ixigua.com/7289771061711733304"
    },
    {
        "title": "斗罗大陆第二百三十一集：七怪合体使出最强一击惊呆波赛西",
        "docid": "7278231402465165885",
        "url": "https://www.ixigua.com/7278231402465165885"
    },
    {
        "title": "吞噬星空：罗峰怒花50亿买了什么东西？这个高升又是什么来历？",
        "docid": "7301214385647813130",
        "url": "https://www.ixigua.com/7301214385647813130"
    },
    {
        "title": "《蕾斯莱莉娅娜的炼金工房》国际版情报第一弹",
        "docid": "7303855231677252130",
        "url": ""
    },
    {
        "title": "《盘点推荐十几部超级好看的冷门番》",
        "docid": "7303856568901222964",
        "url": ""
    },
    {
        "title": "《Naruto》Vol.24",
        "docid": "7303867470354350642",
        "url": ""
    },
    {
        "title": "网法湘规丨普法漫画③：不让“身后事”变成“麻烦事”",
        "docid": "7303867942536659506",
        "url": ""
    },
    {
        "title": "内含福利丨蜡笔小新带着他的最新电影主题快闪店来啦！",
        "docid": "7303880041677685289",
        "url": ""
    },
    {
        "title": "《Naruto》Vol.21",
        "docid": "7303861534315807282",
        "url": ""
    },
    {
        "title": "一口气看完蜡笔小新2021年剧场版：谜团重重，花之天下学院",
        "docid": "7295302549967405606",
        "url": "https://www.ixigua.com/7295302549967405606"
    },
    {
        "title": "盘点奥特曼经典变身名场面，你还相信光吗？",
        "docid": "7271619766366929444",
        "url": "https://www.ixigua.com/7271619766366929444"
    },
    {
        "title": "双博主花费88个小时爆肝出的《蚂蚁少年》一个小时剧场版",
        "docid": "7285945620169228811",
        "url": "https://www.ixigua.com/7285945620169228811"
    },
    {
        "title": "男人偷吻熟睡中的师尊，却是为了扭转这一切悲剧，一口气看完",
        "docid": "7303636574841864714",
        "url": "https://www.ixigua.com/7303636574841864714"
    },
    {
        "title": "你真的看懂兔子了吗？",
        "docid": "7271198055817282082",
        "url": "https://www.ixigua.com/7271198055817282082"
    },
    {
        "title": "范马刃牙：人体化为长鞭，打出爆炸输出！",
        "docid": "7276814502321422882",
        "url": "https://www.ixigua.com/7276814502321422882"
    },
    {
        "title": "兔子最近又暴躁了",
        "docid": "7296434284938822178",
        "url": "https://www.ixigua.com/7296434284938822178"
    },
    {
        "title": "鹰酱拖垮毛熊的手段，被兔子用在它身上，南天门计划敢不敢跟？",
        "docid": "7272330039742923324",
        "url": "https://www.ixigua.com/7272330039742923324"
    },
    {
        "title": "彩绘师徒四人？好好好你这么玩是吧！彩绘被玩出花了",
        "docid": "7275661363119456826",
        "url": "https://www.ixigua.com/7275661363119456826"
    },
    {
        "title": "霸道老姐不可能对我见死不救",
        "docid": "7283547711037833764",
        "url": "https://www.ixigua.com/7283547711037833764"
    },
    {
        "title": "一人之下：全性凶伶夏柳青，没想到还是阳五雷的最佳修炼者",
        "docid": "7275693524547273274",
        "url": "https://www.ixigua.com/7275693524547273274"
    },
    {
        "title": "上演飞机争夺战",
        "docid": "7303466437342036517",
        "url": "https://www.ixigua.com/7303466437342036517"
    },
    {
        "title": "沙雕动画，上课一玩手机，老师就来袭，抓我就像在钓鱼。",
        "docid": "7283997508039082555",
        "url": "https://www.ixigua.com/7283997508039082555"
    },
    {
        "title": "鹰酱：我都出到B21了，你轰20呢？兔：我技术不行，只能造这个！",
        "docid": "7289391061926052392",
        "url": "https://www.ixigua.com/7289391061926052392"
    },
    {
        "title": "斗罗大陆第二百二十八集：七怪面对波赛西的挑战只有选择跑",
        "docid": "7277898945165001252",
        "url": "https://www.ixigua.com/7277898945165001252"
    },
    {
        "title": "一人之下：除了风后奇门之外，王也还掌握着另外一种秘籍",
        "docid": "7274430090354950692",
        "url": "https://www.ixigua.com/7274430090354950692"
    },
    {
        "title": "一人之下：火遍全网的哥的炉子碎了，始作俑者居然是自己干叔叔",
        "docid": "7276835590824264252",
        "url": "https://www.ixigua.com/7276835590824264252"
    },
    {
        "title": "空军有歼20，海军有055，陆军有啥？#鹰酱",
        "docid": "7289008451337290280",
        "url": "https://www.ixigua.com/7289008451337290280"
    },
    {
        "title": "集结零番队全部力量的卍解！千手丸干翻亲卫队！死神千年血战26下",
        "docid": "7284802041770312247",
        "url": "https://www.ixigua.com/7284802041770312247"
    },
    {
        "title": "钱还能这样挣？兔子搬出杀手锏，鹰酱瑟瑟发抖",
        "docid": "7295376522524033572",
        "url": "https://www.ixigua.com/7295376522524033572"
    },
    {
        "title": "盘点《雪中悍刀行》七大神兽结局",
        "docid": "7290533802421289509",
        "url": "https://www.ixigua.com/7290533802421289509"
    },
    {
        "title": "种花家兔子血脉觉醒！一人KO五个脚盆！",
        "docid": "7280874394195984896",
        "url": "https://www.ixigua.com/7280874394195984896"
    },
    {
        "title": "斗罗中唐三一家九口竟全是神,惹得毁灭神王疯狂吐槽 #动漫 #国漫",
        "docid": "7283861718827008551",
        "url": "https://www.ixigua.com/7283861718827008551"
    },
    {
        "title": "来自900年前的支援？深扒巨大机器人的秘密！",
        "docid": "7280085189336760872",
        "url": "https://www.ixigua.com/7280085189336760872"
    },
    {
        "title": "上海最可爱的展览在这里！还有互动装置、AR玩法→",
        "docid": "7303891930600391204",
        "url": ""
    },
    {
        "title": "申请成为你的工作头像",
        "docid": "7302050656557662774",
        "url": ""
    },
    {
        "title": "【漫说反走私】反走私灵魂拷问",
        "docid": "7303886357129101864",
        "url": ""
    },
    {
        "title": "唐舞桐奥斯卡宁荣荣小舞唐三唐舞麟脚也太臭了",
        "docid": "7303883338035659316",
        "url": "https://www.ixigua.com/7303883338035659316"
    },
    {
        "title": "我挂了还可以复活，这系统我也是爱了",
        "docid": "7303209094641517106",
        "url": "https://www.ixigua.com/7303209094641517106"
    },
    {
        "title": "龙珠：13位天使一族都是仆人，大神官比全王强，维斯能秒杀比鲁斯",
        "docid": "7274817954821177868",
        "url": "https://www.ixigua.com/7274817954821177868"
    },
    {
        "title": "全职猎人战力排行，猎人协会2星猎人，恐怖的不死凯特",
        "docid": "7294929237193327104",
        "url": "https://www.ixigua.com/7294929237193327104"
    },
    {
        "title": "假如烧烤店说真话，哈哈哈，笑死",
        "docid": "7289380623372780084",
        "url": "https://www.ixigua.com/7289380623372780084"
    },
    {
        "title": "斗罗大陆二百四十集：两大森林帝皇的实力惊呆武魂殿众人",
        "docid": "7278998088600158759",
        "url": "https://www.ixigua.com/7278998088600158759"
    },
    {
        "title": "斗罗大陆第二百二十四集：唐三的第五魂环竟变成红色十万年",
        "docid": "7277511097668764216",
        "url": "https://www.ixigua.com/7277511097668764216"
    },
    {
        "title": "12集冲上9.3，这成人动画封神",
        "docid": "7303126928515433000",
        "url": ""
    },
    {
        "title": "不同收入男人酒局接媳妇电话，你是哪种？#搞笑动画",
        "docid": "7277162550725509643",
        "url": "https://www.ixigua.com/7277162550725509643"
    },
    {
        "title": "几十吨重的手里剑砍一下是什么感觉？",
        "docid": "7270781391581905464",
        "url": "https://www.ixigua.com/7270781391581905464"
    },
    {
        "title": "身高超过50米的超级巨人出现！",
        "docid": "7291552635948597820",
        "url": "https://www.ixigua.com/7291552635948597820"
    },
    {
        "title": "骆驼：拿着你的票子，离开我的船 兔子：666@极品雕",
        "docid": "7286338615196516918",
        "url": "https://www.ixigua.com/7286338615196516918"
    },
    {
        "title": "玩金花时这是我见过胆子最大的！",
        "docid": "7274925206219850300",
        "url": "https://www.ixigua.com/7274925206219850300"
    },
    {
        "title": "神秘人又来了！还出资让鹰酱支援戴胜鸟，鹰酱居然认怂了",
        "docid": "7288596730357121597",
        "url": "https://www.ixigua.com/7288596730357121597"
    },
    {
        "title": "\"守护妹妹是哥哥的责任\"---卫宫士郎#二次元 #混剪",
        "docid": "7273116666819674658",
        "url": "https://www.ixigua.com/7273116666819674658"
    },
    {
        "title": "大毛要帮我们收拾湾湾，太好了",
        "docid": "7285306392125276729",
        "url": "https://www.ixigua.com/7285306392125276729"
    },
    {
        "title": "霸气！兔子又给鹰酱念诗了，山海经才是王炸",
        "docid": "7291184621843120697",
        "url": "https://www.ixigua.com/7291184621843120697"
    },
    {
        "title": "本以为是大团结，咋又吵起来了呢#万万没想到 #搞笑动画 #沙雕",
        "docid": "7291509252034986511",
        "url": "https://www.ixigua.com/7291509252034986511"
    },
    {
        "title": "第78集：苟道无敌：灵汐月苏醒！牧凡继承力族传承！",
        "docid": "7303846358002500096",
        "url": "https://www.ixigua.com/7303846358002500096"
    },
    {
        "title": "这场架，难打了",
        "docid": "7291975538326340111",
        "url": "https://www.ixigua.com/7291975538326340111"
    },
    {
        "title": "鹰酱：兔子，你们家不对劲，很不对劲。",
        "docid": "7293128353882571304",
        "url": "https://www.ixigua.com/7293128353882571304"
    },
    {
        "title": "狗大户凭实力拿捏兔子",
        "docid": "7300135647849906751",
        "url": "https://www.ixigua.com/7300135647849906751"
    },
    {
        "title": "沧元图中晏烬是何来历？他的结局又如何？#国漫 #沧元图",
        "docid": "7289351286854517287",
        "url": "https://www.ixigua.com/7289351286854517287"
    },
    {
        "title": "霍雨浩的冰帝武魂暴露，龙神斗罗穆恩亲自前往极北之地验证#国漫",
        "docid": "7294980544667124239",
        "url": "https://www.ixigua.com/7294980544667124239"
    },
    {
        "title": "盘点唐三生平收过的礼物，最后一件足以震撼整个斗罗大陆",
        "docid": "7273753585740218899",
        "url": "https://www.ixigua.com/7273753585740218899"
    },
    {
        "title": "兵主部一兵卫对战友哈巴赫",
        "docid": "7285186046130651663",
        "url": "https://www.ixigua.com/7285186046130651663"
    },
    {
        "title": "什么？没看过瘾，那就再来一期！【庞然大物的压迫感】",
        "docid": "7276399151133721124",
        "url": "https://www.ixigua.com/7276399151133721124"
    },
    {
        "title": "《魔剑生死棋》十大高手排名",
        "docid": "7302827962993213962",
        "url": ""
    },
    {
        "title": "国产漫改天花板！张灵玉首次展现水脏雷，楚岚被虐的怀疑人生",
        "docid": "7278332865635418684",
        "url": "https://www.ixigua.com/7278332865635418684"
    },
    {
        "title": "我在洪荒写日记，1--28集两小时合集",
        "docid": "7286849499752989225",
        "url": "https://www.ixigua.com/7286849499752989225"
    },
    {
        "title": "南京给武汉取了个搞笑的外号，这下有好戏看了#原创动画 #动画",
        "docid": "7276761505939489292",
        "url": "https://www.ixigua.com/7276761505939489292"
    },
    {
        "title": "我是格鲁特第二季，格鲁特实在是太可爱了",
        "docid": "7275890058467639865",
        "url": "https://www.ixigua.com/7275890058467639865"
    },
    {
        "title": "兔子的火力不足恐惧症，官方吐槽最为致命。#那年那兔那些事",
        "docid": "7303144422227739199",
        "url": "https://www.ixigua.com/7303144422227739199"
    },
    {
        "title": "五副主铠甲实力排名，炎龙铠甲有无限可能，拿瓦限制召唤人的实力",
        "docid": "7276797260460261940",
        "url": "https://www.ixigua.com/7276797260460261940"
    },
    {
        "title": "一人之下：不愧是大慈大悲肖自在，修炼这一身的佛门功法",
        "docid": "7276817222356599311",
        "url": "https://www.ixigua.com/7276817222356599311"
    },
    {
        "title": "南天门计划，鹰酱你跟不跟，跟你就上当了，不跟那我可就量产了。",
        "docid": "7301295775295177253",
        "url": "https://www.ixigua.com/7301295775295177253"
    },
    {
        "title": "键盘侠陨落，原始人血战神逆",
        "docid": "7303564487448232458",
        "url": "https://www.ixigua.com/7303564487448232458"
    }
]