[
    {
        "title": "女生的胸部是一个迷！挺有意思的",
        "docid": "7346004933734367763",
        "url": ""
    },
    {
        "title": "富人的周末和穷人的周末，你属于哪一种？",
        "docid": "7346097672400519731",
        "url": ""
    },
    {
        "title": "丢你发海，超级搞笑短剧，热门爆笑沙雕动画，让你开开心心每一天",
        "docid": "7334292369242194468",
        "url": ""
    },
    {
        "title": "当苏州得知合肥用机场改成了骆岗中央公园，反应笑喷",
        "docid": "7321380524961595941",
        "url": ""
    },
    {
        "title": "改编歌曲《突然的自我》之广西酒鬼多 #沙雕动画 #看一遍笑一遍",
        "docid": "7326886187224793610",
        "url": ""
    },
    {
        "title": "原来结婚与不结婚真不一样，你看懂了吗？现实生活漫画,仅供娱乐",
        "docid": "7345847706960658980",
        "url": ""
    },
    {
        "title": "八大古都互相不服#沙雕动画 #河南 #河南dou知道 #古都会",
        "docid": "7336007649533624847",
        "url": ""
    },
    {
        "title": "剧场版Air：明日香被残忍啃食，初号机成神还原生命之树",
        "docid": "7328729230718861878",
        "url": ""
    },
    {
        "title": "为何石昊不以石为名叫石天帝，而是叫做荒天帝呢？",
        "docid": "7325449961380938259",
        "url": ""
    },
    {
        "title": "兔子不是列强，但兔子胜似列强",
        "docid": "7330138829208322595",
        "url": ""
    },
    {
        "title": "这就是父亲与儿子的关系，经典又现实，生动形象的漫画看完很受益",
        "docid": "7346236196877500991",
        "url": ""
    },
    {
        "title": "工业大摸底之长光卫星",
        "docid": "7317255950338490921",
        "url": ""
    },
    {
        "title": "当你让广东朋友教你说粤语 #沙雕动画 #广东话 #一定要看到最后",
        "docid": "7319800237227246130",
        "url": ""
    },
    {
        "title": "“三百多只调皮狼崽，只有十三妹最听话”",
        "docid": "7329855453654057487",
        "url": ""
    },
    {
        "title": "速度五五开#充能计划动漫 #沙雕动画 #脑洞大开的动漫",
        "docid": "7345474504392770084",
        "url": ""
    },
    {
        "title": "大熊未来岛超神救场！五老星萨坦自曝秘密！",
        "docid": "7317166855091651098",
        "url": ""
    },
    {
        "title": "国漫主角出生到什么程度？唐三给女儿戴Z操锁，巴啦啦主角成反派",
        "docid": "7345794050006221338",
        "url": ""
    },
    {
        "title": "《我必须建机场》#江苏 #江苏十三太保",
        "docid": "7316373129034072639",
        "url": ""
    },
    {
        "title": "第六魔王，波旬 #动漫 #动漫解说 #终末的女武神",
        "docid": "7345135547842560550",
        "url": ""
    },
    {
        "title": "Sailor moon美少女战士——如此母女欢乐多，小兔，小小兔",
        "docid": "7346048222156079650",
        "url": ""
    },
    {
        "title": "大圆满神通降世！凡人顶礼膜拜",
        "docid": "7339178597858411018",
        "url": ""
    },
    {
        "title": "直到现在我才知道，为什么那兔不允许在电视上播出",
        "docid": "7336873938817516082",
        "url": ""
    },
    {
        "title": "如来和他谁更强一些。 #国漫#西行纪",
        "docid": "7334607386881524251",
        "url": ""
    },
    {
        "title": "手术中，被切掉的人体“零部件”，最终去了哪？（漫画揭秘）",
        "docid": "7346190499725722163",
        "url": ""
    },
    {
        "title": "有老公和没老公的区别，你看懂了吗？生动形象的漫画，太现实了",
        "docid": "7346206462412161536",
        "url": ""
    },
    {
        "title": "动漫影视#除了自己，一家人都不是正常人是什么体验?#",
        "docid": "7330861219387015714",
        "url": ""
    },
    {
        "title": "男人最帅的九种姿势",
        "docid": "7346227325299884556",
        "url": ""
    },
    {
        "title": "大雄用凝固灯将静香的池水固化，结果被她追着跑 #好书大晒",
        "docid": "7324282528150487588",
        "url": ""
    },
    {
        "title": "一月新番：人类公主沦为魔王军阶下囚！一日三餐，你管这叫拷问？",
        "docid": "7322389977835733513",
        "url": ""
    },
    {
        "title": "巨蜥破壳得上树啊，你知道为什么吗？你知道虎毒不食子吗？",
        "docid": "7331531087073837606",
        "url": ""
    },
    {
        "title": "大毛深度分析兔子有多变态，鹰酱听了心塞，终于尝到被碾压的滋味",
        "docid": "7332422222092927527",
        "url": ""
    },
    {
        "title": "他是凡人修仙中最阴的老六，平时装作一具枯骨专门夺取他人修为！",
        "docid": "7344247676386411027",
        "url": ""
    },
    {
        "title": "汤姆家里来了一只远古老猫，就连斯派克都不是他的对手！",
        "docid": "7331714914446541348",
        "url": ""
    },
    {
        "title": "我想买宝马，超级搞笑短剧，热门爆笑沙雕动画让你开心每一天",
        "docid": "7339485205172617780",
        "url": ""
    },
    {
        "title": "《罗刹海誓》台湾版 #歌曲改编 #台湾当归",
        "docid": "7329426550498001449",
        "url": ""
    },
    {
        "title": "《幽游白书真人版》第3集 魔强统一战大结局",
        "docid": "7313878479949267465",
        "url": ""
    },
    {
        "title": "平时又哭又闹的妹妹，认真起来居然这么强#从红月开始动画开播",
        "docid": "7316373706819764772",
        "url": ""
    },
    {
        "title": "几十年如一日的努力，也比不上一句命中注定！ #功夫熊猫",
        "docid": "7316085133419905551",
        "url": ""
    },
    {
        "title": "让人意想不到的女生敏感点top1",
        "docid": "7330552422261211667",
        "url": ""
    },
    {
        "title": "说起吃，什么才是广东人的“最爱”？",
        "docid": "7346220696080499250",
        "url": ""
    },
    {
        "title": "谁能拒绝在女生面前变身救场呢",
        "docid": "7315995941457265163",
        "url": ""
    },
    {
        "title": "伊姆发动新能力！！#海贼王",
        "docid": "7321214987781964342",
        "url": ""
    },
    {
        "title": "吞噬星空：罗峰喜提第二分身，一个破损的皮肤为何让他倾家荡产",
        "docid": "7325732259045376539",
        "url": ""
    },
    {
        "title": "哨子响起的一刻，我就知道我们肯定赢～#数码宝贝定档",
        "docid": "7343636948361151011",
        "url": ""
    },
    {
        "title": "横行霸道多年的鹰酱，也有这么落魄的时候",
        "docid": "7314345327534965287",
        "url": ""
    },
    {
        "title": "地球村！大户请我们帮忙修高铁，结果我们倒亏40亿！",
        "docid": "7343942141963403787",
        "url": ""
    },
    {
        "title": "#动漫推荐 #二次元动漫 #福利番 “夏天的开始果然还是令人激动呢",
        "docid": "7346194916940186164",
        "url": ""
    },
    {
        "title": "“就算你忘记了我，我也永远记得你” #二次元",
        "docid": "7346185598878941715",
        "url": ""
    },
    {
        "title": "大省交流　应当雅量 #江苏十三太保 #机场#特大城市  #搞笑",
        "docid": "7324160971314987546",
        "url": ""
    },
    {
        "title": "奥特美食盘点：哪位人间体的伙食最好？",
        "docid": "7333194946135523903",
        "url": ""
    },
    {
        "title": "天火尊者第一次见到萧炎心心念念的药老时有何反应",
        "docid": "7339700653792428544",
        "url": ""
    },
    {
        "title": "道家有一道，空无一人，此道为“何道”？#搞笑 #脑洞大开",
        "docid": "7345783182471627301",
        "url": ""
    },
    {
        "title": "悟天特兰克斯第一次合作对敌",
        "docid": "7345045855352979995",
        "url": ""
    },
    {
        "title": "龙珠超70，悟空觉醒自在极意",
        "docid": "7315111608798151209",
        "url": ""
    },
    {
        "title": "千仞雪结局曝光，丰腴身材被人染指，玉女沦为堕妇？",
        "docid": "7345821165472219683",
        "url": ""
    },
    {
        "title": "打神石居然落草为寇 #国漫",
        "docid": "7343592199730397747",
        "url": ""
    },
    {
        "title": "年轻就是好，倒头就睡~~",
        "docid": "7332696956076032512",
        "url": ""
    },
    {
        "title": "超级漫画，你看懂了吗？",
        "docid": "7346196525040812559",
        "url": ""
    },
    {
        "title": "萧炎两个孩子谁更强？萧潇出生就是斗宗强者，萧霖成为了火域少主",
        "docid": "7345487846997754377",
        "url": ""
    },
    {
        "title": "爸爸妈妈吵架，萌娃语出惊人“劝离婚”",
        "docid": "7325424520196850202",
        "url": ""
    },
    {
        "title": "日子清静，抬头皆是温柔",
        "docid": "7346253876128973327",
        "url": ""
    },
    {
        "title": "谁家干架把祖宗摇过来的，连累祖宗也得吃瘪 #国漫 #练气十万年",
        "docid": "7333805224181957146",
        "url": ""
    },
    {
        "title": "一月新番:游戏大神挑战开挂BOSS,只要摸到就被秒",
        "docid": "7331842091762483750",
        "url": ""
    },
    {
        "title": "《假如2》第七集，这不就燃起来了，海拉灭奥丁，十环干灭霸 ！",
        "docid": "7317943724497961472",
        "url": ""
    },
    {
        "title": "重生成为骷髅，吞噬就能进化，这也太爽啦！",
        "docid": "7323649628417557028",
        "url": ""
    },
    {
        "title": "超级高手每次出门都在身上加持无数道封印伪装菜鸟",
        "docid": "7322728987598258700",
        "url": ""
    },
    {
        "title": "2024年有望成为黑马的10部国漫？",
        "docid": "7330195479235396148",
        "url": ""
    },
    {
        "title": "喂 白胡子的见习小鬼#雷利",
        "docid": "7313401557964620338",
        "url": ""
    },
    {
        "title": "#二次元 #动漫推荐  谁能不爱二次元",
        "docid": "7317511687970816531",
        "url": ""
    },
    {
        "title": "不良人大结局：冥帝才是最悲哀之人，表面权利在握其实全是卧底",
        "docid": "7319319215436268086",
        "url": ""
    },
    {
        "title": "电视上永远消失的4部动画片 #8090动漫 #童年动画",
        "docid": "7334202681999360547",
        "url": ""
    },
    {
        "title": "确诊了，#侯卿，他确实有病…#画江湖之不良人 #国漫",
        "docid": "7344122203166016052",
        "url": ""
    },
    {
        "title": "朋友的关怀只是缓解痛苦的蜂蜜",
        "docid": "7314093092985012776",
        "url": ""
    },
    {
        "title": "这几年，狗大户是越来越爱兔子了",
        "docid": "7332545872217145894",
        "url": ""
    },
    {
        "title": "罗峰的两个儿子究竟谁更菜呢？有一个最后的境界甚至连徐欣都不如",
        "docid": "7313948311818830345",
        "url": ""
    },
    {
        "title": "《我只是个计量单位啊》#沙雕动画 #豫村杂闻 #河南",
        "docid": "7337532486332875301",
        "url": ""
    },
    {
        "title": "世界网友口舌之争之管理权#沙雕动画制作 #幽默笑话 #动漫视频",
        "docid": "7315953878682305063",
        "url": ""
    },
    {
        "title": "海贼王1110话详细情报！五老星全型态名，索隆听到山治批评出新招",
        "docid": "7346008277991571995",
        "url": ""
    },
    {
        "title": "任何武技在他面前，只需扫上一眼就学会了",
        "docid": "7313529388526469644",
        "url": ""
    },
    {
        "title": "嗯！银，你的篮球技术得到了吾的肯定",
        "docid": "7346038945383186979",
        "url": ""
    },
    {
        "title": "叶辰把楚萱儿师傅亲上了，师徒恋你们爱了吗#国风剧场 #仙武传",
        "docid": "7318591583010914831",
        "url": ""
    },
    {
        "title": "心理承受不住#二次元 #番剧 #动漫推荐 #治愈系 #傲娇",
        "docid": "7346061138276614708",
        "url": ""
    },
    {
        "title": "这应该是南宁最大的一次漫展了吧",
        "docid": "7337137737134572044",
        "url": ""
    },
    {
        "title": "又一集杀疯！制作组的大胆再上一层楼！这番改得原作者不敢动！",
        "docid": "7333261450477044236",
        "url": ""
    },
    {
        "title": "李嗣源，今日是本帅裁了， 下次再见，定取你头颅#画江湖之不良人",
        "docid": "7346106988507431476",
        "url": ""
    },
    {
        "title": "第328集 艾特你的病娇闺蜜#细思极恐",
        "docid": "7323644829877928458",
        "url": ""
    },
    {
        "title": "很难想象编剧是以什么样的精神状态写出这样抽象的剧情",
        "docid": "7334913692590735922",
        "url": ""
    },
    {
        "title": "区区蝼蚁，妄图反抗吾神，可笑",
        "docid": "7322860157841768996",
        "url": ""
    },
    {
        "title": "一月新番：女主转生成了游戏了中的隐藏boss，从小就开始疯狂练级",
        "docid": "7322148083490357771",
        "url": ""
    },
    {
        "title": "漫画：男人要经历什么才能长大？",
        "docid": "7314973057796801051",
        "url": ""
    },
    {
        "title": "“迪迦的再次出现代表着我们的童年回不来了”#奥特曼",
        "docid": "7334539114840556044",
        "url": ""
    },
    {
        "title": "《你的样子》寒假版，辅导作业时的你#搞笑歌曲改编",
        "docid": "7329487081477800500",
        "url": ""
    },
    {
        "title": "咒术回战，芥见晒草稿遭疯狂吐槽，网友：千年画工退步第一人",
        "docid": "7345446408960344617",
        "url": ""
    },
    {
        "title": "哈哈哈哈哈哈哈哈有谁会不爱王也啊！ #王也  #王也踏青图",
        "docid": "7321745287138148890",
        "url": ""
    },
    {
        "title": "靠运气赌对神级果实，三人成四皇，还有两人准大将 #海贼王",
        "docid": "7336833852356493834",
        "url": ""
    },
    {
        "title": "千百二老为保内院出手，众人震撼，地魔老鬼吓尿！萧炎以为是斗尊",
        "docid": "7329051727762719270",
        "url": ""
    },
    {
        "title": "网友在漫展偶遇瓦力机器人，“看见瓦力觉得很伤感”",
        "docid": "7343581081805390373",
        "url": ""
    },
    {
        "title": "工业大摸底之又惊又喜#原创动画 #工业大摸底",
        "docid": "7321654999799955994",
        "url": ""
    },
    {
        "title": "大秦重工，联合作战，刑天重型载人机甲首现！99年保卫战动画",
        "docid": "7333607154165350948",
        "url": ""
    },
    {
        "title": "《神兵玄奇》剧情有多炸裂？燕王六亲不认，绝世美人献身巨猿之王",
        "docid": "7313101599004590643",
        "url": ""
    },
    {
        "title": "大帅为了救巧儿，单刀赴宴#秋日暴击  #不能错过的番  #暗岛动漫",
        "docid": "7317965105307517452",
        "url": ""
    },
    {
        "title": "龙皓晨的姨母不费吹灰之力就成为了魔神皇，简直就是躺赢呀！",
        "docid": "7330637920515228200",
        "url": ""
    },
    {
        "title": "盘点不同奥特搞笑名场面",
        "docid": "7345731762133631523",
        "url": ""
    },
    {
        "title": "烈焰：剧中四大种族介绍（一）",
        "docid": "7343798081172800034",
        "url": ""
    },
    {
        "title": "兔子用航母打鱼#沙雕动画 #原创动画 #看一遍笑一遍 #动画",
        "docid": "7326005065242804787",
        "url": ""
    },
    {
        "title": "阿衰要死了 全校关爱",
        "docid": "7346073639026098740",
        "url": ""
    },
    {
        "title": "海贼王1110话全图，索隆一刀砍伤路奇，五老星脑袋被巨人船长砍掉",
        "docid": "7346099472968991242",
        "url": ""
    },
    {
        "title": "斗罗这波暗示已经很明显了，唐舞桐被鬼父唐三一分为二已成定局",
        "docid": "7315710780363440691",
        "url": ""
    },
    {
        "title": "理性分析：究竟哪五个人的组合堪称灌篮高手中的最佳阵容？",
        "docid": "7327488235259707919",
        "url": ""
    },
    {
        "title": "夫妻的一生，用几张漫画表现得太形象了",
        "docid": "7341384467854246400",
        "url": ""
    },
    {
        "title": "数码宝贝：第一部最强战力排行榜，谁才是你心中的最强数码兽",
        "docid": "7322860690929631756",
        "url": ""
    },
    {
        "title": "妈妈的审美 VS 我的审美",
        "docid": "7326796890215858715",
        "url": ""
    },
    {
        "title": "海贼王1110话情报：五老星恶魔果实全公布，野马、虫子、野猪、鸟",
        "docid": "7345498386004689447",
        "url": ""
    },
    {
        "title": "讨厌香菜是有原因的，香菜有股臭虫味不是错觉",
        "docid": "7338950054197199411",
        "url": ""
    },
    {
        "title": "武大郎用生命告诉我们，没钱就不要玩高配！",
        "docid": "7328934430645649970",
        "url": ""
    },
    {
        "title": "漫画：我做饭VS我妈做饭",
        "docid": "7342495272449081910",
        "url": ""
    },
    {
        "title": "五部让人压抑的动漫，看完需要勇气！",
        "docid": "7331367421322232357",
        "url": ""
    },
    {
        "title": "漫画揭秘，一家人到底谁最累，内容真实，太真现实了，区别太大了",
        "docid": "7345811848035484214",
        "url": ""
    },
    {
        "title": "用宫崎骏的画风来画《海贼王》的角色，太惊艳了！",
        "docid": "7333871580726493706",
        "url": ""
    },
    {
        "title": "是不是每个妈妈都会有这种感慨？",
        "docid": "7330828341202862601",
        "url": ""
    },
    {
        "title": "为了找乐子，一群14岁的孩子将一个成年人羞辱致死，真实改编",
        "docid": "7324516631831724583",
        "url": ""
    },
    {
        "title": "买房前VS买房后，这漫画太真实了吧！你品，你细品！",
        "docid": "7314073882444087818",
        "url": ""
    },
    {
        "title": "7部超好看的修仙动漫，你都看过几部",
        "docid": "7326024787963298304",
        "url": ""
    },
    {
        "title": "火影中日向雏田从小到大的6张美照：15岁迷倒众生，32岁美貌不减",
        "docid": "7326438437668618752",
        "url": ""
    },
    {
        "title": "为什么火灵儿去上界之后就放弃修炼了，甘愿做一个采桑女？",
        "docid": "7341392183276241444",
        "url": ""
    },
    {
        "title": "万代提供的原圣斗士星矢盔甲废案 多亏当年动画没有采纳这个设定",
        "docid": "7320505986966372918",
        "url": ""
    },
    {
        "title": "国漫风向已变，今后国漫界不会出现什么年番了，只因为这两个原因",
        "docid": "7328288381350576666",
        "url": ""
    },
    {
        "title": "柯南：毛利夫妇被吐槽是最恶臭CP，网友：代入一下都觉得很窒息",
        "docid": "7320918995673858599",
        "url": ""
    },
    {
        "title": "漫画：全国老婆统一床上语录被曝光，大家老婆都占几个",
        "docid": "7345072146005738023",
        "url": ""
    },
    {
        "title": "用AI还原《海贼王》！五老星绝了，卡普气势无敌，罗杰有那味了",
        "docid": "7334602383278047798",
        "url": ""
    },
    {
        "title": "90年代时井上雄彦：难道日本再也没机会打败亚洲之王中国男篮吗？",
        "docid": "7339449585452007976",
        "url": ""
    },
    {
        "title": "这就是没钱男人的一天，太心酸了，看完我哭了！",
        "docid": "7341378230534963750",
        "url": ""
    },
    {
        "title": "宫崎骏动画壁纸 I 千与千寻壁纸 I 视觉分享",
        "docid": "7319477536654770728",
        "url": ""
    },
    {
        "title": "当我学会“自私”后，夫妻关系反而越来越近了，漫画讲述很真实",
        "docid": "7326132910632026663",
        "url": ""
    },
    {
        "title": "成年男女的下头行为，看完已经忍不住了！",
        "docid": "7321640180778205707",
        "url": ""
    },
    {
        "title": "早已完结却无人问津的6部国产动漫，错过真的太可惜了",
        "docid": "7326010772789117466",
        "url": ""
    },
    {
        "title": "漫画：男生会嫌弃女朋友的家境吗？不妨听听男人怎么说",
        "docid": "7320205798955647524",
        "url": ""
    },
    {
        "title": "可爱又奇怪的生理知识又增加了！",
        "docid": "7341618665626059315",
        "url": ""
    },
    {
        "title": "鸟山明的小心思，《七龙珠》三大反派，原型竟然都是他的编辑",
        "docid": "7344370094783234623",
        "url": ""
    },
    {
        "title": "用AI还原《海贼王》人物！凯多最霸气，绿牛帅爆了，白胡子很赞",
        "docid": "7320210993039557154",
        "url": ""
    },
    {
        "title": "漫画：身为一名鉴黄师，会有多“痛苦”呢？",
        "docid": "7316135272880964123",
        "url": ""
    },
    {
        "title": "女生的胸部是一个迷！挺有意思的",
        "docid": "7346262967015359014",
        "url": ""
    },
    {
        "title": "落日归山海，烟火向星辰，所愿皆所成",
        "docid": "7319380083767460367",
        "url": ""
    },
    {
        "title": "解读一张1899年的美国漫画，让你看到一个从未改变侵略本质的美国",
        "docid": "7345498754025767450",
        "url": ""
    },
    {
        "title": "（漫画）同居后，我发现了女朋友这么多的秘密",
        "docid": "7325034101189607990",
        "url": ""
    },
    {
        "title": "韩立被骂，藏拙导致队友全灭，过度谨慎被骂惨了，事实却并非如此",
        "docid": "7345285946276971035",
        "url": ""
    },
    {
        "title": "1099元，便能租一个15岁女孩当女友，漫画揭露一条暗黑产业链",
        "docid": "7345280644903109183",
        "url": ""
    },
    {
        "title": "以前化妆VS现在化妆（漫画）",
        "docid": "7327283931890876982",
        "url": ""
    },
    {
        "title": "近嫁和远嫁的区别，生动形象的漫画，你看懂了吗？",
        "docid": "7340602486631285283",
        "url": ""
    },
    {
        "title": "夫妻的一生，有老公和没老公的区别。用几张漫画表现得太生动形象",
        "docid": "7343938005864481332",
        "url": ""
    },
    {
        "title": "男人有钱后和女人有钱后，你看懂了吗？太现实了，幽默搞笑的漫画",
        "docid": "7316118802767659560",
        "url": ""
    },
    {
        "title": "如果“坏”有指数：超能勇士原始兽邪恶等级排行",
        "docid": "7316705326886273588",
        "url": ""
    },
    {
        "title": "《封神》坐骑排名前20位，九龙沉香辇由鸿钧老祖亲手打造",
        "docid": "7322434887246643721",
        "url": ""
    },
    {
        "title": "漫画：当代女生单身现状",
        "docid": "7334579861190984244",
        "url": ""
    },
    {
        "title": "（漫画）现在的爸爸是废了",
        "docid": "7329506683347075619",
        "url": ""
    },
    {
        "title": "短文化才穿模？大制作穿模更可怕，凡人掉衣服，斗罗穿模成黑历史",
        "docid": "7329342051400532543",
        "url": ""
    },
    {
        "title": "斗破苍穹异火榜",
        "docid": "7342765451375739455",
        "url": ""
    },
    {
        "title": "当你老了，看哭了",
        "docid": "7346190410446111284",
        "url": ""
    },
    {
        "title": "七龙珠65卷主角战力阵营演变图",
        "docid": "7344763293434855955",
        "url": ""
    },
    {
        "title": "圣斗士：五小强奇妙的导师分配 实力最弱的师父教出最强的徒弟",
        "docid": "7343807359120081419",
        "url": ""
    },
    {
        "title": "男人生病与女人生病的区别，幽默风趣的漫画，你看懂了吗？",
        "docid": "7320992857233031715",
        "url": ""
    },
    {
        "title": "治愈系壁纸：诗与远方都浪漫",
        "docid": "7316176204778717705",
        "url": ""
    },
    {
        "title": "18张讽刺现实的漫画，直击当今社会的现实",
        "docid": "7346253258333618703",
        "url": ""
    },
    {
        "title": "斗破苍穹：远古八大族中，彼此之间实力差距有多大",
        "docid": "7323580579067544127",
        "url": ""
    },
    {
        "title": "七八十年代的年画，让人难以割舍",
        "docid": "7314097579585716751",
        "url": ""
    },
    {
        "title": "回不去的小时候",
        "docid": "7319340352207503922",
        "url": ""
    },
    {
        "title": "爱孩子最优秀的方法，值得学习！",
        "docid": "7346380127103910412",
        "url": ""
    },
    {
        "title": "[日文版]龙珠GT映画TV特别篇[鸟山明][1卷全]",
        "docid": "7346224614177849897",
        "url": ""
    },
    {
        "title": "龙珠未来篇：Z战士团灭，悟饭断臂战死，或许这才是主时空",
        "docid": "7315818168520475177",
        "url": ""
    },
    {
        "title": "数码宝贝：历代出现的错误进化，哪个是你的童年阴影？",
        "docid": "7336225025491862079",
        "url": ""
    },
    {
        "title": "治愈漫画 | 请允许一切发生",
        "docid": "7329711837727982080",
        "url": ""
    },
    {
        "title": "治愈系头像|平平淡淡是生活,来来去去是人生",
        "docid": "7338607561576432139",
        "url": ""
    },
    {
        "title": "漫画：当代男生统一床上语录，一句都别信",
        "docid": "7345762600632222248",
        "url": ""
    },
    {
        "title": "《龙珠》：现实中拥有1.5亿战斗力，能做什么有意义的事情？",
        "docid": "7343251849660842506",
        "url": ""
    },
    {
        "title": "壁纸｜龙行龘龘，事业如龙盘虎踞般稳固，生活如龙腾虎跃般精彩！",
        "docid": "7331634525179937320",
        "url": ""
    },
    {
        "title": "这些行为，早已出卖了你的隐私【漫画】",
        "docid": "7322088996765598258",
        "url": ""
    },
    {
        "title": "圣斗士：不断转生的天马座为何拥有弑神之力？因为他原本就是神！",
        "docid": "7323754314294460991",
        "url": ""
    },
    {
        "title": "富婆头像",
        "docid": "7334952923568669247",
        "url": ""
    },
    {
        "title": "龙珠：最悲情的角色，靠捡破烂想要改变历史，最终死不瞑目！",
        "docid": "7345471403271979561",
        "url": ""
    },
    {
        "title": "壁纸：小清新壁纸(三)",
        "docid": "7323927966893752832",
        "url": ""
    },
    {
        "title": "漫画：今天，我们将揭开一条“恶心”的产业链，你或许经历过",
        "docid": "7327261149458940453",
        "url": ""
    },
    {
        "title": "那些被封印的六部动漫，看过三部以上的，就偷着乐吧！ #动漫推荐",
        "docid": "7316067813431607858",
        "url": ""
    },
    {
        "title": "至高进化为什么保留至高族，原来是为了满足他变态的欲望",
        "docid": "7328243823640937000",
        "url": ""
    },
    {
        "title": "无双剑匣十三剑仅出四剑，便让白发仙无法招架 #少年歌行 #武侠",
        "docid": "7316458387162858019",
        "url": ""
    },
    {
        "title": "男人仅用5秒就吃掉了一只烤乳猪？烈海王vs铎尔一口气打完！#动漫",
        "docid": "7320517736226882111",
        "url": ""
    },
    {
        "title": "龙珠：七条神龙大盘点，除了地球神龙外，你还知道哪几条神龙？",
        "docid": "7346033180761342475",
        "url": ""
    },
    {
        "title": "以前穷和现在穷的区别，太现实了，幽默漫画值得一看",
        "docid": "7332417859975037451",
        "url": ""
    },
    {
        "title": "这些动画片，8090后小时候一定看过",
        "docid": "7326781474245345807",
        "url": ""
    },
    {
        "title": "周星驰、周杰伦都致敬过，为什么《龙珠》是众多网友眼中的“世界",
        "docid": "7345571803781202444",
        "url": ""
    },
    {
        "title": "以前的刀法特效对比现在的刀法特效，你更喜欢哪一个？",
        "docid": "7327207414019818024",
        "url": ""
    },
    {
        "title": "一拳超人第100话：悔恨的泪水-上（汉化版）",
        "docid": "7346380045067485722",
        "url": ""
    },
    {
        "title": "兔子的投票路子有多野，那是将鹰酱急的破口大骂",
        "docid": "7327222454940762636",
        "url": ""
    },
    {
        "title": "来一组招财壁纸🧧🧧🧧",
        "docid": "7337491395676406307",
        "url": ""
    },
    {
        "title": "讲出你的羞耻噩梦，我们做成视频，让别人开心开心！",
        "docid": "7339398720611418675",
        "url": ""
    },
    {
        "title": "每个男人做梦都想拥有一台属于自己的机甲",
        "docid": "7316626608037560873",
        "url": ""
    },
    {
        "title": "龙珠超官宣，本月照常更新，父子对决继续，自在极意成了千古绝唱",
        "docid": "7345399330738422291",
        "url": ""
    },
    {
        "title": "1到9代火影分别是谁？你都知道吗？",
        "docid": "7321387082658939403",
        "url": ""
    },
    {
        "title": "女生的胸部是一个迷！挺有意思的",
        "docid": "7346396705547371042",
        "url": ""
    },
    {
        "title": "100年前女娲补天的第一现场#动画解说 #国产动画#动画#故事",
        "docid": "7327640883963101747",
        "url": ""
    },
    {
        "title": "七龙珠：超级赛亚人的14种变身设定，哪种是你最喜欢的形态？",
        "docid": "7328026506997842486",
        "url": ""
    },
    {
        "title": "海贼王：黑胡子如履薄冰，真正的卧底并非青雉希留！",
        "docid": "7323243182438515241",
        "url": ""
    },
    {
        "title": "昊灵终于相遇了，妈呀有点催泪，一眼就认出了",
        "docid": "7345491203561161225",
        "url": ""
    },
    {
        "title": "爱尔兰插画师Paul Delaney",
        "docid": "7316687125389541927",
        "url": ""
    },
    {
        "title": "男孩与女朋友约会时，出现了女孩的老爸",
        "docid": "7343499734419505700",
        "url": ""
    },
    {
        "title": "刚刚还在看不起老师年龄太小，下一秒就被打脸#国漫",
        "docid": "7329168925596975679",
        "url": ""
    },
    {
        "title": "壁纸已送达",
        "docid": "7344956983302636095",
        "url": ""
    },
    {
        "title": "富人的周末和穷人的周末，你属于哪一种？",
        "docid": "7345890180278223375",
        "url": ""
    },
    {
        "title": "头像分享，四处走走，你会热爱这个世界",
        "docid": "7322064122332742198",
        "url": ""
    },
    {
        "title": "漫画 | 消费时遇到这些“坑”，你可以勇敢说“不”！",
        "docid": "7346417265560011303",
        "url": ""
    },
    {
        "title": "非主流头像",
        "docid": "7343412874293248575",
        "url": ""
    },
    {
        "title": "漫画：女生被称“小姐姐”，觉得腻歪讨厌的请举手",
        "docid": "7346179575531274791",
        "url": ""
    },
    {
        "title": "不小心把一口痰吞下去了，会对身体造成什么伤害吗？",
        "docid": "7329368931779559951",
        "url": ""
    },
    {
        "title": "北动窝窝头到底有多难吃，萌兰差点被送走，小白天被逼成影后",
        "docid": "7342814308394828342",
        "url": ""
    },
    {
        "title": "《灌篮高手》中赤木刚宪为什么最终没有被深泽体育大学录取",
        "docid": "7345700269847691816",
        "url": ""
    },
    {
        "title": "他是一条吃了会怀孕的鱼#搞笑动画#动画解说#动画#故事",
        "docid": "7329101170515903011",
        "url": ""
    },
    {
        "title": "蓝星拼刺刀哪家强？兔子当仁不让，光是气势就力压，更别说技术",
        "docid": "7322698968490738212",
        "url": ""
    },
    {
        "title": "谁说我们没有名将的？随便请出来一个就是神#搞笑 #脑洞大开",
        "docid": "7333161630651548170",
        "url": ""
    },
    {
        "title": "柳神跟狠人大帝谁厉害？#视觉冲击 #国漫 #动漫推荐 #女帝",
        "docid": "7330953766746882579",
        "url": ""
    },
    {
        "title": "汉斯虎已然归位，S3赛季是否开启！",
        "docid": "7343579950391558692",
        "url": ""
    },
    {
        "title": "本以为是菜鸡互啄，没想到是神仙打架 #那年那兔那些事 #动漫",
        "docid": "7339888343742612019",
        "url": ""
    },
    {
        "title": "《熊出没》：光头强在s1赛季时这么强，原来是有保护伞",
        "docid": "7338000509418242597",
        "url": ""
    },
    {
        "title": "这才是成年男女在一起最舒适的方式",
        "docid": "7346381862601966115",
        "url": ""
    },
    {
        "title": "樱花季丨CoCo都可官方玩梗“疯”出圈",
        "docid": "7346135806706401831",
        "url": ""
    },
    {
        "title": "小小乖龙，仅有常人的手指大#超好看的动漫推荐",
        "docid": "7336472195767960105",
        "url": ""
    },
    {
        "title": "目前国漫热度排行榜，第一名真乃实至名归#国漫推荐",
        "docid": "7323511567071642131",
        "url": ""
    },
    {
        "title": "着急上厕所，男厕竟然遇到四个女人，被诬陷偷窥",
        "docid": "7332110970657079862",
        "url": ""
    },
    {
        "title": "当广西人遇到台湾省人#原创动画 #广西人 #内容过于真实",
        "docid": "7323144607171084815",
        "url": ""
    },
    {
        "title": "他只是想好好的跟家人在一起~",
        "docid": "7324680867895476771",
        "url": ""
    },
    {
        "title": "水浒英雄传108位好汉高清图",
        "docid": "7328346856616952361",
        "url": ""
    },
    {
        "title": "喜欢手办的小伙爱上纸影戏，他用纸影手办吸引大批年轻戏粉",
        "docid": "7345783693111427636",
        "url": ""
    },
    {
        "title": "江苏团结会，结局笑死了！来算算江苏一共有多少群聊#江苏",
        "docid": "7344205019777860150",
        "url": ""
    },
    {
        "title": "地球村！大户的烦恼！",
        "docid": "7322313888593412627",
        "url": ""
    },
    {
        "title": "高冷美女，来找少年当向导万古神话",
        "docid": "7319931227790639666",
        "url": ""
    },
    {
        "title": "那些刻进中国人血脉的习惯",
        "docid": "7346417327061205543",
        "url": ""
    },
    {
        "title": "原来结婚与不结婚真不一样，你看懂了吗？现实生活漫画,仅供娱乐",
        "docid": "7346076564557333031",
        "url": ""
    },
    {
        "title": "当代女生单身现状（漫画）",
        "docid": "7331716870707593740",
        "url": ""
    },
    {
        "title": "[大师系列]CASHMAN[鸟山明x中鹤胜祥][1卷全]",
        "docid": "7345479288591794742",
        "url": ""
    },
    {
        "title": "没有超级赛亚人就没有现在的七龙珠，你同意吗#鸟山明",
        "docid": "7344271971007824435",
        "url": ""
    },
    {
        "title": "见过三个以上的，就证明你已经不再年轻了",
        "docid": "7346311954736218639",
        "url": ""
    },
    {
        "title": "京阿尼纵火犯死刑！迟来的正义终将会审判！",
        "docid": "7340683302313034277",
        "url": ""
    },
    {
        "title": "鸟山明的七龙珠，为什么会在当年封神",
        "docid": "7344042395111604799",
        "url": ""
    },
    {
        "title": "超炫3D立体壁纸！可爱且酷，耀眼夺目！无限创意适合不拘一格的你",
        "docid": "7331774928481567286",
        "url": ""
    },
    {
        "title": "广东和广西有什么不同？#内容过于真实 #万万没想到 #广东人",
        "docid": "7327975874408972835",
        "url": ""
    },
    {
        "title": "无脑剧情边播边改，玄幻题材大谈真实？网友：戳中打工人痛处",
        "docid": "7345677290581590540",
        "url": ""
    },
    {
        "title": "啥？你们都差一票就成首都了啊！",
        "docid": "7316864897521254946",
        "url": ""
    },
    {
        "title": "一拳超人第100话：悔恨的泪水-下（汉化版）",
        "docid": "7346384514643444261",
        "url": ""
    },
    {
        "title": "偶尔暴力，偶尔暴露，冷门却惊喜！",
        "docid": "7344574207613157951",
        "url": ""
    },
    {
        "title": "有老公和没老公的区别，你看懂了吗？生动形象的漫画，太现实了",
        "docid": "7345732294348751414",
        "url": ""
    },
    {
        "title": "多看一眼，整个人都不好了",
        "docid": "7346480455094452746",
        "url": ""
    },
    {
        "title": "刚在一起时，到后面的很现实",
        "docid": "7346495436993249846",
        "url": ""
    },
    {
        "title": "寥寥几笔，春风十里",
        "docid": "7344294461339402786",
        "url": ""
    },
    {
        "title": "治愈漫画《友情与梦想》请带着我的梦想一起飞",
        "docid": "7346237843968246284",
        "url": ""
    },
    {
        "title": "人性漫画--刷脸时代",
        "docid": "7323196525642334757",
        "url": ""
    },
    {
        "title": "阿昆被苏哥套路上了#原创动画 #看一遍笑一遍 #江苏十三太保",
        "docid": "7323774896873013798",
        "url": ""
    },
    {
        "title": "[致敬大师系列]龙珠超全彩版[鸟山明x丰太郎][21卷未]",
        "docid": "7345713238363193895",
        "url": ""
    },
    {
        "title": "日本女孩用九年时间，把自己变人形玩偶，走上街头看的发毛",
        "docid": "7320561309676732980",
        "url": ""
    },
    {
        "title": "索隆秒杀路奇之后，是否已经接近大将战力？#1000",
        "docid": "7345854285651018266",
        "url": ""
    },
    {
        "title": "女生的胸部是一个迷！挺有意思的",
        "docid": "7346262792816886299",
        "url": ""
    },
    {
        "title": "漫画：古代人的生活有多“艰难”？穿越到古代，你会怎么做",
        "docid": "7346478742715351586",
        "url": ""
    },
    {
        "title": "一个杯子能倒水，但他却不能喝#动画解说#人性#动画",
        "docid": "7314647782026019328",
        "url": ""
    },
    {
        "title": "回忆杀，分享海南版《七龙珠》78本封面",
        "docid": "7344488112799728179",
        "url": ""
    },
    {
        "title": "我是80后：悲催的80后！",
        "docid": "7346471537681187364",
        "url": ""
    },
    {
        "title": "蓝星最大的错觉：兔子行，那我也行",
        "docid": "7322876384941572643",
        "url": ""
    },
    {
        "title": "以前穷和现在穷的区别，太现实了，幽默漫画值得一看",
        "docid": "7346370616926257675",
        "url": ""
    },
    {
        "title": "人性怪谈漫画《失踪的孩子》如果是你，选择怎么做呢？",
        "docid": "7346239652220879396",
        "url": ""
    },
    {
        "title": "一拳超人第186拳（重制版233话）雨打惊艳登场，日轮再现名场面",
        "docid": "7346240324861280805",
        "url": ""
    },
    {
        "title": "（漫画）那些男生自己觉得很帅，女生却觉得油腻的事",
        "docid": "7322429057356792361",
        "url": ""
    },
    {
        "title": "南北方买菜差异",
        "docid": "7328637007524332047",
        "url": ""
    },
    {
        "title": "三观最正的神级漫画！为什么《七龙珠》是独一档最强动漫？#1984",
        "docid": "7344230767373615653",
        "url": ""
    },
    {
        "title": "宫崎骏动画世界来了！阿里影业加持，沉浸式艺术展全球首站将落地上海",
        "docid": "7346413825308049971",
        "url": ""
    },
    {
        "title": "不小心把一口痰吞下去了，会对身体造成什么伤害吗？",
        "docid": "7329368955271791158",
        "url": ""
    },
    {
        "title": "七龙珠漫画-悟空、克林的修行之路！",
        "docid": "7346231823251898895",
        "url": ""
    },
    {
        "title": "路飞大战东海恶龙 #漫改剧 #奇幻 #冒险",
        "docid": "7320238018374631977",
        "url": ""
    },
    {
        "title": "老婆和情人的区别，生动形象的漫画，太现实了，你细品",
        "docid": "7346522310319079986",
        "url": ""
    },
    {
        "title": "聚焦“3·15”｜商家卷钱跑路，消费者维权太难",
        "docid": "7346401988273390117",
        "url": ""
    },
    {
        "title": "西方二圣为给如来报仇，与无天展开旷世之战，关键时刻女娲出手了",
        "docid": "7344673233129767460",
        "url": ""
    },
    {
        "title": "少年无意间捡到一具尸体 命运的齿轮就此转动～ #国漫",
        "docid": "7313404184865276450",
        "url": ""
    },
    {
        "title": "龙珠：鸟山明曾多次想要完结，六大篇章哪里收笔，结局最完美？",
        "docid": "7344360794325008935",
        "url": ""
    },
    {
        "title": "油女志乃vs油女取根，这一战十年前志乃就留了一手",
        "docid": "7337134266608222760",
        "url": ""
    },
    {
        "title": "人性漫画｜《爱之星》纯爱战神历险记。",
        "docid": "7342760631751557668",
        "url": ""
    },
    {
        "title": "深圳都是外地人吗？ #原创动画 #沙雕动画 #内容过于真实",
        "docid": "7315747836291875343",
        "url": ""
    },
    {
        "title": "24年新番大盘点，让你不再剧荒",
        "docid": "7345098851256828466",
        "url": ""
    },
    {
        "title": "3·15漫画｜“骗老族”退！退！退！这是一份最新防骗指南",
        "docid": "7346425612002673187",
        "url": ""
    },
    {
        "title": "你知道宁荣荣的母亲是谁吗，没想到她的实力这么强大！！！",
        "docid": "7313378342877692426",
        "url": ""
    },
    {
        "title": "坏胚子你终于来了#国漫 #动漫",
        "docid": "7345473548514755108",
        "url": ""
    },
    {
        "title": "韩立终于炼成72把青竹峰云剑，元婴之下已无敌#凡人修仙传 #韩立",
        "docid": "7331269839392244234",
        "url": ""
    },
    {
        "title": "斗罗2：史莱克七怪大获全胜，奖励7块魂骨，霍雨浩的魂骨最逆天",
        "docid": "7329897232751297087",
        "url": ""
    },
    {
        "title": "女生的胸部是一个迷！挺有意思的",
        "docid": "7346251328727024166",
        "url": ""
    },
    {
        "title": "越闹越大！娃哈哈陷日系风争议，网友支招，评论区炸了",
        "docid": "7346451943314784804",
        "url": ""
    },
    {
        "title": "一部将暴力美力和幽默相结合的动漫",
        "docid": "7334509079827579444",
        "url": ""
    },
    {
        "title": "中国日报漫画：做美国的敌人是危险的，做美国的盟友是致命的",
        "docid": "7324621987706978852",
        "url": ""
    },
    {
        "title": "圣斗士：遗失的黄金圣衣，被封印的它是十二黄金中最难继承的一件",
        "docid": "7331204281930252812",
        "url": ""
    },
    {
        "title": "夺我儿一根至尊骨，那就用百根骨来还吧！荒他爹！ #国漫 #动漫",
        "docid": "7317468915704168969",
        "url": ""
    },
    {
        "title": "见过三个以上的，就证明你已经不再年轻了，对照一下，你见过几个",
        "docid": "7346460446305600040",
        "url": ""
    },
    {
        "title": "天罡传中出现的不良人三十六校尉，看看有没有你喜欢的老北鼻",
        "docid": "7318367128053088777",
        "url": ""
    },
    {
        "title": "在一个江湖渐远的时代，纪念金庸",
        "docid": "7346436567801561612",
        "url": ""
    },
    {
        "title": "有老公和没老公的区别，你看懂了吗？生动形象的漫画，太现实了",
        "docid": "7345609136257876495",
        "url": ""
    },
    {
        "title": "30岁的老勇者决定去魔王城救公主出来，没想到却被公主给消灭了",
        "docid": "7327053539212001818",
        "url": ""
    },
    {
        "title": "漫画：女性与男性之间鲜明的对比，生活中的种种！！！",
        "docid": "7346478169077088768",
        "url": ""
    },
    {
        "title": "本以为是菜鸡互啄，没想到是神仙打架 #动漫 #那年那兔那些事",
        "docid": "7341734959129821748",
        "url": ""
    },
    {
        "title": "定了！宫崎骏新片来了，吉卜力最强阵容：很快，它就会火遍中国​",
        "docid": "7346498925743882786",
        "url": ""
    },
    {
        "title": "以前穷和现在穷的区别，太现实了，幽默漫画值得一看",
        "docid": "7346401850373128731",
        "url": ""
    },
    {
        "title": "《烈焰》黑龙天为何奴役人类十万年？想要复活白龙，可惜功亏一篑",
        "docid": "7346147212826542631",
        "url": ""
    },
    {
        "title": "平凡而简单的生活 才是最原始的人间烟火气",
        "docid": "7321324723382682123",
        "url": ""
    },
    {
        "title": "其实《神兵小将》中最厉害的不是问天，而是他的父亲南宫逸",
        "docid": "7314613402058359308",
        "url": ""
    },
    {
        "title": "《烈焰之武庚纪》武力值前五的强者都有谁？第一名绝对实力天花板",
        "docid": "7346038420927709707",
        "url": ""
    },
    {
        "title": "（图表·漫画）新华时评｜套路 “引诱”",
        "docid": "7346212157174022719",
        "url": ""
    },
    {
        "title": "龙珠：官方公布弗利萨的实力，无限接近破坏神，能和比鲁斯三七开",
        "docid": "7320486257899864617",
        "url": ""
    },
    {
        "title": "【你没看过的猫和老鼠】#二次元 #动漫 #漫剪 #动漫卡点",
        "docid": "7323585431570743859",
        "url": ""
    },
    {
        "title": "一人之下漫画-682话",
        "docid": "7346461829310202368",
        "url": ""
    },
    {
        "title": "女主转生七次将所有技能点满，然后终于碰到了那个与世界为敌的王",
        "docid": "7321413273574867495",
        "url": ""
    },
    {
        "title": "该把只会玩谴责的兔子踢出五常？鹰酱：没五常束缚兔子会一统蓝星",
        "docid": "7337538934747955747",
        "url": ""
    },
    {
        "title": "开播以来最高能的一集#动漫推荐 #番剧",
        "docid": "7334701427509756456",
        "url": ""
    },
    {
        "title": "科幻动作电影《龙珠Z：真人版》先导片，悟空贝吉塔的终极之战",
        "docid": "7331698796239421989",
        "url": ""
    },
    {
        "title": "本来不想卖，无奈给得实在太多了！大户买东风3始末",
        "docid": "7343464574911906339",
        "url": ""
    },
    {
        "title": "老夫子漫画【2024】035",
        "docid": "7346365270362997274",
        "url": ""
    },
    {
        "title": "当老婆变小后",
        "docid": "7319305343509463590",
        "url": ""
    },
    {
        "title": "那个时代的动画片我愿称之为神仙打架！鬼神童子来袭！",
        "docid": "7321939622790726207",
        "url": ""
    },
    {
        "title": "小衰和大脸居然意识到自己是漫画角色，虽然但是心酸的是我们😭",
        "docid": "7343598096313647616",
        "url": ""
    },
    {
        "title": "这就是四大尸祖压迫感嘛",
        "docid": "7316549348308419091",
        "url": ""
    },
    {
        "title": "萧萧武魂三生镇魂鼎破碎，没想到却是因祸得福#斗罗大陆2绝世唐门",
        "docid": "7345742230122037797",
        "url": ""
    },
    {
        "title": "漫画：70后父母的现状真让人心酸！",
        "docid": "7320206525250060863",
        "url": ""
    },
    {
        "title": "漫画：10个人生歪理，歪的很有道理",
        "docid": "7346412943564620300",
        "url": ""
    },
    {
        "title": "上博学院｜三星堆、对话达·芬奇两大特展配套活动组合上新",
        "docid": "7346489731779330600",
        "url": ""
    },
    {
        "title": "2023年国漫年度最佳评选，五大国漫入围，部部皆可封神！",
        "docid": "7313639367644283401",
        "url": ""
    },
    {
        "title": "「完结」前世一朝花轿错抬，我被推入深渊而亡。",
        "docid": "7346220316245770767",
        "url": ""
    },
    {
        "title": "圣斗士：圣域真的只有12件黄金圣衣？为何这个时代出现了15件？",
        "docid": "7332057956949131787",
        "url": ""
    },
    {
        "title": "人生如棋，落子无悔 #凡人修仙传 #凡人修仙传韩立红尘劫炼心性",
        "docid": "7328609903579234835",
        "url": ""
    },
    {
        "title": "如果你加入晓组织，想和谁成为搭档？",
        "docid": "7324753691041333814",
        "url": ""
    },
    {
        "title": "宁次vs鬼童丸！火影智斗巅峰！#火影忍者",
        "docid": "7313908761008177701",
        "url": ""
    },
    {
        "title": "全彩龙珠第一百五十五篇孙悟空的反击",
        "docid": "7346031369824256523",
        "url": ""
    },
    {
        "title": "定档了！宫崎骏最后一部动漫作品 首次内地公映！",
        "docid": "7346569909461254719",
        "url": ""
    },
    {
        "title": "九尾狐因为魅惑不了李长寿的师父，于是便爱上了他。",
        "docid": "7317458219558044186",
        "url": ""
    },
    {
        "title": "为何我的眼角擒着泪水 因为我比荒天帝还爱那位 采桑女 #完美世界",
        "docid": "7345493474579644954",
        "url": ""
    },
    {
        "title": "男主从最强村子出来以为自己是最弱的",
        "docid": "7315043973285085750",
        "url": ""
    },
    {
        "title": "《敢爱敢恨》劈酒版，太好听了。#改编歌曲 #粤语歌 #沙雕动画",
        "docid": "7336173182220501543",
        "url": ""
    },
    {
        "title": "一个扎心的真相：有人工作一年攒下十多万，而有人却仍然一穷二白",
        "docid": "7320561762934194722",
        "url": ""
    },
    {
        "title": "头像|优雅自信，自带女王光环",
        "docid": "7346041478038258195",
        "url": ""
    },
    {
        "title": "人性漫画：男人和女人的本质区别",
        "docid": "7346567260971991593",
        "url": ""
    },
    {
        "title": "13 鸟山明为什么不擦边了，许愿神龙现身",
        "docid": "7346566534719865379",
        "url": ""
    },
    {
        "title": "这难道就是传说中的钞能力吗 不愧是最强超能力",
        "docid": "7313793739456479785",
        "url": ""
    }
]