[
    {
        "title": "《龙珠》漫画家鸟山明因急性硬膜下血肿去世 享年68岁",
        "docid": "7343851938183758375",
        "url": ""
    },
    {
        "title": "其实《神兵小将》中最厉害的不是问天，而是他的父亲南宫逸",
        "docid": "7314613402058359308",
        "url": ""
    },
    {
        "title": "瑾威公公实力又有多强居然能察觉到剑仙的存在",
        "docid": "7322041096644035099",
        "url": ""
    },
    {
        "title": "老婆和情人的区别，你们看懂了吗？幽默风趣的漫画。你细品！",
        "docid": "7345343796370915878",
        "url": ""
    },
    {
        "title": "数码宝贝：历代出现的错误进化，哪个是你的童年阴影？",
        "docid": "7336225025491862079",
        "url": ""
    },
    {
        "title": "生活中的小丑时刻，尬得能扣出三室一厅🤡#情商天花板",
        "docid": "7337186434346025507",
        "url": ""
    },
    {
        "title": "广州动漫星城打砸签名绘事件的后续把我看笑了",
        "docid": "7345852496751002146",
        "url": ""
    },
    {
        "title": "漫画：谁影响我，我就放弃谁",
        "docid": "7345836618529686035",
        "url": ""
    },
    {
        "title": "青雉秒杀克力架！大将的压迫感来了#青雉 #海贼王 #海贼王1093话",
        "docid": "7334291622442009097",
        "url": ""
    },
    {
        "title": "度仙门开山祖师度厄真人出手了#国漫 #二次元 #师兄啊师兄",
        "docid": "7330466232224711183",
        "url": ""
    },
    {
        "title": "羊守八的大刀子：黑太狼和狼叔母亲的鼓励，七大恶狼患难见真情！",
        "docid": "7329813733285626422",
        "url": ""
    },
    {
        "title": "漫画：70后父母的现状真让人心酸！",
        "docid": "7320206525250060863",
        "url": ""
    },
    {
        "title": "太监阉割全过程曝光（看完真疼）",
        "docid": "7345123221538161163",
        "url": ""
    },
    {
        "title": "人性漫画《珍珠眼泪》，人啊 有了贪欲是会变的",
        "docid": "7345868008160068105",
        "url": ""
    },
    {
        "title": "​人性漫画：男人和女人的本质区别​",
        "docid": "7345032222094737959",
        "url": ""
    },
    {
        "title": "人性漫画 《喜好推送》",
        "docid": "7345631250214453794",
        "url": ""
    },
    {
        "title": "谈钱伤感情，不谈没感情",
        "docid": "7345577941872706063",
        "url": ""
    },
    {
        "title": "2024四月新番资讯（1）《关于我转生成为史莱姆这档事》第三季",
        "docid": "7345837403707867675",
        "url": ""
    },
    {
        "title": "每当听到这个音乐，我就能想起那个耶稣的晚宴。",
        "docid": "7343537700580164111",
        "url": ""
    },
    {
        "title": "赛文没有奥特眼镜还能变身吗？",
        "docid": "7320889050162790952",
        "url": ""
    },
    {
        "title": "男孩与女朋友约会时，出现了女孩的老爸",
        "docid": "7343499734419505700",
        "url": ""
    },
    {
        "title": "成年人的世界，哪有容易二字！！！",
        "docid": "7345723252809335334",
        "url": ""
    },
    {
        "title": "一月新番：没想到道黾的身世如此逆天 #通灵王 #动漫解说",
        "docid": "7345843569061528064",
        "url": ""
    },
    {
        "title": "[致敬大师系列]满汉全席PINK[鸟山明][全]",
        "docid": "7345790299237368332",
        "url": ""
    },
    {
        "title": "带娃有多累，看这个视频就知道了#看一遍笑一遍 #动漫 #童年动画",
        "docid": "7333905184864600630",
        "url": ""
    },
    {
        "title": "男主从最强村子出来以为自己是最弱的",
        "docid": "7315043973285085750",
        "url": ""
    },
    {
        "title": "宁次vs鬼童丸！火影智斗巅峰！#火影忍者",
        "docid": "7313908761008177701",
        "url": ""
    },
    {
        "title": "人生如棋，落子无悔 #凡人修仙传 #凡人修仙传韩立红尘劫炼心性",
        "docid": "7328609903579234835",
        "url": ""
    },
    {
        "title": "身份不同，所以格局也不一样#沙雕动画 #看一遍笑一遍",
        "docid": "7332815275047420470",
        "url": ""
    },
    {
        "title": "《灌篮高手》中赤木刚宪为什么最终没有被深泽体育大学录取",
        "docid": "7345700269847691816",
        "url": ""
    },
    {
        "title": "危机来临，孩子们齐心协力，拯救了家园",
        "docid": "7314568201134670388",
        "url": ""
    },
    {
        "title": "勇者打败魔王后往往会成为国王的下一个目标",
        "docid": "7312753720075223602",
        "url": ""
    },
    {
        "title": "禁止废话：四大美女的生理缺陷，分别有那些？",
        "docid": "7345845269856158242",
        "url": ""
    },
    {
        "title": "天罡传下部出场人物抢先看，残尸败蜕尸祖将臣 无疑了",
        "docid": "7317926638837039642",
        "url": ""
    },
    {
        "title": "让所有人类颤栗的SSS级神殿，却意外让男主从地狱归来化身为神！",
        "docid": "7338377204218692123",
        "url": ""
    },
    {
        "title": "面子果实能力者——红发香克斯#海贼王 #红发香克斯",
        "docid": "7321407640163058228",
        "url": ""
    },
    {
        "title": "小时候看过的冷门动画片，一部比一部陌生，网友：我咋都没看过？",
        "docid": "7330835611588559369",
        "url": ""
    },
    {
        "title": "人性怪谈漫画《木雕》这个小山村居然送老婆啊",
        "docid": "7345868302587183654",
        "url": ""
    },
    {
        "title": "名侦探柯南身高只有40cm？还没汽车轮胎高！揭开柯南矮小之谜",
        "docid": "7327478737455612454",
        "url": ""
    },
    {
        "title": "以后漫改剧特效都按这样卷起来好嘛！每一帧都是经费在燃烧",
        "docid": "7345785717409448463",
        "url": ""
    },
    {
        "title": "为何我的眼角擒着泪水 因为我比荒天帝还爱那位 采桑女 #完美世界",
        "docid": "7345493474579644954",
        "url": ""
    },
    {
        "title": "一个渣男，会迷恋风尘女子而殉情？",
        "docid": "7345804461287473679",
        "url": ""
    },
    {
        "title": "人性漫画《社恐相亲》连月老都牵不了的红线啊",
        "docid": "7345870030510506506",
        "url": ""
    },
    {
        "title": "权游第八季，龙焰根本伤不了夜王！！",
        "docid": "7331303833210978835",
        "url": ""
    },
    {
        "title": "奥特曼TV评分大排名：最高评分9.5分 最低的才5.1分？",
        "docid": "7315254615014900251",
        "url": ""
    },
    {
        "title": "跨次元对战！雷神VS雷神！ 天空一声巨响，两位雷神闪亮登场！",
        "docid": "7341323110131434011",
        "url": ""
    },
    {
        "title": "田野里的稻草人 卡卡西的一生",
        "docid": "7326051115835851299",
        "url": ""
    },
    {
        "title": "人性漫画：我的前女友怀孕了",
        "docid": "7345861058441003557",
        "url": ""
    },
    {
        "title": "如果你加入晓组织，想和谁成为搭档？",
        "docid": "7324753691041333814",
        "url": ""
    },
    {
        "title": "#海贼王 #漫画 #动漫 海贼王国外战力排名。进来看看吧。",
        "docid": "7345787298505720339",
        "url": ""
    },
    {
        "title": "八大古都 原声 #沙雕动画 #豫村杂闻 #河南 #八大古都",
        "docid": "7329059613221847586",
        "url": ""
    },
    {
        "title": "《职场现状》老板主管员工动画视频，建议发到你们公司群里看看",
        "docid": "7322293136372433447",
        "url": ""
    },
    {
        "title": "熊出没逆转时空：强哥总是会做一个梦，一片森林一群动物两只熊！",
        "docid": "7322762415153218082",
        "url": ""
    },
    {
        "title": "侯卿你还别说，除了不要女人他跟我，还有真有点像 李星云",
        "docid": "7344901997297926706",
        "url": ""
    },
    {
        "title": "『鬼泣』一部来自07年的暴力美学冷门佳作！#动漫推荐 #动漫解说",
        "docid": "7345794300518761001",
        "url": ""
    },
    {
        "title": "雷欧大结局：赛文在雷欧的梦中指点迷津，雷欧决战圆盘生物",
        "docid": "7345745454576960011",
        "url": ""
    },
    {
        "title": "杰瑞大表哥使用绝招，帮助汤姆跟斯派克劝架！ #童年动画",
        "docid": "7317616264816525836",
        "url": ""
    },
    {
        "title": "《敢爱敢恨》劈酒版，太好听了。#改编歌曲 #粤语歌 #沙雕动画",
        "docid": "7336173182220501543",
        "url": ""
    },
    {
        "title": "安卓发布公开",
        "docid": "7345693637755273782",
        "url": ""
    },
    {
        "title": "无心超人登场，真的开心超人离开古盘秘境",
        "docid": "7322033604127621683",
        "url": ""
    },
    {
        "title": "漫画：这才是成年男女在一起最舒适的两性关系！",
        "docid": "7320944521406169600",
        "url": ""
    },
    {
        "title": "一位自以为是的妈妈，是如何一步一步掐死自己孩子的（漫画）",
        "docid": "7312656399446655522",
        "url": ""
    },
    {
        "title": "无限大攻击力，一口气看完达姿之战，三幻神对决奥利哈钢之神。",
        "docid": "7327707020914754099",
        "url": ""
    },
    {
        "title": "这绝对是吃霸王餐的最高境界，不给钱，反而还要钱",
        "docid": "7314607539558187520",
        "url": ""
    },
    {
        "title": "穿越到抗战年代，带着地道系统狂虐小日子",
        "docid": "7345612467038323263",
        "url": ""
    },
    {
        "title": "【Gantz】43 首领级别怪物的压迫感！大天狗犬神来袭！",
        "docid": "7345793137400676915",
        "url": ""
    },
    {
        "title": "男人一觉醒来，发现戳破师姐身边气泡就可以变强！",
        "docid": "7329675289837961766",
        "url": ""
    },
    {
        "title": "救命！看完竟然好磕大帅和李淳风的糖！#画江湖之天罡传",
        "docid": "7318154626979594804",
        "url": ""
    },
    {
        "title": "斗罗大陆第二部最终只有四人成神，这四人分别是谁？",
        "docid": "7324109162215031333",
        "url": ""
    },
    {
        "title": "唯一知道自己中了无限月读的人，最终还是败给了宁次的温柔",
        "docid": "7324344675387572787",
        "url": ""
    },
    {
        "title": "果麦文化：目前动画大电影正按项目进度计划 正常推进制作等相关工作",
        "docid": "7345706409767780916",
        "url": ""
    },
    {
        "title": "电击手表变身器竟被路比捡到，小光的身份难道就要暴露了吗",
        "docid": "7331022834254381577",
        "url": ""
    },
    {
        "title": "对比宫崎骏的其他动画，《苍鹭与少年》排第几",
        "docid": "7345612173047546409",
        "url": ""
    },
    {
        "title": "一个扎心的真相：有人工作一年攒下十多万，而有人却仍然一穷二白",
        "docid": "7320561762934194722",
        "url": ""
    },
    {
        "title": "男主的能力到底有多可怕",
        "docid": "7345754874812596751",
        "url": ""
    },
    {
        "title": "鸟山明创造的永恒“世外桃源”仍将熠熠生辉",
        "docid": "7345703523709272611",
        "url": ""
    },
    {
        "title": "我和妹妹是一对连体双胞胎，从小到大我们不管干什么都要在一起",
        "docid": "7331129110808232474",
        "url": ""
    },
    {
        "title": "小龙：说出来你可能不信，我被个木头桩子揍了！#电影天降大任",
        "docid": "7314109388472615450",
        "url": ""
    },
    {
        "title": "索隆秒杀路奇之后，是否已经接近大将战力？#1000",
        "docid": "7345854285651018266",
        "url": ""
    },
    {
        "title": "女孩割开自己的手腕，流出来的却不是血，而是一只只虫子",
        "docid": "7327685088978666036",
        "url": ""
    },
    {
        "title": "我有一个朋友，在上班与上进之间，最终选择了上香",
        "docid": "7345779037355262490",
        "url": ""
    },
    {
        "title": "最燃现场版《七龙珠》主题曲，元气弹出来出来的那一刻，燃爆了！",
        "docid": "7319768361247146508",
        "url": ""
    },
    {
        "title": "九尾狐因为魅惑不了李长寿的师父，于是便爱上了他。",
        "docid": "7317458219558044186",
        "url": ""
    },
    {
        "title": "（漫画）新型恋爱PUA：你要情绪稳定",
        "docid": "7343959325586866724",
        "url": ""
    },
    {
        "title": "女人明明是个寄生兽，却被人类的母爱所折服",
        "docid": "7345593366668804623",
        "url": ""
    },
    {
        "title": "龙珠超官宣，本月照常更新，父子对决继续，自在极意成了千古绝唱",
        "docid": "7345399330738422291",
        "url": ""
    },
    {
        "title": "2万一个月，她们牺牲自己的容貌赚快钱，一篇漫画撕开了试药真相",
        "docid": "7328312432613589540",
        "url": ""
    },
    {
        "title": "他是万人敬仰的山神，却不知感情为何物 #漫画解说 #有声漫画",
        "docid": "7312763572222689826",
        "url": ""
    },
    {
        "title": "海绵宝宝：蟹堡王冰淇淋战车",
        "docid": "7326512796269707815",
        "url": ""
    },
    {
        "title": "危机时刻，全队最弱的男人舍身取义，不料结局却是惊天反转。",
        "docid": "7332105648953360896",
        "url": ""
    },
    {
        "title": "祝大家都能找到一份可以双休的工作！#沙雕动画 #原创动画",
        "docid": "7345761566207410707",
        "url": ""
    },
    {
        "title": "一口气看完七大罪里的高能战斗场面 #动漫 #动漫解说",
        "docid": "7335068413217374732",
        "url": ""
    },
    {
        "title": "带你一口气看完《青春期猪头少年》",
        "docid": "7345512468514341395",
        "url": ""
    },
    {
        "title": "奇葩还是真的多呀 #搞笑动画 #沙雕动画 #看一遍笑一遍",
        "docid": "7345346117640716811",
        "url": ""
    },
    {
        "title": "火影里的5位“万年下忍”，个个手握绝活，实力影级打底！",
        "docid": "7326022282252550694",
        "url": ""
    },
    {
        "title": "火影忍者中第1代到第10代火影实力都如何？真的是一代不如一代",
        "docid": "7332588020912423478",
        "url": ""
    },
    {
        "title": "盘点十部动画片里人物原型，名侦探柯南、大力水手等，满满的回忆",
        "docid": "7321207376290300452",
        "url": ""
    },
    {
        "title": "为什么《猫和老鼠》被称为经典？网友们的神评论揭示了答案",
        "docid": "7313193137084678690",
        "url": ""
    },
    {
        "title": "动漫和真人对比，《武庚纪》最还原的6位角色，相似度百分之九十",
        "docid": "7319487183579021878",
        "url": ""
    },
    {
        "title": "终于有人把“当今社会压力”描述出来了，幽默漫画，太生动形象了",
        "docid": "7325827133833953818",
        "url": ""
    },
    {
        "title": "《火影忍者》有哪些吹了半天却没什么实力的龙套角色？",
        "docid": "7323179035796701707",
        "url": ""
    },
    {
        "title": "原来《七龙珠》每个人物的都是有参考原型的！",
        "docid": "7319906761765618217",
        "url": ""
    },
    {
        "title": "我妈的审美vs我的审美",
        "docid": "7313139017829253642",
        "url": ""
    },
    {
        "title": "尾田啊，这一刀你藏了十几年！让《海贼王》直接超神！",
        "docid": "7317942852913431055",
        "url": ""
    },
    {
        "title": "《斗破苍穹之少年归来》中的六大美女，不仅长得好看，演技还好",
        "docid": "7314139973899747849",
        "url": ""
    },
    {
        "title": "鼬说他和鬼鲛打不过自来也，真要打起来到底谁赢？",
        "docid": "7322451786286219787",
        "url": ""
    },
    {
        "title": "有哪些行为，你以为违法其实是合法的？",
        "docid": "7320174447850930729",
        "url": ""
    },
    {
        "title": "早已完结但无人问津的6部国漫，每部都是业界良心",
        "docid": "7331392065110360630",
        "url": ""
    },
    {
        "title": "女生cosplay被安检员“教育”，地铁管理的边界在哪儿",
        "docid": "7322834618502152714",
        "url": ""
    },
    {
        "title": "如何用一句话伤害一个人两次？",
        "docid": "7342755800278041115",
        "url": ""
    },
    {
        "title": "现代年轻人的工作现状",
        "docid": "7320106565904695848",
        "url": ""
    },
    {
        "title": "这是妥妥的职场写实漫画",
        "docid": "7312627998459740681",
        "url": ""
    },
    {
        "title": "漫画：妻子没有工资，丈夫的真实想法是什么？",
        "docid": "7313394405715673635",
        "url": ""
    },
    {
        "title": "段子这么好，为啥你不笑",
        "docid": "7315284408574427684",
        "url": ""
    },
    {
        "title": "买房前，买房后发生了什么区别，你看懂了吗？太现实了，搞笑漫画",
        "docid": "7331748556476547623",
        "url": ""
    },
    {
        "title": "女生的胸部是一个迷！挺有意思的",
        "docid": "7345407871583388201",
        "url": ""
    },
    {
        "title": "夫妻的一生，有老公和没老公的区别。用几张漫画表现得太生动形象",
        "docid": "7345072628992573961",
        "url": ""
    },
    {
        "title": "以前的消费观VS现在的消费观",
        "docid": "7319656227166945844",
        "url": ""
    },
    {
        "title": "父子联手，孩儿涂鸦被改造成惊人作品",
        "docid": "7320163811322167818",
        "url": ""
    },
    {
        "title": "纪念鸟山明：《水浒传》《西游记》和《龙珠》",
        "docid": "7343869284235559461",
        "url": ""
    },
    {
        "title": "这16幅图，看懂的妈妈都哭了",
        "docid": "7342776108665897511",
        "url": ""
    },
    {
        "title": "“杰瑞，这雨挺大，我护着你一起回家”",
        "docid": "7322872086606152226",
        "url": ""
    },
    {
        "title": "当初叫嚣吊打斗罗大陆的“国漫三巨头”，他们现在怎么样了？",
        "docid": "7345367329453195814",
        "url": ""
    },
    {
        "title": "你以为女生睡前看的VS实际女生睡前看的",
        "docid": "7337562999676224026",
        "url": ""
    },
    {
        "title": "中国日报漫画 | 美国经济“一片大好”",
        "docid": "7345327435405083172",
        "url": ""
    },
    {
        "title": "《葫芦娃》中的穿帮镜头，“骗”了大家一整个童年，简直太搞笑了",
        "docid": "7317569842134434323",
        "url": ""
    },
    {
        "title": "（漫画）母女俩的审美差异",
        "docid": "7343819292297806374",
        "url": ""
    },
    {
        "title": "鸟山明工作室全景",
        "docid": "7317451848091255305",
        "url": ""
    },
    {
        "title": "山海经异兽图鉴",
        "docid": "7325225117892477479",
        "url": ""
    },
    {
        "title": "全国各地警察“刻板印象”",
        "docid": "7316175794827559461",
        "url": ""
    },
    {
        "title": "海贼王外传：鱼鱼果实的前任能力者曝光，凯多杀人越货抢夺果实",
        "docid": "7343521620876739099",
        "url": ""
    },
    {
        "title": "以前的爸妈VS现在的爸妈",
        "docid": "7329029259933418034",
        "url": ""
    },
    {
        "title": "出身无法选择，以后的路却可以：盘点转换阵营的超能勇士角色",
        "docid": "7316009089526678056",
        "url": ""
    },
    {
        "title": "小时候真的好喜欢看这种绘本图啊！ ​",
        "docid": "7343544151486906890",
        "url": ""
    },
    {
        "title": "《神隐》十大三界至尊排名，天帝凤渊仅排第三，魔尊青霖第五",
        "docid": "7312771580768748047",
        "url": ""
    },
    {
        "title": "鸟山明即使不去画《龙珠》，也会是一位了不起的机械设计大师！",
        "docid": "7343856519701791267",
        "url": ""
    },
    {
        "title": "遮天中的各种轮海异象！哪个才是你心中最强的那个",
        "docid": "7325349071919743498",
        "url": ""
    },
    {
        "title": "漫画：没外援的三口之家，过得有多艰辛！网友：看完落泪又坚定！",
        "docid": "7318379451296711168",
        "url": ""
    },
    {
        "title": "21条你可能不知道的生理冷知识",
        "docid": "7324238755480011273",
        "url": ""
    },
    {
        "title": "男生眼里，会对女生加分的“6个技能”（漫画）真是这样吗？",
        "docid": "7328266534906905126",
        "url": ""
    },
    {
        "title": "一个女人过得怎么样，看看她身材基本就明白了！网友：很中肯",
        "docid": "7332614097923932681",
        "url": ""
    },
    {
        "title": "有老公和没老公的区别，你看懂了吗？生动形象的漫画，太现实了",
        "docid": "7346020817543004724",
        "url": ""
    },
    {
        "title": "人性漫画：不听好故事就无法苏醒的少女",
        "docid": "7345861807846507058",
        "url": ""
    },
    {
        "title": "闹大了！女coser崴脚碰到男子的腰，被男子呵斥“垃圾”大发雷霆",
        "docid": "7332402113596883519",
        "url": ""
    },
    {
        "title": "仙逆年番魔改遭吐槽，古帝被强行陨落，王林斩荒兽，战力体系崩坏",
        "docid": "7344962642110513691",
        "url": ""
    },
    {
        "title": "樱木花道和流川枫，未来谁的上限更高？",
        "docid": "7317996628760396340",
        "url": ""
    },
    {
        "title": "白眼一直跟写轮眼相提并论，为什么后期白眼跟写轮眼没有可比性？",
        "docid": "7313153716310966818",
        "url": ""
    },
    {
        "title": "DC最大BOSS剖析：达克赛德VS灭霸，到底谁更强？身体结构分析",
        "docid": "7336474150980125221",
        "url": ""
    },
    {
        "title": "8种警察的“至暗”时刻",
        "docid": "7322243484587393575",
        "url": ""
    },
    {
        "title": "为何日本能诞生如此众多天才漫画家",
        "docid": "7345434337611121152",
        "url": ""
    },
    {
        "title": "港漫《龙虎门》为什么初期几大高手个个实力上天，但纷纷都领饭盒",
        "docid": "7190764674227503676",
        "url": ""
    },
    {
        "title": "14部名气不大却超好看的国产动漫",
        "docid": "7338063335168344630",
        "url": ""
    },
    {
        "title": "遮天动漫被骂惨了，为什么不停播呢？主要有两个原因，而且不能停",
        "docid": "7337948344964416041",
        "url": ""
    },
    {
        "title": "时评漫画丨600岁“树爷爷”死亡，如何不让悲剧重演",
        "docid": "7346031796615660086",
        "url": ""
    },
    {
        "title": "完啦完啦！我已经眼花缭乱啦！满屏精彩炸裂壁纸！想快乐，找创客",
        "docid": "7336128048204546579",
        "url": ""
    },
    {
        "title": "《完美世界》6大顶级法宝：每个都能撼动天地，石昊随身就有一件",
        "docid": "7328282348879987254",
        "url": ""
    },
    {
        "title": "奶茶“害”了多少中国女生？一组漫画揭晓真相，看完你还敢喝吗？",
        "docid": "7314276855832871451",
        "url": ""
    },
    {
        "title": "漫画揭秘，男人看女人和女人看男人，内容真实，有什么区别呢",
        "docid": "7318562847406342710",
        "url": ""
    },
    {
        "title": "如果《七龙珠》在此篇章结尾，那将是完美大结局，口碑将会更好",
        "docid": "7341305104518103552",
        "url": ""
    },
    {
        "title": "明明是翻拍，却超越了动漫直接封神，这些漫改你看过多少？",
        "docid": "7280081614770815522",
        "url": ""
    },
    {
        "title": "龙珠：战力排行top1，作者笔下永远不会被击败的角色！",
        "docid": "7315751624978104886",
        "url": ""
    },
    {
        "title": "龙珠：真假悟空！下面9个“悟空”都是谁？能认全的都是真爱粉！",
        "docid": "7345011663835660827",
        "url": ""
    },
    {
        "title": "海贼世界第一狙击手，瞬移能力的范奥卡他也不放眼里！",
        "docid": "7325272906106634803",
        "url": ""
    },
    {
        "title": "\"本来以为是骗子驱魔师 没想到哥们你玩真的啊\" #混剪",
        "docid": "7315624546659697171",
        "url": ""
    },
    {
        "title": "都在吐槽哥斯拉在海里是怎么样的 真相来了",
        "docid": "7313966669636829759",
        "url": ""
    },
    {
        "title": "30年后，补作业的还是80后！",
        "docid": "7338255387390804506",
        "url": ""
    },
    {
        "title": "9大伤眼睛行为，你中了几条？",
        "docid": "7327105294553711131",
        "url": ""
    },
    {
        "title": "江南如画‖手机壁纸🌷🌷🌷",
        "docid": "7345306710611755520",
        "url": ""
    },
    {
        "title": "（漫画）你眼中的自己",
        "docid": "7327289012207731212",
        "url": ""
    },
    {
        "title": "这就是女人作的下场，看懂了吗？生活漫画，太现实了，供参考",
        "docid": "7345941196037964328",
        "url": ""
    },
    {
        "title": "好物分享｜为什么领导请吃饭，下属都不想去",
        "docid": "7314460035776823849",
        "url": ""
    },
    {
        "title": "不花钱，也会越来越漂亮",
        "docid": "7320565033778709007",
        "url": ""
    },
    {
        "title": "龙珠：谁是最强地球人？小林与天津饭各阶段的强弱分析",
        "docid": "7345488912401941055",
        "url": ""
    },
    {
        "title": "广东人全省统一图鉴：笑死，这些东西真的每家都一样！",
        "docid": "7346013643600839187",
        "url": ""
    },
    {
        "title": "《武庚纪》辣眼开播，劣质cosplay服化道+拉胯特效劝退观众！",
        "docid": "7345861320467857957",
        "url": ""
    },
    {
        "title": "为什么女生洗澡的过程，男生接受不了？",
        "docid": "7314651110073238025",
        "url": ""
    },
    {
        "title": "经典重现——小浣熊水浒卡重绘欣赏",
        "docid": "7312312253758439975",
        "url": ""
    },
    {
        "title": "漫画：当代男生统一床上语录，一句都别信",
        "docid": "7345831627500667432",
        "url": ""
    },
    {
        "title": "衰脸为了一块牛肉干居然有三亿人观看！他俩居然相信长寿筷？🤔",
        "docid": "7345174043408204288",
        "url": ""
    },
    {
        "title": "七龙珠：超级赛亚人的变身设定",
        "docid": "7313010944077414951",
        "url": ""
    },
    {
        "title": "分手后的对比，你看懂了吗？幽默有趣的漫画段子，太现实了",
        "docid": "7313453212508406326",
        "url": ""
    },
    {
        "title": "漫画：是什么夺走了男孩子们的阳刚之气？",
        "docid": "7318015592702427684",
        "url": ""
    },
    {
        "title": "这才是成年男女在一起最舒适的方式",
        "docid": "7322428139655873065",
        "url": ""
    },
    {
        "title": "数码宝贝：女神数码兽颜值排行榜TOP10，第一惊艳了多少人的青春",
        "docid": "7340293221223825939",
        "url": ""
    },
    {
        "title": "男人有钱后VS女人有钱后，内容过于真实，生动形象的漫画。",
        "docid": "7316708489445818915",
        "url": ""
    },
    {
        "title": "全国男人统一姿势，懂的都懂！（仅供娱乐)",
        "docid": "7345003669907341876",
        "url": ""
    },
    {
        "title": "穷人和富人的区别，你看懂了吗，幽默有趣的漫画",
        "docid": "7331366277573198374",
        "url": ""
    },
    {
        "title": "17岁，你读高中，我做人妻，最终惨遭抛弃，漫画结局令人唏嘘",
        "docid": "7320438131432833590",
        "url": ""
    },
    {
        "title": "女生的胸部是一个迷！挺有意思的",
        "docid": "7346005002194076172",
        "url": ""
    },
    {
        "title": "黄猿是真的哭了！他明明吃了最快果实，却是最不自由的人",
        "docid": "7326152685643727400",
        "url": ""
    },
    {
        "title": "一拳超人第59话：只有你（汉化版）",
        "docid": "7346034312976810505",
        "url": ""
    },
    {
        "title": "日本动漫界追忆鸟山明，《海贼王》作者、《火影忍者》作者纷纷发文：他是大树，他是漫画之神",
        "docid": "7343892348650193427",
        "url": ""
    },
    {
        "title": "漫画：别不承认，这些就是男人最能打动女人的瞬间",
        "docid": "7328996396646892083",
        "url": ""
    },
    {
        "title": "有老公和没老公的区别，你看懂了吗？生动形象的漫画，太现实了",
        "docid": "7345777875779650099",
        "url": ""
    },
    {
        "title": "圣斗士：如果青铜五小强是这五位，冥王哈迪斯可以撑几个回合？",
        "docid": "7332078357561049639",
        "url": ""
    },
    {
        "title": "结婚和单身的区别，你看懂了什么？生活漫画段子(仅供娱乐参考)",
        "docid": "7345870262597911040",
        "url": ""
    },
    {
        "title": "真8k超清｜真的好治愈，会让人上瘾的壁纸，拿图吱声",
        "docid": "7344390566937772598",
        "url": ""
    },
    {
        "title": "男人和女人同居前与同居后对比",
        "docid": "7325025182685807142",
        "url": ""
    },
    {
        "title": "人性漫画--GAME",
        "docid": "7343914843386610227",
        "url": ""
    },
    {
        "title": "人性漫画:《电池》",
        "docid": "7334180849489150475",
        "url": ""
    },
    {
        "title": "龙珠漫画第一卷 第四篇：龟仙人的筋斗云（持续更新中）致敬鸟山明",
        "docid": "7345802638644052521",
        "url": ""
    },
    {
        "title": "为啥机兽世界只有三位战王？成为战王条件到底有多苛刻？",
        "docid": "7310763146178888228",
        "url": ""
    },
    {
        "title": "从被骗到自愿，揭秘花场是怎样将年轻女孩拉入深渊的？",
        "docid": "7313772619440898595",
        "url": ""
    },
    {
        "title": "漫画：“成人网站”中的那些视频，你知道是从哪里来的吗？",
        "docid": "7314780334724219404",
        "url": ""
    },
    {
        "title": "宫崎骏新片《你想活出怎样的人生》定档4月3日全国公映",
        "docid": "7346044468459553314",
        "url": ""
    },
    {
        "title": "圣斗士：只打高端局的凤凰座一辉，到底打了多少场硬仗？",
        "docid": "7333399621378589247",
        "url": ""
    },
    {
        "title": "再见！龙珠！再见，童年！",
        "docid": "7344232387984998950",
        "url": ""
    },
    {
        "title": "男生头像：就该这么自由",
        "docid": "7313906645124694580",
        "url": ""
    },
    {
        "title": "龙年姓氏专属头像，只有眯着眼才能看到，不会太张扬",
        "docid": "7315368291789619751",
        "url": ""
    },
    {
        "title": "当你老了，看哭了。仅供娱乐",
        "docid": "7345836853298496019",
        "url": ""
    },
    {
        "title": "那些男生自己觉得很帅，女生觉得油腻的事",
        "docid": "7314504628886946315",
        "url": ""
    },
    {
        "title": "圣斗士星矢：最划水的黄金圣斗士，没错，说的就是你",
        "docid": "7319456916298809919",
        "url": ""
    },
    {
        "title": "壁纸集锦",
        "docid": "7314303327565758995",
        "url": ""
    },
    {
        "title": "漫画泉州｜想找个去泉州的理由，结果一下找到这么多……",
        "docid": "7329005974877094426",
        "url": ""
    },
    {
        "title": "当你老了，太现实了！",
        "docid": "7324628707669295656",
        "url": ""
    },
    {
        "title": "诸星团时隔多年再见安奴，对方早就给自己生了赛罗",
        "docid": "7329833040308339254",
        "url": ""
    },
    {
        "title": "壁纸：柔和的绿色系壁纸",
        "docid": "7319754022804734464",
        "url": ""
    },
    {
        "title": "喜欢手办的小伙爱上纸影戏，他用纸影手办吸引大批年轻戏粉",
        "docid": "7345831790026687028",
        "url": ""
    },
    {
        "title": "（漫画）新型恋爱PUA：你要情绪稳定",
        "docid": "7346047293285564928",
        "url": ""
    },
    {
        "title": "女性“变老”的特点，如果你也有，那就说明你已经不那么年轻了",
        "docid": "7325031211229938188",
        "url": ""
    },
    {
        "title": "头像‖简约而不简单",
        "docid": "7319924999857881615",
        "url": ""
    },
    {
        "title": "樱木花道十大进球，你认识几个",
        "docid": "7345884426099753510",
        "url": ""
    },
    {
        "title": "从坐车的姿势，就能看出男女关系，太现实了，幽默有趣的漫画",
        "docid": "7345628740770333193",
        "url": ""
    },
    {
        "title": "圣斗士：圣战结束后，为什么只有星矢跟紫龙继承了黄金圣衣？",
        "docid": "7327133593413894710",
        "url": ""
    },
    {
        "title": "壁纸|傲娇的龙",
        "docid": "7335689786797441573",
        "url": ""
    },
    {
        "title": "火影中三大瞳术之一白眼的10种能力：日向有5种，其余专属大筒木",
        "docid": "7326103143085785640",
        "url": ""
    },
    {
        "title": "女生的胸部是一个迷！挺有意思的",
        "docid": "7346004929909211711",
        "url": ""
    },
    {
        "title": "（漫画）你眼中的自己",
        "docid": "7345004001588871699",
        "url": ""
    },
    {
        "title": "一心向钱，别无他念‖壁纸",
        "docid": "7330515142637060643",
        "url": ""
    },
    {
        "title": "人性漫画--独居的女人",
        "docid": "7332088116499038771",
        "url": ""
    },
    {
        "title": "人性怪谈漫画《好事降临》车祸后男友甩了我",
        "docid": "7345867587693199882",
        "url": ""
    },
    {
        "title": "男生头像|爱上冥想，爱上生活",
        "docid": "7343084819171033650",
        "url": ""
    },
    {
        "title": "有老公和没老公的区别，太形象太经典了，幽默风趣的漫画值得一看",
        "docid": "7342740785559306789",
        "url": ""
    },
    {
        "title": "原来结婚与不结婚真的不一样，你看懂了吗？现实生活漫画",
        "docid": "7345361702643106316",
        "url": ""
    },
    {
        "title": "哈哈，你的朋友圈是不是经常看到这样的啊！",
        "docid": "7345656350070211082",
        "url": ""
    },
    {
        "title": "再见，鸟山明！再见 ，我的童年！外交部对鸟山明去世表示深切哀悼",
        "docid": "7343849122526544410",
        "url": ""
    },
    {
        "title": "漫画揭秘，一家人到底谁最累，内容真实，太真现实了，区别太大了",
        "docid": "7346028755061867058",
        "url": ""
    },
    {
        "title": "为何古道一眼就能认出萧炎身份，原来是他夺薰儿身子早被知晓",
        "docid": "7345408229616452123",
        "url": ""
    },
    {
        "title": "女生要花多久才能忘记前任呢？漫画告诉你，很真实",
        "docid": "7330715134664573450",
        "url": ""
    },
    {
        "title": "并不是生理上做了父亲，孩子就天然的会亲你、爱你、敬你。",
        "docid": "7325973464903500324",
        "url": ""
    },
    {
        "title": "国外抖音网友也爱看凡人修仙传，评论：中国动漫世界第一",
        "docid": "7318780265898345011",
        "url": ""
    },
    {
        "title": "《龙珠》：与悟空互换身体前，基纽队长的身体是他自己的么？",
        "docid": "7344956097633223222",
        "url": ""
    },
    {
        "title": "所有你偷过的懒，上天都在替你记着（漫画）",
        "docid": "7318385234507694655",
        "url": ""
    },
    {
        "title": "想象中的30岁VS现实中的30岁",
        "docid": "7345726727760462388",
        "url": ""
    },
    {
        "title": "为什么有人宁愿走国道，也不走高速呢？",
        "docid": "7344655651845538304",
        "url": ""
    },
    {
        "title": "据说这都是男人的一贯动作，内容过于真实，你是不是这样",
        "docid": "7345277620772405812",
        "url": ""
    },
    {
        "title": "现代年轻人的工作现状。太现实了",
        "docid": "7346047735080108559",
        "url": ""
    },
    {
        "title": "圣斗士：最惨烈的圣战，雅典娜被斩首，黄金圣斗士们战死！",
        "docid": "7322829989593170473",
        "url": ""
    },
    {
        "title": "漫改《武庚纪》全员破次元壁!最后一位简直神还原！",
        "docid": "7321647591987462696",
        "url": ""
    },
    {
        "title": "富人的周末和穷人的周末，你属于哪一种？",
        "docid": "7346097610517791282",
        "url": ""
    },
    {
        "title": "少数派对 | 金庸没人读？鸟山明只剩“召唤神龙”梗？70后80后90后00后怎么看待大师和经典",
        "docid": "7346085064972698121",
        "url": ""
    },
    {
        "title": "建议心态不好的女生没事多看看 ​​​",
        "docid": "7343449108000801317",
        "url": ""
    },
    {
        "title": "劝君更尽一杯酒，脸红脸白谁先走？",
        "docid": "7346089595559526966",
        "url": ""
    },
    {
        "title": "【看书小记】之漫画（卡通）书",
        "docid": "7346053568668942863",
        "url": ""
    },
    {
        "title": "木叶村被摧毁之后是怎样重建的？听说大和队长都累吐了！",
        "docid": "7330632133377163786",
        "url": ""
    },
    {
        "title": "简笔画也可以这么美",
        "docid": "7343159704375673359",
        "url": ""
    },
    {
        "title": "斗罗大陆2：无数邪魂师杀入史莱克学院，99级龙神斗罗陨落",
        "docid": "7330264418624504329",
        "url": ""
    },
    {
        "title": "男生的消费观，太真实了哈哈 #内容过于真实 #一定要看到结尾",
        "docid": "7332345018264322560",
        "url": ""
    },
    {
        "title": "为何cosplay大部分都是日本人物，很少中国的人物呢？评论区炸裂",
        "docid": "7313927933658677771",
        "url": ""
    },
    {
        "title": "小时候过年VS长大后过年",
        "docid": "7327967374097793571",
        "url": ""
    },
    {
        "title": "复工打工人发疯文案，朋友圈这样发",
        "docid": "7336394141712794148",
        "url": ""
    },
    {
        "title": "被妈妈爱着的女儿，长什么样子？",
        "docid": "7335421522565726758",
        "url": ""
    },
    {
        "title": "（漫画）以前的消费观VS现在的消费观",
        "docid": "7331717183900221991",
        "url": ""
    },
    {
        "title": "这组用来做新年壁纸也超棒！ ​​​",
        "docid": "7329311009464648246",
        "url": ""
    },
    {
        "title": "看病越来越贵，医院却普遍亏损，钱都去哪了？",
        "docid": "7332766070853616155",
        "url": ""
    },
    {
        "title": "国漫太火也是错！误以为是日本动漫，男子怒砸签名墙",
        "docid": "7345332334805418496",
        "url": ""
    },
    {
        "title": "海贼王1110话情报，大妈赋予岩浆生命，消耗大量肥肉变成美女归来",
        "docid": "7342682418618614322",
        "url": ""
    },
    {
        "title": "正月初二，回娘家",
        "docid": "7334160201711321609",
        "url": ""
    },
    {
        "title": "炽天使已经强于王下七武海，这四点优势是王牌，难怪五老星都惦记",
        "docid": "7313655907819454995",
        "url": ""
    },
    {
        "title": "二零二四年即将上映的十部国产动漫，哪一部是你最期待的？",
        "docid": "7322049016689082943",
        "url": ""
    },
    {
        "title": "（漫画）我以为的我妈过年VS实际上的我妈过年",
        "docid": "7332831994698088979",
        "url": ""
    },
    {
        "title": "为什么凡人修仙传年番现在播放量下降这么严重？只因为这两个原因",
        "docid": "7317524247138779700",
        "url": ""
    },
    {
        "title": "鸟山明刚走，龙珠圈友摆出一屋子手办 网友感叹：这是什么神仙手办",
        "docid": "7343900883198984740",
        "url": ""
    },
    {
        "title": "中国日报漫画：做美国的敌人是危险的，做美国的盟友是致命的",
        "docid": "7324503109827559946",
        "url": ""
    },
    {
        "title": "海贼王：原来霸王色也有等级之分，那么你知道路飞在哪个阶段吗？",
        "docid": "7316437163418059327",
        "url": ""
    },
    {
        "title": "漫画：男人要经历什么才能长大？",
        "docid": "7346052454397559296",
        "url": ""
    },
    {
        "title": "当代年轻人的过年三件套，跟你一样不",
        "docid": "7346103286061105716",
        "url": ""
    },
    {
        "title": "（漫画）以前的妈妈 VS 现在的妈妈",
        "docid": "7346056568158306831",
        "url": ""
    },
    {
        "title": "斗破苍穹：曾经拥有九星斗圣的六个势力，如今都变成什么样了",
        "docid": "7328456740423418380",
        "url": ""
    },
    {
        "title": "人到中年：为啥胖成球？",
        "docid": "7346075781657870900",
        "url": ""
    },
    {
        "title": "这或许才是，多数“丁克”的结局吧！别再天真了……（漫画）",
        "docid": "7335298940697018917",
        "url": ""
    },
    {
        "title": "手机背景壁纸｜吉祥如意愿，福禄寿喜来，四季平安。",
        "docid": "7339007975963673123",
        "url": ""
    },
    {
        "title": "漫画：爸爸带娃也有不一样的精彩",
        "docid": "7345864854923706895",
        "url": ""
    },
    {
        "title": "LC时代的十二位黄金圣斗士为何被称作历代最强？战绩已说明一切！",
        "docid": "7319518889430450700",
        "url": ""
    },
    {
        "title": "人性漫画:《直播工具人》",
        "docid": "7331925290064724521",
        "url": ""
    },
    {
        "title": "漫画:女生怎样保护自己。遇到“榴芒”时如何反击",
        "docid": "7344000615409926707",
        "url": ""
    },
    {
        "title": "村里外出打工的年轻人，都开着小车回来过年了！",
        "docid": "7322802332713157170",
        "url": ""
    },
    {
        "title": "漫画揭秘，刚结婚时，十年之后的区别，你看懂了吗？真的太现实了",
        "docid": "7346141738504864266",
        "url": ""
    },
    {
        "title": "漫画：古代人的生活有多“艰难”？穿越到古代，你会怎么做",
        "docid": "7346053343439012404",
        "url": ""
    },
    {
        "title": "已经确定了！小医仙将从第89集下线，替代她的人也已经出现了",
        "docid": "7344648471582163496",
        "url": ""
    },
    {
        "title": "来看看火灵儿的四次建模#火灵儿 #完美世界火灵儿新建模",
        "docid": "7313864443778368000",
        "url": ""
    },
    {
        "title": "买房前VS买房后，这漫画太真实了吧！你品，你细品！",
        "docid": "7346158376974189092",
        "url": ""
    },
    {
        "title": "师傅教的本事用在师傅的女儿身上再合适不过啦！ #秋日暴击",
        "docid": "7314630852481286656",
        "url": ""
    },
    {
        "title": "为什么说力量的尽头是健康鼬，概念神无敌",
        "docid": "7314228623580496393",
        "url": ""
    },
    {
        "title": "三千州大战：石昊四重身份全部曝光，今后无需再隐藏了！",
        "docid": "7315781214273864211",
        "url": ""
    },
    {
        "title": "宫崎老爷爷的不老秘诀揭秘,一场关于退休的史诗级别扯皮大战",
        "docid": "7346098763033723419",
        "url": ""
    },
    {
        "title": "女生的胸部是一个迷！挺有意思的",
        "docid": "7346072029549986356",
        "url": ""
    },
    {
        "title": "有老公和没老公的区别，你看懂了吗？生动形象的漫画，太现实了",
        "docid": "7345856361713893923",
        "url": ""
    },
    {
        "title": "有老公和没老公的区别，你看懂了吗？生动形象的漫画，太现实了",
        "docid": "7345732347930690060",
        "url": ""
    },
    {
        "title": "真人漫改剧《烈焰之武庚纪》今日空降开播，服化道遭网友吐槽？",
        "docid": "7346104822883549731",
        "url": ""
    },
    {
        "title": "富人的周末和穷人的周末，你属于哪一种？",
        "docid": "7346097665438056986",
        "url": ""
    },
    {
        "title": "变形金刚：要如何打败创世神级别的宇宙大帝？",
        "docid": "7330968467178258963",
        "url": ""
    },
    {
        "title": "王者不一般：马超混战寻枪，峡谷惊现新皮肤乱象",
        "docid": "7343930469408473626",
        "url": ""
    },
    {
        "title": "以为皮影演的是二郎真君显圣捉拿孙悟空，秒变汤姆戬大战孙杰瑞",
        "docid": "7346130348947931685",
        "url": ""
    },
    {
        "title": "AI绘制海贼王中的反派角色，奥兹太渗人，黑胡子感觉最传神",
        "docid": "7345329138838225419",
        "url": ""
    },
    {
        "title": "他们一下子都变聪明了，难道又是得到了某东方大国的指点迷津",
        "docid": "7326779340274958898",
        "url": ""
    },
    {
        "title": "一组设计感深的壁纸",
        "docid": "7316540660851982867",
        "url": ""
    },
    {
        "title": "武庚纪：真人版来袭，纣王九分像，黑龙天八分像，武庚一分也不像",
        "docid": "7345407780985012755",
        "url": ""
    },
    {
        "title": "得知石昊被称为罪血，柳神的反应有多可怕？一团团血雾竟瞬间爆开",
        "docid": "7345415643573223970",
        "url": ""
    },
    {
        "title": "人生最大的聪明：永远不要启蒙愚蠢",
        "docid": "7337680338233934399",
        "url": ""
    },
    {
        "title": "穷人和有钱人的区别，过年回家就区分出来了！",
        "docid": "7314242083043803685",
        "url": ""
    },
    {
        "title": "人性漫画：但行好事，莫问前程",
        "docid": "7346084179609879049",
        "url": ""
    },
    {
        "title": "仙逆第27集刚出就被骂，只因两点，网友强烈要求回炉重做",
        "docid": "7345244071524745739",
        "url": ""
    },
    {
        "title": "年画娃娃年俗插画——年前篇",
        "docid": "7324578357654569512",
        "url": ""
    },
    {
        "title": "这次兔子家南北方的情报对账，北方老铁的心态炸裂了，兔子无语了",
        "docid": "7326866125928137255",
        "url": ""
    },
    {
        "title": "龙珠Z：超级赛亚人孙悟空",
        "docid": "7345826137769067044",
        "url": ""
    },
    {
        "title": "阿衰 第88话",
        "docid": "7346067066916749865",
        "url": ""
    },
    {
        "title": "神奇的王冠，任何东西戴上都会变成美少女！",
        "docid": "7317642720594690610",
        "url": ""
    },
    {
        "title": "【漫画屋】女主播",
        "docid": "7345988074797498931",
        "url": ""
    },
    {
        "title": "宫崎骏新作《你想活出怎样的人生》内地定档4月3日",
        "docid": "7346119975544832527",
        "url": ""
    },
    {
        "title": "五老星恶魔果实觉醒登场，全是神话中的怪物，关于他们的原型揭秘",
        "docid": "7346077560985518633",
        "url": ""
    },
    {
        "title": "一集封神!《武庚纪之烈焰》开播，8万人在线讨论，还原度堪称顶级",
        "docid": "7345823524378133019",
        "url": ""
    },
    {
        "title": "金庸没人读？鸟山明只剩“召唤神龙”梗？70后80后90后00后怎么看待大师和经典",
        "docid": "7346187564082151976",
        "url": ""
    },
    {
        "title": "龙珠：他是悟空唯一无法击败的对手，所有反派中最无解的存在！",
        "docid": "7345872161292157477",
        "url": ""
    },
    {
        "title": "二元到三元破壁跨越！《大理寺少卿游》，漫改剧再尝试",
        "docid": "7345985441503461899",
        "url": ""
    },
    {
        "title": "鸟山明的《龙珠》都有哪些系列？这些系列之间都有什么关系？",
        "docid": "7343998487618814527",
        "url": ""
    },
    {
        "title": "人性漫画:《罪恶都市》",
        "docid": "7336036767998771731",
        "url": ""
    },
    {
        "title": "人性漫画：【丢失的手机】",
        "docid": "7346146759304806921",
        "url": ""
    },
    {
        "title": "谁才是你心中的国漫第一女神",
        "docid": "7343118697567060491",
        "url": ""
    },
    {
        "title": "原来结婚与不结婚真不一样，你看懂了吗？现实生活漫画,仅供娱乐",
        "docid": "7345848053351514643",
        "url": ""
    },
    {
        "title": "《熊出没逆转时空》：现在才发现这部片子，竟隐藏这么多细节",
        "docid": "7332052090472432143",
        "url": ""
    },
    {
        "title": "灰太狼的父母全部亮相，父亲海狮族首领，母亲狼族顶级科学家。",
        "docid": "7331684742163366412",
        "url": ""
    },
    {
        "title": "中国日报漫画：“中国威胁论”是个筐",
        "docid": "7346161504674366003",
        "url": ""
    },
    {
        "title": "少年歌行：年轻一代最强之争 13岁的无双对战17岁的无心",
        "docid": "7320825855826428442",
        "url": ""
    },
    {
        "title": "他是国漫新番里最倒霉的人界老祖",
        "docid": "7327166373027643940",
        "url": ""
    },
    {
        "title": "吞噬星空：铁南河为“护主”身亡，罗峰大怒疯狂报复",
        "docid": "7318048493258899979",
        "url": ""
    },
    {
        "title": "7人用开盲盒的方式赌果实能力！有人吃到神级果实却用废了",
        "docid": "7323497883645739555",
        "url": ""
    },
    {
        "title": "人性漫画:《替代》",
        "docid": "7329330598995444235",
        "url": ""
    },
    {
        "title": "活在乱世只不过是为了生存！   #画江湖之不良人   #国漫",
        "docid": "7331217740613321252",
        "url": ""
    },
    {
        "title": "有老公和没老公的区别，你看懂了吗？生动形象的漫画，太现实了",
        "docid": "7345618328414765578",
        "url": ""
    },
    {
        "title": "自由又洒脱的小众男生头像 ​​​",
        "docid": "7342403991244390966",
        "url": ""
    },
    {
        "title": "男人最帅的姿势",
        "docid": "7346174926128284214",
        "url": ""
    },
    {
        "title": "富人的周末和穷人的周末，你属于哪一种？",
        "docid": "7346097656139104818",
        "url": ""
    },
    {
        "title": "女生的胸部是一个迷！挺有意思的",
        "docid": "7345407856176513572",
        "url": ""
    },
    {
        "title": "龙珠2022年剧场版，沙鲁不再有复活的机会，比超级赛亚人三难画",
        "docid": "7315015373257409064",
        "url": ""
    },
    {
        "title": "15年，13个孩子，都被她当作满足私欲的工具，结局大快人心",
        "docid": "7325263493551194663",
        "url": ""
    },
    {
        "title": "极美高清 来一搭 壁纸",
        "docid": "7346080416849216015",
        "url": ""
    },
    {
        "title": "可爱又奇怪的生理知识又增加了！",
        "docid": "7345767013245076005",
        "url": ""
    },
    {
        "title": "哮天犬的高光时刻",
        "docid": "7317317751511450112",
        "url": ""
    },
    {
        "title": "中年人想离婚的欲望有多大？或许令你难以想象，一组漫画揭晓答案",
        "docid": "7346189817580978738",
        "url": ""
    },
    {
        "title": "美国工业大摸底，摸到自己后面发凉。",
        "docid": "7316501504691536399",
        "url": ""
    },
    {
        "title": "史上最大的城市金刚猛大帅，一拳砸瘪威震天",
        "docid": "7322336134250529315",
        "url": ""
    },
    {
        "title": "《动画》：神兵小将中最bug的技能，绝对是问雅的摸谁谁傻",
        "docid": "7328373610064806438",
        "url": ""
    },
    {
        "title": "当修仙大佬来到一个只有超能力的世界",
        "docid": "7322399656221901363",
        "url": ""
    },
    {
        "title": "如果有来世，我依然会选择保卫祖国！“清澈的爱，只为中国。”",
        "docid": "7330987059756630547",
        "url": ""
    },
    {
        "title": "（漫画）新型恋爱PUA：你要情绪稳定",
        "docid": "7346213172812759586",
        "url": ""
    },
    {
        "title": "漫改天花板？《烈焰武庚纪》，劣质服化道+特效，网友：劝退！",
        "docid": "7346135479722738217",
        "url": ""
    },
    {
        "title": "这么多头像，总有一个适合你。",
        "docid": "7346197132325585408",
        "url": ""
    },
    {
        "title": "两位修真大佬第一次对决，八阵图问世！#影视解说",
        "docid": "7314959798377415207",
        "url": ""
    },
    {
        "title": "无良心炮！果然验证那句话：有钱用莱茵！没钱用莱阳！#沙雕动画",
        "docid": "7321164885646279202",
        "url": ""
    },
    {
        "title": "F22被击落？不可能！绝对不可能！",
        "docid": "7323235649711309331",
        "url": ""
    },
    {
        "title": "那是块石头吗?不！那可是受命于天 既寿永昌啊！",
        "docid": "7340241878836576819",
        "url": ""
    },
    {
        "title": "玄机科技2024年贺岁短片《过年者联盟之寻龙记》来了 #国漫",
        "docid": "7333437591133520395",
        "url": ""
    },
    {
        "title": "宫本武藏登场，网飞斥巨资打造新剧鬼武者上线 #动漫解说",
        "docid": "7318723178149184027",
        "url": ""
    },
    {
        "title": "斗破再闹笑话，五轮离火法竟成了天阶斗技？这让帝印决情何以堪",
        "docid": "7339441632523059763",
        "url": ""
    },
    {
        "title": "各省B车牌城市",
        "docid": "7325282575621358091",
        "url": ""
    },
    {
        "title": "OpenAI新款大模型Sora！Sora震撼来袭！你的感官准备好了吗",
        "docid": "7336068221071524378",
        "url": ""
    },
    {
        "title": "江苏十三太保之八省联考《一所普通的中学》#沙雕动画 #原创动画",
        "docid": "7342835069519823410",
        "url": ""
    },
    {
        "title": "男人到处捡垃圾，最后竟然拼凑出了一台自己的机甲！",
        "docid": "7344249171828081193",
        "url": ""
    },
    {
        "title": "《苏村的代表都有哪些》#沙雕动画 #江苏十三太保 #江苏",
        "docid": "7324984516102554163",
        "url": ""
    },
    {
        "title": "插画丨月光下的小兔子",
        "docid": "7346034349764362815",
        "url": ""
    }
]