[
    {
        "title": "耗时2246个小时熬夜肝完蹲坑大片《梦境神王》宝子们带好纸巾发车",
        "docid": "7323833833508307471",
        "url": "https://www.ixigua.com/7323833833508307471"
    },
    {
        "title": "爆肝4320个小时呕心沥血制作《荒古大少主》一次看爽",
        "docid": "7305752791807590946",
        "url": "https://www.ixigua.com/7305752791807590946"
    },
    {
        "title": "一口气看完耗时13小时的《暗影刺客》不爽不要钱",
        "docid": "7332524677593727527",
        "url": "https://www.ixigua.com/7332524677593727527"
    },
    {
        "title": "一口气看完都市小说",
        "docid": "7336174311788839450",
        "url": "https://www.ixigua.com/7336174311788839450"
    },
    {
        "title": "重生回到1984    1一40集",
        "docid": "7313540030017110528",
        "url": "https://www.ixigua.com/7313540030017110528"
    },
    {
        "title": "无限控鬼98-145集，一口气让你看到爽！",
        "docid": "7307557132184846860",
        "url": "https://www.ixigua.com/7307557132184846860"
    },
    {
        "title": "太美了吧",
        "docid": "7336508865141277211",
        "url": "https://www.ixigua.com/7336508865141277211"
    },
    {
        "title": "这也太好看了吧#BJD开箱",
        "docid": "7336402923410653733",
        "url": "https://www.ixigua.com/7336402923410653733"
    },
    {
        "title": "一口气看完七大罪里的高能战斗场面 #动漫 #动漫解说",
        "docid": "7335068413217374732",
        "url": "https://www.ixigua.com/7335068413217374732"
    },
    {
        "title": "唐三一家十口战力排名，唐三vs霍雨浩vs蓝轩宇，谁更强？",
        "docid": "7307826831573549618",
        "url": "https://www.ixigua.com/7307826831573549618"
    },
    {
        "title": "《梦比优斯奥特曼》剧情解析：圆谷的情怀之作，梦结束的地方",
        "docid": "7336525386483761690",
        "url": "https://www.ixigua.com/7336525386483761690"
    },
    {
        "title": "一口气看到爽系列，《绝世女宠》剧场版",
        "docid": "7334898104119853587",
        "url": "https://www.ixigua.com/7334898104119853587"
    },
    {
        "title": "三千州大战：石昊冲击神火境，被108道火焰烧成了黑炭！",
        "docid": "7317841816600969768",
        "url": "https://www.ixigua.com/7317841816600969768"
    },
    {
        "title": "一个自律的怪物有多可怕，每天绕着城市夜跑到天亮",
        "docid": "7311269474777334284",
        "url": "https://www.ixigua.com/7311269474777334284"
    },
    {
        "title": "来发信息",
        "docid": "7336591253695365644",
        "url": "https://www.ixigua.com/7336591253695365644"
    },
    {
        "title": "找互看",
        "docid": "7326958602709631497",
        "url": "https://www.ixigua.com/7326958602709631497"
    },
    {
        "title": "一口气看完《盖世杂役》",
        "docid": "7310113428847362594",
        "url": "https://www.ixigua.com/7310113428847362594"
    },
    {
        "title": "全长4310秒，漫画禁忌掠夺一口气看到爽",
        "docid": "7305228953013191218",
        "url": "https://www.ixigua.com/7305228953013191218"
    },
    {
        "title": "【法二代】耗时99小时制作！视频时长一小时！请耐心观看！",
        "docid": "7316810935375659558",
        "url": "https://www.ixigua.com/7316810935375659558"
    },
    {
        "title": "野兽狂潮合集耗时12698分钟，萌大重生囤十万头猛虎，纯净版",
        "docid": "7315359368923480614",
        "url": "https://www.ixigua.com/7315359368923480614"
    },
    {
        "title": "全套魂骨品质对比：唐三vs霍雨浩，谁的魂骨更牛？",
        "docid": "7305277081733366308",
        "url": "https://www.ixigua.com/7305277081733366308"
    },
    {
        "title": "博人传87话完整汉化解说：基佬之间的对决？全能居然无法破解？",
        "docid": "7336532184620237331",
        "url": "https://www.ixigua.com/7336532184620237331"
    },
    {
        "title": "想要的私信我",
        "docid": "7336529407177458239",
        "url": "https://www.ixigua.com/7336529407177458239"
    },
    {
        "title": "你们最喜欢哪一种我喜欢美乐蒂和库洛",
        "docid": "7336475882049143322",
        "url": "https://www.ixigua.com/7336475882049143322"
    },
    {
        "title": "盘点十部动漫里的原型",
        "docid": "7335619170866446882",
        "url": ""
    },
    {
        "title": "男主觉醒了最稀的技能鉴定，将一众强者都变成了自己的手下",
        "docid": "7316832451379069480",
        "url": "https://www.ixigua.com/7316832451379069480"
    },
    {
        "title": "两只小怪兽向着沉睡玛雅海怪踢球，等他醒来便将两小只吞入腹中",
        "docid": "7310149026123842084",
        "url": "https://www.ixigua.com/7310149026123842084"
    },
    {
        "title": "耗时56891个小时 #小说 #漫画 #漫画解说 #二次元",
        "docid": "7321249259267981839",
        "url": "https://www.ixigua.com/7321249259267981839"
    },
    {
        "title": "《死神少爷与黑女仆》这个女仆好会撩",
        "docid": "7336168700116271654",
        "url": "https://www.ixigua.com/7336168700116271654"
    },
    {
        "title": "鸣人的求道玉都去了哪儿",
        "docid": "7324248370673877539",
        "url": "https://www.ixigua.com/7324248370673877539"
    },
    {
        "title": "大长腿天穹",
        "docid": "7336474056864039439",
        "url": "https://www.ixigua.com/7336474056864039439"
    },
    {
        "title": "两代巫女头子。音乐:《AIice》和《八重樱》",
        "docid": "7336235317856305679",
        "url": "https://www.ixigua.com/7336235317856305679"
    },
    {
        "title": "一口气看完  《生化危机1-6部》4K画质 全长68分钟",
        "docid": "7333424295592329766",
        "url": "https://www.ixigua.com/7333424295592329766"
    },
    {
        "title": "答应我一口气看完我如何在洪荒当老六的生活！好吗？",
        "docid": "7307985782307095078",
        "url": "https://www.ixigua.com/7307985782307095078"
    },
    {
        "title": "耗时666小时精心制作 一口气看完 记得连上WIFI！",
        "docid": "7335012651153654284",
        "url": "https://www.ixigua.com/7335012651153654284"
    },
    {
        "title": "埼玉被召唤而来，他仅一拳，就轻松解决宙斯！为人类赢得生存权利",
        "docid": "7305001216583402018",
        "url": "https://www.ixigua.com/7305001216583402018"
    },
    {
        "title": "至高进化为什么保留至高族，原来是为了满足他变态的欲望",
        "docid": "7328243823640937000",
        "url": "https://www.ixigua.com/7328243823640937000"
    },
    {
        "title": "电锯人：原来这才叫暴力美学，早看早享受",
        "docid": "7336596951439409683",
        "url": "https://www.ixigua.com/7336596951439409683"
    },
    {
        "title": "每日更新",
        "docid": "7336517791745245705",
        "url": "https://www.ixigua.com/7336517791745245705"
    },
    {
        "title": "这首歌真的很难让人不爱，歌名：变把戏",
        "docid": "7336517167149810239",
        "url": "https://www.ixigua.com/7336517167149810239"
    },
    {
        "title": "遇你，如烟花映天下🎆",
        "docid": "7335742798530036264",
        "url": ""
    },
    {
        "title": "#奥特曼儿童动画片 #二次元动漫赛罗需要能量",
        "docid": "7333786600595587621",
        "url": "https://www.ixigua.com/7333786600595587621"
    },
    {
        "title": "兽人中的王者，穿山甲！",
        "docid": "7335535099401732619",
        "url": "https://www.ixigua.com/7335535099401732619"
    },
    {
        "title": "斗罗大陆2：霍雨浩四个孩子，三人最终成神，一个竟是十万年魂兽",
        "docid": "7312101381421138459",
        "url": "https://www.ixigua.com/7312101381421138459"
    },
    {
        "title": "【猪猪侠之竞速小英雄7】全新主题曲，敬请期待～",
        "docid": "7312073766170067471",
        "url": "https://www.ixigua.com/7312073766170067471"
    },
    {
        "title": "盘点梦比优斯全怪兽实力排名：17-15名",
        "docid": "7309831871016370738",
        "url": "https://www.ixigua.com/7309831871016370738"
    },
    {
        "title": "#年过完了，各位英雄请自己对号入座吧#",
        "docid": "7336601104132375067",
        "url": "https://www.ixigua.com/7336601104132375067"
    },
    {
        "title": "哈哈！我现在求头像！",
        "docid": "7336501961874899493",
        "url": "https://www.ixigua.com/7336501961874899493"
    },
    {
        "title": "大唐双龙传 (163) 漫画",
        "docid": "7336603064067015218",
        "url": ""
    },
    {
        "title": "女友被敌人肆意揉虐戳瞎双眼？|破灭之国|2023十月动漫",
        "docid": "7310434942771528203",
        "url": "https://www.ixigua.com/7310434942771528203"
    },
    {
        "title": "终极玩家合集",
        "docid": "7333892005036360244",
        "url": "https://www.ixigua.com/7333892005036360244"
    },
    {
        "title": "哥布林杀手，公主盗小神官衣物遭哥布林俘获，哥杀小队前往解救！",
        "docid": "7313212074690085388",
        "url": "https://www.ixigua.com/7313212074690085388"
    },
    {
        "title": "瑾威公公实力又有多强居然能察觉到剑仙的存在",
        "docid": "7322041096644035099",
        "url": "https://www.ixigua.com/7322041096644035099"
    },
    {
        "title": "每个男人做梦都想拥有一台属于自己的机甲",
        "docid": "7316626608037560873",
        "url": "https://www.ixigua.com/7316626608037560873"
    },
    {
        "title": "😢😢😢😢😢😢😢😢😢😢😢😢🥺🥺🥺🥺🥺🥺🥺🥺🥺@蛋仔饭特稀",
        "docid": "7336458632277852722",
        "url": "https://www.ixigua.com/7336458632277852722"
    },
    {
        "title": "读评论2，我被@星球动画之水峰xv 毒死了",
        "docid": "7336416397213303323",
        "url": "https://www.ixigua.com/7336416397213303323"
    },
    {
        "title": "兽人第一为术士，古尔丹！吴彦祖最丑的角色！#混剪",
        "docid": "7306829897442427430",
        "url": "https://www.ixigua.com/7306829897442427430"
    },
    {
        "title": "【斗罗】在斗一完结时，唐三竟然想要杀了玉小刚，原因令人震惊",
        "docid": "7333396434928009762",
        "url": "https://www.ixigua.com/7333396434928009762"
    },
    {
        "title": "假如给你1000万，让你冲朋友腿开一枪，你会怎么做？",
        "docid": "7324251080169259583",
        "url": "https://www.ixigua.com/7324251080169259583"
    },
    {
        "title": "石化光线的秘密终于揭晓，和千空预料的一样，果然是科学仪器！",
        "docid": "7317604419259466303",
        "url": "https://www.ixigua.com/7317604419259466303"
    },
    {
        "title": "斗罗2：王冬昊天锤武魂暴露，吓坏众人，两大武魂融合技震撼全场",
        "docid": "7311755837805068837",
        "url": "https://www.ixigua.com/7311755837805068837"
    },
    {
        "title": "龙珠：超级赛亚人六登场，金色的头发和棕毛，悟空的实力超越维斯",
        "docid": "7308238446680932891",
        "url": "https://www.ixigua.com/7308238446680932891"
    },
    {
        "title": "紫菜草莓兔公主@草苺兔公主",
        "docid": "7336459529636610586",
        "url": "https://www.ixigua.com/7336459529636610586"
    },
    {
        "title": "自己都忘了，之前是卖漫画头像、壁纸的的。要的私信。什么都有。",
        "docid": "7336471594384785960",
        "url": "https://www.ixigua.com/7336471594384785960"
    },
    {
        "title": "我穿越了，好消息是这个世界可以修仙，坏消息是这个世界不太对劲",
        "docid": "7335556794913292840",
        "url": "https://www.ixigua.com/7335556794913292840"
    },
    {
        "title": "一人之下剧场版：锈铁重现",
        "docid": "7336452306097209893",
        "url": "https://www.ixigua.com/7336452306097209893"
    },
    {
        "title": "蓝星发生战争，骆驼为防身花钱买武器，兔子靠武器便宜皮实赚麻了",
        "docid": "7310104971742183951",
        "url": "https://www.ixigua.com/7310104971742183951"
    },
    {
        "title": "这就是忍者之神",
        "docid": "7329849133978780170",
        "url": "https://www.ixigua.com/7329849133978780170"
    },
    {
        "title": "罗峰明明是个界主，为何众多不朽强者见到罗峰像见到鬼一样",
        "docid": "7311251492080615948",
        "url": "https://www.ixigua.com/7311251492080615948"
    },
    {
        "title": "左下角什么也没有",
        "docid": "7336568922680459827",
        "url": "https://www.ixigua.com/7336568922680459827"
    },
    {
        "title": "《进击的巨人》梗图2",
        "docid": "7336415014602932773",
        "url": "https://www.ixigua.com/7336415014602932773"
    },
    {
        "title": "玉米地里的人",
        "docid": "7336441877283111450",
        "url": "https://www.ixigua.com/7336441877283111450"
    },
    {
        "title": "女朋友怀孕了，我还给什么彩礼！(漫画揭秘)",
        "docid": "7336533066028171803",
        "url": ""
    },
    {
        "title": "斗罗小剧场：斗罗小朋友遇到了一个假老师",
        "docid": "7307871999161729574",
        "url": "https://www.ixigua.com/7307871999161729574"
    },
    {
        "title": "战无不胜巴也#画江湖之不良人 #国漫 #巴也",
        "docid": "7336106620214379043",
        "url": "https://www.ixigua.com/7336106620214379043"
    },
    {
        "title": "盘点日本五大神级现场 你都有看过吗",
        "docid": "7308727235107226164",
        "url": "https://www.ixigua.com/7308727235107226164"
    },
    {
        "title": "斗罗2：王冬四大底牌，随便一个都能毁灭斗罗大陆，能让唐三降临",
        "docid": "7325082665655370292",
        "url": "https://www.ixigua.com/7325082665655370292"
    },
    {
        "title": "老猪的烦恼",
        "docid": "7336607170475065919",
        "url": "https://www.ixigua.com/7336607170475065919"
    },
    {
        "title": "喜欢哪一张？",
        "docid": "7336396249270059546",
        "url": "https://www.ixigua.com/7336396249270059546"
    },
    {
        "title": "反派从按摩开始3#番茄小说",
        "docid": "7336406869168751156",
        "url": "https://www.ixigua.com/7336406869168751156"
    },
    {
        "title": "年画里的娃娃",
        "docid": "7336418428980871706",
        "url": ""
    },
    {
        "title": "罗征来英雄救美了。#百炼成神动画 #国风剧场",
        "docid": "7336020306039210531",
        "url": "https://www.ixigua.com/7336020306039210531"
    },
    {
        "title": "大雄用凝固灯将静香的池水固化，结果被她追着跑 #好书大晒",
        "docid": "7324282528150487588",
        "url": "https://www.ixigua.com/7324282528150487588"
    },
    {
        "title": "楚萱儿得知叶辰陨落，大楚姐妹花伤心透了",
        "docid": "7303900004812423690",
        "url": "https://www.ixigua.com/7303900004812423690"
    },
    {
        "title": "独属于鲜参的压迫感（闹海）",
        "docid": "7315736916350599720",
        "url": "https://www.ixigua.com/7315736916350599720"
    },
    {
        "title": "下线?七代目大人?大筒木无人能敌吗？",
        "docid": "7334318359574577664",
        "url": "https://www.ixigua.com/7334318359574577664"
    },
    {
        "title": "这个男人可以无限拖更，他发誓让所有粉丝痛苦。",
        "docid": "7336360905640247835",
        "url": "https://www.ixigua.com/7336360905640247835"
    },
    {
        "title": "不好听，勿喷哦😚😘😘",
        "docid": "7336513164907348495",
        "url": "https://www.ixigua.com/7336513164907348495"
    },
    {
        "title": "【补番推荐】灵魂转移到了妹妹身上？",
        "docid": "7315242923669324307",
        "url": "https://www.ixigua.com/7315242923669324307"
    },
    {
        "title": "保守派和投降派直接惊呆了激进派",
        "docid": "7332327152815669794",
        "url": "https://www.ixigua.com/7332327152815669794"
    },
    {
        "title": "任务",
        "docid": "7335691668127285799",
        "url": "https://www.ixigua.com/7335691668127285799"
    },
    {
        "title": "狂化时代第一集，抓到穷奇，前期它竟然是一只小橘猫@DOU+小助手",
        "docid": "7310133883062714934",
        "url": "https://www.ixigua.com/7310133883062714934"
    },
    {
        "title": "仙逆：被王林夺舍的马良一生有多惨，王林又为他做了什么呢？",
        "docid": "7303393137358340658",
        "url": "https://www.ixigua.com/7303393137358340658"
    },
    {
        "title": "遇到这种人我是真无语",
        "docid": "7336545418681156111",
        "url": "https://www.ixigua.com/7336545418681156111"
    },
    {
        "title": "斗破雅妃永远黑丝御姐",
        "docid": "7336471811720708617",
        "url": "https://www.ixigua.com/7336471811720708617"
    },
    {
        "title": "#动画感人",
        "docid": "7336494073706414642",
        "url": "https://www.ixigua.com/7336494073706414642"
    },
    {
        "title": "少年歌行第三季第19集预告刚出就惨被骂，只因两个原因",
        "docid": "7336566775653450240",
        "url": ""
    },
    {
        "title": "王者不一般：大丈夫生于天地之间，就当拜朵莉亚为义母！",
        "docid": "7310192544632341027",
        "url": "https://www.ixigua.com/7310192544632341027"
    },
    {
        "title": "雷布朗多星人到底什么来历？打怪兽格斗究竟讲了什么？",
        "docid": "7335489029254840873",
        "url": "https://www.ixigua.com/7335489029254840873"
    },
    {
        "title": "黑胡子为何让戴彭复制萨坦圣，去攻打九蛇岛时已经给出答案",
        "docid": "7335850904458887731",
        "url": "https://www.ixigua.com/7335850904458887731"
    },
    {
        "title": "一口气看完《我独自升级》1-6集#一口气看完系列 #动漫解说",
        "docid": "7336664075713118729",
        "url": "https://www.ixigua.com/7336664075713118729"
    },
    {
        "title": "赛罗睡了一觉，大家把赛罗埋了，误会了一场。",
        "docid": "7335402824538587682",
        "url": "https://www.ixigua.com/7335402824538587682"
    },
    {
        "title": "有谁想当我cp！！！",
        "docid": "7336212858990133823",
        "url": "https://www.ixigua.com/7336212858990133823"
    },
    {
        "title": "第一次见面",
        "docid": "7336574112229392896",
        "url": "https://www.ixigua.com/7336574112229392896"
    },
    {
        "title": "好好的6A硬是被承太郎玩少了一个 #动漫解说 #动漫推荐 #二次元",
        "docid": "7330086755099804170",
        "url": "https://www.ixigua.com/7330086755099804170"
    },
    {
        "title": "斗罗人物志独孤博：以“毒”冠绝天下的封号斗罗传奇一生",
        "docid": "7307464592941122099",
        "url": "https://www.ixigua.com/7307464592941122099"
    },
    {
        "title": "末日之下仅存人类竟然创造出了一座移动要塞！",
        "docid": "7304324652522799642",
        "url": "https://www.ixigua.com/7304324652522799642"
    },
    {
        "title": "谁家干架把祖宗摇过来的，连累祖宗也得吃瘪 #国漫 #练气十万年",
        "docid": "7333805224181957146",
        "url": "https://www.ixigua.com/7333805224181957146"
    },
    {
        "title": "双博主联合精心制作，一口气看爽《精灵公主》#漫画解说 #二次元",
        "docid": "7320622829966524968",
        "url": "https://www.ixigua.com/7320622829966524968"
    },
    {
        "title": "(喜羊羊与灰太狼之心世界奇遇)3",
        "docid": "7336401814113387045",
        "url": "https://www.ixigua.com/7336401814113387045"
    },
    {
        "title": "奥特曼卡片收藏册",
        "docid": "7336525613412385334",
        "url": "https://www.ixigua.com/7336525613412385334"
    },
    {
        "title": "《勇敢爱》",
        "docid": "7336378755759538715",
        "url": "https://www.ixigua.com/7336378755759538715"
    },
    {
        "title": "天花板！惊艳绝顶的日本推理动漫盘点，至今难以超越",
        "docid": "7336504327567278627",
        "url": ""
    },
    {
        "title": "世人只知蛟蛇化龙需要讨封，却不知道失败的蛟蛇下场有多惨",
        "docid": "7336458230341894665",
        "url": "https://www.ixigua.com/7336458230341894665"
    },
    {
        "title": "#一口气看完系列 #超爆小故事 「超雄哥哥，重拳出击」",
        "docid": "7313761717928854016",
        "url": "https://www.ixigua.com/7313761717928854016"
    },
    {
        "title": "一分钟带你看完进击的巨人《Q版》",
        "docid": "7314597216583320064",
        "url": "https://www.ixigua.com/7314597216583320064"
    },
    {
        "title": "从镜子里走出的自己",
        "docid": "7306426400054247946",
        "url": "https://www.ixigua.com/7306426400054247946"
    },
    {
        "title": "爸爸拿武器去学校了！找校长了！",
        "docid": "7310835728601219622",
        "url": "https://www.ixigua.com/7310835728601219622"
    },
    {
        "title": "美乐蒂",
        "docid": "7336576345357353512",
        "url": "https://www.ixigua.com/7336576345357353512"
    },
    {
        "title": "……",
        "docid": "7336485499944895002",
        "url": "https://www.ixigua.com/7336485499944895002"
    },
    {
        "title": "@巴黎的雨夜 @梦境团队ia蛋仔林小贝尔",
        "docid": "7336570227830096421",
        "url": "https://www.ixigua.com/7336570227830096421"
    },
    {
        "title": "嗯",
        "docid": "7336557986746139136",
        "url": "https://www.ixigua.com/7336557986746139136"
    },
    {
        "title": "杨超越cos嫦娥如梦令 适配度💯网友：我有这张脸我横着走",
        "docid": "7334700936415773218",
        "url": ""
    },
    {
        "title": "陈都灵出道前也是coser，还是玩很大的那种，一直美到现在！",
        "docid": "7336088907643191849",
        "url": ""
    },
    {
        "title": "《熊出没》真的是你们看到的那样子吗？背后细思极恐的的价值观。",
        "docid": "7336046590106501667",
        "url": ""
    },
    {
        "title": "火影中日向雏田从小到大的6张美照：15岁迷倒众生，32岁美貌不减",
        "docid": "7326438437668618752",
        "url": ""
    },
    {
        "title": "理性分析：究竟哪五个人的组合堪称灌篮高手中的最佳阵容？",
        "docid": "7327488235259707919",
        "url": ""
    },
    {
        "title": "那些真实的男女差异 “接吻” 太真实了！",
        "docid": "7335811464369947136",
        "url": ""
    },
    {
        "title": "观看色情片有危害？建议男性朋友们，进来看看吧！（漫画）",
        "docid": "7335506258595758632",
        "url": ""
    },
    {
        "title": "漫画揭秘，一家人到底谁最累，太现实了，区别太大了",
        "docid": "7329762080939180579",
        "url": ""
    },
    {
        "title": "月薪两万的年轻人，过年被自己穷笑了",
        "docid": "7335726855246660133",
        "url": ""
    },
    {
        "title": "火影中三大瞳术之一白眼的10种能力：日向有5种，其余专属大筒木",
        "docid": "7326103143085785640",
        "url": ""
    },
    {
        "title": "老婆和情人的区别，太真实了，生动形象的漫画，太精辟",
        "docid": "7336612637788193321",
        "url": ""
    },
    {
        "title": "是不是每个妈妈都会有这种感慨？",
        "docid": "7330828341202862601",
        "url": ""
    },
    {
        "title": "《火影忍者》中忍刀七人众都是怎么死的？鬼鲛被狠狠克制！",
        "docid": "7336558899753140799",
        "url": ""
    },
    {
        "title": "享年52岁，《电锯惊魂》主人公一生的故事，他为什么杀人？",
        "docid": "7312781823455838770",
        "url": ""
    },
    {
        "title": "被男友拍裸照后的24小时，我快疯了（漫画）",
        "docid": "7317323529597223443",
        "url": ""
    },
    {
        "title": "不小心把一口痰吞下去了，会对身体造成什么伤害吗？",
        "docid": "7329368931779559951",
        "url": ""
    },
    {
        "title": "火影博人传青年篇7话图透 博人巳月深情告白 鹿丸依旧是智商担当",
        "docid": "7336376163700343359",
        "url": ""
    },
    {
        "title": "6个超变态的方法，让你睡着也能变瘦，真的绝了",
        "docid": "7328170764673483273",
        "url": ""
    },
    {
        "title": "正常男人，直男跟渣男的区别！网友：下辈子我也做个渣男",
        "docid": "7336010129176789513",
        "url": ""
    },
    {
        "title": "人性漫画:《罪恶都市》",
        "docid": "7336036767998771731",
        "url": ""
    },
    {
        "title": "圣斗士星矢：最划水的黄金圣斗士，没错，说的就是你",
        "docid": "7319456916298809919",
        "url": ""
    },
    {
        "title": "斗破苍穹：曾经拥有九星斗圣的六个势力，如今都变成什么样了",
        "docid": "7328456740423418380",
        "url": ""
    },
    {
        "title": "（漫画）现在的爸爸是废了",
        "docid": "7329506683347075619",
        "url": ""
    },
    {
        "title": "国漫风向已变，今后国漫界不会出现什么年番了，只因为这两个原因",
        "docid": "7328288381350576666",
        "url": ""
    },
    {
        "title": "人性漫画:《直播工具人》",
        "docid": "7331925290064724521",
        "url": ""
    },
    {
        "title": "他们以免费的名义，专骗年轻女性，揭露理发潜规则",
        "docid": "7306331384506122804",
        "url": ""
    },
    {
        "title": "武大郎用生命告诉我们，没钱就不要玩高配！",
        "docid": "7328934430645649970",
        "url": ""
    },
    {
        "title": "漫画：身为一名鉴黄师，会有多“痛苦”呢？",
        "docid": "7316135272880964123",
        "url": ""
    },
    {
        "title": "《龙珠》克林战斗力演变史，大结局有可能突破十万",
        "docid": "7310063052320211467",
        "url": ""
    },
    {
        "title": "人性漫画--刷脸时代",
        "docid": "7323196525642334757",
        "url": ""
    },
    {
        "title": "数码宝贝：历代出现的错误进化，哪个是你的童年阴影？",
        "docid": "7336225025491862079",
        "url": ""
    },
    {
        "title": "治愈漫画|生活嘛，慢慢来，你又不差",
        "docid": "7336578358266397221",
        "url": ""
    },
    {
        "title": "（漫画）以前流行的发型 VS 现在流行的发型，太真实了",
        "docid": "7328029705419162138",
        "url": ""
    },
    {
        "title": "十二生肖之中国功夫，传承千年武学精髓",
        "docid": "7335633884623192587",
        "url": ""
    },
    {
        "title": "海贼王1107：果然，黑胡子的血统是三人一体的异形人，戴彭赢麻了",
        "docid": "7336408565692924468",
        "url": ""
    },
    {
        "title": "漫画：你以为女生喜欢的，实际上女生喜欢的",
        "docid": "7336133208636949032",
        "url": ""
    },
    {
        "title": "十二生肖头像|过完春节，都胖呼呼了",
        "docid": "7335820663774659087",
        "url": ""
    },
    {
        "title": "一位自以为是的妈妈，是如何一步一步掐死自己孩子的（漫画）",
        "docid": "7312656399446655522",
        "url": ""
    },
    {
        "title": "水浒英雄传108位好汉高清图",
        "docid": "7328346856616952361",
        "url": ""
    },
    {
        "title": "（漫画）当代男女白天假装正经，到了晚上原形毕露",
        "docid": "7331324153880216076",
        "url": ""
    },
    {
        "title": "太神奇！低配版小龙女，像李若彤又像伍佰！",
        "docid": "7335052747361894924",
        "url": ""
    },
    {
        "title": "当代女生单身现状",
        "docid": "7335672602721255975",
        "url": ""
    },
    {
        "title": "这些奇奇怪怪的“身体反应”，你自己看看，中招了多少？",
        "docid": "7312417120624411151",
        "url": ""
    },
    {
        "title": "壁纸|傲娇的龙",
        "docid": "7335689786797441573",
        "url": ""
    },
    {
        "title": "海贼王1107话汉化，萨坦被路飞暴打后，又被黑胡子盯上，是真惨",
        "docid": "7336062168829329929",
        "url": ""
    },
    {
        "title": "一拳超人第149拳 KING一人震四龙",
        "docid": "7336239612265890344",
        "url": ""
    },
    {
        "title": "游戏王中的三幻神、三幻魔、三极神和三邪神。",
        "docid": "7322758047900746281",
        "url": ""
    },
    {
        "title": "万代提供的原圣斗士星矢盔甲废案 多亏当年动画没有采纳这个设定",
        "docid": "7320505986966372918",
        "url": ""
    },
    {
        "title": "现在的年轻人为什么做自己爱做的事情时，总是无法持久？",
        "docid": "7336747528962720266",
        "url": ""
    },
    {
        "title": "老版的年画，如今已罕见",
        "docid": "7335086334157963839",
        "url": ""
    },
    {
        "title": "原来我们童年挨的刀，都是余华捅的！",
        "docid": "7336755894464332297",
        "url": ""
    },
    {
        "title": "小舞首秀“一字踢”这不是在战斗，这是在秀大长腿",
        "docid": "7304586980649304595",
        "url": ""
    },
    {
        "title": "因为无法忍受自己的作品被乱改，她最终选择了自杀",
        "docid": "7336751724755010089",
        "url": ""
    },
    {
        "title": "龙年大吉，速速来领取你的龙年壁纸",
        "docid": "7332691748756554240",
        "url": ""
    },
    {
        "title": "炎热的夏天，古代人都穿什么衣服？（漫画）他们比我们想的大胆",
        "docid": "7319099769618678281",
        "url": ""
    },
    {
        "title": "黑心虎，魔教的教主，心狠手辣，童年中极具压迫力的反派！",
        "docid": "7311131933688840715",
        "url": ""
    },
    {
        "title": "为什么凡人修仙传年番现在播放量下降这么严重？只因为这两个原因",
        "docid": "7317524247138779700",
        "url": ""
    },
    {
        "title": "别把钱看太重，那是命而已",
        "docid": "7332779111607386659",
        "url": ""
    },
    {
        "title": "龙年限定头像",
        "docid": "7333384819625591322",
        "url": ""
    },
    {
        "title": "治愈漫画 | 请允许一切发生",
        "docid": "7329711837727982080",
        "url": ""
    },
    {
        "title": "这组用来做新年壁纸也超棒！ ​​​",
        "docid": "7329311009464648246",
        "url": ""
    },
    {
        "title": "便利店女孩1-3",
        "docid": "7306747390341038619",
        "url": ""
    },
    {
        "title": "21条你可能不知道的生理冷知识",
        "docid": "7324238755480011273",
        "url": ""
    },
    {
        "title": "斗罗：周漪终于不再伪装，露出娇容，邪魂师作祟令王冬呕吐不止",
        "docid": "7320066735296791079",
        "url": ""
    },
    {
        "title": "正月初二，回娘家",
        "docid": "7334160201711321609",
        "url": ""
    },
    {
        "title": "短文化才穿模？大制作穿模更可怕，凡人掉衣服，斗罗穿模成黑历史",
        "docid": "7329342051400532543",
        "url": ""
    },
    {
        "title": "小时候过年",
        "docid": "7311199628672631308",
        "url": ""
    },
    {
        "title": "治愈系|藏在草丛的小鸭子",
        "docid": "7316160714790421019",
        "url": ""
    },
    {
        "title": "好看壁纸",
        "docid": "7332091588426744354",
        "url": ""
    },
    {
        "title": "非人哉，神仙的除夕夜美食，妈祖隆重，财神阔气，烈烈用心了",
        "docid": "7334987576631673384",
        "url": ""
    },
    {
        "title": "没找保姆之前和找了保姆之后的区别，太真实了，生动形象的漫画。",
        "docid": "7336505372343304739",
        "url": ""
    },
    {
        "title": "当我学会“自私”后，夫妻关系反而越来越近了，漫画讲述很真实",
        "docid": "7326132910632026663",
        "url": ""
    },
    {
        "title": "中国日报漫画：做美国的敌人是危险的，做美国的盟友是致命的",
        "docid": "7324503109827559946",
        "url": ""
    },
    {
        "title": "（漫画）男生经常“幻想”的10件事，你中招了几个？",
        "docid": "7332461642296427019",
        "url": ""
    },
    {
        "title": "头像/新年暴富头像分享",
        "docid": "7327277349051957796",
        "url": ""
    },
    {
        "title": "龙年卡通版吉祥话，祝你龙年大吉！",
        "docid": "7333211148336153123",
        "url": ""
    },
    {
        "title": "壁纸｜龙行龘龘，事业如龙盘虎踞般稳固，生活如龙腾虎跃般精彩！",
        "docid": "7331634525179937320",
        "url": ""
    },
    {
        "title": "如何评价《捷德奥特曼》中赛罗的人设？",
        "docid": "7336179619432759819",
        "url": ""
    },
    {
        "title": "龙之歌",
        "docid": "7336207172487610920",
        "url": ""
    },
    {
        "title": "（漫画）我以为的我妈过年VS实际上的我妈过年",
        "docid": "7332831994698088979",
        "url": ""
    },
    {
        "title": "漫画：在女生眼里的男生评分标准",
        "docid": "7336407243933991458",
        "url": ""
    },
    {
        "title": "【漫画屋】超真实手办",
        "docid": "7336768664911249946",
        "url": ""
    },
    {
        "title": "2024新年头像！爱了",
        "docid": "7318058223435530786",
        "url": ""
    },
    {
        "title": "17岁，你读高中，我做人妻，最终惨遭抛弃，漫画结局令人唏嘘",
        "docid": "7320438131432833590",
        "url": ""
    },
    {
        "title": "一拳超人154话",
        "docid": "7336097437234332169",
        "url": ""
    },
    {
        "title": "（图表·漫画）“龙生九子”，各有神通（长版）",
        "docid": "7333139439268479497",
        "url": ""
    },
    {
        "title": "壁纸｜迎财神，八方来财，养财蓄财，年年添财，招财进财！",
        "docid": "7335040553371402792",
        "url": ""
    },
    {
        "title": "年画娃娃年俗插画——年前篇",
        "docid": "7324578357654569512",
        "url": ""
    },
    {
        "title": "驾校里的搞笑对话，搞笑动漫",
        "docid": "7336756396538610202",
        "url": ""
    },
    {
        "title": "你必须爱有所及，这是活着的证据",
        "docid": "7335805521767776787",
        "url": ""
    },
    {
        "title": "烫个爆炸头做个个性张扬的自己！委屈谁也别委屈了自己||可爱头像",
        "docid": "7336028655392473663",
        "url": ""
    },
    {
        "title": "头像44 ‖ 学习ing清雅女头",
        "docid": "7313171611589493248",
        "url": ""
    },
    {
        "title": "【开篇的话】新的一年，新的开始！周周陪你“漫生活”！",
        "docid": "7336725654794584576",
        "url": ""
    },
    {
        "title": "简约壁纸‖2024➠2➠17（二）",
        "docid": "7336230964936540682",
        "url": ""
    },
    {
        "title": "（图表·漫画）二十四节气·雨水丨雨水好时节（1）",
        "docid": "7336744595730334245",
        "url": ""
    },
    {
        "title": "浪人武藏[小池一夫][12卷全]",
        "docid": "7336561687094837814",
        "url": ""
    },
    {
        "title": "原图壁纸：遥远的东方有一条龙",
        "docid": "7317524010156900916",
        "url": ""
    },
    {
        "title": "插画设计 ｜ 这是潮流抽象派的吗",
        "docid": "7336203723183964710",
        "url": ""
    },
    {
        "title": "新春吉祥福娃可爱头像｜招财进宝，吉祥如意 ，福寿安康，鸿喜连连",
        "docid": "7323658004182909475",
        "url": ""
    },
    {
        "title": "简约壁纸‖2024➠2➠18（一）",
        "docid": "7336604244826522122",
        "url": ""
    },
    {
        "title": "手机壁纸‖竹林深处有人家，依山傍水远繁华",
        "docid": "7322031994198999589",
        "url": ""
    },
    {
        "title": "腊月三十儿，除夕，大团圆",
        "docid": "7333404229308170802",
        "url": ""
    },
    {
        "title": "漫画泉州｜从海路到陆路，三十六骑福星开路！",
        "docid": "7329324374916727347",
        "url": ""
    },
    {
        "title": "高达seed外传反哺正片 全都是异端玩剩下的 真希望外传能动画化",
        "docid": "7336016024321688127",
        "url": ""
    },
    {
        "title": "龙珠超第54话 悟饭VS赛本斯利，魔罗的计划",
        "docid": "7336748112914416143",
        "url": ""
    },
    {
        "title": "24张 iPhone 版海贼王壁纸",
        "docid": "7336287877900354063",
        "url": ""
    },
    {
        "title": "一位东北漫画家笔下的“吉林印象”",
        "docid": "7336041084876866083",
        "url": ""
    },
    {
        "title": "《神秘恐龙谷》动漫IP发布",
        "docid": "7336767296184189450",
        "url": ""
    },
    {
        "title": "漫画泉州｜走，这个春节来一场打卡世遗的快乐旅行",
        "docid": "7329660263035306532",
        "url": ""
    },
    {
        "title": "咒术回战：吃了空间斩的乙骨是否已经挂了 就算活着也没法再打了",
        "docid": "7336022110974001676",
        "url": ""
    },
    {
        "title": "新年返程开工！检察人专属正能量壁纸来啦",
        "docid": "7336746729095578166",
        "url": ""
    },
    {
        "title": "有了同济这套表情包，“斗图”一定赢！",
        "docid": "7336802798820180531",
        "url": ""
    },
    {
        "title": "一人之下人物评价｜带你看清作为米二化身的无根生那虚假的一面",
        "docid": "7334913898560569894",
        "url": ""
    },
    {
        "title": "2024年新年龙年福壁纸（壁纸分享第0028期）",
        "docid": "7336155985364812323",
        "url": ""
    },
    {
        "title": "龙年春节除夕至初八的每日喜庆壁纸，让你红红火火过大年！",
        "docid": "7322034882425913896",
        "url": ""
    },
    {
        "title": "《名侦探柯南：100万美元的五芒星》新PV公开，主题曲由aiko演唱",
        "docid": "7336207749698961972",
        "url": ""
    },
    {
        "title": "王林一人屠杀上千修士，但为啥见到个废老头，就像见鬼一样害怕呢",
        "docid": "7313726795746902538",
        "url": "https://www.ixigua.com/7313726795746902538"
    },
    {
        "title": "萧炎的天妖凰翼太霸气了",
        "docid": "7328642822544982554",
        "url": "https://www.ixigua.com/7328642822544982554"
    },
    {
        "title": "大年初五喜庆壁纸｜迎财神啦，让你财源滚滚来",
        "docid": "7335087309605634560",
        "url": ""
    },
    {
        "title": "你以为男生爱看的？实际上男生爱看的是…",
        "docid": "7336807774913413686",
        "url": ""
    },
    {
        "title": "当你老了，太现实了！",
        "docid": "7336809688681660963",
        "url": ""
    },
    {
        "title": "人性怪谈漫画《变形的时代》",
        "docid": "7336803341965689379",
        "url": ""
    },
    {
        "title": "男人仅用5秒就吃掉了一只烤乳猪？烈海王vs铎尔一口气打完！#动漫",
        "docid": "7320517736226882111",
        "url": "https://www.ixigua.com/7320517736226882111"
    },
    {
        "title": "王者不一般：无皮村饮食安全问题！竟让策划狂泻数个小时！",
        "docid": "7320586110772773415",
        "url": "https://www.ixigua.com/7320586110772773415"
    },
    {
        "title": "男人意外变成最低级的骷髅，却没想到竟获得逆天外挂！",
        "docid": "7323442305116537395",
        "url": "https://www.ixigua.com/7323442305116537395"
    },
    {
        "title": "十月新番：王女被哥布林掳到死亡迷宫，而哥杀众人毫不犹豫的接取",
        "docid": "7310245589588017683",
        "url": "https://www.ixigua.com/7310245589588017683"
    },
    {
        "title": "#动画片##奥特曼##动漫#",
        "docid": "7336023664121446963",
        "url": "https://www.ixigua.com/7336023664121446963"
    },
    {
        "title": "狗熊岭申请出战！#科目三#熊出没#大学生",
        "docid": "7312684008159052322",
        "url": "https://www.ixigua.com/7312684008159052322"
    },
    {
        "title": "小小蚂蚁也敢嚣张，奶龙要打十个 #轻漫计划",
        "docid": "7304950934969418292",
        "url": "https://www.ixigua.com/7304950934969418292"
    },
    {
        "title": "大宝对自己的恶作剧行为非常后悔，最后他和小宝成了好朋友",
        "docid": "7310788659211403788",
        "url": "https://www.ixigua.com/7310788659211403788"
    },
    {
        "title": "【奥特曼】买到假货vs买到真货（七）",
        "docid": "7323863223668179495",
        "url": "https://www.ixigua.com/7323863223668179495"
    },
    {
        "title": "龙珠：超级赛亚人100登场，维斯和比鲁斯合体，依然打不过孙悟空",
        "docid": "7305614203862123018",
        "url": "https://www.ixigua.com/7305614203862123018"
    },
    {
        "title": "超暗黑教育短片，人类肆意破坏环境，却不料遭到黑化精灵报复",
        "docid": "7310133112313545256",
        "url": "https://www.ixigua.com/7310133112313545256"
    },
    {
        "title": "网易快给我金皮，不然医生去找你",
        "docid": "7336545953253425701",
        "url": "https://www.ixigua.com/7336545953253425701"
    },
    {
        "title": "拜仁迎战波鸿……#搞笑 #沙雕动画 #拜仁 #波鸿 #德甲",
        "docid": "7336750351628501531",
        "url": "https://www.ixigua.com/7336750351628501531"
    },
    {
        "title": "（图表·漫画）失业保障",
        "docid": "7336615256242127396",
        "url": ""
    },
    {
        "title": "《那兔》作为我国的传奇动漫，有一天竟然也会被举报下架",
        "docid": "7332305640024605219",
        "url": "https://www.ixigua.com/7332305640024605219"
    },
    {
        "title": "神印王座：当魔神皇枫秀第一次见到伊莱克斯时，他是何反应？",
        "docid": "7304417683285082664",
        "url": "https://www.ixigua.com/7304417683285082664"
    },
    {
        "title": "【斗罗】盘点所有封号斗罗“实力”排名，谁才是最强横的存在？",
        "docid": "7312308094342529536",
        "url": "https://www.ixigua.com/7312308094342529536"
    },
    {
        "title": "神威才是万花筒的代表，必须是天花板",
        "docid": "7309438131961332264",
        "url": "https://www.ixigua.com/7309438131961332264"
    },
    {
        "title": "《反叛的鲁路修》第六幕#日漫剪辑 #动漫系列 #动漫混剪",
        "docid": "7336796425940009499",
        "url": "https://www.ixigua.com/7336796425940009499"
    },
    {
        "title": "#动画片##奥特曼##动漫动画#",
        "docid": "7336781908161856035",
        "url": "https://www.ixigua.com/7336781908161856035"
    },
    {
        "title": "第479话  值得吗？",
        "docid": "7336784973179028008",
        "url": "https://www.ixigua.com/7336784973179028008"
    },
    {
        "title": "用AI还原《海贼王》！五老星绝了，卡普气势无敌，罗杰有那味了",
        "docid": "7334602383278047798",
        "url": ""
    },
    {
        "title": "一拳超人第155拳 白精被秒，宇宙王波罗斯现身",
        "docid": "7336831050293019186",
        "url": ""
    },
    {
        "title": "漫画：年轻时渴望结婚，中年时渴望离婚，究竟是哪里变了？",
        "docid": "7336832370999837238",
        "url": ""
    },
    {
        "title": "漫画揭秘，爸爸当年抛弃妻子，给别人养孩子 ，现在归谁养呢？",
        "docid": "7336815874428682767",
        "url": ""
    },
    {
        "title": "开工大吉壁纸｜2024开工大吉，喜庆壁纸为你送上最诚挚的祝福",
        "docid": "7336692194989867560",
        "url": ""
    },
    {
        "title": "第八届全国检察“三微”十佳作品展播｜微动漫：亲爱的小孩",
        "docid": "7336827024369009163",
        "url": ""
    },
    {
        "title": "盘点废物超能力 如果能让你选，你会选哪个？#超能力",
        "docid": "7305231969523237395",
        "url": "https://www.ixigua.com/7305231969523237395"
    },
    {
        "title": "一月新番：女主刚开局就练到了99级，但却当成作弊要被赶出学院！",
        "docid": "7324759949890814473",
        "url": "https://www.ixigua.com/7324759949890814473"
    },
    {
        "title": "一拳超人第156拳",
        "docid": "7336833627588215306",
        "url": ""
    },
    {
        "title": "无声人性漫画：父母的爱",
        "docid": "7336761691726070310",
        "url": ""
    },
    {
        "title": "海贼王1093集罗女装登场！四皇黑胡子被一刀刺穿身体",
        "docid": "7334176827365949988",
        "url": "https://www.ixigua.com/7334176827365949988"
    },
    {
        "title": "斗罗2：绝世唐门七大极致属性武魂排名，冰碧帝皇蝎仅排第六！",
        "docid": "7303769551144124991",
        "url": "https://www.ixigua.com/7303769551144124991"
    },
    {
        "title": "《进击的巨人》进击的巨人两分钟速通版，过瘾就完事了~",
        "docid": "7306021227062428170",
        "url": "https://www.ixigua.com/7306021227062428170"
    },
    {
        "title": "一口气看完，时长30分钟动漫猎兽神兵",
        "docid": "7319807756205195813",
        "url": "https://www.ixigua.com/7319807756205195813"
    },
    {
        "title": "三千州大战：石昊四重身份全部曝光，今后无需再隐藏了！",
        "docid": "7315781214273864211",
        "url": "https://www.ixigua.com/7315781214273864211"
    },
    {
        "title": "宝藏动漫分享《兽兵卫忍风帖》最后的诀别 #动漫 #漫剪 #二次元",
        "docid": "7336817032073216550",
        "url": "https://www.ixigua.com/7336817032073216550"
    },
    {
        "title": "石纪元：如果在石器时代拥有一把手枪，男人该有多豪横！",
        "docid": "7320927525343855167",
        "url": "https://www.ixigua.com/7320927525343855167"
    },
    {
        "title": "缉毒队长重生归来，觉醒异能双眼，成为警界传奇#沙雕动画",
        "docid": "7322845889880719911",
        "url": "https://www.ixigua.com/7322845889880719911"
    },
    {
        "title": "国漫动画#阿姐大号一开，生死难料",
        "docid": "7328719924061930019",
        "url": "https://www.ixigua.com/7328719924061930019"
    },
    {
        "title": "小童动漫：小西瓜排排队 居然还有棒棒糖 快来看看吧",
        "docid": "7305037684773388852",
        "url": "https://www.ixigua.com/7305037684773388852"
    },
    {
        "title": "\"本来以为是骗子驱魔师 没想到哥们你玩真的啊\" #混剪",
        "docid": "7315624546659697171",
        "url": "https://www.ixigua.com/7315624546659697171"
    },
    {
        "title": "奥特曼人间体前后变化盘点：小陆和未来胖若两人？",
        "docid": "7307556660812186148",
        "url": "https://www.ixigua.com/7307556660812186148"
    },
    {
        "title": "戏神",
        "docid": "7336523197464085055",
        "url": "https://www.ixigua.com/7336523197464085055"
    },
    {
        "title": "漫画：情侣入住酒店24小时全曝光",
        "docid": "7336839509990146572",
        "url": ""
    },
    {
        "title": "衰木乃伊吓死人，终被大脸撵出门，小衰金老师“家”居下水管🤣",
        "docid": "7336855012104061474",
        "url": ""
    },
    {
        "title": "一组超赞的壁纸分享",
        "docid": "7336856749657309722",
        "url": ""
    },
    {
        "title": "过年炸金花演技派的人#远离赌博 #过年氛围提前搞起来了",
        "docid": "7313111614943658507",
        "url": "https://www.ixigua.com/7313111614943658507"
    },
    {
        "title": "斗罗大陆第十七集：唐昊的魂环配置惊呆赵无极",
        "docid": "7318669484439536182",
        "url": "https://www.ixigua.com/7318669484439536182"
    },
    {
        "title": "斗罗大陆：六只百万年魂兽实力排名，兽神帝天仅排第四！",
        "docid": "7316796696858952226",
        "url": "https://www.ixigua.com/7316796696858952226"
    },
    {
        "title": "斗罗大陆：唐三和小舞从小青梅竹马，却被竹青破坏阻止他们在一起",
        "docid": "7325342160281469490",
        "url": "https://www.ixigua.com/7325342160281469490"
    },
    {
        "title": "AC米兰迎战蒙扎……#搞笑 #沙雕动画 #意甲 #AC米兰 #蒙扎",
        "docid": "7336750828885115431",
        "url": "https://www.ixigua.com/7336750828885115431"
    },
    {
        "title": "女生讨厌男生的8种行为，对照一瞧，你中招了吗？",
        "docid": "7336864974071022130",
        "url": ""
    },
    {
        "title": "人间百态，精彩绝伦",
        "docid": "7335650647091757609",
        "url": ""
    },
    {
        "title": "手机壁纸 | 承诺背后有个词叫一时兴起。",
        "docid": "7331573630868505129",
        "url": ""
    },
    {
        "title": "混沌翅膀5：我第一次用出混沌魔法的时候，就差点毁了一座城",
        "docid": "7307508790977528357",
        "url": "https://www.ixigua.com/7307508790977528357"
    },
    {
        "title": "【超级爽漫】我是地球剩下的唯一人类，轮回99次只为拯救世界！",
        "docid": "7310092170349216307",
        "url": "https://www.ixigua.com/7310092170349216307"
    },
    {
        "title": "7人用开盲盒的方式赌果实能力！有人吃到神级果实却用废了",
        "docid": "7323497883645739555",
        "url": "https://www.ixigua.com/7323497883645739555"
    },
    {
        "title": "末世监狱",
        "docid": "7335964140399886874",
        "url": "https://www.ixigua.com/7335964140399886874"
    },
    {
        "title": "你们期待很久的开箱视频终于来了！嘻嘻",
        "docid": "7336813941102346790",
        "url": "https://www.ixigua.com/7336813941102346790"
    },
    {
        "title": "行星哥斯拉被巨蟒钻入肚子，小哥斯拉帮他清除痛苦",
        "docid": "7324684995363897895",
        "url": "https://www.ixigua.com/7324684995363897895"
    },
    {
        "title": "舔了师妹柳如烟五年，获得无敌修为！",
        "docid": "7318252486546948649",
        "url": "https://www.ixigua.com/7318252486546948649"
    },
    {
        "title": "《幽游白书真人版》第3集 魔强统一战大结局",
        "docid": "7313878479949267465",
        "url": "https://www.ixigua.com/7313878479949267465"
    },
    {
        "title": "甜动漫:妈妈被病毒感染 沃夫能找到解药 打败丧尸吗",
        "docid": "7304256605485761076",
        "url": "https://www.ixigua.com/7304256605485761076"
    },
    {
        "title": "重瞳已是无敌路，何须再借他人骨？ #国漫 #动漫 #荒天帝 #石毅",
        "docid": "7313035628126732850",
        "url": "https://www.ixigua.com/7313035628126732850"
    },
    {
        "title": "闺蜜的暗号，闺蜜身材太好，和我定暗号自救#恐怖故事",
        "docid": "7305001939715293705",
        "url": "https://www.ixigua.com/7305001939715293705"
    },
    {
        "title": "小舞最美",
        "docid": "7336559112715108927",
        "url": "https://www.ixigua.com/7336559112715108927"
    },
    {
        "title": "人性漫画--仙人跳",
        "docid": "7336869403922809385",
        "url": ""
    },
    {
        "title": "wallpaper壁纸：我好像永远在期待未来",
        "docid": "7336423971186868770",
        "url": ""
    },
    {
        "title": "盘点海贼王四位整容怪！前后形象变化太大，根本不像同一个人",
        "docid": "7320926516999946806",
        "url": "https://www.ixigua.com/7320926516999946806"
    },
    {
        "title": "团藏的实力百分比是影巅，我爱说实话，",
        "docid": "7319428712007631397",
        "url": "https://www.ixigua.com/7319428712007631397"
    },
    {
        "title": "小龙：说出来你可能不信，我被个木头桩子揍了！#电影天降大任",
        "docid": "7314109388472615450",
        "url": "https://www.ixigua.com/7314109388472615450"
    },
    {
        "title": "盘点雷德王登场历代个体，以及特殊融合娘化形态（上）",
        "docid": "7306506471293452815",
        "url": "https://www.ixigua.com/7306506471293452815"
    },
    {
        "title": "悲情美杜莎#神话#美杜莎",
        "docid": "7336788711666876943",
        "url": "https://www.ixigua.com/7336788711666876943"
    },
    {
        "title": "为什么说力量的尽头是健康鼬，概念神无敌",
        "docid": "7314228623580496393",
        "url": "https://www.ixigua.com/7314228623580496393"
    },
    {
        "title": "火影里的5位“万年下忍”，个个手握绝活，实力影级打底！",
        "docid": "7326022282252550694",
        "url": "https://www.ixigua.com/7326022282252550694"
    },
    {
        "title": "师傅教的本事用在师傅的女儿身上再合适不过啦！ #秋日暴击",
        "docid": "7314630852481286656",
        "url": "https://www.ixigua.com/7314630852481286656"
    },
    {
        "title": "国漫宠妹天花板，为妹复仇，化身厉鬼，永生永世不入轮回",
        "docid": "7311209747842073099",
        "url": "https://www.ixigua.com/7311209747842073099"
    },
    {
        "title": "解压动画：彩虹水气球的新减压方式，实验车碾压一瞬间，极度舒适",
        "docid": "7313745200634200615",
        "url": "https://www.ixigua.com/7313745200634200615"
    },
    {
        "title": "海贼王1093话：炸裂！青雉秒杀克力架，罗秒变丰满大美女！",
        "docid": "7334292591355757071",
        "url": "https://www.ixigua.com/7334292591355757071"
    },
    {
        "title": "致敬大音响，最后的大音响",
        "docid": "7305428065000587828",
        "url": "https://www.ixigua.com/7305428065000587828"
    },
    {
        "title": "萧凡哥哥",
        "docid": "7336552273444766223",
        "url": "https://www.ixigua.com/7336552273444766223"
    },
    {
        "title": "忒修斯之船_001话",
        "docid": "7336894378402972212",
        "url": ""
    },
    {
        "title": "（图表·漫画）欢度新春新方式",
        "docid": "7336901223519502867",
        "url": ""
    },
    {
        "title": "圣斗士星矢（持续更新中）",
        "docid": "7336895772551758362",
        "url": ""
    },
    {
        "title": "东莞哆咪动漫文化有限公司被罚款9000元",
        "docid": "7336895608969527818",
        "url": ""
    },
    {
        "title": "火影中的最弱组织团体，都多余了",
        "docid": "7318694962890015270",
        "url": "https://www.ixigua.com/7318694962890015270"
    },
    {
        "title": "《神兵小将》：剧中最厉害的不是天地盟主，而是他南宫逸",
        "docid": "7305729141897986596",
        "url": "https://www.ixigua.com/7305729141897986596"
    },
    {
        "title": "年少的我为了供女友上学去工地板砖，没想到他要毕业了，直接找我",
        "docid": "7336126545956307471",
        "url": "https://www.ixigua.com/7336126545956307471"
    },
    {
        "title": "天罡传中出现的不良人三十六校尉，看看有没有你喜欢的老北鼻",
        "docid": "7318367128053088777",
        "url": "https://www.ixigua.com/7318367128053088777"
    },
    {
        "title": "【我的世界动画】汪汪队之空中巡逻机集合",
        "docid": "7304596206213136935",
        "url": "https://www.ixigua.com/7304596206213136935"
    },
    {
        "title": "两个王牌杀手新婚当天各怀鬼胎，表面秀恩爱背地里想杀掉对方？",
        "docid": "7304607723793220146",
        "url": "https://www.ixigua.com/7304607723793220146"
    },
    {
        "title": "奥特曼们离开小奥特曼们",
        "docid": "7310674277227823631",
        "url": "https://www.ixigua.com/7310674277227823631"
    },
    {
        "title": "什么？这是蛋仔？！感谢@哦呼w大佬的精美创作#蛋仔派对",
        "docid": "7323853247377048115",
        "url": "https://www.ixigua.com/7323853247377048115"
    },
    {
        "title": "这绝对是最敬业的反派，为了在小弟面前装逼竟然不惜钻裤子",
        "docid": "7336107732619624960",
        "url": "https://www.ixigua.com/7336107732619624960"
    },
    {
        "title": "无限大攻击力，一口气看完达姿之战，三幻神对决奥利哈钢之神。",
        "docid": "7327707020914754099",
        "url": "https://www.ixigua.com/7327707020914754099"
    },
    {
        "title": "小狐",
        "docid": "7336635152321217065",
        "url": "https://www.ixigua.com/7336635152321217065"
    },
    {
        "title": "终极贝利亚怪兽终极怪兽和头上必杀技自拍绿光波利地震光波！",
        "docid": "7336902219499274752",
        "url": "https://www.ixigua.com/7336902219499274752"
    },
    {
        "title": "（图表·漫画）新华视点｜欢欢喜喜过大年",
        "docid": "7336932943182758441",
        "url": ""
    },
    {
        "title": "全彩龙珠第八十篇被夺走了的三颗龙珠",
        "docid": "7336820370273993279",
        "url": ""
    },
    {
        "title": "爱尔兰插画师Paul Delaney",
        "docid": "7316687125389541927",
        "url": ""
    },
    {
        "title": "原以为要中大奖了，没想到却是考试成绩",
        "docid": "7336922559269044772",
        "url": ""
    },
    {
        "title": "鹿丸Vs手鞠中忍考试绝对的智斗，拉扯与博弈拉满，精彩绝伦",
        "docid": "7309832676435821082",
        "url": "https://www.ixigua.com/7309832676435821082"
    },
    {
        "title": "大天使率天堂大军攻入地狱，没想到遭遇埋伏，全军覆没",
        "docid": "7312349404252668453",
        "url": "https://www.ixigua.com/7312349404252668453"
    },
    {
        "title": "为何称呼汤姆为反牛顿引力第一人？#猫和老鼠 #动漫解说",
        "docid": "7307229167974777381",
        "url": "https://www.ixigua.com/7307229167974777381"
    },
    {
        "title": "熊出没诡异事件",
        "docid": "7336043385285214771",
        "url": "https://www.ixigua.com/7336043385285214771"
    },
    {
        "title": "小酒杯为了长大，只能沦为大酒杯的小弟",
        "docid": "7315322576002253352",
        "url": "https://www.ixigua.com/7315322576002253352"
    },
    {
        "title": "恐龙大派对，恐龙家族穿越黑洞被染色，营救被困的小恐龙们！",
        "docid": "7306675874836054566",
        "url": "https://www.ixigua.com/7306675874836054566"
    },
    {
        "title": "鹰子眼中的魔鬼，竟是我们的守护神",
        "docid": "7332804592918659625",
        "url": "https://www.ixigua.com/7332804592918659625"
    },
    {
        "title": "1-7集超长篇合集，穿越斗罗世界开局99级双生神级武魂",
        "docid": "7310121015286661632",
        "url": "https://www.ixigua.com/7310121015286661632"
    },
    {
        "title": "上班摸鱼一时爽，一直摸鱼一直爽",
        "docid": "7312769007080178230",
        "url": "https://www.ixigua.com/7312769007080178230"
    },
    {
        "title": "一口气看完游戏王决斗城市最巅峰一战，神与神之间激烈对碰。",
        "docid": "7323902859492360738",
        "url": "https://www.ixigua.com/7323902859492360738"
    },
    {
        "title": "迷失在黑暗",
        "docid": "7336598218253435442",
        "url": "https://www.ixigua.com/7336598218253435442"
    },
    {
        "title": "搞笑视频",
        "docid": "7336916465708171830",
        "url": "https://www.ixigua.com/7336916465708171830"
    },
    {
        "title": "（漫画）现实生活中的写照，反正我真是这样一直到天亮",
        "docid": "7336832932940415507",
        "url": ""
    },
    {
        "title": "深度解析：曾经战力恐怖的赛罗 是如何一步步被削弱的？",
        "docid": "7320910863622865458",
        "url": "https://www.ixigua.com/7320910863622865458"
    },
    {
        "title": "没想到如意是这样用的。#一人之下剧场版宝儿姐杀疯了#国漫",
        "docid": "7335644559273099826",
        "url": "https://www.ixigua.com/7335644559273099826"
    },
    {
        "title": "开播以来最高能的一集#动漫推荐 #番剧",
        "docid": "7334701427509756456",
        "url": "https://www.ixigua.com/7334701427509756456"
    },
    {
        "title": "擎天柱素质广告",
        "docid": "7336207767532732943",
        "url": "https://www.ixigua.com/7336207767532732943"
    },
    {
        "title": "“金罗的千年爱情”\n#金罗 #江柔x江琳 #叶罗丽x金花",
        "docid": "7336817438123950607",
        "url": "https://www.ixigua.com/7336817438123950607"
    },
    {
        "title": "等着你我的爱",
        "docid": "7336635631810183691",
        "url": "https://www.ixigua.com/7336635631810183691"
    },
    {
        "title": "深度解析：被抄袭仿造出来的奥特曼都有哪些？",
        "docid": "7307923397953257995",
        "url": "https://www.ixigua.com/7307923397953257995"
    },
    {
        "title": "吞噬：罗峰奴役虫族母皇，母皇却要给他造百万大军",
        "docid": "7303728990248763958",
        "url": "https://www.ixigua.com/7303728990248763958"
    },
    {
        "title": "惊现女罗！黑胡子VS罗",
        "docid": "7336161867410342412",
        "url": "https://www.ixigua.com/7336161867410342412"
    },
    {
        "title": "35年前的今天 圣斗士动画海皇波塞冬篇开播",
        "docid": "7303930059453104666",
        "url": "https://www.ixigua.com/7303930059453104666"
    },
    {
        "title": "斗罗大陆史上第一次出现六个10万年魂环！",
        "docid": "7331944030361616935",
        "url": "https://www.ixigua.com/7331944030361616935"
    },
    {
        "title": "大快人心，逆贼被主角送走，魔神派蒙现身！",
        "docid": "7305002795990680073",
        "url": "https://www.ixigua.com/7305002795990680073"
    },
    {
        "title": "丈夫3万工资不够妻子花，瞒着父母离了婚，最终自食恶果",
        "docid": "7323288486713557531",
        "url": "https://www.ixigua.com/7323288486713557531"
    },
    {
        "title": "我的小鲨鱼好结局",
        "docid": "7336755733553381922",
        "url": "https://www.ixigua.com/7336755733553381922"
    },
    {
        "title": "水视频_🙃",
        "docid": "7336595369884975625",
        "url": "https://www.ixigua.com/7336595369884975625"
    }
]