[
    {
        "title": "李小璐女儿甜馨遭网暴！COS初音被二次元骂惨，道歉后注销账号",
        "docid": "7341246894762639926",
        "url": ""
    },
    {
        "title": "甜馨向初音未来道歉并注销社交平台：希望不要再骚扰我的朋友",
        "docid": "7341291235963027968",
        "url": ""
    },
    {
        "title": "有老公和没老公的区别，你看懂了吗？生动形象的漫画，太现实了",
        "docid": "7341080831462605346",
        "url": ""
    },
    {
        "title": "老婆和情人的区别，太真实了，生动形象的漫画，太精辟了。",
        "docid": "7340831765348614690",
        "url": ""
    },
    {
        "title": "漫画揭秘，一家人到底谁最累，内容真实，太真现实了，区别太大了",
        "docid": "7340872441042223650",
        "url": ""
    },
    {
        "title": "两性交往，女人最厌恶男人的这8种行为",
        "docid": "7341351242704503315",
        "url": ""
    },
    {
        "title": "原配媳妇和半路媳妇的区别，你看懂了吗？太真实了，幽默搞笑漫画",
        "docid": "7340217641409233442",
        "url": ""
    },
    {
        "title": "生动形象的漫画描述：当今的社会现实，你看懂了吗？太现实了",
        "docid": "7341224122929807912",
        "url": ""
    },
    {
        "title": "【法二代】耗时99小时制作！视频时长一小时！请耐心观看！",
        "docid": "7316810935375659558",
        "url": ""
    },
    {
        "title": "奥特爽文【暗之帝国】身为奥特曼的我却从来不打怪兽，而且每天都",
        "docid": "7340809888739623443",
        "url": ""
    },
    {
        "title": "一口气看完科幻巨作《万神殿》全集！ #一剪到底 #万神殿",
        "docid": "7309518002645533219",
        "url": ""
    },
    {
        "title": "野兽狂潮合集耗时12698分钟，萌大重生囤十万头猛虎，纯净版",
        "docid": "7315359368923480614",
        "url": ""
    },
    {
        "title": "耗时两个月制作，53分钟看完漫画《满级玩家归来》",
        "docid": "7314411233241727526",
        "url": ""
    },
    {
        "title": "一口气看到爽系列，《绝世女宠》剧场版",
        "docid": "7334898104119853587",
        "url": ""
    },
    {
        "title": "一口气看完，穿越游戏世界 #动漫     #内容启发搜索",
        "docid": "7341244224085754419",
        "url": ""
    },
    {
        "title": "凯爹还是强 鸣人还是帅",
        "docid": "7341386311502463540",
        "url": ""
    },
    {
        "title": "淮竹虽为妾，而霸业却未有妻",
        "docid": "7341074419445400115",
        "url": ""
    },
    {
        "title": ">w<>w<>w<66666666666666666666666666666666666666666666666666",
        "docid": "7341331447086907916",
        "url": ""
    },
    {
        "title": "以前穷和现在穷的区别，太现实了，幽默漫画值得一看",
        "docid": "7340830421082489359",
        "url": ""
    },
    {
        "title": "原来结婚与不结婚真的不一样，你看懂了吗？现实生活漫画",
        "docid": "7341281665530036748",
        "url": ""
    },
    {
        "title": "当你老了，看哭了",
        "docid": "7341418062052622863",
        "url": ""
    },
    {
        "title": "海贼王1109话高清图：贝加庞克惨死，五老星全员齐聚未来岛",
        "docid": "7341396026052035081",
        "url": ""
    },
    {
        "title": "漫画：女性与男性之间鲜明的对比，生活中的种种！！！",
        "docid": "7341396015221850643",
        "url": ""
    },
    {
        "title": "亲子头像 | 手绘风格家庭头像",
        "docid": "7341415847560512037",
        "url": ""
    },
    {
        "title": "一口气看完耗时13小时的《暗影刺客》不爽不要钱",
        "docid": "7332524677593727527",
        "url": ""
    },
    {
        "title": "一口气看完七大罪里的高能战斗场面 #动漫 #动漫解说",
        "docid": "7335068413217374732",
        "url": ""
    },
    {
        "title": "这个给你弹走一步。游戏上一步",
        "docid": "7341392008403452468",
        "url": ""
    },
    {
        "title": "#海贼王",
        "docid": "7341420722553782784",
        "url": ""
    },
    {
        "title": "一口气看完  《生化危机1-6部》4K画质 全长68分钟",
        "docid": "7333424295592329766",
        "url": ""
    },
    {
        "title": "男人被诅咒变成黑色白狼#一起看漫画 #二次元 #漫画",
        "docid": "7312318933975958035",
        "url": ""
    },
    {
        "title": "斗罗大陆第十七集：唐昊的魂环配置惊呆赵无极",
        "docid": "7318669484439536182",
        "url": ""
    },
    {
        "title": "高斯为什么叫高级融合材料？泽塔特空机Z又是什么意思？",
        "docid": "7325379357449716233",
        "url": ""
    },
    {
        "title": "她在想什么？",
        "docid": "7341266162699010601",
        "url": ""
    },
    {
        "title": "国家球：苏联解体",
        "docid": "7341332143832269348",
        "url": ""
    },
    {
        "title": "离谱盗版奥DVD盘点：古迦奥特曼是谁？僵尸兽奥特曼又是谁？",
        "docid": "7322772663758389811",
        "url": ""
    },
    {
        "title": "深度解析：曾经战力恐怖的赛罗 是如何一步步被削弱的？",
        "docid": "7320910863622865458",
        "url": ""
    },
    {
        "title": "当今的社会现实，你看懂了吗？生动形象的漫画太现实了",
        "docid": "7341044924143485467",
        "url": ""
    },
    {
        "title": "有老公和没老公的区别，你看懂了吗？生动形象的漫画，太现实了",
        "docid": "7341081015110287907",
        "url": ""
    },
    {
        "title": "原配媳妇和半路媳妇的区别，你看懂了吗？太真实了，幽默搞笑漫画",
        "docid": "7341269875077956131",
        "url": ""
    },
    {
        "title": "爱迪奥特曼最惨烈的一集，从遥远星球来的男人也知道眼泪的滋味",
        "docid": "7341375393036927540",
        "url": ""
    },
    {
        "title": "李长寿这个老六渡劫隐藏实力，让鸿钧老祖打了眼，丢了面子",
        "docid": "7312263678861312550",
        "url": ""
    },
    {
        "title": "佩奇： 乔治 小飞棍来咯~",
        "docid": "7317938315791958591",
        "url": ""
    },
    {
        "title": "三千州大战：石昊冲击神火境，被108道火焰烧成了黑炭！",
        "docid": "7317841816600969768",
        "url": ""
    },
    {
        "title": "选安迷修还是雷大锤？",
        "docid": "7309843068885139994",
        "url": ""
    },
    {
        "title": "数码宝贝：西游记取经四人组，八戒化身萌妹，三藏颜值比肩天女兽",
        "docid": "7341289761941897747",
        "url": ""
    },
    {
        "title": "大唐高仁《1-5合集》#沙雕动画 #原创动画 #虾仁动画",
        "docid": "7309787638784459303",
        "url": ""
    },
    {
        "title": "十万猴子大军攻岛，与罗刹大军展开激烈对决，场面相当壮观",
        "docid": "7336889339320173094",
        "url": ""
    },
    {
        "title": "奥特曼TV评分大排名：最高评分9.5分 最低的才5.1分？",
        "docid": "7315254615014900251",
        "url": ""
    },
    {
        "title": "神威才是万花筒的代表，必须是天花板",
        "docid": "7309438131961332264",
        "url": ""
    },
    {
        "title": "完美世界：毛球得知石昊的真实修为后，直接被吓得两眼发直",
        "docid": "7308383809471578624",
        "url": ""
    },
    {
        "title": "奇迹少女第四季",
        "docid": "7341195903036097059",
        "url": ""
    },
    {
        "title": "原来结婚与不结婚真的不一样，你看懂了吗？现实生活漫画",
        "docid": "7340212736862814760",
        "url": ""
    },
    {
        "title": "中国日报漫画：贪得无厌",
        "docid": "7341379808750813733",
        "url": ""
    },
    {
        "title": "一口气看完",
        "docid": "7337988284968403456",
        "url": ""
    },
    {
        "title": "奥特恶魔全集完整版\n超长慎入 连好你的wifi\n#奥特曼",
        "docid": "7316792865831518783",
        "url": ""
    },
    {
        "title": "双博主联合精心制作，一口气看爽《精灵公主》#漫画解说 #二次元",
        "docid": "7320622829966524968",
        "url": ""
    },
    {
        "title": "唐三成就海神归来高光时刻 　　վ'ᴗ' ի",
        "docid": "7322493923707126282",
        "url": ""
    },
    {
        "title": "第1集｜两口子的极限距离",
        "docid": "7341351787980718602",
        "url": ""
    },
    {
        "title": "开局我啥也不是  你等我发育两天哈",
        "docid": "7341446148550296064",
        "url": ""
    },
    {
        "title": "#动漫 #新网球王子u17世界杯 #越前龙马 小王子一直是亚久津的光",
        "docid": "7341399802305118772",
        "url": ""
    },
    {
        "title": "两代史莱克七怪终极PK，霍雨浩vs唐三，谁的带队能力更强？",
        "docid": "7309703620453532211",
        "url": ""
    },
    {
        "title": "斗罗大陆：唐三王子看上了女佣小舞，却遭到了竹青公主的阻拦！",
        "docid": "7331602467748545039",
        "url": ""
    },
    {
        "title": "【巨人战力排行3】圣母和真男人",
        "docid": "7310535828227228200",
        "url": ""
    },
    {
        "title": "1",
        "docid": "7341170019289694761",
        "url": ""
    },
    {
        "title": "画画者发出你们会画的",
        "docid": "7341364735294013988",
        "url": ""
    },
    {
        "title": "因为喜欢。所以才爱",
        "docid": "7341418890297573923",
        "url": ""
    },
    {
        "title": "白月光对我动手了",
        "docid": "7341218402931278390",
        "url": ""
    },
    {
        "title": "【七个美艳动人的女徒弟】她前世被最信任的师尊当作炉鼎日夜修炼",
        "docid": "7340466772740571675",
        "url": ""
    },
    {
        "title": "《进化法则》剧场版宠物养成系列漫画 #漫画解说 #二次元",
        "docid": "7330931179828445734",
        "url": ""
    },
    {
        "title": "暗黑魔神（蹲坑版）爽漫系列#漫画解说 #二次元 #我在抖音看漫画",
        "docid": "7313331723138236978",
        "url": ""
    },
    {
        "title": "盘点微醺后的神级翻唱，酒后翻唱个个可以封神",
        "docid": "7310132295422345728",
        "url": ""
    },
    {
        "title": "#死神bleach #黑崎一护 #动漫里最燃的瞬间",
        "docid": "7341215593627910656",
        "url": ""
    },
    {
        "title": "斗罗大陆：六只百万年魂兽实力排名，兽神帝天仅排第四！",
        "docid": "7316796696858952226",
        "url": ""
    },
    {
        "title": "希望给丫赞，谢谢！",
        "docid": "7341431720698184243",
        "url": ""
    },
    {
        "title": "这cosplay很灵活啊",
        "docid": "7341216075625398799",
        "url": ""
    },
    {
        "title": "这是多少男人的“噩梦”，“色”字头上一把刀？道尽人性！(漫画",
        "docid": "7341333347169337865",
        "url": ""
    },
    {
        "title": "【斗罗】盘点所有封号斗罗“实力”排名，谁才是最强横的存在？",
        "docid": "7312308094342529536",
        "url": ""
    },
    {
        "title": "龙珠：孙悟空见到巴达克，被邪气附体变成反派，贝吉塔成为救世主",
        "docid": "7341425390893826610",
        "url": ""
    },
    {
        "title": "鹿丸Vs手鞠中忍考试绝对的智斗，拉扯与博弈拉满，精彩绝伦",
        "docid": "7309832676435821082",
        "url": ""
    },
    {
        "title": "咒术回战252完整解说：宿傩疯狂打补丁，却遭真希压着打",
        "docid": "7341287940364239423",
        "url": ""
    },
    {
        "title": "漫画",
        "docid": "7341484646850363913",
        "url": ""
    },
    {
        "title": "霸道总裁爱上我",
        "docid": "7341384376003297792",
        "url": ""
    },
    {
        "title": "谁还在用这个头像",
        "docid": "7341364635108540962",
        "url": ""
    },
    {
        "title": "漫画：年轻时渴望结婚，中年时渴望离婚，究竟是哪里变了？",
        "docid": "7341453922722136576",
        "url": ""
    },
    {
        "title": "意外失明后妻子却背着我找前男友，我复明后继续假装失明弄清真相",
        "docid": "7318266762763043339",
        "url": ""
    },
    {
        "title": "我是契灵师（合集）",
        "docid": "7316849529637208616",
        "url": ""
    },
    {
        "title": "诛仙战力第四期：兽神篇，正道三巨头实力解析，道玄战力天花板！",
        "docid": "7340611197236052492",
        "url": ""
    },
    {
        "title": "男人仅用5秒就吃掉了一只烤乳猪？烈海王vs铎尔一口气打完！#动漫",
        "docid": "7320517736226882111",
        "url": ""
    },
    {
        "title": "鬼灭之刃剧场版来袭，全员觉醒斑纹对战鬼王无惨",
        "docid": "7340584649112224293",
        "url": ""
    },
    {
        "title": "宿傩的压迫感",
        "docid": "7341396887976542755",
        "url": ""
    },
    {
        "title": "为什么喜欢磕航猪",
        "docid": "7341349951118836287",
        "url": ""
    },
    {
        "title": "传闻长相奇丑无比的虫姬",
        "docid": "7310153014621405746",
        "url": ""
    },
    {
        "title": "至高进化为什么保留至高族，原来是为了满足他变态的欲望",
        "docid": "7328243823640937000",
        "url": ""
    },
    {
        "title": "30岁的老勇者决定去魔王城救公主出来，没想到却被公主给消灭了",
        "docid": "7327053539212001818",
        "url": ""
    },
    {
        "title": "七十二集：钓鱼佬的执着，何罗鱼与钓鱼佬的较量",
        "docid": "7339173400453218835",
        "url": ""
    },
    {
        "title": "这就是四大尸祖压迫感嘛",
        "docid": "7316549348308419091",
        "url": ""
    },
    {
        "title": "“开稳一点”是你的谎言",
        "docid": "7333413748998308362",
        "url": ""
    },
    {
        "title": "我就不信你们叫不出声来",
        "docid": "7341343562908631590",
        "url": ""
    },
    {
        "title": "特蕾西娅的兔子洞",
        "docid": "7341274661319410191",
        "url": ""
    },
    {
        "title": "1-7集超长篇合集，穿越斗罗世界开局99级双生神级武魂",
        "docid": "7310121015286661632",
        "url": ""
    },
    {
        "title": "国漫宠妹天花板，为妹复仇，化身厉鬼，永生永世不入轮回",
        "docid": "7311209747842073099",
        "url": ""
    },
    {
        "title": "斗罗大陆大结局：最美的婚礼现场，不忘初心方得始终 #斗罗大陆",
        "docid": "7325004984730354213",
        "url": ""
    },
    {
        "title": "一个自律的怪物有多可怕，每天绕着城市夜跑到天亮",
        "docid": "7311269474777334284",
        "url": ""
    },
    {
        "title": "7人用开盲盒的方式赌果实能力！有人吃到神级果实却用废了",
        "docid": "7323497883645739555",
        "url": ""
    },
    {
        "title": "这个奶妈太离谱了，这哪还有刺客敢过来啊 #二次元 #动漫解说",
        "docid": "7323285252351361599",
        "url": ""
    },
    {
        "title": "少女美",
        "docid": "7341195509538751012",
        "url": ""
    },
    {
        "title": "在些图纹身上好看吗",
        "docid": "7341211726740324900",
        "url": ""
    },
    {
        "title": "以前化妆VS现在化妆（漫画）",
        "docid": "7341451912568816180",
        "url": ""
    },
    {
        "title": "海贼王1109话：炸裂，大量伏笔填坑，五老星全员展示恶魔果实能力",
        "docid": "7341363105638892067",
        "url": ""
    },
    {
        "title": "海贼王1109话：尾田实锤，一个路飞约等于五个黄猿，将吹泪崩",
        "docid": "7340898601281126912",
        "url": ""
    },
    {
        "title": "一口气看【末世超市第三季】谭踏桥桥再汇合，1-10集",
        "docid": "7324283745660305972",
        "url": ""
    },
    {
        "title": "一部将暴力美力和幽默相结合的动漫",
        "docid": "7334509079827579444",
        "url": ""
    },
    {
        "title": "杰瑞大表哥使用绝招，帮助汤姆跟斯派克劝架！ #童年动画",
        "docid": "7317616264816525836",
        "url": ""
    },
    {
        "title": "王者不一般：大丈夫生于天地之间，就当拜朵莉亚为义母！",
        "docid": "7310192544632341027",
        "url": ""
    },
    {
        "title": "188男团对你眨眼这还能不心动",
        "docid": "7341396919463674377",
        "url": ""
    },
    {
        "title": "《悍匪唐三藏》合集",
        "docid": "7328058939986313766",
        "url": ""
    },
    {
        "title": "鬼灭之刃柱集训篇",
        "docid": "7341412081255907840",
        "url": ""
    },
    {
        "title": "#鬼灭之刃柱训练篇 #动漫剪辑 #动漫 鬼灭之刃九柱集训篇（下）",
        "docid": "7340612741755109926",
        "url": ""
    },
    {
        "title": "唐昊vs金鳄斗罗#唐昊 #唐三 #斗罗大陆双神战双神大结局",
        "docid": "7309522755106374182",
        "url": ""
    },
    {
        "title": "国漫动画#阿姐大号一开，生死难料",
        "docid": "7328719924061930019",
        "url": ""
    },
    {
        "title": "超暗黑教育短片，人类肆意破坏环境，却不料遭到黑化精灵报复",
        "docid": "7310133112313545256",
        "url": ""
    },
    {
        "title": "熊出没",
        "docid": "7341389255685603866",
        "url": ""
    },
    {
        "title": "爱的回忆",
        "docid": "7341421895989854747",
        "url": ""
    },
    {
        "title": "《风云》高手前十，帝释天破军不入流，聂风步惊云只能垫底",
        "docid": "7310417125251351076",
        "url": ""
    },
    {
        "title": "漫画:《情侣之间的相处》",
        "docid": "7327101121414316556",
        "url": ""
    },
    {
        "title": "火影忍者中第1代到第10代火影实力都如何？真的是一代不如一代",
        "docid": "7332588020912423478",
        "url": ""
    },
    {
        "title": "原来《七龙珠》每个人物的都是有参考原型的！",
        "docid": "7319906761765618217",
        "url": ""
    },
    {
        "title": "《火影忍者》有哪些吹了半天却没什么实力的龙套角色？",
        "docid": "7323179035796701707",
        "url": ""
    },
    {
        "title": "用宫崎骏的画风来画《海贼王》的角色，太惊艳了！",
        "docid": "7333871580726493706",
        "url": ""
    },
    {
        "title": "为什么《猫和老鼠》被称为经典？网友们的神评论揭示了答案",
        "docid": "7313193137084678690",
        "url": ""
    },
    {
        "title": "有哪些行为，你以为违法其实是合法的？",
        "docid": "7320174447850930729",
        "url": ""
    },
    {
        "title": "以前的攀比vs现在的攀比，内容太真实了",
        "docid": "7311327099862680074",
        "url": ""
    },
    {
        "title": "盘点十部动画片里人物原型，名侦探柯南、大力水手等，满满的回忆",
        "docid": "7321207376290300452",
        "url": ""
    },
    {
        "title": "白眼一直跟写轮眼相提并论，为什么后期白眼跟写轮眼没有可比性？",
        "docid": "7313153716310966818",
        "url": ""
    },
    {
        "title": "樱木花道和流川枫，未来谁的上限更高？",
        "docid": "7317996628760396340",
        "url": ""
    },
    {
        "title": "《葫芦娃》中的穿帮镜头，“骗”了大家一整个童年，简直太搞笑了",
        "docid": "7317569842134434323",
        "url": ""
    },
    {
        "title": "以前的消费观VS现在的消费观",
        "docid": "7319656227166945844",
        "url": ""
    },
    {
        "title": "终于有人把“当今社会压力”描述出来了，幽默漫画，太生动形象了",
        "docid": "7325827133833953818",
        "url": ""
    },
    {
        "title": "圣斗士：只打高端局的凤凰座一辉，到底打了多少场硬仗？",
        "docid": "7333399621378589247",
        "url": ""
    },
    {
        "title": "为什么女生洗澡的过程，男生接受不了？",
        "docid": "7314651110073238025",
        "url": ""
    },
    {
        "title": "我妈的审美vs我的审美",
        "docid": "7313139017829253642",
        "url": ""
    },
    {
        "title": "9大伤眼睛行为，你中了几条？",
        "docid": "7327105294553711131",
        "url": ""
    },
    {
        "title": "以前的妈妈VS00后的妈妈",
        "docid": "7310201716052902427",
        "url": ""
    },
    {
        "title": "一个女人过得怎么样，看看她身材基本就明白了！网友：很中肯",
        "docid": "7332614097923932681",
        "url": ""
    },
    {
        "title": "海贼王：原来女帝的甜甜果实是双生果，美貌和丑陋都能触发石化",
        "docid": "7311883893484388904",
        "url": ""
    },
    {
        "title": "尾田啊，这一刀你藏了十几年！让《海贼王》直接超神！",
        "docid": "7317942852913431055",
        "url": ""
    },
    {
        "title": "山海经异兽图鉴",
        "docid": "7325225117892477479",
        "url": ""
    },
    {
        "title": "圣斗士：圣战结束后，为什么只有星矢跟紫龙继承了黄金圣衣？",
        "docid": "7327133593413894710",
        "url": ""
    },
    {
        "title": "那些男生自己觉得很帅，女生觉得油腻的事",
        "docid": "7314504628886946315",
        "url": ""
    },
    {
        "title": "《斗破苍穹之少年归来》中的六大美女，不仅长得好看，演技还好",
        "docid": "7314139973899747849",
        "url": ""
    },
    {
        "title": "内裤的发展史你知道多少？（白菜和杜比的漫画百科）",
        "docid": "7309420485790548506",
        "url": ""
    },
    {
        "title": "盘点十部动漫里的原型",
        "docid": "7335619170866446882",
        "url": ""
    },
    {
        "title": "漫画：“成人网站”中的那些视频，你知道是从哪里来的吗？",
        "docid": "7314780334724219404",
        "url": ""
    },
    {
        "title": "女生cosplay被安检员“教育”，地铁管理的边界在哪儿",
        "docid": "7322834618502152714",
        "url": ""
    },
    {
        "title": "你以为女生睡前看的VS实际女生睡前看的",
        "docid": "7337562999676224026",
        "url": ""
    },
    {
        "title": "《神隐》十大三界至尊排名，天帝凤渊仅排第三，魔尊青霖第五",
        "docid": "7312771580768748047",
        "url": ""
    },
    {
        "title": "柯南：毛利夫妇被吐槽是最恶臭CP，网友：代入一下都觉得很窒息",
        "docid": "7320918995673858599",
        "url": ""
    },
    {
        "title": "鼬说他和鬼鲛打不过自来也，真要打起来到底谁赢？",
        "docid": "7322451786286219787",
        "url": ""
    },
    {
        "title": "现代年轻人的工作现状",
        "docid": "7320106565904695848",
        "url": ""
    },
    {
        "title": "8种警察的“至暗”时刻",
        "docid": "7322243484587393575",
        "url": ""
    },
    {
        "title": "DC最大BOSS剖析：达克赛德VS灭霸，到底谁更强？身体结构分析",
        "docid": "7336474150980125221",
        "url": ""
    },
    {
        "title": "明明是翻拍，却超越了动漫直接封神，这些漫改你看过多少？",
        "docid": "7280081614770815522",
        "url": ""
    },
    {
        "title": "笑死了，中年老母亲的聊天有多野？",
        "docid": "7310242005840380467",
        "url": ""
    },
    {
        "title": "圣斗士：如果青铜五小强是这五位，冥王哈迪斯可以撑几个回合？",
        "docid": "7332078357561049639",
        "url": ""
    },
    {
        "title": "都在吐槽哥斯拉在海里是怎么样的 真相来了",
        "docid": "7313966669636829759",
        "url": ""
    },
    {
        "title": "父子联手，孩儿涂鸦被改造成惊人作品",
        "docid": "7320163811322167818",
        "url": ""
    },
    {
        "title": "女孩隆胸手术后，患上怪病，从此堕落成瘾，人性漫画",
        "docid": "7310060865783349794",
        "url": ""
    },
    {
        "title": "《进击的巨人》正序故事线，巨人是怎么诞生的？人类为何上岛？",
        "docid": "7337936167058604582",
        "url": ""
    },
    {
        "title": "买房前VS买房后，这漫画太真实了吧！你品，你细品！",
        "docid": "7314073882444087818",
        "url": ""
    },
    {
        "title": "成年人的舒适社交距离，你可以忍受几个？网友：看完受不了",
        "docid": "7308718329911607808",
        "url": ""
    },
    {
        "title": "分手后的对比，你看懂了吗？幽默有趣的漫画段子，太现实了",
        "docid": "7313453212508406326",
        "url": ""
    },
    {
        "title": "漫画：妻子没有工资，丈夫的真实想法是什么？",
        "docid": "7313394405715673635",
        "url": ""
    },
    {
        "title": "这才是成年男女在一起最舒适的方式",
        "docid": "7322428139655873065",
        "url": ""
    },
    {
        "title": "早已完结但无人问津的6部国漫，每部都是业界良心",
        "docid": "7331392065110360630",
        "url": ""
    },
    {
        "title": "以前的爸妈VS现在的爸妈",
        "docid": "7329029259933418034",
        "url": ""
    },
    {
        "title": "男人有钱后VS女人有钱后，内容过于真实，生动形象的漫画。",
        "docid": "7316708489445818915",
        "url": ""
    },
    {
        "title": "真实宫斗，你能活到哪一集？",
        "docid": "7340492289157956115",
        "url": ""
    },
    {
        "title": "《完美世界》6大顶级法宝：每个都能撼动天地，石昊随身就有一件",
        "docid": "7328282348879987254",
        "url": ""
    },
    {
        "title": "男人有钱以后与女人有钱以后，内容真实，难道他们的本质一样吗？",
        "docid": "7341553939973784099",
        "url": ""
    },
    {
        "title": "男生眼里，会对女生加分的“6个技能”（漫画）真是这样吗？",
        "docid": "7328266534906905126",
        "url": ""
    },
    {
        "title": "甜馨向初音未来道歉并注销社交平台：希望不要再骚扰我的朋友",
        "docid": "7341576197073797672",
        "url": ""
    },
    {
        "title": "同居真的是一步一步来的，大部分人都遇到过的情况！！！",
        "docid": "7341544238489993738",
        "url": ""
    },
    {
        "title": "2023年度十大动漫女角色排名出炉-来看看你的二次元老婆上榜没有",
        "docid": "7340448797342089779",
        "url": ""
    },
    {
        "title": "打工人的一天，太真实了。",
        "docid": "7311915714246623798",
        "url": ""
    },
    {
        "title": "漫画揭秘，男人看女人和女人看男人，内容真实，有什么区别呢",
        "docid": "7318562847406342710",
        "url": ""
    },
    {
        "title": "动漫和真人对比，《武庚纪》最还原的6位角色，相似度百分之九十",
        "docid": "7319487183579021878",
        "url": ""
    },
    {
        "title": "人性漫画：《成功上岸》",
        "docid": "7308922734724039179",
        "url": ""
    },
    {
        "title": "龙珠里全王和大神官谁更强？权限与战力之争",
        "docid": "7308332369806672403",
        "url": ""
    },
    {
        "title": "全国各地警察“刻板印象”",
        "docid": "7316175794827559461",
        "url": ""
    },
    {
        "title": "公主请换头像，2024新年好运红氛围感女头",
        "docid": "7322014654581146146",
        "url": ""
    },
    {
        "title": "有一种男人，几乎不发朋友圈",
        "docid": "7299377206962160168",
        "url": ""
    },
    {
        "title": "为什么第一部《数码宝贝》能够经久不衰？网友点醒评论区千万读者",
        "docid": "7308346891572347432",
        "url": ""
    },
    {
        "title": "并不是生理上做了父亲，孩子就天然的会亲你、爱你、敬你。",
        "docid": "7325973464903500324",
        "url": ""
    },
    {
        "title": "“YES, BUT” 讽刺系列插画，太真实！",
        "docid": "7341371250226840083",
        "url": ""
    },
    {
        "title": "港漫《龙虎门》为什么初期几大高手个个实力上天，但纷纷都领饭盒",
        "docid": "7190764674227503676",
        "url": ""
    },
    {
        "title": "隆胸手术后，她把1岁的女儿踩死了，一个真实故事改编",
        "docid": "7255229488903111187",
        "url": ""
    },
    {
        "title": "一组春天的小画，太美了！",
        "docid": "7339810817514766882",
        "url": ""
    },
    {
        "title": "不花钱，也会越来越漂亮",
        "docid": "7320565033778709007",
        "url": ""
    },
    {
        "title": "人性漫画:《电池》",
        "docid": "7334180849489150475",
        "url": ""
    },
    {
        "title": "漫画：别不承认，这些就是男人最能打动女人的瞬间",
        "docid": "7328996396646892083",
        "url": ""
    },
    {
        "title": "生活冷笑话大汇总：男人就像食堂里的菜…",
        "docid": "7322484325205901874",
        "url": ""
    },
    {
        "title": "成人版《农夫与蛇》，我承认我脏了",
        "docid": "7341000977615684134",
        "url": ""
    },
    {
        "title": "男人爱你与不爱你区别真的很大，看完不要当备胎了（漫画）",
        "docid": "7311703232449987123",
        "url": ""
    },
    {
        "title": "11岁甜馨因cos初音未来引争议，致歉并注销社交账号",
        "docid": "7341579421540844071",
        "url": ""
    },
    {
        "title": "十年IP如何行之更远",
        "docid": "7341525430811394595",
        "url": ""
    },
    {
        "title": "圣斗士：最惨烈的圣战，雅典娜被斩首，黄金圣斗士们战死！",
        "docid": "7322829989593170473",
        "url": ""
    },
    {
        "title": "完成比完美重要",
        "docid": "7308715415378051593",
        "url": ""
    },
    {
        "title": "腾讯国漫四巨头 ，哪一部才是你的最爱？",
        "docid": "7309279812256924160",
        "url": ""
    },
    {
        "title": "男女失业后的区别，内容过于真实，现实生活漫画",
        "docid": "7341556347378516491",
        "url": ""
    },
    {
        "title": "漫画：是什么夺走了男孩子们的阳刚之气？",
        "docid": "7318015592702427684",
        "url": ""
    },
    {
        "title": "我想和声优高桥李依结婚~",
        "docid": "7338687460978721319",
        "url": ""
    },
    {
        "title": "奥特曼系列中让人绝望的最终BOSS 现在都想不明白主角怎么打赢的",
        "docid": "7195567874495316495",
        "url": ""
    },
    {
        "title": "漫画：没外援的三口之家，过得有多艰辛！网友：看完落泪又坚定！",
        "docid": "7318379451296711168",
        "url": ""
    },
    {
        "title": "为什么说女生的胸部永远是个“谜”？",
        "docid": "7339801809520919080",
        "url": ""
    },
    {
        "title": "终于有人把“当今社会压力”描述出来了，幽默漫画，太生动形象了",
        "docid": "7340669463228563987",
        "url": ""
    },
    {
        "title": "有老公和没老公的区别，你看懂了吗？生动形象的漫画，太现实了",
        "docid": "7341081006776369716",
        "url": ""
    },
    {
        "title": "从被骗到自愿，揭秘花场是怎样将年轻女孩拉入深渊的？",
        "docid": "7313772619440898595",
        "url": ""
    },
    {
        "title": "日媒：奥特曼在中国又火了",
        "docid": "7341548746821517833",
        "url": ""
    },
    {
        "title": "经典重现——小浣熊水浒卡重绘欣赏",
        "docid": "7312312253758439975",
        "url": ""
    },
    {
        "title": "福利动漫盘点：5部史诗级福利动漫让你爽翻天！",
        "docid": "7332456765503668773",
        "url": ""
    },
    {
        "title": "原配媳妇和半路媳妇的区别，你看懂了吗？太真实了，幽默搞笑漫画",
        "docid": "7341589553465246247",
        "url": ""
    },
    {
        "title": "你被妈妈的“伪科学”骗了多久？漫画盘点，不要继续蒙在鼓里",
        "docid": "7308717534462214696",
        "url": ""
    },
    {
        "title": "壁纸集锦",
        "docid": "7314303327565758995",
        "url": ""
    },
    {
        "title": "2万一个月，她们牺牲自己的容貌赚快钱，一篇漫画撕开了试药真相",
        "docid": "7328312432613589540",
        "url": ""
    },
    {
        "title": "漫画：这才是成年男女在一起最舒适的两性关系！",
        "docid": "7341572871770571264",
        "url": ""
    },
    {
        "title": "原来结婚与不结婚真的不一样，你看懂了吗？现实生活漫画",
        "docid": "7341567431603339788",
        "url": ""
    },
    {
        "title": "老婆和情人的区别，太真实了，生动形象的漫画，你细品",
        "docid": "7338755418304496182",
        "url": ""
    },
    {
        "title": "漫画：“女生被踢中裆部”VS“男生被踢中裆部”，谁会更严重？",
        "docid": "7312799353478021659",
        "url": ""
    },
    {
        "title": "段子这么好，为啥你不笑",
        "docid": "7315284408574427684",
        "url": ""
    },
    {
        "title": "人性漫画 《完美婴儿》",
        "docid": "7341566404535091747",
        "url": ""
    },
    {
        "title": "这是妥妥的职场写实漫画",
        "docid": "7312627998459740681",
        "url": ""
    },
    {
        "title": "7部超好看的修仙动漫，你都看过几部",
        "docid": "7326024787963298304",
        "url": ""
    },
    {
        "title": "这些过了30岁才懂的道理，希望每个女孩都能早点体会！（漫画）",
        "docid": "7341553452134318630",
        "url": ""
    },
    {
        "title": "一个作品没发，却有250万粉丝，让百万网友泪目的背后是什么",
        "docid": "7341007128343380531",
        "url": ""
    },
    {
        "title": "职业头像十二生肖第63期为航母做贡献的烟民头像",
        "docid": "7320190832219750962",
        "url": ""
    },
    {
        "title": "30年后，补作业的还是80后！",
        "docid": "7338255387390804506",
        "url": ""
    },
    {
        "title": "（漫画）以前的妈妈 VS 现在的妈妈",
        "docid": "7341563647375753754",
        "url": ""
    },
    {
        "title": "龙年姓氏专属头像，只有眯着眼才能看到，不会太张扬",
        "docid": "7315368291789619751",
        "url": ""
    },
    {
        "title": "“我是一个宾馆前台，8年见证了人性的最真实最丑陋！”（漫画）",
        "docid": "7341560159723881001",
        "url": ""
    },
    {
        "title": "奶茶“害”了多少中国女生？一组漫画揭晓真相，看完你还敢喝吗？",
        "docid": "7314276855832871451",
        "url": ""
    },
    {
        "title": "无声惊恐漫画：富豪儿子",
        "docid": "7311993902209778212",
        "url": ""
    },
    {
        "title": "《龙珠》撒旦先生感化胖布欧之谜：源于非凡的勇气与智慧",
        "docid": "7341415872919028263",
        "url": ""
    },
    {
        "title": "手术中，被切掉的人体“零部件”，最终去了哪？（漫画揭秘）",
        "docid": "7340926289207935525",
        "url": ""
    },
    {
        "title": "原配夫妻，半路夫妻，你看懂了吗？幽默有趣的漫画段子。:)",
        "docid": "7341623611070874146",
        "url": ""
    },
    {
        "title": "可爱又奇怪的生理知识又增加了！",
        "docid": "7341624254137745920",
        "url": ""
    },
    {
        "title": "为什么很多人讨厌斗罗大陆第二部的唐三？只因唐三做了这两件事",
        "docid": "7338956074768728639",
        "url": ""
    },
    {
        "title": "（漫画）时代的印记：从过去到现在，我们生活方式的转变",
        "docid": "7341555694241825331",
        "url": ""
    },
    {
        "title": "生动形象的漫画描述：当今的社会现实，你看懂了吗？太现实了",
        "docid": "7341344324573856265",
        "url": ""
    },
    {
        "title": "以前化妆VS现在化妆（漫画）",
        "docid": "7327283931890876982",
        "url": ""
    },
    {
        "title": "美女满足口欲后，却惨遭截肢，这类海鲜成了致命毒物，请小心",
        "docid": "7311537447870448180",
        "url": ""
    },
    {
        "title": "镇魂街414话：秦琼尉迟恭合体了，女魃连开三个大招，可惜没啥用",
        "docid": "7341609957168513576",
        "url": ""
    },
    {
        "title": "漫画：女性与男性之间鲜明的对比，生活中的种种！！！",
        "docid": "7341556034215232010",
        "url": ""
    },
    {
        "title": "所有你偷过的懒，上天都在替你记着（漫画）",
        "docid": "7318385234507694655",
        "url": ""
    },
    {
        "title": "满印壁纸‖🍄🍄🍄",
        "docid": "7340885547978048000",
        "url": ""
    },
    {
        "title": "漫画：你看不出，是因为他们藏的很好。",
        "docid": "7341564302714765851",
        "url": ""
    },
    {
        "title": "壁纸",
        "docid": "7310579857879400972",
        "url": ""
    },
    {
        "title": "长大以后才明白的四个“暗语”。你懂几个？幽默有趣的漫画段子！",
        "docid": "7310768560727441972",
        "url": ""
    },
    {
        "title": "听说，80后的妈妈们都有同一个儿子？",
        "docid": "7311519170435383859",
        "url": ""
    },
    {
        "title": "绝世唐门：天使武魂降临，徐三石觉醒玄武血脉，江楠楠解决宇梦迪",
        "docid": "7341587000765547059",
        "url": ""
    },
    {
        "title": "人性漫画--14K黄金",
        "docid": "7328390485599519242",
        "url": ""
    },
    {
        "title": "江山如画｜江山画中游，探海南奇妙之境",
        "docid": "7309992929781727783",
        "url": ""
    },
    {
        "title": "海贼王：艾斯的拟人化太辣眼，尾田亲自绘制伊万科夫青龙形态",
        "docid": "7341388252383019557",
        "url": ""
    },
    {
        "title": "好物分享｜为什么领导请吃饭，下属都不想去",
        "docid": "7314460035776823849",
        "url": ""
    },
    {
        "title": "复婚和再婚的区别，内容过于真实！你看懂了吗？生动形象的漫画。",
        "docid": "7341627139634151999",
        "url": ""
    },
    {
        "title": "终极斗罗：古月娜还没恢复记忆，唐舞麟喜提一巴掌，蓝轩宇想办法",
        "docid": "7328700208248799753",
        "url": ""
    },
    {
        "title": "人性漫画:《闺蜜》",
        "docid": "7326356709230805540",
        "url": ""
    },
    {
        "title": "人性漫画--画皮",
        "docid": "7328027978276553225",
        "url": ""
    },
    {
        "title": "壁纸：年年有鱼（余）",
        "docid": "7328672259173220915",
        "url": ""
    },
    {
        "title": "海贼王1109：萨坦圣召唤！路飞一打五，世界之秘广播或被打断",
        "docid": "7341445415931445771",
        "url": ""
    },
    {
        "title": "治愈系|鸭鸭，也太可爱了吧，真想抱回家",
        "docid": "7308759516416541218",
        "url": ""
    },
    {
        "title": "贾乃亮女儿甜馨cos初音遭网暴 发文道歉仍被骂，不堪谩骂清空账号",
        "docid": "7341576675748692532",
        "url": ""
    },
    {
        "title": "人性漫画--独居的女人",
        "docid": "7332088116499038771",
        "url": ""
    },
    {
        "title": "人性漫画:《替代》",
        "docid": "7329330598995444235",
        "url": ""
    },
    {
        "title": "同居真的是一步一步来的，大部分人都遇到过的情况！！！",
        "docid": "7341646065160372763",
        "url": ""
    },
    {
        "title": "一个残酷的现实，看懂的是高手，你看懂了吗？生动形象的漫画。",
        "docid": "7341648081655562761",
        "url": ""
    },
    {
        "title": "四十岁以后喜欢看的插画",
        "docid": "7340851828508181007",
        "url": ""
    },
    {
        "title": "滚烫麻辣，七龙珠人物变肥后都是怎么减肥的，十八号引人注意",
        "docid": "7341349425606083087",
        "url": ""
    },
    {
        "title": "人性漫画｜只要有你在的话，抑郁症真的没什么大不了。",
        "docid": "7338680308058997289",
        "url": ""
    },
    {
        "title": "阿衰自制放风筝",
        "docid": "7341651281414537728",
        "url": ""
    },
    {
        "title": "电脑壁纸🔆",
        "docid": "7341563164985016868",
        "url": ""
    },
    {
        "title": "人性漫画：《背叛》",
        "docid": "7322293146124124724",
        "url": ""
    },
    {
        "title": "妻子1，她竟然连好朋友的男人都不放过！",
        "docid": "7309062227171033627",
        "url": ""
    },
    {
        "title": "漫画揭秘，刚结婚时，十年之后的区别，生动形象，你看懂了吗？",
        "docid": "7341651262116659722",
        "url": ""
    },
    {
        "title": "男女失业后的区别，内容过于真实，现实生活漫画",
        "docid": "7341651654724403739",
        "url": ""
    },
    {
        "title": "神兵玄奇：问天的三次败仗，输西城秀树是耻辱，二打一没赢很丢人",
        "docid": "7340964183011836466",
        "url": ""
    },
    {
        "title": "终极斗罗：田泽锋开启凝气真身，钱磊动用紫晶召唤，长弓威现身",
        "docid": "7341651716200284710",
        "url": ""
    },
    {
        "title": "海贼王1109话娱乐向翻译 土星：原来OnePiece是存在的",
        "docid": "7340933945544819210",
        "url": ""
    },
    {
        "title": "闹大了！女coser崴脚碰到男子的腰，被男子呵斥“垃圾”大发雷霆",
        "docid": "7332402113596883519",
        "url": ""
    },
    {
        "title": "精灵宝可梦第三十一集 第351话 VS 帕奇利兹",
        "docid": "7341385881447662134",
        "url": ""
    },
    {
        "title": "闹大了！博主cos大胖橘开演唱会走红网络引发热议！评论区笑死！",
        "docid": "7341406402130821666",
        "url": ""
    },
    {
        "title": "2024年，12大巅峰国漫推荐",
        "docid": "7317987609056117298",
        "url": ""
    },
    {
        "title": "宇智波斑VS大筒木一式！没想到最后拯救忍界的，居然是宇智波斑！",
        "docid": "7340964462867776063",
        "url": ""
    },
    {
        "title": "这就是父亲与儿子的关系，经典又现实，生动形象的漫画看完很受益",
        "docid": "7341650870997664283",
        "url": ""
    },
    {
        "title": "漫画揭露：男女戒色，颜值有啥不同？太生动形象了",
        "docid": "7341330975818793484",
        "url": ""
    },
    {
        "title": "善于照顾人的我连女神都能变成了废柴！ -",
        "docid": "7341618102524199439",
        "url": ""
    },
    {
        "title": "各种天灾末世降临，而我重生归来觉醒末日盲盒系统..._fix",
        "docid": "7341395617765130788",
        "url": ""
    },
    {
        "title": "擎天柱与流浪者强势来势，超级英雄能否抵御强大的外敌呢",
        "docid": "7323435094616572443",
        "url": ""
    },
    {
        "title": "“国产动画的巅峰，只要能和妈妈在一起，就是幸福”#动漫",
        "docid": "7312415863863738931",
        "url": ""
    },
    {
        "title": "大宝对自己的恶作剧行为非常后悔，最后他和小宝成了好朋友",
        "docid": "7310788659211403788",
        "url": ""
    },
    {
        "title": "斗罗大陆",
        "docid": "7341558308739744306",
        "url": ""
    },
    {
        "title": "11岁甜馨cos初音未来被骂翻，发文道歉称不懂规矩，注销社交账号",
        "docid": "7341398960823419455",
        "url": ""
    },
    {
        "title": "甜馨向初音未来道歉并注销社交平台：希望不要再骚扰我的朋友",
        "docid": "7341651536365601330",
        "url": ""
    },
    {
        "title": "奥特美食盘点：哪位人间体的伙食最好？",
        "docid": "7333194946135523903",
        "url": ""
    },
    {
        "title": "都说洗白弱三分，黑化强十倍，那主角阿宝变成反派会是什么后果呢",
        "docid": "7337977882591166986",
        "url": ""
    },
    {
        "title": "四十五年后的大雄再遇已逝父母，物是人非泪流满面",
        "docid": "7308736456330379786",
        "url": ""
    },
    {
        "title": "镇魂街好看爱看",
        "docid": "7341612459922784794",
        "url": ""
    },
    {
        "title": "切尔西能否拿下布伦特福德……#搞笑 #沙雕动画 #切尔西 #利物浦",
        "docid": "7341533455328477706",
        "url": ""
    },
    {
        "title": "深度解析：黑化奥的堕落过程 哪些黑暗奥最后弃暗投明？",
        "docid": "7332803549531177472",
        "url": ""
    },
    {
        "title": "甜馨COS变身初音未来，却引发风波，深表歉意并选择退出网络舞台",
        "docid": "7341672302213562916",
        "url": ""
    },
    {
        "title": "刚在一起时，到后面的很现实。",
        "docid": "7341666261158068770",
        "url": ""
    },
    {
        "title": "打工人头像，你敢用嘛？",
        "docid": "7341678785328054836",
        "url": ""
    },
    {
        "title": "现实漫画：不同年代的婚姻等级，你是几年后？",
        "docid": "7341650128039658034",
        "url": ""
    },
    {
        "title": "漫画：男人要经历什么才能长大？",
        "docid": "7341688552809759286",
        "url": ""
    },
    {
        "title": "当代年轻人现状：不想认识新朋友，又想脱单（漫画）",
        "docid": "7341565758084268554",
        "url": ""
    },
    {
        "title": "漫画：男生会嫌弃女朋友的家境吗？不妨听听男人怎么说",
        "docid": "7341632667857191478",
        "url": ""
    },
    {
        "title": "全球爆火动画神剧《神奇数字马戏团》的导演原来是她！",
        "docid": "7341632616086438436",
        "url": ""
    },
    {
        "title": "阿衰漫画245",
        "docid": "7341575093195588132",
        "url": ""
    },
    {
        "title": "阿衰大脸被电击治疗",
        "docid": "7341650316557255203",
        "url": ""
    },
    {
        "title": "南来北往Q版，牛大力其实怪好看！",
        "docid": "7340892640042402344",
        "url": ""
    },
    {
        "title": "幸福男人的四种配置：你看懂了吗？你是什么配置？幽默有趣的漫画",
        "docid": "7341652034984182323",
        "url": ""
    },
    {
        "title": "海贼王单行本108卷SBS专栏全图+全文翻译（鹰眼过去公布！）",
        "docid": "7341668316278538815",
        "url": ""
    },
    {
        "title": "汤姆家里来了一只远古老猫，就连斯派克都不是他的对手！",
        "docid": "7331714914446541348",
        "url": ""
    },
    {
        "title": "喜羊羊和小猪也跳科目三，动画版的科目三谁最可爱。＃搞笑",
        "docid": "7316488409302860340",
        "url": ""
    },
    {
        "title": "女神打怪 白靴蒙面女战士对抗怪人 不慎被电晕在地 落入敌手",
        "docid": "7340950715202241061",
        "url": ""
    },
    {
        "title": "当齐道临见到石昊已然成为荒天帝时有多震撼#动漫剪辑 #国漫",
        "docid": "7311295312801464844",
        "url": ""
    },
    {
        "title": "傅龙为后#狗皇帝",
        "docid": "7341397906169496099",
        "url": ""
    },
    {
        "title": "五条悟和宿傩的最终之战！没想到迎接五条悟的，居然是这个结局！",
        "docid": "7311314715350598170",
        "url": ""
    },
    {
        "title": "瑾威公公实力又有多强居然能察觉到剑仙的存在",
        "docid": "7322041096644035099",
        "url": ""
    },
    {
        "title": "让所有人类颤栗的SSS级神殿，却意外让男主从地狱归来化身为神！",
        "docid": "7338377204218692123",
        "url": ""
    },
    {
        "title": "一月新番：白毛本想独占男主，却没想到男主的姐姐却突然杀出",
        "docid": "7341390224322527781",
        "url": ""
    },
    {
        "title": "车力巨人的脑壳瓜子被一爪子撕碎，让露出恐惧的表情",
        "docid": "7309790485655224858",
        "url": ""
    },
    {
        "title": "为什么说力量的尽头是健康鼬，概念神无敌",
        "docid": "7314228623580496393",
        "url": ""
    },
    {
        "title": "国家球：各国最残酷的武器！",
        "docid": "7341591803151254066",
        "url": ""
    },
    {
        "title": "愿你像向日葵一样，永远明媚快乐丨头像分享",
        "docid": "7339566782384194057",
        "url": ""
    },
    {
        "title": "你的猫咪是不是也是这样子的呀~",
        "docid": "7339527861130314278",
        "url": ""
    },
    {
        "title": "艾伦与妈巨再次相遇！觉醒【坐标之力】进击的巨人 第二季完结",
        "docid": "7321147165366190626",
        "url": ""
    },
    {
        "title": "斗罗重制版大结局（下）：唐三以修罗神的姿态再次回归嘉陵关",
        "docid": "7309015114010362378",
        "url": ""
    },
    {
        "title": "木叶村被摧毁之后是怎样重建的？听说大和队长都累吐了！",
        "docid": "7330632133377163786",
        "url": ""
    },
    {
        "title": "野性赛罗对战塔尔塔罗斯，梦比优斯切换无限形态，泽塔直接黑化！",
        "docid": "7318326895651586600",
        "url": ""
    },
    {
        "title": "皇马能否拿下巴伦西亚……#搞笑 #沙雕动画 #西甲 #皇马",
        "docid": "7341572968306835995",
        "url": ""
    },
    {
        "title": "纽卡斯尔迎战狼队……#搞笑 #沙雕动画 #英超 #纽卡斯尔联 #狼队",
        "docid": "7341533530955973131",
        "url": ""
    },
    {
        "title": "（漫画）同居后，我发现了女朋友这么多的秘密",
        "docid": "7325034101189607990",
        "url": ""
    },
    {
        "title": "漫画：她老公朋友圈晒了张自拍，十秒钟后，小三终于露面了",
        "docid": "7341708781233340980",
        "url": ""
    },
    {
        "title": "活着的花，有一万种开法",
        "docid": "7313217149617717794",
        "url": ""
    },
    {
        "title": "一口气看完我心中神作《冰海战记》#冰海战记 #二次元 #日漫",
        "docid": "7340619094636855843",
        "url": ""
    },
    {
        "title": "一集看完EVA新剧场版机体总盘点 全部14个型号EVA机体",
        "docid": "7308360957644931619",
        "url": ""
    },
    {
        "title": "启动漫：贝尔和妈妈乘坐电梯 居然这么危险 快来看看吧",
        "docid": "7324945266468258319",
        "url": ""
    },
    {
        "title": "两只小怪兽向着沉睡玛雅海怪踢球，等他醒来便将两小只吞入腹中",
        "docid": "7310149026123842084",
        "url": ""
    },
    {
        "title": "最美女神小舞姐",
        "docid": "7341378884878893568",
        "url": ""
    },
    {
        "title": "各显神通的离谱运动会（上）",
        "docid": "7308991553245463055",
        "url": ""
    },
    {
        "title": "漫画：70后父母的现状真让人心酸！",
        "docid": "7320206525250060863",
        "url": ""
    },
    {
        "title": "摆摊专用小头像",
        "docid": "7341415183593505314",
        "url": ""
    },
    {
        "title": "20幅描绘两性的插画，揭露男女的真实状态，值得细品",
        "docid": "7311164248754160139",
        "url": ""
    },
    {
        "title": "岁月是一把猪饲料",
        "docid": "7310556833104544271",
        "url": ""
    },
    {
        "title": "人生最大的聪明：永远不要启蒙愚蠢",
        "docid": "7337680338233934399",
        "url": ""
    },
    {
        "title": "马大哈和他的女朋友#家庭情感 #婚姻情感 #意想不到的结局",
        "docid": "7316513020392735268",
        "url": ""
    },
    {
        "title": "火影里的5位“万年下忍”，个个手握绝活，实力影级打底！",
        "docid": "7326022282252550694",
        "url": ""
    },
    {
        "title": "进击的巨人最终季完结篇前篇二，艾伦抵达最终战场，烈焰凤凰韩吉",
        "docid": "7319756338328764962",
        "url": ""
    },
    {
        "title": "启动漫：熊妈妈被捉起来 大家来解救她 快来看看吧",
        "docid": "7309867510331867683",
        "url": ""
    },
    {
        "title": "汪汪动画：狗狗们集体变成四元素宝宝，对战邪恶博士能否获胜呢？",
        "docid": "7311532430219805199",
        "url": ""
    },
    {
        "title": "【轰】揭秘！百万博主私底下最真实的样子！",
        "docid": "7325693658416546355",
        "url": ""
    },
    {
        "title": "你相信男女之间的纯友谊吗？那么海贼王里真的有纯洁的友谊吗？",
        "docid": "7341405558748119602",
        "url": ""
    },
    {
        "title": "诸星团时隔多年再见安奴，对方早就给自己生了赛罗",
        "docid": "7329833040308339254",
        "url": ""
    },
    {
        "title": "想看后续精彩内容下载QQ阅读搜索无情神帝即可观看后加油陌生人",
        "docid": "7341708396766822946",
        "url": ""
    },
    {
        "title": "想看后续精彩内容下载番茄畅听搜索租房大小姐即可观看加油陌生人",
        "docid": "7341707482009928232",
        "url": ""
    },
    {
        "title": "男人爱你与不爱你区别真的很大，看完不要当备胎了",
        "docid": "7341612710955844105",
        "url": ""
    },
    {
        "title": "海贼王108卷SBS：尾田爆料鹰眼曾经是海军，十字公会战船名字揭晓",
        "docid": "7341715890133549594",
        "url": ""
    },
    {
        "title": "人生歪理小漫画",
        "docid": "7341710507449418255",
        "url": ""
    },
    {
        "title": "漫画：中年男人有多想离婚？或许你不能想象",
        "docid": "7341709161736110644",
        "url": ""
    },
    {
        "title": "漫画 ：人间百态，精彩绝伦！",
        "docid": "7341738717268623881",
        "url": ""
    },
    {
        "title": "阿衰41",
        "docid": "7341659190559195684",
        "url": ""
    },
    {
        "title": "海贼王1109话，贝加庞克身死，尼卡的愤怒一拍，五老星降临",
        "docid": "7341705111972004378",
        "url": ""
    },
    {
        "title": "《幽游白书真人版》第3集 魔强统一战大结局",
        "docid": "7313878479949267465",
        "url": ""
    },
    {
        "title": "斗罗大陆：唐三和小舞从小青梅竹马，却被竹青破坏阻止他们在一起",
        "docid": "7325342160281469490",
        "url": ""
    },
    {
        "title": "不同年代的嫁人标准",
        "docid": "7341504983294198310",
        "url": ""
    },
    {
        "title": "一口气看完完美世界最终一战，荒天帝平定黑暗征战上苍。",
        "docid": "7309781569236009524",
        "url": ""
    },
    {
        "title": "【呆】美漫宇宙两大初生对决，打戏令人瞩目",
        "docid": "7341711758861533708",
        "url": ""
    },
    {
        "title": "龙珠超70，悟空觉醒自在极意",
        "docid": "7315111608798151209",
        "url": ""
    },
    {
        "title": "一口气看完规则怪谈之校园宿舍【完整版】第六部 #原创动画",
        "docid": "7309037477367382539",
        "url": ""
    },
    {
        "title": "当两个逗比碰到一起是种什么体验！#国漫推荐 #秋日暴击",
        "docid": "7310235116054250023",
        "url": ""
    },
    {
        "title": "一口气看完一半",
        "docid": "7341706212092445210",
        "url": ""
    },
    {
        "title": "双人动漫闺蜜头像与单人闺蜜头像！！",
        "docid": "7341733146050626088",
        "url": ""
    },
    {
        "title": "少年歌行：年轻一代最强之争 13岁的无双对战17岁的无心",
        "docid": "7320825855826428442",
        "url": ""
    },
    {
        "title": "斗罗大陆：深海魔鲸王vs帝天，谁才是魂兽界的扛把子？",
        "docid": "7314938100550435364",
        "url": ""
    },
    {
        "title": "《生肖造神日记253》—所料成真，一鸡压群雄。",
        "docid": "7341729878317892133",
        "url": ""
    },
    {
        "title": "鸣人的求道玉都去了哪儿",
        "docid": "7324248370673877539",
        "url": ""
    },
    {
        "title": "斗罗小剧场：赛罗哥哥，比比东被怪兽抓走了",
        "docid": "7336450157560463898",
        "url": ""
    },
    {
        "title": "宅男来到游戏世界，打败BOSS后，第一件事就是消灭女主",
        "docid": "7310053194183213594",
        "url": ""
    },
    {
        "title": "好看的漫画和视频博主推荐",
        "docid": "7341705321943040549",
        "url": ""
    },
    {
        "title": "潮流玩具",
        "docid": "7321960548168532514",
        "url": ""
    },
    {
        "title": "什么？这是蛋仔？！感谢@哦呼w大佬的精美创作#蛋仔派对",
        "docid": "7323853247377048115",
        "url": ""
    },
    {
        "title": "一口气看完:开学就是大佬1-11.111集49.999分钟",
        "docid": "7329459677551723045",
        "url": ""
    },
    {
        "title": "我的太奶是火焰神龙,我的老妈是冰霜巨龙 #漫画解说 #二次元",
        "docid": "7312828615631209011",
        "url": ""
    },
    {
        "title": "一口气速看《金装的维尔梅》，最强补魔番",
        "docid": "7317630537601352244",
        "url": ""
    },
    {
        "title": "喜欢吃鱼钓鱼佬，最后把自己吃成了鱼！#动画解说 #动画 #二次元",
        "docid": "7341011201356857865",
        "url": ""
    },
    {
        "title": "#斗罗大陆 #动漫剪辑 #国漫 #动漫 #上热门",
        "docid": "7313131808176996904",
        "url": ""
    },
    {
        "title": "可以让我火一次吗",
        "docid": "7341657965772046887",
        "url": ""
    },
    {
        "title": "“你是让我明白，可能内心黑暗的我也值得”",
        "docid": "7341685011110134323",
        "url": ""
    },
    {
        "title": "三一的逆生之梦破碎之后，似冲选择去找无根生报仇#国漫 #二次元",
        "docid": "7341085220856300047",
        "url": ""
    },
    {
        "title": "银格3冷知识：泰塔斯竟然是叛军的儿子？阿斯特拉从来没亮过红灯",
        "docid": "7313114130297291273",
        "url": ""
    },
    {
        "title": "这就是忍者之神",
        "docid": "7329849133978780170",
        "url": ""
    },
    {
        "title": "这是人类历史上的首次发现，巨人竟然会说话，可惜发现者被吃了！",
        "docid": "7340644307424150066",
        "url": ""
    },
    {
        "title": "铠甲勇士剪辑 铠甲勇士 黑犀风鹰封印异能兽 地虎对炎龙出手",
        "docid": "7316185411251307020",
        "url": ""
    },
    {
        "title": "当你没有机会接触妹子时，请引进这个游戏",
        "docid": "7341705152963412521",
        "url": ""
    },
    {
        "title": "yykk",
        "docid": "7341747959513645595",
        "url": ""
    },
    {
        "title": "柯南超燃片段",
        "docid": "7341666743074751027",
        "url": ""
    }
]