[
    {
        "title": "讲者与听者传递信息往往大相径庭#大咖观察",
        "docid": "7306090264844861967",
        "url": ""
    },
    {
        "title": "市场急需新动力？新兴产业链势不可挡！",
        "docid": "7308020284466987546",
        "url": ""
    },
    {
        "title": "下周市场又将风起云涌，请睁大眼睛看清楚局势的变化！",
        "docid": "7308017331350356543",
        "url": ""
    },
    {
        "title": "全民炒股炒币，韩国人为何痴迷投资？",
        "docid": "7299739374084850203",
        "url": "https://www.ixigua.com/7299739374084850203"
    },
    {
        "title": "卢麒元：滴滴在美国上市，中国下架的本质 #企业家",
        "docid": "7304554780196602431",
        "url": "https://www.ixigua.com/7304554780196602431"
    },
    {
        "title": "牛回速归，再来三万哈哈哈哈",
        "docid": "7281975863254450727",
        "url": "https://www.ixigua.com/7281975863254450727"
    },
    {
        "title": "老公为了炒股又败家了！花巨资买了个大大的电脑显示器方便炒股！",
        "docid": "7280177347980952120",
        "url": "https://www.ixigua.com/7280177347980952120"
    },
    {
        "title": "好物分享｜刘纪鹏教授谈中国股市，一针见血指出问题！",
        "docid": "7308006532628054537",
        "url": "https://www.ixigua.com/7308006532628054537"
    },
    {
        "title": "证监会一番话，让股民们瑟瑟发抖，明明全是利好但却人人害怕",
        "docid": "7305721197927662134",
        "url": "https://www.ixigua.com/7305721197927662134"
    },
    {
        "title": "巨轮智能：缠论结构技术分解",
        "docid": "7307170168709317156",
        "url": "https://www.ixigua.com/7307170168709317156"
    },
    {
        "title": "A股，加仓加仓加仓，重要的事情说三遍！跨年大妖方向已锁定！",
        "docid": "7304485760462225970",
        "url": "https://www.ixigua.com/7304485760462225970"
    },
    {
        "title": "又亏3.2万左右了😭又亏哭死了😭要疯了😭",
        "docid": "7304183913466102308",
        "url": "https://www.ixigua.com/7304183913466102308"
    },
    {
        "title": "我尽力了#大咖观察 #大霄说市 #为老百姓发声 #老百姓关心的话题",
        "docid": "7288965283157541434",
        "url": "https://www.ixigua.com/7288965283157541434"
    },
    {
        "title": "散户的现状#股票 #财经 #股民",
        "docid": "7293046406267601408",
        "url": "https://www.ixigua.com/7293046406267601408"
    },
    {
        "title": "三个即将启动正升浪的重要形态，字字珠玑，值得收藏！",
        "docid": "7307981074482201098",
        "url": "https://www.ixigua.com/7307981074482201098"
    },
    {
        "title": "原来证监会心知肚明，上市公司造假事件，下一步就是抓人❗️",
        "docid": "7307972787083412005",
        "url": "https://www.ixigua.com/7307972787083412005"
    },
    {
        "title": "股民要想成为炒股行家，就一定要掌握好这套炒股方法",
        "docid": "7307493518325481994",
        "url": "https://www.ixigua.com/7307493518325481994"
    },
    {
        "title": "提前得到连续涨停板唯一分毫不差确定起点",
        "docid": "7307974909177790987",
        "url": "https://www.ixigua.com/7307974909177790987"
    },
    {
        "title": "炒股：基于量价关系，这6大看盘技巧，拨云见月，看穿盘面",
        "docid": "7307563787719508519",
        "url": "https://www.ixigua.com/7307563787719508519"
    },
    {
        "title": "做波段就靠一个字",
        "docid": "7307668073832514060",
        "url": "https://www.ixigua.com/7307668073832514060"
    },
    {
        "title": "A股最大的蛀虫原来是他们！毒瘤一日不除，A股永无牛市！",
        "docid": "7290855024790340150",
        "url": "https://www.ixigua.com/7290855024790340150"
    },
    {
        "title": "低位高控盘案例解读〖12/01〗",
        "docid": "7307517108374635008",
        "url": "https://www.ixigua.com/7307517108374635008"
    },
    {
        "title": "莫名的心烦看着亏的票割得涨停了，心烦得很😭",
        "docid": "7307141010335728191",
        "url": "https://www.ixigua.com/7307141010335728191"
    },
    {
        "title": "放量、缩量，成交量指标真的能让股民挣钱吗？",
        "docid": "7306323247564489235",
        "url": "https://www.ixigua.com/7306323247564489235"
    },
    {
        "title": "人民币进入升值周期，A股熊市接近尾声？",
        "docid": "7307942985298575881",
        "url": "https://www.ixigua.com/7307942985298575881"
    },
    {
        "title": "全职炒股八年，结果如何呢",
        "docid": "7307228907235869234",
        "url": "https://www.ixigua.com/7307228907235869234"
    },
    {
        "title": "【兴证固收】可转债2024年年度策略报告（下篇）：似曾相识的起点，内涵有所不同",
        "docid": "7308040468011467264",
        "url": ""
    },
    {
        "title": "情绪超冰、伺机而动！",
        "docid": "7307401782827680292",
        "url": "https://www.ixigua.com/7307401782827680292"
    },
    {
        "title": "大周期底部，防御等风来",
        "docid": "7307170416252944915",
        "url": "https://www.ixigua.com/7307170416252944915"
    },
    {
        "title": "只看成交量能抓到拉升个股吗？",
        "docid": "7307921093640552986",
        "url": "https://www.ixigua.com/7307921093640552986"
    },
    {
        "title": "主力假戏真做的拉连板，是在这种情况下做出来的",
        "docid": "7307149428056392211",
        "url": "https://www.ixigua.com/7307149428056392211"
    },
    {
        "title": "这段时间奶奶股票一共亏4万多，惨。割了股票亏2万多，尾盘又买股",
        "docid": "7307150818472526386",
        "url": "https://www.ixigua.com/7307150818472526386"
    },
    {
        "title": "2007年100万买入中国人寿，现在变成多少了？",
        "docid": "7307484181053833728",
        "url": "https://www.ixigua.com/7307484181053833728"
    },
    {
        "title": "一查就撤，国祥就这！",
        "docid": "7289428684455608873",
        "url": "https://www.ixigua.com/7289428684455608873"
    },
    {
        "title": "白酒下跌你还买吗？从根源上分析近期白酒降价原因，不要乱买！",
        "docid": "7288996183769350690",
        "url": "https://www.ixigua.com/7288996183769350690"
    },
    {
        "title": "危险的信号出现了，这种情况去年就出现过一次，股民该如何应对…",
        "docid": "7299264994636628514",
        "url": "https://www.ixigua.com/7299264994636628514"
    },
    {
        "title": "还有人相信A股会有大级别行情吗？投资中如何才能做到跟大众不同",
        "docid": "7307827018404463156",
        "url": "https://www.ixigua.com/7307827018404463156"
    },
    {
        "title": "静待市场底！",
        "docid": "7307519186472239679",
        "url": "https://www.ixigua.com/7307519186472239679"
    },
    {
        "title": "A股各路资金在行动！内资外资齐抄底，社保险资和北向，还有EFT！",
        "docid": "7307246265610928650",
        "url": "https://www.ixigua.com/7307246265610928650"
    },
    {
        "title": "逆势而为，摩根大通向多头发出警告，2024股市投资需谨慎",
        "docid": "7307458522383139355",
        "url": ""
    },
    {
        "title": "老公的股票涨幅太大！突然涨起来被折磨的精神亢奋，控制不住情绪",
        "docid": "7288722710908437047",
        "url": "https://www.ixigua.com/7288722710908437047"
    },
    {
        "title": "只看开盘三十分钟，就知道到底是涨还是跌",
        "docid": "7307631059607224883",
        "url": "https://www.ixigua.com/7307631059607224883"
    },
    {
        "title": "转融通不能取消的真相！这个男人真敢说！揭露了产业链的黑幕！",
        "docid": "7303021942746022419",
        "url": "https://www.ixigua.com/7303021942746022419"
    },
    {
        "title": "股市顶部劝不退人，股市底部喊不到人",
        "docid": "7283063436156600867",
        "url": "https://www.ixigua.com/7283063436156600867"
    },
    {
        "title": "股市为什么徘徊3000点？要从“市价减持国有股”说起",
        "docid": "7290871964862939684",
        "url": "https://www.ixigua.com/7290871964862939684"
    },
    {
        "title": "工信部工布：机器人板块传来两大利好，跨年大妖，非“它”莫属",
        "docid": "7307560555647074827",
        "url": "https://www.ixigua.com/7307560555647074827"
    },
    {
        "title": "财经老教授建议关闭股市！如果A股沦为融资市，不如趁早关门！",
        "docid": "7306823835960607282",
        "url": "https://www.ixigua.com/7306823835960607282"
    },
    {
        "title": "林园：永久的股市赢家，都悟透这个必胜公式，是散户赢钱的重点",
        "docid": "7307646559783649807",
        "url": "https://www.ixigua.com/7307646559783649807"
    },
    {
        "title": "盘感训练，60组K线图",
        "docid": "7306048398103642658",
        "url": "https://www.ixigua.com/7306048398103642658"
    },
    {
        "title": "胡锡进同志终于忍不住，开始骂街了！",
        "docid": "7306060878087094823",
        "url": "https://www.ixigua.com/7306060878087094823"
    },
    {
        "title": "拼三张",
        "docid": "7308079856082911784",
        "url": "https://www.ixigua.com/7308079856082911784"
    },
    {
        "title": "不论行情是涨是跌，如果你持有这四类股票，那基本上就是躺赢！",
        "docid": "7307170371202089508",
        "url": "https://www.ixigua.com/7307170371202089508"
    },
    {
        "title": "股市永不坑人的黄金定律:股票七不卖,股票三不买 ,其他都是马后炮",
        "docid": "7307907798409740827",
        "url": "https://www.ixigua.com/7307907798409740827"
    },
    {
        "title": "被故意雪藏的顶级黄金指标：筹码峰指标，一眼看透主力吸筹完毕！",
        "docid": "7307178528502776374",
        "url": "https://www.ixigua.com/7307178528502776374"
    },
    {
        "title": "炒股16年一直坚持的5大铁律，有认可的吗？",
        "docid": "7307001700311794195",
        "url": "https://www.ixigua.com/7307001700311794195"
    },
    {
        "title": "还在相信洗盘，别再骗自己了",
        "docid": "7296315873055212042",
        "url": "https://www.ixigua.com/7296315873055212042"
    },
    {
        "title": "配上分时图来讲讲兰州银行，害怕的看看吧！胆惊的好好看看吧！",
        "docid": "7307157652218642984",
        "url": "https://www.ixigua.com/7307157652218642984"
    },
    {
        "title": "一旦发生战争，对股市会有什么影响？",
        "docid": "7282721483007361593",
        "url": "https://www.ixigua.com/7282721483007361593"
    },
    {
        "title": "林园：医药股的市值以后比茅台高多少倍的都有",
        "docid": "7298692873807987219",
        "url": "https://www.ixigua.com/7298692873807987219"
    },
    {
        "title": "冒着风险揭秘股市内幕，通过这个指标轻松判断主力动向",
        "docid": "7307988926961844763",
        "url": "https://www.ixigua.com/7307988926961844763"
    },
    {
        "title": "A股盈利密码，这种盘口语言超9成散户都不知道，主力不传之秘！",
        "docid": "7307209387524031010",
        "url": "https://www.ixigua.com/7307209387524031010"
    },
    {
        "title": "拜托了！本期视频希望上层能看到，股民的心酸只有自己懂😭😭",
        "docid": "7307170526663803428",
        "url": "https://www.ixigua.com/7307170526663803428"
    },
    {
        "title": "股票涨停回调，一旦遇到这种信号，大胆介入坐等主力拉升。",
        "docid": "7307822895223603751",
        "url": "https://www.ixigua.com/7307822895223603751"
    },
    {
        "title": "新晋游资3年赚1000万，弱势行情也能稳定盈利，七点经验受益终身",
        "docid": "7307071463331529255",
        "url": "https://www.ixigua.com/7307071463331529255"
    },
    {
        "title": "两根5、10日均线吃遍天，只要抓5个关键要点，天天坐乘股票主升浪",
        "docid": "7307532374428877347",
        "url": "https://www.ixigua.com/7307532374428877347"
    },
    {
        "title": "央企并购重组浪潮风云再起，A股市场并购重组概念龙头股一览",
        "docid": "7305918138028147252",
        "url": ""
    },
    {
        "title": "2023-12-02A股下周看反弹，分享一些潜在热点，比如中字头",
        "docid": "7307925571856499254",
        "url": "https://www.ixigua.com/7307925571856499254"
    },
    {
        "title": "#隆基绿能 #光伏 #股票 #股民 #投资  隆基绿能为何总是不止跌",
        "docid": "7307652343787422249",
        "url": "https://www.ixigua.com/7307652343787422249"
    },
    {
        "title": "韭菜打板，聊聊龙头战法中的做T，正T和反T有什么区别？",
        "docid": "7307492991575589413",
        "url": "https://www.ixigua.com/7307492991575589413"
    },
    {
        "title": "揭露A股大骗局，释放2024年炒股大机遇！老股民看完直呼内行666！",
        "docid": "7306941015334748707",
        "url": "https://www.ixigua.com/7306941015334748707"
    },
    {
        "title": "人大原副校长：股市的问题在哪",
        "docid": "7283082952647541305",
        "url": "https://www.ixigua.com/7283082952647541305"
    },
    {
        "title": "天天几千家下跌！散户怨声载道，现在的大A还有的救吗？",
        "docid": "7307560938767385142",
        "url": "https://www.ixigua.com/7307560938767385142"
    },
    {
        "title": "顶级交易员透露，宁愿空仓也不要碰的11种股票，散户牢记可避大坑",
        "docid": "7307156992694026787",
        "url": "https://www.ixigua.com/7307156992694026787"
    },
    {
        "title": "短线擒牛战法，二板定龙头！一但掌握核心条件，捕捉连板妖龙！",
        "docid": "7307559496648229387",
        "url": "https://www.ixigua.com/7307559496648229387"
    },
    {
        "title": "A股这样你功不可没！真是大言不惭！但凡有点良心都不会说这种话",
        "docid": "7293731223472767500",
        "url": "https://www.ixigua.com/7293731223472767500"
    },
    {
        "title": "这张浙江国祥毕业照,是不是可以挂在上交所? #浙江国祥 #上交所",
        "docid": "7291202439783383606",
        "url": "https://www.ixigua.com/7291202439783383606"
    },
    {
        "title": "尾盘30分钟黄金选股法则，今天买明天卖，诀窍就在这七点！",
        "docid": "7307582323359547913",
        "url": "https://www.ixigua.com/7307582323359547913"
    },
    {
        "title": "A股低迷的原因 #财富百问百答",
        "docid": "7293028519347651123",
        "url": "https://www.ixigua.com/7293028519347651123"
    },
    {
        "title": "东安动力、惠发食品、晋拓股份、南京商旅、中广天泽、信雅达",
        "docid": "7307930412872008246",
        "url": "https://www.ixigua.com/7307930412872008246"
    },
    {
        "title": "抓紧年末最后一波赚钱行情！",
        "docid": "7307181666387100200",
        "url": "https://www.ixigua.com/7307181666387100200"
    },
    {
        "title": "哪些板块会开启主升浪？",
        "docid": "7306435033047237161",
        "url": "https://www.ixigua.com/7306435033047237161"
    },
    {
        "title": "过凹峰与过主峰，逐级攻破，确认标准抓主升！",
        "docid": "7307552908608799286",
        "url": "https://www.ixigua.com/7307552908608799286"
    },
    {
        "title": "神秘而巨大的中植系，暴雷倒计时。#中植系 #宏哥的记录",
        "docid": "7305648260616716834",
        "url": "https://www.ixigua.com/7305648260616716834"
    },
    {
        "title": "周末深度复盘一天，结合五大条件筛选，最终只有4家符合，收藏！",
        "docid": "7307912556608717346",
        "url": "https://www.ixigua.com/7307912556608717346"
    },
    {
        "title": "震撼！中央汇金宣布进军医药！12.4号行情正式开始",
        "docid": "7307968363480515087",
        "url": "https://www.ixigua.com/7307968363480515087"
    },
    {
        "title": "东安圣龙都是这样！乌云盖顶弱转强战法，妖股启动就要先人人喊打",
        "docid": "7308070555620639241",
        "url": "https://www.ixigua.com/7308070555620639241"
    },
    {
        "title": "看懂OBV能量潮，大黑马草上飞",
        "docid": "7307179640681038377",
        "url": "https://www.ixigua.com/7307179640681038377"
    },
    {
        "title": "村里有指示，券商重组预期，打造超级全新资本盛宴！",
        "docid": "7307995686246973961",
        "url": "https://www.ixigua.com/7307995686246973961"
    },
    {
        "title": "决心退出股市，为了活好余生。",
        "docid": "7278193058620015156",
        "url": "https://www.ixigua.com/7278193058620015156"
    },
    {
        "title": "*ST左江与中信证券三个之最",
        "docid": "7308128852130169394",
        "url": ""
    },
    {
        "title": "这种涨停后面是机会，不要再被蒙骗，尾盘介入，次日获利！",
        "docid": "7308025528395661834",
        "url": "https://www.ixigua.com/7308025528395661834"
    },
    {
        "title": "看懂分时图，轻松识别主力意图，解开藏在分时图中的奥秘!",
        "docid": "7307507987319685647",
        "url": "https://www.ixigua.com/7307507987319685647"
    },
    {
        "title": "风格转换：相信后面会有季线级别的机会",
        "docid": "7307564642560279092",
        "url": "https://www.ixigua.com/7307564642560279092"
    },
    {
        "title": "#股市 比暴跌更可怕的是零成交",
        "docid": "7277445081114772024",
        "url": "https://www.ixigua.com/7277445081114772024"
    },
    {
        "title": "林园高调增持你也跟着心动了吗",
        "docid": "7307851893655798299",
        "url": "https://www.ixigua.com/7307851893655798299"
    },
    {
        "title": "水皮对话贺强：T+0 有利于保护散户！",
        "docid": "7289383835752792639",
        "url": "https://www.ixigua.com/7289383835752792639"
    },
    {
        "title": "全球主要股市年内涨幅排行，A股暂时垫底，明年有望反超！",
        "docid": "7304792666183696908",
        "url": ""
    },
    {
        "title": "一张图看懂锂电产业链及上市公司！",
        "docid": "7304850108930310665",
        "url": ""
    },
    {
        "title": "卓翼科技实控人夏传武被批捕，“雷军老乡”为何“二度”被逮捕？",
        "docid": "7307881960616182311",
        "url": ""
    },
    {
        "title": "国机智骏汽车公司被申请破产审查",
        "docid": "7307501332293108224",
        "url": ""
    },
    {
        "title": "一文梳理中药产业链龙头股",
        "docid": "7304656067152085504",
        "url": ""
    },
    {
        "title": "全是“科技与狠活”，却狂卖14亿，这种甜牛奶，谁还在喝？",
        "docid": "7306063185633673762",
        "url": ""
    },
    {
        "title": "市值蒸发千亿，员工持股大额浮亏！东方雨虹：防水一哥困于业绩",
        "docid": "7307552241051763234",
        "url": ""
    },
    {
        "title": "发行价163元，市盈率135.2倍，超募27亿，保荐费2.2亿，现已破发",
        "docid": "7306532177985733154",
        "url": ""
    },
    {
        "title": "一万元股票要多少的佣金？今天一次看明白",
        "docid": "7292967340457607715",
        "url": ""
    },
    {
        "title": "泛海控股被法院终结预重整，前三季度归母净资产为-120.54亿元",
        "docid": "7308006035409633802",
        "url": ""
    },
    {
        "title": "新股上市当天市盈率6000多倍，短短几天从29跌到19，这还怎么玩？",
        "docid": "7307274939894137359",
        "url": ""
    },
    {
        "title": "中石化定增120亿：账上有钱，为何坚持融资？",
        "docid": "7306047540284113471",
        "url": ""
    },
    {
        "title": "中国恒大被强执11亿",
        "docid": "7305962686566187535",
        "url": ""
    },
    {
        "title": "4年亏损350亿，6次腰斩之后，股价从71元跌到1块，里面散户怎么办",
        "docid": "7306009960843067919",
        "url": ""
    },
    {
        "title": "落袋为安！散户忙着套现，这轮美股狂欢又要结束了？",
        "docid": "7307450099884769855",
        "url": ""
    },
    {
        "title": "国家队狂买100亿，究竟谁在卖上证50？",
        "docid": "7307469652702282277",
        "url": ""
    },
    {
        "title": "A股最大的漏洞是什么?",
        "docid": "7307470431001494016",
        "url": ""
    },
    {
        "title": "中长期资金入市利好“中特估”概念股，央企共赢ETF（517090）涨超0.8%，东航物流涨停",
        "docid": "7307120023078863370",
        "url": ""
    },
    {
        "title": "阿里影业完成收购大麦，阿里大文娱架构调整后注册资本大降",
        "docid": "7307625563748090422",
        "url": ""
    },
    {
        "title": "A股股息率逼近历史新高，多家公司今年分红超百亿元",
        "docid": "7307460168285962802",
        "url": ""
    },
    {
        "title": "酿酒板块个股走弱，酒ETF跌逾2%",
        "docid": "7307490445641368073",
        "url": ""
    },
    {
        "title": "为什么常出现“前度牛股今又来”，一些牛股似乎是“有记忆的”？",
        "docid": "7307631316790002185",
        "url": ""
    },
    {
        "title": "重仓操作法",
        "docid": "7307477630692213288",
        "url": ""
    },
    {
        "title": "酒店行业第三季度成绩单：平均单间客房收入均超2019年同期",
        "docid": "7307231774999020084",
        "url": ""
    },
    {
        "title": "A股优质行业龙头股大集合（收藏版）",
        "docid": "7265689069944865280",
        "url": ""
    },
    {
        "title": "多氟多加入分拆上市队伍，今年“A拆A”新增27家",
        "docid": "7307161351099761162",
        "url": ""
    },
    {
        "title": "A股绿色周报丨7家上市公司暴露环境风险 占用、毁坏林地，金风科技控股公司收到2张罚单",
        "docid": "7307640225923138085",
        "url": ""
    },
    {
        "title": "英伟达还能“狂飙”多久",
        "docid": "7307393321318646283",
        "url": ""
    },
    {
        "title": "个股分析：海天味业",
        "docid": "7308002245889540620",
        "url": ""
    },
    {
        "title": "ST世茂债务危机：102亿债务逾期，销售下滑76%，流动性紧张如何破局？",
        "docid": "7307866552622285338",
        "url": ""
    },
    {
        "title": "对后市表现不必悲观？多家机构展望2024年：A股有望迎来估值修复",
        "docid": "7307441810517787163",
        "url": ""
    },
    {
        "title": "厉害了！苏州这家科创板上市公司连获两“金”！",
        "docid": "7307463974503907855",
        "url": ""
    },
    {
        "title": "股市十六年，从亏损到盈利，对股市的感悟也愈发深刻（建议收藏）",
        "docid": "7307079631595782708",
        "url": ""
    },
    {
        "title": "A股出现重要的反转形态，典型牛市趋势，确定牛市已经启动！",
        "docid": "7308006063428108841",
        "url": ""
    },
    {
        "title": "51只中字头科技股名单",
        "docid": "7307964165786731042",
        "url": ""
    },
    {
        "title": "一旦出现“倍量穿三线”信号 后面就是一波强势主升浪",
        "docid": "7307806584560828940",
        "url": ""
    },
    {
        "title": "国君策略：北交所行情降温，资金回流拥抱产业新变化，关注四大主题",
        "docid": "7308169808967860788",
        "url": ""
    },
    {
        "title": "A股炒作，突出一个无厘头滑稽",
        "docid": "7307450185515532826",
        "url": ""
    },
    {
        "title": "人生发财靠康波，知道我们在哪儿很重要",
        "docid": "7286818945556890168",
        "url": ""
    },
    {
        "title": "“人形机器人第一股”来了！优必选通过港交所聆讯",
        "docid": "7307964272095658522",
        "url": ""
    },
    {
        "title": "深交所将发布深证民企50等三条指数",
        "docid": "7307769742142915106",
        "url": ""
    },
    {
        "title": "新希望乳业转让控股权，一只酸奶牛亏损加剧，现制酸奶市场竞争激烈",
        "docid": "7307209169223025191",
        "url": ""
    },
    {
        "title": "杨德龙：北交所放量大涨率先走牛 低位逆向布局优质资产",
        "docid": "7306125312868221480",
        "url": ""
    },
    {
        "title": "严防内幕信息泄露 上市公司应牢筑“隔离墙”",
        "docid": "7307781511972127241",
        "url": ""
    },
    {
        "title": "“断臂式”清仓！锦龙股份或退出这家IPO券商股东阵营，原因已揭晓！老牌车企斩获最多关注，机构上调5股评级",
        "docid": "7308170422133031465",
        "url": ""
    },
    {
        "title": "董事长年薪超2200万？上市公司回应",
        "docid": "7308162369123795456",
        "url": ""
    },
    {
        "title": "12月股市关键催化剂：税收损失抛售与圣诞反弹争夺焦点，美联储政策成主导因素",
        "docid": "7308157462371582479",
        "url": ""
    },
    {
        "title": "荣盛石化1亿元新设能源公司 业务含储能技术服务",
        "docid": "7307511361884635689",
        "url": ""
    },
    {
        "title": "恒林股份入选2023年度国家级绿色工厂，同时荣获“上市公司2022年报业绩说明会优秀实践”奖！",
        "docid": "7307594269937189415",
        "url": ""
    },
    {
        "title": "格力电器渠道改革政策启动：线上线下融合销售新纪元，投资者把握新机遇",
        "docid": "7307396958463853096",
        "url": ""
    },
    {
        "title": "闻泰科技停产特定客户光学模组产品，预计今年净利减少超7亿元",
        "docid": "7307994773008040474",
        "url": ""
    },
    {
        "title": "纽约股市三大股指1日上涨",
        "docid": "7307825282512159259",
        "url": ""
    },
    {
        "title": "徐小明：不变应万变",
        "docid": "7296726523846033930",
        "url": ""
    },
    {
        "title": "北控集团所属京仪装备登陆上交所",
        "docid": "7307421787044790823",
        "url": ""
    },
    {
        "title": "凯龙股份：目前新疆市场业绩表现良好，富余的混装产能大部分调往新疆",
        "docid": "7307448523346346508",
        "url": ""
    },
    {
        "title": "月线的判断，周线的抉择，日线的坚持",
        "docid": "7307604913998119435",
        "url": ""
    },
    {
        "title": "产能利用率不足68%，迎驾贡酒却要逆势砸62亿元扩产，超去年营收",
        "docid": "7307488474133791273",
        "url": ""
    },
    {
        "title": "南京商旅：公司主营业务未发生重大变化",
        "docid": "7307681357508051471",
        "url": ""
    },
    {
        "title": "艾森股份发行结果出炉：网上弃购仅0.638765%，主承销商包销比例达0.20%",
        "docid": "7307466762541335091",
        "url": ""
    },
    {
        "title": "索菲亚募资超5亿获证监会批复，玛格家居终止IPO｜一周家居看点",
        "docid": "7308167605171536423",
        "url": ""
    },
    {
        "title": "因未按规定披露商誉减值信息等事项 京蓝科技被深交所公开谴责",
        "docid": "7307885899495850523",
        "url": ""
    },
    {
        "title": "老白干酒销售费用居高不下，盈利水平受压，投资者需警惕！",
        "docid": "7307623914459628051",
        "url": ""
    },
    {
        "title": "12月限售股解禁市值为年内第三低",
        "docid": "7307901463710138895",
        "url": ""
    },
    {
        "title": "超捷股份：预估2024年公司营收可达7.2亿元",
        "docid": "7307543872782025252",
        "url": ""
    },
    {
        "title": "欧晶科技：光伏装机持续高增，“石英坩埚第一股”深度受益",
        "docid": "7307491779438363176",
        "url": ""
    },
    {
        "title": "龙佰集团的资本新局：拟分拆国钛股份上市",
        "docid": "7307715362479538715",
        "url": ""
    },
    {
        "title": "美股12月前瞻 市场关注美联储政策、税收损失和圣诞节因素",
        "docid": "7308094324028326409",
        "url": ""
    },
    {
        "title": "以日本为鉴，股市大崩盘后哪些行业会逆势暴涨？",
        "docid": "7306139168349159988",
        "url": "https://www.ixigua.com/7306139168349159988"
    },
    {
        "title": "小资金快速做大实战补充版，内容全新升级值得一品！",
        "docid": "7307529209038471734",
        "url": "https://www.ixigua.com/7307529209038471734"
    },
    {
        "title": "2015年股灾纪录片",
        "docid": "7281134685084713487",
        "url": "https://www.ixigua.com/7281134685084713487"
    },
    {
        "title": "不见力度不入场，闲谈股友手中票",
        "docid": "7307193676558828043",
        "url": "https://www.ixigua.com/7307193676558828043"
    },
    {
        "title": "股市唯一不骗人的指标——“换手率”，字字珠玑，建议散户收藏！",
        "docid": "7307551179192402466",
        "url": "https://www.ixigua.com/7307551179192402466"
    },
    {
        "title": "综合操作总资金额5%运作股票既可靠又安全，一年下来资金能翻倍。",
        "docid": "7307395154309022248",
        "url": "https://www.ixigua.com/7307395154309022248"
    },
    {
        "title": "炒股的顿悟往往就是高手的一句点拨",
        "docid": "7307925460775043624",
        "url": ""
    },
    {
        "title": "囊括多只芯片股！北向资金近一个月大比例增仓个股名单一览",
        "docid": "7308187813101650484",
        "url": ""
    },
    {
        "title": "文人论股: 岁末年终，又到了高风险季节！",
        "docid": "7308111148270879268",
        "url": ""
    },
    {
        "title": "投资良言：量变到质变前夕！",
        "docid": "7307561227616993832",
        "url": ""
    },
    {
        "title": "这十类股票，手在痒也不要碰，一步错步步错！",
        "docid": "7307540569004179968",
        "url": "https://www.ixigua.com/7307540569004179968"
    },
    {
        "title": "十八年老股民，花费八位数换来的教训，希望你能少走这十年弯路！",
        "docid": "7307237108576420388",
        "url": "https://www.ixigua.com/7307237108576420388"
    },
    {
        "title": "东安动力、昆仑万维、长安汽车、圣龙股份、惠发食品、引力传媒",
        "docid": "7307579458754609718",
        "url": "https://www.ixigua.com/7307579458754609718"
    },
    {
        "title": "草根逆袭为游资大佬，佛山无影脚廖国栋#股民 #游资心法",
        "docid": "7307988189078422035",
        "url": "https://www.ixigua.com/7307988189078422035"
    },
    {
        "title": "输急眼了？胡锡进罕见失态",
        "docid": "7306106446947713574",
        "url": "https://www.ixigua.com/7306106446947713574"
    },
    {
        "title": "林园：别怂，好日子要来了",
        "docid": "7307272620075024937",
        "url": "https://www.ixigua.com/7307272620075024937"
    },
    {
        "title": "老公的股票涨到一字板了！高兴的电商都不想做了！到底挣了多少钱",
        "docid": "7289096424149484088",
        "url": "https://www.ixigua.com/7289096424149484088"
    },
    {
        "title": "全家靠炒股生活，职业股民躺平的一天",
        "docid": "7287092981180400139",
        "url": "https://www.ixigua.com/7287092981180400139"
    },
    {
        "title": "认知提高了，就一定能赚到钱吗？跨越不了这一点，认知再高也没辙",
        "docid": "7308087219980337704",
        "url": "https://www.ixigua.com/7308087219980337704"
    },
    {
        "title": "碎阳慢升主力独吞，平斜交叉处，藏有登山虎！",
        "docid": "7307554797345833484",
        "url": "https://www.ixigua.com/7307554797345833484"
    },
    {
        "title": "这个帅哥真敢问，问出了两亿股民的心声，A股真的是诈骗市场吗？",
        "docid": "7299348640836321828",
        "url": "https://www.ixigua.com/7299348640836321828"
    },
    {
        "title": "什么是前复权、后复权、不复权？有什么用途？什么是除权除息？",
        "docid": "7300876853739258431",
        "url": "https://www.ixigua.com/7300876853739258431"
    },
    {
        "title": "跌懵了，基本上天天都在亏，今年前后亏掉20多万，真不想炒了！",
        "docid": "7306783967682920970",
        "url": "https://www.ixigua.com/7306783967682920970"
    },
    {
        "title": "通威股份的业绩，能否支撑穿越周期？",
        "docid": "7307584899320873483",
        "url": "https://www.ixigua.com/7307584899320873483"
    },
    {
        "title": "炒股使人变得面目全非。。。生活缝缝补补，股市挥金如土。",
        "docid": "7294975329557447178",
        "url": "https://www.ixigua.com/7294975329557447178"
    },
    {
        "title": "三七互娱—盛天网络 人工智能反弹还是主升？实战中的经典要素！",
        "docid": "7307552144096723510",
        "url": "https://www.ixigua.com/7307552144096723510"
    },
    {
        "title": "主力操盘痕迹，红三兵！",
        "docid": "7307524262955319818",
        "url": "https://www.ixigua.com/7307524262955319818"
    },
    {
        "title": "股票帐户除了炒股，还有4大隐藏功能，用好了，可顶一年工资！",
        "docid": "7296040376564253211",
        "url": "https://www.ixigua.com/7296040376564253211"
    },
    {
        "title": "双休A股热闹了，国家队决心把大盘拉起来，这一举动背后暗藏深意",
        "docid": "7307922381727597082",
        "url": "https://www.ixigua.com/7307922381727597082"
    },
    {
        "title": "炒股3年，亏损3年，现在从头开始，从复盘开始！",
        "docid": "7307426295175414272",
        "url": "https://www.ixigua.com/7307426295175414272"
    },
    {
        "title": "凯利公式，以及一个横扫股圈的男人",
        "docid": "7300503516878602793",
        "url": "https://www.ixigua.com/7300503516878602793"
    },
    {
        "title": "电影都不敢这么演，鲁大师花式割韭菜，360周鸿祎再次站在风口上",
        "docid": "7282606957406618124",
        "url": "https://www.ixigua.com/7282606957406618124"
    },
    {
        "title": "今年跌幅最大的5家公司，经历了什么？",
        "docid": "7307212228762075663",
        "url": ""
    },
    {
        "title": "华西策略：中长期维度看小市值行情大概率尚未结束",
        "docid": "7308218442077995539",
        "url": ""
    },
    {
        "title": "顶固集创：实际控制人拟协议转让5.10%公司股份",
        "docid": "7308224168326414859",
        "url": ""
    },
    {
        "title": "下周上证指数看涨的走势，周中有震荡，周线中阳线？",
        "docid": "7308193823241896485",
        "url": ""
    },
    {
        "title": "如果抓到涨停板，第二天怎么操作，牢记这4点，轻松把握最大收益",
        "docid": "7285269799913914939",
        "url": "https://www.ixigua.com/7285269799913914939"
    },
    {
        "title": "神秘来电！全网没人敢说的实话！揭露A股当前幕后真相，随时下架",
        "docid": "7296395442827625001",
        "url": "https://www.ixigua.com/7296395442827625001"
    },
    {
        "title": "4天涨23%，每天赚1.69亿，不是友商做不起，是拼多多更懂性价比",
        "docid": "7308037425568317962",
        "url": "https://www.ixigua.com/7308037425568317962"
    },
    {
        "title": "趋势交易者之死",
        "docid": "7307453816952226340",
        "url": "https://www.ixigua.com/7307453816952226340"
    },
    {
        "title": "85亿ETF资金入场，两只ETF被大资金买入，散户选股更容易！",
        "docid": "7308179091545391635",
        "url": "https://www.ixigua.com/7308179091545391635"
    },
    {
        "title": "怎么判别强势标的，底部特征原来是这样！三步识别！",
        "docid": "7307527515827470863",
        "url": "https://www.ixigua.com/7307527515827470863"
    },
    {
        "title": "周末，华为又爆大消息，下周新风口就它了，新主线将浮出水面",
        "docid": "7307929571134243365",
        "url": "https://www.ixigua.com/7307929571134243365"
    },
    {
        "title": "牛市下半场依旧会来，但会和上半场一样难做",
        "docid": "7307550624768328201",
        "url": "https://www.ixigua.com/7307550624768328201"
    },
    {
        "title": "是可忍孰不可忍！竟然敢大幅跌破3000点？主力部队该出手了！",
        "docid": "7291868041485386291",
        "url": "https://www.ixigua.com/7291868041485386291"
    },
    {
        "title": "会买的是徒弟，会卖的是师傅，这句“股市谚语”有什么先决条件？",
        "docid": "7307892391447527972",
        "url": "https://www.ixigua.com/7307892391447527972"
    },
    {
        "title": "k线跳空高开意味着什么样的后势",
        "docid": "7307817955134276130",
        "url": ""
    },
    {
        "title": "捉涨停板的3种铁律，封板后该走还是该留？打板必修课！",
        "docid": "7307684132610376201",
        "url": "https://www.ixigua.com/7307684132610376201"
    },
    {
        "title": "贾茹04年买入了巨轮智能，一直持有至今，到底能有多嗨皮？",
        "docid": "7307252657062674959",
        "url": "https://www.ixigua.com/7307252657062674959"
    },
    {
        "title": "连续16个跌停，从106元跌到2毛3，这是直接把韭菜连根拔起了！",
        "docid": "7307969214663852544",
        "url": "https://www.ixigua.com/7307969214663852544"
    },
    {
        "title": "A股：一旦股票出现长阴倒拔垂杨柳形态，是要大涨的节奏",
        "docid": "7307553496981570102",
        "url": "https://www.ixigua.com/7307553496981570102"
    },
    {
        "title": "一招涨停回马枪，识别主力的加仓位置",
        "docid": "7307558901895922227",
        "url": "https://www.ixigua.com/7307558901895922227"
    },
    {
        "title": "重点关注第56期和第60期，A股的本质决定未来的财富密码",
        "docid": "7307458188155191827",
        "url": "https://www.ixigua.com/7307458188155191827"
    },
    {
        "title": "1个神奇的游资月月翻倍术，只要学会用月K线，每月轻松选到黑马股",
        "docid": "7307536790733357568",
        "url": "https://www.ixigua.com/7307536790733357568"
    },
    {
        "title": "劵商到底什么时候涨？高手不愿透露的秘密，我来告诉你！",
        "docid": "7307192966399918631",
        "url": "https://www.ixigua.com/7307192966399918631"
    },
    {
        "title": "今年行情这么惨，这个股神却还能实现翻倍！",
        "docid": "7307523163159298610",
        "url": "https://www.ixigua.com/7307523163159298610"
    },
    {
        "title": "炒股90%的时间，就是在等待！善猎者必善等待",
        "docid": "7307584549733696054",
        "url": "https://www.ixigua.com/7307584549733696054"
    },
    {
        "title": "管理层犯的最大的错，把融资当成服务实体经济#股票#股民#金融",
        "docid": "7307179791726150207",
        "url": "https://www.ixigua.com/7307179791726150207"
    },
    {
        "title": "国家亲自点名助飞，4元机器人王者2024年进军百元大关",
        "docid": "7307878900887978546",
        "url": "https://www.ixigua.com/7307878900887978546"
    },
    {
        "title": "炒股没有最低，只有想不到的低点，不去抄底赢了90%的人！",
        "docid": "7308216664347116086",
        "url": "https://www.ixigua.com/7308216664347116086"
    },
    {
        "title": "庄家操盘手法大揭秘，告诉你，为什么要远离庄股",
        "docid": "7307160830683841033",
        "url": "https://www.ixigua.com/7307160830683841033"
    },
    {
        "title": "短线感悟",
        "docid": "7308255406927807039",
        "url": "https://www.ixigua.com/7308255406927807039"
    },
    {
        "title": "为何主力敢打压股价？不怕别人抢筹？看完恍然大悟",
        "docid": "7283050303182766604",
        "url": "https://www.ixigua.com/7283050303182766604"
    },
    {
        "title": "涨停之后的这三种回调，万万不可错过，进错也要进",
        "docid": "7290508884584858152",
        "url": "https://www.ixigua.com/7290508884584858152"
    },
    {
        "title": "股市",
        "docid": "7308247944308884006",
        "url": "https://www.ixigua.com/7308247944308884006"
    },
    {
        "title": "深圳操盘手揭秘！这五种涨停板就不能碰！散户一碰头破血流！",
        "docid": "7308228928311820840",
        "url": "https://www.ixigua.com/7308228928311820840"
    },
    {
        "title": "中国股市沦为认知战工具，“四大风险”正最大范围攻心夺志（下）",
        "docid": "7292138572985926144",
        "url": "https://www.ixigua.com/7292138572985926144"
    },
    {
        "title": "0.65美元！股价历史新低,付费会员增长见顶,知乎还有办法自救吗？",
        "docid": "7308254855729005119",
        "url": ""
    },
    {
        "title": "广州国资拟入主“软包动力电池第一股”，协议转让改为定增认购",
        "docid": "7308269433070600767",
        "url": ""
    },
    {
        "title": "华亚智能：孙公司澳科泰克与SK海力士有维修半导体设备阀门业务往来",
        "docid": "7308264647763903003",
        "url": ""
    },
    {
        "title": "出点实际性的利好吧，股民都已经亏不动了",
        "docid": "7307154133830763008",
        "url": "https://www.ixigua.com/7307154133830763008"
    },
    {
        "title": "A股：最强上涨形态之连板过板峰，买入即吃大肉，分享给有缘人",
        "docid": "7307552333318390284",
        "url": "https://www.ixigua.com/7307552333318390284"
    },
    {
        "title": "豪森股份：收到政府补助款项1200万元",
        "docid": "7308272364670960155",
        "url": ""
    },
    {
        "title": "【小巴侃股12.1】水平高能让你少亏，运气好才能大赚",
        "docid": "7307528720745497098",
        "url": "https://www.ixigua.com/7307528720745497098"
    },
    {
        "title": "博迁新材：8655.3万股限售股12月8日解禁上市",
        "docid": "7308270302704960015",
        "url": ""
    },
    {
        "title": "关闭A股市场会有哪些影响",
        "docid": "7279004708063314484",
        "url": "https://www.ixigua.com/7279004708063314484"
    },
    {
        "title": "看盘新方式！均线有特殊的设置方法，逃顶和抄底的指标。",
        "docid": "7307921210481279528",
        "url": "https://www.ixigua.com/7307921210481279528"
    },
    {
        "title": "怎样的因素，支撑着地天板？〖12/02〗",
        "docid": "7307589858212446772",
        "url": "https://www.ixigua.com/7307589858212446772"
    },
    {
        "title": "12月两条主线浮出水面了！#股票 #财经 #干货分享",
        "docid": "7308197493257437734",
        "url": "https://www.ixigua.com/7308197493257437734"
    },
    {
        "title": "交易复盘——捷成股份！授人与鱼不如授人以渔！",
        "docid": "7307588105409102387",
        "url": "https://www.ixigua.com/7307588105409102387"
    },
    {
        "title": "官方给点流量吧  #股市  #股票  #精神小伙不请自来",
        "docid": "7308234524390294050",
        "url": "https://www.ixigua.com/7308234524390294050"
    },
    {
        "title": "A股周末四大重要消息如何解读？下周能否突破3080？那些地方可加",
        "docid": "7308191330578989608",
        "url": "https://www.ixigua.com/7308191330578989608"
    },
    {
        "title": "招商银行和特变电工只要再跌到一块钱以上我绝对猛加仓就怕他不跌",
        "docid": "7307580359586251302",
        "url": "https://www.ixigua.com/7307580359586251302"
    },
    {
        "title": "居然之家：股东阿里网络拟20.48亿元向杭州灏月协议转让公司9.18%股份",
        "docid": "7308283712591135284",
        "url": ""
    },
    {
        "title": "天汽模：筹划控制权变更事宜 12月4日起停牌",
        "docid": "7308277752045126195",
        "url": ""
    },
    {
        "title": "友发集团：公司部分经销商拟1亿元-2亿元增持公司股份",
        "docid": "7308273634001338891",
        "url": ""
    },
    {
        "title": "天汽模：控股股东拟向国有出资有限合伙企业转让17.18%公司股份，可能涉及控制权变更",
        "docid": "7308277548851724810",
        "url": ""
    },
    {
        "title": "德赛电池：拟10配3股，募资不超25亿元，用于补充流动资金及偿还借款",
        "docid": "7308279065818055209",
        "url": ""
    },
    {
        "title": "华亚智能收问询函：要求说明冠鸿智能固定资产较少、非流动资产占总资产比重低的原因及合理性",
        "docid": "7308283195823260195",
        "url": ""
    },
    {
        "title": "金圆股份：阿根廷卡罗项目目前正处于钻探阶段",
        "docid": "7308290917771821609",
        "url": ""
    },
    {
        "title": "中宠股份：将年产2万吨宠物湿粮新西兰项目延期至2024年6月",
        "docid": "7308291439174189606",
        "url": ""
    },
    {
        "title": "2连板日海智能：内外部经营环境未发生重大变化",
        "docid": "7308275456989086227",
        "url": ""
    },
    {
        "title": "启明星辰：向中移资本定增募资不超40.63亿元申请获证监会同意注册批复",
        "docid": "7308289372120531490",
        "url": ""
    },
    {
        "title": "博腾股份：王锐辞去公司副总经理职务",
        "docid": "7308276997531566632",
        "url": ""
    },
    {
        "title": "央企重组动能聚集！黄金大涨人民币升值周期！A股迎利好频频释放",
        "docid": "7308208499643646502",
        "url": "https://www.ixigua.com/7308208499643646502"
    },
    {
        "title": "A股：账户腰斩80%以后，悟出的抓Z停绝招！",
        "docid": "7307569437819798016",
        "url": "https://www.ixigua.com/7307569437819798016"
    },
    {
        "title": "A股熊市见底，牛市什么时候来？",
        "docid": "7308200602830373430",
        "url": "https://www.ixigua.com/7308200602830373430"
    },
    {
        "title": "爆雷了！下周这几个方向千万别碰，家里有别墅也不行！",
        "docid": "7307992356890870306",
        "url": "https://www.ixigua.com/7307992356890870306"
    },
    {
        "title": "股灰十年:散户不需要那么多高明的炒股方法，多看图就能辨出庄股",
        "docid": "7307616529195991615",
        "url": "https://www.ixigua.com/7307616529195991615"
    },
    {
        "title": "下周谨防A股基金抱团白马股连续大阴线？12月份A股指数牛？",
        "docid": "7308224898810741300",
        "url": "https://www.ixigua.com/7308224898810741300"
    },
    {
        "title": "12.1-3日复盘，哪里吃肉点哪里",
        "docid": "7308306823625867786",
        "url": ""
    },
    {
        "title": "转折点，A股发生了什么？",
        "docid": "7308293175905780233",
        "url": ""
    },
    {
        "title": "天银机电：天恒投资及一致行动人累计减持5%公司股份，套现约2.23亿元",
        "docid": "7308304855054074405",
        "url": ""
    },
    {
        "title": "V观财报｜*ST雪发及董事长等被警示：多期财报差错",
        "docid": "7308305855114773032",
        "url": ""
    },
    {
        "title": "没有永远的王者，但消费者会用脚投出新王",
        "docid": "7307639905876705832",
        "url": "https://www.ixigua.com/7307639905876705832"
    },
    {
        "title": "齐鲁银行：第五大股东重庆华宇所持1884.07万股公司股份被司法标记",
        "docid": "7308300745936355877",
        "url": ""
    },
    {
        "title": "A股：主力何时建C完毕？一个简单的指标，进场就是主升浪！",
        "docid": "7307513342326014505",
        "url": "https://www.ixigua.com/7307513342326014505"
    },
    {
        "title": "左侧交易为什么不怕套牢？",
        "docid": "7308233839199912488",
        "url": "https://www.ixigua.com/7308233839199912488"
    },
    {
        "title": "下周开始干活，保护我方韭菜",
        "docid": "7307565008601383475",
        "url": "https://www.ixigua.com/7307565008601383475"
    },
    {
        "title": "又有国资抄底A股！释放了什么信号？",
        "docid": "7307975953996022323",
        "url": "https://www.ixigua.com/7307975953996022323"
    },
    {
        "title": "印度股市震撼！33年100倍涨，逆袭“怪圈”",
        "docid": "7308274594346402354",
        "url": "https://www.ixigua.com/7308274594346402354"
    },
    {
        "title": "2023.12.3 雅化JT未来股价预测，准备吃大鸡腿吧 #股票 #财经",
        "docid": "7308195623101170230",
        "url": "https://www.ixigua.com/7308195623101170230"
    },
    {
        "title": "跑跑赶紧跑，下周风险板块复盘，主力机构在悄悄撤离",
        "docid": "7308218805912601124",
        "url": "https://www.ixigua.com/7308218805912601124"
    },
    {
        "title": "2023.12.3 股票FST 股价点评 #股票 #财经 #股民交流 #干货分享",
        "docid": "7308212943072690707",
        "url": "https://www.ixigua.com/7308212943072690707"
    },
    {
        "title": "2023.12.3 个人股票选股策略 #股票 #股民 #财经 #韭菜 #行情分析",
        "docid": "7308205417505653275",
        "url": "https://www.ixigua.com/7308205417505653275"
    },
    {
        "title": "周末A股重要消息：锂电池“新”利空！",
        "docid": "7308323451167588879",
        "url": ""
    },
    {
        "title": "重磅！“国家队”或将再次出手——道达对话牛博士",
        "docid": "7308320550462505507",
        "url": ""
    },
    {
        "title": "公告精选：天汽模筹划控制权变更；友发集团部分经销商拟增持公司股份",
        "docid": "7308319454092362290",
        "url": ""
    },
    {
        "title": "惠伦晶体再谋易主  接盘方系泰安金融大佬",
        "docid": "7308309227246764585",
        "url": ""
    },
    {
        "title": "美股五连阳 碳酸锂下跌直逼10大关 | 一周期市",
        "docid": "7308317956235182630",
        "url": ""
    },
    {
        "title": "#股票",
        "docid": "7308252678638240275",
        "url": "https://www.ixigua.com/7308252678638240275"
    },
    {
        "title": "周末大预判！汇金再次出手增援，这几个方向迎来重大机会",
        "docid": "7307651415848321573",
        "url": "https://www.ixigua.com/7307651415848321573"
    },
    {
        "title": "#dou上热门🔥🔥 乖离率",
        "docid": "7308305534132683302",
        "url": "https://www.ixigua.com/7308305534132683302"
    },
    {
        "title": "明日A股咋弄（纯技术）视频版之1203",
        "docid": "7308245225103688192",
        "url": "https://www.ixigua.com/7308245225103688192"
    },
    {
        "title": "高层下达死命令，下周股市必须盯紧三大板块，一旦错过将拍断大腿",
        "docid": "7308055225158337050",
        "url": "https://www.ixigua.com/7308055225158337050"
    },
    {
        "title": "A股跨年行情！五大算力龙头！你看好谁？",
        "docid": "7307989549773881896",
        "url": "https://www.ixigua.com/7307989549773881896"
    },
    {
        "title": "为了大A慢牛行情，让排队要上市的公司去漂亮国上市去吧！",
        "docid": "7308216653647610368",
        "url": "https://www.ixigua.com/7308216653647610368"
    },
    {
        "title": "出现龙凤K线，上车抓涨停。",
        "docid": "7308319806032183846",
        "url": "https://www.ixigua.com/7308319806032183846"
    },
    {
        "title": "简直是太炸裂了，只坑富人的中植系又有新瓜，投资界的困境又来了",
        "docid": "7307587517077783055",
        "url": "https://www.ixigua.com/7307587517077783055"
    },
    {
        "title": "股票期权纳税之  税收优惠",
        "docid": "7308041330964791847",
        "url": "https://www.ixigua.com/7308041330964791847"
    },
    {
        "title": "鲍威尔的话不管用\n为什么我们涨不起来",
        "docid": "7307957962784703027",
        "url": "https://www.ixigua.com/7307957962784703027"
    },
    {
        "title": "周末罕见表态，国家队救市已进入第二阶段！增量资金抄底板块曝光",
        "docid": "7308302957638844967",
        "url": "https://www.ixigua.com/7308302957638844967"
    },
    {
        "title": "美国证监会的铁棒比国内硬！",
        "docid": "7281244853055259151",
        "url": "https://www.ixigua.com/7281244853055259151"
    },
    {
        "title": "恬不知耻！从一万元跌得还剩5毛钱，看看A股今年5大跌幅股",
        "docid": "7305617317302370843",
        "url": "https://www.ixigua.com/7305617317302370843"
    },
    {
        "title": "#股票知识",
        "docid": "7308225957511463458",
        "url": "https://www.ixigua.com/7308225957511463458"
    },
    {
        "title": "现在的小年轻人实在是太猖狂了大晚上呢直接抢着就跑呢",
        "docid": "7308025988398055951",
        "url": "https://www.ixigua.com/7308025988398055951"
    },
    {
        "title": "沪深300ETF，为什么说是大多数人的最优的第一选择？(1)",
        "docid": "7278242501398446592",
        "url": ""
    },
    {
        "title": "下周2只新股上市：上交所锦江航运、北交所广厦环能",
        "docid": "7308330623469634074",
        "url": ""
    },
    {
        "title": "新希望：养猪团队从之前的3万人降至现在的2.7万人",
        "docid": "7308335464997192211",
        "url": ""
    },
    {
        "title": "证监会出手！近半月立案不断 涉及这7股",
        "docid": "7308332453935759926",
        "url": ""
    },
    {
        "title": "当前A股性价比突出！投资主线有哪些？十大券商策略来了",
        "docid": "7308336716291637760",
        "url": ""
    },
    {
        "title": "倍轻松：11月份控股股东、实际控制人、董事长兼总经理马学军增持公司股份18.58万股",
        "docid": "7308339904658964992",
        "url": ""
    },
    {
        "title": "下周3只新股申购：创业板丰茂股份、安培龙，上交所索宝蛋白",
        "docid": "7308329571375055371",
        "url": ""
    },
    {
        "title": "因信息披露不准确 *ST雪发及责任人收警示函",
        "docid": "7308322032927064588",
        "url": ""
    },
    {
        "title": "文业集团(01802)发布2021年度业绩，股东应占亏损12.06亿元",
        "docid": "7308332141325468194",
        "url": ""
    },
    {
        "title": "山东路桥：子公司联合体预中标56.16亿元设计施工总承包项目",
        "docid": "7308332103425622539",
        "url": ""
    },
    {
        "title": "打板客必看的三个重要参考指标：未匹配量、封成比、量比！",
        "docid": "7308217909749547558",
        "url": "https://www.ixigua.com/7308217909749547558"
    },
    {
        "title": "女股神蒋菲：25岁时靠炒股赚数千万，一生只研究一个公司！",
        "docid": "7307506906841711140",
        "url": ""
    },
    {
        "title": "最贵ST股被立案调查 要完善A股价格发现功能优化资源配置",
        "docid": "7308334366038606363",
        "url": ""
    },
    {
        "title": "2023属于微盘股，你还在做价值信徒？",
        "docid": "7308341817177883171",
        "url": ""
    },
    {
        "title": "粤开策略：复盘历届中央经济工作会议如何指引A股投资",
        "docid": "7308348353732084239",
        "url": ""
    },
    {
        "title": "知名游资龙虎榜（12月1日明细版）",
        "docid": "7308332586030498340",
        "url": ""
    },
    {
        "title": "2023.12.3 ZG银河 ，股价点评，大鸡腿一支， #股票 #财经",
        "docid": "7308211649079411215",
        "url": "https://www.ixigua.com/7308211649079411215"
    },
    {
        "title": "A股：只需盯着倍量，三个等式连战连捷。新手小白也可很好上手。",
        "docid": "7308331266679276069",
        "url": "https://www.ixigua.com/7308331266679276069"
    },
    {
        "title": "新周期在哪？",
        "docid": "7308128692847411712",
        "url": "https://www.ixigua.com/7308128692847411712"
    },
    {
        "title": "炒股的实质",
        "docid": "7308130290105319963",
        "url": "https://www.ixigua.com/7308130290105319963"
    },
    {
        "title": "拿稳了！ A股面临重大变局，未来三年，只有这2大板块能穿越牛熊",
        "docid": "7290492879330837055",
        "url": "https://www.ixigua.com/7290492879330837055"
    },
    {
        "title": "正宗华为供应商，三大增量，看这几家就够了！",
        "docid": "7277244221814374968",
        "url": "https://www.ixigua.com/7277244221814374968"
    },
    {
        "title": "一触即发！下周，三大板块将是最强风口，机会稍纵即逝",
        "docid": "7308219701925315122",
        "url": "https://www.ixigua.com/7308219701925315122"
    },
    {
        "title": "跨年妖锁定，龙头二波模式，散户如何先手擒龙",
        "docid": "7308304118425059852",
        "url": "https://www.ixigua.com/7308304118425059852"
    },
    {
        "title": "炒股的人妄想能回本，难道不是被洗脑了吗？它比电诈还要狠",
        "docid": "7306055162534035968",
        "url": "https://www.ixigua.com/7306055162534035968"
    },
    {
        "title": "A股最好的机会，接下来我坚定看好这个方向，下周或将加速主升！",
        "docid": "7307581411731604002",
        "url": "https://www.ixigua.com/7307581411731604002"
    },
    {
        "title": "比亚迪，估值只剩高点1/13，看上去极具性价比，一朋友却想割肉了",
        "docid": "7308355706175177228",
        "url": ""
    },
    {
        "title": "股市幻觉：人性弱点放大器",
        "docid": "7308360629813903898",
        "url": ""
    },
    {
        "title": "国家队再次出手，下周A股能否止跌企稳？",
        "docid": "7308359946268262946",
        "url": ""
    },
    {
        "title": "证监会批复支持！启明星辰获中国移动注资，网络安全产业迎发展新篇章",
        "docid": "7308368721171694115",
        "url": ""
    },
    {
        "title": "激光雷达系统提供商速腾聚创通过港交所聆讯",
        "docid": "7308354559285150262",
        "url": ""
    },
    {
        "title": "2023年12月1日股票指数ETF及其期权波动率情况",
        "docid": "7308357070636859943",
        "url": ""
    },
    {
        "title": "永达股份中签号出炉 共约7.74万个",
        "docid": "7308373074364432923",
        "url": ""
    },
    {
        "title": "罗欣药业：因涉嫌违反限制性规定转让证券，证监会决定对公司控股股东罗欣控股立案调查",
        "docid": "7308363314001199642",
        "url": ""
    },
    {
        "title": "周末突发重磅消息，比降印花税管用多了，这三大板块将一飞冲天",
        "docid": "7308044628056670772",
        "url": "https://www.ixigua.com/7308044628056670772"
    },
    {
        "title": "震惊！央妈出手！国有资本进场！券商合并重组成功！大A紧急调整",
        "docid": "7308206416106357257",
        "url": "https://www.ixigua.com/7308206416106357257"
    },
    {
        "title": "起猛了，拼多多摇身一变成了“多公子”？丨阿喵爱摸鱼",
        "docid": "7308373405017834036",
        "url": ""
    },
    {
        "title": "新洋丰终止投建江西磷化工项目，此前计划投资60亿元",
        "docid": "7308377324528140852",
        "url": ""
    },
    {
        "title": "A股市场存在两种误解！国投瑞银王彦杰：努力为投资人带来更好持有体验",
        "docid": "7308376499689013823",
        "url": ""
    },
    {
        "title": "酱酒集体大跳水，跳1000、2000、3000，茅台公司也不能幸免",
        "docid": "7284944641764688439",
        "url": "https://www.ixigua.com/7284944641764688439"
    },
    {
        "title": "百洋股份拟迁址青岛即墨，上市公司“青岛板块”或将扩容",
        "docid": "7308376034569994787",
        "url": ""
    },
    {
        "title": "深夜传来两大惊天利好，比央妈降息还要劲爆，对应的板块要起飞了",
        "docid": "7308341153097908799",
        "url": "https://www.ixigua.com/7308341153097908799"
    },
    {
        "title": "大佬看5日线就能进场",
        "docid": "7308250271577178663",
        "url": "https://www.ixigua.com/7308250271577178663"
    },
    {
        "title": "今年最后一个月的狂欢",
        "docid": "7307441274150191626",
        "url": "https://www.ixigua.com/7307441274150191626"
    },
    {
        "title": "散户亏到退出A股，证券时报竟拍手叫好",
        "docid": "7306037982526439988",
        "url": "https://www.ixigua.com/7306037982526439988"
    },
    {
        "title": "好多股友又想抄底隆基了，抄前看完我视频少亏8万8",
        "docid": "7308333895852917283",
        "url": "https://www.ixigua.com/7308333895852917283"
    },
    {
        "title": "全体股民注意！A股的交易规则已改变，两亿股民将何去何从？",
        "docid": "7305017916766814760",
        "url": "https://www.ixigua.com/7305017916766814760"
    },
    {
        "title": "卢麒元：到底是什么决定牛市的到来？",
        "docid": "7307493153941127714",
        "url": "https://www.ixigua.com/7307493153941127714"
    },
    {
        "title": "奇葩股票，年收益-98%",
        "docid": "7308348469163655715",
        "url": "https://www.ixigua.com/7308348469163655715"
    },
    {
        "title": "麻了！中植系又上热搜了！两家上市公司董事长失联",
        "docid": "7308348898711208463",
        "url": "https://www.ixigua.com/7308348898711208463"
    },
    {
        "title": "炒股想要悟道翻身，关键要理解这一点",
        "docid": "7308326807785669170",
        "url": "https://www.ixigua.com/7308326807785669170"
    }
]