[
    {
        "title": "缩量千亿成交量 A股最没谱的板块反而赚大钱 准备迎接全面普涨",
        "docid": "7316526481944134159",
        "url": ""
    },
    {
        "title": "涉嫌欺诈发行证券罪，紫晶存储实控人及一致行动人被批捕",
        "docid": "7316486459689828876",
        "url": ""
    },
    {
        "title": "一文读懂庄家洗盘行为，散户朋友请深度研读，不要再做“接盘侠”",
        "docid": "7316348612026368546",
        "url": ""
    },
    {
        "title": "博威合金可转债中签号出炉 共约58.17万个",
        "docid": "7316435472384557587",
        "url": ""
    },
    {
        "title": "贝泰妮大宗交易成交13.60万股 成交额894.88万元",
        "docid": "7316462986342777396",
        "url": ""
    },
    {
        "title": "西部黄金：拟1.07亿元收购恒盛铍业100%股权",
        "docid": "7316450894046822927",
        "url": ""
    },
    {
        "title": "广州酒家集团股份有限公司独立董事李进一辞职",
        "docid": "7316463947165811251",
        "url": ""
    },
    {
        "title": "付鹏/刘纪鹏：不要轻易说4000点不是梦",
        "docid": "7309105469753131561",
        "url": "https://www.ixigua.com/7309105469753131561"
    },
    {
        "title": "重要‼️股市低迷期投资人在家里要低调#大霄说市 #大咖观察",
        "docid": "7316469897323708968",
        "url": "https://www.ixigua.com/7316469897323708968"
    },
    {
        "title": "A股六大重磅消息，炸锅了，倍解气，明天或百花齐放，争相斗艳！",
        "docid": "7316488857686999561",
        "url": ""
    },
    {
        "title": "收评：做好准备吧，明天A股没有意外，市场必将迎来历史大变盘！",
        "docid": "7316514138489946658",
        "url": ""
    },
    {
        "title": "数字货币板块异动，楚天龙二连板得而复失，艾融软件、德生科技等冲高回落",
        "docid": "7316541412990960178",
        "url": ""
    },
    {
        "title": "A股：男女老少齐护盘，下午的大盘，会怎么走？",
        "docid": "7316510274696102415",
        "url": ""
    },
    {
        "title": "暴击海外空头，韩国追加“禁空令”",
        "docid": "7316535470140752418",
        "url": ""
    },
    {
        "title": "*ST凯撒：公司控股股东变更为青岛环海湾文旅，实控人变更为青岛市市北区国有资产运营发展中心",
        "docid": "7316550587053736475",
        "url": ""
    },
    {
        "title": "规模翻番，红利指数产品规模超过630亿",
        "docid": "7316530062755594815",
        "url": ""
    },
    {
        "title": "张家港国资整合变数：国泰国贸股权划转终止 事涉多家A股上市公司",
        "docid": "7316519677412065811",
        "url": ""
    },
    {
        "title": "宝鹰股份：子公司中标13.79亿元工程项目",
        "docid": "7316497278792122932",
        "url": ""
    },
    {
        "title": "辰欣药业：控股股东辰欣科技集团合计解除质押700万股",
        "docid": "7316503682076770831",
        "url": ""
    },
    {
        "title": "聪明资金逆势布局两个月，大行情要来了？掘金大赛多位选手跑步入场！",
        "docid": "7316475658044293644",
        "url": ""
    },
    {
        "title": "实控人私用公章对外担保，公司称“毫不知情”！天喻信息涉亿元诉讼，部分银行账户被冻结",
        "docid": "7316543124690764322",
        "url": ""
    },
    {
        "title": "恒银科技：股票交易异常波动，连续三个交易日内日收盘价格跌幅偏离值累计超过20%",
        "docid": "7316502188950618661",
        "url": ""
    },
    {
        "title": "兰花科创：前三季度拟每股派0.75元，共计派发现金红利11.14亿元",
        "docid": "7316464549719294499",
        "url": ""
    },
    {
        "title": "宏川智慧大宗交易成交577.02万元",
        "docid": "7316462977644413466",
        "url": ""
    },
    {
        "title": "速看！一旦手中的票出现这4种信号，第二天或将直接涨停！",
        "docid": "7316519182839841320",
        "url": "https://www.ixigua.com/7316519182839841320"
    },
    {
        "title": "紧急提醒两亿股民，盘面突发两大重要信号，所有人都是游戏的棋子",
        "docid": "7316503920812130868",
        "url": "https://www.ixigua.com/7316503920812130868"
    },
    {
        "title": "来自圣诞节的祝福，盈亏比8.2的大单",
        "docid": "7316550720319783459",
        "url": "https://www.ixigua.com/7316550720319783459"
    },
    {
        "title": "大 A 这是咋了#股民小张",
        "docid": "7308520269075874323",
        "url": "https://www.ixigua.com/7308520269075874323"
    },
    {
        "title": "广电网络：公司涉嫌信披违法违规 遭证监会立案",
        "docid": "7316486930999968295",
        "url": ""
    },
    {
        "title": "为啥股市这么惨，却不救市？游戏行业巴掌后甜枣，未必是为了股民",
        "docid": "7316505701017190963",
        "url": "https://www.ixigua.com/7316505701017190963"
    },
    {
        "title": "放句大胆的话，市场缩量到6000亿，最后四天走势一目了然",
        "docid": "7316507432597848586",
        "url": "https://www.ixigua.com/7316507432597848586"
    },
    {
        "title": "预测股市~书本~神书★孕妈在熊市瑟瑟发抖",
        "docid": "7316542433704182282",
        "url": "https://www.ixigua.com/7316542433704182282"
    },
    {
        "title": "这样的股市真的是不如赌场",
        "docid": "7316476890523370025",
        "url": "https://www.ixigua.com/7316476890523370025"
    },
    {
        "title": "央行提闸大放水，上证A股见底了吗？有何理由#财经 #股票",
        "docid": "7316504187180286473",
        "url": "https://www.ixigua.com/7316504187180286473"
    },
    {
        "title": "大亏如何扭亏为盈",
        "docid": "7316488482875146762",
        "url": "https://www.ixigua.com/7316488482875146762"
    },
    {
        "title": "2023年A股天命选手！！！一万到亿万的逆袭？？？",
        "docid": "7316446248754643492",
        "url": "https://www.ixigua.com/7316446248754643492"
    },
    {
        "title": "知名游资陈小群语录分享",
        "docid": "7316352610016068150",
        "url": "https://www.ixigua.com/7316352610016068150"
    },
    {
        "title": "A股再爆猛料！一组数据透漏惊人秘密，大A最大的庄家原来是他",
        "docid": "7316512862724325922",
        "url": "https://www.ixigua.com/7316512862724325922"
    },
    {
        "title": "2023年“博傻”新股：首日最高涨幅37倍，百倍市盈股平均涨逾90%",
        "docid": "7316499917747487243",
        "url": ""
    },
    {
        "title": "疆股日更12月25日丨特变电工两控股公司拟合计投资19.23亿元建设新能源电站",
        "docid": "7316501619368084020",
        "url": ""
    },
    {
        "title": "药明系的财技，把港股投资人给干懵了",
        "docid": "7316518972239807017",
        "url": ""
    },
    {
        "title": "V观财报｜凯伦股份及董事长等拟被罚640万",
        "docid": "7316567449258803763",
        "url": ""
    },
    {
        "title": "恒瑞医药今日大宗交易折价成交250万股，成交额9905万元",
        "docid": "7316547464360739382",
        "url": ""
    },
    {
        "title": "中钨高新：筹划收购柿竹园100%股权 股票停牌",
        "docid": "7316512709472797194",
        "url": ""
    },
    {
        "title": "坚定看好游戏行业前景，恺英网络实控人金锋拟再增持1亿元，累计增持金额超14亿",
        "docid": "7316488963534111243",
        "url": ""
    },
    {
        "title": "长盈通大宗交易成交934.82万元",
        "docid": "7316529939028116009",
        "url": ""
    },
    {
        "title": "*ST正邦：撤销公司股票因重整而被实施退市风险警示，继续被实施退市风险警示",
        "docid": "7316551093055226407",
        "url": ""
    },
    {
        "title": "V观财报｜4连板亚世光电：内外部经营环境未发生重大变化",
        "docid": "7316528904238563881",
        "url": ""
    },
    {
        "title": "星星科技收关注函：要求说明向东方资管深圳分公司转让相关债权事项是否存在实质性障碍",
        "docid": "7316527111358251530",
        "url": ""
    },
    {
        "title": "周一晚上8点，A股重磅消息有些炸，让人目瞪口呆，瞠目结舌！",
        "docid": "7316509985733902898",
        "url": ""
    },
    {
        "title": "侃股：存款降息有利于A股估值提升",
        "docid": "7316535778887156243",
        "url": ""
    },
    {
        "title": "又有两家上市公司“踩雷”中融信托，涉及金额达1.1亿元",
        "docid": "7316491567932883483",
        "url": ""
    },
    {
        "title": "拉普拉斯IPO：拟募资18亿元，依赖前五大客户，关联交易引关注",
        "docid": "7316480396823511603",
        "url": ""
    },
    {
        "title": "华厦眼科获外资买入0.02%股份 专家称有实力的民营眼科会持续稳健",
        "docid": "7316488610772206119",
        "url": ""
    },
    {
        "title": "清源股份：公司主营业务及业务模式未发生重大变化",
        "docid": "7316542614420275766",
        "url": ""
    },
    {
        "title": "欧菲光：拟出售公司部分房屋及土地使用权",
        "docid": "7316513299502580263",
        "url": ""
    },
    {
        "title": "优刻得大宗交易成交322.40万元",
        "docid": "7316529947420410420",
        "url": ""
    },
    {
        "title": "艾罗能源中签号出炉 12月26日缴款",
        "docid": "7316528186467222051",
        "url": ""
    },
    {
        "title": "八亿时空：募投项目结余资金用于加大光刻胶等产能 提升核心竞争力",
        "docid": "7316539514615562764",
        "url": ""
    },
    {
        "title": "华润微发生2笔大宗交易 合计成交4288.68万元",
        "docid": "7316529959894270514",
        "url": ""
    },
    {
        "title": "微芯生物大宗交易成交4394.76万元",
        "docid": "7316529936196829747",
        "url": ""
    },
    {
        "title": "天喻信息收关注函，要求核查说明实控人、董事长闫春雨使用公司公章签署担保协议的具体情况",
        "docid": "7316497725435691555",
        "url": ""
    },
    {
        "title": "安彩高科：收到1433万元政府补助，占上年净利润18.5％",
        "docid": "7316467069548888616",
        "url": ""
    },
    {
        "title": "地量出现了！地价还有多远？——道达投资手记",
        "docid": "7316492075803984393",
        "url": ""
    },
    {
        "title": "评《严刑峻法应是当前A股市场的必然选择》",
        "docid": "7316182611507347994",
        "url": ""
    },
    {
        "title": "交行原资产托管部总经理被查、赢时胜董事长被留置，两者有何勾连？",
        "docid": "7316515672925422131",
        "url": ""
    },
    {
        "title": "河南安彩高科股份有限公司及子公司获得政府补助1433万元",
        "docid": "7316465466250215974",
        "url": ""
    },
    {
        "title": "鼎龙科技：公司股票将于12月27日在上交所主板IPO上市",
        "docid": "7316504172751372863",
        "url": ""
    },
    {
        "title": "*ST豆神收关注函：要求说明重整完成后依托产业投资人IP效应，扩大直播电商变现模式的实施路径",
        "docid": "7316446204420964903",
        "url": ""
    },
    {
        "title": "龙虎榜 | 索宝蛋白今日跌停，营业部席位合计净卖出545.68万元",
        "docid": "7316455982857699850",
        "url": ""
    },
    {
        "title": "紫光国微12月25日大宗交易成交2690.87万元",
        "docid": "7316460396972458511",
        "url": ""
    },
    {
        "title": "纳芯微今日大宗交易折价成交130.07万股，成交额1.73亿元",
        "docid": "7316546469497029158",
        "url": ""
    },
    {
        "title": "凯尔达现2笔大宗交易 均为折价成交",
        "docid": "7316529931104600628",
        "url": ""
    },
    {
        "title": "揭秘涨停 | 龙头4连板，VR板块热度高企",
        "docid": "7316505395215155749",
        "url": ""
    },
    {
        "title": "A股三大指数集体收涨 汽车产业链公司股价反弹",
        "docid": "7316479250197348904",
        "url": ""
    },
    {
        "title": "12月25日陕西煤业发布公告，其股东增持200万股",
        "docid": "7316457038656782900",
        "url": ""
    },
    {
        "title": "金贵银业：控股股东承诺一致行动协议到期后六个月内不减持公司股份",
        "docid": "7316503491731096091",
        "url": ""
    },
    {
        "title": "V观财报｜广电网络信披违法违规被证监会立案",
        "docid": "7316500757187379751",
        "url": ""
    },
    {
        "title": "10只个股大宗交易超5000万元",
        "docid": "7316529935714435595",
        "url": ""
    },
    {
        "title": "陕西煤业今日大宗交易成交860万股，成交额1.78亿元",
        "docid": "7316546490217234955",
        "url": ""
    },
    {
        "title": "募投项目实施进展披露不准确、部分募资未严格按用途使用等，瑞丰新材及董事长、董秘收河南证监局警示函",
        "docid": "7316486656709165595",
        "url": ""
    },
    {
        "title": "湖北宜化：拟按股比对子公司宜化新材料增资6666.67万元，满足其资金需求",
        "docid": "7316495490252685859",
        "url": ""
    },
    {
        "title": "贵州茅台今日大宗交易成交119.62万股，成交额20亿元",
        "docid": "7316547462721405479",
        "url": ""
    },
    {
        "title": "宝鸡钛业股份有限公司副总经理吴迪辞职",
        "docid": "7316430662872039974",
        "url": ""
    },
    {
        "title": "聚焦服装主业 雅戈尔集团正式更名为“雅戈尔时尚股份有限公司”",
        "docid": "7316503901686596133",
        "url": ""
    },
    {
        "title": "博隆技术将在上交所主板上市",
        "docid": "7316498225479959055",
        "url": ""
    },
    {
        "title": "嘉美包装：拟向全体股东每10股派发现金红利2.3元",
        "docid": "7316487966967497254",
        "url": ""
    },
    {
        "title": "金诚信今日大宗交易成交466万股，成交额1.73亿元",
        "docid": "7316545927026934283",
        "url": ""
    },
    {
        "title": "亿利达：1.3亿股限售股12月28日解禁上市",
        "docid": "7316536393902064180",
        "url": ""
    },
    {
        "title": "亲属短线交易公司股票，力合微副总经理收深圳证监局警示函",
        "docid": "7316509327110685203",
        "url": ""
    },
    {
        "title": "家联科技：家联转债网上中签号码共8.17万个",
        "docid": "7316450863114404361",
        "url": ""
    },
    {
        "title": "泉阳泉：第2大股东北京睿德嘉信商贸拟减持不超715.19万股公司股份",
        "docid": "7316468914194809355",
        "url": ""
    },
    {
        "title": "标榜股份：获四项新能源汽车项目定点通知 预计总金额6.25亿元",
        "docid": "7316481490496389684",
        "url": ""
    },
    {
        "title": "因配偶构成短线交易 泰尔股份监事收警示函",
        "docid": "7316588503515742732",
        "url": ""
    },
    {
        "title": "厦门国贸集团20亿元超短期融资券拟兑付，利率2.2%",
        "docid": "7316373358466269750",
        "url": ""
    },
    {
        "title": "59股每笔成交量增超50%",
        "docid": "7316529944757469735",
        "url": ""
    },
    {
        "title": "蓝焰控股：子公司郑庄区块煤层气探明储量新增报告通过评审备案",
        "docid": "7316501903469560332",
        "url": ""
    },
    {
        "title": "ST商城：公司重整股价较大幅度向下除权，调整后除权参考价格为8.14元/股",
        "docid": "7316449821018112563",
        "url": ""
    },
    {
        "title": "龙迅股份：王瑞鹍先生当选为第三届监事会主席",
        "docid": "7316480535923507739",
        "url": ""
    },
    {
        "title": "石家庄科林电气股份有限公司独立董事邓路辞职",
        "docid": "7316465451935236619",
        "url": ""
    },
    {
        "title": "达利凯普新股发行结果出炉",
        "docid": "7316529938046796340",
        "url": ""
    },
    {
        "title": "梦网科技拟增资获得新算力科技51%股权 拓展数据要素市场",
        "docid": "7316529957323178534",
        "url": ""
    },
    {
        "title": "【25日资金路线图】两市主力资金净流出128亿元 电子等行业实现净流入",
        "docid": "7316514486318400000",
        "url": ""
    },
    {
        "title": "三祥新材与南京佑天战略合作 打造“锆铪生态链”",
        "docid": "7316475617610908210",
        "url": ""
    },
    {
        "title": "科汇股份：拟5000万元在淄博市投建磁阻电机项目",
        "docid": "7316481490476089890",
        "url": ""
    },
    {
        "title": "国光电器：拟使用募集资金8000万元增资全资子公司实施募投项目",
        "docid": "7316511464301822501",
        "url": ""
    },
    {
        "title": "金鸿顺：控股股东新增质押7.64%公司股份",
        "docid": "7316482257550770729",
        "url": ""
    },
    {
        "title": "三十年国债再飙，大降息异兆？少有人看到两件小事！A股有何影响",
        "docid": "7316582249779069440",
        "url": "https://www.ixigua.com/7316582249779069440"
    },
    {
        "title": "剥皮炒股法：让你在股市选股更加明智与高效",
        "docid": "7316491831880090147",
        "url": "https://www.ixigua.com/7316491831880090147"
    },
    {
        "title": "散户请注意，本周大盘即将暴涨，出现三个重要信号！！！",
        "docid": "7316458116005626379",
        "url": "https://www.ixigua.com/7316458116005626379"
    },
    {
        "title": "刘纪鹏被免职！释放了什么信号？明天A股会有大变天！注意这信号",
        "docid": "7316481140137656832",
        "url": "https://www.ixigua.com/7316481140137656832"
    },
    {
        "title": "#法拉第未来 市值只剩0.2亿美元！\n#贾跃亭 #ff91 #抖音汽车",
        "docid": "7290809687623238207",
        "url": "https://www.ixigua.com/7290809687623238207"
    },
    {
        "title": "星期二依然关注消费电子和赛道，长盈精密，奥拓电子，金刚光伏。",
        "docid": "7316519379926155812",
        "url": "https://www.ixigua.com/7316519379926155812"
    },
    {
        "title": "夜已深，A股传来六大重磅消息，引人侧目，深思不解，仰天长叹！",
        "docid": "7316526693747868186",
        "url": ""
    },
    {
        "title": "捷荣技术：控股股东拟向川发展基金转让8.08%公司股份，转让股价总额6.97亿元",
        "docid": "7316551570970264079",
        "url": ""
    },
    {
        "title": "北京汽车港股上市9周年 行业需求复苏迎投资机遇",
        "docid": "7316588506678362639",
        "url": ""
    },
    {
        "title": "棕榈股份：中标周口市第一人民医院新院区建设项目一标段",
        "docid": "7316491873827340841",
        "url": ""
    },
    {
        "title": "中科软：郭丹女士减持公司股份需要发布减持公告",
        "docid": "7316466620200354330",
        "url": ""
    },
    {
        "title": "周五这一波，真的不应该！",
        "docid": "7316490885305369098",
        "url": "https://www.ixigua.com/7316490885305369098"
    },
    {
        "title": "看懂主力的试探，明白凹峰的战略价值与背后隐藏的主控！",
        "docid": "7316430076202254898",
        "url": "https://www.ixigua.com/7316430076202254898"
    },
    {
        "title": "中直股份：发股购买哈飞集团、昌飞集团100%股权并配套募资事宜获上交所审核通过",
        "docid": "7316506751279448576",
        "url": ""
    },
    {
        "title": "新点软件：第一大股东股权无偿划转事项终止",
        "docid": "7316445769119203881",
        "url": ""
    },
    {
        "title": "宝鹰股份今日大宗交易折价成交3975.81万股，成交额9541.94万元",
        "docid": "7316546473586590223",
        "url": ""
    },
    {
        "title": "为什么说，大A或沦为全球笑柄？",
        "docid": "7314214614550610447",
        "url": "https://www.ixigua.com/7314214614550610447"
    },
    {
        "title": "什么是前复权、后复权、不复权？有什么用途？什么是除权除息？",
        "docid": "7300876853739258431",
        "url": "https://www.ixigua.com/7300876853739258431"
    },
    {
        "title": "一天不打版、手痒",
        "docid": "7316511596431049256",
        "url": "https://www.ixigua.com/7316511596431049256"
    },
    {
        "title": "7货模拟选拔大赛，报名私聊！",
        "docid": "7316402433872429620",
        "url": "https://www.ixigua.com/7316402433872429620"
    },
    {
        "title": "涨停回调后看到数字3，就是确定的底部，游资抄底战法首次公开",
        "docid": "7310513844739605027",
        "url": "https://www.ixigua.com/7310513844739605027"
    },
    {
        "title": "锂电池雪崩式暴跌，还有救吗？",
        "docid": "7315624843204887049",
        "url": "https://www.ixigua.com/7315624843204887049"
    },
    {
        "title": "底裤🩲都不要了吗？遮羞布呢？",
        "docid": "7316426228389380660",
        "url": "https://www.ixigua.com/7316426228389380660"
    },
    {
        "title": "股市：用“笨”且简单的炒股方法，轻松复利，散户应熟记！",
        "docid": "7316114862567293474",
        "url": "https://www.ixigua.com/7316114862567293474"
    },
    {
        "title": "如何熬过股市寒冬",
        "docid": "7315445881535201844",
        "url": "https://www.ixigua.com/7315445881535201844"
    },
    {
        "title": "还在相信洗盘，别再骗自己了",
        "docid": "7296315873055212042",
        "url": "https://www.ixigua.com/7296315873055212042"
    },
    {
        "title": "老教授的一个炒股“笨”方法，散户听完醍醐灌顶！",
        "docid": "7294536218514194995",
        "url": "https://www.ixigua.com/7294536218514194995"
    },
    {
        "title": "风雨过后，一定能看到彩虹🌈 #万一免五  #股市  #极兔邻里",
        "docid": "7316428374560703017",
        "url": "https://www.ixigua.com/7316428374560703017"
    },
    {
        "title": "A股：所有指标都是马后炮，聪明人做T只用这个指标！",
        "docid": "7315683723209507368",
        "url": "https://www.ixigua.com/7315683723209507368"
    },
    {
        "title": "A股:如果这是真的，那就太可怕了。",
        "docid": "7291080539325497856",
        "url": "https://www.ixigua.com/7291080539325497856"
    },
    {
        "title": "丰元股份投资锂电却陷入诉讼缠斗 请求处置天域生态所持标的股权未获法院支持",
        "docid": "7316543589075599883",
        "url": ""
    },
    {
        "title": "超讯通信：子公司拟为客户提供GPU模组采购与销售服务",
        "docid": "7316475044052599334",
        "url": ""
    },
    {
        "title": "刘纪鹏被禁前为投资者发声、一语道破股市15年来一直3000点的原因",
        "docid": "7316571585488847399",
        "url": "https://www.ixigua.com/7316571585488847399"
    },
    {
        "title": "擒妖抓牛真经，妖股只有这三种形态，看懂了学会了抓妖信手拈来",
        "docid": "7315361549059621415",
        "url": "https://www.ixigua.com/7315361549059621415"
    },
    {
        "title": "杨德龙：年底是布局2024年行情的理想时间窗口",
        "docid": "7316469905946542607",
        "url": "https://www.ixigua.com/7316469905946542607"
    },
    {
        "title": "我炒股11年，从大亏到财务自由，总结出10条铁律，分享给有缘人！",
        "docid": "7299775550791680539",
        "url": "https://www.ixigua.com/7299775550791680539"
    },
    {
        "title": "月k线主升浪选股法，抓底部易如反掌，分享给有缘人！",
        "docid": "7288955294557438501",
        "url": "https://www.ixigua.com/7288955294557438501"
    },
    {
        "title": "但凡有点其他门路，也不至于来股市里赚钱",
        "docid": "7298620940102533658",
        "url": "https://www.ixigua.com/7298620940102533658"
    },
    {
        "title": "基金人士：当前A股市场正处于底部区域 不少医药、消费及新能源行业的优质公司性价比凸显",
        "docid": "7316656752202809910",
        "url": ""
    },
    {
        "title": "*ST豆神：根据重整计划实施资本公积金转增股本事项，股票12月26日停牌1日，控股股东可能变更为窦昕",
        "docid": "7316552362658103818",
        "url": ""
    },
    {
        "title": "中南建设：控股股东累计被动减持公司3.31亿股股份",
        "docid": "7316566576038347316",
        "url": ""
    },
    {
        "title": "广电运通：承接广州数据集团人工智能公共算力中心建设项目",
        "docid": "7316522041430262313",
        "url": ""
    },
    {
        "title": "中工国际工程股份有限公司财务总监张爱丽辞职",
        "docid": "7316460077869875712",
        "url": ""
    },
    {
        "title": "立方风控鸟·晚报（12月25日）",
        "docid": "7316517931478417960",
        "url": ""
    },
    {
        "title": "*ST惠天回复关注函：不存在通过债务豁免规避终止上市情形",
        "docid": "7316553387510972955",
        "url": ""
    },
    {
        "title": "达实智能正式发布面向未来的办公建筑智能化整体解决方案白皮书",
        "docid": "7315685858739487270",
        "url": ""
    },
    {
        "title": "周二（12月26日）重点关注财经事件和经济数据",
        "docid": "7316672209861493263",
        "url": ""
    },
    {
        "title": "光力科技今日大宗交易折价成交352.81万股，成交额6929.19万元",
        "docid": "7316545945494094374",
        "url": ""
    },
    {
        "title": "中证报：引导“长钱长投”政策出台可期",
        "docid": "7316659524856021531",
        "url": ""
    },
    {
        "title": "盘前必读丨华为冬季全场景发布会今日举行；多家游戏公司出手回购或增持股份",
        "docid": "7316677048603476516",
        "url": ""
    },
    {
        "title": "全球主要股市年内涨幅排行，A股暂时垫底，明年有望反超！",
        "docid": "7304792666183696908",
        "url": ""
    },
    {
        "title": "看了半个月的抖音带货榜，东方甄选这是彻底立起来了！",
        "docid": "7316140687828304411",
        "url": ""
    },
    {
        "title": "罕见！炒股炒成大股东，持股超10%未公告！面对处罚辩称\"经济困难\"……",
        "docid": "7314507315707642406",
        "url": ""
    },
    {
        "title": "我尽力了，股市分析其实有很多制约",
        "docid": "7288966214188384829",
        "url": ""
    },
    {
        "title": "一位退役操盘手良心赠言：散户死拿着股票不撒手，庄家会怎么办？",
        "docid": "7312627262338253364",
        "url": ""
    },
    {
        "title": "中国中免，宁德时代一路下跌，一直创新低，这些大白马到底怎么了",
        "docid": "7308030335105745443",
        "url": ""
    },
    {
        "title": "夜已深，A股市场传四大热议消息，泪目深思，夜不能寐，换牛胆！",
        "docid": "7316157636905468443",
        "url": ""
    },
    {
        "title": "A股市场科技股能成为龙头的，都是经过千难万险的",
        "docid": "7295330281799467571",
        "url": ""
    },
    {
        "title": "股市里真正赚钱的，只有两种人。",
        "docid": "7295932956916040232",
        "url": ""
    },
    {
        "title": "股市晚评：气到不想说话！",
        "docid": "7313829933598556723",
        "url": ""
    },
    {
        "title": "一张图看懂锂电产业链及上市公司！",
        "docid": "7304850108930310665",
        "url": ""
    },
    {
        "title": "下跌不言底！赣锋锂业、金龙鱼、通策医疗曾经的高大上已荡然无存",
        "docid": "7300769666417312295",
        "url": ""
    },
    {
        "title": "中国股市：跨境电商+短剧游戏+国企改革+多模态AI等概念龙头汇总",
        "docid": "7313022963190710835",
        "url": ""
    },
    {
        "title": "新股刚上市就遇到大跌，发生了什么？",
        "docid": "7313981373772104226",
        "url": ""
    },
    {
        "title": "一场类似1987年股市崩盘的可能性有多大？也许比你想象中要大的多",
        "docid": "7291400103556858422",
        "url": ""
    },
    {
        "title": "中国股市：长期持有一只股票，反复做T，看完大彻大悟",
        "docid": "7296007659738628659",
        "url": ""
    },
    {
        "title": "论大A归“0”的可能性",
        "docid": "7315749132034245146",
        "url": ""
    },
    {
        "title": "未来，A股会有牛市！散户做好预期，行情不同了",
        "docid": "7315969452934382132",
        "url": ""
    },
    {
        "title": "一天吃透一家上市公司：万华化学",
        "docid": "7300901086171300392",
        "url": ""
    },
    {
        "title": "批量造富翁：5天解禁超900亿，等于发行新股90只？",
        "docid": "7316144312549392908",
        "url": ""
    },
    {
        "title": "股市教你最笨却最赚钱的方法：反复牢记\"锤子线买进，上吊线卖出\"",
        "docid": "7300153832829698598",
        "url": ""
    },
    {
        "title": "炒股的顿悟往往就是高手的一句点拨",
        "docid": "7307925460775043624",
        "url": ""
    },
    {
        "title": "堪比西天取经！猪八戒十多年上市路，真的太难了，第三次港股交表",
        "docid": "7316089999080915510",
        "url": ""
    },
    {
        "title": "哪些A股具备稳固护城河？这份名单，请收藏！",
        "docid": "7284822985876357687",
        "url": ""
    },
    {
        "title": "一上市皖企荣获“全国特等奖”！",
        "docid": "7316363229427941914",
        "url": ""
    },
    {
        "title": "焦点复盘",
        "docid": "7316467751432880703",
        "url": ""
    },
    {
        "title": "A股分红稳定的50家企业，收藏仅供参考，不作投资建议",
        "docid": "7286806516844757561",
        "url": ""
    },
    {
        "title": "中国股市会长期向好的5个板块，绝对的投资机会，千万不要错过！",
        "docid": "7300404114029232680",
        "url": ""
    },
    {
        "title": "谁来保卫2900点？扶持政策还是新增资金，股民盼望什么呢？",
        "docid": "7315694940938748426",
        "url": ""
    },
    {
        "title": "低价新股也大跌，发行价1.7元，第二天就大跌20%，这还怎么玩？",
        "docid": "7316435321167102516",
        "url": ""
    },
    {
        "title": "12月份，所有板块中做空最严重的股票",
        "docid": "7314342714894549555",
        "url": ""
    },
    {
        "title": "“两低四高”潜力股名单出炉，仅有9只！恺英网络机构关注度排名第一，年内回购2亿元",
        "docid": "7316689928778629695",
        "url": ""
    },
    {
        "title": "央行公开市场净投放3490亿",
        "docid": "7316707994081821196",
        "url": ""
    },
    {
        "title": "A股：周末，传来一个重要消息，下周好戏开始了？",
        "docid": "7316510858744873512",
        "url": ""
    },
    {
        "title": "如果有一天，你投资失败、负债累累，建议看看这篇文章",
        "docid": "7316461478809649704",
        "url": ""
    },
    {
        "title": "芒格保证痛苦人生的第三味药，给予坚持走出熊市的力量！",
        "docid": "7316042381000753718",
        "url": ""
    },
    {
        "title": "证券时报的颠倒黑白：股市指数增长率能否代表牛市？",
        "docid": "7315967843814621759",
        "url": ""
    },
    {
        "title": "一万元股票要多少的佣金？今天一次看明白",
        "docid": "7292967340457607715",
        "url": ""
    },
    {
        "title": "牧之野：扶不起的阿斗",
        "docid": "7308767983529394726",
        "url": ""
    },
    {
        "title": "什么才是好股票之三？#大咖观察#为老百姓发声",
        "docid": "7316430696120074762",
        "url": ""
    },
    {
        "title": "悬崖之上，有色板块分析",
        "docid": "7315738674489360907",
        "url": ""
    },
    {
        "title": "桂林银行的近况",
        "docid": "7292072481538540068",
        "url": ""
    },
    {
        "title": "医疗行业，未来10年确定性最高的行业。",
        "docid": "7286347719428407849",
        "url": ""
    },
    {
        "title": "股民跑不掉高管却跑了？威创股份董秘“低调”离职后 财务负责人独董等集体请辞",
        "docid": "7316677846045442623",
        "url": ""
    },
    {
        "title": "科创板造假“第一案”两名责任人被批捕",
        "docid": "7316523705973457434",
        "url": ""
    },
    {
        "title": "新疆自贸区概念股一览",
        "docid": "7296149179024392714",
        "url": ""
    },
    {
        "title": "600809，最像茅台的公司，甚至优于茅台！",
        "docid": "7316148113117659702",
        "url": ""
    },
    {
        "title": "安琪酵母：上市后营收增长百倍，净利润增长65倍，市值仅增长18倍",
        "docid": "7314212287986909733",
        "url": ""
    },
    {
        "title": "美股科技七巨头市值突破12万亿美元 机构发出“黑天鹅”预警",
        "docid": "7316125690548699660",
        "url": ""
    },
    {
        "title": "【立方早知道】一豫企拟终止上市申请/上市游戏公司密集回购增持/中美半导体巨头，和解/中办国办鼓励安排职工除夕休息",
        "docid": "7316688272174907942",
        "url": ""
    },
    {
        "title": "威创股份被立案，哪些股民可以索赔？谢保平律师团队为您解答",
        "docid": "7314877322967269903",
        "url": ""
    },
    {
        "title": "【财经下午茶】沪指缩量收涨0.14%；《粤港澳大湾区国际一流营商环境建设三年行动计划》发布",
        "docid": "7316468948583760410",
        "url": ""
    },
    {
        "title": "上证指数从面世到现在，到底涨了多少？",
        "docid": "7316325208338514444",
        "url": ""
    },
    {
        "title": "中国股市里无处不在“三角形盘整形态”",
        "docid": "7316111960733631003",
        "url": ""
    },
    {
        "title": "2023年，A股十大财务造假",
        "docid": "7316017374967448127",
        "url": ""
    },
    {
        "title": "内外盘的定义以及如何应用",
        "docid": "7316496405110407732",
        "url": ""
    },
    {
        "title": "公募股权争夺！突然加价3000万元，神秘买家乍现！这家A股公司赢了",
        "docid": "7316687277810319924",
        "url": ""
    },
    {
        "title": "中信证券：市场出清已接近尾声，超调后配置价值已经很高",
        "docid": "7316055750429458954",
        "url": ""
    },
    {
        "title": "钮文新：股市是投资市场还是融资市场？——不能把方法和结果混为一谈",
        "docid": "7312389897368060452",
        "url": ""
    },
    {
        "title": "280亿元！千亿龙头大手笔",
        "docid": "7316696700062630435",
        "url": ""
    },
    {
        "title": "人生发财靠康波，知道我们在哪儿很重要",
        "docid": "7286818945556890168",
        "url": ""
    },
    {
        "title": "今日1只新股申购：北交所捷众科技",
        "docid": "7316672250764198409",
        "url": ""
    },
    {
        "title": "*ST美谷收关注函：要求说明信达资管与控股股东、实控人等是否存在其他应披未披协议或潜在安排",
        "docid": "7316676604795847179",
        "url": ""
    },
    {
        "title": "未及时披露关联方非经营性资金占用、定期报告存重大遗漏，凯伦股份及董事长等被江苏证监局合计罚640万元",
        "docid": "7316536393751380532",
        "url": ""
    },
    {
        "title": "今日1只新股上市：创业板国际复材",
        "docid": "7316673020662645288",
        "url": ""
    },
    {
        "title": "长江电力盘中创历史新高",
        "docid": "7316713169345561099",
        "url": ""
    },
    {
        "title": "美股正在构筑历史大顶",
        "docid": "7316499507737313831",
        "url": ""
    },
    {
        "title": "军工板块连续躁动，基本面拐点有望出现？",
        "docid": "7316716265954263561",
        "url": ""
    },
    {
        "title": "2024元旦放假安排来了，A股将连续3天休市",
        "docid": "7316400139340382759",
        "url": ""
    },
    {
        "title": "操盘手提前休假#大咖观察#为老百姓发声",
        "docid": "7316420327175717430",
        "url": ""
    },
    {
        "title": "新车扎堆上市，轻量化公司扩产拿订单",
        "docid": "7316716993841840640",
        "url": ""
    },
    {
        "title": "*ST左江跌17.72% 此前8个交易日6跌停",
        "docid": "7316708482026340905",
        "url": ""
    },
    {
        "title": "竞价看龙头",
        "docid": "7316709575552664101",
        "url": ""
    },
    {
        "title": "沪指低开 海运、煤炭股再度强势",
        "docid": "7316714833133535759",
        "url": ""
    },
    {
        "title": "大盘震荡，上证综指（510760）跌0.4%，底部位置资金积极布局，近10日净流入额超2亿元",
        "docid": "7316727297795441215",
        "url": ""
    },
    {
        "title": "格利尔盘中创历史新高",
        "docid": "7316718288376037938",
        "url": ""
    },
    {
        "title": "又有两家，清仓式卖出！",
        "docid": "7316424959201853978",
        "url": ""
    },
    {
        "title": "玻纤头部企业重庆国际复材上市大涨206% 总市值307亿元",
        "docid": "7316736970330489382",
        "url": ""
    },
    {
        "title": "731股流通市值不足20亿元",
        "docid": "7316710575063532071",
        "url": ""
    },
    {
        "title": "唐山国资“高价”入主，大晟文化实控人拟套现7亿离场，业绩承诺与收购价相差巨大",
        "docid": "7316726653349216802",
        "url": ""
    },
    {
        "title": "金融街：从关联方借入6亿元，借款期限2年，年利率0%",
        "docid": "7316711557361533440",
        "url": ""
    },
    {
        "title": "八马梦碎“茶叶第一股”，澜沧古茶上市破发跌近两成",
        "docid": "7316718525429908019",
        "url": ""
    },
    {
        "title": "2023上市公司违规全扫描：监管重拳都落在了谁的身上？",
        "docid": "7316733896983446057",
        "url": ""
    },
    {
        "title": "亚振家居-10.03%跌停，总市值18.63亿元",
        "docid": "7316710146707669514",
        "url": ""
    },
    {
        "title": "人工智能概念股全线下挫，云从科技、海得控制跌逾6%",
        "docid": "7316718022805537290",
        "url": ""
    },
    {
        "title": "亚世光电连收5个涨停板",
        "docid": "7316718320265691686",
        "url": ""
    },
    {
        "title": "创业板指跌幅扩大至1%",
        "docid": "7316720103037747722",
        "url": ""
    },
    {
        "title": "大禹生物涨13.15%，股价创历史新高",
        "docid": "7316715759709848115",
        "url": ""
    },
    {
        "title": "《晨会解读》：大科技依然是明年需要重点关注的板块",
        "docid": "7316718698533028362",
        "url": ""
    },
    {
        "title": "合成生物学领域迎来新突破，华恒生物涨逾2%，科创100ETF（588190）盘中溢价丨ETF观察",
        "docid": "7316725187004072484",
        "url": ""
    },
    {
        "title": "威创股份连续两日跌停，公司近期发布自查公告",
        "docid": "7316710420616577572",
        "url": ""
    },
    {
        "title": "煤炭板块逆势领涨，煤炭ETF（515220）涨超0.9%，成交额超5000万元",
        "docid": "7316721655811047947",
        "url": ""
    },
    {
        "title": "美股圣诞行情万众期待，今年有何不同？",
        "docid": "7316697007962243623",
        "url": ""
    },
    {
        "title": "龙韵股份录得4天3板",
        "docid": "7316718319686943267",
        "url": ""
    },
    {
        "title": "N国际复上市首日开盘上涨206.02%",
        "docid": "7316713173430780435",
        "url": ""
    },
    {
        "title": "【盘中播报】沪指跌0.59%  电子行业跌幅最大",
        "docid": "7316728638819303999",
        "url": ""
    },
    {
        "title": "北交所两融余额10.64亿元 较上一日增加23.99万元",
        "docid": "7316710585947685427",
        "url": ""
    },
    {
        "title": "天润乳业最新股东户数下降6.18%",
        "docid": "7316713152795394623",
        "url": ""
    },
    {
        "title": "光伏板块持续走强，清源股份4连板",
        "docid": "7316722944401670666",
        "url": ""
    },
    {
        "title": "【盘中播报】26只个股突破年线",
        "docid": "7316728632125932066",
        "url": ""
    },
    {
        "title": "剧透短线走势节奏！迫在眉睫，A股本周迎来重大考验！",
        "docid": "7316401525532688896",
        "url": ""
    },
    {
        "title": "兴业科技再获中国轻工业制革绿色工程重点实验室认定 致力深耕皮革绿色工程领域",
        "docid": "7316723395062972938",
        "url": ""
    },
    {
        "title": "科创板两融余额1128.30亿元 较上一日环比增加5372.54万元",
        "docid": "7316708731524760115",
        "url": ""
    },
    {
        "title": "两市融资余额减少0.15亿元",
        "docid": "7316697926687293963",
        "url": ""
    },
    {
        "title": "2023/12/26全球市场盘势",
        "docid": "7316717062922355234",
        "url": ""
    },
    {
        "title": "143只港股获南向资金大比例持有",
        "docid": "7316710592629506569",
        "url": ""
    },
    {
        "title": "银河证券：旅游板块重申出境游相对占优，国内游标的重点考虑成长性与估值匹配度",
        "docid": "7316695832567284236",
        "url": ""
    },
    {
        "title": "航运概念盘初拉升，宁波远洋涨超4%",
        "docid": "7316714162502599183",
        "url": ""
    },
    {
        "title": "威奥股份：股东乌兰察布太证拟最高清仓减持143.11万股公司股份",
        "docid": "7316508817842618915",
        "url": ""
    },
    {
        "title": "A股收评：大家都跌懵了，做好心理准备，不要倒在黎明前",
        "docid": "7316506487424205347",
        "url": ""
    },
    {
        "title": "A股在等什么？",
        "docid": "7316146667378868748",
        "url": ""
    },
    {
        "title": "日韩股市午间微幅上涨",
        "docid": "7316741886780146188",
        "url": ""
    },
    {
        "title": "今日9只A股跌停 电子行业跌幅最大",
        "docid": "7316746663920615971",
        "url": ""
    },
    {
        "title": "上市公司因回购等事项发布公告 大消费、人工智能、医药及新能源等赛道受热捧丨焦点资讯",
        "docid": "7316743657242034726",
        "url": ""
    },
    {
        "title": "深交所终止冠优达上市申请",
        "docid": "7316736084887585290",
        "url": ""
    },
    {
        "title": "德才装饰关联方中房设计挂牌新三板，去年应收款项增长明显",
        "docid": "7316730616459231756",
        "url": ""
    },
    {
        "title": "机构抄底润本股份 量化席位抢筹龙头股份丨龙虎榜",
        "docid": "7316751891155665462",
        "url": ""
    },
    {
        "title": "N国际复上午收盘涨158.27% 半日换手率53.74%",
        "docid": "7316746656114901504",
        "url": ""
    },
    {
        "title": "32只股中线走稳 站上半年线",
        "docid": "7316746680731566601",
        "url": ""
    },
    {
        "title": "世龙实业连收4个涨停板，成交额超3亿元",
        "docid": "7316714671053128228",
        "url": ""
    },
    {
        "title": "中国股市:一旦股票被套,应该割肉还是死扛?不如学学解套技巧!",
        "docid": "7316407551787024911",
        "url": ""
    },
    {
        "title": "今天，A股一大变化！",
        "docid": "7316773807333868043",
        "url": ""
    },
    {
        "title": "转载《1958年巴菲特致股东信》",
        "docid": "7316737246818763298",
        "url": ""
    },
    {
        "title": "奥园美谷：信达资管解除和豁免公司部分债权，仅追索8.19亿元",
        "docid": "7316750880425263652",
        "url": ""
    },
    {
        "title": "中直股份50.8亿买昌飞集团哈飞集团过会 中金公司建功",
        "docid": "7316750614045377051",
        "url": ""
    },
    {
        "title": "深交所中止纳百川上市申请",
        "docid": "7316736070308463145",
        "url": ""
    },
    {
        "title": "沪指早盘收跌0.66%",
        "docid": "7316763639527014927",
        "url": ""
    },
    {
        "title": "中船科技下跌5.03%，报18.5元/股",
        "docid": "7316717115577303590",
        "url": ""
    },
    {
        "title": "沪指失守2900点  磷化工板块早盘活跃",
        "docid": "7316756180825932338",
        "url": ""
    },
    {
        "title": "华西证券：A股“磨底”中等待向上突破",
        "docid": "7316092351293194763",
        "url": ""
    },
    {
        "title": "维康药业：控股股东、实控人刘忠良及其亲属合计新增质押8.2%公司股份",
        "docid": "7316748207856828938",
        "url": ""
    },
    {
        "title": "东方通（300379）1.06亿股限售股将于12月26日解禁上市，占总股本18.71%",
        "docid": "7316688198694879783",
        "url": ""
    },
    {
        "title": "融资客控盘比例超一成个股（附名单）",
        "docid": "7316710572618220051",
        "url": ""
    },
    {
        "title": "河南豫能控股股份有限公司副总经理张勇辞职",
        "docid": "7316747849495233050",
        "url": ""
    },
    {
        "title": "皖能电力召开上市三十周年纪念暨机构投资者和分析师交流会",
        "docid": "7316081008783294988",
        "url": ""
    },
    {
        "title": "行业ETF风向标丨两市低迷，个股普跌，石化ETF上涨0.6%",
        "docid": "7316768144104784422",
        "url": ""
    },
    {
        "title": "六国化工上涨5.18%，报5.69元/股",
        "docid": "7316717888000311818",
        "url": ""
    },
    {
        "title": "建新股份：5个产品占全球份额第一，PEEK关键材料",
        "docid": "7314475989696889384",
        "url": ""
    },
    {
        "title": "214只股短线走稳 站上五日均线",
        "docid": "7316746677157642788",
        "url": ""
    },
    {
        "title": "朗进科技：拟向控股股东定增募资不超2.92亿元",
        "docid": "7316726990294303242",
        "url": ""
    },
    {
        "title": "国统股份股东户数连续5期下降 累计降幅14.50%",
        "docid": "7316728642946941466",
        "url": ""
    },
    {
        "title": "东尼电子下跌5.0%，报38.0元/股",
        "docid": "7316718652001305103",
        "url": ""
    },
    {
        "title": "12月券商调研聚焦机械设备和电子行业",
        "docid": "7316683028217168438",
        "url": ""
    },
    {
        "title": "华新环保股东户数连续5期下降 累计降幅3.26%",
        "docid": "7316713166451376652",
        "url": ""
    },
    {
        "title": "京北方：发行可转债申请获受理",
        "docid": "7316767707968504332",
        "url": ""
    },
    {
        "title": "MR板块震荡走低，天娱数科、易天股份跌超4%",
        "docid": "7316718547785220643",
        "url": ""
    },
    {
        "title": "加码主业、布局海外 苏州上市公司投资扩产忙",
        "docid": "7316729553534190120",
        "url": ""
    },
    {
        "title": "华为进军机器人第一龙头 这4家核心龙头有望成10倍股",
        "docid": "7315689449570959926",
        "url": "https://www.ixigua.com/7315689449570959926"
    },
    {
        "title": "炒股你后悔吗？我全职六年非常后悔！",
        "docid": "7305672867264496180",
        "url": "https://www.ixigua.com/7305672867264496180"
    },
    {
        "title": "上证指数对比道琼斯指数，两个明显的错误",
        "docid": "7315668738311717413",
        "url": "https://www.ixigua.com/7315668738311717413"
    },
    {
        "title": "金手指：爆富跨年电影",
        "docid": "7316739316779057679",
        "url": "https://www.ixigua.com/7316739316779057679"
    },
    {
        "title": "对话刘纪鹏教授，对于中国股市的观点",
        "docid": "7292621717598536230",
        "url": "https://www.ixigua.com/7292621717598536230"
    },
    {
        "title": "炒股20年总结的5种绝对不能买的股#万手哥 #股票 #大盘 #证券",
        "docid": "7316041005436928550",
        "url": "https://www.ixigua.com/7316041005436928550"
    },
    {
        "title": "全线下跌，地量地价！既然不打算割肉，那就安心躺平……",
        "docid": "7316716094201758208",
        "url": ""
    },
    {
        "title": "最新榜单出炉 谁是11月最热门鲁股 热度高升，万华化学拟“吞”两A股公司",
        "docid": "7316791530680042036",
        "url": ""
    },
    {
        "title": "12.21日盘后重磅信息解析：游戏闹剧、吴晓求说、降息和平稳基金",
        "docid": "7316774575088615951",
        "url": ""
    },
    {
        "title": "7195名投资者，获超2.8亿元全额赔偿！中国证券集体诉讼和解第一案今生效",
        "docid": "7316777558253863474",
        "url": ""
    },
    {
        "title": "但凡要一点点脸面，今天上证只要收平就可以确认日线底部",
        "docid": "7316714763411866162",
        "url": ""
    },
    {
        "title": "2024年A股市场展望：基金经理谈震荡上行趋势下的投资策略",
        "docid": "7316500789445329444",
        "url": ""
    },
    {
        "title": "钠电池新突破，金属循环率创纪录！产业有望复制锂电池，概念股砸出“深坑”，两路资金扫货龙头股",
        "docid": "7316783468669846067",
        "url": ""
    },
    {
        "title": "利比亚股市暂停逾9年后重开",
        "docid": "7316772873296216630",
        "url": ""
    },
    {
        "title": "证券板块局部走高，华林证券大涨7%",
        "docid": "7316780121476678182",
        "url": ""
    },
    {
        "title": "水务概念股拉升 联合水务涨停",
        "docid": "7316769496940036642",
        "url": ""
    },
    {
        "title": "煤炭股冲高回落，午后持续下跌，淮北矿业跌逾5%",
        "docid": "7316788898544976396",
        "url": ""
    },
    {
        "title": "今日，股市全面下跌，此时，A股情况不对劲了！",
        "docid": "7316744053868036643",
        "url": ""
    },
    {
        "title": "⚠️非常警惕一个板块的巨大风险#大咖观察",
        "docid": "7316738792973976073",
        "url": ""
    },
    {
        "title": "快讯：沪指盘中再度跌破2900点整数点位 两市下跌个股超4000只",
        "docid": "7316730501400674855",
        "url": ""
    },
    {
        "title": "这只新股火了，一度大涨超210%！北证50逆市上涨……",
        "docid": "7316764673574093312",
        "url": ""
    },
    {
        "title": "太平鸟高飞之路“不太平”| ESG案例研究",
        "docid": "7316781836741657088",
        "url": ""
    },
    {
        "title": "业绩亏损拖累上市公司，东莞信托22%股权被转让",
        "docid": "7316787846654771723",
        "url": ""
    },
    {
        "title": "珠海冠宇电池股份有限公司副总经理、财务负责人刘铭卓辞职",
        "docid": "7316787288959828514",
        "url": ""
    },
    {
        "title": "华鲁恒升：高端溶剂项目投产",
        "docid": "7316764214532735500",
        "url": ""
    },
    {
        "title": "科陆电子：预中标2.04亿元南方电网计量产品招标项目",
        "docid": "7316767834665779738",
        "url": ""
    },
    {
        "title": "混合现实概念震荡回升 双象股份5天3板",
        "docid": "7316777563690009097",
        "url": ""
    },
    {
        "title": "恒铭达“三足鼎立”战略蓄势待发 打造通信+新能源业务第二成长曲线",
        "docid": "7316781948297544203",
        "url": ""
    },
    {
        "title": "2023年11月中国A股上市企业股价环比涨幅排行榜单TOP100",
        "docid": "7316779068983837225",
        "url": ""
    },
    {
        "title": "沪指收跌0.68%失守2900点 两市4400股飘绿",
        "docid": "7316799736231920147",
        "url": ""
    },
    {
        "title": "亚通新材冲刺科创板IPO：国内钎焊材料市场占有率约1%  核心产品毛利率为何下滑？",
        "docid": "7316804135133643318",
        "url": ""
    },
    {
        "title": "无锡转债即将到期摘牌 转股比例仅2.63%！专家：核心资本补充目标难实现 负债成本大幅提升",
        "docid": "7316792355519103523",
        "url": ""
    },
    {
        "title": "大众B股（900903）12月26日游资资金净买入3431.00元",
        "docid": "7316800320926401039",
        "url": ""
    },
    {
        "title": "浙股金华上市服务中心启动 金华资本市场增添新动能",
        "docid": "7316707812912923172",
        "url": ""
    },
    {
        "title": "索通发展：控股股东部分股份解除质押",
        "docid": "7316802602397204992",
        "url": ""
    },
    {
        "title": "转融通始终不取消的秘密究竟在哪里？",
        "docid": "7300230370820096564",
        "url": "https://www.ixigua.com/7300230370820096564"
    },
    {
        "title": "其实这是第一版的贝莱德故事，把自己笑不行了🤣🤣#股民 #股票",
        "docid": "7313075564758336015",
        "url": "https://www.ixigua.com/7313075564758336015"
    },
    {
        "title": "V观财报丨ST海越：暂无计划开展LNG贸易业务",
        "docid": "7316804872395899427",
        "url": ""
    },
    {
        "title": "中金湖北光谷REIT三天大涨超10%，多只REIT股价逆市回暖",
        "docid": "7316806582585541183",
        "url": ""
    },
    {
        "title": "明起停牌重大资产重组！中钨高新从“干妈”变“亲妈” 柿竹园后还有4家矿山待注入",
        "docid": "7316562577499292223",
        "url": ""
    },
    {
        "title": "汪小菲遗忘式炒股：2009年股票放到2020年拿出开了麻六记",
        "docid": "7315988600070341146",
        "url": "https://www.ixigua.com/7315988600070341146"
    },
    {
        "title": "鹰酱快被气炸，想做空兔子股市，不料却“兵败”大A股",
        "docid": "7316463652570300979",
        "url": "https://www.ixigua.com/7316463652570300979"
    },
    {
        "title": "【卢麒元】中国股市的症结与应对",
        "docid": "7314139285622522407",
        "url": "https://www.ixigua.com/7314139285622522407"
    },
    {
        "title": "我炒股好像突然悟道了，突然开窍了，激动的半夜没睡着觉！#股票",
        "docid": "7310368994064597523",
        "url": "https://www.ixigua.com/7310368994064597523"
    },
    {
        "title": "越砸越买，曙光将至！\r\n珍惜2800-2900黄金坑",
        "docid": "7316766186190930451",
        "url": "https://www.ixigua.com/7316766186190930451"
    },
    {
        "title": "《股市--道，法，术》",
        "docid": "7316735151382528527",
        "url": "https://www.ixigua.com/7316735151382528527"
    },
    {
        "title": "转融通相当于出老千，为何不禁止呢？",
        "docid": "7301964438024749622",
        "url": "https://www.ixigua.com/7301964438024749622"
    },
    {
        "title": "4万亿来了！“中东富豪”持续加仓A股！这几只标的即将“获选”？（附表）",
        "docid": "7314258149111251508",
        "url": ""
    },
    {
        "title": "写给中国股市亏损的散户：盈利多年只买两种股票，从不被庄家套牢",
        "docid": "7316815886877344268",
        "url": ""
    },
    {
        "title": "沪指再度失守2900点，两市超4300只个股飘绿",
        "docid": "7316818445394788875",
        "url": ""
    },
    {
        "title": "北向资金净卖出25.10亿元，交易活跃度下降",
        "docid": "7316803539848872484",
        "url": ""
    },
    {
        "title": "银宝山新今日跌8.91%，二机构净买入1.04亿元",
        "docid": "7316822162835456552",
        "url": ""
    },
    {
        "title": "股价年内跌超40% 快可电子二股东、董事兼高管拟减持不超0.996%股份",
        "docid": "7316810989607862836",
        "url": ""
    },
    {
        "title": "N国际复首日涨148.87% 换手率71.62%",
        "docid": "7316813672876130868",
        "url": ""
    },
    {
        "title": "减肥药市场的B面：六连跌的信达生物如何应对同质化竞争？",
        "docid": "7316817908624130596",
        "url": ""
    },
    {
        "title": "V观财报｜展鹏科技1亿元投资遭问询：是否“明股实债”？",
        "docid": "7316810044313027135",
        "url": ""
    },
    {
        "title": "46只股涨停 最大封单资金1.47亿元",
        "docid": "7316813681499996724",
        "url": ""
    },
    {
        "title": "龙虎榜 | 深桑达A今日跌停，二机构净买入7524.80万元",
        "docid": "7316822159081423423",
        "url": ""
    },
    {
        "title": "收评： A股到底跌透了没有？",
        "docid": "7316798802994758170",
        "url": ""
    },
    {
        "title": "金溢科技股价连跌实控人年初已多次减持：收入依赖高速路ETC 坦承V2X推行有阻力",
        "docid": "7316826430556766783",
        "url": ""
    },
    {
        "title": "明冠新材：年产2亿平米铝塑膜项目处于建设初期",
        "docid": "7316808733961503271",
        "url": ""
    },
    {
        "title": "12月26日永新股份创60日新低，宝盈龙头优选股票A基金重仓该股",
        "docid": "7316818891601560074",
        "url": ""
    },
    {
        "title": "A股地量下跌大盘见底了？北交所过山车杀跌前兆？2882绝地反击吗",
        "docid": "7316800725362278949",
        "url": "https://www.ixigua.com/7316800725362278949"
    },
    {
        "title": "一天要输一套房！来就是死胡同！南京大爷坦言炒股靠运气！",
        "docid": "7308659262132224522",
        "url": "https://www.ixigua.com/7308659262132224522"
    },
    {
        "title": "刘纪鹏谈股灾的真正症结在哪儿，真敢说，一针见血！",
        "docid": "7313547463678394932",
        "url": "https://www.ixigua.com/7313547463678394932"
    },
    {
        "title": "昨天买的四只跌停板的股票，收盘后亏了多少？#实盘记录",
        "docid": "7316671724613796364",
        "url": "https://www.ixigua.com/7316671724613796364"
    },
    {
        "title": "成也萧何败也萧何",
        "docid": "7316797288423096867",
        "url": "https://www.ixigua.com/7316797288423096867"
    },
    {
        "title": "A股大盘频破2900点：专家看底，个股哀声，散户该何去何从",
        "docid": "7316822905587761715",
        "url": ""
    },
    {
        "title": "安信证券保荐华是科技IPO项目质量评级C级 承销保荐佣金率较高 上市首年业绩“变脸”",
        "docid": "7316818218386244096",
        "url": ""
    },
    {
        "title": "几乎清零！股价从18元跌至0.4元：终于止跌了！",
        "docid": "7316788294829277747",
        "url": ""
    },
    {
        "title": "2024年A股市场走势与投资机会分析丨南财号联播",
        "docid": "7316823104100270619",
        "url": ""
    },
    {
        "title": "【20231226收评】弱市更需要韬光养晦，少折腾",
        "docid": "7316807975862485523",
        "url": ""
    },
    {
        "title": "5天3板龙头股份：公司目前经营情况正常，主营业务未发生变化",
        "docid": "7316819817355362870",
        "url": ""
    },
    {
        "title": "31股今日获机构买入评级",
        "docid": "7316831713563443721",
        "url": ""
    },
    {
        "title": "29.98亿元主力资金今日撤离电子板块",
        "docid": "7316823983301853696",
        "url": ""
    },
    {
        "title": "通信行业今日跌1.84%，主力资金净流出13.59亿元",
        "docid": "7316836886931669555",
        "url": ""
    },
    {
        "title": "五方光电12月26日龙虎榜数据",
        "docid": "7316836878068613673",
        "url": ""
    },
    {
        "title": "东方财富发生大宗交易 成交折价率16.00%",
        "docid": "7316836869508497946",
        "url": ""
    },
    {
        "title": "一图看懂：2023年A股热炒题材",
        "docid": "7316819101148725801",
        "url": ""
    },
    {
        "title": "上海机场：签订免税店项目经营权转让合同之相关补充协议",
        "docid": "7316837241052447273",
        "url": ""
    },
    {
        "title": "今日27只股长线走稳 站上年线",
        "docid": "7316813661379756554",
        "url": ""
    },
    {
        "title": "V观财报｜天海防务信披违规等收监管函 已被责令改正",
        "docid": "7316807472218374693",
        "url": ""
    },
    {
        "title": "中持股份拟定增募不超3亿 去年初向长江环保募4.81亿",
        "docid": "7316812447330091531",
        "url": ""
    },
    {
        "title": "上证指数收跌0.68% 水务板块午后冲高",
        "docid": "7316818085418402331",
        "url": ""
    },
    {
        "title": "胡锡进终于交底，他被李大霄骗了",
        "docid": "7315625435054735922",
        "url": "https://www.ixigua.com/7315625435054735922"
    },
    {
        "title": "股市亏完了，前妻也有了男友了，两大打击，不幸",
        "docid": "7290828373201256995",
        "url": "https://www.ixigua.com/7290828373201256995"
    },
    {
        "title": "今日16只A股跌停 电子行业跌幅最大",
        "docid": "7316813672834204201",
        "url": ""
    },
    {
        "title": "强势股追踪 主力资金连续5日净流入75股",
        "docid": "7316824003086877234",
        "url": ""
    },
    {
        "title": "年内累计发行313只新股，共募资3575.48亿元",
        "docid": "7316813683261735464",
        "url": ""
    },
    {
        "title": "千亿水电白马又创新高，连续5年上涨！近期抗跌股都有这些特点",
        "docid": "7316818556094857728",
        "url": ""
    },
    {
        "title": "12月26日股价创历史新高个股一览",
        "docid": "7316811370832839168",
        "url": ""
    },
    {
        "title": "A股：医药板块大放异彩，2024年结构性牛市已启动！投资者必看！",
        "docid": "7316534419400114722",
        "url": ""
    },
    {
        "title": "“医美面膜第一股”惨遭腰斩：股价再创新低 破发幅度近35%",
        "docid": "7316737935145976357",
        "url": ""
    },
    {
        "title": "创业板成长指数修订 新编制方案将于明年1月3日实施",
        "docid": "7316851672369201690",
        "url": ""
    },
    {
        "title": "安奈儿(002875)12月20日股东户数2.63万户，较上期减少11.47%",
        "docid": "7316829681553588776",
        "url": ""
    },
    {
        "title": "股价创历史新高股一览",
        "docid": "7316836893944168997",
        "url": ""
    },
    {
        "title": "12月，安徽新三板市值TOP10是这些企业！",
        "docid": "7316823390650843674",
        "url": ""
    },
    {
        "title": "龙虎榜 | 天奇股份今日跌停，机构净卖出1350.58万元",
        "docid": "7316831938445525554",
        "url": ""
    },
    {
        "title": "数据看盘",
        "docid": "7316836615929315866",
        "url": ""
    },
    {
        "title": "龙虎榜丨龙头股份今日上涨8.37%，营业部席位合计净卖出6064.22万元",
        "docid": "7316837610452828722",
        "url": ""
    },
    {
        "title": "4天3板龙韵股份：业务范围未涉及“短剧”类业务",
        "docid": "7316825234357830155",
        "url": ""
    },
    {
        "title": "机器人概念26日主力净流出31.88亿元，银宝山新、科大讯飞居前",
        "docid": "7316809124245750322",
        "url": ""
    },
    {
        "title": "4543.91万元资金今日流入石油石化股",
        "docid": "7316823998288364073",
        "url": ""
    },
    {
        "title": "12.26液化气沥青偏震，沪镍棉花白糖纯碱橡胶沪银走势附上",
        "docid": "7316848012046041609",
        "url": ""
    },
    {
        "title": "珠海英搏尔电气股份有限公司副总经理周小义辞职",
        "docid": "7316849912997102120",
        "url": ""
    },
    {
        "title": "3天2跌停华嵘控股：购买开拓光电100%股权存在审批风险",
        "docid": "7316824192094618153",
        "url": ""
    },
    {
        "title": "三角防务大宗交易成交106.25万股 成交额2934.71万元",
        "docid": "7316836893944087077",
        "url": ""
    },
    {
        "title": "康龙化成大宗交易成交17.08万股 成交额400.36万元",
        "docid": "7316836885693841939",
        "url": ""
    },
    {
        "title": "17.60亿元资金今日流出机械设备股",
        "docid": "7316823976167227930",
        "url": ""
    },
    {
        "title": "9648.24万元资金今日流入环保股",
        "docid": "7316824007523762738",
        "url": ""
    },
    {
        "title": "非金属材料行业26日主力净流出1.32亿元，方大炭素、石英股份居前",
        "docid": "7316804476952937012",
        "url": ""
    },
    {
        "title": "股市加速大跌一触即发",
        "docid": "7316796558258143781",
        "url": ""
    },
    {
        "title": "沪深北交易所公布2024年休市安排  除夕休市2月19日照常开市",
        "docid": "7316847670696411700",
        "url": ""
    },
    {
        "title": "深交所恢复一皖企上市审核！",
        "docid": "7316820789415264805",
        "url": ""
    },
    {
        "title": "富乐德：64403205股限售股将于2024年1月2日上市流通",
        "docid": "7316859421051732492",
        "url": ""
    },
    {
        "title": "中原证券：对全资子公司中州蓝海注册资本由35亿元调减至32亿元",
        "docid": "7316839962719502888",
        "url": ""
    },
    {
        "title": "宏达股份：法院裁定控股股东将与关联方实质合并破产重整",
        "docid": "7316566900077642249",
        "url": ""
    },
    {
        "title": "冠龙节能12月26日龙虎榜数据",
        "docid": "7316836886725689875",
        "url": ""
    },
    {
        "title": "东京股市微幅收涨",
        "docid": "7316833426533990953",
        "url": ""
    },
    {
        "title": "量化1000万条散户交易记录后，反向操作有多爽? | 散户才是真股神",
        "docid": "7316819847273579047",
        "url": "https://www.ixigua.com/7316819847273579047"
    },
    {
        "title": "一上市皖企转让所持15%股权！",
        "docid": "7316823586889761289",
        "url": ""
    },
    {
        "title": "福能股份开发利用清洁能源 携手关联方拓展分布式光伏项目",
        "docid": "7316852288264798770",
        "url": ""
    },
    {
        "title": "山西省国新能源股份有限公司及下属公司收到政府补助1.6亿元",
        "docid": "7316788813966410267",
        "url": ""
    },
    {
        "title": "低吸高抛要记牢，震仓获利不妨逃，这句话对散户有哪些启发？",
        "docid": "7316818973260153383",
        "url": "https://www.ixigua.com/7316818973260153383"
    },
    {
        "title": "老公的股票涨到一字板了！高兴的电商都不想做了！到底挣了多少钱",
        "docid": "7289096424149484088",
        "url": "https://www.ixigua.com/7289096424149484088"
    },
    {
        "title": "大盘",
        "docid": "7316730332135457280",
        "url": "https://www.ixigua.com/7316730332135457280"
    },
    {
        "title": "大盘暴跌，个股上天入地，炒股老公还能手持七个涨停板，实属不易",
        "docid": "7316813996215468581",
        "url": "https://www.ixigua.com/7316813996215468581"
    },
    {
        "title": "2900能守住吗？外资不砸盘为什么还是跌，谁在做空",
        "docid": "7316781532306211365",
        "url": "https://www.ixigua.com/7316781532306211365"
    },
    {
        "title": "股市暴跌，房价崩盘，30多年前的日本经济泡沫让无数人背上巨债",
        "docid": "7291393695172002319",
        "url": "https://www.ixigua.com/7291393695172002319"
    },
    {
        "title": "我做首板低吸，学了很多种方法，最后只看这条线",
        "docid": "7316504312446714420",
        "url": "https://www.ixigua.com/7316504312446714420"
    },
    {
        "title": "精工科技：与东华能源签5.5亿元碳纤维装备销售合同",
        "docid": "7316868208828269067",
        "url": ""
    },
    {
        "title": "龙虎榜 | 三峡新材今日涨停，营业部席位合计净买入2101.9万元",
        "docid": "7316837619902726665",
        "url": ""
    },
    {
        "title": "大盘会不会续创新低？要不要分批进场试错？",
        "docid": "7316858170075300392",
        "url": ""
    },
    {
        "title": "张泽辉辞去碳元科技股份有限公司财务负责人职务，担任副董事长、总经理",
        "docid": "7316849110056305179",
        "url": ""
    },
    {
        "title": "深交所：终止对伯特利首次公开发行股票并在主板上市审核",
        "docid": "7316851902782784063",
        "url": ""
    },
    {
        "title": "清水源及董事长、财务总监、时任董秘被监管警示",
        "docid": "7316850519225057855",
        "url": ""
    },
    {
        "title": "龙虎榜丨真视通今日涨停，五机构净卖出9098.75万元",
        "docid": "7316821647581954595",
        "url": ""
    },
    {
        "title": "中航沈飞：拟向控股股东等定增募资不超42亿元，用于沈飞公司局部搬迁建设项目等",
        "docid": "7316857662765859337",
        "url": ""
    },
    {
        "title": "沈阳惠天热电股份有限公司董事兼总经理徐朋业辞职",
        "docid": "7316829025400668687",
        "url": ""
    },
    {
        "title": "华康股份：本次公开发行可转债网上中签号码共有23.97万个",
        "docid": "7316812627085541915",
        "url": ""
    },
    {
        "title": "秦洪看盘｜A股市场震荡再探底",
        "docid": "7316839789893141030",
        "url": ""
    },
    {
        "title": "诺瓦星云原股东0元转让股份，一个月后公司估值500万变成10.7亿元",
        "docid": "7316874156778734130",
        "url": ""
    },
    {
        "title": "12月26日晚间，11公司发布重大利好消息，大A挺起脊梁来啊",
        "docid": "7316821364512490021",
        "url": ""
    },
    {
        "title": "A股基本面完全失效！历史级别的大机会",
        "docid": "7316766958518108713",
        "url": ""
    },
    {
        "title": "刚刚发布，除夕休市！稀缺，业绩增速V型反转，一批优质超跌成长股迎来抄底机会（名单）",
        "docid": "7316876474635223615",
        "url": ""
    },
    {
        "title": "健之佳：全资子公司拟收购红瑞乐邦100%股权",
        "docid": "7316837005844251148",
        "url": ""
    },
    {
        "title": "龙虎榜丨华达科技今日跌停，一机构净买入1.21亿元",
        "docid": "7316827301377819151",
        "url": ""
    },
    {
        "title": "朗姿股份有限公司及子公司本年度累计共收到政府补助1592万元",
        "docid": "7316849927374635531",
        "url": ""
    },
    {
        "title": "A股：不玩了，销户退市了",
        "docid": "7314584704102728244",
        "url": "https://www.ixigua.com/7314584704102728244"
    },
    {
        "title": "连续7天20cm跌停！史上最贵ST股被闷杀！",
        "docid": "7316797021032022566",
        "url": "https://www.ixigua.com/7316797021032022566"
    },
    {
        "title": "华康股份及下属子公司获得政府补助6617万元",
        "docid": "7316852289829618239",
        "url": ""
    },
    {
        "title": "实盘日记：40岁资产到1000万停更，现78万，今天差点停更了",
        "docid": "7313873942471655936",
        "url": ""
    },
    {
        "title": "美股盘前要闻一览",
        "docid": "7316881611290116659",
        "url": ""
    },
    {
        "title": "A股市场：但凡走出“穿针引线”形态，直接启动主升浪加速行情！",
        "docid": "7316825528903418383",
        "url": ""
    },
    {
        "title": "谁在用上塘路马甲赚8千万，借跨年妖抱团行情，明日开始小心砸盘",
        "docid": "7316868840850194959",
        "url": "https://www.ixigua.com/7316868840850194959"
    },
    {
        "title": "游戏产业遭遇“突然袭击”的三大原因",
        "docid": "7316454320655106594",
        "url": "https://www.ixigua.com/7316454320655106594"
    },
    {
        "title": "股民都挣钱了，那谁做贡献，谁赔钱？",
        "docid": "7316472747218403880",
        "url": "https://www.ixigua.com/7316472747218403880"
    },
    {
        "title": "这样的交易者是最可怕可敬的",
        "docid": "7291679233418625570",
        "url": "https://www.ixigua.com/7291679233418625570"
    },
    {
        "title": "好物分享｜大盘跌回2700我们也照赚不误！靠的是耐心！",
        "docid": "7316861541985452594",
        "url": "https://www.ixigua.com/7316861541985452594"
    },
    {
        "title": "A股：跟散户讲一句实话，A股可能再次经历13年的历史",
        "docid": "7316546540251038247",
        "url": ""
    },
    {
        "title": "A股收评：盘后大利好！明天大盘将挑战前低，是风险还是机会？",
        "docid": "7316791835417330188",
        "url": ""
    },
    {
        "title": "最新美专家预测：美股明年将大跌，引来股市震荡",
        "docid": "7316835985818763787",
        "url": ""
    },
    {
        "title": "这是近十年来看到的最有良心的经济学箴言",
        "docid": "7316853830417842707",
        "url": ""
    },
    {
        "title": "重回“下有保底、上不封顶”！上海机场免税业务收费模式再调整",
        "docid": "7316864791430234658",
        "url": ""
    },
    {
        "title": "冰川网络预计2023年净利润同比增106%至172% 多款游戏产品充值流水、收入增加",
        "docid": "7316875525027381786",
        "url": ""
    },
    {
        "title": "短剧游戏概念股元隆雅图：近期经营情况及内外部经营环境均没有发生或预计将要发生重大变化",
        "docid": "7316819813232542219",
        "url": ""
    },
    {
        "title": "国瑞科技因信披违法被投资者提起诉讼，股民仍可报名参与索赔",
        "docid": "7316897347643146762",
        "url": ""
    },
    {
        "title": "沃顿科技：中标4065万元反渗透膜片项目",
        "docid": "7316852549779472931",
        "url": ""
    },
    {
        "title": "沪深交易所：春节不提供港股通服务，2月19日起照常开通港股通服务",
        "docid": "7316856855174218294",
        "url": ""
    },
    {
        "title": "龙虎榜丨三柏硕今日涨停，营业部席位合计净买入3710.15万元",
        "docid": "7316831426928869939",
        "url": ""
    }
]