[
    {
        "title": "新股“不同命”：云星宇打新冻结逾2000亿元，贝隆精密、雪祺电气募资“打折”",
        "docid": "7323954279680033330",
        "url": ""
    },
    {
        "title": "国盛金控拟吸收合并国盛证券",
        "docid": "7323956687767929344",
        "url": ""
    },
    {
        "title": "构建全球一体化网络布局 中化国际加快化工新材料产能出海",
        "docid": "7323960447735710217",
        "url": ""
    },
    {
        "title": "#水哥割股#水刀割股#淘股吧嘉年华#淘股吧实盘赛年会",
        "docid": "7323465729276936742",
        "url": "https://www.ixigua.com/7323465729276936742"
    },
    {
        "title": "【刘纪鹏】教授表示必须振兴股市，并与【吴晓求】教授展开争论",
        "docid": "7321971431489831476",
        "url": "https://www.ixigua.com/7321971431489831476"
    },
    {
        "title": "（宋城演艺投资逻辑）业绩有望增长80倍！！演艺龙头不可错过！！",
        "docid": "7323930684282962486",
        "url": "https://www.ixigua.com/7323930684282962486"
    },
    {
        "title": "炒股前必须看 【系列二】",
        "docid": "7323920879195259402",
        "url": "https://www.ixigua.com/7323920879195259402"
    },
    {
        "title": "XYZC，TYXC",
        "docid": "7323922996131955200",
        "url": "https://www.ixigua.com/7323922996131955200"
    },
    {
        "title": "我是发股票的 你是一个炒股票的 我们不在一个层面",
        "docid": "7323464124166308392",
        "url": "https://www.ixigua.com/7323464124166308392"
    },
    {
        "title": "顶级游资是如何复盘的？炒股养家徒弟倾囊相授！其他地方听不到！",
        "docid": "7323909459473138191",
        "url": "https://www.ixigua.com/7323909459473138191"
    },
    {
        "title": "重要事件！证监会时隔两年首开发布会，释放了什么信号？ #金融",
        "docid": "7323890070447096331",
        "url": "https://www.ixigua.com/7323890070447096331"
    },
    {
        "title": "贺强：量化交易不能盲目发展",
        "docid": "7314189188994171430",
        "url": "https://www.ixigua.com/7314189188994171430"
    },
    {
        "title": "高手止于均线，短线选手如果能看懂这三点，韭菜变高人",
        "docid": "7323081259603722792",
        "url": "https://www.ixigua.com/7323081259603722792"
    },
    {
        "title": "我有一只股票，已持有十年之久！",
        "docid": "7323888302652654130",
        "url": "https://www.ixigua.com/7323888302652654130"
    },
    {
        "title": "烂板成妖，弱转强模式的理解与感悟（1），送给有缘份的股友参考",
        "docid": "7323797115799667237",
        "url": "https://www.ixigua.com/7323797115799667237"
    },
    {
        "title": "经历过几轮牛熊的美女老股民的忠言，对你会有什么启发…",
        "docid": "7323495130005471756",
        "url": "https://www.ixigua.com/7323495130005471756"
    },
    {
        "title": "新旧能源霸主市值对决，中国与宁德时代你会选择谁赢？",
        "docid": "7323602237538697767",
        "url": "https://www.ixigua.com/7323602237538697767"
    },
    {
        "title": "王者交易 #外汇 #金融 #交易",
        "docid": "7323903626257760778",
        "url": "https://www.ixigua.com/7323903626257760778"
    },
    {
        "title": "2024年行情偏好：沪市OR深市，科创板OR创业板，半导体OR新能源？",
        "docid": "7323239239544472116",
        "url": "https://www.ixigua.com/7323239239544472116"
    },
    {
        "title": "罕见！证监会相关负责人喊你进场",
        "docid": "7323834956864553472",
        "url": "https://www.ixigua.com/7323834956864553472"
    },
    {
        "title": "重庆啤酒再布局高端市场 全国开设40多家“火锅+啤酒”体验店",
        "docid": "7323979626786816553",
        "url": ""
    },
    {
        "title": "股市周评：短期A股或将继续磨底",
        "docid": "7323982869230551588",
        "url": ""
    },
    {
        "title": "上午红盘3万块，下午全部跳光了，盯了一看就刚好剩个盒饭钱",
        "docid": "7323173726042882560",
        "url": "https://www.ixigua.com/7323173726042882560"
    },
    {
        "title": "周末利空出清！明天降息利好，盯紧一月份逻辑清晰的光伏和鸿蒙",
        "docid": "7323952591011447346",
        "url": "https://www.ixigua.com/7323952591011447346"
    },
    {
        "title": "下周吃肉方向",
        "docid": "7323749383936147977",
        "url": "https://www.ixigua.com/7323749383936147977"
    },
    {
        "title": "交易亏损不可怕，没有人生来就是交易大师，可怕的是不改变",
        "docid": "7323118395774206498",
        "url": "https://www.ixigua.com/7323118395774206498"
    },
    {
        "title": "坚持住，很快天就会亮",
        "docid": "7321641549765444134",
        "url": "https://www.ixigua.com/7321641549765444134"
    },
    {
        "title": "八字没偏财的千万不要玩股票，必败的死无葬身之地",
        "docid": "7323966752461685311",
        "url": "https://www.ixigua.com/7323966752461685311"
    },
    {
        "title": "2024年利空接连落地了！明天周一会率先反弹的四大板块及龙头逻辑",
        "docid": "7323134241980629541",
        "url": ""
    },
    {
        "title": "浪潮软件股份有限公司关于2024年度向特定对象发行股票预案披露的提示性公告",
        "docid": "7324000076093964826",
        "url": ""
    },
    {
        "title": "股民欲哭无泪！中石油7000亿分红，分给谁了？",
        "docid": "7323892882564514355",
        "url": "https://www.ixigua.com/7323892882564514355"
    },
    {
        "title": "复盘涨停板啊……#股票 #股民 #短线交易",
        "docid": "7295671656809234963",
        "url": "https://www.ixigua.com/7295671656809234963"
    },
    {
        "title": "唐门观点:即使市场股民都赔钱，但还是有人前赴后继当韭菜",
        "docid": "7323864852454343207",
        "url": "https://www.ixigua.com/7323864852454343207"
    },
    {
        "title": "以开盘价全仓买入金龙羽，一直持有至今，其数据表现能让你满意吗",
        "docid": "7323190491070235136",
        "url": "https://www.ixigua.com/7323190491070235136"
    },
    {
        "title": "股市政策静默期，暴风雨前的平静！",
        "docid": "7323117910661333542",
        "url": "https://www.ixigua.com/7323117910661333542"
    },
    {
        "title": "股票分析的一般步骤:深圳市金新农科技股份有限公司#股票分析",
        "docid": "7323984839836303923",
        "url": "https://www.ixigua.com/7323984839836303923"
    },
    {
        "title": "高股息板块跑赢大盘会是常态",
        "docid": "7323981905786192424",
        "url": ""
    },
    {
        "title": "希荻微电子集团股份有限公司 首次公开发行部分限售股上市流通的公告",
        "docid": "7324000135258571276",
        "url": ""
    },
    {
        "title": "V观财报｜赛恩斯被问询：向关联方输送利益？",
        "docid": "7323981887712641587",
        "url": ""
    },
    {
        "title": "复盘牛股赛力斯",
        "docid": "7323553732866769435",
        "url": "https://www.ixigua.com/7323553732866769435"
    },
    {
        "title": "一招鲜，吃遍天！学会弱转强，你也能满手涨停！",
        "docid": "7323908043715510810",
        "url": "https://www.ixigua.com/7323908043715510810"
    },
    {
        "title": "高手为什么都用裸K，而不是技术指标？一条视频让你彻底领悟！",
        "docid": "7322300731733017138",
        "url": "https://www.ixigua.com/7322300731733017138"
    },
    {
        "title": "刘教授谈我们的市场还能不能发展？#股市 #传递正能量 #上证指数",
        "docid": "7318385647868510754",
        "url": "https://www.ixigua.com/7318385647868510754"
    },
    {
        "title": "一心堂药业集团股份有限公司 关于为全资子公司向银行申请授信额度 提供担保的进展公告",
        "docid": "7324000069005722163",
        "url": ""
    },
    {
        "title": "广州环投永兴集团股份有限公司首次公开发行股票并在主板上市发行结果公告",
        "docid": "7324000155986887220",
        "url": ""
    },
    {
        "title": "贝隆精密科技股份有限公司 首次公开发行股票并在创业板上市 之上市公告书提示性公告",
        "docid": "7324000166800097807",
        "url": ""
    },
    {
        "title": "3年跌51%!如果A股创业板这一条不变!恐像香港创业板一样暴跌99%?",
        "docid": "7323413903986295334",
        "url": "https://www.ixigua.com/7323413903986295334"
    },
    {
        "title": "一口气看完，终于明白时间才是检验真理的唯一标准.100万洋河股份",
        "docid": "7323057160311538216",
        "url": "https://www.ixigua.com/7323057160311538216"
    },
    {
        "title": "封板回调是入场时机吗？",
        "docid": "7323893604630397494",
        "url": "https://www.ixigua.com/7323893604630397494"
    },
    {
        "title": "只要有人讲清楚股票涨价逻辑的核心了，两分钟听懂！",
        "docid": "7323138932186317347",
        "url": "https://www.ixigua.com/7323138932186317347"
    },
    {
        "title": "烂板成妖，弱转强模式的理解与感悟（3），纠偏与强化一直相伴。",
        "docid": "7323837930722722331",
        "url": "https://www.ixigua.com/7323837930722722331"
    },
    {
        "title": "如何从一亿亏成百万？#A股",
        "docid": "7320612902870876698",
        "url": "https://www.ixigua.com/7320612902870876698"
    },
    {
        "title": "山东黄金矿业股份有限公司 关于董事辞职的公告",
        "docid": "7324000029801497103",
        "url": ""
    },
    {
        "title": "电力设备走势结构简析 1.13",
        "docid": "7323532965269799487",
        "url": "https://www.ixigua.com/7323532965269799487"
    },
    {
        "title": "遇到这种特殊2连阴，可能就是主升浪要来了",
        "docid": "7322664298772824591",
        "url": "https://www.ixigua.com/7322664298772824591"
    },
    {
        "title": "2024年A股会怎么走，看完明确明年方向。",
        "docid": "7317965679037645322",
        "url": "https://www.ixigua.com/7317965679037645322"
    },
    {
        "title": "震惊！压垮大A牛市的三座大山，彻底被曝光！",
        "docid": "7307536829106881059",
        "url": "https://www.ixigua.com/7307536829106881059"
    },
    {
        "title": "A股:被套20%，六种方式，不仅解套还赚50%!",
        "docid": "7320526565903696424",
        "url": "https://www.ixigua.com/7320526565903696424"
    },
    {
        "title": "A股兵败如山倒，必须刮骨疗毒，否则可能沦为A股退。",
        "docid": "7320821059786113577",
        "url": "https://www.ixigua.com/7320821059786113577"
    },
    {
        "title": "超百亿罚单！蚂蚁、腾讯双双被罚，股价不降反增释放了什么信号？",
        "docid": "7322682168344314419",
        "url": "https://www.ixigua.com/7322682168344314419"
    },
    {
        "title": "限售股融券禁止了，利好那么多！为什么还有那么多筹码抛售砸盘？",
        "docid": "7323886230628893224",
        "url": "https://www.ixigua.com/7323886230628893224"
    },
    {
        "title": "大霄只能研究 稳市还靠德龙 C位属于黄进 #大霄说市 #大咖观察",
        "docid": "7320892990082581007",
        "url": "https://www.ixigua.com/7320892990082581007"
    },
    {
        "title": "2024年就算大盘跌到2600，这三个方向也将涨停！躺在床上看他涨！",
        "docid": "7323621516678169139",
        "url": "https://www.ixigua.com/7323621516678169139"
    },
    {
        "title": "周末这么大的利空，明天我都不敢想",
        "docid": "7323842266101973539",
        "url": "https://www.ixigua.com/7323842266101973539"
    },
    {
        "title": "炒股9年亏损8年，掌握短线战法“关键K线”现在稳定盈利",
        "docid": "7323380451668820507",
        "url": "https://www.ixigua.com/7323380451668820507"
    },
    {
        "title": "早盘竞价细节决定当天成败，抓住这三种走势形态，开盘秒下班！",
        "docid": "7323117068520915506",
        "url": "https://www.ixigua.com/7323117068520915506"
    },
    {
        "title": "四年持有五粮液股票大赚八十万的一个上班族",
        "docid": "7323290748181447183",
        "url": "https://www.ixigua.com/7323290748181447183"
    },
    {
        "title": "5个月赔10.2万😭😭\n气得手都抖😭",
        "docid": "7293134557841359370",
        "url": "https://www.ixigua.com/7293134557841359370"
    },
    {
        "title": "揭示A股长期艰难最根本原因，散户可利用资本隐秘规律夹缝中赚钱",
        "docid": "7323433138536284708",
        "url": "https://www.ixigua.com/7323433138536284708"
    },
    {
        "title": "A股连续下跌出现降速，止跌信号并未出现，下周能否出低点结构？",
        "docid": "7323769526049309219",
        "url": "https://www.ixigua.com/7323769526049309219"
    },
    {
        "title": "高层终于动真格了，空头大本营中信被查，下周券商或将王者归来",
        "docid": "7323672866333917696",
        "url": "https://www.ixigua.com/7323672866333917696"
    },
    {
        "title": "令人心动的涨停骗局，鱼虾也能充当大鲸鱼",
        "docid": "7315360590359331338",
        "url": "https://www.ixigua.com/7315360590359331338"
    },
    {
        "title": "股民看了都流泪",
        "docid": "7323481908644741695",
        "url": "https://www.ixigua.com/7323481908644741695"
    },
    {
        "title": "韭菜老公炒股就是这样子的，才红一天，第二天又绿回去更多",
        "docid": "7323052866741436955",
        "url": "https://www.ixigua.com/7323052866741436955"
    },
    {
        "title": "厚颜无耻，有本事亮出实战！",
        "docid": "7309779036421489215",
        "url": "https://www.ixigua.com/7309779036421489215"
    },
    {
        "title": "炒股遇上倍阳突破倍阴缩，那就打起精神，它告诉你它要飞了。",
        "docid": "7323875352265097763",
        "url": "https://www.ixigua.com/7323875352265097763"
    },
    {
        "title": "华尔街幽灵（第七章）",
        "docid": "7323782565260132890",
        "url": "https://www.ixigua.com/7323782565260132890"
    },
    {
        "title": "盼美股跌？看看有什么好处？苹果被两次唱空，时代变了？还不一定",
        "docid": "7320571310843626003",
        "url": "https://www.ixigua.com/7320571310843626003"
    },
    {
        "title": "2024第二周，持续缩量，行情的拐点要到了吗？",
        "docid": "7323768042356212239",
        "url": "https://www.ixigua.com/7323768042356212239"
    },
    {
        "title": "AI有声书,股票大作手回忆录 第5章 深入思考 相機而動",
        "docid": "7323866068139803155",
        "url": "https://www.ixigua.com/7323866068139803155"
    },
    {
        "title": "弱市超短，七天亏损13万学到的技术",
        "docid": "7323144096867058202",
        "url": "https://www.ixigua.com/7323144096867058202"
    },
    {
        "title": "1月14日 下周大概率继续下跌的原因",
        "docid": "7323874677096055335",
        "url": "https://www.ixigua.com/7323874677096055335"
    },
    {
        "title": "央视财经专家发言惹众怒！严重违反投资常识！背后原因为哪何？",
        "docid": "7317927360954565139",
        "url": "https://www.ixigua.com/7317927360954565139"
    },
    {
        "title": "中颖电子深度剖析：未来前景与投资价值",
        "docid": "7324077997634404873",
        "url": ""
    },
    {
        "title": "陆家嘴大佬揭秘，学会6种底部形态，小散变牛散",
        "docid": "7324023224780620323",
        "url": "https://www.ixigua.com/7324023224780620323"
    },
    {
        "title": "你一年喝几瓶茅台？#茅台 #崩盘",
        "docid": "7320169096799060492",
        "url": "https://www.ixigua.com/7320169096799060492"
    },
    {
        "title": "股票在上升途中，一旦出现这种光脚K线，低吸捕捉连板妖股！",
        "docid": "7323210349933658661",
        "url": "https://www.ixigua.com/7323210349933658661"
    },
    {
        "title": "大A再创新低，竟是一个阴谋！！",
        "docid": "7323143385005425187",
        "url": "https://www.ixigua.com/7323143385005425187"
    },
    {
        "title": "亚某太和中某晟的问题解答。#股票 #交易 #屠龙刀战法",
        "docid": "7323882152272069130",
        "url": "https://www.ixigua.com/7323882152272069130"
    },
    {
        "title": "资本“偷家”",
        "docid": "7323973066911351347",
        "url": "https://www.ixigua.com/7323973066911351347"
    },
    {
        "title": "3年从巨亏到巨赚，我只坚持：\"并列阴线满仓买，并列阴线清仓卖\"",
        "docid": "7323818135650468371",
        "url": "https://www.ixigua.com/7323818135650468371"
    },
    {
        "title": "周末突发两大超级王炸，其中一条值得深思两亿散户最后的春天来了",
        "docid": "7323911893335966227",
        "url": "https://www.ixigua.com/7323911893335966227"
    },
    {
        "title": "1.12板块解读：中船系，国产软件，光伏，电力，减速器，证券等",
        "docid": "7323191792940089883",
        "url": "https://www.ixigua.com/7323191792940089883"
    },
    {
        "title": "现在全部卖出规避风险可以吗？ #股票 #股民交流 #财经",
        "docid": "7322293655375610407",
        "url": "https://www.ixigua.com/7322293655375610407"
    },
    {
        "title": "2024要明白：当A股熊市，危害到所有利益集团利益时，就要反转了",
        "docid": "7322011307698618917",
        "url": "https://www.ixigua.com/7322011307698618917"
    },
    {
        "title": "你是合格交易者吗",
        "docid": "7323152247159063079",
        "url": "https://www.ixigua.com/7323152247159063079"
    },
    {
        "title": "A股再现长达6年财务造假公司，漏洞不除，牛市不会来！还要跌？",
        "docid": "7321642712086610447",
        "url": "https://www.ixigua.com/7321642712086610447"
    },
    {
        "title": "资本市场是中国崛起的主战场",
        "docid": "7297901589828731407",
        "url": "https://www.ixigua.com/7297901589828731407"
    },
    {
        "title": "2024年，大概率是牛市！",
        "docid": "7323082810338902554",
        "url": "https://www.ixigua.com/7323082810338902554"
    },
    {
        "title": "OBV双线捕捉最安全的买点，找到低位小红星精准抄底，买入即拉升",
        "docid": "7323126833892098614",
        "url": "https://www.ixigua.com/7323126833892098614"
    },
    {
        "title": "王德培教授谈股市的问题",
        "docid": "7323235617562624550",
        "url": "https://www.ixigua.com/7323235617562624550"
    },
    {
        "title": "全球主要股市年内涨幅排行，A股暂时垫底，明年有望反超！",
        "docid": "7304792666183696908",
        "url": ""
    },
    {
        "title": "中国中免，宁德时代一路下跌，一直创新低，这些大白马到底怎么了",
        "docid": "7308030335105745443",
        "url": ""
    },
    {
        "title": "我尽力了，股市分析其实有很多制约",
        "docid": "7288966214188384829",
        "url": ""
    },
    {
        "title": "同样是3000点以下，前面很快就收复，为什么这次这么久？",
        "docid": "7323468954045776420",
        "url": ""
    },
    {
        "title": "2023十大熊股：中国中免登顶 隆基绿能上榜",
        "docid": "7317962327293641267",
        "url": ""
    },
    {
        "title": "关于A股，网上看看到的最扎心的两句感言！",
        "docid": "7321182860109464064",
        "url": ""
    },
    {
        "title": "一位退役操盘手良心赠言：散户死拿着股票不撒手，庄家会怎么办？",
        "docid": "7312627262338253364",
        "url": ""
    },
    {
        "title": "中国股市：终有一天你会明白，其实稳定的盈利方法没那么花里胡哨",
        "docid": "7323077621192229427",
        "url": ""
    },
    {
        "title": "一天吃透一家上市公司：万华化学",
        "docid": "7300901086171300392",
        "url": ""
    },
    {
        "title": "股市晚评：骨折！",
        "docid": "7322752700012315163",
        "url": ""
    },
    {
        "title": "太惨了，连跌10个月，从62元跌到14，跌幅高达74%，这还怎么玩！",
        "docid": "7322639290171818511",
        "url": ""
    },
    {
        "title": "收购国内全部钢铁公司？宝钢股份回应！",
        "docid": "7321642425439601192",
        "url": ""
    },
    {
        "title": "每天吃透一家上市公司：小鹏",
        "docid": "7312798261444788751",
        "url": ""
    },
    {
        "title": "固态电池技术是颠覆性的,市场空间巨大;其概念股一览",
        "docid": "7323510787455451700",
        "url": ""
    },
    {
        "title": "13万股民要嗨？500亿巨头业绩大爆发",
        "docid": "7322875244786614821",
        "url": ""
    },
    {
        "title": "下跌不言底！赣锋锂业、金龙鱼、通策医疗曾经的高大上已荡然无存",
        "docid": "7300769666417312295",
        "url": ""
    },
    {
        "title": "黄斌汉：68万亿资管仅2成炒股，干财太多，A股随时井喷！",
        "docid": "7321327370727031307",
        "url": ""
    },
    {
        "title": "一张图看懂锂电产业链及上市公司！",
        "docid": "7304850108930310665",
        "url": ""
    },
    {
        "title": "我，76年杭州女人，辛苦赚到百万，因一时贪念，被股市割了韭菜",
        "docid": "7322997008367911433",
        "url": ""
    },
    {
        "title": "一体化压铸：在华为、小米、特斯拉等押注后将大爆发！增长386%",
        "docid": "7317602460267233826",
        "url": ""
    },
    {
        "title": "一场类似1987年股市崩盘的可能性有多大？也许比你想象中要大的多",
        "docid": "7291400103556858422",
        "url": ""
    },
    {
        "title": "机构扎堆增持，这几个公司什么逻辑？",
        "docid": "7323160610395865626",
        "url": ""
    },
    {
        "title": "外资看好中国股市！高盛预计沪深300指数2024年回报率为19% 瑞银称A股最坏时间已过",
        "docid": "7322280316109095443",
        "url": ""
    },
    {
        "title": "立讯精密率先发布23年业绩预告，从三个维度进行估值分析",
        "docid": "7320073201122411048",
        "url": ""
    },
    {
        "title": "中国股市：跨境电商+短剧游戏+国企改革+多模态AI等概念龙头汇总",
        "docid": "7313022963190710835",
        "url": ""
    },
    {
        "title": "中国软件：一家“神奇”的企业！",
        "docid": "7319754872214635034",
        "url": ""
    },
    {
        "title": "发生事故的河南平顶山煤矿企业什么背景？",
        "docid": "7323239758023737890",
        "url": ""
    },
    {
        "title": "医药龙头、医疗龙头、中药龙头性价比排名，依据DCF估值",
        "docid": "7088854192349069827",
        "url": ""
    },
    {
        "title": "42只银行股在2023年表现得如何？谁的涨幅最高？谁的分红最优厚？",
        "docid": "7318692057005195827",
        "url": ""
    },
    {
        "title": "炒股从50万炒到960万，只因反复死啃：不冲高不卖，不跳水不买！",
        "docid": "7314967974862029347",
        "url": ""
    },
    {
        "title": "新疆自贸区概念股一览",
        "docid": "7296149179024392714",
        "url": ""
    },
    {
        "title": "不出意外！历史会重演，2024年没有“熊市”了？",
        "docid": "7323486814864884224",
        "url": ""
    },
    {
        "title": "中国股市：长期持有一只股票，反复做T，看完大彻大悟",
        "docid": "7296007659738628659",
        "url": ""
    },
    {
        "title": "桂林银行的近况",
        "docid": "7292072481538540068",
        "url": ""
    },
    {
        "title": "越跌越买，逾900亿资金火热“抄底”",
        "docid": "7324089003626775080",
        "url": ""
    },
    {
        "title": "机构开年忙飞了！一周跑240家公司；“天价离婚”股价重挫，490人紧急调研“东北药茅”",
        "docid": "7323814544068198951",
        "url": ""
    },
    {
        "title": "股市晚评：气到不想说话！",
        "docid": "7313829933598556723",
        "url": ""
    },
    {
        "title": "资源股的牛市，可能才刚刚开始（一）！",
        "docid": "7307250097392452148",
        "url": ""
    },
    {
        "title": "安泰集团：预计2023年亏损6.3亿元",
        "docid": "7323970439570014759",
        "url": ""
    },
    {
        "title": "四川长虹换帅完成工商变更 柳江任四川长虹董事长",
        "docid": "7321654603005870629",
        "url": ""
    },
    {
        "title": "合同诈骗“帮助犯”？金龙鱼子公司收刑事起诉书，子公司称不认同指控罪名",
        "docid": "7323915323546010164",
        "url": ""
    },
    {
        "title": "广誉远被立案背后：亿元应收账款成谜",
        "docid": "7323299716404576820",
        "url": ""
    },
    {
        "title": "A股港股，黎明前的黑暗？还是萧条下的阴跌？",
        "docid": "7315757906891112969",
        "url": ""
    },
    {
        "title": "知名私募最新操作曝光，积极加仓低估值标的",
        "docid": "7324084533886796351",
        "url": ""
    },
    {
        "title": "知名酒企宣布：涨价！",
        "docid": "7323903046977651237",
        "url": ""
    },
    {
        "title": "开盘：A股三大指数低开沪指跌0.33%，粮食概念表现抢眼",
        "docid": "7324131297822261812",
        "url": ""
    },
    {
        "title": "融资最新持仓曝光！减仓电气设备、汽车、计算机",
        "docid": "7324122129212244518",
        "url": ""
    },
    {
        "title": "散户做好预期！A股，周一（1月15日）大盘会这样走！",
        "docid": "7323889459522077224",
        "url": ""
    },
    {
        "title": "太突然！2/3董事会成员辞职，这家A股公司怎么了？",
        "docid": "7324108857578635827",
        "url": ""
    },
    {
        "title": "A股：如果出现这些“逃顶信号”，跑得慢就是一碗大面！",
        "docid": "7320556535045800485",
        "url": ""
    },
    {
        "title": "科威特投资局被深套，这些股票能抄底吗？",
        "docid": "7323477016199135781",
        "url": ""
    },
    {
        "title": "梅西卖酒上热搜，史丹利品牌总监出手？",
        "docid": "7323796158642700819",
        "url": ""
    },
    {
        "title": "山东上市公司一周热度榜 | 北证50指数下挫！北交所个股领跌鲁股",
        "docid": "7324124553717056052",
        "url": ""
    },
    {
        "title": "巨亏13亿，套现19亿！“中国前首富”掉进浙江“经营大师”的深坑？ ▏直通浙股",
        "docid": "7321557410886353434",
        "url": ""
    },
    {
        "title": "山东黄金、银泰黄金高管辞职  调查称二人存在违反生活纪律问题",
        "docid": "7323942772677853730",
        "url": ""
    },
    {
        "title": "千亿房企，连续33个跌停，从43.69跌到0.22，里面散户该怎么办？",
        "docid": "7323813528698126900",
        "url": ""
    },
    {
        "title": "2869，今天会创新低吗，已经25天没有创作收益了，好后悔",
        "docid": "7324134217682666024",
        "url": ""
    },
    {
        "title": "越老越值钱的水电股，是我投资的最爱",
        "docid": "7311596939286970930",
        "url": ""
    },
    {
        "title": "股市教你最笨却最赚钱的方法：反复牢记\"锤子线买进，上吊线卖出\"",
        "docid": "7300153832829698598",
        "url": ""
    },
    {
        "title": "逾250家上市公司跟审计机构“分手”：非标股票要警惕，是否购买审计意见遭关注",
        "docid": "7324100769769128487",
        "url": ""
    },
    {
        "title": "牧之野：扶不起的阿斗",
        "docid": "7308767983529394726",
        "url": ""
    },
    {
        "title": "股价如此“低估”股东还要折价减持，问题出在哪里了？",
        "docid": "7323019718800900635",
        "url": ""
    },
    {
        "title": "中金公司：不必过于悲观，短期扰动不改长局",
        "docid": "7324094927871312384",
        "url": ""
    },
    {
        "title": "A股三大股指集体低开，冰雪旅游概念全线回调",
        "docid": "7324131356819194379",
        "url": ""
    },
    {
        "title": "IPO周报｜本周3新股申购，中国机械总院旗下物流公司来了",
        "docid": "7324113203523355155",
        "url": ""
    },
    {
        "title": "文旅板块低开高走，西安旅游垂直封板",
        "docid": "7324133035367301641",
        "url": ""
    },
    {
        "title": "最新！湖南公布73家拟上市公司",
        "docid": "7322778753154089481",
        "url": ""
    },
    {
        "title": "A股困局：全面注册制下，为何还要暂停IPO，定价体系混乱才是根源",
        "docid": "7322286270053696050",
        "url": ""
    },
    {
        "title": "A股正在失去全球投资者的目光？",
        "docid": "7323224505571705407",
        "url": ""
    },
    {
        "title": "2024年，至少500点以上的大涨即将展开（十大预言）",
        "docid": "7318956788836287014",
        "url": ""
    },
    {
        "title": "A股高股息资产“画像”：连续数年跑赢大盘",
        "docid": "7324080448705954341",
        "url": ""
    },
    {
        "title": "这两年我为什么没有重仓？需要大的确定性，不怕不动就怕乱动",
        "docid": "7323576817011753472",
        "url": ""
    },
    {
        "title": "今日2只新股申购：上交所主板盛景微、创业板美信科技",
        "docid": "7324094864055403049",
        "url": ""
    },
    {
        "title": "中国股市：如果涨停板反复打开，意味着什么？没吃透的请不要炒股",
        "docid": "7297496655891317282",
        "url": ""
    },
    {
        "title": "多重风险因素相伴，周一A股将继续走低吗？我来解开这个谜底",
        "docid": "7324110911181472296",
        "url": ""
    },
    {
        "title": "今日申购指南及新股定位分析",
        "docid": "7324100868662723106",
        "url": ""
    },
    {
        "title": "中化国际业绩预亏超16亿元 上交所火速下发监管工作函",
        "docid": "7323956684890882598",
        "url": ""
    },
    {
        "title": "马云耗资283亿买进，如今股价一路下跌，从74.84元跌到1.84元！",
        "docid": "7323853494404940340",
        "url": ""
    },
    {
        "title": "6.6亿罚款后，股民才是受害者",
        "docid": "7324118508881904166",
        "url": ""
    },
    {
        "title": "A股三大指数全数翻红 此前创业板指跌超1%",
        "docid": "7324153463322100258",
        "url": ""
    },
    {
        "title": "A股三大指数集体低开，海普瑞跌超5%",
        "docid": "7324136385328431653",
        "url": ""
    },
    {
        "title": "ST股速查-“一元甩资、免债十亿”*ST天沃的前世今生（002564）",
        "docid": "7324096058966245900",
        "url": ""
    },
    {
        "title": "券商股震荡反弹 国盛金控涨停",
        "docid": "7324153651155501608",
        "url": ""
    },
    {
        "title": "多胎概念拉升，西陇科学涨停",
        "docid": "7324135098930987583",
        "url": ""
    },
    {
        "title": "英伟达+人工智能+无人驾驶+芯片概念股最火爆！一批机器人概念股被盯上",
        "docid": "7323534389323956745",
        "url": ""
    },
    {
        "title": "1月14日机构推荐22只个股 常润股份等获机构首次关注",
        "docid": "7324120606579114507",
        "url": ""
    },
    {
        "title": "北向资金上周净卖出24.39亿元，减持酿酒行业近15亿元（名单）",
        "docid": "7324115833532613120",
        "url": ""
    },
    {
        "title": "*ST商城录得15天13板",
        "docid": "7324139966747902502",
        "url": ""
    },
    {
        "title": "医药股逆势走强，共同药业大涨逾10%",
        "docid": "7324135474669339148",
        "url": ""
    },
    {
        "title": "28只港股1月12日获公司回购，腾讯控股回购金额最大",
        "docid": "7324126825284747812",
        "url": ""
    },
    {
        "title": "公元股份连收5个涨停板",
        "docid": "7324134803652215307",
        "url": ""
    },
    {
        "title": "严监管财务造假、违规减持等六方面，上交所2023年处分了这些公司",
        "docid": "7323201658022920731",
        "url": ""
    },
    {
        "title": "主力资金监控：公元股份净卖出超2亿元",
        "docid": "7324154417593893411",
        "url": ""
    },
    {
        "title": "钮文新：股市是投资市场还是融资市场？——不能把方法和结果混为一谈",
        "docid": "7312389897368060452",
        "url": ""
    },
    {
        "title": "快讯：港股恒指涨0.08% 科指跌0.32%百度跌超5%",
        "docid": "7324131586478178851",
        "url": ""
    },
    {
        "title": "徐小明：不变应万变",
        "docid": "7296726523846033930",
        "url": ""
    },
    {
        "title": "贵州茅台、长春高新等16股上周获融资净买入超亿元",
        "docid": "7324131990616310312",
        "url": ""
    },
    {
        "title": "A股三大指数全线转涨，创业板指早盘一度跌近1.3%",
        "docid": "7324146039609983527",
        "url": ""
    },
    {
        "title": "西陇科学录得6天3板",
        "docid": "7324139980304122395",
        "url": ""
    },
    {
        "title": "“H18远洋1”拟再次展期：6月底前支付2亿元本金，剩余15亿展期至2026年6月",
        "docid": "7323837570490991156",
        "url": ""
    },
    {
        "title": "86家公司全年业绩预增",
        "docid": "7324129651205390884",
        "url": ""
    },
    {
        "title": "建材板块盘中拉升，耀皮玻璃等多股涨停，建材ETF（159745）涨超1.4%",
        "docid": "7323030440305017378",
        "url": ""
    },
    {
        "title": "直击CES|中国清洁电器龙头如何在iRobot“家门口”抢食？",
        "docid": "7323185315911615003",
        "url": ""
    },
    {
        "title": "1月15日消息，多家公司发布重大利好消息，本周核心看点必知道",
        "docid": "7323948199826195007",
        "url": ""
    },
    {
        "title": "西安旅游拟定增募资6亿元扩建酒店，主业已连亏十年",
        "docid": "7323907568672653876",
        "url": ""
    },
    {
        "title": "三轮问询后被中止 军信股份重大资产重组遇波折",
        "docid": "7324139765819884086",
        "url": ""
    },
    {
        "title": "可转债2024：供需不平衡或进一步演绎",
        "docid": "7324086040229200411",
        "url": ""
    },
    {
        "title": "42家创业板公司2023年度业绩亮相 50.00%预增",
        "docid": "7324129654314353191",
        "url": ""
    },
    {
        "title": "宏观数据落地！股市行情要来了吗？——极简投研",
        "docid": "7323541359393440310",
        "url": ""
    },
    {
        "title": "两市融资余额减少50.55亿元，合计15686.12亿元",
        "docid": "7324119997150708239",
        "url": ""
    },
    {
        "title": "十三家公司业绩预增、一公司业绩大涨649.77%，一公司净利68.6亿",
        "docid": "7324065961848635942",
        "url": ""
    },
    {
        "title": "第310篇 重创“A师”，殉爆金融!想得美，红旗阵地好汉无数！",
        "docid": "7324162462583505420",
        "url": ""
    },
    {
        "title": "自主研发方向异动！芯片ETF（159995）直线飙升，斯达半导大涨7.49%",
        "docid": "7324142280452424227",
        "url": ""
    },
    {
        "title": "资金流向周报丨隆基绿能、贵州茅台、赛力斯上周获融资资金买入排名前三，隆基绿能获买入金额近21亿元",
        "docid": "7324162321226416690",
        "url": ""
    },
    {
        "title": "截至11:30，亚太主要股市多数上涨",
        "docid": "7324163557720441384",
        "url": ""
    },
    {
        "title": "金龙羽录得7天5板",
        "docid": "7324145139671794202",
        "url": ""
    },
    {
        "title": "北摩高科与子公司创始人“交恶”，分拆上市陷僵局，少数股东决定退出",
        "docid": "7324135760758653450",
        "url": ""
    },
    {
        "title": "上新！第十五届中国上市公司投资者关系天马奖评选来了！",
        "docid": "7324127302881870347",
        "url": ""
    },
    {
        "title": "沪指收复2900点关口",
        "docid": "7324154562020459018",
        "url": ""
    },
    {
        "title": "主力资金青睐这5大概念板块",
        "docid": "7324147220776632851",
        "url": ""
    },
    {
        "title": "12家公司业绩快报抢先看",
        "docid": "7324129655345480255",
        "url": ""
    },
    {
        "title": "集体翻红，新能源车ETF（515030）触底回升，中国宝安领涨",
        "docid": "7324157760302629428",
        "url": ""
    },
    {
        "title": "传媒板块震荡走高 龙版传媒涨停",
        "docid": "7324142060980879906",
        "url": ""
    },
    {
        "title": "午评：A股缩量上涨，诱多还是真涨？盘面一共有3个看点。",
        "docid": "7324159110247678490",
        "url": ""
    },
    {
        "title": "白酒板块午盘拉升 贵州茅台股价小幅微增",
        "docid": "7324168065975878163",
        "url": ""
    },
    {
        "title": "130只科创板股获北向资金加仓",
        "docid": "7324129661196173860",
        "url": ""
    },
    {
        "title": "沪指半日涨0.36%  券商股走高",
        "docid": "7324177842294555163",
        "url": ""
    },
    {
        "title": "上周博隆技术、雪祺电气打新收益过万元，本周美信科技等三只新股可申购",
        "docid": "7324124151281730086",
        "url": ""
    },
    {
        "title": "港股早盘回落 恒生科技创新低",
        "docid": "7324141296174940713",
        "url": ""
    },
    {
        "title": "港股午评：恒生科技指数跌1.75% 百度集团跌超10%",
        "docid": "7324170894132118057",
        "url": ""
    },
    {
        "title": "零售板块走势活跃，茂业商业斩获3连板，国光连锁等涨停",
        "docid": "7324155439518990900",
        "url": ""
    },
    {
        "title": "新年以来半数新股首日翻倍！本周3股将申购",
        "docid": "7324116718165443109",
        "url": ""
    },
    {
        "title": "小鹏汽车跌近8%！港股汽车股下挫",
        "docid": "7324183015893598729",
        "url": ""
    },
    {
        "title": "日本股市走强，日经ETF、日经225ETF易方达涨超2%",
        "docid": "7324188914397626890",
        "url": ""
    },
    {
        "title": "恒生科技指数创新低，乐华娱乐大跌25.26%",
        "docid": "7324185320222917161",
        "url": ""
    },
    {
        "title": "好想你：2024年将继续深挖送礼场景和文化属性，不断丰富产品矩阵",
        "docid": "7324138455976624652",
        "url": ""
    },
    {
        "title": "摩根士丹利上调小米集团目标价",
        "docid": "7324150617181372954",
        "url": ""
    },
    {
        "title": "氢能板块走高，华电重工拉升逼近涨停",
        "docid": "7324156995182117416",
        "url": ""
    },
    {
        "title": "财联社午报",
        "docid": "7324171130359923226",
        "url": ""
    },
    {
        "title": "北京航天长峰股份有限公司及所属子公司获得政府补助144万元",
        "docid": "7324171828245594664",
        "url": ""
    },
    {
        "title": "长白山录得10天8板",
        "docid": "7324142558383342115",
        "url": ""
    },
    {
        "title": "V观财报｜海普瑞遭遇电诈，近1亿没了！电话无法接通，还有三大疑点",
        "docid": "7324187920788275721",
        "url": ""
    },
    {
        "title": "亚太主要股市午间多数上涨，日经225指数涨0.97%",
        "docid": "7324167821725123108",
        "url": ""
    },
    {
        "title": "杨德龙：中国GDP达到美国的70% 股市市值只有美国股市的20% 说明当前A股被严重低估",
        "docid": "7324155802053689875",
        "url": ""
    },
    {
        "title": "沪指半日涨0.36%，旅游酒店股走强",
        "docid": "7324167290675642880",
        "url": ""
    },
    {
        "title": "深中华A连收5个涨停板",
        "docid": "7324137389545570857",
        "url": ""
    },
    {
        "title": "中国软件国际：拟继续回购不超15亿港元公司股份",
        "docid": "7324113287955006004",
        "url": ""
    },
    {
        "title": "新股速递：新一周迎3只新股申购，智能物流系统解决方案供应商登陆A股",
        "docid": "7324127794198512138",
        "url": ""
    },
    {
        "title": "安琪酵母股份有限公司及控股子公司收到政府补助1.1亿元",
        "docid": "7324168043868619304",
        "url": ""
    },
    {
        "title": "市场底部“抢反弹”，当下投资创业板的又一种“打开方式”",
        "docid": "7324179348003947042",
        "url": ""
    },
    {
        "title": "新股前瞻|销售及营销费用占比高达46%，中企云链新增长点暂未显现",
        "docid": "7324157819950121510",
        "url": ""
    },
    {
        "title": "杠杆资金连续六日减仓创业板股",
        "docid": "7324145144004067880",
        "url": ""
    },
    {
        "title": "绿康生化连收3个涨停板",
        "docid": "7324134799944499748",
        "url": ""
    },
    {
        "title": "创业板两融余额减少8.51亿元",
        "docid": "7324129654799909388",
        "url": ""
    },
    {
        "title": "上市五年，连续财务造假五年，从53元跌到1元，或将被强制退市！",
        "docid": "7321938582816670258",
        "url": ""
    },
    {
        "title": "行业风口丨主力资金连续5日\"加仓\"零售板块，春节旺季能否进一步催化行情？多家机构提到这条细分主线",
        "docid": "7324211280985063962",
        "url": ""
    },
    {
        "title": "今日83只个股跨越牛熊分界线",
        "docid": "7324173479979680292",
        "url": ""
    },
    {
        "title": "房地产开发板块水下拉起，迪马股份封板涨停",
        "docid": "7324145904297787923",
        "url": ""
    },
    {
        "title": "盛景微开启申购：募资总额约9.6亿元，张永刚、殷婷夫妇为实控人",
        "docid": "7324195812643619340",
        "url": ""
    },
    {
        "title": "猪肉股午后继续下探，华统股份跌超4%",
        "docid": "7324189178022265378",
        "url": ""
    },
    {
        "title": "华金证券：当前医药行业处于筑底阶段",
        "docid": "7324190240569393690",
        "url": ""
    },
    {
        "title": "【盘中播报】27只A股封板 商贸零售行业涨幅最大",
        "docid": "7324150283783668265",
        "url": ""
    },
    {
        "title": "16股获融资客逆市净买入超3000万元",
        "docid": "7324137386949657129",
        "url": ""
    },
    {
        "title": "融资客看好5股 买入占成交超三成",
        "docid": "7324145138094506559",
        "url": ""
    },
    {
        "title": "赫美集团涨停，拟设立控股子公司涉足氢能源产业",
        "docid": "7324136596285047336",
        "url": ""
    },
    {
        "title": "A股：又开始作怪了，再这样子下去，下午会不会出现冲高回落？",
        "docid": "7324159308542362131",
        "url": ""
    },
    {
        "title": "华为鸿蒙板块起飞，多位选手上车吃涨停！半导体行业出现一大利好！",
        "docid": "7324199510572368422",
        "url": ""
    },
    {
        "title": "下降趋势不可避免？“管材龙头”强调：房地产竣工量与装修需求是两个概念",
        "docid": "7324212113483170341",
        "url": ""
    },
    {
        "title": "*ST左江午后短线拉升，盘中涨超12%",
        "docid": "7324201054944559631",
        "url": ""
    },
    {
        "title": "AI概念港股跌幅扩大 百度跌近12%",
        "docid": "7324208033008239158",
        "url": ""
    },
    {
        "title": "三次闯资本市场！支付“小巨头”连连数科有点“虚胖”？",
        "docid": "7324202863930900992",
        "url": ""
    },
    {
        "title": "105只股中线走稳 站上半年线",
        "docid": "7324204396580061731",
        "url": ""
    },
    {
        "title": "上市一年“大变脸”，天然气供应商美能能源业绩下滑，高层忙减持",
        "docid": "7324204041544860195",
        "url": ""
    },
    {
        "title": "股价上涨空间将非常有限？苹果，第三次被下调",
        "docid": "7324190796033425959",
        "url": ""
    },
    {
        "title": "恒生科技指数午后走弱，多只相关ETF跌逾2%",
        "docid": "7324213962562912787",
        "url": ""
    },
    {
        "title": "中药概念股走强，中药50ETF、中医药ETF涨逾1%",
        "docid": "7324203884002869779",
        "url": ""
    },
    {
        "title": "2023年净利预亏 宝泰隆跌停",
        "docid": "7324160334950875658",
        "url": ""
    },
    {
        "title": "半导体板块拉升，捷捷微电一度涨停，龙讯股份等大涨",
        "docid": "7324214747975418395",
        "url": ""
    },
    {
        "title": "红利赛道联动，资金“攻守兼备”布局",
        "docid": "7324084070873416203",
        "url": ""
    },
    {
        "title": "港股红利指数ETF（513630）正式新增纳入两融标的丨ETF观察",
        "docid": "7324185501542941236",
        "url": ""
    },
    {
        "title": "建材板块继续活跃 环保股领跌｜板块牛熊榜",
        "docid": "7324180804379099688",
        "url": ""
    },
    {
        "title": "美信科技开启申购",
        "docid": "7324157402164118031",
        "url": ""
    },
    {
        "title": "海南椰岛（集团）股份有限公司独立董事朱辉辞职",
        "docid": "7324145580635324991",
        "url": ""
    },
    {
        "title": "半导体产业链盘中爆发，半导体材料ETF（562590）涨超1%",
        "docid": "7324158533334254106",
        "url": ""
    },
    {
        "title": "白杰品股：稳定预期｜封面天天见·数字财富论",
        "docid": "7324108087223124516",
        "url": ""
    },
    {
        "title": "【盘中播报】沪指涨0.18%  商贸零售行业涨幅最大",
        "docid": "7324204409360171556",
        "url": ""
    },
    {
        "title": "今日485只个股突破五日均线",
        "docid": "7324204402397430306",
        "url": ""
    },
    {
        "title": "港股金融股拉升，广发证券涨近3%",
        "docid": "7324155961764102683",
        "url": ""
    },
    {
        "title": "抢占新财富！1月热门股博隆技术首日飙升36%，雪祺电气与西典新能强势突破，即将申购三巨头揭秘增长秘籍",
        "docid": "7324163120874881571",
        "url": ""
    },
    {
        "title": "为投资布局做准备 外资巨头积极调研A股",
        "docid": "7324094907637875227",
        "url": ""
    },
    {
        "title": "圆通再拿金融牌  丰富业态拓版图",
        "docid": "7323289727967298074",
        "url": ""
    },
    {
        "title": "今年以来14家公司完成定增，募资总额175.07亿元",
        "docid": "7324129660114223626",
        "url": ""
    },
    {
        "title": "豫能控股20亿元定增方案获国资批复",
        "docid": "7324174063092990527",
        "url": ""
    },
    {
        "title": "V观财报｜智度股份：不存违反信息公平披露情形",
        "docid": "7324138951609074215",
        "url": ""
    },
    {
        "title": "中字头普遍回暖，中国电信短线拉升涨2%",
        "docid": "7324147462770835979",
        "url": ""
    },
    {
        "title": "竞价看龙头：公元股份一字涨停晋级5连板",
        "docid": "7324131949356958218",
        "url": ""
    },
    {
        "title": "219家公司获机构调研（附名单）",
        "docid": "7324129672583873063",
        "url": ""
    },
    {
        "title": "3只新股本周可申购",
        "docid": "7324129641961505315",
        "url": ""
    },
    {
        "title": "收评： A股冲高回落，成交量只有6100亿！明天能否出现转机？",
        "docid": "7324219052136792626",
        "url": ""
    },
    {
        "title": "A股本可以有两个好的选择，可是却非要一条道走到黑",
        "docid": "7324233412570006027",
        "url": ""
    },
    {
        "title": "业绩真的好，套现也真的猛！安井食品实控人、董监高6年套现62亿",
        "docid": "7324243646994596387",
        "url": ""
    },
    {
        "title": "时隔八年 险资再度举牌A股银行股",
        "docid": "7324237884981297715",
        "url": ""
    },
    {
        "title": "东京股市六连涨",
        "docid": "7324231981188383232",
        "url": ""
    },
    {
        "title": "A股三大股指涨跌互现，两市成交近6200亿元",
        "docid": "7324221036793463315",
        "url": ""
    },
    {
        "title": "国机精工：2.84亿元定增获深交所受理，拟投向三磨所一金刚石项目",
        "docid": "7324221352620491290",
        "url": ""
    },
    {
        "title": "45只股涨停 最大封单资金2.22亿元",
        "docid": "7324222479252816410",
        "url": ""
    },
    {
        "title": "港股三大指数集体收跌！苹果概念、汽车产业链等重挫",
        "docid": "7324245485919830578",
        "url": ""
    },
    {
        "title": "ETF今日收评 | 日经、旅游相关ETF涨超3%，军工相关ETF跌幅居前",
        "docid": "7324223767947788810",
        "url": ""
    },
    {
        "title": "“零容忍”！开年以来20多家上市公司领“罚单”",
        "docid": "7324237933496779318",
        "url": ""
    },
    {
        "title": "隆华新材：预计2023年归母净利润2.25亿元至2.6亿元，同比涨77.19%至104.75%",
        "docid": "7324241288264630795",
        "url": ""
    },
    {
        "title": "深交所决定终止对汉桐集成首次公开发行股票并在创业板上市的审核",
        "docid": "7324234773600698930",
        "url": ""
    },
    {
        "title": "美股新一轮财报季拉开帷幕 分析师建议关注这五大主题",
        "docid": "7324243246061027866",
        "url": ""
    },
    {
        "title": "财鑫闻丨年报行情悄然而至，7成公司预喜、 两大板块率先启动",
        "docid": "7324226972484551179",
        "url": ""
    },
    {
        "title": "今日45只A股封板 商贸零售行业涨幅最大",
        "docid": "7324222491567260179",
        "url": ""
    },
    {
        "title": "创业板继续下挫，旅游股反复活跃！",
        "docid": "7324228822314779173",
        "url": ""
    },
    {
        "title": "沪指冲高回落涨0.15%，旅游等大消费板块全天强势",
        "docid": "7324241391667036699",
        "url": ""
    },
    {
        "title": "收评：创业板指震荡调整跌0.88% 旅游等大消费股全天强势",
        "docid": "7324217682147115532",
        "url": ""
    },
    {
        "title": "每日收评",
        "docid": "7324242504109392424",
        "url": ""
    },
    {
        "title": "9975.15万元主力资金今日撤离农林牧渔板块",
        "docid": "7324243165249126950",
        "url": ""
    },
    {
        "title": "智微智能换手率46.08%，机构净卖出1894.92万元，深股通净卖出103.48万元",
        "docid": "7324245722067485234",
        "url": ""
    },
    {
        "title": "沪指收涨0.15%",
        "docid": "7324226615737778722",
        "url": ""
    },
    {
        "title": "特一药业（002728）1月15日主力资金净买入1867.76万元",
        "docid": "7324222805665792521",
        "url": ""
    },
    {
        "title": "陕西省国际信托股份有限公司副总裁孙若鹏辞职",
        "docid": "7324177999304491547",
        "url": ""
    },
    {
        "title": "主力动向：1月15日特大单净流出5.38亿元",
        "docid": "7324245721732350475",
        "url": ""
    },
    {
        "title": "1月15日热点题材概念分析：旅游、商业百货领涨",
        "docid": "7324232246016459299",
        "url": ""
    },
    {
        "title": "*ST新联：截至2023年9月30日，公司股东总数为59136名",
        "docid": "7324248600023073307",
        "url": ""
    },
    {
        "title": "财报解读｜肝素行业上市药企过冬：业绩临亏，转型求生",
        "docid": "7324121738798252583",
        "url": ""
    },
    {
        "title": "港股航运股走强 中远海能涨6%",
        "docid": "7324134314784915968",
        "url": ""
    },
    {
        "title": "南向资金截至1月15日13时23分净流入超30亿元",
        "docid": "7324192300258001434",
        "url": ""
    },
    {
        "title": "425只股短线走稳 站上五日均线",
        "docid": "7324222495542854195",
        "url": ""
    },
    {
        "title": "1月15日中远海能涨8.05%，鹏华可转债债券A基金重仓该股",
        "docid": "7324241343533367818",
        "url": ""
    },
    {
        "title": "10个交易日，涨超130%！",
        "docid": "7324257038866235914",
        "url": ""
    },
    {
        "title": "卫龙证券简称将更名为“卫龙美味”",
        "docid": "7324245400691491363",
        "url": ""
    },
    {
        "title": "爆雷！1900万股封死跌停板：下一步将要ST？",
        "docid": "7324192460639306291",
        "url": ""
    },
    {
        "title": "多家内外资机构一致传递乐观预期：市场迎来新一轮上涨行情",
        "docid": "7324257641528607283",
        "url": ""
    },
    {
        "title": "不要慌，银行股将继续逆市上涨",
        "docid": "7324229180148236837",
        "url": ""
    },
    {
        "title": "九位董监高集体辞职，美达股份回应：控制权变更的正常推进，监管火速发函",
        "docid": "7324263289335972402",
        "url": ""
    },
    {
        "title": "国防军工行业1月15日资金流向日报",
        "docid": "7324243179828429322",
        "url": ""
    },
    {
        "title": "中国中免：2023年营业收入增长24.15%，净利润增长33.52%",
        "docid": "7324257899244257827",
        "url": ""
    },
    {
        "title": "2024年嘉兴市桐乡市六大上市公司董事长排行榜",
        "docid": "7323356860185084435",
        "url": ""
    },
    {
        "title": "恒生科指收跌1.92% 消费股走低",
        "docid": "7324247276967215616",
        "url": ""
    },
    {
        "title": "预亏最高超17亿！股价应声跌停：3200万股疯狂出逃",
        "docid": "7324158143771099658",
        "url": ""
    },
    {
        "title": "通化金马今日盘中涨停 公司：在研阿尔茨海默病药物正在准备申请上市资料",
        "docid": "7324237952329024015",
        "url": ""
    },
    {
        "title": "*ST美盛收关注函 要求说明是否具备回购能力等问题",
        "docid": "7324222574047658531",
        "url": ""
    },
    {
        "title": "77股股东户数连续下降 （附股）",
        "docid": "7324245729324401152",
        "url": ""
    },
    {
        "title": "1月15日龙虎榜追踪，机构青睐这些个股",
        "docid": "7324252660700971561",
        "url": ""
    },
    {
        "title": "明日盘中沪指有望拉升出33-42个指数点左右的大阳线！",
        "docid": "7324257331633553958",
        "url": ""
    },
    {
        "title": "五矿信托2023年营收净利双降，创2018年以来最差业绩表现",
        "docid": "7324270245793825320",
        "url": ""
    },
    {
        "title": "华润万象生活：魏小华因退休辞任执行董事",
        "docid": "7324254624376996406",
        "url": ""
    },
    {
        "title": "岩山科技：未公告过回购公司股份事项，广州二三四五互联网小额贷款有限公司已完成转让未产生投资收益",
        "docid": "7324223092480328201",
        "url": ""
    },
    {
        "title": "独家 | 减持沃尔沃集团近6.8亿美元股份，吉利控股：偿还已到期可交换债券并非套现",
        "docid": "7324266773925069364",
        "url": ""
    },
    {
        "title": "成长性高居北交所前十，许昌智能近十年净利复合增速超42%，核心员工战略配售凸显信心",
        "docid": "7324245744096559625",
        "url": ""
    },
    {
        "title": "千亿办公龙头再大跌，什么情况？",
        "docid": "7324268822154756643",
        "url": ""
    },
    {
        "title": "重要信号出现：中国股票ETF期权多头力量增强 A股投资新机遇到来？",
        "docid": "7324239655166132773",
        "url": ""
    },
    {
        "title": "快讯！国泰君安董事长变更",
        "docid": "7324249237205303819",
        "url": ""
    },
    {
        "title": "*ST左江龙虎榜：营业部净卖出360.16万元",
        "docid": "7324250878482661914",
        "url": ""
    },
    {
        "title": "安杰思：2023年净利同比预增46%—52%",
        "docid": "7324250567005028874",
        "url": ""
    },
    {
        "title": "股市的前世今生",
        "docid": "7323703838622417442",
        "url": ""
    },
    {
        "title": "忠言周评：再次喊话仍未触及股市三大危机和市场十项述求",
        "docid": "7323632508451635739",
        "url": ""
    },
    {
        "title": "童话财经丨《繁花》掀开了中国股市跌宕起伏30多年的尘封记忆……（上）",
        "docid": "7323451274643767859",
        "url": ""
    },
    {
        "title": "A股:如果这是真的，那就太可怕了。",
        "docid": "7291080539325497856",
        "url": "https://www.ixigua.com/7291080539325497856"
    },
    {
        "title": "胡锡进老师半年来炒股业绩动态图",
        "docid": "7323592775017071144",
        "url": "https://www.ixigua.com/7323592775017071144"
    },
    {
        "title": "笑死在评论区！沪深两市合计成交额不足6200亿元，创开年以来新低",
        "docid": "7324245292080398884",
        "url": ""
    },
    {
        "title": "北汽蓝谷：预计2023年净亏损52亿元-57亿元",
        "docid": "7324269190964511232",
        "url": ""
    },
    {
        "title": "岩山科技：公司2023年度并未公告过回购公司股份事项，公司近期暂无股份回购计划",
        "docid": "7324249056741491209",
        "url": ""
    },
    {
        "title": "科创板股2023年业绩提前看 3股净利润增幅翻倍",
        "docid": "7324127848405418547",
        "url": ""
    },
    {
        "title": "12种常见的顶部信号",
        "docid": "7324245562914685449",
        "url": ""
    },
    {
        "title": "每周市场洞察｜成长股引领超跌反弹，重要指标现强烈看涨信号",
        "docid": "7324252911197176354",
        "url": ""
    },
    {
        "title": "雪峰科技：若年度经营业绩和财务状况需业绩预告，将于会计年度结束后一个月内公布",
        "docid": "7324267104793166370",
        "url": ""
    },
    {
        "title": "数据看盘",
        "docid": "7324260718155678271",
        "url": ""
    },
    {
        "title": "芯海科技：初步确定的询价转让转让价格为36元/股",
        "docid": "7324241806252802614",
        "url": ""
    },
    {
        "title": "恒指收跌0.17%",
        "docid": "7324249865054061108",
        "url": ""
    },
    {
        "title": "科思股份：2023年净利预增85.50%—95.80%",
        "docid": "7324269076032029193",
        "url": ""
    },
    {
        "title": "主力抄底！1月15日主力趁低位，大幅抢筹了这些股",
        "docid": "7324221000105656870",
        "url": ""
    },
    {
        "title": "2024年台州市天台县六大上市公司董事长排行榜",
        "docid": "7324286646613344804",
        "url": ""
    },
    {
        "title": "三只松鼠：预计2023年净利润同比增加54.97％～70.47％",
        "docid": "7324273030656442899",
        "url": ""
    },
    {
        "title": "1月15日首板复盘：光伏、零售、旅游、氢能源涨停个股分析",
        "docid": "7324225727769969179",
        "url": ""
    },
    {
        "title": "市场开启春节假期效应！明天周二会率先反弹的四大板块及龙头逻辑",
        "docid": "7324267098107134501",
        "url": ""
    },
    {
        "title": "隆华新材：2023年净利同比预增77.19%-104.75%",
        "docid": "7324276998900171318",
        "url": ""
    },
    {
        "title": "国外大佬谈中国股市，笑死人了，还是太嫩了！",
        "docid": "7311864924853633546",
        "url": "https://www.ixigua.com/7311864924853633546"
    },
    {
        "title": "散户的现状#股票 #财经 #股民",
        "docid": "7293046406267601408",
        "url": "https://www.ixigua.com/7293046406267601408"
    },
    {
        "title": "1.15 A股跷跷板效应出现，哪些行业可以提前关注？",
        "docid": "7324256493254771235",
        "url": "https://www.ixigua.com/7324256493254771235"
    },
    {
        "title": "亏惨了，100万本金瞒着家人全仓买入长春高新，现在还有多少钱",
        "docid": "7324157929542648374",
        "url": "https://www.ixigua.com/7324157929542648374"
    },
    {
        "title": "主力冲高出逃！1月15日尾盘45分钟，主力资金“大幅卖出”的200股",
        "docid": "7324203355218543142",
        "url": ""
    },
    {
        "title": "10家公司2023年亏损超亿元",
        "docid": "7324258567425720866",
        "url": ""
    },
    {
        "title": "北方华创：预计2023年归母净利润36.1亿元-41.5亿元，同比增53.44%-76.39%",
        "docid": "7324284790042165823",
        "url": ""
    },
    {
        "title": "1月15日镇洋发展涨停分析：烧碱，氢能源/燃料电池，浙江国企改革概念热股",
        "docid": "7324225846787818023",
        "url": ""
    },
    {
        "title": "湖北三峡旅游集团股份有限公司及所属子公司获得政府补助1620万元",
        "docid": "7324225231433630235",
        "url": ""
    },
    {
        "title": "百克生物：2023年净利同比预增159%—192%",
        "docid": "7324241297601348111",
        "url": ""
    },
    {
        "title": "长源东谷：收到国内某知名飞行汽车公司定点开发通知书",
        "docid": "7324228010499228197",
        "url": ""
    },
    {
        "title": "做好多头随时反攻的准备——道达投资手记",
        "docid": "7324284024128848396",
        "url": ""
    },
    {
        "title": "成交量再次萎靡，专家呼吁更多场外资金入市能起效吗？ | 蒋衍看盘",
        "docid": "7324305336784011776",
        "url": ""
    },
    {
        "title": "新泉股份：预计2023年归母净利润8.01亿元到8.21亿元，同比增70.22%至74.47%",
        "docid": "7324245396023722530",
        "url": ""
    },
    {
        "title": "揭秘涨停 | 今年大涨超30%，这家公司紧急澄清：无烟花相关技术储备",
        "docid": "7324276539632452132",
        "url": ""
    },
    {
        "title": "龙虎榜丨江苏华辰今日涨停，知名游资孙哥买入1384.17万元",
        "docid": "7324314452214989327",
        "url": ""
    },
    {
        "title": "A股三大指数探底回升集体翻红，两市超2900股上涨",
        "docid": "7324145751586882063",
        "url": ""
    },
    {
        "title": "剥离新能源业务，尤洛卡多元化折戟",
        "docid": "7324145145707414026",
        "url": ""
    },
    {
        "title": "信立泰：股东润复投资拟无偿捐赠500万股公司股份给中国人民大学教育基金会",
        "docid": "7324244374118859299",
        "url": ""
    },
    {
        "title": "重庆农村商业银行股份有限公司副行长董路辞任",
        "docid": "7324253802130702888",
        "url": ""
    },
    {
        "title": "迈瑞医疗1月15日大宗交易成交389.90万元",
        "docid": "7324253454460518964",
        "url": ""
    },
    {
        "title": "云南能投：2023年净利预增61.17%—74.89%",
        "docid": "7324288116645478922",
        "url": ""
    },
    {
        "title": "收盘丨沪指涨0.15% 旅游、零售板块走强",
        "docid": "7324221058855436826",
        "url": ""
    },
    {
        "title": "上海新阳大宗交易成交94.00万股 成交额3010.82万元",
        "docid": "7324253461984739849",
        "url": ""
    },
    {
        "title": "景嘉微股东户数连续5期下降 累计降幅6.37%",
        "docid": "7324258568830599717",
        "url": ""
    },
    {
        "title": "百元股数量达70只，电子、医药生物、计算机行业占比均超10%",
        "docid": "7324240602986906124",
        "url": ""
    },
    {
        "title": "股东户数降幅榜：6股最新股东户数降逾一成",
        "docid": "7324248297193931303",
        "url": ""
    },
    {
        "title": "羡慕“别人家的股市”？专家称全球动荡形势下A股不涨比涨要安全得多！欧洲、印度、日本终将被收割，美国则会玩儿火自焚！",
        "docid": "7324294969316016680",
        "url": ""
    },
    {
        "title": "新突破，钙钛矿电池两项性能显著提升！产业复合增速有望翻倍，超跌+高增长潜力股仅9只",
        "docid": "7324298151656079883",
        "url": ""
    },
    {
        "title": "旗滨集团：实际控制人一致行动人计划合计增持金额不低于1.2亿元且不高于2.4亿元，今日已增持5391.9万元",
        "docid": "7324268816752869939",
        "url": ""
    },
    {
        "title": "央行单日投放1.09万亿 金融类蓝筹逆势走牛",
        "docid": "7324305825328628234",
        "url": ""
    },
    {
        "title": "1.15 收评：成交创地量！面子行情结束！后市还有两大利空！",
        "docid": "7324210908782281254",
        "url": ""
    },
    {
        "title": "三大指数集体翻红",
        "docid": "7324146383060222476",
        "url": ""
    },
    {
        "title": "7只股收盘价创历史新高",
        "docid": "7324255982614495796",
        "url": ""
    },
    {
        "title": "印度SENSEX30指数收盘涨1.05%，刷新历史新高",
        "docid": "7324269732469719592",
        "url": ""
    },
    {
        "title": "文旅“卷”到A股 旅游板块23股全线飘红",
        "docid": "7324305798245859892",
        "url": ""
    },
    {
        "title": "2连板迪马股份：控股股东东银控股目前仍在与债权人共同商讨后续债务重组的方案，相关中介机构已入场",
        "docid": "7324265695729369639",
        "url": ""
    },
    {
        "title": "ST鹏博士：河北长宽签署《采购框架协议》 合同金额合计上限39.12亿元",
        "docid": "7324293289069347391",
        "url": ""
    },
    {
        "title": "重要‼️主力机构已经不顾及空方态度#大咖观察",
        "docid": "7324165773935804937",
        "url": ""
    },
    {
        "title": "青岛城投获准发行116亿元公司债，本期金额不超3.6亿元，利率2.5%-3.5%",
        "docid": "7324261995350540840",
        "url": ""
    },
    {
        "title": "北方华创：预计去年净利润同比增长53%-76%",
        "docid": "7324315021893173814",
        "url": ""
    },
    {
        "title": "龙虎榜丨茂业商业今日涨停，知名游资方新侠买入981.72万元",
        "docid": "7324317040100131338",
        "url": ""
    },
    {
        "title": "宝能系股权拍卖进行时，中炬高新业绩回暖引资金抄底",
        "docid": "7324290366252073482",
        "url": ""
    },
    {
        "title": "和佳医疗（300273）投资者索赔一审胜诉，退市不影响投资者索赔",
        "docid": "7324314227945292315",
        "url": ""
    },
    {
        "title": "疆股日更1月15日丨川宁生物与微构工场将每年向全球提供超2000吨PHA原料",
        "docid": "7324304942725415462",
        "url": ""
    },
    {
        "title": "嘉美包装：2023年净利预增697.77%—915.34%",
        "docid": "7324304130174960138",
        "url": ""
    },
    {
        "title": "美国银行股四季报业绩不及预期！美股投资盛宴能否继续？",
        "docid": "7324301887573475880",
        "url": ""
    },
    {
        "title": "歌尔股份：子公司香港歌尔泰克拟不超过2.8亿美元在越南设立全资子公司",
        "docid": "7324265582164066850",
        "url": ""
    },
    {
        "title": "亿达中国：2023年合约销售额约13.85亿元",
        "docid": "7324258265926255158",
        "url": ""
    },
    {
        "title": "双象股份1月15日龙虎榜数据",
        "docid": "7324248278919561768",
        "url": ""
    },
    {
        "title": "环保股表现低迷 东方园林跌超5%",
        "docid": "7324191253346714123",
        "url": ""
    },
    {
        "title": "财鑫闻｜这家鲁企看好自身发展前景，拟斥资不超过5000万元回购股份",
        "docid": "7324229560873353780",
        "url": ""
    },
    {
        "title": "V观财报｜奥维通信收监管函：未及时披露关联交易",
        "docid": "7324285809270522402",
        "url": ""
    },
    {
        "title": "北交所公司企业债券市场开市首日共成交2296.82万元",
        "docid": "7324261285904843314",
        "url": ""
    },
    {
        "title": "川宁生物：预计2023年归母净利润9.00亿元至9.90亿元，同比增长118.70%至140.57%",
        "docid": "7324269845711995402",
        "url": ""
    },
    {
        "title": "春兴精工筹码持续集中 最新股东户数下降2.08%",
        "docid": "7324258570760176162",
        "url": ""
    },
    {
        "title": "万方发展涨停，2机构现身龙虎榜",
        "docid": "7324245726006575668",
        "url": ""
    },
    {
        "title": "56只A股筹码大换手（1月15日）",
        "docid": "7324250866696110646",
        "url": ""
    },
    {
        "title": "解密主力资金出逃股 连续5日净流出441股",
        "docid": "7324245725238264332",
        "url": ""
    },
    {
        "title": "茂业商业龙虎榜数据（1月15日）",
        "docid": "7324258554729824820",
        "url": ""
    }
]