[
    {
        "title": "豫园股份：拟1亿元-2亿元回购公司股份，回购价不超9元/股",
        "docid": "7332783279202075187",
        "url": ""
    },
    {
        "title": "又是谣言？中国中药第三次传出被私有化",
        "docid": "7332810184878129702",
        "url": ""
    },
    {
        "title": "扭亏为盈的KK集团四冲港股上市，被名创优品、泡泡玛特夹击",
        "docid": "7332847478603301428",
        "url": ""
    },
    {
        "title": "价值投资适合中国股民吗？",
        "docid": "7332797423158821415",
        "url": ""
    },
    {
        "title": "“专网通信”骗局续集:隋田力概念股造假退市，董事长不知情？",
        "docid": "7332778253096649255",
        "url": ""
    },
    {
        "title": "N华微首日涨25.49% 成交10.35亿元",
        "docid": "7332757499558445579",
        "url": ""
    },
    {
        "title": "V观财报｜ST实华及时任董事长范洪岩等被警示",
        "docid": "7332859602389910050",
        "url": ""
    },
    {
        "title": "阿特斯：实控人、董事长瞿晓铧提议5亿元-10亿元回购公司股份",
        "docid": "7332797141914386970",
        "url": ""
    },
    {
        "title": "长盈通：拟2500万元-5000万元回购公司股份，回购价不超39.22元/股",
        "docid": "7332851779224715811",
        "url": ""
    },
    {
        "title": "持续推进“开门办监管” 上交所发布独董规则“一本通”",
        "docid": "7332791021522190859",
        "url": ""
    },
    {
        "title": "香港证监会：提防涉“香港国际金融中心代币”的可疑投资产品",
        "docid": "7332789458787500554",
        "url": ""
    },
    {
        "title": "大盘都上涨了，为什么还有许多股票下跌？小波段上涨与仓位管理",
        "docid": "7332879603532349962",
        "url": ""
    },
    {
        "title": "阿里云营收增长3%至280.66亿元，利润增86%创财年新高",
        "docid": "7332857749669855807",
        "url": ""
    },
    {
        "title": "2月7日北元集团涨6.97%，景顺长城中证500行业中性低波动指数A基金重仓该股",
        "docid": "7332798633090122294",
        "url": ""
    },
    {
        "title": "法尔胜龙虎榜数据（2月7日）",
        "docid": "7332791064698651171",
        "url": ""
    },
    {
        "title": "港股7日跌0.34% 收报16081.89点",
        "docid": "7332815954562433551",
        "url": ""
    },
    {
        "title": "市场关注美联储官员讲话和企业财报 6日美国三大股指小幅收涨",
        "docid": "7332760251492008459",
        "url": ""
    },
    {
        "title": "市场流动性充裕 10年期国债收益率创新低",
        "docid": "7332748593071866409",
        "url": ""
    },
    {
        "title": "煤炭板块探底回升，淮北矿业再创历史新高",
        "docid": "7332759629883048474",
        "url": ""
    },
    {
        "title": "稳市场政策“对症下药”，券商：有望企稳回升",
        "docid": "7332626919797817906",
        "url": ""
    },
    {
        "title": "2.93亿元资金今日流入机械设备股",
        "docid": "7332778138180764179",
        "url": ""
    },
    {
        "title": "机构策略：2月份市场风格或向中小成长倾斜",
        "docid": "7332046241570161192",
        "url": ""
    },
    {
        "title": "宁波银行2023年度业绩快报：净利润255.35亿元 同比增长10.66%",
        "docid": "7332879637493842442",
        "url": ""
    },
    {
        "title": "24家服装上市公司“剧透”成绩单：9家预增，6家扭亏，数字化、国际化成趋势",
        "docid": "7332784967216284187",
        "url": ""
    },
    {
        "title": "证监会发布嘀嗒出行申请港股上市的备案通知书",
        "docid": "7332889133536985627",
        "url": ""
    },
    {
        "title": "腾讯音乐下跌3.78%，报9.43美元/股",
        "docid": "7332867780573659689",
        "url": ""
    },
    {
        "title": "微盘股“暴跌”50%，私募量化放弃策略，留给散户的是危还是机？",
        "docid": "7332762574729478697",
        "url": "https://www.ixigua.com/7332762574729478697"
    },
    {
        "title": "#上热门🔥 早就该换了，终于可以安抚人心了#股民 #财经 #股票",
        "docid": "7332873133352976896",
        "url": "https://www.ixigua.com/7332873133352976896"
    },
    {
        "title": "因财务会计核算等多方面不规范 瑞松科技及相关人员将接受监管谈话",
        "docid": "7332885257248637475",
        "url": ""
    },
    {
        "title": "2023年最多预亏9300万元 霍普股份收关注函，要求说明连续两年亏损原因",
        "docid": "7332882346187801124",
        "url": ""
    },
    {
        "title": "百度下跌2.79%，报104.56美元/股",
        "docid": "7332867798613803532",
        "url": ""
    },
    {
        "title": "贵州茅台今日大宗交易折价成交20.8万股，成交额3.56亿元",
        "docid": "7332798198940992011",
        "url": ""
    },
    {
        "title": "中芯国际发布2023年度业绩快报 盈利48.228亿元 分析师这么看",
        "docid": "7332469344292651547",
        "url": ""
    },
    {
        "title": "成交额破万亿！指数大涨，小票却血流成河，背后的信号极其重要！",
        "docid": "7332790339167584818",
        "url": "https://www.ixigua.com/7332790339167584818"
    },
    {
        "title": "放量反弹，个股冰火两重天。4点原因让我不踏实",
        "docid": "7332784330026648118",
        "url": "https://www.ixigua.com/7332784330026648118"
    },
    {
        "title": "【刘纪鹏】教授表示必须振兴股市，并与【吴晓求】教授展开争论",
        "docid": "7321971431489831476",
        "url": "https://www.ixigua.com/7321971431489831476"
    },
    {
        "title": "股灾完否，尚未可知，又来冰火两重天，如何理解……",
        "docid": "7332778032639574563",
        "url": "https://www.ixigua.com/7332778032639574563"
    },
    {
        "title": "活久见",
        "docid": "7332742162272125479",
        "url": "https://www.ixigua.com/7332742162272125479"
    },
    {
        "title": "中基健康，砸盘资金缺乏武德#股票 #股民 #韭菜 #中基健康",
        "docid": "7332771501978223145",
        "url": "https://www.ixigua.com/7332771501978223145"
    },
    {
        "title": "特斯拉要被踢出“七巨头”？只因股价太拉胯了",
        "docid": "7332753256738717750",
        "url": "https://www.ixigua.com/7332753256738717750"
    },
    {
        "title": "中兰环保下跌5.02%，报8.9元/股",
        "docid": "7332667583209980425",
        "url": ""
    },
    {
        "title": "比亚迪：亏损120亿，投资失误。王传福最后悔的投资。",
        "docid": "7330529115555398196",
        "url": "https://www.ixigua.com/7330529115555398196"
    },
    {
        "title": "转融通相当于出老千，为何不禁止呢？",
        "docid": "7301964438024749622",
        "url": "https://www.ixigua.com/7301964438024749622"
    },
    {
        "title": "揭秘小盘股暴跌真相，DMA业务所致",
        "docid": "7332502019255009843",
        "url": "https://www.ixigua.com/7332502019255009843"
    },
    {
        "title": "美股股市该关门大吉了",
        "docid": "7330558927823700517",
        "url": "https://www.ixigua.com/7330558927823700517"
    },
    {
        "title": "花两分钟了解小盘股大跌的原因",
        "docid": "7332823802545439259",
        "url": "https://www.ixigua.com/7332823802545439259"
    },
    {
        "title": "世界各国股票市场大盘点",
        "docid": "7332888239209972264",
        "url": "https://www.ixigua.com/7332888239209972264"
    },
    {
        "title": "老股民准备熬夜复盘！",
        "docid": "7332868159772459560",
        "url": "https://www.ixigua.com/7332868159772459560"
    },
    {
        "title": "股市大涨   涨成股灾",
        "docid": "7332756487749665319",
        "url": "https://www.ixigua.com/7332756487749665319"
    },
    {
        "title": "杀人诛心，小盘股股灾进行时",
        "docid": "7332751327745573413",
        "url": "https://www.ixigua.com/7332751327745573413"
    },
    {
        "title": "换主席了，牛市要来了吗？#股票 #实盘记录 #股民交流 #韭菜",
        "docid": "7332830542125072947",
        "url": "https://www.ixigua.com/7332830542125072947"
    },
    {
        "title": "炒股必看四个网站，可以少走几年弯路，建议收藏！",
        "docid": "7332391429014028800",
        "url": "https://www.ixigua.com/7332391429014028800"
    },
    {
        "title": "很多人劝我别炒股了，说再炒下去老婆要跑，亏归亏，不炒不可能！",
        "docid": "7319526398153097780",
        "url": "https://www.ixigua.com/7319526398153097780"
    },
    {
        "title": "官方实锤，股票市场，恶意做空，严厉惩处 #股票 #证监会",
        "docid": "7332152624684368384",
        "url": "https://www.ixigua.com/7332152624684368384"
    },
    {
        "title": "大龄程序员失业，全职炒股巨亏，今天又回了一口血",
        "docid": "7332762287377220107",
        "url": "https://www.ixigua.com/7332762287377220107"
    },
    {
        "title": "交易要保护好自己的资金",
        "docid": "7332764979055362597",
        "url": "https://www.ixigua.com/7332764979055362597"
    },
    {
        "title": "证监会“换人”了！今日凌晨的三大消息全面发酵（2.8）",
        "docid": "7332914030505443890",
        "url": ""
    },
    {
        "title": "人生中的追涨杀跌",
        "docid": "7332865397656126004",
        "url": ""
    },
    {
        "title": "美的集团今日大宗交易平价成交226.94万股，成交额1.39亿元",
        "docid": "7332796644876255763",
        "url": ""
    },
    {
        "title": "“乌镇操盘手”陈向宏将入主 锋龙股份复牌后连续涨停",
        "docid": "7332886288237920779",
        "url": ""
    },
    {
        "title": "节前强势上扬 节后行情可期？",
        "docid": "7332908211597066771",
        "url": ""
    },
    {
        "title": "优步：2023年四季度营收99.36亿美元 同比增长15%",
        "docid": "7332842291273122313",
        "url": ""
    },
    {
        "title": "凯利公式，以及一个横扫股圈的男人",
        "docid": "7300503516878602793",
        "url": "https://www.ixigua.com/7300503516878602793"
    },
    {
        "title": "龙虎榜复盘：中基健康天地板",
        "docid": "7332875292593259017",
        "url": "https://www.ixigua.com/7332875292593259017"
    },
    {
        "title": "热景生物：拟7500万元-1.5亿元回购公司股份，回购价不超53元/股",
        "docid": "7332811848989114891",
        "url": ""
    },
    {
        "title": "碧桂园服务：终止与合富辉煌的战略合作协议",
        "docid": "7332880357244781108",
        "url": ""
    },
    {
        "title": "汉马科技：控股股东吉利商用车集团拟3000万元-6000万元增持公司股份",
        "docid": "7332803786823582247",
        "url": ""
    },
    {
        "title": "高分子材料行业新春暖意浓 道恩股份订单已接至3月",
        "docid": "7332424261937889826",
        "url": ""
    },
    {
        "title": "割到剩100股的全红，持仓多一点的全绿，精准打击太过分了吧？",
        "docid": "7324169215135777320",
        "url": "https://www.ixigua.com/7324169215135777320"
    },
    {
        "title": "大快人心！龙虎榜464家突破历史！一众量化机构被按死跌停板！",
        "docid": "7332826877117071923",
        "url": "https://www.ixigua.com/7332826877117071923"
    },
    {
        "title": "重磅！证监会领导履新！机构瑟瑟发抖？节前持股还是持币？",
        "docid": "7332798088904049192",
        "url": "https://www.ixigua.com/7332798088904049192"
    },
    {
        "title": "雪球快爆完，雪球为啥要一爆到底！",
        "docid": "7330579041751794191",
        "url": "https://www.ixigua.com/7330579041751794191"
    },
    {
        "title": "一个视频带你解读小盘股暴跌的真相 #知识 #财经 #小盘股",
        "docid": "7332430638387036706",
        "url": "https://www.ixigua.com/7332430638387036706"
    },
    {
        "title": "股市救市组合拳太给力，但是字里行间的重点要看清，警惕2015重演",
        "docid": "7332450160942776843",
        "url": "https://www.ixigua.com/7332450160942776843"
    },
    {
        "title": "中国大A世界第一",
        "docid": "7332878691883549218",
        "url": "https://www.ixigua.com/7332878691883549218"
    },
    {
        "title": "光威复材：目前该千吨线还需要集中精力做产能的等同性验证，在验证完成前基本不会有其他产品产出或业绩贡献",
        "docid": "7332908971411604020",
        "url": ""
    },
    {
        "title": "新型风险，一定要加以重视，别只看大盘。",
        "docid": "7332781666106081826",
        "url": "https://www.ixigua.com/7332781666106081826"
    },
    {
        "title": "什么叫转融通？转融通是如何收割散户的？",
        "docid": "7332375847803978249",
        "url": "https://www.ixigua.com/7332375847803978249"
    },
    {
        "title": "上海神大叔，慧眼洞穿股票本质，用选股说话，凭本事逆袭熊市？",
        "docid": "7326948532357857827",
        "url": "https://www.ixigua.com/7326948532357857827"
    },
    {
        "title": "注意实质！股灾型牛市正在兑现中；救市太分散，能维持多久是问题",
        "docid": "7332815419504591397",
        "url": "https://www.ixigua.com/7332815419504591397"
    },
    {
        "title": "A股真够奇葩的，盘点5大离谱概念，绝对颠覆你的想象力！",
        "docid": "7332445082849083943",
        "url": "https://www.ixigua.com/7332445082849083943"
    },
    {
        "title": "你见过股市亏最惨的有多惨！",
        "docid": "7313154778073137702",
        "url": "https://www.ixigua.com/7313154778073137702"
    },
    {
        "title": ".1.29-3大",
        "docid": "7332813697619853863",
        "url": "https://www.ixigua.com/7332813697619853863"
    },
    {
        "title": "A股：大家做好心理准备了，股市，很可能重演07年的历史？",
        "docid": "7330174325431091750",
        "url": ""
    },
    {
        "title": "深夜信息量巨大：换将了！且盛传融券提前归还！对A股有何影响？",
        "docid": "7332933733814796852",
        "url": "https://www.ixigua.com/7332933733814796852"
    },
    {
        "title": "A股：再查下去券商恐怕，要面临灭顶之灾！",
        "docid": "7331679263109841447",
        "url": "https://www.ixigua.com/7331679263109841447"
    },
    {
        "title": "2023年年度总结，大漂亮的战绩究竟如何？2024大牛市，如何布局？",
        "docid": "7332852530739282471",
        "url": "https://www.ixigua.com/7332852530739282471"
    },
    {
        "title": "司马南：印度股市十年长牛，改开应该学习印度",
        "docid": "7332776961862959651",
        "url": "https://www.ixigua.com/7332776961862959651"
    },
    {
        "title": "【卢麒元】中国股市的症结与应对",
        "docid": "7314139285622522407",
        "url": "https://www.ixigua.com/7314139285622522407"
    },
    {
        "title": "创始人卖公司套现50亿，国资接盘成了冤大头，11万股民被坑！",
        "docid": "7331209505004978707",
        "url": "https://www.ixigua.com/7331209505004978707"
    },
    {
        "title": "HSSP INTL(03626)拟864.5万港元收购天耀集团91%股权",
        "docid": "7332935635134628352",
        "url": ""
    },
    {
        "title": "2023年50家非上市财险公司实现盈利 前3家净利总和逾37亿元",
        "docid": "7332949008710877733",
        "url": ""
    },
    {
        "title": "重庆啤酒2023年归母净利提升5.78%",
        "docid": "7332811320917639734",
        "url": ""
    },
    {
        "title": "华能国际下跌2.57%，报8.33元/股",
        "docid": "7332667616752075305",
        "url": ""
    },
    {
        "title": "多只中证1000指增产品亏损超20%",
        "docid": "7332886262196503074",
        "url": ""
    },
    {
        "title": "轻工制造行业资金流入榜：帝欧家居、鸿博股份等净流入资金居前",
        "docid": "7332778175606735372",
        "url": ""
    },
    {
        "title": "不赚散户的钱，赚谁的钱？不是你水平不行，而是对手太过强大！",
        "docid": "7314170154030465587",
        "url": "https://www.ixigua.com/7314170154030465587"
    },
    {
        "title": "转融通与证券法相悖！请求严查制定者以及修订者！",
        "docid": "7300128067924689417",
        "url": "https://www.ixigua.com/7300128067924689417"
    },
    {
        "title": "经纬辉开下跌5.43%，报3.66元/股",
        "docid": "7332667593008316966",
        "url": ""
    },
    {
        "title": "受阿里影业收入增长带动，阿里大文娱集团收入同比增长18%至50亿元",
        "docid": "7332861649537532428",
        "url": ""
    },
    {
        "title": "2月7日晚间富时中国3倍做空ETF暴涨7.22%，预示2月8日A股要跌3%？",
        "docid": "7332879987508412982",
        "url": "https://www.ixigua.com/7332879987508412982"
    },
    {
        "title": "股市惨烈乱象频出，美国人和刘纪鹏们错在哪儿？唱空者该杀",
        "docid": "7332387643826799155",
        "url": "https://www.ixigua.com/7332387643826799155"
    },
    {
        "title": "为何不取消转融通？",
        "docid": "7325834672917709323",
        "url": "https://www.ixigua.com/7325834672917709323"
    },
    {
        "title": "一个多月账户就腰斩？直接亏掉400多万，炒股亏货看来要换人了！",
        "docid": "7332359475598361098",
        "url": "https://www.ixigua.com/7332359475598361098"
    },
    {
        "title": "A股：未来三年有望走成科技茅的4家公司，分享给有缘人！建议收藏",
        "docid": "7310554981281727028",
        "url": "https://www.ixigua.com/7310554981281727028"
    },
    {
        "title": "记录炒股  绝望的一天，崩溃的一天，真的看不到一点希望！",
        "docid": "7316769705157624335",
        "url": "https://www.ixigua.com/7316769705157624335"
    },
    {
        "title": "某市晴雨婊",
        "docid": "7332796066267890176",
        "url": "https://www.ixigua.com/7332796066267890176"
    },
    {
        "title": "100万本金，瞒着老婆全仓买入东方雨虹，如今变多少钱了？",
        "docid": "7331224415058952739",
        "url": "https://www.ixigua.com/7331224415058952739"
    },
    {
        "title": "这位同志未免太悲观了",
        "docid": "7332345788653765158",
        "url": "https://www.ixigua.com/7332345788653765158"
    },
    {
        "title": "我做空我自己 娱乐性极强杀伤力不大 #财经 #股票 #股民 #做空",
        "docid": "7332369474357559819",
        "url": "https://www.ixigua.com/7332369474357559819"
    },
    {
        "title": "机构不传看盘手法！富时中国三倍做多！看懂你也是股评家！",
        "docid": "7332809544848015882",
        "url": "https://www.ixigua.com/7332809544848015882"
    },
    {
        "title": "大霄只能研究 稳市还靠德龙 C位属于黄进 #大霄说市 #大咖观察",
        "docid": "7320892990082581007",
        "url": "https://www.ixigua.com/7320892990082581007"
    },
    {
        "title": "A股节前蹊跷放量万亿成交！如何理解？小盘股狂泻，忠告救赎之道",
        "docid": "7332810714790560291",
        "url": "https://www.ixigua.com/7332810714790560291"
    },
    {
        "title": "日经225指数收盘跌0.1%",
        "docid": "7332775077597053451",
        "url": ""
    },
    {
        "title": "哪怕得罪再多的人，关于成交量的本质，股民都不应该被蒙在鼓里！",
        "docid": "7331552840382415372",
        "url": "https://www.ixigua.com/7331552840382415372"
    },
    {
        "title": "管理层成了A股制造问题的人#股票#股民#金融#经济#投资",
        "docid": "7326818872240275994",
        "url": "https://www.ixigua.com/7326818872240275994"
    },
    {
        "title": "布林线+量能+ MACD组合拳找入场点，找到这3个指标坐等上涨",
        "docid": "7332279449033015862",
        "url": "https://www.ixigua.com/7332279449033015862"
    },
    {
        "title": "证监会换帅！中国股市会迎来大牛市吗？",
        "docid": "7332883948730745384",
        "url": "https://www.ixigua.com/7332883948730745384"
    },
    {
        "title": "职业游资大佬坦言：这才是短线的精髓之处",
        "docid": "7330870209378517555",
        "url": "https://www.ixigua.com/7330870209378517555"
    },
    {
        "title": "2560战法分享，短期交易不迷茫，三个月抵三年",
        "docid": "7332044008904262198",
        "url": "https://www.ixigua.com/7332044008904262198"
    },
    {
        "title": "凯雷调整薪酬方案 计划回购高达14亿美元股票",
        "docid": "7332979229346447911",
        "url": ""
    },
    {
        "title": "嘉必优：2月6日高管耿安锋、王华标增持股份合计1.04万股",
        "docid": "7332830369181467174",
        "url": ""
    },
    {
        "title": "港股CXO概念震荡拉升，药明生物涨超12%",
        "docid": "7332676558550925862",
        "url": ""
    },
    {
        "title": "放量与缩量过左峰，两者怎么选？一种是回调洗盘，一种是连板起飞",
        "docid": "7307558734379614757",
        "url": "https://www.ixigua.com/7307558734379614757"
    },
    {
        "title": "股市规则设计者，绝对是个天才！",
        "docid": "7324319998292263450",
        "url": "https://www.ixigua.com/7324319998292263450"
    },
    {
        "title": "股市江湖：中美金融博弈！我们是否真的被掰弯了？",
        "docid": "7332391101543907855",
        "url": "https://www.ixigua.com/7332391101543907855"
    },
    {
        "title": "老胡的投资逻辑#资本市场#胡锡进#股民",
        "docid": "7331921295095169563",
        "url": "https://www.ixigua.com/7331921295095169563"
    },
    {
        "title": "川能动力上涨5.05%，报9.98元/股",
        "docid": "7332669081067504163",
        "url": ""
    },
    {
        "title": "兰生股份：拟1亿元-2亿元回购公司股份，回购价不超12.93元/股",
        "docid": "7332806133322842664",
        "url": ""
    },
    {
        "title": "迪士尼全年利润展望高于预期",
        "docid": "7332973017687343657",
        "url": ""
    },
    {
        "title": "华茂股份：拟以5000万元—1亿元回购股份",
        "docid": "7332781953677017626",
        "url": ""
    },
    {
        "title": "紫光国微子公司拟投建超微型石英晶体谐振器生产基地 项目总投资3.55亿元",
        "docid": "7332865687712793124",
        "url": ""
    },
    {
        "title": "胡锡进：如果时光倒流，肯定不会投A股！ #胡锡进 #股票",
        "docid": "7332322580147372585",
        "url": "https://www.ixigua.com/7332322580147372585"
    },
    {
        "title": "10分钟的集合竞价，竟有这么多细节，看完才认识到它的价值",
        "docid": "7306826719276007990",
        "url": "https://www.ixigua.com/7306826719276007990"
    },
    {
        "title": "兄弟们！来一起看一下，宁波桑田路游资大佬陆大宝的看板界面",
        "docid": "7317253185469579802",
        "url": "https://www.ixigua.com/7317253185469579802"
    },
    {
        "title": "不要炒股 不要炒股 不要炒股 #A股 #股民 #三国",
        "docid": "7329369119612994099",
        "url": "https://www.ixigua.com/7329369119612994099"
    },
    {
        "title": "华为在A股投资了14个股票，个个都是潜力股，犇！",
        "docid": "7332378184363360794",
        "url": ""
    },
    {
        "title": "作为2016熔断亲历者，来谈谈2024开年的暴跌",
        "docid": "7331664826558841378",
        "url": ""
    },
    {
        "title": "罕见！巴菲特，突然出手！",
        "docid": "7328776152594776603",
        "url": ""
    },
    {
        "title": "上市公司劝股民放下执念离开股市：专家也曾建议股民受不了就去跑跑步，但胡锡进说“我不卖你怎割”似乎执念很深……",
        "docid": "7331647104697385483",
        "url": ""
    },
    {
        "title": "30秒搞懂雪球爆仓！",
        "docid": "7332349384497168908",
        "url": ""
    },
    {
        "title": "大手笔！“医药电商第一股”年终奖励优秀员工52辆阿维塔",
        "docid": "7330926566026871307",
        "url": ""
    },
    {
        "title": "一次性让你看懂金融与资本市场",
        "docid": "7329317085992550947",
        "url": ""
    },
    {
        "title": "证监会换帅，新任主席引领A股市场未来走向揭秘",
        "docid": "7332803229342794255",
        "url": ""
    },
    {
        "title": "央财教授：建议取消涨跌停板 涨跌停板已经变成机构操纵市场的工具",
        "docid": "7332296502343156235",
        "url": ""
    },
    {
        "title": "北大金融学教授：推翻注册制、暂停IPO、取消做空机制等建议与A股修复与提升没有令人信服的因果联系",
        "docid": "7330938971612512806",
        "url": ""
    },
    {
        "title": "高瓴资本亏的找不到北，还有这三个票深套没走",
        "docid": "7331240145834213903",
        "url": ""
    },
    {
        "title": "“建议投资者可以暂时离开股市”、“人生不仅仅只有股市”，屹通新材面对吐槽劝股民“放下执念”",
        "docid": "7331532552404025866",
        "url": ""
    },
    {
        "title": "严重侵蚀老百姓的“钱袋子”，他们已经站到了全体股民的对立面！",
        "docid": "7332311183330001460",
        "url": ""
    },
    {
        "title": "证监会召开座谈会：上市公司要主动提升投资者回报",
        "docid": "7332656931511288358",
        "url": ""
    },
    {
        "title": "大幅增长！业绩预告净利润增长101%~1138%，\"摘星脱帽\"送惊喜？",
        "docid": "7332342208752845352",
        "url": ""
    },
    {
        "title": "上交所对贵绳股份章奕颖公开谴责：网友：处罚太狠了！",
        "docid": "7332213949565354508",
        "url": ""
    },
    {
        "title": "百亿A股突然宣布：终止！撤回！",
        "docid": "7330438728185692726",
        "url": ""
    },
    {
        "title": "MACD是个啥",
        "docid": "7329828938925769250",
        "url": ""
    },
    {
        "title": "白酒公司晒业绩：茅台利润超千亿，金种子皇台顺鑫农业亏损",
        "docid": "7332331465470411305",
        "url": ""
    },
    {
        "title": "一位亏损百万老股民的泣血直言：短线永远\"二不碰\"，否则深套无解",
        "docid": "7325404145325081140",
        "url": ""
    },
    {
        "title": "不能正常履职！副董事长接受司法机关调查",
        "docid": "7332884875307123236",
        "url": ""
    },
    {
        "title": "特别留意！A股超2300家股票有质押，附质押比前20名股票详情",
        "docid": "7331951582117888527",
        "url": ""
    },
    {
        "title": "有人说价值回归后，比亚迪要跌到80，茅台要跌到600，会发生么？",
        "docid": "7329848809604022838",
        "url": ""
    },
    {
        "title": "管理层大幅增持自家公司，黑马名单来了！",
        "docid": "7330937121777484288",
        "url": ""
    },
    {
        "title": "国资爆亏120亿！财务总监光速离职，6个跌停面退风险！谁来担责？",
        "docid": "7332859257928696371",
        "url": ""
    },
    {
        "title": "2024年，前景最被看好的十大行业",
        "docid": "7331633866640523828",
        "url": ""
    },
    {
        "title": "看来看去，2024年还得是传媒",
        "docid": "7330862043924300351",
        "url": ""
    },
    {
        "title": "巴菲特，赢麻了！",
        "docid": "7333015120181887542",
        "url": ""
    },
    {
        "title": "美国总市值逼近全球一半，中国降至1成",
        "docid": "7332307566808171008",
        "url": ""
    },
    {
        "title": "关于A股，中央汇金出手！证监会最新表态",
        "docid": "7332327760830972431",
        "url": ""
    },
    {
        "title": "史诗级金融战进入拼刺刀阶段，美国“三板斧”，股市第一波受冲击",
        "docid": "7332461607982973490",
        "url": ""
    },
    {
        "title": "大秦铁路：年赚百亿，平均股息率超6.6%，但远没有想象的那么好！",
        "docid": "7332316419117302281",
        "url": ""
    },
    {
        "title": "破局A股：躺平比割肉空仓更加靠谱，过年有望迎来新曙光",
        "docid": "7331581069919535643",
        "url": ""
    },
    {
        "title": "明天A股怎么走？我做了一个大胆的预判。具体请看我的手绘预测图",
        "docid": "7332811895537271306",
        "url": ""
    },
    {
        "title": "中国股市：能真正发财的只有一种人，这是我见过分析最透彻的文章",
        "docid": "7331351311008547337",
        "url": ""
    },
    {
        "title": "医药全线反攻！投资如何布局？",
        "docid": "7332312489952068108",
        "url": ""
    },
    {
        "title": "佐丹奴管理权斗争升级！周大福郑氏家族要求罢免刘国权，委任Adidas前总经理为新CEO",
        "docid": "7332718986548789779",
        "url": ""
    },
    {
        "title": "大涨之后的反思：这次大涨和上一次大涨有何不同？",
        "docid": "7332435958120202767",
        "url": ""
    },
    {
        "title": "人均近150万元新台币：台积电2023年员工奖金与分红将超1000亿元新台币",
        "docid": "7332504815530607167",
        "url": ""
    },
    {
        "title": "重庆啤酒去年营收约148亿，持续高端化对冲大宗商品涨价？",
        "docid": "7333009752290542131",
        "url": ""
    },
    {
        "title": "去年iPhone 15卖得还不错，但除了这一市场",
        "docid": "7330967933872620058",
        "url": ""
    },
    {
        "title": "飞行汽车逐渐“飞入”现实，多家上市公司抢先布局",
        "docid": "7332996579835953703",
        "url": ""
    },
    {
        "title": "宝丰能源将成为中国最大煤制烯烃企业",
        "docid": "7332404854977020451",
        "url": ""
    },
    {
        "title": "片仔癀的暴跌与估值",
        "docid": "7332059953752179250",
        "url": ""
    },
    {
        "title": "北向资金大幅加仓股名单",
        "docid": "7333038455896932898",
        "url": ""
    },
    {
        "title": "马斯克又要裁员了？美国特斯拉的经理们被要求评估手下岗位重要性",
        "docid": "7332935715031974452",
        "url": ""
    },
    {
        "title": "A股高开 中国稀土强势“三连板”",
        "docid": "7333042594299036186",
        "url": ""
    },
    {
        "title": "交易所公开谴责！公司多年财务造假，控股股东占用巨额资金未偿还",
        "docid": "7332838416482681394",
        "url": ""
    },
    {
        "title": "股价跌至新低，知名面包企业缩水七成",
        "docid": "7332164438705685007",
        "url": ""
    },
    {
        "title": "炒股“八不碰”，所有的散户一定要注意，让你规避损失的方法！",
        "docid": "7282954896167666235",
        "url": ""
    },
    {
        "title": "并购重组活跃度提升 龙头企业整合料加速",
        "docid": "7332908610181317183",
        "url": ""
    },
    {
        "title": "阿里巴巴发布三季报，净利润下降",
        "docid": "7333042755570319872",
        "url": ""
    },
    {
        "title": "通策医疗：有望重回增长快车道",
        "docid": "7332369947756249636",
        "url": ""
    },
    {
        "title": "华润置地调整组织架构 原7大区重组为5大区",
        "docid": "7332886295016161846",
        "url": ""
    },
    {
        "title": "大族激光成立半导体新公司",
        "docid": "7332335861134213641",
        "url": ""
    },
    {
        "title": "A股：刚刚，一则融券重磅消息提前传开，留给做空者的时间不多了",
        "docid": "7333022674425463332",
        "url": ""
    },
    {
        "title": "河南一国家级专精特新“小巨人”企业终止上市辅导",
        "docid": "7332812673236763186",
        "url": ""
    },
    {
        "title": "空头们，你们吓不到我！",
        "docid": "7332296590713389608",
        "url": ""
    },
    {
        "title": "年入过亿！玄幻网文运营公司拟港股上市",
        "docid": "7331966011098268195",
        "url": ""
    },
    {
        "title": "做好投资的前提是了解公司，一天学习一家上市公司：蒙牛乳业",
        "docid": "7332437707769086515",
        "url": ""
    },
    {
        "title": "嘀嗒出行港股IPO获证监会备案：九成营收依赖顺风车，毛利率降至78%",
        "docid": "7333016228593877556",
        "url": ""
    },
    {
        "title": "被多位美国议员“精准”封杀，中国生物科企动了谁的蛋糕？",
        "docid": "7332109583303082531",
        "url": ""
    },
    {
        "title": "A股印钞机，高毛利率，高ROE，媲美茅台公司名单",
        "docid": "7332053966701888052",
        "url": ""
    },
    {
        "title": "准备好麻袋，A股的建仓机遇来了！历史会重演",
        "docid": "7326802300184789504",
        "url": ""
    },
    {
        "title": "又有A股公司高管被调查！曾供职于“中植系”",
        "docid": "7333028104161575465",
        "url": ""
    },
    {
        "title": "九毛九开放加盟，借加盟商之力切入空白市场",
        "docid": "7332367269710496293",
        "url": ""
    },
    {
        "title": "竞价看龙头：中国稀土一字涨停晋级3连板",
        "docid": "7333036823175922210",
        "url": ""
    },
    {
        "title": "2024春节交易日历：A股连休十天，港股年初五开市",
        "docid": "7332768844383158838",
        "url": ""
    },
    {
        "title": "科技王座“座次变更”：英伟达超越亚马逊在即，距离谷歌也不远",
        "docid": "7333032347669103104",
        "url": ""
    },
    {
        "title": "九毛九开放加盟，太二先试水，单店投资168万起",
        "docid": "7331989838038024756",
        "url": ""
    },
    {
        "title": "同程旅行：拟以不超过11.5亿元收购广州旅金科技55.14%股权",
        "docid": "7333024187763950118",
        "url": ""
    },
    {
        "title": "阿特斯盘中大涨超8%，董事长提议拟5-10亿元回购股份",
        "docid": "7333045925134844428",
        "url": ""
    },
    {
        "title": "每经热评｜东方雨虹实控人履约减持 公众股东成了最终兜底者",
        "docid": "7332771655884538377",
        "url": ""
    },
    {
        "title": "中国建筑：目前公司市值偏离内在价值、处于低估水平",
        "docid": "7333030374828605990",
        "url": ""
    },
    {
        "title": "中国股市：对恶意肆虐空头施以严刑峻法是提振市场信心的关键",
        "docid": "7332987852155814451",
        "url": ""
    },
    {
        "title": "茶百道计划一季度赴港上市",
        "docid": "7333024788795703842",
        "url": ""
    },
    {
        "title": "重组告吹，股价跌停！美利云造纸何时能扭亏？",
        "docid": "7332033001561457193",
        "url": ""
    },
    {
        "title": "阿里巴巴跌近5%，去年四季度净利润同比下跌近七成",
        "docid": "7333040188732260904",
        "url": ""
    },
    {
        "title": "上交所：终止对认养一头牛控股集团股份有限公司首次公开发行股票并在主板上市审核",
        "docid": "7332782105804145161",
        "url": ""
    },
    {
        "title": "中百集团连亏三年，新兴零售冲击下如何破局？",
        "docid": "7331956167033864745",
        "url": ""
    },
    {
        "title": "中金公司：楚钢不再担任首席运营官职务",
        "docid": "7332808958933123624",
        "url": ""
    },
    {
        "title": "针对这轮下跌，做个深度总结。",
        "docid": "7327485452997657139",
        "url": ""
    },
    {
        "title": "多因素推动券商板块连续发力，机构称A股战略配售价值已显现",
        "docid": "7332681341739205146",
        "url": ""
    },
    {
        "title": "汇金加大ETF增持力度，港股沸腾！可T+0的恒生科技指数ETF（513180）一度涨超5%",
        "docid": "7332359827249185315",
        "url": ""
    },
    {
        "title": "我对熊市的观察（7）—— 股市即将反弹，但这类股票碰不得",
        "docid": "7332049411654631951",
        "url": ""
    },
    {
        "title": "3989.23万元资金今日流入国防军工股",
        "docid": "7332409614564475431",
        "url": ""
    },
    {
        "title": "港股开盘：指数低开，恒生科技指数跌0.36%，阿里巴巴跌超4%",
        "docid": "7333035527765099008",
        "url": ""
    },
    {
        "title": "亚宝药业连收3个涨停板",
        "docid": "7333041058818818586",
        "url": ""
    },
    {
        "title": "“世界铜王”遭银行起诉追债16亿！其身家一度达1100亿元",
        "docid": "7333058225199645195",
        "url": ""
    },
    {
        "title": "午评：A股三大指数延续反弹，小微盘强势回暖，中证2000指数涨超5%",
        "docid": "7333069287223050786",
        "url": ""
    },
    {
        "title": "A股午评：三大指数早盘高开高走 芯片半导体概念大幅拉升",
        "docid": "7333069336862704167",
        "url": ""
    },
    {
        "title": "三维股份连收3个涨停板",
        "docid": "7333041027126755874",
        "url": ""
    },
    {
        "title": "Meta市值突增带给A股公司什么启示？",
        "docid": "7332659729753539098",
        "url": ""
    },
    {
        "title": "麒麟信安涉嫌串通投标 被列入军队采购暂停名单",
        "docid": "7332122209848246794",
        "url": ""
    },
    {
        "title": "中国稀土连收3个涨停板",
        "docid": "7333041004099944994",
        "url": ""
    },
    {
        "title": "多只成份股涨超10%！科创100ETF华夏（588800）强势反弹大涨近6%",
        "docid": "7333063065451348530",
        "url": ""
    },
    {
        "title": "万丰奥威连收3个涨停板",
        "docid": "7333041036547064347",
        "url": ""
    },
    {
        "title": "1494只个股流通市值不足20亿元",
        "docid": "7333038430168924711",
        "url": ""
    },
    {
        "title": "佳隆股份-10.05%跌停，总市值16.75亿元",
        "docid": "7332727030326624809",
        "url": ""
    },
    {
        "title": "日韩2月8日股市上涨",
        "docid": "7333077410865152564",
        "url": ""
    },
    {
        "title": "当下龙头操作及其他注意事项（春节期间学习）——交易那些事儿",
        "docid": "7333070911652168232",
        "url": ""
    },
    {
        "title": "海信家电盘中创历史新高",
        "docid": "7333041004099961378",
        "url": ""
    },
    {
        "title": "A股上市公司理财“降温”：偏爱银行存款类产品，这些股票获追捧",
        "docid": "7333084444582330931",
        "url": ""
    },
    {
        "title": "深度 | “闯关”猪周期，新希望如何穿过寒冬？",
        "docid": "7332354665209905664",
        "url": ""
    },
    {
        "title": "2月7日厦门信达（000701）龙虎榜数据：机构净卖出1456.9万元（3日）",
        "docid": "7332811806064329257",
        "url": ""
    },
    {
        "title": "一位上海隐世金融大佬箴言，坚决“不能买”的股票名单，避而远之",
        "docid": "7316364554756424246",
        "url": ""
    },
    {
        "title": "喊话浙商银行和外资：这届股民朋友们操碎了心",
        "docid": "7332313561706512911",
        "url": ""
    },
    {
        "title": "港股收评：恒指收跌0.87% 科指收跌0.34%",
        "docid": "7333083323889140236",
        "url": ""
    },
    {
        "title": "春节前板块开始轮动 港股消费赛道已抢跑",
        "docid": "7332986400477938239",
        "url": ""
    },
    {
        "title": "港交所证券市场市价总值28.1万亿元",
        "docid": "7332451368353251852",
        "url": ""
    },
    {
        "title": "午评： A股连续大涨3天，要做减法吗？接下来怎么看？听老手怎么说",
        "docid": "7333066498577138213",
        "url": ""
    },
    {
        "title": "美银证券：下调小米目标价至13.8港元 担忧新能源车成潜在负担",
        "docid": "7332031331612213799",
        "url": ""
    },
    {
        "title": "宝馨科技：董事长、总裁拟增持公司股份",
        "docid": "7332861620668482102",
        "url": ""
    },
    {
        "title": "上海农商银行：久事集团累计增持640.33万股",
        "docid": "7332812545390805504",
        "url": ""
    },
    {
        "title": "港股医药外包概念股走低，药明生物跌近7%",
        "docid": "7333040222131077641",
        "url": ""
    },
    {
        "title": "新里程连收3个涨停板",
        "docid": "7333040997221335615",
        "url": ""
    },
    {
        "title": "欧洲三大股指收盘全线下跌",
        "docid": "7332903219662078474",
        "url": ""
    },
    {
        "title": "A股大涨！对于证监会多次发声，你怎么看？",
        "docid": "7332440868516938249",
        "url": ""
    },
    {
        "title": "健友股份（603707）2月7日主力资金净卖出212.85万元",
        "docid": "7333025932917391935",
        "url": ""
    },
    {
        "title": "创业板200ETF华夏（159573）大涨6%，华宇软件、富满微涨停",
        "docid": "7333063848507130394",
        "url": ""
    },
    {
        "title": "上市央企密集中标重大工程项目",
        "docid": "7332994369819001378",
        "url": ""
    },
    {
        "title": "中证2000指数午后拉升涨超8%",
        "docid": "7333094799525921330",
        "url": ""
    },
    {
        "title": "中一签最高赚超14万元 ！A股又现“大肉签”！",
        "docid": "7333089996536742450",
        "url": ""
    },
    {
        "title": "重庆首富悄然离场，把麻烦留给了国资和法院",
        "docid": "7332754504460648997",
        "url": ""
    },
    {
        "title": "A股延续涨势沪指涨1.15%，两市逾4600只个股上涨丨早市热点",
        "docid": "7333078668518212096",
        "url": ""
    },
    {
        "title": "A股午评：创业板指半日涨超2%，全市场超4600只个股上涨",
        "docid": "7333073642424812073",
        "url": ""
    },
    {
        "title": "西麦食品上涨5.29%，报10.15元/股",
        "docid": "7333060283155890703",
        "url": ""
    },
    {
        "title": "创指半日涨超2% 中证2000ETF成交额飙升",
        "docid": "7333078572837601832",
        "url": ""
    },
    {
        "title": "菲林格尔-9.94%跌停，总市值11.27亿元",
        "docid": "7333038664421179904",
        "url": ""
    },
    {
        "title": "“股神”上市公司，加仓！",
        "docid": "7333084862473699892",
        "url": ""
    },
    {
        "title": "上海凯鑫上涨5.06%，报18.28元/股",
        "docid": "7333067275047780915",
        "url": ""
    },
    {
        "title": "两市融资余额减少131.43亿元",
        "docid": "7333026724051108392",
        "url": ""
    },
    {
        "title": "金融战下无牛市？",
        "docid": "7333045520404840975",
        "url": ""
    },
    {
        "title": "N合晶上午收盘跌14.78%",
        "docid": "7333074534650200588",
        "url": ""
    },
    {
        "title": "历年春节前和春节后五个交易日上证指数的涨跌幅",
        "docid": "7332832549447844367",
        "url": ""
    },
    {
        "title": "上海合晶上市首日跌超12%",
        "docid": "7333038104254792192",
        "url": ""
    },
    {
        "title": "直击业绩说明会 | 中芯国际赵海军：需求复苏强度尚不足以支撑半导体全面强劲反弹",
        "docid": "7332724491791532556",
        "url": ""
    },
    {
        "title": "盛剑环境9.99%涨停，总市值26.9亿元",
        "docid": "7333093524285620774",
        "url": ""
    },
    {
        "title": "一图解码：钧达股份递表港交所 光伏电池厂商正式开启”A+H”布局",
        "docid": "7333046842114130467",
        "url": ""
    },
    {
        "title": "科达利（002850）2月7日主力资金净卖出3813.03万元",
        "docid": "7333037501609656873",
        "url": ""
    },
    {
        "title": "多只次新股破净 上市公司或触发稳价义务",
        "docid": "7333058611020956160",
        "url": ""
    },
    {
        "title": "今日150只A股封板 综合行业涨幅最大",
        "docid": "7333074563519087144",
        "url": ""
    },
    {
        "title": "晶方科技上涨5.03%，报16.51元/股",
        "docid": "7333050209926742540",
        "url": ""
    },
    {
        "title": "“地天板”后再演“天地板”，五连板后中基健康股价大跳水，谁在炒？",
        "docid": "7333109210013991424",
        "url": ""
    },
    {
        "title": "营收、利润双增公司被看好，机构称“上涨空间超20%”",
        "docid": "7333081848261706290",
        "url": ""
    },
    {
        "title": "769家公司2023年业绩预增",
        "docid": "7333038461378707995",
        "url": ""
    },
    {
        "title": "2月5日机构推荐48只个股",
        "docid": "7332274643069534755",
        "url": ""
    },
    {
        "title": "2月7日云铝股份现1077万元大宗交易",
        "docid": "7332810207174787584",
        "url": ""
    },
    {
        "title": "算力业务连签大单 航锦科技持续加码人工智能赛道",
        "docid": "7332909286600819251",
        "url": ""
    },
    {
        "title": "引导机构增加平仓线弹性，证监会持续压降两市股票质押风险",
        "docid": "7332045761766703666",
        "url": ""
    },
    {
        "title": "杰富瑞：下调中芯国际目标价至16港元 维持“持有”评级",
        "docid": "7333093485207110163",
        "url": ""
    },
    {
        "title": "93股股东户数连续下降 （附股）",
        "docid": "7332041060237394486",
        "url": ""
    },
    {
        "title": "沪股通上一交易日加仓138只科创板股",
        "docid": "7333041047540630042",
        "url": ""
    },
    {
        "title": "逾七亿元业绩补偿“违约”，保力新控股股东遭公开谴责",
        "docid": "7333109708372410934",
        "url": ""
    },
    {
        "title": "融资最新持仓曝光！减仓非银金融、医药生物、电子",
        "docid": "7333035488636338725",
        "url": ""
    },
    {
        "title": "航天环宇：拟以5000万元-1亿元回购股份",
        "docid": "7332768162632647194",
        "url": ""
    },
    {
        "title": "新疆板块翻红：熙菱信息、元道通信涨幅居前，统一股份连跌八日后反弹",
        "docid": "7333107615930958375",
        "url": ""
    },
    {
        "title": "143家公司业绩快报亮相 59%营收利润双双增长",
        "docid": "7333038454911386164",
        "url": ""
    },
    {
        "title": "钮文新：股市是投资市场还是融资市场？——不能把方法和结果混为一谈",
        "docid": "7312389897368060452",
        "url": ""
    },
    {
        "title": "洪涛股份筹划控制权变更 深交所要求说明是否规避退市等",
        "docid": "7332886302309990950",
        "url": ""
    },
    {
        "title": "券商2月金股出炉：青睐大市值，中海油、中国太保最热",
        "docid": "7332071299482681871",
        "url": ""
    },
    {
        "title": "云业务持续发力 美利云走上发展快车道",
        "docid": "7332314748119761460",
        "url": ""
    },
    {
        "title": "这些上市皖企公布对外投资新动态！",
        "docid": "7332298686900519462",
        "url": ""
    },
    {
        "title": "钮文新：A股市场别再“掉坑”——股市评论应当懂得责任",
        "docid": "7330837690885308954",
        "url": ""
    },
    {
        "title": "103只股中线走稳 站上半年线",
        "docid": "7332687954407653899",
        "url": ""
    },
    {
        "title": "收评：兔年A股收官，沪指日线3连阳，中证2000指数大涨近9%，全市场500余股涨停",
        "docid": "7333123445863399999",
        "url": ""
    },
    {
        "title": "2月8日A股分析：兔年A股红盘收官，两市合计成交10174.62亿元再度破万，气溶胶检测、微盘股板块涨幅居前",
        "docid": "7333126921464807988",
        "url": ""
    },
    {
        "title": "最新全球光伏电池排名出炉，这家公司掉至第五",
        "docid": "7333107100811575817",
        "url": ""
    },
    {
        "title": "沪深两市今日成交额合计10175亿元，贵州茅台成交额居首",
        "docid": "7333124194903163433",
        "url": ""
    },
    {
        "title": "减持7个月后，蓝帆医疗实控人拟增持",
        "docid": "7333022021745656370",
        "url": ""
    },
    {
        "title": "兔年收官战两市成交破万亿，4800支飘红股力捧三大指数涨超1%",
        "docid": "7333131857750376960",
        "url": ""
    },
    {
        "title": "难道万华化学在“庞氏分红”？",
        "docid": "7333098768100770342",
        "url": ""
    },
    {
        "title": "收评：沪指涨1.28% 两市交易额连续两个交易额破万亿元",
        "docid": "7333124647401374227",
        "url": ""
    },
    {
        "title": "A股龙年味儿来了，指数三连阳，证监会新帅上任，兔年收官大捷！",
        "docid": "7333124943842476555",
        "url": ""
    },
    {
        "title": "2024春节交易日历：A股休市10天，港股2月14日开市，附假期国内外大事梳理",
        "docid": "7333125008547430949",
        "url": ""
    },
    {
        "title": "掌趣科技上涨5.06%，报4.57元/股",
        "docid": "7333094264001413673",
        "url": ""
    },
    {
        "title": "2月7日，北向资金大幅买入这些热门股票！",
        "docid": "7332995105282081331",
        "url": ""
    },
    {
        "title": "屏下摄像概念8日主力净流入9688.44万元，中兴通讯、京东方A居前",
        "docid": "7333132197752341032",
        "url": ""
    },
    {
        "title": "碧桂园服务终止收购合富辉煌10.63%股权",
        "docid": "7333060994618507817",
        "url": ""
    },
    {
        "title": "（外代一线）纽约股市三大股指7日上涨",
        "docid": "7333036625305502218",
        "url": ""
    },
    {
        "title": "A股收评：三大指数午后高位震荡 微盘股掀起涨停潮",
        "docid": "7333127664074932774",
        "url": ""
    },
    {
        "title": "加速全球化产业布局 上市公司扬帆出海",
        "docid": "7333118971509998106",
        "url": ""
    },
    {
        "title": "A股兔年红盘收官！三大指数集体涨逾1%，两市成交额再破万亿",
        "docid": "7333129798983959050",
        "url": ""
    },
    {
        "title": "九目化学进行辅导备案，万润股份分拆子公司独立上市",
        "docid": "7332791057882694156",
        "url": ""
    },
    {
        "title": "平安证券：给予亿纬锂能增持评级",
        "docid": "7333031358408819200",
        "url": ""
    },
    {
        "title": "今日新股上市：创业板诺瓦星云、科创板上海合晶",
        "docid": "7333000595604898323",
        "url": ""
    },
    {
        "title": "徐工回报投资者行动方案出炉 此前增持、回购近14亿元",
        "docid": "7333057979031388699",
        "url": ""
    },
    {
        "title": "写给2635点清仓的股民！A股连涨3天，没有意外，节后行情会这样走",
        "docid": "7333064224266289716",
        "url": ""
    },
    {
        "title": "A股继续放量大涨：连续两日成交额超万亿元，逾1800股涨超9%",
        "docid": "7333126047661539859",
        "url": ""
    },
    {
        "title": "小摩：降赣锋锂业(01772)及天齐锂业(09696)目标价 评级均为“减持”",
        "docid": "7333150764074353178",
        "url": ""
    },
    {
        "title": "兔年A股红盘收官！上证综指ETF(510760)收涨1.22%，实现三连阳，成交额超1.8亿元",
        "docid": "7333146305763787275",
        "url": ""
    },
    {
        "title": "A股兔年飘红收官 过半苏州股涨幅今超9%",
        "docid": "7333145414151373375",
        "url": ""
    },
    {
        "title": "春节前最后一个交易日 A股三大股指飘红收官",
        "docid": "7333139354426098187",
        "url": ""
    },
    {
        "title": "国盛金控股东户数增加27.38%，户均持股22.25万元",
        "docid": "7333140638244028954",
        "url": ""
    },
    {
        "title": "龙年开门红！河南航空港投资集团投资企业上海合晶敲钟上市",
        "docid": "7333146943688049161",
        "url": ""
    },
    {
        "title": "2月8日金奥博涨停分析：工业自动化，机器人，智能制造概念热股",
        "docid": "7333148896400540198",
        "url": ""
    },
    {
        "title": "每日收评",
        "docid": "7333143609682264595",
        "url": ""
    },
    {
        "title": "异动快报：盟升电子（688311）2月8日14点44分触及涨停板",
        "docid": "7333120283202650634",
        "url": ""
    },
    {
        "title": "今日涨跌停分析：兔年股市收官，517只涨停股，7只跌停股，克来机电（新型工业化）6连板",
        "docid": "7333129853858595365",
        "url": ""
    },
    {
        "title": "异动快报：禾信仪器（688622）2月8日14点39分触及涨停板",
        "docid": "7333121026488042025",
        "url": ""
    },
    {
        "title": "A股四宽基收涨，沪深300ETF易方达（510310）、创业板ETF（159915）等产品受关注",
        "docid": "7333148946166202932",
        "url": ""
    },
    {
        "title": "港股收评：恒生指数跌1.27% 苹果概念股走强，药明康德、药明生物跌超7%",
        "docid": "7333141038346994210",
        "url": ""
    },
    {
        "title": "A股三连阳后你看到了什么？",
        "docid": "7333128338749358631",
        "url": ""
    },
    {
        "title": "兔年A股红盘收官，贵州茅台保住市值第一！机构把脉节后投资方向",
        "docid": "7333140472849809935",
        "url": ""
    },
    {
        "title": "A股兔年行情红盘收官！三大指数高开高走，欣欣向“龙”",
        "docid": "7333136843145347623",
        "url": ""
    },
    {
        "title": "港股三大指数震荡走弱！医药股领跌，地产股普涨",
        "docid": "7333150349089554944",
        "url": ""
    },
    {
        "title": "中南建设：施锦华等董事及高管拟合计增持500万元-1000万元公司股份",
        "docid": "7333075718202524196",
        "url": ""
    },
    {
        "title": "龙湖集团：1月总合同销售金额为70.1亿元",
        "docid": "7333149454557561385",
        "url": ""
    },
    {
        "title": "科创信息：目前公司生产经营正常，不存在触发ST或退市风险警示情形",
        "docid": "7333127566389330459",
        "url": ""
    },
    {
        "title": "北向资金尾盘异动！2月8日主力趁低位，大幅买入了这些股",
        "docid": "7333124424084324879",
        "url": ""
    },
    {
        "title": "哈森股份录得6天5板",
        "docid": "7333074599128924691",
        "url": ""
    },
    {
        "title": "证监会同意深圳华强电子网集团股份有限公司首发注册",
        "docid": "7333159174110659112",
        "url": ""
    },
    {
        "title": "高管、保荐集体融券做空自己，新锐股份：这都是我3年前玩剩下的",
        "docid": "7333141393919181364",
        "url": ""
    },
    {
        "title": "韦小宝股市智慧之换手率",
        "docid": "7332800088748081679",
        "url": ""
    },
    {
        "title": "唐人神：1月生猪销售收入合计4.14亿元，同比上升14.57%",
        "docid": "7332818830504542755",
        "url": ""
    },
    {
        "title": "华创证券：市场反弹，可逐步提升成长配置权重",
        "docid": "7333093261554860570",
        "url": ""
    },
    {
        "title": "市场周报（2024/2/8）",
        "docid": "7333140683253219880",
        "url": ""
    },
    {
        "title": "ST德豪连收3个涨停板",
        "docid": "7333126099075383842",
        "url": ""
    },
    {
        "title": "永创智能录得5天3板",
        "docid": "7333126115512517155",
        "url": ""
    },
    {
        "title": "N合晶收盘跌6.31% 首日换手率47.70%",
        "docid": "7333133810563285567",
        "url": ""
    },
    {
        "title": "药明康德：终于发现是被恶意做空！你还拿他没有办法",
        "docid": "7332876518160941580",
        "url": ""
    },
    {
        "title": "17家公司限售股解禁，李子园解禁市值23.84亿元居首",
        "docid": "7333011221202911753",
        "url": ""
    },
    {
        "title": "华虹半导体2023年实现销售收入22.861亿美元 全年毛利率21.3%",
        "docid": "7332466552157241896",
        "url": ""
    },
    {
        "title": "兆日科技股东户数连续3期下降 累计降幅2.74%",
        "docid": "7333041011108905498",
        "url": ""
    },
    {
        "title": "不幸？万幸——道达投资手记",
        "docid": "7332065182304485907",
        "url": ""
    },
    {
        "title": "#上热门 刘纪鹏老师请假胡锡进",
        "docid": "7332343240450507300",
        "url": "https://www.ixigua.com/7332343240450507300"
    },
    {
        "title": "雪球产品大爆仓！一夜返贫的利器，它是怎么运作的？",
        "docid": "7330927377771561522",
        "url": "https://www.ixigua.com/7330927377771561522"
    },
    {
        "title": "新质生产力绘就高质量发展新图景  深市多家先进制造标杆企业发布“质量回报双提升”行动方案",
        "docid": "7332458563602285119",
        "url": ""
    },
    {
        "title": "上海合晶正式登陆科创板 12英寸产线抢抓市占率",
        "docid": "7333074551909138955",
        "url": ""
    },
    {
        "title": "中国重工与两家欧洲船东 签订近18亿美元造船合同",
        "docid": "7332615468877939209",
        "url": ""
    },
    {
        "title": "2.8 大获全胜，空仓过年，龙年再战！向大家汇报一年来的炒股战绩",
        "docid": "7333121859573105192",
        "url": ""
    },
    {
        "title": "北向资金今日净买入5.83亿元 药明康德遭净卖出5.31亿元",
        "docid": "7333161786658636324",
        "url": ""
    },
    {
        "title": "惊呆！卢麒元：做空自己市场，让外资捡便宜，是不是脑子进水了？",
        "docid": "7332033036394955264",
        "url": "https://www.ixigua.com/7332033036394955264"
    },
    {
        "title": "刘纪鹏:交易所不要再比降低融资门槛 应该比谁给投资者带来收益",
        "docid": "7314552774954320421",
        "url": "https://www.ixigua.com/7314552774954320421"
    },
    {
        "title": "怎么感觉我今天要亏？要不要把我的大票全割，去抄小盘股的底？",
        "docid": "7333075277951697408",
        "url": "https://www.ixigua.com/7333075277951697408"
    },
    {
        "title": "揭秘《繁花》原型，中国证券市场的传奇之战！",
        "docid": "7322475801260229161",
        "url": "https://www.ixigua.com/7322475801260229161"
    },
    {
        "title": "要命呐，有人通过隔夜挂单，卖出了跌停。",
        "docid": "7326336433508385306",
        "url": "https://www.ixigua.com/7326336433508385306"
    },
    {
        "title": "新村长上任，村里能否烧起三把火？#财经 #股票 #干货分享 #股民",
        "docid": "7333059004664545827",
        "url": "https://www.ixigua.com/7333059004664545827"
    },
    {
        "title": "节前收官之战！新官上任第一天，一个字，稳健！期待龙年！#股票",
        "docid": "7333147128178573851",
        "url": "https://www.ixigua.com/7333147128178573851"
    },
    {
        "title": "A股：开始抓人，历史总是惊人的类似！让人回想起熊市末期的情景",
        "docid": "7333122927481029129",
        "url": ""
    },
    {
        "title": "平安证券遭证监会警示",
        "docid": "7333143100996583976",
        "url": ""
    },
    {
        "title": "伊利股份大过年的还绿了，让我好难过",
        "docid": "7333170454989095463",
        "url": ""
    },
    {
        "title": "龙虎榜 | 西藏天路今日涨停，营业部席位合计净买入1103.49万元",
        "docid": "7333169039563080226",
        "url": ""
    },
    {
        "title": "多氟多：已完成钠离子电池研发体系搭建",
        "docid": "7333156758297592361",
        "url": ""
    },
    {
        "title": "一图解码：汽车街二次递表港交所，业绩大变脸背后隐藏的真相！",
        "docid": "7333174482456314419",
        "url": ""
    },
    {
        "title": "抱团3.0或已开启！愿大家龙年暴富——极简投研",
        "docid": "7333175881336373772",
        "url": ""
    },
    {
        "title": "首席说｜还看A股呢？月内涨幅超40%的澳股“黑马”了解一下",
        "docid": "7333139317348663871",
        "url": ""
    },
    {
        "title": "北向资金今日净买入5.83亿元",
        "docid": "7333138976469254693",
        "url": ""
    },
    {
        "title": "龙虎榜 | 文投控股今日上涨9.48%，营业部席位合计净卖出3000.25万元",
        "docid": "7333170550237544997",
        "url": ""
    },
    {
        "title": "机构策略：预计2024年风格方面将更偏向大盘",
        "docid": "7333164676731634239",
        "url": ""
    },
    {
        "title": "恒指跌1.27% 医药股下挫，药明生物跌近8%",
        "docid": "7333150787113828874",
        "url": ""
    },
    {
        "title": "龙虎榜 | 诺瓦星云今日涨202.62%，四机构专用席位净买入2.41亿元",
        "docid": "7333145882118521359",
        "url": ""
    },
    {
        "title": "惠丰钻石上涨5.17%，报13.02元/股",
        "docid": "7333057969984356916",
        "url": ""
    },
    {
        "title": "三个交易日上涨16%！西部证券组织架构大调整，将新设财富运营管理部等",
        "docid": "7333156362375283200",
        "url": ""
    },
    {
        "title": "股市中高手领悟出来的道理",
        "docid": "7331925337968509440",
        "url": "https://www.ixigua.com/7331925337968509440"
    },
    {
        "title": "现在还在炒股的都是什么人？",
        "docid": "7313810136957780495",
        "url": "https://www.ixigua.com/7313810136957780495"
    },
    {
        "title": "老粉，一定要看完，保证让你，醍醐灌顶！",
        "docid": "7319378352962437673",
        "url": "https://www.ixigua.com/7319378352962437673"
    },
    {
        "title": "特斯拉股价预测4000美金",
        "docid": "7332352532355908147",
        "url": "https://www.ixigua.com/7332352532355908147"
    },
    {
        "title": "加仓和补仓本质区别#股票@财女金蟾",
        "docid": "7332485071305835027",
        "url": "https://www.ixigua.com/7332485071305835027"
    },
    {
        "title": "2月8日金博股份涨5.36%，国泰大健康股票A基金重仓该股",
        "docid": "7333160488764998179",
        "url": ""
    },
    {
        "title": "专家说散户就是做贡献的，赚什么钱啊！",
        "docid": "7331553866028319286",
        "url": "https://www.ixigua.com/7331553866028319286"
    },
    {
        "title": "我快要亏疯了，每次清仓就大涨，下午含泪再进场",
        "docid": "7325331332488233524",
        "url": "https://www.ixigua.com/7325331332488233524"
    },
    {
        "title": "我今天坦白了，我炒股的钱全是贷款。压力好大",
        "docid": "7312735358214079010",
        "url": "https://www.ixigua.com/7312735358214079010"
    },
    {
        "title": "A股不涨的真正原因，如果这次成功了，我们就是世界老大了！",
        "docid": "7331719327513018880",
        "url": "https://www.ixigua.com/7331719327513018880"
    },
    {
        "title": "金融强国的最后一战：大A的崛起",
        "docid": "7332419592050410011",
        "url": "https://www.ixigua.com/7332419592050410011"
    },
    {
        "title": "贝莱德大战A股3年，最后仓皇出逃。",
        "docid": "7332902609759830566",
        "url": "https://www.ixigua.com/7332902609759830566"
    },
    {
        "title": "2.8螺纹钢盘后回顾",
        "docid": "7333150907628159538",
        "url": "https://www.ixigua.com/7333150907628159538"
    },
    {
        "title": "A股：亏50%正常，亏30%在合理范围，亏20%超乎想象，亏10%不正常",
        "docid": "7332715915341431307",
        "url": ""
    },
    {
        "title": "4800股收涨！517股涨停，节前A股已完美收官，节后A股如何走？",
        "docid": "7333123228665709090",
        "url": ""
    },
    {
        "title": "A股：没有悬念，红包行情圆满结束，节后能否延续反弹？",
        "docid": "7333126220957319690",
        "url": ""
    },
    {
        "title": "突发公告！A股公司实际控制人被刑拘",
        "docid": "7333190891500536371",
        "url": ""
    },
    {
        "title": "V观财报｜重药控股董事长袁泉被监管警示",
        "docid": "7333179027509133874",
        "url": ""
    },
    {
        "title": "失去创始人的葵花药业，股价卻偷偷走高?",
        "docid": "7333199176345633332",
        "url": ""
    },
    {
        "title": "（外代一线）东京股市上涨",
        "docid": "7333204270478885414",
        "url": ""
    },
    {
        "title": "迪士尼：2024财年第一季归母净利润同比增长49%，上海乐园入园人数增长",
        "docid": "7333183196730933775",
        "url": ""
    },
    {
        "title": "A股上证50今日分析之三",
        "docid": "7333201028474749455",
        "url": ""
    },
    {
        "title": "航宇科技：2023年归母净利润1.85亿元，同比增长1.15%",
        "docid": "7333203758178107916",
        "url": ""
    },
    {
        "title": "V观财报｜内幕交易，还没获利！宝利国际实控人朋友被罚150万",
        "docid": "7333168827041382912",
        "url": ""
    },
    {
        "title": "3根阳线也不能改三观！近期大盘上涨只是反弹，节后还有最后一跌！",
        "docid": "7333185525807514112",
        "url": ""
    },
    {
        "title": "突发！“宁王”公告：两名实控人解除一致行动关系！公司实控人由曾毓群、李平变更为曾毓群",
        "docid": "7333214590983668239",
        "url": ""
    },
    {
        "title": "龙虎榜 | 卓郎智能今日涨停，营业部席位合计净买入27.76万元",
        "docid": "7333170036137902604",
        "url": ""
    },
    {
        "title": "V观财报｜迈克生物实控人唐勇被警示",
        "docid": "7333184217906004495",
        "url": ""
    },
    {
        "title": "揭秘涨停 | A股逾500股涨停，稀土龙头封单资金超2亿居首",
        "docid": "7333192989815177782",
        "url": ""
    },
    {
        "title": "上海莱士：董事长、监事会主席、副总经理等拟合计增持不低于500万元公司股份",
        "docid": "7333167970392261157",
        "url": ""
    },
    {
        "title": "持股比例减少达5％未停止买卖公司股票并及时信披，昭衍新药实控人收北京证监局警示函",
        "docid": "7333210239229575719",
        "url": ""
    },
    {
        "title": "深交所：本周对“*ST左江”继续重点监控",
        "docid": "7333207427342778920",
        "url": ""
    },
    {
        "title": "开元教育控制权变更相关事项迟迟未明确  深交所发关注函",
        "docid": "7333148149747663397",
        "url": ""
    },
    {
        "title": "迪士尼预计将在2024财年回购总计最高30亿美元股票",
        "docid": "7333202231095099939",
        "url": ""
    },
    {
        "title": "控制权转让进展披露不及时，朗博科技及实控人等被上交所通报批评",
        "docid": "7333193828847305231",
        "url": ""
    },
    {
        "title": "龙虎榜 | 上海建科今日上涨3.09%，营业部席位合计净卖出1530.11万元",
        "docid": "7333170548413170202",
        "url": ""
    },
    {
        "title": "持续反弹！关注创业板ETF（159915）、科创板50ETF（588080）等成长板块产品动向",
        "docid": "7333172080512795170",
        "url": ""
    },
    {
        "title": "A股兔年总结与龙年展望！",
        "docid": "7333222224411361846",
        "url": ""
    },
    {
        "title": "名臣健康10.02%涨停，总市值47.1亿元",
        "docid": "7333092730005963273",
        "url": ""
    },
    {
        "title": "香港交易所：龙年继续吸引全球资金和企业 开拓更多机遇",
        "docid": "7333193417864036873",
        "url": ""
    },
    {
        "title": "上汽集团：子公司拟投资设立上海上汽创远创业投资合伙企业",
        "docid": "7333135839503598089",
        "url": ""
    },
    {
        "title": "今日1176只个股突破五日均线",
        "docid": "7333074590581146147",
        "url": ""
    },
    {
        "title": "资本大佬的犀利发言#资本市场#吴晓求#姚正华 #刘纪鹏#股民",
        "docid": "7333162884962189859",
        "url": "https://www.ixigua.com/7333162884962189859"
    },
    {
        "title": "名嘴说事～郭正亮谈大陆股市翻红。",
        "docid": "7333138209293271591",
        "url": "https://www.ixigua.com/7333138209293271591"
    },
    {
        "title": "耀皮玻璃：控股股东拟增持不超2%公司股份，2月7日已增持13.09万股",
        "docid": "7333162325594047017",
        "url": ""
    },
    {
        "title": "龙虎榜 | 华正新材今日涨停，机构合计净买入2610.96万元",
        "docid": "7333171058779931163",
        "url": ""
    },
    {
        "title": "龙虎榜 | 文投控股今日涨9.48%，知名游资炒股养家净卖出914.8万元",
        "docid": "7333187576603689487",
        "url": ""
    },
    {
        "title": "浦发银行：董事长张为忠任职资格获核准",
        "docid": "7333189922829894178",
        "url": ""
    },
    {
        "title": "什么样的首板，可以连板",
        "docid": "7312370256742351400",
        "url": "https://www.ixigua.com/7312370256742351400"
    },
    {
        "title": "他们居然这么干，我三天三夜也没想明白！#财经",
        "docid": "7330838405481398810",
        "url": "https://www.ixigua.com/7330838405481398810"
    },
    {
        "title": "为什么炒股教材上的技术分析看起来那么有效到你这里就失效了？",
        "docid": "7333090524540338715",
        "url": "https://www.ixigua.com/7333090524540338715"
    },
    {
        "title": "偏离值9%！救市资金玩法罕见，意欲何为？CPI公布，市场仍有隐忧",
        "docid": "7333160595954336296",
        "url": "https://www.ixigua.com/7333160595954336296"
    },
    {
        "title": "狼行千里吃肉，狗行千里吃屎  活鱼逆流而上",
        "docid": "7333076524729696820",
        "url": "https://www.ixigua.com/7333076524729696820"
    },
    {
        "title": "好物分享｜对标美股，年后布局哪些赛道",
        "docid": "7333106961518756361",
        "url": "https://www.ixigua.com/7333106961518756361"
    },
    {
        "title": "刚刚！三大交易所重磅发布",
        "docid": "7333236842415915546",
        "url": ""
    },
    {
        "title": "郑州煤电：董事长、总经理分别增持5万股",
        "docid": "7333213122943025718",
        "url": ""
    },
    {
        "title": "百亿过敏性鼻炎市场或添黑马，远大医药(00512)全球创新Ryaltris复方鼻喷剂国内NDA获受理",
        "docid": "7333166194683494922",
        "url": ""
    },
    {
        "title": "龙虎榜 | 美丽生态今日上涨9.55%，机构净买入982.77万元",
        "docid": "7333163962143719973",
        "url": ""
    },
    {
        "title": "美股开盘",
        "docid": "7333240963953771020",
        "url": ""
    },
    {
        "title": "A股重磅！上市公司可持续发展信披指引来了！",
        "docid": "7333241215947178530",
        "url": ""
    },
    {
        "title": "启迪设计股价创新低，2023年预亏超2.7亿，遭深交所下发关注函",
        "docid": "7333124073419309578",
        "url": ""
    },
    {
        "title": "2月8日洲明科技涨10.95%，万家中证1000指数增强A基金重仓该股",
        "docid": "7333176693970403880",
        "url": ""
    },
    {
        "title": "三大交易所进一步丰富完善可持续报告信披要求，明确这些公司应强制披露",
        "docid": "7333240076627264027",
        "url": ""
    },
    {
        "title": "未将特定公司作为关联方披露 深交所向如意集团发关注函",
        "docid": "7333225209505776154",
        "url": ""
    },
    {
        "title": "子不语：预计2023年录得净亏损约2.4亿元-约2.9亿元，同比转亏",
        "docid": "7333236819490161215",
        "url": ""
    }
]