[
    {
        "title": "底部的演变",
        "docid": "7330617444261773860",
        "url": ""
    },
    {
        "title": "纷美包装“出海记”：引入私募大佬，重组国际业务，释放内在价值",
        "docid": "7330640498506646025",
        "url": ""
    },
    {
        "title": "公开数据看药明系交易细节：大摩席位精准波段 贝莱德前三天曾卖出 两融成倍放量",
        "docid": "7330496968076788274",
        "url": ""
    },
    {
        "title": "侃股：“中字头”的牛市刚刚起步",
        "docid": "7329097976427594294",
        "url": ""
    },
    {
        "title": "爱康科技开年连中三标 光伏支架市场好于预期",
        "docid": "7330632551553614351",
        "url": ""
    },
    {
        "title": "传有债权人申请碧桂园清盘 接近碧桂园人士：该传闻不属实",
        "docid": "7330554977738113570",
        "url": ""
    },
    {
        "title": "禾迈股份今日大宗交易折价成交166.62万股，成交额3.03亿元",
        "docid": "7330579452218360320",
        "url": ""
    },
    {
        "title": "利和兴股东户数连续6期下降 筹码集中以来股价累计下跌47.18%",
        "docid": "7330559446504079887",
        "url": ""
    },
    {
        "title": "V观财报｜佳兆业集团：清盘呈请聆讯延期",
        "docid": "7330432083980403236",
        "url": ""
    },
    {
        "title": "浩物股份股东户数连续5期下降 筹码集中以来股价累计下跌25.60%",
        "docid": "7330536112747905548",
        "url": ""
    },
    {
        "title": "精伦电子股东户数连续5期下降 筹码集中以来股价累计下跌37.29%",
        "docid": "7330556926616699431",
        "url": ""
    },
    {
        "title": "龙虎榜 | 中材节能今日涨停，一机构净买入8144.85万元",
        "docid": "7330565559706452532",
        "url": ""
    },
    {
        "title": "厦门银行2023年业绩快报披露：实现归母净利润26.61亿元，经营效益稳中有进",
        "docid": "7330535127115776549",
        "url": ""
    },
    {
        "title": "三大民营石化巨头业绩预告出炉，谁家欢喜谁家愁？",
        "docid": "7330173076741095955",
        "url": ""
    },
    {
        "title": "美尚生态怎么赔偿？谢保平律师团队：提交一批索赔投资者立案材料",
        "docid": "7330519717348557353",
        "url": ""
    },
    {
        "title": "评级研报︱N型TOPCon电池产业化加速，这家银浆龙头出货量快速增加，2023年业绩预计扭亏为盈，机构：银浆环节有望量利齐升（附2股）",
        "docid": "7330535351787749897",
        "url": ""
    },
    {
        "title": "收评：创业板指涨1% 通信设备板块涨幅居前",
        "docid": "7330526658044461568",
        "url": ""
    },
    {
        "title": "香港金管局：港元拆息在未来一段时间可能仍会处于较高水平",
        "docid": "7330471087089893928",
        "url": ""
    },
    {
        "title": "大东方：累计回购股份8530181股",
        "docid": "7330566364211593762",
        "url": ""
    },
    {
        "title": "亿帆医药：部分董事、高管及核心人员拟合计增持3000万元—5000万元股份",
        "docid": "7330591460129915426",
        "url": ""
    },
    {
        "title": "广电运通：子公司数据产品在广州数据交易所上架交易",
        "docid": "7330531772683534848",
        "url": ""
    },
    {
        "title": "锋龙股份：控股股东及实控人筹划控制权转让事宜仍在进一步洽谈，公司股票及可转债2月1日起停牌",
        "docid": "7330510396908257807",
        "url": ""
    },
    {
        "title": "宝丰能源一工厂发生爆燃事故，2人轻伤",
        "docid": "7330609869370573322",
        "url": ""
    },
    {
        "title": "仁德资源(08125)主要股东香港潮商集团出售4000万股公司股份 持股比例降至约8.22%",
        "docid": "7330655930960314914",
        "url": ""
    },
    {
        "title": "中航光电：2023年实现销售收入200.72亿元",
        "docid": "7330644387288252938",
        "url": ""
    },
    {
        "title": "A股79股现17.86亿元大宗交易，禾迈股份、紫金矿业、山东黄金成交额居前",
        "docid": "7330580230496928310",
        "url": ""
    },
    {
        "title": "中国股市不行，莫非头条也受影响？",
        "docid": "7330644892299444746",
        "url": ""
    },
    {
        "title": "江淮汽车：预计2023年实现净利润1.36亿元左右 同比扭亏",
        "docid": "7329844748661834281",
        "url": ""
    },
    {
        "title": "继续是绿水青山百股跌停形势但超卖反弹明天预备上演冲高控制仓位",
        "docid": "7330656342070247987",
        "url": ""
    },
    {
        "title": "新能泰山股东户数增加1.36%，户均持股10.27万元",
        "docid": "7330548398535410203",
        "url": ""
    },
    {
        "title": "安杰思：集采报价低于预期 未中标会对业绩构成挑战但影响不大",
        "docid": "7330486179143533108",
        "url": ""
    },
    {
        "title": "继续配红利吗？哑铃策略的一头，红利资产如何配置？",
        "docid": "7330586255035810304",
        "url": ""
    },
    {
        "title": "龙星化工：龙星转债网上中签率0.0054914743%",
        "docid": "7330643355335098914",
        "url": ""
    },
    {
        "title": "股市的下跌我已经我已经无法承受",
        "docid": "7330163995078410763",
        "url": ""
    },
    {
        "title": "维维股份，聚焦主业",
        "docid": "7330642257353474601",
        "url": ""
    },
    {
        "title": "突击分红、净利骤降 青牛技术硬闯A股",
        "docid": "7330605510682690067",
        "url": ""
    },
    {
        "title": "恒生指数收涨0.52%，恒生科技指数涨2%",
        "docid": "7330543402372563468",
        "url": ""
    },
    {
        "title": "机构看好国企改革预期 中色股份有望受益",
        "docid": "7330550916594287143",
        "url": ""
    },
    {
        "title": "深信服：拟以1亿元-2亿元回购股份",
        "docid": "7330559893843771941",
        "url": ""
    },
    {
        "title": "津膜科技下跌5.03%，报6.04元/股",
        "docid": "7330448041658860066",
        "url": ""
    },
    {
        "title": "恒指收盘涨0.52%，媒体板块领涨",
        "docid": "7330555852883493417",
        "url": ""
    },
    {
        "title": "天孚通信筹码持续集中 最新股东户数下降2.24%",
        "docid": "7330559438665073203",
        "url": ""
    },
    {
        "title": "金鹰重工下跌5.1%，报9.31元/股",
        "docid": "7330445722615267874",
        "url": ""
    },
    {
        "title": "云天励飞：董事长提议以2500万元-5000万元回购公司股份",
        "docid": "7330614942271685157",
        "url": ""
    },
    {
        "title": "锦富技术：第二大股东赛尔新能源拟增持6000万元-1亿元公司股份",
        "docid": "7330556539239105064",
        "url": ""
    },
    {
        "title": "工商银行：董事长陈四清因年龄原因辞任",
        "docid": "7330608309546336768",
        "url": ""
    },
    {
        "title": "江苏北人：控股股东承诺自2024年5月20日起6个月内不减持公司股份",
        "docid": "7330568672266420774",
        "url": ""
    },
    {
        "title": "森赫股份最新股东户数环比下降6.35%",
        "docid": "7330559442029347378",
        "url": ""
    },
    {
        "title": "2月1日杰普特创60日新低，汇添富盈鑫混合A基金重仓该股",
        "docid": "7330559858862866995",
        "url": ""
    },
    {
        "title": "和达科技2023年预亏 2021年上市募资3.35亿元",
        "docid": "7330516909534167606",
        "url": ""
    },
    {
        "title": "神开股份获董事长大手笔增持 经营业绩积极向好",
        "docid": "7330558632758837775",
        "url": ""
    },
    {
        "title": "安科生物：预计2023年归母净利润7.8亿元-9.2亿元，同比增10.9%-30.81%",
        "docid": "7330433833588163098",
        "url": ""
    },
    {
        "title": "四方光电：控股股东等承诺2月19日起36个月内不减持公司股份",
        "docid": "7330591517847601715",
        "url": ""
    },
    {
        "title": "港股科网股全线上涨，哔哩哔哩涨超6%",
        "docid": "7330454712967463487",
        "url": ""
    },
    {
        "title": "欧洲三大股指1月31日全线下跌",
        "docid": "7330392405008679478",
        "url": ""
    },
    {
        "title": "（稿件修改，打分忽略）独家还原ST康美3年重整路径：危中迎新生，发展任重道远",
        "docid": "7330641171955352064",
        "url": ""
    },
    {
        "title": "新疆宇欣新材料有限公司获得政府补助7562万元",
        "docid": "7330570859205411362",
        "url": ""
    },
    {
        "title": "龙虎榜 | 天娱数科今日跌停，机构专用席位净卖出1339.44万元",
        "docid": "7330553698324283919",
        "url": ""
    },
    {
        "title": "密集踩雷信托！3家上市公司同日公告：信托产品逾期，公司业绩腰斩",
        "docid": "7329816345447989798",
        "url": ""
    },
    {
        "title": "移远通信：拟以8000万元-1.2亿元回购股份",
        "docid": "7330610112077644340",
        "url": ""
    },
    {
        "title": "天工国际(00826)上涨5.36%，报1.77元/股",
        "docid": "7330450356109034021",
        "url": ""
    },
    {
        "title": "创业板指涨1% 通信行业领涨",
        "docid": "7330555236559421979",
        "url": ""
    },
    {
        "title": "龙虎榜丨中邮科技今日跌14.82%，营业部席位合计净买入640.59万元",
        "docid": "7330590280989770291",
        "url": ""
    },
    {
        "title": "中国海诚工程科技股份有限公司独立董事赵艳春辞职",
        "docid": "7330519877578670626",
        "url": ""
    },
    {
        "title": "大为股份披露2023年业绩预告 郴州锂电新能源产业项目顺利推进",
        "docid": "7330472770733703730",
        "url": ""
    },
    {
        "title": "胡国忠辞去江苏正丹化学工业股份有限公司副总经理职务，仍担任董事",
        "docid": "7330519851247125033",
        "url": ""
    },
    {
        "title": "2月1日两市共有75只个股发生大宗交易，力合科技溢价21.49%",
        "docid": "7330566325946876467",
        "url": ""
    },
    {
        "title": "简评：海康威视、长城汽车、宁德时代、腾讯控股",
        "docid": "7330190599549813257",
        "url": ""
    },
    {
        "title": "东方盛虹第四期员工持股计划完成股票购买 合计筹资8.23亿元",
        "docid": "7330474296919687695",
        "url": ""
    },
    {
        "title": "华联控股：拟将回购股份资金总额调增为1.5亿元-3亿元，回购价格上限不变",
        "docid": "7330553979426079284",
        "url": ""
    },
    {
        "title": "赣能股份全资子公司0元收购北京弘毅90%股权  拓宽新能源项目投资渠道",
        "docid": "7330616090860585491",
        "url": ""
    },
    {
        "title": "快可电子最新股东户数环比下降7.14%",
        "docid": "7330536269711344179",
        "url": ""
    },
    {
        "title": "2家公司公布非公开发行预案",
        "docid": "7330438272021414419",
        "url": ""
    },
    {
        "title": "工程机械行业业绩大面积预喜 多措并举推动毛利率继续走高",
        "docid": "7330576575337087539",
        "url": ""
    },
    {
        "title": "四创电子主营业务咋了？ 公司业绩爆雷、市值腰斩",
        "docid": "7330536259032744482",
        "url": ""
    },
    {
        "title": "12股受融资客青睐，净买入超3000万元",
        "docid": "7330438240714981899",
        "url": ""
    },
    {
        "title": "得润电子筹码持续集中 最新股东户数下降0.51%",
        "docid": "7330536010650599990",
        "url": ""
    },
    {
        "title": "振华科技：将持续聚焦主业，研究探索市值管理相关工作",
        "docid": "7330410468948869686",
        "url": ""
    },
    {
        "title": "转融通相当于出老千，为何不禁止呢？",
        "docid": "7301964438024749622",
        "url": "https://www.ixigua.com/7301964438024749622"
    },
    {
        "title": "转融通始终不取消的秘密究竟在哪里？",
        "docid": "7300230370820096564",
        "url": "https://www.ixigua.com/7300230370820096564"
    },
    {
        "title": "【刘纪鹏】教授表示必须振兴股市，并与【吴晓求】教授展开争论",
        "docid": "7321971431489831476",
        "url": "https://www.ixigua.com/7321971431489831476"
    },
    {
        "title": "游资一瞬流光出手时机整理",
        "docid": "7330162955318723123",
        "url": "https://www.ixigua.com/7330162955318723123"
    },
    {
        "title": "国企开启市值管理时代，明面操纵股价？也许是土地财政落幕的开始",
        "docid": "7329081885278405172",
        "url": "https://www.ixigua.com/7329081885278405172"
    },
    {
        "title": "《繁花》背后真实的股市风云，A股为何从暴富天堂成了修罗场？",
        "docid": "7323180212248642086",
        "url": "https://www.ixigua.com/7323180212248642086"
    },
    {
        "title": "恒大被清算，债权人可以拿回来多少？",
        "docid": "7329541683254428212",
        "url": "https://www.ixigua.com/7329541683254428212"
    },
    {
        "title": "游资当日择时走#股票@财女金蟾",
        "docid": "7330630182476677686",
        "url": "https://www.ixigua.com/7330630182476677686"
    },
    {
        "title": "诺和诺德(NVO.US)市值突破5000亿美元 但却是弱势欧股缩影",
        "docid": "7330523324424651314",
        "url": ""
    },
    {
        "title": "监管收紧，这一策略如何变化？",
        "docid": "7330673761017971251",
        "url": ""
    },
    {
        "title": "张跃建辞去上海复星医药（集团）股份有限公司副总裁职务",
        "docid": "7330570893238387251",
        "url": ""
    },
    {
        "title": "百倍杠杆吹出1.4万亿美元金融泡沫，对冲之王如何5年拖垮华尔街？",
        "docid": "7297434313204138536",
        "url": "https://www.ixigua.com/7297434313204138536"
    },
    {
        "title": "炒股遵循这十条铁律，你就能够在市场稳定生存，建议收藏！",
        "docid": "7330159494154715659",
        "url": "https://www.ixigua.com/7330159494154715659"
    },
    {
        "title": "股友胡锡进又删微博，他到底在害怕什么？",
        "docid": "7330659493128340019",
        "url": "https://www.ixigua.com/7330659493128340019"
    },
    {
        "title": "..........",
        "docid": "7330561183222759987",
        "url": "https://www.ixigua.com/7330561183222759987"
    },
    {
        "title": "好物分享｜抄底？是的！在这里！记住吧，见证历史！",
        "docid": "7330601399959519763",
        "url": "https://www.ixigua.com/7330601399959519763"
    },
    {
        "title": "裸k交易技巧，详细实战案例讲解",
        "docid": "7330425276998320674",
        "url": "https://www.ixigua.com/7330425276998320674"
    },
    {
        "title": "V观财报｜ST贵人股价跌穿1元面临退市风险",
        "docid": "7330627973692850703",
        "url": ""
    },
    {
        "title": "高盛股票策略专家Rubner：美股的小幅下滑可能触发更大的跌势",
        "docid": "7330702612628505099",
        "url": ""
    },
    {
        "title": "3连跌停音飞储存：目前经营状况正常，内外部经营环境未发生重大变化",
        "docid": "7330562229382693414",
        "url": ""
    },
    {
        "title": "*ST民控去年四季度业绩异常 交易所发函质疑突击交易规避终止上市",
        "docid": "7330682031330001427",
        "url": ""
    },
    {
        "title": "广州鹿山新材料股份有限公司获得政府补助946万元",
        "docid": "7330555453779444239",
        "url": ""
    },
    {
        "title": "新华网获融资买入0.25亿元，近三日累计买入0.77亿元",
        "docid": "7330418494300832267",
        "url": ""
    },
    {
        "title": "百利天恒：实控人拟500万元—1000万元增持公司股份",
        "docid": "7330591445340815908",
        "url": ""
    },
    {
        "title": "刘纪鹏最精彩互怼",
        "docid": "7328624767165334051",
        "url": "https://www.ixigua.com/7328624767165334051"
    },
    {
        "title": "最近金融圈都在传，这几大谎言，也许你还不知道",
        "docid": "7324266462108090916",
        "url": "https://www.ixigua.com/7324266462108090916"
    },
    {
        "title": "居民存款286万亿，股市为何却只有80万亿？",
        "docid": "7306341081401164298",
        "url": "https://www.ixigua.com/7306341081401164298"
    },
    {
        "title": "取消转融通，动了谁的蛋糕？",
        "docid": "7325779699588661770",
        "url": "https://www.ixigua.com/7325779699588661770"
    },
    {
        "title": "为何A股不借鉴成熟股市管理经验呢？",
        "docid": "7321555553451409947",
        "url": "https://www.ixigua.com/7321555553451409947"
    },
    {
        "title": "专家再现惊人发言，散户不配挣钱？有这种人存在难怪大A还在冰点",
        "docid": "7314937633208336930",
        "url": "https://www.ixigua.com/7314937633208336930"
    },
    {
        "title": "2024最惨股票投资人，大亏115万，清仓后股票拉升了…#股票",
        "docid": "7330500441496945179",
        "url": "https://www.ixigua.com/7330500441496945179"
    },
    {
        "title": "林园：股市随时都会爆发，不会让你长时间在熬，同意这个观点吗？",
        "docid": "7315019574477488692",
        "url": "https://www.ixigua.com/7315019574477488692"
    },
    {
        "title": "好物分享｜把证监会的底牌翻出来了，你们看吗？",
        "docid": "7330620780641780233",
        "url": "https://www.ixigua.com/7330620780641780233"
    },
    {
        "title": "记录做韭菜的一天",
        "docid": "7330621336781488651",
        "url": "https://www.ixigua.com/7330621336781488651"
    },
    {
        "title": "北交所成交活跃股排行榜",
        "docid": "7330556942844543522",
        "url": ""
    },
    {
        "title": "天风证券：给予致欧科技买入评级",
        "docid": "7330482502265471488",
        "url": ""
    },
    {
        "title": "专家建议3000点以下越低越买：对股市保持平常心",
        "docid": "7330275002576536098",
        "url": "https://www.ixigua.com/7330275002576536098"
    },
    {
        "title": "外资集体唱多中国股市，意欲何为？揭秘金融战中的股市博弈！",
        "docid": "7328332547191439883",
        "url": "https://www.ixigua.com/7328332547191439883"
    },
    {
        "title": "只要分红除息制度存在，你就永远无法赚到上市公司的钱！",
        "docid": "7317467911789281819",
        "url": "https://www.ixigua.com/7317467911789281819"
    },
    {
        "title": "做短线一定要学的龙头思路，牢牢记住几点，从此龙头就是囊中之物",
        "docid": "7330173454907671067",
        "url": "https://www.ixigua.com/7330173454907671067"
    },
    {
        "title": "朱少平：我们股市为什么一直下跌 股市的机制是靠割韭菜维持",
        "docid": "7312858326302196236",
        "url": "https://www.ixigua.com/7312858326302196236"
    },
    {
        "title": "农历龙年板块配置如何把握？三大首席给出这些方向！|首席策略荟",
        "docid": "7330233802415047194",
        "url": "https://www.ixigua.com/7330233802415047194"
    },
    {
        "title": "Meta美股盘后涨幅扩大至10%",
        "docid": "7330744151006298658",
        "url": ""
    },
    {
        "title": "欧洲股市下跌 因美联储淡化3月降息预期以及银行业绩疲软",
        "docid": "7330694968614371878",
        "url": ""
    },
    {
        "title": "热门中概股多数上涨 理想涨超5%",
        "docid": "7330756274348507682",
        "url": ""
    },
    {
        "title": "两融大规模平仓概率不大 未来行情走向是关键",
        "docid": "7330760010160685595",
        "url": ""
    },
    {
        "title": "广州广日股份有限公司总经理朱益霞辞职",
        "docid": "7330555461428904502",
        "url": ""
    },
    {
        "title": "协鑫集成去年净利最高预增270.9%，组件出货量重回前十",
        "docid": "7329897306948682276",
        "url": ""
    },
    {
        "title": "先河环保两次延期后回复关注函 2023年净利润预亏6550万元",
        "docid": "7330567120797024820",
        "url": ""
    },
    {
        "title": "美股高开高走 道指再创历史收盘新高",
        "docid": "7330742006626419254",
        "url": ""
    },
    {
        "title": "亚马逊美股盘后涨幅扩大至8%",
        "docid": "7330754211635790386",
        "url": ""
    },
    {
        "title": "Meta第一财季营收展望超预期 并加大回购",
        "docid": "7330744160749765155",
        "url": ""
    },
    {
        "title": "A股两融余额四日合计下降逾400亿元 1月31日单日下降金额创近两年新高",
        "docid": "7330750593272644111",
        "url": ""
    },
    {
        "title": "复旦微电：董事长蒋国兴、总经理施雷自愿延长不减持公司股份期限6个月",
        "docid": "7330630237237641755",
        "url": ""
    },
    {
        "title": "壳牌四季度调整后利润为73.1亿美元，高于预期",
        "docid": "7330544005166268940",
        "url": ""
    },
    {
        "title": "三大因素致白马股连跌 市场验证价值投资仍有效",
        "docid": "7330760089218875944",
        "url": ""
    },
    {
        "title": "江苏博云：董事长提议以2000万元—4000万元回购股份",
        "docid": "7330575581576905235",
        "url": ""
    },
    {
        "title": "峰岹科技：1月31日回购公司2万股",
        "docid": "7330512265659040282",
        "url": ""
    },
    {
        "title": "纽约股市三大股指1日上涨",
        "docid": "7330746074308657703",
        "url": ""
    },
    {
        "title": "大揭秘：炒股其实很简单，所有的炒股技术，都是挖掘背后资金逻辑",
        "docid": "7330417860633690678",
        "url": "https://www.ixigua.com/7330417860633690678"
    },
    {
        "title": "未来的3年，宁可空仓也不要碰这五类股票，一旦买入就是深套",
        "docid": "7330166541541245494",
        "url": "https://www.ixigua.com/7330166541541245494"
    },
    {
        "title": "宝龙实业：“20宝龙04”调整本息兑付议案获持有人通过",
        "docid": "7330473293197099559",
        "url": ""
    },
    {
        "title": "2024年惠州市惠城区六大上市公司董事长排行榜",
        "docid": "7329661962206773772",
        "url": ""
    },
    {
        "title": "论说市场价值投资",
        "docid": "7330446303153046031",
        "url": ""
    },
    {
        "title": "新华都：拟回购1%-2%公司股份，回购价不超7.8元/股",
        "docid": "7330558622050730496",
        "url": ""
    },
    {
        "title": "神开股份：董事长李芳英增持1.37%的股份",
        "docid": "7330539537820664329",
        "url": ""
    },
    {
        "title": "听刘继鹏发言有感。经济学家除了瞎扯淡，没有别的能耐",
        "docid": "7329844066601042459",
        "url": "https://www.ixigua.com/7329844066601042459"
    },
    {
        "title": "5日均线的真正用法，天量不破五，强势股主升的信号。",
        "docid": "7330173342626152994",
        "url": "https://www.ixigua.com/7330173342626152994"
    },
    {
        "title": "回顾08年和15年熊市，谁还记得那些护盘的勇士们？",
        "docid": "7330474173539877388",
        "url": "https://www.ixigua.com/7330474173539877388"
    },
    {
        "title": "揭秘《繁花》原型，中国证券市场的传奇之战！",
        "docid": "7322475801260229161",
        "url": "https://www.ixigua.com/7322475801260229161"
    },
    {
        "title": "学金融的人真厉害！",
        "docid": "7329470516895711807",
        "url": ""
    },
    {
        "title": "罕见！巴菲特，突然出手！",
        "docid": "7328776152594776603",
        "url": ""
    },
    {
        "title": "有人说价值回归后，比亚迪要跌到80，茅台要跌到600，会发生么？",
        "docid": "7329848809604022838",
        "url": ""
    },
    {
        "title": "广州门店被曝跑路！美吉姆三年亏10亿，上海深圳门店已全关",
        "docid": "7330284524581945908",
        "url": ""
    },
    {
        "title": "A股仅此一家！唯一一家上市金融租赁公司，分红高过四大行！",
        "docid": "7330530699361501711",
        "url": ""
    },
    {
        "title": "市值50多亿，最高预亏120亿！11万股民跌停板上凌乱了：卖不掉，根本卖不掉！",
        "docid": "7330666720371737098",
        "url": ""
    },
    {
        "title": "“今年有几个基金是挣钱的？”蓝色光标证代怼基金经理，却被股民质疑四季度亏损严重",
        "docid": "7330207363066692136",
        "url": ""
    },
    {
        "title": "中国股市引进世界最先进的做空机制：为何在市场下跌时无法限制？",
        "docid": "7329901289100280320",
        "url": ""
    },
    {
        "title": "一次性让你看懂金融与资本市场",
        "docid": "7329317085992550947",
        "url": ""
    },
    {
        "title": "A股第一份年报，史上最佳业绩",
        "docid": "7329167426384478755",
        "url": ""
    },
    {
        "title": "美股三大股指集体收涨，大型科技股全线回升",
        "docid": "7330764171488805427",
        "url": ""
    },
    {
        "title": "汇丰、摩根、渣打联手500亿 惊人砸盘宁德时代，亏钱也不退缩！",
        "docid": "7330649359983723058",
        "url": ""
    },
    {
        "title": "券商2月金股出炉：这些股获力挺，看好顺周期板块",
        "docid": "7330427775171543589",
        "url": ""
    },
    {
        "title": "拼命招人，罕见巨亏：企业管理软件巨头押注转型升级",
        "docid": "7329457995094721035",
        "url": ""
    },
    {
        "title": "一位亏损百万老股民的泣血直言：短线永远\"二不碰\"，否则深套无解",
        "docid": "7325404145325081140",
        "url": ""
    },
    {
        "title": "喜讯！北自科技成功登陆上交所主板",
        "docid": "7330218285206127140",
        "url": ""
    },
    {
        "title": "上海贵酒内部员工自曝：欠薪裁员全部属实！上交所下发问询函",
        "docid": "7330095883989877263",
        "url": ""
    },
    {
        "title": "中字头概念股涨幅排行榜|中字头上市公司龙头股有哪些",
        "docid": "7330222148856414758",
        "url": ""
    },
    {
        "title": "炒股靠风水？2024中信里昂风水指数出炉，这几个月里有反弹 全年高位在年尾",
        "docid": "7330611183025734144",
        "url": ""
    },
    {
        "title": "存银行还是买股票？这些公司股息率已远超5年期银行定存",
        "docid": "7328935260245590569",
        "url": ""
    },
    {
        "title": "市值缩水超1万亿！股价创3年来新低，宁德时代将跌落神坛？",
        "docid": "7330185023251235366",
        "url": ""
    },
    {
        "title": "数说A股丨1月493股获券商首次关注！这只股距目标价还有69%上涨空间",
        "docid": "7330645800483193407",
        "url": ""
    },
    {
        "title": "股王，已被抄底！",
        "docid": "7330256500478870067",
        "url": ""
    },
    {
        "title": "最多亏6000万,好想你预计扣非净利连续第四年亏 销售费用占营收比例超过20%",
        "docid": "7330704540448096819",
        "url": ""
    },
    {
        "title": "周五你需要知道的隔夜全球要闻",
        "docid": "7330764131320005130",
        "url": ""
    },
    {
        "title": "证监会：进一步加强监管，融券T+0策略面临转向！A股稳了吗？",
        "docid": "7330473338093797927",
        "url": ""
    },
    {
        "title": "格力多发的2亿年终奖是用格力手机抵扣？回应：假的，实实在在发年终奖",
        "docid": "7330153800000717375",
        "url": ""
    },
    {
        "title": "外资机构为何看好A股？",
        "docid": "7329932237289210422",
        "url": ""
    },
    {
        "title": "一上市公司2400万奖励被财政局追回！发生了什么？",
        "docid": "7330016911310275110",
        "url": ""
    },
    {
        "title": "炒股“八不碰”，所有的散户一定要注意，让你规避损失的方法！",
        "docid": "7282954896167666235",
        "url": ""
    },
    {
        "title": "A股破净股比例超10%，逼近2008年底部水平！",
        "docid": "7330471536765698560",
        "url": ""
    },
    {
        "title": "两家光伏龙头，大手笔！",
        "docid": "7330520938146578981",
        "url": ""
    },
    {
        "title": "准备好麻袋，A股的建仓机遇来了！历史会重演",
        "docid": "7326802300184789504",
        "url": ""
    },
    {
        "title": "烟草反腐牵出“云南首富”，股价跌到脚踝、家族套现40亿",
        "docid": "7330232854989128218",
        "url": ""
    },
    {
        "title": "科技巨头最新“成绩单”！苹果大中华区营收下降13%！Meta业绩大增，多亏了中国广告主",
        "docid": "7330797905655218728",
        "url": ""
    },
    {
        "title": "信心大崩溃！",
        "docid": "7330764362812129807",
        "url": ""
    },
    {
        "title": "一人说一个行情内幕，看完评论赶紧避雷，原来我傻了这么多年！",
        "docid": "7329918614835364392",
        "url": ""
    },
    {
        "title": "最高亏120亿，合力泰“坑惨”比亚迪",
        "docid": "7330244992776159763",
        "url": ""
    },
    {
        "title": "寿仙谷：灵芝孢子粉主要的功效成分是灵芝多糖和三萜，三萜类成分是其中主要的苦味物质",
        "docid": "7330214999610311205",
        "url": ""
    },
    {
        "title": "步步高“逆风翻盘”？重整获积极进展，业绩减亏",
        "docid": "7330195274084352575",
        "url": ""
    },
    {
        "title": "纽约股市三大股指1月31日下跌",
        "docid": "7330471206330565174",
        "url": ""
    },
    {
        "title": "香港恒生科技指数涨幅扩大至3%",
        "docid": "7330451891916718628",
        "url": ""
    },
    {
        "title": "“啤酒”管理“酱酒”一年  华润今年要带金沙酒业重回增长丨2024酒业新局",
        "docid": "7330788622188331557",
        "url": ""
    },
    {
        "title": "A股定增一览：3家公司披露定增预案",
        "docid": "7330788026262077991",
        "url": ""
    },
    {
        "title": "盘后暴涨15%！Meta上季度业绩超预期：大裁员降本奏效，史上首次分红",
        "docid": "7330807540680475188",
        "url": ""
    },
    {
        "title": "“同仁堂”三家上市公司一损俱损，中药巨头怎么了？",
        "docid": "7330235272238006838",
        "url": ""
    },
    {
        "title": "中国软件，“软了”",
        "docid": "7330420259826516515",
        "url": ""
    },
    {
        "title": "证券市场改革，能不能也“一国两制”",
        "docid": "7330159669447197210",
        "url": ""
    },
    {
        "title": "又现IPO排队，A股投资者的投资利益从何而来，股民又该如何抉择！",
        "docid": "7330608487547847207",
        "url": ""
    },
    {
        "title": "1月开局不利之后，2月券商金股组合出炉：“中字头”“高股息”标的扎堆出现",
        "docid": "7330272273070850571",
        "url": ""
    },
    {
        "title": "美股最惨痛熊市：从2000年互联网泡沫破裂，到2008年次贷危机",
        "docid": "7329753218773434917",
        "url": ""
    },
    {
        "title": "2024-1-27业绩预告情报：66家预减，38家首亏，35家扭亏33家预增",
        "docid": "7328399529974415884",
        "url": ""
    },
    {
        "title": "上交所三问上海贵酒：业绩大增真实可持续吗？欠工资大裁员了吗？和老爸的公司互相独立吗？",
        "docid": "7330243436978848310",
        "url": ""
    },
    {
        "title": "抛开噱头，理性看待市场——高盛发布中国股市复苏报告",
        "docid": "7330439961570787875",
        "url": ""
    },
    {
        "title": "炒股炒到如今 心被炒碎了吗",
        "docid": "7329868065444053515",
        "url": ""
    },
    {
        "title": "始祖鸟母公司正式上市 发行价不及预期",
        "docid": "7330799086020411915",
        "url": ""
    },
    {
        "title": "泛海控股：因多项债务逾期情况披露违规，收到证监会行政监管措施决定书",
        "docid": "7330812676044161588",
        "url": ""
    },
    {
        "title": "美联储放鹰声，大盘冲高回落",
        "docid": "7330806479660417570",
        "url": ""
    },
    {
        "title": "北向资金昨日净买入27.26亿元，增持光伏设备行业超9亿元（名单）",
        "docid": "7330808468443595291",
        "url": ""
    },
    {
        "title": "光明乳业（600597）2月1日主力资金净卖出2145.82万元",
        "docid": "7330795542056059402",
        "url": ""
    },
    {
        "title": "全球豪华纯电汽车品牌竟被抛弃，股价大跌近16%！2月券商金股名单大曝光，两类股成券商“香饽饽”",
        "docid": "7330807264712180239",
        "url": ""
    },
    {
        "title": "中视传媒再度涨停，录得11天10板",
        "docid": "7330820391897940491",
        "url": ""
    },
    {
        "title": "中泰证券徐驰：中字头和国企市值管理板块或成为本轮春季行情主线",
        "docid": "7330663359215354380",
        "url": ""
    },
    {
        "title": "天齐锂业预计2023年净利66.2亿元至89.5亿元 产业链上下游拓展实现新突破",
        "docid": "7330102575628599817",
        "url": ""
    },
    {
        "title": "白酒反攻！山西汾酒盘中大涨，食品饮料ETF（515170）翻红涨超1%",
        "docid": "7330818304631751202",
        "url": ""
    },
    {
        "title": "游戏股高开！恒生科技30ETF（513010）等产品布局游戏板块龙头",
        "docid": "7330823747685171738",
        "url": ""
    },
    {
        "title": "药明康德拟回购10亿元股份并注销：维护公司价值及股东权益",
        "docid": "7330811919470952975",
        "url": ""
    },
    {
        "title": "苹果公布最新财报：业绩虽超预期，但中国市场仍显疲态",
        "docid": "7330811214970487337",
        "url": ""
    },
    {
        "title": "收函，大跌！荣丰控股发生了什么？",
        "docid": "7330734881711899171",
        "url": ""
    },
    {
        "title": "曾经的“卤味第一股”，煌上煌遇到了什么问题？",
        "docid": "7330612960408732200",
        "url": ""
    },
    {
        "title": "针对这轮下跌，做个深度总结。",
        "docid": "7327485452997657139",
        "url": ""
    },
    {
        "title": "深交所启动“质量回报双提升”专项行动",
        "docid": "7330818611021808178",
        "url": ""
    },
    {
        "title": "哀莫大于心死！呼吁对中国A股市场采取全面救市",
        "docid": "7330186943156535844",
        "url": ""
    },
    {
        "title": "A股史上最大电诈案细节披露 犯罪分子以“机密并购”为由设下骗局",
        "docid": "7330230346883744297",
        "url": ""
    },
    {
        "title": "风口观察｜“除了感情不修啥都修”的啄木鸟维修，为何修不好消费者投诉？",
        "docid": "7330051721122791971",
        "url": ""
    },
    {
        "title": "955只个股流通市值不足20亿元",
        "docid": "7330067255000203786",
        "url": ""
    },
    {
        "title": "主力资金 | 4股获主力重金追捧，这些中字头个股遭抛售",
        "docid": "7330792265075655183",
        "url": ""
    },
    {
        "title": "新股刚上市连续3个跌停，从28跌到18，股民:就是一个打螺丝的公司",
        "docid": "7330610363853537832",
        "url": ""
    },
    {
        "title": "他化妆成老板，我心甘情愿划款……电诈亲历者痛心讲述",
        "docid": "7330814708729135655",
        "url": ""
    },
    {
        "title": "降价，不仅得有空间，而且得看时机",
        "docid": "7330803433622372873",
        "url": ""
    },
    {
        "title": "财鑫闻丨“红利龙头”中国神华业绩预告出炉，市值首次反超宁德时代",
        "docid": "7330205812864746038",
        "url": ""
    },
    {
        "title": "集体预喜！三大国有航司预计减亏近千亿，这一航司业绩已超2019年",
        "docid": "7330054286896054823",
        "url": ""
    },
    {
        "title": "国家队救市，救得了市场，救不了高估",
        "docid": "7330083967452267047",
        "url": ""
    },
    {
        "title": "真正炒股厉害的人：十万块钱应该如何炒股？用最简单的方法最赚钱",
        "docid": "7330224518365119016",
        "url": ""
    },
    {
        "title": "如何看待2024年1月31日A股下跌？",
        "docid": "7330176109575209523",
        "url": ""
    },
    {
        "title": "A股一月收阴！股票质押回购承压，警惕控股股东质押率较高个股",
        "docid": "7330231805121266214",
        "url": ""
    },
    {
        "title": "北向资金连续三日净流入，A50ETF（159601）估值优势凸显",
        "docid": "7330813156547248677",
        "url": ""
    },
    {
        "title": "汽车股领涨港股大盘，理想汽车一度涨近9%！恒生科技指数ETF（513180）再度强势上涨",
        "docid": "7330820936486273586",
        "url": ""
    },
    {
        "title": "券商股普遍下行，哈投股份大跌7%",
        "docid": "7330823256037081641",
        "url": ""
    },
    {
        "title": "竞价看龙头：哈森股份一字涨停晋级2连板",
        "docid": "7330810634566926863",
        "url": ""
    },
    {
        "title": "安心备年货吧！节前再坏也就这样了",
        "docid": "7330465262258864690",
        "url": ""
    },
    {
        "title": "安踏体育涨近5% 旗下亚玛芬美股IPO首日涨超3%",
        "docid": "7330817807749546546",
        "url": ""
    },
    {
        "title": "无锡转债成为30年来首只大比例未转股的银行转债",
        "docid": "7330272631063282188",
        "url": ""
    },
    {
        "title": "喜大普奔！三大航司减亏近千亿，这两家廉航率先盈利",
        "docid": "7330242437379572250",
        "url": ""
    },
    {
        "title": "中光学：市值管理纳入央企负责人业绩考核将提高上市公司质量，将以‘先进光学 新质光电’为主线推动高质量发展",
        "docid": "7330178247810335244",
        "url": ""
    },
    {
        "title": "主力启动主升浪前若这么做，拉升是板上钉钉的事，建议收藏学习！",
        "docid": "7329847433788850697",
        "url": ""
    },
    {
        "title": "沪指小幅高开 传媒板块涨幅居前",
        "docid": "7330818639672836658",
        "url": ""
    },
    {
        "title": "纳指ETF（513100）涨2.6%，成交额超2.8亿元，连续10日净流入额超3.7亿元",
        "docid": "7330819105542406710",
        "url": ""
    },
    {
        "title": "两市融资余额减少114.63亿元",
        "docid": "7330798190113178164",
        "url": ""
    },
    {
        "title": "亚太主要股指午间全线上涨",
        "docid": "7330843899579499018",
        "url": ""
    },
    {
        "title": "“将两名前员工拉入黑名单”！370亿市值游戏龙头发布声明",
        "docid": "7330851297173864998",
        "url": ""
    },
    {
        "title": "特来电扭亏，充电桩运营商迎来盈利曙光",
        "docid": "7330842436622795290",
        "url": ""
    },
    {
        "title": "多只跨境ETF走强 日经ETF（159866）涨近4%",
        "docid": "7330838963731153408",
        "url": ""
    },
    {
        "title": "皮海洲：提振股市，暂停IPO很有必要",
        "docid": "7330776210370396723",
        "url": ""
    },
    {
        "title": "北京长久物流股份有限公司获得政府补助1007万元",
        "docid": "7330832192073155072",
        "url": ""
    },
    {
        "title": "创业板指跌逾1% 下跌个股近4300只",
        "docid": "7330829448457388580",
        "url": ""
    },
    {
        "title": "白酒股大幅回落，酒鬼酒、舍得酒业短线跳水",
        "docid": "7330830214261834279",
        "url": ""
    },
    {
        "title": "大金融板块持续走弱 九鼎投资跌停",
        "docid": "7330829417037644328",
        "url": ""
    },
    {
        "title": "A股弱势震荡，上证综指ETF（510760）跌0.4%，近5日净流入额超1.4亿元",
        "docid": "7330834298435977768",
        "url": ""
    },
    {
        "title": "杭州园林：收到南昌市住房和城乡建设局立案通知书",
        "docid": "7330608322750202419",
        "url": ""
    },
    {
        "title": "创指半日跌1.96% 两市近4800股飘绿",
        "docid": "7330852119614734857",
        "url": ""
    },
    {
        "title": "开年遭遇滑铁卢，有头部量化产品亏损超14%！跌幅榜前三十林园旗下产品占据13只",
        "docid": "7330826585488114214",
        "url": ""
    },
    {
        "title": "药明系港股走低 药明生物和药明康德均跌5%",
        "docid": "7330834084719444521",
        "url": ""
    },
    {
        "title": "美元持续走软，国际金价涨至近一个月来高位",
        "docid": "7330855999378948627",
        "url": ""
    },
    {
        "title": "估值优势凸显，海外资金有望持续流入中国资产",
        "docid": "7330768132035838476",
        "url": ""
    },
    {
        "title": "中特估是药引子，而非主药",
        "docid": "7328203971053617700",
        "url": ""
    },
    {
        "title": "胜利证券（8540）执行董事陈沛泉谈虚拟资产业务发展",
        "docid": "7330814117856559642",
        "url": ""
    },
    {
        "title": "今日10只个股突破年线",
        "docid": "7330848007807877632",
        "url": ""
    },
    {
        "title": "白酒板块分化 舍得酒业盘中跳水",
        "docid": "7330839267159097906",
        "url": ""
    },
    {
        "title": "日韩股市双双高开，日经225指数涨0.66%",
        "docid": "7330817851768668723",
        "url": ""
    },
    {
        "title": "祥生控股：2022年合约销售额约256.3亿元，亏损39.26亿元",
        "docid": "7330620503662690868",
        "url": ""
    },
    {
        "title": "中国最早上市的八个股票，称老八股，34年过去了，如今都怎么样了",
        "docid": "7330680356775199284",
        "url": ""
    },
    {
        "title": "美银：机构投资者以史上罕见的速度撤离美股",
        "docid": "7330750553649283618",
        "url": ""
    },
    {
        "title": "资金流向（2月1日）丨科大讯飞、中际旭创、赛力斯获融资资金买入排名前三，科大讯飞获买入超4亿元",
        "docid": "7330844569951339018",
        "url": ""
    },
    {
        "title": "上证、中证央国企指数数量五年增加3倍",
        "docid": "7330622224267100698",
        "url": ""
    },
    {
        "title": "A股早盘震荡下行，中字头再度披挂上阵四大行涨约1%",
        "docid": "7330844907793777186",
        "url": ""
    },
    {
        "title": "1月份14家企业A股上市募资117.7亿元 浙江广东江苏领先",
        "docid": "7330772089953141258",
        "url": ""
    },
    {
        "title": "2月1日机构推荐99只个股",
        "docid": "7330792418511651379",
        "url": ""
    },
    {
        "title": "欧洲三大股指收盘全线下跌",
        "docid": "7330681891030647308",
        "url": ""
    },
    {
        "title": "元创股份实控人将前姐夫告上法庭，产能利用率下滑为何仍募资扩产？",
        "docid": "7330785748288930344",
        "url": ""
    },
    {
        "title": "预亏1.8亿！“手术机器人第一股”商业化待突破",
        "docid": "7330073691650753034",
        "url": ""
    },
    {
        "title": "终止“分拆上市”频现，两大因素成降温主因",
        "docid": "7330771502318731827",
        "url": ""
    },
    {
        "title": "钮文新：A股市场别再“掉坑”——股市评论应当懂得责任",
        "docid": "7330837690885308954",
        "url": ""
    },
    {
        "title": "龙虎榜｜华西股份上涨10.05%，一线游资深股通专用卖出2624.68万元",
        "docid": "7330559369198862887",
        "url": ""
    },
    {
        "title": "航空市场持续回暖：三大航去年大幅减亏，春秋预盈超21亿元",
        "docid": "7330198073798590995",
        "url": ""
    },
    {
        "title": "金天钛业首发获上交所上市委审议通过",
        "docid": "7330607048553660955",
        "url": ""
    },
    {
        "title": "创业板股最新股东户数降幅排行榜",
        "docid": "7330830003631833612",
        "url": ""
    },
    {
        "title": "绿叶制药(02186.HK)棕榈酸帕利哌酮缓释混悬注射液有望提前至今年在美获批上市",
        "docid": "7330851531547804199",
        "url": ""
    },
    {
        "title": "IPO前哨:晶科电子转战港交所，智能车灯和高端照明业务一起一落",
        "docid": "7330834274331132453",
        "url": ""
    },
    {
        "title": "变更注册地址，这家湖南公司将成为惠州最新一家上市公司",
        "docid": "7330151570773901858",
        "url": ""
    },
    {
        "title": "开年以来多家公司纷纷报喜，机构看好北交所年报行情",
        "docid": "7330051104727630390",
        "url": ""
    },
    {
        "title": "北向资金增仓榜：59股持股量环比增加超50%",
        "docid": "7330809349297832488",
        "url": ""
    },
    {
        "title": "钢企上市龙头宝钢股份去年业绩同比基本持平，需求低迷下同行业绩大缩水",
        "docid": "7329885228629131810",
        "url": ""
    },
    {
        "title": "沪指跌超2%刷新2020年4月以来新低，投资者应如何抉择？",
        "docid": "7330882124927058466",
        "url": ""
    },
    {
        "title": "科创板高价股排行榜",
        "docid": "7329804989545890354",
        "url": ""
    },
    {
        "title": "金融机构从幕后走向台前，中信金融资产、中融人寿直接持股四川双马",
        "docid": "7330858150930776615",
        "url": ""
    },
    {
        "title": "午评： A股早盘全线大跌，空方盯上了融资盘？期待强力护盘出现！",
        "docid": "7330840909179142682",
        "url": ""
    },
    {
        "title": "多家美国银行股价下跌",
        "docid": "7330876491309662747",
        "url": ""
    },
    {
        "title": "“恒大系”股价异动！",
        "docid": "7330871166682710562",
        "url": ""
    },
    {
        "title": "两位知名企业家入围十大领袖榜单！",
        "docid": "7330086677417001510",
        "url": ""
    },
    {
        "title": "深圳华大智造科技股份有限公司董事方浩辞职",
        "docid": "7330853016997790235",
        "url": ""
    },
    {
        "title": "港股药明系个股持续重挫，药明康德盘中跌超20%",
        "docid": "7330874522738049570",
        "url": ""
    },
    {
        "title": "熊市里价值投资者应该做什么",
        "docid": "7330199823674851866",
        "url": ""
    },
    {
        "title": "20只科创板股获北向资金增持超1000万元",
        "docid": "7330809360325149193",
        "url": ""
    },
    {
        "title": "药明生物和药明康德港股双双放量跌超20%",
        "docid": "7330877072979526163",
        "url": ""
    },
    {
        "title": "创业板指跌幅扩大至3%",
        "docid": "7330877629857333812",
        "url": ""
    },
    {
        "title": "海能达46.5万份激励性股票期权已可行权 行权价5.37元股票现价低于4.5元",
        "docid": "7330873682212225548",
        "url": ""
    },
    {
        "title": "东鹏饮料AB面：业绩持续增长，股东频频减持",
        "docid": "7330869465716703784",
        "url": ""
    },
    {
        "title": "华兴资本高层大变动！包凡辞任董事会主席、CEO",
        "docid": "7330860694042477108",
        "url": ""
    },
    {
        "title": "上海合晶公布中签结果",
        "docid": "7330438899934757411",
        "url": ""
    },
    {
        "title": "恒生指数涨0.58%，恒生科技指数涨0.44%",
        "docid": "7330852370936513063",
        "url": ""
    },
    {
        "title": "财联社午报",
        "docid": "7330854645113504265",
        "url": ""
    },
    {
        "title": "青海春天2023年预亏超2亿元 “天价”白酒生意难做",
        "docid": "7330196052211696140",
        "url": ""
    },
    {
        "title": "恒生科技指数ETF（513180）涨超2.5%，新能源汽车股走高，理想汽车高开5%",
        "docid": "7330812912572875299",
        "url": ""
    },
    {
        "title": "热门中概股多数上涨，纳斯达克中国金龙指数涨超1%",
        "docid": "7330773288622244386",
        "url": ""
    },
    {
        "title": "A股：再次重申指数熊市下一目标",
        "docid": "7330824088824332837",
        "url": ""
    },
    {
        "title": "卫龙市值蒸发超百亿",
        "docid": "7330568218690634240",
        "url": ""
    },
    {
        "title": "沪指刷新4年新低后，跌幅缩窄，上证综指ETF（510760）跌1.5%，成交额超2.8亿元",
        "docid": "7330895655730528783",
        "url": ""
    },
    {
        "title": "药明康德闪崩带来的反思",
        "docid": "7330808383484199439",
        "url": ""
    },
    {
        "title": "异动快报：ST景谷（600265）2月2日13点42分触及跌停板",
        "docid": "7330879889928651327",
        "url": ""
    },
    {
        "title": "一图解码：同源康医药递表港交所 聚焦小分子药物开发 尚未商业化",
        "docid": "7330817847322952201",
        "url": ""
    },
    {
        "title": "江龙船艇科技股份有限公司财务总监伏文平辞职",
        "docid": "7330837605484872228",
        "url": ""
    },
    {
        "title": "钮文新：股市是投资市场还是融资市场？——不能把方法和结果混为一谈",
        "docid": "7312389897368060452",
        "url": ""
    },
    {
        "title": "酒店业再现整合兼并！岭南集团收购都市酒店70%股权 南北“联姻”开打全国与下沉市场",
        "docid": "7330257584035136051",
        "url": ""
    },
    {
        "title": "广州达意隆包装机械股份有限公司获得政府补助500万元",
        "docid": "7330548504421040675",
        "url": ""
    },
    {
        "title": "东兴证券股份有限公司总经理张涛辞职",
        "docid": "7330851490988851763",
        "url": ""
    },
    {
        "title": "沪指跌破2700点 600股跌超9%",
        "docid": "7330884399086830114",
        "url": ""
    },
    {
        "title": "我们正在经历一场股灾与救市",
        "docid": "7330909735141229108",
        "url": ""
    },
    {
        "title": "A股超5200股下跌",
        "docid": "7330891559862567439",
        "url": ""
    },
    {
        "title": "A股午后深“V”，沪指2700点失而复得",
        "docid": "7330899549755589129",
        "url": ""
    },
    {
        "title": "招商证券股份有限公司合规总监、首席风险官胡宇辞职",
        "docid": "7330843798890775074",
        "url": ""
    },
    {
        "title": "筹码连续集中股名单（附股）",
        "docid": "7330556918022849061",
        "url": ""
    },
    {
        "title": "创业板指半日跌近2% 银行板块逆势领涨",
        "docid": "7330864451987685939",
        "url": ""
    },
    {
        "title": "借古人智慧升级一下炒股思维",
        "docid": "7330204549698880039",
        "url": ""
    },
    {
        "title": "美分析师看空 药明康德跌停 机构人士：法案还存在极大不确定性",
        "docid": "7330888704208912907",
        "url": ""
    },
    {
        "title": "慕思健康睡眠股份有限公司内部审计负责人朱辉辞职",
        "docid": "7330837603622928933",
        "url": ""
    },
    {
        "title": "马鞍山钢铁股份有限公司获得政府补助3.4亿元",
        "docid": "7330208315370832396",
        "url": ""
    },
    {
        "title": "A股：神奇的2666.33，不愿承认的事实可能会有转机了",
        "docid": "7330883806608327194",
        "url": ""
    },
    {
        "title": "收评： A股白刃战，我绝不投降！力挺A股！2666.33将载入史册。",
        "docid": "7330896846787052058",
        "url": ""
    },
    {
        "title": "中视传媒午后“炸板”，股价跳水跌停，走出“天地板”",
        "docid": "7330888859415265826",
        "url": ""
    },
    {
        "title": "今天，A股又霸屏热搜……",
        "docid": "7330915998889542159",
        "url": ""
    },
    {
        "title": "收评：沪指探底回升跌1.46% 农业银行、长江电力等多只高息股创历史新高",
        "docid": "7330898025600320051",
        "url": ""
    },
    {
        "title": "无力吐槽：股市小病被治成重病",
        "docid": "7330918207022793266",
        "url": ""
    },
    {
        "title": "大金融板块尾盘逆势拉升 金证股份直线涨停",
        "docid": "7330888964779622946",
        "url": ""
    },
    {
        "title": "一月，北向资金大幅买入这些热门股票！",
        "docid": "7330535413453013539",
        "url": ""
    },
    {
        "title": "A股收评：沪指宽幅震荡收跌1.46% 高股息权重股尾盘拉升",
        "docid": "7330902099813024256",
        "url": ""
    },
    {
        "title": "突发跳水！中视传媒上演“天地板”",
        "docid": "7330910895234990601",
        "url": ""
    },
    {
        "title": "招行调整零售金融组织架构，新设零售客群部",
        "docid": "7330209898371793448",
        "url": ""
    },
    {
        "title": "A股，行情反转了？不出意外，节前的行情会这样走了",
        "docid": "7330896988764029440",
        "url": ""
    },
    {
        "title": "跌逾3%后迅速“V”型回升 沪指重回2700点",
        "docid": "7330903925924741682",
        "url": ""
    },
    {
        "title": "面对千呼万唤始出来的重大利好，股市为何如此大跌？咋办？",
        "docid": "7330882507422155290",
        "url": ""
    },
    {
        "title": "常长亭：市场非理性下跌的目的何在",
        "docid": "7330904804253909538",
        "url": ""
    },
    {
        "title": "2月2日午间公告一览：美信科技董事AllenYen辞职",
        "docid": "7330902972911649332",
        "url": ""
    },
    {
        "title": "北证50跌超4%，今年累计跌幅达28%",
        "docid": "7330868042265838114",
        "url": ""
    },
    {
        "title": "雅化集团下跌5.01%，报9.3元/股",
        "docid": "7330867799126114827",
        "url": ""
    },
    {
        "title": "两市仅389只个股上涨，创业板指创2019年8月以来新低",
        "docid": "7330909819391492644",
        "url": ""
    },
    {
        "title": "中旭未来大跌近80%  此前近三个月累计涨超5倍",
        "docid": "7330897257736700442",
        "url": ""
    },
    {
        "title": "三大指数“深V探底”，超4700只个股下跌！",
        "docid": "7330903430342656539",
        "url": ""
    },
    {
        "title": "V观财报｜联合体投资方投入巨大资金且放弃追索 *ST西发收函：抽屉协议？",
        "docid": "7330877965741490698",
        "url": ""
    },
    {
        "title": "股市晚评：奇迹日！",
        "docid": "7330907358270997019",
        "url": ""
    },
    {
        "title": "中建环能（300425）2月2日主力资金净卖出1386.21万元",
        "docid": "7330907764396442146",
        "url": ""
    },
    {
        "title": "聚龙股份又一批投资者获得赔偿款 诉讼时效仅剩2个多月",
        "docid": "7330582420267221519",
        "url": ""
    },
    {
        "title": "推进发展战略掷地有声 中科星图2023年业绩大幅预增",
        "docid": "7330885067700666895",
        "url": ""
    },
    {
        "title": "泸州老窖股份有限公司董事、副总经理王洪波辞职",
        "docid": "7330884009499017778",
        "url": ""
    },
    {
        "title": "北交所拟于近期开展启用新证券代码号段仿真测试",
        "docid": "7330877836334694947",
        "url": ""
    },
    {
        "title": "银河磁体下跌5.04%，报12.99元/股",
        "docid": "7330877119289098791",
        "url": ""
    },
    {
        "title": "96家公司业绩快报抢先看",
        "docid": "7330809350077858356",
        "url": ""
    },
    {
        "title": "步长制药2023年度业绩扭亏为盈，业绩公告中提及商誉计提，悬了！",
        "docid": "7329848031573312052",
        "url": ""
    },
    {
        "title": "异动快报：天洋新材（603330）2月2日14点23分触及跌停板",
        "docid": "7330890721571979816",
        "url": ""
    },
    {
        "title": "中信证券收盘跌1.27%，主力资金净流出2.97亿元",
        "docid": "7330909586314035764",
        "url": ""
    },
    {
        "title": "卷走30亿，掏空上市公司，超6万人被骗，又一资本大佬跑路了！",
        "docid": "7330914920626143783",
        "url": ""
    },
    {
        "title": "盘中百点长阴，逼出国家队护盘",
        "docid": "7330903353645498920",
        "url": ""
    },
    {
        "title": "A股：上证盘中低点2666.33点，收于2730.15点，究竟几个意思？",
        "docid": "7330939805750166056",
        "url": ""
    },
    {
        "title": "亚太主要股市收盘普涨，韩国综合指数收涨2.87%",
        "docid": "7330915479055385114",
        "url": ""
    },
    {
        "title": "复盘笔记：大A终于向死而生，成功涅槃！",
        "docid": "7330926456933007909",
        "url": ""
    },
    {
        "title": "我的自选股（爆仓）",
        "docid": "7330844636476572170",
        "url": ""
    },
    {
        "title": "救市是假的吗？到底是谁在做空股市？",
        "docid": "7330922052557816355",
        "url": ""
    },
    {
        "title": "春兴精工股东户数连续6期下降 筹码集中以来股价累计下跌37.74%",
        "docid": "7330915039618597412",
        "url": ""
    },
    {
        "title": "权威人士：北交所转板将有新进展",
        "docid": "7330910884434838068",
        "url": ""
    },
    {
        "title": "金固股份下跌5.76%，报5.4元/股",
        "docid": "7330871685316510248",
        "url": ""
    },
    {
        "title": "大数据业务发力助力扭亏为盈 ST实达预计2023年盈利超3000万",
        "docid": "7330815841841283595",
        "url": ""
    },
    {
        "title": "管理层大幅增持自家公司，黑马名单来了！",
        "docid": "7330937121777484288",
        "url": ""
    },
    {
        "title": "刘俏：暂停IPO等建议与A股估值修复并没建立令人信服因果联系",
        "docid": "7330933478286377522",
        "url": ""
    },
    {
        "title": "北向资金今日净买入23.6亿元 紫金矿业净买入1.44亿元",
        "docid": "7330935079650214454",
        "url": ""
    },
    {
        "title": "达美乐中国第800家门店开业",
        "docid": "7330860166390596159",
        "url": ""
    },
    {
        "title": "2月2日 A股停牌复盘交易时间线（全市近5000只个股待涨！）",
        "docid": "7330888127671992871",
        "url": ""
    },
    {
        "title": "免疫治疗概念2日主力净流出1.42亿元，复星医药、上海莱士居前",
        "docid": "7330905730276491810",
        "url": ""
    },
    {
        "title": "对外投资仍“拖后腿”，三六零预计去年亏损最高5.5亿元",
        "docid": "7330236682672996918",
        "url": ""
    },
    {
        "title": "强调市值管理，就是股价要上涨吗？",
        "docid": "7330542605379682826",
        "url": ""
    },
    {
        "title": "合盛硅业：10万吨多晶硅生产线量产 迈入光伏产业链核心领域",
        "docid": "7330180305011540520",
        "url": ""
    },
    {
        "title": "769家创业板公司预告2023年业绩（附股）",
        "docid": "7330809345321714215",
        "url": ""
    },
    {
        "title": "机构借道大宗交易买入超百亿元 业内人士：短期市场具备一定的修复动能",
        "docid": "7330760489741419059",
        "url": ""
    },
    {
        "title": "北大金融学教授：推翻注册制、暂停IPO、取消做空机制等建议与A股修复与提升没有令人信服的因果联系",
        "docid": "7330938971612512806",
        "url": ""
    },
    {
        "title": "亚马逊：去年第四季度净利为106亿美元，同比大增约3433%",
        "docid": "7330917625964315171",
        "url": ""
    },
    {
        "title": "图解牛熊股",
        "docid": "7330927109214388751",
        "url": ""
    },
    {
        "title": "异动开始！张坤、焦巍、傅友兴、朱少醒集体调研",
        "docid": "7330943359307956799",
        "url": ""
    },
    {
        "title": "秦洪看盘｜抄底盘涌入，A股市场再现下影线",
        "docid": "7330948975946662434",
        "url": ""
    },
    {
        "title": "上海洗霸：实际控制人及其一致行动人拟增持40万股-80万股",
        "docid": "7330956163242246697",
        "url": ""
    },
    {
        "title": "创耀科技：1月31日高管王万里、赵家兴增持股份合计2500股",
        "docid": "7330605408975110690",
        "url": ""
    },
    {
        "title": "（图表）纽约股市三大股指2月1日上涨",
        "docid": "7330811878547014185",
        "url": ""
    },
    {
        "title": "股市在积极气氛中迈向2024年 但历史警示：大选年的2月可能是“绊脚石”",
        "docid": "7330345565047243302",
        "url": ""
    },
    {
        "title": "业绩预增六成以上 云南能投获控股股东增持",
        "docid": "7330878947079012927",
        "url": ""
    },
    {
        "title": "今日103只个股突破五日均线",
        "docid": "7330902167382917695",
        "url": ""
    },
    {
        "title": "大手笔！“医药电商第一股”年终奖励优秀员工52辆阿维塔",
        "docid": "7330926566026871307",
        "url": ""
    },
    {
        "title": "电视剧都不敢这么写！上交所一则问询函，牵出宝众宝达药业原实控人一桩婚外情",
        "docid": "7330934691442410036",
        "url": ""
    },
    {
        "title": "三股力量砸盘下，沪指跌破2700点，A股还有得救吗？",
        "docid": "7330876922685686326",
        "url": ""
    },
    {
        "title": "KK集团四战港股IPO，终于开始盈利",
        "docid": "7330924414302798390",
        "url": ""
    },
    {
        "title": "多期定期报告披露的财务数据不准确，中国重工及时任董事长等被上交所通报批评",
        "docid": "7330950749318496808",
        "url": ""
    },
    {
        "title": "红星美凯龙完成业绩筑底 与建发股份协同成效可期",
        "docid": "7330926093806862886",
        "url": ""
    },
    {
        "title": "恒瑞医药狂跌在前，石药集团溢价H装A，谁买账？",
        "docid": "7330940552986460710",
        "url": ""
    },
    {
        "title": "菲林格尔-10.02%跌停，总市值15.14亿元",
        "docid": "7330887155033686564",
        "url": ""
    },
    {
        "title": "房地产行业资金流入榜：浦东金桥、中交地产等净流入资金居前",
        "docid": "7330930499747283471",
        "url": ""
    },
    {
        "title": "4连跌停景峰医药：预计2023年净亏损1.9亿元-2.3亿元，公能否进入重整程序存不确定性",
        "docid": "7330935345255170597",
        "url": ""
    },
    {
        "title": "冠石科技：将持续专注主营业务发展，加强技术创新，做好企业经营",
        "docid": "7330932771168961039",
        "url": ""
    },
    {
        "title": "78股今日获机构买入评级 12股上涨空间超50%",
        "docid": "7330933070671381030",
        "url": ""
    },
    {
        "title": "港股三大指数收跌！医药股重挫，地产股反弹",
        "docid": "7330930481867260451",
        "url": ""
    },
    {
        "title": "帝科股份（300842）2月1日主力资金净买入1396.92万元",
        "docid": "7330810254647050804",
        "url": ""
    },
    {
        "title": "A股2月投资重点来啦！券商建议盯紧这些板块！",
        "docid": "7330806936876794378",
        "url": ""
    },
    {
        "title": "多家锂电池材料企业去年业绩承压 产业链利润正重新分配",
        "docid": "7330071500755976704",
        "url": ""
    },
    {
        "title": "杨德龙：优质龙头股估值修复是全年的投资主线",
        "docid": "7330914752321372683",
        "url": ""
    },
    {
        "title": "滨江服务3259.66万中标宁波两项目482个停车位",
        "docid": "7330664236017959474",
        "url": ""
    },
    {
        "title": "235家公司获机构调研（附名单）",
        "docid": "7330438294192472627",
        "url": ""
    },
    {
        "title": "罕见！两家焦点金融机构\"同框\"，涉及这家上市公司",
        "docid": "7330837728227525157",
        "url": ""
    },
    {
        "title": "跨界收购强化主业！天纺标积极回复交易所问询函，看好检测行业前景，不到半个月股价翻番，融资客积极看好",
        "docid": "7330160003065725481",
        "url": ""
    },
    {
        "title": "124只股短线走稳 站上五日均线",
        "docid": "7330848019392643599",
        "url": ""
    },
    {
        "title": "爆仓声轰鸣！屠宰场，还是乐观向上的氛围？上市公司质押盘爆仓有黑幕？",
        "docid": "7330974510978105883",
        "url": ""
    },
    {
        "title": "AI算力硬件需求激增，沪电股份2023年Q4业绩超预期",
        "docid": "7330885777754604083",
        "url": ""
    },
    {
        "title": "圣湘生物：实控人兼董事长及其一致行动人拟5000万元-1亿元增持公司股份",
        "docid": "7330952301038813750",
        "url": ""
    },
    {
        "title": "5个交易日累计跌超25%！海泰发展2023年前三季度亏损3546.98万元",
        "docid": "7330957207435346444",
        "url": ""
    },
    {
        "title": "急挫37%后迎来业绩利好！药明合联能否就此止跌？",
        "docid": "7330824080049979931",
        "url": ""
    },
    {
        "title": "宝兰德：董事长提议5000万元-8000万元回购公司股份",
        "docid": "7330938708751188506",
        "url": ""
    },
    {
        "title": "高盟新材：首次回购2619.8万元公司股份",
        "docid": "7330945097942925860",
        "url": ""
    },
    {
        "title": "铜冠矿建：2月6日北交所首发上会 致力于成为全球领先的智慧矿山系统解决方案提供商",
        "docid": "7330885889218462234",
        "url": ""
    },
    {
        "title": "遥望科技收关注函：要求说明前期商誉减值计提是否准确充分，是否符合会计准则相关规定",
        "docid": "7330911891135005222",
        "url": ""
    },
    {
        "title": "物产中大：坚持提升公司内在价值，努力为投资者创造长期稳定的投资回报",
        "docid": "7330935080535278092",
        "url": ""
    },
    {
        "title": "三祥新材-9.96%跌停，总市值37.73亿元",
        "docid": "7330886383735095842",
        "url": ""
    },
    {
        "title": "亏了35%怎么办？姜诚：忘掉亏损、忘掉回本这件事",
        "docid": "7330972301233930791",
        "url": ""
    },
    {
        "title": "瑞银被A股打的满地找牙，好多持仓股腰斩！",
        "docid": "7330978669722370560",
        "url": ""
    },
    {
        "title": "摩根资产管理王琼慧：做多中国，让A股“新名片”走向世界",
        "docid": "7330969878603579939",
        "url": ""
    },
    {
        "title": "万华化学：2023年净利润168.14亿元 同比增3.57%",
        "docid": "7330963394210185768",
        "url": ""
    },
    {
        "title": "上证资产支持证券指数系列发布 为市场提供更多债券投资标的",
        "docid": "7330963616063111720",
        "url": ""
    },
    {
        "title": "一诺威：1月31日高管徐军、宋兵增持股份合计1.8万股",
        "docid": "7330808023856792079",
        "url": ""
    },
    {
        "title": "金田股份收监管工作函：上交所就公司拟变更募集资金投向及项目延期有关事项明确监管要求",
        "docid": "7330973714303402523",
        "url": ""
    },
    {
        "title": "Outlook 2024丨专访思睿集团首席经济学家洪灏：目前看多不做多，股市波动无关基本面",
        "docid": "7330638747169686079",
        "url": ""
    },
    {
        "title": "童话财经丨为何大家对全面暂停限售股出借期望如此高？融资融券到底是什么？",
        "docid": "7330623252970144294",
        "url": ""
    },
    {
        "title": "童话财经丨为何大家对全面暂停限售股出借期望如此高？融资融券到底是什么？",
        "docid": "7330816282729710089",
        "url": ""
    },
    {
        "title": "减肥药龙头市值突破5000亿美元！GLP-1药物市场空间大，产业链将充分受益——道达研选",
        "docid": "7330972681619603968",
        "url": ""
    },
    {
        "title": "海普瑞披露子公司被诈骗过程：犯罪分子以“机密并购”为由设下骗局",
        "docid": "7330054470107234853",
        "url": ""
    },
    {
        "title": "中望软件：董事长拟增持500万元-1000万元",
        "docid": "7330948939577229836",
        "url": ""
    },
    {
        "title": "金种子酒：将继续聚焦主业，优化经营及管理能力，提升经营业绩",
        "docid": "7330925809991123496",
        "url": ""
    },
    {
        "title": "北交所N海昇上市首日一度跌超11%，新股“打新躺赢”可能被终结",
        "docid": "7330954506689217058",
        "url": ""
    },
    {
        "title": "中银证券：公司在考虑外部发展环境和自身情况等因素的基础上，综合确定分红比例和利润留存情况",
        "docid": "7330974988251431460",
        "url": ""
    },
    {
        "title": "购物季为亚马逊带来高增长，仍面临监管、竞争双挑战",
        "docid": "7330899151481995786",
        "url": ""
    },
    {
        "title": "普源精电：董事长提议以3000万元-5000万元回购股份",
        "docid": "7330936125617701403",
        "url": ""
    },
    {
        "title": "上交所终止科峰智能发行上市审核",
        "docid": "7330974312478196239",
        "url": ""
    },
    {
        "title": "这家公司年终奖送宝马！还有应届生专属奖项",
        "docid": "7330958207562727990",
        "url": ""
    },
    {
        "title": "频频中标大单！这些行业机会多",
        "docid": "7330983223482302991",
        "url": ""
    },
    {
        "title": "成长板块震荡调整，创业板ETF（159915）、科创板50ETF（588080）等成交活跃",
        "docid": "7330975514851181119",
        "url": ""
    },
    {
        "title": "股友须知：鸡蛋不能放在一个篮子里，那么要放在几个篮子里？",
        "docid": "7330828416478003712",
        "url": ""
    },
    {
        "title": "埃克森美孚2023年全年盈利360亿美元",
        "docid": "7330969305187942938",
        "url": ""
    },
    {
        "title": "股价大跌 中晶科技控股股东补充质押160万股",
        "docid": "7330977808980345398",
        "url": ""
    },
    {
        "title": "“硬科技”指数回调，关注科创板50ETF（588080）、半导体芯片ETF（516350）等产品走势",
        "docid": "7330974206370890281",
        "url": ""
    },
    {
        "title": "银都股份：合计699.2万元三笔借款被逾期",
        "docid": "7330967508213629466",
        "url": ""
    },
    {
        "title": "航锦科技：拟以3亿-4亿元回购公司股份",
        "docid": "7330974601905914379",
        "url": ""
    },
    {
        "title": "同兴环保：董事长增持公司股份20.14万股",
        "docid": "7330960280052351522",
        "url": ""
    },
    {
        "title": "A股：下午突然回落的原因找到了，两件事情不得不说，还要回落吗",
        "docid": "7330911441362371083",
        "url": ""
    },
    {
        "title": "锋尚文化集团股份有限公司副总经理王雪晨辞职",
        "docid": "7330940656967451136",
        "url": ""
    },
    {
        "title": "天汽模下跌5.11%，报3.53元/股",
        "docid": "7330874804889518601",
        "url": ""
    },
    {
        "title": "紫光股份成立智教科技新公司，注册资本5000万",
        "docid": "7330884316530213413",
        "url": ""
    },
    {
        "title": "中色股份：2023年净利润同比预增118.04%-186.18%",
        "docid": "7330936585011544591",
        "url": ""
    },
    {
        "title": "华兴资本：包凡辞去公司执行董事、董事会主席、首席执行官等职务",
        "docid": "7330864984614126095",
        "url": ""
    },
    {
        "title": "爱朋医疗（300753）2月2日主力资金净卖出109.65万元",
        "docid": "7330910054990119476",
        "url": ""
    },
    {
        "title": "香港恒生指数收跌0.21% 恒生科技指数跌0.72%",
        "docid": "7330914235263975990",
        "url": ""
    },
    {
        "title": "佳沃因三文鱼业务拖累2023年仍大幅亏损，净资产预计实现转正",
        "docid": "7330926256827941417",
        "url": ""
    },
    {
        "title": "河北汇金集团股份有限公司职工代表监事梁晓麒辞职",
        "docid": "7330953512132133417",
        "url": ""
    },
    {
        "title": "宝钛股份下跌5.02%，报22.72元/股",
        "docid": "7330882483271238198",
        "url": ""
    }
]