[
    {
        "title": "8年了《情满四合院》演员境况差距大，有人离去，有人77岁仍演戏",
        "docid": "7293778223442412086",
        "url": ""
    },
    {
        "title": "以为是退圈，其实已离世，外来媳妇本地郎这8个演员再也见不到了",
        "docid": "7290882355567493667",
        "url": ""
    },
    {
        "title": "一念关山：任如意的两个徒弟，李同光和杨盈，她更在意哪一个？",
        "docid": "7312803248267067914",
        "url": ""
    },
    {
        "title": "8部王炸记录片，狠狠提升你的格局",
        "docid": "7297017555179340297",
        "url": ""
    },
    {
        "title": "历史长镜头中一个个鲜活的人，诠释《何以中国》",
        "docid": "7312605256016462351",
        "url": ""
    },
    {
        "title": "《锦心似玉》：为什么徐令宜与元娘成了怨偶，却与十一娘琴瑟和鸣",
        "docid": "7300922417106043442",
        "url": ""
    },
    {
        "title": "谍战剧《身份的证明》第一集：地下交通员和情报员先后被捕",
        "docid": "7282339246865318437",
        "url": ""
    },
    {
        "title": "国内首部以侦察兵为视角，解读抗美援朝的电视剧《侦察英雄》来了",
        "docid": "7296074868347552307",
        "url": ""
    },
    {
        "title": "他戏演的不错，就是名字太特别，能叫上来的人不多，早就该火了",
        "docid": "7304116798054973971",
        "url": ""
    },
    {
        "title": "王心刚的演技，不如冯喆？",
        "docid": "7289603512839864844",
        "url": ""
    },
    {
        "title": "身份在迷失中觉醒，一场视觉与感官的盛宴，思考当代生活之迷",
        "docid": "7294556269087277631",
        "url": ""
    },
    {
        "title": "《新闻女王》收官 “最热港剧”“热”从何来？",
        "docid": "7312819870444290594",
        "url": ""
    },
    {
        "title": "央视首播！又一军旅剧来袭，朱亚文坐镇，提前预订2024年度爆款",
        "docid": "7312731837015687720",
        "url": ""
    },
    {
        "title": "优质内容恒热  杨磊、辛爽获评“年度导演”",
        "docid": "7313453698120860170",
        "url": ""
    },
    {
        "title": "佳木斯的伪满特务，在《悬崖》里的精彩表现，并不逊色于主角高彬",
        "docid": "7312416584197669428",
        "url": ""
    },
    {
        "title": "《人世间》里面七位关键人物去世，让人惋惜，情节跌宕起伏",
        "docid": "7305307708306637363",
        "url": ""
    },
    {
        "title": "难怪《雾中系铃人》，会被积压3年，2大槽点，确实过于明显",
        "docid": "7291991423811961379",
        "url": ""
    },
    {
        "title": "《人民的脊梁》：陈道明、陈宝国、朱亚文、田雨领衔反腐大剧",
        "docid": "7282996539050459682",
        "url": ""
    },
    {
        "title": "重温《父母爱情》才懂，为何亚菲嫁二婚当后妈，亚宁却是少将夫人",
        "docid": "7304585150493458984",
        "url": ""
    },
    {
        "title": "82版《少林寺》中的穿帮镜头，原来经典也会穿帮，让人简直笑哭了",
        "docid": "7309409981571629606",
        "url": ""
    },
    {
        "title": "乔任梁、祖峰联手抗日，谍战剧《代号》：揭秘地下党的生死斗争",
        "docid": "7289837067326997031",
        "url": ""
    },
    {
        "title": "《刀尖》一座历史密室，二名特工，三面间谍，破解四个历史真相",
        "docid": "7305305802150085135",
        "url": ""
    },
    {
        "title": "笑不活了！2023年待上映韩剧，疑似大量首饰摆设是在淘宝进货",
        "docid": "7313356441929335322",
        "url": ""
    },
    {
        "title": "盘点姜文的偶像罗伯特.德尼罗，口碑炸裂的十部影片！",
        "docid": "7313098002829247027",
        "url": ""
    },
    {
        "title": "40集谍战新剧《捕风者》将启，三位女特工集结，共谱时代赞歌！",
        "docid": "7313472874726375986",
        "url": ""
    },
    {
        "title": "《密战》：祖峰、刘佳主演谍战巅峰，揭秘星讯六号卫星的神秘面纱",
        "docid": "7290465505138508300",
        "url": ""
    },
    {
        "title": "一地下党被敌押去修铁路，旁边翻译经过时悄声道：明天有人来救你",
        "docid": "7283141242685342219",
        "url": ""
    },
    {
        "title": "导演翟俊杰——老兵的情怀（足音）",
        "docid": "7312668530364056098",
        "url": ""
    },
    {
        "title": "《外来媳妇本地郎》当中的戴希臣扮演者黑泽恩突传死讯！享年81岁",
        "docid": "7311568876591252002",
        "url": ""
    },
    {
        "title": "一交通员执行任务时失踪，一年后，警卫员给首长擦枪时才发现端倪",
        "docid": "7306520794543292991",
        "url": ""
    },
    {
        "title": "《无所畏惧》演技最好的是这两个女演员，热依扎排不进前三",
        "docid": "7304470199716201023",
        "url": ""
    },
    {
        "title": "美国“内战”爆发？《机械姬》《湮灭》导演：安排！",
        "docid": "7313475985498980904",
        "url": ""
    },
    {
        "title": "《三大队》《年会不能停》各看一遍，一部太上头，一部昏昏欲睡",
        "docid": "7313560654798815759",
        "url": ""
    },
    {
        "title": "刚刚，《繁花》定档12月27日首播！胡歌讲述阿宝的故事",
        "docid": "7313589191676576292",
        "url": ""
    },
    {
        "title": "突然！《外来媳妇本地郎》又一演员因病去世，享年81岁",
        "docid": "7313474158971716148",
        "url": ""
    },
    {
        "title": "同一张脸，演完《虎鹤妖师录》再演《一念关山》，差异很明显",
        "docid": "7310929156911923746",
        "url": ""
    },
    {
        "title": "明明同一角色，《千古玦尘》演员碾压《神隐》，有对比就有伤害",
        "docid": "7311947683739124239",
        "url": ""
    },
    {
        "title": "哭了！星光大赏的《陈情令》开场成全场焦点，梦回19年那个夏天",
        "docid": "7313568690161992255",
        "url": ""
    },
    {
        "title": "这才是正经人该看的电视剧，古偶谍战的新颖风格",
        "docid": "7313596218213499455",
        "url": ""
    },
    {
        "title": "广图举办“真人书”活动，纪录片导演卢华杰分享登顶珠峰故事",
        "docid": "7313536537420366336",
        "url": ""
    },
    {
        "title": "主席形象后继有人！36集历史大剧来袭，刘承林已接好唐国强的班",
        "docid": "7313594965332967987",
        "url": ""
    },
    {
        "title": "AI青霞美人（92）——一身霓裳羽衣，宛如敦煌壁画中的飞天",
        "docid": "7291840457733079592",
        "url": ""
    },
    {
        "title": "《余生，请多指教》二人民宿单独相处的场景真是好笑又感动",
        "docid": "7286289175773725243",
        "url": ""
    },
    {
        "title": "檀健次张婧仪《被我弄丢的你》定档 明年3月8日上映",
        "docid": "7313489983695077927",
        "url": ""
    },
    {
        "title": "《人民的名义》祁同伟倒台后，赵东来能当公安厅长吗？他是副厅级",
        "docid": "7295544014441497129",
        "url": ""
    },
    {
        "title": "《女人泪》：陈宝国梅婷演绎民国谍战，爱恨情仇交织的女人故事",
        "docid": "7290115037912564235",
        "url": ""
    },
    {
        "title": "连环画《日出之前》人民美术出版社 【高山】绘",
        "docid": "7313313468269232650",
        "url": ""
    },
    {
        "title": "贺岁档上映新片数创5年新高！本年度贺岁档票房已超23亿元",
        "docid": "7313582321259512331",
        "url": ""
    },
    {
        "title": "这是一份工作也是一份使命",
        "docid": "7281810591851840012",
        "url": ""
    },
    {
        "title": "“新时代·新影像”创作分享｜光明影院的无障碍电影是怎样炼成的",
        "docid": "7313504344312414720",
        "url": ""
    },
    {
        "title": "古装臻爱励志剧《凤弈》17日晚登陆四川卫视",
        "docid": "7313400492347228724",
        "url": ""
    },
    {
        "title": "​看完50部美国拍的朝鲜战争电影，发现了……",
        "docid": "7285544341878161956",
        "url": ""
    },
    {
        "title": "《项羽》：何润东和谭凯的项羽，差别竟然这么大",
        "docid": "7306467789160743424",
        "url": "https://www.ixigua.com/7306467789160743424"
    },
    {
        "title": "我叫嫪毐，是个很有为的实干家，直到我遇到了主角项少龙",
        "docid": "7286354895417344546",
        "url": "https://www.ixigua.com/7286354895417344546"
    },
    {
        "title": "特工凤凰，👀荃集➕🛰️Driverat88",
        "docid": "7287114566780224036",
        "url": "https://www.ixigua.com/7287114566780224036"
    },
    {
        "title": "《对不起我爱你》短剧一口气看完全集",
        "docid": "7313317371404517938",
        "url": "https://www.ixigua.com/7313317371404517938"
    },
    {
        "title": "郭靖鏖战五大高手，降龙十八掌横扫三万精兵，简直强的离谱",
        "docid": "7305327202034582057",
        "url": "https://www.ixigua.com/7305327202034582057"
    },
    {
        "title": "希波利特星人团灭奥特五兄弟，杰克出门忘记带奥特手镯",
        "docid": "7299425035758862860",
        "url": "https://www.ixigua.com/7299425035758862860"
    },
    {
        "title": "龙腾虎跃，必须拿下",
        "docid": "7295254299397849635",
        "url": "https://www.ixigua.com/7295254299397849635"
    },
    {
        "title": "手撕超人，完爆钢铁侠，这才是真正的祖国人",
        "docid": "7298305925763793447",
        "url": "https://www.ixigua.com/7298305925763793447"
    },
    {
        "title": "90后一定追过的8部经典台湾偶像剧！还有你没看过的吗？",
        "docid": "7312251266481504803",
        "url": ""
    },
    {
        "title": "《照明商店》首周票房破亿 漫画改编电影的“镜”与“像”",
        "docid": "7313398945735213568",
        "url": ""
    },
    {
        "title": "邱志雄：23年扎根公路建设一线，研发全国十大首创技术",
        "docid": "7313534067055641151",
        "url": ""
    },
    {
        "title": "星火成炬 | 笑一笑没什么大不了",
        "docid": "7298937295443690023",
        "url": ""
    },
    {
        "title": "练了一辈子武功不该享受享受吗",
        "docid": "7290410407322190371",
        "url": "https://www.ixigua.com/7290410407322190371"
    },
    {
        "title": "张芸京杀疯了！14年后再唱《偏爱》，一开口就是全场大合唱！",
        "docid": "7306418177637155368",
        "url": "https://www.ixigua.com/7306418177637155368"
    },
    {
        "title": "《贪欢》4.9💰看全集V: aaaa88557788\n全网短剧都🈶",
        "docid": "7313387436560777768",
        "url": "https://www.ixigua.com/7313387436560777768"
    },
    {
        "title": "玻璃侠与沙人，同是修复大师，打起来谁能更胜一筹？",
        "docid": "7310859595121951243",
        "url": "https://www.ixigua.com/7310859595121951243"
    },
    {
        "title": "剑术大师瞧不起项羽，结果下一秒被对方痛揍",
        "docid": "7311306977588544039",
        "url": "https://www.ixigua.com/7311306977588544039"
    },
    {
        "title": "混元神功加上护体软甲有多变态，戒日与燕返合击都破不掉",
        "docid": "7286432110016102973",
        "url": "https://www.ixigua.com/7286432110016102973"
    },
    {
        "title": "替嫁新娘之爱无悔（全集）竖屏视频  新剧来袭",
        "docid": "7293609088695403049",
        "url": "https://www.ixigua.com/7293609088695403049"
    },
    {
        "title": "盖世",
        "docid": "7288219101535666723",
        "url": "https://www.ixigua.com/7288219101535666723"
    },
    {
        "title": "灭霸见到海拉也得跪下！死亡女神海拉来袭！！",
        "docid": "7306510512173679141",
        "url": "https://www.ixigua.com/7306510512173679141"
    },
    {
        "title": "男人嫌弃妻子生完孩子后变成黄脸婆，毫不犹豫地选择了离婚",
        "docid": "7312817800379269659",
        "url": "https://www.ixigua.com/7312817800379269659"
    },
    {
        "title": "神级龙卫（全集）竖屏视频  最新短剧来袭",
        "docid": "7293509510726877759",
        "url": "https://www.ixigua.com/7293509510726877759"
    },
    {
        "title": "盘点不良人中的五大神级救场，最后一个绝对让你汗毛竖起",
        "docid": "7306433596604121627",
        "url": "https://www.ixigua.com/7306433596604121627"
    },
    {
        "title": "第五届海南岛国际电影节观影指南",
        "docid": "7313398945345028662",
        "url": ""
    },
    {
        "title": "12月17日（星期日）CCTV8节目预告",
        "docid": "7312733904908468788",
        "url": ""
    },
    {
        "title": "《画眉》又一个嫌疑人现身，原来是图书馆馆长也是特务",
        "docid": "7313285212660711973",
        "url": ""
    },
    {
        "title": "原来这么多年的爱都是可以演出来的，林双终于戳穿卫明的真面目！",
        "docid": "7281813915133542951",
        "url": ""
    },
    {
        "title": "看到何猷君得知朱丹被PUA时的反应，才明白周一围的爱有多深！",
        "docid": "7307935038560502272",
        "url": "https://www.ixigua.com/7307935038560502272"
    },
    {
        "title": "金刚不坏身对阵吸星大法",
        "docid": "7307493272031592998",
        "url": "https://www.ixigua.com/7307493272031592998"
    },
    {
        "title": "以前的萧远山对比现在的萧远山，以前的轻功太帅了！",
        "docid": "7292318969384894976",
        "url": "https://www.ixigua.com/7292318969384894976"
    },
    {
        "title": "一口气看完美剧《纸牌屋》",
        "docid": "7282495125442265615",
        "url": "https://www.ixigua.com/7282495125442265615"
    },
    {
        "title": "国民女神高圆圆和赵又廷的定情之作#搜索电影推荐",
        "docid": "7289290163556090426",
        "url": "https://www.ixigua.com/7289290163556090426"
    },
    {
        "title": "86《真命天子》当23岁蓝洁瑛遇到20岁周海媚，你觉得谁更胜一筹？",
        "docid": "7285415350722626103",
        "url": "https://www.ixigua.com/7285415350722626103"
    },
    {
        "title": "一个见财起意 一个见色起意",
        "docid": "7305753732330258971",
        "url": "https://www.ixigua.com/7305753732330258971"
    },
    {
        "title": "他俩明明有年龄差，但还是觉得好甜！原来演技真的可以拯救cp感",
        "docid": "7295553778638553637",
        "url": "https://www.ixigua.com/7295553778638553637"
    },
    {
        "title": "用电影温暖城市之心 网商银行联合昆明信息港彩龙社区举办公益专场观影活动",
        "docid": "7313616581387502107",
        "url": ""
    },
    {
        "title": "总台“官宣”龙年大剧，哪些是你期待的？",
        "docid": "7313584126399939106",
        "url": ""
    },
    {
        "title": "海南电影产业高质量发展路在何方？大咖送“锦囊妙计”",
        "docid": "7313547467289592346",
        "url": ""
    },
    {
        "title": "年末流水超电影票房？回顾2023年短剧爆炸增长丨有数",
        "docid": "7313486318071022080",
        "url": ""
    },
    {
        "title": "爆肝3个月，终于完成了我们儿时的武侠梦！",
        "docid": "7308319865793446427",
        "url": "https://www.ixigua.com/7308319865793446427"
    },
    {
        "title": "60万人打出9.1分，众多导演模仿的对象，却始终难以被超越的经典",
        "docid": "7294885591648240143",
        "url": "https://www.ixigua.com/7294885591648240143"
    },
    {
        "title": "你们练武我修仙全集 一口气看完整版大结局 方寒万婷婷短剧合集",
        "docid": "7313549739319329314",
        "url": "https://www.ixigua.com/7313549739319329314"
    },
    {
        "title": "第37集:甘十九妹偷吃禁果被发现#我的观影报告 #怀旧经典影视",
        "docid": "7309791614942052903",
        "url": "https://www.ixigua.com/7309791614942052903"
    },
    {
        "title": "让刘诗诗和成毅演母子，找帅哥来演丑男，狐妖小红娘选角有多绝",
        "docid": "7309067748556931594",
        "url": "https://www.ixigua.com/7309067748556931594"
    },
    {
        "title": "科目三到底是什么？在国外彻底杀疯了，果然听不懂的才最时尚",
        "docid": "7306834893965951522",
        "url": "https://www.ixigua.com/7306834893965951522"
    },
    {
        "title": "果然不经意的炫富最为致命：何猷君主打一个出手阔绰！龚俊看呆了",
        "docid": "7306892694813409818",
        "url": "https://www.ixigua.com/7306892694813409818"
    },
    {
        "title": "只打高端局的易继风，他的故事真的太令人心疼了",
        "docid": "7301614797613695507",
        "url": "https://www.ixigua.com/7301614797613695507"
    },
    {
        "title": "流星蝴蝶剑中最经典一战，飞鹏帮五位堂主围攻韩棠，最后惨胜",
        "docid": "7289084511093162507",
        "url": "https://www.ixigua.com/7289084511093162507"
    },
    {
        "title": "施伯雄说朱丹像他妈，吴千语一句话化解尴尬，这情商够金沙学3年",
        "docid": "7309784109525107209",
        "url": "https://www.ixigua.com/7309784109525107209"
    },
    {
        "title": "真的不是因为她长得有多丑，而是因为里面的女主女配真的太美了啊",
        "docid": "7283498870066446903",
        "url": "https://www.ixigua.com/7283498870066446903"
    },
    {
        "title": "不经意的炫富最为致命，何猷君菜市场买菜没见过两块这么小的钱",
        "docid": "7303860762274562569",
        "url": "https://www.ixigua.com/7303860762274562569"
    },
    {
        "title": "导演，把都督披风给他没收了，不要让他再散发魅力",
        "docid": "7297567821939081740",
        "url": "https://www.ixigua.com/7297567821939081740"
    },
    {
        "title": "23岁张敏遇上24岁周慧敏，谁更美？一首《新鸳鸯蝴蝶梦》勾起回忆",
        "docid": "7306465282724364854",
        "url": "https://www.ixigua.com/7306465282724364854"
    },
    {
        "title": "神侯在天牢自尽，四大密探找曹正淳报仇",
        "docid": "7307950845776265779",
        "url": "https://www.ixigua.com/7307950845776265779"
    },
    {
        "title": "一开口吓哭林俊杰，林忆莲的实力到底有多恐怖？",
        "docid": "7303838094011302409",
        "url": "https://www.ixigua.com/7303838094011302409"
    },
    {
        "title": "张译新片首日喜获票房冠军，口碑高达9.6分",
        "docid": "7313687353963545139",
        "url": ""
    },
    {
        "title": "周伯通挨打前后，我说这是 无人超越的老顽童，谁赞成谁反对？",
        "docid": "7306867923816350227",
        "url": "https://www.ixigua.com/7306867923816350227"
    },
    {
        "title": "你是S级，可我不止是S级！#魔女    #好看电影推荐",
        "docid": "7312520918658777610",
        "url": "https://www.ixigua.com/7312520918658777610"
    },
    {
        "title": "揉碎温柔（100集）一口气看完大结局完整版",
        "docid": "7313611417071026751",
        "url": "https://www.ixigua.com/7313611417071026751"
    },
    {
        "title": "罪妻难逃爹地这个才是我妈咪短剧全集完整版大结局98集一口气看完",
        "docid": "7313639675925627444",
        "url": "https://www.ixigua.com/7313639675925627444"
    },
    {
        "title": "志愿军取得重大胜利 38军军长却遭彭老总惨骂",
        "docid": "7297810307962176037",
        "url": "https://www.ixigua.com/7297810307962176037"
    },
    {
        "title": "有钱在有权面前真的不值一提",
        "docid": "7303080515781788196",
        "url": "https://www.ixigua.com/7303080515781788196"
    },
    {
        "title": "被闪婚小叔宠上天，👀荃集➕🛰️Driverat88",
        "docid": "7286734374337413644",
        "url": "https://www.ixigua.com/7286734374337413644"
    },
    {
        "title": "没想到在王凯医生的欢送会上还能吃到一手新瓜",
        "docid": "7311980242871124532",
        "url": ""
    },
    {
        "title": "这才是动作电影，洋人看不起中国功夫，洪拳咏春教他做人，",
        "docid": "7306737897976594994",
        "url": "https://www.ixigua.com/7306737897976594994"
    },
    {
        "title": "这部25年前的港剧，思想遥遥领先我们二十年。",
        "docid": "7309137137503470099",
        "url": "https://www.ixigua.com/7309137137503470099"
    },
    {
        "title": "这三位美若天仙的女超人，谁才是你心中的第一",
        "docid": "7292250850817540643",
        "url": "https://www.ixigua.com/7292250850817540643"
    },
    {
        "title": "伍佰：这些歌都是我写的，没想到我“资源回收”又给唱火了！",
        "docid": "7294183359595905586",
        "url": "https://www.ixigua.com/7294183359595905586"
    },
    {
        "title": "一屋子专业歌手，愣是唱不过一个“演戏的”！连龚琳娜都被唱哭了",
        "docid": "7311597490506039820",
        "url": "https://www.ixigua.com/7311597490506039820"
    },
    {
        "title": "何猷君问奚梦瑶：三胎要什么奖励？怎料奚梦瑶狮子大开口，太真实",
        "docid": "7309777997387694611",
        "url": "https://www.ixigua.com/7309777997387694611"
    },
    {
        "title": "赚钱不要命的黎明",
        "docid": "7313086379527766554",
        "url": "https://www.ixigua.com/7313086379527766554"
    },
    {
        "title": "老外真会玩……",
        "docid": "7313422419472056858",
        "url": "https://www.ixigua.com/7313422419472056858"
    },
    {
        "title": "当年她踩着风筝一出场，我就知道，这部剧颜值低不了！",
        "docid": "7290173192679883322",
        "url": "https://www.ixigua.com/7290173192679883322"
    },
    {
        "title": "易天行的天赋究竟有多高，要是他认真起来，逍遥王敢入侵中原吗？",
        "docid": "7303847014264275497",
        "url": "https://www.ixigua.com/7303847014264275497"
    },
    {
        "title": "逐招拆解，周星驰VS刘家辉，唐家霸王枪大战书生夺命剑！",
        "docid": "7312397050892288551",
        "url": "https://www.ixigua.com/7312397050892288551"
    },
    {
        "title": "不会演帝辛就别演，来看真正的人皇！ 现在演的毫无帝王之气！",
        "docid": "7310192881149739560",
        "url": "https://www.ixigua.com/7310192881149739560"
    },
    {
        "title": "周芷若根本不知，灭绝师太武功并不高，为什么她在时无人敢欺峨眉",
        "docid": "7302797134976811520",
        "url": ""
    },
    {
        "title": "网飞出品的十大限制级神剧！全程大尺度无尿点过瘾刺激",
        "docid": "7291716460089524773",
        "url": ""
    },
    {
        "title": "欢乐颂：同为男友为何90后的应勤有房有车，80后的王柏川没钱没房",
        "docid": "7301548907350327842",
        "url": ""
    },
    {
        "title": "祺贵人被乱棍打死时，谁注意到她的脚了？这才是甄嬛的厉害之处",
        "docid": "7301213592123408911",
        "url": ""
    },
    {
        "title": "《一念关山》任如意三大弟子一个比一个强，杨盈垫底，李同光第二",
        "docid": "7307557587728269862",
        "url": ""
    },
    {
        "title": "《正阳门下》演技最好的演员排名，边潇潇未进前四，第一当之无愧",
        "docid": "7289709826182169151",
        "url": ""
    },
    {
        "title": "看了《甄嬛传》的定妆照，才知道现在的古装剧有多敷衍！",
        "docid": "7280812932940759586",
        "url": ""
    },
    {
        "title": "《天道》：把“鸿门宴”看了100遍，才明白欧阳雪为什么突然翻脸",
        "docid": "7308363022203208207",
        "url": ""
    },
    {
        "title": "《雪中悍刀行》里大奸大恶褚禄山，是什么境界的高手呢？",
        "docid": "7299751906346287666",
        "url": ""
    },
    {
        "title": "《琅琊榜》梅长苏听到谢绮难产而亡后狠狠地吐了一口血，只有你懂",
        "docid": "7281842626339586575",
        "url": ""
    },
    {
        "title": "《大明王朝1566》：临走之前，吕芳为什么一定要见冯保？",
        "docid": "7310620473854362121",
        "url": ""
    },
    {
        "title": "同演女杀手，一个站姿就看出了刘诗诗与张芷溪的差别",
        "docid": "7311302260188561960",
        "url": ""
    },
    {
        "title": "《东北一家人》中七大美女：吊带战神排只排第三，毕竟还有何晴",
        "docid": "7313446507905450536",
        "url": ""
    },
    {
        "title": "盘点《权力的游戏》演员最不想拍摄的八个场景，龙妈差点被逼疯！",
        "docid": "7304577213884744204",
        "url": ""
    },
    {
        "title": "《欢乐颂》原著：结局最可悲的不是捞女樊胜美，而是已婚的邱莹莹",
        "docid": "7300373460415857192",
        "url": ""
    },
    {
        "title": "《狂飙》：身材火辣的小五永远不知，她给安欣表白的那晚，安欣心里想的竟是她？",
        "docid": "7311886178251178531",
        "url": ""
    },
    {
        "title": "雪中悍刀行：但凡徐骁服个软，徐凤年叫声小妈，整个天下都姓徐",
        "docid": "7305950135497409034",
        "url": ""
    },
    {
        "title": "甄嬛传：甄嬛回宫后，曾想除掉敬妃，为何端妃一句话让她打消念头",
        "docid": "7289108955920515645",
        "url": ""
    },
    {
        "title": "再看03版《天龙八部》: 得亏是她演女主，不然真压不住这么多绝色",
        "docid": "7287895266106212901",
        "url": ""
    },
    {
        "title": "《一念关山》看懂六道堂逼杀钱昭的真相，才懂杨盈为何色诱安帝",
        "docid": "7312213362576966144",
        "url": ""
    },
    {
        "title": "《天下第一》十大高手排名，归海一刀仅排第七，这六个人都比他强",
        "docid": "7287124570375651894",
        "url": ""
    },
    {
        "title": "吴京执导电影《刀》致敬徐克，易烊千玺化身杀手，成龙友情客串！",
        "docid": "7312103805385081379",
        "url": ""
    },
    {
        "title": "低胸皮裤，磨砂透视装，这些离谱的迷惑行为，让人看完直呼毁三观",
        "docid": "7287797541213962804",
        "url": ""
    },
    {
        "title": "8年后10刷琅琊榜才明白，为何梅长苏身边无一人上得了琅琊高手榜",
        "docid": "7306044833691943459",
        "url": ""
    },
    {
        "title": "康凯扮演的李逵、张飞究竟差在哪？为何总是不受待见？",
        "docid": "7295564736735871522",
        "url": ""
    },
    {
        "title": "底裤外露，尼姑透视装，导演你这么会拍，该不会是你自己想看吧！",
        "docid": "7281890393602638397",
        "url": ""
    },
    {
        "title": "士兵突击：老A选拔淘汰后，为什么甘小宁成为了高城的爱将？",
        "docid": "7298223870283104820",
        "url": ""
    },
    {
        "title": "张家辉女儿长大成关咏荷年轻时的样子！这闺女没辜负老妈的颜值",
        "docid": "7311539574855975433",
        "url": ""
    },
    {
        "title": "电影《破冰》粗制滥造，几乎是活脱脱的山寨版",
        "docid": "7313009189851677236",
        "url": ""
    },
    {
        "title": "为什么众多的抗战片只火了李云龙？网友的神评论给出了答案",
        "docid": "7302724371872252468",
        "url": ""
    },
    {
        "title": "《连城诀》十大高手排名，血刀老祖屈居第四，梅念笙仅排第三",
        "docid": "7282296605120758306",
        "url": ""
    },
    {
        "title": "眉庄临终前佩戴一物，赢得了女儿一生荣宠，可也暗中把甄嬛算计了",
        "docid": "7305930849638269455",
        "url": ""
    },
    {
        "title": "央视版《水浒传》八大美女，何晴、牛莉未入前三，王思懿屈居第三",
        "docid": "7280798096886612520",
        "url": ""
    },
    {
        "title": "香港古惑仔等级排名",
        "docid": "7297439417260818996",
        "url": ""
    },
    {
        "title": "推荐五部堪比《权游》的古装战争黄暴欧美剧",
        "docid": "7283490074792067618",
        "url": ""
    },
    {
        "title": "40岁再看《创世纪》：为什么说觉醒的早晚把人分成了三六九等",
        "docid": "7284781378972418618",
        "url": ""
    },
    {
        "title": "陈小春版《鹿鼎记》演员今昔，双儿二婚嫁入豪门，沐剑屏貌美如初",
        "docid": "7295195235595207178",
        "url": ""
    },
    {
        "title": "演员傅晶：46岁还能演大学生，多年来低调拍戏，很美可剧本太烂",
        "docid": "7293829115365294629",
        "url": ""
    },
    {
        "title": "看懂嫔妃们娘家的官职换算到现在，你就知道安陵容自卑的原因了!",
        "docid": "7312659919306523148",
        "url": ""
    },
    {
        "title": "《人民的名义》赵瑞龙200万大奔，800平别墅，资产100亿，4处受气",
        "docid": "7292615322857882124",
        "url": ""
    },
    {
        "title": "目前难以超越的八部宫斗剧，《甄嬛传》第二，第一是国产剧天花板",
        "docid": "7293539376712139274",
        "url": ""
    },
    {
        "title": "《权力的游戏》六个“变态”的细节，这就是为什么能被称为神剧！",
        "docid": "7306820994776416787",
        "url": ""
    },
    {
        "title": "一口气能看七八集的好看电视剧推荐",
        "docid": "7311206645492171300",
        "url": ""
    },
    {
        "title": "不会演农民就别演了！刘德华、梁家辉“土得掉渣”却堪称一绝",
        "docid": "7280459182300545597",
        "url": ""
    },
    {
        "title": "九难、洪安通、归辛树这三个人，谁才是鹿鼎记里的第一高手？",
        "docid": "7282163644127937024",
        "url": ""
    },
    {
        "title": "屠龙少年，终成恶龙",
        "docid": "7310133724111454755",
        "url": ""
    },
    {
        "title": "《以爱为营》番外12-15：肆无忌惮的刺激，在车里放纵",
        "docid": "7311309178138673690",
        "url": ""
    },
    {
        "title": "吕克·贝松透露《这个杀手不太冷》有望中国上映",
        "docid": "7311176470075097600",
        "url": ""
    },
    {
        "title": "《父母爱情》舅舅是司令，爸爸是参谋长，年轻轻的哥哥都是团长级别以上，她怎么混得如此没落？",
        "docid": "7304569850486440475",
        "url": ""
    },
    {
        "title": "满屏1星！洪金宝儿子演《破冰》，被观众痛骂：直接露肉就行了",
        "docid": "7312353716852589083",
        "url": ""
    },
    {
        "title": "TVB这五位演员，当上主角后反而不会演戏了",
        "docid": "7294183189873328690",
        "url": ""
    },
    {
        "title": "甄嬛传：槿汐到死不知，甄嬛早就想杀她，最后说了两句话逃过一劫",
        "docid": "7302375004745040421",
        "url": ""
    },
    {
        "title": "黄渤余男主演的电影《杀生》 竟然是在这个古镇上拍的 桃坪羌寨",
        "docid": "7313012080842408463",
        "url": ""
    },
    {
        "title": "鹿鼎记十大高手排名，冯锡范垫底，陈近南未入前三",
        "docid": "7281167275300979240",
        "url": ""
    },
    {
        "title": "《宁安如梦》看懂沈琅对燕家、薛家的算计，才知谢危为何将他斩首",
        "docid": "7301231817569387062",
        "url": ""
    },
    {
        "title": "《教父》演员今非昔比，马龙·白兰度年轻时简直甩小鲜肉十条街！",
        "docid": "7310165173589967414",
        "url": ""
    },
    {
        "title": "甄嬛传：华妃不孕只因欢宜香？错！太后给她肚子上了3重“保险”",
        "docid": "7307582580223148581",
        "url": ""
    },
    {
        "title": "蕾丝内衣，打仗穿黑丝，这些侮辱观众智商的画面，简直不堪入目",
        "docid": "7283680322842837504",
        "url": ""
    },
    {
        "title": "难怪王语嫣看不上段誉，你看她早已把清白给了谁，阿碧说出了答案",
        "docid": "7301614809148326451",
        "url": ""
    },
    {
        "title": "南海归墟：胡八一到死都不知道，古猜的真实身份到底有多厉害",
        "docid": "7308962982434898443",
        "url": ""
    },
    {
        "title": "所有人都知道锦觅是润玉的未婚妻，为什么旭凤却可以视若无睹？",
        "docid": "7296904206882079271",
        "url": ""
    },
    {
        "title": "难怪王扶林说陈晓旭不够漂亮，看看他选的原黛玉候选人，那才叫美",
        "docid": "7240246093072925199",
        "url": ""
    },
    {
        "title": "18年后重读《血色浪漫》才懂：一枪毙命的宁伟，根本不是死有余辜",
        "docid": "7293042359779049999",
        "url": ""
    },
    {
        "title": "同样是演顾曼桢，把吴倩莲、林心如和蒋欣放在一起对比，高下立见",
        "docid": "7308950021041439242",
        "url": ""
    },
    {
        "title": "《三生三世十里桃花》一无所有的少辛为何会嫁入豪门？原因有三个",
        "docid": "7280382098656084480",
        "url": ""
    },
    {
        "title": "《侠客行》十大高手排名，谢烟客仅排第七，比他强的都有谁？",
        "docid": "7282995077792809472",
        "url": ""
    },
    {
        "title": "《普罗米修斯》完整版解谜，大卫到底是怎样变坏的？",
        "docid": "7303726649668207119",
        "url": ""
    },
    {
        "title": "《琅琊榜》麒麟公公高湛为何一开始就选择帮靖王？原因在这三点",
        "docid": "7289317178829161012",
        "url": ""
    },
    {
        "title": "尺度还数老剧强！再看《蜗居》，全是细节真是满满的人性黑暗",
        "docid": "7311648437051933220",
        "url": ""
    },
    {
        "title": "当“硅胶脸”混进央视剧，盛世美颜被打回原形，导演再强也没用！",
        "docid": "7312354199508288040",
        "url": ""
    },
    {
        "title": "《征服》除了刘华强，还可以欣赏的四位曼妙女配角",
        "docid": "7302390659179184681",
        "url": ""
    },
    {
        "title": "还珠格格：在抛绣球招亲这件事上，紫薇说的话，简直丧心病狂！",
        "docid": "7312245912284201524",
        "url": ""
    },
    {
        "title": "士兵突击:只见了两次面，为什么高城和袁朗就有了过命的交情？",
        "docid": "7275510884615717416",
        "url": ""
    },
    {
        "title": "重温《双面胶》：李亚平杀妻后遛狗，才懂他对胡丽娟无爱全是算计",
        "docid": "7283006905151324711",
        "url": ""
    },
    {
        "title": "绝了！中国电视剧在日本的排名！看看谁是第一",
        "docid": "7296890126607729215",
        "url": ""
    },
    {
        "title": "10年后重温《康熙王朝》：才懂容妃获罪，被罚刷27年马桶的真相",
        "docid": "7307573615535473171",
        "url": ""
    },
    {
        "title": "《水龙吟》女主呆眼丫鬟，女配却沉鱼落雁，谁的审美出了问题？",
        "docid": "7308957694365483547",
        "url": ""
    },
    {
        "title": "《少年包青天》幕后：琼瑶反对周杰出演，包拯月牙高达5500港币",
        "docid": "7301999663970861602",
        "url": ""
    },
    {
        "title": "《陆小凤传奇》十大高手排名，陆小凤倒数第三，比他强的都有谁？",
        "docid": "7290739871830770233",
        "url": ""
    },
    {
        "title": "就这实力，难怪唐嫣捧了7年都火不了",
        "docid": "7313590520469799443",
        "url": ""
    },
    {
        "title": "《人民的名义》“怂包”祁同伟死都不知，“风情万种”的高小琴让赵瑞龙玷污4年，爱的其实是赵瑞龙",
        "docid": "7312348539697562147",
        "url": ""
    },
    {
        "title": "《乡村爱情》中的漂亮妈妈们，赵四媳妇最好看，谢广坤老婆最迷人",
        "docid": "7310778341358010934",
        "url": ""
    },
    {
        "title": "韩国十大限制级电影推荐",
        "docid": "7311561791124177442",
        "url": ""
    },
    {
        "title": "《流星花园》7位演员现状：有人入狱有人离世，混得一个不如一个",
        "docid": "7288251299924460051",
        "url": ""
    },
    {
        "title": "演员在幕后时都在干什么？点烟论英雄我忍住了，悟空骑摩托笑疯了",
        "docid": "7296420719318106661",
        "url": ""
    },
    {
        "title": "7位女星一人分饰母女，明明顶着同一张脸，妈妈为何总比女儿要美",
        "docid": "7291575451225440779",
        "url": ""
    },
    {
        "title": "从“恋足狂魔”到强迫症，细数好莱坞名导演的那些小癖好！",
        "docid": "7281942254284014115",
        "url": ""
    },
    {
        "title": "大江大河3：宋运辉婉拒大哥大，寻建祥租铺留后路，常怀赤子之心",
        "docid": "7304956907977114121",
        "url": ""
    },
    {
        "title": "梁山虽有108将，绝世高手却只有1位，一流高手7位，别的都不入流",
        "docid": "7308645334631088674",
        "url": ""
    },
    {
        "title": "你以为的老叔叔年轻时有多帅？原来《长月烬明》藏这么多童年男神",
        "docid": "7313733520709452298",
        "url": ""
    },
    {
        "title": "演员于洋金库和酒库曝光！金砖近百块，细节之处却让网友疑窦丛生",
        "docid": "7313538340417126975",
        "url": ""
    },
    {
        "title": "那些“荷尔蒙”爆棚的香港男神，明明长得不帅，却一个比一个有型",
        "docid": "7299297653547188748",
        "url": ""
    },
    {
        "title": "讨好中国观众也没用，成本15亿，预售143万，《海王2》问题在哪里",
        "docid": "7312289658149995019",
        "url": ""
    },
    {
        "title": "5部主角突然“领盒饭”的电视剧，观众一脸问号，第一个原因搞笑",
        "docid": "7304182788679565878",
        "url": ""
    },
    {
        "title": "最值得推荐并观看三遍以上的电视剧（谍战篇）",
        "docid": "7286462755803169332",
        "url": ""
    },
    {
        "title": "这些侮辱智商的台词，简直离谱到家了，求求导演多读点书吧！",
        "docid": "7287920066426257954",
        "url": ""
    },
    {
        "title": "91版《雪山飞狐》6大美人现状：程灵素仍貌美，苗若兰发福认不出",
        "docid": "7292382962639766067",
        "url": ""
    },
    {
        "title": "为何《古惑仔》系列没有拍下去，看这几点你就懂了",
        "docid": "7283757391609561652",
        "url": ""
    },
    {
        "title": "难怪刀白凤主动献身段延庆，你看她的历史原型是谁？比书中更轻浮",
        "docid": "7304921911333585448",
        "url": ""
    },
    {
        "title": "《见龙卸甲》，如何用一部电影，黑尽蜀国上下？",
        "docid": "7311980266606854719",
        "url": ""
    },
    {
        "title": "她可是小舟公主啊！怎么会不美呢？",
        "docid": "7312718915799908903",
        "url": ""
    },
    {
        "title": "再看《琅琊榜》奏请重审赤焰案的出场顺序，才懂靖王的仁慈与残忍",
        "docid": "7281232129739047463",
        "url": ""
    },
    {
        "title": "为什么《大宋提刑官》没有《神探狄仁杰》火？网友神评论给了答案",
        "docid": "7309492020270711296",
        "url": ""
    },
    {
        "title": "看到这么多的老戏骨，就感觉稳了，里面还有贾冰、金士杰等演员！",
        "docid": "7312808848966992403",
        "url": ""
    },
    {
        "title": "你以为杨洁代表作只有《西游记》？其实这些经典都是她拍的！",
        "docid": "7281554456146215487",
        "url": ""
    },
    {
        "title": "22年后再看《大宅门》：才明白为何大格格至死都不愿意与黄春相认",
        "docid": "7298677905591157300",
        "url": ""
    },
    {
        "title": "郭靖一生收了4个徒弟：2个废材，1个万人嫌，一个武功冠绝天下",
        "docid": "7294799297093583397",
        "url": ""
    },
    {
        "title": "5部可以“下饭”的经典好剧，值得看上几十遍！",
        "docid": "7282024946081989120",
        "url": ""
    },
    {
        "title": "《新白娘子传奇》中的穿帮镜头，简直太搞笑，看这么多年都没发现",
        "docid": "7297108793035588150",
        "url": ""
    },
    {
        "title": "强行换主演的6部电视剧续集，个个惨不忍睹，赔了夫人又折兵",
        "docid": "7295990561935917605",
        "url": ""
    },
    {
        "title": "小燕子根本不知，她将爹还给了紫薇为何还能当格格？但是紫薇知道",
        "docid": "7301717001033384499",
        "url": ""
    },
    {
        "title": "知否：把嫡女下嫁好色庶子，看似无奈，却是柳家对盛家最狠的算计",
        "docid": "7289582692956373560",
        "url": ""
    },
    {
        "title": "露天沐浴，高叉裙露大腿，这些侮辱观众的镜头，让人直呼不堪入目",
        "docid": "7283107587510272547",
        "url": ""
    },
    {
        "title": "《闯关东》里的八大美女：牛莉、黄小蕾未进前三，宋佳屈居第二",
        "docid": "7292463222362489385",
        "url": ""
    },
    {
        "title": "《一念关山》看懂李同光亵渎如意的画像，才知他对琉璃鞭尸的真相",
        "docid": "7310991127388717583",
        "url": ""
    },
    {
        "title": "林平之为什么最恨令狐冲？你看林平之杀岳灵珊前，对她说了什么话",
        "docid": "7301589191081656883",
        "url": ""
    },
    {
        "title": "南海归墟：五位主角五种结局，多玲最可惜，胡八一金盆洗手",
        "docid": "7308198547227787817",
        "url": ""
    },
    {
        "title": "11年后再看电影《万箭穿心》，我终于明白了马学武为什么要跳江",
        "docid": "7283415309166313995",
        "url": ""
    },
    {
        "title": "重温《双面胶》才懂，亚平爸死前遗言，彻底揭开丽娟被打死的真相",
        "docid": "7293332744623489586",
        "url": ""
    },
    {
        "title": "甄嬛传：眉庄才是后宫第一狠人，仅靠一个小动作，救了甄嬛一辈子",
        "docid": "7304560485381718555",
        "url": ""
    },
    {
        "title": "坚如磐石：唐大年为何要背叛黎志田？消失的3位创始人就是答案",
        "docid": "7286303247277572669",
        "url": ""
    },
    {
        "title": "《步步惊心》十二年了，如今才真得读懂马尔泰若兰！",
        "docid": "7290173555827294754",
        "url": ""
    },
    {
        "title": "一脸苦相能演“宋庆龄”？央视《问苍茫》选角真失败！",
        "docid": "7313477974144336399",
        "url": ""
    },
    {
        "title": "《大宅门》你根本不知，郑老屁为讨好七爷吃撑死的背后，藏着什么",
        "docid": "7302300199169393152",
        "url": ""
    },
    {
        "title": "《伪装者》汪曼春到死都不知道，76号隐藏最深的人，根本不是明楼",
        "docid": "7281951738402374207",
        "url": ""
    },
    {
        "title": "四大爷为何似笑非笑地对甄嬛说，朕第一次来看你，你就有了孩子？",
        "docid": "7300465162040017417",
        "url": ""
    },
    {
        "title": "江海天虽死，却留下六位弟子，大弟子被废，关门弟子是金世遗之孙",
        "docid": "7287508667472609803",
        "url": ""
    },
    {
        "title": "17年后看《乔家大院》才明白：孙茂才为什么背叛乔致庸？",
        "docid": "7298664155022918183",
        "url": ""
    },
    {
        "title": "近10年“口碑最好的10部韩剧”，《信号》第7名，《鬼怪》落选了",
        "docid": "7300809345309262363",
        "url": ""
    },
    {
        "title": "甄嬛传：太医卫临的狠，藏在沈眉庄和温实初幽会当晚的记档簿里",
        "docid": "7293143027722486313",
        "url": ""
    },
    {
        "title": "重播次数最多的10部电视剧，个个都是经典，为何如此受欢迎",
        "docid": "7313805001523298852",
        "url": ""
    },
    {
        "title": "把甄嬛传大结局刷10遍我才明白：甄嬛最后的回忆里为啥没有流朱！",
        "docid": "7280724091794883127",
        "url": ""
    },
    {
        "title": "10部高分纪实型刑侦剧排行榜，豆瓣最高分9.3，个个坚韧又高能！",
        "docid": "7280225830675169829",
        "url": ""
    },
    {
        "title": "八卦说；韩国电影，摇摇欲坠",
        "docid": "7313238840339120678",
        "url": ""
    },
    {
        "title": "南海归墟：阮黑到死都没说出的秘密，三叉戟号底舱到底有什么？",
        "docid": "7307904049020650011",
        "url": ""
    },
    {
        "title": "《父母爱情》：江德福多次以权谋私，为什么却颇受观众喜爱？",
        "docid": "7307228674494317092",
        "url": ""
    },
    {
        "title": "《射雕英雄传》中已逝的17位演员，以为他们还在，其实已去世多年",
        "docid": "7280124002218033720",
        "url": ""
    },
    {
        "title": "《大宅门》看懂白三爷临终前的交代，才懂二奶奶对他的算计",
        "docid": "7287874693288395325",
        "url": ""
    },
    {
        "title": "父母爱情：江亚菲成为团政委，究竟是能力使然，还是安杰活动的？",
        "docid": "7311636923641578020",
        "url": ""
    },
    {
        "title": "笑傲江湖十大高手排名，风清扬未能进入前三，比他强的有谁？",
        "docid": "7281524957362881058",
        "url": ""
    },
    {
        "title": "小时候讨厌的电视剧角色，长大以后却理解他了！",
        "docid": "7306880464017637898",
        "url": ""
    },
    {
        "title": "知否：不帮扶娘家、出身低微，用身体换前程的她，才是真正赢家",
        "docid": "7294138548205142566",
        "url": ""
    },
    {
        "title": "黄蓉到死都没料到，她苦等的救兵黄药师，最后竟死在了这里",
        "docid": "7281239008263717430",
        "url": ""
    },
    {
        "title": "三个男神全裸，也救不了这烂剧",
        "docid": "7313747697990009395",
        "url": ""
    },
    {
        "title": "甄嬛传：为何宜修被囚时佩戴一朵蓝色小花？甄嬛读懂后，动了杀机",
        "docid": "7313010466799436324",
        "url": ""
    },
    {
        "title": "《我是特种兵》幕后：播出两天被临时叫停，6位主演有5位是军人",
        "docid": "7301247600898884150",
        "url": ""
    },
    {
        "title": "《宁安如梦》两位败笔演员，一个猥琐一个像大妈，换掉他们更完美",
        "docid": "7303391245907411483",
        "url": ""
    },
    {
        "title": "10年后再看《致青春》：4个姑娘，从理想走向现实，太扎心",
        "docid": "7291497498726695459",
        "url": ""
    },
    {
        "title": "《新闻女王》大结局：从5个女人喝一瓶水，才明白梁景仁落泪缘由",
        "docid": "7313484995375628851",
        "url": ""
    },
    {
        "title": "于正被压6年的剧，21年首播，耗资3亿阵容豪华，结果男主已凉",
        "docid": "7285991681491698191",
        "url": ""
    },
    {
        "title": "他爱上了赵本山的徒弟，600万求娶，成名后不忘岳母8年照顾送房产",
        "docid": "7313498344386101770",
        "url": ""
    },
    {
        "title": "17岁拒演红楼梦，28岁跳楼身亡，王扶林评价：她很漂亮但像个草包",
        "docid": "7303408553476260388",
        "url": ""
    },
    {
        "title": "《闯关东》女配角貌美不输女主，15年后改名字、退圈，悉数不红",
        "docid": "7298734176960872994",
        "url": ""
    },
    {
        "title": "同一张脸，演完《知否》六年后，再演檀健次的丈母娘，她依旧美貌",
        "docid": "7311882355688604212",
        "url": ""
    },
    {
        "title": "“华筝公主”黄造时昙花一现，是童安格的表妹，刘嘉玲演她的丫环",
        "docid": "7307513173249278500",
        "url": ""
    },
    {
        "title": "浣碧为何斗不过孟静娴？不单是灌酒有了孩子，浣碧到死也想不明白",
        "docid": "7299018133732655616",
        "url": ""
    },
    {
        "title": "周海媚，“春风再美也比不上你的笑”",
        "docid": "7311743921946919451",
        "url": ""
    },
    {
        "title": "皇帝宠余莺儿，不是馋她的身子也不是馋她的昆曲，真相太扎心",
        "docid": "7307230738112512524",
        "url": ""
    },
    {
        "title": "翻拍最成功的4部剧，比原版还要火爆，谁说“炒现饭”都是毁经典",
        "docid": "7290882306871476751",
        "url": ""
    },
    {
        "title": "为什么编剧给宁二的官配是谢危，而不是爱了俩世的燕临?",
        "docid": "7300930776869388809",
        "url": ""
    },
    {
        "title": "《神隐》孔雀王没想到，遮天伞最后成他的催命符，华殊弑父后自尽",
        "docid": "7312741246060446248",
        "url": ""
    },
    {
        "title": "《八角笼中》探寻人性深度，成长真谛",
        "docid": "7313755296017515059",
        "url": ""
    },
    {
        "title": "片单丨5部未能在大陆上映的限制级港片，你看过几部？",
        "docid": "7303762884516053523",
        "url": ""
    },
    {
        "title": "6部东北犯罪悬疑剧，你看过几部？",
        "docid": "7301199757748666889",
        "url": ""
    },
    {
        "title": "南海归墟：底舱中到底藏着什么，阮黑至死都没有说出口的秘密",
        "docid": "7307469837847101963",
        "url": ""
    },
    {
        "title": "《父母爱情》中她们土的掉渣，现实中原来这么美，反差太大不敢认",
        "docid": "7280805761264091659",
        "url": ""
    },
    {
        "title": "有什么反转再反转的电影？",
        "docid": "7306673147942797850",
        "url": ""
    },
    {
        "title": "《涉过愤怒的海》娜娜为何沦为“受虐狂”！细思才知老金有多可恨",
        "docid": "7305369585639916067",
        "url": ""
    },
    {
        "title": "《脱轨》要爆了？刚开播就冲上热榜第1，连刷4集收不住",
        "docid": "7313450071922999871",
        "url": ""
    },
    {
        "title": "《小龙人》播出31年：于谦成顶流，宇文彤也成老戏骨，其他人呢？",
        "docid": "7305259816644313638",
        "url": ""
    },
    {
        "title": "北方帅哥和南方帅哥的区别，看87版的琏二爷和柳二郎就知道了",
        "docid": "7290169876696580664",
        "url": ""
    },
    {
        "title": "外媒评选2023十大最佳电影，看到第4名，我却一言难尽",
        "docid": "7309445715641074211",
        "url": ""
    },
    {
        "title": "难怪演警察那么传神，这8位演员曾是真的阿Sir，最后一位还是警花",
        "docid": "7282944313930072635",
        "url": ""
    },
    {
        "title": "80年代TVB十二位绝色当家花旦，三位已离世，三位仍活跃在影视界",
        "docid": "7312267648765854208",
        "url": ""
    },
    {
        "title": "《白发魔女传》十大高手排名，卓一航未能入榜，练霓裳屈居第六",
        "docid": "7290747565593592376",
        "url": ""
    },
    {
        "title": "时隔20年，5位古装男神再扮自己的经典角色，还是同样的味道吗？",
        "docid": "7300891306564354572",
        "url": ""
    },
    {
        "title": "《力王》31年回顾，樊少皇风采依旧，西仓王变化太大，3位已逝",
        "docid": "7297145485372981760",
        "url": ""
    },
    {
        "title": "《家有儿女》中的穿帮镜头，原来有这么多的破绽，当时都没看出来",
        "docid": "7281911374991901236",
        "url": ""
    },
    {
        "title": "武功再高，不及主角光环厉害，盘点被古龙强行写死的十大绝世高手",
        "docid": "7304876614213730827",
        "url": ""
    },
    {
        "title": "拍这场戏，成龙被对手一脚踹飞，直言：爬起来找不到北",
        "docid": "7313776210860245514",
        "url": ""
    },
    {
        "title": "2023国剧十佳出炉：《狂飙》第七，《漫长的季节》第一没有争议",
        "docid": "7303753823116345896",
        "url": ""
    },
    {
        "title": "一生必看14部电影！你都看过几部",
        "docid": "7280819620309729792",
        "url": ""
    },
    {
        "title": "“龙虎武师”王龙威：打遍整个华语影坛，74岁却销声匿迹退出影坛",
        "docid": "7313821586589778482",
        "url": ""
    },
    {
        "title": "再看《神话》顿悟：易小川对小月三次算计，才是高要恨他千年真相",
        "docid": "7310106915513221642",
        "url": ""
    },
    {
        "title": "《七剑下天山》十大高手排名",
        "docid": "7294158573645660681",
        "url": ""
    },
    {
        "title": "一口气看完，剧版《鬼吹灯》观看顺序，拯救剧荒！",
        "docid": "7308715875489088052",
        "url": ""
    },
    {
        "title": "《乡村爱情》女演员戏外对比，两个王小蒙差距大，香秀整容认不出",
        "docid": "7299366964240073231",
        "url": ""
    },
    {
        "title": "亮剑：晋西北铁三角授少将军衔低了？为何说李云龙授少将最不冤？",
        "docid": "7311605009051976246",
        "url": ""
    },
    {
        "title": "《电锯惊魂10》烂番茄84%：口碑爆棚，整个系列最高分",
        "docid": "7284224575267947069",
        "url": ""
    },
    {
        "title": "港剧里“名不副实”的8大美人，明明颜值平平，却非要演第一美人",
        "docid": "7290466334876811812",
        "url": ""
    },
    {
        "title": "39岁演员文章，近况让人唏嘘，网友：可惜了，曾经意气风发的影帝",
        "docid": "7313817445104566819",
        "url": ""
    },
    {
        "title": "甄嬛传：余莺儿至死不知，她爬上龙床那晚，皇上就知道她是冒牌货",
        "docid": "7309022089477112320",
        "url": ""
    },
    {
        "title": "香港六部邪典类电影，曾经的风口浪尖上的神作",
        "docid": "7301233377896727067",
        "url": ""
    },
    {
        "title": "《情满四合院》剧中女星现状，1位离世，5位单身，娄晓娥风韵犹存",
        "docid": "7295646866945884684",
        "url": ""
    },
    {
        "title": "《父母爱情》:戏里土得掉渣，戏外貌美如花，这四位美女不简单",
        "docid": "7283436936159773218",
        "url": ""
    },
    {
        "title": "2023年国产电影票房榜：《坚如磐石》第九，《孤掷一注》排在第三",
        "docid": "7312801238419325451",
        "url": ""
    },
    {
        "title": "给孔笙的十部巅峰作品排名：《大江大河》第七，《父母爱情》第一",
        "docid": "7291305055691473443",
        "url": ""
    },
    {
        "title": "电视剧：孤舟",
        "docid": "7307859864167268864",
        "url": ""
    },
    {
        "title": "啥叫古装剧颜值天花板？看看87版红楼梦，琏二爷和柳湘莲才是绝色",
        "docid": "7296051315372114483",
        "url": ""
    },
    {
        "title": "几乎零差评的5部抗日战争剧，榜首地位难以撼动",
        "docid": "7301621385309422120",
        "url": ""
    },
    {
        "title": "《宁安如梦》：姜雪宁不会知道，薛姝与沈琅的“交易”，有多恶心",
        "docid": "7300833359209546281",
        "url": ""
    },
    {
        "title": "能够坚持把《欢颜》看下去，不知得有多大的忍耐力和好奇心啊！",
        "docid": "7313700977297949221",
        "url": ""
    },
    {
        "title": "韩国电影揭示社会黑暗的几部悬疑经典",
        "docid": "7313777294152270374",
        "url": ""
    },
    {
        "title": "看点揭秘！白敬亭陈都灵白鹿汪苏泷王鹤棣李现胡歌迪丽热巴baby",
        "docid": "7313569227456922147",
        "url": ""
    },
    {
        "title": "六部火爆全网的“大男主”电视剧，你看过几部？",
        "docid": "7295256811748246070",
        "url": ""
    },
    {
        "title": "八卦说；巾帼不让须眉",
        "docid": "7313237491220267570",
        "url": ""
    },
    {
        "title": "八卦说；超治愈电影！《小森林》运用声音塑造真实与意境，传递爱",
        "docid": "7313232090223493669",
        "url": ""
    },
    {
        "title": "再怎么修饰李俶对沈珍珠的专情，也不妨碍他爱上独孤靖瑶的事实",
        "docid": "7310535859089277440",
        "url": ""
    },
    {
        "title": "曾志伟：宠爱大儿媳捧她上位做主角，讨厌二儿媳搞事眼不见为净",
        "docid": "7312998332840870450",
        "url": ""
    },
    {
        "title": "2023年扛剧实力榜单出炉：靳东垫底，范伟第四，张译也只能排第二",
        "docid": "7313136104927167030",
        "url": ""
    },
    {
        "title": "《怒潮》三天逆袭，《段坤》的神秘身份引发猜测",
        "docid": "7313858182253003279",
        "url": ""
    },
    {
        "title": "为有暗香来：华浅至死不知，仲夜阑明明喜欢牧瑶，为啥不愿和离？",
        "docid": "7290527445936620067",
        "url": ""
    },
    {
        "title": "《三十而已》：许幻山和林有有在酒店发生关系后，许幻山得知",
        "docid": "7313786351730967094",
        "url": ""
    },
    {
        "title": "《西出玉门》！十大高手排名，都有谁上榜，谁能位居前三甲？",
        "docid": "7282336456931099151",
        "url": ""
    },
    {
        "title": "港媒曝刘亦菲杨紫琼争演徐克新片 肖战亦会参演？",
        "docid": "7313677599107121701",
        "url": ""
    },
    {
        "title": "宫崎骏“收官作”席卷北美",
        "docid": "7313819294389830196",
        "url": ""
    },
    {
        "title": "人至奸则无敌？周星驰的《九品芝麻官》，到底藏了多少暗讽和隐喻",
        "docid": "7290818774150677029",
        "url": ""
    },
    {
        "title": "黑莲花上位手册：女性视角爆点，为什么如此引人入胜？",
        "docid": "7313820189471162917",
        "url": ""
    },
    {
        "title": "无所畏惧：韩之通永远不知，魏总放弃他，选择罗英子做代理的真相",
        "docid": "7299256785079108137",
        "url": ""
    },
    {
        "title": "华妃到死才知道，皇上为什么封颂芝为答应，原因竟然在自己身上！",
        "docid": "7299378330695893504",
        "url": ""
    },
    {
        "title": "电影《小小的我》首发海报，易烊千玺诠释脑瘫少年",
        "docid": "7313765919505809947",
        "url": ""
    },
    {
        "title": "60年代的荧幕美人，一出道就是巅峰，嫁给大13岁的导演后息影",
        "docid": "7311635534621753906",
        "url": ""
    },
    {
        "title": "同样演“男狐狸”，对比27岁李昀锐和28岁邓为，才懂何为演技炸裂",
        "docid": "7312016971628249612",
        "url": ""
    },
    {
        "title": "《西虹市首富》中的穿帮镜头，个个都出乎意料，看看你都知道哪些",
        "docid": "7309747895018963456",
        "url": ""
    },
    {
        "title": "她被誉为“铁娘子”长得美演技好，低调嫁同行为妻，生活简单幸福",
        "docid": "7293451810231190055",
        "url": ""
    },
    {
        "title": "《碧血剑》十大高手排行，何铁手倒数第三，归辛树仅排第四",
        "docid": "7283375596099961359",
        "url": ""
    },
    {
        "title": "央视开播！32集古装探案剧来袭，全员演技派，有望成为开年爆款剧",
        "docid": "7312738052475552292",
        "url": ""
    },
    {
        "title": "如今才发现，1999年的这部剧，暗含了那么多巧合",
        "docid": "7312417198767768104",
        "url": ""
    },
    {
        "title": "《绝代双骄》十大高手排名，小鱼儿未入前五，陆仲远仅排第四",
        "docid": "7282662943098274319",
        "url": ""
    },
    {
        "title": "19年后，再看《新警察故事》，才发现电影中12位配角个个来头不小",
        "docid": "7308522358673850943",
        "url": ""
    },
    {
        "title": "5部好看的古装悬疑剧，千万不要错过了！",
        "docid": "7291925566926619190",
        "url": ""
    },
    {
        "title": "《伪装者》：特务委员会副主任明楼，军衔到底是上校还是少将？",
        "docid": "7284144644487889464",
        "url": ""
    },
    {
        "title": "徐艺真、孙樾主演的小短剧汇总！你最喜欢看哪部？",
        "docid": "7298164719608037897",
        "url": ""
    },
    {
        "title": "8部精彩的热血古装玄幻剧，你看过几部？",
        "docid": "7287847582704075276",
        "url": ""
    },
    {
        "title": "周润发到底有多强?金像奖上打败自己，靠一部电影成为连庄影帝",
        "docid": "7305956830105158170",
        "url": ""
    },
    {
        "title": "潘粤明致辞《巫峡棺山》有谱了！ 铁三角荣获腾讯星光大赏年度组合",
        "docid": "7313758777096913423",
        "url": ""
    },
    {
        "title": "茅塞顿开！港片还能这么拍！5部新片，你期待吗？",
        "docid": "7281467127947641405",
        "url": ""
    },
    {
        "title": "30集年代剧央八首播，但凡胡歌拉胯一点，真压不住这群王炸配角",
        "docid": "7313738109437608458",
        "url": ""
    },
    {
        "title": "续集强行换主演的4部剧，口碑下跌、收视率惨败，赔了夫人又折兵",
        "docid": "7298268909587989055",
        "url": ""
    },
    {
        "title": "冲9分！吊打《新闻女王》，港剧巅峰，还得是它！",
        "docid": "7313838843319304745",
        "url": ""
    },
    {
        "title": "八卦说；上线就是4个第一！看完《破冰》我坚信：洪天照接了洪金",
        "docid": "7313547596407145011",
        "url": ""
    },
    {
        "title": "《乌龙山剿匪记》36年演员现状，钻山豹单身至今，四丫头因戏离婚",
        "docid": "7306083746523480591",
        "url": ""
    },
    {
        "title": "目前难以超越的10部年代剧，《人世间》第七，《闯关东》第三",
        "docid": "7298202564343317029",
        "url": ""
    },
    {
        "title": "《权力的游戏》中细思极恐的细节，第一集竟隐藏了贯穿全季的秘密",
        "docid": "7301257601382187547",
        "url": ""
    },
    {
        "title": "白眉大侠：从未正式出场的十大神秘高手",
        "docid": "7287491939253961272",
        "url": ""
    },
    {
        "title": "87《红楼梦》有两个配角太美，怕抢戏，王扶林故意给她们化淡妆",
        "docid": "7287044305670619702",
        "url": ""
    },
    {
        "title": "人性扭曲的《大鸿米店》，为何只拍一半剧情？后续故事实在太残忍",
        "docid": "7305659936007422502",
        "url": ""
    },
    {
        "title": "人民的名义：陈岩石直呼省委书记“小金子”，背后透露哪些深意？",
        "docid": "7282229021411312189",
        "url": ""
    },
    {
        "title": "《神隐》四大天帝结局，晨辉成石龙，凤渊飞升神界，澜沣最倒霉",
        "docid": "7312018263440048694",
        "url": ""
    },
    {
        "title": "周润发重返巅峰，再战港片新纪元",
        "docid": "7313819855378252328",
        "url": ""
    },
    {
        "title": "15年后，再看《潜伏》，路人逆袭成大明星，盛乡出狱变化太大",
        "docid": "7303370337410908707",
        "url": ""
    },
    {
        "title": "重温《甄嬛传》才懂：甄母花容月貌，为何甄远道独爱何绵绵？",
        "docid": "7310130698240197154",
        "url": ""
    },
    {
        "title": "《似火流年》贺尔清抛砖引玉，跛豪 东兴浩南引领四大狠人强势登场",
        "docid": "7304250124568658473",
        "url": ""
    },
    {
        "title": "目前热度最高的7部剧，《宁安如梦》垫底，赵露思新剧榜首",
        "docid": "7311649997404521000",
        "url": ""
    },
    {
        "title": "83年港剧《再向虎山行》高手排名，姚立中垫底，苗一岳第二",
        "docid": "7310095679093768758",
        "url": ""
    },
    {
        "title": "5部笑断气的喜剧片，不笑算我输！",
        "docid": "7294191348331086346",
        "url": ""
    },
    {
        "title": "杨紫转型失败？拜托，看看她开始演的啥剧再说！",
        "docid": "7313825811679805967",
        "url": ""
    },
    {
        "title": "同样是乾隆御封的格格，小燕子紫薇谁地位更高？注意纪晓岚这句话",
        "docid": "7297151984514417161",
        "url": ""
    },
    {
        "title": "《古惑仔》27年后：8大“扛把子”现状，有人离世，有人皈依佛门",
        "docid": "7282765731720069688",
        "url": ""
    },
    {
        "title": "在澳门输钱最多的人，把一块地皮输给何鸿燊，如今地皮价值1千亿",
        "docid": "7294879144641577481",
        "url": ""
    },
    {
        "title": "30年后，再看《方世玉》，才发现电影中内地演员个个大有来头",
        "docid": "7301121544687108642",
        "url": ""
    },
    {
        "title": "一念关山：宁远舟麾下四大高手，谁才是萧皇后和章崧安插的内鬼？",
        "docid": "7308560399572451851",
        "url": ""
    },
    {
        "title": "《很想很想你》导演沙维琪：让爱情剧契合现实逻辑",
        "docid": "7313400473669878310",
        "url": ""
    },
    {
        "title": "《亮剑》演员重聚：张光北秃了，何政军沧桑，李幼斌老到认不出来",
        "docid": "7306496638820893184",
        "url": ""
    },
    {
        "title": "台词乱凑、特效乱搞，这些侮辱观众的离谱剧情，导演你是认真的吗",
        "docid": "7281097100438684194",
        "url": ""
    },
    {
        "title": "强烈推荐九部高情商的高分好剧，好几部N刷根本看不够",
        "docid": "7281181276583772730",
        "url": ""
    },
    {
        "title": "《一念关山》除了宁远舟和李同光还有一个人喜欢如意，大结局篇",
        "docid": "7309144531365282341",
        "url": ""
    },
    {
        "title": "《瞒天过海》导演陈卓：好的悬疑片不会是“一次性”的",
        "docid": "7313729790916198952",
        "url": ""
    },
    {
        "title": "误以为是特效的实拍镜头：烧焦的人是卫生纸糊的，百万豪车随便砸",
        "docid": "7297163624228340262",
        "url": ""
    },
    {
        "title": "来说一个很火但你却看不进去的电视剧",
        "docid": "7303508465723458074",
        "url": ""
    },
    {
        "title": "《小满生活》看到田甜扔掉3万的鞋子，才懂冯丹的“报应”在后头",
        "docid": "7307954516841087529",
        "url": ""
    },
    {
        "title": "盘点《权力的游戏》中40个幕后冷知识，普通观众根本发现不了！",
        "docid": "7302314513008017935",
        "url": ""
    },
    {
        "title": "一刀未剪，就敢在内地播？",
        "docid": "7312736565388968475",
        "url": ""
    },
    {
        "title": "才播1天，就是飙升榜冠军，网友：今年唯一让我通宵狂追的悬疑片",
        "docid": "7312005101076693544",
        "url": ""
    },
    {
        "title": "热度爆表《脱轨》开播不到4集横扫热搜榜第一",
        "docid": "7313537011872154147",
        "url": ""
    },
    {
        "title": "浙江影视（集团）有限公司董事长、总经理张晓晖：实现琼浙资源互补 共建跨省协拍机制",
        "docid": "7313828597259846170",
        "url": ""
    },
    {
        "title": "她23岁成名做了10年黄金女配，39岁生下独女，丈夫心疼给全部财产",
        "docid": "7298982243811246619",
        "url": ""
    },
    {
        "title": "让甄嬛二次回宫的，既不是皇上，也不是苏培盛，而是在幕后的太后",
        "docid": "7309054769090429449",
        "url": ""
    },
    {
        "title": "甄嬛传：选秀时站在安陵容旁的胖秀女，她的身份连导演都惹不起！",
        "docid": "7310800418794586664",
        "url": ""
    },
    {
        "title": "仅8集，却让他们拍了5年！这片上映后，评分9.8，惊艳了世界",
        "docid": "7311169578934469131",
        "url": ""
    },
    {
        "title": "朱一龙拍摄电影《负负得正》受伤，剧组：伤势已妥善处理，后续拍摄暂缓",
        "docid": "7313922861809549887",
        "url": ""
    },
    {
        "title": "好家伙，《很想很想你》的大结局，是我今年看过最甜最好的大结局",
        "docid": "7313855275864474152",
        "url": ""
    },
    {
        "title": "电视剧《繁花》云集众多上海籍演员，现在我们就来看看吧",
        "docid": "7313574304451510784",
        "url": ""
    },
    {
        "title": "《父母爱情》：看懂白红梅的耻辱，才看清安杰和江亚菲的人性之恶",
        "docid": "7274211190631481908",
        "url": ""
    },
    {
        "title": "鬼吹灯：归墟行动只是孙教授计划的一步，终极目标是破地仙村",
        "docid": "7307248167396311603",
        "url": ""
    },
    {
        "title": "拿着“地狱”剧本开篇 却活成了爽文女主",
        "docid": "7313911303842710053",
        "url": ""
    },
    {
        "title": "画眉：利用养女白卉，揭开葛云特务的身份，原来白铭汉才是狠角色",
        "docid": "7313136635271709218",
        "url": ""
    },
    {
        "title": "她这一死，成就神剧之巅",
        "docid": "7313406863927067174",
        "url": ""
    },
    {
        "title": "为有暗香来原著大结局：华家罪行公布，华浅假死，牧遥侧妃扶正",
        "docid": "7289352174600405515",
        "url": ""
    },
    {
        "title": "演活一个“江德华”就够了，刘琳却演活5个角色，每个都惊艳众人",
        "docid": "7293350425514738213",
        "url": ""
    },
    {
        "title": "2023年末你需要补课的15部海外大片，没看全的赶紧去补上吧",
        "docid": "7312765688731648531",
        "url": ""
    },
    {
        "title": "他的起点也许是很多导演的极限 诺兰的十二部电影",
        "docid": "7313822969522962956",
        "url": ""
    },
    {
        "title": "5个真实由动物抚养长大的孩子",
        "docid": "7287531854452785721",
        "url": ""
    },
    {
        "title": "“果郡王”李东学不红，是因为他正在“另一个圈子”里，红得发紫",
        "docid": "7303891753521054248",
        "url": ""
    },
    {
        "title": "长相思：种蛊前夭柳的婚前誓言，与夭璟龙骨狱定情互藏的秘密/上",
        "docid": "7313032961149567503",
        "url": ""
    },
    {
        "title": "央视《画眉》逆袭！忍了浓妆艳抹，真忍不了女主庞红梅的扮演者",
        "docid": "7313519723542135306",
        "url": ""
    },
    {
        "title": "《陈情令》中爆笑的穿帮镜头，个个都让人忍俊不禁，笑到肚子疼",
        "docid": "7296044729995870758",
        "url": ""
    },
    {
        "title": "一念关山：时隔20年再演戏，已是小老头，却成了剧里最逗的文官！",
        "docid": "7307622738640896546",
        "url": ""
    },
    {
        "title": "潘雨辰：侯勇前妻，有丹东之花的美誉，今出演《珠江人家》无人识",
        "docid": "7294254052647928331",
        "url": ""
    },
    {
        "title": "一念关山：快到结局才知，那不起眼的老头，才是全剧隐藏最深的人",
        "docid": "7312043439674393100",
        "url": ""
    },
    {
        "title": "白鹿3年上了6部剧，火了3部，扑了3部，男主是谁才关键！",
        "docid": "7304936839344030247",
        "url": ""
    },
    {
        "title": "陈可辛新片《酱园弄》开机，海报细节曝光，演员实力都很硬！",
        "docid": "7313377209413091874",
        "url": ""
    },
    {
        "title": "《战狼2》中的穿帮镜头，一个比一个细节，吴京“藏”的也太深了",
        "docid": "7313815245464699402",
        "url": ""
    },
    {
        "title": "成毅的《莲花楼》后劲真恐怖！央八第三轮播，站内又飙升到第二！",
        "docid": "7310961231878521378",
        "url": ""
    },
    {
        "title": "上一部电影4.5分，时隔6年，吴宇森终于带来了一部猛片！",
        "docid": "7305056486261211658",
        "url": ""
    },
    {
        "title": "画眉：真正的雪狼身份曝光，不是白铭汉，是潜伏在庞红梅身边的她",
        "docid": "7313382370709832244",
        "url": ""
    },
    {
        "title": "豆瓣9.3，这部大胆超前的国产片，竟然是真人真事",
        "docid": "7283320162806235709",
        "url": ""
    },
    {
        "title": "于正真的给了很多人机会，就像《为有暗香来》里的彭楚粤。",
        "docid": "7289656222259642915",
        "url": ""
    },
    {
        "title": "《天龙八部》26年，已有16位演员去世，每一张剧照都是熟悉的面孔",
        "docid": "7291467755033788962",
        "url": ""
    },
    {
        "title": "难怪王扶林嫌薛宝钗没人能演，看看他原定宝钗候选人，那才叫美",
        "docid": "7291251485122265654",
        "url": ""
    },
    {
        "title": "《大明王朝1566》五个认知层级：是什么碾压了你的智商？",
        "docid": "7312823905788477967",
        "url": ""
    }
]