[
    {
        "title": "“要不是导演拍成烂片，估计这电影还真上映不了！”",
        "docid": "7328722191728509440",
        "url": ""
    },
    {
        "title": "陆小凤，西门吹雪，叶孤城，花满楼，这些熟悉的名字你们还记得吗",
        "docid": "7318059925568127538",
        "url": ""
    },
    {
        "title": "人性与道德之间的矛盾，非常好看的一部暗黑系电影版完整版",
        "docid": "7324615023114846746",
        "url": ""
    },
    {
        "title": "明星谈还珠格格：苏有朋问小燕子的本名是什么？竟没人答得出来！",
        "docid": "7312716064075285032",
        "url": ""
    },
    {
        "title": "《南来北往》演技评分：金晨姜妍差距明显，丁勇岱9.7分屈居第二",
        "docid": "7338831498893918783",
        "url": ""
    },
    {
        "title": "“全世界的人都可以看不起我，你不可以。\" #张学友",
        "docid": "7321015974277317120",
        "url": ""
    },
    {
        "title": "是谁教他们这么唱的！魔性混搭越听越上头，周深：这是我的歌？",
        "docid": "7329491072101384739",
        "url": ""
    },
    {
        "title": "这才是不欺骗观众的女扮男装吧，说是女娃的时候弹幕都在表示震惊",
        "docid": "7322059097287688745",
        "url": ""
    },
    {
        "title": "《蜗居》:敞开衣领的海嘴里喊着“叔叔，大爷”，暴露了的放纵",
        "docid": "7342751711532139023",
        "url": ""
    },
    {
        "title": "《大江大河》韦春红有多富，雷东宝瘫了也不知道",
        "docid": "7330095522096644660",
        "url": ""
    },
    {
        "title": "演过郭靖的七师傅、主持85年央视春晚的斑斑，是惠英红哥哥的前妻",
        "docid": "7341790890488562217",
        "url": ""
    },
    {
        "title": "《人民的名义》中的穿帮镜头，看完让人差点笑抽筋，简直太搞笑了",
        "docid": "7326053689075073577",
        "url": ""
    },
    {
        "title": "《如果奔跑是我的人生》程安心原型廖智的故事",
        "docid": "7325955504424141363",
        "url": ""
    },
    {
        "title": "葛美霞不爱王振彪，也不爱老丁，她真正爱的人是只出场两集的他",
        "docid": "7343471494011634212",
        "url": ""
    },
    {
        "title": "被低估的演员冯恩鹤，你们觉得呢？",
        "docid": "7325779441819435532",
        "url": ""
    },
    {
        "title": "历史上的沈眉庄：15岁入宫，被51岁雍正盛宠，生有一子下场凄惨",
        "docid": "7312820752687677989",
        "url": ""
    },
    {
        "title": "《父母爱情》江德福在岛上当了近二十年的守备师司令，这正常吗？",
        "docid": "7320406500252484136",
        "url": ""
    },
    {
        "title": "刑侦大剧《雪迷宫》首播将至，张艺谋监制，8位实力派助阵，能火",
        "docid": "7342421183280775707",
        "url": ""
    },
    {
        "title": "《两宫皇太后》的配角演员（居然有何赛飞、刘蓓、王志文）",
        "docid": "7323203059801670171",
        "url": ""
    },
    {
        "title": "猎冰演员评分出炉，赵友男“不负众望”",
        "docid": "7344043360832864806",
        "url": ""
    },
    {
        "title": "这才是电影中“情妇”该有的颜值！一个动作诠释，什么叫风情万种",
        "docid": "7344308545787871770",
        "url": ""
    },
    {
        "title": "章子怡离婚后哽咽发言：感谢陈可辛给我重生的机会！背后故事感人",
        "docid": "7344570265638715944",
        "url": ""
    },
    {
        "title": "同样演孙千“木讷男友”，92年欧豪跟97年陈靖可对比，差异太明显",
        "docid": "7343162243263316491",
        "url": ""
    },
    {
        "title": "猎冰：看清黄宗伟和女服务员的约定，才懂他对陈建昌的算计有多狠",
        "docid": "7339074182086443539",
        "url": ""
    },
    {
        "title": "香港影史票房第一的“极限片”，真的不止大尺度而已！",
        "docid": "7344384445061382696",
        "url": ""
    },
    {
        "title": "他翻红，快来拯救内娱吧！",
        "docid": "7344260508742337036",
        "url": ""
    },
    {
        "title": "周星驰:演什么像什么，你演什么不像什么#无敌反斗星",
        "docid": "7319859493402378815",
        "url": ""
    },
    {
        "title": "央一今晚开播！35集军旅大剧来了！演员阵容深厚，有年度爆款潜质",
        "docid": "7344650137081823744",
        "url": ""
    },
    {
        "title": "人民的名义：看懂高小琴走模特步，才知赵瑞龙多会玩，祁同伟无奈",
        "docid": "7343912551672971785",
        "url": ""
    },
    {
        "title": "不只是亲情戏，惠英红刘浩存主演电影《灿烂的她》照见人性的光",
        "docid": "7344389880644321829",
        "url": ""
    },
    {
        "title": "揭秘《英雄虎胆》幕后故事 男主角为何不选王心刚？好电影为何挨批",
        "docid": "7335267203903668788",
        "url": ""
    },
    {
        "title": "宇航员坠落未知星球，发现这里竟是 6500 万年前的地球(1)",
        "docid": "7321980044509872703",
        "url": ""
    },
    {
        "title": "6部超3小时的长电影，堪称神作，太过瘾了！",
        "docid": "7322679252955005492",
        "url": ""
    },
    {
        "title": "公认零差评的4部电视剧，你若一部都没看过，真的太可惜了",
        "docid": "7331993441980711433",
        "url": ""
    },
    {
        "title": "把“玉娆流放三年仍是完璧”想了10遍，才明白甄嬛为何要狠心屠龙",
        "docid": "7337986790076678719",
        "url": ""
    },
    {
        "title": "小时候好喜欢她的性格，即使失忆了也不会强行降智，打戏又美又飒",
        "docid": "7329407216095363647",
        "url": ""
    },
    {
        "title": "江河日上：终极保护伞急了，踢开郑寒江要自保，没想反倒加速暴露",
        "docid": "7343499865307087410",
        "url": ""
    },
    {
        "title": "37岁郑少秋遇上30岁林青霞，蔡幸娟一首《问情》勾起满满回忆",
        "docid": "7311660458564878858",
        "url": ""
    },
    {
        "title": "农妇进宫当宫女，竟被皇帝看中，然而生下的王子却流落民间",
        "docid": "7312433665093894693",
        "url": ""
    },
    {
        "title": "许君聪靠一口国粹火遍全网，即兴台词更是笑疯对戏演员，太搞笑了",
        "docid": "7316892225097597452",
        "url": ""
    },
    {
        "title": "“以为是烂片，没想到一口气看完”的五部剧，你熬夜追过哪几部？",
        "docid": "7320521913766789643",
        "url": ""
    },
    {
        "title": "如何打击高利贷分子强奸行为",
        "docid": "7334740533447164425",
        "url": ""
    },
    {
        "title": "《少年张三丰》十大高手排名，易继风第四绝稳，少林圣僧第六！",
        "docid": "7343640696542528015",
        "url": ""
    },
    {
        "title": "好家伙！《宣武门》刚开播就差评一片，观众差评的理由出奇一致",
        "docid": "7344044891384693302",
        "url": ""
    },
    {
        "title": "彭于晏谈裸戏和《邪不压正》：突显电影艺术的多样性与深度",
        "docid": "7344554229732000319",
        "url": ""
    },
    {
        "title": "这8部Netflix出品的黄暴美剧，尺度大到怀疑人生！",
        "docid": "7317084538201588258",
        "url": ""
    },
    {
        "title": "同样是张飞吃肉：新版VS老版，老版把我馋哭了！",
        "docid": "7319827342455800372",
        "url": ""
    },
    {
        "title": "这部英剧评分8.9，女二靠走后门拿到角色，看完番外却更心疼贾玲",
        "docid": "7344757138733924914",
        "url": ""
    },
    {
        "title": "至今都没想明白，女主女配们一个比一个美",
        "docid": "7317304995463430675",
        "url": ""
    },
    {
        "title": "马路综合格斗赛开始了，没想到被一群迪士尼玩偶给揍了！",
        "docid": "7312575189282193932",
        "url": ""
    },
    {
        "title": "黄毛真倒霉只出了一张3，就被扔了4个炸弹输了6万！套路爆笑场面",
        "docid": "7328350415274279450",
        "url": ""
    },
    {
        "title": "新剧开播：腹黑财阀大小姐X恋爱脑村长儿子，他逃她追",
        "docid": "7344420910750925375",
        "url": ""
    },
    {
        "title": "百看不厌的武侠片、计春华的反派是多少人的童年阴影#武侠片",
        "docid": "7341348544382992908",
        "url": ""
    },
    {
        "title": "“你爸叫夏太热？”“对啊，夏天本身就很热～”#唐嫣 #繁花",
        "docid": "7323796703306809865",
        "url": ""
    },
    {
        "title": "她临死前的一场打戏，又狠又飒，小时候光顾着看脸了",
        "docid": "7325806335173427764",
        "url": ""
    },
    {
        "title": "一个潜移默化的变化正在中国发生",
        "docid": "7336819160884199977",
        "url": ""
    },
    {
        "title": "三天票房过亿！阮经天一人独挑大梁，张家辉：近五年最好电影",
        "docid": "7342420137142649378",
        "url": ""
    },
    {
        "title": "赵丽颖双料出演《与凤行》！演技和颜值双双惊艳，引爆全网热议！",
        "docid": "7344206192023142950",
        "url": ""
    },
    {
        "title": "盘点过去的2023年豆瓣评分最高的10部华语剧集，狂飙仅第七",
        "docid": "7344542656346718754",
        "url": ""
    },
    {
        "title": "本以为金晨跳舞已是天花板，万万没想到，却败给姜妍的东北迪斯科",
        "docid": "7339469087128420864",
        "url": ""
    },
    {
        "title": "从第一部就很喜欢她 美得很独特#欧美 #颜值",
        "docid": "7314250288179708455",
        "url": ""
    },
    {
        "title": "影视：2023必看的一部超级全星动作电影",
        "docid": "7312731931555136015",
        "url": ""
    },
    {
        "title": "盘点五个版本的“耍重剑”，高水平以腰发力，低水平胡乱劈砍！",
        "docid": "7327492893579903528",
        "url": ""
    },
    {
        "title": "《天道》：丁元英去古城独居一年的真正目的是什么？",
        "docid": "7317577733268816422",
        "url": ""
    },
    {
        "title": "无删减版！极为震撼，无数网友追捧的美剧！",
        "docid": "7341385009842487871",
        "url": ""
    },
    {
        "title": "至交好友惨死，武林高手悲痛不已，只能使出绝世武功发泄",
        "docid": "7312318444848972322",
        "url": ""
    },
    {
        "title": "女演员长相多重要：王家卫版林熙蕾出场，方知道什么是人间尤物！",
        "docid": "7321613043186696756",
        "url": ""
    },
    {
        "title": "张若昀承包我一年的笑点，卖队友绝不含糊，笑不活了！",
        "docid": "7337311233973944871",
        "url": ""
    },
    {
        "title": "近几年的菲律宾电影，在不断地刷新底线！",
        "docid": "7321996325762171446",
        "url": ""
    },
    {
        "title": "雍正王朝：看懂了苏舜卿的投湖自尽，才明白刘墨林的遇害另有隐情",
        "docid": "7323101244925690387",
        "url": ""
    },
    {
        "title": "小伙暴露绝世武功，才出手几招，就阻止了两个高手的对决",
        "docid": "7316104033322664500",
        "url": ""
    },
    {
        "title": "眉姐姐，你和温太医的女儿长大了！太像了！",
        "docid": "7344016427474518580",
        "url": ""
    },
    {
        "title": "农村小伙第一次去坐飞机，把空姐逗的哭笑不得！坐飞机爆笑场面",
        "docid": "7326820129151713846",
        "url": ""
    },
    {
        "title": "进警局爆笑合集：舅妈暴揍外甥,警察都看傻了,舅妈比外甥还小",
        "docid": "7311624975503327780",
        "url": ""
    },
    {
        "title": "这样的大嫂估计大部分人都不会让她离开吧。",
        "docid": "7315403680721994252",
        "url": ""
    },
    {
        "title": "女神关秀媚饰演的大嫂有多霸气，一首《暗里着迷》勾起满满的回忆",
        "docid": "7314634211145712191",
        "url": ""
    },
    {
        "title": "\"赵丽颖欢乐领奖杯， '凤行'火爆来袭！粉丝直呼太嗨了！\"",
        "docid": "7344698464481755657",
        "url": ""
    },
    {
        "title": "推荐5部台湾天花板电影，全程高能+无尿点，看完之后后劲儿贼大！",
        "docid": "7343594627008004619",
        "url": ""
    },
    {
        "title": "长大后才真正读懂了反派说的话",
        "docid": "7335779079649985075",
        "url": ""
    },
    {
        "title": "孙千东北女孩的幽默，和黄子韬互怼我能看一天，一句话拿捏沈月",
        "docid": "7329452794526728742",
        "url": ""
    },
    {
        "title": "难怪阿朱要主动送死，你看她已将清白之身给了谁，她无颜面对萧峰",
        "docid": "7341312210524291638",
        "url": ""
    },
    {
        "title": "吃饭做作别硬演！《第二十条》雷佳音一出手，带来教科书式干饭",
        "docid": "7344672768074514978",
        "url": ""
    },
    {
        "title": "《南来北往》前瞻:火车上的女人贩子，就是老瞎子寻找多年的女儿",
        "docid": "7335016081654219275",
        "url": ""
    },
    {
        "title": "黄蓉与欧阳锋同住半年，郭靖为何毫不在意，唯有张无忌看透了他",
        "docid": "7320785965772440064",
        "url": ""
    },
    {
        "title": "原来我只是不喜欢演技差的，这才是我喜欢的摇头晃脑，扣书式演技",
        "docid": "7337991059580191259",
        "url": ""
    },
    {
        "title": "80岁老夫妻常年蜗居山洞，与野狗抢食，他们的儿子却身家千万",
        "docid": "7326096261403443751",
        "url": ""
    },
    {
        "title": "找演员不小心找到本人有多震撼：这样的表演内娱再也做不到了",
        "docid": "7331290477318275635",
        "url": ""
    },
    {
        "title": "这才叫顶级刀功，刀法耍的生猛无比，绝世十三娘大战功夫天才，爽",
        "docid": "7321549828373086730",
        "url": ""
    },
    {
        "title": "彭大元帅在三线扫厕所，与造反派发生激烈冲突，直言有本事找主席",
        "docid": "7311635718697452044",
        "url": ""
    },
    {
        "title": "鹦鹉的羽毛被“拔光”，还站在竿子上和主人叫嚣，全程太嚣张！",
        "docid": "7331194331770356239",
        "url": ""
    },
    {
        "title": "千万别让赵四 刘能同台上春晚！隔夜饭都差点笑出来，这才是小品",
        "docid": "7321275145359000083",
        "url": ""
    },
    {
        "title": "光棍娶了个带着三个孩子的寡妇，日子越过越红火",
        "docid": "7332853378474574386",
        "url": ""
    },
    {
        "title": "她电视生涯唯一的古装，当年被嘲演美女，现在才发现是造型拖累她",
        "docid": "7331680734211801663",
        "url": ""
    },
    {
        "title": "同样是孙尚香怒斥士兵：新版VS老版",
        "docid": "7325408140802359847",
        "url": ""
    },
    {
        "title": "盘点83射雕14位去世的演员，最近两位是黄药师和马钰",
        "docid": "7312604424445100580",
        "url": ""
    },
    {
        "title": "五毒教主何铁手大战袁承志，边打架边调戏，把袁承志整无奈了",
        "docid": "7320495843746939427",
        "url": ""
    },
    {
        "title": "果然每个大嫂都那么的有魅力！",
        "docid": "7315264186437763599",
        "url": ""
    },
    {
        "title": "皇上想尝尝大臣家的饭菜，一碟大酱几根大葱差点撑坏皇上",
        "docid": "7319758014188093987",
        "url": ""
    },
    {
        "title": "赵丽颖、林更新主演《与凤行》北美官宣定档美，海外先播",
        "docid": "7343512419609788943",
        "url": ""
    },
    {
        "title": "叶文洁强加吻戏！网飞版《三体》首波口碑出炉，中国网友猜中了",
        "docid": "7344750279566410292",
        "url": ""
    },
    {
        "title": "《南来北往》中的隐藏剧情，马燕是谁的女儿？放羊的傻子是谁？",
        "docid": "7339841610802348579",
        "url": ""
    },
    {
        "title": "《人民的名义》：娶妻当娶钟小艾，只因她身材傲人又懂事",
        "docid": "7344723905481097780",
        "url": ""
    },
    {
        "title": "导演你眼光真毒！《南来北往》姜妍爆火后，网友涌进她评论区刷屏",
        "docid": "7344706567356514866",
        "url": ""
    },
    {
        "title": "这样的门派没十个养猪场都养不起！#武侠片 #经典港片",
        "docid": "7330966813012853298",
        "url": ""
    },
    {
        "title": "原来教会杨超越唱歌，就差个苏醒啊，薛之谦：苏醒你厉害！",
        "docid": "7322030058405790259",
        "url": ""
    },
    {
        "title": "高育良一句话爆出陈岩石妻子真正背景，王馥真真实实力太震撼",
        "docid": "7328453323328553506",
        "url": ""
    },
    {
        "title": "《武林外传》姐妹篇开播夺热度冠军，打多少资方的脸，闫妮赌对了",
        "docid": "7343539197137715762",
        "url": ""
    },
    {
        "title": "难怪杨洁没相中六小龄童，看看她当初选的“猴子”，才叫火眼金睛",
        "docid": "7329446779114717736",
        "url": ""
    },
    {
        "title": "胡歌：请不要骂人",
        "docid": "7313415875355214374",
        "url": ""
    },
    {
        "title": "《欢乐颂》“一夜成亿万富婆”的曲筱绡不知，妈妈架空丈夫把80%的家产换成上海黄金地段房产送给她",
        "docid": "7319762957825884709",
        "url": ""
    },
    {
        "title": "邓超为什么不香了？",
        "docid": "7333247369171124777",
        "url": ""
    },
    {
        "title": "甄嬛传：皇后第一场戏就赢麻了。因为太美被要求改妆",
        "docid": "7338350491379827241",
        "url": ""
    },
    {
        "title": "猎冰：同是拒绝陪酒女，张颂文这一摸与卧底的差距就出来了",
        "docid": "7340183931905606159",
        "url": ""
    },
    {
        "title": "票房破80亿！可事实证明：一件更糟糕的事，也正在国内电影圈发生",
        "docid": "7339792637505028659",
        "url": ""
    },
    {
        "title": "飞驰人生2被删减剧情，看到好多人在热议这个话题",
        "docid": "7336518445158253056",
        "url": ""
    },
    {
        "title": "全因为一个“无赖”，中国人的电视剧，捅到了天花板",
        "docid": "7319414482898502155",
        "url": ""
    },
    {
        "title": "剑九黄不去武帝城，帮徐凤年截杀韩貂寺，对上他会有几成胜算？",
        "docid": "7323487844994875955",
        "url": ""
    },
    {
        "title": "“小时候讨厌现在理解的角色”挂上热搜，我笑死在网友评论区里",
        "docid": "7342810460477456908",
        "url": ""
    },
    {
        "title": "《三十而已》王漫妮花光57万6租房，回村第1天穿2000块风衣，露 大腿、烫卷发，为何张志还非她不娶？",
        "docid": "7324243160942330383",
        "url": ""
    },
    {
        "title": "虎扑网友对《爱情公寓》角色的评价",
        "docid": "7337915727342649893",
        "url": ""
    },
    {
        "title": "还珠格格：小时候以为含香深爱蒙丹才会私奔，长大后发现不是这样",
        "docid": "7314589182972805647",
        "url": ""
    },
    {
        "title": "大江大河3：快到大结局才知道，全剧最大的悬念，让雷正明揭开",
        "docid": "7327552040010301964",
        "url": ""
    },
    {
        "title": "八大苏妲己同台，有人媚骨天成，有人来凑数，还有的像中年妇女",
        "docid": "7344253391289664041",
        "url": ""
    },
    {
        "title": "成本5.7亿，票房仅《周处除三害》零头，漫威走到这一步问题在哪",
        "docid": "7342440796987343387",
        "url": ""
    },
    {
        "title": "力邀刘德华被禁，执著奇幻片20年，起底《周处除三害》背后的故事",
        "docid": "7341958621620175423",
        "url": ""
    },
    {
        "title": "《第二十条》：赵丽颖转身跳下高楼后，迟到的正义有何意义…",
        "docid": "7334977220311761471",
        "url": ""
    },
    {
        "title": "看了被“烤瓷大白牙”毁了的年代剧，我怀念起了刘琳巩俐的乡土味",
        "docid": "7328602630060622371",
        "url": ""
    },
    {
        "title": "以前的演员功底真深：明明心里不爽对方，却演出了深情不已的样子",
        "docid": "7343084161374405157",
        "url": ""
    },
    {
        "title": "《繁花》饭店经理：戏里土掉渣，戏外靓到炸，还是个极品超模",
        "docid": "7319865844464271907",
        "url": ""
    },
    {
        "title": "笑掉大牙！日票房仅17万，这部耗资3千万的大片，被阮经天打懵了",
        "docid": "7343064013016384052",
        "url": ""
    },
    {
        "title": "人类，对甄嬛传的开发还不到10%，真的是常看常新！",
        "docid": "7332062059347329536",
        "url": ""
    },
    {
        "title": "《潜伏》：到台湾后晚秋和余则成结婚，不会被站长认出来吗？",
        "docid": "7316730562574713378",
        "url": ""
    },
    {
        "title": "《戏说乾隆》演员对比，郑少秋晚年遭遇丧女之痛，春喜至今都未婚",
        "docid": "7337481781253407269",
        "url": ""
    },
    {
        "title": "看懂嫔妃们娘家的官职换算到现在，你就知道安陵容自卑的原因了!",
        "docid": "7312659919306523148",
        "url": ""
    },
    {
        "title": "她本是巩俐的“御用替身”，却因《父母爱情》走红，咸鱼翻身",
        "docid": "7318643277341999642",
        "url": ""
    },
    {
        "title": "想不通！明明长着一张相似脸，一个最终成顶流，一个却死活红不了",
        "docid": "7322723510097314358",
        "url": ""
    },
    {
        "title": "没整容！演完《去有风的地方》演《你也有今天》，她变美没认出来",
        "docid": "7326062514134024754",
        "url": ""
    },
    {
        "title": "《投名状》三位大人之间的权利博弈",
        "docid": "7323431478627680820",
        "url": ""
    },
    {
        "title": "同是蒙面，为何中国喜欢蒙下半张脸，而西方喜欢蒙上半张脸，看完涨见识了！",
        "docid": "7312276277032124928",
        "url": ""
    },
    {
        "title": "8部适合情侣看的高分电影，让人脸红心动！",
        "docid": "7339170199016784438",
        "url": ""
    },
    {
        "title": "40岁“草根演员”三年片酬未结，卑微讨薪遭无视，他至今还未成家",
        "docid": "7324940372193411596",
        "url": ""
    },
    {
        "title": "《繁花》为什么汪小姐问消息，景秀阿哥从来不收钱？",
        "docid": "7322469555266863626",
        "url": ""
    },
    {
        "title": "《繁花》：“海王”宝总永不知，“人间富贵花”的汪小姐吃2毛的茶叶蛋，拿500薪水，也要自己做自己的码头？",
        "docid": "7322731586653307444",
        "url": ""
    },
    {
        "title": "把这9位大嫂放一起，有人性感，有人狠辣，哪位是你心中的天花板",
        "docid": "7312675885021512246",
        "url": ""
    },
    {
        "title": "老黄只是老了吗？王仙芝：我只用两拳，就把武林盟主捶到湖底喂鱼",
        "docid": "7313410166538535451",
        "url": ""
    },
    {
        "title": "《我的团长我的团》评分很高，为什么有人看不下去？",
        "docid": "7330926737394401830",
        "url": ""
    },
    {
        "title": "终于知道欧美电影为啥不拍婆媳矛盾了",
        "docid": "7332771273040347702",
        "url": ""
    },
    {
        "title": "35岁正处级陆亦可，40岁实职副厅级钟小艾，谁的背景更厉害呢",
        "docid": "7331372752622387751",
        "url": ""
    },
    {
        "title": "《庆余年》范闲手下6大九品：靠他们可硬撼庆帝，一个是红颜知己",
        "docid": "7327603328001540649",
        "url": ""
    },
    {
        "title": "为什么有的觉得《琅琊榜》的权斗看起来很幼稚？",
        "docid": "7344024432345629221",
        "url": ""
    },
    {
        "title": "才9年，何炅选的“栀子花四帅”凉了俩，四美的差距竟也这么大了",
        "docid": "7329837629830103592",
        "url": ""
    },
    {
        "title": "瑕不掩瑜！看了张国荣演的“贾宝玉”，才明白欧阳奋强当年有多强",
        "docid": "7322276240738484774",
        "url": ""
    },
    {
        "title": "永远是我的影史十佳，不可能动摇",
        "docid": "7322420474670236200",
        "url": ""
    },
    {
        "title": "把刘涛抱在怀里，有谁注意到他手上的小动作，人品如何一目了然。",
        "docid": "7343866637839925775",
        "url": ""
    },
    {
        "title": "《红楼梦》女演员对比，迎春经商生活富足，东方闻樱专为探春而生",
        "docid": "7314470085270290981",
        "url": ""
    },
    {
        "title": "好家伙！瘦成皮包骨却要演“天下第一美女”，是谁的审美出了问题",
        "docid": "7330535059574931968",
        "url": ""
    },
    {
        "title": "苏有朋版的《倚天屠龙记》，居然也有穿帮镜头，个个让人啼笑不止",
        "docid": "7314196887580852745",
        "url": ""
    },
    {
        "title": "刀白凤是怎么救赎段延庆的？你看那一夜，刀白凤有多疯狂就懂了",
        "docid": "7334734435662955044",
        "url": ""
    },
    {
        "title": "女演员长相有多重要？看《南来北往》金晨和摇曳生姿的姜妍就懂了",
        "docid": "7338264791045685794",
        "url": ""
    },
    {
        "title": "原来电影大片的拍摄幕后是这样的，真的是让人感觉三观尽毁",
        "docid": "7328660968136081946",
        "url": ""
    },
    {
        "title": "沈腾帮韩寒创造32亿票房纪录，新戏竟被新人顶替？网友：无脑迎合",
        "docid": "7343828233781445155",
        "url": ""
    },
    {
        "title": "尺度已达到R级，我断言：谢苗把武侠片拍成这样，观众会起立鼓掌",
        "docid": "7334378237671522852",
        "url": ""
    },
    {
        "title": "《我的前半生》拍摄时，导演找马伊琍演女主，没想到马伊琍却说“没问题，但必须由我自己来选择老公”",
        "docid": "7324591221962670626",
        "url": ""
    },
    {
        "title": "18年后，再看“莫小贝”王莎莎“处境”，杨紫的话，终于有人信了",
        "docid": "7327973377543897634",
        "url": ""
    },
    {
        "title": "终究王家卫面子大，这位金像奖影后出演酒店领班，戏份少扮相俗气",
        "docid": "7318022377479471652",
        "url": ""
    },
    {
        "title": "甄嬛传：有个女演员总歪着头，看上去拽拽的，导演一看却大赞不已",
        "docid": "7317961716623835687",
        "url": ""
    },
    {
        "title": "以前的古装造型好大胆，小时候光顾着看美人，竟没发现有哪不对劲",
        "docid": "7317098250513941033",
        "url": ""
    },
    {
        "title": "丫鬟美过小姐的5部剧，杨幂碾压林心如，连俞飞鸿都被比下来了",
        "docid": "7337894453795078710",
        "url": ""
    },
    {
        "title": "《甄嬛传》：浣碧出嫁满头珠翠，玉娆却是一头红毛球，浣碧当真比玉娆尊贵？甄嬛的算计有几人能懂！",
        "docid": "7319693607395803699",
        "url": ""
    },
    {
        "title": "央视点名批评的5部烂剧，每一部都被下架停播，真的是太解气了",
        "docid": "7334117063444742695",
        "url": ""
    },
    {
        "title": "前半生拍摄时，原来罗子君那些丑不拉几的衣服都是马伊琍自己买的",
        "docid": "7331691022931902988",
        "url": ""
    },
    {
        "title": "有一种差别叫释小龙何洁分手，多年后，一个身家过亿一个捉襟见肘",
        "docid": "7344286670206239283",
        "url": ""
    },
    {
        "title": "刚播6集口碑爆了！《武林外传》导演再上古装喜剧，值得熬夜狂追",
        "docid": "7343858966428123660",
        "url": ""
    },
    {
        "title": "周处除三害：为啥是第3次枪响时干掉了神棍大boss？",
        "docid": "7342348893574857225",
        "url": ""
    },
    {
        "title": "甄母三次进宫天差地别，难怪甄嬛恨透了皇上，你看果郡王做了啥？",
        "docid": "7314135397368922658",
        "url": ""
    },
    {
        "title": "幸亏87《红楼梦》原化妆师离开了，看这满头的小红花和圆圈，多丑",
        "docid": "7323078477228360203",
        "url": ""
    },
    {
        "title": "《肖申克的救赎》的穿帮镜头，让人属实没料到，原来神作也会穿帮",
        "docid": "7322780717296271906",
        "url": ""
    },
    {
        "title": "5部被禁的台湾电影，每一部都是经典！",
        "docid": "7337684442699334185",
        "url": ""
    },
    {
        "title": "我把“腰肢软些皇上会喜欢”想了100遍，发现眉庄的悲剧早已注定",
        "docid": "7312468760009622016",
        "url": ""
    },
    {
        "title": "《非诚勿扰3》：留下的是机器人，而离开的才是梁笑笑",
        "docid": "7341293987027894810",
        "url": ""
    },
    {
        "title": "当年买了泰坦尼克号票的8位顶级富豪，为何开船前，却都没上船？",
        "docid": "7312017128516256293",
        "url": ""
    },
    {
        "title": "不要被电视剧骗了，这才是真实的90年代打工妹，引起无数人共鸣！",
        "docid": "7327946292108427785",
        "url": ""
    },
    {
        "title": "长大了才知道《宝莲灯》王母的话有多正确",
        "docid": "7315280161170293283",
        "url": ""
    },
    {
        "title": "死得最憋屈的清朝少侠方世玉，一身铜筋铁骨，24岁被师太踢肛而死",
        "docid": "7323498748964913703",
        "url": ""
    },
    {
        "title": "《甄嬛传》：12年后才明白，甄嬛那杯毒酒，本来就是倒给果郡王的。关窗，只是他们留给对方的遮羞布",
        "docid": "7328202037228061221",
        "url": ""
    },
    {
        "title": "盘点姜文的偶像罗伯特.德尼罗，口碑炸裂的十部影片！",
        "docid": "7313098002829247027",
        "url": ""
    },
    {
        "title": "油头粉面就别演警察了，这4位男演员告诉你，什么才是真正的警魂",
        "docid": "7317525414379995700",
        "url": ""
    },
    {
        "title": "十部百看不厌的年代剧，全是国产剧天花板",
        "docid": "7332039646853120512",
        "url": ""
    },
    {
        "title": "拍一部剧换一张脸，邓为究竟是怎么做到的？",
        "docid": "7320938491486732839",
        "url": ""
    },
    {
        "title": "儿子欠下赌债，全家倾尽所有偿还又来了43万，儿子：我错了！",
        "docid": "7341370296139629056",
        "url": ""
    },
    {
        "title": "士兵突击：高城为什么说很多部队就是绕道也要来草原五班休息？",
        "docid": "7320252458235429416",
        "url": ""
    },
    {
        "title": "白龙马晚年过得凄惨，杨洁导演2次探望落泪，为何不出手救它？",
        "docid": "7314546617909117503",
        "url": ""
    },
    {
        "title": "9部低走高开的电视剧，说好的烂剧，结果全部逆袭成爆款！",
        "docid": "7341664741745771023",
        "url": ""
    },
    {
        "title": "十部看了就忘不掉的爱情剧，全是经典",
        "docid": "7321245869930578442",
        "url": ""
    },
    {
        "title": "吴磊的哥哥爆火：186cm肌肉男神，好一个斯文败类！",
        "docid": "7343446614805086739",
        "url": ""
    },
    {
        "title": "TVB多名老戏骨集体发声！",
        "docid": "7344895028604535296",
        "url": ""
    },
    {
        "title": "大江大河：离婚后的程开颜就没戏了？被宋运辉的铁腕手段给雪藏了",
        "docid": "7331977702277136946",
        "url": ""
    },
    {
        "title": "《大明王朝1566》：全剧最牛伏笔！短短十字，嘉靖就赦免了海瑞！",
        "docid": "7316903011333718555",
        "url": ""
    },
    {
        "title": "Netflix特离谱的黄暴美剧，偏偏还很火，算是独一份了",
        "docid": "7333274045233922569",
        "url": ""
    },
    {
        "title": "《三大队》影版完败剧版:男主与凶手之间的对峙被弱化是最大败笔",
        "docid": "7331067601785045567",
        "url": ""
    },
    {
        "title": "吴京助力，脱掉军装后的她美艳惊人，原来谢楠的担心是对的",
        "docid": "7344626390463693366",
        "url": ""
    },
    {
        "title": "大嫂陈书婷与高启强为什么生不出孩子？看完这几点，你就明白了！",
        "docid": "7319419888212001332",
        "url": ""
    },
    {
        "title": "​《周处除三害》里邪教头目最恶毒的一句话，却让很多人陷入了迷茫",
        "docid": "7343158465940619812",
        "url": ""
    },
    {
        "title": "9部让人欲罢不能的年代剧，你看过几部？",
        "docid": "7320206398625759744",
        "url": ""
    },
    {
        "title": "侯梦莎：我这辈子最正确的决定，就是嫁给我的同行丈夫",
        "docid": "7328627118320075290",
        "url": ""
    },
    {
        "title": "孙俪拍《甄嬛传》时，因为头太痒偷偷挠了一下，本以为会被删掉，却意外成为名场面",
        "docid": "7325341252151706147",
        "url": ""
    },
    {
        "title": "繁花：看清李李在深圳犯的事，才懂为何宝总能把强慕杰置于死地",
        "docid": "7320881597488726554",
        "url": ""
    },
    {
        "title": "明明心里不爽对方，却演出了深情不已的样子，演员的功底让人佩服",
        "docid": "7343915874551759396",
        "url": ""
    },
    {
        "title": "《第二十条》最大的刀，并非郝秀萍绝望跳楼，而是她脖子上的吻痕",
        "docid": "7335072259608281610",
        "url": ""
    },
    {
        "title": "《天下第一》十大高手排名",
        "docid": "7313534984873198121",
        "url": ""
    },
    {
        "title": "为什么抱狗丫头香秀做太太后，对杨九红礼貌客气，不再针锋相对？",
        "docid": "7312032397506118179",
        "url": ""
    },
    {
        "title": "《闯关东》原著：秀儿到死都不明白，朱传武不喜欢她的真实原因",
        "docid": "7317091850056466985",
        "url": ""
    },
    {
        "title": "难怪宜修一生无子：纯元死前足足上了“3道保险”，成全说说而已",
        "docid": "7316447146243293748",
        "url": ""
    },
    {
        "title": "拍《霸王别姬》时，因为葛优一句话，张国荣自此改了对他的称呼",
        "docid": "7313845899519427135",
        "url": ""
    },
    {
        "title": "录像厅年代的XX启蒙片，终于被我找到了",
        "docid": "7342403383682318902",
        "url": ""
    },
    {
        "title": "重温《红高粱》：才明白余占鳌非要和恋儿同居，对九儿意味着什么",
        "docid": "7332451810068611624",
        "url": ""
    },
    {
        "title": "甄嬛带子回宫，谁注意到苏培盛问她的话了？这才是苏总管的厉害处",
        "docid": "7334619456561218089",
        "url": ""
    },
    {
        "title": "姜妍17年前原来长这样！要是用这状态演姚玉玲，就不会只是小红了",
        "docid": "7339839365671043594",
        "url": ""
    },
    {
        "title": "梁正贤为什么宁愿给她500万副卡，也要隐瞒在上海的3.7亿豪宅？",
        "docid": "7323915430383436329",
        "url": ""
    },
    {
        "title": "5部荷尔蒙爆棚的高分爱情电影，肾上腺素飙升！",
        "docid": "7327479876993368610",
        "url": ""
    },
    {
        "title": "《知否》原著：孙秀才后悔了去找淑兰复合，意外得知自己不孕不育",
        "docid": "7326407504399811124",
        "url": ""
    },
    {
        "title": "《精武门》播出29年，大反派武田幸雄移民多年，蔡老板已逝16年",
        "docid": "7331709507205186086",
        "url": ""
    },
    {
        "title": "《知否》：墨兰至死不知，若她不与梁晗苟且，美满姻缘早已上门！",
        "docid": "7327198119610024483",
        "url": ""
    },
    {
        "title": "央视点名表扬！雷佳音赵丽颖刘德华证明：电影圈的“天”，要变了",
        "docid": "7344336331281777215",
        "url": ""
    },
    {
        "title": "甄嬛传：宜修至死不知，甄母和纯元竟是这关系，难怪不敢见皇上",
        "docid": "7313823041820082722",
        "url": ""
    },
    {
        "title": "还珠格格：小时候以为含香深爱蒙丹才会私奔，长大后发现不是这样",
        "docid": "7331695924257227273",
        "url": ""
    },
    {
        "title": "《知否》：原来是盛家的四条人命，换来了淑兰和孙秀才的成功和离",
        "docid": "7326763047698137652",
        "url": ""
    },
    {
        "title": "汪小姐永远不知，甘愿替她挨耳光的宝总，为什么不敢赴约",
        "docid": "7322815445306982948",
        "url": ""
    },
    {
        "title": "《人民的名义》：梁璐被人糟蹋了，梁群峰为何要把梁璐推给祁同伟",
        "docid": "7325311370818732555",
        "url": ""
    },
    {
        "title": "小青法力不低，为何甘愿给白素贞当丫鬟？你看白素贞都给了她啥！",
        "docid": "7342884842902503955",
        "url": ""
    },
    {
        "title": "为什么觉得《琅琊榜》的权斗很幼稚？",
        "docid": "7344024286601970214",
        "url": ""
    },
    {
        "title": "台湾顶流女明星和黑道大哥的爱情，飞鸟与鱼注定悲剧",
        "docid": "7341273664186548776",
        "url": ""
    },
    {
        "title": "贾玲，骗骗我们观众也就罢了，千万不要把自己也给骗了!",
        "docid": "7344666216549761586",
        "url": ""
    },
    {
        "title": "10张最美电影海报：经典与创意的完美结合",
        "docid": "7325712578653504052",
        "url": ""
    },
    {
        "title": "横店20万群演情况：美女很多、懒人遍地，都在出卖光阴和尊严",
        "docid": "7343500211173753398",
        "url": ""
    },
    {
        "title": "29年前《大话西游》留下的一个“大坑”，终于被周星驰自己填上了",
        "docid": "7325322671305048639",
        "url": ""
    },
    {
        "title": "再看《父母爱情》，我明白了满眼沧桑的张桂兰，也终于读懂了人性",
        "docid": "7330065991583498771",
        "url": ""
    },
    {
        "title": "明明拿着配角的片酬，演技却比主角出彩，这10个演员了不起",
        "docid": "7318001736537506304",
        "url": ""
    },
    {
        "title": "胡歌替身想火想疯了，A先生的神秘感被破坏，王家卫要被气吐血了",
        "docid": "7321547979549147675",
        "url": ""
    },
    {
        "title": "太劲爆！彭于晏谈《邪不压正》和许晴全裸拍戏引热议，评论区酸了",
        "docid": "7344284075723063844",
        "url": ""
    },
    {
        "title": "笑不活了！《周处除三害》火了，我却笑死在阮经天的评论区",
        "docid": "7343530508996854281",
        "url": ""
    },
    {
        "title": "我说我杀人不眨眼，你问我眼睛干不干？盘点国剧中的6位狠人杀手",
        "docid": "7326009462148383232",
        "url": ""
    },
    {
        "title": "太真实了！电影里的严刑拷打你能抗住吗？被网友经历笑死！",
        "docid": "7337947672575935017",
        "url": ""
    },
    {
        "title": "男演员的长相有多重要？看看《南来北往》中的牛大力刘冠麟就懂了",
        "docid": "7340901639265485349",
        "url": ""
    },
    {
        "title": "刘省长：“我要是支持高育良的汉大帮，你沙瑞金早晚得离开汉东”",
        "docid": "7344231224221286948",
        "url": ""
    },
    {
        "title": "平凡的世界里的8个女人，哪个才是你心中的意难平？",
        "docid": "7324261820356133385",
        "url": ""
    },
    {
        "title": "小时候喜欢看的《大长今》，长大以后为啥不喜欢了？网友评论亮了",
        "docid": "7331510353685234203",
        "url": ""
    },
    {
        "title": "难怪电视剧只拍上半身，当镜头下移，网友：对不起，我实在没忍住",
        "docid": "7313499140430987827",
        "url": ""
    },
    {
        "title": "《狂蟒之灾》上映，以为是拿女色搞噱头的烂片，实则是精彩惊悚片",
        "docid": "7343972334707507727",
        "url": ""
    },
    {
        "title": "满分B级片女神雪琳·芬经典四部大尺度电影推荐",
        "docid": "7343255339263820322",
        "url": ""
    },
    {
        "title": "“三角运动裤”愈演愈烈，徐娇怒怼日本导演竹内亮：太猥琐！",
        "docid": "7344286655227970087",
        "url": ""
    },
    {
        "title": "《亮剑》中黑云寨“二当家”开直播，十多年了，观众依旧没能释怀",
        "docid": "7312362247463010826",
        "url": ""
    },
    {
        "title": "因失误造就的经典镜头，佟湘玉频频笑场成经典，周一围随口成热门",
        "docid": "7317944174073184777",
        "url": ""
    },
    {
        "title": "好不容易演个男主，连肥都舍不得减，难怪央视都看不下去了！",
        "docid": "7329400452469162546",
        "url": ""
    },
    {
        "title": "论植入，谁有《繁花》这么肆无忌惮？遍地广告却没人反感",
        "docid": "7321556711838548480",
        "url": ""
    },
    {
        "title": "为什么观众可以重刷无数遍《甄嬛传》却不想再看《如懿传》一眼？",
        "docid": "7315621916659024395",
        "url": ""
    },
    {
        "title": "《大江大河3》越来越招人厌的4个角色！杨巡排第二！",
        "docid": "7327919542662021683",
        "url": ""
    },
    {
        "title": "这五部黄暴美剧，能看完的都是狠人啊",
        "docid": "7329825558194405897",
        "url": ""
    },
    {
        "title": "《甘十九妹》27年，演员境遇不同：女一息影多年，女二成为影后",
        "docid": "7317604242528076324",
        "url": ""
    },
    {
        "title": "原来才发现这5部欧美剧，才是无法超越的经典，3刷都不过瘾！",
        "docid": "7318359860721566234",
        "url": ""
    },
    {
        "title": "现实版“寄生虫”！富家女被闺蜜取代身份10年，亲妈都没发现！",
        "docid": "7343537132818186786",
        "url": ""
    },
    {
        "title": "这部顶级黄暴美剧够生猛，不愧是《斯巴达》的“兄弟篇”",
        "docid": "7330305581133627954",
        "url": ""
    },
    {
        "title": "游本昌年轻时照片曝光，网友震惊：比胡歌还帅",
        "docid": "7320458551154721314",
        "url": ""
    },
    {
        "title": "网剧《唐探2》和《飞驰人生》各看四集，一部已弃剧，一部追上瘾",
        "docid": "7342338246984253988",
        "url": ""
    },
    {
        "title": "王漫妮飞奔向8000元酒店的那一晚，才是梁正贤看轻她的原因！",
        "docid": "7321698318399980086",
        "url": ""
    },
    {
        "title": "96届奥斯卡颁奖礼 石头姐芭比赞达亚亮相红毯比美",
        "docid": "7344889422644953615",
        "url": ""
    },
    {
        "title": "五部经典电视剧，至今无人敢翻拍，导演：完全拍不了一点啊",
        "docid": "7321533338982941220",
        "url": ""
    },
    {
        "title": "《乡村爱情》里面12对现实中真正的夫妻，看看你知道几个？",
        "docid": "7336789253370085926",
        "url": ""
    },
    {
        "title": "同一张脸，演完《乾隆王朝》19年后演《南来北往》，差点没认出来",
        "docid": "7333768244702183951",
        "url": ""
    },
    {
        "title": "推荐10部好看的“双男主剧”，部部大爆，你最喜欢哪一部？",
        "docid": "7314258714322616832",
        "url": ""
    },
    {
        "title": "《爆裂点》让人恍然大悟的11件事，好电影果然戏里戏外都精彩",
        "docid": "7312021826191524378",
        "url": ""
    },
    {
        "title": "亲妈是导演，干妈是导演，20年都捧不红他，却在娶妻改名后火了",
        "docid": "7338019917079691811",
        "url": ""
    },
    {
        "title": "想进入娱乐圈爆红？横店校花群演泛滥成灾，70块片酬蹲地上吃盒饭",
        "docid": "7344970333654598182",
        "url": ""
    },
    {
        "title": "《蜗居》：结婚后才懂，海藻在宋思明身下发抖，是对姜淼淼的复仇",
        "docid": "7344761096210825791",
        "url": ""
    },
    {
        "title": "20年前的琼瑶剧真够前卫，这些剧放到今天，会被“人人喊打”吧",
        "docid": "7317164787228639798",
        "url": ""
    },
    {
        "title": "吐槽！看完安志杰新片我连声哀叹：这样下去，连谢苗尾灯都看不到",
        "docid": "7344669536643187237",
        "url": ""
    },
    {
        "title": "这6部经典限制级黄暴美剧，每一部都让你欲罢不能！",
        "docid": "7318204660547174947",
        "url": ""
    },
    {
        "title": "剧里是村姑，剧外一枝花，《人世间》4位女配角，现实中一眼万年",
        "docid": "7317645040229237263",
        "url": ""
    },
    {
        "title": "‘谍战之王’柳云龙 剧中25位美女大排名 你还记得几位？",
        "docid": "7341728413629497882",
        "url": ""
    },
    {
        "title": "《少林寺》演员现状：计春华走了，李连杰成老翁，牧羊女成大赢家",
        "docid": "7330473488974692900",
        "url": ""
    },
    {
        "title": "目前无人超越的10部谍战剧《风筝》排名第六，榜首无可撼动！",
        "docid": "7323441946515685900",
        "url": ""
    },
    {
        "title": "《知否》曹锦绣拉贺弘文共赴云雨，藏着贺老夫人对曹家最狠的报复",
        "docid": "7317970492982526473",
        "url": ""
    },
    {
        "title": "看到祺嫔死时的双脚才明白为何甄嬛一句“我鞋湿了”皇上就此止步",
        "docid": "7322746954960749083",
        "url": ""
    },
    {
        "title": "给30年来最好的刑侦剧排座次：《重案六组》仅第6，《征服》第2",
        "docid": "7329326761337258547",
        "url": ""
    },
    {
        "title": "“黄带子断，君死有疑”皇上明明能致甄嬛于死地，为何最后松开手",
        "docid": "7338405959317914139",
        "url": ""
    },
    {
        "title": "徐克《射雕》是奔着武侠票房冠军去的，肖战或成票房最高武侠主演",
        "docid": "7315609134928675378",
        "url": ""
    },
    {
        "title": "这部史诗级黄暴美剧，完全不输《斯巴达克斯》",
        "docid": "7344031196336390693",
        "url": ""
    },
    {
        "title": "《男才女貌》播出20年，以现在的眼光来看，5位女主演谁最好看？",
        "docid": "7319467080607236620",
        "url": ""
    },
    {
        "title": "奥斯卡／约翰希南「全裸上台颁奖」！只用信封遮第三点　全场吓坏",
        "docid": "7344938031781052928",
        "url": ""
    },
    {
        "title": "《乡村爱情》演员夫妻对比，杨树林胖丫风雨同舟，王小虎老婆最美",
        "docid": "7342674946784870946",
        "url": ""
    },
    {
        "title": "她本是巩俐的“御用替身”，却因《父母爱情》走红，咸鱼翻身",
        "docid": "7312654949165908515",
        "url": ""
    },
    {
        "title": "《周处除三害》深度解析，4点说明，台上的弹琴女为何不害怕？",
        "docid": "7343159100114879026",
        "url": ""
    },
    {
        "title": "限制级美剧的标杆，号称21禁，一集入坑很过瘾",
        "docid": "7330618754361246260",
        "url": ""
    },
    {
        "title": "都说叶童演的赵敏丑，但只有这版赵敏让人相信她能轻易拿下六大派",
        "docid": "7326886602658284071",
        "url": ""
    },
    {
        "title": "香港这一夜！躲过了赵丽颖、蒋勤勤，我却被42岁劣迹艺人惊艳了",
        "docid": "7344975039282381321",
        "url": ""
    },
    {
        "title": "重刷《还珠格格》才发现：当年馋到哭的野炊，原来是集体吃草啊！",
        "docid": "7335680098827649587",
        "url": ""
    },
    {
        "title": "同样演“吃盒饭”，把阮经天、曾志伟和任嘉伦放在一起，高下立判",
        "docid": "7344672467887096360",
        "url": ""
    },
    {
        "title": "白龙马晚年过得凄惨，杨洁导演2次探望落泪，为何不出手救它？",
        "docid": "7340957032155169280",
        "url": ""
    },
    {
        "title": "笑死了！后来他们没戏可拍，长得像他们的人却火了！",
        "docid": "7320080589942555173",
        "url": ""
    },
    {
        "title": "胡锡进：我们拍不了周处的电影",
        "docid": "7344591856715530790",
        "url": ""
    },
    {
        "title": "85花已重新洗牌，有人欢喜有人愁",
        "docid": "7327653183420531200",
        "url": ""
    },
    {
        "title": "把刘涛抱在怀里，有谁注意到他手上的小动作，人品如何一目了然啦",
        "docid": "7345007334277530152",
        "url": ""
    },
    {
        "title": "因目光短浅，而错过当红爆剧的5位演员，如今悔不当初",
        "docid": "7328326849879212563",
        "url": ""
    },
    {
        "title": "《宰相刘罗锅》28年演员现状，主角老到不敢认，配角100岁去世",
        "docid": "7325823203459760703",
        "url": ""
    },
    {
        "title": "叶文洁强加吻戏！网飞版《三体》首波口碑出炉，中国网友猜中了",
        "docid": "7344954913866121769",
        "url": ""
    },
    {
        "title": "《江河日上》口碑大爆，躲过了男主黄志忠，却被55岁男三号惊艳了",
        "docid": "7342704368938959395",
        "url": ""
    },
    {
        "title": "10部必看的悬疑剧，你追了几部？",
        "docid": "7320497644625969679",
        "url": ""
    },
    {
        "title": "繁花：宝总至死不知，他送200万的新车给汪小姐却比不上一本邮票",
        "docid": "7321230998354919946",
        "url": ""
    },
    {
        "title": "6部古装高质量武侠剧！让你重温江湖风云！",
        "docid": "7317816533559263755",
        "url": ""
    },
    {
        "title": "女演员长相有多重要？看《烟火人家》马思纯、李小冉和孙千就知道",
        "docid": "7335733534575444518",
        "url": ""
    },
    {
        "title": "被《南来北往》剧笑死，改革开放十余年，宁阳竟然还是六十年代",
        "docid": "7338975031072178742",
        "url": ""
    },
    {
        "title": "《琅琊榜》景睿想100遍都不会懂，豫津说的每一句话，都是在救他",
        "docid": "7316056688493314601",
        "url": ""
    },
    {
        "title": "谁说“情妇”必须年轻貌美，59岁王柠告诉你，什么是教科书式撩汉",
        "docid": "7326111585800716810",
        "url": ""
    },
    {
        "title": "同样是李云龙坐在炕上喝酒，新老《亮剑》的差距，让人一目了然",
        "docid": "7329068754934497827",
        "url": ""
    },
    {
        "title": "国产口碑最高的十大抗战剧，《雪豹》勉强入围，《亮剑》仅排第二",
        "docid": "7342746154888757779",
        "url": ""
    },
    {
        "title": "刘冠麟表示《南来》剧组聚餐,买菜买单的事都是姚儿姜妍,理由搞笑",
        "docid": "7343507066226639412",
        "url": ""
    },
    {
        "title": "剧版《三大队》，隐藏4位“一级演员”，有一位曾是“全民偶像”",
        "docid": "7315619463284425231",
        "url": ""
    },
    {
        "title": "本以为是烂剧，结果却是王炸，《欢乐家长群》治好我的所有不开心",
        "docid": "7331219074523775497",
        "url": ""
    },
    {
        "title": "看了《与凤行》，我只能说《步步惊心》保了林更新一辈子荣华富贵",
        "docid": "7344637698202026515",
        "url": ""
    },
    {
        "title": "少林寺走红了多位明星，计春华走了，李连杰病了，牧羊女近况如何",
        "docid": "7329805773893190171",
        "url": ""
    },
    {
        "title": "金庸百年诞辰，吴启华陈浩民樊少皇等众星致敬",
        "docid": "7344714193780310569",
        "url": ""
    },
    {
        "title": "13万人强推！连央视都发声了，看懂里面的「性暗示」后我头皮发麻",
        "docid": "7344226002102567443",
        "url": ""
    },
    {
        "title": "侦察英雄：女主文婕为什么让观众们不喜欢？看看她都做些什么？",
        "docid": "7327142756487414324",
        "url": ""
    },
    {
        "title": "11部虐到心肝痛的古装剧，任嘉伦一人占了3部，想二刷，都不敢",
        "docid": "7317332198305399296",
        "url": ""
    },
    {
        "title": "金粉世家：认识3月收1500的项链，婚后却为10块钱发火，她真虚伪",
        "docid": "7343144023571530303",
        "url": ""
    },
    {
        "title": "张无忌有四大神功，让你挑四门武功，怎样的配置才能打败他呢？",
        "docid": "7339764523571872283",
        "url": ""
    },
    {
        "title": "限制级港片，翁虹颠覆性出演《挡不住的疯情》",
        "docid": "7344703395431334435",
        "url": ""
    },
    {
        "title": "从头到脚皆可替？41岁阮经天这个镜头，给多少流量明星一记耳光",
        "docid": "7344643123505087014",
        "url": ""
    },
    {
        "title": "《马大帅》中的四大美人：开原邓紫棋，广末玉芬终究抵不过阿薇",
        "docid": "7341213145950241280",
        "url": ""
    },
    {
        "title": "《裂战》：从烂片到票房冠军，安志杰再度刷新国产片定义",
        "docid": "7344279847788626441",
        "url": ""
    },
    {
        "title": "8位有“真功夫”的武打女星，杨紫琼上榜，胡慧中惠英红不得不服",
        "docid": "7317581430433989154",
        "url": ""
    },
    {
        "title": "王新军新剧《狗剩快跑》，可惜了秦海璐演技，观众为杏儿抱不平",
        "docid": "7330215039464800820",
        "url": ""
    },
    {
        "title": "播4集破3亿，口碑“炸裂”，36岁袁姗姗终于“杀”回狗血剧了",
        "docid": "7344000691909935668",
        "url": ""
    },
    {
        "title": "“康祈光”与“香兰”，戏里做了24年夫妻，戏外人生却迥然不同",
        "docid": "7332021708838273545",
        "url": ""
    },
    {
        "title": "重温《血色浪漫》：才发现当初被击毙的宁伟，他的死没有那么简单",
        "docid": "7339448422707397154",
        "url": ""
    },
    {
        "title": "难怪《雍正王朝》被誉为职场教科书，你看李卫进京，都是咋面圣的",
        "docid": "7339708796987900452",
        "url": ""
    },
    {
        "title": "盘点那些一季就停播却已封神的美剧",
        "docid": "7335332067233776138",
        "url": ""
    },
    {
        "title": "《热辣滚烫》北美上映票房惨淡，外媒差评一针见血！",
        "docid": "7344930013030302223",
        "url": ""
    },
    {
        "title": "高叶爆红，内幕如下",
        "docid": "7343543953188848139",
        "url": ""
    },
    {
        "title": "《狂飙》唐小龙至死不知， 替了6年的牢，宁愿跳楼咬舌也不愿出卖高启强，为何高启强更器重“心软男”唐小虎",
        "docid": "7313850345116009011",
        "url": ""
    },
    {
        "title": "郑晓龙调侃姜妍：姚儿下次找你拍戏，免费行不？姜妍回复够笑三天",
        "docid": "7342726979559047692",
        "url": ""
    },
    {
        "title": "汤唯在《色戒》中做出了怎样的牺牲？冯小刚、金星都曾为她鸣不平",
        "docid": "7345026065426891304",
        "url": ""
    },
    {
        "title": "央视一套40集大剧今晚播出，请来高伟光陈数，收视又要爆了",
        "docid": "7344993067454054966",
        "url": ""
    },
    {
        "title": "豆瓣2.4分，他终于堕落成了「烂片之王」",
        "docid": "7344739059162268175",
        "url": ""
    },
    {
        "title": "一连3天收视第一，我断言：战争剧拍成这样，观众看完会起立鼓掌",
        "docid": "7323445192537899535",
        "url": ""
    },
    {
        "title": "为什么CCTV-6总是能播一些连院线都上不了的电影？",
        "docid": "7327657565628744243",
        "url": ""
    },
    {
        "title": "比《大唐狄公案》更精彩的9部大唐侦探悬疑剧 你熬夜看过几部",
        "docid": "7334333218583544357",
        "url": ""
    },
    {
        "title": "电影圈又传好消息！乌尔善又有新动作，他已走上大导演另一条大路",
        "docid": "7344935334347866639",
        "url": ""
    },
    {
        "title": "长大再看《武林外传》，才明白佟湘玉为何喜欢郭芙蓉不喜欢祝无双",
        "docid": "7325696940397691443",
        "url": ""
    },
    {
        "title": "安陵容的大床告诉观众：穷人家的女孩没资格谈自尊",
        "docid": "7314681132425970185",
        "url": ""
    },
    {
        "title": "被低估了30年！这部电影，今终于像《大话西游》一样，熠熠生辉了",
        "docid": "7342342684717695539",
        "url": ""
    },
    {
        "title": "推荐那种看了后劲很大的电影 ​​​",
        "docid": "7320831074551005735",
        "url": ""
    },
    {
        "title": "乡爱16：谢飞机变谢大炮，王小蒙刘英变土肥圆，我却被兰妮惊艳了",
        "docid": "7332127982121796137",
        "url": ""
    },
    {
        "title": "郭襄处处比郭芙好，为何不得真爱？唯有杨过看穿她的本性有多轻浮",
        "docid": "7316839686104744482",
        "url": ""
    },
    {
        "title": "在内地“影响力较大”的10部港剧：《上海滩》第3，《霍元甲》第2",
        "docid": "7341732266563289650",
        "url": ""
    },
    {
        "title": "好莱坞12位动作巨星，究竟谁才是你心中的神？评论区你们说了算。",
        "docid": "7327194611649593882",
        "url": ""
    },
    {
        "title": "繁花：李李至死不知，宝总点40元炒牛河，如何看出饭店开不过仨月",
        "docid": "7329796728604246563",
        "url": ""
    },
    {
        "title": "中国票房惨淡新片，北美却受热捧，首日破2亿夺魁！",
        "docid": "7344594101930656292",
        "url": ""
    },
    {
        "title": "谁在给伪军翻案? 看《狗剩快跑》才知道: 为啥当汉奸的是这三种人",
        "docid": "7330185769535586855",
        "url": ""
    },
    {
        "title": "华丽草包\"吕子乔\"，这电影圈算是被你挤进去了",
        "docid": "7336798292485112346",
        "url": ""
    },
    {
        "title": "在全员恋爱脑的《还珠格格》里，只有杨紫看到了柳红最深的情感",
        "docid": "7321965361232871970",
        "url": ""
    },
    {
        "title": "1996年香港电影漫谈，陈可辛用一部文艺片，第三次打败李连杰！",
        "docid": "7317879205063148083",
        "url": ""
    },
    {
        "title": "国外拿奖，国内成禁片！细思极恐后，别让这片彻底消失…",
        "docid": "7345009759868830219",
        "url": ""
    },
    {
        "title": "台湾神剧《第8号当铺》，刘德华是男主原型，一度被禁播和删减",
        "docid": "7338745649481007651",
        "url": ""
    },
    {
        "title": "那些“哭笑不得”的穿帮镜头，如今个个成了经典，你都看过哪些？",
        "docid": "7344183545739182607",
        "url": ""
    },
    {
        "title": "亮剑和“亮剑三”对比：李云龙结婚啃大饼，王云山却住豪宅吃香蕉",
        "docid": "7327214610577457704",
        "url": ""
    },
    {
        "title": "可怕寄生虫！一富家女被取代身份10年，亲妈都没发现！本人在哪?",
        "docid": "7343484990883627556",
        "url": ""
    },
    {
        "title": "\"奥斯卡红毯揭秘：大表姐颜值惊艳登场，你绝对不能错过！\"",
        "docid": "7344972070696452646",
        "url": ""
    },
    {
        "title": "《第二十条》在龙哥案之前，功德无量；在龙哥案之后，普通电影",
        "docid": "7335723995692286483",
        "url": ""
    },
    {
        "title": "《知否》给儿媳下绝子药，塞钱让人折磨小姑子，这个女人还不够狠",
        "docid": "7336202412388467239",
        "url": ""
    },
    {
        "title": "翁虹大胆颠覆，演绎限制级港片《挡不住的疯情》！",
        "docid": "7344678484743160355",
        "url": ""
    },
    {
        "title": "《鸡毛飞上天》骆玉珠原型，狂赚800亿后，败光身家欠下巨额外债",
        "docid": "7337173779891896859",
        "url": ""
    },
    {
        "title": "别被他骗了！当影帝、做导演，“尊者”可没表面看起来的那么老实",
        "docid": "7342906791992246811",
        "url": ""
    },
    {
        "title": "雍正王朝：看懂了邬思道桌上摆着的包袱，才明白雍正帝究竟有多毒",
        "docid": "7314585286619808306",
        "url": ""
    },
    {
        "title": "“演技差”像热粥里掺沙！《大唐狄公案》的关系户们，看着就心烦",
        "docid": "7341595837442605587",
        "url": ""
    },
    {
        "title": "收视已升至第三名，我断言：央视这剧，48岁的男6号会再火向全国",
        "docid": "7345043674109755958",
        "url": ""
    },
    {
        "title": "石头姐二封奥斯卡影后，网友评价：不敢恭维！",
        "docid": "7345014445783663119",
        "url": ""
    },
    {
        "title": "再看《康熙王朝》：才知道宝日龙梅草原献身后，守活寡的隐情",
        "docid": "7331005681321230898",
        "url": ""
    },
    {
        "title": "上映3天，票房仅35万，张晋的“功夫巨星”之路，彻底被斩断了",
        "docid": "7344544692261913103",
        "url": ""
    },
    {
        "title": "三看《大宅门》才懂：60岁白景琦拼死娶28岁香秀当太太的真实隐情",
        "docid": "7312269861831344649",
        "url": ""
    },
    {
        "title": "闭嘴吧！姚安娜遭全网嘲，但我们都错怪她了，张艺谋的话有人信了",
        "docid": "7345033218858779174",
        "url": ""
    },
    {
        "title": "为什么青春剧不拍研究生？网友们的评论真实了！真的笑死我了哈哈",
        "docid": "7313896906454172160",
        "url": ""
    },
    {
        "title": "《甄嬛传》拍摄时，蒋欣要加“吃酸黄瓜”的戏，郑晓龙不同意，编剧为此和他大吵一架，没想到意外成经典",
        "docid": "7321925789115531803",
        "url": ""
    },
    {
        "title": "横店20万群演现状：美女泛滥、懒汉光棍遍地，他们的归宿到底在哪",
        "docid": "7345055432266285579",
        "url": ""
    },
    {
        "title": "好家伙！一脸褶子还硬演少女，“强行扮嫩”的风都刮到历史剧里了",
        "docid": "7343796440692425252",
        "url": ""
    },
    {
        "title": "这么多年了看见这种电视剧经典桥段我还是走不动路！",
        "docid": "7344383889266262543",
        "url": ""
    },
    {
        "title": "熬夜必看的15部宝藏电视剧，百看不厌，收藏起来慢慢看！",
        "docid": "7314254493171188239",
        "url": ""
    },
    {
        "title": "与凤行定档，腾讯和芒果赤裸裸的商战，优酷也来凑热闹",
        "docid": "7344265054893687331",
        "url": ""
    },
    {
        "title": "甄嬛传：出人预料，甄嬛坐上太后宝座的第一件事，就是要除掉端妃",
        "docid": "7318205587476202020",
        "url": ""
    },
    {
        "title": "笑麻了！姚安娜评论区成许愿池，原来网友们的愿望都这么朴实",
        "docid": "7340577493235352127",
        "url": ""
    },
    {
        "title": "近70年参展仅1部获奖，电影人们在骄傲什么？",
        "docid": "7344913068377850368",
        "url": ""
    },
    {
        "title": "陈乔恩送林心如地摊买的发簪，批发价几块钱一支，林心如视为珍宝",
        "docid": "7321283607346020927",
        "url": ""
    },
    {
        "title": "当33岁金晨遇上大4岁的她，我终于悟了，原来红不红都是命",
        "docid": "7333134776259314195",
        "url": ""
    },
    {
        "title": "谢霆锋帮刘德华张学友“擦脸”，吐槽“电影难做”",
        "docid": "7345021158645269011",
        "url": ""
    },
    {
        "title": "“明明很好看，但就是不火”的五部剧，你觉得哪一部比较可惜！",
        "docid": "7320528965083611711",
        "url": ""
    },
    {
        "title": "“黛玉题诗”没用替身，“凤姐之死”没用替身，独独这只手用替身",
        "docid": "7317111491453780491",
        "url": ""
    },
    {
        "title": "《婚后事》这部剧让我们看到了婚姻中的种种问题",
        "docid": "7344907958679339532",
        "url": ""
    },
    {
        "title": "再看《伪装者》：才明白16岁时汪曼春的屈辱一夜，注定了她的结局",
        "docid": "7336862823139656228",
        "url": ""
    },
    {
        "title": "五大槽点，如果没有最后五分钟，《第二十条》就是春晚小品了！",
        "docid": "7336040652125504012",
        "url": ""
    },
    {
        "title": "小美低头，观众心痛！揭秘《周处除三害》虐待戏，香港仔害羞了",
        "docid": "7345001908815577619",
        "url": ""
    },
    {
        "title": "同样演“吃盒饭”，把阮经天、海清和刘涛放一起，才知道谁接地气",
        "docid": "7344665790295802383",
        "url": ""
    },
    {
        "title": "抗日神剧八路军的伙食，不是海鲜就是法国菜，主打的就是一个上流",
        "docid": "7327260645890703906",
        "url": ""
    },
    {
        "title": "娱乐脱口秀 | “仙剑”还值得拍吗？",
        "docid": "7331944299590484516",
        "url": ""
    },
    {
        "title": "大学生放假在家究竟有多惨？竟然成了“德华”，网友：天天挨骂！",
        "docid": "7320868999037076004",
        "url": ""
    },
    {
        "title": "《人民的名义》“怂包”祁同伟死都不知，“风情万种”的高小琴让赵瑞龙玷污4年，爱的其实是赵瑞龙",
        "docid": "7312348539697562147",
        "url": ""
    },
    {
        "title": "梁爱琪出演最美富婆，潘长江老师也抵挡不住她的魅力",
        "docid": "7344683301741511220",
        "url": ""
    },
    {
        "title": "揭秘电视剧中演员只露上半身的时候，演员下半身藏着什么秘密？",
        "docid": "7329707258039091747",
        "url": ""
    },
    {
        "title": "15部国内公认的顶尖国产悬疑剧，前2部更是天花板级别！",
        "docid": "7330121769916940810",
        "url": ""
    },
    {
        "title": "《亮剑》三个“失踪人口”，谢宝庆张大彪邢志国，去哪儿了？",
        "docid": "7313945182221648395",
        "url": ""
    },
    {
        "title": "叶问之子咏春多厉害？真功夫让陈道明起立鼓掌，甄子丹只有学的份",
        "docid": "7326029516940411431",
        "url": ""
    },
    {
        "title": "单身女人到底多可怕，就算是劫匪也同样遭到反杀！",
        "docid": "7340927248826008104",
        "url": ""
    },
    {
        "title": "过去10年，哪座奥斯卡男主角含金量最高",
        "docid": "7344546608425665087",
        "url": ""
    },
    {
        "title": "《繁花》爷叔至死不知，阿宝给自己留的后路，远比他的强一万倍",
        "docid": "7329436959334810147",
        "url": ""
    },
    {
        "title": "《唐探2》俞灏明痛失本名，春晚小品被毙反成好事，靠配角出圈",
        "docid": "7344626176712901146",
        "url": ""
    },
    {
        "title": "奥斯卡最佳女主角艾玛·斯通：让表演这场马拉松继续下去丨人物",
        "docid": "7344982740888289843",
        "url": ""
    },
    {
        "title": "电影《十月围城》武力排名",
        "docid": "7342758972346122767",
        "url": ""
    },
    {
        "title": "《周处除三害》特别鸣谢张孝全：敬业之心，永存于影",
        "docid": "7344248411203944969",
        "url": ""
    },
    {
        "title": "剧里连胡歌都高攀不起，剧外经历却让人心疼，王家卫你是会选角的",
        "docid": "7323149291122737703",
        "url": ""
    },
    {
        "title": "\"票房无敌战北美！热辣影片想硬扛，外媒大师赞叹不已！\"",
        "docid": "7345060638169121316",
        "url": ""
    },
    {
        "title": "张艺谋：“一代国师”跌落神坛，晚节不保，文艺人设竟然都是伪装",
        "docid": "7345008791232414227",
        "url": ""
    },
    {
        "title": "张颂文谈《猎冰》争议：观众喜欢和不喜欢都很正常",
        "docid": "7344977449492906532",
        "url": ""
    },
    {
        "title": "金蝉子与杨戬激战，导致猴哥提前出世！",
        "docid": "7325143077817942555",
        "url": ""
    },
    {
        "title": "本届奥斯卡绝了！赵喜娜全裸上台颁奖，众星表情好精彩",
        "docid": "7345087660925108736",
        "url": ""
    },
    {
        "title": "他一手捧红靳东和王凯，自己却在跑龙套，王凯领奖当众下跪感恩",
        "docid": "7344287347447972387",
        "url": ""
    },
    {
        "title": "《繁花》太荒谬，爷叔宝总散伙，李李畏罪跑路，强总成猎物不自知",
        "docid": "7321344309117059618",
        "url": ""
    },
    {
        "title": "米老鼠变杀手，第一部米老鼠恐怖电影官宣",
        "docid": "7319401677369508415",
        "url": ""
    },
    {
        "title": "邓超版《倚天》有毒，15年后“五美”全都糊了，唯有黄衫女子大红",
        "docid": "7345034480501064227",
        "url": ""
    },
    {
        "title": "“唐探宇宙”又上新，这些出彩的女性角色你还记得吗？",
        "docid": "7345088064224166435",
        "url": ""
    },
    {
        "title": "全程都不舍得快进的6部电影，一口气看完真过瘾",
        "docid": "7318663664813261352",
        "url": ""
    },
    {
        "title": "整部《猎冰》看完，没发现它4000万到底用在哪？我来给大家算算账",
        "docid": "7341627155274940965",
        "url": ""
    },
    {
        "title": "《父母爱情》：没看懂官二代的“优越”感，此剧的精髓就漏掉一半",
        "docid": "7340832595821036095",
        "url": ""
    },
    {
        "title": "繁花：最没诚信的人出现，当面一套背后一套，最终的下场不会好",
        "docid": "7319862145578779151",
        "url": ""
    },
    {
        "title": "两人因戏生情，婚后6年生3胎，丈夫片约不断，被称“屏幕硬汉”",
        "docid": "7344285941983150633",
        "url": ""
    },
    {
        "title": "繁花：杜红根至死不知，嚣张的卢美琳为何会被老公输掉3000万饭店",
        "docid": "7325335306860331560",
        "url": ""
    },
    {
        "title": "“张若昀”主演的这6部剧，每一部都好评如潮！你看过几部？",
        "docid": "7317220681731850787",
        "url": ""
    },
    {
        "title": "优酷掀桌子了，28部古装剧蓄势待发，就问你服不服？",
        "docid": "7344972307737313842",
        "url": ""
    },
    {
        "title": "一场发布会，坐在张艺谋旁边的赵丽颖，让所有人见识她的江湖地位",
        "docid": "7323160108194595382",
        "url": ""
    },
    {
        "title": "知否最毒的计策：一招祸水东引，三个女人被糟蹋，一个家族被毁灭",
        "docid": "7342110162297061922",
        "url": ""
    },
    {
        "title": "电影版《亮剑》：原班人马成为笑话，怪不得李幼斌不接李云龙一角",
        "docid": "7343888128068911653",
        "url": ""
    },
    {
        "title": "基里安·墨菲奥斯卡封帝，赵喜娜风波成热议焦点：荣耀背后的故事",
        "docid": "7344995779053978122",
        "url": ""
    },
    {
        "title": "中国票房扑街的新片，北美观众当成宝，上映首日破2亿夺票房第一",
        "docid": "7344363044715102720",
        "url": ""
    },
    {
        "title": "大江大河3：小雷家村民到死都不知，他们推翻雷东宝是厄运的开始",
        "docid": "7331028221925900810",
        "url": ""
    },
    {
        "title": "“还得是二十年的穿越女主，人设太出圈了”#刘莉莉",
        "docid": "7314242157140050432",
        "url": ""
    },
    {
        "title": "“秦昊”主演的4部悬疑剧，演技与口碑齐飞，简直杀疯了！",
        "docid": "7316070892226855436",
        "url": ""
    }
]