[
    {
        "title": "人性扭曲的《大鸿米店》，为何只拍一半剧情？后续故事实在太残忍",
        "docid": "7305659936007422502",
        "url": ""
    },
    {
        "title": "周润发到底有多强?金像奖上打败自己，靠一部电影成为连庄影帝",
        "docid": "7305956830105158170",
        "url": ""
    },
    {
        "title": "“黛玉题诗”没用替身，“凤姐之死”没用替身，独独这只手用替身",
        "docid": "7317111491453780491",
        "url": ""
    },
    {
        "title": "三国9大使刀的名将，3人战平关羽，4人可退马超，2人被灭三族",
        "docid": "7315221214052631076",
        "url": ""
    },
    {
        "title": "柯伯龙新片冰雪大围捕惊艳上线",
        "docid": "7324518401127367177",
        "url": ""
    },
    {
        "title": "22年后再看《大宅门》：白玉婷到死也不知道，万筱菊为什么拒绝她",
        "docid": "7296518962446516745",
        "url": ""
    },
    {
        "title": "《我的兄弟叫顺溜》中的穿帮镜头，个个都很出戏，连导演都没发现",
        "docid": "7309028117006516763",
        "url": ""
    },
    {
        "title": "《繁花》陈国庆：《老娘舅》让负债累累的他住别墅，70岁是妻管严",
        "docid": "7321651402919772713",
        "url": ""
    },
    {
        "title": "《帝王计划：怪兽遗产》深度总结，4000字完整故事线，都是精华",
        "docid": "7323781430004220456",
        "url": ""
    },
    {
        "title": "《刀尖》一座历史密室，二名特工，三面间谍，破解四个历史真相",
        "docid": "7305305802150085135",
        "url": ""
    },
    {
        "title": "《乡村爱情故事》中的穿帮镜头，简直太搞笑，最后一个更是辣眼睛",
        "docid": "7317164647436698166",
        "url": ""
    },
    {
        "title": "本以为是烂剧，上线就夺飙升榜第一，斯琴高娃把年代剧拍成了爆款",
        "docid": "7324526329112805928",
        "url": ""
    },
    {
        "title": "全程空洞眼，面无表情，张晚意竟以这种方式给偶像剧演员上了一课",
        "docid": "7316904164738204201",
        "url": ""
    },
    {
        "title": "原来这些角色都是她演的！原来她叫王乐君",
        "docid": "7275629888646824489",
        "url": ""
    },
    {
        "title": "《繁花》中爷叔的一段话让我醒悟，曾经为了工作那么拼命，好傻",
        "docid": "7324608332940427811",
        "url": ""
    },
    {
        "title": "《繁花》禁忌情感曝光，网友震惊：这是真实事件改编的？",
        "docid": "7324685486403027496",
        "url": ""
    },
    {
        "title": "《亮剑》演员重聚：张光北秃了，何政军沧桑，李幼斌老到认不出来",
        "docid": "7306496638820893184",
        "url": ""
    },
    {
        "title": "《海王2》票房不足5亿 超级英雄电影没人看了吗？",
        "docid": "7324612154273923620",
        "url": ""
    },
    {
        "title": "2019年我看过的8部港片：《叶问4》最失望，《作家的谎言》亮点多",
        "docid": "7324649917484728867",
        "url": ""
    },
    {
        "title": "孕妇被日本人抓到，没想到日本人却笑着递给一个奶瓶",
        "docid": "7294245666774417970",
        "url": ""
    },
    {
        "title": "胡歌和石宇奇的花样年华",
        "docid": "7324318215612793380",
        "url": ""
    },
    {
        "title": "《黑白密码》第1-8集剧情介绍",
        "docid": "7324574300613181962",
        "url": ""
    },
    {
        "title": "唐嫣拍繁花火了，罗晋时隔三年终于发抖音，笑死在他的评论区里",
        "docid": "7322288439607591465",
        "url": ""
    },
    {
        "title": "画江湖之天罡：巧儿不是将臣！电影上映首日就被大量盗版传播！",
        "docid": "7317939335058162203",
        "url": ""
    },
    {
        "title": "王晶拍笑傲江湖，张雨绮演东方不败，看任盈盈选角，网友不淡定了",
        "docid": "7322757665737146892",
        "url": ""
    },
    {
        "title": "《繁花》最差演技出来了：台词功底差，但资源好得不得了",
        "docid": "7322372770099135016",
        "url": ""
    },
    {
        "title": "杨蓉“堕落”演小短剧，3.9万网友感到不值：混不下去了吗？",
        "docid": "7305337247007080995",
        "url": ""
    },
    {
        "title": "《武状元苏乞儿》中的穿帮镜头，简直要笑死人，当年只顾看如霜了",
        "docid": "7309684450173469218",
        "url": ""
    },
    {
        "title": "难怪刀白凤主动献身段延庆，你看她的历史原型是谁？比书中更轻浮",
        "docid": "7304921911333585448",
        "url": ""
    },
    {
        "title": "王家卫万万没想到，请了九成上海演员，却被一个外地人抢尽风头",
        "docid": "7322281423221015050",
        "url": ""
    },
    {
        "title": "繁花：陈珍至死不知，走投无路的宝总，竟是靠一个小哑巴扭转乾坤",
        "docid": "7323603294306615820",
        "url": ""
    },
    {
        "title": "《我是特种兵》幕后：播出两天被临时叫停，6位主演有5位是军人",
        "docid": "7301247600898884150",
        "url": ""
    },
    {
        "title": "原来才发现这5部欧美剧，才是无法超越的经典，3刷都不过瘾！",
        "docid": "7318359860721566234",
        "url": ""
    },
    {
        "title": "张艺谋筹拍新剧《主角》，争角大战一触即发，只有他稳坐“江山”",
        "docid": "7324239300772938249",
        "url": ""
    },
    {
        "title": "原来罗素.克劳这么牛，随便选15部影片都是经典。怪不得是影帝。",
        "docid": "7319398177533329929",
        "url": ""
    },
    {
        "title": "武功再高，不及主角光环厉害，盘点被古龙强行写死的十大绝世高手",
        "docid": "7304876614213730827",
        "url": ""
    },
    {
        "title": "盘点《权力的游戏》中40个幕后冷知识，普通观众根本发现不了！",
        "docid": "7302314513008017935",
        "url": ""
    },
    {
        "title": "《甄嬛传》唐艺昕与陈建斌的侍寝戏，还没演完，唐心里就骂起了陈",
        "docid": "7323773730696643112",
        "url": ""
    },
    {
        "title": "网友推荐的这些电影真的巨好看！！ ​​​",
        "docid": "7308949650219057700",
        "url": ""
    },
    {
        "title": "要不是被前妻陷害多年，他早该火了",
        "docid": "7317654799531524671",
        "url": ""
    },
    {
        "title": "几乎零差评的5部抗日战争剧，榜首地位难以撼动",
        "docid": "7301621385309422120",
        "url": ""
    },
    {
        "title": "央视电视剧盛典：《繁花》剧组重聚，蒋欣瘦到不敢认，游本昌获奖",
        "docid": "7324303534030635535",
        "url": ""
    },
    {
        "title": "《乡村爱情》女演员戏外对比，两个王小蒙差距大，香秀整容认不出",
        "docid": "7299366964240073231",
        "url": ""
    },
    {
        "title": "演员赵恒煊：我这辈子最幸运的事情，就是娶了资助我成名的贤妻",
        "docid": "7320422232680235561",
        "url": ""
    },
    {
        "title": "演员休息时都在干嘛？第一张我忍住了，杨紫这张我可以笑一整天",
        "docid": "7301211944457994804",
        "url": ""
    },
    {
        "title": "她16岁试镜《甄嬛传》，导演不满意，看到简历，直接给她玉娆角色",
        "docid": "7323927615461540390",
        "url": ""
    },
    {
        "title": "一部令傅艺伟都黯然失色的电视剧，令网友明白了当皇帝的快乐",
        "docid": "7324525402704822824",
        "url": ""
    },
    {
        "title": "这一次，马伊琍将“单亲妈妈”的尴尬境遇，在这展现的淋漓尽致！",
        "docid": "7324577587831964198",
        "url": ""
    },
    {
        "title": "驻马店首部荣获国际大奖电影《打铁花行动》上映",
        "docid": "7324664533203665447",
        "url": ""
    },
    {
        "title": "《脱轨》热播，刘浩存口碑逆转，究竟是实力还是运气？",
        "docid": "7324695720647557672",
        "url": ""
    },
    {
        "title": "对不起，我弃剧了！《侦察英雄》剧情越来越离谱，编剧真有你的！",
        "docid": "7324290882218738228",
        "url": ""
    },
    {
        "title": "《七十二房客》出现过的4位美女，长得漂亮，可惜戏份不多",
        "docid": "7308292877526778368",
        "url": ""
    },
    {
        "title": "华语首部中国房车文化电影《往后余生》和田开机",
        "docid": "7324633898783375884",
        "url": ""
    },
    {
        "title": "在90年代新加坡当红女艺人，你对谁的印象最深呢？",
        "docid": "7323167638815900198",
        "url": ""
    },
    {
        "title": "被导演临时拉来救场，却造就了经典角色，原主演看到后悔了吗？",
        "docid": "7305593425066705448",
        "url": ""
    },
    {
        "title": "金扫帚奖提名惹争议，被质疑全看人情公关，杨幂入围被撤就是先例",
        "docid": "7324663899465515530",
        "url": ""
    },
    {
        "title": "《欢乐颂》关雎尔家境到底有多强？一场团圆饭，一目了然，实在牛",
        "docid": "7320225607005159955",
        "url": ""
    },
    {
        "title": "唱着歌横穿战场，一个人毁掉一部剧，这还想和韩剧美剧比个高低？",
        "docid": "7324631519987909174",
        "url": ""
    },
    {
        "title": "刘益谦讲述真实的《繁花》：隐藏不一样情节的故事",
        "docid": "7322338672446095926",
        "url": ""
    },
    {
        "title": "《繁花》看不懂？了解一个故事，就懂了",
        "docid": "7317514982923485708",
        "url": ""
    },
    {
        "title": "TVB“万千星辉颁奖典礼2023”澳门举行 佘诗曼三封“视后”",
        "docid": "7324294060737528331",
        "url": ""
    },
    {
        "title": "在澳门输钱最多的人，把一块地皮输给何鸿燊，如今地皮价值1千亿",
        "docid": "7294879144641577481",
        "url": ""
    },
    {
        "title": "\"《怒呛人生》大放异彩，荣获多个奖项，领衔第75届艾美奖\"",
        "docid": "7324540410683015732",
        "url": ""
    },
    {
        "title": "甄嬛离宫那三年，祺嫔为什么升不了妃？原来是她一开始就做错了",
        "docid": "7324525710016610855",
        "url": ""
    },
    {
        "title": "她23岁成名做了10年黄金女配，39岁生下独女，丈夫心疼给全部财产",
        "docid": "7298982243811246619",
        "url": ""
    },
    {
        "title": "《法证先锋》俩男主重聚，都曾被批“软饭男”，有人已4年没戏拍",
        "docid": "7323866025206776358",
        "url": ""
    },
    {
        "title": "新闻女王：都以为许诗晴是高层的情人？别再被导演的诡计给蒙骗了",
        "docid": "7309891223852991011",
        "url": ""
    },
    {
        "title": "一口气看15集，越看越上瘾，真是一部上头古装奇幻剧",
        "docid": "7296061492896596492",
        "url": ""
    },
    {
        "title": "神隐:为什么说古普是最强关系户",
        "docid": "7311601873331618331",
        "url": ""
    },
    {
        "title": "TVB这部新剧把机场各个岗位分工都安排上了",
        "docid": "7322691750844285466",
        "url": ""
    },
    {
        "title": "影视剧中“抠图穿帮”，典型的“缺胳膊少腿”，简直太敷衍观众了",
        "docid": "7299371459548561930",
        "url": ""
    },
    {
        "title": "电视剧《繁花》里陶陶穷吗",
        "docid": "7320495915498865193",
        "url": ""
    },
    {
        "title": "《繁花》中服饰公司的蔡总，他的下场会如何？",
        "docid": "7322386814240293412",
        "url": ""
    },
    {
        "title": "十部必看热血武侠剧，这就是江湖！",
        "docid": "7291958478170751507",
        "url": ""
    },
    {
        "title": "片单丨5部未能在大陆上映的限制级港片，你看过几部？",
        "docid": "7303762884516053523",
        "url": ""
    },
    {
        "title": "《七剑下天山》十大高手排名",
        "docid": "7294158573645660681",
        "url": ""
    },
    {
        "title": "《功夫》中的穿帮镜头，个个都出乎意料，就连导演本人都没有发现",
        "docid": "7302323886794949172",
        "url": ""
    },
    {
        "title": "杨紫琼新剧，还是亚洲之光！",
        "docid": "7324663394496627252",
        "url": ""
    },
    {
        "title": "六部火爆全网的“大男主”电视剧，你看过几部？",
        "docid": "7295256811748246070",
        "url": ""
    },
    {
        "title": "《繁花》：靠极端手段上位的小江西，能在黄河路上闯出一片天地吗",
        "docid": "7318248092913140233",
        "url": ""
    },
    {
        "title": "10部开播必追的悬疑剧，秦昊、张颂文、吴镇宇领衔，入股不亏",
        "docid": "7293821533934469671",
        "url": ""
    },
    {
        "title": "性张力和性缩力怎么区分？今天带大家视觉了解！",
        "docid": "7323873704474690099",
        "url": ""
    },
    {
        "title": "上映被当地禁播，一部揭开底层难以启齿一面的电影",
        "docid": "7303847621301436966",
        "url": ""
    },
    {
        "title": "戏拍一半临时换角，强行换演员的五部剧，好多观众都没发现换人了",
        "docid": "7324632436502413834",
        "url": ""
    },
    {
        "title": "《亮剑》三个“失踪人口”，谢宝庆张大彪邢志国，去哪儿了？",
        "docid": "7313945182221648395",
        "url": ""
    },
    {
        "title": "这十部顶级英美剧，堪称业界巅峰之作，每一部都值得你熬夜追看",
        "docid": "7294275639283155506",
        "url": ""
    },
    {
        "title": "《父母爱情》这四个演员：个个不愁戏拍，个个戏路坎坷，玄了",
        "docid": "7296501982935237120",
        "url": ""
    },
    {
        "title": "这八部年代生活剧你看过几部？",
        "docid": "7297913531628880423",
        "url": ""
    },
    {
        "title": "《小行星猎人》上映，在IMAX银幕尝鲜38分钟立体科教片",
        "docid": "7324700928265781772",
        "url": ""
    },
    {
        "title": "草莽中的《繁花》",
        "docid": "7324715676822897178",
        "url": ""
    },
    {
        "title": "蒋欣一句话逼疯陈建斌，郑导直言后悔请蔡少芬，甄嬛传幕后太抓马",
        "docid": "7324622288509911591",
        "url": ""
    },
    {
        "title": "2024年50部剧甜宠！ 吴磊《在暴雪时分》、许凯《你比星光美丽》",
        "docid": "7324534386056495616",
        "url": ""
    },
    {
        "title": "netflix也出动画片，十部制作精良奈飞动画合集，就是有钱！",
        "docid": "7286800354455552548",
        "url": ""
    },
    {
        "title": "郑晓龙《侦察英雄》遭痛批，战争剧要接地气，但绝不是“接地府”",
        "docid": "7324524571019936306",
        "url": ""
    },
    {
        "title": "身份在迷失中觉醒，一场视觉与感官的盛宴，思考当代生活之迷",
        "docid": "7294556269087277631",
        "url": ""
    },
    {
        "title": "央视深夜居然播这么大胆的题材",
        "docid": "7293084711462191668",
        "url": ""
    },
    {
        "title": "久病床前无孝子，老龄化日益加剧，日本人拿刀对准了年迈的父母",
        "docid": "7307192127640633891",
        "url": ""
    },
    {
        "title": "《悬崖》、《风声》，谍战片的恶之花",
        "docid": "7320991648153125391",
        "url": ""
    },
    {
        "title": "繁花：26集看完，我如鲠在喉，不吐不快",
        "docid": "7321350179423093263",
        "url": ""
    },
    {
        "title": "空降6集，拿下飙升榜第一！观众：真不愧是我苦等7年的年代大剧",
        "docid": "7324534347686920704",
        "url": ""
    },
    {
        "title": "艾美奖名单／《继承之战》、《熊家餐馆》6奖大赢家",
        "docid": "7324559382610510374",
        "url": ""
    },
    {
        "title": "《繁花》到底好在哪里？",
        "docid": "7324507742672159251",
        "url": ""
    },
    {
        "title": "这个春节档“喜”气洋洋，能否成为又一个“史上最强”？",
        "docid": "7323829522682626560",
        "url": ""
    },
    {
        "title": "十部好看又冷门的谍战剧，第二十二弹来了。全看过的真的不多",
        "docid": "7293058388588642868",
        "url": ""
    },
    {
        "title": "2024.1.16 周二热播剧剧集更新日历/新剧定档日期一览表",
        "docid": "7324484215259644426",
        "url": ""
    },
    {
        "title": "被反复抽打嘲笑，豆瓣28也能上榜？网友：多亏年度“油王”杨洋",
        "docid": "7324634220364775973",
        "url": ""
    },
    {
        "title": "《无所畏惧》演技最好的是这两个女演员，热依扎排不进前三",
        "docid": "7304470199716201023",
        "url": ""
    },
    {
        "title": "他出生演艺世家，长得是真帅，戏也好，出道25年却不火，可惜了",
        "docid": "7311579896479089161",
        "url": ""
    },
    {
        "title": "8部王炸记录片，狠狠提升你的格局",
        "docid": "7297017555179340297",
        "url": ""
    },
    {
        "title": "中国经典十大农村剧，本山大叔霸榜",
        "docid": "7314942989586088511",
        "url": ""
    },
    {
        "title": "《黑土无言》最强女杀手上线，王山将死，揭开王萍最不齿的一面",
        "docid": "7324255502920303140",
        "url": ""
    },
    {
        "title": "央视开播！36集年代反特剧来袭！演员阵容深厚，有年度爆款潜质",
        "docid": "7324598439130776103",
        "url": ""
    },
    {
        "title": "《繁花》结局、短视频登上大银幕，小屏能否向大屏破壁传播？",
        "docid": "7324664937253929508",
        "url": ""
    },
    {
        "title": "《暗夜与黎明》：央视8套谍战剧的新篇章",
        "docid": "7321432708738073151",
        "url": ""
    },
    {
        "title": "电视剧《19号》值得一看！",
        "docid": "7324700813908361765",
        "url": ""
    },
    {
        "title": "在《大宅门》中演主仆，戏外却是真夫妻，恩爱22年后已阴阳相隔",
        "docid": "7298552143009792551",
        "url": ""
    },
    {
        "title": "近期最新排行榜揭晓！卫视收视率前十的电视剧，你看了几部？",
        "docid": "7324235923049857573",
        "url": ""
    },
    {
        "title": "《繁花》张建亚：73岁导演变演员，前妻张瑜称其为唯一爱过的男人",
        "docid": "7324239269026300454",
        "url": ""
    },
    {
        "title": "珠江人家∶看懂了廖四六共产党的身份，才明白陈家兄妹为何逃生！",
        "docid": "7293223446765519397",
        "url": ""
    },
    {
        "title": "无所畏惧：王建良甚至到死也不知，杨伟达送一包钱给他背后的算计",
        "docid": "7300947337399583284",
        "url": ""
    },
    {
        "title": "《外来媳妇本地郎》已去世的6位配角，以为是退休，其实是去世",
        "docid": "7299390284776079899",
        "url": ""
    },
    {
        "title": "《繁花》热播牵出浙江金华火腿“沪上礼事”",
        "docid": "7324673963668505124",
        "url": ""
    },
    {
        "title": "从曾被宋丹丹劝退到顶流！《家有儿女》电影版杨紫能否扛起大旗？",
        "docid": "7324692900750754367",
        "url": ""
    },
    {
        "title": "如何在困境中逆袭？这部剧给出了最实用的答案",
        "docid": "7324788383870435880",
        "url": ""
    },
    {
        "title": "从矿井到银幕，导演菅浩栋的10年追光之路",
        "docid": "7324618966768075314",
        "url": ""
    },
    {
        "title": "钢铁侠的九次挫败，漫威英雄的暗黑时刻，此时为你揭晓",
        "docid": "7324646613069513227",
        "url": ""
    },
    {
        "title": "《七十二家房客》八姑骗了我们15年，其实阿香就是她的亲生女儿",
        "docid": "7316849744192881193",
        "url": ""
    },
    {
        "title": "《宰相刘罗锅》27年回顾，6人去世1人嫁豪门，嫣然至今无儿女",
        "docid": "7307041091642147340",
        "url": ""
    },
    {
        "title": "从《风声》到《刀尖》，十年之痒的谍战片瓶颈",
        "docid": "7305729342288577059",
        "url": ""
    },
    {
        "title": "82版《少林寺》中的穿帮镜头，原来经典也会穿帮，让人简直笑哭了",
        "docid": "7309409981571629606",
        "url": ""
    },
    {
        "title": "《侦察英雄》：“秀才”的牺牲，改变了两个人的命运",
        "docid": "7324573445570724362",
        "url": ""
    },
    {
        "title": "《乌龙山剿匪记》36年：9大主演有人离世，有人离婚，命运各异",
        "docid": "7303903331070788135",
        "url": ""
    },
    {
        "title": "两部国产电影获奥斯卡奖入选资格",
        "docid": "7323773954936652307",
        "url": ""
    },
    {
        "title": "一分钟说剧《我们的翻译官》第八集：华声的坚守与温情",
        "docid": "7324251201028276747",
        "url": ""
    },
    {
        "title": "读《如果奔跑是我的人生》原著，带您了解爱恨纠缠的人物关系",
        "docid": "7322340971843387943",
        "url": ""
    },
    {
        "title": "《京都球侠》的演员们",
        "docid": "7322065939196052002",
        "url": ""
    },
    {
        "title": "谍战剧《孤战》第2集：谢易夫身份暴露离开上海，陈晓陷入困境",
        "docid": "7301475972204036659",
        "url": ""
    },
    {
        "title": "5部关于“重生”的电视剧，每一部都超带感！",
        "docid": "7291260581284201014",
        "url": ""
    },
    {
        "title": "《视与听》评日本电影的榜单，靠谱吗？",
        "docid": "7324664789446345268",
        "url": ""
    },
    {
        "title": "《画眉》特务身份呼之欲出，“雪狼”确定是白大夫，白卉结局悲惨",
        "docid": "7313927126448112180",
        "url": ""
    },
    {
        "title": "岁岁青莲：赫连信到死都不知，骆青莲和先王妃长相神似的真实原因",
        "docid": "7294969805579518503",
        "url": ""
    },
    {
        "title": "央视谍战大剧《边城》：谭凯蒋欣在云南腾冲与王劲松的殊死较量",
        "docid": "7324517778763956770",
        "url": ""
    },
    {
        "title": "演员徐箭：长得帅演技好，娶女强人为妻，如愿以偿生得个漂亮女儿",
        "docid": "7293346196155826738",
        "url": ""
    },
    {
        "title": "沈傲君将小三演成白月光，如今胖得不如喜来乐正房",
        "docid": "7324230427214922275",
        "url": ""
    },
    {
        "title": "谍战剧《绝杀》第4集：军统站长申剑被76号诱捕，中美联手营救",
        "docid": "7298364134599770678",
        "url": ""
    },
    {
        "title": "美国十大经典爱情电视剧，哪部动容?",
        "docid": "7323919144557249061",
        "url": ""
    },
    {
        "title": "1995年香港电影漫谈，王晶调侃成龙，谢苗退出影坛！",
        "docid": "7307930235252064795",
        "url": ""
    },
    {
        "title": "无所畏惧：比韩之通狂，比周夫人狠，这对夫妻的恶，普通人惹不起",
        "docid": "7299748443495596580",
        "url": ""
    },
    {
        "title": "为有暗香来：华浅大梦初醒，华戎舟随梦境消失，家主坦白重生真相",
        "docid": "7293476827069760037",
        "url": ""
    },
    {
        "title": "《侦察英雄》里的梁辰，到底是去执行什么样的任务？",
        "docid": "7322272068991500854",
        "url": ""
    },
    {
        "title": "刘欢《得民心者得天下》，完美诠释那段波澜壮阔的清朝辉煌历史！",
        "docid": "7323768567403528767",
        "url": ""
    },
    {
        "title": "大宅门：同样是苦出身，为什么翠姑能在白家站住脚，杨九红不能？",
        "docid": "7307427055527035428",
        "url": ""
    },
    {
        "title": "水浒传：豹子头林冲武艺有多高？从这二战来看，几乎难逢对手",
        "docid": "7324572572928983615",
        "url": ""
    },
    {
        "title": "港片中红极一时的10位武打女星现状：有人离世，有人63岁还没结婚",
        "docid": "7302215565291078184",
        "url": ""
    },
    {
        "title": "他从大海来",
        "docid": "7324655083113710120",
        "url": ""
    },
    {
        "title": "《繁花》原著成书店“顶流”",
        "docid": "7324513737779380773",
        "url": ""
    },
    {
        "title": "中国美术 海报 广告 黄海 将中国电影海报拉升至世界顶尖水平",
        "docid": "7323175100008759808",
        "url": ""
    },
    {
        "title": "《不要太期待世界末日》：比向糟糕世界的中指",
        "docid": "7324015084827591183",
        "url": ""
    },
    {
        "title": "老电影《打击侵略者》演员近况：女主角仍健在，一大半演员已去世",
        "docid": "7320019822065271305",
        "url": ""
    },
    {
        "title": "电影《打击侵略者》剧照",
        "docid": "7291624688923525643",
        "url": ""
    },
    {
        "title": "一交通员执行任务时失踪，一年后，警卫员给首长擦枪时才发现端倪",
        "docid": "7306520794543292991",
        "url": ""
    },
    {
        "title": "《繁花》里最美的竟然是她？没看剧也能从细节里发现王家卫的偏心",
        "docid": "7321522671085208073",
        "url": ""
    },
    {
        "title": "盘点86版《西游记》在四川都江堰（灌县）拍摄的精彩镜头",
        "docid": "7301649957357470234",
        "url": ""
    },
    {
        "title": "大小姐和她的贴身男保镖",
        "docid": "7296305223646069286",
        "url": ""
    },
    {
        "title": "《繁花》里的虹口弄堂，还真是范志毅老家~｜爱申活暖心春",
        "docid": "7321254485714665984",
        "url": ""
    },
    {
        "title": "网飞出品的十大限制级神剧！全程大尺度无尿点过瘾刺激",
        "docid": "7291716460089524773",
        "url": ""
    },
    {
        "title": "《欢乐颂》“一夜成亿万富婆”的曲筱绡不知，妈妈架空丈夫把80%的家产换成上海黄金地段房产送给她",
        "docid": "7319762957825884709",
        "url": ""
    },
    {
        "title": "我要笑死在《以爱为营》的评论区里了哈哈哈哈哈！",
        "docid": "7299751736577638966",
        "url": ""
    },
    {
        "title": "同一张脸，演完《琅琊榜》7年后演《一念关山》，她让人认不出",
        "docid": "7308917595091403302",
        "url": ""
    },
    {
        "title": "30万一晚，到底刺激了谁？",
        "docid": "7321280657090036261",
        "url": ""
    },
    {
        "title": "若她早点出现，果郡王断不会爱上甄嬛！她才是果郡王一眼就喜欢的",
        "docid": "7314232430200848934",
        "url": ""
    },
    {
        "title": "你没看过的《普罗米修斯》片段，始祖异形被抱脸虫寄生？",
        "docid": "7324131042624127503",
        "url": ""
    },
    {
        "title": "士兵突击：白铁军，七连老末，为什么高城能容忍他留在七连？",
        "docid": "7306792872945238528",
        "url": ""
    },
    {
        "title": "九部韩剧天花板，每一部都好看到爆，我不信你一部都没有看过",
        "docid": "7321660309612446262",
        "url": ""
    },
    {
        "title": "给中国“最好的历史剧”排个名，《雍正王朝》第5，第1名当之无愧",
        "docid": "7323579111262503435",
        "url": ""
    },
    {
        "title": "《繁花》里最上海的女人竟然是一个龙套！",
        "docid": "7323092120284594726",
        "url": ""
    },
    {
        "title": "“祁同伟”为家乡大名代言，网友：我太想进步了。评论区笑不活了",
        "docid": "7323534263130604068",
        "url": ""
    },
    {
        "title": "导演杨洁：我找遍了全国的美人演《西游记》，你们却只盯着猴子看",
        "docid": "7295676663009083904",
        "url": ""
    },
    {
        "title": "《繁花》卢美琳低声下气求助李李被拒，才懂她打宝总耳光有多严重",
        "docid": "7323496823195550244",
        "url": ""
    },
    {
        "title": "白鹿被所有女配艳压的一生…别再演大美女人设了！女配都要工伤了",
        "docid": "7298644851196527142",
        "url": ""
    },
    {
        "title": "30年后《新白娘》重聚，她没钱想上《浪姐》，她拍完戏怀龙凤胎",
        "docid": "7322655599026995763",
        "url": ""
    },
    {
        "title": "以前的古装造型好大胆，小时候光顾着看美人，竟没发现有哪不对劲",
        "docid": "7317098250513941033",
        "url": ""
    },
    {
        "title": "殷天正还是被低估了，整个倚天时代，他的实力完全能排在天下前十",
        "docid": "7317916577456915007",
        "url": ""
    },
    {
        "title": "8连扑？她是真不扛剧啊",
        "docid": "7323031498062463523",
        "url": ""
    },
    {
        "title": "《东北一家人》中七大美女：吊带战神排只排第三，毕竟还有何晴",
        "docid": "7313446507905450536",
        "url": ""
    },
    {
        "title": "《侦察英雄》：膀大腰圆却要演文工团女战士，是谁的审美出了问题",
        "docid": "7323872574227005989",
        "url": ""
    },
    {
        "title": "小时候觉得讨厌长大后理解的角色？“沉香，你现在理解舅舅了吗”",
        "docid": "7307421149175562788",
        "url": ""
    },
    {
        "title": "皇上只是捏了一下端妃的肩膀，端妃为什么愣在原地，泪眼朦胧？",
        "docid": "7321718603177280050",
        "url": ""
    },
    {
        "title": "刘德华自曝：很担心女儿……",
        "docid": "7324137223535297076",
        "url": ""
    },
    {
        "title": "“贾玲”刚刚官宣!热搜爆了!",
        "docid": "7323532255492850187",
        "url": ""
    },
    {
        "title": "女孩被推进大烤炉，烤制金黄酥脆，男人吃的滋滋冒油，影视",
        "docid": "7314106787836428851",
        "url": ""
    },
    {
        "title": "三十而已：林有有挺孕肚探监，许幻山痛哭爆出连顾佳都不知的秘密",
        "docid": "7323511091437519412",
        "url": ""
    },
    {
        "title": "繁花结局了，戏中的三位“关系户”议论纷纷，孙俪儿子最意想不到",
        "docid": "7321974350880735785",
        "url": ""
    },
    {
        "title": "《唐朝诡事录之西行》：杨旭文、杨志刚领衔主演探索唐朝诡异之谜",
        "docid": "7322671667187270195",
        "url": ""
    },
    {
        "title": "《肖申克的救赎》的穿帮镜头，让人属实没料到，原来神作也会穿帮",
        "docid": "7322780717296271906",
        "url": ""
    },
    {
        "title": "广西“蛇毒王后”掌握47亿蛇毒，美国人纷纷讨好，最终沦为阶下囚",
        "docid": "7319410382118879778",
        "url": ""
    },
    {
        "title": "仅播3集口碑大爆，拿下榜单冠军，这才是实力派戏骨该有的实力",
        "docid": "7322709584501080615",
        "url": ""
    },
    {
        "title": "“侮辱”智商的台词，简直离谱到家了，导演我求求你多读点书吧",
        "docid": "7320538337847132710",
        "url": ""
    },
    {
        "title": "盘点《权力的游戏》十大经典名场面，谁才是你心中的第一？",
        "docid": "7307558453974237708",
        "url": ""
    },
    {
        "title": "皇上有多厌恶沈眉庄？她去世时牌位上的字说明一切，太讽刺了",
        "docid": "7312290775318987299",
        "url": ""
    },
    {
        "title": "还珠格格：小时候以为含香深爱蒙丹才会私奔，长大后发现不是这样",
        "docid": "7314589182972805647",
        "url": ""
    },
    {
        "title": "《繁花》：看懂芳妹的4次出场，才知陶陶为何飞不起来！",
        "docid": "7322828281978569255",
        "url": ""
    },
    {
        "title": "《鸡毛飞上天》原型：身价300亿成浙江女首富，却沦落到破产地步",
        "docid": "7295699488692322857",
        "url": ""
    },
    {
        "title": "张无忌一身神功，为何敌不过波斯三使？你看波斯三使的师父是谁",
        "docid": "7311000527859663387",
        "url": ""
    },
    {
        "title": "8年后10刷琅琊榜才明白，为何梅长苏身边无一人上得了琅琊高手榜",
        "docid": "7306044833691943459",
        "url": ""
    },
    {
        "title": "《流星花园》演员现状，有人入狱有人离世，令人唏嘘",
        "docid": "7300004953081266723",
        "url": ""
    },
    {
        "title": "《天道》：把“鸿门宴”看了100遍，才明白欧阳雪为什么突然翻脸",
        "docid": "7308363022203208207",
        "url": ""
    },
    {
        "title": "他是现实版古惑仔，60岁浪子回头，蜗居10㎡劏房却比从前更快乐",
        "docid": "7321909446043812406",
        "url": ""
    },
    {
        "title": "《繁花》谁懂啊，金花和爷叔不只是姑侄的关系，汪小姐早有暗示",
        "docid": "7323541822457135643",
        "url": ""
    },
    {
        "title": "天哪，《红苹果乐园》20年了，男演员集体发福，女主年近40似少女",
        "docid": "7318700515054010918",
        "url": ""
    },
    {
        "title": "《人民的名义》“怂包”祁同伟死都不知，“风情万种”的高小琴让赵瑞龙玷污4年，爱的其实是赵瑞龙",
        "docid": "7312348539697562147",
        "url": ""
    },
    {
        "title": "为什么观众可以重刷无数遍《甄嬛传》却不想再看《如懿传》一眼？",
        "docid": "7315621916659024395",
        "url": ""
    },
    {
        "title": "繁花：葛老师到底多有钱？独栋别墅加上门面价值过亿",
        "docid": "7323786320110273033",
        "url": ""
    },
    {
        "title": "抄了这片20年，王家卫这回终于承认了",
        "docid": "7324143019895046693",
        "url": ""
    },
    {
        "title": "《繁花》2分钟续集全员到场，GQ太会拍了，第一次见这样拍杂志的",
        "docid": "7323432919304110619",
        "url": ""
    },
    {
        "title": "7位女星一人分饰母女，明明顶着同一张脸，妈妈为何总比女儿要美",
        "docid": "7291575451225440779",
        "url": ""
    },
    {
        "title": "晴儿嫁给萧剑后：生下4个儿女：她们名字连读看出晴儿有多惨",
        "docid": "7293752145202201128",
        "url": ""
    },
    {
        "title": "《繁花》：景秀永远不知，汪小姐并非真心还车，一句话透露其目的",
        "docid": "7323092820007748123",
        "url": ""
    },
    {
        "title": "当年沈傲君和孙红雷刚拍完吻戏后，她悄悄对导演说：再拍一遍吻戏",
        "docid": "7301984957688283711",
        "url": ""
    },
    {
        "title": "《狂飙》：身材火辣的小五永远不知，她给安欣表白的那晚，安欣心里想的竟是她？",
        "docid": "7311886178251178531",
        "url": ""
    },
    {
        "title": "甄嬛传：大结局时，谁注意甄嬛回忆的第一个人？爱到极致便是恨",
        "docid": "7314550873433358898",
        "url": ""
    },
    {
        "title": "剑九黄不去武帝城，帮徐凤年截杀韩貂寺，对上他会有几成胜算？",
        "docid": "7323487844994875955",
        "url": ""
    },
    {
        "title": "同是蒙面，为何中国喜欢蒙下半张脸，而西方喜欢蒙上半张脸，看完涨见识了！",
        "docid": "7312276277032124928",
        "url": ""
    },
    {
        "title": "十年戏骨无人知，一声安妮天下知",
        "docid": "7320896010619224576",
        "url": ""
    },
    {
        "title": "明明是演同一个角色，经典版VS新拍版，才知道审美降级有多严重",
        "docid": "7294538353918394921",
        "url": ""
    },
    {
        "title": "《见龙卸甲》，如何用一部电影，黑尽蜀国上下？",
        "docid": "7311980266606854719",
        "url": ""
    },
    {
        "title": "杨过一身神功，为何会在六十岁死去？你看他被谁偷袭，神仙也难救",
        "docid": "7305054910188405288",
        "url": ""
    },
    {
        "title": "鸠摩智身兼多门绝学，为何打不赢虚竹？你看小无相功第一页写了啥",
        "docid": "7291691439468560936",
        "url": ""
    },
    {
        "title": "是“13”还是“B”，这个片名本身就大有深意",
        "docid": "7304603305953641023",
        "url": ""
    },
    {
        "title": "孟静娴喂弘曕粥，为何要尝一口？若不是存有这个心思，也不会死",
        "docid": "7314552058068501019",
        "url": ""
    },
    {
        "title": "林平之为什么最恨令狐冲？你看林平之杀岳灵珊前，对她说了什么话",
        "docid": "7301589191081656883",
        "url": ""
    },
    {
        "title": "满屏羞耻，却被CCTV6反复播出",
        "docid": "7324244784938844724",
        "url": ""
    },
    {
        "title": "九品芝麻官：为何常威要杀人全家？原来周星驰的爹才是最坏的人！",
        "docid": "7304586479068873279",
        "url": ""
    },
    {
        "title": "延禧：娴妃人到中年，为何浑身散发一股腥味？难怪皇帝十分嫌弃",
        "docid": "7309381980427600422",
        "url": ""
    },
    {
        "title": "5部主角突然“领盒饭”的电视剧，观众一脸问号，第一个原因搞笑",
        "docid": "7304182788679565878",
        "url": ""
    },
    {
        "title": "陈小春版《鹿鼎记》演员今昔，双儿二婚嫁入豪门，沐剑屏貌美如初",
        "docid": "7295195235595207178",
        "url": ""
    },
    {
        "title": "不会演农民就别演了！刘德华、梁家辉“土得掉渣”却堪称一绝",
        "docid": "7296753738935894566",
        "url": ""
    },
    {
        "title": "那些“荷尔蒙”爆棚的香港男神，明明长得不帅，却一个比一个有型",
        "docid": "7299297653547188748",
        "url": ""
    },
    {
        "title": "关羽、张飞和刘备未学过武功，为何能成一代名将？别被电视剧骗了",
        "docid": "7304951030801351202",
        "url": ""
    },
    {
        "title": "甄嬛的母亲倾国倾城，为何甄父偏偏深爱罪臣之女？你看她名字是啥",
        "docid": "7314948032540754467",
        "url": ""
    },
    {
        "title": "甄嬛传：余莺儿至死不知，她爬上龙床那晚，皇上就知道她是冒牌货",
        "docid": "7309022089477112320",
        "url": ""
    },
    {
        "title": "目前难以超越的七部仙侠剧，《花千骨》第二，第一是国产剧天花板",
        "docid": "7296113365246837299",
        "url": ""
    },
    {
        "title": "浣碧至死不知，孟静娴怀孕其实是果郡王主动的，背后的算计真狠！",
        "docid": "7323463110160204327",
        "url": ""
    },
    {
        "title": "第九集，安心得知装假肢大约五万元，她犹豫了一下，这说明了什么",
        "docid": "7323963752511570458",
        "url": ""
    },
    {
        "title": "四大爷为何似笑非笑地对甄嬛说，朕第一次来看你，你就有了孩子？",
        "docid": "7300465162040017417",
        "url": ""
    },
    {
        "title": "《甄嬛传》：华妃听到欢宜香的秘密就撞了柱子，为啥那么信甄嬛？",
        "docid": "7298286520354538011",
        "url": ""
    },
    {
        "title": "欢乐颂：曲筱绡一盒巧克力，揭露关雎尔和邱莹莹段位，高下立见",
        "docid": "7307111412143342080",
        "url": ""
    },
    {
        "title": "《红楼梦》女演员对比，迎春经商生活富足，东方闻樱专为探春而生",
        "docid": "7314470085270290981",
        "url": ""
    },
    {
        "title": "抗日神剧中雷人的离谱造型，八路军抹发胶戴墨镜，战场秒变走秀台",
        "docid": "7322722825230615075",
        "url": ""
    },
    {
        "title": "滑稽演员吴爱艺不计形象，在《繁花》当陪衬",
        "docid": "7323817371821556235",
        "url": ""
    },
    {
        "title": "开映半小时可退电影票，值得“全国推广”吗？",
        "docid": "7323962438523601434",
        "url": ""
    },
    {
        "title": "《战狼2》中的穿帮镜头，一个比一个细节，吴京“藏”的也太深了",
        "docid": "7313815245464699402",
        "url": ""
    },
    {
        "title": "《雷霆战将》中的雷人镜头，简直是天雷滚滚，看完真想给导演一拳",
        "docid": "7320558832835822115",
        "url": ""
    },
    {
        "title": "转型失败，她这是准备再回古偶了?",
        "docid": "7324153601742340619",
        "url": ""
    },
    {
        "title": "《新白娘子传奇》中的穿帮镜头，简直太搞笑，看这么多年都没发现",
        "docid": "7297492705784070710",
        "url": ""
    },
    {
        "title": "盘点《权力的游戏》演员最不想拍摄的八个场景，龙妈差点被逼疯！",
        "docid": "7304577213884744204",
        "url": ""
    },
    {
        "title": "曾是成龙力捧的“御用女配”，如今转战网大，只能靠擦边混票房",
        "docid": "7315022644024476175",
        "url": ""
    },
    {
        "title": "天山童姥的武功到底是什么水平，满状态下的她能否打得过乔峰？",
        "docid": "7295777247741657654",
        "url": ""
    },
    {
        "title": "繁花：最没诚信的人出现，当面一套背后一套，最终的下场不会好",
        "docid": "7319862145578779151",
        "url": ""
    },
    {
        "title": "感谢不演之恩！原定主角拒演，换角后意外成为经典的5部剧",
        "docid": "7306349374928519721",
        "url": ""
    },
    {
        "title": "“明明很好看，但就是不火”的五部剧，你觉得哪一部比较可惜！",
        "docid": "7320528965083611711",
        "url": ""
    },
    {
        "title": "论植入，谁有《繁花》这么肆无忌惮？遍地广告却没人反感",
        "docid": "7321556711838548480",
        "url": ""
    },
    {
        "title": "“华筝公主”黄造时昙花一现，是童安格的表妹，刘嘉玲演她的丫环",
        "docid": "7307513173249278500",
        "url": ""
    },
    {
        "title": "楚云飞送出一把勃朗宁，李云龙回敬一把佐官刀，他们究竟谁赚了？",
        "docid": "7300550895035777574",
        "url": ""
    },
    {
        "title": "10年后，Starz准备复活历史第一“黄暴”美剧，你准备好了吗？",
        "docid": "7308233632605389349",
        "url": ""
    },
    {
        "title": "甄母三次进宫天差地别，难怪甄嬛恨透了皇上，你看果郡王做了啥？",
        "docid": "7314135397368922658",
        "url": ""
    },
    {
        "title": "甄子丹的格局真的大，大家天天拿他的表情包恶搞，人家拿出高清图",
        "docid": "7312116581956370963",
        "url": ""
    },
    {
        "title": "看到祺嫔死时的双脚才明白为何甄嬛一句“我鞋湿了”皇上就此止步",
        "docid": "7322746954960749083",
        "url": ""
    },
    {
        "title": "佛祖扮演者收到一封尼泊尔信件，信封写着：释加牟尼·朱龙广收，内容：佛祖是尼泊尔人，你该回来了",
        "docid": "7307489156563943988",
        "url": ""
    },
    {
        "title": "欢乐颂：当樊妈给曲筱绡下跪借10万，曲筱绡的举动堪称教科书教学",
        "docid": "7318620826826441268",
        "url": ""
    },
    {
        "title": "郭靖一生收了4个徒弟：2个废材，1个万人嫌，一个武功冠绝天下",
        "docid": "7294799297093583397",
        "url": ""
    },
    {
        "title": "电影中的最底层——Z级片",
        "docid": "7319331920452928036",
        "url": ""
    },
    {
        "title": "长大后才懂，小龙女为何不杀尹志平，只有一灯和黄蓉看透她的本性",
        "docid": "7306754979376103963",
        "url": ""
    },
    {
        "title": "小燕子根本不知，她将爹还给了紫薇为何还能当格格？但是紫薇知道",
        "docid": "7301717001033384499",
        "url": ""
    },
    {
        "title": "《权力的游戏》六个“变态”的细节，这就是为什么能被称为神剧！",
        "docid": "7306820994776416787",
        "url": ""
    },
    {
        "title": "巩俐大胆之作，上映前被删了整整40分钟，很多人都没看过",
        "docid": "7294455355202585123",
        "url": ""
    },
    {
        "title": "甄嬛传：太医卫临的狠，藏在沈眉庄和温实初幽会当晚的记档簿里",
        "docid": "7293143027722486313",
        "url": ""
    },
    {
        "title": "《甄嬛传》最全穿帮镜头，一个比一个搞笑，导演：拿显微镜看的吧",
        "docid": "7324244429823459892",
        "url": ""
    },
    {
        "title": "看懂嫔妃们娘家的官职换算到现在，你就知道安陵容自卑的原因了!",
        "docid": "7312659919306523148",
        "url": ""
    },
    {
        "title": "难怪黄蓉一直想杀杨过，你看她的二胎是为谁而怀，瞬间就明白了",
        "docid": "7308183121407590953",
        "url": ""
    },
    {
        "title": "《繁花》为何都在晚上拍？皮肤科医生这样说……",
        "docid": "7323504116330775094",
        "url": ""
    },
    {
        "title": "看过辛芷蕾的李李，才明白：赵丽颖和杨幂，为何拼命挤进酱园弄！",
        "docid": "7324613872714023476",
        "url": ""
    },
    {
        "title": "《还珠格格》20年后才看懂，小燕子被误认成格格，全是令妃的阴谋",
        "docid": "7306819864302305826",
        "url": ""
    },
    {
        "title": "《征服》20年后4位“大哥”现状：宋老虎健康堪忧，国权变化太大",
        "docid": "7320560611761504831",
        "url": ""
    },
    {
        "title": "甄嬛传：华妃不孕只因欢宜香？错！太后给她肚子上了3重“保险”",
        "docid": "7307582580223148581",
        "url": ""
    },
    {
        "title": "陈娜：《快乐星球》中的乐乐妈，虽然不美，但也成为了梦中情人",
        "docid": "7291863782958334473",
        "url": ""
    },
    {
        "title": "钟楚曦新剧截肢怎么演的，逼真到不忍心看，剧组公开拍摄过程",
        "docid": "7324683031334158902",
        "url": ""
    },
    {
        "title": "网飞开年第一部限制级，爽翻了",
        "docid": "7324850667099570725",
        "url": ""
    },
    {
        "title": "蜗居：宋思明至死不知，海藻早在上海筒子楼的时候，就被下了诅咒",
        "docid": "7324489846225895974",
        "url": ""
    },
    {
        "title": "91版《雪山飞狐》6大美人现状：程灵素仍貌美，苗若兰发福认不出",
        "docid": "7292382962639766067",
        "url": ""
    },
    {
        "title": "裤衩套头，花洒软管做头饰，小时候爱看的古装剧，妆造真的很离谱",
        "docid": "7315003285697020426",
        "url": ""
    },
    {
        "title": "北京这一天，肖战服装拉垮，唐嫣辛芷蕾好漂亮，蒋欣美到认不出",
        "docid": "7324158598349799977",
        "url": ""
    },
    {
        "title": "三观超正，满屏肉欲，这才是真正的好电影！",
        "docid": "7324519887085601331",
        "url": ""
    },
    {
        "title": "甄嬛传：婚后，玉娆和玉隐对丈夫的称呼看出差距，正妻就是正妻",
        "docid": "7307559497022013961",
        "url": ""
    },
    {
        "title": "85花的中年尴尬期：搭年下生显老显油？不强凹少女感才是出路",
        "docid": "7308357476997562921",
        "url": ""
    },
    {
        "title": "当年《渴望》拍到一半时，张凯丽哀求道：导演，赶紧写死我吧！",
        "docid": "7309665661071229503",
        "url": ""
    },
    {
        "title": "难怪郭靖战死时，张三丰没去救他，你看出卖郭靖的人是谁就懂了",
        "docid": "7307194030981661203",
        "url": ""
    },
    {
        "title": "所有人都知道锦觅是润玉的未婚妻，为什么旭凤却可以视若无睹？",
        "docid": "7296904206882079271",
        "url": ""
    },
    {
        "title": "演活一个“江德华”就够了，刘琳却演活5个角色，每个都惊艳众人",
        "docid": "7293350425514738213",
        "url": ""
    },
    {
        "title": "紫薇至死不知，夏雨荷不去找皇上却让自己去，是因为什么！",
        "docid": "7294426764959334947",
        "url": ""
    },
    {
        "title": "《知否》原著，华兰脖子上消失的金项圈，是她对袁夫人最狠的算计",
        "docid": "7320081072736584204",
        "url": ""
    },
    {
        "title": "“沙和尚”闫怀礼：临终前想见师傅师兄，“猪八戒”迟来了5分钟",
        "docid": "7313801374574264841",
        "url": ""
    },
    {
        "title": "步步惊心：十三爷的福晋容不下绿芜的原因，不是因为她身份卑微",
        "docid": "7317171000364319272",
        "url": ""
    },
    {
        "title": "《繁花》邵峰：为娶影后退圈三年，成了宠妻狂魔，他53岁颜值大跌",
        "docid": "7323519767434953266",
        "url": ""
    },
    {
        "title": "《仙剑四》被曝今天官宣定档：鞠婧祎、陈哲远主演",
        "docid": "7324889560306237991",
        "url": ""
    },
    {
        "title": "一口气看完，剧版《鬼吹灯》观看顺序，拯救剧荒！",
        "docid": "7308715875489088052",
        "url": ""
    },
    {
        "title": "2023TVB颁奖礼落幕！佘诗曼喜提三料视后！众星拿奖痛哭太感人！",
        "docid": "7324259155173638707",
        "url": ""
    },
    {
        "title": "黑土无言：看懂这张图，案情就真相大白！严家人是一切罪恶的源头",
        "docid": "7324260011268407858",
        "url": ""
    },
    {
        "title": "《黑土无言》∶看懂了杨雪松已死，才明白杨四，被王萍利用了",
        "docid": "7324927701088092682",
        "url": ""
    },
    {
        "title": "谁才是87版红楼梦第一美男？侯长荣和高宏亮实在是难分伯仲",
        "docid": "7318070223943467561",
        "url": ""
    },
    {
        "title": "迷雾剧场七部悬疑犯罪新剧，张颂文欧豪孙俪潘粤明最想看谁？",
        "docid": "7323418746276577818",
        "url": ""
    },
    {
        "title": "《大江大河》告诉我们，男配太惊艳时，男主就可以去打酱油了",
        "docid": "7324148898803712562",
        "url": ""
    },
    {
        "title": "重看《上海滩》大结局，才发现许文强根本不爱冯程程",
        "docid": "7300088108455608884",
        "url": ""
    },
    {
        "title": "《侦察英雄》六大高赞细节，消失的绑腿，乱七八糟的装备",
        "docid": "7324689265001611816",
        "url": ""
    },
    {
        "title": "还没上映，《第二十条》就等来央媒认可，但央视只夸了女二号一人",
        "docid": "7324351081717416448",
        "url": ""
    },
    {
        "title": "《新闻女王》中的张家妍：一个关于追求成功和黑化的心理剖析",
        "docid": "7324894800602481186",
        "url": ""
    },
    {
        "title": "《外来媳妇本地郎》康家二代集体变老，苏妙婵香兰满头白发好真实",
        "docid": "7296861308903850536",
        "url": ""
    },
    {
        "title": "《大红灯笼》“又老又丑”的太太，曾给过颂莲三次改变命运的机会",
        "docid": "7308751242098950706",
        "url": ""
    },
    {
        "title": "武林外传里的燕小六有多讨厌？",
        "docid": "7324186888917778984",
        "url": ""
    },
    {
        "title": "甄嬛传拍摄时，陈建斌突然拍了一下蒋欣屁股，蒋欣的反应绝了",
        "docid": "7315738234192167478",
        "url": ""
    },
    {
        "title": "仅仅播3集，评分高达8.4，观众：终于有一部值得熬夜狂追的公安剧",
        "docid": "7322429970004132386",
        "url": ""
    },
    {
        "title": "女演员的演技有多重要，看完《黑土无言》中邓家佳终于知道了",
        "docid": "7324703165868802575",
        "url": ""
    },
    {
        "title": "《繁花》胡歌成工具人坐第二排没有奖，影帝飞升还是牌面不够？",
        "docid": "7324259542236185126",
        "url": ""
    },
    {
        "title": "许凯、虞书欣主演电视剧《祈今朝》首发预告",
        "docid": "7324911448680219170",
        "url": ""
    },
    {
        "title": "《侦察英雄》动了谁的奶酪？遭遇全网尬黑，央视都看不下去了？",
        "docid": "7324911724388483624",
        "url": ""
    },
    {
        "title": "《大宅门》：白景琦和这四个女人的故事，每个都挺有看头的",
        "docid": "7324891109145182759",
        "url": ""
    },
    {
        "title": "其实第一次跟明兰交锋，平宁郡主就后悔了",
        "docid": "7295919959233036834",
        "url": ""
    },
    {
        "title": "央视反腐剧：顶着公鸡头却要演“省委副书记”，谁的审美出了问题",
        "docid": "7305266324740293170",
        "url": ""
    },
    {
        "title": "目前热播的5部剧，《黑土无言》排在第4，你在追哪一部？",
        "docid": "7323404661640348214",
        "url": ""
    },
    {
        "title": "《大江大河3》：宋运辉不会想到，自己被下放是路小第的算计",
        "docid": "7322494009975767592",
        "url": ""
    },
    {
        "title": "胡歌：我这辈子最正确的决定，就是闪婚娶了福建姑娘",
        "docid": "7324957335959749155",
        "url": ""
    },
    {
        "title": "好快，《星梦缘》20年了，最帅的已发福，被忽略的男二成了最帅的",
        "docid": "7321208370730631731",
        "url": ""
    },
    {
        "title": "烂，吴卓羲翻拍《反贪风暴》擦边卖肉差评满屏飘，首日票房仅94万",
        "docid": "7324963205800231487",
        "url": ""
    },
    {
        "title": "《闯关东》女配角貌美不输女主，15年后改名字、退圈，悉数不红",
        "docid": "7298734176960872994",
        "url": ""
    },
    {
        "title": "人民热评：“开场能退票”虽好，将“烂片”拒之门外更重要",
        "docid": "7324621816809554447",
        "url": ""
    },
    {
        "title": "\"郑晓龙揭秘：《甄嬛传》未删减版背后的纯元梦想\"",
        "docid": "7324854895281095178",
        "url": ""
    },
    {
        "title": "国民IP《家有儿女之神犬当家》首映 国际化班底讲述全球“家文化”",
        "docid": "7324583631564325391",
        "url": ""
    },
    {
        "title": "陈哲远经纪公司回应《仙剑四》番位模糊：始终遵守合同规定",
        "docid": "7324946165823324712",
        "url": ""
    },
    {
        "title": "肖战与任嘉伦：师徒恋情的两种演绎风格",
        "docid": "7324916038985073193",
        "url": ""
    },
    {
        "title": "站长：我就是峨眉峰！",
        "docid": "7323862539861967396",
        "url": ""
    },
    {
        "title": "专访｜导演陈铭章：不是“撒撒糖”就叫偶像剧了",
        "docid": "7324214924878725642",
        "url": ""
    },
    {
        "title": "不惧为艺术献身，法国女神伊娃·格林5部影视作品推荐",
        "docid": "7324336283445117449",
        "url": ""
    },
    {
        "title": "《三十而已》人到中年才懂，手持1000万信用卡的赵静语，才最悲哀",
        "docid": "7305961010278662708",
        "url": ""
    },
    {
        "title": "26年后，再看《天龙八部》，才发现剧中的12位女星，个个无儿无女",
        "docid": "7319678461621174803",
        "url": ""
    },
    {
        "title": "甄嬛传：淳儿第一次侍寝，为何皇上刻意换了睡衣？都是千年的狐狸",
        "docid": "7304109417958523426",
        "url": ""
    },
    {
        "title": "哭不出来别硬演！陈小艺告诉你，什么是真正的“教科书”式演技",
        "docid": "7323182475291116072",
        "url": ""
    },
    {
        "title": "18年后重读《血色浪漫》才懂：一枪毙命的宁伟，根本不是死有余辜",
        "docid": "7293042359779049999",
        "url": ""
    },
    {
        "title": "接档繁花！60集射雕英雄传来了，今年第一部让我想熬夜狂追的剧",
        "docid": "7323104478771937830",
        "url": ""
    },
    {
        "title": "同样是乾隆御封的格格，小燕子紫薇谁地位更高？注意纪晓岚这句话",
        "docid": "7297151984514417161",
        "url": ""
    },
    {
        "title": "很久没在电影院笑全场了",
        "docid": "7324509942482862642",
        "url": ""
    },
    {
        "title": "仙侠剧四大“老顶流”，年轻时玉树临风，老了到处赶场子演帅爹",
        "docid": "7295641294758527488",
        "url": ""
    },
    {
        "title": "不会演农民就别演了！这6位演员告诉你，演“农村人”是个技术活",
        "docid": "7296796343857644069",
        "url": ""
    },
    {
        "title": "钢琴卖不动了，可能还有一个原因！",
        "docid": "7324545977153536547",
        "url": ""
    },
    {
        "title": "北京这一夜，被张艺谋颁奖的肖战，让人们真正见识了他的江湖地位",
        "docid": "7323628163215491595",
        "url": ""
    },
    {
        "title": "《陈情令》中爆笑的穿帮镜头，个个都让人忍俊不禁，笑到肚子疼",
        "docid": "7296044729995870758",
        "url": ""
    },
    {
        "title": "《侦察英雄》科长在师长面前打哈欠，才知不打电话报军情有多正确",
        "docid": "7324229064276017703",
        "url": ""
    },
    {
        "title": "一连3天收视第一，我断言：战争剧拍成这样，观众看完会起立鼓掌",
        "docid": "7324253188016931337",
        "url": ""
    },
    {
        "title": "汤沐雨的原型是谁呢",
        "docid": "7324333088157319734",
        "url": ""
    },
    {
        "title": "《侦察英雄》秀才牺牲李万福下线 悲剧再次重演 只为成全梁辰一个人",
        "docid": "7324952942212596276",
        "url": ""
    },
    {
        "title": "圆明园“马首”被赌王捐给祖国后，拍了X光后，专家有了意外发现",
        "docid": "7324237337831064116",
        "url": ""
    },
    {
        "title": "跟着《繁花》腔调迷上周庄：一招一式让人着迷",
        "docid": "7324614272070238735",
        "url": ""
    },
    {
        "title": "给国内最好看的医疗剧排名，《谢谢你医生》第九，《问心》第五",
        "docid": "7296413636405445130",
        "url": ""
    },
    {
        "title": "《新闻女王》赢麻了！佘诗曼“三封”TVB视后",
        "docid": "7324547861290172968",
        "url": ""
    },
    {
        "title": "误以为是特效的实拍镜头：烧焦的人是卫生纸糊的，百万豪车随便砸",
        "docid": "7297163624228340262",
        "url": ""
    },
    {
        "title": "今晚开播！30集悬疑大剧空降来袭，实力派演员坐镇，王炸终于来了",
        "docid": "7324945547347984911",
        "url": ""
    },
    {
        "title": "《鬼吹灯》完整故事脉络梳理：从胡八一爷爷的师公说起！",
        "docid": "7309038471107297818",
        "url": ""
    },
    {
        "title": "“孔雀公主”金巧巧：我长得太洋气了，可演不了农村人",
        "docid": "7324885125970477587",
        "url": ""
    },
    {
        "title": "日版《不能说的秘密》首曝预告 6月日本上映",
        "docid": "7324976707004334592",
        "url": ""
    },
    {
        "title": "2024待播“大男主”剧，成毅、肖战、张若昀你最想看谁？",
        "docid": "7324225020018868748",
        "url": ""
    },
    {
        "title": "十部经典婚外情电影，在爱而不得中唏嘘不已",
        "docid": "7324957760721207860",
        "url": ""
    },
    {
        "title": "七版黄蓉惊艳登场对比，谁是独一无二的“俏黄蓉”",
        "docid": "7323875647393251903",
        "url": ""
    },
    {
        "title": "女儿杜金京怀孕6个多月离婚，杜旭东暗自抹泪，只给出一个字：离",
        "docid": "7297495162400719398",
        "url": ""
    },
    {
        "title": "《与恶魔有约》创高人气10部「霸总甜宠」韩剧必追",
        "docid": "7324935449749766682",
        "url": ""
    },
    {
        "title": "《黑莲花上位手册》剧本特色分析（第一集）",
        "docid": "7308230582297854504",
        "url": ""
    },
    {
        "title": "白鹿3年上了6部剧，火了3部，扑了3部，男主是谁才关键！",
        "docid": "7304936839344030247",
        "url": ""
    },
    {
        "title": "戴军：演金老板，真是一跤跌进青云里！",
        "docid": "7324196835231662627",
        "url": ""
    },
    {
        "title": "士兵突击：老A选拔淘汰后，为什么甘小宁成为了高城的爱将？",
        "docid": "7298223870283104820",
        "url": ""
    },
    {
        "title": "看完后，真的彻底没了物欲！",
        "docid": "7324912433683333642",
        "url": ""
    },
    {
        "title": "91年的香港怎么了？成龙出演最憋屈电影，演员都是现抓来的",
        "docid": "7324195615271879209",
        "url": ""
    },
    {
        "title": "《繁花》阿宝至死不知，蓓蒂为什么对阿宝说谎有人了？真相很残忍",
        "docid": "7319857091923984911",
        "url": ""
    },
    {
        "title": "好惨！TVB知名女星颁奖典礼大热倒灶食白果，发文表示不开心",
        "docid": "7324958806449160704",
        "url": ""
    },
    {
        "title": "沈腾《飞驰人生2》定档，我想说：这大片拿下50亿票房不是没可能",
        "docid": "7324902647101243955",
        "url": ""
    },
    {
        "title": "甄嬛传：14岁入宫的淳贵人至死都不知，她亲姐姐是如何坑死她的？",
        "docid": "7320493539828728360",
        "url": ""
    },
    {
        "title": "南海归墟：阮黑到死都没说出的秘密，三叉戟号底舱到底有什么？",
        "docid": "7307904049020650011",
        "url": ""
    },
    {
        "title": "《战狼》中的细节穿帮镜头，根本意想不到，个个都戳中你的笑点，",
        "docid": "7310514292636320308",
        "url": ""
    },
    {
        "title": "苏有朋版的《倚天屠龙记》，居然也有穿帮镜头，个个让人啼笑不止",
        "docid": "7314196887580852745",
        "url": ""
    },
    {
        "title": "《夏洛特烦恼》中细思极恐的细节，看懂之后，喜剧就变成了悲剧",
        "docid": "7302627708687991311",
        "url": ""
    },
    {
        "title": "她演“坏女人”出名，撞脸刘亦菲、抢热巴风头，却始终不温不火",
        "docid": "7324193727818318390",
        "url": ""
    },
    {
        "title": "琼瑶剧中的雷人台词，简直搞笑离大谱，看这么多年都没发现不对劲",
        "docid": "7299007704012702262",
        "url": ""
    },
    {
        "title": "一个漂亮女人，满足了所有男人的幻想，却遭到了全镇女人的折磨！",
        "docid": "7293407306203955746",
        "url": ""
    },
    {
        "title": "为什么宝总能原谅阿四和蔡司令，却自始至终不接受梅萍的示好？",
        "docid": "7324254108309815808",
        "url": ""
    },
    {
        "title": "《侦察英雄》口碑大爆，躲过了男主罗晋，却被38岁男二号给惊艳了",
        "docid": "7324963052007195162",
        "url": ""
    },
    {
        "title": "年代剧惊艳六集首播，飙升榜第一，观众：睡眠不重要，追剧先行！",
        "docid": "7324942658223391284",
        "url": ""
    },
    {
        "title": "以为是退圈，其实已离世，外来媳妇本地郎这8个演员再也见不到了",
        "docid": "7290882355567493667",
        "url": ""
    },
    {
        "title": "8年了《情满四合院》演员境况差距大，有人离去，有人77岁仍演戏",
        "docid": "7293778223442412086",
        "url": ""
    },
    {
        "title": "女顶流凭一部正剧受主流认可，抠脚8个月也无所畏惧",
        "docid": "7324293293935018537",
        "url": ""
    },
    {
        "title": "明明拿着配角的片酬，演技却比主角出彩，这10个演员了不起",
        "docid": "7318001736537506304",
        "url": ""
    },
    {
        "title": "扎心了！直到看见肖战特意回头跟赵露思聊天，我才知道他们的故事",
        "docid": "7324903016535065126",
        "url": ""
    },
    {
        "title": "难怪王扶林非把袁玫化丑，看她的“贵妃”造型，多明艳动人",
        "docid": "7313836128786760231",
        "url": ""
    },
    {
        "title": "她被誉为“铁娘子”长得美演技好，低调嫁同行为妻，生活简单幸福",
        "docid": "7293451810231190055",
        "url": ""
    },
    {
        "title": "从《扫黑风暴》到《黑土无言》，中戏校花的她已成受害者专业户",
        "docid": "7324208645091148322",
        "url": ""
    },
    {
        "title": "南海归墟：胡八一到死都不知道，古猜的真实身份到底有多厉害",
        "docid": "7308962982434898443",
        "url": ""
    },
    {
        "title": "张艺谋点评赵丽颖新片表现，不提演技，却说到了观众心坎里！",
        "docid": "7324548211702710818",
        "url": ""
    },
    {
        "title": "《大江大河3》:韦春红扣下140万，才是雷东宝跟冯欣欣离婚的真相",
        "docid": "7324680377145311781",
        "url": ""
    },
    {
        "title": "五年了，你找到《知否》的代餐了吗？",
        "docid": "7314595631426191887",
        "url": ""
    },
    {
        "title": "谢危凭什么能让姜雪宁一年生俩娃？看他在琴上刻的奇怪梅花就懂了",
        "docid": "7303399407179956770",
        "url": ""
    },
    {
        "title": "《泰坦尼克号》中的穿帮镜头，当初光顾看露丝了，竟然都没有发现",
        "docid": "7314144041909109275",
        "url": ""
    },
    {
        "title": "终究王家卫面子大，这位金像奖影后出演酒店领班，戏份少扮相俗气",
        "docid": "7318022377479471652",
        "url": ""
    },
    {
        "title": "《人民的名义》赵瑞龙200万大奔，800平别墅，资产100亿，4处受气",
        "docid": "7292615322857882124",
        "url": ""
    },
    {
        "title": "《19层》开播！又一12集悬疑大剧，演员阵容不错，全员闭眼入局！",
        "docid": "7324985105716691492",
        "url": ""
    },
    {
        "title": "大江大河3：长相惊艳，但演技平平，我终于认识了这位风流女主",
        "docid": "7323461483881333284",
        "url": ""
    },
    {
        "title": "金鸡奖典礼这一夜，揭开吴京“虚伪面具”，爱国是假，捞金是真？",
        "docid": "7324996792351883795",
        "url": ""
    },
    {
        "title": "《平凡的世界》田福堂至死不知，润生坚持要娶寡妇红梅的真实原因",
        "docid": "7307073019837530660",
        "url": ""
    },
    {
        "title": "女演员长相有多重要？看《风华往事》中秦海璐、马苏和潘辰就知道",
        "docid": "7324601628475245107",
        "url": ""
    },
    {
        "title": "影版《神雕》全员亮相，男女主路人脸，李莫愁颜值太高一脸正气",
        "docid": "7323092971157832228",
        "url": ""
    },
    {
        "title": "胡歌、张颂文同台不同框，马伊琍“失态”惹争议，游本昌笑解尴尬",
        "docid": "7323570092599362083",
        "url": ""
    },
    {
        "title": "拍《霸王别姬》时，因为葛优一句话，张国荣自此改了对他的称呼",
        "docid": "7313845899519427135",
        "url": ""
    },
    {
        "title": "布衣布包陈美琪并不可怜，《新白娘子传奇》里她才是最惨的！",
        "docid": "7324996384724664842",
        "url": ""
    },
    {
        "title": "古装剧里的花魁，景如洋师小小太惊艳，《梦华录》张好好有效出演",
        "docid": "7319319558258000403",
        "url": ""
    },
    {
        "title": "重温《双面胶》才懂，亚平爸死前遗言，彻底揭开丽娟被打死的真相",
        "docid": "7293332744623489586",
        "url": ""
    },
    {
        "title": "《少年包青天》幕后：琼瑶反对周杰出演，包拯月牙高达5500港币",
        "docid": "7301999663970861602",
        "url": ""
    },
    {
        "title": "比蒋雯丽那丫头更精彩的角色出现了！楚志娟敢演观众不敢看",
        "docid": "7324843438807974400",
        "url": ""
    },
    {
        "title": "《小龙人》播出31年：于谦成顶流，宇文彤也成老戏骨，其他人呢？",
        "docid": "7305259816644313638",
        "url": ""
    },
    {
        "title": "哪部剧开始以为不好看，后来才发现是神剧的？",
        "docid": "7307465966290862611",
        "url": ""
    },
    {
        "title": "《繁花》：黄河路第一捞女，吃相难看且下场凄惨，却不是她的错！",
        "docid": "7320221263249998390",
        "url": ""
    },
    {
        "title": "近二十年评分最高的5部电视剧，《狂飙》屈居第3，第一其实不出名",
        "docid": "7296390164061340200",
        "url": ""
    },
    {
        "title": "中国观众认定的烂片，海外观众当成宝，破103亿夺2023年全球年冠",
        "docid": "7320535739639267892",
        "url": ""
    },
    {
        "title": "梅尔.吉布森不只有《勇敢的心》。他的另外12场电影也相当炸裂。",
        "docid": "7321915033431409189",
        "url": ""
    },
    {
        "title": "《繁花》：婚刚离，三儿坠楼，是对花痴陶陶最狠的报复",
        "docid": "7318320587452367379",
        "url": ""
    },
    {
        "title": "电视剧《长风破浪终有时》在南安开机",
        "docid": "7324991049053602341",
        "url": ""
    },
    {
        "title": "这部引爆B站超21万+人付费的片，戳穿日本的社会性病态的根源在TA",
        "docid": "7312480224803881526",
        "url": ""
    },
    {
        "title": "曾经香港黑帮势力猖獗，为何1997年香港回归祖国后销声匿迹了？",
        "docid": "7311201720049189410",
        "url": ""
    },
    {
        "title": "“张若昀”主演的这6部剧，每一部都好评如潮！你看过几部？",
        "docid": "7317220681731850787",
        "url": ""
    },
    {
        "title": "影视人物千千万，唯有她被编剧写死的最可怕！猝不及防的死亡！",
        "docid": "7325003314683265586",
        "url": ""
    },
    {
        "title": "挖到一部生猛好片，少儿不宜，成人必看！",
        "docid": "7325011148212847123",
        "url": ""
    },
    {
        "title": "《流浪地球2》落选奥斯卡！连初选名单都未入围，这意味着什么？",
        "docid": "7324941563552350757",
        "url": ""
    },
    {
        "title": "一脸太监相别演帝王，什么是霸气侧漏的天潢贵胄，还得看这几位",
        "docid": "7296047405588349494",
        "url": ""
    },
    {
        "title": "《风筝》被某些网友不喜欢，可能是被这一个残酷的情节劝退了",
        "docid": "7303000965874123291",
        "url": ""
    },
    {
        "title": "\"七部武侠古装剧大放异彩，重燃你的江湖梦！\"",
        "docid": "7314513270177088040",
        "url": ""
    },
    {
        "title": "“一个藏族女孩的十年”爆红全网：犹如宫崎骏电影照进现实……",
        "docid": "7297120038123782694",
        "url": ""
    },
    {
        "title": "《闯关东》里的八大美女：牛莉、黄小蕾未进前三，宋佳屈居第二",
        "docid": "7292463222362489385",
        "url": ""
    },
    {
        "title": "《侦察英雄》开挂，八打一千六，零牺牲，编剧问题，还是导演问题",
        "docid": "7324573187113992715",
        "url": ""
    },
    {
        "title": "鬼吹灯：归墟行动只是孙教授计划的一步，终极目标是破地仙村",
        "docid": "7307248167396311603",
        "url": ""
    },
    {
        "title": "《末代皇帝》演员今非昔比，岁月不饶人，如同无情的杀猪刀！",
        "docid": "7316832113385521703",
        "url": ""
    },
    {
        "title": "南海归墟：底舱中到底藏着什么，阮黑至死都没有说出口的秘密",
        "docid": "7307469837847101963",
        "url": ""
    },
    {
        "title": "熬夜必追的7部甜虐剧，部部又甜又虐无法自拔",
        "docid": "7322390379796955674",
        "url": ""
    },
    {
        "title": "续集强行换主演的4部剧，口碑下跌、收视率惨败，赔了夫人又折兵",
        "docid": "7298268909587989055",
        "url": ""
    },
    {
        "title": "以为是演的，其实是真警察，石兆琪当过8年兵，吴刚最让人意外",
        "docid": "7317132570628489737",
        "url": ""
    },
    {
        "title": "《铁道游击队》演员对比 ，芳林嫂蓝妮越活越年轻，丁二牛瘦到脱相",
        "docid": "7323016439693066767",
        "url": ""
    },
    {
        "title": "大江大河3：别被小宋留厂的说辞给骗了，你不知如今的他心思多深",
        "docid": "7323157086501159459",
        "url": ""
    },
    {
        "title": "春节档舍弃哪吒2押宝张艺谋，光线传媒2024怎么走？",
        "docid": "7324202715868037695",
        "url": ""
    },
    {
        "title": "吕不韦传奇:若不是28岁的宁静太惊艳，根本压不住一众绝色的女配",
        "docid": "7324382307203154443",
        "url": ""
    },
    {
        "title": "电视剧全网热度榜，《黑土无言》跌出前三，第一热度高达73.04",
        "docid": "7324900326225084965",
        "url": ""
    },
    {
        "title": "山寨《导火线》，首映票房只有160万，樊少皇，求求你别演烂片了",
        "docid": "7324213646035632674",
        "url": ""
    },
    {
        "title": "照抄都偷工减料，又给国产片丢人了，包贝尔贡献了2024第一部",
        "docid": "7324741267139707432",
        "url": ""
    },
    {
        "title": "知否：不帮扶娘家、出身低微，用身体换前程的她，才是真正赢家",
        "docid": "7294138548205142566",
        "url": ""
    },
    {
        "title": "凭济公一角被熟知，如今90岁游本昌一场戏把胡歌衬托成青涩新人",
        "docid": "7318360398191772175",
        "url": ""
    },
    {
        "title": "2024即将开播的4部偶像剧，杨紫、谭松韵各有一部，你想追哪部？",
        "docid": "7324228699681948212",
        "url": ""
    },
    {
        "title": "香港这一夜光彩熠熠，大咖云集，但仍难挽回香港电影的江湖地位！",
        "docid": "7324949863542555190",
        "url": ""
    },
    {
        "title": "《一念关山》里的老熟人，看完你认识几个？嘎的太快了真不好认啊",
        "docid": "7308598180093559333",
        "url": ""
    },
    {
        "title": "1981年 23万拍出的好电影 却遭禁映 7年后连获大奖 刘晓庆成最大赢家",
        "docid": "7306326824232452627",
        "url": ""
    },
    {
        "title": "1994年香港电影漫谈，周星驰的《九品芝麻官》，竟也会遭遇惨败！",
        "docid": "7292345270296609289",
        "url": ""
    },
    {
        "title": "《琅琊榜》：纪王救了祁王遗腹子庭生，却为何将他丢在掖庭为奴？",
        "docid": "7296356756110705152",
        "url": ""
    },
    {
        "title": "《梅花红桃》山下武夫至死不知，寒露被迷奸后，委身于他的真相！",
        "docid": "7292370850391605794",
        "url": ""
    },
    {
        "title": "《甘十九妹》27年，演员境遇不同：女一息影多年，女二成为影后",
        "docid": "7317604242528076324",
        "url": ""
    },
    {
        "title": "绝了！中国电视剧在日本的排名！看看谁是第一",
        "docid": "7296890126607729215",
        "url": ""
    },
    {
        "title": "11部虐到心肝痛的古装剧，任嘉伦一人占了3部，想二刷，都不敢",
        "docid": "7317332198305399296",
        "url": ""
    },
    {
        "title": "仙侠剧中少有的接地气情节，凭什么说他是好演员？—《沉香》",
        "docid": "7323884649237922304",
        "url": ""
    },
    {
        "title": "《被我弄丢两次的王斤斤》：檀健次首次挑战为人夫，为人父的角色",
        "docid": "7295591939595026998",
        "url": ""
    },
    {
        "title": "《知否》曾被金蛋砸中的曼娘，为什么接不住这泼天的富贵",
        "docid": "7305382511968928295",
        "url": ""
    },
    {
        "title": "10部必看的悬疑剧，你追了几部？",
        "docid": "7320497644625969679",
        "url": ""
    },
    {
        "title": "《速度与激情11》：范迪塞尔的传奇终章，新反派的复仇之战",
        "docid": "7324332651862229539",
        "url": ""
    },
    {
        "title": "央八上星！40集大剧震撼登场，我难掩激动，终于有像样的谍战片了",
        "docid": "7324126650667631154",
        "url": ""
    },
    {
        "title": "第15届金扫帚奖公布初选名单，最令人意外的是演技派的沦陷",
        "docid": "7325036794151076386",
        "url": ""
    },
    {
        "title": "《仙剑六》被吐槽:许凯、虞书欣能否超越“胡歌”，网友纷纷抵抗",
        "docid": "7324986960043475466",
        "url": ""
    },
    {
        "title": "15部值得N刷的必追国产剧，每一部都很经典，拯救剧荒的你！",
        "docid": "7221114991230091836",
        "url": ""
    },
    {
        "title": "袁冰妍古装壁纸",
        "docid": "7323947173216125492",
        "url": ""
    },
    {
        "title": "央视多次发声，7位实力派演员坐镇，郑晓龙这次有望再创“神话”",
        "docid": "7324923357022093833",
        "url": ""
    },
    {
        "title": "2024年10部必看古装仙侠剧！",
        "docid": "7318284180956234276",
        "url": ""
    },
    {
        "title": "《繁花》力压《大江大河3》，观众：这是天上地下的差距！",
        "docid": "7324346616872354323",
        "url": ""
    },
    {
        "title": "《阿凡达4》将于下月开拍 演员透露该片规模很大",
        "docid": "7324317780231078410",
        "url": ""
    },
    {
        "title": "《亮剑》李云龙一个连阻挡日军一个联队八个小时：实战有可能吗？",
        "docid": "7296898079943328256",
        "url": ""
    },
    {
        "title": "不敢再看第二遍的剧，不愧是民国be美学天花板！",
        "docid": "7321752738458026508",
        "url": ""
    },
    {
        "title": "“秦昊”主演的4部悬疑剧，演技与口碑齐飞，简直杀疯了！",
        "docid": "7316070892226855436",
        "url": ""
    },
    {
        "title": "《人民的名义》中的穿帮镜头，看完让人差点笑抽筋，简直太搞笑了",
        "docid": "7302393718429090344",
        "url": ""
    },
    {
        "title": "为什么电影《第一滴血》里警察对越战军人没有丝毫的尊重 ？",
        "docid": "7294992071176815156",
        "url": ""
    },
    {
        "title": "一念关山：快到结局才知，那不起眼的老头，才是全剧隐藏最深的人",
        "docid": "7312043439674393100",
        "url": ""
    },
    {
        "title": "《新少林五祖》中的穿帮镜头，简直不忍直视，看看你都发现了哪些",
        "docid": "7310137563250246159",
        "url": ""
    },
    {
        "title": "谁说“虐剧”不讨喜？这6部剧一集一个刀子，哭到眼疼还想继续看",
        "docid": "7304107891823624731",
        "url": ""
    },
    {
        "title": "《藏海花》张鲁一文咏珊主演，南派三叔编剧，探寻张起灵身世之谜",
        "docid": "7321251591242564134",
        "url": ""
    },
    {
        "title": "繁花：A先生的结局再次上演？强总高兴的太早了，贵人助宝总翻身",
        "docid": "7321887501709328896",
        "url": ""
    },
    {
        "title": "19年后，再看《新警察故事》，才发现电影中12位配角个个来头不小",
        "docid": "7308522358673850943",
        "url": ""
    },
    {
        "title": "结束一段关系最好的方式：没有告别 ​​​",
        "docid": "7298190719985172992",
        "url": ""
    },
    {
        "title": "《大旗英雄传》十大高手排名",
        "docid": "7299382715277869594",
        "url": ""
    },
    {
        "title": "30年后，再看《方世玉》，才发现电影中内地演员个个大有来头",
        "docid": "7301121544687108642",
        "url": ""
    },
    {
        "title": "《仙剑四》：幸好是鞠婧祎坐镇，否则都压不住这群堪比绝色的女配",
        "docid": "7325050165663711753",
        "url": ""
    },
    {
        "title": "香港六部邪典类电影，曾经的风口浪尖上的神作",
        "docid": "7301233377896727067",
        "url": ""
    },
    {
        "title": "首播将至！30集大剧来袭，这是《开端》后我唯一想追的科幻剧",
        "docid": "7324357419579146788",
        "url": ""
    },
    {
        "title": "天王梁朝伟上演“发疯”戏码，上映半月票房仅4亿，港片不行了？",
        "docid": "7324925846614376998",
        "url": ""
    },
    {
        "title": "从“小耳朵”到《侦察英雄》齐禄，黄澄澄的春天终于还是来了",
        "docid": "7323154557973611018",
        "url": ""
    },
    {
        "title": "《问心》彩云手术成功，改变4个人的命运，林逸因此脱胎换骨",
        "docid": "7291858217767076388",
        "url": ""
    },
    {
        "title": "《似火流年》贺尔清抛砖引玉，跛豪 东兴浩南引领四大狠人强势登场",
        "docid": "7304250124568658473",
        "url": ""
    },
    {
        "title": "重播次数最多的10部电视剧，个个都是经典，为何如此受欢迎",
        "docid": "7313805001523298852",
        "url": ""
    },
    {
        "title": "谁胜出？爱优腾三大平台四部剧对打，一部现代三部古装！",
        "docid": "7324897437230006836",
        "url": ""
    },
    {
        "title": "文强被俘后，收到杜聿明十包香烟，10年后，助力杜聿明第一批特赦",
        "docid": "7324006792269349387",
        "url": ""
    },
    {
        "title": "《大秦赋》邬君梅：我不想让母亲朱曼芳心痛和遗憾！",
        "docid": "7324882774790308363",
        "url": ""
    }
]