[
    {
        "title": "《第二十条》中赵丽颖脸上的红，是村霸“李宏伟”留下的屈辱",
        "docid": "7336107814333170186",
        "url": ""
    },
    {
        "title": "琅琊榜电视剧中的不合理之处",
        "docid": "7333841077214167552",
        "url": ""
    },
    {
        "title": "《南来北往》成演技照妖镜，有人惊艳，有人台词说不清、只会皱眉",
        "docid": "7336035109688427019",
        "url": ""
    },
    {
        "title": "21岁的素人辣妈，《神隐》是她第一次拍戏，就因高颜值备受关注",
        "docid": "7312621977930760723",
        "url": ""
    },
    {
        "title": "甄嬛传：弘历同意娶青樱不是因为听话，其实他心里早就乐开了花！",
        "docid": "7327621040728293900",
        "url": ""
    },
    {
        "title": "侦察英雄：女主文婕为什么让观众们不喜欢？看看她都做些什么？",
        "docid": "7327142756487414324",
        "url": ""
    },
    {
        "title": "粉丝模仿薛之谦晒盗摄图",
        "docid": "7336161724800123419",
        "url": ""
    },
    {
        "title": "《南来北往》原定马思纯饰演姚玉玲却被拒，问起刘冠麟原因超好笑",
        "docid": "7336111715123528244",
        "url": ""
    },
    {
        "title": "烟火人家：公公是演员，丈夫是导演，她由主持人进演艺圈，火了",
        "docid": "7336058270001889819",
        "url": ""
    },
    {
        "title": "《功夫》中的穿帮镜头，个个都出乎意料，就连导演本人都没有发现",
        "docid": "7302323886794949172",
        "url": ""
    },
    {
        "title": "央视开年力作，收视破2！预示着全国火爆热播的巨头之作",
        "docid": "7336025262808646179",
        "url": ""
    },
    {
        "title": "《第二十条》中赵丽颖脸上的红，是村霸“李宏伟”强暴留下的屈辱",
        "docid": "7336165398121234984",
        "url": ""
    },
    {
        "title": "2.16娱乐：李现赵丽颖任嘉伦罗云熙檀健次张柏芝谭松韵许凯毛晓彤",
        "docid": "7336136282349224482",
        "url": ""
    },
    {
        "title": "《热辣滚烫》和《第二十条》，雷佳音在哪部电影过得最好？",
        "docid": "7336102025161409062",
        "url": ""
    },
    {
        "title": "贾玲新片大卖动了谁的奶酪？人民日报都看不下去了，强势发声真爽",
        "docid": "7336142094438269459",
        "url": ""
    },
    {
        "title": "再看《琅琊榜》才发现，梅长苏不爱她的原因，其实霓凰一直都知道",
        "docid": "7313758541318603327",
        "url": ""
    },
    {
        "title": "《神隐》六大天帝，凤渊仅排第三，第二是五爪金龙，最强是敖歌",
        "docid": "7315298738149671461",
        "url": ""
    },
    {
        "title": "《南来北往》万万没想到，沈医生低嫁老马，汪新喜提“后娘”",
        "docid": "7336119169811317285",
        "url": ""
    },
    {
        "title": "空降开播口碑崩盘？《仙剑4》两主角全是败笔？观众愤怒弃剧！",
        "docid": "7336130279998128655",
        "url": ""
    },
    {
        "title": "演员王骁路演被“轰下台”：电影路演的作用到底是什么",
        "docid": "7336007903621808677",
        "url": ""
    },
    {
        "title": "游本昌：十年磨一戏，那干呗",
        "docid": "7323104145840718347",
        "url": ""
    },
    {
        "title": "《南来北往》成演技照妖镜，有人惊艳，有人台词讲不清、但会皱眉",
        "docid": "7336129121795621427",
        "url": ""
    },
    {
        "title": "《红毯先生》与《第二十条》，一个昏昏欲睡，另一个欲罢不能！",
        "docid": "7336210267611234827",
        "url": ""
    },
    {
        "title": "《南来北往》原定马思纯饰演姚玉玲却被拒，问起刘冠麟原因超好笑",
        "docid": "7336149448370111016",
        "url": ""
    },
    {
        "title": "最终票房20亿？事实证明，张艺谋已走上了中国男导演的另一条大路",
        "docid": "7336128820757676563",
        "url": ""
    },
    {
        "title": "《热辣滚烫》票房破12亿，评分升至8.0，《第二十条》逆跌",
        "docid": "7335059682023637514",
        "url": ""
    },
    {
        "title": "刘德华恳求粉丝支持！网友发现了票房扑街原因，各大影院不给排片",
        "docid": "7336127030830236199",
        "url": ""
    },
    {
        "title": "遭遇观众疑云，大年初一在老家沦陷舞台！真相揭晓令人震惊",
        "docid": "7336116335073591808",
        "url": ""
    },
    {
        "title": "再观《盲山》；让人失语的影片；翻阅高山那头的眼盲？更是心盲！",
        "docid": "7336125490543231503",
        "url": ""
    },
    {
        "title": "无所畏惧：三位配角成功出圈，曾经很火的朱时茂演技为何被质疑？",
        "docid": "7303153638338413096",
        "url": ""
    },
    {
        "title": "电影翻拍，是制作的捷径还是原创的匮乏",
        "docid": "7333051254744465959",
        "url": ""
    },
    {
        "title": "《战狼》中的细节穿帮镜头，根本意想不到，个个都戳中你的笑点，",
        "docid": "7310514292636320308",
        "url": ""
    },
    {
        "title": "美女帅哥众星云集，成就最经典版《绝代双骄》，你还记得谁？",
        "docid": "7335842958044119606",
        "url": ""
    },
    {
        "title": "贾玲新片大卖动了谁的奶酪？人民日报都看不下去了，强势发声真爽",
        "docid": "7336070386469339675",
        "url": ""
    },
    {
        "title": "推荐10部画面绝美的养眼电影，景美人更美，每一帧都能当壁纸！",
        "docid": "7319423760564912677",
        "url": ""
    },
    {
        "title": "《烟火人家》看懂孟明玮被霸占工资卡，才懂她为什么要替女儿辞职",
        "docid": "7335753910247866930",
        "url": ""
    },
    {
        "title": "《红毯先生》的隐喻是很妙，但观众不买账，全都白搭",
        "docid": "7336109637592777266",
        "url": ""
    },
    {
        "title": "《第二十条》路演，知名演员被骂？影院道歉",
        "docid": "7335598498756395571",
        "url": ""
    },
    {
        "title": "《父母爱情》无法翻拍的原因：灵魂人物已去世，四个角色无法超越",
        "docid": "7336039790254850587",
        "url": ""
    },
    {
        "title": "林更新新剧《与凤行》情人节MV首发 神君名场面释出引爆期待",
        "docid": "7336038720560726567",
        "url": ""
    },
    {
        "title": "再看《双面胶》才懂，只出现两个片段的大姑姐，才是真正的狠角色",
        "docid": "7304474473498149427",
        "url": ""
    },
    {
        "title": "谁说“虐剧”不讨喜？这6部剧一集一个刀子，哭到眼疼还想继续看",
        "docid": "7304107891823624731",
        "url": ""
    },
    {
        "title": "闹大了，在场人员还原王骁被骂事件始末，评论区炸了，影院回应了",
        "docid": "7336115252100121129",
        "url": ""
    },
    {
        "title": "直戳泪点！《飞驰人生2》沈腾金句曝光：直面人生句句扎心！",
        "docid": "7336190263100391973",
        "url": ""
    },
    {
        "title": "《东北一家人》中七大美女：吊带战神排只排第三，毕竟还有何晴",
        "docid": "7313446507905450536",
        "url": ""
    },
    {
        "title": "《献鱼》未播先火，王影璐古装美出天际，陈飞宇黑衣造型太惊喜！",
        "docid": "7335699175176831522",
        "url": ""
    },
    {
        "title": "4天破5亿票房，《第二十条》振聋发聩，雷佳音将成下一个刘德华",
        "docid": "7336099225840796212",
        "url": ""
    },
    {
        "title": "烟火人家：公公是演员，丈夫是导演，她由主持人进演艺圈，火了",
        "docid": "7336183854434419252",
        "url": ""
    },
    {
        "title": "《知否》：原来是盛家四条人命，才换来了淑兰和孙秀才的成功和离",
        "docid": "7336037425280221746",
        "url": ""
    },
    {
        "title": "《热辣滚烫》热力全开，2024春节档票房首位，破60亿记录",
        "docid": "7336056984980439578",
        "url": ""
    },
    {
        "title": "《飞驰人生2》登顶票房！《热辣滚烫》火爆上映，贾玲成焦点",
        "docid": "7335334124317573671",
        "url": ""
    },
    {
        "title": "《烟火人家》：真正的故事始于乔海云三个女儿",
        "docid": "7336138808779555343",
        "url": ""
    },
    {
        "title": "《触不可及》爱与尊重 无界无碍 一部值得反复观看的电影",
        "docid": "7335868702463771170",
        "url": ""
    },
    {
        "title": "突发！男演员王骁宣传电影遭观众怒骂：五线明星还出来显摆什么？",
        "docid": "7336010933498102322",
        "url": ""
    },
    {
        "title": "《第二十条》口碑大爆，躲过了男主雷佳音，却被48岁男四号惊艳了",
        "docid": "7336121356088181257",
        "url": ""
    },
    {
        "title": "为什么雷佳音的这段表演可以封神？因为它踩到了中国人真正的痛点",
        "docid": "7336071124591215143",
        "url": ""
    },
    {
        "title": "《南来北往》：姚玉玲漂亮，工作体面又轻松，真的适合共度一生？",
        "docid": "7336189448503509538",
        "url": ""
    },
    {
        "title": "原来罗素.克劳这么牛，随便选15部影片都是经典。怪不得是影帝。",
        "docid": "7319398177533329929",
        "url": ""
    },
    {
        "title": "《第二十条》：他在卫生间被扒光衣服，遭遇霸凌，被救，却沉默了",
        "docid": "7335342778609992243",
        "url": ""
    },
    {
        "title": "《康熙王朝》中的隐秘情感：宝日龙梅草原的，守寡之心",
        "docid": "7336061647339225615",
        "url": ""
    },
    {
        "title": "突破70亿！江苏贡献度全国第一！",
        "docid": "7336172061402235392",
        "url": ""
    },
    {
        "title": "“鬼子专业户”陆彭：戏里让人恨得牙痒痒，戏外孝顺父母疼老婆",
        "docid": "7307879654386729508",
        "url": ""
    },
    {
        "title": "《南来北往》看到汪新和姚玉玲定情，才知道马燕才是最大的赢家",
        "docid": "7336095536333783578",
        "url": ""
    },
    {
        "title": "《乡村爱情16》正式开播！赵本山把谢大脚的问题，巧妙解决了",
        "docid": "7334191224359830066",
        "url": ""
    },
    {
        "title": "人民的名义：高育良有什么权力，可以安排吴慧芬同事的工作",
        "docid": "7313000228888625679",
        "url": ""
    },
    {
        "title": "《第二十条》诙谐又搞笑 但为何许多观众都看哭了？只因亲情太感人",
        "docid": "7332830663894352436",
        "url": ""
    },
    {
        "title": "当年为什么只顾着看和尚呢？《活佛济公》真是美人图鉴，个个绝色",
        "docid": "7311612969543107123",
        "url": ""
    },
    {
        "title": "白敬亭风波影响大！知情人曝幕后人员被连累：没了奖金还丢了饭碗",
        "docid": "7336035046496928267",
        "url": ""
    },
    {
        "title": "《南来北往》选角成败笔，38岁姜妍演20岁少女，观众直呼太出戏",
        "docid": "7336154019934962228",
        "url": ""
    },
    {
        "title": "“他”，也宣布退出春节档！",
        "docid": "7336230664959853090",
        "url": ""
    },
    {
        "title": "同样凭张艺谋电影转型，都是37岁，赵丽颖与高叶对比，差异很明显",
        "docid": "7336027654166004234",
        "url": ""
    },
    {
        "title": "中国电影又一次冲出国门，贾玲流弊！",
        "docid": "7335490544044491276",
        "url": ""
    },
    {
        "title": "被导演临时拉来救场，却造就了经典角色，原主演看到后悔了吗？",
        "docid": "7306442853952193062",
        "url": ""
    },
    {
        "title": "为什么CCTV-6总是能播一些连院线都上不了的电影？",
        "docid": "7327657565628744243",
        "url": ""
    },
    {
        "title": "80年代西影厂七大美人，一个比一个好看，如今她们还好吗？",
        "docid": "7322688203809505807",
        "url": ""
    },
    {
        "title": "赵丽颖也救不活谋女郎招牌，贺岁档审美何时变天的？",
        "docid": "7336024199624458786",
        "url": ""
    },
    {
        "title": "这一次，被张艺谋“金手指”点中的范伟，给观众一个大惊喜",
        "docid": "7332359014115738122",
        "url": ""
    },
    {
        "title": "《封神第二部》剧情曝光，是尊重女性还是极致女权，又惹来争议",
        "docid": "7335393094642221578",
        "url": ""
    },
    {
        "title": "在全员恋爱脑的《还珠格格》里，只有杨紫看到了柳红最深的情感",
        "docid": "7321965361232871970",
        "url": ""
    },
    {
        "title": "真掉价！杨紫《要久久爱》官博亲自下场清理一二星后豆瓣开分7.2",
        "docid": "7336136526352679459",
        "url": ""
    },
    {
        "title": "成毅《莲花楼》爱奇艺扫楼掉进“盘丝洞”了吗？吓得汗流浃背了！",
        "docid": "7336053801193341449",
        "url": ""
    },
    {
        "title": "目前无人超越的3部古装探案剧，全看过的说明你很有眼光",
        "docid": "7305331073448231450",
        "url": ""
    },
    {
        "title": "来说一个很火但你却看不进去的电视剧",
        "docid": "7303508465723458074",
        "url": ""
    },
    {
        "title": "油头粉面就别演穷人，《第二十条》告诉你，穷人应该怎么演",
        "docid": "7336167226120143398",
        "url": ""
    },
    {
        "title": "《烟火人家》看清周母坐牢的真相，才懂李衣锦的特殊癖好有多窒息",
        "docid": "7335324267942740514",
        "url": ""
    },
    {
        "title": "2024年度总票房破100亿元",
        "docid": "7336076244397720079",
        "url": ""
    },
    {
        "title": "演员赵恒煊：我这辈子最幸运的事情，就是娶了资助我成名的贤妻",
        "docid": "7320422232680235561",
        "url": ""
    },
    {
        "title": "看着贾玲脸上的皱纹，我不由得慨叹，以后贾玲不适合演喜剧了",
        "docid": "7335994788786749964",
        "url": ""
    },
    {
        "title": "蔡康永晒孙俪送的手写心经、春联 网夸才女:太美了",
        "docid": "7336090152378597924",
        "url": ""
    },
    {
        "title": "《乡村爱情16》王香秀上线，物是人非让人疼，象牙山四美遭遇太惨",
        "docid": "7336215106327921193",
        "url": ""
    },
    {
        "title": "《乡村爱情16》三个可有可无的角色，没有存在感，只为露个脸",
        "docid": "7335989963139449407",
        "url": ""
    },
    {
        "title": "南来北往：白敬亭太可怜了！跟2位姐姐上演感情戏，还都是整容脸",
        "docid": "7334565517249823242",
        "url": ""
    },
    {
        "title": "2024年2月总票房破60亿",
        "docid": "7335410666859397641",
        "url": ""
    },
    {
        "title": "熬夜也要看的三部爆红的谍战片天花板，别说你都没看过",
        "docid": "7304578152356037155",
        "url": ""
    },
    {
        "title": "姜文、王家卫、李安，他们的1994年",
        "docid": "7335686399917703732",
        "url": ""
    },
    {
        "title": "成毅《深潜》将袭，剧情精彩，全员实力派，谍战又有好剧追！",
        "docid": "7335644139318608419",
        "url": ""
    },
    {
        "title": "电影《英雄儿女》大家还记得吗？这部电影激励了多少热血青年斗志",
        "docid": "7336203674709967400",
        "url": ""
    },
    {
        "title": "再看一次《深海》：强大了自己的内心，还会摆脱抑郁的束缚！",
        "docid": "7335686970360152588",
        "url": ""
    },
    {
        "title": "收视第一，张嘉益的戏，周一围接住了，央视又证明了自己眼光",
        "docid": "7335008266050781706",
        "url": ""
    },
    {
        "title": "48岁胡可饰演的王素芳，给强行扮嫩的中老年女演员上了一课",
        "docid": "7335388611237413417",
        "url": ""
    },
    {
        "title": "目前无人超越的10部仙侠剧，《花千骨》第九，榜首毫无争议",
        "docid": "7334293921318978063",
        "url": ""
    },
    {
        "title": "推荐5部国产古装电视剧，每部都是高分巨作！",
        "docid": "7336245776592470567",
        "url": ""
    },
    {
        "title": "厦门小戏骨获张艺谋点赞，6岁的陈宣菲参演春节档电影《第二十条》与赵丽颖搭戏",
        "docid": "7334508386328773147",
        "url": ""
    },
    {
        "title": "太突然！豆瓣7.9分，这部电影宣布退出春节档！",
        "docid": "7336118460458287666",
        "url": ""
    },
    {
        "title": "以为是演的，其实是真警察，石兆琪当过8年兵，吴刚最让人意外",
        "docid": "7317132570628489737",
        "url": ""
    },
    {
        "title": "贾玲《热辣滚烫》12亿拿下全球年冠《红毯先生》日票房跌破千万",
        "docid": "7335628346166116915",
        "url": ""
    },
    {
        "title": "看到《南来北往》的白敬亭，我总算明白《繁花》为何选上海人了！",
        "docid": "7335759542200353331",
        "url": ""
    },
    {
        "title": "张艺谋《第二十条》连续逆跌 《我们一起摇太阳》情人节排片上涨",
        "docid": "7336007372986548770",
        "url": ""
    },
    {
        "title": "完蛋！我和师姐的手分不开了",
        "docid": "7335364603817542184",
        "url": ""
    },
    {
        "title": "电影《第二十条》告诉我们：真正拉开中年女性差距的，到底是什么",
        "docid": "7335783841443480104",
        "url": ""
    },
    {
        "title": "6小时票房破3亿，看完《飞驰人生2》，我想说：沈腾这回又赌对了",
        "docid": "7336104886041936438",
        "url": ""
    },
    {
        "title": "《热辣滚烫》10个不为人知的细节：电影中的贾玲并未“跳楼”",
        "docid": "7336141690170688015",
        "url": ""
    },
    {
        "title": "繁花：身价2000万的李李永远不知，宝总为何一句话帮她保住至真园",
        "docid": "7336140685097730612",
        "url": ""
    },
    {
        "title": "《南来北往》万万没想到，沈医生低嫁老马，汪新喜提“后娘”",
        "docid": "7336179027029574207",
        "url": ""
    },
    {
        "title": "《父母爱情》无法翻拍的原因：灵魂人物已去世，四个角色无法超越",
        "docid": "7336073137009721883",
        "url": ""
    },
    {
        "title": "不会爱的妈妈有多令人窒息？看《烟火人家》的徐帆就知道了",
        "docid": "7335767698430804515",
        "url": ""
    },
    {
        "title": "《南来北往》原定马思纯饰演姚玉玲却被拒，问起刘冠麟缘由超搞笑",
        "docid": "7336129689113051686",
        "url": ""
    },
    {
        "title": "南来北往：看懂马燕和汪新雨夜的第一次，才知道姚主动分手有多傻",
        "docid": "7336091462084198962",
        "url": ""
    },
    {
        "title": "她是沈腾的校友，更是《父母爱情》的灵魂人物，58岁却英年早逝",
        "docid": "7307581895364117044",
        "url": ""
    },
    {
        "title": "他是知名老戏骨，越老越帅，低调结婚生女，追求平凡生活",
        "docid": "7325294166836036148",
        "url": ""
    },
    {
        "title": "看完4集《烟火人家》，我敢大胆断言：央视一套这剧必会火遍全国",
        "docid": "7336107809346159104",
        "url": ""
    },
    {
        "title": "杨紫观影泪洒《热辣滚烫》分享感动瞬间",
        "docid": "7335273531439612468",
        "url": ""
    },
    {
        "title": "差点干垮电影公司，影史惨案《埃及艳后》",
        "docid": "7336179363429777957",
        "url": ""
    },
    {
        "title": "《第二十条》：男四号引人瞩目，媲美雷佳音的惊艳表现",
        "docid": "7336123174289342976",
        "url": ""
    },
    {
        "title": "《南来北往》汪新立功，姚玉玲后悔求复合，马燕和牛大力演戏",
        "docid": "7335775461944984101",
        "url": ""
    },
    {
        "title": "《南来北往》成演技照妖镜，有人惊艳，有人台词说不清、只会皱眉",
        "docid": "7336091843039592960",
        "url": ""
    },
    {
        "title": "张艺谋《第二十条》连续逆跌 《我们一起摇太阳》情人节排片上涨",
        "docid": "7336068418926215706",
        "url": ""
    },
    {
        "title": "《红毯先生》制作成本2.6亿，票房前景堪忧，能否逆风翻盘？",
        "docid": "7335734494491804170",
        "url": ""
    },
    {
        "title": "知否：对于土地不好换块地种的二婚解释，为何不适应用于盛老太太",
        "docid": "7335777722930594338",
        "url": ""
    },
    {
        "title": "南来北往：马燕结局圆满，高考失利遇贵人，成最大赢家",
        "docid": "7335855332058923530",
        "url": ""
    },
    {
        "title": "热播电影男演员被观众“轰下台”？刚刚影院道歉",
        "docid": "7335743867696644660",
        "url": ""
    },
    {
        "title": "《南来北往》牛大力：对不爱你的人来说，你的付出是多余的打扰",
        "docid": "7336137294757610010",
        "url": ""
    },
    {
        "title": "《三大队》：不会演就别演了，把机会留给张译、王骁这样会演的人",
        "docid": "7309016202570236442",
        "url": ""
    },
    {
        "title": "《水龙吟》：罗云熙吃胖了，肖顺尧不凶了，我却被29岁女配惊艳了",
        "docid": "7308169362073289228",
        "url": ""
    },
    {
        "title": "《缉恶》票房井喷，打了多少资方的脸，谢苗又赌对了！",
        "docid": "7336122712014684707",
        "url": ""
    },
    {
        "title": "《南来北往》∶三位女主，三种结局，最幸福的不是马燕",
        "docid": "7336072008066974246",
        "url": ""
    },
    {
        "title": "《第二十条》口碑大爆，躲过了男主雷佳音，却被48岁男四号惊艳了",
        "docid": "7336150971359576576",
        "url": ""
    },
    {
        "title": "盘点那些一季就停播却已封神的美剧",
        "docid": "7335332067233776138",
        "url": ""
    },
    {
        "title": "《回家的诱惑》中的穿帮镜头，看完让人破涕为笑，当年怎么没发现",
        "docid": "7307917524984201739",
        "url": ""
    },
    {
        "title": "媲美《忠犬八公》：《再见，李可乐》爱与别离的情感佳作",
        "docid": "7335659602665226803",
        "url": ""
    },
    {
        "title": "人淡如菊！胡可在《南来北往》饰演的素芳去世让人崩溃",
        "docid": "7336137205133607424",
        "url": ""
    },
    {
        "title": "揭秘《第二十条》5个角色的象征意义：正当防卫，是好人的底气",
        "docid": "7336135981672055350",
        "url": ""
    },
    {
        "title": "《繁花》：婚刚离，三儿坠楼，是对花痴陶陶最狠的报复",
        "docid": "7318320587452367379",
        "url": ""
    },
    {
        "title": "《热辣滚烫》票房大爆发，贾玲再次胜利，验证投资的正确性",
        "docid": "7336122860127420963",
        "url": ""
    },
    {
        "title": "《南来北往》成演技照妖镜，有人惊艳，有人台词说不清、只会皱眉",
        "docid": "7336122749846848035",
        "url": ""
    },
    {
        "title": "4天破5亿票房，《第二十条》振聋发聩，雷佳音将成下一个刘德华",
        "docid": "7336122955695129128",
        "url": ""
    },
    {
        "title": "看完《热辣滚烫》我明白了三点",
        "docid": "7334194460190196233",
        "url": ""
    },
    {
        "title": "张艺谋新作，最高检连发两篇影评罗翔：这事真的和每个人息息相关",
        "docid": "7335627171358540303",
        "url": ""
    },
    {
        "title": "父母爱情中最令人讨厌的六位角色！",
        "docid": "7335125041316692506",
        "url": ""
    },
    {
        "title": "票房分析：票房前四影片占据大盘票房97%",
        "docid": "7336123900603974180",
        "url": ""
    },
    {
        "title": "《阿麦从军》：为什么阿麦的官配是唐绍义，而不是商易之？",
        "docid": "7332380376763040292",
        "url": ""
    },
    {
        "title": "该管管了！再放任这种“畸形”观念野蛮生长，国产影视剧就完了",
        "docid": "7335152123799224895",
        "url": ""
    },
    {
        "title": "少排片炸口碑，凭真挚纯爱火热出圈的《摇太阳》简直不要太好嗑！",
        "docid": "7335440903744406016",
        "url": ""
    },
    {
        "title": "赢麻了!《热辣滚烫》票房有望夺冠，没了沈腾，贾玲照样能扛大旗",
        "docid": "7335639960768610851",
        "url": ""
    },
    {
        "title": "秒杀《斯巴达》的黄暴美剧，“没有”剧情，硬是拍了两季",
        "docid": "7336261130396156450",
        "url": ""
    },
    {
        "title": "罗翔又上热搜了，因电影《第二十条》情绪激动，他的发言意味深长",
        "docid": "7336125473094861338",
        "url": ""
    },
    {
        "title": "薛之谦盗摄《飞驰2》升级，7处错误越描越黑，导演韩寒放弃声援",
        "docid": "7336005988195025460",
        "url": ""
    },
    {
        "title": "“一夜爆红”到“打回原形”，高叶只用半年，终是步了张小斐后尘",
        "docid": "7336205655860298278",
        "url": ""
    },
    {
        "title": "由《延禧攻略》到《南来北往》，她的风格转变令人大跌眼镜！",
        "docid": "7336007179608539675",
        "url": ""
    },
    {
        "title": "盘点姜文的偶像罗伯特.德尼罗，口碑炸裂的十部影片！",
        "docid": "7313098002829247027",
        "url": ""
    },
    {
        "title": "《大蛇再袭》首播，一条大蛇追了12集，国产电视剧的“里程碑”",
        "docid": "7336064936789738011",
        "url": ""
    },
    {
        "title": "春节档电影“纷纷败亡”！",
        "docid": "7336165985147765300",
        "url": ""
    },
    {
        "title": "三天逆跌4000万，上座率秒《热辣滚烫》，张艺谋又“赚”翻了",
        "docid": "7336153440520798755",
        "url": ""
    },
    {
        "title": "《第二十条》票房逆跌，连新闻联播都为它发声，马丽又赌对了",
        "docid": "7336073062934315560",
        "url": ""
    },
    {
        "title": "繁花：最没诚信的人出现，当面一套背后一套，最终的下场不会好",
        "docid": "7319862145578779151",
        "url": ""
    },
    {
        "title": "时隔20年再看《天龙八部》，才发现段正淳的6个女人，个个绝色！",
        "docid": "7331002046423990811",
        "url": ""
    },
    {
        "title": "《繁花》最大受益者出现，上完春晚再拿影视大奖，辛芷蕾彻底火了",
        "docid": "7335651705310511631",
        "url": ""
    },
    {
        "title": "《热辣滚烫》票房破12亿，评分升至8.0，《第二十条》逆跌",
        "docid": "7334892090524189195",
        "url": ""
    },
    {
        "title": "热辣滚烫：票房井喷，却被1万多人打差评，终于理解吴京这段话了",
        "docid": "7335044634609173003",
        "url": ""
    },
    {
        "title": "给中国“最好的历史剧”排个名，《雍正王朝》第5，第1名当之无愧",
        "docid": "7323579111262503435",
        "url": ""
    },
    {
        "title": "不要被电视剧骗了，这才是真实的90年代打工妹，引起无数人共鸣！",
        "docid": "7327946292108427785",
        "url": ""
    },
    {
        "title": "沈眉庄唯一一次害人，看得甄嬛目瞪口呆，手段竟如此狠毒！",
        "docid": "7307223493446943259",
        "url": ""
    },
    {
        "title": "虚竹被杀，段誉为何不帮他报仇？你看凶手是谁，段誉只能忍气吞声",
        "docid": "7330908264277983753",
        "url": ""
    },
    {
        "title": "《异人之下2》未播先火，5位实力派强势加盟，文淇版陈朵最惊喜！",
        "docid": "7335661838594146851",
        "url": ""
    },
    {
        "title": "反转了！好口碑的作用！电影《第二十条》票房连续三天逆跌！",
        "docid": "7335407601574462003",
        "url": ""
    },
    {
        "title": "《教父》演员今非昔比，马龙·白兰度年轻时简直甩小鲜肉十条街！",
        "docid": "7310165173589967414",
        "url": ""
    },
    {
        "title": "大江大河：宋运辉为何要拒绝升任“副部”？他或有这三方面的考量",
        "docid": "7329176375565632015",
        "url": ""
    },
    {
        "title": "人类，对甄嬛传的开发还不到10%，真的是常看常新！",
        "docid": "7332062059347329536",
        "url": ""
    },
    {
        "title": "甄母三次进宫天差地别，难怪甄嬛恨透了皇上，你看果郡王做了啥？",
        "docid": "7314135397368922658",
        "url": ""
    },
    {
        "title": "《小龙人》播出31年：于谦成顶流，宇文彤也成老戏骨，其他人呢？",
        "docid": "7305259816644313638",
        "url": ""
    },
    {
        "title": "《鬼吹灯》原著和电视作品中被删掉的鬼",
        "docid": "7308590984940716580",
        "url": ""
    },
    {
        "title": "不怪王扶林说陈晓旭不够漂亮，他最初选定的黛玉候选人，才叫美人",
        "docid": "7306338209448460815",
        "url": ""
    },
    {
        "title": "《父母爱情》舅舅是司令，爸爸是参谋长，年轻轻的哥哥都是团长级别以上，她怎么混得如此没落？",
        "docid": "7304569850486440475",
        "url": ""
    },
    {
        "title": "妻子被强奸，丈夫拴狗链，《第二十条》是想传达什么思想",
        "docid": "7336177840557982262",
        "url": ""
    },
    {
        "title": "欢乐颂：同是沪漂租房一族，为啥曲筱绡欺负邱莹莹，却示好关雎尔",
        "docid": "7309750904725750312",
        "url": ""
    },
    {
        "title": "白鹿3年上了6部剧，火了3部，扑了3部，男主是谁才关键！",
        "docid": "7304936839344030247",
        "url": ""
    },
    {
        "title": "欢乐颂：当樊妈给曲筱绡下跪借10万，曲筱绡的举动堪称教科书教学",
        "docid": "7318620826826441268",
        "url": ""
    },
    {
        "title": "昆山龙哥被鞭尸？当张艺谋新片《第二十条》原型被扒，我泪奔了！",
        "docid": "7333876660900512308",
        "url": ""
    },
    {
        "title": "感谢不演之恩！原定主角拒演，换角后意外成为经典的5部剧",
        "docid": "7306349374928519721",
        "url": ""
    },
    {
        "title": "这五部黄暴美剧，能看完的都是狠人啊",
        "docid": "7329825558194405897",
        "url": ""
    },
    {
        "title": "《权力的游戏》六个“变态”的细节，这就是为什么能被称为神剧！",
        "docid": "7306820994776416787",
        "url": ""
    },
    {
        "title": "2024年春节档上座率回落，《第二十条》逆势，贾玲新片出现拐点",
        "docid": "7335654283297194506",
        "url": ""
    },
    {
        "title": "事实证明，41岁的孙艺洲，已经在\"非著名\"演员道路上越走越远！",
        "docid": "7336127575317971483",
        "url": ""
    },
    {
        "title": "王漫妮飞奔向8000元酒店的那一晚，才是梁正贤看轻她的原因！",
        "docid": "7321698318399980086",
        "url": ""
    },
    {
        "title": "看完《狗剩快跑》大结局，我激动万分，国剧都这么拍何愁没观众",
        "docid": "7335810827532485183",
        "url": ""
    },
    {
        "title": "饰演父女的夫妻，孩子8岁才公开关系，网友直呼好家伙！",
        "docid": "7307903990753165859",
        "url": ""
    },
    {
        "title": "《永不瞑目》24年演员境况不一，女一“消失”，男五号逆袭成大咖",
        "docid": "7325645973240365608",
        "url": ""
    },
    {
        "title": "盘点《权力的游戏》十大经典名场面，谁才是你心中的第一？",
        "docid": "7307558453974237708",
        "url": ""
    },
    {
        "title": "《第二十条》中赵丽颖脸上的红，是村霸“李宏伟”强暴留下的屈辱",
        "docid": "7335895256283513396",
        "url": ""
    },
    {
        "title": "为什么雷佳音的这段表演可以封神？因为它踩到了中国人真正的痛点",
        "docid": "7335365886905598479",
        "url": ""
    },
    {
        "title": "《人民的名义》：梁璐被人糟蹋了，梁群峰为何要把梁璐推给祁同伟",
        "docid": "7325311370818732555",
        "url": ""
    },
    {
        "title": "苏有朋版的《倚天屠龙记》，居然也有穿帮镜头，个个让人啼笑不止",
        "docid": "7314196887580852745",
        "url": ""
    },
    {
        "title": "王晶新剧《一舞倾城》，尺度相当大，剧情“三观不正”，被骂惨了",
        "docid": "7336099115632329231",
        "url": ""
    },
    {
        "title": "情满四合院：全员恶人排行榜，秦淮茹只能排第三。竞争太激烈了。",
        "docid": "7331395021616513576",
        "url": ""
    },
    {
        "title": "片约不断的5个戏混子！演啥都是演自己，观众求放过",
        "docid": "7329345267961627151",
        "url": ""
    },
    {
        "title": "张艺谋超越陈思诚，成中国票房第二大导演",
        "docid": "7335736177410212364",
        "url": ""
    },
    {
        "title": "论植入，谁有《繁花》这么肆无忌惮？遍地广告却没人反感",
        "docid": "7321556711838548480",
        "url": ""
    },
    {
        "title": "为什么青春剧不拍研究生？网友们的评论真实了！真的笑死我了哈哈",
        "docid": "7313896906454172160",
        "url": ""
    },
    {
        "title": "8年后10刷琅琊榜才明白，为何梅长苏身边无一人上得了琅琊高手榜",
        "docid": "7306044833691943459",
        "url": ""
    },
    {
        "title": "白素贞出塔后对许仙的态度很奇怪，仔细研究才发现这是一个悲剧。",
        "docid": "7333372828210938431",
        "url": ""
    },
    {
        "title": "导演只找她演个配角，结果赵丽颖一个反问，惊得张艺谋连夜改剧本",
        "docid": "7332763733267481088",
        "url": ""
    },
    {
        "title": "《欢乐颂》关雎尔家境到底有多强？一场团圆饭，一目了然，实在牛",
        "docid": "7320225607005159955",
        "url": ""
    },
    {
        "title": "难怪王扶林非把袁玫化丑，看她的“贵妃”造型，多明艳动人",
        "docid": "7313836128786760231",
        "url": ""
    },
    {
        "title": "甄嬛传拍摄时，陈建斌突然拍了一下蒋欣屁股，蒋欣的反应绝了",
        "docid": "7315738234192167478",
        "url": ""
    },
    {
        "title": "皇上只是捏了一下端妃的肩膀，端妃为什么愣在原地，泪眼朦胧？",
        "docid": "7321718603177280050",
        "url": ""
    },
    {
        "title": "《繁花》：汪小姐永远不知，卢美玲打宝总一耳光，并不是为了面子",
        "docid": "7320497554247647782",
        "url": ""
    },
    {
        "title": "《知否》为防孙秀才东山再起，祖母、盛紘、盛维联手断孙秀才仕途",
        "docid": "7327890564857594418",
        "url": ""
    },
    {
        "title": "张卫健主演的神剧有多离谱，喝酒泡妞样样精通，吃饭必须六菜一汤",
        "docid": "7327559042661450292",
        "url": ""
    },
    {
        "title": "把“太监”演得妖而不娘，只服这5位，浓妆艳抹也难掩阴柔之态",
        "docid": "7317144699502936586",
        "url": ""
    },
    {
        "title": "15年后，再看《潜伏》，路人逆袭成大明星，盛乡出狱变化太大",
        "docid": "7303370337410908707",
        "url": ""
    },
    {
        "title": "该轮到″巨石″强森紧张了，这群更大更帅的大块头在“抢班夺权”",
        "docid": "7320608179711410688",
        "url": ""
    },
    {
        "title": "《新白娘子传奇》中的穿帮镜头，简直太搞笑，看这么多年都没发现",
        "docid": "7327944764463137331",
        "url": ""
    },
    {
        "title": "难怪说郭芙原名叫欧阳芙，你看黄蓉和欧阳锋做了什么，细思极恐",
        "docid": "7320483068723167780",
        "url": ""
    },
    {
        "title": "她才是全剧最会说话的人，滴血验亲没说一句谎话，却把雍正忽悠了",
        "docid": "7328288280959648282",
        "url": ""
    },
    {
        "title": "孟静娴喂弘曕粥，为何要尝一口？若不是存有这个心思，也不会死",
        "docid": "7314552058068501019",
        "url": ""
    },
    {
        "title": "父母爱情：她不是演员却会演戏，死缠烂打地客串了一把惊呆孔笙",
        "docid": "7331732347945075235",
        "url": ""
    },
    {
        "title": "雍正王朝：夺嫡之夜还有个关键人物，不能忘了说。",
        "docid": "7307913325726990860",
        "url": ""
    },
    {
        "title": "宁浩刘德华《红毯先生》预测票房不到1亿 制作成本2.6亿面临巨亏",
        "docid": "7336067560276378152",
        "url": ""
    },
    {
        "title": "杨紫资源再升级，新电影将二搭贾玲，演艺事业或已彻底腾飞！",
        "docid": "7335642700387303951",
        "url": ""
    },
    {
        "title": "《南来北往》勒着腰包着腚, 38岁姜妍土味的风情万种, 让人欲罢不能",
        "docid": "7336189481227305512",
        "url": ""
    },
    {
        "title": "知否：生了“玲珑心”的海氏，为何对明兰比如兰更好？",
        "docid": "7333187522513830427",
        "url": ""
    },
    {
        "title": "林黛玉穿AJ离谱就算了，武松骑自行车打虎，这些镜头也太“扯”了",
        "docid": "7306790193485939240",
        "url": ""
    },
    {
        "title": "终究王家卫面子大，这位金像奖影后出演酒店领班，戏份少扮相俗气",
        "docid": "7318022377479471652",
        "url": ""
    },
    {
        "title": "妈耶！2024刑侦悬疑新剧！阵容强大！你期待吗？",
        "docid": "7334667914010083866",
        "url": ""
    },
    {
        "title": "叶经理怎么变坏了？错，成年人都懂他已仁至义尽，别再道德绑架了",
        "docid": "7336059496106213926",
        "url": ""
    },
    {
        "title": "屠龙少年，终成恶龙",
        "docid": "7310133724111454755",
        "url": ""
    },
    {
        "title": "最终票房42亿？事实证明，贾玲已走上了中国女演员的另一条大路",
        "docid": "7335721389955498534",
        "url": ""
    },
    {
        "title": "若她早点出现，果郡王断不会爱上甄嬛！她才是果郡王一眼就喜欢的",
        "docid": "7314232430200848934",
        "url": ""
    },
    {
        "title": "长相有多重要？看《大唐狄公案》里钟楚曦、王丽坤和凌孜就知道了",
        "docid": "7335356081100833318",
        "url": ""
    },
    {
        "title": "县城的孩子没有未来",
        "docid": "7335974149481038351",
        "url": ""
    },
    {
        "title": "《热辣滚烫》热力全开，2024春节档票房首位，破60亿记录",
        "docid": "7336122911218549282",
        "url": ""
    },
    {
        "title": "重温《甄嬛传》才懂：甄母花容月貌，为何甄远道独爱何绵绵？",
        "docid": "7310130698240197154",
        "url": ""
    },
    {
        "title": "吕不韦传奇:若不是28岁的宁静太惊艳，根本压不住一众绝色的女配",
        "docid": "7324382307203154443",
        "url": ""
    },
    {
        "title": "天哪，《红苹果乐园》20年了，男演员集体发福，女主年近40似少女",
        "docid": "7318700515054010918",
        "url": ""
    },
    {
        "title": "王亮果然一身反骨，对亲妈都不客气，难怪会跟父亲断绝关系",
        "docid": "7334627972852711947",
        "url": ""
    },
    {
        "title": "幸亏87《红楼梦》原化妆师离开了，看这满头的小红花和圆圈，多丑",
        "docid": "7323078477228360203",
        "url": ""
    },
    {
        "title": "太后早就发现双生子破绽，为何不揭穿？真不愧是上一届宫斗冠军！",
        "docid": "7320549651777012259",
        "url": ""
    },
    {
        "title": "繁花：看懂爷叔救汪小姐，金花袖手旁观，才知汪小姐成第二个爷叔",
        "docid": "7319054321335714340",
        "url": ""
    },
    {
        "title": "我的天！不愧是央视力推的纪录片，看了受益匪浅，赶紧收藏起吧",
        "docid": "7336228399293530676",
        "url": ""
    },
    {
        "title": "是“13”还是“B”，这个片名本身就大有深意",
        "docid": "7304603305953641023",
        "url": ""
    },
    {
        "title": "南海归墟：阮黑到死都没说出的秘密，三叉戟号底舱到底有什么？",
        "docid": "7307904049020650011",
        "url": ""
    },
    {
        "title": "这部耗资3亿的新片，首日票房才4184万！神秘面纱下的电影世界",
        "docid": "7335861465003770404",
        "url": ""
    },
    {
        "title": "张艺谋超越陈思诚，成中国票房第二大导演",
        "docid": "7335733830835487273",
        "url": ""
    },
    {
        "title": "揭露爱情真相！这电影尺度太大！",
        "docid": "7336119123455296040",
        "url": ""
    },
    {
        "title": "《亮剑》四大美人：田雨变化最大，秀芹身穿旗袍却格外美丽！",
        "docid": "7319703307856118306",
        "url": ""
    },
    {
        "title": "甄嬛传：淳儿第一次侍寝，为何皇上刻意换了睡衣？都是千年的狐狸",
        "docid": "7304109417958523426",
        "url": ""
    },
    {
        "title": "上映2日已有两部电影破7亿，四部在陪跑!",
        "docid": "7334329566355571252",
        "url": ""
    },
    {
        "title": "事大了！一网友强烈建议不要带孩子看《热辣滚烫》，评论区炸锅",
        "docid": "7335761849071321615",
        "url": ""
    },
    {
        "title": "看《繁花》5大老戏骨演技佳 张芝华哭戏感人 游本昌一个眼神可封神",
        "docid": "7317440079608152614",
        "url": ""
    },
    {
        "title": "导演，给她穿件衣服吧！",
        "docid": "7336124322303967754",
        "url": ""
    },
    {
        "title": "为何一部立意深远的好片，却比不过一个减肥的？原因令人深思",
        "docid": "7336214961771430439",
        "url": ""
    },
    {
        "title": "《我要当八路》中的雷人镜头，剧中嘎子太逆天，直播带货都比这强",
        "docid": "7322350309928731148",
        "url": ""
    },
    {
        "title": "孙俪《蛮好的人生》筹拍，男主“花落”魏大勋，看清导演追定了！",
        "docid": "7335733899701944842",
        "url": ""
    },
    {
        "title": "“白景琦”原型乐镜宇，一张罕见全家福，抱孩子的妇女是香秀吗？",
        "docid": "7330190593790001664",
        "url": ""
    },
    {
        "title": "沈傲君将小三演成白月光，如今胖得不如喜来乐正房",
        "docid": "7324230427214922275",
        "url": ""
    },
    {
        "title": "关晓彤包场请好友看《热辣滚烫》,找贾玲张小斐还钱被拒,理由搞笑",
        "docid": "7336041512884814377",
        "url": ""
    },
    {
        "title": "又一TVB新剧将播！TVB最索人妻探讨婚内出轨！爆有大尺度床戏",
        "docid": "7335694748088435237",
        "url": ""
    },
    {
        "title": "为什么观众可以重刷无数遍《甄嬛传》却不想再看《如懿传》一眼？",
        "docid": "7315621916659024395",
        "url": ""
    },
    {
        "title": "《第二十条》没有成为第二部《满江红》，但张艺谋又赌对了！",
        "docid": "7336109870632223270",
        "url": ""
    },
    {
        "title": "《普罗米修斯》完整未删揭秘，伊丽莎白肖大战工程师",
        "docid": "7305951387907621415",
        "url": ""
    },
    {
        "title": "《大红灯笼》“又老又丑”的太太，曾给过颂莲三次改变命运的机会",
        "docid": "7308751242098950706",
        "url": ""
    },
    {
        "title": "罗毅祥炮轰董宇辉，电影市场变幻莫测，观众呼声何去何从？",
        "docid": "7335621630707925555",
        "url": ""
    },
    {
        "title": "因目光短浅，而错过当红爆剧的5位演员，如今悔不当初",
        "docid": "7328326849879212563",
        "url": ""
    },
    {
        "title": "《第二十条》说赵丽颖五官混乱,却不知听障人士本就如此,让人心酸",
        "docid": "7336259248521101843",
        "url": ""
    },
    {
        "title": "宣传方向错了有多可怕，看《热辣滚烫》和《第二十条》票房就知道",
        "docid": "7335307916901122600",
        "url": ""
    },
    {
        "title": "阿如那向赵丽颖角色道歉，网友却根本不买账，我要笑死在评论区了",
        "docid": "7336183850315301426",
        "url": ""
    },
    {
        "title": "《飞驰人生2》盈利超5亿！韩寒将拍第三部，于适和范丞丞主演",
        "docid": "7336121851133788722",
        "url": ""
    },
    {
        "title": "高能复仇爽片，妻子出轨丈夫设下夺命陷阱环环相扣",
        "docid": "7336166203767570978",
        "url": ""
    },
    {
        "title": "《欢乐颂》“一夜成亿万富婆”的曲筱绡不知，妈妈架空丈夫把80%的家产换成上海黄金地段房产送给她",
        "docid": "7319762957825884709",
        "url": ""
    },
    {
        "title": "《亮剑》4位主演18年重聚，戏外是多年朋友，“和尚”老到认不出",
        "docid": "7317892401442669119",
        "url": ""
    },
    {
        "title": "《父母爱情》为什么江德福把自己的两个儿子放在普通的陆军当兵，却把江昌义安排到更有前途的海军？",
        "docid": "7306780256315261450",
        "url": ""
    },
    {
        "title": "一个人毁了一部剧？“成毅任嘉伦”之流，如今接连现出原形",
        "docid": "7335407967686787593",
        "url": ""
    },
    {
        "title": "《一念关山》里的老熟人，看完你认识几个？嘎的太快了真不好认啊",
        "docid": "7308598180093559333",
        "url": ""
    },
    {
        "title": "《热辣滚烫》五天票房20亿 《第二十条》反超《熊出没10》",
        "docid": "7336381613456507432",
        "url": ""
    },
    {
        "title": "都在致敬洛奇，贾玲得其“肉”，沈腾得其“骨”",
        "docid": "7335801629826531849",
        "url": ""
    },
    {
        "title": "甄嬛传：宜修至死不知，甄母和纯元竟是这关系，难怪不敢见皇上",
        "docid": "7313823041820082722",
        "url": ""
    },
    {
        "title": "2024开年评分最高的韩剧，拍得很大胆，一播就牢牢抓住了我的",
        "docid": "7336150602172711478",
        "url": ""
    },
    {
        "title": "香港最大胆三级片女主：豪放叛逆的代名词，内娱跟她比实在太封建",
        "docid": "7327195381795193359",
        "url": ""
    },
    {
        "title": "士兵突击：白铁军，七连老末，为什么高城能容忍他留在七连？",
        "docid": "7306792872945238528",
        "url": ""
    },
    {
        "title": "《飞驰人生2》：看似圆满的结局，却难掩电影里的4处遗憾",
        "docid": "7335394943127552550",
        "url": ""
    },
    {
        "title": "《南来北往》开播就议论菲菲，观众差评理由却出奇一致",
        "docid": "7333989041840554536",
        "url": ""
    },
    {
        "title": "突发！“他”也宣布退出春节档",
        "docid": "7336378224722641423",
        "url": ""
    },
    {
        "title": "《士兵突击》，高城身世其实在第4集，班长老马已经给许三多说了",
        "docid": "7305420627756843539",
        "url": ""
    },
    {
        "title": "2024年春节档上座率回落，《第二十条》逆势，贾玲新片出现拐点",
        "docid": "7335673887411159602",
        "url": ""
    },
    {
        "title": "高叶聊《第二十条》合作演员赵丽颖：她是一个天真烂漫的小女孩",
        "docid": "7336402170872971785",
        "url": ""
    },
    {
        "title": "《爆裂点》让人恍然大悟的11件事，好电影果然戏里戏外都精彩",
        "docid": "7312021826191524378",
        "url": ""
    },
    {
        "title": "曹琴默出卖年世兰时，甄嬛看到她的白玉头饰为何会大惊失色？",
        "docid": "7329356140012405283",
        "url": ""
    },
    {
        "title": "第二十条赵丽颖脸上的性暗示，张艺谋处理过，看懂了后背发凉",
        "docid": "7336410985068167714",
        "url": ""
    },
    {
        "title": "20年前的《萍踪侠影》，藏了好多帅哥美人，连黄晓明都只能打酱油",
        "docid": "7317536799726273065",
        "url": ""
    },
    {
        "title": "《人民的名义》40岁出头位居厅级的赵冬来，为何偏喜欢38岁陆亦可",
        "docid": "7318600769110983218",
        "url": ""
    },
    {
        "title": "抗日神剧八路军的离谱伙食，顿顿千层饼加肉勾蛋，吃得比伪军还好",
        "docid": "7327219784180007433",
        "url": ""
    },
    {
        "title": "同一张脸，演《京华烟云》19年后，演《南来北往》，她素颜没认出",
        "docid": "7335623825444766259",
        "url": ""
    },
    {
        "title": "十部看了就忘不掉的爱情剧，全是经典",
        "docid": "7321245869930578442",
        "url": ""
    },
    {
        "title": "马丽、高叶对比36岁赵丽颖，老天爷赏饭吃与科班毕业演技一目了然",
        "docid": "7336396401615847947",
        "url": ""
    },
    {
        "title": "冯小刚新片，葛优携三大女神，我看这部大片，一上映就要爆了",
        "docid": "7308282548218806823",
        "url": ""
    },
    {
        "title": "宁理：娶洋媳妇生两女，人至中年才走红，感激妻子对自己10年不弃",
        "docid": "7318221785831490058",
        "url": ""
    },
    {
        "title": "最意想不到也是最好看的喜剧，看《第二十条》需要了解的十件事",
        "docid": "7336141345604190783",
        "url": ""
    },
    {
        "title": "《首尔之春》：从电影中看韩国波谲云诡的历史",
        "docid": "7336157385649947145",
        "url": ""
    },
    {
        "title": "《南来北往》：蔡小年结婚，揭开了汪永革不作证的真相",
        "docid": "7336429455092924943",
        "url": ""
    },
    {
        "title": "周润发到底有多强?金像奖上打败自己，靠一部电影成为连庄影帝",
        "docid": "7305956830105158170",
        "url": ""
    },
    {
        "title": "《熊出没》系列电影的极限探索：中国最大电影IP的潜力与挑战",
        "docid": "7336397917848224292",
        "url": ""
    },
    {
        "title": "87版《红楼梦》王扶林“看走眼”的四个角色，“薛宝琴”饱受非议",
        "docid": "7317461325847429669",
        "url": ""
    },
    {
        "title": "说说当年看日本彩色故事片《望乡》的往事",
        "docid": "7323363862995583528",
        "url": ""
    },
    {
        "title": "大尺度法国电影推荐四部，来看艾曼纽·贝阿有多美",
        "docid": "7335390798391034407",
        "url": ""
    },
    {
        "title": "终于理解为什么那么多人说虞书欣普了，同样的造型，确实输得很惨",
        "docid": "7326850420691780132",
        "url": ""
    },
    {
        "title": "这部顶级黄暴美剧够生猛，不愧是《斯巴达》的“兄弟篇”",
        "docid": "7330305581133627954",
        "url": ""
    },
    {
        "title": "《第二十条》赵丽颖脸上的性暗示，张艺谋处理过，看懂了后背发凉",
        "docid": "7336394687152751130",
        "url": ""
    },
    {
        "title": "连刷《飞驰人生2》和《热辣滚烫》，一部超上头，一部昏昏欲睡",
        "docid": "7336127417574687268",
        "url": ""
    },
    {
        "title": "女演员的长相很重要，《热辣滚烫》28岁李雪琴演小三，我莫名想笑",
        "docid": "7336414228305658378",
        "url": ""
    },
    {
        "title": "电影中的最底层——Z级片",
        "docid": "7319331920452928036",
        "url": ""
    },
    {
        "title": "给30年来最好的刑侦剧排座次：《重案六组》仅第6，《征服》第2",
        "docid": "7329326761337258547",
        "url": ""
    },
    {
        "title": "难怪裘千仞不怕东邪西毒，你看他师父是谁？连洪七公都得给面子",
        "docid": "7335374594330739252",
        "url": ""
    },
    {
        "title": "离开吴京的导演：春节档票房垫底，亏损2亿多，成烂片大王",
        "docid": "7336380424140177935",
        "url": ""
    },
    {
        "title": "油头粉面就别演穷人，《第二十条》告诉你，穷人应该怎么演",
        "docid": "7336402590907220515",
        "url": ""
    },
    {
        "title": "快来看看‼️爱奇艺、腾讯、优酷第三波推出五部“王炸”剧集",
        "docid": "7334728242047353382",
        "url": ""
    },
    {
        "title": "她刚成年的那一年，被王晶捧上大银幕，在王晶的镜头下一炮而红！",
        "docid": "7336382932988805682",
        "url": ""
    },
    {
        "title": "难怪电视里只有上半身，镜头下移后，全是辣眼睛的尴尬全景！",
        "docid": "7311227891092800010",
        "url": ""
    },
    {
        "title": "漱芳斋有4个宫女，皇后只针对紫薇，第一天暴露了！你看她穿的啥",
        "docid": "7307217063012336143",
        "url": ""
    },
    {
        "title": "《热辣滚烫》五天票房20亿 《第二十条》反超《熊出没10》",
        "docid": "7336359993144705599",
        "url": ""
    },
    {
        "title": "超181亿！中国影史票房最高女演员是她！",
        "docid": "7336110326033285658",
        "url": ""
    },
    {
        "title": "《第二十条》：把张译气得发抖，马丽演技被低估了",
        "docid": "7335723999139807759",
        "url": ""
    },
    {
        "title": "《藏海花》张鲁一文咏珊主演，南派三叔编剧，探寻张起灵身世之谜",
        "docid": "7321251591242564134",
        "url": ""
    },
    {
        "title": "甄嬛传：小允子为何能一板砖拍死身为血滴子的夏刈？过程让人唏嘘",
        "docid": "7319474871728882187",
        "url": ""
    },
    {
        "title": "《南来北往》太离谱：月工资56元的人买不起凤凰车，也娶不起媳妇",
        "docid": "7336404673068728866",
        "url": ""
    },
    {
        "title": "再看《闯关东》：终于知道了朱开山，为何对韩老海的报复一再服软",
        "docid": "7332494363974550031",
        "url": ""
    },
    {
        "title": "按照导演李安要求，汤唯足足留了8个月的腋毛，导演为何这么做？",
        "docid": "7336188346253001231",
        "url": ""
    },
    {
        "title": "长大再看《武林外传》，才明白佟湘玉为何喜欢郭芙蓉不喜欢祝无双",
        "docid": "7325696940397691443",
        "url": ""
    },
    {
        "title": "贾玲新片大火动了谁的奶酪？人民日报看不下去了，为她发声很解气",
        "docid": "7336411785904243252",
        "url": ""
    },
    {
        "title": "近3年值得二刷的五部武侠剧，《云襄传》排最后，《莲花楼》第二",
        "docid": "7336442987007918629",
        "url": ""
    },
    {
        "title": "贾玲下一部电影即将开机，实力阵容共谱《转念花开》打击传销",
        "docid": "7336414075813233192",
        "url": ""
    },
    {
        "title": "最终票房20亿？事实证明，张艺谋已走上了中国男导演的另一条捷径",
        "docid": "7336449080601772584",
        "url": ""
    },
    {
        "title": "女演员的长相很重要，《热辣滚烫》38岁张小斐演情妇让我觉得惊喜",
        "docid": "7336407366818398731",
        "url": ""
    },
    {
        "title": "33岁湛江演员郑钤丹，灵气消失身材走样，网友：果然是八姑女儿",
        "docid": "7335652693605728795",
        "url": ""
    },
    {
        "title": "孙桂田：我最后悔的一件事，就是花两万六，买了故宫旁边的四合院",
        "docid": "7336408774636552745",
        "url": ""
    },
    {
        "title": "才播4集，收视率破2，稳压《南来北往》，这部央视黑马剧熬夜必追",
        "docid": "7336222513409884681",
        "url": ""
    },
    {
        "title": "《热辣滚烫》掀起减重潮？片中教练表示98%的人做不到",
        "docid": "7336437515358192143",
        "url": ""
    },
    {
        "title": "古三通既会金刚不坏，又会吸功大法，为何输给只会吸功大法的神侯",
        "docid": "7313491734699491866",
        "url": ""
    },
    {
        "title": "因失误造就的经典镜头，佟湘玉频频笑场成经典，周一围随口成热门",
        "docid": "7317944174073184777",
        "url": ""
    },
    {
        "title": "周星驰缺席春节档却成大赢家，至少止损几个亿票房，比刘德华聪明",
        "docid": "7336410396368470578",
        "url": ""
    },
    {
        "title": "关羽、张飞和刘备未学过武功，为何能成一代名将？别被电视剧骗了",
        "docid": "7304951030801351202",
        "url": ""
    },
    {
        "title": "牛掰！这才是今年春节档最佳影片",
        "docid": "7336448539125744165",
        "url": ""
    },
    {
        "title": "贾玲率先破10亿，春节档电影已破30亿，网友：最大赢家竟是魏翔！",
        "docid": "7335373191088439871",
        "url": ""
    },
    {
        "title": "原来才发现这5部欧美剧，才是无法超越的经典，3刷都不过瘾！",
        "docid": "7318359860721566234",
        "url": ""
    },
    {
        "title": "越闹越大，张艺谋刘德华联手打不过熊出没冲上热搜，笑死在评论区",
        "docid": "7335982485882307087",
        "url": ""
    },
    {
        "title": "不是杨康不好，有了包惜弱这样的娘，杨康的人生怎么可能好过？",
        "docid": "7304984522524295714",
        "url": ""
    },
    {
        "title": "《见龙卸甲》，如何用一部电影，黑尽蜀国上下？",
        "docid": "7311980266606854719",
        "url": ""
    },
    {
        "title": "正在热播的五部电视剧，《天启异闻录》排倒数，《繁花》只能第二",
        "docid": "7318722666028859943",
        "url": ""
    },
    {
        "title": "油头粉面就别演穷人，《第二十条》告诉你，穷人应该怎么演",
        "docid": "7336452000437846539",
        "url": ""
    },
    {
        "title": "顶级男神当街裸奔，这也太下血本了",
        "docid": "7336177984744964658",
        "url": ""
    },
    {
        "title": "九品芝麻官：为何常威要杀人全家？原来周星驰的爹才是最坏的人！",
        "docid": "7304586479068873279",
        "url": ""
    },
    {
        "title": "《甄嬛传》:看到祺贵人光脚跑出冷宫，才知甄嬛对她的报复有多狠",
        "docid": "7306807532092228123",
        "url": ""
    },
    {
        "title": "挖到一部生猛好片，少儿不宜，成人必看！",
        "docid": "7325011148212847123",
        "url": ""
    },
    {
        "title": "油头粉面就别演穷人，《第二十条》告诉你，穷人应该怎么演",
        "docid": "7336409105131536930",
        "url": ""
    },
    {
        "title": "再看《康熙王朝》：才知道宝日龙梅草原献身后，守活寡的隐情",
        "docid": "7331005681321230898",
        "url": ""
    },
    {
        "title": "《南来北往》成演技照妖镜，有人惊艳，有人台词说不清、只会皱眉",
        "docid": "7336198744729502248",
        "url": ""
    },
    {
        "title": "《男才女貌》播出20年，以现在的眼光来看，5位女主演谁最好看？",
        "docid": "7319467080607236620",
        "url": ""
    },
    {
        "title": "85版《济公》中的穿帮镜头，实在太离谱了，最后一张让人捧腹大笑",
        "docid": "7302678195676168739",
        "url": ""
    },
    {
        "title": "闹大了，第二十条南京路演王骁被骂上热搜，评论区炸了，影院致歉",
        "docid": "7335717827557179938",
        "url": ""
    },
    {
        "title": "第二十条赵丽颖脸上的性暗示，张艺谋处理过，看懂了后背发凉",
        "docid": "7336451837345759763",
        "url": ""
    },
    {
        "title": "新《射雕》预告：周一围肿了，高伟光更帅了，我被黄药师老婆惊艳",
        "docid": "7335722403567796746",
        "url": ""
    },
    {
        "title": "6天票房没有突破到一亿票，只能无奈宣布退出春节档期。",
        "docid": "7336455592045609506",
        "url": ""
    },
    {
        "title": "同是蒙面，为何中国喜欢蒙下半张脸，而西方喜欢蒙上半张脸，看完涨见识了！",
        "docid": "7312276277032124928",
        "url": ""
    },
    {
        "title": "马丽、高叶对比36岁赵丽颖，老天爷赏饭吃与科班毕业演技一目了然",
        "docid": "7336429323567645218",
        "url": ""
    },
    {
        "title": "《热辣滚烫》彻底引爆春节档！贾玲哭了！热搜第一",
        "docid": "7335672064051610149",
        "url": ""
    },
    {
        "title": "宁浩刘德华《红毯先生》预测票房不到1亿 制作成本2.6亿面临巨亏",
        "docid": "7336368935765443124",
        "url": ""
    },
    {
        "title": "《人民的名义》季昌明的权力有多恐怖？别觉得他只是个小人物",
        "docid": "7336164235371807273",
        "url": ""
    },
    {
        "title": "2023热播的五部高分韩剧，《超异能族》排第二，第一豆瓣高达9.1",
        "docid": "7336449959677526579",
        "url": ""
    },
    {
        "title": "《大宅门》：四个女人四种抱法，难怪只有杨九红叫他“活土匪”！",
        "docid": "7324267048925266483",
        "url": ""
    },
    {
        "title": "南来北往：10年冤案，换回一套二层小洋楼，马魁当真赚了？",
        "docid": "7336369286501499442",
        "url": ""
    },
    {
        "title": "孔笙导演的十部巅峰作品：《大江大河》第七，《父母爱情》第一",
        "docid": "7306686168379245108",
        "url": ""
    },
    {
        "title": "《庆余年2》再引热议，陈道明解锁大宗师造型，张若昀表现太惊喜",
        "docid": "7335656390519685666",
        "url": ""
    },
    {
        "title": "本以为是烂剧，结果却是王炸，《欢乐家长群》治好我的所有不开心",
        "docid": "7331219074523775497",
        "url": ""
    },
    {
        "title": "《热辣滚烫》票房破13亿！杨紫背刺贾玲上热搜，演技炸裂",
        "docid": "7335644105747776012",
        "url": ""
    },
    {
        "title": "才播4集，收视率破2，终于有可以让我熬夜狂追的央视黑马剧了！",
        "docid": "7336448388000547366",
        "url": ""
    },
    {
        "title": "金庸笔下有5大草包，个个都得到了顶尖神功，一到实战却总被欺负",
        "docid": "7326884352447971840",
        "url": ""
    },
    {
        "title": "演员王骁在南京宣传《第二十条》时被赶下台，场面尴尬至极",
        "docid": "7336444413277274687",
        "url": ""
    },
    {
        "title": "同一张脸，演完《莲花楼》又演《南来北往》，她反差太大没认出来",
        "docid": "7336080210061984291",
        "url": ""
    },
    {
        "title": "关晓彤包场请好友看《热辣滚烫》,找贾玲张小斐还钱被拒,理由搞笑",
        "docid": "7336099196208235018",
        "url": ""
    },
    {
        "title": "周星驰和张艺谋这事，证明：靠一部电影，吃一辈子的时代，结束了",
        "docid": "7336416838345441827",
        "url": ""
    },
    {
        "title": "一个角色吃一生的7位演员，有人被骂一辈子，有人在戏里走不出",
        "docid": "7335976156514337318",
        "url": ""
    },
    {
        "title": "《投名状》庞青云快死的时候，为什么对姜午阳说：快，投名状？",
        "docid": "7327867508676100619",
        "url": ""
    },
    {
        "title": "首尔之春，一部只有男人的超大尺度神作！",
        "docid": "7336022458119864847",
        "url": ""
    },
    {
        "title": "好家伙冲着雷佳音去看《第二十条》，却被48岁的男4号所惊艳了",
        "docid": "7336142277896585743",
        "url": ""
    },
    {
        "title": "《热辣滚烫》口碑崩盘！票房连续下跌，圈内人评价太犀利！",
        "docid": "7336466440981824000",
        "url": ""
    },
    {
        "title": "第四部！刚刚，它也宣布退出春节档",
        "docid": "7336460735445172774",
        "url": ""
    },
    {
        "title": "著名导演发话：贾玲的《热辣滚烫》很一般，票房高是春节档的功劳",
        "docid": "7336474447304180274",
        "url": ""
    },
    {
        "title": "《南来北往》五位男主各有收尾，汪新圆满成婚，牛大力喜结良缘",
        "docid": "7336104838877135414",
        "url": ""
    },
    {
        "title": "刘德华也带不动！《红毯先生》宣布撤出春节档",
        "docid": "7336366178946155034",
        "url": ""
    },
    {
        "title": "4天破5亿票房，《第二十条》振聋发聩，雷佳音将成下一个刘德华",
        "docid": "7335639860008993295",
        "url": ""
    },
    {
        "title": "《热辣滚烫》细节太戳心，写妈妈名字，戴妈妈遗物，爸爸也出演了",
        "docid": "7336405545059910163",
        "url": ""
    },
    {
        "title": "为什么雷佳音的这段表演可以封神？因为它踩到了中国人真正的痛点",
        "docid": "7335820782641250853",
        "url": ""
    },
    {
        "title": "第二十条赵丽颖脸上的性暗示，张艺谋处理过，看懂了后背直发凉",
        "docid": "7336491122824921652",
        "url": ""
    },
    {
        "title": "刘德华坐不住了！开始为电影拉票！低声下气求粉丝去观影，好尴尬",
        "docid": "7336435509432123940",
        "url": ""
    },
    {
        "title": "​78.44亿！破纪录了",
        "docid": "7336452446631363122",
        "url": ""
    },
    {
        "title": "看完《新射雕》我整个人凌乱了：周一围黄药师和杨康演技逆天！",
        "docid": "7335145289352823315",
        "url": ""
    },
    {
        "title": "他是现实版古惑仔，60岁浪子回头，蜗居10㎡劏房却比从前更快乐",
        "docid": "7321909446043812406",
        "url": ""
    },
    {
        "title": "感谢贾玲，没有把那场强暴戏翻拍出来，守住了女性宝贵的尊严",
        "docid": "7335761257946989093",
        "url": ""
    },
    {
        "title": "王晶新剧《一舞倾城》，尺度相当大，剧情“三观不正”，被骂惨了",
        "docid": "7336123308423512611",
        "url": ""
    },
    {
        "title": "《权力的游戏》从第一季第一集开始活到第八季最后一集的人都有谁",
        "docid": "7315746767793291817",
        "url": ""
    },
    {
        "title": "“侮辱”智商的台词，简直离谱到家了，导演我求求你多读点书吧",
        "docid": "7320538337847132710",
        "url": ""
    },
    {
        "title": "春节档票房垫底，亏损2亿多，离开了吴京，他成了烂片大王",
        "docid": "7336493300788183567",
        "url": ""
    },
    {
        "title": "《乡村爱情16》王香秀上线，3分钟都是泪点，象牙山四美成工具人",
        "docid": "7334737977782288923",
        "url": ""
    },
    {
        "title": "《热辣滚烫》口碑崩盘！票房连续下跌，圈内人评价太犀利！",
        "docid": "7336455312519545394",
        "url": ""
    },
    {
        "title": "爆火1周后，再看贾玲《热辣滚烫》的“处境”，吴京全说对了",
        "docid": "7336394361950831158",
        "url": ""
    },
    {
        "title": "贾玲是优秀的导演，更是好老板，旗下六位艺人演出《热辣滚烫》",
        "docid": "7336477166819476008",
        "url": ""
    },
    {
        "title": "米老鼠变杀手，第一部米老鼠恐怖电影官宣",
        "docid": "7319401677369508415",
        "url": ""
    },
    {
        "title": "王家卫拍摄《繁花》请了近30位上海演员，但大火的却是一个外地人",
        "docid": "7319805178985710099",
        "url": ""
    },
    {
        "title": "奥运彩排高空跌落因此终生残疾，成张艺谋一生的痛，如今她怎么样",
        "docid": "7336404380885189146",
        "url": ""
    },
    {
        "title": "连刷《飞驰人生2》和《热辣滚烫》，一部超上头，一部昏昏欲睡？",
        "docid": "7336409291680711187",
        "url": ""
    },
    {
        "title": "《西游记》为何不按原著拍？如果按原著拍，你也许一集都看不下去",
        "docid": "7308230890352984603",
        "url": ""
    },
    {
        "title": "笑疯，小沈阳说媳妇客串一下贾玲电影后变了！评论区更是笑不活了",
        "docid": "7336471801565987364",
        "url": ""
    },
    {
        "title": "给春节档“演技最好8位男演员”排个名：张译第五，雷佳音第一",
        "docid": "7336440743076151859",
        "url": ""
    },
    {
        "title": "演完《莲花楼》又演《南来北往》，她角色反差太大没认出来",
        "docid": "7336401889044464165",
        "url": ""
    },
    {
        "title": "女演员的长相很重要，《热辣滚烫》28岁李雪琴演小三，我莫名想笑",
        "docid": "7336495844922786344",
        "url": ""
    },
    {
        "title": "“整容脸”在电视剧里到底有多垮？我要笑死在观众的评论区",
        "docid": "7336411981731840553",
        "url": ""
    },
    {
        "title": "只用了10年时间，人民群众就已经彻底抛弃了烂片",
        "docid": "7336501809496277531",
        "url": ""
    },
    {
        "title": "《热辣滚烫》票房突破21亿却被万人打差评，终于理解吴京这段话了",
        "docid": "7336491704893882899",
        "url": ""
    },
    {
        "title": "还珠格格：小时候以为含香深爱蒙丹才会私奔，长大后发现不是这样",
        "docid": "7314589182972805647",
        "url": ""
    },
    {
        "title": "《第二十条》口碑大爆，躲过了男主雷佳音，却被48岁男四号惊艳了",
        "docid": "7336402718829543988",
        "url": ""
    },
    {
        "title": "全程空洞眼，面无表情，张晚意竟以这种方式给偶像剧演员上了一课",
        "docid": "7316904164738204201",
        "url": ""
    },
    {
        "title": "《热辣滚烫》获差评！票房持续下滑，业内专家批评尖锐！",
        "docid": "7336485670153896502",
        "url": ""
    },
    {
        "title": "闹大了！又有三部电影退出春节档！但我却被评论区网友笑死！",
        "docid": "7336457308815508003",
        "url": ""
    },
    {
        "title": "好看的高分宝藏电视剧推荐～",
        "docid": "7335858491552727562",
        "url": ""
    },
    {
        "title": "《第二十条》火了！人民日报点名表扬！以后，不能再低估张艺谋了",
        "docid": "7336497103126676018",
        "url": ""
    },
    {
        "title": "明明是女配角，名字却比女主还好听，古龙笔下十个好听的女配名字",
        "docid": "7304952692743799335",
        "url": ""
    },
    {
        "title": "24年时间，从3.9到8.1分，《西游记后传》诠释了什么是逆天改命",
        "docid": "7332455099065418291",
        "url": ""
    },
    {
        "title": "佛祖扮演者收到一封尼泊尔信件，信封写着：释加牟尼·朱龙广收，内容：佛祖是尼泊尔人，你该回来了",
        "docid": "7307489156563943988",
        "url": ""
    },
    {
        "title": "五部分级为R的低成本大尺度电影，票房逆袭口碑炸裂",
        "docid": "7336484700036268585",
        "url": ""
    },
    {
        "title": "广西“蛇毒王后”掌握47亿蛇毒，美国人纷纷讨好，最终沦为阶下囚",
        "docid": "7319410382118879778",
        "url": ""
    },
    {
        "title": "《正阳门下》10年演员差距大，男配成一线大腕，苏萌今成带货主播",
        "docid": "7313847489705296411",
        "url": ""
    },
    {
        "title": "成龙对日本有多偏心？在日本首映的电影，与国内版本完全不同",
        "docid": "7303746108281455139",
        "url": ""
    },
    {
        "title": "春节档第一炮灰，它把自己整下架了",
        "docid": "7335676431848571392",
        "url": ""
    },
    {
        "title": "5部荷尔蒙爆棚的高分爱情电影，肾上腺素飙升！",
        "docid": "7327479876993368610",
        "url": ""
    },
    {
        "title": "失去子宫的海藻，跟马克出国，居然是宋思明老早就布下的棋局",
        "docid": "7323989596524741132",
        "url": ""
    },
    {
        "title": "导演你别太离谱！这些“侮辱观众”的剧情，真的是把观众当傻子啊",
        "docid": "7336397082065977894",
        "url": ""
    },
    {
        "title": "阿如那向赵丽颖角色道歉，网友却根本不买账，评论区又解气又好笑",
        "docid": "7336399236541645364",
        "url": ""
    },
    {
        "title": "《热辣滚烫》五天票房20亿 《第二十条》反超《熊出没10》 ！",
        "docid": "7336494350291321384",
        "url": ""
    },
    {
        "title": "殷素素被谢逊轻薄，为何不恨谢逊？金庸借梦姑之口说出了她的本性",
        "docid": "7308669383164412466",
        "url": ""
    },
    {
        "title": "胆小勿进！看了睡不着觉的10部恐怖片，收藏起来慢慢看！",
        "docid": "7336185099169989172",
        "url": ""
    },
    {
        "title": "《热辣滚烫》中38岁的张小斐出演情妇角色，给我带来了惊喜",
        "docid": "7336429833758769683",
        "url": ""
    },
    {
        "title": "闹大了！贾玲回应为什么拍《热辣滚烫》，评论区炸了，央视转发了",
        "docid": "7336158151295435304",
        "url": ""
    },
    {
        "title": "《繁花》结局：直到宝总3000万的资产一夜归0，才知3女人他最爱谁",
        "docid": "7336453790684201511",
        "url": ""
    },
    {
        "title": "离婚3年，再看赵丽颖和冯绍峰的“较量”，发现魔高一尺道高一丈",
        "docid": "7336477558852813312",
        "url": ""
    },
    {
        "title": "仅凭4集，收视率破2，终于有可以让我熬夜狂追的央视黑马剧了！",
        "docid": "7336404291185869339",
        "url": ""
    },
    {
        "title": "《南来北往》∶三位女主，三种结局，最幸福的不是马燕",
        "docid": "7335851613384573478",
        "url": ""
    },
    {
        "title": "2024年度总票房破100亿",
        "docid": "7336094097285022247",
        "url": ""
    },
    {
        "title": "网传这是女版上春山，您怎么看？",
        "docid": "7335703871043469858",
        "url": ""
    },
    {
        "title": "张艺谋的担心是对的！当“整容脸”的风吹进央视，连郑晓龙都翻车",
        "docid": "7336493336699830784",
        "url": ""
    },
    {
        "title": "张艺谋的担心是对的！当“整容脸”的风吹进央视，连郑晓龙都翻车",
        "docid": "7336506180170351141",
        "url": ""
    },
    {
        "title": "周星驰缺席春节档却成大赢家，至少止损几个亿票房，比刘德华聪明",
        "docid": "7336471759627895308",
        "url": ""
    },
    {
        "title": "《烟火人家》开播，女主是马思纯，可网友却被女配吸引了，太甜了",
        "docid": "7336451564812485130",
        "url": ""
    },
    {
        "title": "难怪黄蓉一直想杀杨过，你看她的二胎是为谁而怀，瞬间就明白了",
        "docid": "7312007712626901567",
        "url": ""
    },
    {
        "title": "央视再现“剧王”！仅播2集收视全国第1，《繁花》终于有对手了！",
        "docid": "7334281783939088906",
        "url": ""
    },
    {
        "title": "14部经典宫斗剧，看过10部以上的堪称王者！",
        "docid": "7320913984452887066",
        "url": ""
    },
    {
        "title": "初恋少女“章若楠”主演的6电视剧，你最喜欢哪部？",
        "docid": "7320199458510307879",
        "url": ""
    },
    {
        "title": "《南来北往》：看到沈大夫睡在马魁床上，才知她为何借酒消愁",
        "docid": "7336429502211572276",
        "url": ""
    },
    {
        "title": "影视公司大混战：华策新丽柠萌稳定，正午耀客疲软，欢瑞欢娱挣扎",
        "docid": "7336213396259570215",
        "url": ""
    },
    {
        "title": "没有全裸，却高级诱惑！这部电影里的东京有点冷！",
        "docid": "7335747713797571112",
        "url": ""
    },
    {
        "title": "救命，女神你何必为这种电影脱呢？",
        "docid": "7336401718718284307",
        "url": ""
    },
    {
        "title": "深扒之下，终于知道她的底气从何而来，原来“恶婆婆”只是挡箭牌",
        "docid": "7327492044828787234",
        "url": ""
    },
    {
        "title": "贾玲这波赢麻了！《热辣滚烫》破25亿，穿10万奢牌力压张小斐！",
        "docid": "7336413756165358090",
        "url": ""
    },
    {
        "title": "春节档票房垫底亏损2亿多离开了吴京他成了烂片大王",
        "docid": "7336395470224245263",
        "url": ""
    },
    {
        "title": "才播2集，全国收视第一，网友评价出奇一致，年代剧又要出爆款了",
        "docid": "7335121987611705908",
        "url": ""
    },
    {
        "title": "逆跌3天涨5亿，但凡给张艺谋多点排片，贾玲的春节档冠军就不保了",
        "docid": "7336431527221477914",
        "url": ""
    },
    {
        "title": "《热辣滚烫》口碑崩盘！票房连续下跌，圈内人评价太犀利！",
        "docid": "7336472943242838562",
        "url": ""
    },
    {
        "title": "同一张脸，演完《虎鹤妖师录》再演《一念关山》，差异很明显",
        "docid": "7310929156911923746",
        "url": ""
    },
    {
        "title": "给“年代剧”排座次：《父母爱情》第2，第1名拍出了国人的精气神",
        "docid": "7328738661145625127",
        "url": ""
    },
    {
        "title": "著名导演发话：贾玲的《热辣滚烫》很一般，票房高是春节档的功劳",
        "docid": "7336508259324969472",
        "url": ""
    },
    {
        "title": "春节档总票房破70亿！《热辣滚烫》成龙头赢家？贾玲深夜发文",
        "docid": "7336499824381919778",
        "url": ""
    },
    {
        "title": "同样是演残疾人，看了钟楚曦和任素汐，才知道什么是教科书演技",
        "docid": "7324258166290989604",
        "url": ""
    },
    {
        "title": "这一次，《我们一起摇太阳》无奈退档，揭开了电影圈的“遮羞布”",
        "docid": "7336461466365116955",
        "url": ""
    },
    {
        "title": "《第二十条》口碑大爆，躲过了男主雷佳音，却被48岁男四号惊艳了",
        "docid": "7336485731478684200",
        "url": ""
    },
    {
        "title": "才播4集，收视率破2，终于有可以让我熬夜狂追的央视黑马剧了！",
        "docid": "7336410372733354523",
        "url": ""
    },
    {
        "title": "大唐狄公案：狄仁杰没想到，最危险的敌人一直在身边，曹安藏太深",
        "docid": "7335114409897591330",
        "url": ""
    },
    {
        "title": "《哥斯拉大战金刚2》新预告曝光，《神奇四侠》演员官宣",
        "docid": "7336377751919772197",
        "url": ""
    },
    {
        "title": "张艺谋的担心是对的！当“整容脸”的风吹进央视，连郑晓龙都翻车",
        "docid": "7336495748965515811",
        "url": ""
    },
    {
        "title": "《无所畏惧》一个真实到可怕的电视剧",
        "docid": "7304105771757912591",
        "url": ""
    },
    {
        "title": "《第二十条》火了！人民日报点名表扬！以后不能再低估张艺谋了",
        "docid": "7336482087664615971",
        "url": ""
    },
    {
        "title": "春节档临近尾声，接连三部电影宣布撤档",
        "docid": "7336439429478744630",
        "url": ""
    },
    {
        "title": "《狂飙》：身材火辣的小五永远不知，她给安欣表白的那晚，安欣心里想的竟是她？",
        "docid": "7311886178251178531",
        "url": ""
    },
    {
        "title": "同一张脸，演完《莲花楼》又演《南来北往》，她反差太大没认出来",
        "docid": "7336472355440591386",
        "url": ""
    },
    {
        "title": "张艺谋赌对了，《第二十条》票房12亿持续逆跌，低开高走口碑很稳",
        "docid": "7336491166651023872",
        "url": ""
    },
    {
        "title": "太突然！豆瓣7.9分，这部电影宣布退出春节档！",
        "docid": "7336401516452168230",
        "url": ""
    },
    {
        "title": "超181亿！中国影史票房最高女演员，是她！",
        "docid": "7336390970931495464",
        "url": ""
    },
    {
        "title": "《红毯先生》濒临票房灾难，宁浩刘德华如何自救？",
        "docid": "7335804478559830555",
        "url": ""
    },
    {
        "title": "平凡的世界里的8个女人，哪个才是你心中的意难平？",
        "docid": "7324261820356133385",
        "url": ""
    },
    {
        "title": "《第二十条》口碑大爆，躲过了男主雷佳音，却被48岁男四号惊艳了",
        "docid": "7335753466075660837",
        "url": ""
    },
    {
        "title": "第二十条赵丽颖脸上的性暗示，张艺谋处理过，看懂了后背发凉",
        "docid": "7336460420309418507",
        "url": ""
    },
    {
        "title": "明星们以假乱真的“替身”，导演看了都要愣三秒，这是玩连连看啊",
        "docid": "7320067295588844072",
        "url": ""
    },
    {
        "title": "曾经香港黑帮势力猖獗，为何1997年香港回归祖国后销声匿迹了？",
        "docid": "7311201720049189410",
        "url": ""
    }
]