[
    {
        "title": "黑熊到底有多可怕？老猎人40年前的一段经历，让人后背发凉",
        "docid": "7294252942918910501",
        "url": ""
    },
    {
        "title": "明天冷空气“魔法攻击”，冻到骨髓，雨雪卷土重来，到上海的会是雪还是雨？",
        "docid": "7313561893292278284",
        "url": ""
    },
    {
        "title": "辽宁冻出新高度：2011年以来最冷，快来看怎么变成冰雕！",
        "docid": "7313538276580180520",
        "url": ""
    },
    {
        "title": "已知地球上最强的酸，玻璃容器装不了它，它的破坏力到底有多强？",
        "docid": "7311221140746912268",
        "url": ""
    },
    {
        "title": "大连蛇岛疯狂“内卷”，一平方公里2万多条蛇，毒性也越来越强",
        "docid": "7282332396194775588",
        "url": ""
    },
    {
        "title": "零下8℃！广西多地出现雨夹雪、冻雨、冰冻和道路结冰……",
        "docid": "7313460006174228992",
        "url": ""
    },
    {
        "title": "零下30℃的人类禁区可可西里，却成毒蛇天堂，这3个地方咋也有蛇",
        "docid": "7294577051506786825",
        "url": ""
    },
    {
        "title": "你不知道的冷知识——巴林篇",
        "docid": "7282549800363639315",
        "url": ""
    },
    {
        "title": "神秘“黄虎”现身甘肃林区，体长超1.2米，号称“林中战神”",
        "docid": "7287158849184809506",
        "url": ""
    },
    {
        "title": "地球的水用了40多亿年，有没有变少？一块石头告诉了科学家答案",
        "docid": "7287106842948289059",
        "url": ""
    },
    {
        "title": "广州气温过山车！明暖后天冻，新冷空气来“添料”！",
        "docid": "7313553709278134819",
        "url": ""
    },
    {
        "title": "广州新增一家动物伤害分会会员单位！第五届“动物致伤防治学术年会”在穗举办",
        "docid": "7313558281602515482",
        "url": ""
    },
    {
        "title": "光年其实还不是宇宙中最大的长度单位，在它面前光年就是弟弟",
        "docid": "7297591957948498444",
        "url": ""
    },
    {
        "title": "许智宏院士的转基因解析：科学家揭秘食品背后的奇迹！",
        "docid": "7300490753976320550",
        "url": ""
    },
    {
        "title": "一财社论：全球最庞大科技人力投入应创造更大发展动能",
        "docid": "7313557209269436969",
        "url": ""
    },
    {
        "title": "生命为何如此不同？",
        "docid": "7304813478660162084",
        "url": ""
    },
    {
        "title": "核心期刊检索证明在哪里开",
        "docid": "7313442845074080294",
        "url": ""
    },
    {
        "title": "运20降落时机翼“剧烈抖动”，尾翼也在抖，难道是运20不结实吗？",
        "docid": "7307288115222413864",
        "url": ""
    },
    {
        "title": "世界10大山脉排行榜，中国有3座山脉上榜，最长山脉8900公里",
        "docid": "7299721828305076776",
        "url": ""
    },
    {
        "title": "偏僻的太阳系都有文明，那在银河系中心区域，会不会文明繁茂？",
        "docid": "7290885677696074297",
        "url": ""
    },
    {
        "title": "\"央视最不靠谱的人\"：主持天气预报近30年的他，其实是个\"临时工\"",
        "docid": "7293733170389434934",
        "url": ""
    },
    {
        "title": "漠河的冷你绝对想不出，看看漠河出门穿衣流程就知道了",
        "docid": "7312476069796463145",
        "url": ""
    },
    {
        "title": "警惕！一氧化碳中毒高发！",
        "docid": "7313493265012212233",
        "url": ""
    },
    {
        "title": "院士袁亚湘：大多数数据没有被有效利用",
        "docid": "7313559636056179252",
        "url": ""
    },
    {
        "title": "紧急通知！暴跌近20℃！河南：持续低温，或将迎来新降雪！",
        "docid": "7313532006468747786",
        "url": ""
    },
    {
        "title": "深度科普：自然常数e，到底和“自然”有什么联系？",
        "docid": "7295278626415624767",
        "url": ""
    },
    {
        "title": "原子弹爆炸的秘密产物：一种罕见的准晶",
        "docid": "7303756535228858895",
        "url": ""
    },
    {
        "title": "下一个超大陆的形成，将带来毁灭性的结果！",
        "docid": "7286713319229162039",
        "url": ""
    },
    {
        "title": "全球首条1.2T超高速下一代互联网主干通路在我国面世",
        "docid": "7312732999169212968",
        "url": ""
    },
    {
        "title": "菲利华超低膨胀石英玻璃材料打破国外垄断",
        "docid": "7313474703296021031",
        "url": ""
    },
    {
        "title": "人的寿命一出生就决定了？研究表明：你能活多久由基因遗传决定",
        "docid": "7291231587734503977",
        "url": ""
    },
    {
        "title": "暴雪大雨已确定，大暴雪来临，分布下列地区",
        "docid": "7313044172670419456",
        "url": ""
    },
    {
        "title": "从家常海鲜，到神秘鱼类，为什么买鲳鱼就像买彩票一样？",
        "docid": "7304176776228815370",
        "url": ""
    },
    {
        "title": "江苏，苏大强的高光",
        "docid": "7313583245881360932",
        "url": ""
    },
    {
        "title": "中国造世界最大推土机，连几千米高山都能推平，到底有多牛？",
        "docid": "7313417662011392562",
        "url": ""
    },
    {
        "title": "国内首例！山上长出“八条腿”",
        "docid": "7313369954215445043",
        "url": ""
    },
    {
        "title": "我国在陆续开挖运河，轮船速度慢，为何还要发展运河船运？",
        "docid": "7312961210008322575",
        "url": ""
    },
    {
        "title": "河南：2023年12月17-18日天气预报局:将冷到突破同期历史极值！",
        "docid": "7313463543746658850",
        "url": ""
    },
    {
        "title": "比人类要强大，寿命超百万年，硅基生命可能一直生存在宇宙中？",
        "docid": "7282702264844796479",
        "url": ""
    },
    {
        "title": "世界上最冷的三个首都城市",
        "docid": "7312085175708713512",
        "url": ""
    },
    {
        "title": "我国著名高分子材料领域专家周光远逝世，享年51岁",
        "docid": "7313598977461502503",
        "url": ""
    },
    {
        "title": "涨见识了！你的姓氏起源于哪个世家？我是东海世家，你呢？",
        "docid": "7313581055267815987",
        "url": ""
    },
    {
        "title": "苍蝇的一生看人生的意义",
        "docid": "7313457223207158323",
        "url": ""
    },
    {
        "title": "秦岭到底有多重要？地理上是南北分界线，文化上是华夏龙脉",
        "docid": "7291243032001675834",
        "url": ""
    },
    {
        "title": "厉害！嘉定企业捧回行业“奥斯卡”",
        "docid": "7313509164902007346",
        "url": ""
    },
    {
        "title": "陈冲老妈的一生，比陈冲还要风光无限！",
        "docid": "7281680994921366016",
        "url": ""
    },
    {
        "title": "世界最深、最大的极深地下实验室，正式投入运行",
        "docid": "7313430303056888330",
        "url": ""
    },
    {
        "title": "仅厚0.015毫米！用手一撕就会破的钢铁，为何能当飞机的保命符？",
        "docid": "7296752006046237223",
        "url": ""
    },
    {
        "title": "全法中国科技工作者协会理事长丁力：将在重庆设工作站推动科技创新国际合作",
        "docid": "7313398099484525066",
        "url": ""
    },
    {
        "title": "为什么说勒拿河是中俄北部疆域最佳边界？",
        "docid": "7310074110845960742",
        "url": ""
    },
    {
        "title": "河南：紧急通知！大范围的大雪或大暴雪继续！降温或达史诗级？",
        "docid": "7313475936933298725",
        "url": ""
    },
    {
        "title": "5种最脏的鱼，里面含有大量寄生虫和重金属，很多人还天天买着吃",
        "docid": "7295631987576963599",
        "url": ""
    },
    {
        "title": "我国狂犬病发病例数呈下降趋势",
        "docid": "7313533828289741349",
        "url": ""
    },
    {
        "title": "组建第五大航司：巨头角力！",
        "docid": "7311253429534425615",
        "url": ""
    },
    {
        "title": "如何保护生物多样性？探索南岭山脉宝库",
        "docid": "7313566990042481171",
        "url": ""
    },
    {
        "title": "全球最大沥青湖：天然沥青储量超1000万吨，开采200年也不会见底",
        "docid": "7313085113376490019",
        "url": ""
    },
    {
        "title": "新舟700实际上可能已经停产",
        "docid": "7283015397518082623",
        "url": ""
    },
    {
        "title": "财经早参 | 科威特埃米尔纳瓦夫逝世；账户被OpenAI封禁？字节跳动发声；以军承认“误杀”",
        "docid": "7313344360328856118",
        "url": ""
    },
    {
        "title": "四川臭猪肉：将猪肉悬挂起来慢慢腌制，用来招待远道而来的贵宾",
        "docid": "7280486888287928886",
        "url": ""
    },
    {
        "title": "真实版幽灵航班，马航MH370上到底发生了什么？详解事故全程",
        "docid": "7310492933671633420",
        "url": ""
    },
    {
        "title": "英国的天才叫牛顿，德国的天才叫爱因斯坦，中国的天才叫啥？",
        "docid": "7310109622868754983",
        "url": ""
    },
    {
        "title": "寒潮来袭，看动物如何在长隆“花式过冬”",
        "docid": "7313560957882892812",
        "url": ""
    },
    {
        "title": "大规模研究发现新冠感染后心律紊乱风险陡增",
        "docid": "7313432537060295195",
        "url": ""
    },
    {
        "title": "鲇鱼可以吃吗？是“垃圾鱼”吗？答案来了→",
        "docid": "7299632116025967119",
        "url": ""
    },
    {
        "title": "长相与年龄不符意味着什么？",
        "docid": "7296044980484227610",
        "url": ""
    },
    {
        "title": "生病时为什么嘴里发苦？这是免疫系统为你战斗过的痕迹",
        "docid": "7312698316008210955",
        "url": ""
    },
    {
        "title": "最新版坐火车携带品注意事项清单，出发前一定要看",
        "docid": "7282376492759106084",
        "url": ""
    },
    {
        "title": "1年吃掉3000只蚊子，8年才能长大，如今却被做成美食端上餐桌！",
        "docid": "7306428102358745650",
        "url": ""
    },
    {
        "title": "把杨利伟送上天之前；成功的把握到底有多大？是谁签字确认发射的",
        "docid": "7293080387096445474",
        "url": ""
    },
    {
        "title": "西藏罕见的“黄金神兽”，体重超过1600斤，雪豹见了也要绕道走！",
        "docid": "7286327488450658851",
        "url": ""
    },
    {
        "title": "战斗力很强的斑鬣狗，为何会被非洲人强制街头卖艺，不服打到服？",
        "docid": "7299077791042454067",
        "url": ""
    },
    {
        "title": "特殊符号冷知识：“&”表示“锁死” 原来标点符号还有这么多讲究",
        "docid": "7310791197432447542",
        "url": ""
    },
    {
        "title": "寒潮来袭，每年的“好天气”不到1/3",
        "docid": "7313547666884329999",
        "url": ""
    },
    {
        "title": "巨大范围偏冷区出现，今年冬天还是暖冬吗？权威预报：颜色不够用",
        "docid": "7313398153674244619",
        "url": ""
    },
    {
        "title": "埃及、以色列等国都想要的7万平方公里“大盆”，装有石油2亿吨？",
        "docid": "7290380423509672484",
        "url": ""
    },
    {
        "title": "中国高铁离不开日本螺母？日本永不松动的螺母，到底有啥玄机？",
        "docid": "7288987357737615872",
        "url": ""
    },
    {
        "title": "喀喇昆仑山脉：世界山岳冰川分布最多的山脉，可惜中国仅占小部分",
        "docid": "7312512558366229030",
        "url": ""
    },
    {
        "title": "你不知道的冷知识——阿富汗篇",
        "docid": "7281195346275877417",
        "url": ""
    },
    {
        "title": "为什么喜鹊窝不怕雨雪？外部粗糙简陋，内部却暗含“高科技”！",
        "docid": "7299042403749577257",
        "url": ""
    },
    {
        "title": "赶紧自查！你家的液化气罐减压阀，安全吗？",
        "docid": "7304097314547778075",
        "url": ""
    },
    {
        "title": "小脚趾指甲分成两瓣的人，到底什么来历？是纯种汉族人的证明吗？",
        "docid": "7295654089130590731",
        "url": ""
    },
    {
        "title": "吴尊友逝世,来日并不方长，珍惜现在",
        "docid": "7294587380026114612",
        "url": ""
    },
    {
        "title": "世界飞地的五个之最，你知道多少呢？",
        "docid": "7282219691102487103",
        "url": ""
    },
    {
        "title": "德国第三轮技术预测研究及启示",
        "docid": "7313553102081409574",
        "url": ""
    },
    {
        "title": "惊人的磁场定律：你是谁，就会遇见谁",
        "docid": "7287020887491019279",
        "url": ""
    },
    {
        "title": "世说新语｜三百万捐款背后的“精神富矿”",
        "docid": "7312617791864308251",
        "url": ""
    },
    {
        "title": "横贯神州大地的三条神奇的分界线",
        "docid": "7291657503178736139",
        "url": ""
    },
    {
        "title": "晚点周末丨贾雷德·戴蒙德与他的十万个为什么",
        "docid": "7313535668997931529",
        "url": ""
    },
    {
        "title": "我国最罕见的机型：只有一架！",
        "docid": "7286110681471009339",
        "url": ""
    },
    {
        "title": "旅行者号的遭遇表明，人类无法离开太阳系，即使光速也不行",
        "docid": "7297445149242786340",
        "url": ""
    },
    {
        "title": "环球国家地理091之非洲-马拉维共和国",
        "docid": "7311901734564299314",
        "url": ""
    },
    {
        "title": "女生打喷嚏真的会漏尿嘛？",
        "docid": "7313564863774327315",
        "url": ""
    },
    {
        "title": "捕蛇人为何说五步蛇不能抓头？毒性如此猛烈，被咬后如何自救呢？",
        "docid": "7289005521116791359",
        "url": ""
    },
    {
        "title": "郑州暴雪预报之谜：天气预报为何不准确？",
        "docid": "7312386945697727011",
        "url": ""
    },
    {
        "title": "“新北极”正在形成？联合国秘书长警告：“气候崩溃已经开始”",
        "docid": "7313586624049889827",
        "url": ""
    },
    {
        "title": "长江中钓起罕见“虎纹鱼”，没人认识品种，有专家告诫赶紧放生？",
        "docid": "7290473935513485880",
        "url": ""
    },
    {
        "title": "中吉乌铁路：想薅中国羊毛？极限拉扯26年的背后藏着什么地缘之争",
        "docid": "7286479768559059471",
        "url": ""
    },
    {
        "title": "菰米：被列为“六谷”之一，与稷、麦、黍、稻并立",
        "docid": "7280836505709724200",
        "url": ""
    },
    {
        "title": "黄河最大水电站正式运营，为何大坝修成弯的，而有的大坝是直的？",
        "docid": "7280571599458173474",
        "url": ""
    },
    {
        "title": "中国红旗河：西部的“长江经济”！",
        "docid": "7295936791603855909",
        "url": ""
    },
    {
        "title": "中国的66个世界之最（文化、历史、地理）",
        "docid": "7286415455554896423",
        "url": ""
    },
    {
        "title": "威海雪王降临！6℃冻得连北极熊都想搬家了！",
        "docid": "7313571714657468980",
        "url": ""
    },
    {
        "title": "气温↓↓↓！如何正确使用各种取暖设备？看完这篇就够了！",
        "docid": "7313598985590522408",
        "url": ""
    },
    {
        "title": "山东蛇王7年抓400条蛇，8岁起就抓蛇，如今怎么样了？",
        "docid": "7311611819301667340",
        "url": ""
    },
    {
        "title": "古代穷人没有被子，寒冷的冬季是如何度过的？",
        "docid": "7313652879276130816",
        "url": ""
    },
    {
        "title": "辽宁冷到冻哭！中东部最冷天：刷新2011年纪录，你家供暖跟上没？",
        "docid": "7313537017797886504",
        "url": ""
    },
    {
        "title": "他曾是浙江省省长，退休后却在博物馆做义工。",
        "docid": "7303852140735431187",
        "url": ""
    },
    {
        "title": "防止大船撞大桥，长江第一桥有何“神器”？",
        "docid": "7313576789560214035",
        "url": ""
    },
    {
        "title": "“学中玩，玩中学”，学出旷世通才，玩成世界大师",
        "docid": "7303772563841876520",
        "url": ""
    },
    {
        "title": "电饭锅危害有哪些？科普四大风险隐患",
        "docid": "7306099330962965055",
        "url": ""
    },
    {
        "title": "云南文山广南发现中国新记录物种下龙榕",
        "docid": "7312807203374400063",
        "url": ""
    },
    {
        "title": "保护野生原鸡，我们共同的责任",
        "docid": "7312662043998421530",
        "url": ""
    },
    {
        "title": "最痛的植物：一位军人解手用它擦屁股，结果无法忍受疼痛开枪自杀",
        "docid": "7292311898392003091",
        "url": ""
    },
    {
        "title": "逛故宫，也是在逛动物园！",
        "docid": "7299306434125906473",
        "url": ""
    },
    {
        "title": "烧了上百亿，点火遥无期：聚变也许已经走进死胡同",
        "docid": "7293462427080327720",
        "url": ""
    },
    {
        "title": "全球重要物种之一——勺鸡的生活习性介绍与保护现状",
        "docid": "7312663355121173002",
        "url": ""
    },
    {
        "title": "嘉兴学院获批浙江省自然科学基金重大项目",
        "docid": "7313030976522387978",
        "url": ""
    },
    {
        "title": "航天员桂海潮的妻子刘冰玉，温文尔雅，容颜靓丽，知名副教授",
        "docid": "7294573704838234662",
        "url": ""
    },
    {
        "title": "进击的生物制造公司：攻克核心技术 加快创新成果转化",
        "docid": "7313613207690986021",
        "url": ""
    },
    {
        "title": "一吨原油，能提炼出多少汽油和柴油？又是如何提炼的？",
        "docid": "7294933377298416143",
        "url": ""
    },
    {
        "title": "C919 & ARJ21",
        "docid": "7312851188117111330",
        "url": ""
    },
    {
        "title": "长2米重217斤，仅存3只雄性找不到老婆，上古神兽被吃到灭绝？",
        "docid": "7299013958156026418",
        "url": ""
    },
    {
        "title": "土星环宽度长达20万千米，厚度仅30米，它究竟是如何形成的？",
        "docid": "7290045707925832192",
        "url": ""
    },
    {
        "title": "为什么苏联飞机的驾驶舱总是蓝绿色的？",
        "docid": "7306701912697831973",
        "url": ""
    },
    {
        "title": "我国首批航天员中，只有他不是少将军衔！",
        "docid": "7285736938823287330",
        "url": ""
    },
    {
        "title": "思特威荣获“年度优秀创新产品奖”",
        "docid": "7313506511245148708",
        "url": ""
    },
    {
        "title": "斯里兰卡自然地理简介",
        "docid": "7289403614001742351",
        "url": ""
    },
    {
        "title": "哈尔滨市区新建的动物园面积有多大呢？原来只有这么大！",
        "docid": "7282640515923837492",
        "url": ""
    },
    {
        "title": "四川阆中古城机场正式通航 首日直通北上广",
        "docid": "7313414490283098650",
        "url": ""
    },
    {
        "title": "农村正在消失的“四大野味”，被吃成“保护动物”，有的消失不见",
        "docid": "7287529601163657740",
        "url": ""
    },
    {
        "title": "破壁机有什么危害？四大副作用重灾区必须谨慎",
        "docid": "7312790712461230643",
        "url": ""
    },
    {
        "title": "燃气表上的数字怎么看？燃气表数怎么读取？",
        "docid": "7293364710534152738",
        "url": ""
    },
    {
        "title": "被西方推崇的火鸡，为何在中国却无人问津？连养的人都很少？",
        "docid": "7287549517958939195",
        "url": ""
    },
    {
        "title": "做工程，牢记土石方常用数据！成本把控尤其第4条！",
        "docid": "7293071468307808809",
        "url": ""
    },
    {
        "title": "北京冻成狗啦！连续一周，温度低至冰点以下，快来围观如何抗寒！",
        "docid": "7313566110191288884",
        "url": ""
    },
    {
        "title": "生态巨擘——鹰，如何在艰难环境中求生？",
        "docid": "7311984003479781927",
        "url": ""
    },
    {
        "title": "东北傻狍子有多傻？傻到这份上都没灭绝，为什么遇到人类就怂了？",
        "docid": "7295715342981513763",
        "url": ""
    },
    {
        "title": "钍熔盐堆的优点很多，10年内可用在航母与核潜艇上？",
        "docid": "7312467525940625960",
        "url": ""
    },
    {
        "title": "越南升级万安滩、李准滩等14座高脚平台，但其企图终将失败",
        "docid": "7287375706668515901",
        "url": ""
    },
    {
        "title": "从哪可以找到国内的高清卫星地图",
        "docid": "7294464225983119884",
        "url": ""
    },
    {
        "title": "一加一不等于二？一斤盐放入一斤水中，为何得不到两斤的盐水？",
        "docid": "7306831981688767003",
        "url": ""
    },
    {
        "title": "上厕所时一个动作，相当于在吃屎！不是玩手机，很多人不知不觉中做了，太恶心了",
        "docid": "7303452545555661327",
        "url": ""
    },
    {
        "title": "因“姿态绝美”走红的树，一棵树就是一幅画，年年成热门打卡景点",
        "docid": "7305701734968869395",
        "url": ""
    },
    {
        "title": "塔里木盆地：中国最大的内陆盆地，地上是沙漠，地下是百亿吨油气",
        "docid": "7309764569101730314",
        "url": ""
    },
    {
        "title": "三角形具有稳定性，那为啥我们几乎看不到三条腿的动物？| No.378",
        "docid": "7286712130332623420",
        "url": ""
    },
    {
        "title": "“宝塔糖”曾经风靡全国，最后却突然就消失了，究竟发生了什么？",
        "docid": "7284833608177648128",
        "url": ""
    },
    {
        "title": "肉眼难觅的“致命杀手”——香蕉穿孔线虫",
        "docid": "7282965573057872418",
        "url": ""
    },
    {
        "title": "七弯八拐，丑但是很美味，这种儿时的味道你们那里叫什么?",
        "docid": "7304579848394080768",
        "url": ""
    },
    {
        "title": "考古专家：中国大陆架考古内涵丰富蕴藏巨大研究潜力",
        "docid": "7313487260895461929",
        "url": ""
    },
    {
        "title": "郧阳区特级保护800年猕猴桃古藤",
        "docid": "7313537077931508278",
        "url": ""
    },
    {
        "title": "重磅！国家科学技术奖，来了！",
        "docid": "7311623371584864806",
        "url": ""
    },
    {
        "title": "第四次能源革命来了？我国超级芦竹面世，或可替代化石能源！",
        "docid": "7313525898992026152",
        "url": ""
    },
    {
        "title": "关于D字头的动卧的吐槽",
        "docid": "7282592145226088996",
        "url": ""
    },
    {
        "title": "为了提炼黄金，他煮沸了5000升尿液，意外获得了造福人类的新元素",
        "docid": "7288538819677618723",
        "url": ""
    },
    {
        "title": "地铁隧道挖那么深，为啥不见泥土运出来？挖出来的土都去哪了？",
        "docid": "7300871996722774547",
        "url": ""
    },
    {
        "title": "为啥没有诺贝尔数学奖：因为诺贝尔的妻子被数学家拐跑了？",
        "docid": "7286350301777658423",
        "url": ""
    },
    {
        "title": "祝贺“谷电通相变蓄冷系统”通过中国船级社权威检测认证",
        "docid": "7313424324747067958",
        "url": ""
    },
    {
        "title": "55米厚的煤层开采了118年，中国第一露天煤矿，现在成什么样了？",
        "docid": "7293420525378880050",
        "url": ""
    },
    {
        "title": "世界九大名草",
        "docid": "7276023643833008696",
        "url": ""
    },
    {
        "title": "13公里隧道修了14年！隧道变成水帘洞，多少中国工程师青丝变白发",
        "docid": "7290847088576037434",
        "url": ""
    },
    {
        "title": "《普罗米修斯》工程师的3个品种，他们之间到底有什么区别？",
        "docid": "7284110162476941864",
        "url": ""
    },
    {
        "title": "如果给你5厘米，长在哪里最划算？",
        "docid": "7290548465179673147",
        "url": ""
    },
    {
        "title": "钱学森夫人蒋英去世前对孩子说：我该去陪你父亲了，他在那里很孤独",
        "docid": "7298159681611153920",
        "url": ""
    },
    {
        "title": "冒犯众神会有什么后果，《普罗米修斯》工程师为何想消灭人类？",
        "docid": "7285609069451575871",
        "url": ""
    },
    {
        "title": "研究表明：人死后仅需这么几年，就会被忘得一干二净，太扎心",
        "docid": "7303061126093832730",
        "url": ""
    },
    {
        "title": "“卫星锅”为何会被禁用？它到底能看见啥？看完就明白了！",
        "docid": "7307194855740932627",
        "url": ""
    },
    {
        "title": "伊犁河谷，对中国来说意味着什么？不只是战略意义",
        "docid": "7300838506044228148",
        "url": ""
    },
    {
        "title": "一个手持铁棍的成年男性，能否斗过一只狼？",
        "docid": "7296748411829715491",
        "url": ""
    },
    {
        "title": "华为高管魏延政：年薪百万，41岁因癌症去世，临终留给儿子三句话",
        "docid": "7291181072321085987",
        "url": ""
    },
    {
        "title": "中国第一个将消失的沙漠：面积比海南岛还要大，80％沙漠已成绿洲",
        "docid": "7303491040081084939",
        "url": ""
    },
    {
        "title": "有哪些惊为天人的logo设计，这些真的经典",
        "docid": "7301575638752821795",
        "url": ""
    },
    {
        "title": "眼见为实！31张震撼的对比图",
        "docid": "7284589121744519680",
        "url": ""
    },
    {
        "title": "有网友告诉我，《矩阵》到底讲的什么，学会这些就明白了！",
        "docid": "7312978504520368655",
        "url": ""
    },
    {
        "title": "当年施一公砸200亿打造西湖大学，扬言5年内超过清华，结果怎样了",
        "docid": "7309755849571254818",
        "url": ""
    },
    {
        "title": "一斗穷，二斗富可信吗？中科院揭开“斗”和“簸箕”的基因奥秘",
        "docid": "7284138037049967123",
        "url": ""
    },
    {
        "title": "“全能天才”王昱珩：清华毕业后不上班，他把所有吹的牛都实现了",
        "docid": "7300835811107717684",
        "url": ""
    },
    {
        "title": "全国最没存在感的 10 大省份",
        "docid": "7282180815193113147",
        "url": ""
    },
    {
        "title": "《普罗米修斯》工程师创造生命之谜，他们到底喝了什么东西？",
        "docid": "7280504560873914932",
        "url": ""
    },
    {
        "title": "成年人手持匕首，能否打得过一只斑鬣狗？看完之后你有把握吗？",
        "docid": "7308673583332033076",
        "url": ""
    },
    {
        "title": "“温泉鱼”有多恐怖? 吃脚皮只是在麻痹你，整条鱼进去只剩骨架",
        "docid": "7301971064043749942",
        "url": ""
    },
    {
        "title": "为何古人吃完饭放下碎银子就走，店小二却从不清点，也不阻拦呢",
        "docid": "7304456141717930523",
        "url": ""
    },
    {
        "title": "曹原在美国任教一事，疼但不需要回避，我们基础科研太软且地位低",
        "docid": "7306341064708014631",
        "url": ""
    },
    {
        "title": "去酒店开房，除了自己，还有多少人能看到记录？",
        "docid": "7289006730099524132",
        "url": ""
    },
    {
        "title": "自然界动物的寿命，看完涨知识了！",
        "docid": "7313101497531810304",
        "url": ""
    },
    {
        "title": "人类那些刻在DNA里的恐惧经验",
        "docid": "7286243267304243769",
        "url": ""
    },
    {
        "title": "人类研究蚊子上百年，只为做一根无痛针头？",
        "docid": "7286454551102620200",
        "url": ""
    },
    {
        "title": "苏联的三进制电脑，为什么被二进制干掉了？核心在于思路走窄了",
        "docid": "7307903651173974538",
        "url": ""
    },
    {
        "title": "为什么没有鸡绒羽绒服？",
        "docid": "7313241875933168169",
        "url": ""
    },
    {
        "title": "晒被子后有“太阳味”？科学家：不是螨虫烤焦了，而是因为这个",
        "docid": "7297184506573455911",
        "url": ""
    },
    {
        "title": "八路军帽子上“两粒扣”，不仅是装饰，其他几项功能才是真的实用",
        "docid": "7290793572406723106",
        "url": ""
    },
    {
        "title": "神秘的“熬鹰术”有多残忍？一人一鹰7天不合眼，只为将金雕驯化",
        "docid": "7301600328317862452",
        "url": ""
    },
    {
        "title": "婴儿哭声那么大，在原始森林不会引来野兽吗？网友分析把我看呆了",
        "docid": "7302817792125059610",
        "url": ""
    },
    {
        "title": "卫生间里的小飞虫是啥？能在人脸上产卵长蛆，碰见赶紧消灭",
        "docid": "7287157820452028982",
        "url": ""
    },
    {
        "title": "世界上咬合力前10动物排名，萌兽大熊猫上榜，第一名咬合力2.5吨",
        "docid": "7290750692540170815",
        "url": ""
    },
    {
        "title": "最新研究！生两个孩子最有利于长寿",
        "docid": "7311546906403291663",
        "url": ""
    },
    {
        "title": "菜花蛇为何是百蛇之王？毒蛇为何会怕它，菜花蛇到底哪厉害了？",
        "docid": "7301625431394943488",
        "url": ""
    },
    {
        "title": "顶级捕食者的晚年有多凄惨？为啥只有饿死的狮子，没有饿死的老虎",
        "docid": "7298638561887486491",
        "url": ""
    },
    {
        "title": "藏在中草药里的绝美名字",
        "docid": "7281250268195373627",
        "url": ""
    },
    {
        "title": "人类的胃酸强度接近食腐动物，却连生肉都不敢吃，为什么？",
        "docid": "7282599382552298042",
        "url": ""
    },
    {
        "title": "戴景瑞院士力挺转基因食物：安全可靠，自己一直都在吃",
        "docid": "7299797676412060201",
        "url": ""
    },
    {
        "title": "我国十大河流排行",
        "docid": "7313058211471589923",
        "url": ""
    },
    {
        "title": "一立方等于多少吨？今天才知道，看完长知识，记得给孩子保存",
        "docid": "7308554514125177398",
        "url": ""
    },
    {
        "title": "周末今晨发生了什么？ |YiMagazine",
        "docid": "7313739840808665650",
        "url": ""
    },
    {
        "title": "根据能量守恒：中国电网每天发那么多电，用不完的电到哪去了？",
        "docid": "7299355650335949324",
        "url": ""
    },
    {
        "title": "不经意间瘦下来的6个冷知识！",
        "docid": "7302580140901417507",
        "url": ""
    },
    {
        "title": "网友们一不小心发现的30个神奇物品！这运气简直爆炸啊",
        "docid": "7291582200125063692",
        "url": ""
    },
    {
        "title": "中国为什么没取消绿皮火车？是为了谁而保留，原来因为这些人！",
        "docid": "7297883794562892327",
        "url": ""
    },
    {
        "title": "灵长类标配“阴茎骨”，为何进化到人类就消失了？进步还是退步？",
        "docid": "7304965298539741732",
        "url": ""
    },
    {
        "title": "铅酸蓄电池选用正确的充电方法 使用寿命翻一番",
        "docid": "7296328581465571881",
        "url": ""
    },
    {
        "title": "你知道常见螃蟹的种类和营养价值吗？",
        "docid": "7284256171974754850",
        "url": ""
    },
    {
        "title": "今天才知道，身份证后4位原来是这意思，好多人还不知道，涨知识",
        "docid": "7283081800367292989",
        "url": ""
    },
    {
        "title": "冷知识+1：你冬天盖被子的顺序，可能一直是错的",
        "docid": "7298358458473726515",
        "url": ""
    },
    {
        "title": "靠撒娇爆火的可可西里网红狼，早已胖出天际，蛋黄派就这么好吃？",
        "docid": "7302004400644801064",
        "url": ""
    },
    {
        "title": "咬完耳朵还要到处说，网友说“山上的笋都被七仔夺完了”",
        "docid": "7310570818294252051",
        "url": ""
    },
    {
        "title": "为了研究性行为，奇葩科学家做过哪些实验？性学如何发展启蒙？",
        "docid": "7290916413269721656",
        "url": ""
    },
    {
        "title": "为啥有时头上会长出一根又黑又粗的头发，还特别扭曲？",
        "docid": "7311220501123170855",
        "url": ""
    },
    {
        "title": "被称为“死亡之树”，不能碰不能砍也不能烧，专家也拿它没有办法",
        "docid": "7283759443391857152",
        "url": ""
    },
    {
        "title": "人死后真的还有痛觉？遗体器官捐献要用麻药，还真不是小题大做",
        "docid": "7287063011695837696",
        "url": ""
    },
    {
        "title": "为什么一般人接不到诈骗电话？是因为太穷不值得骗子浪费时间吗？",
        "docid": "7293481901359710757",
        "url": ""
    },
    {
        "title": "伊犁河最大的鲶鱼能长到2米多130多公斤，也是属于引进鱼种",
        "docid": "7301520618774790668",
        "url": ""
    },
    {
        "title": "女生的内裤到底有多脏？多久换一次比较好？",
        "docid": "7301897342477746740",
        "url": ""
    },
    {
        "title": "一人说一个专业小常识",
        "docid": "7281821703401980456",
        "url": ""
    },
    {
        "title": "为什么电影院的座椅通常都是红色的？是因为红色能吸收噪声吗？",
        "docid": "7313194177679082024",
        "url": ""
    },
    {
        "title": "水葫芦弱点太好笑！在我国“泛滥成灾”，人们只用一招将其困住！",
        "docid": "7306778355838665252",
        "url": ""
    },
    {
        "title": "“四大家鱼”可没有鲤鱼，而是这四种鱼类，别再搞错了闹笑话",
        "docid": "7280380914671632936",
        "url": ""
    },
    {
        "title": "少年强则国强 ！震惊世界的中国三位天才少年，你知道是谁么？",
        "docid": "7304186157762691618",
        "url": ""
    },
    {
        "title": "男生如何判断自己的孩子是不是自己亲生的？真相了！",
        "docid": "7280458634063118905",
        "url": ""
    },
    {
        "title": "那些神童的现状你知道吗？",
        "docid": "7280808910238679604",
        "url": ""
    },
    {
        "title": "原来骆驼这么可怕，又学到一个保命知识！",
        "docid": "7293414769346806291",
        "url": ""
    },
    {
        "title": "PCB基础知识",
        "docid": "7299768864068469285",
        "url": ""
    },
    {
        "title": "人类体温正在悄悄降低，37℃将成历史！体温越低，免疫力越差？",
        "docid": "7296646032207725082",
        "url": ""
    },
    {
        "title": "中科院教授杨佳，29岁失明被丈夫孩子抛弃，之后她用8年逆风翻盘",
        "docid": "7304216033714438690",
        "url": ""
    },
    {
        "title": "蓄水近20年，三峡水库最大的鱼有多大？",
        "docid": "7313066814433411618",
        "url": ""
    },
    {
        "title": "贵州能“生蛋”的山崖：每30年“下蛋”一次，千百年一直如此",
        "docid": "7304848794800357926",
        "url": ""
    },
    {
        "title": "你被所谓“伪科学”，骗了多少年？相信大家都有过相同经历",
        "docid": "7284415910541558332",
        "url": ""
    },
    {
        "title": "农村见到这种野菜切记只摘叶子，不要拔根，价值很珍贵",
        "docid": "7285351005494002235",
        "url": ""
    },
    {
        "title": "显微镜下的微观世界，有些让人感到惊艳，有些让人感到惊吓",
        "docid": "7298245415982907939",
        "url": ""
    },
    {
        "title": "詹天佑在114年前，耗银693万修的“人字形”铁路，如今成什么样了",
        "docid": "7304227466602611227",
        "url": ""
    },
    {
        "title": "饿一饿能多活20年？科学家发现：饥饿时，细胞会自己“吃掉”自己",
        "docid": "7293040440322982434",
        "url": ""
    },
    {
        "title": "经常使用耳机听音乐伤耳朵？听力专家提示安全使用耳机的技巧",
        "docid": "7313456768393445898",
        "url": ""
    },
    {
        "title": "回顾俄国数学家提出：平行线可以相交 被人嘲讽多年 死后12年被证实",
        "docid": "7292389246588420634",
        "url": ""
    },
    {
        "title": "人体共有206块骨头，中国人却普遍只有204块，另外两块去了哪里？",
        "docid": "7300872170681500179",
        "url": ""
    },
    {
        "title": "谁说虎毒无情？虎女被狼群殴，虎父一怒，狼群死伤累累|轶闻",
        "docid": "7282668418368094735",
        "url": ""
    },
    {
        "title": "深度长文：人类不会凭空出现，地球上第一个人是如何诞生的？",
        "docid": "7308285645813350946",
        "url": ""
    },
    {
        "title": "发了情的大象有多恐怖?找不到配偶，拿犀牛来泄愤",
        "docid": "7306080339796492839",
        "url": ""
    },
    {
        "title": "“黄花闺女”的“黄花”是指什么花？",
        "docid": "7283281965527089699",
        "url": ""
    },
    {
        "title": "三峡大坝建成17年，已经淤积18亿吨泥沙，最终会导致什么后果？",
        "docid": "7294564936947253812",
        "url": ""
    },
    {
        "title": "芫荽（yán sui），又名香菜，李时珍称其“能辟一切不正之气”",
        "docid": "7289962477838680631",
        "url": ""
    },
    {
        "title": "人死后为什么要堵住肛门，殡仪馆员工说出背后真相",
        "docid": "7294189800641397267",
        "url": ""
    },
    {
        "title": "他与熊“同居”13年，最终被活活吃掉，6分钟死前录音被禁播！",
        "docid": "7301579311336063540",
        "url": ""
    },
    {
        "title": "涨知识了！隔夜不能吃的东西，一定要牢记",
        "docid": "7313773492850246170",
        "url": ""
    },
    {
        "title": "635.4万人年，稳居世界首位！",
        "docid": "7313506448871408178",
        "url": ""
    },
    {
        "title": "28张活久见的神奇照片，让你眼界大开",
        "docid": "7298205402763149865",
        "url": ""
    },
    {
        "title": "南极发现10亿吨磷虾，各国竞争有多激烈？中国或是最大受益者？",
        "docid": "7290460616228127251",
        "url": ""
    },
    {
        "title": "历史上“邪恶”的10项发明，简直就是灾难，你知道几个？",
        "docid": "7311933794980987429",
        "url": ""
    },
    {
        "title": "恐怖谷效应 熊太恐怖了😱大熊猫也这样吗？ ​​​",
        "docid": "7311284133014225442",
        "url": ""
    },
    {
        "title": "大脑为啥要删除3岁前的记忆？你小时候到底看见了啥？",
        "docid": "7296432824234754572",
        "url": ""
    },
    {
        "title": "牛蛙有多“害”人？现在它身上最严重的问题，已经不是寄生虫了！",
        "docid": "7296795177220391460",
        "url": ""
    },
    {
        "title": "45个“绝对单位”的物种，向你展示什么是巨大的存在！是真的大哦",
        "docid": "7298710598014845479",
        "url": ""
    },
    {
        "title": "大自然的力量有多恐怖，20张图片让人看得手心直冒汗",
        "docid": "7301202054389875240",
        "url": ""
    },
    {
        "title": "夫妻俩买下报废波音飞机，将舱内65㎡变“房机”，网友：敢想敢做",
        "docid": "7305316012600295999",
        "url": ""
    },
    {
        "title": "为何不用水泥造船？1974年我国造出最大水泥船，但航行一次就报废",
        "docid": "7303181357008667170",
        "url": ""
    },
    {
        "title": "中国3棵“贵族树”：1棵配警卫、1棵投保1亿、1棵是“地球独子”",
        "docid": "7298280380220637748",
        "url": ""
    },
    {
        "title": "路边摊都往碗里套塑料袋，高温热汤直接倒在里面，不会有毒吗？",
        "docid": "7287934058255352354",
        "url": ""
    },
    {
        "title": "世界海湾知多少——东京湾",
        "docid": "7312456159581962804",
        "url": ""
    },
    {
        "title": "物理学家发现“无悖论”的时间旅行在理论上是可能的",
        "docid": "7313733154719040050",
        "url": ""
    },
    {
        "title": "零下50℃！因纽特人住冰屋为何不冷？在屋子里生火，雪不会化吗？",
        "docid": "7281663193984877114",
        "url": ""
    },
    {
        "title": "人脸识别的时候，一定要穿上衣服啊！亲身经历，想找个地缝钻进去",
        "docid": "7289379956936032825",
        "url": ""
    },
    {
        "title": "我收藏的百科知识(47)",
        "docid": "7301965610441818676",
        "url": ""
    },
    {
        "title": "世界大河",
        "docid": "7310799456524796454",
        "url": ""
    },
    {
        "title": "恶魔岛谜案，史上最强越狱犯，用“假人头”逃出61年仍下落不明",
        "docid": "7312669904195699241",
        "url": ""
    },
    {
        "title": "美国当年有多夸张？靠4KB内存的计算机，就实现登月奇迹",
        "docid": "7305215748774183424",
        "url": ""
    },
    {
        "title": "中国10大最窝囊的入侵物种，集体阵亡，你吃过几种？",
        "docid": "7303787108169384486",
        "url": ""
    },
    {
        "title": "被看衰的东北，对中国有多重要？放在世界上是什么水平？",
        "docid": "7307621568279036450",
        "url": ""
    },
    {
        "title": "又双叒叕遇“东北金渐层”！东北这好生态真是没谁（sei）了！",
        "docid": "7307557597740483124",
        "url": ""
    },
    {
        "title": "神秘的大自然！40张不可思议的图片，领略“奇迹”之美",
        "docid": "7304062981250368015",
        "url": ""
    },
    {
        "title": "世界首例冷冻人贝德福德，原定2017年前就该醒来，现在怎么样了？",
        "docid": "7307503299606168115",
        "url": ""
    },
    {
        "title": "章鱼有9个大脑能编辑基因，智商高到无法理解，为何没发展出文明",
        "docid": "7283027682663662120",
        "url": ""
    },
    {
        "title": "这才是栖凤之木——中国梧桐",
        "docid": "7287585637069750838",
        "url": ""
    },
    {
        "title": "37kW变频器为什么拖不动30kW的增压风机",
        "docid": "7290737159072612876",
        "url": ""
    },
    {
        "title": "中国人皮肤不黄，为什么被称“黄种人”？我们被欧美欺骗了上百年",
        "docid": "7290433638091915830",
        "url": ""
    },
    {
        "title": "迷药到底有多恐怖？“听话水”是怎么让女孩听话的？该怎么防范？",
        "docid": "7281611768760549924",
        "url": ""
    },
    {
        "title": "中美俄卫星数量比拼：美国3433颗，俄172颗，那中国有多少呢？",
        "docid": "7313133213864591899",
        "url": ""
    },
    {
        "title": "以前老人叫它“吸血珠”，常用来做门帘，如今成了世界禾本科之王",
        "docid": "7290484016384655927",
        "url": ""
    },
    {
        "title": "什么都敢吃的中国人，为什么唯独不吃这五种动物？是真的不能吃？",
        "docid": "7306049872275227174",
        "url": ""
    },
    {
        "title": "33个带有威胁光环的厕所，可能会在你的梦里萦绕不去",
        "docid": "7312722867358351909",
        "url": ""
    },
    {
        "title": "全球最美的树，最后一棵惊艳了千年！",
        "docid": "7298185196061770251",
        "url": ""
    },
    {
        "title": "泰国食人狂魔专挑小孩下手，判死刑后制成木乃伊，却留下很多谜团",
        "docid": "7313010583862542863",
        "url": ""
    },
    {
        "title": "红色远古金刚王有多强，他能单挑哥斯拉与金刚吗？",
        "docid": "7310548365664748072",
        "url": ""
    },
    {
        "title": "转存长知识！一组图带你了解越南",
        "docid": "7311499988935229988",
        "url": ""
    },
    {
        "title": "我国新兴千亿大产业，就靠最普通的竹子？竹产业为何那么受重视？",
        "docid": "7311661408125780530",
        "url": ""
    },
    {
        "title": "看完美国最新遗传研究，很多人果断放弃了鸡娃",
        "docid": "7294128500226671141",
        "url": ""
    },
    {
        "title": "国家一级保护动物紫貂现身长白山，毛茸茸的很警惕，真是相当可爱",
        "docid": "7313782308664885760",
        "url": ""
    },
    {
        "title": "火车上的“秘密”：粪便都去哪了？乘务员晚上为何要强行拉窗帘？",
        "docid": "7296769803271422491",
        "url": ""
    },
    {
        "title": "揭秘11个罕见基因特征，拥有它们你就是“天选之人”！",
        "docid": "7303380636050702900",
        "url": ""
    },
    {
        "title": "外国科学家发现吃塑料的虫子？其实已发现多年，为何一直不普及？",
        "docid": "7305759373664928291",
        "url": ""
    },
    {
        "title": "30张活久见的图片，长着类似静脉的鸡蛋，大鹅咬人为啥那么疼",
        "docid": "7287180783633203771",
        "url": ""
    },
    {
        "title": "4平方电线能承受多少千瓦的电能？",
        "docid": "7287585934685094415",
        "url": ""
    },
    {
        "title": "揭秘桂花真相！为何不见蜜蜂采集桂花？",
        "docid": "7283119544993710627",
        "url": ""
    },
    {
        "title": "我国十大最贵淡水鱼，你都知道哪些？",
        "docid": "7301220119378674210",
        "url": ""
    },
    {
        "title": "有哪些暗示是你瞬间就秒懂的？网友评论一个比一个逆天，我学到了",
        "docid": "7313390387719143990",
        "url": ""
    },
    {
        "title": "1965年美国进行秘密实验，导致海豚爱上女子，分手后海豚自杀身亡",
        "docid": "7296426691692659212",
        "url": ""
    },
    {
        "title": "全球最年轻女机长：17岁开飞机，26岁当机长，关键还是个中国人",
        "docid": "7311226075974566411",
        "url": ""
    },
    {
        "title": "18张不幸惨遭冻结的动物照片，大自然残酷的一面！",
        "docid": "7290066468329374264",
        "url": ""
    },
    {
        "title": "中国的地理条件非常优越，但还有几个短板，若补足就完美了",
        "docid": "7306707810992194087",
        "url": ""
    },
    {
        "title": "澜沧江中的稀有珍贵鱼类，你可能一种都没有见过！",
        "docid": "7281673757897622068",
        "url": ""
    },
    {
        "title": "神奇的警服内胆",
        "docid": "7313012469558313512",
        "url": ""
    },
    {
        "title": "人类的20号染色体上，有一条“神的禁令”，它在阻止人类做什么？",
        "docid": "7301207294242046501",
        "url": ""
    },
    {
        "title": "准备坐高铁出游的朋友，最全高铁列车禁止携带品清单来了",
        "docid": "7283703826064966184",
        "url": ""
    },
    {
        "title": "那些真实存在的“庞大巨物”，感觉让人巨物恐惧症都要犯了",
        "docid": "7301564832174817832",
        "url": ""
    },
    {
        "title": "“乙肝不根治我不死心”，90岁仍在科研，她不愧是闻一多侄女！",
        "docid": "7287398418480153149",
        "url": ""
    },
    {
        "title": "“我不允许任何人对中国动武”，什么人有底气说出这样的话？",
        "docid": "7283253870921941561",
        "url": ""
    },
    {
        "title": "生活小常识，一定要知道的九多九少！",
        "docid": "7313510426027917859",
        "url": ""
    },
    {
        "title": "促进生育的基因突变会缩短寿命，研究发现生两个孩子最有利于长寿",
        "docid": "7311497675038802444",
        "url": ""
    },
    {
        "title": "黑水前哨基地LV223，普罗米修斯为何在那里进行异形实验？",
        "docid": "7286301530021413376",
        "url": ""
    },
    {
        "title": "抛硬币的结果不公平？科学家抛了35万次硬币，发现大家都被骗了？",
        "docid": "7308376245598339618",
        "url": ""
    },
    {
        "title": "正常人的身体指标你知道多少？",
        "docid": "7313446780467675675",
        "url": ""
    },
    {
        "title": "天才想法！38个经典创意广告，让人看一眼就忘不了",
        "docid": "7288180943402271244",
        "url": ""
    },
    {
        "title": "1克麝香800元，为了不被猎杀取香，雄麝被人追捕会咬破香囊自杀？",
        "docid": "7282393520923755060",
        "url": ""
    },
    {
        "title": "2.3亿年前，一场暴雨下了200万年，将恐龙扶上了霸主的宝座",
        "docid": "7306070416819470886",
        "url": ""
    },
    {
        "title": "神奇的世界",
        "docid": "7307767459820339766",
        "url": ""
    },
    {
        "title": "电饭煲内胆涂层掉了有毒会致癌？专家给了权威回答",
        "docid": "7291226538434429477",
        "url": ""
    },
    {
        "title": "这是“草中燕窝”，老人最喜欢挖它了，1年可以挖3次，你认识它吗",
        "docid": "7297089097142010402",
        "url": ""
    },
    {
        "title": "为什么热衷于“化学除雪”而不是“物理扫雪”？",
        "docid": "7313687616178684451",
        "url": ""
    },
    {
        "title": "猴面包树树龄可达5000年，能吃能喝又能住，为何引进我国却大变样",
        "docid": "7302348132002857523",
        "url": ""
    },
    {
        "title": "冷！冷！！冷！！！最低气温-34.4℃！本周山西持续低温",
        "docid": "7313698406692586022",
        "url": ""
    },
    {
        "title": "为了一个沙漠“小池塘”，投资了47亿还年年送水，有这必要吗",
        "docid": "7290862102733111866",
        "url": ""
    },
    {
        "title": "怀念汤晓鸥：一位杰出的科学家与教育家",
        "docid": "7313516126871437861",
        "url": ""
    },
    {
        "title": "钱伟长：我每天早上5点背书，那时候华罗庚已经背完了",
        "docid": "7303081926640861734",
        "url": ""
    },
    {
        "title": "巽他海峡——最理想的“马六甲海峡”替代航线",
        "docid": "7311355680441975311",
        "url": ""
    },
    {
        "title": "号称“薄薄一层比羽绒还保暖”？气凝胶抗寒服是智商税吗？",
        "docid": "7313748753314267685",
        "url": ""
    },
    {
        "title": "都江堰杨柳河现“不明动物”，有可能是啥？",
        "docid": "7313140464038363663",
        "url": ""
    },
    {
        "title": "现在都是假螺蛳？古人吃出了4万平米螺蛳壳山，这些才是真螺蛳？",
        "docid": "7287523479815979583",
        "url": ""
    },
    {
        "title": "俄罗斯的萨哈共和国，为啥最低温度能低至－71.2℃，被称作寒极，",
        "docid": "7313156357522309651",
        "url": ""
    },
    {
        "title": "中国十大珍贵树种排名，海南黄花梨位列榜首",
        "docid": "7280965826713371177",
        "url": ""
    },
    {
        "title": "俄罗斯必须学会“逆向工程”，维持西方飞机适航性",
        "docid": "7312790382574928423",
        "url": ""
    },
    {
        "title": "美国冷知识——缅因州",
        "docid": "7294351212416303643",
        "url": ""
    },
    {
        "title": "灭火器摆放不合格，安检人员要求离地十公分，电工师傅:垫块砖头",
        "docid": "7302669199422489099",
        "url": ""
    },
    {
        "title": "印度是一个“伪海洋大国”？一幅地图就能看出来",
        "docid": "7310986967972823587",
        "url": ""
    },
    {
        "title": "寒潮不停！山东，将再迎史诗级超强冷空气！大到暴雪局部大暴雪！",
        "docid": "7313752977116824118",
        "url": ""
    },
    {
        "title": "男性的蛋蛋为啥一高一低？这么重要的器官为什么不“藏深”一点？",
        "docid": "7297994735950660159",
        "url": ""
    },
    {
        "title": "因纽特人的美食腌海雀，内脏腐烂后用嘴吸食，臭味秒杀鲱鱼罐头！",
        "docid": "7299306329578193471",
        "url": ""
    },
    {
        "title": "奇观！黄河“开锅”了 内蒙古巴彦淖尔再现“水煮黄河”奇观",
        "docid": "7313774249435693607",
        "url": ""
    },
    {
        "title": "中国十大名竹",
        "docid": "7279963269270520335",
        "url": ""
    },
    {
        "title": "为什么有的人会看见“鬼”，这种东西是真实存在的吗？告诉你真相",
        "docid": "7288639231021367843",
        "url": ""
    },
    {
        "title": "他捕蛇30年，说到：蛇只怕2种花，看到闻风丧胆，不敢往家里钻！",
        "docid": "7301902971091436086",
        "url": ""
    },
    {
        "title": "那些风靡一时，现在快要消失的7种电子产品，大部分00后没见到过",
        "docid": "7303890644790280715",
        "url": ""
    },
    {
        "title": "江西省\"十四五交通\"规划布局，未来将形成8座民用机场。",
        "docid": "7313768290873180712",
        "url": ""
    },
    {
        "title": "超级地球有多宜居？比地球大2.4倍，均温22度，人类能否移居？",
        "docid": "7288257634849948212",
        "url": ""
    },
    {
        "title": "鲫鱼中的又一另类——彭泽鲫",
        "docid": "7282526015098946100",
        "url": ""
    },
    {
        "title": "各地方爸爸的叫法，北京叫老爷子，山东叫爹，你们那里什么叫的？",
        "docid": "7313856343549788698",
        "url": ""
    },
    {
        "title": "看看你喝下去多少糖？",
        "docid": "7297778288997614132",
        "url": ""
    },
    {
        "title": "法国大爷种了一棵树，家里一辈子都不用交电费了，还有这种好事？",
        "docid": "7308570592859947570",
        "url": ""
    },
    {
        "title": "加拿大研究：蒲公英能在 48 小时内杀死 98% 的癌细胞，科学还是谣言",
        "docid": "7281920865795588671",
        "url": ""
    },
    {
        "title": "\"数学之王\"欧拉：无法超越的天才，万千学子心中的\"恐怖梦魇\"",
        "docid": "7306817605690507776",
        "url": ""
    },
    {
        "title": "中央为发展浙江省，将宁波定为国际海洋中心城市，为什么不是杭州",
        "docid": "7283041319629374008",
        "url": ""
    },
    {
        "title": "月经是为了排出体内毒素？经血是废血？别再对女性生理期有误解了",
        "docid": "7310875961548718629",
        "url": ""
    },
    {
        "title": "长白山采参人最怕的蛇！“守参蛇”到底是什么蛇？为何要守人参？",
        "docid": "7286409762365768192",
        "url": ""
    },
    {
        "title": "机票300元，燃油费110元！我坐的飞机加的是什么油？",
        "docid": "7305361129982591498",
        "url": ""
    },
    {
        "title": "携号转网怎么办？移动电信联通办理操作详解，建议收藏",
        "docid": "7289309590766813715",
        "url": ""
    },
    {
        "title": "各行各业宠上天的玻璃纤维，却被网友叫停：会致癌的！赶紧取缔！",
        "docid": "7287884096071205428",
        "url": ""
    },
    {
        "title": "“低空经济”热起来了：为何16省份将其写入政府工作报告",
        "docid": "7313728306132664872",
        "url": ""
    },
    {
        "title": "“头皮雪”也是雪！上海，下雪啦~网友：终于等到你",
        "docid": "7313720110886306344",
        "url": ""
    },
    {
        "title": "广东到海南仅20公里，为什么不建跨海大桥？这都能难倒基建狂魔？",
        "docid": "7303466655995380276",
        "url": ""
    },
    {
        "title": "“雪”的有趣冷知识",
        "docid": "7313541211338375706",
        "url": ""
    },
    {
        "title": "安全工作是如何被搞“复杂”的？",
        "docid": "7301119119863808539",
        "url": ""
    },
    {
        "title": "钛这东西，真的像大家所说的很安全吗？它的缺点在哪里？",
        "docid": "7283319083880612389",
        "url": ""
    },
    {
        "title": "我国最小的航空公司，其实有两家！",
        "docid": "7284975328937083451",
        "url": ""
    },
    {
        "title": "武汉有多少人坐公交不用公交卡而是用手机刷码，不享受免费换乘？",
        "docid": "7285720369468817976",
        "url": ""
    },
    {
        "title": "深圳北站有哪些设计缺陷，有两点让市民苦不堪言…",
        "docid": "7297408395195105842",
        "url": ""
    },
    {
        "title": "涨知识了：高端会所里，会有什么特殊服务吗？",
        "docid": "7283012353363952188",
        "url": ""
    },
    {
        "title": "东南亚国家有个共同点，国家形状大多数都有一个大长腿",
        "docid": "7304575521717748258",
        "url": ""
    },
    {
        "title": "骨头断了也能接？这种“接骨草”村里人都抢着挖，家乡遇见请保护",
        "docid": "7301490419072811571",
        "url": ""
    },
    {
        "title": "一年“冬眠”七个月，西伯利亚人过冬，吃喝拉撒怎么解决？",
        "docid": "7306458061303054883",
        "url": ""
    },
    {
        "title": "34个历史上有趣的“黑科技” ，看完令人惊叹！",
        "docid": "7281582704456598052",
        "url": ""
    },
    {
        "title": "假如人体是一个宿主，哪个器官最像寄生者？",
        "docid": "7298997180969402919",
        "url": ""
    },
    {
        "title": "北极再现史前生物，57000年前的尸体暴露在外，人类应当警惕！",
        "docid": "7304960690694521354",
        "url": ""
    },
    {
        "title": "西伯利亚的冬天怎么过？吃住行还能忍受，上厕所才最辛苦",
        "docid": "7304735908719510016",
        "url": ""
    },
    {
        "title": "净化磁场，是一个人转运的开始",
        "docid": "7310965438660330011",
        "url": ""
    },
    {
        "title": "新毒株JN.1来袭 XBB疫苗刚上市就过时？",
        "docid": "7313699730893128228",
        "url": ""
    },
    {
        "title": "米放久了为何会“长虫”，生了虫的米还能不能吃？怎么预防生虫",
        "docid": "7283039210540679714",
        "url": ""
    },
    {
        "title": "一闻就倒的迷药真的存在? 一位女医生亲自试验，后来结果如何?",
        "docid": "7295670484984136207",
        "url": ""
    },
    {
        "title": "中国人早就淘汰的几件东西，外国人却当成宝贝，这到底是为什么？",
        "docid": "7301208041826337320",
        "url": ""
    },
    {
        "title": "中国人习以为常的几件事，外国人看了却目瞪口呆，这是为什么？",
        "docid": "7301143511842636328",
        "url": ""
    },
    {
        "title": "已解开谜底的9大“未解之谜”：巨石阵、百慕大、水晶头骨…",
        "docid": "7291192865060356663",
        "url": ""
    },
    {
        "title": "航天员王亚平有多重要？享国家二级警卫待遇，食物未检验不能食用",
        "docid": "7300822558897619466",
        "url": ""
    },
    {
        "title": "中国VS美国，谁才是天选之地，占据着最好的土地？",
        "docid": "7313010308698898970",
        "url": ""
    },
    {
        "title": "盘点我国面积最大的十大平原，你知道多少？",
        "docid": "7301233444435083786",
        "url": ""
    },
    {
        "title": "农村捕蛇人说：此草周围必有毒蛇，老捕蛇人也不敢靠近",
        "docid": "7311238177858028042",
        "url": ""
    },
    {
        "title": "全球最凶猛的10种鸟类，金雕才位列第6，第一会是哪种猛禽？",
        "docid": "7289376446194188855",
        "url": ""
    },
    {
        "title": "“清华教授”蒋国兵：为绿卡在加拿大当油漆工，宁愿跳桥也不回国",
        "docid": "7313443308146213415",
        "url": ""
    },
    {
        "title": "世界上最“肥”的鸟，被抓去炼油点灯，明明吃素为何还长那么胖？",
        "docid": "7287158268391146019",
        "url": ""
    },
    {
        "title": "湖南：今天晚上！大雪！大雨！正式登场！伴有强冷空气！",
        "docid": "7313839984749232680",
        "url": ""
    },
    {
        "title": "中科院最牛的四大院所",
        "docid": "7294776710883557924",
        "url": ""
    },
    {
        "title": "最厚的衣服拿出来，19日新一波冷空气来袭！今年最冷之时到来了！",
        "docid": "7313882444661408308",
        "url": ""
    },
    {
        "title": "全国首次大面积狼专项调查监测揭秘：历时一年多，万人川西北寻狼",
        "docid": "7313842763941364276",
        "url": ""
    },
    {
        "title": "为什么汽车火车飞机的驾驶员都是坐着，船舶的驾驶员却是站着开船",
        "docid": "7307956323000484392",
        "url": ""
    },
    {
        "title": "最低6℃！台风+冷空气双重奏，未来几天海南降温降雨→",
        "docid": "7313876842476241418",
        "url": ""
    },
    {
        "title": "钩吻又叫断肠草，是不是与金银花很相似",
        "docid": "7280893951454986752",
        "url": ""
    },
    {
        "title": "银环蛇“毒蛇一哥”地位不保？国内发现新物种，毒性比银环还强？",
        "docid": "7286419905871856182",
        "url": ""
    },
    {
        "title": "人类为何非要男女交配才能生孩子？难道无性繁殖不是更方便吗",
        "docid": "7303826281467888166",
        "url": ""
    },
    {
        "title": "农村曾泛滥的老鼠都去哪了？城市也不见了踪影，老鼠会不会灭绝？",
        "docid": "7283311336048869923",
        "url": ""
    },
    {
        "title": "被美国无情抛弃，他下定决心投奔中国，还顺手给我国带来千亿项目",
        "docid": "7312268709086003763",
        "url": ""
    },
    {
        "title": "曲曲芽——曲麻菜——苣荬菜（qǔ mai cài）",
        "docid": "7307806285310050854",
        "url": ""
    },
    {
        "title": "电镀添加剂配方剖析还原电镀液助剂成分含量分析",
        "docid": "7313847534009467431",
        "url": ""
    },
    {
        "title": "30个世界上的庞然大物，让人类感到渺小",
        "docid": "7284049620027114020",
        "url": ""
    },
    {
        "title": "银河系的上级，拉尼亚凯亚超星系团，是怎么被发现的？",
        "docid": "7307877140929053199",
        "url": ""
    },
    {
        "title": "最大恒星有多夸张？太阳能装130万个地球，它能装下100亿个太阳！",
        "docid": "7297085569380123148",
        "url": ""
    },
    {
        "title": "不可能性原理数学解释了可能的远射、奇迹和中奖",
        "docid": "7296363479542301235",
        "url": ""
    },
    {
        "title": "浙江东阳的五位80后时代精英",
        "docid": "7313564950126084646",
        "url": ""
    },
    {
        "title": "没用的冷知识，牢里的犯人到底在干嘛？",
        "docid": "7307817429261009449",
        "url": ""
    },
    {
        "title": "智商堪忧的五种动物，蠢到让自己濒临灭绝，能活到现在真是奇迹！",
        "docid": "7313870866168250890",
        "url": ""
    },
    {
        "title": "穿山甲：我的鳞片是大补？人类，你还不如把自己的脚趾甲煲一锅汤",
        "docid": "7313906886683329036",
        "url": ""
    },
    {
        "title": "山西蛇群不冬眠而是蹭暖气！热力井遍地大蛇，蛇怎么进去的呢？",
        "docid": "7313857112575312393",
        "url": ""
    },
    {
        "title": "世界的最大的松鼠，还是彩色的",
        "docid": "7300004076274680356",
        "url": ""
    },
    {
        "title": "怎样证明地球正在自转？傅科：给我一根绳子一个球，立马让你惊叹",
        "docid": "7306466499420635688",
        "url": ""
    },
    {
        "title": "抓住蛇尾巴使劲一抖，蛇就会瘫痪无法动弹？蛇真的会被甩散骨架？",
        "docid": "7310167508042990107",
        "url": ""
    },
    {
        "title": "野生动物也会杂交，繁殖出的后代有多惨？该禁止动物杂交吗？",
        "docid": "7300821264155066914",
        "url": ""
    },
    {
        "title": "世界十大稀有的蜻蜓，十大珍贵蜻蜓品种",
        "docid": "7294573626005799464",
        "url": ""
    },
    {
        "title": "地球上八大自然奇观！",
        "docid": "7294608100995465755",
        "url": ""
    },
    {
        "title": "涨知识了！身份证上的含义，一升等于多少，必须给孩子收藏",
        "docid": "7303418698742743586",
        "url": ""
    },
    {
        "title": "90后天才女孩姚婷，刚毕业就被华为156万年薪签走，她到底有多牛",
        "docid": "7281978380562481718",
        "url": ""
    },
    {
        "title": "广西的1.5米菜花蛇，爬上12楼用头“敲窗”，蛇为何能爬这么高？",
        "docid": "7311982283694096923",
        "url": ""
    },
    {
        "title": "提醒：绝不能放进微波炉的5样东西，很多人还不知道",
        "docid": "7305331302524273215",
        "url": ""
    },
    {
        "title": "88岁院士竟被高中老师一句话问住？后续故事感动上百万网友",
        "docid": "7312071431385842216",
        "url": ""
    },
    {
        "title": "享年91岁",
        "docid": "7304255127425221174",
        "url": ""
    },
    {
        "title": "27个关于河北的冷知识，每一个都让你大开眼界",
        "docid": "7313894467365667369",
        "url": ""
    },
    {
        "title": "黑龙江野外发现一只“火烈鸟”！它从哪来的？",
        "docid": "7311863334083576335",
        "url": ""
    },
    {
        "title": "为什么当年耗资500亿也没能挽救滇池？现在的滇池又是什么景象呢",
        "docid": "7301654875594146316",
        "url": ""
    },
    {
        "title": "吃心脏、咬气管，它们在蟑螂身体内长大，还不让蟑螂死透",
        "docid": "7300760967959364147",
        "url": ""
    },
    {
        "title": "美国下水道里的“鼠人”，一天只花3美元，虽然很穷但却过得精致",
        "docid": "7294919973653316150",
        "url": ""
    },
    {
        "title": "为什么病人在医院去世后，家属不能运走，还要立即放入太平间？",
        "docid": "7310472428302615078",
        "url": ""
    },
    {
        "title": "谁重伤了拜耳：搁浅的巨轮与消失的1000亿美元 | 「钛度号」作品周榜第84期",
        "docid": "7313858449564172826",
        "url": ""
    },
    {
        "title": "我国泛滥成灾，被称“垃圾鱼”，吃粪便就能活，臭水沟里常能见到",
        "docid": "7300881514869572123",
        "url": ""
    },
    {
        "title": "空腹16个小时，身体就会自己吃自己？！人体的自噬功能没那么简单",
        "docid": "7312212730532889107",
        "url": ""
    },
    {
        "title": "喜马拉雅“高山狮子王”，数量仅剩500多头，却能踢翻雪豹和野狼",
        "docid": "7297052957475176975",
        "url": ""
    },
    {
        "title": "1971年，苏联飞船返回地球，打开舱门却发现三名宇航员已经死亡",
        "docid": "7282971301885526562",
        "url": ""
    },
    {
        "title": "塔吊的布置原则及考虑事项 二",
        "docid": "7300015606853288458",
        "url": ""
    },
    {
        "title": "南水北调靠火车拉？丹江水坐火车直通西北！为啥不直接用工程运？",
        "docid": "7313129586026414602",
        "url": ""
    },
    {
        "title": "人类也在其中，全新证据：第六次生物大灭绝加速！生命树加速消亡",
        "docid": "7282324549423743527",
        "url": ""
    },
    {
        "title": "“水老虎”大量横行于三峡坝区，凶猛无比！专家：建议不要干涉！",
        "docid": "7313868366484177460",
        "url": ""
    },
    {
        "title": "黑龙江冻哭了！这周温度直逼历史纪录，快来看看你家冰箱比这还冷",
        "docid": "7313877655085253120",
        "url": ""
    },
    {
        "title": "核能在高级文明眼中只算是打火机！只有反物质，才是终极能源？",
        "docid": "7313556849876320822",
        "url": ""
    },
    {
        "title": "最厚的衣服拿出来！强寒潮正全面发威，权威预警：冷到史无前例",
        "docid": "7313817027620225547",
        "url": ""
    },
    {
        "title": "进化论的终极BUG：小小的乌龟，凭什么会成为科学家们的“噩梦”",
        "docid": "7285650963858457128",
        "url": ""
    },
    {
        "title": "投资3000亿耗时近10年，川藏铁路为何非修不可？战略价值不可估量",
        "docid": "7288957205993259559",
        "url": ""
    },
    {
        "title": "混凝土冬天多少度不能施工",
        "docid": "7310610840150082082",
        "url": ""
    },
    {
        "title": "“亲，收快递！”微生物影响宿主的“新型武器”——细胞外囊泡 | 你我的城｜科技最前线",
        "docid": "7312994591689818674",
        "url": ""
    },
    {
        "title": "中国生漆：因为过于耐用而无人问津，这是为啥？",
        "docid": "7283318013640753698",
        "url": ""
    },
    {
        "title": "胡良兵最近Science+Nature， 明年入职耶鲁",
        "docid": "7313770559379161615",
        "url": ""
    },
    {
        "title": "科普书单·新书｜爱因斯坦陪审团",
        "docid": "7313819494911394304",
        "url": ""
    },
    {
        "title": "破纪录！九张海报告诉你这几天究竟有多冷！",
        "docid": "7313919864971035145",
        "url": ""
    },
    {
        "title": "贴秋膘、享受“花式供暖”、每天都有温泉泡，面对寒潮它们十分“淡定”",
        "docid": "7313918870300656147",
        "url": ""
    },
    {
        "title": "爱吃骨头的胡兀鹫，8斤重的大骨头照样能吞，比狗还要干净利索！",
        "docid": "7302613011578389032",
        "url": ""
    },
    {
        "title": "农村捕蛇人有三不抓，老人直言下场会很凄惨，这三种蛇有何特别？",
        "docid": "7288192878864532029",
        "url": ""
    },
    {
        "title": "世界最大发动机：有五层楼高，10万匹马力！什么交通工具能用上？",
        "docid": "7299647708037005839",
        "url": ""
    },
    {
        "title": "全球超一半的铜流入中国，我们自己产量也很大，为何还那么缺铜？",
        "docid": "7302701387203363362",
        "url": ""
    },
    {
        "title": "“灭绝”半个世纪的物种重新发现！全球仅剩100只，靖西发现36只",
        "docid": "7313514815518130751",
        "url": ""
    },
    {
        "title": "甘肃一棵300多年古梨树，趴在几十吨的巨石上，将巨石抓出几条缝",
        "docid": "7283770152309523004",
        "url": ""
    },
    {
        "title": "火箭的燃料竟然要手动雕刻？火药雕刻师那么重要，为何美国不需要",
        "docid": "7302629470404362792",
        "url": ""
    }
]