[
    {
        "title": "降温超30°C，快看看你们会不会被速冻？",
        "docid": "7337673621135442443",
        "url": ""
    },
    {
        "title": "解冻之后再急冻！湖南气温降到发“黑”，本轮冰冻过程严重吗？",
        "docid": "7337674762795385359",
        "url": ""
    },
    {
        "title": "为何人类非要男女交配，才能生下孩子？无性繁殖不是更加方便吗？",
        "docid": "7337666327911924258",
        "url": ""
    },
    {
        "title": "新疆巴州遭遇极端天气！寒潮降雪，怎样保暖成关键？",
        "docid": "7337665386961682984",
        "url": ""
    },
    {
        "title": "国家级暴雪预警升级，紫色大暴雪南下！权威预报：局部阴雨雪8天",
        "docid": "7337651943592673807",
        "url": ""
    },
    {
        "title": "明天21日湖北天气预报：大雪冻雨正逼近！湖北或将迎来气温转折？",
        "docid": "7337608257341030950",
        "url": ""
    },
    {
        "title": "改变世界的10项技术，在我们有生之年，也许能够全部见证！",
        "docid": "7310396418706113076",
        "url": ""
    },
    {
        "title": "注意！山西6地大到暴雪即将达到顶峰！月底更猛",
        "docid": "7337576581986091556",
        "url": ""
    },
    {
        "title": "海南的这几种植物，你看一眼能叫上它们准确的名字吗？",
        "docid": "7323796467951731200",
        "url": ""
    },
    {
        "title": "贵人相助、学会“飞檐走壁”，他用8年在《自然》发表“金刚”悲歌",
        "docid": "7323142687090410047",
        "url": ""
    },
    {
        "title": "直冲31℃！大反转，马上到！泉州后天起……",
        "docid": "7337675384425218600",
        "url": ""
    },
    {
        "title": "若地球只剩一男一女，需要多久才能再发展到75亿人呢？",
        "docid": "7327894152497824308",
        "url": ""
    },
    {
        "title": "“霸王级”寒潮来袭，冷空气暴雪暴雨降温20℃，21～23号天气预报",
        "docid": "7337690714753106459",
        "url": ""
    },
    {
        "title": "紫貂现身长白山！传说它们会给冻僵的人取暖，然后被人捉住剥皮？",
        "docid": "7324268700645720588",
        "url": ""
    },
    {
        "title": "江西小伙搞火箭发射，赔光身家负债几千万，立志要成为中国马斯克",
        "docid": "7314852266832757248",
        "url": ""
    },
    {
        "title": "一辆消防车2400万，中国能造航母火箭，造个消防车咋这么难？",
        "docid": "7329773418126426635",
        "url": ""
    },
    {
        "title": "印第安人消亡原因：西方编造的谎言，如今被基因研究揭穿",
        "docid": "7304960904691876390",
        "url": ""
    },
    {
        "title": "无奈！中国退役飞机，为何只能拉到美国拆解？",
        "docid": "7315022202271892005",
        "url": ""
    },
    {
        "title": "痛别！山东大学崔桂田教授，今晨病逝",
        "docid": "7337610735964471808",
        "url": ""
    },
    {
        "title": "反铁磁纳米膜的新研究可能使得数据计算和存储速度提高几千倍",
        "docid": "7337658744421466658",
        "url": ""
    },
    {
        "title": "速冻！低至0℃！强降温今晚到成都",
        "docid": "7337708039527203337",
        "url": ""
    },
    {
        "title": "十年间价格翻10倍？我国从出口变为进口，这种资源竟然要枯竭？",
        "docid": "7336853850991788563",
        "url": ""
    },
    {
        "title": "黄埔材料院副院长王杰：建设国内顶级飞行起降动力学研究设施",
        "docid": "7337672049332339263",
        "url": ""
    },
    {
        "title": "广西男子昏迷不醒，救治时裤腿钻出银环蛇，春天活跃的毒蛇有哪些",
        "docid": "7337582767599665714",
        "url": ""
    },
    {
        "title": "闪闪发光的女生",
        "docid": "7337668350216241674",
        "url": ""
    },
    {
        "title": "中兴通讯取得信令跟踪结果处理方法及装置专利，能够快速高效准确的分析信令跟踪结果",
        "docid": "7337588357192581643",
        "url": ""
    },
    {
        "title": "西沙金银岛，南海中陆地面积自然增长最快的岛屿，新港口即将建成",
        "docid": "7311338928244589095",
        "url": ""
    },
    {
        "title": "首套国内总装的1500米级深水水下采油树在澄迈成功交付",
        "docid": "7337575253315076618",
        "url": ""
    },
    {
        "title": "133万吨锚碇相当于13艘航母，五峰山长江大桥到底有多厉害？",
        "docid": "7318696272158982682",
        "url": ""
    },
    {
        "title": "2024年中国科技能有多颠覆？4项科学技术，或将改变未来世界格局",
        "docid": "7337228403617579572",
        "url": ""
    },
    {
        "title": "局地降温20℃以上！中央气象台继续发布寒潮黄色预警",
        "docid": "7337629044483637797",
        "url": ""
    },
    {
        "title": "出发地和目的地都没雷雨，为何航班不能起飞？",
        "docid": "7337666367132844578",
        "url": ""
    },
    {
        "title": "“哈，美国佬又搞了个奇技淫巧！”",
        "docid": "7337635370920002063",
        "url": ""
    },
    {
        "title": "提醒！不要晒！不要发！",
        "docid": "7337607481445646848",
        "url": ""
    },
    {
        "title": "活了二十几年今天才发现，没气的打火机也能点火，烟民必备技能",
        "docid": "7337611149531398696",
        "url": ""
    },
    {
        "title": "为什么机场的选址会定在漯河，而不是其他城市？",
        "docid": "7337314298815103527",
        "url": ""
    },
    {
        "title": "机票300元，燃油费110元！我坐的飞机加的是什么油？",
        "docid": "7305361129982591498",
        "url": ""
    },
    {
        "title": "一条河拿捏全世界，苏伊士运河如此重要，为何不拓宽或是再挖一条",
        "docid": "7316386026187375119",
        "url": ""
    },
    {
        "title": "非洲最凶残的猛禽！活吃秃鹫和巨蜥，竟连花豹它也能够捕食？",
        "docid": "7331955272954642995",
        "url": ""
    },
    {
        "title": "如果没有扎陵湖和鄂陵湖，黄河会变成内流河？",
        "docid": "7313504644146561573",
        "url": ""
    },
    {
        "title": "雄性在自然界中，普遍比雌性漂亮，为何人类女性却比男性漂亮？",
        "docid": "7307140967319142912",
        "url": ""
    },
    {
        "title": "太搞笑!下雪天的趣事",
        "docid": "7337693044047217190",
        "url": ""
    },
    {
        "title": "罗布泊事故幸存者回忆：讲述6天5夜惊险历程，内容真实让人惊叹！",
        "docid": "7330943233402454582",
        "url": ""
    },
    {
        "title": "每天介绍一个国家——中国",
        "docid": "7337657022135566857",
        "url": ""
    },
    {
        "title": "人的一生可以交多少朋友——邓巴数定律",
        "docid": "7337613890018394663",
        "url": ""
    },
    {
        "title": "2014年，周转箱变革引领笔管照明具质量飞跃",
        "docid": "7337492547188687410",
        "url": ""
    },
    {
        "title": "被人们遗忘的肾蕨，你知道它有多珍贵",
        "docid": "7320977689203229225",
        "url": ""
    },
    {
        "title": "民航规定飞行中不能用充电宝充电",
        "docid": "7337561093713592866",
        "url": ""
    },
    {
        "title": "假如地球出现过史前文明，后来他们哪去了？科学家想到了两种可能",
        "docid": "7322675286347235878",
        "url": ""
    },
    {
        "title": "我国最远国际航航线TOP 10",
        "docid": "7332414835785236992",
        "url": ""
    },
    {
        "title": "中国有茅台院士，烟草院士？李爱珍：被美国院士接纳的背后真相",
        "docid": "7337737604236182042",
        "url": ""
    },
    {
        "title": "非洲一只黑猩猩，是怎样把艾滋病传给非洲黑人，再传到全世界的？",
        "docid": "7337649023098929715",
        "url": ""
    },
    {
        "title": "科普知识：滴水成冰的冻雨是怎么回事？",
        "docid": "7337719358028169782",
        "url": ""
    },
    {
        "title": "人类是由鱼类进化而来的？有化石为证！我们身上至今还保留着证据",
        "docid": "7309457875154649619",
        "url": ""
    },
    {
        "title": "全球最冷地区，中国货却卖得最火！中国制造为啥能热销北极圈？",
        "docid": "7334904218845200908",
        "url": ""
    },
    {
        "title": "外表可爱的鸵鸟，真实的战斗力有多强？",
        "docid": "7337247154090590747",
        "url": ""
    },
    {
        "title": "春运返程必备！100个实用电话号码大全",
        "docid": "7336038080208011813",
        "url": ""
    },
    {
        "title": "全球1/3次盆地将严重缺乏清洁水源，受影响人数或增加30亿",
        "docid": "7337093601559675433",
        "url": ""
    },
    {
        "title": "南方多地电闪雷鸣，雨水节气变惊蛰？分析：将是持续雨雪冰冻引擎",
        "docid": "7337589740860424723",
        "url": ""
    },
    {
        "title": "曾在13.6万年前就灭绝了，如今为何再次出现？难道进化论出问题了",
        "docid": "7312000511027282484",
        "url": ""
    },
    {
        "title": "扔超市小票相当于扔钱，很多人都不懂，这里面有什么秘密？",
        "docid": "7317549187187474995",
        "url": ""
    },
    {
        "title": "她从事10年DNA鉴定工作，见证数万男人被戴绿帽，弱势其实是男性",
        "docid": "7336856421742412322",
        "url": ""
    },
    {
        "title": "为什么火车厕所里的屎尿全部要排到铁轨上，日积月累不会很脏吗？",
        "docid": "7336450992227009065",
        "url": ""
    },
    {
        "title": "晚上九点半，四大网红城市热力图对比，成都西安面积领先重庆长沙",
        "docid": "7315409477808226850",
        "url": ""
    },
    {
        "title": "100美元封面人物，竟是连环杀手？美开国元勋地下室惊现千块人骨",
        "docid": "7327212568945181184",
        "url": ""
    },
    {
        "title": "为何高铁座位没有E号、飞机座位没有i号？这些冷知识你知道吗",
        "docid": "7330518174183965234",
        "url": ""
    },
    {
        "title": "为何发生空难时，航空公司宁可赔掉几十亿，也不许乘客跳伞逃生？",
        "docid": "7322752382079697420",
        "url": ""
    },
    {
        "title": "仅剩2只的濒危“神鳖”，传说在云南还有最后希望！能拯救它吗？",
        "docid": "7337581121993228827",
        "url": ""
    },
    {
        "title": "221年一遇！美国两批周期蝉将同时苏醒，会有数百亿只吗？",
        "docid": "7324683779602383369",
        "url": ""
    },
    {
        "title": "波音767首起致命事故，飞机空中解体，223人魂断长空",
        "docid": "7330535988689666569",
        "url": ""
    },
    {
        "title": "为什么骆驼几乎没有天敌，没食肉动物吃它？",
        "docid": "7334634158578418195",
        "url": ""
    },
    {
        "title": "长江新区寒冬考验！气温骤降冰冻，保暖攻略来了",
        "docid": "7337727499952538164",
        "url": ""
    },
    {
        "title": "天文学家发现迄今成长最快的黑洞",
        "docid": "7337682125712507443",
        "url": ""
    },
    {
        "title": "12306购票攻略：掌握每日放票时间",
        "docid": "7326148691407684111",
        "url": ""
    },
    {
        "title": "港科大成功研发血液测试精准诊断阿尔茨海默病和轻度认知障碍",
        "docid": "7337647072734364223",
        "url": ""
    },
    {
        "title": "天地图·厦门正式上线！绘图更方便了！",
        "docid": "7337535604596425266",
        "url": ""
    },
    {
        "title": "上海又一个综合枢纽客站！有新进展",
        "docid": "7336800515084370471",
        "url": ""
    },
    {
        "title": "机械与运载工程前沿（2017-2023）",
        "docid": "7337163874401468978",
        "url": ""
    },
    {
        "title": "寒带特有的鸟＿苏鸟。",
        "docid": "7317465245260481060",
        "url": ""
    },
    {
        "title": "河南：龙年首场寒潮蓄势待发，又一轮大到暴雪来啦",
        "docid": "7337596573213753890",
        "url": ""
    },
    {
        "title": "这次大范围雨雪还是河南、湖北，这次加上了安徽，老天爷真会玩！",
        "docid": "7337719964008890915",
        "url": ""
    },
    {
        "title": "如果真的有龙，那么从物理学的角度来讲，龙的飞行原理是什么？",
        "docid": "7337163827681608232",
        "url": ""
    },
    {
        "title": "今夜到明天仍有大雨！告别连阴雨得到这天……",
        "docid": "7337683799025140224",
        "url": ""
    },
    {
        "title": "恐怖谷效应!动物远比你想象的可怕，让人毛骨悚然的动物诡异行为",
        "docid": "7317943855624667684",
        "url": ""
    },
    {
        "title": "明天21号，或将迎来60年一遇的倒春寒 大雪暴雪真的会拐弯南下吗？",
        "docid": "7337642689208664627",
        "url": ""
    },
    {
        "title": "出生于辽宁铁岭的工程院院士、中国医科大学附属第一医院院长尚红",
        "docid": "7314290995208782363",
        "url": ""
    },
    {
        "title": "发送表情符号需谨慎",
        "docid": "7336728612365664806",
        "url": ""
    },
    {
        "title": "不装了！世界最大最深的实验室，竟藏在锦屏水电站地下2400米处？",
        "docid": "7330940660935164455",
        "url": ""
    },
    {
        "title": "1971年，苏联飞船返回地球，打开舱门却发现三名宇航员已经死亡",
        "docid": "7327192610496348713",
        "url": ""
    },
    {
        "title": "松江人，路边的这些“柚子”，别摘！别吃！",
        "docid": "7305043670230057482",
        "url": ""
    },
    {
        "title": "雨、霰、雷、雪，听气象专家解释这一天河南的降水相态为什么这么复杂",
        "docid": "7337699137544700431",
        "url": ""
    },
    {
        "title": "伊朗农业条件最好的两块平原",
        "docid": "7319754934197764644",
        "url": ""
    },
    {
        "title": "高斯与他的学生们",
        "docid": "7337302750646747682",
        "url": ""
    },
    {
        "title": "流量别乱“蹭” 小心泄露个人隐私",
        "docid": "7337580285791830563",
        "url": ""
    },
    {
        "title": "从5种握手方式来看一个人身上所隐藏的个性和状态",
        "docid": "7337338402754626088",
        "url": ""
    },
    {
        "title": "华中科技大学科研团队发现反式脂肪酸免疫调控新功能",
        "docid": "7337248975692661258",
        "url": ""
    },
    {
        "title": "邯黄铁路的始发站明明在邢台，为何不叫“邢黄铁路”",
        "docid": "7331572842510795283",
        "url": ""
    },
    {
        "title": "苏州企业频获资本青睐，加速实现产业化",
        "docid": "7337619706095927817",
        "url": ""
    },
    {
        "title": "新年的梦",
        "docid": "7337645208265589302",
        "url": ""
    },
    {
        "title": "广西河池市天峨县发生4.4级地震",
        "docid": "7335707624673755684",
        "url": ""
    },
    {
        "title": "中国传奇煤矿：连挖118年后停止开采，留下巨大矿坑要怎么处理？",
        "docid": "7329809177227395599",
        "url": ""
    },
    {
        "title": "人类不可能无限扩张，科学家认为：月球和火星或许就是极限",
        "docid": "7337232111134851620",
        "url": ""
    },
    {
        "title": "中交一公局集团第四届“十大杰出青年”风采 | 龚明子：女性干土木，一样优秀",
        "docid": "7337516603422229027",
        "url": ""
    },
    {
        "title": "探秘天门冬：荒野中的生命奇迹与药用宝藏",
        "docid": "7337591967192384035",
        "url": ""
    },
    {
        "title": "厦大团队在《柳叶刀》发表全球唯一戊肝疫苗的10年有效性监测结果！",
        "docid": "7337602448930112000",
        "url": ""
    },
    {
        "title": "华东航空谷年底竣工，为扬州航空产业重要载体、列省列市重大项目",
        "docid": "7337191874069021196",
        "url": ""
    },
    {
        "title": "尼克｜在数学与生物学之间",
        "docid": "7337185621250818598",
        "url": ""
    },
    {
        "title": "全球仅有100多只的国家一级保护野生动物，靖西发现36只！",
        "docid": "7312791660893946408",
        "url": ""
    },
    {
        "title": "赞！这支“海上浪哥团”！｜新春走基层",
        "docid": "7336865491937509925",
        "url": ""
    },
    {
        "title": "第四届“日中未来创发研讨会”在东京举行",
        "docid": "7337607598181155343",
        "url": ""
    },
    {
        "title": "涨见识啦，买房不能说的话，对号入座，赶紧收藏起来 ，包你不亏",
        "docid": "7336765580634522152",
        "url": ""
    },
    {
        "title": "70个生活常识，早点告诉孩子，早点受益",
        "docid": "7337686232929845769",
        "url": ""
    },
    {
        "title": "就算家里的菜刀再钝，一个杯子就能让它变得锋利，还买什么磨刀石",
        "docid": "7337689380322509352",
        "url": ""
    },
    {
        "title": "科学的尽头是神学？让专家不安的双缝干涉实验，到底是什么？",
        "docid": "7337480686750384681",
        "url": ""
    },
    {
        "title": "我国最东西南北的水文站，分别在哪里？",
        "docid": "7337621996018090505",
        "url": ""
    },
    {
        "title": "乌饭树一既可以观赏又可以吃的植物",
        "docid": "7309804895908495872",
        "url": ""
    },
    {
        "title": "中科院院士刘胜：科研和转化双向发力，筑牢武汉特色产业创新发展优势",
        "docid": "7337562423462789644",
        "url": ""
    },
    {
        "title": "苍耳草：乡村小猪的最爱，你知道吗？",
        "docid": "7337485876060045851",
        "url": ""
    },
    {
        "title": "云南发现兰科植物新物种盈江虾脊兰",
        "docid": "7337577729921712666",
        "url": ""
    },
    {
        "title": "科学家证实交变磁性存在 有望催生新型磁性电子元件",
        "docid": "7336794711862936075",
        "url": ""
    },
    {
        "title": "看了浙江人口和地形图，真的由衷佩服浙江！感触颇多！",
        "docid": "7336102521171329586",
        "url": ""
    },
    {
        "title": "花老虎鱼“入侵”南方水域，钓鱼佬说：一天能随便钓个几十斤！",
        "docid": "7324500272443851298",
        "url": ""
    },
    {
        "title": "飞机牵引车技术革新：中国制造崭露头角",
        "docid": "7337699604756447756",
        "url": ""
    },
    {
        "title": "云南发现兰科植物新种——盈江虾脊兰",
        "docid": "7337584646638977588",
        "url": ""
    },
    {
        "title": "我国能源开发领域迎利好 “深海一号”二期综合处理平台取得新进展",
        "docid": "7337584349334258185",
        "url": ""
    },
    {
        "title": "保山一座小城出了3位航天人，你都认识吗？",
        "docid": "7321239447151575571",
        "url": ""
    },
    {
        "title": "终于搞明白波音737MAX9脱落的假门是怎么回事了！幸好我国没有",
        "docid": "7322429578725605940",
        "url": ""
    },
    {
        "title": "开年双喜！卡奥斯工业大模型：央视刚点赞，再获国家认可",
        "docid": "7337575837857792549",
        "url": ""
    },
    {
        "title": "龙年结识以“龙”为名的植物",
        "docid": "7337534427847180840",
        "url": ""
    },
    {
        "title": "武汉先进院中试基地二期正式投用，9条中试线全部开工运行",
        "docid": "7337500561535058442",
        "url": ""
    },
    {
        "title": "曾掉一地无人问津，冬天都能开花卖4000元1斤，为何却鲜有人种？",
        "docid": "7308668744014774834",
        "url": ""
    },
    {
        "title": "湖北: 冻雨纷飞，大雪纷至，大雨将至！严寒将延续至3月",
        "docid": "7337664810177430066",
        "url": ""
    },
    {
        "title": "重庆阴条岭发现苦苣苔科新种 命名巫溪马铃苣苔",
        "docid": "7337564068066673188",
        "url": ""
    },
    {
        "title": "堪比大兴机场，国内第一座T5航站楼，西安机场预计2025年扩建完成",
        "docid": "7315726887715193344",
        "url": ""
    },
    {
        "title": "一生中患病的几率或可预测",
        "docid": "7337470858422256155",
        "url": ""
    },
    {
        "title": "大雨暴雨大雪暴雪，即将上线！",
        "docid": "7329075040333496832",
        "url": ""
    },
    {
        "title": "明日21号天气预报，新一轮寒潮冷空气来袭，大雪冻雨分布下列地区",
        "docid": "7337752758562587172",
        "url": ""
    },
    {
        "title": "极端天气为何频发？国家气候中心首席专家释疑",
        "docid": "7337674096580641332",
        "url": ""
    },
    {
        "title": "美的集团获得发明专利授权：“软水阀及软水机”",
        "docid": "7337760207411511818",
        "url": ""
    },
    {
        "title": "隆基电磁取得一种矿石分选设备及方法专利，该专利技术能实现提品幅度高、回收率高、处理量大、用水量低、自动化程度高等效果",
        "docid": "7337589889887699467",
        "url": ""
    },
    {
        "title": "江苏：21~24日全省大范围雨雪天气已定！暴雪、暴雨冻雨齐上阵！",
        "docid": "7337722583330570802",
        "url": ""
    },
    {
        "title": "河南新乡一村庄天降神秘“石头”，像冰块却又煮不化，专家排除陨石类物质，已取样分析",
        "docid": "7317525273073975871",
        "url": ""
    },
    {
        "title": "武汉凌晨雷声滚滚，倾盆大雨，气温陡降22.8℃。提醒这不是倒春寒",
        "docid": "7337523713673445927",
        "url": ""
    },
    {
        "title": "同是飞船着陆，为什么印度的返回舱不发黑，难道我们技不如人？",
        "docid": "7336416346764362255",
        "url": ""
    },
    {
        "title": "中国第一毒蛇有多强？杀人数碾压眼镜王蛇，世界最毒蛇也不如它！",
        "docid": "7315313693296738868",
        "url": ""
    },
    {
        "title": "农村随处可见的黄荆树：全身是宝，即使成灰也有妙用",
        "docid": "7332878510803059200",
        "url": ""
    },
    {
        "title": "家里用电总功率7.5KW ，进户线可别选6平方，看完涨知识了！",
        "docid": "7337696966539395620",
        "url": ""
    },
    {
        "title": "军人用手机有规定，请对照“十查”法自检！",
        "docid": "7326749640979513895",
        "url": ""
    },
    {
        "title": "全世界最贵的10架总统飞机，美俄的黑科技最强，却进不了前两名！",
        "docid": "7319384507658928692",
        "url": ""
    },
    {
        "title": "暴雨、暴雪！江苏将进入雨雪最强时段，长江以北谨防局部冻雨",
        "docid": "7337661406391108136",
        "url": ""
    },
    {
        "title": "虽然很疼，但很爽的8种行为，你做过几个？",
        "docid": "7337134469948162623",
        "url": ""
    },
    {
        "title": "冷知识：如果没有冰箱，一罐猪油可以存放多久不变质？",
        "docid": "7319023382941581850",
        "url": ""
    },
    {
        "title": "中国距离最近的两个省会，相距仅150公里，为何却总被网友调侃？",
        "docid": "7312063719322763791",
        "url": ""
    },
    {
        "title": "物理天才尹希入美籍：中国培养了我，但美国科研环境比中国更好",
        "docid": "7337614218335814183",
        "url": ""
    },
    {
        "title": "大家有没有发现，近年来小偷们越来越少了？三个原因很现实！",
        "docid": "7316811555973251620",
        "url": ""
    },
    {
        "title": "“籍贯”是什么，何为籍，何为贯？填写籍贯到底有什么作用呢？",
        "docid": "7307212691817464355",
        "url": ""
    },
    {
        "title": "据说这都是男人的一贯动作，对照一下，你看懂了吗？",
        "docid": "7327871684676190759",
        "url": ""
    },
    {
        "title": "饿一饿能多活20年？科学家发现：饥饿时，细胞会自己“吃掉”自己",
        "docid": "7315722786880766499",
        "url": ""
    },
    {
        "title": "断电就会死，在铁桶里躺了71年，他是感动世界的最后一个铁肺人",
        "docid": "7323126364893168139",
        "url": ""
    },
    {
        "title": "谁在背后安排了宇宙的一切？爱因斯坦与杨振宁的怀疑到底是什么？",
        "docid": "7323191353088655899",
        "url": ""
    },
    {
        "title": "原来人体身上有40个冷知识，看完知识大增！",
        "docid": "7337565956300259875",
        "url": ""
    },
    {
        "title": "他左手天使右手魔鬼，先发明了阿司匹林，11天后又发明出海洛因",
        "docid": "7330923583830835712",
        "url": ""
    },
    {
        "title": "央视曝光：致癌物超标数倍，会改变DNA，购买衣服一定要擦亮眼睛",
        "docid": "7319687629485163023",
        "url": ""
    },
    {
        "title": "为何古人吃完饭放下碎银子就走，店小二却从不清点，也不阻拦呢",
        "docid": "7304456141717930523",
        "url": ""
    },
    {
        "title": "难怪我们中国的标语效果这么到位！用魔法打败魔法，心服口服佩",
        "docid": "7323003913966223906",
        "url": ""
    },
    {
        "title": "这是中国唯一的诺贝尔奖女得主屠呦呦，在北大读书时的照片",
        "docid": "7336372298171204105",
        "url": ""
    },
    {
        "title": "王德民院士：因帅过吴彦祖走红，他却说，只有不正经的人才谈长相",
        "docid": "7330589898351116836",
        "url": ""
    },
    {
        "title": "复印身份证，为什么要在旁边放一枚硬币？我也才清楚，涨知识了！",
        "docid": "7320177517275447843",
        "url": ""
    },
    {
        "title": "切尔诺贝利已成动物天堂，核辐射对动物没影响？它们难道不怕吗？",
        "docid": "7335286055178011176",
        "url": ""
    },
    {
        "title": "丁肇中获诺奖发言，美国反对使用中文，却被一句话怼到无话可说！",
        "docid": "7321631421284958739",
        "url": ""
    },
    {
        "title": "永远不会消失的行业，你知道的还有哪些？对照看看",
        "docid": "7337136492588696073",
        "url": ""
    },
    {
        "title": "很多山东人可能都不知道，山东的“山”，指的是哪座山？不是泰山",
        "docid": "7307892166305579520",
        "url": ""
    },
    {
        "title": "为什么菊花只能紧55秒，多一秒都不行？",
        "docid": "7330816289486668351",
        "url": ""
    },
    {
        "title": "中科院教授杨佳：29岁失明，被丈夫孩子抛弃，之后她用8年逆袭",
        "docid": "7314507939778183743",
        "url": ""
    },
    {
        "title": "\"数学之王\"欧拉：无法超越的天才，万千学子心中的\"恐怖梦魇\"",
        "docid": "7306817605690507776",
        "url": ""
    },
    {
        "title": "贵州能“生蛋”的山崖：每30年“下蛋”一次，千百年一直如此",
        "docid": "7304848794800357926",
        "url": ""
    },
    {
        "title": "为什么病人在医院去世后，家属不能运走，还要立即放入太平间？",
        "docid": "7310472428302615078",
        "url": ""
    },
    {
        "title": "人都是女性生的，在人类出现前，世界上的第一个女性从哪里来？",
        "docid": "7317902357990294056",
        "url": ""
    },
    {
        "title": "人类至今只挖出20万吨黄金！究竟是黄金实在太少，还是不敢挖？",
        "docid": "7323038419306168844",
        "url": ""
    },
    {
        "title": "石油枯竭是骗局？石油越用越多，专家说地球不断冒油可用5亿年",
        "docid": "7335743490111898149",
        "url": ""
    },
    {
        "title": "没想到第六感往往比想象中更可靠!网友分享让人细思极恐,救了命啊",
        "docid": "7335659469734494739",
        "url": ""
    },
    {
        "title": "东南亚国家有个共同点，国家形状大多数都有一个大长腿",
        "docid": "7304575521717748258",
        "url": ""
    },
    {
        "title": "一个人能邋遢到什么程度？网友分享也太“另类”了吧",
        "docid": "7337651479644127770",
        "url": ""
    },
    {
        "title": "“神童”谢彦波，11岁考入中科大，18岁读博士，如今怎么样了?",
        "docid": "7337187016347517475",
        "url": ""
    },
    {
        "title": "“安乐死”没有痛苦？别看走的很安详，但它的痛苦程度超出你想象",
        "docid": "7322044143877095972",
        "url": ""
    },
    {
        "title": "中国最窄的领土，仅有8米宽，曾是连接我国海外飞地的唯一通道！",
        "docid": "7310049796914627122",
        "url": ""
    },
    {
        "title": "如果身体忽然失去所有痛觉，到底有多恐怖？",
        "docid": "7321240821981102631",
        "url": ""
    },
    {
        "title": "将鸡、鸭、鹅从万米高处扔下，做自由落体运动，可以安全着陆吗？",
        "docid": "7323170883501064730",
        "url": ""
    },
    {
        "title": "三名打豹人遇豹子时，却不约而同放下枪，究竟为何？被美震撼",
        "docid": "7310057671992934950",
        "url": ""
    },
    {
        "title": "过年送礼“七须知”，看完涨知识了",
        "docid": "7337688752694788658",
        "url": ""
    },
    {
        "title": "棺材上为什么要钉钉子？人都死了，还怕他跑了不成？",
        "docid": "7324136820638433802",
        "url": ""
    },
    {
        "title": "华人、华侨、华裔、三者的区别，有人终于整理出来了，大涨知识！",
        "docid": "7337692340741505590",
        "url": ""
    },
    {
        "title": "见证数万男人被戴绿帽子，DNA女鉴定师：不相信爱情，更相信欲望",
        "docid": "7337618806656729634",
        "url": ""
    },
    {
        "title": "老虎狮子晚年有多凄惨？为啥饿死的狮子多见，饿死的老虎却很少",
        "docid": "7308685019449950774",
        "url": ""
    },
    {
        "title": "“钟表不挂三处，日子越过越富”，哪三处？老祖宗的话有没有道理",
        "docid": "7312294087473054249",
        "url": ""
    },
    {
        "title": "攀枝花为何不像四川的城市？",
        "docid": "7332308551236518436",
        "url": ""
    },
    {
        "title": "山东下的是霰不是雪",
        "docid": "7337841893730009640",
        "url": ""
    },
    {
        "title": "每年吃掉三千只蚊子，8年才能长大，却被人类作为美食大量捕捉",
        "docid": "7315312213101724172",
        "url": ""
    },
    {
        "title": "吃一口就坐牢？野外钓到这些鱼千万不要吃，它们可是“国保”",
        "docid": "7321660778216768040",
        "url": ""
    },
    {
        "title": "六大害人不浅的谣言，每一条都令我们深信不疑，是该认清现实了！",
        "docid": "7307556829369434665",
        "url": ""
    },
    {
        "title": "神童陶哲轩：8岁高考760分，智商远超爱因斯坦，现在怎么样了？",
        "docid": "7337591498764272178",
        "url": ""
    },
    {
        "title": "“国家电网”为啥不叫中国电网？其实，它还是其余11个国家的电网",
        "docid": "7317202353630478911",
        "url": ""
    },
    {
        "title": "日本十大奇案，14岁少年杀人后写信挑衅警方，他怎么敢",
        "docid": "7320072745646162458",
        "url": ""
    },
    {
        "title": "上厕所用完的卫生纸是冲走，还是扔垃圾桶？我也才清楚，涨知识了",
        "docid": "7318702800303718963",
        "url": ""
    },
    {
        "title": "身份证、银行卡和手机放在一起，到底会不会消磁？终于知道真相了",
        "docid": "7324244372873069108",
        "url": ""
    },
    {
        "title": "曾是我国度荒年的食物，根茎能达100多斤，如今被称为“恶魔”？",
        "docid": "7316828440274207270",
        "url": ""
    },
    {
        "title": "古人常说的“老鸨”，是“万鸟之妻”？这种鸟竟比朱鹮还稀有",
        "docid": "7336164241004610083",
        "url": ""
    },
    {
        "title": "高高自己跑回来找编制是有道理的，他是小体型大熊猫",
        "docid": "7337199629496500762",
        "url": ""
    },
    {
        "title": "最新研究！生两个孩子最有利于长寿，生育孩子越少或越多都会缩短寿命",
        "docid": "7311488079297102363",
        "url": ""
    },
    {
        "title": "三峡坝区大鱼横行，大量“水老虎”出没引发担忧，专家:不用干涉",
        "docid": "7324191144735539721",
        "url": ""
    },
    {
        "title": "“温泉鱼”有多恐怖？吃脚皮只是在麻痹你，整条鱼进去只剩骨架",
        "docid": "7304600816688972315",
        "url": ""
    },
    {
        "title": "总算有人把“四大顺口溜”整理出来了，赶紧收藏起来给孩子看看",
        "docid": "7337543009099334178",
        "url": ""
    },
    {
        "title": "她是袁世凯孙媳，为美国造原子弹，墓碑却刻着：一个永远的中国人",
        "docid": "7316055348354253323",
        "url": ""
    },
    {
        "title": "日月星辰中的“辰”代表什么？它能与太阳月亮并列，可见大有来头",
        "docid": "7320128778737648169",
        "url": ""
    },
    {
        "title": "广西40斤巨蟒被困枯井，一村民投喂数月，为何村民要喂蛇吃东西？",
        "docid": "7311270863243231771",
        "url": ""
    },
    {
        "title": "缺钱还是缺技术？琼州海峡仅19公里宽，为什么不建座跨海大桥呢？",
        "docid": "7314675016040661554",
        "url": ""
    },
    {
        "title": "深度长文：人类不会凭空出现，地球上第一个人是如何诞生的？",
        "docid": "7308285645813350946",
        "url": ""
    },
    {
        "title": "揭秘烟草黑历史：每年害死800万人，却被医生当作治病救命的神药",
        "docid": "7330837975271703075",
        "url": ""
    },
    {
        "title": "人死后细胞都在做啥？有的“叛变”自相残杀，有的拼命想复活主人",
        "docid": "7307570778093077033",
        "url": ""
    },
    {
        "title": "如果海平面上升70米，中国会怎样？你家还在吗？",
        "docid": "7314693044967096868",
        "url": ""
    },
    {
        "title": "19年前，那个抓着飞机起落架从昆明到重庆的14岁男孩，现在怎样了",
        "docid": "7316460416492880422",
        "url": ""
    },
    {
        "title": "网络有多恐怖？不管你问啥，万能的网友都能解答！",
        "docid": "7306404928128369191",
        "url": ""
    },
    {
        "title": "新疆的西疆：外伊犁是七河地区，有22万平方公里，地形不是河谷",
        "docid": "7333564285190619682",
        "url": ""
    },
    {
        "title": "首次！祝贺中国科学家！",
        "docid": "7337186937889358370",
        "url": ""
    },
    {
        "title": "游速最快的“海中超跑”！出生只有米粒大，成年后却能刺穿潜艇？",
        "docid": "7320146145714635318",
        "url": ""
    },
    {
        "title": "恶魔基因天生坏种？ 母亲生下“超雄”染色体儿子，长大后惊吓全网",
        "docid": "7323388585888154146",
        "url": ""
    },
    {
        "title": "1974年我国造世界最大钢筋混凝土船，重达3024吨，航行1次就报废",
        "docid": "7304507352857018934",
        "url": ""
    },
    {
        "title": "生命为何没选占地球26.7%的硅，却钟爱仅0.02%的碳？硅生命长啥样",
        "docid": "7337245113665700393",
        "url": ""
    },
    {
        "title": "人的衰老并不是匀速，斯坦福大学研究：这三个年龄段老得最快",
        "docid": "7317534341536842255",
        "url": ""
    },
    {
        "title": "研究警告！1升瓶装水至少有11万块纳米塑料，88%食物样品有微塑料",
        "docid": "7322541964208030208",
        "url": ""
    },
    {
        "title": "吃菌子中毒有多离谱，网友：看到厨房里猪在做饭，锅碗瓢盆在喊疼",
        "docid": "7337157805335478825",
        "url": ""
    },
    {
        "title": "中国最高级的配色和世界上公认最漂亮的十种颜色大PK，你支持谁？",
        "docid": "7330880583037616691",
        "url": ""
    },
    {
        "title": "老人叫它“退烧草”，藏在农村人见人爱，现在却十分的珍贵！",
        "docid": "7321714244779967026",
        "url": ""
    },
    {
        "title": "刚刚，突然宣布：性别搞错了！全网震惊",
        "docid": "7327571813897142824",
        "url": ""
    },
    {
        "title": "有一双粗壮的大腿 好处可不止一点",
        "docid": "7337883958975382068",
        "url": ""
    },
    {
        "title": "为什么有的人再吵也能睡着，有的人一点声音都会惊醒？",
        "docid": "7337242042416185868",
        "url": ""
    },
    {
        "title": "“芳纶纸”是什么？美日垄断技术几十年，成本20元卖我们2800元！",
        "docid": "7333190165982855718",
        "url": ""
    },
    {
        "title": "4种至今未灭绝的“史前动物”，最长达到4亿年，它们分别是什么？",
        "docid": "7325350422527410740",
        "url": ""
    },
    {
        "title": "2只小鸟在耗费5年时间在房间囤积300多公斤粮食，最终便宜人类了",
        "docid": "7325764021565899290",
        "url": ""
    },
    {
        "title": "湖北一神秘山洞，常年“吐鱼”上万斤，专家警告村民：这鱼不能吃",
        "docid": "7322052460011831858",
        "url": ""
    },
    {
        "title": "为何捕蛇人都用布袋装蛇，布袋柔软缝隙大，难道不怕蛇咬破吗？",
        "docid": "7315320424068317708",
        "url": ""
    },
    {
        "title": "古代没有玻璃，窗户都是纸糊的，如果刮风下雨了他们该怎么应对？",
        "docid": "7312719308319441447",
        "url": ""
    },
    {
        "title": "狂砸3000亿，把渤海水引入新疆，真能堆出18亿亩的良田吗？",
        "docid": "7314561934115127848",
        "url": ""
    },
    {
        "title": "大卫解剖女工程师，《异形：契约》那些你不知道的幕后",
        "docid": "7326416704106643980",
        "url": ""
    },
    {
        "title": "56架！开幕当天签了",
        "docid": "7337622918790398498",
        "url": ""
    },
    {
        "title": "地球在自转，如果把直升机悬停12个小时，会到地球另一边吗？",
        "docid": "7336030829329646114",
        "url": ""
    },
    {
        "title": "“坩埚”是什么，为啥上千度的钢水都无法熔化它，到底是个啥材料",
        "docid": "7329457135828468260",
        "url": ""
    },
    {
        "title": "28个奇怪的冷知识，听上去有些不可思议",
        "docid": "7320391158612705801",
        "url": ""
    },
    {
        "title": "曾是农村的“害兽”，农民对它恨之入骨，如今骨头能卖300一斤？",
        "docid": "7322779242138583578",
        "url": ""
    },
    {
        "title": "过去农村常见的苦楝树，为何现在遭到嫌弃？果实有毒还非常危险！",
        "docid": "7318277784059658788",
        "url": ""
    },
    {
        "title": "黑种人、黄种人和白种人为什么能自由交配，不存在生殖隔离？",
        "docid": "7324979225890996773",
        "url": ""
    },
    {
        "title": "盘点各行各业那些奇怪的“特殊工具”，有些很合理，有些很奇怪",
        "docid": "7332394703192834595",
        "url": ""
    },
    {
        "title": "原来萌兰，胖大海身高有一米九！现场看，巨物恐惧症都犯了！",
        "docid": "7329519395603333632",
        "url": ""
    },
    {
        "title": "“院士之子”的世袭罔替简史",
        "docid": "7309323984125084186",
        "url": ""
    },
    {
        "title": "澳大利亚野兔成灾，体重百斤却无人食用，当地人给出答案：不敢吃",
        "docid": "7311626058921411072",
        "url": ""
    },
    {
        "title": "火车上的奇葩睡姿，这样都能睡着！都不是一般人啊！",
        "docid": "7337310471747912231",
        "url": ""
    },
    {
        "title": "最“委屈”的鱼，只因长得像埃及塘鲺，常被人误认为是“垃圾鱼”",
        "docid": "7335672873295561254",
        "url": ""
    },
    {
        "title": "上班族一定要知道的自我保护知识!上班时身体不舒服千万别回家",
        "docid": "7323742578820809252",
        "url": ""
    },
    {
        "title": "黄河每天冲鱼入海，大部分淡水鱼无法存活于海，那它们都去哪了？",
        "docid": "7321905819472151051",
        "url": ""
    },
    {
        "title": "逆天导图！见识一下文科大佬有多恐怖",
        "docid": "7322844418330198537",
        "url": ""
    },
    {
        "title": "人在死亡瞬间，能知道自己死了吗？搜集大量资料，终于找到答案",
        "docid": "7334269519784854051",
        "url": ""
    },
    {
        "title": "清华教授弃几十万年薪，随妻子赴加拿大，却靠刷油漆半年赚5000块",
        "docid": "7304544637635756583",
        "url": ""
    },
    {
        "title": "恍然大悟！原来人类基因也有自己的禁令，细节真实生动 评论区炸了",
        "docid": "7333844466132795923",
        "url": ""
    },
    {
        "title": "马斯克的“星舰”，一旦发射成功，或许整个世界都要发生巨变！",
        "docid": "7335272312784060965",
        "url": ""
    },
    {
        "title": "四川“矮人村”，村内中老年人并非侏儒症，但却身高均不足1米",
        "docid": "7326185797223399988",
        "url": ""
    },
    {
        "title": "古代七国，现在的省。看完涨知识了，贵州在古代不知道是什么国？",
        "docid": "7337874205079568911",
        "url": ""
    },
    {
        "title": "长江的“喜与忧”：镇江出现大量的野生鲢，为什么鲥鱼处境堪忧？",
        "docid": "7326462377737011721",
        "url": ""
    },
    {
        "title": "农田里“地爬子”很多，曾是祸害被大量捕杀，如今为何很少了？",
        "docid": "7315379009007829540",
        "url": ""
    },
    {
        "title": "如果宇航员在月球上撒一泡尿，会产生什么后果？比你想象的还可怕",
        "docid": "7319000893293478411",
        "url": ""
    },
    {
        "title": "与众不同的动物器官：奇异而神奇的身体结构",
        "docid": "7312137022553014836",
        "url": ""
    },
    {
        "title": "长白豺群抢虎食，老虎怒而杀豺：连杀13豺伤14豺，最终战死|传闻",
        "docid": "7334906793447260735",
        "url": ""
    },
    {
        "title": "无限猴子定理：地球不可能进化出人类，那到底是谁干预了人类进化",
        "docid": "7337887455137989172",
        "url": ""
    },
    {
        "title": "怎样打蛇，才容易将蛇打死？打不死的蛇危害又有多大呢？",
        "docid": "7337200669482418725",
        "url": ""
    },
    {
        "title": "人类祖先“同类相食”原因复杂",
        "docid": "7337900323757703715",
        "url": ""
    },
    {
        "title": "从9楼烧到11楼……家住高层，如何科学逃生？",
        "docid": "7337865257857319459",
        "url": ""
    },
    {
        "title": "每小时能游80公里，为速度而生的金枪鱼，为什么停下来就会死亡呢",
        "docid": "7330220896122077737",
        "url": ""
    },
    {
        "title": "日本的六个奇葩发明，特殊构造一度卖到脱销，国人直呼接受不了！",
        "docid": "7329426104404689442",
        "url": ""
    },
    {
        "title": "科学家告诉我们永动机不存在，但分子为何不停地做无规则运动？",
        "docid": "7330090019987915304",
        "url": ""
    },
    {
        "title": "出门在外，别碰这4样“脏东西”，小心孽缘上身！",
        "docid": "7337248391962984972",
        "url": ""
    },
    {
        "title": "最后50米有多难？我国首口万米深井钻探，9900米遇超高温、超高压",
        "docid": "7336590610663145984",
        "url": ""
    },
    {
        "title": "华裔女科学家李飞飞：年仅47岁，称希望以中国人身份领诺贝尔奖",
        "docid": "7336841677333824035",
        "url": ""
    },
    {
        "title": "他证明了神的存在，印度绝世天才拉马努金，小说主角都不敢这样写",
        "docid": "7329395433741386240",
        "url": ""
    },
    {
        "title": "工程计算公式，让建筑更精准，提高工作效率，让建筑工程更加精准",
        "docid": "7334659403041227305",
        "url": ""
    },
    {
        "title": "来自广西的15位院士，有没有你的老乡？",
        "docid": "7306307943035716131",
        "url": ""
    },
    {
        "title": "熊是怎样冬眠的？冬眠的熊会被老虎拖出去吃掉，是真的吗？",
        "docid": "7327236485751833088",
        "url": ""
    },
    {
        "title": "大连蛇岛2万条毒蛇凶猛无比，放两只平头哥进去，结果会发生什么",
        "docid": "7314984240738009641",
        "url": ""
    },
    {
        "title": "野生动物也会杂交，繁殖出的后代有多惨？该禁止动物杂交吗？",
        "docid": "7314602872774099491",
        "url": ""
    },
    {
        "title": "自动化非标设计——各标准件选型知识概要（1239）",
        "docid": "7337673935557083702",
        "url": ""
    },
    {
        "title": "70年代被痛恨的“入侵者”，如今摇身一变，成了人们的“摇钱树”",
        "docid": "7330518781782999604",
        "url": ""
    },
    {
        "title": "黄羊每年都要“偷渡”到中国,今年特别多?不来中国它们会灭绝?",
        "docid": "7314325823937331727",
        "url": ""
    },
    {
        "title": "广东神秘的“短命村”,村民大多数活不过40岁，最终经专家检测后竟发现是水质问题。",
        "docid": "7309394066175722024",
        "url": ""
    },
    {
        "title": "夫妻俩买下报废波音飞机，将舱内65㎡变“房机”，网友：敢想敢做",
        "docid": "7305316012600295999",
        "url": ""
    },
    {
        "title": "从癌症晚期到肿瘤消失，李开复抗癌9年无复发，3个经验值得借鉴",
        "docid": "7336413131206033954",
        "url": ""
    },
    {
        "title": "中国最丢脸的6大入侵物种，集体阵亡，你吃过几种",
        "docid": "7304527862965862948",
        "url": ""
    },
    {
        "title": "靠数尸体鼻毛拿下10万亿奖金，这届搞笑诺奖太重口了。。。",
        "docid": "7337852407805739559",
        "url": ""
    },
    {
        "title": "全国哪些地区盛产道地药材，你知道吗？",
        "docid": "7316498188326748712",
        "url": ""
    },
    {
        "title": "松下首次公开快充全固态电池 10%充到80%只需3分钟",
        "docid": "7314102851049882138",
        "url": ""
    },
    {
        "title": "光合作用为何能在短短的万亿分之一秒完成？隐藏着深刻宇宙奥秘",
        "docid": "7223256942490223139",
        "url": ""
    },
    {
        "title": "水真的不可压缩吗？如果将水一直压缩，会发生什么？",
        "docid": "7325753341216014900",
        "url": ""
    },
    {
        "title": "“上海飞大阪机票仅8元”冲上热搜，票价如此低航司还怎么赚钱？",
        "docid": "7337647709711057419",
        "url": ""
    },
    {
        "title": "终于把“各种油的区别和用法”整理好了，看完受益匪浅！",
        "docid": "7337878496942948883",
        "url": ""
    },
    {
        "title": "英国人怒喷中国航司飞机餐难吃，引众怒！这些美味VS灾难飞机餐",
        "docid": "7336396314504167972",
        "url": ""
    },
    {
        "title": "针孔摄像头小成这样？想过很小但没想过有这么小，评论区笑死我了",
        "docid": "7319396749012058633",
        "url": ""
    },
    {
        "title": "你有奇特的生理反应吗？看完网友分享我目瞪口呆！又涨见识了",
        "docid": "7330149127180894731",
        "url": ""
    },
    {
        "title": "量子大佬薛鹏：不懂人情世故的人生有多悲催",
        "docid": "7332978848729989632",
        "url": ""
    },
    {
        "title": "外国大神又帮网友认东西了！以前的老物件，成了年轻人的未解之谜",
        "docid": "7312855762118820403",
        "url": ""
    },
    {
        "title": "悲讯传来！他因病医治无效，走了…",
        "docid": "7320046618731233803",
        "url": ""
    },
    {
        "title": "袁苏妹一生只会写5个字，在港大做清洁工44年，82岁被授予了院士",
        "docid": "7332421528875418175",
        "url": ""
    },
    {
        "title": "公鸡怎么知道时间，为何每天都能准时打鸣？到2013年才被破解",
        "docid": "7306448303728624168",
        "url": ""
    },
    {
        "title": "法国大爷种了一棵树，家里一辈子都不用交电费了，还有这种好事？",
        "docid": "7308570592859947570",
        "url": ""
    },
    {
        "title": "厉害了！高铁车轮算是被中国玩明白了，直接卖到了德国老家",
        "docid": "7337680774508151305",
        "url": ""
    },
    {
        "title": "人的屁股才是真正的个性之源？探索隐藏在身体后半部分的奇秘世界",
        "docid": "7337654723845849619",
        "url": ""
    },
    {
        "title": "广西128岁老人罗美珍，一生横跨3个世纪61岁才生子，年龄却被质疑",
        "docid": "7316520036960043532",
        "url": ""
    },
    {
        "title": "月经是为了排出体内毒素？经血是废血？别再对女性生理期有误解了",
        "docid": "7310875961548718629",
        "url": ""
    },
    {
        "title": "人类作为高等物种，为何会害怕同类尸体，却不怕其它动物的？",
        "docid": "7306842906542293556",
        "url": ""
    },
    {
        "title": "微塑料早已被发现存在于人体！提醒：这几种塑料物品，尽量少用",
        "docid": "7320538692588732967",
        "url": ""
    },
    {
        "title": "我80后，当3年空乘，会开飞机，嫁飞行员老公，还跑加拿大当护士",
        "docid": "7316141029415993856",
        "url": ""
    },
    {
        "title": "60岁的捕蛇老人提醒：山中见此草别靠近，附近有毒蛇出没，别不信",
        "docid": "7313775663818195519",
        "url": ""
    },
    {
        "title": "世界上最亏钱的运河，建造挖了1800年，通行费少的可怜",
        "docid": "7317525979004944930",
        "url": ""
    },
    {
        "title": "人类把老鼠带上孤岛，200年后却杀光岛上的猫？最愚蠢的物种故事",
        "docid": "7337900188461761061",
        "url": ""
    },
    {
        "title": "美国首富将自己冷冻50年，原定2017年被唤醒，如今怎么样了?",
        "docid": "7329842502537118262",
        "url": ""
    },
    {
        "title": "香椿树比毒蛇还危险？为什么会说：不怕蛇进家门，就怕香椿高过房",
        "docid": "7304164168771338767",
        "url": ""
    },
    {
        "title": "零下70度的北极，因纽特人光着身子睡觉，难道他们真的不怕冷吗？",
        "docid": "7319784420805050931",
        "url": ""
    },
    {
        "title": "农村出镜率极高的4种“剧毒植物”，别随意采摘食用，认识不吃亏",
        "docid": "7318989752303108671",
        "url": ""
    },
    {
        "title": "现存八种最喜欢吃人的残暴动物！",
        "docid": "7311192691814662694",
        "url": ""
    },
    {
        "title": "电的本质是什么",
        "docid": "7328188012221809152",
        "url": ""
    },
    {
        "title": "311名丹麦儿童，惨遭美国人体实验？人脑控制计划，到底多残酷？",
        "docid": "7337886146544386579",
        "url": ""
    },
    {
        "title": "航空发动机的轴承有多恐怖？一分钟18000转，寿命超过5万小时！",
        "docid": "7322735377503289875",
        "url": ""
    },
    {
        "title": "C919直飞新加坡预示着什么？",
        "docid": "7336040184054465050",
        "url": ""
    },
    {
        "title": "沉痛悼念！著名放射肿瘤学专家王小虎教授逝世",
        "docid": "7337249219482321462",
        "url": ""
    },
    {
        "title": "全国最没存在感的10 大省份，不妨进来看看，你的省份在吗？",
        "docid": "7331298081100890661",
        "url": ""
    },
    {
        "title": "你知不知道一些“保命冷知识”？网友：阎王爷已经饶过我很多次了",
        "docid": "7335367810636022308",
        "url": ""
    },
    {
        "title": "近视的人不戴眼镜，时间久了会怎么样？",
        "docid": "7325762753737097780",
        "url": ""
    },
    {
        "title": "让AI理解《三体》并画出人物形象，惊呆我了！",
        "docid": "7312330597886591499",
        "url": ""
    },
    {
        "title": "曾经是人们的主食，一棵结果数百斤，如今为何掉一地没人要？",
        "docid": "7311993297387258395",
        "url": ""
    },
    {
        "title": "洗衣机洗袜子卫生吗?会和内裤交叉感染?这个争议终于有答案了",
        "docid": "7308656714755293748",
        "url": ""
    },
    {
        "title": "如果把水蛭不小心被吃进肚子中，它还能在人体内长期存活吗？",
        "docid": "7336508104500560424",
        "url": ""
    },
    {
        "title": "不吞一次口香糖，你永远不知道自己的肠胃有多优秀",
        "docid": "7331994598548488739",
        "url": ""
    },
    {
        "title": "看完乌龟的骨骼，你就能明白，它为啥会被称为最诡异的动物之一了",
        "docid": "7307198845124461090",
        "url": ""
    },
    {
        "title": "中国环保奇迹！20年前把母亲湖祸害成臭水湖，花500亿成功救回？",
        "docid": "7307226123635737138",
        "url": ""
    },
    {
        "title": "惊现分身！33个人遇到了另一个自己，不可思议的巧合",
        "docid": "7320480543458542131",
        "url": ""
    },
    {
        "title": "家用摄像头有多危险？有人可能在网上直播你家！",
        "docid": "7324988442268877348",
        "url": ""
    },
    {
        "title": "揭秘5个罕见基因特征，拥有它们你可能就是“上帝的宠儿”！",
        "docid": "7319781410720481792",
        "url": ""
    },
    {
        "title": "哈佛大学80年研究惊人发现：打麻将可延长寿命",
        "docid": "7324785480321499683",
        "url": ""
    },
    {
        "title": "公安部提醒：手机来电显示7种电话，有6个最好别接，有人损失30万",
        "docid": "7305041262808334860",
        "url": ""
    },
    {
        "title": "科学分析“龙”是否真实存在？东方神兽的原型可能是这种动物！",
        "docid": "7337542239490408970",
        "url": ""
    },
    {
        "title": "暴雪预警升级！雷打暴雪暴雨袭击多省，暴雪冻雨范围还将扩大",
        "docid": "7337938019465118258",
        "url": ""
    },
    {
        "title": "堵在湖南的人后悔死了！江西少冻雨不堵车 优先发展江西交通动脉",
        "docid": "7334184865322009098",
        "url": ""
    },
    {
        "title": "各国国土面积排行，中国的土地再次扩大是谣言还是真理？",
        "docid": "7309096308114702875",
        "url": ""
    },
    {
        "title": "因截流种棉花，7000万人的母亲河，就这样毁在一个超级大国手里！",
        "docid": "7320520204629983756",
        "url": ""
    },
    {
        "title": "科普：零线为什么不能共用？一定要看懂零线、地线、火线的作用",
        "docid": "7314558177352909347",
        "url": ""
    },
    {
        "title": "新疆一牧民猎杀雪豹并吃掉，2年后又放狗咬北山羊，后果多严重？",
        "docid": "7337344369294901812",
        "url": ""
    },
    {
        "title": "第一个徒手掰开原子弹的人，DNA断裂、肌肉溶解，最终成了活死人",
        "docid": "7310502273829323279",
        "url": ""
    },
    {
        "title": "这些年，青岛从莱阳“撬”走了多少老家底？",
        "docid": "7321108307249299995",
        "url": ""
    },
    {
        "title": "高铁最怕冻雨？困扰高铁运行的冻雨难题，我国为何至今无解？",
        "docid": "7331625708709659171",
        "url": ""
    },
    {
        "title": "农村常见的“痔疮草”，非常多人不认识它，赶紧来了解一下吧！",
        "docid": "7306825486871659018",
        "url": ""
    },
    {
        "title": "我国在海底种珊瑚，结果种得太好了，改变了海底生态环境",
        "docid": "7327935708235645478",
        "url": ""
    },
    {
        "title": "硅谷再现杀妻案，这次是更惨烈的灭门案！",
        "docid": "7337352170867589632",
        "url": ""
    },
    {
        "title": "大受震撼！微波炉除了热剩菜，还有这 5 个神技能（不是做饭）",
        "docid": "7327881992828846655",
        "url": ""
    },
    {
        "title": "花蚊子入侵中国五十年，人们夜晚再也不能乘凉，它到底来自哪里？",
        "docid": "7333510409284321843",
        "url": ""
    },
    {
        "title": "世界地理知识大全（整理）",
        "docid": "7337836427843224075",
        "url": ""
    },
    {
        "title": "中国首位女航天员刘洋，结婚8年未生子，飞天前为丈夫留2条遗言",
        "docid": "7337291628640535049",
        "url": ""
    },
    {
        "title": "西伯利亚的冬天怎么过？吃住行还能忍受，上厕所才最辛苦",
        "docid": "7304735908719510016",
        "url": ""
    },
    {
        "title": "喜报！1个月内2篇一区SCI见刊！到底是如何做到的？",
        "docid": "7337973017526190627",
        "url": ""
    },
    {
        "title": "食草公知范士贵，如草原上的斑马，抛弃妻女，往欧美自由世界迁徙",
        "docid": "7337910532801888809",
        "url": ""
    },
    {
        "title": "飞机在万米高空，机舱严密封闭，是怎么保证几百个人氧气够用的？",
        "docid": "7337481762941288998",
        "url": ""
    },
    {
        "title": "银河系2000亿颗恒星，为什么太阳高速狂奔，却不和其它恒星相撞？",
        "docid": "7334316131719643686",
        "url": ""
    },
    {
        "title": "海南人背着全国偷偷过盛夏",
        "docid": "7337968291396223523",
        "url": ""
    },
    {
        "title": "羽绒服最好不要干洗",
        "docid": "7333409512730558985",
        "url": ""
    },
    {
        "title": "为什么新闻联播主持人从不低头念稿，他们全背下来了吗？涨知识了",
        "docid": "7332028162127512115",
        "url": ""
    },
    {
        "title": "一种人参，南方当菜种，只吃叶子不挖根，殊不知根部珍贵",
        "docid": "7324629344473776679",
        "url": ""
    },
    {
        "title": "南方下大雪！湖北襄阳暴雪红色预警+道路结冰红色预警，安徽大雪",
        "docid": "7337959937496678966",
        "url": ""
    },
    {
        "title": "在马里亚纳海沟一万多米深处，人类最不希望看到的东西，出现了",
        "docid": "7322062365447782912",
        "url": ""
    },
    {
        "title": "中国首次实现“空中发电”，发电量远超地面发电！会撞上飞机吗？",
        "docid": "7324509411790160403",
        "url": ""
    },
    {
        "title": "概率上分析，人类是宇宙唯一智慧物种的可能性有多大？",
        "docid": "7313772986627146249",
        "url": ""
    },
    {
        "title": "广东佛山：盾构机生产忙",
        "docid": "7311498978707800610",
        "url": ""
    },
    {
        "title": "上海：冰雹、暴雨、雷电闪现！湿冷魔法攻击何时休？",
        "docid": "7337991291823866378",
        "url": ""
    },
    {
        "title": "上海飞日本机票0元？航空公司靠什么赚钱？",
        "docid": "7337593511753384485",
        "url": ""
    },
    {
        "title": "核能在高级文明眼中只算是打火机！只有反物质，才是终极能源？",
        "docid": "7313556849876320822",
        "url": ""
    },
    {
        "title": "历史上“邪恶”的10项发明，简直就是灾难，你知道几个？",
        "docid": "7311933794980987429",
        "url": ""
    },
    {
        "title": "人类没有天敌？错，百万年前出现过，以人为食，人类始祖差点灭绝",
        "docid": "7307569741290455578",
        "url": ""
    },
    {
        "title": "“早就该炸掉”？让西安居民痛恨的三门峡大坝，是壮举还是败笔？",
        "docid": "7330829743874605620",
        "url": ""
    },
    {
        "title": "痛别！浙江籍巨星于9时18分逝世",
        "docid": "7337982966611935782",
        "url": ""
    },
    {
        "title": "红豆杉都成了行道树，怎么还是一级保护植物？满大街都有还濒危？",
        "docid": "7332048999538639387",
        "url": ""
    },
    {
        "title": "只有21页的爱因斯坦博士论文真容",
        "docid": "7308561253159485986",
        "url": ""
    },
    {
        "title": "英国的天才叫牛顿，德国的天才叫爱因斯坦，中国的天才叫啥？",
        "docid": "7310109622868754983",
        "url": ""
    },
    {
        "title": "“沙”与“砂”有什么区别？竟有80%的工程人分不清！",
        "docid": "7312349325978386944",
        "url": ""
    },
    {
        "title": "一组图了解美国",
        "docid": "7332095494980141602",
        "url": ""
    },
    {
        "title": "留美女硕士离奇消失，面对采访丈夫露出诡异微笑，破案异常烧脑",
        "docid": "7309641610915119631",
        "url": ""
    },
    {
        "title": "5个拥有奇葩身体部位的人，打破吉尼斯世界纪录，你还知道几个?",
        "docid": "7332134790844351013",
        "url": ""
    },
    {
        "title": "￼河南河北山西多地下“霰”，大家知道这个字读啥吗?",
        "docid": "7337837564529132047",
        "url": ""
    },
    {
        "title": "“量子纠缠”荣获诺贝尔物理学奖，或许大家的命运都早已被决定好",
        "docid": "7321997673849078287",
        "url": ""
    },
    {
        "title": "7个完全出于偶然的伟大发现",
        "docid": "7314460178940903999",
        "url": ""
    },
    {
        "title": "关于深圳西安直辖和郑州提副省级市及沈阳定国中市促南北均衡研究",
        "docid": "7336905299787481611",
        "url": ""
    },
    {
        "title": "冻不死、打不完的蚊子原来藏在这些地方",
        "docid": "7325642580133511720",
        "url": ""
    },
    {
        "title": "从“失败”实验中挖出封面论文！35岁博后回国即任“985”教授",
        "docid": "7329395878807323136",
        "url": ""
    },
    {
        "title": "重达1000公斤的“大老鼠”长什么样？",
        "docid": "7312315327495799306",
        "url": ""
    },
    {
        "title": "有哪些莫名其妙的身体反应，其实是有科学依据的？！",
        "docid": "7326428729096782370",
        "url": ""
    },
    {
        "title": "上帝不可能存在！霍金晚年到底发现了什么，临终遗作彻底否定神学",
        "docid": "7309445044874969654",
        "url": ""
    },
    {
        "title": "无法解释的“鼠王”：几十只老鼠尾巴打死结，吓翻无数外国人！",
        "docid": "7310617252578492928",
        "url": ""
    },
    {
        "title": "鸡的这个部位千万不能吃！多数人都不知道……",
        "docid": "7310857396119765539",
        "url": ""
    },
    {
        "title": "全国各省3D地形图详解",
        "docid": "7307468509624238603",
        "url": ""
    },
    {
        "title": "被静电电傻了？一招教你解决。",
        "docid": "7314742615226794515",
        "url": ""
    },
    {
        "title": "轮到我的时候我该说什么 | 陈冲：大气层河流",
        "docid": "7337980319636750911",
        "url": ""
    },
    {
        "title": "保温杯的使用禁忌，你知道吗？",
        "docid": "7320543068363424310",
        "url": ""
    },
    {
        "title": "马赫是什么意思？1马赫速度到底有多快？相当于每小时多少公里？",
        "docid": "7337189066888249875",
        "url": ""
    },
    {
        "title": "配电房绝缘垫要求标准，每个电气人员都应该了解清楚的",
        "docid": "7323410687689081396",
        "url": ""
    },
    {
        "title": "湖北发布地质灾害气象风险预警！这些地区发生崩塌、滑坡、泥石流的风险较大",
        "docid": "7338001330591875647",
        "url": ""
    },
    {
        "title": "牧之野：痛苦守恒定律",
        "docid": "7307991314229625395",
        "url": ""
    },
    {
        "title": "中国不适宜生存的十个城市，你认同吗？",
        "docid": "7337883606515319315",
        "url": ""
    },
    {
        "title": "阿尔卑斯山发现的2.8亿年前的恐龙“化石”或是涂料绘制而成",
        "docid": "7337204585486271010",
        "url": ""
    },
    {
        "title": "天才发明“金唇窃听器”，躺在美国国徽里7年，是如何工作的？",
        "docid": "7313001420205589001",
        "url": ""
    },
    {
        "title": "新疆塔里木53万km²，装满水成世界最大湖？别被地图骗了",
        "docid": "7323552766054629922",
        "url": ""
    },
    {
        "title": "被美国隐藏的电脑发明人：晚年留下一席话，值得中国人思考",
        "docid": "7327104929976336947",
        "url": ""
    },
    {
        "title": "大自然的力量有多可怕？36张图片带你看清，人类在自然里多么渺小",
        "docid": "7319856819579404854",
        "url": ""
    },
    {
        "title": "金字塔之谜揭开！科学家用渺子透视，终于看到金字塔内部是啥了",
        "docid": "7306806071274865162",
        "url": ""
    },
    {
        "title": "上海暴雨雨！天气预报“全黑”了？多地告急：停课、延迟开学！",
        "docid": "7337883159985717812",
        "url": ""
    },
    {
        "title": "又被发现了！中国绝密空天飞机：仅4天就释放6个物体，还能传信号",
        "docid": "7314444226585051698",
        "url": ""
    },
    {
        "title": "密度最大的物质能大到哪种程度？每立方厘米都重达20亿吨",
        "docid": "7315715171438903842",
        "url": ""
    },
    {
        "title": "全球前1%！ 西华大学这一科研团队发表论文入选ESI高被引论文",
        "docid": "7337960549861376551",
        "url": ""
    },
    {
        "title": "十堰竹山县女娲山通用机场计划本月底投用",
        "docid": "7308340184377278987",
        "url": ""
    },
    {
        "title": "为什么人体在被刺伤后，还没失去意识，就已经无力还击了？",
        "docid": "7306429306928923188",
        "url": ""
    },
    {
        "title": "那些没人教就不知道的生活常识！原来很多东西我们真的一知半解",
        "docid": "7338006657287094847",
        "url": ""
    },
    {
        "title": "每天了解一个省份“湖北篇”",
        "docid": "7338035847297614388",
        "url": ""
    },
    {
        "title": "美国女子将公猩猩当人养大，让它去上大学，却因伤害女同学被关？",
        "docid": "7335086640002023951",
        "url": ""
    },
    {
        "title": "仅45分钟，女驴友只剩一堆白骨，食腐秃鹫为啥会攻击活物？",
        "docid": "7312289359611413033",
        "url": ""
    },
    {
        "title": "这一次！多地下的是霰不是雪！什么是“霰”？它的出现是否常见？",
        "docid": "7337969828608786953",
        "url": ""
    },
    {
        "title": "抛硬币的结果不公平？科学家抛了35万次硬币，发现大家都被骗了？",
        "docid": "7308376245598339618",
        "url": ""
    },
    {
        "title": "这不是好事！AMOC接近临界点，地球或变冰球，6个安全界限被突破",
        "docid": "7337822609742021161",
        "url": ""
    },
    {
        "title": "全球最大一块无主领土，各国争抢日本觊觎，占地面积比中国还大",
        "docid": "7329723083978457640",
        "url": ""
    },
    {
        "title": "狼为啥吃人？老猎人说出原因“狼不把人当做人”，遇到狼如何自救",
        "docid": "7329829504309772840",
        "url": ""
    },
    {
        "title": "它是“溪流女王”，消失了20年，如今回归，却也成了“动不得鱼”",
        "docid": "7337146811784151604",
        "url": ""
    },
    {
        "title": "笑不活了！贵州网红猴子狂奔7公里到山下阿姨家吃饭，评论区笑死",
        "docid": "7337951946948870682",
        "url": ""
    },
    {
        "title": "松树上特有宝贝，很多人都见过，却不知它价值很高，采摘期仅7天",
        "docid": "7336643488127287834",
        "url": ""
    },
    {
        "title": "中国人轻松做到的5件事，在外国人眼里却难如登天，想学都学不会",
        "docid": "7334962942846485044",
        "url": ""
    },
    {
        "title": "紧急通知：大雪开始移动！安徽大范围雨雪已确定！暴雪！雨夹雪！",
        "docid": "7338027615053365794",
        "url": ""
    },
    {
        "title": "网上那些很火但是你却不是很懂的梗",
        "docid": "7331544733712220682",
        "url": ""
    },
    {
        "title": "原来这些生活中叫不出名儿的物件，都有专门的名字！真涨知识了",
        "docid": "7328206109569860159",
        "url": ""
    },
    {
        "title": "干掉千年沙漠，减少黄河年输沙量4亿吨，中国人种起树来有多狠？",
        "docid": "7306767228576645632",
        "url": ""
    },
    {
        "title": "12306的隐藏功能你都知道吗",
        "docid": "7338019824788914723",
        "url": ""
    },
    {
        "title": "1961年，美国将一只黑猩猩送上太空，回来后发现猩猩有些不对劲",
        "docid": "7319706651425112576",
        "url": ""
    },
    {
        "title": "全球首例猴子换头手术完成，成功苏醒，为何之后又实施安乐死？",
        "docid": "7308645184416547365",
        "url": ""
    },
    {
        "title": "原来他们眼中的中国地图是这样的，瞬间真相了。哈哈哈",
        "docid": "7338068028300706323",
        "url": ""
    },
    {
        "title": "同样是中国猛禽，金雕又大又威风，为何“万鹰之神”却是海东青？",
        "docid": "7310959421562192396",
        "url": ""
    },
    {
        "title": "四川境内长度超过300千米的河流有哪些？",
        "docid": "7338033346200535563",
        "url": ""
    },
    {
        "title": "每天了解一座城｜中国香港",
        "docid": "7338036502746333730",
        "url": ""
    },
    {
        "title": "一组数据看地中海：相比世界其他海域，它到底有什么特殊之处？",
        "docid": "7337952120307515938",
        "url": ""
    },
    {
        "title": "新疆-52.3℃！我国极寒天气有多冷",
        "docid": "7338031442029511179",
        "url": ""
    },
    {
        "title": "准静态加载下UD-FFRECs复合材料的断裂行为，韧性参数研究与评估",
        "docid": "7338030062127743498",
        "url": ""
    },
    {
        "title": "叫棍：旧时闯关东放山挖参人所用的摩尔斯代码，事关生死的麻达山",
        "docid": "7337882559252103715",
        "url": ""
    },
    {
        "title": "山地鸡中的“蓝精灵”雪中起舞 组团打卡祁连山",
        "docid": "7338027439354495523",
        "url": ""
    }
]