[
    {
        "title": "打赢旗舰攻坚战，借助他人「技术」完成自己辉煌，但总体用心！",
        "docid": "7302063176433369600",
        "url": ""
    },
    {
        "title": "iPhone：你的C口，我的C口，好像不一样~",
        "docid": "7288640966842384957",
        "url": "https://www.ixigua.com/7288640966842384957"
    },
    {
        "title": "行情惨淡，华为mate40成堆，不受欢迎！",
        "docid": "7296759349966275084",
        "url": "https://www.ixigua.com/7296759349966275084"
    },
    {
        "title": "虚拟视频聊天原来是这样的吗",
        "docid": "7307837085963649573",
        "url": "https://www.ixigua.com/7307837085963649573"
    },
    {
        "title": "好物分享｜开箱一加12邀请函，竟然还有望远镜和手机助拍器",
        "docid": "7308022591820661298",
        "url": "https://www.ixigua.com/7308022591820661298"
    },
    {
        "title": "可以说未来三年 13pro仍然是最完美的一代iPhone#iphone",
        "docid": "7300897712323428900",
        "url": "https://www.ixigua.com/7300897712323428900"
    },
    {
        "title": "山寨版华为Mate60Pro开箱：居然结合了iPhone的灵动岛",
        "docid": "7290841901224165951",
        "url": "https://www.ixigua.com/7290841901224165951"
    },
    {
        "title": "王自如早期测评iPhone5节选片段",
        "docid": "7305566162342019623",
        "url": "https://www.ixigua.com/7305566162342019623"
    },
    {
        "title": "实拍对比广州最大苹果和华为旗舰店，哪家更受欢迎？现场一探究竟",
        "docid": "7277169287981335074",
        "url": "https://www.ixigua.com/7277169287981335074"
    },
    {
        "title": "华为mate60rs非凡大师和三星s23ultra同时播放4k视频",
        "docid": "7283105582712619556",
        "url": "https://www.ixigua.com/7283105582712619556"
    },
    {
        "title": "小米14 Pro全网首发开箱，比昆仑玻璃还硬，1024无极可变光圈",
        "docid": "7294254182579175945",
        "url": "https://www.ixigua.com/7294254182579175945"
    },
    {
        "title": "相差1000，买华为Mate60还是Mate60 Pro？用了几天说说我的体验！",
        "docid": "7277479184501473807",
        "url": "https://www.ixigua.com/7277479184501473807"
    },
    {
        "title": "Nova系列手机不建议购买的原因",
        "docid": "7297809620599472649",
        "url": "https://www.ixigua.com/7297809620599472649"
    },
    {
        "title": "小米14对比vivo X100，先跑分再跑压力测试，谁能抗到最后？",
        "docid": "7301250493555311154",
        "url": "https://www.ixigua.com/7301250493555311154"
    },
    {
        "title": "魅族 21 价格出来了，3399 起，怎么样？",
        "docid": "7307159450593264139",
        "url": "https://www.ixigua.com/7307159450593264139"
    },
    {
        "title": "诺基亚8210，发布后迅速风靡大街小巷……  现如今20多年过去了",
        "docid": "7304565887456313866",
        "url": "https://www.ixigua.com/7304565887456313866"
    },
    {
        "title": "小米冰封散热背夹开箱体验：30W的制冷功率！",
        "docid": "7306892021145436710",
        "url": "https://www.ixigua.com/7306892021145436710"
    },
    {
        "title": "小米为什么要自研操作系统",
        "docid": "7294179817883664907",
        "url": "https://www.ixigua.com/7294179817883664907"
    },
    {
        "title": "从拼夕夕给家里老人买的荣耀X50，翻车没？",
        "docid": "7294291967326814756",
        "url": "https://www.ixigua.com/7294291967326814756"
    },
    {
        "title": "苹果15Pro上手体验了一天，比想象的更好用，依然是遥遥领先！",
        "docid": "7281613992542503424",
        "url": "https://www.ixigua.com/7281613992542503424"
    },
    {
        "title": "当年1299元的金立语音王手机，下单还送999元摄影机，如今值钱吗",
        "docid": "7290178914486321716",
        "url": "https://www.ixigua.com/7290178914486321716"
    },
    {
        "title": "提取码:xiaj",
        "docid": "7307982694460162595",
        "url": "https://www.ixigua.com/7307982694460162595"
    },
    {
        "title": "用了半个月，我总结了华为Mate60系列10个好用的功能和设置！",
        "docid": "7279662407620919867",
        "url": "https://www.ixigua.com/7279662407620919867"
    },
    {
        "title": "用S70 做珠宝类的双人直播如何做？#珠宝直播 #双人直播",
        "docid": "7307993976064344613",
        "url": "https://www.ixigua.com/7307993976064344613"
    },
    {
        "title": "华为Mate40Pro、Mate60Pro的流畅度对比，差距能有多大？",
        "docid": "7288305893996200487",
        "url": "https://www.ixigua.com/7288305893996200487"
    },
    {
        "title": "现在的针孔摄像头有多强大？4K影像带夜视，如何找到它",
        "docid": "7287543003667923456",
        "url": "https://www.ixigua.com/7287543003667923456"
    },
    {
        "title": "如何用大数剧视频音乐图片创作用的原创",
        "docid": "7307866092645712447",
        "url": "https://www.ixigua.com/7307866092645712447"
    },
    {
        "title": "「小白」10年手机性能翻30倍 体验翻多少？骁龙处理器进化史",
        "docid": "7290506355432129083",
        "url": "https://www.ixigua.com/7290506355432129083"
    },
    {
        "title": "#三星心系天下w24#三星折叠手机 三星w24开箱全网首拆!开箱视频",
        "docid": "7278988392304476731",
        "url": "https://www.ixigua.com/7278988392304476731"
    },
    {
        "title": "如果今年入手iPhone 15pro max，你会得到什么？",
        "docid": "7279756438019408419",
        "url": "https://www.ixigua.com/7279756438019408419"
    },
    {
        "title": "华为为什么卖这么贵？iPhone 15 Pro Max 大战华为Mate X5",
        "docid": "7291893263580332571",
        "url": "https://www.ixigua.com/7291893263580332571"
    },
    {
        "title": "我，新iPhone，还在挤牙膏",
        "docid": "7278543751985758760",
        "url": "https://www.ixigua.com/7278543751985758760"
    },
    {
        "title": "长高的OPPO Find N3，还会是你心中的菜吗？",
        "docid": "7291262876499575296",
        "url": "https://www.ixigua.com/7291262876499575296"
    },
    {
        "title": "X5入手，一个华为10年老用户的感慨",
        "docid": "7288260046369063478",
        "url": "https://www.ixigua.com/7288260046369063478"
    },
    {
        "title": "【DIY】我做了一个全自动翻盖手机壳",
        "docid": "7290858128667574803",
        "url": "https://www.ixigua.com/7290858128667574803"
    },
    {
        "title": "外国翻译不相信中国科技，亲自体验后结果被吓坏了",
        "docid": "7290521756123693609",
        "url": "https://www.ixigua.com/7290521756123693609"
    },
    {
        "title": "针对华为mate60pro，恨国党有了新动向，开始咬文嚼字了",
        "docid": "7287790722446295567",
        "url": "https://www.ixigua.com/7287790722446295567"
    },
    {
        "title": "WX实名包成功，绑卡资料",
        "docid": "7307908413319545381",
        "url": "https://www.ixigua.com/7307908413319545381"
    },
    {
        "title": "iPhone15 Pro/Pro Max的最意外优点，完美解决iPhone最顽固问题！",
        "docid": "7281966183644037693",
        "url": "https://www.ixigua.com/7281966183644037693"
    },
    {
        "title": "华为mate60横空出世，老男孩怀念自己用过三年的mate30，翻新一下",
        "docid": "7276095855449506338",
        "url": "https://www.ixigua.com/7276095855449506338"
    },
    {
        "title": "苹果15Promax到底值不值得买？#iphone15",
        "docid": "7292279908191961626",
        "url": "https://www.ixigua.com/7292279908191961626"
    },
    {
        "title": "华为vs苹果，系统生态之争！#王大沁 #鸿蒙系统 #华为 #美团",
        "docid": "7307920175263973926",
        "url": "https://www.ixigua.com/7307920175263973926"
    },
    {
        "title": "华为mate x5幻影紫开箱，一万三千块的华为绝色美学",
        "docid": "7278610872888066617",
        "url": "https://www.ixigua.com/7278610872888066617"
    },
    {
        "title": "才知道，快充和慢充区别原来这么大，不管多贵的手机，千万别混用",
        "docid": "7306884036080140851",
        "url": "https://www.ixigua.com/7306884036080140851"
    },
    {
        "title": "震撼！华为Mate60Pro超乎想象的长焦微距视频拍摄效果",
        "docid": "7279303848533951016",
        "url": "https://www.ixigua.com/7279303848533951016"
    },
    {
        "title": "以前那些年的经典手机，怀旧手机，手机历史。",
        "docid": "7308046085581177383",
        "url": "https://www.ixigua.com/7308046085581177383"
    },
    {
        "title": "想五年不换手机，可考虑这4款“12+256GB”手机，配置强悍速度快",
        "docid": "7275614663453835839",
        "url": "https://www.ixigua.com/7275614663453835839"
    },
    {
        "title": "这应该是目前最厉害远程控制软件，关键找不到收费的按钮",
        "docid": "7296100456957870602",
        "url": "https://www.ixigua.com/7296100456957870602"
    },
    {
        "title": "不出意外12月份，这三样东西大降价，建议大家先不要急着去购买",
        "docid": "7307442053405934132",
        "url": ""
    },
    {
        "title": "居然还有能自动打开气囊的手机壳，这也太离谱了，一帅小伙来亲测",
        "docid": "7290745087670420025",
        "url": "https://www.ixigua.com/7290745087670420025"
    },
    {
        "title": "镜头堆到极致，这4款最强的“拍照”手机，能够完美平替单反相机",
        "docid": "7287484609938326016",
        "url": "https://www.ixigua.com/7287484609938326016"
    },
    {
        "title": "丈母娘",
        "docid": "7307946061446775305",
        "url": "https://www.ixigua.com/7307946061446775305"
    },
    {
        "title": "Ai换肤",
        "docid": "7307920214090482213",
        "url": "https://www.ixigua.com/7307920214090482213"
    },
    {
        "title": "苹果14Pro对比苹果15Pro的使用体验，差距到底有多大？",
        "docid": "7282340230433079862",
        "url": "https://www.ixigua.com/7282340230433079862"
    },
    {
        "title": "小米刷鸿蒙教程来了！请务必看完教程再动手，否则一定变砖！",
        "docid": "7278235840097190452",
        "url": "https://www.ixigua.com/7278235840097190452"
    },
    {
        "title": "荣耀又降了！5800mAh+1亿像素+3倍抗摔，512GB才是1600",
        "docid": "7307917043637355060",
        "url": ""
    },
    {
        "title": "华为 Mate 60  Pro 实测：这能耗比，恐怖如斯",
        "docid": "7274956873856614973",
        "url": "https://www.ixigua.com/7274956873856614973"
    },
    {
        "title": "iPhone 15Pro Max信号有进步吗？和mate60Pro比怎么样",
        "docid": "7281717375538627133",
        "url": "https://www.ixigua.com/7281717375538627133"
    },
    {
        "title": "12pro13pro14pro15pro运行速度性能对比，没想到性价比最好的是它",
        "docid": "7295992705539768883",
        "url": "https://www.ixigua.com/7295992705539768883"
    },
    {
        "title": "三星Galaxy A35 5G (2024) -预告！",
        "docid": "7306845740939575848",
        "url": "https://www.ixigua.com/7306845740939575848"
    },
    {
        "title": "华为mate60入手一周，对比pro还是有很大差距的",
        "docid": "7281102230508274235",
        "url": "https://www.ixigua.com/7281102230508274235"
    },
    {
        "title": "2006年，三星W579上市",
        "docid": "7275227768592433664",
        "url": "https://www.ixigua.com/7275227768592433664"
    },
    {
        "title": "华为Mate60pro真的折磨人！第一次用四曲面屏幕浪费了好多钱~",
        "docid": "7286349974697312823",
        "url": "https://www.ixigua.com/7286349974697312823"
    },
    {
        "title": "iPhone第三方电池到底哪个品牌更好？名气最大的品胜就是最好的吗",
        "docid": "7275838019993600527",
        "url": "https://www.ixigua.com/7275838019993600527"
    },
    {
        "title": "MateX5使用体验，不如mate60Pro用的爽。#华为mateX5 #matex5",
        "docid": "7279734582776332800",
        "url": "https://www.ixigua.com/7279734582776332800"
    },
    {
        "title": "华为Mate60Pro适配了王者120帧，竟然是这种表现",
        "docid": "7275530976053494312",
        "url": "https://www.ixigua.com/7275530976053494312"
    },
    {
        "title": "巨耗电！我找到了偷走我们手机电量的真凶之一，遥遥领先……",
        "docid": "7304978809446072832",
        "url": "https://www.ixigua.com/7304978809446072832"
    },
    {
        "title": "看了苹果发布会，我想问：华为和苹果到底是谁被制裁了三年？",
        "docid": "7278151510398075450",
        "url": "https://www.ixigua.com/7278151510398075450"
    },
    {
        "title": "不装了？外媒：印度不满中国手机品牌出口额太低",
        "docid": "7307528899373285915",
        "url": ""
    },
    {
        "title": "2023年，总共用了7部手机，每一部都不完美，直到vivo x100Pro出现",
        "docid": "7305806939949220392",
        "url": ""
    },
    {
        "title": "无需破解，作者直接宣布免费！",
        "docid": "7304682905334039092",
        "url": ""
    },
    {
        "title": "iOS17.1.2正式版发布，附带升级建议",
        "docid": "7307391861797175848",
        "url": ""
    },
    {
        "title": "幸好没买小米14？同样都是3999元起，vivoX100这四点更香！",
        "docid": "7307434872560190015",
        "url": ""
    },
    {
        "title": "努比亚，依旧挣扎在小众怪圈",
        "docid": "7307502646435594788",
        "url": ""
    },
    {
        "title": "真我GT5 Pro售价3999元起，高配低价实属真香机",
        "docid": "7306078516687602230",
        "url": ""
    },
    {
        "title": "高级低饱和度深蓝初橙高级渐变手机壁纸分享啦！",
        "docid": "7299032293342069263",
        "url": ""
    },
    {
        "title": "为什么国产手机厂商都开始抛弃三星转用国产屏幕了？",
        "docid": "7304825925684757044",
        "url": ""
    },
    {
        "title": "Redmi K70 Pro值得入吗？一文教你做出正确选择，这五点要注意",
        "docid": "7306908301881770532",
        "url": ""
    },
    {
        "title": "FlymeOS中文名——“无界”正式公布！投票遥遥领先",
        "docid": "7307152705620066850",
        "url": ""
    },
    {
        "title": "红米新机太香了！5000mAh+120W+2亿像素，512GB良心降至1900",
        "docid": "7307143900739813928",
        "url": ""
    },
    {
        "title": "不吹不黑，Redmi K70系列真机上手体验，1999元起售香不香？",
        "docid": "7307155946508436008",
        "url": ""
    },
    {
        "title": "盘点苹果自带4个小众实用的功能，确实比安卓强！别放手里废了",
        "docid": "7304950299868004927",
        "url": ""
    },
    {
        "title": "安兔兔11月安卓性能榜出炉 红魔9Pro+领衔vivo占四个席位",
        "docid": "7307582570932322856",
        "url": ""
    },
    {
        "title": "出具阴阳检测报告？二手平台岂能“双标”",
        "docid": "7307796649999860276",
        "url": ""
    },
    {
        "title": "年轻人为啥又爱上了“老人机”？",
        "docid": "7305951913068003859",
        "url": ""
    },
    {
        "title": "聊聊2023年上手印象最深的6台手机，这段心路历程太想吐槽",
        "docid": "7306661180955902501",
        "url": ""
    },
    {
        "title": "华为可以自动上下班打卡？对打工人太友好了！",
        "docid": "7303753834088825363",
        "url": ""
    },
    {
        "title": "苹果手机升级17系统，这两个新功能太实用了。用了就回不去了。",
        "docid": "7305983720446575145",
        "url": ""
    },
    {
        "title": "小米14系列和红米K70P选购指南 | 小米14依旧独特，14Pro稍显尴尬",
        "docid": "7307430942740988479",
        "url": ""
    },
    {
        "title": "NFC怎么添加车钥匙！",
        "docid": "7307086833429578255",
        "url": ""
    },
    {
        "title": "折叠屏为什么没有成为主流？这几点原因很关键",
        "docid": "7306824428670255655",
        "url": ""
    },
    {
        "title": "iOS17.1.2：环保充电、强信号、流畅体验",
        "docid": "7307906336640303628",
        "url": ""
    },
    {
        "title": "荣耀 100 Pro对比荣耀 90 Pro，配置有哪些升级，一眼看懂",
        "docid": "7304647149085213223",
        "url": ""
    },
    {
        "title": "护眼属性Max，专业博主、大V提前体验一加12：没有缺点",
        "docid": "7307151793128276507",
        "url": ""
    },
    {
        "title": "手机：当初很火的后置指纹解锁功能，为什么现在都没有了？",
        "docid": "7304543027069534729",
        "url": ""
    },
    {
        "title": "打造最强标准版！这次卢伟冰很用心，1999的起售价不忘初心",
        "docid": "7307401091161801267",
        "url": ""
    },
    {
        "title": "顶配的荣耀100，还是低配的荣耀90 Pro？网友：大存储用得更久",
        "docid": "7305234411082727987",
        "url": ""
    },
    {
        "title": "未量产的折叠屏手机形态盘点：科幻感十足，哪款你最期望入手？",
        "docid": "7307901005914964506",
        "url": ""
    },
    {
        "title": "绝了，“干翻小米，超越华为，秒杀苹果”的荣耀狠起来谁都拦不住",
        "docid": "7306042083544957477",
        "url": ""
    },
    {
        "title": "iPhone最强大功能：快捷指令！不会用它就太浪费啦！",
        "docid": "7306795804545778212",
        "url": ""
    },
    {
        "title": "华为麒麟5G设备再曝光，小折叠、中端机都有",
        "docid": "7308005598959010314",
        "url": ""
    },
    {
        "title": "华为OPPO助力 京东方今年将出货1.2亿片柔性OLED",
        "docid": "7307420639127061032",
        "url": ""
    },
    {
        "title": "苹果有意放弃自研5G基带，iPhone 16 Pro Max将配备6.9英寸屏幕",
        "docid": "7307280259006087689",
        "url": ""
    },
    {
        "title": "千万别乱删！小米手机自带软件太好用了！",
        "docid": "7303394300782592548",
        "url": ""
    },
    {
        "title": "K70凭什么开售5分钟销量突破60万台？三个原因都抓住了",
        "docid": "7307810214395347465",
        "url": ""
    },
    {
        "title": "机情问答：拍照选小米14还是vivo X100 要等一加12吗？",
        "docid": "7307567582159192603",
        "url": ""
    },
    {
        "title": "荣耀 100 Pro「对比」荣耀 Magic5",
        "docid": "7307938548157022732",
        "url": ""
    },
    {
        "title": "高估苹果了？iPhone15自拍对比OPPO荣耀新机，这差距有点大",
        "docid": "7307514304016990735",
        "url": ""
    },
    {
        "title": "超七成受访家庭认为手机可替代钱包 六成以上担心信息安全",
        "docid": "7307466871283237402",
        "url": ""
    },
    {
        "title": "三星Galaxy S24 Ultra与iPhone 15 Pro Max孰好孰坏？全方位对比",
        "docid": "7308013595831419431",
        "url": ""
    },
    {
        "title": "全国产方案加持，小巧高效，安克新款67W氮化镓充电器拆解",
        "docid": "7307552103945011724",
        "url": ""
    },
    {
        "title": "OPPO Reno11领先功能被挖掘：打破生态壁垒 与Win/苹果系统高效互联",
        "docid": "7307571377358455308",
        "url": ""
    },
    {
        "title": "买iPhone15完全没必要？我用了一个月，感觉没有这么糟糕啊！",
        "docid": "7307510686760829476",
        "url": ""
    },
    {
        "title": "2024年旗舰手机价格或上涨 因三星提高图像传感器价格？",
        "docid": "7307469605809963532",
        "url": ""
    },
    {
        "title": "魅族是节奏的开拓者，却遭受严酷的吐槽考验，算是公平吗？",
        "docid": "7301667742719967759",
        "url": ""
    },
    {
        "title": "2023年旗舰手机汇总：这五台旗舰机，最让人印象深刻！",
        "docid": "7307235714150760994",
        "url": ""
    },
    {
        "title": "对标Pro机型的一加12，价格成最大悬念，卖4799你动心吗？",
        "docid": "7307844341639365135",
        "url": ""
    },
    {
        "title": "您有多久没换手机了？",
        "docid": "7307572336352805403",
        "url": ""
    },
    {
        "title": "说实话，首发入手iPhone15我有点后悔了，但实际体验下来也还行",
        "docid": "7307152196758684175",
        "url": ""
    },
    {
        "title": "聊什么推什么？你的手机可能在“偷听”！",
        "docid": "7279968125595042358",
        "url": ""
    },
    {
        "title": "华为手机桌面的隐藏技巧，原来有这么多功能，真是大材小用了",
        "docid": "7300083227719893567",
        "url": ""
    },
    {
        "title": "花500块买了一部辐射超标的苹果12，结果把测试仪都测爆了",
        "docid": "7280836130663531060",
        "url": "https://www.ixigua.com/7280836130663531060"
    },
    {
        "title": "一个手机震惊我两次，网友坐飞机时边上的大爷用手机投影",
        "docid": "7300502645477900810",
        "url": "https://www.ixigua.com/7300502645477900810"
    },
    {
        "title": "不用验证就可以安装",
        "docid": "7307893158824804873",
        "url": "https://www.ixigua.com/7307893158824804873"
    },
    {
        "title": "梦都同城@梦都同城 @梦都同城9 @梦都同城",
        "docid": "7307880016355066409",
        "url": "https://www.ixigua.com/7307880016355066409"
    },
    {
        "title": "当年1万8的8848钛金手机，现在只要400，人机分离十米自动……",
        "docid": "7284906645837054504",
        "url": "https://www.ixigua.com/7284906645837054504"
    },
    {
        "title": "用了几天小米14，还是有点不习惯，考虑一晚上还是决定退了！",
        "docid": "7298182302251614730",
        "url": "https://www.ixigua.com/7298182302251614730"
    },
    {
        "title": "花1666买了一部二手的苹果15pro，开箱后直接给气蒙了！",
        "docid": "7285319041017709090",
        "url": "https://www.ixigua.com/7285319041017709090"
    },
    {
        "title": "我们两个发生了激烈的吵闹！😅😅😅",
        "docid": "7307913540819092002",
        "url": "https://www.ixigua.com/7307913540819092002"
    },
    {
        "title": "“锁子甲”手机壳",
        "docid": "7306396897064223241",
        "url": "https://www.ixigua.com/7306396897064223241"
    },
    {
        "title": "华为 Mate X5、OPPOFind N3、三星W24三款大折叠屏手机，差异？",
        "docid": "7291576292603134498",
        "url": "https://www.ixigua.com/7291576292603134498"
    },
    {
        "title": "男子捡手机后要价千元：不给就刷机 董明珠曾建议捡手机拒不归应严惩",
        "docid": "7308182215807468084",
        "url": ""
    },
    {
        "title": "鸿蒙系统推出\"开启5G开关\"功能，为用户提供更便利的网络切换体验",
        "docid": "7307604412564980276",
        "url": ""
    },
    {
        "title": "花600元买13个手机盲盒，号称最高能中苹果12手机，结果如何？",
        "docid": "7298335509666136611",
        "url": "https://www.ixigua.com/7298335509666136611"
    },
    {
        "title": "华为Mate60Pro对比iPhone15Pro流畅度测试，新麒麟和A17Pro谁更强",
        "docid": "7282276283516781108",
        "url": "https://www.ixigua.com/7282276283516781108"
    },
    {
        "title": "#问就是鼎 pg",
        "docid": "7307876049340072484",
        "url": "https://www.ixigua.com/7307876049340072484"
    },
    {
        "title": "666",
        "docid": "7308201553142219291",
        "url": "https://www.ixigua.com/7308201553142219291"
    },
    {
        "title": "10年米粉换用iPhone！什么体验？",
        "docid": "7276763934370038287",
        "url": "https://www.ixigua.com/7276763934370038287"
    },
    {
        "title": "女子用2年的华为手机，意外发现摄像头膜没撕，前后拍照对比绝了",
        "docid": "7291107227761377829",
        "url": "https://www.ixigua.com/7291107227761377829"
    },
    {
        "title": "苹果手机和华为手机你更倾向用哪个？路人回答一边倒",
        "docid": "7278246085020254777",
        "url": "https://www.ixigua.com/7278246085020254777"
    },
    {
        "title": "不同思密达的声音",
        "docid": "7308147368296186405",
        "url": "https://www.ixigua.com/7308147368296186405"
    },
    {
        "title": "老妈无意间解锁手机新功能，对准儿子试卷一顿扫描，下秒猝不及防",
        "docid": "7283724376070226493",
        "url": "https://www.ixigua.com/7283724376070226493"
    },
    {
        "title": "美国博主买到了华为Mate60pro外国网友:我加2000美元，卖给我吧。",
        "docid": "7275590910367564323",
        "url": "https://www.ixigua.com/7275590910367564323"
    },
    {
        "title": "鸿蒙系统为什么送人都没人要，听听罗永浩讲的你或许就明白了！",
        "docid": "7305320462425752115",
        "url": "https://www.ixigua.com/7305320462425752115"
    },
    {
        "title": "女子误将苹果电脑偏光膜当屏保膜撕下后，把膜做成眼镜：专属防窥",
        "docid": "7304473126602015243",
        "url": "https://www.ixigua.com/7304473126602015243"
    },
    {
        "title": "评论区呼声最高的是这张图，喜欢的换上吧！#iPhone壁纸",
        "docid": "7290411208476361255",
        "url": "https://www.ixigua.com/7290411208476361255"
    },
    {
        "title": "支持华为9950元入手Mate60pro+，仅上手一小时，心态崩了太耽误事",
        "docid": "7291695730111185462",
        "url": "https://www.ixigua.com/7291695730111185462"
    },
    {
        "title": "相隔千里的两部手机却能实时通话，这背后的原理究竟是如何做到？",
        "docid": "7281652717049938471",
        "url": "https://www.ixigua.com/7281652717049938471"
    },
    {
        "title": "苹果15发布后，目前地表最强三款手机大对比！",
        "docid": "7280019257147163171",
        "url": "https://www.ixigua.com/7280019257147163171"
    },
    {
        "title": "苹果初代手机距今16年了居然还能用——iPhone2G",
        "docid": "7274886586284638778",
        "url": "https://www.ixigua.com/7274886586284638778"
    },
    {
        "title": "#魅族21 魅族刚发布的新品21，发布会现场上手体验",
        "docid": "7307174045626139146",
        "url": "https://www.ixigua.com/7307174045626139146"
    },
    {
        "title": "首发华为Mate60Pro，毁在了一张钢化膜上。贴膜需谨慎！ #华为",
        "docid": "7307588270588690963",
        "url": "https://www.ixigua.com/7307588270588690963"
    },
    {
        "title": "我用 iPhone 14 Pro 以旧换新了一台 15 Pro，每天少吃一根冰棍",
        "docid": "7295287050008756736",
        "url": "https://www.ixigua.com/7295287050008756736"
    },
    {
        "title": "华为mate60pro是真的难用！仅仅几天把能踩得坑全踩了",
        "docid": "7293084972720587302",
        "url": "https://www.ixigua.com/7293084972720587302"
    },
    {
        "title": "雨见浏览器7.5.4更新详解 媒体助手提升媒体播放体验",
        "docid": "7308209275883553295",
        "url": ""
    },
    {
        "title": "微信“安静模式”正式上线，还有5大新功能",
        "docid": "7307269800533754405",
        "url": ""
    },
    {
        "title": "苹果上线短片介绍无障碍“个人声音”和“实时语音”功能",
        "docid": "7308227595437556264",
        "url": ""
    },
    {
        "title": "刚拿到小米14pro，本来觉得四曲面的钢化膜很难贴膜，结果？",
        "docid": "7296856912648864271",
        "url": "https://www.ixigua.com/7296856912648864271"
    },
    {
        "title": "身份证照片不满意？自行更换攻略来啦！",
        "docid": "7291248681859154468",
        "url": "https://www.ixigua.com/7291248681859154468"
    },
    {
        "title": "头像",
        "docid": "7308165514382180903",
        "url": "https://www.ixigua.com/7308165514382180903"
    },
    {
        "title": "这么久了，刚做自我介绍",
        "docid": "7307962541354222114",
        "url": "https://www.ixigua.com/7307962541354222114"
    },
    {
        "title": "iPhone15 Pro Max使用一周后，它这三个缺点，让我难受！",
        "docid": "7284234773588476435",
        "url": "https://www.ixigua.com/7284234773588476435"
    },
    {
        "title": "华为mate60pro遭老罪了，昆仑玻璃硬刚几十吨压路机！#华为",
        "docid": "7279027461504500285",
        "url": "https://www.ixigua.com/7279027461504500285"
    },
    {
        "title": "花1999买的苹果15Promax，卖家实在是太良心了！",
        "docid": "7298703504021127720",
        "url": "https://www.ixigua.com/7298703504021127720"
    },
    {
        "title": "西瓜视频我都剪完了，你就给我卡没了",
        "docid": "7308179476477641227",
        "url": "https://www.ixigua.com/7308179476477641227"
    },
    {
        "title": "当年的万元机皇，如今怎么样？",
        "docid": "7277496605006103094",
        "url": "https://www.ixigua.com/7277496605006103094"
    },
    {
        "title": "这该死的少年感，原谅我的语无伦次，红魔9pro+",
        "docid": "7301525265811767818",
        "url": "https://www.ixigua.com/7301525265811767818"
    },
    {
        "title": "从2499元跌至1279元，12GB+256GB，120W闪充旗舰售价近乎“腰斩”",
        "docid": "7307647142456443401",
        "url": ""
    },
    {
        "title": "逆风翻盘，华为终于夺回销量第一，嘴硬可不行某品牌跌倒第五了",
        "docid": "7287726480321315385",
        "url": "https://www.ixigua.com/7287726480321315385"
    },
    {
        "title": "700多的山寨Mate60 Pro和7000多的华为手机有多大区别？",
        "docid": "7288364370495537701",
        "url": "https://www.ixigua.com/7288364370495537701"
    },
    {
        "title": "盘点iphone最耐用的机型，来看看你用过哪几部",
        "docid": "7298710560726581795",
        "url": "https://www.ixigua.com/7298710560726581795"
    },
    {
        "title": "华为MATE 60 PRO 到底有多牛!  外国网友：简直可以当望远镜用了",
        "docid": "7276111191859003944",
        "url": "https://www.ixigua.com/7276111191859003944"
    },
    {
        "title": "国产屏幕 ！真的很差吗 ？细节见真章",
        "docid": "7304923878361399823",
        "url": "https://www.ixigua.com/7304923878361399823"
    },
    {
        "title": "马来西亚第一个开箱华为Mate60 Pro是我了吧！白色真的yyds！",
        "docid": "7290504614884540987",
        "url": "https://www.ixigua.com/7290504614884540987"
    },
    {
        "title": "几百个人，没一个需要扶贫的?（进群方法在视频里）",
        "docid": "7308039949025182259",
        "url": "https://www.ixigua.com/7308039949025182259"
    },
    {
        "title": "“让友商失望了”#小米5 发布会上送给友商的一句话",
        "docid": "7285977785808781865",
        "url": "https://www.ixigua.com/7285977785808781865"
    },
    {
        "title": "曾比肩华为小米的国产机王，如今只能靠老人机求生（天语）",
        "docid": "7303349485655196160",
        "url": "https://www.ixigua.com/7303349485655196160"
    },
    {
        "title": "网友建议保障老旧手机基础通信，工信部：2G/3G退网是必然选择，也要保障用户权益",
        "docid": "7308256645485183514",
        "url": ""
    },
    {
        "title": "华为Mate60 Pro+开箱：宣白确实漂亮啊！",
        "docid": "7282999445103477248",
        "url": "https://www.ixigua.com/7282999445103477248"
    },
    {
        "title": "小米14 当主力机使用两周后 总结8点",
        "docid": "7300073724391358976",
        "url": "https://www.ixigua.com/7300073724391358976"
    },
    {
        "title": "解压",
        "docid": "7307964876305990153",
        "url": "https://www.ixigua.com/7307964876305990153"
    },
    {
        "title": "教你们下载自带模组的甜瓜游乐场。(简单版。)",
        "docid": "7308228278660104755",
        "url": "https://www.ixigua.com/7308228278660104755"
    },
    {
        "title": "高下立判？华为mate60pro对比三星s23ultra？内部做工设计对比",
        "docid": "7293406727209222695",
        "url": "https://www.ixigua.com/7293406727209222695"
    },
    {
        "title": "华为mate60pro五天的使用感受",
        "docid": "7276683235327902244",
        "url": "https://www.ixigua.com/7276683235327902244"
    },
    {
        "title": "体验了一波魅族21，不吹不黑，这些优点值得提一提！",
        "docid": "7308267054019461669",
        "url": ""
    },
    {
        "title": "中国手机消费低迷，拖累日本电子厂出货额连11个月萎缩",
        "docid": "7308265665066975798",
        "url": ""
    },
    {
        "title": "红米K70开箱体验，除了小米澎湃OS的加持，还有哪些升级和变化？",
        "docid": "7307241573178311187",
        "url": "https://www.ixigua.com/7307241573178311187"
    },
    {
        "title": "乌克兰丈母娘第一次使用华为手机，被高科技惊艳：哇，好神奇！",
        "docid": "7279673094569591335",
        "url": "https://www.ixigua.com/7279673094569591335"
    },
    {
        "title": "等了一个多月的华为Mate60标准版终于到了，比Pro更适合我！",
        "docid": "7304187962336641570",
        "url": "https://www.ixigua.com/7304187962336641570"
    },
    {
        "title": "3399值得买吗？魅族21相机打开的一瞬间 红米K70 Pro直接扔了！",
        "docid": "7307183908075143743",
        "url": "https://www.ixigua.com/7307183908075143743"
    },
    {
        "title": "最窄下巴？最美直屏？魅族21 开箱上手",
        "docid": "7306429634197848617",
        "url": "https://www.ixigua.com/7306429634197848617"
    },
    {
        "title": "居然怀疑我的不是魅族21？#手机 #魅族 #魅族21",
        "docid": "7306705507069526568",
        "url": "https://www.ixigua.com/7306705507069526568"
    },
    {
        "title": "美国欧洲抢购华为mate60说安全，是个笑话",
        "docid": "7307468667468546598",
        "url": "https://www.ixigua.com/7307468667468546598"
    },
    {
        "title": "荣耀X50，用了3天了，有些东西，苹果还真没有，今天来展示一下。",
        "docid": "7282182667754439208",
        "url": "https://www.ixigua.com/7282182667754439208"
    },
    {
        "title": "曝华为pocket S2发布日期推迟至春节后 能否成为爆款？",
        "docid": "7308283897182192147",
        "url": ""
    },
    {
        "title": "标准版之名单挑所有Pro，一加12配置汇总，你看中哪一点？",
        "docid": "7308285606944113206",
        "url": ""
    },
    {
        "title": "四季度换手机攻略：苹果华为看预算，安卓卷王旗舰发布倒计时",
        "docid": "7308290902119055883",
        "url": ""
    },
    {
        "title": "头条发文上传图片操作步骤",
        "docid": "7308260330751214121",
        "url": ""
    },
    {
        "title": "全网都在猜价格，产品力超越友商Pro的一加十年旗舰卖多少？",
        "docid": "7297968538638697023",
        "url": ""
    },
    {
        "title": "最全的一加12亮点汇总，卖价4599起？真香气质吊打友商Pro",
        "docid": "7308293750802121250",
        "url": ""
    },
    {
        "title": "为什么我劝你别买华为Mate60Pro+?",
        "docid": "7277906300883862050",
        "url": "https://www.ixigua.com/7277906300883862050"
    },
    {
        "title": "小米对比华为和vivo 5G信号网速测试，测试结果差距让人难以置信",
        "docid": "7306030145926595084",
        "url": "https://www.ixigua.com/7306030145926595084"
    },
    {
        "title": "浙江最大华为手机店与苹果直营店，看现场，两家店真实现状怎么样",
        "docid": "7285301719163273780",
        "url": "https://www.ixigua.com/7285301719163273780"
    },
    {
        "title": "越南人用什么样的手机？越南人都喜欢什么牌子的手机？",
        "docid": "7296823904402670090",
        "url": "https://www.ixigua.com/7296823904402670090"
    },
    {
        "title": "我太喜欢这手机了",
        "docid": "7281336086390014479",
        "url": "https://www.ixigua.com/7281336086390014479"
    },
    {
        "title": "在美国用惯了苹果手机，第一次使用华为mate60pro，真的好用吗",
        "docid": "7286708567733142073",
        "url": "https://www.ixigua.com/7286708567733142073"
    },
    {
        "title": "微信iOS版：小更新，大惊喜",
        "docid": "7307954496062210571",
        "url": ""
    },
    {
        "title": "12月换新手机建议：iPhone能上超大杯最好，国产旗舰先看一加12",
        "docid": "7308293340158607906",
        "url": ""
    },
    {
        "title": "仅通过一部手机！其中的「参数与配置」，让我们洞悉未来发展方向",
        "docid": "7302281551688221223",
        "url": ""
    },
    {
        "title": "中国最经典的手机是什么",
        "docid": "7308033742465925683",
        "url": "https://www.ixigua.com/7308033742465925683"
    },
    {
        "title": "卢伟冰谈红米 1代的799，当时他还在金立做高管，听到799震惊了。",
        "docid": "7281235187651609125",
        "url": "https://www.ixigua.com/7281235187651609125"
    },
    {
        "title": "华为mate60Pro从开始，到现在一直用的软膜终于撕掉了！",
        "docid": "7290903094597485114",
        "url": "https://www.ixigua.com/7290903094597485114"
    },
    {
        "title": "传音 Tecno Spark 20开箱评测，国外性价比之王诞生！",
        "docid": "7308197965431210535",
        "url": "https://www.ixigua.com/7308197965431210535"
    },
    {
        "title": "开箱2007年发布的手机诺基亚N800，搭载微软系统，堪比掌上电脑",
        "docid": "7284567221441921597",
        "url": "https://www.ixigua.com/7284567221441921597"
    },
    {
        "title": "全网首发！魅族21音质实测，这效果太强了！",
        "docid": "7307222758105350696",
        "url": "https://www.ixigua.com/7307222758105350696"
    },
    {
        "title": "国产手机超强防盗系统，吓坏手机店老板，网友：它丢了能自己回家",
        "docid": "7307881077866299954",
        "url": "https://www.ixigua.com/7307881077866299954"
    },
    {
        "title": "华为 X5 新手机出现问题，用户维权难！",
        "docid": "7308307932775465511",
        "url": ""
    },
    {
        "title": "【旗舰】屏下8G3影像旗舰来了 努比亚Z60Ultra预热",
        "docid": "7307961129128116788",
        "url": ""
    },
    {
        "title": "2023 App Store Award揭晓！八大获奖应用全面解析！",
        "docid": "7308194835909837352",
        "url": ""
    },
    {
        "title": "OPPO连续两个月国内出前五，realme比一加还惨",
        "docid": "7307793966399898153",
        "url": ""
    },
    {
        "title": "华为P70即将上市，鸿蒙生态日趋完善。#华为 #鸿蒙 #手机 #智能",
        "docid": "7307491195830305343",
        "url": "https://www.ixigua.com/7307491195830305343"
    },
    {
        "title": "删哪个?(*꒦ິ⌓꒦ີ)",
        "docid": "7308284052329955891",
        "url": "https://www.ixigua.com/7308284052329955891"
    },
    {
        "title": "数码考古：遥遥领先，但苹果篇 #数码科技 #苹果 #手机 #苹果公司",
        "docid": "7308204549435720211",
        "url": "https://www.ixigua.com/7308204549435720211"
    },
    {
        "title": ".",
        "docid": "7308112918615163455",
        "url": "https://www.ixigua.com/7308112918615163455"
    },
    {
        "title": "老罗爆笑吐槽宠粉送512g的华为Mate 60手机",
        "docid": "7282025690046677504",
        "url": "https://www.ixigua.com/7282025690046677504"
    },
    {
        "title": "老婆3年没换手机，结果换了iPhone15",
        "docid": "7287417540270260790",
        "url": "https://www.ixigua.com/7287417540270260790"
    },
    {
        "title": "OPPO find n3 荣耀magic vs2 播放杜比视界视频，差别巨大。。",
        "docid": "7291581995061084672",
        "url": "https://www.ixigua.com/7291581995061084672"
    },
    {
        "title": "老外测试华为Mate60耐造性能，冲着玄武架构要把它玩坏",
        "docid": "7281484574134272568",
        "url": "https://www.ixigua.com/7281484574134272568"
    },
    {
        "title": "同是旗舰机器，小米14和华为Mate60怎么选？一文看懂",
        "docid": "7306405362083856935",
        "url": ""
    },
    {
        "title": "国外看华为mate 60上手体验 网友：一个国家的科学进步没人能阻挡",
        "docid": "7277763210487267855",
        "url": "https://www.ixigua.com/7277763210487267855"
    },
    {
        "title": "苹果15promax百亿补贴8499，能抢到就是真香机256G也够用",
        "docid": "7307923799771775522",
        "url": "https://www.ixigua.com/7307923799771775522"
    },
    {
        "title": "百人群请进",
        "docid": "7308150310562693647",
        "url": "https://www.ixigua.com/7308150310562693647"
    },
    {
        "title": "喝琼浆玉液，酒后吐真言！",
        "docid": "7308210603473469963",
        "url": "https://www.ixigua.com/7308210603473469963"
    },
    {
        "title": "iPhone11、iPhone12、iPhone13、iPhone14、iPhone15跑分对比测试",
        "docid": "7298340140182110761",
        "url": "https://www.ixigua.com/7298340140182110761"
    },
    {
        "title": "花4500买了台二手手机，结果被老婆骂了一顿，只希望不要翻车了",
        "docid": "7288580981547041341",
        "url": "https://www.ixigua.com/7288580981547041341"
    },
    {
        "title": "华为mate60Pro与苹果15Pro秀肌肉，吃饭时别看，容易笑喷",
        "docid": "7281175113104687673",
        "url": "https://www.ixigua.com/7281175113104687673"
    },
    {
        "title": "5年前华为Mate20Pro对比Mate60Pro+，麒麟980对比麒麟9000s谁更强",
        "docid": "7277057778324079104",
        "url": "https://www.ixigua.com/7277057778324079104"
    },
    {
        "title": "真心不建议普通人去入手华为MateX5，看完你就明白了！",
        "docid": "7279257839464350208",
        "url": "https://www.ixigua.com/7279257839464350208"
    },
    {
        "title": "苹果14Pro对抗Mate60pro，这结局，意料之外",
        "docid": "7277832151432462909",
        "url": "https://www.ixigua.com/7277832151432462909"
    },
    {
        "title": "国货良心！华为手机，搭配一亿像素质感人像，实用性绝对",
        "docid": "7302407400022180387",
        "url": ""
    },
    {
        "title": "5g手机5g卡怎么还是显示4g网络？",
        "docid": "7308341070230962742",
        "url": ""
    },
    {
        "title": "好大一盒邀请函，里面都有啥？",
        "docid": "7307600726728344104",
        "url": "https://www.ixigua.com/7307600726728344104"
    },
    {
        "title": "我朋友入了华为Mate60 Pro，用了两天就要换回苹果，说不好用",
        "docid": "7290394598252216895",
        "url": "https://www.ixigua.com/7290394598252216895"
    },
    {
        "title": "开箱小米14Pro，雷军说对标iPhone15ProMax，这配置，打的过吗？",
        "docid": "7294291328538509858",
        "url": "https://www.ixigua.com/7294291328538509858"
    },
    {
        "title": "华为Mate60Pro对比Magic5Pro 5G网速测试，华为和荣耀谁信号更好",
        "docid": "7277101989539152396",
        "url": "https://www.ixigua.com/7277101989539152396"
    },
    {
        "title": "终于有厂商搞明白，竖折屏用来干嘛的：锐评OPPO Find N3 Flip！",
        "docid": "7275646962618073639",
        "url": "https://www.ixigua.com/7275646962618073639"
    },
    {
        "title": "华为Mate60 Pro+使用体验，跟Pro有什么区别？多花2000是冤种吗",
        "docid": "7297604551928971816",
        "url": "https://www.ixigua.com/7297604551928971816"
    },
    {
        "title": "有需要的私信",
        "docid": "7308214494356996662",
        "url": "https://www.ixigua.com/7308214494356996662"
    },
    {
        "title": "虐到爆",
        "docid": "7308266556398666275",
        "url": "https://www.ixigua.com/7308266556398666275"
    },
    {
        "title": "苹果换华为Mate60，仅25G微信导入用4小时，苹果华为谁的问题？",
        "docid": "7291988613909185060",
        "url": "https://www.ixigua.com/7291988613909185060"
    },
    {
        "title": "华为Mate60、Mate40Pro和Mate30Pro速度对比，三代旗舰差距多大？",
        "docid": "7275894478437614095",
        "url": "https://www.ixigua.com/7275894478437614095"
    },
    {
        "title": "评论之星·漫评 | 差价易“赚”，信用难“赚”",
        "docid": "7308355242839048744",
        "url": ""
    },
    {
        "title": "刚买的钛金属原色iPhone15Pro就退货了！ #iphone15pro #苹果手机",
        "docid": "7283684192309903891",
        "url": "https://www.ixigua.com/7283684192309903891"
    },
    {
        "title": "微信也可以开启远程监控了！设置方法简单易懂，手把手教你！",
        "docid": "7289777871168799288",
        "url": "https://www.ixigua.com/7289777871168799288"
    },
    {
        "title": "ChatGPT国内怎么用？使用教学",
        "docid": "7308270246714933812",
        "url": "https://www.ixigua.com/7308270246714933812"
    },
    {
        "title": "几乎0差评的三款骁龙8gen2手机，价格便宜还耐用",
        "docid": "7284840824582603283",
        "url": "https://www.ixigua.com/7284840824582603283"
    },
    {
        "title": "黑莓手机兴衰史，据说每一个资深手机玩家都曾经有一部黑莓手机",
        "docid": "7308306589940154919",
        "url": "https://www.ixigua.com/7308306589940154919"
    },
    {
        "title": "「百亿补贴踩坑」iphone15翻车退货历险记",
        "docid": "7284182891519541823",
        "url": "https://www.ixigua.com/7284182891519541823"
    },
    {
        "title": "华为mate60pro在万米高空实测卫星通话 #华为手机 #mate60pro",
        "docid": "7277100847807496744",
        "url": "https://www.ixigua.com/7277100847807496744"
    },
    {
        "title": "直播间无法关注，无法聊天，无法购物，只能送礼物，怎么解决？",
        "docid": "7308184874509468210",
        "url": "https://www.ixigua.com/7308184874509468210"
    },
    {
        "title": "省话费的巨好消息",
        "docid": "7308250572560269862",
        "url": "https://www.ixigua.com/7308250572560269862"
    },
    {
        "title": "「阿岳」辜负期待？小米14Pro只说缺点",
        "docid": "7296523387382432308",
        "url": "https://www.ixigua.com/7296523387382432308"
    },
    {
        "title": "难怪要抢Mate60，这6个豪横功能你得知道！#华为mate60pro",
        "docid": "7276747809162789439",
        "url": "https://www.ixigua.com/7276747809162789439"
    },
    {
        "title": "realmeGT5Pro真是“猛将”，5400mAh+无线充+超长焦，价格很公道",
        "docid": "7306800347568423476",
        "url": ""
    },
    {
        "title": "iPhone 15pro和华为mate60pro同时从时速百公里车上扔出去",
        "docid": "7281820970048979512",
        "url": "https://www.ixigua.com/7281820970048979512"
    },
    {
        "title": "一万块买的iPhone15被5块钱的膜毁了！",
        "docid": "7281919227500429864",
        "url": "https://www.ixigua.com/7281919227500429864"
    },
    {
        "title": "11999元华为Mate60Rs对比9999元的Mate60Pro+，哪个性价比高？",
        "docid": "7282723775915917858",
        "url": "https://www.ixigua.com/7282723775915917858"
    },
    {
        "title": "华为手机“狗”都不买，你们还“尬吹”华为mate60?#华为 #mate60",
        "docid": "7306079857392222771",
        "url": "https://www.ixigua.com/7306079857392222771"
    }
]