[
    {
        "title": "热闹了！连华为千元机都超越iPhone 配置，苹果将成诺基亚2.0？",
        "docid": "7302810462427857408",
        "url": ""
    },
    {
        "title": "买荣耀手机，这4款机型“性价比”非常高，其中一款仅售1299元",
        "docid": "7300853068500206095",
        "url": ""
    },
    {
        "title": "微信这4个功能不要长期打开，容易泄露你的隐私，教你如何关闭",
        "docid": "7300937127461241382",
        "url": ""
    },
    {
        "title": "我用 iPhone 14 Pro 以旧换新了一台 15 Pro，每天少吃一根冰棍",
        "docid": "7295287050008756736",
        "url": "https://www.ixigua.com/7295287050008756736"
    },
    {
        "title": "山寨版华为Mate60Pro开箱：居然结合了iPhone的灵动岛",
        "docid": "7290841901224165951",
        "url": "https://www.ixigua.com/7290841901224165951"
    },
    {
        "title": "网友用打火机成功修复失灵手机屏，你知道是什么原理吗？",
        "docid": "7290363783845937664",
        "url": "https://www.ixigua.com/7290363783845937664"
    },
    {
        "title": "花粉回避！Mate 60 Pro+工艺对比iPhone 15 Pro Max……",
        "docid": "7297212884986429952",
        "url": "https://www.ixigua.com/7297212884986429952"
    },
    {
        "title": "苹果15Pro上手体验了一天，比想象的更好用，依然是遥遥领先！",
        "docid": "7281613992542503424",
        "url": "https://www.ixigua.com/7281613992542503424"
    },
    {
        "title": "书本iPhone？！这才是真正的电子书！#开箱 #玩转数码 #手机",
        "docid": "7295274886434554403",
        "url": "https://www.ixigua.com/7295274886434554403"
    },
    {
        "title": "Redmi K60至尊十天深度体验！优点缺点全在这里了！#k60至尊版",
        "docid": "7274167352655413797",
        "url": "https://www.ixigua.com/7274167352655413797"
    },
    {
        "title": "苹果新机完整开箱视频，镜头里灰尘是真的多#iphone15 #苹果",
        "docid": "7281505928405647924",
        "url": "https://www.ixigua.com/7281505928405647924"
    },
    {
        "title": "开机速度大对比x5，mate60pro，rs非凡大师～看到鸿蒙心动么？",
        "docid": "7284065611742478900",
        "url": "https://www.ixigua.com/7284065611742478900"
    },
    {
        "title": "当你同时拥有华为Mate60Pro+和问界M5智驾版",
        "docid": "7291557714134729279",
        "url": "https://www.ixigua.com/7291557714134729279"
    },
    {
        "title": "我给mate60pro安装了原生的谷歌GMS套件，解决未获play认证的问题",
        "docid": "7278588815227552312",
        "url": "https://www.ixigua.com/7278588815227552312"
    },
    {
        "title": "震撼！华为Mate60Pro超乎想象的长焦微距视频拍摄效果",
        "docid": "7279303848533951016",
        "url": "https://www.ixigua.com/7279303848533951016"
    },
    {
        "title": "这才是灵动岛的正确打开方式。\n#灵动岛 #iPhone灵动岛",
        "docid": "7291105776683680315",
        "url": "https://www.ixigua.com/7291105776683680315"
    },
    {
        "title": "iPhone：你的C口，我的C口，好像不一样~",
        "docid": "7288640966842384957",
        "url": "https://www.ixigua.com/7288640966842384957"
    },
    {
        "title": "这应该是目前最厉害远程控制软件，关键找不到收费的按钮",
        "docid": "7296100456957870602",
        "url": "https://www.ixigua.com/7296100456957870602"
    },
    {
        "title": "华为Mate60Pro对比iPhone14PM电梯和车库5G信号测试，谁信号更强",
        "docid": "7274143107422257720",
        "url": "https://www.ixigua.com/7274143107422257720"
    },
    {
        "title": "荣耀发布会，明哥不小心说漏嘴了，没关系，在一起，一家人！",
        "docid": "7271858361866388020",
        "url": "https://www.ixigua.com/7271858361866388020"
    },
    {
        "title": "华为mate60pro五天的使用感受",
        "docid": "7276683235327902244",
        "url": "https://www.ixigua.com/7276683235327902244"
    },
    {
        "title": "世界最高？680元买个屏占比超过100%的手机",
        "docid": "7275165699889168896",
        "url": "https://www.ixigua.com/7275165699889168896"
    },
    {
        "title": "iPhone的5G到底是真是假？我和华为对比了一下#华为mate60pro",
        "docid": "7277771048441872930",
        "url": "https://www.ixigua.com/7277771048441872930"
    },
    {
        "title": "试玩21元的定位器 这次又简单又好玩！",
        "docid": "7295961952868794915",
        "url": "https://www.ixigua.com/7295961952868794915"
    },
    {
        "title": "一名心脏医生，使用华为手机12年的感受！华为手机，开箱视频",
        "docid": "7279679485287989812",
        "url": "https://www.ixigua.com/7279679485287989812"
    },
    {
        "title": "从拼夕夕给家里老人买的荣耀X50，翻车没？",
        "docid": "7294291967326814756",
        "url": "https://www.ixigua.com/7294291967326814756"
    },
    {
        "title": "各家都在出新机时，我却购买了一台荣耀Magic5，朋友都说我疯了",
        "docid": "7274573825746928187",
        "url": "https://www.ixigua.com/7274573825746928187"
    },
    {
        "title": "iPhone Xs当年有多惊艳。#iphoneXs #苹果发布会 #备用机",
        "docid": "7290178500542562874",
        "url": "https://www.ixigua.com/7290178500542562874"
    },
    {
        "title": "苹果换华为Mate60，仅25G微信导入用4小时，苹果华为谁的问题？",
        "docid": "7291988613909185060",
        "url": "https://www.ixigua.com/7291988613909185060"
    },
    {
        "title": "用了一个月的mate60pro换成了iPhone15promax：真机使用感受测评",
        "docid": "7300178583576969765",
        "url": "https://www.ixigua.com/7300178583576969765"
    },
    {
        "title": "华为MATE 60 PRO 到底有多牛!  外国网友：简直可以当望远镜用了",
        "docid": "7276111191859003944",
        "url": "https://www.ixigua.com/7276111191859003944"
    },
    {
        "title": "小米14对比vivo X100，先跑分再跑压力测试，谁能抗到最后？",
        "docid": "7301250493555311154",
        "url": "https://www.ixigua.com/7301250493555311154"
    },
    {
        "title": "小米14 Pro全网首发开箱，比昆仑玻璃还硬，1024无极可变光圈",
        "docid": "7294254182579175945",
        "url": "https://www.ixigua.com/7294254182579175945"
    },
    {
        "title": "三分钟教会你制作遁地特效，学会了赶紧制作起来吧",
        "docid": "7282599398859768355",
        "url": "https://www.ixigua.com/7282599398859768355"
    },
    {
        "title": "一加ONEPLUS OPEN -开箱！主流游戏评测~",
        "docid": "7296777439269618210",
        "url": "https://www.ixigua.com/7296777439269618210"
    },
    {
        "title": "vivo X100开箱：这浪漫的设计还能这样用？#vivoX100 #开箱 #手机",
        "docid": "7300760916876853797",
        "url": "https://www.ixigua.com/7300760916876853797"
    },
    {
        "title": "苹果15发布后，目前地表最强三款手机大对比！",
        "docid": "7280019257147163171",
        "url": "https://www.ixigua.com/7280019257147163171"
    },
    {
        "title": "华为为什么卖这么贵？iPhone 15 Pro Max 大战华为Mate X5",
        "docid": "7291893263580332571",
        "url": "https://www.ixigua.com/7291893263580332571"
    },
    {
        "title": "iPhone 15系列C口的N种玩法 都在这了！「白问」",
        "docid": "7291494044398846499",
        "url": "https://www.ixigua.com/7291494044398846499"
    },
    {
        "title": "信号依旧没变？用完小米14后这些点不吐不快",
        "docid": "7301960908752814644",
        "url": "https://www.ixigua.com/7301960908752814644"
    },
    {
        "title": "开箱影视飓风平移拍摄手柄，iphone15pro秒变卡片机",
        "docid": "7302721773739606579",
        "url": "https://www.ixigua.com/7302721773739606579"
    },
    {
        "title": "iPhone15 Pro Max使用一周后，它这三个缺点，让我难受！",
        "docid": "7284234773588476435",
        "url": "https://www.ixigua.com/7284234773588476435"
    },
    {
        "title": "华为Mate 60 RS 非凡大师真机上手！红色陶瓷有多珍贵？#华为",
        "docid": "7282713009427448376",
        "url": "https://www.ixigua.com/7282713009427448376"
    },
    {
        "title": "一加12什么时候发布，配置怎么样，知不知道入手？10年老粉告诉你",
        "docid": "7302797890395898420",
        "url": "https://www.ixigua.com/7302797890395898420"
    },
    {
        "title": "iPhone15灵动岛使用基本教程。#数码科技 #ios17",
        "docid": "7279506470331220534",
        "url": "https://www.ixigua.com/7279506470331220534"
    },
    {
        "title": "过于惊艳！荣耀100Pro真机上手！！！#荣耀100Pro #荣耀100系列",
        "docid": "7302737414932742693",
        "url": "https://www.ixigua.com/7302737414932742693"
    },
    {
        "title": "为什么我劝你别买华为Mate60Pro+?",
        "docid": "7277906300883862050",
        "url": "https://www.ixigua.com/7277906300883862050"
    },
    {
        "title": "实测华为Mate60 Pro卫星+长焦",
        "docid": "7278294127148696103",
        "url": "https://www.ixigua.com/7278294127148696103"
    },
    {
        "title": "MateX5使用体验，不如mate60Pro用的爽。#华为mateX5 #matex5",
        "docid": "7279734582776332800",
        "url": "https://www.ixigua.com/7279734582776332800"
    },
    {
        "title": "vivo交卷 23年的影像旗舰应该是什么样的？",
        "docid": "7302425029051056650",
        "url": "https://www.ixigua.com/7302425029051056650"
    },
    {
        "title": "李跳跳倒下了，这一神器却蹦出来了！",
        "docid": "7275907685264917052",
        "url": "https://www.ixigua.com/7275907685264917052"
    },
    {
        "title": "影像PK！华为Mate60pro与iPhone14ProMax，谁才是拍照机皇",
        "docid": "7275638818219393588",
        "url": "https://www.ixigua.com/7275638818219393588"
    },
    {
        "title": "澎湃OS出现严重问题，解决方式只有刷机？小米14用户慎更",
        "docid": "7302754375770931762",
        "url": ""
    },
    {
        "title": "华为mate60 Pro 真实5天体验\n#华为 #华为mate60pro #国产 #麒麟",
        "docid": "7274486952529756706",
        "url": "https://www.ixigua.com/7274486952529756706"
    },
    {
        "title": "iPhone 15 Pro Max｜S23 Ultra｜14 Pro Max相机成像性能测试",
        "docid": "7278456099336880696",
        "url": "https://www.ixigua.com/7278456099336880696"
    },
    {
        "title": "万万没想到，原来手机里的照片视频等可以这样下载到优盘",
        "docid": "7278264494051033611",
        "url": "https://www.ixigua.com/7278264494051033611"
    },
    {
        "title": "华为Mate60对比华为Mate60 Pro 两款新旗舰有哪些性能差异",
        "docid": "7282707781076189711",
        "url": "https://www.ixigua.com/7282707781076189711"
    },
    {
        "title": "书本iPhone能玩大型游戏？！#开箱 #手机 #iPhone",
        "docid": "7296438612764295731",
        "url": "https://www.ixigua.com/7296438612764295731"
    },
    {
        "title": "【一加ace2pro】购买了一个月",
        "docid": "7286850102420275775",
        "url": "https://www.ixigua.com/7286850102420275775"
    },
    {
        "title": "吹爆了的vivo X100真有那么好？？ 一周使用体验，实话实说！",
        "docid": "7301146918905152009",
        "url": "https://www.ixigua.com/7301146918905152009"
    },
    {
        "title": "摇一摇广告太猖狂，小手一抖就跳转？三个妙计助你上网冲浪！",
        "docid": "7299809943555834394",
        "url": "https://www.ixigua.com/7299809943555834394"
    },
    {
        "title": "遥遥领先！",
        "docid": "7273677731182281268",
        "url": "https://www.ixigua.com/7273677731182281268"
    },
    {
        "title": "iPhone14 Pro Max对比iPhone15 Pro Max 苹果顶级旗舰有哪些进步",
        "docid": "7278254679358702091",
        "url": "https://www.ixigua.com/7278254679358702091"
    },
    {
        "title": "华为 Mate 60 Pro+ 第一回盒：这个宣白色太好看了！",
        "docid": "7277913330835161637",
        "url": "https://www.ixigua.com/7277913330835161637"
    },
    {
        "title": "能唠嗑的电话铃声，网友：唠了半天，然后你跟我说这个是铃声",
        "docid": "7273778208632865334",
        "url": "https://www.ixigua.com/7273778208632865334"
    },
    {
        "title": "华为mate60 Pro移动网速对比骁龙8gen2实测连跑五遍全程无剪辑",
        "docid": "7273699478576726584",
        "url": "https://www.ixigua.com/7273699478576726584"
    },
    {
        "title": "行程码和健康码已经下线了，你的个人授权解除了没。",
        "docid": "7299610649624052276",
        "url": "https://www.ixigua.com/7299610649624052276"
    },
    {
        "title": "小屏旗舰党的福音！三星s23价格大跳水，性价比真的高！",
        "docid": "7278810109508223543",
        "url": "https://www.ixigua.com/7278810109508223543"
    },
    {
        "title": "华为目前最良心的三款手机是什么？",
        "docid": "7275146715139834405",
        "url": "https://www.ixigua.com/7275146715139834405"
    },
    {
        "title": "华为mate60 pro网速被小米14秒杀了😄😄",
        "docid": "7294883597126173219",
        "url": "https://www.ixigua.com/7294883597126173219"
    },
    {
        "title": "女子的华为手机被压折了，但依然能用，且丝滑流畅！华为就是强大",
        "docid": "7278855708810936887",
        "url": "https://www.ixigua.com/7278855708810936887"
    },
    {
        "title": "小米手机自带谷歌服务，你知道怎么开启么？#小米 #小米手机",
        "docid": "7270865349019927100",
        "url": "https://www.ixigua.com/7270865349019927100"
    },
    {
        "title": "iPhone 15pro和华为mate60pro同时从时速百公里车上扔出去",
        "docid": "7281820970048979512",
        "url": "https://www.ixigua.com/7281820970048979512"
    },
    {
        "title": "荣耀X50成为2023年千元机皇？凭这几点够不够",
        "docid": "7272719191264887353",
        "url": "https://www.ixigua.com/7272719191264887353"
    },
    {
        "title": "华为Mate60Pro对比Magic5Pro 5G网速测试，华为和荣耀谁信号更好",
        "docid": "7277101989539152396",
        "url": "https://www.ixigua.com/7277101989539152396"
    },
    {
        "title": "华为能分走多少苹果高端手机的份额",
        "docid": "7277014201800131072",
        "url": "https://www.ixigua.com/7277014201800131072"
    },
    {
        "title": "刚买的钛金属原色iPhone15Pro就退货了！ #iphone15pro #苹果手机",
        "docid": "7283684192309903891",
        "url": "https://www.ixigua.com/7283684192309903891"
    },
    {
        "title": "魅族21价格曝光 | 首款屏下8Gen3影像旗舰来了",
        "docid": "7302781699791110710",
        "url": ""
    },
    {
        "title": "iQOO12咋样?来看看首批到手用户怎么说，优缺点都有，你怎么看?",
        "docid": "7302903097490194985",
        "url": ""
    },
    {
        "title": "苹果手机一般可以用多久？你们都是多久换一次手机呢？",
        "docid": "7290511002259751476",
        "url": "https://www.ixigua.com/7290511002259751476"
    },
    {
        "title": "女子用2年的华为手机，意外发现摄像头膜没撕，前后拍照对比绝了",
        "docid": "7291107227761377829",
        "url": "https://www.ixigua.com/7291107227761377829"
    },
    {
        "title": "荣耀X50，用了3天了，有些东西，苹果还真没有，今天来展示一下。",
        "docid": "7282182667754439208",
        "url": "https://www.ixigua.com/7282182667754439208"
    },
    {
        "title": "真心不建议普通人去入手华为MateX5，看完你就明白了！",
        "docid": "7279257839464350208",
        "url": "https://www.ixigua.com/7279257839464350208"
    },
    {
        "title": "红米有史以来颜值、品质最高的手机：Redmi Note 13 Pro+开箱评测",
        "docid": "7281286225066263075",
        "url": "https://www.ixigua.com/7281286225066263075"
    },
    {
        "title": "Mate 60 Pro 的隔空截屏用起来真的太舒服了",
        "docid": "7276044000250266112",
        "url": "https://www.ixigua.com/7276044000250266112"
    },
    {
        "title": "华为Mate60系列官网缺货，但批发市场遍地都是，这到底怎么了！",
        "docid": "7302346082250883621",
        "url": "https://www.ixigua.com/7302346082250883621"
    },
    {
        "title": "OPPO find n3 荣耀magic vs2 播放杜比视界视频，差别巨大。。",
        "docid": "7291581995061084672",
        "url": "https://www.ixigua.com/7291581995061084672"
    },
    {
        "title": "预算1500元左右：4款手机接近完美，高配低价值得推荐，可闭眼入",
        "docid": "7298565667576611362",
        "url": ""
    },
    {
        "title": "三五年不换手机，直接选择这4部顶级旗舰，各方面一步到位",
        "docid": "7292236404128711194",
        "url": ""
    },
    {
        "title": "抖音测试付费短视频 以后看优质短视频可能要花钱了",
        "docid": "7301854149145051686",
        "url": ""
    },
    {
        "title": "LG手机，现在成了闲鱼上最火的洋垃圾",
        "docid": "7298908393082290688",
        "url": ""
    },
    {
        "title": "小米 14对比小米 13，配置有哪些升级，一眼看懂",
        "docid": "7294247007466848818",
        "url": ""
    },
    {
        "title": "手机出现这类“症状”，一定要立刻关机，已有多人被“隔空”转账",
        "docid": "7298691337254142527",
        "url": ""
    },
    {
        "title": "刚发现，微信相册这个按钮，别提多实用，解决了大家的麻烦事",
        "docid": "7295362811298103808",
        "url": ""
    },
    {
        "title": "盘点关于苹果最成功的5款手机",
        "docid": "7283657487457501737",
        "url": ""
    },
    {
        "title": "华为Mate40 Pro+换到Mate60Pro，客观评价使用体验",
        "docid": "7293340316978725428",
        "url": ""
    },
    {
        "title": "不到6K入手的三星S23 Ultra，体验不到两周时间，后悔了！",
        "docid": "7302250793569272320",
        "url": ""
    },
    {
        "title": "谁把你的微信删除了，按下这个开关，直接显示出来",
        "docid": "7294627823774417460",
        "url": ""
    },
    {
        "title": "女儿月工资4000，买了4000多的手机",
        "docid": "7297806681298436645",
        "url": ""
    },
    {
        "title": "再也不怕买到假烟了，支付宝这个功能超级实用",
        "docid": "7285321237092467200",
        "url": ""
    },
    {
        "title": "在手机上，为什么有那么多人用拼音九键，而不是二十六键？",
        "docid": "7296658775388635711",
        "url": ""
    },
    {
        "title": "1500元以内买手机，要4年流畅使用，强烈推荐这两款手机",
        "docid": "7270671645025501737",
        "url": ""
    },
    {
        "title": "2023手机处理器排名前80名！有没有你在用的？",
        "docid": "7302015350583902754",
        "url": ""
    },
    {
        "title": "放下了vivo X100，上手小米14，总结3个优点、3个缺点",
        "docid": "7302265485670990388",
        "url": ""
    },
    {
        "title": "买小米手机，强烈推荐这两款，性价比高值得买",
        "docid": "7290333641262023203",
        "url": ""
    },
    {
        "title": "RedmiNote13Pro使用感受，1399元带来越级体验，五点感受值得聊聊",
        "docid": "7302649141665006090",
        "url": ""
    },
    {
        "title": "选择iPhone 13 Pro Max，粉丝的明智决定！",
        "docid": "7285312869217124898",
        "url": ""
    },
    {
        "title": "华为Mate60Pro四天使用体验，优点和缺点都有，别神话这手机！",
        "docid": "7280071341053837836",
        "url": ""
    },
    {
        "title": "你的iPhone能用多久？看这里就知道了！",
        "docid": "7291500275297354294",
        "url": ""
    },
    {
        "title": "Redmi Note 13 Pro对比Redmi Note 13 Pro+ 配置有哪些缩水，一眼看懂",
        "docid": "7281416521661055524",
        "url": ""
    },
    {
        "title": "“非洲之王”传音悄然成为手机世界第5",
        "docid": "7302225077490385419",
        "url": ""
    },
    {
        "title": "出卖旧手机=出卖自己！教你一招彻底删除手机数据",
        "docid": "7293355182644134450",
        "url": ""
    },
    {
        "title": "比刷金币强多了，今日头条看10分钟电影竟然赚30多块",
        "docid": "7300192556892504588",
        "url": ""
    },
    {
        "title": "如果你3～4年才换一次手机，而且用的是千元机，多半是这3个原因",
        "docid": "7296090893701579274",
        "url": ""
    },
    {
        "title": "粉丝问：官网买的iPhone15Pro Max和经销商处买的机器有何区别？",
        "docid": "7286792916679361063",
        "url": ""
    },
    {
        "title": "小米、华为：独立操作系统、硬件创新和生态服务构筑核心竞争力",
        "docid": "7302246243365978663",
        "url": ""
    },
    {
        "title": "这些简洁版App，能让你的手机变快2倍",
        "docid": "7293082524333392436",
        "url": ""
    },
    {
        "title": "两三年才换一次手机，换的都是2千以内的，这类人普遍具有3种心理",
        "docid": "7281890071387718200",
        "url": ""
    },
    {
        "title": "不吹不黑，红米Note13Pro+使用了10天，说一下使用感受",
        "docid": "7284902503672857129",
        "url": ""
    },
    {
        "title": "华为Mate60系列四款手机的区别",
        "docid": "7295149914391085583",
        "url": ""
    },
    {
        "title": "低饱和度，赤红朱砂高级渐变经典壁纸！",
        "docid": "7293340932831740416",
        "url": ""
    },
    {
        "title": "6500拿下全新三星S23Ultra，真实使用感受，优缺点都有",
        "docid": "7287784892409528886",
        "url": ""
    },
    {
        "title": "华为 Mate 60对比华为 Mate 60 Pro，配置有哪些差距，一眼看懂",
        "docid": "7272973816665145915",
        "url": ""
    },
    {
        "title": "警惕！手机来电不可乱接，特别是这些号码开头的，碰到立马挂断！",
        "docid": "7288260066484961832",
        "url": ""
    },
    {
        "title": "能够用8年以上的手机？在2023年用iPhone 6s是什么体验",
        "docid": "7273427763548291599",
        "url": ""
    },
    {
        "title": "iphone不知道这些功能那真的白买了！",
        "docid": "7301956517668848139",
        "url": ""
    },
    {
        "title": "一组很喜欢的iPhone景深壁纸",
        "docid": "7294109606916686371",
        "url": ""
    },
    {
        "title": "荣耀100 Pro将于11月23日发布，主要参数已确认，颜值是大亮点!",
        "docid": "7300954324937490963",
        "url": ""
    },
    {
        "title": "手机充电100%再拔原来是错的！全面了解如何充电，延长电池寿命",
        "docid": "7292974004938342921",
        "url": ""
    },
    {
        "title": "三星note最后一款封神之作“三星note20ultra”现在还能打吗？",
        "docid": "7299725410622161442",
        "url": ""
    },
    {
        "title": "不同身份的人用什么手机？",
        "docid": "7300132554811392539",
        "url": ""
    },
    {
        "title": "下半年四大旗舰非这几款莫属！钱包够硬怎么选都有理",
        "docid": "7302188834065072679",
        "url": ""
    },
    {
        "title": "荣耀magic5 3个月使用感受“我只说真实，其他的你们来”",
        "docid": "7292757636901093903",
        "url": ""
    },
    {
        "title": "手机亮度调到最亮，你们试试能不能亮瞎",
        "docid": "7275990277285413388",
        "url": ""
    },
    {
        "title": "高清潮图壁纸",
        "docid": "7274157676492751371",
        "url": ""
    },
    {
        "title": "iPhone15pro/promax与14pro/promax的详细对比",
        "docid": "7277483402360668733",
        "url": ""
    },
    {
        "title": "智能手机会被取代？新技术不久或将出现，比尔·盖茨曾大胆预测",
        "docid": "7299752230498910771",
        "url": ""
    },
    {
        "title": "全球十大社交APP排行榜，中国占据半壁江山",
        "docid": "7284213553224057380",
        "url": ""
    },
    {
        "title": "买手机不要凑活，预算高点，直接一步到位选这4款，能用五六年",
        "docid": "7278904752497295891",
        "url": ""
    },
    {
        "title": "目前最值得购买的十款性价比神机，2000元就配ip68，太卷了（上）",
        "docid": "7288485447699825207",
        "url": ""
    },
    {
        "title": "今年的双十一，手机市场价格战已打响！全价位段手机推荐",
        "docid": "7293197539103474210",
        "url": ""
    },
    {
        "title": "苹果手机以旧换新的价格 （附图）",
        "docid": "7296058826023830057",
        "url": ""
    },
    {
        "title": "苹果前员工造出颠覆手机的黑科技！“戴”在身上也能操控一切",
        "docid": "7301140839655342632",
        "url": ""
    },
    {
        "title": "小米14销量为什么能轻松破百万？流量密码是什么？",
        "docid": "7302259290206224896",
        "url": ""
    },
    {
        "title": "iQOO发布会",
        "docid": "7298694466322760219",
        "url": ""
    },
    {
        "title": "小米、OPPO、vivo、荣耀同时确认，卫星通讯将成标配",
        "docid": "7302008361053258274",
        "url": ""
    },
    {
        "title": "逾期不想让亲朋好友全知道，建议关闭手机这2个功能，防爆通讯录",
        "docid": "7276073045293564472",
        "url": ""
    },
    {
        "title": "国产麒麟系统惨遭吐槽，用户称用了两周快瞎了，还不如安卓手机",
        "docid": "7302725078301999642",
        "url": ""
    },
    {
        "title": "买手机为何不要考虑256G？内行人一句话道出原因",
        "docid": "7301968147232342565",
        "url": ""
    },
    {
        "title": "暴涨306%！华米OV罕见联手扶持，是谁把索尼逼退到墙角？",
        "docid": "7302762839675109888",
        "url": ""
    },
    {
        "title": "库克急眼了！iPhone 16系列几大短板都要升级，果粉狂喜",
        "docid": "7302333490472469032",
        "url": ""
    },
    {
        "title": "从14 Pro换成iPhone 15 Pro，使用几天之后的几个奇怪感受",
        "docid": "7283775169615823360",
        "url": ""
    },
    {
        "title": "同样3999元，华为Mate50E和小米14，哪款更值得入手？",
        "docid": "7302832051416596992",
        "url": ""
    },
    {
        "title": "单车变摩托！从苹果11换机华为Mate60 Pro，说说我的上手体验",
        "docid": "7302273501006840355",
        "url": ""
    },
    {
        "title": "荣耀X50，说说几个优点和缺点",
        "docid": "7282655249112760891",
        "url": ""
    },
    {
        "title": "又遥遥领先！华为Mate60Pro+登顶DXO，为何其它厂商不送测了？",
        "docid": "7302281742860583424",
        "url": ""
    },
    {
        "title": "手机为什么经常会提醒系统更新？原来还有这么多猫腻，不懂快看！",
        "docid": "7282760684314558988",
        "url": ""
    },
    {
        "title": "2023年我买了部HTC，朋友说我脑壳进水，我笑他们不懂",
        "docid": "7279996073686123068",
        "url": ""
    },
    {
        "title": "小米 14对比华为 Mate 60，配置有哪些区别，一眼看懂",
        "docid": "7294424317121643008",
        "url": ""
    },
    {
        "title": "历代iPhone手机现状！",
        "docid": "7282617694120051211",
        "url": ""
    },
    {
        "title": "2023年伊拉克主要智能手机厂商出货量市场份额排行榜",
        "docid": "7244928884582695456",
        "url": ""
    },
    {
        "title": "独家！苹果公司将叫停摇一摇跳转广告，多家头部App收到通知",
        "docid": "7300895086618231330",
        "url": ""
    },
    {
        "title": "目前续航最好的手机前十名，有你在用的手机吗？",
        "docid": "7279317289478931007",
        "url": ""
    },
    {
        "title": "旧手机回收之后有啥用？提炼黄金出口国外，它的价值可不止一个盆",
        "docid": "7280461471711068732",
        "url": ""
    },
    {
        "title": "连续半年荣获千元机性价比第一的宝座，这款手机为何如此优秀呢？",
        "docid": "7301231133021438490",
        "url": ""
    },
    {
        "title": "真我GT5 Pro配置汇总，全身上下找不出短板的一款手机",
        "docid": "7302412751794946597",
        "url": ""
    },
    {
        "title": "6秒看懂处理器选手机不踩坑",
        "docid": "7274180535222862348",
        "url": ""
    },
    {
        "title": "男子丢失30万手机女子捡到以为是老年机 活到老学到老",
        "docid": "7303006013597434404",
        "url": ""
    },
    {
        "title": "大家也感觉到手机掉电太快吗？也许问题就在这里！",
        "docid": "7300718465462174235",
        "url": ""
    },
    {
        "title": "iOS 17.0 和 16.6 即将关闭，你会考虑升级么？",
        "docid": "7302388884351058468",
        "url": ""
    },
    {
        "title": "准备买红米K60，用来玩英雄联盟手游，性能应该没问题！",
        "docid": "7296509368026268194",
        "url": ""
    },
    {
        "title": "华为的拍照为何能够逆袭苹果和三星？高端手机三强之索尼定制往事",
        "docid": "7293732443503772211",
        "url": ""
    },
    {
        "title": "热门手机壁纸第71期：让人直接沦陷的手机壁纸",
        "docid": "7302271526177391142",
        "url": ""
    },
    {
        "title": "iQOO 12系列相比iQOO 11都有什么改变？前代机主：iQOO 11香爆了！",
        "docid": "7299069986835137035",
        "url": ""
    },
    {
        "title": "鸿蒙系统4.0，加密异形门禁卡如何写入手机，让手机秒变钥匙！",
        "docid": "7272929748676788797",
        "url": ""
    },
    {
        "title": "华为史上最经典的五代 Nova 手机——麒麟时代之最美“造星”历程",
        "docid": "7269929487536783924",
        "url": ""
    },
    {
        "title": "华为 Mate 60 Pro对比荣耀 Magic5 Pro，配置有哪些差别，一眼看懂",
        "docid": "7272664839628046904",
        "url": ""
    },
    {
        "title": "魅族出息了！终结iPhone四边等宽时代，魅族21真不简单！",
        "docid": "7301522316108956199",
        "url": ""
    },
    {
        "title": "尴尬了！高通卫星求救功能因无Android设备厂家跟进被迫停止研发",
        "docid": "7302354874170327602",
        "url": ""
    },
    {
        "title": "小时候觉得很厉害的“高科技”，现在几乎销声匿迹，你用过几个？",
        "docid": "7281121751688839695",
        "url": ""
    },
    {
        "title": "90年代很火的“BB机”，曾一台卖两千，现在用它还有信号吗？",
        "docid": "7298230535627964963",
        "url": ""
    },
    {
        "title": "手机音质最好的播放软件，听歌党们有福了。",
        "docid": "7296029848924160550",
        "url": ""
    },
    {
        "title": "小米的高端化之路：到底是对标苹果，还是「项庄舞剑」意在华为？",
        "docid": "7302350321215603240",
        "url": ""
    },
    {
        "title": "自主研发！Mate 60 Pro量子密话定制版首次亮相：打电话不怕被监听",
        "docid": "7301676752869376552",
        "url": ""
    },
    {
        "title": "vivo手机最成功和最失败的几款机型，有你用过的吗？",
        "docid": "7275541176575377920",
        "url": ""
    },
    {
        "title": "小米撤包事件来龙去脉及探讨：澎湃OS是否还要继续支持开发版？",
        "docid": "7302788104023507508",
        "url": ""
    },
    {
        "title": "为什么华为mate30 pro还是那么多人在用？这就是所谓的钉子户？",
        "docid": "7284652599507157523",
        "url": ""
    },
    {
        "title": "把时间还给自己，把晚八点还给生活",
        "docid": "7302751347026428450",
        "url": ""
    },
    {
        "title": "微信新功能上线！好及时",
        "docid": "7302995900874392104",
        "url": ""
    },
    {
        "title": "想用8年不卡顿，这3款24G+1TB手机最适合，性能无敌了",
        "docid": "7278187443248235047",
        "url": ""
    },
    {
        "title": "写在已量产后，如此豪华配置的Nova12你们期待吗？",
        "docid": "7302969760550224424",
        "url": ""
    },
    {
        "title": "红米note12Turbo，卢总确实是用力过猛了。",
        "docid": "7302667588491117093",
        "url": ""
    },
    {
        "title": "华为小艺输入法；一个超乎你想象的全新输入方式",
        "docid": "7288562481084613155",
        "url": ""
    },
    {
        "title": "华为手机拍照专业模式教程，拍照堪比单反！",
        "docid": "7300156677079466530",
        "url": ""
    },
    {
        "title": "苹果iPhone手机壁纸-保时捷918 Spyder",
        "docid": "7276090350102479423",
        "url": ""
    },
    {
        "title": "外行人才关注芯片跑分！手游老玩家都只看这些，整体体验才是王道",
        "docid": "7302244373469970996",
        "url": ""
    },
    {
        "title": "大势之下谁也无法阻挡，影音让荣耀手机生存，但也埋下后患",
        "docid": "7296754419629048320",
        "url": ""
    },
    {
        "title": "荣耀新机悄悄开卖，3240Hz+1亿+6.78mm，20G+512G才1799元",
        "docid": "7302416822530753039",
        "url": ""
    },
    {
        "title": "男子偷走33部iPhone手机 原因竟是为了给女友买车",
        "docid": "7302276751198093834",
        "url": ""
    },
    {
        "title": "别让充电宝变身“充电爆”",
        "docid": "7302604512085639680",
        "url": ""
    },
    {
        "title": "手机壁纸︱生活嘛，笑一笑就好了",
        "docid": "7294149642210574889",
        "url": ""
    },
    {
        "title": "𝐖𝐀𝐋𝐋𝐏𝐀𝐏𝐄𝐑l壁纸推送",
        "docid": "7280612231396459068",
        "url": ""
    },
    {
        "title": "机构：今年“双十一”期间智能手机销量同比下降16%，苹果、小米领先",
        "docid": "7302280809317433919",
        "url": ""
    },
    {
        "title": "如何辨别手机是不是翻新机？教你一招，买手机再也不用担心上当了",
        "docid": "7273803149742326326",
        "url": ""
    },
    {
        "title": "华为 Mate 60 Pro：商务旗舰，拍照逆袭苹果 iPhone 12 Pro Max！",
        "docid": "7302446868347585051",
        "url": ""
    },
    {
        "title": "将专属AI伙伴搬进手机，ColorOS 14全新小布助手智能体验远超想象",
        "docid": "7302309517713261056",
        "url": ""
    },
    {
        "title": "9个小米手机隐藏很深的黑科技功能！！！",
        "docid": "7302402573934379532",
        "url": ""
    },
    {
        "title": "华为鸿蒙Harmony4.0功能揭秘：指南针的神奇之处",
        "docid": "7299680255189910051",
        "url": ""
    },
    {
        "title": "聚焦卫星通信需求，天翼铂顿S9 5G卫星双模手机有什么亮点？",
        "docid": "7302343151295939112",
        "url": ""
    },
    {
        "title": "聊聊为什么华为巴龙基带很出色，而iPhone却难以搞定自研基带？",
        "docid": "7302292274950734371",
        "url": ""
    },
    {
        "title": "生产力跨越式升级？ColorOS 14融合创作体验",
        "docid": "7302256447881331239",
        "url": ""
    },
    {
        "title": "一条龙体验！自由采集+高效流转，ColorOS14实现高效全局融合创作",
        "docid": "7302311995368505896",
        "url": ""
    },
    {
        "title": "流畅到实用性的全面升级！ColorOS 14初体验分享，智慧互融更好用",
        "docid": "7302310382406763042",
        "url": ""
    },
    {
        "title": "初晓敏：上手体验 开箱小米14/pro",
        "docid": "7294284551507935796",
        "url": "https://www.ixigua.com/7294284551507935796"
    },
    {
        "title": "不是后羿也摄日？我拍我也行！vivo X100系列体验",
        "docid": "7302305025580237364",
        "url": "https://www.ixigua.com/7302305025580237364"
    },
    {
        "title": "OPPO Find N3 开箱上手：这是折叠屏里，我见过最夸张的镜头模组",
        "docid": "7291571137300202018",
        "url": "https://www.ixigua.com/7291571137300202018"
    },
    {
        "title": "平民开箱：我4899买的#华为Mate60 Pro雅川青到了！没有骗你",
        "docid": "7273314099445006911",
        "url": "https://www.ixigua.com/7273314099445006911"
    },
    {
        "title": "一个手机震惊我两次，网友坐飞机时边上的大爷用手机投影",
        "docid": "7300502645477900810",
        "url": "https://www.ixigua.com/7300502645477900810"
    },
    {
        "title": "丈夫将妻子的旧手机“调包”成新款，想偷偷给她惊喜：她舍不得买",
        "docid": "7283049911841620495",
        "url": "https://www.ixigua.com/7283049911841620495"
    },
    {
        "title": "美国博主买到了华为Mate60pro外国网友:我加2000美元，卖给我吧。",
        "docid": "7275590910367564323",
        "url": "https://www.ixigua.com/7275590910367564323"
    },
    {
        "title": "相隔千里的两部手机却能实时通话，这背后的原理究竟是如何做到？",
        "docid": "7281652717049938471",
        "url": "https://www.ixigua.com/7281652717049938471"
    },
    {
        "title": "全世界只有华为敢这么卖手机，苹果都不敢！苹果该吐高端市场了！",
        "docid": "7272976287927370300",
        "url": "https://www.ixigua.com/7272976287927370300"
    },
    {
        "title": "华为 Mate X5 折叠屏上手体验：这就是你等的那个“5”？",
        "docid": "7276481386205643323",
        "url": "https://www.ixigua.com/7276481386205643323"
    },
    {
        "title": "华为手机在网上被大量水军恶意造谣。",
        "docid": "7301991075240280576",
        "url": "https://www.ixigua.com/7301991075240280576"
    },
    {
        "title": "华为Mate60 Pro成山寨重灾区！外观几乎一样，售价不到500元",
        "docid": "7302084303004500518",
        "url": "https://www.ixigua.com/7302084303004500518"
    },
    {
        "title": "换微信头像怎么换",
        "docid": "7299117728713933346",
        "url": "https://www.ixigua.com/7299117728713933346"
    },
    {
        "title": "华为mate60pro和华为P60pro 详细对比 谁更值得购买？",
        "docid": "7274776337196253750",
        "url": "https://www.ixigua.com/7274776337196253750"
    },
    {
        "title": "OPPO Reno11提前开箱上手！这外观还挺多变！#oppo #opporeno11",
        "docid": "7301502700032623144",
        "url": "https://www.ixigua.com/7301502700032623144"
    },
    {
        "title": "千元iPhone 12的猫腻",
        "docid": "7273504019711164985",
        "url": "https://www.ixigua.com/7273504019711164985"
    },
    {
        "title": "奉劝你别买！MateX5超预期火爆，Mate60Pro已超上代整年的销量",
        "docid": "7276845192153334329",
        "url": "https://www.ixigua.com/7276845192153334329"
    },
    {
        "title": "单位不允许使用苹果和三星，对苹果摄像头屏幕进行消彩关闭",
        "docid": "7302277104341615123",
        "url": "https://www.ixigua.com/7302277104341615123"
    },
    {
        "title": "iPhone11、iPhone12、iPhone13、iPhone14、iPhone15跑分对比测试",
        "docid": "7298340140182110761",
        "url": "https://www.ixigua.com/7298340140182110761"
    },
    {
        "title": "蔡正元：我拜托了好多大陆的朋友帮我排队买华为Mate X5买",
        "docid": "7301309134723842596",
        "url": "https://www.ixigua.com/7301309134723842596"
    },
    {
        "title": "手机的监听功能要尽快关闭，不然你看过什么，手机就给你推荐什么",
        "docid": "7302377740349473317",
        "url": "https://www.ixigua.com/7302377740349473317"
    },
    {
        "title": "「小白」ColorOS 14体验：流畅更进一步？",
        "docid": "7301946386793431603",
        "url": "https://www.ixigua.com/7301946386793431603"
    },
    {
        "title": "我朋友入了华为Mate60 Pro，用了两天就要换回苹果，说不好用",
        "docid": "7290394598252216895",
        "url": "https://www.ixigua.com/7290394598252216895"
    },
    {
        "title": "连续一个多月赶华为mete60 pro手机产量，放假两天可以休息一下了",
        "docid": "7284797558801564218",
        "url": "https://www.ixigua.com/7284797558801564218"
    },
    {
        "title": "诺基亚手机还没死！死撑七年后，或将彻底消亡",
        "docid": "7303027266529837595",
        "url": ""
    },
    {
        "title": "可惜了，那些曾经很火却已经消失了的手机品牌",
        "docid": "7302997302401106459",
        "url": ""
    },
    {
        "title": "QQ-隐私设置指南",
        "docid": "7303065143561994762",
        "url": ""
    },
    {
        "title": "小米发布百元小金刚，Redmi 13C开箱评测",
        "docid": "7300934901741421094",
        "url": "https://www.ixigua.com/7300934901741421094"
    },
    {
        "title": "我们政府机关的计算机用的是什么操作系统，鸿蒙能否加入",
        "docid": "7277906579460981288",
        "url": "https://www.ixigua.com/7277906579460981288"
    },
    {
        "title": "日媒拆解华为mate60pro，得出了两个重要结论!技术突破的真相！",
        "docid": "7301504678276268581",
        "url": "https://www.ixigua.com/7301504678276268581"
    },
    {
        "title": "2023年“顶级性价比”的3款手机，配置强价格低，堪比“真旗舰”",
        "docid": "7270436356235788860",
        "url": "https://www.ixigua.com/7270436356235788860"
    },
    {
        "title": "钛合金是真的轻！iPhone 15发布会现场体验",
        "docid": "7278069799417184783",
        "url": "https://www.ixigua.com/7278069799417184783"
    },
    {
        "title": "居然还有能自动打开气囊的手机壳，这也太离谱了，一帅小伙来亲测",
        "docid": "7290745087670420025",
        "url": "https://www.ixigua.com/7290745087670420025"
    },
    {
        "title": "王自如客观独立测评锤子M1，吐槽老罗做手机太业余了",
        "docid": "7302216570124632639",
        "url": "https://www.ixigua.com/7302216570124632639"
    },
    {
        "title": "为啥印度生产的水果手机有问题",
        "docid": "7282340539561673279",
        "url": "https://www.ixigua.com/7282340539561673279"
    },
    {
        "title": "50块买到号称iPhone15的数据线是真的吗？对比后明白了",
        "docid": "7302390786425881123",
        "url": "https://www.ixigua.com/7302390786425881123"
    },
    {
        "title": "三屏对比！小米14 Pro对比iQOO12 Pro，E7屏幕干得过华星光电？",
        "docid": "7302032673839841792",
        "url": "https://www.ixigua.com/7302032673839841792"
    },
    {
        "title": "一万块买的iPhone15被5块钱的膜毁了！",
        "docid": "7281919227500429864",
        "url": "https://www.ixigua.com/7281919227500429864"
    },
    {
        "title": "周玉琴发现了华为手机有智能拦截功能",
        "docid": "7281869418085548544",
        "url": "https://www.ixigua.com/7281869418085548544"
    },
    {
        "title": "发现一个华为mate60pro 遥遥领先的功能 长焦微距确实牛！",
        "docid": "7273780178520637971",
        "url": "https://www.ixigua.com/7273780178520637971"
    },
    {
        "title": "鸿蒙不再兼容安卓，受伤害最大却是印度，损失将高达数十亿",
        "docid": "7302859159173612095",
        "url": ""
    },
    {
        "title": "从3499元跌至1939元，从高端市场跌至低端市场，100W快充+鸿蒙OS",
        "docid": "7301187493943181851",
        "url": ""
    },
    {
        "title": "注意！捡到这类手机卡，请立刻销毁！",
        "docid": "7303080960927580735",
        "url": ""
    },
    {
        "title": "vivo X100 Pro：影像特别出色，但有三个遗憾",
        "docid": "7303080773073175066",
        "url": ""
    },
    {
        "title": "399元从某直播间抢了个i14promax手机，华为三星苹果三合一？",
        "docid": "7299715255192683062",
        "url": "https://www.ixigua.com/7299715255192683062"
    },
    {
        "title": "日本再次拆解华为Meta60Pro，得出两个结论，恨国党的机会来了",
        "docid": "7301688325654610486",
        "url": "https://www.ixigua.com/7301688325654610486"
    },
    {
        "title": "花699在拼多多买的“华M60Pro”手机，只有华，没有为！",
        "docid": "7288966553763217980",
        "url": "https://www.ixigua.com/7288966553763217980"
    },
    {
        "title": "看了苹果发布会，我想问：华为和苹果到底是谁被制裁了三年？",
        "docid": "7278151510398075450",
        "url": "https://www.ixigua.com/7278151510398075450"
    },
    {
        "title": "华为重庆造昆仑玻璃",
        "docid": "7286090374836126223",
        "url": "https://www.ixigua.com/7286090374836126223"
    },
    {
        "title": "7000mAH大电池仅1449元，鸿蒙3.0+512GB大内存，太香了",
        "docid": "7302785826877145641",
        "url": "https://www.ixigua.com/7302785826877145641"
    },
    {
        "title": "我看到了日本",
        "docid": "7302792436047315491",
        "url": "https://www.ixigua.com/7302792436047315491"
    },
    {
        "title": "痴情的人！",
        "docid": "7302975122833736227",
        "url": "https://www.ixigua.com/7302975122833736227"
    },
    {
        "title": "华为Mate 60，用了一天就招架不住了。",
        "docid": "7279716711694893629",
        "url": "https://www.ixigua.com/7279716711694893629"
    },
    {
        "title": "苹果15：笑死网友们的优势！让华为用户遭重击！#华为#苹果",
        "docid": "7278217042862440995",
        "url": "https://www.ixigua.com/7278217042862440995"
    },
    {
        "title": "玩儿地铁的可以进这个群",
        "docid": "7302973526716187136",
        "url": "https://www.ixigua.com/7302973526716187136"
    },
    {
        "title": "谁还没有元梦之星啊",
        "docid": "7302946731036148287",
        "url": "https://www.ixigua.com/7302946731036148287"
    },
    {
        "title": "评论区呼声最高的是这张图，喜欢的换上吧！#iPhone壁纸",
        "docid": "7290411208476361255",
        "url": "https://www.ixigua.com/7290411208476361255"
    },
    {
        "title": "「小白」天玑9300首测：发哥这是站起来了？",
        "docid": "7298534388990476809",
        "url": "https://www.ixigua.com/7298534388990476809"
    },
    {
        "title": "华为Mate60pro真的折磨人！第一次用四曲面屏幕浪费了好多钱~",
        "docid": "7286349974697312823",
        "url": "https://www.ixigua.com/7286349974697312823"
    },
    {
        "title": "华为 Mate 60 Pro 对比 华为 Mate 50 Pro 区别在哪",
        "docid": "7273444728372298276",
        "url": "https://www.ixigua.com/7273444728372298276"
    },
    {
        "title": "Mate 60 Pro 流畅性如何？华为真的，我哭死…",
        "docid": "7273399383117267515",
        "url": "https://www.ixigua.com/7273399383117267515"
    },
    {
        "title": "5年了！华为Mate60Pro再次重现当年万人抢购场景！",
        "docid": "7273034728171962921",
        "url": "https://www.ixigua.com/7273034728171962921"
    },
    {
        "title": "华为nova11 SE开箱",
        "docid": "7295245386795614759",
        "url": "https://www.ixigua.com/7295245386795614759"
    },
    {
        "title": "拥有如此庞大摄像模组的手机，靠谱吗？vivo X100 Pro上手体验",
        "docid": "7302245659238007346",
        "url": "https://www.ixigua.com/7302245659238007346"
    },
    {
        "title": "索尼古早手机z18 一款带滚轮的下翻盖手机 当年拥趸无数",
        "docid": "7301579690970448419",
        "url": "https://www.ixigua.com/7301579690970448419"
    },
    {
        "title": "苹果15用了十多天的真实感受",
        "docid": "7287076816781574690",
        "url": "https://www.ixigua.com/7287076816781574690"
    },
    {
        "title": "打电话时如何设置电话自动录音，方法简单，一招教会你",
        "docid": "7276636685931283000",
        "url": "https://www.ixigua.com/7276636685931283000"
    },
    {
        "title": "华为Mate60 Pro“智感支付”体验：一步到位，真的很方便！",
        "docid": "7277454385125261882",
        "url": "https://www.ixigua.com/7277454385125261882"
    },
    {
        "title": "想五年不换手机，可考虑这4款“12+256GB”手机，配置强悍速度快",
        "docid": "7275614663453835839",
        "url": "https://www.ixigua.com/7275614663453835839"
    },
    {
        "title": "可以试着对华为手机说：轻舟已过万重山，看看它会出现什么🤔️",
        "docid": "7276776869909922304",
        "url": "https://www.ixigua.com/7276776869909922304"
    },
    {
        "title": "夜空",
        "docid": "7303086138355515939",
        "url": "https://www.ixigua.com/7303086138355515939"
    },
    {
        "title": "华为 Mate60 Pro+/Pro 对比实测，谁更值得买？\nMate60 Pro、Pro+",
        "docid": "7278125051461763645",
        "url": "https://www.ixigua.com/7278125051461763645"
    },
    {
        "title": "怎么连接wifi网络？教你一个方法，再也不用下载万能钥匙了！",
        "docid": "7290879472943940148",
        "url": "https://www.ixigua.com/7290879472943940148"
    },
    {
        "title": "国外油管看中国，华为5G手机讲解，海外评论翻译#华为mate60pro",
        "docid": "7275867435520131642",
        "url": "https://www.ixigua.com/7275867435520131642"
    },
    {
        "title": "iPhone 15和iPhone 11参数对比，这几年苹果的提升有多大",
        "docid": "7278971381818065467",
        "url": "https://www.ixigua.com/7278971381818065467"
    },
    {
        "title": "长高的OPPO Find N3，还会是你心中的菜吗？",
        "docid": "7291262876499575296",
        "url": "https://www.ixigua.com/7291262876499575296"
    },
    {
        "title": "#三星心系天下w24#三星折叠手机 三星w24开箱全网首拆!开箱视频",
        "docid": "7278988392304476731",
        "url": "https://www.ixigua.com/7278988392304476731"
    },
    {
        "title": "华为的这次营销玩出了天花板，12点08分所有友商都懵了！",
        "docid": "7272768671905219131",
        "url": "https://www.ixigua.com/7272768671905219131"
    },
    {
        "title": "卷完手机后，为什么华为开始卷旗舰店了？",
        "docid": "7295973539948659227",
        "url": "https://www.ixigua.com/7295973539948659227"
    },
    {
        "title": "IQOO品牌的第一代手机，骁龙855处理器，如今还能流畅玩吃鸡吗？",
        "docid": "7303090399038571071",
        "url": "https://www.ixigua.com/7303090399038571071"
    },
    {
        "title": "iPhone 15三天使用简评：真有网上说的那么差吗？\n朋友们好",
        "docid": "7284068214668657171",
        "url": "https://www.ixigua.com/7284068214668657171"
    },
    {
        "title": "用了半个月，我总结了华为Mate60系列10个好用的功能和设置！",
        "docid": "7279662407620919867",
        "url": "https://www.ixigua.com/7279662407620919867"
    },
    {
        "title": "5G当然是好东西，但你不能硬逼着我用吧",
        "docid": "7280114465037615652",
        "url": "https://www.ixigua.com/7280114465037615652"
    },
    {
        "title": "曲面屏到底该贴什么膜？一加ace2Pro最得劲的贴膜#一加ace2pro",
        "docid": "7270431762759713291",
        "url": "https://www.ixigua.com/7270431762759713291"
    },
    {
        "title": "#华为Mate60Pro 4K,60帧实测效果",
        "docid": "7274162521974669824",
        "url": "https://www.ixigua.com/7274162521974669824"
    },
    {
        "title": "一新一旧，两台性能旗舰质量对比，我只想说句真话",
        "docid": "7297248615322370600",
        "url": ""
    },
    {
        "title": "谷歌Android 14终于改进无缝更新速度，Pixel手机用户率先受益",
        "docid": "7303127438669709874",
        "url": ""
    },
    {
        "title": "小米14pro都是龙晶玻璃了，还需要贴膜吗？曲面屏贴膜其实很简单",
        "docid": "7295965117546496521",
        "url": "https://www.ixigua.com/7295965117546496521"
    },
    {
        "title": "国外看搭载自研芯片的华为5G手机60 Pro 网友：压不垮 只会更强大",
        "docid": "7273310280401027618",
        "url": "https://www.ixigua.com/7273310280401027618"
    },
    {
        "title": "258块整的vivo Y30，史上第二卡的手机？！ #开箱 #手机",
        "docid": "7302733502268015114",
        "url": "https://www.ixigua.com/7302733502268015114"
    },
    {
        "title": "拆解“三星”65W三口氮化镓，闲鱼花100元买的，又让我涨见识了！",
        "docid": "7277134981150081597",
        "url": "https://www.ixigua.com/7277134981150081597"
    },
    {
        "title": "拿4899的iPhone 14PM，开箱体验看看有啥子猫腻？",
        "docid": "7303061955047064074",
        "url": "https://www.ixigua.com/7303061955047064074"
    },
    {
        "title": "实拍对比广州最大苹果和华为旗舰店，哪家更受欢迎？现场一探究竟",
        "docid": "7277169287981335074",
        "url": "https://www.ixigua.com/7277169287981335074"
    },
    {
        "title": "男子在某二手平台花900购买了一台苹果手机，开机后真相了",
        "docid": "7300762620489892364",
        "url": "https://www.ixigua.com/7300762620489892364"
    },
    {
        "title": "国外测试mate60pro性能引热议，国外网民：中国实在是太强悍了",
        "docid": "7276047582059889192",
        "url": "https://www.ixigua.com/7276047582059889192"
    },
    {
        "title": "外网评论华为发布 Mate 60 Pro 系列手机",
        "docid": "7273082564368302592",
        "url": "https://www.ixigua.com/7273082564368302592"
    },
    {
        "title": "家人们，坐等鸿蒙app换全套！",
        "docid": "7302708304114156041",
        "url": "https://www.ixigua.com/7302708304114156041"
    },
    {
        "title": "一款以爱之名的合法监视软件",
        "docid": "7291957230449099303",
        "url": "https://www.ixigua.com/7291957230449099303"
    },
    {
        "title": "手机上如何解除网速限制？我刚刚学了一个方法，经过实测有效的",
        "docid": "7301226606763180584",
        "url": "https://www.ixigua.com/7301226606763180584"
    },
    {
        "title": "小屏党最后的倔强，小米14破百万| 友商加码，小屏旗舰机迎来春天",
        "docid": "7303080469065974299",
        "url": ""
    },
    {
        "title": "华为与苹果“斗嘴”，直接被苹果怼得“无语”，太逗了！",
        "docid": "7286639204128260608",
        "url": "https://www.ixigua.com/7286639204128260608"
    },
    {
        "title": "你们微信上岛了吗？#iphone #玩转数码",
        "docid": "7271669521180525056",
        "url": "https://www.ixigua.com/7271669521180525056"
    },
    {
        "title": "直播拍视频神器想学关注我",
        "docid": "7303057953836237362",
        "url": "https://www.ixigua.com/7303057953836237362"
    },
    {
        "title": "三星才是遥遥领先",
        "docid": "7303080128618332709",
        "url": "https://www.ixigua.com/7303080128618332709"
    },
    {
        "title": "两台iPhone 共用同一个AppleID，必须关闭这5个设置",
        "docid": "7283756215505682984",
        "url": "https://www.ixigua.com/7283756215505682984"
    },
    {
        "title": "华为mate60好评如潮,为什么还有人买苹果呢？",
        "docid": "7280419413395046971",
        "url": "https://www.ixigua.com/7280419413395046971"
    },
    {
        "title": "iPhone老机型升级iOS17，竟然支持息屏显示？#数码科技 #iOS17",
        "docid": "7274873881524077114",
        "url": "https://www.ixigua.com/7274873881524077114"
    },
    {
        "title": "小米为什么要自研操作系统",
        "docid": "7294179817883664907",
        "url": "https://www.ixigua.com/7294179817883664907"
    },
    {
        "title": "买华为还是苹果？mate60Pro卫星电话信号比iPhone好吗？",
        "docid": "7278541391792341559",
        "url": "https://www.ixigua.com/7278541391792341559"
    },
    {
        "title": "美专家拆解手机两大问题没答案，又发现华为新问题，难怪遥遥领先",
        "docid": "7283468365757153827",
        "url": "https://www.ixigua.com/7283468365757153827"
    },
    {
        "title": "行情惨淡，华为mate40成堆，不受欢迎！",
        "docid": "7296759349966275084",
        "url": "https://www.ixigua.com/7296759349966275084"
    },
    {
        "title": "荣耀V Purse沉浸式开箱",
        "docid": "7280500689078977065",
        "url": "https://www.ixigua.com/7280500689078977065"
    },
    {
        "title": "打假298元的气囊手机壳，自带安全气囊，掉落瞬间自动打开？",
        "docid": "7274601635031024186",
        "url": "https://www.ixigua.com/7274601635031024186"
    },
    {
        "title": "华为Mate X5微泵液冷壳开箱，太科幻了吧！附官方手机壳大集合！",
        "docid": "7292702723647111699",
        "url": "https://www.ixigua.com/7292702723647111699"
    },
    {
        "title": "怎样共享手机流量？原来方法那么简单，手把手教你方法！",
        "docid": "7302021907904528933",
        "url": "https://www.ixigua.com/7302021907904528933"
    },
    {
        "title": "华为卫星通话费用来了，你觉得贵不贵？",
        "docid": "7273480911927444024",
        "url": "https://www.ixigua.com/7273480911927444024"
    },
    {
        "title": "行情惨淡，二手市场遍地都是华为大折叠，无人过问！",
        "docid": "7299699082757407268",
        "url": "https://www.ixigua.com/7299699082757407268"
    },
    {
        "title": "星闪＋卫星电话！华为mate60pro，你真不给友商点余地？",
        "docid": "7272789081841467904",
        "url": "https://www.ixigua.com/7272789081841467904"
    },
    {
        "title": "据说，有这个东西，手机都不怕断电了？",
        "docid": "7275202979999777332",
        "url": "https://www.ixigua.com/7275202979999777332"
    },
    {
        "title": "性价比的花式玩法，在续航强悍的基础上，让功能发挥最大！",
        "docid": "7297511246839464488",
        "url": ""
    },
    {
        "title": "比华为MateX5卖的还好，6.43英寸+7.92英寸+512G，这才是荣耀大招",
        "docid": "7300529332370506274",
        "url": ""
    },
    {
        "title": "华为的通讯设备是系统防御，很难被黑客扒窃，所以各国都想买",
        "docid": "7284576600279450164",
        "url": "https://www.ixigua.com/7284576600279450164"
    },
    {
        "title": "华为杀疯了又出两款新手机，这是要干死苹果的节奏，台名嘴锐评",
        "docid": "7276725861846680122",
        "url": "https://www.ixigua.com/7276725861846680122"
    },
    {
        "title": "德国测试华为mate60pro这评价绝了，华为被制裁的四年都做了什么",
        "docid": "7277051639285383721",
        "url": "https://www.ixigua.com/7277051639285383721"
    },
    {
        "title": "vivo X100 Pro体验：这可能是国内安卓最强摄像机",
        "docid": "7302245220928717338",
        "url": "https://www.ixigua.com/7302245220928717338"
    },
    {
        "title": "揭秘：国家为什么把华为手机列为国礼，背后隐藏的深意是什么？",
        "docid": "7294599289685148195",
        "url": "https://www.ixigua.com/7294599289685148195"
    },
    {
        "title": "“留守兄弟俩拼了命的努力攒钱 只为买一部二手手机",
        "docid": "7280430469597332026",
        "url": "https://www.ixigua.com/7280430469597332026"
    },
    {
        "title": "二手市场行情下跌，遍地OPPO大折叠无人问津！",
        "docid": "7302711668667056681",
        "url": "https://www.ixigua.com/7302711668667056681"
    },
    {
        "title": "ColorOS 14全新功能上线，抢先体验一下！#ColorOS14",
        "docid": "7302412176759882276",
        "url": "https://www.ixigua.com/7302412176759882276"
    },
    {
        "title": "华为mate60pro 使用后总结9点 超出我的预期",
        "docid": "7276316922872857123",
        "url": "https://www.ixigua.com/7276316922872857123"
    },
    {
        "title": "Nova系列手机不建议购买的原因",
        "docid": "7297809620599472649",
        "url": "https://www.ixigua.com/7297809620599472649"
    },
    {
        "title": "严刑拷打，华为meta60pro遭受横灾",
        "docid": "7278231890191745594",
        "url": "https://www.ixigua.com/7278231890191745594"
    },
    {
        "title": "龙芯3A6000和麒麟9000S谁更先进？他们的研发人员如何回答？",
        "docid": "7280147524701618725",
        "url": "https://www.ixigua.com/7280147524701618725"
    },
    {
        "title": "华为麒麟9000S对比麒麟990 5G信号网速测试，新款和老款谁更快？",
        "docid": "7279674546586812985",
        "url": "https://www.ixigua.com/7279674546586812985"
    },
    {
        "title": "在负一屏，体验更快的支付",
        "docid": "7291622972664742411",
        "url": "https://www.ixigua.com/7291622972664742411"
    },
    {
        "title": "集颜值、影像和超强续航于一身！这款手机有多强？",
        "docid": "7300895372329779727",
        "url": "https://www.ixigua.com/7300895372329779727"
    },
    {
        "title": "小学生零花钱全款拿下iPhone8！论小钢炮的杀伤力有多强！",
        "docid": "7276238942901535288",
        "url": "https://www.ixigua.com/7276238942901535288"
    },
    {
        "title": "荣耀100 GT备货，1.5K直屏+16GB+1TB，骁龙8 Gen2下放",
        "docid": "7303118118845415974",
        "url": "https://www.ixigua.com/7303118118845415974"
    },
    {
        "title": "【即将失效】16个Edge隐藏绝技，你未必全知道！",
        "docid": "7303095025972773410",
        "url": "https://www.ixigua.com/7303095025972773410"
    },
    {
        "title": "超酷炫的华为气泡通知功能，简单设置即可开启！",
        "docid": "7279031750318424633",
        "url": "https://www.ixigua.com/7279031750318424633"
    },
    {
        "title": "新增16G大运存，骁龙8G2+超声波指纹+无广告OS，魅族强势出击！",
        "docid": "7302496153658982947",
        "url": "https://www.ixigua.com/7302496153658982947"
    },
    {
        "title": "告诉大家一个好消息。",
        "docid": "7302825372738191913",
        "url": "https://www.ixigua.com/7302825372738191913"
    },
    {
        "title": "华为手机的这3个黑科技功能，真的是遥遥领先！",
        "docid": "7283914734146060835",
        "url": "https://www.ixigua.com/7283914734146060835"
    },
    {
        "title": "华为Mate60 Pro+开箱：宣白确实漂亮啊！",
        "docid": "7282999445103477248",
        "url": "https://www.ixigua.com/7282999445103477248"
    },
    {
        "title": "边拉大便边玩手机，这3危害或会“不请自来”，早了解早重视！",
        "docid": "7303049273615581735",
        "url": ""
    },
    {
        "title": "红魔9Pro 开箱 #数码科技 #红魔9Pro",
        "docid": "7301523043132637737",
        "url": "https://www.ixigua.com/7301523043132637737"
    },
    {
        "title": "到底谁在排队买苹果手机，我怎么没有遇到这种情况",
        "docid": "7281607784322794041",
        "url": "https://www.ixigua.com/7281607784322794041"
    },
    {
        "title": "苹果14Pro对比华为Mate60Pro，零件全部国产，性能却不输苹果",
        "docid": "7275233328121578043",
        "url": "https://www.ixigua.com/7275233328121578043"
    },
    {
        "title": "美国拆解研究华为Mate 60评价很高  蔡正元：给自己的苹果帮倒忙",
        "docid": "7280078447450423819",
        "url": "https://www.ixigua.com/7280078447450423819"
    },
    {
        "title": "华为Mate60Pro这个充电头到底是好还是不好用？#华为mate60pro",
        "docid": "7287431295818203708",
        "url": "https://www.ixigua.com/7287431295818203708"
    },
    {
        "title": "#小米发布会 #科技感爆棚 #2023小米徕卡影像大赛 #小米14发布会",
        "docid": "7302469604067148299",
        "url": "https://www.ixigua.com/7302469604067148299"
    },
    {
        "title": "iPhone 13 Pro和iPhone 15 Pro速度对比，隔代提升明显？",
        "docid": "7284448755431637519",
        "url": "https://www.ixigua.com/7284448755431637519"
    },
    {
        "title": "华为Mate60 Pro，小米 13 Ultra，拍照效果对比，结果很意外",
        "docid": "7275527556923654717",
        "url": "https://www.ixigua.com/7275527556923654717"
    }
]