[
    {
        "title": "为什么iPhone各方面都是顶配，却唯独信号不好？看网友如何评论",
        "docid": "7367683072059425332",
        "url": ""
    },
    {
        "title": "华为再夺销量冠军，苹果大跌20%，手机市场震荡！",
        "docid": "7368097502643585577",
        "url": ""
    },
    {
        "title": "功耗减少35%性能提升40%，下半年至明年，国产手机都没有出",
        "docid": "7368084214639755788",
        "url": ""
    },
    {
        "title": "华为pura70ultra网速比拼小米14ultra#华为pura70 #数码科技",
        "docid": "7359561920862487066",
        "url": ""
    },
    {
        "title": "华为纯血鸿蒙原生应用竟然无比丝滑？？满满的全是细节！惊了！",
        "docid": "7367977029138022975",
        "url": ""
    },
    {
        "title": "卖一万的不敌五千的，会吗？华为Pura 70 Ultra对比vivo X100 Pro",
        "docid": "7367232611065791028",
        "url": ""
    },
    {
        "title": "安卓内存是真的奇怪",
        "docid": "7354419598554628634",
        "url": ""
    },
    {
        "title": "才用三天就不要了，苹果15Pro对比国产机皇，难怪掉价严重",
        "docid": "7343503292964143655",
        "url": ""
    },
    {
        "title": "天玑处理器为什么用两年就卡？？？ 天玑处理器为什么用两年就卡",
        "docid": "7366256062544118313",
        "url": ""
    },
    {
        "title": "Galaxy A55 开箱上手 - 跟A54差在哪? 比S24 Ultra还美的边框?!",
        "docid": "7349160831185388051",
        "url": ""
    },
    {
        "title": "监管机换完款了是不是自动解锁",
        "docid": "7368037202095899176",
        "url": ""
    },
    {
        "title": "手机装上特斯拉4680电池，续航会不会爆表呢？",
        "docid": "7348723803670872613",
        "url": ""
    },
    {
        "title": "承东总下一步何去何从？再次挑起伟大历史重任为华为杀开一血路",
        "docid": "7367867686312854050",
        "url": ""
    },
    {
        "title": "小米人车家全生态极速开箱",
        "docid": "7346447414666265142",
        "url": ""
    },
    {
        "title": "这次，我们把小米SU7和极氪001都跑趴窝了",
        "docid": "7357617138527371791",
        "url": ""
    },
    {
        "title": "试下Pura70超高速风驰闪拍。#华为 #pura70 #玩机技巧",
        "docid": "7359407763471991347",
        "url": ""
    },
    {
        "title": "5月值得闭眼入的4款手机，性能强优势突出，赢得一致好评",
        "docid": "7367278147533980199",
        "url": ""
    },
    {
        "title": "重大消息！苹果手机召回计划，用户可免费换新机",
        "docid": "7368053682782356002",
        "url": ""
    },
    {
        "title": "3个月使用体验！总结了OPPO Find X7的4个优点",
        "docid": "7367591055299969547",
        "url": ""
    },
    {
        "title": "从4699跌至699？骁龙888+哈曼卡顿+2K屏，还值得入手吗",
        "docid": "7365818481390027274",
        "url": ""
    },
    {
        "title": "华为Pura70 AI消除功能吓到我了！ iPhone15ProMax扔了得了",
        "docid": "7359594888632992294",
        "url": ""
    },
    {
        "title": "@QW俱乐部深渊 原创",
        "docid": "7367996298001121807",
        "url": ""
    },
    {
        "title": "亍",
        "docid": "7368108944973267483",
        "url": ""
    },
    {
        "title": "别只贪便宜，搞懂iPhone有锁、卡贴机、黑解机、国行、美版、港版",
        "docid": "7364325998902493733",
        "url": ""
    },
    {
        "title": "LCD，千元机都不用了",
        "docid": "7367710547800654390",
        "url": ""
    },
    {
        "title": "华为Pura70 Ultra，作为一个果粉怎么看这台手机",
        "docid": "7359153919781503507",
        "url": ""
    },
    {
        "title": "「花生」小米14 Ultra VS iPhone 15 PM：龟兔赛跑，这回碉堡了！",
        "docid": "7338382055291650575",
        "url": ""
    },
    {
        "title": "五月份，Vivo新机大爆料 5月份，vivo新机大爆料，vivo x100s",
        "docid": "7367633326280180261",
        "url": ""
    },
    {
        "title": "聊天记录恢复",
        "docid": "7367933169095901708",
        "url": ""
    },
    {
        "title": "「花生」小米9炒冷饭：塞翁失马，焉知非福",
        "docid": "7367174846632952320",
        "url": ""
    },
    {
        "title": "黑色配钛原色真的好看啊！#苹果15pro #手机壳",
        "docid": "7367632977985012258",
        "url": ""
    },
    {
        "title": "小米14Ultra对比13Ultra，像是两个公司做出的产品，雷军笑醒了",
        "docid": "7338411030315270706",
        "url": ""
    },
    {
        "title": "差点上当！海湾蓝翻车了？小米SU7被严重低估的配色 被渲染图骗了",
        "docid": "7351616780953748002",
        "url": ""
    },
    {
        "title": "听我一句劝，荣耀magic6值不值得购买！",
        "docid": "7352787330870018587",
        "url": ""
    },
    {
        "title": "摇一摇隐藏好友？如何弄微信密友模式插件",
        "docid": "7368105270901211684",
        "url": ""
    },
    {
        "title": "显卡爆改手机",
        "docid": "7352216490621436470",
        "url": ""
    },
    {
        "title": "逆天，真的可以快充！评测拆解拼夕夕全协议充电器",
        "docid": "7337577243683914252",
        "url": ""
    },
    {
        "title": "这抓拍能力还有谁？#华为pura70 #华为手机",
        "docid": "7359152334951154176",
        "url": ""
    },
    {
        "title": "iQOOZ9Turbo 为了这个手机，我估计我又得买一张卡了",
        "docid": "7356076752084566578",
        "url": ""
    },
    {
        "title": "旧手机数据迁移到新手机，方法好简单！以前只会一点一点移动",
        "docid": "7356546768043049506",
        "url": ""
    },
    {
        "title": "合成貼圖 簡單示範 1分鍾",
        "docid": "7368165809329275432",
        "url": ""
    },
    {
        "title": "五月二手推荐，告诉你iPhone手机换屏+电池成本要多少，别被坑了",
        "docid": "7367210905736512035",
        "url": ""
    },
    {
        "title": "vivo X100s,蓝厂直屏旗舰猜猜价格吧:  6.78\"2800*1260p1.5K直屏",
        "docid": "7367771194172375561",
        "url": ""
    },
    {
        "title": "终于拥有了人生第一部苹果手机， 能用个十年吧",
        "docid": "7339868034787934754",
        "url": ""
    },
    {
        "title": "一图总结华为Pura70系列，哪个版本最值得入手",
        "docid": "7359538466050277903",
        "url": ""
    },
    {
        "title": "小米 14 Ultra 第一回盒：用了十几天，它是很强，但是我…",
        "docid": "7338582124930269722",
        "url": ""
    },
    {
        "title": "她一定是爱我的，对么",
        "docid": "7368182486079111732",
        "url": ""
    },
    {
        "title": "iQOO Z9 Turbo实测：续航同级第一，中端全能王！",
        "docid": "7361316570984874534",
        "url": ""
    },
    {
        "title": "华为Pura70标准版对比苹果15谁更强！ 华为Pura70全面对比iPhone",
        "docid": "7364702460889432576",
        "url": ""
    },
    {
        "title": "把安卓4改安卓9，解决了很多安卓4不能用的软件",
        "docid": "7367366318804173346",
        "url": ""
    },
    {
        "title": "满是学习资料的手机 你拿什么抵抗",
        "docid": "7359784179086819852",
        "url": ""
    },
    {
        "title": "我真的无语😓",
        "docid": "7368000397677429288",
        "url": ""
    },
    {
        "title": "小米14入手必须要做的几件事！做完这些设置",
        "docid": "7342396486568641076",
        "url": ""
    },
    {
        "title": "小米14 Ultra专业摄影套装体验：不仅能拍照，还是个充电宝！",
        "docid": "7338613878538175017",
        "url": ""
    },
    {
        "title": "内部设计：华为pura70ultra对比三星s24ultra，三星看着像玩具？",
        "docid": "7365435291219264012",
        "url": ""
    },
    {
        "title": "华为Pura70销量不敌Mate60，究竟为何？手机店老板：三个原因",
        "docid": "7367548953081938447",
        "url": ""
    },
    {
        "title": "梦梦家粉丝低预算也能用上苹果高端机，买手机记得找梦梦",
        "docid": "7368194449903452722",
        "url": ""
    },
    {
        "title": "五月手机圈真热闹！有九场发布会！十多款新机齐发布！",
        "docid": "7367253049213043219",
        "url": ""
    },
    {
        "title": "vivo X100s开箱#vivo #新品上市欢迎品鉴",
        "docid": "7367578467421913636",
        "url": ""
    },
    {
        "title": "vivos18pro旗舰机同级别的影像系统",
        "docid": "7367943461930009115",
        "url": ""
    },
    {
        "title": "苹果14组装机成本，华强北苹果配件价格。苹果瑕疵机。",
        "docid": "7345785746524996135",
        "url": ""
    },
    {
        "title": "谷歌Google Pixel 8a -上手评测！",
        "docid": "7366556734783128116",
        "url": ""
    },
    {
        "title": "💬双向—修改教程来啦",
        "docid": "7368099038480040463",
        "url": ""
    },
    {
        "title": "华为P70万元机限量发售，网友惊呼，与四千元的苹果15一较高下！",
        "docid": "7368168993506476559",
        "url": ""
    },
    {
        "title": "国产手机充电协议，即将迎来大变样",
        "docid": "7368051632698966567",
        "url": ""
    },
    {
        "title": "为什么大多数人可以接受华为的高端，却不接受小米的高端？",
        "docid": "7368168814799897124",
        "url": ""
    },
    {
        "title": "闪钻满天星#手机壳推荐 #iphone #超好看 #小众设计感 #新品上新",
        "docid": "7367883057463820841",
        "url": ""
    },
    {
        "title": "iOS17.4.1万人反馈bug，一旦触发无法复原！全部机型中招",
        "docid": "7352472673265386035",
        "url": ""
    },
    {
        "title": "#少爷，请打钱，已饿死了",
        "docid": "7368054887835402802",
        "url": ""
    },
    {
        "title": "一招教你如何保存 那些不能直接保存的视频",
        "docid": "7367719280403546624",
        "url": ""
    },
    {
        "title": "逛旗舰店，看看华为pocket2～ 好多小姐姐在看，果然深受女生喜爱",
        "docid": "7338723374828683776",
        "url": ""
    },
    {
        "title": "拿到这个手机瞬间感觉苹果不香了",
        "docid": "7335094892399428130",
        "url": ""
    },
    {
        "title": "苹果手机双扬声器的正确打开方式，新iPhone到手后一定要试试！",
        "docid": "7352885850184614400",
        "url": ""
    },
    {
        "title": "8849手机，手机中的战斗机！",
        "docid": "7353940516800725530",
        "url": ""
    },
    {
        "title": "动态ip开关飞行即跳！刷视频嘎嘎快！安全稳定！随切ip！",
        "docid": "7368228011063116351",
        "url": ""
    },
    {
        "title": "日本网友热议华为Pura 70系列手机 评价普遍让人意外",
        "docid": "7368014068151517715",
        "url": ""
    },
    {
        "title": "华为 Pura70 Ultra 详细上手感受，值这个价嘛？#华为pura70ultra",
        "docid": "7359153454100840970",
        "url": ""
    },
    {
        "title": "原来这就是伸缩镜头，我能玩一天！华为Pura 70Ultra首发体验！",
        "docid": "7359069816840192548",
        "url": ""
    },
    {
        "title": "手机密码忘了怎么办？简单几步，保留数据解锁！",
        "docid": "7340714569989685823",
        "url": ""
    },
    {
        "title": "第一次开小姐姐的小米Su7 max版～真实测评分享#小米su7",
        "docid": "7356835040732381747",
        "url": ""
    },
    {
        "title": "创做路上感谢你们一直相伴",
        "docid": "7368041683575013940",
        "url": ""
    },
    {
        "title": "教",
        "docid": "7368079179067163188",
        "url": ""
    },
    {
        "title": "IPhone“备忘录”是生活工作必备神器，让它吃灰是你最大的损失！",
        "docid": "7368043083428184603",
        "url": ""
    },
    {
        "title": "我认为最好用的手机系统。",
        "docid": "7363302834428707339",
        "url": ""
    },
    {
        "title": "为什么我宁愿每年换1部千元机，也不考虑买高端手机连用好几年？",
        "docid": "7353455721192784434",
        "url": ""
    },
    {
        "title": "百亿补爹 iPhone15 Pro真实开箱！",
        "docid": "7337638481235018240",
        "url": ""
    },
    {
        "title": "荣耀Magic6 Pro对比华为Pura70 Pro 国产新锐旗舰相比有哪些差异",
        "docid": "7359524248371200524",
        "url": ""
    },
    {
        "title": "男生变成女生是",
        "docid": "7367941334176530963",
        "url": ""
    },
    {
        "title": "京东销量达到50万以上的手机，哪一台你买过？",
        "docid": "7347238705855431203",
        "url": ""
    },
    {
        "title": "各代iPhone用户现状！简直太真实了，你被说中了吗",
        "docid": "7340963858934301224",
        "url": ""
    },
    {
        "title": "iPhone16ProMax，拒绝躺平！",
        "docid": "7364064617271771711",
        "url": ""
    },
    {
        "title": "IPhone电量焦虑：一直被“电池健康”误导，它并非换电池的标准！",
        "docid": "7363833460819067443",
        "url": ""
    },
    {
        "title": "那些可以称为艺术品的直板手机，你当年追过哪几款？",
        "docid": "7365313520503833139",
        "url": ""
    },
    {
        "title": "绝美小屏惊艳登场！新款6.03英寸手机，小屏爱好者的福音之选！",
        "docid": "7352175926979723776",
        "url": ""
    },
    {
        "title": "不到一年销量破千万，这款千元机太狠了",
        "docid": "7367202809361629736",
        "url": ""
    },
    {
        "title": "手机三年一换和一年一换成本相当？手机达人为你算账",
        "docid": "7365925315035660841",
        "url": ""
    },
    {
        "title": "挑花眼了？一文看懂！1500~3000元价位5月高性价比手机推荐！",
        "docid": "7365725526192898599",
        "url": ""
    },
    {
        "title": "废物利用！教你用旧手机充当电视盒子，成本才53元！",
        "docid": "7341359570419221004",
        "url": ""
    },
    {
        "title": "iOS 18界面UI风格大改，可能是iOS近十年的最大变化。",
        "docid": "7353508480336052772",
        "url": ""
    },
    {
        "title": "2024年高性价比旗舰机推荐：旗舰也卷不动了",
        "docid": "7360572801474232873",
        "url": ""
    },
    {
        "title": "笑不活了！小米SU7请代言人，网友评论区纷纷支招",
        "docid": "7352293130789470747",
        "url": ""
    },
    {
        "title": "有哪些特征一眼就会被看出是 iPhone 用户？",
        "docid": "7356199844299604516",
        "url": ""
    },
    {
        "title": "好物分享｜2分钟告诉你：谁是2000元的真香机？",
        "docid": "7363665887453102630",
        "url": ""
    },
    {
        "title": "淘汰近 20 年的万能充，突然爆红！网友竟发明出这么多“逆天”用法……",
        "docid": "7341691930130170383",
        "url": ""
    },
    {
        "title": "都不敢说？那我说了：现在的手机真丑，丑爆了！",
        "docid": "7364373966934360585",
        "url": ""
    },
    {
        "title": "零下20度稳定放电、容量强到离谱：vivo行业首发半固态电池！",
        "docid": "7350680920703287871",
        "url": ""
    },
    {
        "title": "手机上有这4张照片，建议马上删掉，看看你手机里有没有",
        "docid": "7351719844225679923",
        "url": ""
    },
    {
        "title": "手机型号的后缀含义，这一篇写全了，看看你踩坑了吗",
        "docid": "7335462585170428468",
        "url": ""
    },
    {
        "title": "小米今天这个瓜，真的有点大啊",
        "docid": "7366195176068563471",
        "url": ""
    },
    {
        "title": "2024年手机值得入手的排行榜",
        "docid": "7363847138276770367",
        "url": ""
    },
    {
        "title": "现阶段几乎零差评的钉子户神机",
        "docid": "7347514897821172239",
        "url": ""
    },
    {
        "title": "手机伪装“饭卡”进校园，聊天、打游戏一样不落？家长：太害人！",
        "docid": "7356187468439241225",
        "url": ""
    },
    {
        "title": "谁家系统最臃肿？国产手机系统纯净度对比",
        "docid": "7358368778855449126",
        "url": ""
    },
    {
        "title": "为什么你喜欢的小屏手机，厂商却不愿意造呢？他们傻么",
        "docid": "7345334670910964264",
        "url": ""
    },
    {
        "title": "警告：切勿放枕头下！网友后怕：再也不敢了……",
        "docid": "7364552297625436708",
        "url": ""
    },
    {
        "title": "华为公认最耐用的三款手机",
        "docid": "7350126925040189962",
        "url": ""
    },
    {
        "title": "手机耐用排行榜前十",
        "docid": "7356582043976811062",
        "url": ""
    },
    {
        "title": "什么样的手机能称得上NO.1呢？",
        "docid": "7350273990868566543",
        "url": ""
    },
    {
        "title": "几款价格跌至冰点的高性价比手机，销量高，性价比吊打红米",
        "docid": "7349004057947210278",
        "url": ""
    },
    {
        "title": "使用安卓旧手机完美取代电视盒子，享受无限制的影视观看体验",
        "docid": "7343542901605270055",
        "url": ""
    },
    {
        "title": "盘点即将被淘汰的手机处理器，看看有你在用的吗？",
        "docid": "7347689002696213027",
        "url": ""
    },
    {
        "title": "有史以来销量最高的 10 款手机",
        "docid": "7360871875981034025",
        "url": ""
    },
    {
        "title": "曾经手机界的“低音炮”，如今30块买一部玩玩",
        "docid": "7363517073110073890",
        "url": ""
    },
    {
        "title": "3.5mm 接口、6.1 英寸小屏，这可能是今年最正常的手机了",
        "docid": "7366205488628826659",
        "url": ""
    },
    {
        "title": "华为Pura 70，果然还是被玩坏了",
        "docid": "7360621727484903977",
        "url": ""
    },
    {
        "title": "华为哪几部才称得上是神机，大家还有在用吗？",
        "docid": "7356594261221753395",
        "url": ""
    },
    {
        "title": "手机里哪些信息代表你嫖过娼？",
        "docid": "7367683164212707850",
        "url": ""
    },
    {
        "title": "下一部手机，你会买华为还是苹果？不捧不踩，客观解析，一看就懂",
        "docid": "7342456494971339299",
        "url": ""
    },
    {
        "title": "2024几乎零差评的五款手机",
        "docid": "7341313704249655835",
        "url": ""
    },
    {
        "title": "2500元以下最值得购买的6款手机",
        "docid": "7364621178625065512",
        "url": ""
    },
    {
        "title": "苹果手机，天气预报的精准度，百思不得其解",
        "docid": "7361821955965698600",
        "url": ""
    },
    {
        "title": "2000以下预算，值得入手的旗舰手机",
        "docid": "7352017645169918500",
        "url": ""
    },
    {
        "title": "被抛弃的手机设计！年轻人一半没见过，看看你认识几个",
        "docid": "7335451065254806050",
        "url": ""
    },
    {
        "title": "5K壁纸；7K 80M 竹石如意。",
        "docid": "7365018317625164351",
        "url": ""
    },
    {
        "title": "不吹不黑，几乎没短板！荣耀90GT用了一个多月，聊聊真实体验",
        "docid": "7351287467612160512",
        "url": ""
    },
    {
        "title": "澎湃OS突然更新，把十年米粉都看懵了",
        "docid": "7367657986757788211",
        "url": ""
    },
    {
        "title": "2024口碑最好的手机前十位",
        "docid": "7355782459553759778",
        "url": ""
    },
    {
        "title": "手机热销榜前十名推荐",
        "docid": "7354952290027012643",
        "url": ""
    },
    {
        "title": "2024最建议买的男士手机",
        "docid": "7363116493053248011",
        "url": ""
    },
    {
        "title": "看完这个，马上想回家拔插头……",
        "docid": "7341913583585903113",
        "url": ""
    },
    {
        "title": "现在的手机，不能说十分相似，只能说千篇一律",
        "docid": "7351267538354979369",
        "url": ""
    },
    {
        "title": "2024手机处理器现状！太真实了，看看你的手机排在哪",
        "docid": "7349935564973425206",
        "url": ""
    },
    {
        "title": "贵了300块钱，iQOO Neo9比iQOO Z9 Turbo强在哪里？",
        "docid": "7362011078986842664",
        "url": ""
    },
    {
        "title": "尬惨！被大妈怒斥崇洋媚外的上千果粉们最终被拒门外 直言被伤害！",
        "docid": "7349436521122103843",
        "url": ""
    },
    {
        "title": "曾经火遍全国的4种电子产品，如今却不见踪迹，买过2种的是土豪",
        "docid": "7337988760833442323",
        "url": ""
    },
    {
        "title": "1500元以下最值得购买的5款手机",
        "docid": "7363291379772047881",
        "url": ""
    },
    {
        "title": "别再偷看“成人网站”了，手机发出这3种“信号”，请务必停止",
        "docid": "7350963994624049679",
        "url": ""
    },
    {
        "title": "果然，我们都被苹果骗了",
        "docid": "7356917307676852748",
        "url": ""
    },
    {
        "title": "手机的发展已陷入“死循环”，谁来破局？",
        "docid": "7336425111720165928",
        "url": ""
    },
    {
        "title": "韩国人又郁闷了：华为Pura70，不是100%国产，用了韩国芯片",
        "docid": "7367761470454579764",
        "url": ""
    },
    {
        "title": "手机壳后面为什么要放一张钱？好多人还不懂，看完抓紧放一张",
        "docid": "7338677584311763475",
        "url": ""
    },
    {
        "title": "苹果手机使用久了才知道的小技巧，建议收藏备用",
        "docid": "7355675999557845542",
        "url": ""
    },
    {
        "title": "OPPO K12发布会高光名场面——手机与高跟鞋，谁会大卖？",
        "docid": "7362363554260959784",
        "url": ""
    },
    {
        "title": "疑审核缺失 苹果App Store国区出现成人约会APP",
        "docid": "7361646480937107995",
        "url": ""
    },
    {
        "title": "原来营业厅都改不了的手机套餐，一招即可改为最低的8元套餐",
        "docid": "7342896517587599887",
        "url": ""
    },
    {
        "title": "手机屏幕的“黄金尺寸”到底是6.36寸还是6.1寸？",
        "docid": "7343458286933279282",
        "url": ""
    },
    {
        "title": "冲上性能榜第一！骁龙8Gen3+IP68防水+24GB，无奈依然少人问津",
        "docid": "7353310176734216716",
        "url": ""
    },
    {
        "title": "这么个好用的手机，说停，它就停了",
        "docid": "7356905235056689727",
        "url": ""
    },
    {
        "title": "2024目前5款最强千元机",
        "docid": "7358663381923938831",
        "url": ""
    },
    {
        "title": "日本网友热议华为Pura 70系列手机 评价普遍让人意外",
        "docid": "7359109784613831206",
        "url": ""
    },
    {
        "title": "高性能LCD手机有哪些？最低1100起，LCD最后的绝唱",
        "docid": "7352009768984379945",
        "url": ""
    },
    {
        "title": "小米14ultra和华为mate60pro哪个更值得入手？二者都有什么区别？",
        "docid": "7340212692848902696",
        "url": ""
    },
    {
        "title": "曾经红极一时的电子产品，如今消失不见了，用过的都老了",
        "docid": "7362071151813689871",
        "url": ""
    },
    {
        "title": "十七年前的最强“智能手机”，外观酷似笔记本电脑！",
        "docid": "7362155427091563043",
        "url": ""
    },
    {
        "title": "“用了六年要换了吗？”当心！别再用！",
        "docid": "7354630867644138025",
        "url": ""
    },
    {
        "title": "24GB+2TB，这手机真的太狠了",
        "docid": "7366907290374685223",
        "url": ""
    },
    {
        "title": "网友的妈妈被骗了10万元，都是iPhone的FaceTime惹的祸，要注意了",
        "docid": "7346419117656490546",
        "url": ""
    },
    {
        "title": "壁纸：百看不厌，越看越喜欢。",
        "docid": "7361274974948246052",
        "url": ""
    },
    {
        "title": "努比亚首款！nubia Flip 亮相：国产最薄小折叠",
        "docid": "7355797030704398848",
        "url": ""
    },
    {
        "title": "【旗舰】歌手开播 vivoX100Ultra广告醒目 现场10X样张打几分？",
        "docid": "7367752039424983571",
        "url": ""
    },
    {
        "title": "小米最值得购买的6款手机",
        "docid": "7355115578925711887",
        "url": ""
    },
    {
        "title": "华为P70只是开胃小菜？Mate70才是真正的大餐？",
        "docid": "7359529759371444755",
        "url": ""
    },
    {
        "title": "别再用一拖三数据线了，搞不好手机都给你都烧了",
        "docid": "7347571214585496115",
        "url": ""
    },
    {
        "title": "华为手机的这些隐藏功能你知道吗？网友: 用了几年都没发现！",
        "docid": "7365510779568734774",
        "url": ""
    },
    {
        "title": "怎样才能把IPhone音质发挥到极致？这是目前最有效的调教方式了！",
        "docid": "7364598286273135155",
        "url": ""
    },
    {
        "title": "5K壁纸：让五星红旗在手机上飘扬。",
        "docid": "7364644555825709595",
        "url": ""
    },
    {
        "title": "华为最牛钉子户手机汇总——深度解析最经典的六款麒麟神U",
        "docid": "7344990976987398671",
        "url": ""
    },
    {
        "title": "六年相伴，谢幕传奇：华为Mate20，我们的共同记忆。",
        "docid": "7351366418325242380",
        "url": ""
    },
    {
        "title": "【樱桃之宴】：鲜红与翠绿交织的视觉盛宴",
        "docid": "7362685257139487232",
        "url": ""
    },
    {
        "title": "各大手机品牌的优缺点合集，你在用什么手机？",
        "docid": "7327628113821680139",
        "url": ""
    },
    {
        "title": "预算1500以内，内行人推荐八款手机，流畅使用四五年不卡顿！",
        "docid": "7363100385759773221",
        "url": ""
    },
    {
        "title": "盘点骁龙系列处理器现状",
        "docid": "7363816027882390051",
        "url": ""
    },
    {
        "title": "照相最好的手机排行榜，这两款手机将2亿像素主摄带进千元档！",
        "docid": "7347980646612369972",
        "url": ""
    },
    {
        "title": "一字之差，天壤之别，别把骁龙7+ Gen3和骁龙7 Gen3搞混了",
        "docid": "7351291794690310671",
        "url": ""
    },
    {
        "title": "2024荣耀公认最好的三款手机",
        "docid": "7352696656355967488",
        "url": ""
    },
    {
        "title": "手机为什么总提示系统更新？原来还有这么多猫腻！看完涨知识了",
        "docid": "7341290706365841961",
        "url": ""
    },
    {
        "title": "2024最建议买的三款华为手机",
        "docid": "7342100576761233946",
        "url": ""
    },
    {
        "title": "波导、金立、酷派、天语等老牌手机厂商，现在都在干嘛？",
        "docid": "7346907252915307035",
        "url": ""
    },
    {
        "title": "没有一点防备，华为突然更新",
        "docid": "7347646092588155404",
        "url": ""
    },
    {
        "title": "韩国人又郁闷了：华为Pura70，不是100%国产，用了韩国芯片",
        "docid": "7367689181391274530",
        "url": ""
    },
    {
        "title": "你知道吗？一个新手机号，竟然能取出来60万！",
        "docid": "7362199617306247720",
        "url": ""
    },
    {
        "title": "24年还不会挑选手机的看过来，各价位手机推荐，绝对不踩雷！",
        "docid": "7330837128949711370",
        "url": ""
    },
    {
        "title": "9大手机互联品牌，谁才是车联之王？",
        "docid": "7338232972426248754",
        "url": ""
    },
    {
        "title": "手机号为何“难断前缘”？“二手号码”出现重大隐患",
        "docid": "7355118465369506319",
        "url": ""
    },
    {
        "title": "OPPO K12：两千块钱，基本没什么卖点",
        "docid": "7361432641884848691",
        "url": ""
    },
    {
        "title": "2024年iQOO公认最好的三部手机",
        "docid": "7352351618957935139",
        "url": ""
    },
    {
        "title": "这部墨水屏手机才280元，采用安卓系统，可以随便装APP",
        "docid": "7345303375254241842",
        "url": ""
    },
    {
        "title": "手机和钱都没了，客服只能“非常抱歉”？",
        "docid": "7363962961499423295",
        "url": ""
    },
    {
        "title": "小屏手机，去哪儿了？",
        "docid": "7353663308475515411",
        "url": ""
    },
    {
        "title": "IPhone的激光雷达，好多人从来没用过，它的功能很强大，别浪费！",
        "docid": "7354197156871275045",
        "url": ""
    },
    {
        "title": "看到这个手机，卖手机壳的哭了",
        "docid": "7343066777561072167",
        "url": ""
    },
    {
        "title": "女子给手机贴磨砂膜，这清晰度降低了不止一个档次",
        "docid": "7344574304861979186",
        "url": ""
    },
    {
        "title": "苹果迈入AI时代！国行版iPhone16AI功能由百度提供，评论区笑麻了",
        "docid": "7350166940536537636",
        "url": ""
    },
    {
        "title": "华为手机主题-凤凰展翼 | 鸿蒙动态手机主题",
        "docid": "7354164574578475556",
        "url": ""
    },
    {
        "title": "2024年，现在性价比最高的iPhone是哪款？",
        "docid": "7365485812575666699",
        "url": ""
    },
    {
        "title": "一个手机“护眼模式”的大隐患，很多人中招，快自查",
        "docid": "7344657672111047177",
        "url": ""
    },
    {
        "title": "男子手机被龙虾钳住，手机屏幕随之碎裂",
        "docid": "7359143441156014633",
        "url": ""
    },
    {
        "title": "十大最受欢迎的手机",
        "docid": "7358276859064353320",
        "url": ""
    },
    {
        "title": "20亿部旧手机，被国人“浪费”了？",
        "docid": "7354164163318514230",
        "url": ""
    },
    {
        "title": "2024年换新机！华为各系列手机哪款最值得买？",
        "docid": "7350621717536145974",
        "url": ""
    },
    {
        "title": "女生修手机相册被偷看31分钟，当场气炸找店家对峙，店家解释亮了",
        "docid": "7357169531216888372",
        "url": ""
    },
    {
        "title": "雷军绝对是懂男人的，因为他把手机支架接口设计在左侧！",
        "docid": "7356829064541241907",
        "url": ""
    },
    {
        "title": "二十四年前的“智能手机”，黑白屏幕能看视频、能打游戏",
        "docid": "7352122428237103631",
        "url": ""
    },
    {
        "title": "iOS17系统设置：让你的iPhone更智能，更贴心！",
        "docid": "7357644232615690815",
        "url": ""
    },
    {
        "title": "超过6000元的预算买手机，我只推荐这三个品牌",
        "docid": "7346198288460153363",
        "url": ""
    },
    {
        "title": "手机电量剩一半就充好，还是快没电了再充电好？原理是什么？",
        "docid": "7361762017852424704",
        "url": ""
    },
    {
        "title": "诺基亚以这样复古的翻盖形态回归你会买单吗？",
        "docid": "7359960687373713954",
        "url": ""
    },
    {
        "title": "女生用华为mate60pro拍演唱会，票价瞬间变3000内场，拉远后懵了",
        "docid": "7343448734778753563",
        "url": ""
    },
    {
        "title": "骁龙8 Gen 3机型之“最”盘点 | 哪款手机最便宜？哪款手机配置最高？",
        "docid": "7336356243545604623",
        "url": ""
    },
    {
        "title": "华为三代神机：Mate20、Mate30、Mate40。钉子户们，你们还在用吗",
        "docid": "7336557104146809381",
        "url": ""
    },
    {
        "title": "各代苹果手机的最大缺点，实在太准了，你的手机中了吗？",
        "docid": "7349517788261663232",
        "url": ""
    },
    {
        "title": "盘点历代iPhone的缺点",
        "docid": "7343131191392551433",
        "url": ""
    },
    {
        "title": "余承东“不讲武德”，7000毫安 512GB突降1919元，",
        "docid": "7368068174560281129",
        "url": ""
    },
    {
        "title": "vivo领跑2024年第一季度印尼智能手机市场，小米、OPPO紧随其后",
        "docid": "7368298934277653007",
        "url": ""
    },
    {
        "title": "小米手机查看电池健康方法",
        "docid": "7339102942898799145",
        "url": ""
    },
    {
        "title": "不用的手机卡一定要注销！但别去营业厅注销",
        "docid": "7337506175631540751",
        "url": ""
    },
    {
        "title": "5K壁纸：海天一色，一帆风顺。",
        "docid": "7362021205676769803",
        "url": ""
    },
    {
        "title": "Xiaomi Civi 4 Pro 12+256 2999元，对比一加ace3v谁更胜一筹呢？",
        "docid": "7367361664146588175",
        "url": ""
    },
    {
        "title": "华为手机哪款性价比高 质量好",
        "docid": "7340854428264055322",
        "url": ""
    },
    {
        "title": "以前的手机有模有样，现在的手机一模一样",
        "docid": "7361323489485210139",
        "url": ""
    },
    {
        "title": "国产品牌近乎全军覆没的安全漏洞：唯一不受影响的只有华为",
        "docid": "7363129618888409663",
        "url": ""
    },
    {
        "title": "小米手机别乱买，盘点历代小米手机的最大缺点，看完再入手",
        "docid": "7359202044299117095",
        "url": ""
    },
    {
        "title": "想安装个App，为何手机厂商“百般阻挠”？",
        "docid": "7362466736337469964",
        "url": ""
    },
    {
        "title": "微信这样清理，手机内存128GB也够用！",
        "docid": "7362116358051512843",
        "url": ""
    },
    {
        "title": "华为Pura 70 Ultra全网首拆 全新麒麟芯片现真身",
        "docid": "7359152331394449970",
        "url": ""
    },
    {
        "title": "有料：苹果首款翻盖式，索尼Xperia 1 VI和华为Mate 70",
        "docid": "7368235253309325843",
        "url": ""
    },
    {
        "title": "如果想买华为Pura70系列，这20个问题不能不知道。",
        "docid": "7359362733998948904",
        "url": ""
    },
    {
        "title": "麒麟990和麒麟9000处理器哪个好，哪款更胜一筹，你更看好谁？",
        "docid": "7353603623886127657",
        "url": ""
    },
    {
        "title": "苹果去华成功？一季度河南手机出口665万部，同比下滑60.1%",
        "docid": "7367512644795908658",
        "url": ""
    },
    {
        "title": "苹果手机的激光雷达有什么用处？难道只是摆设？",
        "docid": "7357955291386741288",
        "url": ""
    },
    {
        "title": "重回市场第一！华为Mate60 Pro销量千万再次被确认！",
        "docid": "7368384873398141492",
        "url": ""
    },
    {
        "title": "既然手机屏幕已经足够坚硬，为什么还这么多人贴膜？",
        "docid": "7345016546383036968",
        "url": ""
    },
    {
        "title": "国行iPhone究竟算不算是阉割版？被取消掉的功能对你真的有用吗？",
        "docid": "7364617499219591720",
        "url": ""
    },
    {
        "title": "【搞机推荐】278元智能机、599的5G手机、699元小主机、3486元的小米12S Ultra、2299元的双屏笔记本",
        "docid": "7346194084111893032",
        "url": ""
    },
    {
        "title": "江南烟雨套装壁纸",
        "docid": "7365096267732664884",
        "url": ""
    },
    {
        "title": "2024年Q1国内手机谁卖得好？华为重回第一，荣耀同样大涨",
        "docid": "7367672811999085071",
        "url": ""
    },
    {
        "title": "QQ地震预警功能，四川地区已上线",
        "docid": "7368311575968711204",
        "url": ""
    },
    {
        "title": "小米数字系列历代手机发展史（全图）",
        "docid": "7340481738738942516",
        "url": ""
    },
    {
        "title": "不吹不黑，当一回华为Pura 70系列裁判，不聊参数只讲各版本优缺点",
        "docid": "7360897791830278666",
        "url": ""
    },
    {
        "title": "第二弹，请网友P掉照片中男子，竟成手机AI修图大PK！评论区炸锅",
        "docid": "7364658626021179939",
        "url": ""
    },
    {
        "title": "诺基亚25年前经典款手机复出，379元一部卖断货，你会为情怀买单吗？",
        "docid": "7367291905996997157",
        "url": ""
    },
    {
        "title": "相同价位，华为nova12活力版与荣耀100怎么选？看了就明白了",
        "docid": "7340462435868213812",
        "url": ""
    },
    {
        "title": "5K壁纸：独特的视觉效果",
        "docid": "7366473043352240652",
        "url": ""
    },
    {
        "title": "iPhone15系列和安卓充电器通用一定要慎重，不要乱用！",
        "docid": "7343600681125200411",
        "url": ""
    },
    {
        "title": "Mate60 Pro升级Pura 70 Pro划算不？9项对比告诉你",
        "docid": "7359101506156610048",
        "url": ""
    },
    {
        "title": "一部手机用了七年，这个月终于退休了！",
        "docid": "7363121711576777252",
        "url": ""
    },
    {
        "title": "华为当初宣传使用3年不卡顿，是真是假？我亲测。",
        "docid": "7344271714790375976",
        "url": ""
    },
    {
        "title": "华为手机是选Mate系列还是P系列,两者差别不小,内行告诉你怎么选!",
        "docid": "7356608590939275830",
        "url": ""
    },
    {
        "title": "华为P70改名称Pura 70，网友：Pura什么意思，怎么读？",
        "docid": "7357910120564736564",
        "url": ""
    },
    {
        "title": "男人为什么最怕查手机？评论区网友道出真实经历，一个比一个炸裂",
        "docid": "7368384782914535951",
        "url": ""
    },
    {
        "title": "下血本了！直接把小米SU7拆了！英伟达高通芯片一览无余！",
        "docid": "7355469034147562020",
        "url": ""
    },
    {
        "title": "#小米 #魅族 #一加 #红米",
        "docid": "7367708220763734540",
        "url": ""
    },
    {
        "title": "十几年中国就有透明手机了？！这也太炫酷了吧",
        "docid": "7339936748463784502",
        "url": ""
    },
    {
        "title": "苹果发布会再冲热搜，看完这次PPT，网友：期待华为！",
        "docid": "7368293388602442240",
        "url": ""
    },
    {
        "title": "华为重回中国市场第一，还吐槽麒麟9010跑分输给骁龙8+不尴尬吗？",
        "docid": "7368191401047179817",
        "url": ""
    },
    {
        "title": "华为重夺中国大陆智能手机市场榜首：品牌竞争格局生变！",
        "docid": "7368210752202719770",
        "url": ""
    },
    {
        "title": "不可思议的触觉手机，手机上任何画面都能摸得到",
        "docid": "7344718733191053861",
        "url": ""
    },
    {
        "title": "荣耀Magic6的豪横功能，全天候息屏显示。",
        "docid": "7343582288392749609",
        "url": ""
    },
    {
        "title": "粉丝买来近2000元的纯银线材做数据线，开箱看看有什么不一样？",
        "docid": "7358109092419731979",
        "url": ""
    },
    {
        "title": "在美国要工作多久才能买得起一部苹果手机？",
        "docid": "7361795934692475428",
        "url": ""
    },
    {
        "title": "一口气看完折叠屏手机最佳排名，第一名打破了传统手机的界限",
        "docid": "7357552198458278463",
        "url": ""
    },
    {
        "title": "鲁大师车机跑分：小米SU7第一遥遥领先，鸿蒙智行系列全线出局！",
        "docid": "7368288321962918415",
        "url": ""
    },
    {
        "title": "日本网友热议华为Pura 70系列手机 评价普遍让人意外",
        "docid": "7368229907010175498",
        "url": ""
    },
    {
        "title": "华为最新AI输入法原来这么好用，悄悄进来用",
        "docid": "7341711559934231077",
        "url": ""
    },
    {
        "title": "当年的滑动解锁可是点睛之笔",
        "docid": "7347511414409560613",
        "url": ""
    },
    {
        "title": "Vivo手机居然自带灵动岛功能？巨好用啊！",
        "docid": "7349106464181518887",
        "url": ""
    },
    {
        "title": "华为Pura70系列当初首发多少人溢价入手的？如今价格已经稳定了",
        "docid": "7363106691233415695",
        "url": ""
    },
    {
        "title": "小米15Pro登顶机皇：50Mp副屏3摄+首发顶尖骁龙，这配置简直无敌",
        "docid": "7366230896594125323",
        "url": ""
    },
    {
        "title": "小伙用500元买了台小手机打王者，没想到被虐得...",
        "docid": "7352121376352043570",
        "url": ""
    },
    {
        "title": "我看谁还在说“不买华为”的，怎么这Pura 70还是秒空？5499元值?",
        "docid": "7368285767426212406",
        "url": ""
    },
    {
        "title": "诺基亚25年前经典款手机复出，379元一部卖断货，你会为情怀买单吗？",
        "docid": "7367303488679772687",
        "url": ""
    },
    {
        "title": "发售200天后，华为mate60 Pro价格再次大幅涨价",
        "docid": "7367466500178887168",
        "url": ""
    },
    {
        "title": "手机界的“熹妃回宫”，诺基亚重推上世纪古董机被抢爆！",
        "docid": "7368402210499166755",
        "url": ""
    },
    {
        "title": "盘点各旗舰手机标准版降价幅度！",
        "docid": "7359759914501243432",
        "url": ""
    },
    {
        "title": "【新机】荣耀200外观配置曝光 形似小考拉？高管回应",
        "docid": "7367736703936692736",
        "url": ""
    },
    {
        "title": "iOS壁纸变迁：从经典到创新，每一幅都是时代的印记",
        "docid": "7344161498719142440",
        "url": ""
    },
    {
        "title": "华为鸿蒙HarmonyOS系统功能揭秘：电池优化",
        "docid": "7344935636467483170",
        "url": ""
    },
    {
        "title": "好物分享｜华为Mate60 Pro+：对比Pro版，到底“+”在哪？",
        "docid": "7351785433124176419",
        "url": ""
    },
    {
        "title": "iOS 17.4，目前为止最全面、均衡的版本，推荐所有人升级。",
        "docid": "7343922587384791604",
        "url": ""
    },
    {
        "title": "轻薄全能旗舰华为Mate X5：折叠屏时代的高端引领者",
        "docid": "7367522673024320035",
        "url": ""
    },
    {
        "title": "好物分享｜从3999元跌至3156元，麒麟芯+256GB+卫星通信，华为手机更亲民了",
        "docid": "7367576725124809243",
        "url": ""
    },
    {
        "title": "失控了！华为Pura70的各种极限测试，颠覆了认知。网友：手机超值",
        "docid": "7368265511874773514",
        "url": ""
    },
    {
        "title": "华为Mate70搭载麒麟9020，展现巨大空间提升！华为还是太保守了？",
        "docid": "7368224941877035583",
        "url": ""
    },
    {
        "title": "你的手机是“进网许可”还是“进网试用”",
        "docid": "7340494056608399908",
        "url": ""
    },
    {
        "title": "新手机莫名其妙被调包，包装封条却是完好的！猫腻究竟出在哪儿？",
        "docid": "7343523515763458579",
        "url": ""
    },
    {
        "title": "解锁华为手机新玩法，探索鲜为人知的强大功能！",
        "docid": "7342033576453734938",
        "url": ""
    },
    {
        "title": "华为pura70Ai消除功能我太喜欢了！mate60系列能不能升级啊到底？",
        "docid": "7360204796651995682",
        "url": ""
    },
    {
        "title": "黑夜变白天？华为Pura70 Ultra这个夜拍吓到我了 苹果丢了得了！",
        "docid": "7360236701848961551",
        "url": ""
    },
    {
        "title": "如今还在坚持用小屏手机的用户，一般有3类人，你是其中之一吗？",
        "docid": "7338031090543346227",
        "url": ""
    },
    {
        "title": "为什么会有人喜欢把iPhone专门设置成英文版？看完涨知识了！",
        "docid": "7354358272641630747",
        "url": ""
    },
    {
        "title": "警惕小米120w破解端子已经大量出现，怎么辨别？存在什么问题？",
        "docid": "7345338616073978395",
        "url": ""
    },
    {
        "title": "华为争气！Pura70系列手机零部件国产率超90%",
        "docid": "7368159467643208227",
        "url": ""
    },
    {
        "title": "9年前的高端黑科技，沦为电子垃圾。裸眼3DBOX拆解试玩。",
        "docid": "7343238882806858290",
        "url": ""
    },
    {
        "title": "2024最建议买的三款OPPO手机",
        "docid": "7343786941898342927",
        "url": ""
    },
    {
        "title": "小折叠2999？我没听错？#折叠手机 #努比亚Flip国民小折叠",
        "docid": "7355760495627862578",
        "url": ""
    },
    {
        "title": "2024年高性价比旗舰机推荐：旗舰也卷不动",
        "docid": "7367680470630498826",
        "url": ""
    },
    {
        "title": "一文看懂：华为Pura 70系列四款机型有何区别",
        "docid": "7359035828674314762",
        "url": ""
    },
    {
        "title": "买手机时需要避的坑，看看你都踩过哪几个？",
        "docid": "7344161328812098084",
        "url": ""
    },
    {
        "title": "Mate60Pro使用感受",
        "docid": "7340328784509616703",
        "url": ""
    },
    {
        "title": "红米Note 12T Pro：千元机皇，性能与续航的完美结合",
        "docid": "7340289798810206735",
        "url": ""
    },
    {
        "title": "如何区分“好手机”和“差手机”？这3点告诉你",
        "docid": "7281065941859877415",
        "url": ""
    },
    {
        "title": "华为鸿蒙Harmonyos揭秘:开启性能模式，让你的手机瞬间飞起!",
        "docid": "7338618927750742568",
        "url": ""
    },
    {
        "title": "手机恢复出厂设置后能和新手机一样吗",
        "docid": "7341238427553710601",
        "url": ""
    },
    {
        "title": "华为Pocket2折叠屏上手！没有折痕！黑科技遥遥领先",
        "docid": "7338377796513137215",
        "url": ""
    },
    {
        "title": "华为Mate P70绝地反击！国内巨头再度称雄，高端手机霸主归来",
        "docid": "7368224343752458771",
        "url": ""
    },
    {
        "title": "可能被诈骗分子利用！请马上自查手机卡",
        "docid": "7352687841672987175",
        "url": ""
    },
    {
        "title": "移动、联通、电信手机套餐大比拼，看看哪一家更实惠？",
        "docid": "7350997837854818856",
        "url": ""
    },
    {
        "title": "惊艳回归！华为力挫苹果重返第一，销量飙升1170万台",
        "docid": "7367849584783032867",
        "url": ""
    },
    {
        "title": "华为六款麒麟神U全解析：了解华为最经典的钉子户手机",
        "docid": "7368179539438092863",
        "url": ""
    },
    {
        "title": "刷爆科技圈！华为Pura70 Ultra的AI消除真能破解马赛克？实测揭秘",
        "docid": "7360258375092797952",
        "url": ""
    },
    {
        "title": "据说是华为Pura70被砍掉的工程机，和正式版区别还挺大的，",
        "docid": "7368255122792596002",
        "url": ""
    },
    {
        "title": "华为公布Pura70处理器：标配麒麟9000S1，高配麒麟9",
        "docid": "7368243642823082534",
        "url": ""
    },
    {
        "title": "2499元，水月雨MIAD 01全网通5G HiFi手机发布",
        "docid": "7361390844539290149",
        "url": ""
    },
    {
        "title": "科技竞技场：华为与苹果的全方位较量，谁将引领未来科技潮流？",
        "docid": "7368379758293336616",
        "url": ""
    },
    {
        "title": "手机电池不喜欢100%的饱和状态，你充对了吗？",
        "docid": "7340977707561517622",
        "url": ""
    },
    {
        "title": "三年前麒麟990大战麒麟9010新旗舰芯片，性能差距真的很大吗？",
        "docid": "7361798506241884735",
        "url": ""
    },
    {
        "title": "华为手机设置防偷窥模式，保护你的隐私安全，真的很实用",
        "docid": "7343981399899488795",
        "url": ""
    },
    {
        "title": "有花香的清凉图标，我把花海冰封进了手机里",
        "docid": "7367277616912531994",
        "url": ""
    },
    {
        "title": "都是5499元，华为Pura70和华为Mate60对比，差距比想象中更大",
        "docid": "7368375801038996031",
        "url": ""
    },
    {
        "title": "PITAKA发布全新联名系列芳纶纤维手机壳",
        "docid": "7368285138154750505",
        "url": ""
    },
    {
        "title": "抢滩AI手机市场：华为、小米、苹果各显神通",
        "docid": "7368221794932671010",
        "url": ""
    },
    {
        "title": "“回忆杀”来了！能砸核桃的手机刚“复出”就卖断货",
        "docid": "7368411556151640615",
        "url": ""
    },
    {
        "title": "摊牌了！华为Pura70系列海外开售，Soc芯片型号公开",
        "docid": "7367461534894785058",
        "url": ""
    },
    {
        "title": "一秒售罄？华为Pura 70的发布，让苹果压力大了",
        "docid": "7368192302457668096",
        "url": ""
    },
    {
        "title": "揭秘华为Mate70新麒麟芯片：性能预计突破百万分界限！",
        "docid": "7368256265207808512",
        "url": ""
    },
    {
        "title": "【IT之家开箱】小米 13 Ultra 赤霞橙图赏：橙黑撞色",
        "docid": "7368456269700678198",
        "url": ""
    },
    {
        "title": "小米旗舰机确实有争议，但K70销量第一，他配！#数码科技",
        "docid": "7340944885396013605",
        "url": ""
    },
    {
        "title": "国产机皇上线，骁龙8 Gen3+1.5K+1TB，徕卡光学主摄加持",
        "docid": "7337636592699310592",
        "url": ""
    },
    {
        "title": "我把vivoX100换成了iQOO12Pro，舒服多了！ #手机 #vivo #iQOO",
        "docid": "7354291425590280754",
        "url": ""
    },
    {
        "title": "预算3000以内？被遗忘的冷门机皇？18GB运存+135W快充+旗舰神U",
        "docid": "7356590349852082698",
        "url": ""
    },
    {
        "title": "一部手机最长能用几年? 主要有三个因素, 决定了手机的寿命",
        "docid": "7353535706758726178",
        "url": ""
    },
    {
        "title": "vivo X100s首发拆解：勉勉强强算是个“加强版”",
        "docid": "7368451965216588326",
        "url": ""
    },
    {
        "title": "超级慢动作对比，7680帧和960帧。你们更喜欢哪个？#华为",
        "docid": "7360253143881351680",
        "url": ""
    },
    {
        "title": "蓝图影像、Ultra标准 vivo X100系列再发三款新品",
        "docid": "7368472887822418447",
        "url": ""
    },
    {
        "title": "「花生」小米12S炒冷饭：昙花一现真小屏，错过就不再",
        "docid": "7361713510797017600",
        "url": ""
    },
    {
        "title": "一口气看完跑分200万分以上手机排名，第一名将性能发挥到极致",
        "docid": "7355323153582817811",
        "url": ""
    },
    {
        "title": "大型纪录片《8849》 #高科技 #手机 #内容过于真实 #黑科技",
        "docid": "7340486630404424219",
        "url": ""
    },
    {
        "title": "显示面板行业专题报告：AMOLED需求提振，产业链国产化是趋势",
        "docid": "7367547946906567187",
        "url": ""
    },
    {
        "title": "诺基亚手机发展史，那个年代的手机真的有在认真做创新",
        "docid": "7340536075191861797",
        "url": ""
    }
]