[
    {
        "title": "300元买了个电竞游戏手机，没想到竟是骁龙888处理器还是16+512的",
        "docid": "7331590641291854363",
        "url": "https://www.ixigua.com/7331590641291854363"
    },
    {
        "title": "nova12性能测试，麒麟8000性能如何",
        "docid": "7321612893525869075",
        "url": "https://www.ixigua.com/7321612893525869075"
    },
    {
        "title": "折叠屏还是不要轻易尝试吧，防尘条卡住铰链，内屏直接废掉了…",
        "docid": "7303529261623837196",
        "url": "https://www.ixigua.com/7303529261623837196"
    },
    {
        "title": "沦为笑柄的手机！曾经返祖设计的高端产品",
        "docid": "7330915156405191177",
        "url": "https://www.ixigua.com/7330915156405191177"
    },
    {
        "title": "左手拿荣耀Magic6，右手拿荣耀Magic6Pro，简直太舒服了！",
        "docid": "7320914213440848447",
        "url": "https://www.ixigua.com/7320914213440848447"
    },
    {
        "title": "华为手机隐藏的抠图功能，一键给照片视频更换背景，非常实用",
        "docid": "7302790252686082586",
        "url": "https://www.ixigua.com/7302790252686082586"
    },
    {
        "title": "最终的总结也是谢谢你们的50位粉丝",
        "docid": "7334332341324382760",
        "url": "https://www.ixigua.com/7334332341324382760"
    },
    {
        "title": "俺露原声了 声音很难听，所以不许保存，不许转发不许@",
        "docid": "7334344004991255055",
        "url": "https://www.ixigua.com/7334344004991255055"
    },
    {
        "title": "死人机又来狗叫了",
        "docid": "7334343058756108809",
        "url": "https://www.ixigua.com/7334343058756108809"
    },
    {
        "title": "锁机病毒",
        "docid": "7334339128815223346",
        "url": "https://www.ixigua.com/7334339128815223346"
    },
    {
        "title": "荣耀手机别乱买！强烈推荐这四款，口碑好，性价比高！",
        "docid": "7312846281959965223",
        "url": "https://www.ixigua.com/7312846281959965223"
    },
    {
        "title": "手机相机中3个主要镜头一定要会用 不然你就落后了",
        "docid": "7306399104056328740",
        "url": "https://www.ixigua.com/7306399104056328740"
    },
    {
        "title": "iPhone 13 Pro换15 Pro，升级感知大吗？",
        "docid": "7310469877255537203",
        "url": "https://www.ixigua.com/7310469877255537203"
    },
    {
        "title": "三星A288，国内首款双屏翻盖手机。 2000年上市……",
        "docid": "7302336497053598220",
        "url": "https://www.ixigua.com/7302336497053598220"
    },
    {
        "title": "才知道，原来手机充电器还有这个功能，卖手机的永远不会给你说！",
        "docid": "7323188818876727847",
        "url": "https://www.ixigua.com/7323188818876727847"
    },
    {
        "title": "今年收的一箱报废手机 听听二十年前手机开机音乐！",
        "docid": "7308176523117199883",
        "url": "https://www.ixigua.com/7308176523117199883"
    },
    {
        "title": "龙年快乐",
        "docid": "7334366362053280282",
        "url": "https://www.ixigua.com/7334366362053280282"
    },
    {
        "title": "才知道，快充和慢充区别原来这么大，不管多贵的手机，千万别混用",
        "docid": "7306884036080140851",
        "url": "https://www.ixigua.com/7306884036080140851"
    },
    {
        "title": "日本小米13广告,鬼畜的广告词令人不禁上头!",
        "docid": "7329792405509997097",
        "url": "https://www.ixigua.com/7329792405509997097"
    },
    {
        "title": "花1000元买的手机盲盒，真的太离谱了…",
        "docid": "7324654472997798452",
        "url": "https://www.ixigua.com/7324654472997798452"
    },
    {
        "title": "怪不得华为mate60这么难买，原来是这样#mate60pro",
        "docid": "7301303243077616178",
        "url": "https://www.ixigua.com/7301303243077616178"
    },
    {
        "title": "华为Mate60Pro+能用五年吗？ 看完视频你会发现你完全多虑了",
        "docid": "7317113258748412453",
        "url": "https://www.ixigua.com/7317113258748412453"
    },
    {
        "title": "诺基亚8210，发布后迅速风靡大街小巷……  现如今20多年过去了",
        "docid": "7304565887456313866",
        "url": "https://www.ixigua.com/7304565887456313866"
    },
    {
        "title": "各平台",
        "docid": "7334212990964597263",
        "url": "https://www.ixigua.com/7334212990964597263"
    },
    {
        "title": "求大佬帮我看一下",
        "docid": "7334357056034865664",
        "url": "https://www.ixigua.com/7334357056034865664"
    },
    {
        "title": "很好",
        "docid": "7334346653656482356",
        "url": "https://www.ixigua.com/7334346653656482356"
    },
    {
        "title": "如何把三部曲弄成中文",
        "docid": "7334353020907913767",
        "url": "https://www.ixigua.com/7334353020907913767"
    },
    {
        "title": "新春购机攻略 | 全价位段手机选购指南，每个价位精选一款“神机”",
        "docid": "7332472115309904419",
        "url": ""
    },
    {
        "title": "华为手机又添新功能，小艺输入法大升级，真的太智能了",
        "docid": "7333936491494408743",
        "url": "https://www.ixigua.com/7333936491494408743"
    },
    {
        "title": "央视新闻APP官宣将正式适配华为纯血鸿蒙",
        "docid": "7333466613344207369",
        "url": "https://www.ixigua.com/7333466613344207369"
    },
    {
        "title": "华为官方建议不贴膜",
        "docid": "7305983134708072996",
        "url": "https://www.ixigua.com/7305983134708072996"
    },
    {
        "title": "华为星耀E1手机来袭，华为麒麟7000+鸿蒙4.0，1799元起售！",
        "docid": "7334320769834582547",
        "url": "https://www.ixigua.com/7334320769834582547"
    },
    {
        "title": "我会出第二期的",
        "docid": "7334337844527235610",
        "url": "https://www.ixigua.com/7334337844527235610"
    },
    {
        "title": "G",
        "docid": "7334182241855242762",
        "url": "https://www.ixigua.com/7334182241855242762"
    },
    {
        "title": "男儿国 视频带货课程 剪辑",
        "docid": "7334335686067913216",
        "url": "https://www.ixigua.com/7334335686067913216"
    },
    {
        "title": "微软、谷歌安卓都惊呆了！华为鸿蒙系统宣布所有用户永久免费，外",
        "docid": "7333795391366038026",
        "url": "https://www.ixigua.com/7333795391366038026"
    },
    {
        "title": "波导手机手机中的战斗机，当年很火的波导卖的z1pro手机，好用吗",
        "docid": "7321953755203633683",
        "url": "https://www.ixigua.com/7321953755203633683"
    },
    {
        "title": "#荣耀Magic6 居然是直屏！荣耀开窍了？",
        "docid": "7320590720967017000",
        "url": "https://www.ixigua.com/7320590720967017000"
    },
    {
        "title": "外表普通的薄卡片居然有定位功能，嘿嘿……",
        "docid": "7318514396886467087",
        "url": "https://www.ixigua.com/7318514396886467087"
    },
    {
        "title": "「阿岳」2023年最惊喜满意失望的手机！",
        "docid": "7317653988403479103",
        "url": "https://www.ixigua.com/7317653988403479103"
    },
    {
        "title": "希望可以同意",
        "docid": "7334328281732383284",
        "url": "https://www.ixigua.com/7334328281732383284"
    },
    {
        "title": "…",
        "docid": "7334371845136876042",
        "url": "https://www.ixigua.com/7334371845136876042"
    },
    {
        "title": "气死了",
        "docid": "7334225531397177919",
        "url": "https://www.ixigua.com/7334225531397177919"
    },
    {
        "title": "教你一招辨别你买到的手机是否是全新机#手机技巧 #知识分享",
        "docid": "7316369557315289609",
        "url": "https://www.ixigua.com/7316369557315289609"
    },
    {
        "title": "2024，华为崛起，花600块钱体验正宗的华为鸿蒙。",
        "docid": "7333634830652932634",
        "url": "https://www.ixigua.com/7333634830652932634"
    },
    {
        "title": "明明支持5G却只有4G信号，如何打开华为的5G功能模块？",
        "docid": "7306153521362469414",
        "url": "https://www.ixigua.com/7306153521362469414"
    },
    {
        "title": "258块整的vivo Y30，史上第二卡的手机？！ #开箱 #手机",
        "docid": "7302733502268015114",
        "url": "https://www.ixigua.com/7302733502268015114"
    },
    {
        "title": "双屏苹果！",
        "docid": "7305699515401503283",
        "url": "https://www.ixigua.com/7305699515401503283"
    },
    {
        "title": "我的抖音",
        "docid": "7334382915804987904",
        "url": "https://www.ixigua.com/7334382915804987904"
    },
    {
        "title": "图个乐",
        "docid": "7334194516724974121",
        "url": "https://www.ixigua.com/7334194516724974121"
    },
    {
        "title": "强烈推荐！",
        "docid": "7334278267144405556",
        "url": "https://www.ixigua.com/7334278267144405556"
    },
    {
        "title": "iPhone 15 Pro 系列操作按钮一键支付 手把手教程",
        "docid": "7312840167625228812",
        "url": "https://www.ixigua.com/7312840167625228812"
    },
    {
        "title": "华为手机，小艺智慧助手，隐藏口令汇总，网友：好多没用过！",
        "docid": "7327098485935702554",
        "url": "https://www.ixigua.com/7327098485935702554"
    },
    {
        "title": "华为广告关闭全教程！一分钟搞定不学就亏了。亲测有效",
        "docid": "7306429503642075685",
        "url": "https://www.ixigua.com/7306429503642075685"
    },
    {
        "title": "2024华为起飞",
        "docid": "7332132265851519529",
        "url": "https://www.ixigua.com/7332132265851519529"
    },
    {
        "title": "美爆你的朋友圈，教你制作文字拉幕效果",
        "docid": "7308381823405392434",
        "url": "https://www.ixigua.com/7308381823405392434"
    },
    {
        "title": "这条华为专属铃声一出，华为粉和周杰伦粉都沸腾了！",
        "docid": "7315430359053632039",
        "url": "https://www.ixigua.com/7315430359053632039"
    },
    {
        "title": "6",
        "docid": "7334272222464639528",
        "url": "https://www.ixigua.com/7334272222464639528"
    },
    {
        "title": "推荐一款软件",
        "docid": "7334184442585416242",
        "url": "https://www.ixigua.com/7334184442585416242"
    },
    {
        "title": "一部手机的全球惊艳",
        "docid": "7305404926979637801",
        "url": "https://www.ixigua.com/7305404926979637801"
    },
    {
        "title": "华为和苹果的终极「暗战」！自研CMOS将如何改写行业格局？",
        "docid": "7311387752052982307",
        "url": "https://www.ixigua.com/7311387752052982307"
    },
    {
        "title": "新年用#荣耀Magic6 系列 绿洲护眼屏打开新视界 #数码科技",
        "docid": "7333497694163304970",
        "url": "https://www.ixigua.com/7333497694163304970"
    },
    {
        "title": "花2450元淘了两台手机，看看这次淘的值不值？",
        "docid": "7309122086474580495",
        "url": "https://www.ixigua.com/7309122086474580495"
    },
    {
        "title": "手机摄像头的工作原理，它是如何拍摄照片的",
        "docid": "7303116626596102695",
        "url": "https://www.ixigua.com/7303116626596102695"
    },
    {
        "title": "国产最好的手机排名",
        "docid": "7301520960820085285",
        "url": "https://www.ixigua.com/7301520960820085285"
    },
    {
        "title": "@可爱的小豆头像专家",
        "docid": "7334314634251338290",
        "url": "https://www.ixigua.com/7334314634251338290"
    },
    {
        "title": "j",
        "docid": "7334225029024088613",
        "url": "https://www.ixigua.com/7334225029024088613"
    },
    {
        "title": "小米14，我差点没用下去...",
        "docid": "7304276028393062912",
        "url": "https://www.ixigua.com/7304276028393062912"
    },
    {
        "title": "翻译翻译，什么叫国产「自研」OS",
        "docid": "7301584077441663503",
        "url": "https://www.ixigua.com/7301584077441663503"
    },
    {
        "title": "iPhone 16 系列电池变大了？",
        "docid": "7333755783307330099",
        "url": "https://www.ixigua.com/7333755783307330099"
    },
    {
        "title": "华为最好三款手机评比",
        "docid": "7304830193275765286",
        "url": "https://www.ixigua.com/7304830193275765286"
    },
    {
        "title": "春晚华为手机这么火，你觉得华为会公开Mate60系手机SOC芯片吗？",
        "docid": "7334166086579192361",
        "url": "https://www.ixigua.com/7334166086579192361"
    },
    {
        "title": "华为手机扫码超能力，也就这一个功能行了，一次意料之外的体验",
        "docid": "7333768584168276531",
        "url": "https://www.ixigua.com/7333768584168276531"
    },
    {
        "title": "新手机",
        "docid": "7334241168756048393",
        "url": "https://www.ixigua.com/7334241168756048393"
    },
    {
        "title": "保驾护航这里➕！",
        "docid": "7334343707460567604",
        "url": "https://www.ixigua.com/7334343707460567604"
    },
    {
        "title": "接听重要电话时，只需按1个键就可以立刻进行录音，很多人还不知",
        "docid": "7323735409983390208",
        "url": "https://www.ixigua.com/7323735409983390208"
    },
    {
        "title": "盗版华为Mate60全国卖疯！任正非电话猛批余承东，“立马去人事部",
        "docid": "7333820874811933194",
        "url": "https://www.ixigua.com/7333820874811933194"
    },
    {
        "title": "华为全新子品牌浮出水面，新机型定位中高端市场？",
        "docid": "7333576103342113343",
        "url": "https://www.ixigua.com/7333576103342113343"
    },
    {
        "title": "来看看不同手机的红包表情是什么样的？ #玩转数码 #红包 #冷知识",
        "docid": "7333402351916712475",
        "url": "https://www.ixigua.com/7333402351916712475"
    },
    {
        "title": "299就能买到新手机靠谱吗？百事乐L23上手体验#百事乐L23 #源机购",
        "docid": "7333532407825760805",
        "url": "https://www.ixigua.com/7333532407825760805"
    },
    {
        "title": "OPPO Reno11系列AI功能上新，越用越好用#OPPOAI手机 #OPPOReno11",
        "docid": "7333572927843435042",
        "url": "https://www.ixigua.com/7333572927843435042"
    },
    {
        "title": "《1岁的男主》",
        "docid": "7334227638136865306",
        "url": "https://www.ixigua.com/7334227638136865306"
    },
    {
        "title": "爱玩不玩",
        "docid": "7334350069585904147",
        "url": "https://www.ixigua.com/7334350069585904147"
    },
    {
        "title": "他搭载了全国首款5nm5G SOC #华为",
        "docid": "7333566800200008202",
        "url": "https://www.ixigua.com/7333566800200008202"
    },
    {
        "title": "华为低轨卫星技术测试成功 mate60以后不仅可以使用卫星通话",
        "docid": "7334222789886673408",
        "url": "https://www.ixigua.com/7334222789886673408"
    },
    {
        "title": "苹果手机是最适合老年人使用的智能手机，没有之一",
        "docid": "7325646531279880756",
        "url": "https://www.ixigua.com/7325646531279880756"
    },
    {
        "title": "手机选购攻略，荣耀magic6pro影像功能详解 #数码 #选购指南",
        "docid": "7333421119275434522",
        "url": "https://www.ixigua.com/7333421119275434522"
    },
    {
        "title": "苹果大陆狂降2000！华为70搭载4nm出世，Mate60只是烟雾弹！",
        "docid": "7333576980237189668",
        "url": "https://www.ixigua.com/7333576980237189668"
    },
    {
        "title": "除夕入手小13",
        "docid": "7333684610700116515",
        "url": "https://www.ixigua.com/7333684610700116515"
    },
    {
        "title": "5",
        "docid": "7334271906994749962",
        "url": "https://www.ixigua.com/7334271906994749962"
    },
    {
        "title": "想要了解的宝宝可以私信我",
        "docid": "7334420932024664616",
        "url": "https://www.ixigua.com/7334420932024664616"
    },
    {
        "title": "iPhone SE4迎来大概#数码科技 #手机 #iphone",
        "docid": "7333629841469932051",
        "url": "https://www.ixigua.com/7333629841469932051"
    },
    {
        "title": "华为发布了巨幕手机 ？华为智慧屏 V5系列正确打开方式！ ②#华为",
        "docid": "7317162447331787300",
        "url": "https://www.ixigua.com/7317162447331787300"
    },
    {
        "title": "来听听来自20年前，手机的铃声，都是英文……#古董手机",
        "docid": "7307257407758041612",
        "url": "https://www.ixigua.com/7307257407758041612"
    },
    {
        "title": "半夜偷偷给老婆换苹果15，马大哈老婆会发现吗？理工男也有今天",
        "docid": "7331712160235520524",
        "url": "https://www.ixigua.com/7331712160235520524"
    },
    {
        "title": "暴雪天气还在工作，把好手机送给有需要的人！#瞬息新年公益赠机",
        "docid": "7333773480871232036",
        "url": "https://www.ixigua.com/7333773480871232036"
    },
    {
        "title": "解压视频清理手机",
        "docid": "7334020740586406400",
        "url": "https://www.ixigua.com/7334020740586406400"
    },
    {
        "title": "掌声在哪里？",
        "docid": "7334337776944579135",
        "url": "https://www.ixigua.com/7334337776944579135"
    },
    {
        "title": "春节期间苹果手机8折",
        "docid": "7334284082312348199",
        "url": "https://www.ixigua.com/7334284082312348199"
    },
    {
        "title": "攒了压岁钱准备换手机的注意别踩了芯片的坑#数码科技 #手机",
        "docid": "7334236019749257768",
        "url": "https://www.ixigua.com/7334236019749257768"
    },
    {
        "title": "iOS 17.3.1电池续航及跑分评测iphone XR 11 se2020 12 13",
        "docid": "7334354857563947559",
        "url": "https://www.ixigua.com/7334354857563947559"
    },
    {
        "title": "春节送什么礼物更让人终身难忘？",
        "docid": "7333473281267368482",
        "url": "https://www.ixigua.com/7333473281267368482"
    },
    {
        "title": "12306抢票软件推荐 计算机同学就该这么抢票！祝大家新年快乐",
        "docid": "7334324575771198003",
        "url": "https://www.ixigua.com/7334324575771198003"
    },
    {
        "title": "Iphone15pro对比华为mate60pro该如何选择？#数码科技 #苹果15pro",
        "docid": "7334279953804231208",
        "url": "https://www.ixigua.com/7334279953804231208"
    },
    {
        "title": "美版air4代流畅度",
        "docid": "7334320253914546697",
        "url": "https://www.ixigua.com/7334320253914546697"
    },
    {
        "title": "桌面壁纸",
        "docid": "7334263017913680393",
        "url": "https://www.ixigua.com/7334263017913680393"
    },
    {
        "title": "这个音乐好炸，我好喜欢，水视频",
        "docid": "7334158429314875945",
        "url": "https://www.ixigua.com/7334158429314875945"
    },
    {
        "title": "手感很好的法兰绒手机壳#华为手机壳 #mate60pro #华为",
        "docid": "7334214817974223372",
        "url": "https://www.ixigua.com/7334214817974223372"
    },
    {
        "title": "草 我这还没稀罕两天嘞就报废了",
        "docid": "7334252880658235942",
        "url": "https://www.ixigua.com/7334252880658235942"
    },
    {
        "title": "MacOS X Yosemite广告",
        "docid": "7334376869212783140",
        "url": "https://www.ixigua.com/7334376869212783140"
    },
    {
        "title": "苹果发布Apple Vision Pro，一台革命性的空间计算设备",
        "docid": "7334254027124933171",
        "url": "https://www.ixigua.com/7334254027124933171"
    },
    {
        "title": "苹果3月硬件新品揭秘",
        "docid": "7334476308162085386",
        "url": "https://www.ixigua.com/7334476308162085386"
    },
    {
        "title": "🍀🍀新年快乐呀！有人惦记是件很幸福的事😘",
        "docid": "7334196309987230249",
        "url": "https://www.ixigua.com/7334196309987230249"
    },
    {
        "title": "加好友单挑",
        "docid": "7334353666339668518",
        "url": "https://www.ixigua.com/7334353666339668518"
    },
    {
        "title": "imei码怎么查看呢",
        "docid": "7331842683826078249",
        "url": "https://www.ixigua.com/7331842683826078249"
    },
    {
        "title": "24小时不间断直播？阿卡西斯采集卡详细评测！",
        "docid": "7334285031273300532",
        "url": "https://www.ixigua.com/7334285031273300532"
    },
    {
        "title": "又再次给大家介绍这款赚钱软件学生党末成年都可以做内容绝对真实",
        "docid": "7334349801045099034",
        "url": "https://www.ixigua.com/7334349801045099034"
    },
    {
        "title": "华为P8 麒麟935原神渲染BUG演示.mp4",
        "docid": "7334378098038669839",
        "url": "https://www.ixigua.com/7334378098038669839"
    },
    {
        "title": "短视频标签打印机",
        "docid": "7334205837764166181",
        "url": "https://www.ixigua.com/7334205837764166181"
    },
    {
        "title": "2024年最值得入手的3款手机，配置几乎“无短板”，有超强体验感",
        "docid": "7329691661607813686",
        "url": ""
    },
    {
        "title": "iPhone 开放NFC：门禁卡、电子车钥匙等功能终于能用了？",
        "docid": "7332015941892997669",
        "url": ""
    },
    {
        "title": "iPhone NFC身份证解锁：开启新世界！",
        "docid": "7333542802888426018",
        "url": ""
    },
    {
        "title": "OPPO再好也别乱买！这10款最成功与最失败，看看你踩坑了吗",
        "docid": "7329409008669229602",
        "url": ""
    },
    {
        "title": "价值60万！00后老师获京东“华为全家桶”：喜提华为Mate60 RS非凡大师、问界M9",
        "docid": "7333897942853861942",
        "url": ""
    },
    {
        "title": "这款 23800mAh 电池的 8849 手机，又给大厂们上了一课",
        "docid": "7332393739421483546",
        "url": ""
    },
    {
        "title": "男女生看待不同手机品牌的差异",
        "docid": "7326814768990519848",
        "url": ""
    },
    {
        "title": "温馨提醒！有微信的自查一下！多人已中招",
        "docid": "7326673688017879562",
        "url": ""
    },
    {
        "title": "高速堵不堵？手机直接看监控！实测能用，两步搞定",
        "docid": "7331263519087968807",
        "url": ""
    },
    {
        "title": "苹果官方换新计划：优雅告别旧iPhone",
        "docid": "7334271217354441251",
        "url": ""
    },
    {
        "title": "春晚上的数码产品，比春晚节目都“出戏”",
        "docid": "7333896644263723558",
        "url": ""
    },
    {
        "title": "华为打通12306遥遥领先！华为手机负一屏支持自动同步火车行程",
        "docid": "7331539097040847400",
        "url": ""
    },
    {
        "title": "2024年一千元左右最好的手机",
        "docid": "7333530044662350371",
        "url": ""
    },
    {
        "title": "等了个寂寞！LCD性能机基本没戏了，网友：LCD党可以消停了",
        "docid": "7332481117804937764",
        "url": ""
    },
    {
        "title": "这根数据线彻底把我的智商暴露无遗，一刀下去垃圾桶见",
        "docid": "7329406607580824101",
        "url": ""
    },
    {
        "title": "一天摸完所有国产主流手机，谈谈感受",
        "docid": "7330474166279651849",
        "url": ""
    },
    {
        "title": "微信如何找到附近的人并打招呼",
        "docid": "7305367985605427753",
        "url": ""
    },
    {
        "title": "别嫌手机屏幕大了，真小屏手机来了我怕你把持不住",
        "docid": "7331954199732945442",
        "url": ""
    },
    {
        "title": "iPhone原相机拍除夕夜烟花，秒出片",
        "docid": "7333228727759077888",
        "url": ""
    },
    {
        "title": "7000mAh+216g，这绝对是华为续航最强中最轻的手机！",
        "docid": "7328815446587834916",
        "url": ""
    },
    {
        "title": "怪不得手机坏得快！充电先插哪个？充完又先拔哪个？全做错了……",
        "docid": "7330881116909978123",
        "url": ""
    },
    {
        "title": "性能最好的5g手机前十位",
        "docid": "7311681025468334630",
        "url": ""
    },
    {
        "title": "不管手机贵不贵，手机里至少下载这5个app，关键时能用上",
        "docid": "7331554671523283467",
        "url": ""
    },
    {
        "title": "盘点被淘汰的8个手机设计，你觉得哪个最可惜？",
        "docid": "7332045434283688448",
        "url": ""
    },
    {
        "title": "我们的手机都有“收音机”，可为何再也找不回从前的味道？",
        "docid": "7325332803837624884",
        "url": ""
    },
    {
        "title": "护眼浅绿色小清新喇叭花壁纸",
        "docid": "7321554935932486171",
        "url": ""
    },
    {
        "title": "为什么Type-C接口充电更快？",
        "docid": "7329459827682345472",
        "url": ""
    },
    {
        "title": "微信视频通话怎么开美颜？打开这个开关，就能轻松实现",
        "docid": "7332836041869476392",
        "url": ""
    },
    {
        "title": "苹果手机，如何开启美颜功能！",
        "docid": "7329531160458117651",
        "url": ""
    },
    {
        "title": "原来微信里隐藏了一个表情库，按下这个按钮要啥有啥，学会真方便",
        "docid": "7331727797452915215",
        "url": ""
    },
    {
        "title": "红米K80太拼了！120瓦快充+卫星通信，性价比依旧爆表",
        "docid": "7332348202614620724",
        "url": "https://www.ixigua.com/7332348202614620724"
    },
    {
        "title": "女子发现姥姥的手机界面，大呼神奇，网友：我给我妈整一个",
        "docid": "7323057703340179983",
        "url": "https://www.ixigua.com/7323057703340179983"
    },
    {
        "title": "2500元档，一加ace3和红米K70谁的表现更好？全面深度对比",
        "docid": "7330142147582902821",
        "url": ""
    },
    {
        "title": "魅族21对比华为Mate60Pro系统流畅度测试，魅族和华为差距有多大",
        "docid": "7310581776979034687",
        "url": "https://www.ixigua.com/7310581776979034687"
    },
    {
        "title": "网购买个气囊手机壳，手机落地一瞬间气囊就会弹出来？太牛了吧",
        "docid": "7330594163341460007",
        "url": "https://www.ixigua.com/7330594163341460007"
    },
    {
        "title": "主流的手机，谁在用心保护我们的眼睛 #小米14 #苹果15promax",
        "docid": "7317456204337578531",
        "url": "https://www.ixigua.com/7317456204337578531"
    },
    {
        "title": "经典手机回顾：18年前“周董”代言过的MOTO ROKR E2，你还记得吗？",
        "docid": "7328753896455717428",
        "url": ""
    },
    {
        "title": "微信金色昵称设置教程",
        "docid": "7334391446650749475",
        "url": ""
    },
    {
        "title": "不用的手机卡一定要注销！但别去营业厅注销",
        "docid": "7333472325352423999",
        "url": ""
    },
    {
        "title": "5年前炒到一万的iPhoneX如今“尚能饭否”?看完哭笑不得",
        "docid": "7329385735441154610",
        "url": ""
    },
    {
        "title": "华为烟花模式，快学起来过年拍大片啦",
        "docid": "7332809524962722339",
        "url": ""
    },
    {
        "title": "一图看懂iQOO手机各系列的发展史，不愧是vivo的好大儿！",
        "docid": "7332026062937211444",
        "url": ""
    },
    {
        "title": "银行卡别再开通短信通知了，微信就可以设置免费通知，比短信还实用",
        "docid": "7328208459361452578",
        "url": ""
    },
    {
        "title": "预算3K新年换机，这三款512GB机型性价比最高，稳用三年不卡顿",
        "docid": "7332786034994397746",
        "url": ""
    },
    {
        "title": "手把手教你在手机上登录今日头条电脑版，希望对你有益",
        "docid": "7313470301956768319",
        "url": ""
    },
    {
        "title": "W5：vivo逆袭夺冠，国产围剿苹果",
        "docid": "7333781146427376167",
        "url": ""
    },
    {
        "title": "手机上那些“一直被模仿”，但“从未被超越”的经典设计",
        "docid": "7333597653140652584",
        "url": ""
    },
    {
        "title": "原来手机相册里删除的照片都保存在这里，点一下就能立马恢复",
        "docid": "7319382027873829376",
        "url": ""
    },
    {
        "title": "【手机选购攻略】别再只看价格了！适合自己才是王道",
        "docid": "7328383585625965090",
        "url": ""
    },
    {
        "title": "开年“看见”系列之三｜从手机功能“上新”看中国制造“新精度”",
        "docid": "7333816568562598438",
        "url": ""
    },
    {
        "title": "原来手机就可以修改WiFi密码，进行网络提速，还能防止别人蹭网",
        "docid": "7302317855712756287",
        "url": ""
    },
    {
        "title": "用户吐槽华为mate60pro拍不清楚，像素模糊拍不清人脸，下秒傻眼",
        "docid": "7308274392004297255",
        "url": "https://www.ixigua.com/7308274392004297255"
    },
    {
        "title": "苹果对比华为高铁信号网速测试，华为表现一般，苹果网速亮眼",
        "docid": "7320859806389305868",
        "url": "https://www.ixigua.com/7320859806389305868"
    },
    {
        "title": "一个人过年也精彩，三款手机陪你过大年",
        "docid": "7333132209429561890",
        "url": ""
    },
    {
        "title": "【手机真相揭秘】同质化背后的雷同现实，如何影响你的兴趣？",
        "docid": "7328759600424256039",
        "url": ""
    },
    {
        "title": "微信长按2秒钟，原来隐藏12个功能，不会用就可惜了",
        "docid": "7321338969038930442",
        "url": ""
    },
    {
        "title": "数据揭秘除夕夜红包大战：你的抢红包经历如何？",
        "docid": "7334534392930484777",
        "url": ""
    },
    {
        "title": "罗永浩演示锤子手机锁屏：我玩了一千多次。#罗永浩 #科技 #手机",
        "docid": "7323852896247349760",
        "url": "https://www.ixigua.com/7323852896247349760"
    },
    {
        "title": "为什么手机CPU都进入3纳米时代，电脑却还停留在14纳米呢？",
        "docid": "7333796654598128169",
        "url": "https://www.ixigua.com/7333796654598128169"
    },
    {
        "title": "极限流畅度：两大骁龙8Gen3旗舰？围攻麒麟9000S？结果太尴尬了",
        "docid": "7312051645037642279",
        "url": "https://www.ixigua.com/7312051645037642279"
    },
    {
        "title": "小米SU7抢先开箱：别猜了，便宜不了",
        "docid": "7317615602640781836",
        "url": "https://www.ixigua.com/7317615602640781836"
    },
    {
        "title": "@暴走七九 @在下黄虎 @乌丸动画 @张三没开挂 @华七动画 @许平安",
        "docid": "7333980543786648102",
        "url": "https://www.ixigua.com/7333980543786648102"
    },
    {
        "title": "极限流畅度测试：麒麟9000s大战天玑9300？差距让人难以置信",
        "docid": "7304639400481292854",
        "url": "https://www.ixigua.com/7304639400481292854"
    },
    {
        "title": "万万没想到，苹果性价比最高的产品竟然是个小黑盒子 #appletv",
        "docid": "7315233553112007178",
        "url": "https://www.ixigua.com/7315233553112007178"
    },
    {
        "title": "这个中国APP全法排名第一! 不是TikTok, 而是...",
        "docid": "7327605006676361754",
        "url": "https://www.ixigua.com/7327605006676361754"
    },
    {
        "title": "挑战368块组装一台iPhoneXR，性能到底有多炸裂？！ #数码产品",
        "docid": "7332434897996841523",
        "url": "https://www.ixigua.com/7332434897996841523"
    },
    {
        "title": "一机多卡之小米手机一拖48卡实测#科技改变生活 #科技创新 #店群",
        "docid": "7313110466769879606",
        "url": "https://www.ixigua.com/7313110466769879606"
    },
    {
        "title": "差点上当！华为nova12 Pro全面对比Ultra 差价300体验截然不同！",
        "docid": "7316875921230266932",
        "url": "https://www.ixigua.com/7316875921230266932"
    },
    {
        "title": "摸着良心问大家，华为Mate60 Pro到底领先在哪儿？",
        "docid": "7313799531508793893",
        "url": "https://www.ixigua.com/7313799531508793893"
    },
    {
        "title": "竭",
        "docid": "7334531072883065382",
        "url": "https://www.ixigua.com/7334531072883065382"
    },
    {
        "title": "女生自拍时手机不慎掉落，无意拍出“创意转场”：美女秒变大胡子",
        "docid": "7317465706184835620",
        "url": "https://www.ixigua.com/7317465706184835620"
    },
    {
        "title": "499元Mate30Pro对比华为Nova12Pro，麒麟990和麒麟8000差距多大？",
        "docid": "7322303279306965538",
        "url": "https://www.ixigua.com/7322303279306965538"
    },
    {
        "title": "哪怕得罪vivo这个品牌，我也得吐槽一下，真后悔买这牌子手机",
        "docid": "7332267444704281128",
        "url": "https://www.ixigua.com/7332267444704281128"
    },
    {
        "title": "国产屏幕 ！真的很差吗 ？细节见真章",
        "docid": "7304923878361399823",
        "url": "https://www.ixigua.com/7304923878361399823"
    },
    {
        "title": "暴力测试：仅售9999元的折叠屏oppo find n3？能不能徒手掰断？",
        "docid": "7307932044263326244",
        "url": "https://www.ixigua.com/7307932044263326244"
    },
    {
        "title": "手机内存不够了，大家帮我看看删哪个好",
        "docid": "7334536936851243554",
        "url": "https://www.ixigua.com/7334536936851243554"
    },
    {
        "title": "想制裁我，做梦去吧 @丰富比尔2W3m",
        "docid": "7334530862408860179",
        "url": "https://www.ixigua.com/7334530862408860179"
    },
    {
        "title": "@鸡慢",
        "docid": "7334535453061841423",
        "url": "https://www.ixigua.com/7334535453061841423"
    },
    {
        "title": "鸿蒙系统为什么送人都没人要，听听罗永浩讲的你或许就明白了！",
        "docid": "7305320462425752115",
        "url": "https://www.ixigua.com/7305320462425752115"
    },
    {
        "title": "一个app可以让操作系统凉了？ 我很佩服这些人的思路",
        "docid": "7326875575056859699",
        "url": "https://www.ixigua.com/7326875575056859699"
    },
    {
        "title": "x50最严重缺点",
        "docid": "7302006924852888098",
        "url": "https://www.ixigua.com/7302006924852888098"
    },
    {
        "title": "华为问界M9同款抬显，下雨天晚上看电影实拍，全息成像，遥遥领先",
        "docid": "7313940709797855807",
        "url": "https://www.ixigua.com/7313940709797855807"
    },
    {
        "title": "小米澎湃OS关闭广告教程 小米澎湃OS到手后，必设置的21个设置",
        "docid": "7310813707049632275",
        "url": "https://www.ixigua.com/7310813707049632275"
    },
    {
        "title": "280元华为Mate20Pro对战K70Pro，麒麟980和骁龙8Gen3差距多大？",
        "docid": "7308648833008566824",
        "url": "https://www.ixigua.com/7308648833008566824"
    },
    {
        "title": "实用软件分享",
        "docid": "7333862461185917480",
        "url": "https://www.ixigua.com/7333862461185917480"
    },
    {
        "title": "你牛逼，你清高",
        "docid": "7334008396087034403",
        "url": "https://www.ixigua.com/7334008396087034403"
    },
    {
        "title": "史上最短发布会！OPPO手机进入AI时代，相当科幻",
        "docid": "7333585551750398464",
        "url": "https://www.ixigua.com/7333585551750398464"
    },
    {
        "title": "自称实力越级，那就试试。vivo X100 Pro对比华为Mate 60 Pro+",
        "docid": "7309925304196301347",
        "url": "https://www.ixigua.com/7309925304196301347"
    },
    {
        "title": "同事的努比亚Z60Ultra刚到，我去看了一眼，结果......！",
        "docid": "7315595646952538659",
        "url": "https://www.ixigua.com/7315595646952538659"
    },
    {
        "title": "小米14对比vivo X100，先跑分再跑压力测试，谁能抗到最后？",
        "docid": "7301250493555311154",
        "url": "https://www.ixigua.com/7301250493555311154"
    },
    {
        "title": "299买的折叠屏iPhone，真的离谱到家了！",
        "docid": "7305276780078694923",
        "url": "https://www.ixigua.com/7305276780078694923"
    },
    {
        "title": "荣耀100标准版和pro版本 四大区别 pro更值！",
        "docid": "7305774170783580712",
        "url": "https://www.ixigua.com/7305774170783580712"
    },
    {
        "title": "有提升",
        "docid": "7334560650746102308",
        "url": "https://www.ixigua.com/7334560650746102308"
    },
    {
        "title": "呵呵哒，活该。",
        "docid": "7334562126054621734",
        "url": "https://www.ixigua.com/7334562126054621734"
    },
    {
        "title": "帮一下我吧😭😭😭",
        "docid": "7334569552564945434",
        "url": "https://www.ixigua.com/7334569552564945434"
    },
    {
        "title": "家人们快看啊",
        "docid": "7334550252491375113",
        "url": "https://www.ixigua.com/7334550252491375113"
    },
    {
        "title": "摩托罗拉机皇气质拉满，7.09大屏+24GB+5800mAH，骁龙8Gen3坐镇",
        "docid": "7301999839875858983",
        "url": "https://www.ixigua.com/7301999839875858983"
    },
    {
        "title": "香港人现在都是过深圳消费了，一堆香港人围着华为问界9又摸又看",
        "docid": "7324899745288323595",
        "url": "https://www.ixigua.com/7324899745288323595"
    },
    {
        "title": "京瓷ky01l墨水屏手机 水墨屏手机 看书小神器 阅读器 迷你 ky01L",
        "docid": "7315960623223800330",
        "url": "https://www.ixigua.com/7315960623223800330"
    },
    {
        "title": "OPPO Find X7详细体验 | 比肩Pro版 新一代哈苏影像 多项AIGC功能",
        "docid": "7321635187270517286",
        "url": "https://www.ixigua.com/7321635187270517286"
    },
    {
        "title": "华为nova12 Ultra对比华为Mate60 同为华为旗舰手机区别在哪里",
        "docid": "7316851560775385641",
        "url": "https://www.ixigua.com/7316851560775385641"
    },
    {
        "title": "与时俱",
        "docid": "7334568506593116681",
        "url": "https://www.ixigua.com/7334568506593116681"
    },
    {
        "title": "哈哈哈",
        "docid": "7334534911460246054",
        "url": "https://www.ixigua.com/7334534911460246054"
    },
    {
        "title": "姐姐呜呜呜呜",
        "docid": "7334539619888792115",
        "url": "https://www.ixigua.com/7334539619888792115"
    },
    {
        "title": "雷军：现在的手机为什么都开始没有耳机插口了",
        "docid": "7322616829480796699",
        "url": "https://www.ixigua.com/7322616829480796699"
    },
    {
        "title": "这差距我不敢相信！vivo X100Pro对比华为Mate60 Pro选谁一目了然",
        "docid": "7301269124150362633",
        "url": "https://www.ixigua.com/7301269124150362633"
    },
    {
        "title": "#荣耀Magic6 微曲屏，跟直屏无异，但是屏幕，亮度，护眼，续航",
        "docid": "7323097469233922587",
        "url": "https://www.ixigua.com/7323097469233922587"
    },
    {
        "title": "不方便录音取证？30秒学会熄屏录音 微信悄悄录音还不会被发现",
        "docid": "7334205562839958035",
        "url": "https://www.ixigua.com/7334205562839958035"
    },
    {
        "title": "华为手机也可以使用灵动岛了，比苹果还强大，1分钟教会你！",
        "docid": "7332690429659972134",
        "url": "https://www.ixigua.com/7332690429659972134"
    },
    {
        "title": "这才叫神仙旗舰？23800毫安电池+120W快充+32GB运行内存",
        "docid": "7308255781969723931",
        "url": "https://www.ixigua.com/7308255781969723931"
    },
    {
        "title": "匕",
        "docid": "7334547922472763904",
        "url": "https://www.ixigua.com/7334547922472763904"
    },
    {
        "title": "如果你发菜就多练他说玩这个烂梗的乐子你就继续发或发我这两张图",
        "docid": "7333846880570802699",
        "url": "https://www.ixigua.com/7333846880570802699"
    },
    {
        "title": "今天，荆门人请关闭手机1小时！",
        "docid": "7334585841458856487",
        "url": ""
    },
    {
        "title": "买手机前，一定要知道看这些参数，真的很重要↓",
        "docid": "7330135851160093210",
        "url": ""
    },
    {
        "title": "当我从三星S23换到小米14之后......",
        "docid": "7305205913412076043",
        "url": "https://www.ixigua.com/7305205913412076043"
    },
    {
        "title": "华为导航地图遥遥领先，上线3天安装14亿次，新功能很多",
        "docid": "7332581650200527372",
        "url": "https://www.ixigua.com/7332581650200527372"
    },
    {
        "title": "第一个拿到Samsung S24、S24+、S24 Ultra三机：AI太强了、直屏了",
        "docid": "7325131668543504930",
        "url": "https://www.ixigua.com/7325131668543504930"
    },
    {
        "title": "用了一个多月三星S23Ultra，因为这几个原因不打算继续用了",
        "docid": "7310900811754635816",
        "url": "https://www.ixigua.com/7310900811754635816"
    },
    {
        "title": "打假",
        "docid": "7334593810548458022",
        "url": "https://www.ixigua.com/7334593810548458022"
    },
    {
        "title": "移动免费领流量2024，免费流量领取2024，免费领取全国流量",
        "docid": "7334589229093093942",
        "url": "https://www.ixigua.com/7334589229093093942"
    },
    {
        "title": "小程序自动挂机收益",
        "docid": "7334580120780440116",
        "url": "https://www.ixigua.com/7334580120780440116"
    },
    {
        "title": "把手机扔下90米螺旋楼梯，打开录像功能，拍摄的画面太壮观！",
        "docid": "7334236737142686219",
        "url": "https://www.ixigua.com/7334236737142686219"
    },
    {
        "title": "巨犀VS龙晶VS超瓷晶 小米荣耀苹果哪家手机更耐摔？【新评科技】",
        "docid": "7326865966451819034",
        "url": "https://www.ixigua.com/7326865966451819034"
    },
    {
        "title": "Apple Vision Pro未来已来#applevisionpro #苹果visionpro",
        "docid": "7332441345174929935",
        "url": "https://www.ixigua.com/7332441345174929935"
    },
    {
        "title": "刚买了Redmi K70 Pro 看到魅族21后 我哭了！颜值和配置太高了！",
        "docid": "7307204874079306252",
        "url": "https://www.ixigua.com/7307204874079306252"
    },
    {
        "title": "【沉浸式开箱】TCL 40NXTPAPER_全球首款类纸屏手机",
        "docid": "7317298789490885120",
        "url": "https://www.ixigua.com/7317298789490885120"
    },
    {
        "title": "开箱花400多买的山寨苹果15手机，这灵动岛也太搞笑了！",
        "docid": "7305243313295720996",
        "url": "https://www.ixigua.com/7305243313295720996"
    },
    {
        "title": "给@阿音丿风隐 的教程视频来了",
        "docid": "7334590518216622631",
        "url": "https://www.ixigua.com/7334590518216622631"
    },
    {
        "title": "一台手机，一种新趋势！AI画画功能引领未来！",
        "docid": "7329153632849363495",
        "url": ""
    },
    {
        "title": "自费，无情怀，大实话~聊一聊我使用了2个月的华为mate60全系列~",
        "docid": "7315826545422303755",
        "url": "https://www.ixigua.com/7315826545422303755"
    },
    {
        "title": "努比亚Z60Ultra终于到手了，这才是真正的全面屏手机！",
        "docid": "7317191417506464267",
        "url": "https://www.ixigua.com/7317191417506464267"
    },
    {
        "title": "开箱：12999元的oppo find n3？打开包装那一刻，我就知道值了！",
        "docid": "7308326227348193832",
        "url": "https://www.ixigua.com/7308326227348193832"
    },
    {
        "title": "iQOO Neo9全面对比红米K70。谁才是2000档性价比之王。 #iQOONeo9",
        "docid": "7317554254963540495",
        "url": "https://www.ixigua.com/7317554254963540495"
    },
    {
        "title": "这该死的少年感，原谅我的语无伦次，红魔9pro+",
        "docid": "7301525265811767818",
        "url": "https://www.ixigua.com/7301525265811767818"
    },
    {
        "title": "?",
        "docid": "7334592586612965888",
        "url": "https://www.ixigua.com/7334592586612965888"
    },
    {
        "title": "你看见了什么",
        "docid": "7334580156830482971",
        "url": "https://www.ixigua.com/7334580156830482971"
    },
    {
        "title": "想买苹果手机，别随便乱选，目前这3款降价最多，值得优先考虑",
        "docid": "7334145018108412454",
        "url": ""
    },
    {
        "title": "红米k70pro根本不香，k70e甚至不如k60！#红米k70pro #红米",
        "docid": "7307040238915093030",
        "url": "https://www.ixigua.com/7307040238915093030"
    },
    {
        "title": "红米k70续航崩了？红米k70重度游戏测试，红米k70续航测试",
        "docid": "7308037477116314147",
        "url": "https://www.ixigua.com/7308037477116314147"
    },
    {
        "title": "难怪华为的鸿蒙系统如此出色",
        "docid": "7332459559065387560",
        "url": "https://www.ixigua.com/7332459559065387560"
    },
    {
        "title": "盘点iPhone上被阉割的先进技术！ #iPhone #苹果 #手机 #callkit",
        "docid": "7329503457881096714",
        "url": "https://www.ixigua.com/7329503457881096714"
    },
    {
        "title": "能刷机的摩托罗拉E2手机听HIFI,刷电影,玩街机——周杰伦代言入坑",
        "docid": "7306848142422049316",
        "url": "https://www.ixigua.com/7306848142422049316"
    },
    {
        "title": "精精品二手手机",
        "docid": "7334577412270883354",
        "url": "https://www.ixigua.com/7334577412270883354"
    },
    {
        "title": "潜执cP",
        "docid": "7334574692542054964",
        "url": "https://www.ixigua.com/7334574692542054964"
    },
    {
        "title": "写真",
        "docid": "7334561278234624564",
        "url": "https://www.ixigua.com/7334561278234624564"
    },
    {
        "title": "如何免费看小说",
        "docid": "7334591059898401320",
        "url": "https://www.ixigua.com/7334591059898401320"
    },
    {
        "title": "用了一个月的mate60pro换成了iPhone15promax：真机使用感受测评",
        "docid": "7300178583576969765",
        "url": "https://www.ixigua.com/7300178583576969765"
    },
    {
        "title": "小米澎湃OS到底行不行？18天深度使用感受",
        "docid": "7302679803617313320",
        "url": "https://www.ixigua.com/7302679803617313320"
    },
    {
        "title": "防窥屏膜伤眼、影响显示效果，为啥这么多人用呢？",
        "docid": "7301981225819275830",
        "url": "https://www.ixigua.com/7301981225819275830"
    },
    {
        "title": "首发华为Mate60Pro，毁在了一张钢化膜上。贴膜需谨慎！ #华为",
        "docid": "7307588270588690963",
        "url": "https://www.ixigua.com/7307588270588690963"
    },
    {
        "title": "只需要188元，就能买到全新的投影仪手机？这个价格岂不是白送？",
        "docid": "7319397459292553762",
        "url": "https://www.ixigua.com/7319397459292553762"
    },
    {
        "title": "愿所有人新的一年会有始料不及的运气和突如其来的惊喜！",
        "docid": "7334622707629654580",
        "url": "https://www.ixigua.com/7334622707629654580"
    },
    {
        "title": "谢谢(*^o^*)",
        "docid": "7334584641791361588",
        "url": "https://www.ixigua.com/7334584641791361588"
    },
    {
        "title": "软件放在下面",
        "docid": "7334580279275291174",
        "url": "https://www.ixigua.com/7334580279275291174"
    },
    {
        "title": "苹果S9Ultra对比华强北S9Ultra，价格相差了22倍，体验感一样吗？",
        "docid": "7303290680451793462",
        "url": "https://www.ixigua.com/7303290680451793462"
    },
    {
        "title": "同样都是华为，为什么区别对待这么大？ #数码 #科技 #手机",
        "docid": "7320926147666641459",
        "url": "https://www.ixigua.com/7320926147666641459"
    },
    {
        "title": "开箱：仅售58000元的iphone15promax？打开包装那一刻，值了！",
        "docid": "7320246809656295955",
        "url": "https://www.ixigua.com/7320246809656295955"
    },
    {
        "title": "iPhone 7 中国广告 - The city 至今想不通这个广告是怎么拍的",
        "docid": "7322123460451238434",
        "url": "https://www.ixigua.com/7322123460451238434"
    },
    {
        "title": "有了静谧通话，我终于可以在车内放心接电话了！",
        "docid": "7304158976412025379",
        "url": "https://www.ixigua.com/7304158976412025379"
    },
    {
        "title": "标准版值得买吗？Redmi K70真机上手后 听我一句劝！",
        "docid": "7306855049005629993",
        "url": "https://www.ixigua.com/7306855049005629993"
    },
    {
        "title": "Pu bg充值UC",
        "docid": "7334623804230271514",
        "url": "https://www.ixigua.com/7334623804230271514"
    },
    {
        "title": "为什么连vivo和OPPO在网上的风评都比小米好",
        "docid": "7319060400077701658",
        "url": "https://www.ixigua.com/7319060400077701658"
    },
    {
        "title": "第一批！小米14Pro用户的“忠告“，体验半个多月已经是遍体鳞伤.",
        "docid": "7304193310498357770",
        "url": "https://www.ixigua.com/7304193310498357770"
    },
    {
        "title": "iPhone 15深度评测 它比舆论中骂的要好用很多",
        "docid": "7325351581334176296",
        "url": "https://www.ixigua.com/7325351581334176296"
    },
    {
        "title": "某宝买的苹果15ProMax 严重翻车",
        "docid": "7308571383796073011",
        "url": "https://www.ixigua.com/7308571383796073011"
    },
    {
        "title": "王自如早期测评iPhone5节选片段",
        "docid": "7305566162342019623",
        "url": "https://www.ixigua.com/7305566162342019623"
    },
    {
        "title": "三款稀有且巨便宜的联名手机，有面子也有里子的选择！",
        "docid": "7302401379707683340",
        "url": "https://www.ixigua.com/7302401379707683340"
    },
    {
        "title": "如何免费看小说（搜星辰影院加上小说名）",
        "docid": "7334586129809605129",
        "url": "https://www.ixigua.com/7334586129809605129"
    },
    {
        "title": "↖↘→←",
        "docid": "7334563976199537189",
        "url": "https://www.ixigua.com/7334563976199537189"
    },
    {
        "title": "2500元手机对比：你的选择真的明智吗？真话观点让你想不到",
        "docid": "7329358911060034087",
        "url": ""
    },
    {
        "title": "iPhone真的会收不到消息吗？ #iPhone #苹果 #微信 #消息延迟",
        "docid": "7327235822158086696",
        "url": "https://www.ixigua.com/7327235822158086696"
    },
    {
        "title": "200元15个手机，真的太离谱了…",
        "docid": "7322032560979214874",
        "url": "https://www.ixigua.com/7322032560979214874"
    },
    {
        "title": "盘点十款能“偷偷带去学校”的手机！可乐VS跑车，只有拇指大小？",
        "docid": "7323564782450442764",
        "url": "https://www.ixigua.com/7323564782450442764"
    },
    {
        "title": "国产手机超强防盗系统，吓坏手机店老板，网友：它丢了能自己回家",
        "docid": "7319354665538322981",
        "url": "https://www.ixigua.com/7319354665538322981"
    },
    {
        "title": "苹果还在默默捣鼓折叠屏",
        "docid": "7334095994759414310",
        "url": "https://www.ixigua.com/7334095994759414310"
    },
    {
        "title": "文明聊天",
        "docid": "7334644118594781696",
        "url": "https://www.ixigua.com/7334644118594781696"
    },
    {
        "title": "无实名电话卡",
        "docid": "7334595090780062223",
        "url": "https://www.ixigua.com/7334595090780062223"
    },
    {
        "title": "没啥，就是很有味道",
        "docid": "7334640958493065780",
        "url": "https://www.ixigua.com/7334640958493065780"
    },
    {
        "title": "吐槽蹭流量的无脑小鬼",
        "docid": "7334645107603276338",
        "url": "https://www.ixigua.com/7334645107603276338"
    },
    {
        "title": "Redmi K70上手体验：优点很多缺点也不少！#Redmi K70",
        "docid": "7307816397864862244",
        "url": "https://www.ixigua.com/7307816397864862244"
    },
    {
        "title": "拆解iPhone15编织数据线：145元值吗？",
        "docid": "7310910233897861671",
        "url": "https://www.ixigua.com/7310910233897861671"
    },
    {
        "title": "【享拆】三星 Galaxy S24 Ultra 拆解",
        "docid": "7331737698409349647",
        "url": "https://www.ixigua.com/7331737698409349647"
    },
    {
        "title": "iPhone SE4很听劝，性能、拍照、续航、外观全面提升#数码产品",
        "docid": "7334337958675382803",
        "url": "https://www.ixigua.com/7334337958675382803"
    },
    {
        "title": "秒懂手机充电器、是如何把220伏变成5伏的",
        "docid": "7329112586698359323",
        "url": "https://www.ixigua.com/7329112586698359323"
    },
    {
        "title": "7年前的iPhone 7 Plus手机，现在怎么样？还能再战吗？",
        "docid": "7310902621882188323",
        "url": "https://www.ixigua.com/7310902621882188323"
    },
    {
        "title": "谁能帮我解码？我祝他今年身体健康",
        "docid": "7334648179713180179",
        "url": "https://www.ixigua.com/7334648179713180179"
    },
    {
        "title": "安全第一，靠谱到家",
        "docid": "7334654981561451048",
        "url": "https://www.ixigua.com/7334654981561451048"
    },
    {
        "title": "◎My craft",
        "docid": "7334631219423871540",
        "url": "https://www.ixigua.com/7334631219423871540"
    },
    {
        "title": "Xr及以上机型都可以",
        "docid": "7334633782735012386",
        "url": "https://www.ixigua.com/7334633782735012386"
    },
    {
        "title": "不同手机的内存使用现状，过于真实！",
        "docid": "7332068236068143631",
        "url": ""
    },
    {
        "title": "五大品牌两千价位手机：信号WIFI谁最好？",
        "docid": "7326113007589655050",
        "url": "https://www.ixigua.com/7326113007589655050"
    },
    {
        "title": "麒麟9000s芯片谁代工生产？央视给华为正名！",
        "docid": "7332363665742103076",
        "url": "https://www.ixigua.com/7332363665742103076"
    },
    {
        "title": "带女朋友去三星体验店，竟然被上了一课？！#数码科技",
        "docid": "7327204765379756584",
        "url": "https://www.ixigua.com/7327204765379756584"
    },
    {
        "title": "这次打败苹果的，不是华为，更不是小米OPPO，而是尔滨",
        "docid": "7324524126876467748",
        "url": "https://www.ixigua.com/7324524126876467748"
    },
    {
        "title": "等了一个多月的华为Mate60标准版终于到了，比Pro更适合我！",
        "docid": "7304187962336641570",
        "url": "https://www.ixigua.com/7304187962336641570"
    },
    {
        "title": "西瓜特色卡顿之▪回放",
        "docid": "7334640324285268490",
        "url": "https://www.ixigua.com/7334640324285268490"
    },
    {
        "title": "要皮肤号的赶快来",
        "docid": "7334642899520815656",
        "url": "https://www.ixigua.com/7334642899520815656"
    },
    {
        "title": "3D立体壁纸 I 创意壁纸 I 个性潮流壁纸",
        "docid": "7332923696170435123",
        "url": ""
    },
    {
        "title": "听手机维修师傅说说，国产手机哪个品牌质量好，你心中的第一是谁",
        "docid": "7306439956002832936",
        "url": "https://www.ixigua.com/7306439956002832936"
    },
    {
        "title": "曾比肩华为小米的国产机王，如今只能靠老人机求生（天语）",
        "docid": "7303349485655196160",
        "url": "https://www.ixigua.com/7303349485655196160"
    },
    {
        "title": "华为X5，入手才一个月，无缘无故漏屏，叫我如何支持你",
        "docid": "7305574925027246627",
        "url": "https://www.ixigua.com/7305574925027246627"
    },
    {
        "title": "特斯拉同款4680锂电池做成的充电宝 试玩拆解！",
        "docid": "7321660327186137641",
        "url": "https://www.ixigua.com/7321660327186137641"
    },
    {
        "title": "华为nova12体验过后：中端机将感受到被支配的恐惧 #数码科技",
        "docid": "7317623208360804902",
        "url": "https://www.ixigua.com/7317623208360804902"
    },
    {
        "title": "2024年2月申请成为剪映模版创作人的具体流程#剪映#剪同款",
        "docid": "7334529609411035688",
        "url": "https://www.ixigua.com/7334529609411035688"
    },
    {
        "title": "什么视频（教程）",
        "docid": "7334577217462403594",
        "url": "https://www.ixigua.com/7334577217462403594"
    },
    {
        "title": "下期预告",
        "docid": "7334514030792409609",
        "url": "https://www.ixigua.com/7334514030792409609"
    },
    {
        "title": "刷到这个视频那就祝各位身体健康龙腾虎跃心想事成",
        "docid": "7334602394463896091",
        "url": "https://www.ixigua.com/7334602394463896091"
    },
    {
        "title": "只花千元，就能享受到真香影音体验？只说真话",
        "docid": "7329410337764295209",
        "url": ""
    },
    {
        "title": "终于等到这天！华为拿回了原本属于它的东西！",
        "docid": "7334581850540769832",
        "url": "https://www.ixigua.com/7334581850540769832"
    },
    {
        "title": "不方便拍摄取证怎么办？一分钟教会你息屏录像",
        "docid": "7332404038690046464",
        "url": "https://www.ixigua.com/7332404038690046464"
    },
    {
        "title": "荣耀8之后再无“经典”之作，再见了荣耀100Pro，实在用不惯！",
        "docid": "7309415534045594152",
        "url": "https://www.ixigua.com/7309415534045594152"
    },
    {
        "title": "2023年手机销量排名出来了！前五名三个中国品牌#小米#华为 #OPPO",
        "docid": "7324774673332306469",
        "url": "https://www.ixigua.com/7324774673332306469"
    },
    {
        "title": "我操，666，这软件太会玩了",
        "docid": "7334673762031403557",
        "url": "https://www.ixigua.com/7334673762031403557"
    },
    {
        "title": "今天继续来吐槽那个畜牲，获得负面效果：反胃，持续时间：∞",
        "docid": "7334674155759272487",
        "url": "https://www.ixigua.com/7334674155759272487"
    },
    {
        "title": "地铁在哪里？下载教程在这",
        "docid": "7334676434915033609",
        "url": "https://www.ixigua.com/7334676434915033609"
    },
    {
        "title": "#教大家如何弄声音",
        "docid": "7334674569283928591",
        "url": "https://www.ixigua.com/7334674569283928591"
    },
    {
        "title": "为什么华为麒麟芯片看起来跑分低，但使用体验不比跑分高的差？",
        "docid": "7334227420519760423",
        "url": "https://www.ixigua.com/7334227420519760423"
    },
    {
        "title": "努比亚Z60Ultra，为什么这么刚？#努比亚z60ultra #知识领航者",
        "docid": "7311587130357056052",
        "url": "https://www.ixigua.com/7311587130357056052"
    },
    {
        "title": "余大嘴笑了？2024年春晚含华量极高，华为多款机型现身，排面拉满",
        "docid": "7333614828185584139",
        "url": "https://www.ixigua.com/7333614828185584139"
    },
    {
        "title": "手机NFC功能，究竟有什么特别用处？听听“砖家”是怎么说的吧",
        "docid": "7334528820181271075",
        "url": "https://www.ixigua.com/7334528820181271075"
    },
    {
        "title": "红米青山，荣耀绿洲，一加明眸",
        "docid": "7316451145067692596",
        "url": "https://www.ixigua.com/7316451145067692596"
    },
    {
        "title": "华为nova12的塑料中框，就比其他家金属中框好",
        "docid": "7319485156748853810",
        "url": "https://www.ixigua.com/7319485156748853810"
    },
    {
        "title": "小黑子",
        "docid": "7334663118184055335",
        "url": "https://www.ixigua.com/7334663118184055335"
    },
    {
        "title": "不要在意",
        "docid": "7334657760656949795",
        "url": "https://www.ixigua.com/7334657760656949795"
    },
    {
        "title": "手机屏幕在阳光下太暗原来是这个开关没打开",
        "docid": "7308322494925144627",
        "url": "https://www.ixigua.com/7308322494925144627"
    },
    {
        "title": "用过原生安卓，才知道为什么大家都要做自研系统。",
        "docid": "7314319664120037925",
        "url": "https://www.ixigua.com/7314319664120037925"
    },
    {
        "title": "来看看2万5炒到10万的苹果 Vision Pro实测到底如何？一分钟版本",
        "docid": "7329117517048185344",
        "url": "https://www.ixigua.com/7329117517048185344"
    },
    {
        "title": "IQOO品牌的第一代手机，骁龙855处理器，如今还能流畅玩吃鸡吗？",
        "docid": "7303090399038571071",
        "url": "https://www.ixigua.com/7303090399038571071"
    },
    {
        "title": "华为新款千元机畅享70，鸿蒙4.0，麒麟710，“P60plus”的外观。",
        "docid": "7306350872999658047",
        "url": "https://www.ixigua.com/7306350872999658047"
    },
    {
        "title": "苹果8P、iphone11、苹果13、iphone14promax、苹果15跑分对比测试",
        "docid": "7306536036371431946",
        "url": "https://www.ixigua.com/7306536036371431946"
    },
    {
        "title": "教@快乐的小猫 如何登小号",
        "docid": "7334662683847426570",
        "url": "https://www.ixigua.com/7334662683847426570"
    },
    {
        "title": "iPhone 16 Pro Max震撼登场！iPhone 16 ProMax即将引爆你的感官",
        "docid": "7334506639195636239",
        "url": "https://www.ixigua.com/7334506639195636239"
    },
    {
        "title": "二月份1500-2500元新机值得买大推荐！",
        "docid": "7332466707836961330",
        "url": "https://www.ixigua.com/7332466707836961330"
    },
    {
        "title": "果冻手机你们见过吗？这真是手机界的小钢炮！",
        "docid": "7312794316123537970",
        "url": "https://www.ixigua.com/7312794316123537970"
    },
    {
        "title": "为了在印度造出iPhone，富士康找了一群中国“老师傅”",
        "docid": "7326874256154100235",
        "url": "https://www.ixigua.com/7326874256154100235"
    },
    {
        "title": "苹果手机掉价掉的这么厉害吗？15pro只卖1000多？这是什么套路？",
        "docid": "7308686218219389480",
        "url": "https://www.ixigua.com/7308686218219389480"
    },
    {
        "title": "第二版菜单发布，有意者可加q",
        "docid": "7334700061123117583",
        "url": "https://www.ixigua.com/7334700061123117583"
    },
    {
        "title": "人不可貌相，海水不可斗量!贼狗天天蹲点垃圾桶🗑️🗑️谋生😄😄",
        "docid": "7334711649187824155",
        "url": "https://www.ixigua.com/7334711649187824155"
    },
    {
        "title": "花钱买了币，故意说系统繁忙不让我用，我要炸洗他",
        "docid": "7334689563534852643",
        "url": "https://www.ixigua.com/7334689563534852643"
    },
    {
        "title": "华为多款芯片曝光，包括麒麟7000、8000、9000SH等，产能管够",
        "docid": "7334640071276462618",
        "url": "https://www.ixigua.com/7334640071276462618"
    },
    {
        "title": "返回桌面就去后台，而且还卡顿。怎么了？#华为 #mate60pro",
        "docid": "7319072750574928395",
        "url": "https://www.ixigua.com/7319072750574928395"
    },
    {
        "title": "赛博朋克“金箍棒”手机，你值得拥有",
        "docid": "7312686224760635945",
        "url": "https://www.ixigua.com/7312686224760635945"
    },
    {
        "title": "【禁止废话】非洲最受欢迎的手机是啥？感觉比我们用的还先进！",
        "docid": "7317459633633755674",
        "url": "https://www.ixigua.com/7317459633633755674"
    },
    {
        "title": "华为无线充电桌面抬升架？把华为无线座充改一改",
        "docid": "7333960791701651980",
        "url": "https://www.ixigua.com/7333960791701651980"
    },
    {
        "title": "我真tm无语了，这怎么回事，我明明回关了的，为何显示我没关",
        "docid": "7334689393452122639",
        "url": "https://www.ixigua.com/7334689393452122639"
    },
    {
        "title": "世界下载教程，不服来怼",
        "docid": "7334698760897102387",
        "url": "https://www.ixigua.com/7334698760897102387"
    },
    {
        "title": "张雅婷",
        "docid": "7334688830018028071",
        "url": "https://www.ixigua.com/7334688830018028071"
    },
    {
        "title": "小米13 Ultra越来越香，还要等小米14 Ultra吗？关键还是这两点",
        "docid": "7334721433974620712",
        "url": ""
    },
    {
        "title": "为什么iPhone支持半屏显示？看完涨知识了！",
        "docid": "7320191856699146793",
        "url": "https://www.ixigua.com/7320191856699146793"
    },
    {
        "title": "实拍越南手机店，看看越南人都用什么品牌手机？竟然没华为咋回事",
        "docid": "7304824864970539520",
        "url": "https://www.ixigua.com/7304824864970539520"
    },
    {
        "title": "几百米的苹果8p测试和平精英-不愧是游戏机皇#精品二手手机",
        "docid": "7306879974437290530",
        "url": "https://www.ixigua.com/7306879974437290530"
    },
    {
        "title": "「小白」真我GT5 Pro测评：射门成功了？",
        "docid": "7309748243959644713",
        "url": "https://www.ixigua.com/7309748243959644713"
    },
    {
        "title": "火车站旁边跟一个老奶奶买到的苹果手机，大家帮我看一下是不是真",
        "docid": "7324243206504841769",
        "url": "https://www.ixigua.com/7324243206504841769"
    },
    {
        "title": "「阿岳」好看但没用？魅族21只说缺点",
        "docid": "7309388707570647562",
        "url": "https://www.ixigua.com/7309388707570647562"
    },
    {
        "title": "2023年仅有9台手机搭载 | 三星屏在国内为何突然“销声匿迹”了？",
        "docid": "7334686585365185087",
        "url": ""
    },
    {
        "title": "华为手机双指长按1秒，原来隐藏着8个功能，每个都非常实用",
        "docid": "7307256298834395663",
        "url": "https://www.ixigua.com/7307256298834395663"
    },
    {
        "title": "用苹果手机却还不知道这些隐藏功能，那就白白浪费了！",
        "docid": "7306335593783362087",
        "url": "https://www.ixigua.com/7306335593783362087"
    },
    {
        "title": "全都是“烟雾弹”？华为麒麟9000w芯片海外亮相，这回彻底不装了",
        "docid": "7332350232392368655",
        "url": "https://www.ixigua.com/7332350232392368655"
    },
    {
        "title": "苹果Apple Vision Pro 官方使用指导视频",
        "docid": "7325870455380771379",
        "url": "https://www.ixigua.com/7325870455380771379"
    },
    {
        "title": "一加Ace3升级AI新春版，四大功能巨好用，两千价位闭眼入！",
        "docid": "7334327492934631976",
        "url": "https://www.ixigua.com/7334327492934631976"
    },
    {
        "title": "我剪视频的过程",
        "docid": "7334624856639537691",
        "url": "https://www.ixigua.com/7334624856639537691"
    }
]