[
    {
        "title": "肩挑“五道杠”，因“一脸官相”照片走红的小学生，后来如何了？",
        "docid": "7339086080735740452",
        "url": ""
    },
    {
        "title": "事关中小学！湖北省教育厅最新发布",
        "docid": "7341353569868038708",
        "url": ""
    },
    {
        "title": "明年河南将实行“新高考”，分数算法详解来啦！",
        "docid": "7340667844708827699",
        "url": ""
    },
    {
        "title": "用正确的思维方式，让孩子明白：留大城市与回小地方的问题本质",
        "docid": "7333380048394699279",
        "url": ""
    },
    {
        "title": "中国人为何不愿读技校？现在技工人才缺口超大，看看国外怎么做的",
        "docid": "7309391808655295026",
        "url": ""
    },
    {
        "title": "我滴天啊！终于把英语语法搞明白了",
        "docid": "7341052219216921140",
        "url": ""
    },
    {
        "title": "重庆最容易就业的5所大学，都是用人单位眼中的香饽饽，值得关注",
        "docid": "7315974471016383013",
        "url": ""
    },
    {
        "title": "那个高考676分上北大，却选冷门考古专业的钟芳蓉，如今怎样了",
        "docid": "7340118471595852315",
        "url": ""
    },
    {
        "title": "事关开学！武汉市教育局最新公告",
        "docid": "7339027894099804708",
        "url": ""
    },
    {
        "title": "我，95后大学女老师，见过千年男尸，进过慈禧卧室",
        "docid": "7322448299724816959",
        "url": ""
    },
    {
        "title": "武汉一大学校门上跑火车？ 校方回应：属实！全国唯一",
        "docid": "7340838015855624738",
        "url": ""
    },
    {
        "title": "高中期末0分作文却惊艳老师：想给满分但不能，思想远超同龄人",
        "docid": "7330233885852451391",
        "url": ""
    },
    {
        "title": "小学趁早刷烂这20部纪录片，孩子上初中后数理化直接轻松拿捏！",
        "docid": "7341386013186867721",
        "url": ""
    },
    {
        "title": "天津市90所高中排名汇总！快看看有没有你娃中意的",
        "docid": "7332463699330023955",
        "url": ""
    },
    {
        "title": "又一权威排名！2023泰晤士排名清华第8，中国11所跻身世界前百！",
        "docid": "7340445969659757075",
        "url": ""
    },
    {
        "title": "美媒：美国高等教育中的种族鸿沟持续扩大 非裔和拉丁裔学生面临更高“辍学”风险",
        "docid": "7341374998072312360",
        "url": ""
    },
    {
        "title": "大学生的开学焦虑：适应挑战，面对压力，建立未来",
        "docid": "7341139760997597759",
        "url": ""
    },
    {
        "title": "1997年毕业的高中同学聚会，没考上大学的小笨蛋成8000万大富翁！",
        "docid": "7341356238757904930",
        "url": ""
    },
    {
        "title": "小学生家长朋友们：这样的书法班，千万不要让孩子去！",
        "docid": "7324426199353115147",
        "url": ""
    },
    {
        "title": "2024考研山西成第一个公布成绩省份，400分很少，公共科目没放水",
        "docid": "7339680159148081698",
        "url": ""
    },
    {
        "title": "上海复旦大学最新宣布：3月1日起调整！网友沸腾了！",
        "docid": "7341232374283698707",
        "url": ""
    },
    {
        "title": "闹大了！重庆女教师一下课就直播惹争议，教委介入，唐某硬刚到底",
        "docid": "7341280286526702115",
        "url": ""
    },
    {
        "title": "武汉大学校长“莞莞类卿”式招生引热议，校方回应",
        "docid": "7341393843369984552",
        "url": ""
    },
    {
        "title": "9年前，去看世界的辞职女教师又回郑州重操旧业，已结婚生娃",
        "docid": "7333202732645351975",
        "url": ""
    },
    {
        "title": "教育部：稳步扩大研究生人才培养规模",
        "docid": "7341384539015070262",
        "url": ""
    },
    {
        "title": "“研究生多到无宿舍可住”上热搜，招生人数6年翻倍",
        "docid": "7340518602874962466",
        "url": ""
    },
    {
        "title": "红安一中新校区建设项目开工，建成后可容纳4200名学生就读",
        "docid": "7340571490578416162",
        "url": ""
    },
    {
        "title": "39所985大学近年在31省市的录取分数线！24考生重点参考",
        "docid": "7334530468362437172",
        "url": ""
    },
    {
        "title": "语文新教材将于2024年秋全面使用，“我们的工作是去表扬”！",
        "docid": "7340973777343611426",
        "url": ""
    },
    {
        "title": "家长：教的不考，考的不教，阅读理解超出范围，失败的语文教学",
        "docid": "7335662306980463123",
        "url": ""
    },
    {
        "title": "这一次，殴打女学生的杨老师，“底裤”都快被扒光了",
        "docid": "7341254958387528192",
        "url": ""
    },
    {
        "title": "太生气！湖南女教师打骂学生，真实身份曝光，校长被免职",
        "docid": "7340911567627715091",
        "url": ""
    },
    {
        "title": "宁可被人骂，也要为湖南老师发声 ：跪着的老师是教不出站着的学生",
        "docid": "7341262367285805568",
        "url": ""
    },
    {
        "title": "揪心！点读机女孩自曝患罕见脑瘤，学习太拼，为保研熬夜伤了身体",
        "docid": "7341374813401268773",
        "url": ""
    },
    {
        "title": "难度碾压IMO！顶级数学竞赛2024罗马尼亚数学赛真题出炉！",
        "docid": "7341189065980707363",
        "url": ""
    },
    {
        "title": "惊人的韦奇定律：子女会不会沦落为“底层人”，要看父母的定力",
        "docid": "7317861088383779355",
        "url": ""
    },
    {
        "title": "中国即将全面让出留学第一生源国地位，下滑趋势值得重视",
        "docid": "7324535278801191451",
        "url": ""
    },
    {
        "title": "中国四大名著的思维架构",
        "docid": "7340802852417258034",
        "url": ""
    },
    {
        "title": "市教学能手，在2023年中小学教师副高职称评审中落选，原因何在？",
        "docid": "7319020267068572179",
        "url": ""
    },
    {
        "title": "教育部：2023年九年义务教育巩固率再提升，达95.7%",
        "docid": "7341259086748566051",
        "url": ""
    },
    {
        "title": "多地研考压分严重，引发社会关注！",
        "docid": "7341312725135475211",
        "url": ""
    },
    {
        "title": "事关中小学！湖北省教育厅最新发布",
        "docid": "7341356595844514344",
        "url": ""
    },
    {
        "title": "我滴天啊！终于把英语语法搞明白了，哈哈哈！",
        "docid": "7341052452327916047",
        "url": ""
    },
    {
        "title": "可怕，湘潭事件已被带偏了节奏。这一事件的失控，说明了什么？",
        "docid": "7341309169175872035",
        "url": ""
    },
    {
        "title": "南京大学，为抢生源，明牌招生：热门专业单列，冷门专业打包！",
        "docid": "7340849232808690211",
        "url": ""
    },
    {
        "title": "那个高考676分上北大，却选冷门考古专业的钟芳蓉，如今怎样了",
        "docid": "7340937689132450314",
        "url": ""
    },
    {
        "title": "父母是否都没意识到自己错了 ？网友讥讽：供你吃喝 哪点对不起你了",
        "docid": "7338860883680150026",
        "url": ""
    },
    {
        "title": "我，被骗过手机睡过桥底，32岁当上乡村教师，带孩子做实验寻找光",
        "docid": "7310191960126767627",
        "url": ""
    },
    {
        "title": "清华大学土木合并大类招生引误解：勿拿传统的没落掩盖未来的新生",
        "docid": "7341186644118487592",
        "url": ""
    },
    {
        "title": "闹大了！教育机构美女校长形象崩塌，不雅视频引发网友热议",
        "docid": "7339696628326007308",
        "url": ""
    },
    {
        "title": "北大教授李玲：把民生问题搞成四座大山，究竟是谁的责任？",
        "docid": "7341308665829458467",
        "url": ""
    },
    {
        "title": "一建是废纸？江苏一家拉横幅庆祝男主通过考试，评论区让人扫兴",
        "docid": "7309491445449605669",
        "url": ""
    },
    {
        "title": "学生给十年前支教老师发短信，老师：号码一直没变",
        "docid": "7341004068279763494",
        "url": ""
    },
    {
        "title": "闹大了！小孩在电影院外放声音，提醒后家长要求道歉，对方下跪。",
        "docid": "7335476016808526388",
        "url": ""
    },
    {
        "title": "斩断仇恨链！中国人民大学田宏杰教授建议增加“煽动仇恨情绪罪”",
        "docid": "7339721874739495463",
        "url": ""
    },
    {
        "title": "初中到底开不开晚自习？杭州市教育局、各城区教育局回应了",
        "docid": "7340980542244209191",
        "url": ""
    },
    {
        "title": "广州中小学生全市性竞赛活动名单公布 认准这9项中小学生赛事",
        "docid": "7341162922611638836",
        "url": ""
    },
    {
        "title": "专家建议：取消中考！网友怒了：不学习，这么小让他们去玩吗？",
        "docid": "7338222266687373851",
        "url": ""
    },
    {
        "title": "女子怀孕8个月参加考研获得专业排名第一：临近考试每天都复习到凌晨两点",
        "docid": "7341015082136584740",
        "url": ""
    },
    {
        "title": "笑不活了，小女孩临开学作业被老鼠偷走后续，笑死在评论区！",
        "docid": "7339756145773019700",
        "url": ""
    },
    {
        "title": "卡里突然多了1000块钱！大学生懵了，接着一条短信真相了……",
        "docid": "7324519069729096246",
        "url": ""
    },
    {
        "title": "在新疆，一不小心拍到了语文课本！",
        "docid": "7341391730010702374",
        "url": ""
    },
    {
        "title": "教育部又搞事情？这次关系到你家孩子未来十年上大学的大事儿！",
        "docid": "7341432071837057571",
        "url": ""
    },
    {
        "title": "武汉大学校长“莞莞类卿”式招生引热议，校方回应",
        "docid": "7341297617877598759",
        "url": ""
    },
    {
        "title": "美媒：美国高等教育中的种族鸿沟持续扩大 非裔和拉丁裔学生面临更高“辍学”风险",
        "docid": "7341369553819566643",
        "url": ""
    },
    {
        "title": "没有对比就没有伤害，同样的事情，高中和大学真是天差地别",
        "docid": "7341380321071874597",
        "url": ""
    },
    {
        "title": "韩媒：小学将迎来“零新生”拐点",
        "docid": "7341325034910384679",
        "url": ""
    },
    {
        "title": "女生考研失利，含泪阅读给自己的一封信",
        "docid": "7340917427045614120",
        "url": ""
    },
    {
        "title": "2023年我国高等教育在学总规模4763.19万人",
        "docid": "7341326891510530575",
        "url": ""
    },
    {
        "title": "班主任一个月直播超百场？教师直播当严格限制",
        "docid": "7341334851968057893",
        "url": ""
    },
    {
        "title": "杭州人注意！开学后，一定要小心这个“老师”！",
        "docid": "7340844874486268426",
        "url": ""
    },
    {
        "title": "别让少数老师的恶行成了社会文明进步的悲哀！",
        "docid": "7341290590572970530",
        "url": ""
    },
    {
        "title": "学校不教东西，寒假全扔给家长！妈妈吐槽引爆笑，网友：句句戳心",
        "docid": "7339144470266446371",
        "url": ""
    },
    {
        "title": "太悲催！考研成绩出来却发现学校没宿舍，研究生已多到无宿舍可住",
        "docid": "7340628409971720719",
        "url": ""
    },
    {
        "title": "闹大了，985硕士因本科双非求职被拒，网友：第一学历真的重要吗",
        "docid": "7326862676938752546",
        "url": ""
    },
    {
        "title": "事大了！湖南女老师打骂学生后续：多部门紧急调查，女老师被严惩",
        "docid": "7341215165574382132",
        "url": ""
    },
    {
        "title": "人民网：老师不教书那教什么？家长不留情面，老师心思还在教学吗",
        "docid": "7341015712335479331",
        "url": ""
    },
    {
        "title": "闹大了，研究生多到无宿舍可住，房租生活费是学费6倍，全网热议",
        "docid": "7340555355736556071",
        "url": ""
    },
    {
        "title": "闹大了！学校强制家长自愿购买教辅书，网友:我还被自愿订过牛奶",
        "docid": "7340237829823513088",
        "url": ""
    },
    {
        "title": "笑麻了，山东一女子怀孕8个月考研获专业第一，网友评论区笑死",
        "docid": "7341303577983468084",
        "url": ""
    },
    {
        "title": "\"五道杠\"小学生，曾因一脸“官相”而走红，如今状态却令人泯然",
        "docid": "7340186756027318835",
        "url": ""
    },
    {
        "title": "教育局不会说但你要知道的十件事",
        "docid": "7341011773455467049",
        "url": ""
    },
    {
        "title": "同学聚会“奇怪现象”：3类同学咋请都不来，4类同学逢叫必到",
        "docid": "7341334665800401444",
        "url": ""
    },
    {
        "title": "50多岁班主任和学生谈恋爱？当地教育局回应",
        "docid": "7341250897441620543",
        "url": ""
    },
    {
        "title": "读大学时就给家里买房的小徐，考研成绩317分眼泪夺眶而出",
        "docid": "7339851218854461988",
        "url": ""
    },
    {
        "title": "越闹越大！湘潭女教师殴打学生后续，家长态度软弱，曝光者被网暴",
        "docid": "7340898077152231999",
        "url": ""
    },
    {
        "title": "河南高考即将迎来改革，到底是好是坏？",
        "docid": "7340712216829674024",
        "url": ""
    },
    {
        "title": "河南项城开学第一天让买书，县城只有一家书店有，家长连夜排队",
        "docid": "7340814330184745510",
        "url": ""
    },
    {
        "title": "形式主义何时休！家长被自愿站岗轮值，学校：不能只享受不付出",
        "docid": "7341201208281301545",
        "url": ""
    },
    {
        "title": "大学生返校用矿泉水瓶带螺蛳粉！网友：你就不能是我室友吗？",
        "docid": "7340826601887892004",
        "url": ""
    },
    {
        "title": "刚查到考研成绩，她就给警察发了条消息......",
        "docid": "7341384473130975771",
        "url": ""
    },
    {
        "title": "研究生宿舍爆满释放信号，为何穷人读研步步为营？别再踩五大雷区",
        "docid": "7341447607547593252",
        "url": ""
    },
    {
        "title": "“好事做尽，必有灾殃”：父母再善良，以下三种好事也不要做尽",
        "docid": "7320099495298433577",
        "url": ""
    },
    {
        "title": "家长晒孩子生活费清单，大学生在线拆台，学生学费究竟有多贵？",
        "docid": "7341390317826228776",
        "url": ""
    },
    {
        "title": "有时候可怕的不是施暴者，而是那些视而不见的旁观者！",
        "docid": "7341263611807482408",
        "url": ""
    },
    {
        "title": "我国研究生毕业人数首次超过100万人",
        "docid": "7340959790015513115",
        "url": ""
    },
    {
        "title": "初中妹妹8门成绩总共66分，硕士哥哥吐槽引爆笑，网友：句句戳心",
        "docid": "7329025350644564516",
        "url": ""
    },
    {
        "title": "闹大了，家长吐槽被要求到学校值班冲上热搜，引发90后网友热议",
        "docid": "7341183203971056178",
        "url": ""
    },
    {
        "title": "震惊！女校长在378人群聊里发不雅视频！教育界到底怎么了",
        "docid": "7339564265726231040",
        "url": ""
    },
    {
        "title": "太激动了，一男生在机场查到考研成绩，大声喊叫被路人拍下，泪目",
        "docid": "7339834576887431720",
        "url": ""
    },
    {
        "title": "全国在校生同比减少151.26万人，在园幼儿减少500多万人！最新数据来了→",
        "docid": "7341299246160708130",
        "url": ""
    },
    {
        "title": "老师辱骂殴打小学生后续，好老师能治愈孩子｜恶老师能毁掉孩子",
        "docid": "7341240354513486371",
        "url": ""
    },
    {
        "title": "闹大了！女校长工作群里发不雅视频！内容不堪入目，本人回应来了",
        "docid": "7339548918423847474",
        "url": ""
    },
    {
        "title": "励志！女子怀着孕考研获专业第一，临近考试每天都复习到凌晨2点",
        "docid": "7341246546144526859",
        "url": ""
    },
    {
        "title": "武大校长惊人之语：武大竟成北大“翻版”网友疯狂吐槽引爆舆论场",
        "docid": "7340974516082164276",
        "url": ""
    },
    {
        "title": "美国网友都吓到了！山东高中生自制矢量可回收火箭！少年强则国强",
        "docid": "7338259924365066788",
        "url": ""
    },
    {
        "title": "重庆一中学29岁女老师月直播次数超百场，教育局回应，评论区炸了",
        "docid": "7341278390047261235",
        "url": ""
    },
    {
        "title": "人民网再评“教师减负”，岂不知各种“评比验收”，更是不堪重负",
        "docid": "7340896327154778633",
        "url": ""
    },
    {
        "title": "初中晚自习，会全面取消吗？",
        "docid": "7341207929347392010",
        "url": ""
    },
    {
        "title": "四川瓜娃子励志学奇葩专业，张雪峰吓得杏眼圆睁！#张雪峰 #涨粉",
        "docid": "7323042656198754816",
        "url": ""
    },
    {
        "title": "若f[f(x)]=x²-3x+4，求f(1)",
        "docid": "7317974705175331363",
        "url": ""
    },
    {
        "title": "张老师对可以考全省第一的学生啥建议",
        "docid": "7341021733892063783",
        "url": ""
    },
    {
        "title": "女孩985计算机专业在银行科技岗工作半年，迷茫是否考研提升自己",
        "docid": "7329861774025753107",
        "url": ""
    },
    {
        "title": "武汉大学校长张平文说：我热爱武汉大学，这里特别像北大",
        "docid": "7341190907238187546",
        "url": ""
    },
    {
        "title": "北大学霸大驾光临，张雪峰花容失色！#你认为张雪峰观点有理吗",
        "docid": "7331309554069668391",
        "url": ""
    },
    {
        "title": "这一次，广东人真的被东北人的基因颠覆了认知",
        "docid": "7323430585438388776",
        "url": ""
    },
    {
        "title": "突然爆火！全免费！杭州人这两天抢疯...时尚果然是个轮回",
        "docid": "7341432862325735963",
        "url": ""
    },
    {
        "title": "违规学科培训隐形变异？加大查处！重庆教育工作今年这样干→",
        "docid": "7341274859181589003",
        "url": ""
    },
    {
        "title": "董宇辉在中国传媒大学的精彩讲演，才华横溢、全程高能、精彩不断",
        "docid": "7332505567099978292",
        "url": ""
    },
    {
        "title": "雪峰老师帮助高三学霸情侣规划院校专业，最后却尴尬了。",
        "docid": "7320741325463257626",
        "url": ""
    },
    {
        "title": "绿茶女心比天高 命比纸薄，张雪峰一针见血，道出心机",
        "docid": "7315770591632753186",
        "url": ""
    },
    {
        "title": "大龄前台女咨询，该考研还是该嫁人？张雪峰的回答一言难尽！",
        "docid": "7340977926232277515",
        "url": ""
    },
    {
        "title": "山西一中学50多岁班主任和女学生谈恋爱？校方回应→",
        "docid": "7341210716512698915",
        "url": ""
    },
    {
        "title": "大学生返校用矿泉水瓶带螺蛳粉！网友：你就不能是我室友吗？",
        "docid": "7340827077895455284",
        "url": ""
    },
    {
        "title": "8年前，辞职说“世界那么大，我想去看看”的女教师，后来怎样了",
        "docid": "7324265321819554340",
        "url": ""
    },
    {
        "title": "聚是一团火，散是派出所！当大学开始大众点评后",
        "docid": "7341410715393344034",
        "url": ""
    },
    {
        "title": "教师打骂不会做题学生，要给“棍棒教育”观念断根",
        "docid": "7341217891855073831",
        "url": ""
    },
    {
        "title": "小学生妈妈在家长群怼老师，称以后孩子不上早课 要睡到自然醒",
        "docid": "7341455381111259702",
        "url": ""
    },
    {
        "title": "后续来了，家长吐槽被学校要求到学校值守，教育局回应：不允许",
        "docid": "7341296026885767730",
        "url": ""
    },
    {
        "title": "私立小学倒闭了，农村小孩一年级就要到镇上读书，评论区闹翻天",
        "docid": "7340671008833389090",
        "url": ""
    },
    {
        "title": "在宝体，当恶犯大叔再次遇到恶犯大王！只有魔法可以击败魔法了！",
        "docid": "7330077590113550889",
        "url": ""
    },
    {
        "title": "女老师殴打学生后续：央媒怒斥，校长被曝是90后大美女，已被免职",
        "docid": "7341417169080549929",
        "url": ""
    },
    {
        "title": "23岁的普通人应该有多少钱？张雪峰：现代人不幸福的最主要原因是互联网！大家不要去比，过好自己的生活",
        "docid": "7316798184397734434",
        "url": ""
    },
    {
        "title": "湖南女老师打骂女生3分钟原视频曝光:以前揍欠揍的,现在揍老实的",
        "docid": "7340848793878938123",
        "url": ""
    },
    {
        "title": "关于西安交通大学迁往成都，改变未来格局的可行性分析探讨",
        "docid": "7341195470519321115",
        "url": ""
    },
    {
        "title": "热门专业已悄悄转变，男生公开简历遭“疯抢”，张雪峰说得没错",
        "docid": "7320941029954372130",
        "url": ""
    },
    {
        "title": "江西一地规定低彩礼夫妻子女可优先入学：不得高于3.9万",
        "docid": "7339701912654053927",
        "url": ""
    },
    {
        "title": "重庆大学怎么样？在全国什么档次？看到最后你就明白了",
        "docid": "7313425718174728745",
        "url": ""
    },
    {
        "title": "这是一道难倒985家长的题目，小学生应该学的这么深吗？",
        "docid": "7317104939191566889",
        "url": ""
    },
    {
        "title": "男女生石头剪刀布游戏不料女生输了，男生：我先蹲一个你们看着办",
        "docid": "7322726617661309503",
        "url": ""
    },
    {
        "title": "寒门富二代的真相：人前体面，人后凄凉！",
        "docid": "7334490189324321319",
        "url": ""
    },
    {
        "title": "让老师紧张的“我家子涵”是谁？",
        "docid": "7311243906891694601",
        "url": ""
    },
    {
        "title": "这是教育的悲哀？网友：孩子的想象力和创造力不该如此消磨殆尽",
        "docid": "7320964743727186466",
        "url": ""
    },
    {
        "title": "内地生来港留学半年后，坦言: 冲击太大了！",
        "docid": "7318265426369118761",
        "url": ""
    },
    {
        "title": "9年前，成都一17岁女孩赴德留学，中学阶段情窦初开爱上外国帅哥",
        "docid": "7311133225383150099",
        "url": ""
    },
    {
        "title": "90父母都是怎么处理孩子早恋的，看完评论区，现在的父母想的真开",
        "docid": "7327146485621981708",
        "url": ""
    },
    {
        "title": "绝世天才：7岁掌握高中数学，13岁自学微积分，长大更是创造奇迹",
        "docid": "7321923143311131190",
        "url": ""
    },
    {
        "title": "公开儿子三战考研成绩！儿子：“想去的地方，多敲几次门又何妨”",
        "docid": "7340614175972114996",
        "url": ""
    },
    {
        "title": "考上这些大学就是金饭碗",
        "docid": "7325720740958208549",
        "url": ""
    },
    {
        "title": "权威排名来了！2024QS世界大学排名，北大世界17，浙大44，上交51",
        "docid": "7338231286341517864",
        "url": ""
    },
    {
        "title": "港台女明星周慧敏的绘画作品欣赏，不愧是演艺界美术课代表",
        "docid": "7336887129207046668",
        "url": ""
    },
    {
        "title": "小学生眼中的大学生是什么样子的?大学生：捧杀比侮辱更可怕！",
        "docid": "7320439234194850367",
        "url": ""
    },
    {
        "title": "什么！原来韩国等于湖北？韩国人能听懂湖北话？湖北网友:莫挨",
        "docid": "7333432333363741211",
        "url": ""
    },
    {
        "title": "“就业面真广啊”！美术生晒就业现状，看后快把人笑不活了",
        "docid": "7323121154343223842",
        "url": ""
    },
    {
        "title": "00年老两口凑7万送女留学，21年未见，临死才知女儿成为德国教授",
        "docid": "7320558522579075610",
        "url": ""
    },
    {
        "title": "第一批读博的00后，已经进化成了“学术猪八戒”",
        "docid": "7311152661590491648",
        "url": ""
    },
    {
        "title": "父母给孩子取名带典故，网友：有一种强装文化的无力感",
        "docid": "7324495128201052672",
        "url": ""
    },
    {
        "title": "大学生返校时的行李箱能有多离谱？爸妈:要不然你把我们也带走吧!",
        "docid": "7338961370534380095",
        "url": ""
    },
    {
        "title": "未来考编热还会持续下去吗？看完网友的分享，我沉默许久",
        "docid": "7321953462550594048",
        "url": ""
    },
    {
        "title": "学霸抱团多惊人？上海交大南京大学3对“3人组”，玩着登上富豪榜",
        "docid": "7336059621356257843",
        "url": ""
    },
    {
        "title": "住校的孩子半夜打电话要回家，家长一定马上去接，不然后悔一辈子",
        "docid": "7328673879109894697",
        "url": ""
    },
    {
        "title": "“一群学霸生了一群渣二代”，合肥一中同学聚会，谈起教育扎心了",
        "docid": "7333461163549803071",
        "url": ""
    },
    {
        "title": "submission＝挂科？四级一考，各种笑料都出来了，笑得胃疼！",
        "docid": "7313358606261568038",
        "url": ""
    },
    {
        "title": "江苏高考女状元，被多所985名校拒绝录取，成为“最惨状元”？",
        "docid": "7326083620774134283",
        "url": ""
    },
    {
        "title": "父母的“愚蠢”真的会毁掉子女一辈子！网友分享真实经历，太扎心",
        "docid": "7315790912389612069",
        "url": ""
    },
    {
        "title": "包书皮用奶茶袋！看到大学生的创意，网友：请翻到霸王茶姬第52页",
        "docid": "7340954053309956671",
        "url": ""
    },
    {
        "title": "31省市“高考难度”排行榜，第1名毫不意外，第3名属实没想到",
        "docid": "7335313386416751155",
        "url": ""
    },
    {
        "title": "大学生带厨师老爸做好的龙虾返校！网友：“其实我们是失散多年的好友……”",
        "docid": "7340828701192143360",
        "url": ""
    },
    {
        "title": "高中地理题目有多离谱？网友：我永远忘不了山羊为什么上树！",
        "docid": "7310929236527809039",
        "url": ""
    },
    {
        "title": "为什么进入高中后，来事的家长和调皮的孩子不见了？",
        "docid": "7323207125134770688",
        "url": ""
    },
    {
        "title": "师妹当上了浙大副教授，孟伟吐槽本科不如自己，评论区沸腾了",
        "docid": "7339340513516241443",
        "url": ""
    },
    {
        "title": "当年施一公砸200亿打造西湖大学，扬言5年内超过清华，结果怎样了",
        "docid": "7309755849571254818",
        "url": ""
    },
    {
        "title": "你们留学生是去国外渡劫的吗?面对这么多危险!看网友分享我震惊了",
        "docid": "7340273984556810804",
        "url": ""
    },
    {
        "title": "笑死了！留学生在外面都这么野吗?双手合十念叨 吓得对方脸都白了",
        "docid": "7340945239949148724",
        "url": ""
    },
    {
        "title": "23岁女儿考研二战失败后，砸了她的电脑，滚出去找工作，嫁人也行",
        "docid": "7341360144502293031",
        "url": ""
    },
    {
        "title": "还以为留学生过得很好呢，没想刷到评论区，全是各地留学生的吐槽",
        "docid": "7309693424377020964",
        "url": ""
    },
    {
        "title": "为什么张雪峰什么专业都懂？他打破了隔行如隔山？",
        "docid": "7332693553900274215",
        "url": ""
    },
    {
        "title": "中文翻译的顶级浪漫",
        "docid": "7316768681151808011",
        "url": ""
    },
    {
        "title": "拼了老命拿下一建，看着到手的工资还是值得的",
        "docid": "7320940018326241844",
        "url": ""
    },
    {
        "title": "当你答辩时，老师突然给你暗号！",
        "docid": "7311304722747621922",
        "url": ""
    },
    {
        "title": "家长班级群内怒怼老师：孩子不上早课，让他睡到自然醒，评论炸了",
        "docid": "7341411865308611072",
        "url": ""
    },
    {
        "title": "凌晨2点在堆雪人，你看见我那南方舍友了吗？",
        "docid": "7311662309024645672",
        "url": ""
    },
    {
        "title": "哪一年出生的孩子高考最难？高中选科利弊，建议家长收藏",
        "docid": "7340598189243826688",
        "url": ""
    },
    {
        "title": "你见过哪些恶作剧造成的惨剧？网友：女孩疯了，男孩要照顾她一生",
        "docid": "7328251096206606848",
        "url": ""
    },
    {
        "title": "湖北寒门学霸放弃保送清华，扬言要享受高考全过程，后来考多少分",
        "docid": "7314837588483998262",
        "url": ""
    },
    {
        "title": "高分学霸伍继红：692分上人大，却嫁光棍生六娃，人才沦为低保户",
        "docid": "7326088464536650281",
        "url": ""
    },
    {
        "title": "你知道留学生的真实生活是什么样子的吗？评论区让我大开眼界",
        "docid": "7312673156228399651",
        "url": ""
    },
    {
        "title": "我太太太太同意这位老师的观点了！",
        "docid": "7316739377416421926",
        "url": ""
    },
    {
        "title": "穷人定律：越穷的人越喜欢让子女从事这三种工作，看看有没有你？",
        "docid": "7318998602930586138",
        "url": ""
    },
    {
        "title": "广西状元林丽渊：语文忘写名字、英语睡觉2次，曾高考672分进北大",
        "docid": "7331692061818700300",
        "url": ""
    },
    {
        "title": "武汉普通人家的生活不易",
        "docid": "7303552524613976613",
        "url": ""
    },
    {
        "title": "痛心！22岁“点读机女孩”高君雨患癌，去年刚从中国传媒大学毕业",
        "docid": "7341310260055310898",
        "url": ""
    },
    {
        "title": "“离离原上草”为何课本删了后四句？看完原诗，你觉得该删吗？",
        "docid": "7337253659393081868",
        "url": ""
    },
    {
        "title": "江苏终于有一市将高中录取率提升至70%，太幸福了",
        "docid": "7340801124359979561",
        "url": ""
    },
    {
        "title": "输麻了！越来越多本科生回炉重新读大专，这下大学生真啥都不是了",
        "docid": "7323046700422775336",
        "url": ""
    },
    {
        "title": "羞辱虐待3小时，8个初中生把我的女儿当作取乐的工具，真实改编",
        "docid": "7337481499446395446",
        "url": ""
    },
    {
        "title": "武汉“校门上能跑火车的高校”走红：校门近小吃街和宿舍，学生称刚来时戴耳塞睡觉",
        "docid": "7340972154873496102",
        "url": ""
    },
    {
        "title": "原来穷养真的会毁了孩子一辈子！网友评论真扎心，看完我沉默良久",
        "docid": "7317209023923700265",
        "url": ""
    },
    {
        "title": "贾文君，你太牛了！",
        "docid": "7339488661584626228",
        "url": ""
    },
    {
        "title": "教育迎来巨变，硕士招生60%，博士80%，真要全民研究生博士生？",
        "docid": "7341531563869340196",
        "url": ""
    },
    {
        "title": "学生暗恋老师,老师做法太绝，看完评论区后：我是绝对做不出来！",
        "docid": "7339828124949709352",
        "url": ""
    },
    {
        "title": "“大学生就业：美术生晒就业现状，你一定会笑出声！”",
        "docid": "7324401260936151592",
        "url": ""
    },
    {
        "title": "哈佛毕业的我在富人区做家教，看到上流阶层的鸡娃真相",
        "docid": "7324256584312750646",
        "url": ""
    },
    {
        "title": "“文科几乎没有岗位”，双一流本科生吐槽校招现场，太让人扎心了",
        "docid": "7339725730877768218",
        "url": ""
    },
    {
        "title": "数据来了！小学教师将过剩150万！评论区瞬间沦陷——",
        "docid": "7320257922280489499",
        "url": ""
    },
    {
        "title": "工薪家庭如何给孩子一个优质的教育？陪读十二年把孩子送进了浙大",
        "docid": "7340835397632819749",
        "url": ""
    },
    {
        "title": "收养276个孩子，被骂“傻子”29年：他不红，凉了中国人的心",
        "docid": "7313142261712323083",
        "url": ""
    },
    {
        "title": "原来这些专业根本考不上公务员，涨知识了，收藏起来看看吧",
        "docid": "7340993694490886666",
        "url": ""
    },
    {
        "title": "上海高校教授言论爆火：“断亲”，是为了保护下一代中国孩子",
        "docid": "7339701817100157449",
        "url": ""
    },
    {
        "title": "教育部仅有的2次官方高校排名",
        "docid": "7309113984018498089",
        "url": ""
    },
    {
        "title": "人大90后才女苏紫紫：不顾批评做人体模特，如今怎么样了？",
        "docid": "7312754389096251904",
        "url": ""
    },
    {
        "title": "司马南：这件事不奇怪吗？教材上的字咋这么小？",
        "docid": "7340160397942473255",
        "url": ""
    },
    {
        "title": "最能让你佩服的大学室友？网友：直接睡老师宿舍了",
        "docid": "7340564417413055010",
        "url": ""
    },
    {
        "title": "你们发现没有，父母如果给孩子买楼买车，孩子压力就小多了",
        "docid": "7324261589819900468",
        "url": ""
    },
    {
        "title": "郑强教授终于说出了，给他放“光头强”这个名字的人是谁",
        "docid": "7326746169437454859",
        "url": ""
    },
    {
        "title": "成绩再好也没戏！户口本上出现这“4个字”，基本无缘公务员！",
        "docid": "7320940646901891603",
        "url": ""
    },
    {
        "title": "湖北3所师范大学，师资雄厚实力强悍，被誉为“湖北师范三剑客”",
        "docid": "7328742540318884367",
        "url": ""
    },
    {
        "title": "果真寒窗苦读的尽头是编制，多名高考状元入选2023选调生踏入仕途",
        "docid": "7319038894052835878",
        "url": ""
    },
    {
        "title": "轰动了整个阅卷组的学生试卷，这一届学生都是高手",
        "docid": "7328017356159124002",
        "url": ""
    },
    {
        "title": "《卖油翁》最后一句为何被删掉了",
        "docid": "7316525383565115931",
        "url": ""
    },
    {
        "title": "优秀的孩子不是被“逼”出来的，是被你“套路”出来的",
        "docid": "7341595316284129803",
        "url": ""
    },
    {
        "title": "男生宿舍的关系能可怕到什么程度?网友：男生宿舍可以四世同堂",
        "docid": "7341096130505343488",
        "url": ""
    },
    {
        "title": "不是教育存在滞后性，是有些课文，我们长大后才能读懂",
        "docid": "7337999672319033890",
        "url": ""
    },
    {
        "title": "湖南一在编女教师辞职，挥别五年去摆摊，网友：可惜了",
        "docid": "7337656897371128372",
        "url": ""
    },
    {
        "title": "留学生在国外留学都沾染了哪些陋习？网友：不敢喝烧的水",
        "docid": "7341444599006659107",
        "url": ""
    },
    {
        "title": "闹大了，家长称自家孩子不上早课睡到自然醒，网友评论区吵翻了！",
        "docid": "7341557951414633010",
        "url": ""
    },
    {
        "title": "动真格了！新一轮“京校外迁”，突然拉开大幕",
        "docid": "7339752156998058537",
        "url": ""
    },
    {
        "title": "回忆杀：再次看到1987年版本的语文教材我的眼泪控制不住流了下来",
        "docid": "7337612814074315327",
        "url": ""
    },
    {
        "title": "01年因高考满分作文《赤兔之死》，他被南师大录取，如今过得如何",
        "docid": "7308664294508577306",
        "url": ""
    },
    {
        "title": "爱上四十多岁的英语老师怎么办？网友的回答令人爆笑！:)",
        "docid": "7341568038795280911",
        "url": ""
    },
    {
        "title": "中山大学为啥有两个医学院？一个是亲生的，一个是抱养的！",
        "docid": "7310901004823396903",
        "url": ""
    },
    {
        "title": "女儿考2分全班倒数第一，妈妈吐槽引爆笑，家长：这次学到了！",
        "docid": "7320603080259551784",
        "url": ""
    },
    {
        "title": "那个高考676分上北大，却选冷门考古专业的钟芳蓉，如今怎样了",
        "docid": "7338693885512352306",
        "url": ""
    },
    {
        "title": "肩挑“五道杠”，因“一脸官相”照片走红的小学生，后来如何了？",
        "docid": "7341328628820787766",
        "url": ""
    },
    {
        "title": "“点读机女孩”患脑癌！走不出高三状态，为保研熬夜拿咖啡当饭吃",
        "docid": "7341590223345713698",
        "url": ""
    },
    {
        "title": "十岁男孩严弘森造火箭震惊网友，哈工大教授诚邀他打卡哈工大",
        "docid": "7332635663810085402",
        "url": ""
    },
    {
        "title": "8年前，辞职说“世界那么大，我想去看看”的女教师，后来怎样了",
        "docid": "7326019217152016959",
        "url": ""
    },
    {
        "title": "苏联也有毒教材，其危害有多大？苏联教育部是苏联解体的一大推手",
        "docid": "7329729757304603175",
        "url": ""
    },
    {
        "title": "女教师粗暴对待学生被停职，反获大量网友声援，理由让人难以反驳",
        "docid": "7340974510608679434",
        "url": ""
    },
    {
        "title": "长江大学、江汉大学、三峡大学，哪个大学更厉害？听听老师怎么说",
        "docid": "7340108262651691574",
        "url": ""
    },
    {
        "title": "令人泪崩！江苏被保安拦住的“√2”老师，竟是抗癌10年的勇士",
        "docid": "7311605614671561242",
        "url": ""
    },
    {
        "title": "学生请假条惊艳老师，才华横溢，老师看后赞叹不已！",
        "docid": "7310940712308425252",
        "url": ""
    },
    {
        "title": "​教育最大的失败是一群摆烂父母在拼命卷孩子。自查一下是你吗？",
        "docid": "7341282401743618575",
        "url": ""
    },
    {
        "title": "越闹越大！殴打学生事件可怕的不只是殴打，还有三个更可怕的现象",
        "docid": "7341260152324162074",
        "url": ""
    },
    {
        "title": "笑拥了，武大校长深爱着北大，菀菀类卿式招生引热议，评论区笑死",
        "docid": "7341574328163303990",
        "url": ""
    },
    {
        "title": "普通家庭，真的不要给孩子投资太多",
        "docid": "7320240939128177203",
        "url": ""
    },
    {
        "title": "“有几分像北大是你的福气”，武大校长宣传词火了，堪称甄嬛传",
        "docid": "7340931360951108108",
        "url": ""
    },
    {
        "title": "一不小心拍到了“语文课本封面”，适配度拉满！",
        "docid": "7341576908418695715",
        "url": ""
    },
    {
        "title": "史上最牛父亲的一场演讲，100年后仍是现代父母不可超越的教育真经",
        "docid": "7325638998012150283",
        "url": ""
    },
    {
        "title": "长沙家长吐槽“社会实践作业”摆拍折磨人，喊话教育回归本质。",
        "docid": "7341192196357653027",
        "url": ""
    },
    {
        "title": "猴赛雷！深圳中学生发现抢最大红包秘诀，却被认定为学术抄袭？",
        "docid": "7339367534585823807",
        "url": ""
    },
    {
        "title": "原谅我大半夜笑出声，现在的这种师生关系到底是怎么了😂",
        "docid": "7340606981352309298",
        "url": ""
    },
    {
        "title": "你知道就连985大学也根本无法拯救天坑专业有哪些吗？毕业就失业",
        "docid": "7322851987362480679",
        "url": ""
    },
    {
        "title": "周新成 | 哪些孩子还在乡镇中学读书？校长直言：都是在城里买不起房的",
        "docid": "7341576388685824550",
        "url": ""
    },
    {
        "title": "唐楚玥：七岁时一句戏言成真，725分如愿考取北大，如今的她怎样",
        "docid": "7326087952902996518",
        "url": ""
    },
    {
        "title": "熟悉下小学的潜规则，别再浪费孩子的时间了",
        "docid": "7328729423824585225",
        "url": ""
    },
    {
        "title": "家长强烈呼吁学校告知孩子考试成绩。网友：当初反对的也是你们！",
        "docid": "7326883913870475839",
        "url": ""
    },
    {
        "title": "《不内耗的教育》半小时售3000册，揭秘普通家庭孩子成材密码",
        "docid": "7341330801579049526",
        "url": ""
    },
    {
        "title": "隔行如隔山，为什么没有老师站出来为老师说一句话",
        "docid": "7341362313515123252",
        "url": ""
    },
    {
        "title": "八、九十年代的中专生，究竟啥水平",
        "docid": "7327949111750246947",
        "url": ""
    },
    {
        "title": "闹大了！家长因不想孩子上早课和老师起争执，群里怒怼老师是间谍",
        "docid": "7341542236402450983",
        "url": ""
    },
    {
        "title": "把孩子送进浙大，我做对了什么？普娃可复制",
        "docid": "7341599058169102899",
        "url": ""
    },
    {
        "title": "“我该给十年前的支教老师打电话吗？”后续来了！",
        "docid": "7341368973205897762",
        "url": ""
    },
    {
        "title": "一个班十多个“梓涵”，老师崩溃，如今又有新“土味”名字来袭！",
        "docid": "7312398685512663552",
        "url": ""
    },
    {
        "title": "河南小学“无师上课”事件：教育何以沦为儿戏？",
        "docid": "7341557320297644563",
        "url": ""
    },
    {
        "title": "西南大学，东南大学，中南大学，江南大学哪所学校实力最强？",
        "docid": "7309751608261837312",
        "url": ""
    },
    {
        "title": "\"双非\"高校排名！深圳大学第2，杭电、南方医科第5，东北财经第8",
        "docid": "7341011766010298932",
        "url": ""
    },
    {
        "title": "中国名字最好听的十大大学",
        "docid": "7321993977039979045",
        "url": ""
    },
    {
        "title": "“成都初中全面取消晚自习？”成都市教育局答复来了！",
        "docid": "7340542267280589353",
        "url": ""
    },
    {
        "title": "如遇良师，一生有幸",
        "docid": "7341398321846223400",
        "url": ""
    },
    {
        "title": "这4所985高校，当年合并的时候，有点儿用力过猛！",
        "docid": "7341084705145930290",
        "url": ""
    },
    {
        "title": "为省5块钱面包，父母赔上6岁儿子的生命，结局让人心疼",
        "docid": "7322393313095729704",
        "url": ""
    },
    {
        "title": "小时候大舅接我放学，我天天给娘告状：大舅骑车慢老师都追上来了",
        "docid": "7310106888874607145",
        "url": ""
    },
    {
        "title": "张雪峰一语道破，强基计划和普通批学生的区别，又是没关注的角度",
        "docid": "7340199538755437094",
        "url": ""
    },
    {
        "title": "被“投诉”的老师们：学生丢失了块橡皮，警察来了3次",
        "docid": "7322721764528620073",
        "url": ""
    },
    {
        "title": "学生期末考试用“原神玩梗”，试卷传遍阅卷组，老师：已报德育处",
        "docid": "7332312231058735628",
        "url": ""
    },
    {
        "title": "浙江省这9所最臭名昭著“野鸡大学”，毕业证一文不值，考生警惕",
        "docid": "7323020880722936361",
        "url": ""
    },
    {
        "title": "涉及德智体美劳！未来三年重庆每年将精准服务2500名城乡留守、流动儿童",
        "docid": "7340976138002563636",
        "url": ""
    },
    {
        "title": "我考上985后才知道，很多考不上的人，高中阶段都是在无效学习",
        "docid": "7317105887800525362",
        "url": ""
    },
    {
        "title": "后续！四川美女校长工作群发不雅视频，评论员：要细查女校长！",
        "docid": "7339710912187777572",
        "url": ""
    },
    {
        "title": "底裤被扒光又牵连学校的杨老师，让我顿悟，办公室“正义”更可怕",
        "docid": "7341295279352054310",
        "url": ""
    },
    {
        "title": "河南一小学拖欠教师工资无人上课 学生在校只能看电视 教育局：正在积极处理中",
        "docid": "7341604921692914212",
        "url": ""
    },
    {
        "title": "山西高中排名“大洗牌”，忻州一中勇夺第2，大同一中挤进前10！",
        "docid": "7328437219394830882",
        "url": ""
    },
    {
        "title": "不堪入目！四川女校长微信工作群发90秒不雅视频，本人回应亮了",
        "docid": "7339555680145261071",
        "url": ""
    },
    {
        "title": "闹大了！上海一家长群里怒怼老师后续：教育局介入，网友一边倒",
        "docid": "7341454420242121254",
        "url": ""
    },
    {
        "title": "女子不小心把毕业论文打印成小票",
        "docid": "7308935859242729996",
        "url": ""
    },
    {
        "title": "暴力教师：女教师事件引发的教育伦理危机",
        "docid": "7340920774775456293",
        "url": ""
    },
    {
        "title": "计算机类VS电子信息类，有什么区别？哪个才是有钱景的“香饽饽”",
        "docid": "7331627956911309375",
        "url": ""
    },
    {
        "title": "难！38岁还在考二建，朋友说，嘘，我只是不想被开除",
        "docid": "7340687142546752019",
        "url": ""
    },
    {
        "title": "重庆29岁女老师一个月直播100场，教育局回应，评论区炸锅",
        "docid": "7340914928917840447",
        "url": ""
    },
    {
        "title": "“退步”最明显的985大学，曾经与清北齐名，如今却已跌出前10",
        "docid": "7341281525302264360",
        "url": ""
    },
    {
        "title": "大学女生宿舍的可怕事情：突然消失的室友！",
        "docid": "7341635151572877843",
        "url": ""
    },
    {
        "title": "西安被严重低估的3所大学，核心专业堪比985，毕业根本不愁找工作",
        "docid": "7326346680012374547",
        "url": ""
    },
    {
        "title": "原来这些大学同属于一家公司，中国民办高等教育新四大家族",
        "docid": "7314580746625499674",
        "url": ""
    },
    {
        "title": "刚开学就发布“退学通知”？谣言！系小学生恶搞",
        "docid": "7340985960152384015",
        "url": ""
    },
    {
        "title": "班主任一个月直播超百场？教师直播当严格限制",
        "docid": "7341320384542720546",
        "url": ""
    },
    {
        "title": "武汉10所顶尖小学，进去等于赢在教育起跑线！",
        "docid": "7327694898298110499",
        "url": ""
    },
    {
        "title": "中学生临时起意 交一份“公益”作业",
        "docid": "7341162553739575827",
        "url": ""
    },
    {
        "title": "多所985高校布局河南，但是河南更需要自己的985高校",
        "docid": "7316264995174859274",
        "url": ""
    },
    {
        "title": "教师掌掴小学生，家长怒了！担心孩子被不公平对待，这样一试便知",
        "docid": "7341303662389658127",
        "url": ""
    },
    {
        "title": "家长在群里怒怼班主任：你应该滚出教育界! 网友直呼太勇敢！",
        "docid": "7341567013300486682",
        "url": ""
    },
    {
        "title": "离谱 谁编的教材？秋天来了，麦子熟了，麦子被饱满的果实压弯了腰",
        "docid": "7341638486090465829",
        "url": ""
    },
    {
        "title": "我滴天啊！终于有人把“英语语法”整理出来了，记得收藏",
        "docid": "7340671620002071103",
        "url": ""
    },
    {
        "title": "张雪峰再上风口浪尖！深夜发文引热议，承认到美国做不起来…",
        "docid": "7341339454650843684",
        "url": ""
    },
    {
        "title": "查实！两个中学生炮制“中学班主任与女生恋爱”谣言，并由高校生传播。截图内容系他人聊天内容",
        "docid": "7341638015259132431",
        "url": ""
    },
    {
        "title": "背要这些英语语法，省点补习费，收藏起来让孩子学习，为你点赞",
        "docid": "7341603294316069414",
        "url": ""
    },
    {
        "title": "宁波贬值最快的不是房子，而是学历！无奈送外卖赚的都比上班多",
        "docid": "7340939000439800335",
        "url": ""
    },
    {
        "title": "感谢互联网博主带我长见识，很喜欢这种一辈子都翻不了身的感觉！",
        "docid": "7341628082413077003",
        "url": ""
    },
    {
        "title": "这届家长，在孩子身上弥补了童年的遗憾",
        "docid": "7341636817701274163",
        "url": ""
    },
    {
        "title": "贫穷，是对一个人最精准的教育",
        "docid": "7319853330086707762",
        "url": ""
    },
    {
        "title": "被誉为“984.5”的5所211大学，远超一般211，可媲美部分985",
        "docid": "7340132878241628684",
        "url": ""
    },
    {
        "title": "利川市教育局最新通报表扬",
        "docid": "7341407775811338778",
        "url": ""
    },
    {
        "title": "2023年学前教育和义务教育水平再度提升 高等教育人才培养不断优化",
        "docid": "7341589868504302115",
        "url": ""
    },
    {
        "title": "闹大了！殴打女学生的杨老师，“底裤”快被扒光，多部门联合调查",
        "docid": "7340940715507302931",
        "url": ""
    },
    {
        "title": "河南项城开学第一天让买书，县城只有一家书店有，家长连夜排队",
        "docid": "7340512563576488500",
        "url": ""
    },
    {
        "title": "是招聘还是讽刺？7000多家央国企开启春招，门槛却把大学生看笑了",
        "docid": "7341613459748307495",
        "url": ""
    },
    {
        "title": "哭不活了“点读机女孩”为保研熬夜患上脑瘤，学习到底是为了什么",
        "docid": "7341222931848577563",
        "url": ""
    },
    {
        "title": "心塞！大学生还没到学校就开始想家，这一代的亲子关系这么好吗？",
        "docid": "7340852443766833664",
        "url": ""
    },
    {
        "title": "燃爆了，研究生扩招火速登上热搜",
        "docid": "7341406902204645929",
        "url": ""
    },
    {
        "title": "这一次，殴打女学生的杨老师，被网友扒了个“底朝天”",
        "docid": "7341206828581274124",
        "url": ""
    },
    {
        "title": "郑强教授：你还记得有一个叫肖丽的女孩吗",
        "docid": "7319404827417526795",
        "url": ""
    },
    {
        "title": "惊喜！儿子的阅读理解几乎从不扣分，这帮助他成为真正的学霸",
        "docid": "7313703549337387570",
        "url": ""
    },
    {
        "title": "评论丨“研究生多到无宿舍可住”，社会力量可以有所作为",
        "docid": "7340594806348841526",
        "url": ""
    },
    {
        "title": "麓山国际实验学校4名足球小将入选国家集训队！",
        "docid": "7341012276046266914",
        "url": ""
    },
    {
        "title": "大火过后，全网都在心疼“寄宿生”，从小寄宿的孩子太可怜了",
        "docid": "7326549713786798626",
        "url": ""
    },
    {
        "title": "教育部：2023年全国小学招生1877.88万人，比上年增加176.5万人",
        "docid": "7341381625123062322",
        "url": ""
    },
    {
        "title": "在新疆，一不小心拍到了语文课本！",
        "docid": "7341379819235525139",
        "url": ""
    },
    {
        "title": "高途去年亏了700多万，董宇辉“小作文”风波后，捡漏涨的粉下单不给力",
        "docid": "7340966405124358694",
        "url": ""
    },
    {
        "title": "大幅增长！研究生招生人数未来6年将翻倍，教育开启全新篇章！",
        "docid": "7340810854981632538",
        "url": ""
    },
    {
        "title": "20年前的桂林形象大使，真美啊",
        "docid": "7332689014036005428",
        "url": ""
    },
    {
        "title": "刘元春：文科生太多了，有高校拿理工科的钱搞文科",
        "docid": "7341258352372236811",
        "url": ""
    },
    {
        "title": "一人说一个天坑专业！你和孩子踩坑了吗？网友：听人劝吃饱饭",
        "docid": "7341674142875566643",
        "url": ""
    },
    {
        "title": "香港女教师带全家移民英国，老公说:宁愿乞讨也不回国，现在如何",
        "docid": "7341330045858136612",
        "url": ""
    },
    {
        "title": "原生家庭的一直否定是在杀死孩子的精神生命！",
        "docid": "7339809084428354067",
        "url": ""
    },
    {
        "title": "笑晕了，中日韩三国语言日常用语，比如：你好！太有趣了",
        "docid": "7341661394057691667",
        "url": ""
    },
    {
        "title": "90后女教师仅仅工作两年，从白月光到油腻大婶，评论区笑死我了",
        "docid": "7341653267522748965",
        "url": ""
    },
    {
        "title": "不要相信普通二本没用了！今天就告诉你，本科学历的几大重要作用",
        "docid": "7315413270733718025",
        "url": ""
    },
    {
        "title": "“大学生直播”不正之风急需整治",
        "docid": "7341557547658314274",
        "url": ""
    },
    {
        "title": "全国400所重点大学最新排名",
        "docid": "7341610632506311218",
        "url": ""
    },
    {
        "title": "越闹越大！家长和老师班级群互怼，孩子的身体重要还是学习重要！",
        "docid": "7341446985297265193",
        "url": ""
    },
    {
        "title": "无人问津！江苏省事业编考试至今依然有很多职位0人过审！",
        "docid": "7341617974002319907",
        "url": ""
    },
    {
        "title": "家长怒怼老师:“自家孩子不上早课，要睡到自然醒！”评论区炸了",
        "docid": "7341440714963862043",
        "url": ""
    },
    {
        "title": "万万没想到，英语语法原来这么简单，家长再忙也要收藏给孩子看。",
        "docid": "7329542919541916194",
        "url": ""
    },
    {
        "title": "武汉高校合并最失败典型，连吞三所211却落选985，也未入选双一流",
        "docid": "7341661225358918155",
        "url": ""
    },
    {
        "title": "现场人山人海！重庆一学院获批更名为大学，大批校友连夜回校留影",
        "docid": "7309290517702181386",
        "url": ""
    },
    {
        "title": "生命的选择：点读机女孩高君雨勇敢面对脑瘤与高三之间的挣扎\"",
        "docid": "7341346493632135731",
        "url": ""
    },
    {
        "title": "百万学子的西安，到底有多少个大学城？",
        "docid": "7340867999353537024",
        "url": ""
    },
    {
        "title": "教育部下发通知，考研将迎来大改革，将扩大专硕招生规模",
        "docid": "7341410477484081676",
        "url": ""
    },
    {
        "title": "五大学科竞赛全国百强中学排行，北上广浙川重强势，湘军跌出前十",
        "docid": "7341343301586829858",
        "url": ""
    },
    {
        "title": "天津最容易就业的6所大学，都是用人单位眼中的香饽饽，值得关注",
        "docid": "7331970089673310735",
        "url": ""
    },
    {
        "title": "喜讯！荆州市一区、三校分别入选国家级、省级名单↓↓↓",
        "docid": "7341639896819319323",
        "url": ""
    },
    {
        "title": "评论丨不上第一节早课睡到自然醒，家长的焦虑如何消除",
        "docid": "7341683123593150985",
        "url": ""
    },
    {
        "title": "闹大了“人民网评给教师减负”冲上热搜，我却笑死在网友评论区里",
        "docid": "7341210999103619599",
        "url": ""
    },
    {
        "title": "闹大了！研究生太多无宿舍可住，生活费比学费多6倍，网友热议",
        "docid": "7340857613988561408",
        "url": ""
    },
    {
        "title": "初中妹妹8门成绩总共66分，硕士哥哥吐槽引爆笑，网友：句句戳心",
        "docid": "7329025307179287094",
        "url": ""
    },
    {
        "title": "家长怒怼老师：自家孩子不上早课，睡到自然醒！教育局回应来了！",
        "docid": "7341560978553061940",
        "url": ""
    },
    {
        "title": "家长在微信群怼老师，称孩子不上早课要睡到自然醒?网友：支持",
        "docid": "7341643279701983759",
        "url": ""
    },
    {
        "title": "笑疯了，开学后小学生给老师拜年，老师给的“大红包”太抢眼了。",
        "docid": "7341603555344237106",
        "url": ""
    },
    {
        "title": "重庆29岁女老师直播挣钱，月次数超百场，教育局回应，评论区炸锅",
        "docid": "7341579651581805071",
        "url": ""
    },
    {
        "title": "上海一家长怒怼老师！称孩子比学习重要！以后所有的早读课都不上",
        "docid": "7341453682283774491",
        "url": ""
    },
    {
        "title": "大快人心，湘潭市教师涉嫌暴力教学，湘乡市教育局公布结果！",
        "docid": "7340909250551956002",
        "url": ""
    },
    {
        "title": "教育界迎来巨变，硕士招生60%，博士80%，真要全民研究生博士生？",
        "docid": "7341623597145784895",
        "url": ""
    },
    {
        "title": "绩效考核，领导和普通老师谁拿的多？到底有没有朝一线教师倾斜？",
        "docid": "7340618055388693011",
        "url": ""
    },
    {
        "title": "中新教育丨最火爆专业成“天坑”，土木专业为何不香了？",
        "docid": "7341684598299148819",
        "url": ""
    },
    {
        "title": "项城开学第一天老师让买书，县城只有一家书店有，家长连夜排队",
        "docid": "7340676196445389362",
        "url": ""
    },
    {
        "title": "央媒发声！整个学校受牵连，白衣老师也跑不了，校长被就地免职",
        "docid": "7341683181873709618",
        "url": ""
    },
    {
        "title": "女子怀孕八个月参加考研初试，获得学院专业排名第一，在前天顺利生下宝宝，老公惊叹：双喜临门!笔试第一!",
        "docid": "7340895309566149130",
        "url": ""
    },
    {
        "title": "越闹越大！学校要求买书，全城仅一家书店有售，背后原因引人深思",
        "docid": "7341575716582031882",
        "url": ""
    },
    {
        "title": "拒绝上早课！家长微信群内与老师起争执称：孩子“睡饱”更重要！",
        "docid": "7341455711164973605",
        "url": ""
    },
    {
        "title": "教育风向彻底变了，家长们要准备好！",
        "docid": "7341258848319406629",
        "url": ""
    },
    {
        "title": "拍摄视频的实习老师错了吗？她将何去何从？",
        "docid": "7341542292467237416",
        "url": ""
    },
    {
        "title": "“点读机女孩”患脑癌！走不出高三状态，为保研熬夜拿咖啡当饭吃",
        "docid": "7341659696622862860",
        "url": ""
    },
    {
        "title": "原来这些专业根本考不上公务员，涨知识了，收藏起来看看吧",
        "docid": "7341678671528510004",
        "url": ""
    },
    {
        "title": "新洲5条通学定制公交上线，学生放学不再拼车",
        "docid": "7341655445670789647",
        "url": ""
    },
    {
        "title": "弟弟的同桌才上初一，看起来像18的小姐姐，我承认我羡慕了！",
        "docid": "7341504042306126351",
        "url": ""
    },
    {
        "title": "下课变网红？重庆一教师月直播超百场引争议，教委介入",
        "docid": "7341694796307743273",
        "url": ""
    },
    {
        "title": "山西一学校多名学生腹泻！此前汤勺、菜勺中检出……",
        "docid": "7341679942557499919",
        "url": ""
    },
    {
        "title": "机器都要休息 家长病的不轻 高中生这么多年没有双休日",
        "docid": "7340285883158888986",
        "url": ""
    },
    {
        "title": "不玩手机时，我培养了16个低成本爱好。建议收藏",
        "docid": "7341498798260322854",
        "url": ""
    },
    {
        "title": "德州小学门口的惨痛教训：谁来保护我们的孩子？",
        "docid": "7341698879177671220",
        "url": ""
    },
    {
        "title": "为了给孩子一个好的教育，你都做了哪些努力？",
        "docid": "7341306942255890959",
        "url": ""
    },
    {
        "title": "初中取消晚自习？教育界的探讨引发热议！",
        "docid": "7341697273850102284",
        "url": ""
    },
    {
        "title": "“多巴胺”的“胺”不读ān？",
        "docid": "7319864430580597258",
        "url": ""
    },
    {
        "title": "没读过高中也没教过高中的人却当了高中校长，这样的操作可行吗？",
        "docid": "7341579122642747939",
        "url": ""
    },
    {
        "title": "小学生看图写话成“恐怖小说”，父亲表示我会谢，老师看完求放过",
        "docid": "7327158516291125811",
        "url": ""
    },
    {
        "title": "曾都区淅河镇中心学校召开2024年春季开学教学教研工作会议",
        "docid": "7341581954204254770",
        "url": ""
    },
    {
        "title": "2023年学前教育和义务教育水平再度提升 高等教育人才培养不断优化",
        "docid": "7341588022481666570",
        "url": ""
    },
    {
        "title": "家长微信群怼老师，称孩子“不上早课要睡到自然醒”?教育局回应",
        "docid": "7341553314825273910",
        "url": ""
    },
    {
        "title": "离谱！家长被要求学生放学时到校值班 家长苦不堪言 教育局：不允许",
        "docid": "7341576178819629606",
        "url": ""
    },
    {
        "title": "同学聚会“奇怪现象”：4类同学逢叫必到，3类同学咋请都请不来",
        "docid": "7341666905247908364",
        "url": ""
    },
    {
        "title": "原来学习英语这么简单！ ​ ​​​",
        "docid": "7341319781956190760",
        "url": ""
    },
    {
        "title": "闵行初中，不得不避开的七个学校！",
        "docid": "7341631910181290535",
        "url": ""
    },
    {
        "title": "厦门18岁高中生李柘远，拒绝清华保送",
        "docid": "7341673429151580713",
        "url": ""
    },
    {
        "title": "外地户口家庭不要随意接孩子来深圳上学",
        "docid": "7312784089617334810",
        "url": ""
    },
    {
        "title": "当老师找我要作业时",
        "docid": "7341585890697413146",
        "url": ""
    },
    {
        "title": "45分钟家长会，前排家长翻看奖状6次…拍摄家长：我一直数着呢",
        "docid": "7312281630205772327",
        "url": ""
    },
    {
        "title": "女子雪地里脱衣下跪，只为求丈夫原谅，老公甩开她毫不心软:)",
        "docid": "7341444172492177935",
        "url": ""
    },
    {
        "title": "从小学视角来看考985有多难",
        "docid": "7310197060463559168",
        "url": ""
    },
    {
        "title": "这是对于艺术的解说，是对于人生的思考，是父亲对于女儿无限的爱",
        "docid": "7341723468838552083",
        "url": ""
    },
    {
        "title": "真离谱了，学校要求家长轮流去校门口执勤当保安，评论区炸裂了！",
        "docid": "7341605902014923316",
        "url": ""
    },
    {
        "title": "数学98分？民办学校考试太假了！家长果断将女儿转回老家",
        "docid": "7309873504407978505",
        "url": ""
    },
    {
        "title": "【财眼观两会】田轩代表：将金融伦理教育纳入高校金融专业必修课",
        "docid": "7341719148743164467",
        "url": ""
    },
    {
        "title": "土木工程专业：曾经风靡的选择，如今的沉寂与出路",
        "docid": "7341712422539477539",
        "url": ""
    },
    {
        "title": "越闹越大！湖南一老师打骂学生的事件火遍全网，引网友为其发声",
        "docid": "7341281444653761039",
        "url": ""
    },
    {
        "title": "全国高校巡剪之武汉大学爆改男大，助力表白！#记录真实生活",
        "docid": "7312405527378526774",
        "url": ""
    },
    {
        "title": "比较10³⁶与9³⁷的大小？学霸的解法让老师眼前一亮！",
        "docid": "7340249753910936101",
        "url": ""
    },
    {
        "title": "国家金融管理总局录用人员来自哪些大学？择校参考",
        "docid": "7341043010555576866",
        "url": ""
    },
    {
        "title": "大事件！河南高考即将迎来新变革！是机遇还是攻坚战，河南人真难",
        "docid": "7341441124474700322",
        "url": ""
    },
    {
        "title": "千万别让罗永浩遇上罗翔：两人互戳不留情面，言语犀利竟难分胜负",
        "docid": "7328425319982727707",
        "url": ""
    },
    {
        "title": "河南高三理科，家长不懂报考啊，这么高分张老师捉急怕耽误孩子🥲",
        "docid": "7309452633109561908",
        "url": ""
    },
    {
        "title": "谁劝都别听，替国家求你了#物理 #张雪峰 #专业选择 #",
        "docid": "7327180080294298123",
        "url": ""
    },
    {
        "title": "你们别总觉得国内这不行那不好，没你想的那么黑暗",
        "docid": "7319647284520550938",
        "url": ""
    },
    {
        "title": "12分钟拉丁音乐",
        "docid": "7341723717380243978",
        "url": ""
    },
    {
        "title": "对比2016和2023年版小学课本，差别真大！一起来玩“找不同”！",
        "docid": "7341371050170761765",
        "url": ""
    },
    {
        "title": "张雪峰观点分专业汇总，值得收藏，分享给孩子",
        "docid": "7341417470106255884",
        "url": ""
    },
    {
        "title": "如何看待当代中小学生手机不离身现象",
        "docid": "7341385824560841257",
        "url": ""
    },
    {
        "title": "小学生家长称自家孩子不上早课睡到自然醒后续:教育局已回应",
        "docid": "7341648318491230772",
        "url": ""
    },
    {
        "title": "女生花5块钱买“草凤凰”，一觉醒来大变样，随后一招网友直呼妙",
        "docid": "7313088021396455948",
        "url": ""
    },
    {
        "title": "罗翔不愧是法律界逻辑鬼才，一句话给我定两个罪，谁来都得判两年",
        "docid": "7309788718972764681",
        "url": ""
    },
    {
        "title": "几何压轴题：全班一半同学交白卷，真的那么难吗？",
        "docid": "7316001972262437416",
        "url": ""
    },
    {
        "title": "比较20¹⁹与19²⁰的大小？听说有人算了整整三页草稿纸！",
        "docid": "7313926572216418856",
        "url": ""
    },
    {
        "title": "16岁读博的神童张炘炀，如今成了无业啃老族，却比很多人活得清醒",
        "docid": "7340558293699740169",
        "url": ""
    },
    {
        "title": "#张雪峰 老师绞尽脑汁为农民孩子想出路，欲言又止赶紧道歉",
        "docid": "7320927432645706274",
        "url": ""
    },
    {
        "title": "中文逐渐失去加密功能，不能在老外面前乱吐槽，他们可能听得懂！",
        "docid": "7332802542776255016",
        "url": ""
    },
    {
        "title": "中国最难懂的云南话： 徐志胜听得一头雾水，苏醒成功破译云南话",
        "docid": "7319424034641609253",
        "url": ""
    },
    {
        "title": "上海蘑菇高联刷题班",
        "docid": "7341597641555313164",
        "url": ""
    },
    {
        "title": "你们00后老师不准出卷子了 ​​​",
        "docid": "7334214138564280873",
        "url": ""
    },
    {
        "title": "学校逼出了你的哪些极限哈哈哈哈哈 ​",
        "docid": "7318172841684337215",
        "url": ""
    },
    {
        "title": "小学生是怎么把「捡破烂儿」做到全国统一的，太真实了，哈哈哈",
        "docid": "7309670987291935271",
        "url": ""
    },
    {
        "title": "八门成绩总分66，研一哥哥帮妹妹开家长会，吐槽想找地缝钻进去",
        "docid": "7328752118494741042",
        "url": ""
    },
    {
        "title": "快评丨“小时候老师揍得比这个狠10倍”背后反映什么问题",
        "docid": "7340953033485992483",
        "url": ""
    },
    {
        "title": "语文及格39人，数学及格47人，都及格的有34人，全班共有多少人?",
        "docid": "7329532000786711052",
        "url": ""
    },
    {
        "title": "陕西高一物化生，语文不是太好怎么办？#张雪峰老师",
        "docid": "7318032080430957108",
        "url": ""
    },
    {
        "title": "盘点校园运动会上女生的高光时刻，一出场就是焦点！",
        "docid": "7314536310205743653",
        "url": ""
    }
]