[
    {
        "title": "西北大学衰落原因与破局之策",
        "docid": "7326146513183916578",
        "url": ""
    },
    {
        "title": "和毛不易一起演出的他们，是来自湖南的田野诗班",
        "docid": "7333598475889803816",
        "url": ""
    },
    {
        "title": "29所高校撤销42个研究生学位点",
        "docid": "7315741801598960179",
        "url": ""
    },
    {
        "title": "深圳初中，每周5节体育课，物理、化学每周3节，这样课时是否合理",
        "docid": "7332765579113267766",
        "url": ""
    },
    {
        "title": "👏👏一二年级每日晨读全篇67段🔥",
        "docid": "7333469969785471523",
        "url": ""
    },
    {
        "title": "为什么一些人反感甚至鄙视张维为教授？不外三个方面的原因",
        "docid": "7319901705640870463",
        "url": ""
    },
    {
        "title": "农村小学寄宿生超900万：当让留守儿童与父母同进城、在一起 | 快评",
        "docid": "7333617225557492275",
        "url": ""
    },
    {
        "title": "解决孩子假期“看护难”问题，海南新华书店来帮你",
        "docid": "7333431479584195107",
        "url": ""
    },
    {
        "title": "贫穷，是对一个人最精准的教育",
        "docid": "7319853330086707762",
        "url": ""
    },
    {
        "title": "招聘丨9007人！公务员！应届生可报",
        "docid": "7332799809952236041",
        "url": ""
    },
    {
        "title": "当代父母最大的成功：给孩子指明4条出路，代代安稳",
        "docid": "7320892843260690978",
        "url": ""
    },
    {
        "title": "公务员体检标准 2023 正式版",
        "docid": "7305931706123534859",
        "url": ""
    },
    {
        "title": "北京3所高校入选一流网络安全学院建设示范项目高校",
        "docid": "7332731503035941413",
        "url": ""
    },
    {
        "title": "2024年全国公办本科大学最新名单公布，真正代表各省教育水平",
        "docid": "7321357097440969228",
        "url": ""
    },
    {
        "title": "龙年氛围感拉满，华理开启春节留校学生“花式宠”",
        "docid": "7332813359139930650",
        "url": ""
    },
    {
        "title": "天津市内6区的教育资源",
        "docid": "7332758825160016447",
        "url": ""
    },
    {
        "title": "普通高等学校运动训练 武术与民族传统体育专业体育专项考试方法与评分标准（2024版）",
        "docid": "7333420877935198783",
        "url": ""
    },
    {
        "title": "2024年浙江省宁波市奉化区“我与书记面对面”奉籍学子座谈会顺利举行",
        "docid": "7333517557607580186",
        "url": ""
    },
    {
        "title": "15年前，那个被“冒名顶替上大学”的湖南女孩罗彩霞，后来如何了",
        "docid": "7326818586247315983",
        "url": ""
    },
    {
        "title": "当代父母最明智的选择：选对3件事，让子女脱离“底层人”",
        "docid": "7321740713908584979",
        "url": ""
    },
    {
        "title": "浙江明确了！初中可在上课日晚上开设自习班！",
        "docid": "7333146564292837898",
        "url": ""
    },
    {
        "title": "安徽为什么有四所师范大学？",
        "docid": "7332362628570104370",
        "url": ""
    },
    {
        "title": "安徽省高校2023年档次排名：52所大学分8档，安徽财经大学居第3档",
        "docid": "7300849790999396891",
        "url": ""
    },
    {
        "title": "家有研究生，感受各不同",
        "docid": "7310508033271448103",
        "url": ""
    },
    {
        "title": "奖励性绩效工资平均发放不合理，但基础性绩效按职称发放更不恰当",
        "docid": "7324534066446303779",
        "url": ""
    },
    {
        "title": "黑龙江省中小学教师职称评审条件（一级，高级，正高级）",
        "docid": "7319742988417073698",
        "url": ""
    },
    {
        "title": "泰国艺术大学中式文艺晚会迎春节",
        "docid": "7332739904763773476",
        "url": ""
    },
    {
        "title": "火出圈的新疆退休物理老师袁德生：激发学生兴趣是我教学第一准则",
        "docid": "7333494722533032498",
        "url": ""
    },
    {
        "title": "邵阳市第七中学开展“与爱同行 共迎春节”志愿服务",
        "docid": "7333400390131663398",
        "url": ""
    },
    {
        "title": "中国刑事警察学院2023年—2021年近3年各省专业分汇总！",
        "docid": "7332488089329631780",
        "url": ""
    },
    {
        "title": "学习、玩乐、健身……这个街道的孩子寒假欢乐多~",
        "docid": "7333628567902831123",
        "url": ""
    },
    {
        "title": "一份温情送至宋文武家属",
        "docid": "7333600473813500453",
        "url": ""
    },
    {
        "title": "江苏中小学生花式度寒假，“玩”中有“学”乐成长",
        "docid": "7332733620106936895",
        "url": ""
    },
    {
        "title": "描写春节的好词、好句、好段、古诗句，寒假写作文能用得上！",
        "docid": "7333434159618605605",
        "url": ""
    },
    {
        "title": "“中华文化进校园”活动走进万象白云碧国际学校",
        "docid": "7333046307864822299",
        "url": ""
    },
    {
        "title": "影响六年后小升初！2024年北京两区对口直升有调整，各区名单汇总",
        "docid": "7332703203936551465",
        "url": ""
    },
    {
        "title": "真实案例丨赴外留学要增强反间防谍意识",
        "docid": "7332702570302980647",
        "url": ""
    },
    {
        "title": "新春行花街 开在大学校园里的迎春花市",
        "docid": "7333408763489419828",
        "url": ""
    },
    {
        "title": "新春送福、实践共行！普陀这里打造“节日课堂”",
        "docid": "7333516853295186495",
        "url": ""
    },
    {
        "title": "语文学习有套路？上中特级教师樊新强提醒：别把学语文的路“走窄了”！",
        "docid": "7332813345579844106",
        "url": ""
    },
    {
        "title": "我国最好的10所工科大学，哈工大位列第三，天津大学上榜",
        "docid": "7311649196883444263",
        "url": ""
    },
    {
        "title": "初一数学——平行线与相交线重点题型训练汇编",
        "docid": "7333626782992220699",
        "url": ""
    },
    {
        "title": "文科生，高考志愿填报，可以选择什么文科专业？",
        "docid": "7310657960764572179",
        "url": ""
    },
    {
        "title": "中北大学2023年各省各科类录取分数情况统计",
        "docid": "7326820026659930662",
        "url": ""
    },
    {
        "title": "出京不可办！24年幼升小北京居住证断签无效，与实际居住地址一致",
        "docid": "7333038155274732084",
        "url": ""
    },
    {
        "title": "别具特色的中文体验课",
        "docid": "7333401792287441471",
        "url": ""
    },
    {
        "title": "博士生培养调查：按期毕业难，有人读了七八年",
        "docid": "7304811202075689491",
        "url": ""
    },
    {
        "title": "文学文享（27）：精读期刊论文扩展和结论部分",
        "docid": "7333415880258257445",
        "url": ""
    },
    {
        "title": "（新春见闻）华侨大学留校师生共享暖心年夜饭",
        "docid": "7333275716601037375",
        "url": ""
    },
    {
        "title": "教育中的过度“留痕”就是一种形式主义，拿着“高射炮打蚊子”",
        "docid": "7333517570567307810",
        "url": ""
    },
    {
        "title": "仅一个星期！我国两位“顶级”教授突然离世，值得引起重视",
        "docid": "7313773001651470887",
        "url": ""
    },
    {
        "title": "二年级开学必备神器🔥家长在家同步报听写 课堂上再也不怕丢分啦",
        "docid": "7333631172134453800",
        "url": ""
    },
    {
        "title": "新年新气象！深圳音乐学院项目建设“加速跑”",
        "docid": "7333587453762126355",
        "url": ""
    },
    {
        "title": "刚刚！怀化“田野诗班”的孩子们上了春晚舞台",
        "docid": "7333599426948743707",
        "url": ""
    },
    {
        "title": "双语海报丨“豫”跃龙门，快来Pick你的专属新年龙！",
        "docid": "7333640719452062262",
        "url": ""
    },
    {
        "title": "阳信县流坡坞镇：“一书一页总关情 浓浓关爱暖心灵”阅读活动",
        "docid": "7333537087289164298",
        "url": ""
    },
    {
        "title": "上海2024年增设9个五年一贯制职业教育专业！名单公布→",
        "docid": "7333563073095582249",
        "url": ""
    },
    {
        "title": "太原创新开展寒假托管课堂 缓解家长假期“带娃难”困扰",
        "docid": "7333373593621152307",
        "url": ""
    },
    {
        "title": "我的新计划",
        "docid": "7333636322408448521",
        "url": ""
    },
    {
        "title": "女大学生打响寒假反击枪，5:40做饭喊父母起床，评论区笑不活了",
        "docid": "7331957461832057370",
        "url": ""
    },
    {
        "title": "吕德文：献给八零后的“中年礼”，评央视2024年龙年春晚",
        "docid": "7333659477083980328",
        "url": ""
    },
    {
        "title": "公务员辞去公职，这些情形不予批准",
        "docid": "7314955527325417984",
        "url": ""
    },
    {
        "title": "小学“零起点”入学之困：幼小衔接正确的“打开方式”在哪",
        "docid": "7331919872605471286",
        "url": ""
    },
    {
        "title": "大火过后，全网都在心疼“寄宿生”，从小寄宿的孩子太可怜了",
        "docid": "7326549713786798626",
        "url": ""
    },
    {
        "title": "寒假百景｜二十余年，“压岁言”成为上海对外经贸大学寒假作业的必答题",
        "docid": "7333422405727126031",
        "url": ""
    },
    {
        "title": "公示！江苏这些高校拟新增硕博点",
        "docid": "7332684645069079077",
        "url": ""
    },
    {
        "title": "优秀作文欣赏：今天是除夕",
        "docid": "7333404766694801956",
        "url": ""
    },
    {
        "title": "突破自我，做最好的自己",
        "docid": "7329140372813316642",
        "url": ""
    },
    {
        "title": "返乡大学生回村带娃 江西铜鼓打造公益寒假托管班",
        "docid": "7333409527305372200",
        "url": ""
    },
    {
        "title": "精读《基于模糊软集合的企业服务采购决策模型研究》第五章",
        "docid": "7333565919832949260",
        "url": ""
    },
    {
        "title": "这个寒假，同学们争做“节能小当家”",
        "docid": "7333627075859055143",
        "url": ""
    },
    {
        "title": "“阅”享成长丨济南高新区黄金谷学校五（一）班阅读活动来了！",
        "docid": "7333417567543214630",
        "url": ""
    },
    {
        "title": "南通海安明道小学教育集团举行“我们的节日•春节”项目化实践活动",
        "docid": "7333511855237071394",
        "url": ""
    },
    {
        "title": "广东省广州市白云中学2024届高三上学期期中数学试题",
        "docid": "7333479210998202919",
        "url": ""
    },
    {
        "title": "大连热心人，助力寻找小学课文《鲸》的作者郝志东（于功）的近况",
        "docid": "7332872929467810358",
        "url": ""
    },
    {
        "title": "四川省成都市第七中学2024届高三上学期期末考试数学试题及解析",
        "docid": "7333448873781953064",
        "url": ""
    },
    {
        "title": "书香进校园！王俊凯联合未来网于重庆捐建5所儿童图书馆",
        "docid": "7333484924739289626",
        "url": ""
    },
    {
        "title": "北大在郑设立研究院引发关注 布局河南 名牌高校相“中”了啥",
        "docid": "7333012038899417641",
        "url": ""
    },
    {
        "title": "门槛低、时间短！“速成博士”泛滥，亟须稳妥应对",
        "docid": "7329492778084860425",
        "url": ""
    },
    {
        "title": "中信银行潍坊分行联合潍坊文华学校成功举办2024年“少年行”寒假社会实践活动",
        "docid": "7333308854513549839",
        "url": ""
    },
    {
        "title": "永州市中医医院推行“6S”管理 提升学生住宿环境品质",
        "docid": "7333581376232964623",
        "url": ""
    },
    {
        "title": "张国栋（栋梁）造价设计：金属结构工程材料消耗量计算",
        "docid": "7331569760704545280",
        "url": ""
    },
    {
        "title": "迎新春，江门幼专飘来“古突”香｜新春走基层",
        "docid": "7333557012733346343",
        "url": ""
    },
    {
        "title": "从“还不够好”到“还可以更好”",
        "docid": "7332951773893689856",
        "url": ""
    },
    {
        "title": "河北中考最新试卷结构公布！沧州2022年秋季入学的初一学生将执行",
        "docid": "7332716614272041487",
        "url": ""
    },
    {
        "title": "情系学子 意暖寒冬|范集中学高一年级寒假走访活动掠影",
        "docid": "7333409268021953034",
        "url": ""
    },
    {
        "title": "未来北京学位缺口约40万，资源“短板”如何补齐？",
        "docid": "7333065643618583049",
        "url": ""
    },
    {
        "title": "东莞滨海湾未来学校将于今年秋季正式开学",
        "docid": "7332775339908760103",
        "url": ""
    },
    {
        "title": "19年安徽学霸备战高考，手上长奇怪肉疙瘩，看病后哭喊为什么是我",
        "docid": "7317977704815395378",
        "url": ""
    },
    {
        "title": "行测常识判断-物理常识（四）民谚俗语中的物理常识",
        "docid": "7332476019347341876",
        "url": ""
    },
    {
        "title": "常州一校长，火了！",
        "docid": "7332192906222207528",
        "url": ""
    },
    {
        "title": "太原这里将新建36班小学、72班中学 最新设计方案出炉",
        "docid": "7332742026766615066",
        "url": ""
    },
    {
        "title": "深入挖掘美育在思政教育中的多元价值",
        "docid": "7333112869875139106",
        "url": ""
    },
    {
        "title": "学校请机构培训体育中考2300元/人？河南汤阴：已叫停家委会会议",
        "docid": "7332726444642189864",
        "url": ""
    },
    {
        "title": "太原市尖草坪区：2024寒假儿童关爱服务活动正在进行时",
        "docid": "7333528566124364307",
        "url": ""
    },
    {
        "title": "合肥市第四十六中学海恒分校2023级志愿者服务队开展寒假实践活动",
        "docid": "7333180032023740991",
        "url": ""
    },
    {
        "title": "南京师范大学中北学院：口述史实践教学打造“大思政课”创新模式",
        "docid": "7333472386979037734",
        "url": ""
    },
    {
        "title": "上海市教委明确！事关寒假作业",
        "docid": "7333570850706752041",
        "url": ""
    },
    {
        "title": "孩子进入高中，假期是上辅导班还是在家复习 ，以我的经验告诉大家",
        "docid": "7307623158939861540",
        "url": ""
    },
    {
        "title": "课时分配致小科目无法完成教学？深圳市教育局：将印发新课程计划",
        "docid": "7333108024674615834",
        "url": ""
    },
    {
        "title": "2024财经类高校排名：贸大第3，东北财经跌出前5",
        "docid": "7333701957632197129",
        "url": ""
    },
    {
        "title": "阳信一中师生员工举行献爱心捐款活动",
        "docid": "7333160547297706534",
        "url": ""
    },
    {
        "title": "彩虹般的未来",
        "docid": "7330067953804706340",
        "url": ""
    },
    {
        "title": "家长篇，高一九科多少分以下家长要注意，分班考比期中考要难",
        "docid": "7301659655217349132",
        "url": ""
    },
    {
        "title": "长沙最好的5所小学，师资雄厚实力强悍，被誉为“五朵金花”小学",
        "docid": "7323525167240757769",
        "url": ""
    },
    {
        "title": "吐槽一下现在初中生考试电脑阅卷的问题",
        "docid": "7302261707022582309",
        "url": ""
    },
    {
        "title": "桂林“部级精品课”数量广西第一",
        "docid": "7333494094516109874",
        "url": ""
    },
    {
        "title": "25分科代表",
        "docid": "7333027342186725897",
        "url": ""
    },
    {
        "title": "上网遇到不良信息？来看看这份避坑指南",
        "docid": "7304565545905881634",
        "url": ""
    },
    {
        "title": "笑不活了！为什么江苏的家长已经躲被窝流眼泪了，笑死在评论区",
        "docid": "7325834661539234304",
        "url": ""
    },
    {
        "title": "家长强烈呼吁学校告知孩子考试成绩。网友：当初反对的也是你们！",
        "docid": "7326883913870475839",
        "url": ""
    },
    {
        "title": "还没中考，初中优秀生未中考先被高中“挖走”，提前学习高中课程",
        "docid": "7333621330040668712",
        "url": ""
    },
    {
        "title": "通榆县迎新街道繁荣社区联合大学生志愿者开展“童贺新春”主题活动",
        "docid": "7333249995841225235",
        "url": ""
    },
    {
        "title": "这个寒假，“虹孩儿”走街串巷，寻访家门口的变化",
        "docid": "7333370962769297954",
        "url": ""
    },
    {
        "title": "今年河北省将新增体育传统特色学校561所",
        "docid": "7332640573662265865",
        "url": ""
    },
    {
        "title": "​南平各地相继举办大学生“返家乡”社会实践活动",
        "docid": "7333411792037102080",
        "url": ""
    },
    {
        "title": "“Dragon”还是“Loong”？中国龙怎么译？",
        "docid": "7333460512280035866",
        "url": ""
    },
    {
        "title": "笑肚子疼！大学生回家过年有多卑微？牛：你什么档次和我睡一个屋",
        "docid": "7332734387543179803",
        "url": ""
    },
    {
        "title": "闹大了！张雪峰建议大学举行入学考，网友集体破防，评论区炸开锅",
        "docid": "7333486707842613810",
        "url": ""
    },
    {
        "title": "体育老师：这节我上，打雪仗，去不？！",
        "docid": "7311622123507433995",
        "url": ""
    },
    {
        "title": "探秘狮城丨济南高新一实验八年级学生赴新加坡研学纪实",
        "docid": "7333417553559110163",
        "url": ""
    },
    {
        "title": "翱翔天际，拥抱蓝天——走进民航招飞世界",
        "docid": "7311633382004261428",
        "url": ""
    },
    {
        "title": "影视+互联网，融合发展助推河北文学“出圈”",
        "docid": "7333418957136757288",
        "url": ""
    },
    {
        "title": "新时代，我在中国｜尼日尔留学生西马：与中国的“武缘",
        "docid": "7318573060528112179",
        "url": ""
    },
    {
        "title": "教育风云再起：改革浪潮下的教师命运引热议",
        "docid": "7333549332131578403",
        "url": ""
    },
    {
        "title": "在陕留学生感受坐高铁过中国年的浓浓年味 同心唱祝福 欢乐迎新年",
        "docid": "7331192343679009289",
        "url": ""
    },
    {
        "title": "亿缕阳光 | 提灯引路 育梦成光",
        "docid": "7303730408288862772",
        "url": ""
    },
    {
        "title": "【带娃向幸福出发】亲子烹饪迎新年，自己动手制作的豆腐圆子真香！",
        "docid": "7333542942390551075",
        "url": ""
    },
    {
        "title": "崇明向善，德润人心，她们让文明之花绽放、榜样力量激荡！",
        "docid": "7333148385615479305",
        "url": ""
    },
    {
        "title": "好歌赏析，听歌学英语 — Between Fathers & Sons 父亲们与儿子们之间",
        "docid": "7326742806880322085",
        "url": ""
    },
    {
        "title": "脑筋急转弯100个，开心又益智，过年跟孩子一起玩（后面附答案）",
        "docid": "7331281707540628019",
        "url": ""
    },
    {
        "title": "东阿一中为教师举办集体生日会",
        "docid": "7333446936718000694",
        "url": ""
    },
    {
        "title": "如何帮助孩子培养阅读习惯",
        "docid": "7333064710784680483",
        "url": ""
    },
    {
        "title": "我为“双碳”献一策①丨水质变化“藻”知道、“海绵校园”如何建设……沪上学子为“生态环境与生物多样性”出谋划策",
        "docid": "7333076988196045349",
        "url": ""
    },
    {
        "title": "2021-2024年教育部批准的本科高校更名(37所)",
        "docid": "7333072180781089290",
        "url": ""
    },
    {
        "title": "收藏！2024年度山东省人事考试计划出炉！",
        "docid": "7333531045075976730",
        "url": ""
    },
    {
        "title": "回顾｜让文艺浸润孩子心灵，第二季“小小艺评家”圆满收官",
        "docid": "7333435219938394665",
        "url": ""
    },
    {
        "title": "延吉1家单位被评为省级家庭亲子阅读体验基地",
        "docid": "7333522711954031167",
        "url": ""
    },
    {
        "title": "《亲子阅读•家》——“书香墨香迎新春”活动成功举办",
        "docid": "7333394370714796553",
        "url": ""
    },
    {
        "title": "省级​“星级食堂”学校名单公示 东营8所学校上榜",
        "docid": "7333022262288843264",
        "url": ""
    },
    {
        "title": "过年后，考研查分前就有大量调剂信息出现？究竟是为何？",
        "docid": "7333735618574369332",
        "url": ""
    },
    {
        "title": "研究生 800 工资，被要求上交 700，劳务费发放竟成导师",
        "docid": "7333263299791815179",
        "url": ""
    },
    {
        "title": "孩子长大后过得好不好，童年早有暗示",
        "docid": "7332412256380109353",
        "url": ""
    },
    {
        "title": "阳信县流坡坞镇“滨滨学堂”儿童关爱公益活动正式开课",
        "docid": "7333537087997805096",
        "url": ""
    },
    {
        "title": "福建新增7所省一级达标高中！省教育厅公布最新评估结果",
        "docid": "7333238217266741771",
        "url": ""
    },
    {
        "title": "宋清辉：宋昊然在外漂泊 过年也失去了以往的意义 陪伴一程 挂念一生",
        "docid": "7333422225824989746",
        "url": ""
    },
    {
        "title": "女子接认识一天的相亲对象下班，见对方穿白大褂瞬间沦陷：就他了",
        "docid": "7327998496689095207",
        "url": "https://www.ixigua.com/7327998496689095207"
    },
    {
        "title": "过年了，采购烟花｜我的快乐寒假",
        "docid": "7333402447219802658",
        "url": ""
    },
    {
        "title": "“语”见假期，“语”见美好 ——泗洪县衡山路实验学校",
        "docid": "7333579212227625523",
        "url": ""
    },
    {
        "title": "在宝体，当恶犯大叔再次遇到恶犯大王！只有魔法可以击败魔法了！",
        "docid": "7330077590113550889",
        "url": "https://www.ixigua.com/7330077590113550889"
    },
    {
        "title": "33岁“北大韦神”春运回家！提大包小包如农民工，小动作引发热议",
        "docid": "7330874383227208226",
        "url": ""
    },
    {
        "title": "进了海淀妈妈群，一周后我退群了...",
        "docid": "7328801025370980914",
        "url": ""
    },
    {
        "title": "“出国留学就飘了“海归男子晒出严格征婚标准，网友：谁给的自信",
        "docid": "7331988702647943731",
        "url": ""
    },
    {
        "title": "“我英语很糟”千万别说成“My English is poor”！",
        "docid": "7313831093310997002",
        "url": ""
    },
    {
        "title": "两所高校主要领导调整",
        "docid": "7332492842960601615",
        "url": ""
    },
    {
        "title": "为什么说大一新生入学，揭开了太多家庭的心酸 ，网友留言让人泪目",
        "docid": "7301683376476488207",
        "url": ""
    },
    {
        "title": "拯救哑巴英语，背完它，你的口语变得“666”",
        "docid": "7328951423990137371",
        "url": ""
    },
    {
        "title": "当你让爸妈给你寄东西：哈哈哈仿佛看见我自己！",
        "docid": "7306129476793254427",
        "url": ""
    },
    {
        "title": "被纪录片喂大的孩子，眼界和格局远超同龄人！",
        "docid": "7309773845685191183",
        "url": ""
    },
    {
        "title": "湖北工业大学(湖北工学院)等5所高校与科研机构相继合并",
        "docid": "7301109573921227273",
        "url": ""
    },
    {
        "title": "房价、股价跳水后，轮到教育了吗？",
        "docid": "7332379633205248546",
        "url": ""
    },
    {
        "title": "回家的大学生突然沉默可能是因为……",
        "docid": "7332074742469919271",
        "url": ""
    },
    {
        "title": "江苏高考文科女状元，遭多所985名校拒绝录取，成为“最惨状元”",
        "docid": "7323155225081070080",
        "url": ""
    },
    {
        "title": "中国确实强大了，每次上课都被举例，国外留学生很骄傲",
        "docid": "7329084396685427250",
        "url": ""
    },
    {
        "title": "孩子原始分全班第一，赋分后变成第四，家长不淡定了：这不公平！",
        "docid": "7330896158670307840",
        "url": ""
    },
    {
        "title": "暗示力量有多可怕，有些话家长不要对孩子说",
        "docid": "7333523753550217728",
        "url": ""
    },
    {
        "title": "好low！河北一所中学学生早起读书，评论区被一群富哥富姐嘲讽",
        "docid": "7331355194389086731",
        "url": ""
    },
    {
        "title": "英语成绩差的孩子就“死磕”这14张图，再笨也不会低于98分！",
        "docid": "7329555923607880227",
        "url": ""
    },
    {
        "title": "协会的证书不要碰",
        "docid": "7321344212635796020",
        "url": ""
    },
    {
        "title": "背熟这些，生物会考稳过！",
        "docid": "7301481094468289034",
        "url": ""
    },
    {
        "title": "为啥校园剧从来不拍研究生，过来人说出离谱原因，笑着笑着就哭了",
        "docid": "7306729681691099683",
        "url": ""
    },
    {
        "title": "张雪峰曝光：女孩子的理想职业？这四类专业，工作环境好到让你惊讶！",
        "docid": "7332050571916132879",
        "url": ""
    },
    {
        "title": "当其他的00后还在上学，他都当校长了",
        "docid": "7317625911178969663",
        "url": ""
    },
    {
        "title": "2023年度：中国内地有17个世界第一学科，北京大学遗憾未进榜单",
        "docid": "7331544197596152354",
        "url": ""
    },
    {
        "title": "太搞笑了，“帮娃写作业的妈妈被老师找上门”，玩大发了！",
        "docid": "7330554770056561178",
        "url": ""
    },
    {
        "title": "上海高考状元袁钧瑛：公派留美拒绝回国，如今叶落归根成难题？",
        "docid": "7331208889339429391",
        "url": ""
    },
    {
        "title": "关于杰青薛鹏教授研究生培养的严正澄清！",
        "docid": "7333183153748476425",
        "url": ""
    },
    {
        "title": "孩子被拉成“千手观音”，“小手拉大手”该消停了 |新京报快评",
        "docid": "7333114694997688886",
        "url": ""
    },
    {
        "title": "这个方法背古诗也太溜了吧 ！不仅有趣还能永久记忆！",
        "docid": "7333461568430293544",
        "url": ""
    },
    {
        "title": "培养5位院士，和顶尖985合作，竟然是“二本”医学院！",
        "docid": "7302274559686902307",
        "url": ""
    },
    {
        "title": "1981年，内蒙古老师20元给学生买双鞋，26年后学生给老师买一套房",
        "docid": "7328366661286576692",
        "url": ""
    },
    {
        "title": "南京最容易就业的4所大学，都是用人单位眼中的香饽饽，值得关注",
        "docid": "7321959988678148635",
        "url": ""
    },
    {
        "title": "400-500分考生能报考哪些大学？2024有需要的考生重点关注！",
        "docid": "7320498909061628456",
        "url": ""
    },
    {
        "title": "盘点那些“成绩+拼爹”的中外合作大学",
        "docid": "7320049741088490034",
        "url": ""
    },
    {
        "title": "中国人民公安大学2023年各专业录取分数",
        "docid": "7322668790100476479",
        "url": ""
    },
    {
        "title": "打击网络谣言 共建清朗家园 中国互联网联合辟谣平台2024年1月辟谣榜",
        "docid": "7332455473708696104",
        "url": ""
    },
    {
        "title": "其实美国签证官只看中你这两点！",
        "docid": "7300869979384185394",
        "url": ""
    },
    {
        "title": "看图猜成语（50）：快来一起动动脑吧！8题你能猜出来几题呢？",
        "docid": "7331272144938680869",
        "url": ""
    },
    {
        "title": "单位换算，一定要帮孩子收藏，没有比这更齐全的了",
        "docid": "7332775965933797942",
        "url": ""
    },
    {
        "title": "中信银行2024年拟录用毕业生生源高校人数统计！快来围观",
        "docid": "7320014597652546100",
        "url": ""
    },
    {
        "title": "中南大学：看了电子科技大学，才知道什么叫“时代红利”",
        "docid": "7305937240994284082",
        "url": ""
    },
    {
        "title": "九省联考太难了！",
        "docid": "7326348572474802751",
        "url": ""
    },
    {
        "title": "教科书把简单的东西讲得太复杂，学微积分只需要一个案例 | 中科院院士林群",
        "docid": "7330279705952322063",
        "url": ""
    },
    {
        "title": "看了12岁小学生碾压985硕士，我发现普通人鸡娃是一场骗局",
        "docid": "7306136355246113334",
        "url": ""
    },
    {
        "title": "你知道湖北省考生考上211大学有多难吗？",
        "docid": "7307201619039535654",
        "url": ""
    },
    {
        "title": "热门专业已悄悄转变，男生公开简历遭“疯抢”，张雪峰说得没错",
        "docid": "7320941029954372130",
        "url": ""
    },
    {
        "title": "终于有人把教师职称等级整理出来了！",
        "docid": "7306900303415329306",
        "url": ""
    },
    {
        "title": "六年级附加题：超难！仅知边长，如何求三角形面积？",
        "docid": "7316175512492556837",
        "url": ""
    },
    {
        "title": "热搜！举报黄某某的学生发声：已换课题，将延期毕业！校方：少发的助研津贴已补发到位",
        "docid": "7332411157195588105",
        "url": ""
    },
    {
        "title": "660分，华中科技大学和北京理工大学，你会选择哪一所大学呢？",
        "docid": "7301474288014967305",
        "url": ""
    },
    {
        "title": "2024湖北省大学排名更新了！长江大学第9，华师第5，华科超过武大",
        "docid": "7331252088527454770",
        "url": ""
    },
    {
        "title": "湖北武汉最牛的4所双非大学！就业不输211，关键录取分数不高！",
        "docid": "7303722116392813108",
        "url": ""
    },
    {
        "title": "“反向操作”:女儿不满父母叫自己早起吃饭，凌晨叫醒父母吃早餐",
        "docid": "7333483536143925812",
        "url": ""
    },
    {
        "title": "薛鹏教授这件事我看明白了！就是吃着盆里的，还想着锅里的",
        "docid": "7332697124767384098",
        "url": ""
    },
    {
        "title": "把孩子送进国际学校，我的家快散了，融不进去的圈子不要勉强自己",
        "docid": "7332501087066358312",
        "url": ""
    },
    {
        "title": "学英语最重要的是语言环境，猛刷下面十二部动画片可以无痛学英语",
        "docid": "7326365692398387722",
        "url": ""
    },
    {
        "title": "湖北汽车工业学院，学校不错，但目前有些尴尬",
        "docid": "7304322935471489573",
        "url": ""
    },
    {
        "title": "“刘老师，您去哪里了呀？”“老师去保家卫国了……”",
        "docid": "7300810641835573775",
        "url": ""
    },
    {
        "title": "2024中国985大学最新排名出炉，北大跌至第三，上海交大跌出前五",
        "docid": "7333423633807098379",
        "url": ""
    },
    {
        "title": "张雪峰提醒高一选科九项注意事项和高中选科利弊，家长朋友收藏看",
        "docid": "7333018758342165055",
        "url": ""
    },
    {
        "title": "学习的本质，就是极致重复",
        "docid": "7308555451170734630",
        "url": ""
    },
    {
        "title": "万万没想到，英语语法原来这么简单，家长再忙也要收藏给孩子看。",
        "docid": "7329542919541916194",
        "url": ""
    },
    {
        "title": "医学最牛的20所大学：全国最顶尖的医科大学有哪几个？",
        "docid": "7302991773843702322",
        "url": ""
    },
    {
        "title": "中产孩子追逐学历，就好比49年加入国军：五千叔教你什么最来钱！",
        "docid": "7307057440476889615",
        "url": ""
    },
    {
        "title": "专科也有“铁饭碗”专业！盘点湖南最好就业的三所大专院校",
        "docid": "7303737142776168975",
        "url": ""
    },
    {
        "title": "五年级数学：难者白卷，会者口算！仅知斜边，咋求面积？图形旋转",
        "docid": "7316814424537891365",
        "url": ""
    },
    {
        "title": "农村孩子高考550分以上，意味着什么？甚至能改变命运！",
        "docid": "7319307035172979252",
        "url": ""
    },
    {
        "title": "东北最牛高考班10年后“再度重相逢”，网友感慨万千",
        "docid": "7322379182082654770",
        "url": ""
    },
    {
        "title": "双一流大学宣布，取消这个医学专业？医生：早该这么干了！",
        "docid": "7332282982889308681",
        "url": ""
    },
    {
        "title": "广州大学，一所与城市地位严重不匹配的大学",
        "docid": "7317093873602413090",
        "url": ""
    },
    {
        "title": "中国父母炫耀孩子被麻省理工录取，遭疯狂举报，更大猛料被挖出",
        "docid": "7333029774719304226",
        "url": ""
    },
    {
        "title": "文言文再难，无非就是这10页纸",
        "docid": "7328318387112018484",
        "url": ""
    },
    {
        "title": "高考状元陈勤：11年硕士毕业年薪154万，因被排挤选择从楼顶跃下",
        "docid": "7330967397740184099",
        "url": ""
    },
    {
        "title": "有谁关注过班级里的中等生？！",
        "docid": "7303566528556057099",
        "url": ""
    },
    {
        "title": "我重庆妹子，口译硕士，如今驻英国做自由口译员，没想象中简单",
        "docid": "7326427933206463016",
        "url": ""
    },
    {
        "title": "被传出：老师教务处室内强吻女学生，还多次抚摸身体，必须严惩",
        "docid": "7332529665925480995",
        "url": ""
    },
    {
        "title": "有啥道理是你花了三十年才品出来的？网友：有事就发疯，别憋着！",
        "docid": "7331196889817334311",
        "url": ""
    },
    {
        "title": "脑力发达的小孩，身上这3个特点很明显，长大后多是“学习的料”",
        "docid": "7323468774727025190",
        "url": ""
    },
    {
        "title": "这些奇葩招牌，不是潮汕人很难看得懂",
        "docid": "7322671099689910799",
        "url": ""
    },
    {
        "title": "中师生，一个最悲情的词语！",
        "docid": "7301630779170734632",
        "url": ""
    },
    {
        "title": "浙江一女老师板书走红，学生都舍不得擦，家长看后忍不住羡慕了",
        "docid": "7332263292209168931",
        "url": ""
    },
    {
        "title": "公认最难背的九篇文言文，你能背出几篇？一起试试看！",
        "docid": "7304310679354524211",
        "url": ""
    },
    {
        "title": "川大人拜年，超“专业”！",
        "docid": "7333517864407745060",
        "url": ""
    },
    {
        "title": "985排名出炉！国防科大升第二档，重大和大理垫底，网友：外行",
        "docid": "7333172263413957174",
        "url": ""
    },
    {
        "title": "80后昆明女子飞行17年，事业爱情双丰收：人生没有捷径，但有秘籍",
        "docid": "7308154960527720979",
        "url": ""
    },
    {
        "title": "对外省招生的警察院校",
        "docid": "7327514878343021091",
        "url": ""
    },
    {
        "title": "真的是涨知识了！原来阅读理解是有公式的，让人大开眼界",
        "docid": "7333227722019996169",
        "url": ""
    },
    {
        "title": "现在模考550分，2024高考能考多少分？高三班主任道出真相",
        "docid": "7322786594879308325",
        "url": ""
    },
    {
        "title": "上课讲到“两个黄鹂鸣翠柳”，小学生灵魂拷问，老师竟无言以对",
        "docid": "7311252277917794825",
        "url": ""
    },
    {
        "title": "数学98分？民办学校考试太假了！家长果断将女儿转回老家",
        "docid": "7309873504407978505",
        "url": ""
    },
    {
        "title": "叛逆期的孩子有多难管？快崩溃的我被评论区治愈了",
        "docid": "7318355375055749673",
        "url": ""
    },
    {
        "title": "因举报学校和教育局，她从优秀教师沦为阶下囚，如今她过的还好吗",
        "docid": "7333328552215364150",
        "url": ""
    },
    {
        "title": "小学生作文《祖母》，开篇第一句惊艳众人，大学生：我都写不出来",
        "docid": "7319344097909785100",
        "url": ""
    },
    {
        "title": "这5类大学生在未来“最不值钱”，毕业即失业，学历再高也没用！",
        "docid": "7307919830672376371",
        "url": ""
    },
    {
        "title": "山西高中排名“大洗牌”，忻州一中勇夺第2，大同一中挤进前10！",
        "docid": "7328437219394830882",
        "url": ""
    },
    {
        "title": "“妈，你做过最冒险的事就是把大学生和年货放一个屋”",
        "docid": "7333439982470021641",
        "url": ""
    },
    {
        "title": "教育部：做好银龄教师支持民办教育行动实施工作",
        "docid": "7333806345483403791",
        "url": ""
    },
    {
        "title": "迪拜尚玛科汉语学院成立",
        "docid": "7333803795518095909",
        "url": ""
    },
    {
        "title": "西湖大学“90后”美女教授诞生，履历优秀，毕业院校不一般！",
        "docid": "7301860281410421282",
        "url": ""
    },
    {
        "title": "从大学宿舍关系你学到了什么？",
        "docid": "7320152213874213416",
        "url": ""
    },
    {
        "title": "“多巴胺”的“胺”不读ān？",
        "docid": "7319809362216911414",
        "url": ""
    },
    {
        "title": "医科实力哪家强！软科2023年中国大学医科实力评级",
        "docid": "7331570521760875034",
        "url": ""
    },
    {
        "title": "2024北京高校排名大调整，中农第7，央财第9，北邮位列14",
        "docid": "7330510045781983754",
        "url": ""
    },
    {
        "title": "初一不分上下，初二两极分化，初三天上地下，却不知初一已是定局",
        "docid": "7332929402868728371",
        "url": ""
    },
    {
        "title": "CBN Special丨Entering Year of the Dragon: What does 2024 mean to Chinese economy?",
        "docid": "7333194685835379237",
        "url": ""
    },
    {
        "title": "为什么要办理上海居住证？",
        "docid": "7303185318432457228",
        "url": ""
    },
    {
        "title": "不用交学费！这些院校研究生奖学金100%全覆盖！",
        "docid": "7303718048144654859",
        "url": ""
    },
    {
        "title": "“爸妈开心证” 兰州大学给学生家长发证啦！",
        "docid": "7333765446585680396",
        "url": ""
    },
    {
        "title": "吃不透的英语介词和语法，趁放假让孩子补一补",
        "docid": "7333053475896590857",
        "url": ""
    },
    {
        "title": "淄博十一中“梦之翼”合唱团入选全市首批高水平学生艺术团名单",
        "docid": "7333762953084682761",
        "url": ""
    },
    {
        "title": "“当你点餐遇到大学暑假工” 哈哈哈谁说站在光里才算英雄！",
        "docid": "7331597008605987369",
        "url": ""
    },
    {
        "title": "《狗剩快跑》因大学生群演走红，日语发音标准原因揭晓",
        "docid": "7333147857467441714",
        "url": ""
    },
    {
        "title": "2024年广东省大学实力排名：中山大学稳居第1，广东工业大学优秀",
        "docid": "7331950233649594918",
        "url": ""
    },
    {
        "title": "盘点改名失败的高校：长春理工大学，你知道她原来叫什么吗？",
        "docid": "7318029470789730827",
        "url": ""
    },
    {
        "title": "我找工作时怎么没读到罗翔老师的这段话啊 ​​​",
        "docid": "7304660000616530441",
        "url": ""
    },
    {
        "title": "八、九十年代的中专生，究竟啥水平",
        "docid": "7327949111750246947",
        "url": ""
    },
    {
        "title": "面对高三儿子每天抱着手机，这成绩能考个啥，学校为啥放这么多假",
        "docid": "7331940158277353999",
        "url": ""
    },
    {
        "title": "直博清华、全国第一！这位本科生的手令人心疼",
        "docid": "7332327196457140736",
        "url": ""
    },
    {
        "title": "中石油教师卡怎么办理",
        "docid": "7319715548248785460",
        "url": ""
    },
    {
        "title": "原来这些大学同属于一家公司，中国民办高等教育新四大家族",
        "docid": "7314580746625499674",
        "url": ""
    },
    {
        "title": "肠子悔青！留学选错专业，真的毁人一辈子......",
        "docid": "7333129151119442484",
        "url": ""
    },
    {
        "title": "因为父母的“愚蠢”，毁了孩子一辈子！数万网友评论热议",
        "docid": "7304639100236612096",
        "url": ""
    },
    {
        "title": "关于中山大学迁至宁波带动经济腾飞的可行性分析！",
        "docid": "7333071951856075274",
        "url": ""
    },
    {
        "title": "学会东北话，走遍天下都不怕，收藏起来学一学，你还知道哪些？",
        "docid": "7333514371052339752",
        "url": ""
    },
    {
        "title": "重庆最容易就业的5所大学，都是用人单位眼中的香饽饽，值得关注",
        "docid": "7315974471016383013",
        "url": ""
    },
    {
        "title": "大连24中夺冠，东北育才屈居第二，辽宁高中排名大洗牌",
        "docid": "7331321376890028584",
        "url": ""
    },
    {
        "title": "留汉新疆班学生：除夕，老师同学接我们到蕲春过年",
        "docid": "7333764586611114548",
        "url": ""
    },
    {
        "title": "同学考上名牌大学，我因故落榜当民师，现养老金高同学两千四！",
        "docid": "7314336525150339624",
        "url": ""
    },
    {
        "title": "比起教师假期值班的“怒”，我看到了更多人性的“利己”！",
        "docid": "7333136429076185640",
        "url": ""
    },
    {
        "title": "我57岁中学老师，两个同事改行如今辛苦打工，现状让人感慨万千",
        "docid": "7301452348181168691",
        "url": ""
    },
    {
        "title": "我的亲身经历告诉你：到底要不要给孩子学钢琴？",
        "docid": "7317412814660928040",
        "url": ""
    },
    {
        "title": "看完七集《欢乐家长群》，如鲠在喉，不吐不快，这是炫富剧吗？",
        "docid": "7333198241409810944",
        "url": ""
    },
    {
        "title": "我，34岁宝妈，重新参加高考，监考老师竟然是我高中同学",
        "docid": "7306139173676024331",
        "url": ""
    },
    {
        "title": "考研最容易考上的专业是哪些？",
        "docid": "7300554556830777856",
        "url": ""
    },
    {
        "title": "他偷窃高考试卷，背熟后去参加考试，看到考题傻眼了",
        "docid": "7331988691105104393",
        "url": ""
    },
    {
        "title": "我考上985后才知道，很多考不上的人，高中阶段都是在无效学习",
        "docid": "7317105887800525362",
        "url": ""
    },
    {
        "title": "张雪峰谈机电一体化：太难就业了？毕业后可以干什么？",
        "docid": "7301511552887243305",
        "url": ""
    },
    {
        "title": "630分，选择苏州大学，放弃吉林大学的人，你觉得他会后悔吗？",
        "docid": "7306823063377625627",
        "url": ""
    },
    {
        "title": "【物理教材】苏科版八年级物理上册电子课本",
        "docid": "7333274493692953124",
        "url": ""
    },
    {
        "title": "高考成绩300多，是选择参军还是上大专？有一种方法可以两者兼顾",
        "docid": "7323506389585232434",
        "url": ""
    },
    {
        "title": "我，53岁普拉提教练，心态特年轻，纹身、养猫，还参加比基尼大赛",
        "docid": "7316360594276794920",
        "url": ""
    },
    {
        "title": "登上热搜！这位武汉副教授火了，竟是因为“过于可爱”",
        "docid": "7323539472459727379",
        "url": ""
    },
    {
        "title": "北大教授与学渣女儿：不报辅导班、考倒数第一，接受孩子的平庸",
        "docid": "7317202705171628579",
        "url": ""
    },
    {
        "title": "“请不要在大学里当个乖孩子。”",
        "docid": "7306528554073178676",
        "url": ""
    },
    {
        "title": "新老教材鲜明对比，现教材生怕你看懂，家长：“一看一个不吱声”",
        "docid": "7310136133391057423",
        "url": ""
    },
    {
        "title": "首投即中！33岁“土博”任985副教授",
        "docid": "7333042945048265243",
        "url": ""
    },
    {
        "title": "考研只能报一所学校吗？没考上怎么办？",
        "docid": "7301697520982327871",
        "url": ""
    },
    {
        "title": "女子不小心把毕业论文打印成小票",
        "docid": "7308935859242729996",
        "url": ""
    },
    {
        "title": "提升作文成绩的好办法：那就是让孩子把下图倒背如流",
        "docid": "7322484057421087247",
        "url": ""
    },
    {
        "title": "挑战思维，猜出经典成语！",
        "docid": "7333312790796468748",
        "url": ""
    },
    {
        "title": "温馨！厦大摆出165桌年夜饭，免费请留校学生围炉",
        "docid": "7333756332325896723",
        "url": ""
    },
    {
        "title": "普通选调生两年以后怎么安排工作？",
        "docid": "7312789248707674659",
        "url": ""
    },
    {
        "title": "湖南工业大学举行留学生迎新春茶话会",
        "docid": "7333836514629763610",
        "url": ""
    },
    {
        "title": "教师资格证等72项证书可以享受个人所得税扣除",
        "docid": "7315581228718064155",
        "url": ""
    },
    {
        "title": "春风绘龙梦，“画龙点睛”过大年｜爱申活暖心春",
        "docid": "7333833761215595059",
        "url": ""
    },
    {
        "title": "都说文科录取率低专业难选 为什么还有很多人选？",
        "docid": "7305340881257873939",
        "url": ""
    },
    {
        "title": "河北工业大学2023年河北省录取分数",
        "docid": "7307079303701807653",
        "url": ""
    },
    {
        "title": "董宇辉: 孩子“不要质疑你现在做的一道道题，背的一篇篇课文…”",
        "docid": "7333836886772859404",
        "url": ""
    },
    {
        "title": "关于党校学历认可度的问题",
        "docid": "7306912834905096715",
        "url": ""
    },
    {
        "title": "苏州吴中回应一学校成绩外泄：班主任违规在家长会公开，家长偷拍",
        "docid": "7332738951532429865",
        "url": ""
    },
    {
        "title": "钱学森说：对我一生影响最大的有17人，排在17人之首位的是我母亲",
        "docid": "7304118530214216246",
        "url": ""
    },
    {
        "title": "背下来你也是才子才女，能口吐莲花，腹有诗书气自华",
        "docid": "7327785782746399295",
        "url": ""
    },
    {
        "title": "当代大学生撕伞，有一种不顾别人死活的欢乐！评论区笑不活了！",
        "docid": "7332558727175995923",
        "url": ""
    },
    {
        "title": "广州公示面向中小学生全市性竞赛活动名单",
        "docid": "7333232670232789544",
        "url": ""
    },
    {
        "title": "“受教育、长才干、作贡献”！市西学子来到这里参加社会实践→",
        "docid": "7333836421649793548",
        "url": ""
    },
    {
        "title": "最新批复！吉林省新增一所学院",
        "docid": "7333149830828835347",
        "url": ""
    },
    {
        "title": "济南市名士小学开展环保实践活动",
        "docid": "7333803968394805798",
        "url": ""
    },
    {
        "title": "孩子钢琴考级考哪个比较好？",
        "docid": "7333113669229969983",
        "url": ""
    },
    {
        "title": "扬州发布2024年春学期学校收费标准",
        "docid": "7333049021579362842",
        "url": ""
    },
    {
        "title": "做手工、看演出，松江萌娃在家门口快乐过寒假",
        "docid": "7333868171193205311",
        "url": ""
    },
    {
        "title": "现实版农夫与蛇？中国博主资助叙利亚男孩上学，却被频频“吸血”",
        "docid": "7325462748358738442",
        "url": ""
    },
    {
        "title": "一张图让你读懂研究生五种分类的区别，建议收藏转发！",
        "docid": "7333847781238866442",
        "url": ""
    },
    {
        "title": "没有儿子算不算“绝后”？现实很扎心，90后最豁达",
        "docid": "7330539032193073699",
        "url": ""
    },
    {
        "title": "​六西格玛虽然很难，但看完这篇“吹吹牛”足够了！",
        "docid": "7306117764656726580",
        "url": ""
    },
    {
        "title": "好消息！四川一所高校将整体搬迁，总投资40亿，未来值得期待",
        "docid": "7331375043476111891",
        "url": ""
    },
    {
        "title": "给儿子狠狠做了次断舍离，这几类兴趣班早就该放弃",
        "docid": "7304105502202413603",
        "url": ""
    },
    {
        "title": "上大学选专业的“十大铁律”，建议家长孩子都看看",
        "docid": "7333156390556451391",
        "url": ""
    },
    {
        "title": "心细如发！班主任多看一眼，救了学生一命！",
        "docid": "7330976902133858831",
        "url": ""
    },
    {
        "title": "1所部属大学总部由冀迁豫，如今有4万多在校生，对河南帮助多大！",
        "docid": "7312638611122618934",
        "url": ""
    },
    {
        "title": "一个不送礼，但可以让老师喜欢孩子的“偏方”",
        "docid": "7316161369739543079",
        "url": ""
    },
    {
        "title": "全国师范大学最新出炉！划分为五个档次，山师、上师大均列第三档",
        "docid": "7331661357395624463",
        "url": ""
    },
    {
        "title": "“当00后成为班主任后”哈哈哈简直是当代活阎王！",
        "docid": "7307953341471048242",
        "url": ""
    },
    {
        "title": "2008年，那个故意“高考0分”的安徽男孩徐孟南，后来怎么样了？",
        "docid": "7324960077306315299",
        "url": ""
    },
    {
        "title": "干了一辈子教师，退休后才看透差等生所作所为比优等生更让人暖心",
        "docid": "7331697245508928000",
        "url": ""
    },
    {
        "title": "浙江省这9所最臭名昭著“野鸡大学”，毕业证一文不值，考生警惕",
        "docid": "7323020880722936361",
        "url": ""
    },
    {
        "title": "大家有没有被父母的愚蠢而耽误的大事",
        "docid": "7333531840285770280",
        "url": ""
    },
    {
        "title": "看图猜成语（173）",
        "docid": "7333463678014636607",
        "url": ""
    },
    {
        "title": "这才是全新的对照检查材料，充分结合主题教育新提法，融入新要求",
        "docid": "7302996631690068490",
        "url": ""
    },
    {
        "title": "你想过没有，上了大学的孩子为什么放假回家和以前假期不一样？",
        "docid": "7315571051239391780",
        "url": ""
    },
    {
        "title": "上海被严重低估的211大学，因名字被耽误，实力不输985",
        "docid": "7318236325017371176",
        "url": ""
    },
    {
        "title": "最新\"铁饭碗'排名，一次性整理清楚，就长再忙也要收藏给孩子看",
        "docid": "7333896016460513827",
        "url": ""
    },
    {
        "title": "为什么脏话中女性词汇含量如此高？",
        "docid": "7309420620360565274",
        "url": ""
    },
    {
        "title": "英语四六级的通过率是多少？",
        "docid": "7333030229260304937",
        "url": ""
    },
    {
        "title": "13年前黄蛉高考作文6分，被四川大学录取后遭教授拒教，后来如何",
        "docid": "7325676227745251840",
        "url": ""
    },
    {
        "title": "专科想学医，这9所“医学专科院校”实力很强，也有不少优势学科",
        "docid": "7301673675701813812",
        "url": ""
    },
    {
        "title": "莫 言：必须承认在我们的社会中，最上等的职业还是当官",
        "docid": "7333287643259601444",
        "url": ""
    },
    {
        "title": "说话都不利索的两夫妻，却养育了三个优秀的儿子，让人敬佩",
        "docid": "7307549125360484901",
        "url": ""
    },
    {
        "title": "堪称“并校收割机”的广州大学，曾合并9所大学却无缘双一流",
        "docid": "7313805988107420201",
        "url": ""
    },
    {
        "title": "叫嚷取消教师职称的人，都是什么样的人？",
        "docid": "7333220667430683171",
        "url": ""
    },
    {
        "title": "我的诗意年 | 浙江少年诗词大会冠军张海洋：假期每一天都“约会”诗词名家",
        "docid": "7333749303143416330",
        "url": ""
    },
    {
        "title": "28年前，曾轰动全国的“北大保安高考第一人”张俊成，如今怎样了",
        "docid": "7333173026420326912",
        "url": ""
    },
    {
        "title": "四川学霸高考得47分，爷爷找教育局要说法，学霸：学费太贵不读了",
        "docid": "7327955437972849167",
        "url": ""
    },
    {
        "title": "看图猜成语（2）：你的语文功底如何？一共8题，你能猜对几题？",
        "docid": "7320883499732337190",
        "url": ""
    },
    {
        "title": "河南教授给学校捐8208万，自称退休金花不完，却穿补丁棉裤挤公交",
        "docid": "7333582355464143412",
        "url": ""
    },
    {
        "title": "上海最好的6所大学，毕业单位抢着要，很多家长不知道错失机会",
        "docid": "7328293250027061771",
        "url": ""
    },
    {
        "title": "老课文：70后初中课本里的《井冈翠竹》记住了一种手法叫顶真",
        "docid": "7301938321192878592",
        "url": ""
    },
    {
        "title": "女生泪洒镜头质疑“读大学的意义”，评论区网友的回响引发共鸣",
        "docid": "7333792535204692543",
        "url": ""
    },
    {
        "title": "东南大学和山东大学，哪个更强一些？这篇文章告诉你答案",
        "docid": "7305633019342520882",
        "url": ""
    },
    {
        "title": "和毛不易一起“写年”的孩子们，还写过这样的诗篇",
        "docid": "7333798674285543986",
        "url": ""
    },
    {
        "title": "父母一定要提前告诉孩子与同学相处的原则！",
        "docid": "7316523497168241164",
        "url": ""
    },
    {
        "title": "大学老师有多牛？我承认我以前上课时呼噜声有点大！",
        "docid": "7301341495003546163",
        "url": ""
    },
    {
        "title": "一顶小黄帽：探索病态教育观的黑幕",
        "docid": "7333681573721571851",
        "url": ""
    },
    {
        "title": "最有水平的教育方式：一半是内卷，一半是松弛",
        "docid": "7313752433455989286",
        "url": ""
    },
    {
        "title": "上海海关学院2023全国各省招生专业及最低录取分数线（含提前批）",
        "docid": "7322641024160104975",
        "url": ""
    },
    {
        "title": "姚洋: 我们的教育出了大问题，孩子不会思考， 正在变成做题机器",
        "docid": "7317465632524780047",
        "url": ""
    },
    {
        "title": "教育资本化，医疗商业化，房地产市场化，催生少子化，加速老龄化",
        "docid": "7333379823475098146",
        "url": ""
    },
    {
        "title": "原铁道部直属的上海铁道学院兰州铁道学院大连铁道学院现状如何？",
        "docid": "7320152107255923209",
        "url": ""
    },
    {
        "title": "益阳职院学子积极参与大学生“返家乡”社会实践活动",
        "docid": "7333833850059555355",
        "url": ""
    },
    {
        "title": "为什么大多数法学专业毕业生都考公务员而不去做律师",
        "docid": "7308673575346111016",
        "url": ""
    },
    {
        "title": "以前的小学生：背课文；现在的小学生：举报课文",
        "docid": "7316769412172956212",
        "url": ""
    },
    {
        "title": "江西理工曾申请更名南方工业大学，惨遭教育部拒绝，南方名头丢失",
        "docid": "7330552758690726400",
        "url": ""
    },
    {
        "title": "我河南女孩，考研失败后留学法国，这里每周发蔬菜，流浪汉不发愁",
        "docid": "7300537450815013376",
        "url": ""
    },
    {
        "title": "石河子大学，真的可以低分上名校吗",
        "docid": "7315439860225933878",
        "url": ""
    },
    {
        "title": "广西最容易就业的4所大学，王牌专业实力强，就业优势可比985",
        "docid": "7319429161977037347",
        "url": ""
    },
    {
        "title": "学生期末考试用“原神玩梗”，试卷传遍阅卷组，老师：已报德育处",
        "docid": "7332312231058735628",
        "url": ""
    },
    {
        "title": "小学英语核心700词，收藏备用",
        "docid": "7302683388627223078",
        "url": ""
    },
    {
        "title": "老课文：70后课本里的《上学路上》还记得那个叫赵伟红的女孩吗？",
        "docid": "7312645485163135526",
        "url": ""
    },
    {
        "title": "河南神童何雪豪：8岁被特招入伍，如今退役赴国外深造",
        "docid": "7308990380186305074",
        "url": ""
    },
    {
        "title": "私立初中学霸后继乏力 只是真实实力回归！",
        "docid": "7304649334170354216",
        "url": ""
    },
    {
        "title": "失落的高校明珠之西安统计学院，更名之后还有多少人记得？",
        "docid": "7333072263643841039",
        "url": ""
    },
    {
        "title": "回老家过年，发现“极端病句”，光天化日之下竟挂了整整一年！",
        "docid": "7333800945081778722",
        "url": ""
    },
    {
        "title": "官宣！南阳被投资46亿的新大学砸中，占地3000亩，校名成了大问题",
        "docid": "7332393905440670217",
        "url": ""
    },
    {
        "title": "国内大学划分为8个等级，普通学生能考上第4级，就已经是学霸了",
        "docid": "7328236870389826111",
        "url": ""
    },
    {
        "title": "惊喜！儿子的阅读理解几乎从不扣分，这帮助他成为真正的学霸",
        "docid": "7313703549337387570",
        "url": ""
    },
    {
        "title": "速算口诀大全，太实用，给孩子收藏备用吧！",
        "docid": "7301992955874165300",
        "url": ""
    },
    {
        "title": "教育小微拜年啦！",
        "docid": "7333893835107828236",
        "url": ""
    },
    {
        "title": "这一刻，我突然读懂了二十年前的语文课文",
        "docid": "7305368155948827175",
        "url": ""
    },
    {
        "title": "郑州铁路职业技术学院2023年录取分数线及位次",
        "docid": "7332648558610530825",
        "url": ""
    },
    {
        "title": "研究生分为“3个档次”，第三类上岸简单但含金量最低，你选哪个",
        "docid": "7320933067294671394",
        "url": ""
    },
    {
        "title": "南宁市17所示范性高中介绍大全（含分数线、高考上线率等）",
        "docid": "7304473997600260659",
        "url": ""
    },
    {
        "title": "太实用！看完我立即发给正上高中的妹妹，董宇辉讲完形填空4原则",
        "docid": "7307144908400525861",
        "url": ""
    },
    {
        "title": "英语零基础秒懂语法，这一章足够了",
        "docid": "7321179994037027343",
        "url": ""
    },
    {
        "title": "春晚舞台上写诗的山里娃，听听他们的故事",
        "docid": "7333881154208662079",
        "url": ""
    },
    {
        "title": "八问武大图书馆事件：网暴裹挟下，辨别真相更需克制",
        "docid": "7332292302625178147",
        "url": ""
    },
    {
        "title": "河南最好的8所大学，毕业单位抢着要，很多家长不知道错失机会",
        "docid": "7330509398890021428",
        "url": ""
    },
    {
        "title": "被“投诉”的老师们：学生丢失了块橡皮，警察来了3次",
        "docid": "7322721764528620073",
        "url": ""
    },
    {
        "title": "河南所有本科大学排名及录取分数线（省排名位次），2024考生参考",
        "docid": "7321682943444042294",
        "url": ""
    },
    {
        "title": "公办学校欠电费无法正常教学，让家长接学生回家！办公经费去哪了",
        "docid": "7323198214755058211",
        "url": ""
    },
    {
        "title": "神童学霸理科状元徐海燕，考入北大，却因一个意外“英年早逝”",
        "docid": "7303187305387819570",
        "url": ""
    },
    {
        "title": "新鲜出炉的牛剑录取宝藏数据都在这里！",
        "docid": "7333153888939557439",
        "url": ""
    },
    {
        "title": "博士毕业有多难？",
        "docid": "7325422332972384809",
        "url": ""
    },
    {
        "title": "15年前，背母上学的孝子刘秀祥，拒绝了55万年薪，如今怎么样了？",
        "docid": "7324511449341100559",
        "url": ""
    },
    {
        "title": "“大学”和“学院”有什么区别？学院一定比大学差吗？",
        "docid": "7316455672663622195",
        "url": ""
    },
    {
        "title": "1988年我考上了中专，父亲亲自送我去了学校！",
        "docid": "7317087492853858870",
        "url": ""
    },
    {
        "title": "广西各地中小学教师，每月工资收入有多少？",
        "docid": "7309463934879908379",
        "url": ""
    },
    {
        "title": "南京铁道职业技术学院2024提前招生简章",
        "docid": "7333527539975438898",
        "url": ""
    },
    {
        "title": "乡村教师将被逼“向上流动”，谁也阻挡不了！老师们应早做打算",
        "docid": "7325367494402032138",
        "url": ""
    },
    {
        "title": "我，美国人，在中国留学创业娶媳妇，卖掉美国房子定居中国13年了",
        "docid": "7321509758018863631",
        "url": ""
    },
    {
        "title": "如何申请劳动能力鉴定？一图看懂！",
        "docid": "7312374000632660531",
        "url": ""
    },
    {
        "title": "初中数学学霸笔记，满满干货",
        "docid": "7333784713658384934",
        "url": ""
    },
    {
        "title": "第二批教育个人剖析发言：6个方面12个不足，剖析深刻，入木三分",
        "docid": "7310752079365227042",
        "url": ""
    },
    {
        "title": "小学生家长朋友们：这样的书法班，千万不要让孩子去！",
        "docid": "7324426199353115147",
        "url": ""
    },
    {
        "title": "确定了！扬州一批学校新建扩建",
        "docid": "7333327811932848679",
        "url": ""
    },
    {
        "title": "萍声细语（23）：精读硕博论文-第二章理论基础和概念定义",
        "docid": "7333902627069542948",
        "url": ""
    },
    {
        "title": "双学位和第二学位一样吗？究竟什么是双学位，要不要报考？",
        "docid": "7311222358910517795",
        "url": ""
    },
    {
        "title": "今天发工资了，在河南洛阳，一名声乐老师工资有多少",
        "docid": "7333299381862482472",
        "url": ""
    },
    {
        "title": "7-9年全册53中考知识清单，刷题必备清单！",
        "docid": "7333244632366678563",
        "url": ""
    },
    {
        "title": "孩子考了三四百分，别错过这四所学校，毕业后就业率高！建议收藏",
        "docid": "7324210635045618213",
        "url": ""
    },
    {
        "title": "北京理工大学珠海校区    将为广东带来什么？",
        "docid": "7333048022592700991",
        "url": ""
    },
    {
        "title": "挂科甚至退学的本科生越来越多，老师认为“已尽力”",
        "docid": "7301327431087309375",
        "url": ""
    },
    {
        "title": "神秘数学游戏：只需动1根火柴即可解锁，你看懂了吗？",
        "docid": "7333903824760963595",
        "url": ""
    },
    {
        "title": "00后要断亲！一年见一次堂兄弟，隔五米一句话不说，见面尴尬一笑",
        "docid": "7333932845465551372",
        "url": ""
    },
    {
        "title": "印象启良：发光吧！我们的龙狮少年！",
        "docid": "7333903387412398626",
        "url": ""
    },
    {
        "title": "江苏省苏州市2023-2024学年高二上学期期末学业质量阳光指标调研",
        "docid": "7333953168239952421",
        "url": ""
    },
    {
        "title": "一年级语文下册1-8单元知识小结❗️掌握了下册就稳了💪",
        "docid": "7333911483564179987",
        "url": ""
    },
    {
        "title": "7名！屯溪一中人才引进公告",
        "docid": "7333937073655644706",
        "url": ""
    },
    {
        "title": "360名学子参加“淮才可遇”青年学子家乡行活动",
        "docid": "7333922051663168040",
        "url": ""
    },
    {
        "title": "点赞，普陀三所学校获“上海市生态文明建设示范学校”称号！",
        "docid": "7333911024044802612",
        "url": ""
    },
    {
        "title": "The Odd New Year's Wishes丨你的新春愿望是……",
        "docid": "7333911095163650599",
        "url": ""
    },
    {
        "title": "写春联、题“福”字、学吉祥话……上外留学生来拜年啦",
        "docid": "7333771813484364351",
        "url": ""
    },
    {
        "title": "成为德华，超越德华！大学生返乡趣事多",
        "docid": "7333215851518870053",
        "url": ""
    },
    {
        "title": "一位妈妈半夜给叛逆的孩子写的信，终于把孩子给救赎了，共18封。",
        "docid": "7332463710801527305",
        "url": ""
    },
    {
        "title": "从军人到新东方老师，再到作家和导演，他说：稳定，是在浪费生命",
        "docid": "7333850346793828899",
        "url": ""
    },
    {
        "title": "高考时数学交白卷，作文写28个字，大学校长看后：立即发录取通知",
        "docid": "7316494685600743975",
        "url": ""
    },
    {
        "title": "【国网二批报考常见问题汇总】超龄、挂科、已签三方能否报考？",
        "docid": "7333911456213746227",
        "url": ""
    },
    {
        "title": "黄冈中学：风流总被雨打风吹去",
        "docid": "7333318311826358796",
        "url": ""
    },
    {
        "title": "中医大学教授都不会看病，这样能教出会看病的学生吗？",
        "docid": "7320081716558266914",
        "url": ""
    },
    {
        "title": "一级建造师思维导图-市政",
        "docid": "7333246403273540146",
        "url": ""
    },
    {
        "title": "泰兴市黄桥镇：缤纷冬日中国年 传统文化润童心",
        "docid": "7333159610872136232",
        "url": ""
    },
    {
        "title": "二年级下册语文课文重点内容及中心思想，想拔尖就提前背！",
        "docid": "7333242693067244086",
        "url": ""
    },
    {
        "title": "亲戚让孩子挂我家户口上学，原想同意，听孩子说话，我立刻拒绝",
        "docid": "7333560126214930944",
        "url": ""
    },
    {
        "title": "外国人用图标识汉语难学，生动形象，想起了被英语“支配”的我",
        "docid": "7333933481925394955",
        "url": ""
    },
    {
        "title": "一年级下册语文仿写句子，还不赶紧背就快要开学了！",
        "docid": "7333904369102127668",
        "url": ""
    },
    {
        "title": "01年因高考满分作文《赤兔之死》，他被南师大录取，如今过得如何",
        "docid": "7308664294508577306",
        "url": ""
    },
    {
        "title": "2024新高考没有一本线 只有特控线/本科线 本科线历史组高于物理组",
        "docid": "7330277575392330249",
        "url": ""
    },
    {
        "title": "笑死！大学生放假回家“反击父母”，早起做饭拖地，老妈竟知错了",
        "docid": "7333104693633188371",
        "url": ""
    },
    {
        "title": "“游”没游好，“学”也很水，这家研学平台被曝不靠谱、退费难",
        "docid": "7333195512717263360",
        "url": ""
    },
    {
        "title": "平面向量三角形四心问题总结",
        "docid": "7333978571834638867",
        "url": ""
    },
    {
        "title": "“毕不了业”的学生",
        "docid": "7326180097982677545",
        "url": ""
    },
    {
        "title": "海南中考体育考试3月15日-4月20日进行",
        "docid": "7333845007328002597",
        "url": ""
    }
]