[
    {
        "title": "Wi-Fi密码是8个8，英语怎么说？真的不是eight eight eight…",
        "docid": "7339089720376328744",
        "url": ""
    },
    {
        "title": "赢麻了！烟大8个宿舍全员考研被名校录取，为何能一起上岸",
        "docid": "7359410746884620852",
        "url": ""
    },
    {
        "title": "妈妈晒女儿去学校仅需30秒，一下楼就是学校门口：迟到没理由了",
        "docid": "7366104261971116598",
        "url": ""
    },
    {
        "title": "“101计划”能否撼动“985”与“211”高校的地位？",
        "docid": "7361348207625912882",
        "url": ""
    },
    {
        "title": "炸裂！上海15岁女孩跟男同学在操场发生性行为。女孩家长索赔20万",
        "docid": "7368407172654465570",
        "url": ""
    },
    {
        "title": "她花7年研究北京精英家庭：有钱人如何复制阶层？",
        "docid": "7337443592954659379",
        "url": ""
    },
    {
        "title": "86名河南学子直升清北等名校，某高中占85人：4种途径进这所中学",
        "docid": "7368663767573578290",
        "url": ""
    },
    {
        "title": "妈妈骑电动车接儿子放学，路口偶遇爸爸开车接女儿，弟弟表情亮了",
        "docid": "7337634487913677350",
        "url": ""
    },
    {
        "title": "36岁将备战第16次高考，活在舒适圈中的唐尚珺，目标还是清华吗？",
        "docid": "7368773678751941174",
        "url": ""
    },
    {
        "title": "老师布置作业，要求与钱币风景合拍，家长财力有限只能“造假”",
        "docid": "7366062955814715904",
        "url": ""
    },
    {
        "title": "河南女孩遭遇霸凌后续：警察初显淡定，妈妈化身“超级英雄”！",
        "docid": "7368684138536206888",
        "url": ""
    },
    {
        "title": "“番禺美女班主任震惊全校！22岁辞职参军，全班学生激动连连！”",
        "docid": "7351951607099195939",
        "url": ""
    },
    {
        "title": "奥运冠军杨威俩女儿不上学，全靠家教！连病三大场，当爹的怕了",
        "docid": "7345442858750558729",
        "url": ""
    },
    {
        "title": "谢谢清华大学，这些在线工具太牛了 ​​​",
        "docid": "7334758776979554827",
        "url": ""
    },
    {
        "title": "北方跑操要求统一，南方跑操：你跑起来就行",
        "docid": "7361484170348102156",
        "url": ""
    },
    {
        "title": "当初花10年考上中央美院的励志保安，7年后并没有成功改命",
        "docid": "7360204852691206656",
        "url": ""
    },
    {
        "title": "“新型啃老”已来临，比“传统啃老”更严重，很多父母还没意识到",
        "docid": "7338013700726735414",
        "url": ""
    },
    {
        "title": "大学生“高超”打免费汤技巧，一勺下去“老员工”都走了",
        "docid": "7352352276985414156",
        "url": ""
    },
    {
        "title": "山东家里仨男孩，烙17张饼不够一家人吃冲上热搜",
        "docid": "7366827232794771983",
        "url": ""
    },
    {
        "title": "孩子课堂当众脱裤露体！家长网上曝光，教育部门介入！评论区炸锅",
        "docid": "7368736388377854490",
        "url": ""
    },
    {
        "title": "高中食堂，男生突然唱响《夜空中最亮的星》惊艳全场，致青春",
        "docid": "7361010131213124108",
        "url": ""
    },
    {
        "title": "教育的风向变了，学历不再是唯一，家长们请早点转变思维。",
        "docid": "7356223851468112447",
        "url": ""
    },
    {
        "title": "我的天，中国科学院大学的宿舍也太好了吧",
        "docid": "7341768393655255586",
        "url": ""
    },
    {
        "title": "教育部：严禁以各种方式挤占课间10分钟，严禁教师漠视纵容学生欺凌",
        "docid": "7368693928096170532",
        "url": ""
    },
    {
        "title": "一边为外国留学生巨额补贴，另一边高铁涨价！变相“供养”外人？",
        "docid": "7368382358594077235",
        "url": ""
    },
    {
        "title": "天津16所大学毕业证如同废纸，已被官方点名曝光，家长报考需谨慎",
        "docid": "7368334465669661238",
        "url": ""
    },
    {
        "title": "初三女生怕扰民在地库练古筝，琴声婉转低沉让人听不够：想天天听",
        "docid": "7368730728252572223",
        "url": ""
    },
    {
        "title": "三位男生跳傣族舞，跳出了“歹徒”舞的感觉",
        "docid": "7368771178493805094",
        "url": ""
    },
    {
        "title": "南林大副教授的绝望：归国博士缘何走上绝路？",
        "docid": "7368809673351004722",
        "url": ""
    },
    {
        "title": "整治挤占“课间十分钟” 纵容校园霸凌等，教育部出手了",
        "docid": "7368708213916762687",
        "url": ""
    },
    {
        "title": "沈阳女孩衬衫不合身，被爸爸吐槽像大堂经理，下秒戏精上身神模仿",
        "docid": "7367936829405790774",
        "url": ""
    },
    {
        "title": "罗翔 在我国，有三类人不能判死刑！",
        "docid": "7347955768546722338",
        "url": ""
    },
    {
        "title": "当年高呼“多拿1分，干掉千人”的衡水班长，10年后怎么样了？",
        "docid": "7368545379786195496",
        "url": ""
    },
    {
        "title": "年轻的样子#毕业典礼 #唱歌的大学生 #校园好声音 #校园神级翻唱",
        "docid": "7340493833114911247",
        "url": ""
    },
    {
        "title": "山西体考作弊后续：知情人曝冲突原因，事情不简单，校方通告来了",
        "docid": "7368782294192079397",
        "url": ""
    },
    {
        "title": "为什么挤破头颅都要让孩子进重点班？从教师视角告诉你答案",
        "docid": "7345376996992221748",
        "url": ""
    },
    {
        "title": "教育在此刻完成了闭环，拥有阅历那一刻茅塞顿开，不能拯救自己",
        "docid": "7342788130975679011",
        "url": ""
    },
    {
        "title": "用老百姓能听懂语言讲解专业！大白话说说专业都是干什么的！",
        "docid": "7342456507906621987",
        "url": ""
    },
    {
        "title": "月入4万，供不应求！这个职业为什么火了？",
        "docid": "7368033795833889331",
        "url": ""
    },
    {
        "title": "“我们孩子第一节课不上了，要睡到自然醒”，家长怎会如此任性？",
        "docid": "7342687685070307849",
        "url": ""
    },
    {
        "title": "越看越有感觉！原来八十年代老课本里，还掩藏着更为有趣的内容",
        "docid": "7346163460029350441",
        "url": ""
    },
    {
        "title": "车辆工程学院高光时刻。#校运会开幕式 #小米su7",
        "docid": "7368690570316743219",
        "url": ""
    },
    {
        "title": "开学第一天，学校课间操跳民族打跳舞，第一排跳操王者段位",
        "docid": "7341387330903376421",
        "url": ""
    },
    {
        "title": "“烟卡”纷纷被禁，真的如洪水猛兽危害学生吗？家长们说出了真相",
        "docid": "7368492071952499227",
        "url": ""
    },
    {
        "title": "大学生的断崖式衰老：从毕业前的意气风发，变成双眼无光的牛马",
        "docid": "7342398160033939995",
        "url": ""
    },
    {
        "title": "“少年看眼，中年看嘴”：子女身上，出现这两个迹象，多半很富贵",
        "docid": "7360902905836356106",
        "url": ""
    },
    {
        "title": "校园霸凌事件震动吉林司法警官职业学院：真相待揭",
        "docid": "7368666767498936842",
        "url": ""
    },
    {
        "title": "不愧是高人指点过的案子，判了跟没判一样。#罗翔 #罗翔讲刑法",
        "docid": "7340231733251899923",
        "url": ""
    },
    {
        "title": "父母爱讲道理却又给不了帮助，网友：远离失败的父母！评论太扎心",
        "docid": "7356114926215119412",
        "url": ""
    },
    {
        "title": "宿管阿姨因颜值高被男生唱情歌，深情对望阿姨害羞捂脸，网友看呆",
        "docid": "7368667905128399410",
        "url": ""
    },
    {
        "title": "我是55岁的老教师，下周上公开课，我的做法你可能想不到",
        "docid": "7363317831133430291",
        "url": ""
    },
    {
        "title": "女生骗异地男友在睡觉，跨越2000公里偷偷来学校找他",
        "docid": "7368715450378781195",
        "url": ""
    },
    {
        "title": "国外看中国哈工大学生军训场面 外国网友：中国坚信少年强则国强",
        "docid": "7345715645490987571",
        "url": ""
    },
    {
        "title": "任何情况下教师都不能体罚学生吗？对于极为顽劣的学生又该怎么办",
        "docid": "7345808856604099124",
        "url": ""
    },
    {
        "title": "学生在化学课上做实验，希望你在追光的路上能成为光",
        "docid": "7368752125255352873",
        "url": ""
    },
    {
        "title": "1米63的小学生女儿生病了，被老父亲抱着，评论区笑麻了",
        "docid": "7352071754233446952",
        "url": ""
    },
    {
        "title": "公办中小学教师的现状令人担忧，超过5%的教师都处于以下状态:",
        "docid": "7368363986695389737",
        "url": ""
    },
    {
        "title": "女生看社火表演时用免耳朵打节拍，不料把整个锣鼓队节奏带偏了",
        "docid": "7339424685660537344",
        "url": ""
    },
    {
        "title": "文科女研究生走投无路崩溃大哭#你认为张雪峰观点有理吗",
        "docid": "7346166932468400694",
        "url": ""
    },
    {
        "title": "南都周刊：知识分子的使命，是让人民不受骗",
        "docid": "7368441634406679080",
        "url": ""
    },
    {
        "title": "竞赛生究竟有多香？竞赛生有15种高考出路，高考裸考仅是最后一条",
        "docid": "7340615883011654159",
        "url": ""
    },
    {
        "title": "女孩上模特班正处兴奋期，穿风衣霸气入校气场全开，保安秒变保镖",
        "docid": "7368361798648463898",
        "url": ""
    },
    {
        "title": "校长用粤语做爱国教育，师生齐唱名曲缅怀英烈。抗战时期",
        "docid": "7359523654159630859",
        "url": ""
    },
    {
        "title": "世界四大最牛理工大学",
        "docid": "7366715255520887348",
        "url": ""
    },
    {
        "title": "俩女生头围毛巾在宿舍“舞蛇”，脸盆踢开时绷不住了：两个蛇精病",
        "docid": "7368343816614445609",
        "url": ""
    },
    {
        "title": "高中生发明“咯噔”字体，孤芳自赏却并不得分，网友劝其早日清醒",
        "docid": "7365187137802830347",
        "url": ""
    },
    {
        "title": "那个喜提保时捷的女大学生，实至名归",
        "docid": "7368767092809646628",
        "url": ""
    },
    {
        "title": "学霸背后都有一个会规划的母亲！来自深圳的妈妈分享",
        "docid": "7368749468524855871",
        "url": ""
    },
    {
        "title": "清华女学霸校内外两幅面孔，校内安静学习背影杀手，校外瞬间释放",
        "docid": "7368774161520394779",
        "url": ""
    },
    {
        "title": "新加坡中国网民叫成“坡县”，新加坡人怎么说？",
        "docid": "7344195901382427148",
        "url": ""
    },
    {
        "title": "广东省国家级、广州市示范性普通高中名单公布",
        "docid": "7367948537067323914",
        "url": ""
    },
    {
        "title": "一位父亲辅导孩子写作业的真实场面，看得出孩子情绪相当稳定",
        "docid": "7356123260130198035",
        "url": ""
    },
    {
        "title": "武汉理工大学校长带队调研华中师大一附中",
        "docid": "7368325313409172009",
        "url": ""
    },
    {
        "title": "为啥大家都不愿参加同学聚会了？网友：有些人就是冲着女同学去的",
        "docid": "7368742529002455602",
        "url": ""
    },
    {
        "title": "美国版《意林》，让西方家长集体破防了",
        "docid": "7368742450602492426",
        "url": ""
    },
    {
        "title": "啥？朋友圈少儿才艺投票是骗局？网友：我花了1万5，现在是崩溃的",
        "docid": "7368759261406462491",
        "url": ""
    },
    {
        "title": "河大百年大礼堂最后的影像，太可惜了。",
        "docid": "7364566120298185231",
        "url": ""
    },
    {
        "title": "尤勇智谈论陕西话，主要就是气势大，兰州话的形容词会很多",
        "docid": "7354670994964873743",
        "url": ""
    },
    {
        "title": "小学生“玩烟卡”，到底该不该禁？",
        "docid": "7355439678562091535",
        "url": ""
    },
    {
        "title": "驳武大吕德文教授:博士弟子论文被否，应该反思，而不是指责他人",
        "docid": "7368658035134185984",
        "url": ""
    },
    {
        "title": "小学要求每生缴纳2万元学费，保障教育经费是应有之义",
        "docid": "7368409723978220095",
        "url": ""
    },
    {
        "title": "还没招生，校长换了三任！曹德旺的福耀科技大学究竟怎样",
        "docid": "7351681354230333971",
        "url": ""
    },
    {
        "title": "计算机专业：南京大学和浙江大学如何选？",
        "docid": "7337482688934625826",
        "url": ""
    },
    {
        "title": "疫情中的毕业生们，不想成功了",
        "docid": "7363888604197831202",
        "url": ""
    },
    {
        "title": "二本里的好大学",
        "docid": "7366902191879520768",
        "url": ""
    },
    {
        "title": "1986年初三重点班的6个好伙伴，30多年后，各自的处境无法想象",
        "docid": "7341474833898783284",
        "url": ""
    },
    {
        "title": "张雪峰推荐6所二本大学，考上就是铁饭碗，在河南省录取多少分？",
        "docid": "7362515389614195252",
        "url": ""
    },
    {
        "title": "女生乘火车8小时奔现到地被拉黑，街头游荡满是无助：不信网恋了",
        "docid": "7368789650864570889",
        "url": ""
    },
    {
        "title": "河南一小步，中华一大步！取消少数民族加分，走向民族平等与认同",
        "docid": "7366863887708275237",
        "url": ""
    },
    {
        "title": "185男生初中放学被爸爸接送，剑眉星目颜值逆天：再帅也得看儿科",
        "docid": "7366820818426266152",
        "url": ""
    },
    {
        "title": "中央美术学院举行研究生毕业作品展",
        "docid": "7368454399096537638",
        "url": ""
    },
    {
        "title": "指导师却在整个家访过程中，对女孩进行着无情的打压和 PUA",
        "docid": "7368794640864150053",
        "url": ""
    },
    {
        "title": "博士论文遭遇“恶意”评审，导师发文怒斥",
        "docid": "7368144463153103375",
        "url": ""
    },
    {
        "title": "能听懂这段，已经比大部分人强了",
        "docid": "7357306836787298879",
        "url": ""
    },
    {
        "title": "2024财经类大学排名出炉，中财大无缘榜首，江西财经反超南京财经",
        "docid": "7368364007645823539",
        "url": ""
    },
    {
        "title": "男生高考后饭店打工 考了616分 全店为他鼓掌",
        "docid": "7368661126273303055",
        "url": ""
    },
    {
        "title": "网传太原一中学体考作弊，200米21秒，内定生被曝，称30万买第一",
        "docid": "7368390497397752329",
        "url": ""
    },
    {
        "title": "天才少女14岁上央视，21岁时未婚生3个孩子，谁毁了她的人生？",
        "docid": "7359514399852036662",
        "url": ""
    },
    {
        "title": "江苏走下坡路的中学，02年高考全校均分592，03年21人考取清北",
        "docid": "7365149917025157673",
        "url": ""
    },
    {
        "title": "民国时期出版的语文课本，难得一见啊！",
        "docid": "7356150188119130662",
        "url": ""
    },
    {
        "title": "老外看哈工大军训震撼视频，国外网友：唯一具有核打击能力的大学",
        "docid": "7340474544404529699",
        "url": ""
    },
    {
        "title": "跟异性合租是种什么体验？网友：留学国外和青岛妹子合租",
        "docid": "7368683287637770778",
        "url": ""
    },
    {
        "title": "饶毅：我的母校怎么从平庸的医学院变成全球顶尖？",
        "docid": "7337234692833608232",
        "url": ""
    },
    {
        "title": "毕业后女儿选择了选调生，现在六年过去了，没想到过成了这个样子",
        "docid": "7368634221684769318",
        "url": ""
    },
    {
        "title": "20个低成本不烧钱的兴趣爱好，坚持下来会上瘾",
        "docid": "7345786722287993354",
        "url": ""
    },
    {
        "title": "等了一年白瞎了！没有河南医药大学，新乡医学院傻眼了？",
        "docid": "7368760441008292392",
        "url": ""
    },
    {
        "title": "中国小学生课间操震惊各国网友，韩网友依然稳定输出！🤣#课间操",
        "docid": "7346446121582985763",
        "url": ""
    },
    {
        "title": "纪实 : 1987年参加“高考预选”，全班59人，就我一个人过关！",
        "docid": "7359852349726540323",
        "url": ""
    },
    {
        "title": "不要相信普通二本没用了！今天就告诉你，本科学历的几大重要作用",
        "docid": "7340175664298934821",
        "url": ""
    },
    {
        "title": "护理学被列入国控专业，意味着什么？",
        "docid": "7348811000763892235",
        "url": ""
    },
    {
        "title": "教育部公示拟同意设9所本科高校",
        "docid": "7368438409336537615",
        "url": ""
    },
    {
        "title": "就业率最高的6所纯211大学，超越一般985，考上就是赚到！",
        "docid": "7342111089448157730",
        "url": ""
    },
    {
        "title": "39年前，我们初三班的“五朵金花”，人生风雨中的花开花谢",
        "docid": "7350856181247738378",
        "url": ""
    },
    {
        "title": "“换座”一文太精彩了，你细品",
        "docid": "7345223785232007714",
        "url": ""
    },
    {
        "title": "2016年,西安高三学霸林嘉文，距高考百天时跳楼，他经历了什么？",
        "docid": "7345376530517721635",
        "url": ""
    },
    {
        "title": "复旦教授王德峰上课吸烟！遭众家长举报！学生：你们懂什么？",
        "docid": "7355003396367286834",
        "url": ""
    },
    {
        "title": "重生之我是蔡元培考北大，北大回复了！评论区笑不活了",
        "docid": "7348016691042976297",
        "url": ""
    },
    {
        "title": "为什么很多声乐老师不选择出道？评论区真实，网友回答扎心又现实",
        "docid": "7364530683294908991",
        "url": ""
    },
    {
        "title": "外甥写作文吐露心声：这辈子最后悔的事，就是把周老师介绍给舅舅",
        "docid": "7352812638159553059",
        "url": ""
    },
    {
        "title": "为什么孩子不让我加他大学老师的微信？网友：哪来的自信，脸大吗",
        "docid": "7346586863773303311",
        "url": ""
    },
    {
        "title": "女儿因“太累了”休学一年，网友：原来人生的容错率大到难以想象",
        "docid": "7359798229052949001",
        "url": ""
    },
    {
        "title": "肩戴“五道杠”，市长亲自回信，一脸“官相”小学生，如今怎样了",
        "docid": "7343420608354763283",
        "url": ""
    },
    {
        "title": "原来每一条新校规背后都有一个离谱的故事~",
        "docid": "7344249046900654642",
        "url": ""
    },
    {
        "title": "当学校把钱花在“刀柄”上是什么样子?网友:体育馆吊豪华顶!",
        "docid": "7355405040334488064",
        "url": ""
    },
    {
        "title": "B站有这样一波人，他们把知识公开了，让学习更精进",
        "docid": "7339399602409832960",
        "url": ""
    },
    {
        "title": "最全！近20年湖北高中大排名！考生清北数量、状元人数哪家强？",
        "docid": "7340793148672573992",
        "url": ""
    },
    {
        "title": "很纳闷，按理说，华为签约最多的学生应该是电子科技大学和西北工",
        "docid": "7367825952614744576",
        "url": ""
    },
    {
        "title": "德国的留学生有多难毕业？网友分享太炸裂，这换谁都得疯！",
        "docid": "7362844077114769920",
        "url": ""
    },
    {
        "title": "“混吃等死的娃配不上我的好资源”引热议：父母的爱是有条件的吗",
        "docid": "7368693282567684635",
        "url": ""
    },
    {
        "title": "老师怎么看出来作文是抄的？网友:我终于回到阔别三十多年的故乡",
        "docid": "7341291234130149900",
        "url": ""
    },
    {
        "title": "中国的35岁之殇",
        "docid": "7368288252429615679",
        "url": ""
    },
    {
        "title": "祖坟冒了4次青烟,却被父母的无知亲手浇灭!网友:一手好牌打的稀烂",
        "docid": "7343884381402743350",
        "url": ""
    },
    {
        "title": "考研考的本校去复试的状态是怎么样的？网友：我导说这是我的学生",
        "docid": "7346401134841545268",
        "url": ""
    },
    {
        "title": "张雪峰老师喊话：女生选择这四个专业，将来就业“躺赢”",
        "docid": "7346218276000907786",
        "url": ""
    },
    {
        "title": "大学生带特产到学校被嫌弃？实际上：你肯定还有！评论区真实了",
        "docid": "7349480703706464803",
        "url": ""
    },
    {
        "title": "韩国人高考卷是真的吗？网友：我妹考不上国内本科在韩国考上博了",
        "docid": "7342470549291090470",
        "url": ""
    },
    {
        "title": "男学生长太高，班主任站板凳训话，网友乐了：孩子看起来憋笑憋很久",
        "docid": "7349074198490333734",
        "url": ""
    },
    {
        "title": "“为了杜绝师生恋可以打扮成蟑螂？”论老师有多怕师生恋",
        "docid": "7337986146246623770",
        "url": ""
    },
    {
        "title": "恭喜！她结婚了！网友：是我作文里的她呀……",
        "docid": "7366869043598639616",
        "url": ""
    },
    {
        "title": "大学生的断崖式衰老：从毕业前的意气风发，变成双眼无光的牛马",
        "docid": "7345723695266349608",
        "url": ""
    },
    {
        "title": "中国人究竟有多会吃？国外的草都快薅光了，当地驴快吃绝了",
        "docid": "7337111567361917449",
        "url": ""
    },
    {
        "title": "“离离原上草”为何课本删了后四句？看完原诗，你觉得该删吗？",
        "docid": "7337253659393081868",
        "url": ""
    },
    {
        "title": "你什么时候斩断了童年时代的拉扯?网友:30岁才知道人生不差这一口",
        "docid": "7360578788540989987",
        "url": ""
    },
    {
        "title": "姐给弟买鞋，惹爸生气取消五一旅行！评论区共情，所有父母反省！",
        "docid": "7364031352141922870",
        "url": ""
    },
    {
        "title": "美式快乐教育正在锁死美国的未来",
        "docid": "7365852476282815028",
        "url": ""
    },
    {
        "title": "闹大了 ！家委会2月花光2.8万班费吃喝，要学生每人加1000元",
        "docid": "7366821315313123875",
        "url": ""
    },
    {
        "title": "一直以为韩国很卷，没想到竟是瞎卷，被评论区笑发财了",
        "docid": "7368761507783459369",
        "url": ""
    },
    {
        "title": "港台女明星周慧敏的绘画作品欣赏，不愧是演艺界美术课代表",
        "docid": "7336887129207046668",
        "url": ""
    },
    {
        "title": "大学生真的会嫌弃家乡特产吗？网友：我妈做的榨菜我差点拿不出手",
        "docid": "7355810841796657698",
        "url": ""
    },
    {
        "title": "大专生必看！读大专应该选什么专业?",
        "docid": "7345130047709659685",
        "url": ""
    },
    {
        "title": "16岁还靠人喂饭，被称第一“巨婴”刘思琦，如今却成了父母的骄傲",
        "docid": "7350183227933475364",
        "url": ""
    },
    {
        "title": "那个瞬间让你觉得女孩子一定要富养？看完网友的评论，沉默许久",
        "docid": "7356796121009668608",
        "url": ""
    },
    {
        "title": "钢琴销量暴跌，因为穷人终于发现学钢琴是个巨大的骗局！",
        "docid": "7367619716623516212",
        "url": ""
    },
    {
        "title": "“毒教材”消失，新教材五官端正、国风满满，中国人的审美回来了",
        "docid": "7367282021657281036",
        "url": ""
    },
    {
        "title": "2003年，他偷窃高考试卷，背熟后去参加考试，看到考题却傻眼了",
        "docid": "7348662052329751079",
        "url": ""
    },
    {
        "title": "哪一年出生的孩子高考最难？高中选科利弊，建议家长收藏",
        "docid": "7344384990731633186",
        "url": ""
    },
    {
        "title": "\"19岁了，妈妈还在大学家长群回复收到\"",
        "docid": "7352038487912268322",
        "url": ""
    },
    {
        "title": "浙江台州一小学要求每生缴纳2万元学费 官方最新回应：不需要交了",
        "docid": "7368322828556354100",
        "url": ""
    },
    {
        "title": "抓住信息差到底有多重要，这是普通人逆袭的好机会！",
        "docid": "7340234525040083510",
        "url": ""
    },
    {
        "title": "技校究竟能乱成什么样？网友的分享真是让人大开眼界",
        "docid": "7346457828103701033",
        "url": ""
    },
    {
        "title": "脚都快踢屁股上了 可把像素小人急死了 直接被拉爆了💩#运动会",
        "docid": "7363678000086254095",
        "url": ""
    },
    {
        "title": "大一新生宿舍扮领导遇真领导，两人气质傻傻分不清：拖鞋暴露了！",
        "docid": "7336806400204472841",
        "url": ""
    },
    {
        "title": "广西状元林丽渊：语文忘写名字、考英语睡觉，却以672分进入北大!",
        "docid": "7341317690977829416",
        "url": ""
    },
    {
        "title": "母亲瘫痪，父亲疯了，那个744分的高考状元，7年后成了这样",
        "docid": "7366916151344988699",
        "url": ""
    },
    {
        "title": "西安高三学霸林嘉文，距高考百天跳楼，遗言：未来对我太没吸引力",
        "docid": "7345412739105292819",
        "url": ""
    },
    {
        "title": "唐尚珺将参加24年高考，蹉跎十几年，他终于放弃以往目标",
        "docid": "7342479467954258441",
        "url": ""
    },
    {
        "title": "细数那些隐藏在大学里的“扫地僧”！出了校门你就不配听他说话",
        "docid": "7342358680207311397",
        "url": ""
    },
    {
        "title": "盘点这些年湖北被挖走的大神级竞赛教练！湖北数、理教练遍布全国",
        "docid": "7348363415281222156",
        "url": ""
    },
    {
        "title": "留学生的父母能有多荒谬？看网友分享我笑抽了，父母也是卧龙凤雏",
        "docid": "7368787026684920346",
        "url": ""
    },
    {
        "title": "当年拒绝北大，宁可让母亲贷款100万上哈佛的寒门少女，过得怎样",
        "docid": "7353479302299648564",
        "url": ""
    },
    {
        "title": "精辟！如何防止自家孩子在读书时候被霸凌！评论区网友各显神通！",
        "docid": "7347595717059363363",
        "url": ""
    },
    {
        "title": "专业科普：为什么很多唱功很好的声乐老师不选择出道当歌手？",
        "docid": "7365696724192592394",
        "url": ""
    },
    {
        "title": "没有优生源的乡镇初中晚自习到十点的意义是什么？评论区太戳我了",
        "docid": "7341894094022541850",
        "url": ""
    },
    {
        "title": "监考老师是如何打发时间的？被通报批评那个让人笑不活了",
        "docid": "7352045672687862323",
        "url": ""
    },
    {
        "title": "80后无限循环的一生，太真实了！",
        "docid": "7360875681468727834",
        "url": ""
    },
    {
        "title": "哪个瞬间让留学生感觉中国强大了？网友：中国经常被老师拿来举例",
        "docid": "7368018368957465142",
        "url": ""
    },
    {
        "title": "曾经漂亮的校花现在怎么样了？网友：16岁过完了别人的一生！",
        "docid": "7337481706523886092",
        "url": ""
    },
    {
        "title": "不是教育存在滞后性，是有些课文，我们长大后才能读懂",
        "docid": "7337999672319033890",
        "url": ""
    },
    {
        "title": "“改分救人”后续：通报已出，5个学校领导被牵连，果然不简单",
        "docid": "7368816092851028514",
        "url": ""
    },
    {
        "title": "偷拍女生裙底被当场抓获？女子处理果断，男子学校却说女子栽赃",
        "docid": "7368757786932445730",
        "url": ""
    },
    {
        "title": "女大学生颜值高，父亲吐槽不碰家务，天天躲卧室，网友争着喊岳父",
        "docid": "7336190999108190739",
        "url": ""
    },
    {
        "title": "大结局！“按闹改成绩”通报：5人被处分，网友：举报老师完蛋了",
        "docid": "7368816605868065320",
        "url": ""
    },
    {
        "title": "大学生要生活费太难？女大学生吐槽父母：一个月5000元都舍不得给",
        "docid": "7368678784209404456",
        "url": ""
    },
    {
        "title": "2018年，陕西学生因校园霸凌退学，四年后回校捅死9人，被执死刑",
        "docid": "7350952039821623844",
        "url": ""
    },
    {
        "title": "瞒着家人在上海打工复读，便利店看视频自学，经历三次高考的他终于上岸",
        "docid": "7356502262300230198",
        "url": ""
    },
    {
        "title": "为什么说韩国人是在瞎卷呢？看完他们的学习方法你就知道了",
        "docid": "7346833029769364031",
        "url": ""
    },
    {
        "title": "汶川地震的“范跑跑”，如今儿女双全住别墅，没师德却越混越好？",
        "docid": "7368820219474723362",
        "url": ""
    },
    {
        "title": "难怪大家都在说语文就适合晚上考!各位文豪创作让我五体投地,绝妙",
        "docid": "7350909482978869760",
        "url": ""
    },
    {
        "title": "2024湖北省大学排名“大调整”，武大位列第二，武理工无缘前",
        "docid": "7367310628911874596",
        "url": ""
    },
    {
        "title": "三峡大学王汉源挂科14门，却考研上岸华中科大，父母身份不简单！",
        "docid": "7368368988407005746",
        "url": ""
    },
    {
        "title": "部分中产家庭的明智之选！教育风向突变了。他们终于换了一种方式",
        "docid": "7339383626083893800",
        "url": ""
    },
    {
        "title": "你以为的高中休学VS实际上的",
        "docid": "7350161118888919562",
        "url": ""
    },
    {
        "title": "“毒教材”终于消失！课本焕然一新，国风满满，中国的审美回来了",
        "docid": "7367649542495339060",
        "url": ""
    },
    {
        "title": "请放过孩子们吧！令人窒息的“厕所社交”，正在无情摧残下一代",
        "docid": "7368667131698856457",
        "url": ""
    },
    {
        "title": "广西南宁：大学现30米高巨型“鲜花瀑布”",
        "docid": "7368301891010183731",
        "url": ""
    },
    {
        "title": "“技校教育现状堪忧：学生素质低下，校风混乱不堪，该如何拯救！",
        "docid": "7368337691970322970",
        "url": ""
    },
    {
        "title": "致敬！北师大教授因没排上课，把课免费发网上，录制宣传单挨个发",
        "docid": "7351336257231946294",
        "url": ""
    },
    {
        "title": "你们学校宿舍有哪些不得了的违禁品？网友：搜出了一具千年尸骸",
        "docid": "7346867351704633867",
        "url": ""
    },
    {
        "title": "北大校花：娱乐圈再见，我去卖臭豆腐了",
        "docid": "7338259182984217088",
        "url": ""
    },
    {
        "title": "原来留学生那股平静的疯感都是这么来的!看完网友分享,汗流浃背了",
        "docid": "7359748356748739084",
        "url": ""
    },
    {
        "title": "“全能天才”王昱珩：清华毕业后不上班，他把所有吹的牛都实现了",
        "docid": "7368806787158999579",
        "url": ""
    },
    {
        "title": "为什么头部高中不按中考成绩分班，而是重新考试",
        "docid": "7308333085698245174",
        "url": ""
    },
    {
        "title": "清华大学辟谣“校庆不见国旗”：部分自媒体肆意抹黑，截图拼凑",
        "docid": "7366839395753656886",
        "url": ""
    },
    {
        "title": "中国天才被美200万“挖走”，毕业就回国，一出手就是世界第一",
        "docid": "7350895521839546880",
        "url": ""
    },
    {
        "title": "从爆火到消失，中国人为什么不学钢琴了？学不起还是不想学？",
        "docid": "7349766645310734848",
        "url": ""
    },
    {
        "title": "一日网友的奇想：我很想生在中国，讨厌自己生在日本！评论区沸腾",
        "docid": "7339052799235686952",
        "url": ""
    },
    {
        "title": "爸爸拍下女儿荣升班长当天的神态， 和儿时的班主任一模一样",
        "docid": "7338702587891614208",
        "url": ""
    },
    {
        "title": "狗子遛弯遇春游学生，瞬间被起了几十个名字不出意外喊的都是同学",
        "docid": "7340447748275536393",
        "url": ""
    },
    {
        "title": "男生为情所伤剃了光头，面对室友的调戏还是一脸沉默，看泡面笑喷",
        "docid": "7365448338906284582",
        "url": ""
    },
    {
        "title": "啥叫敷衍式跳高？大概就是，身高摆在这儿，助跑就多余",
        "docid": "7338586054125060645",
        "url": ""
    },
    {
        "title": "战略支援部队撤销后，河南唯一的军校被拆分，高考能不能捡漏？",
        "docid": "7360998925773324851",
        "url": ""
    },
    {
        "title": "河南女初中生被霸凌遭殴打脱衣吃烟头，警方已回应，女生妈妈发声",
        "docid": "7368768234848125494",
        "url": ""
    },
    {
        "title": "心酸！广西民大院长遭校车撞倒身亡却无人负责？可想普通人多难！",
        "docid": "7368693863873004068",
        "url": ""
    },
    {
        "title": "你的老师都做过什么惊为天人的事情？网友：从此在学校名声赫赫！",
        "docid": "7348693419276960271",
        "url": ""
    },
    {
        "title": "那些拼命考上研的二本生，后来怎么样了？过来人说出真实答案",
        "docid": "7341300561578574351",
        "url": ""
    },
    {
        "title": "王贵红，你的努力我们看见了！",
        "docid": "7368860733448962611",
        "url": ""
    },
    {
        "title": "父女参加亲子运动会跳绳比赛，配合默契惊呆同学，仿佛开挂一般",
        "docid": "7348653624756535871",
        "url": ""
    },
    {
        "title": "老师失恋学生暖心安慰，金句频出逗乐网友：总有人带着真诚来找你",
        "docid": "7343072849764024866",
        "url": ""
    },
    {
        "title": "为何教师之间要听课，到底听什么？评论区道出了真相！",
        "docid": "7365318141133586971",
        "url": ""
    },
    {
        "title": "瘫子娘、疯子爹，744分高考状元被清华录取7年后，如今生活怎样？",
        "docid": "7350206096168043023",
        "url": ""
    },
    {
        "title": "3年前，宁夏7岁小女孩一笑成名，后父母拒百万签约，如今怎么样了？他们有后悔当时的拒绝么？",
        "docid": "7357308923177484863",
        "url": ""
    },
    {
        "title": "原来艺考有这么多黑幕！网友亲身经历，舞蹈生那个真的别太离谱！",
        "docid": "7359067323573060150",
        "url": ""
    },
    {
        "title": "清北强基计划各省排名！北京夺冠，浙江力压上海，湖南跌下神坛",
        "docid": "7352440875890508322",
        "url": ""
    },
    {
        "title": "西安科技大学学生成绩按“闹”修改？校方：全面调查，严肃追责绝不姑息",
        "docid": "7367702013288743443",
        "url": ""
    },
    {
        "title": "中国学费最高的十所大学",
        "docid": "7353964089502122496",
        "url": ""
    },
    {
        "title": "武汉高校男生喝酒晚归，与宿管阿姨爆笑深情对话：又是一个酒蒙子",
        "docid": "7350157358481277480",
        "url": ""
    },
    {
        "title": "男孩给老师“算命”40多岁才会找对象，老师再次质问男孩回答亮了",
        "docid": "7344931564478562857",
        "url": ""
    },
    {
        "title": "这一刻我终于认清电视剧与现实的差距了，网友：太真实了！",
        "docid": "7368025574108938761",
        "url": ""
    },
    {
        "title": "男生第一次乘坐火车硬卧，见四周都是女生当场傻眼了：女生宿舍？",
        "docid": "7351735054931853839",
        "url": ""
    },
    {
        "title": "厦大食堂被“吐槽”了，咋回事？",
        "docid": "7360110972565979698",
        "url": ""
    },
    {
        "title": "汶川地震的“范跑跑”，如今儿女双全住别墅，没师德却越混越好？",
        "docid": "7368756261740921384",
        "url": ""
    },
    {
        "title": "笑麻了！学霸和学渣在评论区对决，再一次直观感受到网友们的参差",
        "docid": "7361238796861440575",
        "url": ""
    },
    {
        "title": "食堂阿姨打饭扒拉掉一块肉，下秒见学生欲用筷夹回，阿姨举动无语",
        "docid": "7349024381663707660",
        "url": ""
    },
    {
        "title": "雨过天晴后女生宿舍挂满衣服很壮观，与对面男生宿舍形成鲜明对比",
        "docid": "7344933195458183699",
        "url": ""
    },
    {
        "title": "和学生恋爱？老师已成高危职业！",
        "docid": "7346362432970883599",
        "url": ""
    },
    {
        "title": "学到了！中传教授谈董宇辉出口成章的诀窍，原来真的很简单",
        "docid": "7339772351896191515",
        "url": ""
    },
    {
        "title": "在小众国家留学是一种什么样的体验 ​​​",
        "docid": "7339769157610668571",
        "url": ""
    },
    {
        "title": "回忆杀：再次看到1987年版本的语文教材我的眼泪控制不住流了下来",
        "docid": "7337612814074315327",
        "url": ""
    },
    {
        "title": "炸裂！吉林一警校发生校园霸凌，20多人群殴，网友:这是未来警察",
        "docid": "7368840193471955506",
        "url": ""
    },
    {
        "title": "儿子稀里糊涂填了个“王炸专业”，家长不懂求助网友：偷着乐吧",
        "docid": "7348262856862843403",
        "url": ""
    },
    {
        "title": "上大学最好的十个城市",
        "docid": "7344377607573471759",
        "url": ""
    },
    {
        "title": "姐姐晒弟弟从初三到高一的样子，“才一年时间 怎么变化那么大”",
        "docid": "7364666223046427162",
        "url": ""
    },
    {
        "title": "你知道211里面的第1名，是哪一所大学？老师给出的答案，你赞成吗",
        "docid": "7339698720545473043",
        "url": ""
    },
    {
        "title": "小男孩一放学就哭丧着脸 垂头丧气说没考好 镜头一转网友笑喷了",
        "docid": "7343835231118033419",
        "url": ""
    },
    {
        "title": "高校女生跳高成为全场焦点，动作优雅，一气呵成",
        "docid": "7341929487044772371",
        "url": ""
    },
    {
        "title": "学校运动会3000米长跑，冠军悠闲走完最后100米，网友侮辱性极强",
        "docid": "7343823154755666472",
        "url": ""
    },
    {
        "title": "男生被同学群殴发死亡威胁，学校想私了！父亲硬刚：不想忍不私了",
        "docid": "7359503043270590991",
        "url": ""
    },
    {
        "title": "学校运动会老师参赛，女老师早就等不及了，结果一骑绝尘",
        "docid": "7360110128302916096",
        "url": ""
    },
    {
        "title": "家长称班级分组面对面坐疑致孩子视力出问题，学校回应是“生本课堂”教改，眼科专家建议面向黑板调座为宜",
        "docid": "7368771995758150178",
        "url": ""
    },
    {
        "title": "小狗被大学生遛到累瘫，趴在地上踢都踢不走：体测都没这么强",
        "docid": "7344607868605497907",
        "url": ""
    },
    {
        "title": "长见识！运动会女生“神操作”跳高成功过杆，现场惹人爆笑不止",
        "docid": "7353451762608669219",
        "url": ""
    },
    {
        "title": "得知女儿考研上岸后，父亲大手一挥自己摊位上的菜免费随便拿",
        "docid": "7346391220114948642",
        "url": ""
    },
    {
        "title": "南京林大宋凯自杀果然有情况！麻绳专挑细处断，抑郁症扛下所有",
        "docid": "7368766631608943131",
        "url": ""
    },
    {
        "title": "爸爸悄悄到学校看望女儿 看到爸爸后满脸严肃的女儿秒变小女生",
        "docid": "7350941890826469924",
        "url": ""
    },
    {
        "title": "大学生一个月多少生活费合适？老师：两三千不靠谱，别被孩子骗了",
        "docid": "7343607794924732978",
        "url": ""
    },
    {
        "title": "真肉汤高校食堂免费汤里捞出大肉块学生：意外惊喜，阿姨都看笑了",
        "docid": "7367627197605773860",
        "url": ""
    },
    {
        "title": "女生给妈妈打开美颜，这是美颜还是换脸，榜一大哥见了哭晕在厕所",
        "docid": "7341695106707423756",
        "url": ""
    },
    {
        "title": "女生表演隔空喝汤看呆朋友，网友：这才是正儿八经的龙吸水",
        "docid": "7354639031436575272",
        "url": ""
    },
    {
        "title": "一张跑题的试卷，凭什么拿到央美高分？",
        "docid": "7358430610567791140",
        "url": ""
    },
    {
        "title": "汶川地震，那位让2300多名师生逃生的校长，仅过3年就遗憾病逝",
        "docid": "7369066654552162843",
        "url": ""
    },
    {
        "title": "12岁女孩被大四男生隔空猥亵，华东理工大学回应：已有专员跟进处理",
        "docid": "7369094676819427903",
        "url": ""
    },
    {
        "title": "2024年江苏高校排名公布，南航第3，矿大第8，南医大强势进入前10",
        "docid": "7339685820426699316",
        "url": ""
    },
    {
        "title": "突发！广西女初中生跳楼身亡！曾被老师约谈！知情人曝更多内幕！",
        "docid": "7369030198928359971",
        "url": ""
    },
    {
        "title": "大学时暗恋的英语老师，男生毕业之后娶了她，网友：祝福！",
        "docid": "7358641055773753856",
        "url": ""
    },
    {
        "title": "辽宁一女生自信大方跳课间操，认真跳好每一个动作：舞蹈的好苗子",
        "docid": "7338612509169713701",
        "url": ""
    },
    {
        "title": "女子晒自己刚入学时的照片，再对比现在的自己，没想到变化这么大",
        "docid": "7354584510912004662",
        "url": ""
    },
    {
        "title": "食堂阿姨打饭扒拉掉一块肉，下秒见学生欲用筷夹回，阿姨举动无语",
        "docid": "7367637870896644634",
        "url": ""
    },
    {
        "title": "老师擦黑板，意外发现用了几年的黑板没撕膜，学生撕下后网友炸锅",
        "docid": "7358665498004816447",
        "url": ""
    },
    {
        "title": "又现校园霸凌！13岁男孩遭4名女同学多次霸凌，至今不敢去上学",
        "docid": "7366917642474635830",
        "url": ""
    },
    {
        "title": "“烟卡”纷纷被禁，真的如洪水猛兽危害学生吗？家长们说出了真相",
        "docid": "7368634957348160034",
        "url": ""
    },
    {
        "title": "学生穿上跟班主任同款衣服，瞬间变成班主任，腰上还缺串钥匙",
        "docid": "7353478277308088844",
        "url": ""
    },
    {
        "title": "68岁食堂大叔手写每周菜单 字迹工整堪比印刷体",
        "docid": "7350977241825673747",
        "url": ""
    },
    {
        "title": "爸爸参加家长会坐下觉得不对劲 ，抬头一看尴尬扭头：这小兔崽子",
        "docid": "7364945738848600626",
        "url": ""
    },
    {
        "title": "妹妹被姐姐偷偷带到大学宿舍，住一晚不哭不闹，乖巧懂事萌翻网友",
        "docid": "7360482091949261363",
        "url": ""
    },
    {
        "title": "33所全国职业技术大学排名，深圳职业技术大学排第一",
        "docid": "7356529152541786678",
        "url": ""
    },
    {
        "title": "小学生住校有多疼自己，老师翻开裤腿查看，震惊到了",
        "docid": "7338964952721883660",
        "url": ""
    },
    {
        "title": "儿子学校被霸凌！江苏老爸驱车千里讨说法称 烟、钱、卡，送来了！",
        "docid": "7368815467252679203",
        "url": ""
    },
    {
        "title": "高三班主任在教室里拍下心酸一幕，我才明白比贫穷更可怕的是内卷",
        "docid": "7354965464147051020",
        "url": ""
    },
    {
        "title": "人间清醒！四川一萌娃神解释语文和数学的区别，必成大器",
        "docid": "7351234569934209590",
        "url": ""
    },
    {
        "title": "高铁清洁袋成为年轻人“漂流瓶”",
        "docid": "7367562509920829986",
        "url": ""
    },
    {
        "title": "为什么齿数要设计为互质数！教材只告诉我结果，却没告诉我原因",
        "docid": "7350693865759785506",
        "url": ""
    },
    {
        "title": "985也分“5大梯队”，北理工的排名稍显意外，第5档亲民且好考",
        "docid": "7355768672093127187",
        "url": ""
    },
    {
        "title": "湖北PK湖南高考谁更强？华师一附中VS师大附中谁高考实力更强？",
        "docid": "7343145428004700726",
        "url": ""
    },
    {
        "title": "为什么进入高中后，来事的家长和调皮的孩子不见了？",
        "docid": "7323207125134770688",
        "url": ""
    },
    {
        "title": "19岁男孩为父亲买车，折射教育的可能、社会的多样丨九派时评",
        "docid": "7368822318044381711",
        "url": ""
    },
    {
        "title": "全国32所科技大学排名，中科大排名第一，陕西竟然有5所科技大学",
        "docid": "7355785723393491494",
        "url": ""
    },
    {
        "title": "女儿称被人欺负要转学，妈妈查看情况被眼前一幕气炸：颠倒黑白？",
        "docid": "7361658557210559012",
        "url": ""
    },
    {
        "title": "高校取消研究生奖学金！免费午餐吃不到咯！从激励到淡漠为哪般？",
        "docid": "7368400811048665612",
        "url": ""
    },
    {
        "title": "高校青年教师身陷“非升即走”？有人首月工资仅2750元，100万安家费只给50万还得排队",
        "docid": "7369052187026063887",
        "url": ""
    },
    {
        "title": "河南女生惨遭霸凌后续：殴打脱衣吃烟头，警方回应，女生妈妈发声",
        "docid": "7369003875380068918",
        "url": ""
    },
    {
        "title": "百万学子的西安，到底有多少个大学城？",
        "docid": "7340867999353537024",
        "url": ""
    },
    {
        "title": "吉林一警学院霸凌后续:知情人透露更多 有情况 学校回应！",
        "docid": "7368791021779485225",
        "url": ""
    },
    {
        "title": "当你的室友在食堂兼职，直接在一声声“厨师长”中迷失自我",
        "docid": "7344199797122794018",
        "url": ""
    },
    {
        "title": "女子拍毕业照时为了更好的出片自己带上装备来拍照",
        "docid": "7353900727926555163",
        "url": ""
    },
    {
        "title": "女生骗异地男友在睡觉，跨越2000公里偷偷来学校找他",
        "docid": "7367297519463858699",
        "url": ""
    },
    {
        "title": "留学生看《甄嬛传》英文版，网友：第一次感觉英文跟母语一样",
        "docid": "7357362810524795426",
        "url": ""
    },
    {
        "title": "网友评论炸锅！吉林警校多人霸凌殴打他人，事态升级引爆热搜！",
        "docid": "7368850138397180426",
        "url": ""
    },
    {
        "title": "兄妹在同一所学校住校，食堂偶遇后妹妹撒娇求抱抱，哥哥回应暖心",
        "docid": "7337212628194427455",
        "url": ""
    },
    {
        "title": "西安科大“改成绩事件”多人被处分：家长究竟是什么人？",
        "docid": "7369060517010293248",
        "url": ""
    },
    {
        "title": "为什么现在男老师越来越少？是工资不够养家糊口？网友评论太无奈",
        "docid": "7360557159232455178",
        "url": ""
    },
    {
        "title": "画室老师帮学生改画，改到满意却立即“撤回”图层：好歹毒的发明",
        "docid": "7344265955868213760",
        "url": ""
    },
    {
        "title": "家长参加高三成人礼，发现男生都帮妈妈遮阳，一看自家儿子被气坏",
        "docid": "7341232813691437605",
        "url": ""
    },
    {
        "title": "大学生骑电瓶车没戴头盔，灵机一动想到推车经过，交警的反应亮了",
        "docid": "7348330280866087462",
        "url": ""
    },
    {
        "title": "我国最“偏远”的211大学，70%学生到体制内工作，录取分数却很低",
        "docid": "7342738523717648930",
        "url": ""
    },
    {
        "title": "母亲陪高三女儿逃课晚自习玩棉花糖机，评论区破防了！",
        "docid": "7346424060965880335",
        "url": ""
    },
    {
        "title": "奶奶教孩子学英语，不料开口直接硬控网友一分钟，评论区沦陷了",
        "docid": "7353511569008886309",
        "url": ""
    },
    {
        "title": "学生违规带手机到校被没收，教官抡锤砸烂后扔水桶，家长态度亮了",
        "docid": "7345372020403765771",
        "url": ""
    },
    {
        "title": "教官突击女生宿舍，意外发现“豆腐块”被子秘密，网友笑喷了",
        "docid": "7366177386557080064",
        "url": ""
    },
    {
        "title": "大学生在不锈钢盆里用热水泡虾，8个人吃的6个窜稀：还不如放暖壶",
        "docid": "7336499311855403570",
        "url": ""
    },
    {
        "title": "华为最认可的6所大学, 不是985也不是211, 毕业华为抢",
        "docid": "7367632533921497654",
        "url": ""
    },
    {
        "title": "误他人前程？高考“钉子户”唐尚珺2024年继续备考，网友劝他放弃",
        "docid": "7368840639657574947",
        "url": ""
    },
    {
        "title": "直到张维为被讥讽嘲笑，方才知道他对我们多么重要",
        "docid": "7368254707313148467",
        "url": ""
    },
    {
        "title": "女生被舍友两块钱买的一大袋草莓震惊，“草莓很好吃很新鲜”",
        "docid": "7345708988547367475",
        "url": ""
    },
    {
        "title": "让7080后瞬间破防的课文插图，谨以此献给我们远去的童年记忆",
        "docid": "7344334717221143051",
        "url": ""
    },
    {
        "title": "杭州中考变革！五科统考，名额分配不再推荐，你的孩子准备好了吗",
        "docid": "7347694816542835200",
        "url": ""
    },
    {
        "title": "男生自信炫耀论文查重率是1%，老师一句话惊呆男生：太低也不行？",
        "docid": "7348316232883372598",
        "url": ""
    },
    {
        "title": "老师镜头下的治愈一幕，小女孩眼睛双瞳剪水，头发风鬓雾鬓！",
        "docid": "7346432249107218954",
        "url": ""
    },
    {
        "title": "华科学生被树枝砸死,其父校内发\"杀人\"朋友圈,校方几分钟找到位置",
        "docid": "7369096065528054272",
        "url": ""
    },
    {
        "title": "大学生投喂路边狗子，狗子嫌弃一脚踢开，场面爆笑让人捧腹",
        "docid": "7347227386922041867",
        "url": ""
    },
    {
        "title": "笑晕了 高校舞蹈学院院长跳舞太丝滑引热议 我却笑死在网友评论区！",
        "docid": "7369068709912101411",
        "url": ""
    },
    {
        "title": "学生质疑母亲节是外国，中国人不应该过，中国人要不要过洋节？",
        "docid": "7368015366737363493",
        "url": ""
    },
    {
        "title": "秋游时高中生与小学生“狭路相逢”，双方动作引发爆笑",
        "docid": "7360974579580043786",
        "url": ""
    },
    {
        "title": "“考研小地雷”蹦不上医院的手推床，下床后尴尬大笑：浓缩是精华",
        "docid": "7339329299679609363",
        "url": ""
    },
    {
        "title": "男生在卧室酣睡五个女孩偷蹭空调，全程不吱声捂嘴偷笑，网友看呆",
        "docid": "7349021313454834217",
        "url": ""
    },
    {
        "title": "寒门再难出贵子？南林大副教授自杀了，疑点重重啊，婚房还贷中",
        "docid": "7369019064871666228",
        "url": ""
    },
    {
        "title": "女儿被男生开黄腔，家长一顿吹捧后男生尴尬回应，网友大赞智商高",
        "docid": "7359527739696611880",
        "url": ""
    },
    {
        "title": "老爸晒四年级舞蹈生女儿的晚餐，本以为会得到共情，没想结局颠倒",
        "docid": "7350506882227782178",
        "url": ""
    },
    {
        "title": "小男孩拿不到零食，求助一旁的猫咪：它居然能听懂，赶快送学校",
        "docid": "7336040780219449871",
        "url": ""
    },
    {
        "title": "恭喜！河南17名高中生拟保送清华、北大",
        "docid": "7368342152172094006",
        "url": ""
    },
    {
        "title": "宝妈带娃上大学 同学们一起照顾! 妈妈：课间休息都轮不到我抱",
        "docid": "7365043934705222170",
        "url": ""
    },
    {
        "title": "学生在教室讲台模拟“扶手电梯”，整体效果真假难辨：作业留少了",
        "docid": "7355695768185635328",
        "url": ""
    },
    {
        "title": "穷疯了？一大堆免费的东西，突然开始收费",
        "docid": "7368825135521923623",
        "url": ""
    },
    {
        "title": "南华大学举行仪式，为100余名护理毕业生授帽",
        "docid": "7368664092220916224",
        "url": ""
    },
    {
        "title": "张家界一女大学生当街撞衫50岁大妈，网友：身上的衣服突然不香了",
        "docid": "7343267191544807962",
        "url": ""
    },
    {
        "title": "这三所985大学真可惜，被地理位置拖累，放在沿海能冲击全国前十",
        "docid": "7355830762395959808",
        "url": ""
    },
    {
        "title": "西安女生上台模仿班主任动作，还未开口就引全班爆笑：没让你超越",
        "docid": "7344999308988678696",
        "url": ""
    },
    {
        "title": "18年高考712分，拒清华北大，执意去四川大学，李一峰：赚更多钱",
        "docid": "7355442097564041764",
        "url": ""
    },
    {
        "title": "学渣爸爸凡尔赛“吐槽”学霸儿子，网友看后感慨：别人家的孩子",
        "docid": "7339796908640043532",
        "url": ""
    },
    {
        "title": "闹大了！东北盒饭视频引发的闹剧，留学生们集体破防笑翻众人",
        "docid": "7369037055957975606",
        "url": ""
    },
    {
        "title": "笑麻了！学生班里裸露隐私部位 教育局回应，评论区的故事更精彩",
        "docid": "7368759435692360230",
        "url": ""
    },
    {
        "title": "原来1985年版的老课本里，课文与季节时令竟巧妙契合，太应景了！",
        "docid": "7344917629192438311",
        "url": ""
    },
    {
        "title": "女生宿舍掰玉米，晒太阳还能烤熟，网友：想要链接！",
        "docid": "7336833534499389963",
        "url": ""
    },
    {
        "title": "人民教育: 一个孩子真正快乐的16个瞬间，请父母认真看完",
        "docid": "7337956477804298793",
        "url": ""
    },
    {
        "title": "湖南名气不大的本科院校，就业优势明显，大一就被预定入职央企",
        "docid": "7351715001389924876",
        "url": ""
    },
    {
        "title": "女生上课困到睡着，老师提问大脑不忘回答问题，学霸系统不杀后台",
        "docid": "7340492107192697396",
        "url": ""
    },
    {
        "title": "儿子毕业前将青梅竹马带回家，妈妈眼前一亮激动直呼：这就学游泳",
        "docid": "7363505671850951231",
        "url": ""
    },
    {
        "title": "为什么医生养孩子比较佛系，老师养孩子却比较严厉？",
        "docid": "7368700494858797608",
        "url": ""
    },
    {
        "title": "邓亚萍参加儿子学校成人礼，意外曝光儿子学校，果然不简单！",
        "docid": "7368076514719547956",
        "url": ""
    },
    {
        "title": "当年高呼“多拿1分，干掉千人”的衡水班长，10年后怎么样了？",
        "docid": "7368311316538409522",
        "url": ""
    },
    {
        "title": "原铁道部直属10所高校，如今怎么样了？进铁道部的学生多么？",
        "docid": "7340079638234235407",
        "url": ""
    },
    {
        "title": "众人在食堂排队打饭，一男子突然插队，后方大哥拿起碗直接暴扣",
        "docid": "7342023783236141603",
        "url": ""
    },
    {
        "title": "“杀人诛心”也不过如此 网友：怕的不是学霸 怕的是会控分的学霸",
        "docid": "7358329835481104934",
        "url": ""
    },
    {
        "title": "女生失恋后趴在桌子上痛哭，老师了解情况哭笑不得，下秒送神助攻",
        "docid": "7346486085863604746",
        "url": ""
    },
    {
        "title": "中国留学生宿舍门口贴镇宅符，遭白人同学冷嘲热讽她忍无可忍了",
        "docid": "7356734926672953896",
        "url": ""
    },
    {
        "title": "女大学生收到男友送的礼盒，打开那瞬间手忙脚乱恨不得直接扔掉",
        "docid": "7345066729393160767",
        "url": ""
    },
    {
        "title": "汶川地震的“范跑跑”，如今儿女双全住别墅，没师德却越混越好？",
        "docid": "7369173066620011058",
        "url": ""
    },
    {
        "title": "体育特长考试作弊后续：初中生200米21秒超国一运动员，校方回应",
        "docid": "7368328270263173644",
        "url": ""
    },
    {
        "title": "清华爸爸辅导女儿作业崩溃，女儿：我承认你很强 但是你教不会我",
        "docid": "7340923224911577650",
        "url": ""
    },
    {
        "title": "闹大了！家长反映学校不让给学生送饭，食堂700元一月吃不吃都扣",
        "docid": "7368342485921399331",
        "url": ""
    },
    {
        "title": "两只猫咪正在吵架，大学生加入后瞬间变味了",
        "docid": "7340593559864771072",
        "url": ""
    }
]