[
    {
        "title": "女子一扎雪碧捆在车轮上，可是她还以为这六瓶雪碧太沉了",
        "docid": "7347949043480035840",
        "url": ""
    },
    {
        "title": "妹妹被姐姐偷偷带到大学宿舍，住一晚不哭不闹，乖巧懂事萌翻网友",
        "docid": "7360482091949261363",
        "url": ""
    },
    {
        "title": "女生妈妈端锅来学校送饭，室友连吃带打包瞬间瓜分：猪都不这么喂",
        "docid": "7364980898594292259",
        "url": ""
    },
    {
        "title": "惊人发现：四年级女生书包里的“异想体”手册，家长们警惕了！",
        "docid": "7352236322909585932",
        "url": ""
    },
    {
        "title": "心酸！一博主采访孩子高考结束最想做什么，孩子们的回答让人心疼",
        "docid": "7378399590426493491",
        "url": ""
    },
    {
        "title": "学校运动会老师参赛，女老师早就等不及了，结果一骑绝尘",
        "docid": "7360110128302916096",
        "url": ""
    },
    {
        "title": "老师发现班级里的大帅哥 俊俏的脸庞 笑起来好甜",
        "docid": "7365813784612438537",
        "url": ""
    },
    {
        "title": "人民大学宣布退出世界排名，中山大学副校长：这剂毒药，早该戒了",
        "docid": "7379769622642344463",
        "url": ""
    },
    {
        "title": "女儿称被人欺负要转学，妈妈查看情况被眼前一幕气炸：颠倒黑白？",
        "docid": "7361658557210559012",
        "url": ""
    },
    {
        "title": "男生惹室友生气被追着打，下秒室友竟飞檐走壁如有轻功，身手看懵",
        "docid": "7379051046213157439",
        "url": ""
    },
    {
        "title": "河南科大情侣毕业即结婚，网友羡慕不已，评论区沸腾！",
        "docid": "7379664930900951604",
        "url": ""
    },
    {
        "title": "顶不住！广东高考物理难出新高度，意在打击“刷题党”？",
        "docid": "7378047615759368704",
        "url": ""
    },
    {
        "title": "食堂阿姨打饭扒拉掉一块肉，下秒见学生欲用筷夹回，阿姨举动无语",
        "docid": "7349024381663707660",
        "url": ""
    },
    {
        "title": "越南女孩暗恋中国留学生，临毕业在小伙衣服签字留吻痕：别忘记我",
        "docid": "7377153269769962018",
        "url": ""
    },
    {
        "title": "“土猪拱白菜”的张锡峰：“我并没有活成我之前期望的样子。”",
        "docid": "7377246635450991116",
        "url": ""
    },
    {
        "title": "女生晒妈妈出门宛如“小学生”，一跑起来少女感拉满：该有多幸福",
        "docid": "7363852374575677989",
        "url": ""
    },
    {
        "title": "大学生骑电瓶车没戴头盔，灵机一动想到推车经过，交警的反应亮了",
        "docid": "7348330280866087462",
        "url": ""
    },
    {
        "title": "越来越离谱，高考考的是考生，作妖的却是考场外的显眼包家长",
        "docid": "7379125439681413659",
        "url": ""
    },
    {
        "title": "破大防了！24年高考安徽物理比全国卷简单？评论区考生崩溃大哭",
        "docid": "7378072230645596711",
        "url": ""
    },
    {
        "title": "校长毕业典礼致辞遇暴雨，果断只讲标题溜之大吉，一句话引爆全场",
        "docid": "7365035878298845731",
        "url": ""
    },
    {
        "title": "儿子第一次灌香肠用大肠灌，爸爸看到成品后狂笑不止：下不去嘴",
        "docid": "7362367081913778739",
        "url": ""
    },
    {
        "title": "炸裂！韩国大学食堂“限量一块肉”后，特意用中文提示，评论炸锅",
        "docid": "7379817190020612644",
        "url": ""
    },
    {
        "title": "炸裂！威胁前同事被行拘后升主任，河北工大摊事了！评论区炸锅！",
        "docid": "7379614856107803188",
        "url": ""
    },
    {
        "title": "史上首位中专生，17岁女学生姜萍冲进阿里巴巴全球数学竞赛决赛",
        "docid": "7379879239861928475",
        "url": ""
    },
    {
        "title": "太卷了！云南高考一牛蛙因涉嫌扰乱，被警方带离！评论全是骂声！",
        "docid": "7379751001470878248",
        "url": ""
    },
    {
        "title": "男生为情所伤剃了光头，面对室友的调戏还是一脸沉默，看泡面笑喷",
        "docid": "7365448338906284582",
        "url": ""
    },
    {
        "title": "心酸！河南一位女考生太难了，冷藏车内午睡，理想620分上郑大！",
        "docid": "7379635205629411891",
        "url": ""
    },
    {
        "title": "男生自信炫耀论文查重率是1%，老师一句话惊呆男生：太低也不行？",
        "docid": "7348316232883372598",
        "url": ""
    },
    {
        "title": "为啥一高考完，学了三年的东西就立马忘干净了？",
        "docid": "7379587736267555365",
        "url": ""
    },
    {
        "title": "武汉通学生卡遭家长吐槽，不仅会过期，还不退工本费，官方回应",
        "docid": "7379810757132796468",
        "url": ""
    },
    {
        "title": "儿子腿疼妈妈校门口焦急等待，看3女同学接力抱出，忍不住爆笑",
        "docid": "7377593830939296283",
        "url": ""
    },
    {
        "title": "小学生吐槽食堂饭菜被教育？学校回应",
        "docid": "7379996016814064179",
        "url": ""
    },
    {
        "title": "笑喷了，女子给高中的儿子送茄盒，被儿子班上的男同学集体叫妈妈",
        "docid": "7374595758021952011",
        "url": ""
    },
    {
        "title": "云南一男生跳远时，竟能空中走步！网友：云南空气是可以踩的吗",
        "docid": "7361974425496846857",
        "url": ""
    },
    {
        "title": "女生表演隔空喝汤看呆朋友，网友：这才是正儿八经的龙吸水",
        "docid": "7354639031436575272",
        "url": ""
    },
    {
        "title": "社牛男生教室开视频让亲妈挑媳妇，女生们捂脸慌忙躲避，网友破案",
        "docid": "7379126034488099364",
        "url": ""
    },
    {
        "title": "令人疑惑：那位北邮导师为何让学生长期代买32个包子和20个鸡蛋？",
        "docid": "7356863087087239734",
        "url": ""
    },
    {
        "title": "警犬看到教官抱着小狗吃醋了 躺在地上“撒娇”让教官背！",
        "docid": "7379410844657910308",
        "url": ""
    },
    {
        "title": "儿子用刀片做防堵神器在学校获奖，妈妈：想法挺好，就是太恶心",
        "docid": "7358726312149647912",
        "url": ""
    },
    {
        "title": "体育老师临时代课，孩子们的反应亮了！这件事够他们吹一学期",
        "docid": "7364650371687088649",
        "url": ""
    },
    {
        "title": "张晓勇：17岁以理科状元考入清华，如今46岁当保安月薪2千元",
        "docid": "7378952743458751017",
        "url": ""
    },
    {
        "title": "志愿填报服务，有“侥幸”才有天价",
        "docid": "7379594456149918260",
        "url": ""
    },
    {
        "title": "男生一伸手观音坐电梯般上来，本以为是“特效”，没想到是运镜",
        "docid": "7350931061121122870",
        "url": ""
    },
    {
        "title": "太牛了!还记得高考后是怎样放纵的吗?当晚全班三十多男的都进去了",
        "docid": "7379922774661349915",
        "url": ""
    },
    {
        "title": "“中国第一考”跌落神坛？为何“高考”魅力大减，这是好事吗？",
        "docid": "7379823482420478479",
        "url": ""
    },
    {
        "title": "今年衡水中学为什么没动静？网友评论太真实了！清北都不敢要！",
        "docid": "7380015249962959399",
        "url": ""
    },
    {
        "title": "90年少先队章程红领巾配图明确折叠式佩戴，全国少工委作何回应",
        "docid": "7379742328820335167",
        "url": ""
    },
    {
        "title": "外国网友热议中国高考誓师大会，法国网友：看着不像考试，像出征",
        "docid": "7379954938418119222",
        "url": ""
    },
    {
        "title": "太有爱！萌娃来学校帮高三哥哥拿行李，所有人的嘴角都压不住了！",
        "docid": "7377590143974113833",
        "url": ""
    },
    {
        "title": "女儿好奇妈妈当年为何看上爸爸？本以为是靠颜值，翻开相册扎心了",
        "docid": "7363544494341358115",
        "url": ""
    },
    {
        "title": "4岁女孩模仿新生踢正步萌翻众人，知情者：很可爱，大家也没赶她",
        "docid": "7356080268853936680",
        "url": ""
    },
    {
        "title": "被姚明抱着上奥运的小英雄，曾立志考清华，16年后活成了这样",
        "docid": "7379902102065119744",
        "url": ""
    },
    {
        "title": "寒门出贵子已无可能！社会阶层已经固化，普通人难有出路！",
        "docid": "7379966458303955496",
        "url": ""
    },
    {
        "title": "11岁女儿拒绝爸爸接放学，疯狂对其输出大道理，看到身高后傻眼了",
        "docid": "7376941997749994036",
        "url": ""
    },
    {
        "title": "女生在篮球场偷偷和男孩合影，小鹿乱撞转身回看：这颜值你暗恋？",
        "docid": "7364707375838429737",
        "url": ""
    },
    {
        "title": "累计获奖60余项，华理这个宿舍“研值”拉满",
        "docid": "7379844869877744143",
        "url": ""
    },
    {
        "title": "用古人的方式为毕业发一条朋友圈",
        "docid": "7379495753409937930",
        "url": ""
    },
    {
        "title": "妹妹送哥哥上学被小姐姐“截胡”妹妹强硬将哥哥“夺回”",
        "docid": "7355282221638353442",
        "url": ""
    },
    {
        "title": "福耀科技大学审批未过，清华原校长梅贻琦早已指出原因",
        "docid": "7379171391096046099",
        "url": ""
    },
    {
        "title": "新生美女开学典礼上被抓拍，镜头给20秒台下鼓掌欢呼：获得择偶权",
        "docid": "7365094944538788389",
        "url": ""
    },
    {
        "title": "襄阳牛肉面，yyds！1400多名大艺展参演学生爱上襄阳味道",
        "docid": "7379074447686337087",
        "url": ""
    },
    {
        "title": "上戏回应林更新成功考上博士：确为演员林更新，招生合理合规",
        "docid": "7379533820514632232",
        "url": ""
    },
    {
        "title": "男生在卧室酣睡五个女孩偷蹭空调，全程不吱声捂嘴偷笑，网友看呆",
        "docid": "7349021313454834217",
        "url": ""
    },
    {
        "title": "大妈地铁上鼓吹外国文化，大学生慷慨反驳引鼓掌：中国从未没落过",
        "docid": "7368705205040316963",
        "url": ""
    },
    {
        "title": "当体育老师遇到英语老师改课程 学生：所以我们也是play的一环",
        "docid": "7378052529688412681",
        "url": ""
    },
    {
        "title": "突然“爆雷”？知名平台被曝大量欠钱，有人十几万元取不出来！",
        "docid": "7378295816148058663",
        "url": ""
    },
    {
        "title": "恭喜！林更新考博成功！上戏公布录取名单，他成绩位列专业第二",
        "docid": "7379898169179636250",
        "url": ""
    },
    {
        "title": "“原来我妈不是正常人”，36岁女子的控诉，炸出了多少窒息式父母",
        "docid": "7379657807634678291",
        "url": ""
    },
    {
        "title": "心理专家陈默：中国孩子已经变了，老师和家长却还没跟上",
        "docid": "7377292696550900259",
        "url": ""
    },
    {
        "title": "培养了两个博士儿子，这位成都妈妈说：我是这样选小学和中学的",
        "docid": "7369941775080784384",
        "url": ""
    },
    {
        "title": "兄妹在同一所学校住校，食堂偶遇后妹妹撒娇求抱抱，哥哥回应暖心",
        "docid": "7365426334824137228",
        "url": ""
    },
    {
        "title": "孩子沉迷集卡 卡牌成为“社交工具” “瘾”忧困扰家长",
        "docid": "7379818593817264690",
        "url": ""
    },
    {
        "title": "乡镇教育“病”了！",
        "docid": "7379160446987518473",
        "url": ""
    },
    {
        "title": "高考结束，考生睡得“天昏地暗”，根本醒不来，网友评论笑翻天",
        "docid": "7379895848240693779",
        "url": ""
    },
    {
        "title": "老师擦黑板，意外发现用了几年的黑板没撕膜，学生撕下后网友炸锅",
        "docid": "7350482726857736758",
        "url": ""
    },
    {
        "title": "小朋友背琵琶下课 网友：像极了琵琶放假",
        "docid": "7370168200387887668",
        "url": ""
    },
    {
        "title": "不再流水式考试，不再盲目追求名校",
        "docid": "7379879206961807882",
        "url": ""
    },
    {
        "title": "酷暑难耐！大学生领冰块降温，画面宛如甄嬛传重现！",
        "docid": "7379776764165358134",
        "url": ""
    },
    {
        "title": "妈妈辅导孩子造句“ 妈妈在厨房做饭”  孩子：不行! 你不会!",
        "docid": "7346896606802739763",
        "url": ""
    },
    {
        "title": "妈妈精心打扮去参加家长会，得知女儿数学考了15分后一脸生无可恋",
        "docid": "7352752254564991540",
        "url": ""
    },
    {
        "title": "2万块陪60天，看伪君子们是如何榨干这些女学生的",
        "docid": "7379505880925995547",
        "url": ""
    },
    {
        "title": "高考结束后我才明白，普通班鸡头和尖子班凤尾，差距不是一星半点",
        "docid": "7379060550946275903",
        "url": ""
    },
    {
        "title": "儿子考试结束后，母亲情绪失控，泪如雨下，令人动容金榜题名",
        "docid": "7379833053579641407",
        "url": ""
    },
    {
        "title": "“高考钉子户”梁实结束第28次高考：感觉情况不妙，可能要重蹈覆辙",
        "docid": "7378073722671907343",
        "url": ""
    },
    {
        "title": "儿子入选学校话剧演汉奸，爸爸看到角色心凉半截，听念词沉默了",
        "docid": "7372462323182764553",
        "url": ""
    },
    {
        "title": "考前风光如太子，考后落寞成弃子！网友热议：现实太残酷！",
        "docid": "7379525663528616459",
        "url": ""
    },
    {
        "title": "班主任拍下高三学生长满白发的样子，这一幕让老师心酸家长心疼",
        "docid": "7371764953398641206",
        "url": ""
    },
    {
        "title": "为什么很多学生超出一本线，却最终只上了二本",
        "docid": "7362440463632286262",
        "url": ""
    },
    {
        "title": "萌娃在地铁玩小哥的手，小哥还默契配合，只有奶奶不好意思",
        "docid": "7352784514612986420",
        "url": ""
    },
    {
        "title": "男子2万送女儿上双语幼儿园，回家随便验收心凉了半截：啥玩意儿",
        "docid": "7357914014971593231",
        "url": ""
    },
    {
        "title": "四川女子带高考结束的儿子逛街，惊艳现场路人，帅的很有分寸感",
        "docid": "7379866162165596710",
        "url": ""
    },
    {
        "title": "林更新，博士拟录取",
        "docid": "7379471152198009382",
        "url": ""
    },
    {
        "title": "闹大了？晚自习还要收费，学校：费用家委会核算，给老师加班费！",
        "docid": "7379833010960564746",
        "url": ""
    },
    {
        "title": "男生和老师课堂上“吵架”，老师秒懂开始喂招，下一秒表情太到位",
        "docid": "7374609326622179877",
        "url": ""
    },
    {
        "title": "大学生表演节目 男生忍不住笑场，“这一集叫《法海不懂爱》”",
        "docid": "7373863071959384576",
        "url": ""
    },
    {
        "title": "AI大模型能答对几道高考数学题？",
        "docid": "7379900895644910134",
        "url": ""
    },
    {
        "title": "女生穿短裙拍毕业照迟到，顺势捂嘴坐男生们中间，女同学表情亮了",
        "docid": "7369494284770378267",
        "url": ""
    },
    {
        "title": "笑不活了，男生高考完染发进校被拒绝 ，为参加毕业典礼戴假发",
        "docid": "7379886720713490955",
        "url": ""
    },
    {
        "title": "韩国女生教中文声音秒变温柔，小哥眼神拉丝看入迷，讲韩文反差大",
        "docid": "7363478647186915878",
        "url": ""
    },
    {
        "title": "长沙市查处77起违规校外培训，有你所在的机构吗？",
        "docid": "7379503388704129570",
        "url": ""
    },
    {
        "title": "“杀人诛心”也不过如此 网友：怕的不是学霸 怕的是会控分的学霸",
        "docid": "7358329835481104934",
        "url": ""
    },
    {
        "title": "大四女生手编百枝向日葵，在考点销售一空",
        "docid": "7378449317424300579",
        "url": ""
    },
    {
        "title": "浙江这保安火了！家长有事沟通30分钟不行，网友：他适合当局长",
        "docid": "7380020574287888906",
        "url": ""
    },
    {
        "title": "2024就业率前20名，学医谨慎，计算机仅第七，这些专业需求在涨！",
        "docid": "7378507654760546828",
        "url": ""
    },
    {
        "title": "市民吐槽武汉通学生卡“蛮坑”：小升初要重新花钱办卡，弄丢也无法挂失、转移余额",
        "docid": "7379943486609195572",
        "url": ""
    },
    {
        "title": "华科大6月16日举行校园开放日，还有这些精彩活动",
        "docid": "7379445674750788122",
        "url": ""
    },
    {
        "title": "樊城区朱坡中心小学举行“再见啦！我的小树林”毕业典礼暨森林演唱会",
        "docid": "7379926945208779264",
        "url": ""
    },
    {
        "title": "就在桐梓坡路，湘江新区新增一所优质公办初中",
        "docid": "7379965170506646050",
        "url": ""
    },
    {
        "title": "急救员考试同学大喊脱衣服，女子神操作让人笑喷：脱自己的干啥？",
        "docid": "7357185080189518370",
        "url": ""
    },
    {
        "title": "步步生莲裙被全宿舍轮流试穿，1米75女生出场后全场沉默：太完美",
        "docid": "7364291238930940457",
        "url": ""
    },
    {
        "title": "刚刚公布！四川大学28个专业获评“A+”，9个专业排名全国第一！",
        "docid": "7379941899661181477",
        "url": ""
    },
    {
        "title": "28岁女生去酒吧被当未成年，保安质问瞬间瞪大眼，一番掰扯笑开花",
        "docid": "7378477072185819700",
        "url": ""
    },
    {
        "title": "男生课间嘴含玩具撩后排女生，女生羞红脸当场娇羞回击：场面超甜",
        "docid": "7365753480675328512",
        "url": ""
    },
    {
        "title": "女生遇帅哥大胆上前搭讪，对方女友见后飞速闪现：差点被“偷家”",
        "docid": "7369795877034000935",
        "url": ""
    },
    {
        "title": "博士离职引发“同进同出”风波：校方索赔10万引热议",
        "docid": "7379946906426573375",
        "url": ""
    },
    {
        "title": "北大女学霸挑战台湾高考题，强强对决。网友：降维打击、杀人诛心",
        "docid": "7352364508133999139",
        "url": ""
    },
    {
        "title": "老师晒出班上的“理科战神”用一块钱的笔 答700分的卷子！",
        "docid": "7378017155435987494",
        "url": ""
    },
    {
        "title": "“没一顿打是白挨的”，小学生“大实话”作文走红，老师被气笑了",
        "docid": "7377663287648928307",
        "url": ""
    },
    {
        "title": "闹大了！为什么今年高考不像往年铺天盖地宣传 回答都是清醒者",
        "docid": "7377602085128339980",
        "url": ""
    },
    {
        "title": "复旦教授王德峰上课吸烟！遭众家长举报！学生：你们懂什么？",
        "docid": "7355003396367286834",
        "url": ""
    },
    {
        "title": "外甥写作文吐露心声：这辈子最后悔的事，就是把周老师介绍给舅舅",
        "docid": "7352812638159553059",
        "url": ""
    },
    {
        "title": "考公考编没上岸的最后去哪了？网友分享很真实！",
        "docid": "7361686862844510760",
        "url": ""
    },
    {
        "title": "反其道而行之！从新一线城市迁到县里，武汉这所大学是怎么想的？",
        "docid": "7359408121170756137",
        "url": ""
    },
    {
        "title": "武汉大学撤销“鸡肋”专业，招生竞争优胜劣汰，无尽遗憾谁人懂？",
        "docid": "7365703685336252967",
        "url": ""
    },
    {
        "title": "重生之我是蔡元培考北大，北大回复了！评论区笑不活了",
        "docid": "7348016691042976297",
        "url": ""
    },
    {
        "title": "厉害！宇辉压中高考作文，曾提供范文，“丈母娘”很感谢！",
        "docid": "7377899117332152873",
        "url": ""
    },
    {
        "title": "盘点这些年湖北被挖走的大神级竞赛教练！湖北数、理教练遍布全国",
        "docid": "7348363415281222156",
        "url": ""
    },
    {
        "title": "湖北学霸放弃保送清华，非要享受高考全过程，后来考了多少分？",
        "docid": "7352781571923067429",
        "url": ""
    },
    {
        "title": "原来艺考有这么多黑幕！网友亲身经历，舞蹈生那个真的别太离谱！",
        "docid": "7359067323573060150",
        "url": ""
    },
    {
        "title": "终于知道公务员为啥要体测了，网友：队长被她扣住要用陪睡抵罚款",
        "docid": "7369150560353796645",
        "url": ""
    },
    {
        "title": "20年江苏心酸状元，无缘清北，被多所985名校拒录，现今过得怎样",
        "docid": "7379429278187831844",
        "url": ""
    },
    {
        "title": "当年高呼“多拿1分，干掉千人”的衡水班长，10年后怎么样了？",
        "docid": "7370278006654353920",
        "url": ""
    },
    {
        "title": "\"家里穷就算了 高考完让我休息放松都不行\" ：家长见不得孩子舒服吗",
        "docid": "7379205928886747683",
        "url": ""
    },
    {
        "title": "德国的留学生有多难毕业？网友分享太炸裂，这换谁都得疯！",
        "docid": "7362844077114769920",
        "url": ""
    },
    {
        "title": "她用儿童色情毒害中国孩子，她比吴勇更可恨，记住那张脸！",
        "docid": "7378129148994241050",
        "url": ""
    },
    {
        "title": "看人大附中学生走路，我也就看了80遍，从今以后我也这么走路可好",
        "docid": "7379207323342717477",
        "url": ""
    },
    {
        "title": "大学生带特产到学校被嫌弃？实际上：你肯定还有！评论区真实了",
        "docid": "7349480703706464803",
        "url": ""
    },
    {
        "title": "专业科普：国内明星疯狂镀金的伯克利音乐学院，是野鸡大学吗？",
        "docid": "7369034251699765760",
        "url": ""
    },
    {
        "title": "刁难农村学生？高考作文题惹争议，人工智能ai的重要性，网友炸锅",
        "docid": "7377759686482952738",
        "url": ""
    },
    {
        "title": "痛心！假如日本打进来了，学生回复引人深思，评论区沦陷了",
        "docid": "7376603007162597928",
        "url": ""
    },
    {
        "title": "孩子上高中后，为什么家长会大多数是爸爸？我被留言区的1万+评论笑翻了……",
        "docid": "7361325140342489615",
        "url": ""
    },
    {
        "title": "哈佛女孩刘亦婷火遍全国，发誓要“报效祖国”！24年后，她的现状却令人无限感慨...",
        "docid": "7354932776656962089",
        "url": ""
    },
    {
        "title": "精辟！如何防止自家孩子在读书时候被霸凌！评论区网友各显神通！",
        "docid": "7347595717059363363",
        "url": ""
    },
    {
        "title": "难怪大家都在说语文就适合晚上考!各位文豪创作让我五体投地,绝妙",
        "docid": "7350909482978869760",
        "url": ""
    },
    {
        "title": "倒反天罡！山东高考化学因为考得太简单，被考生骂上热搜！",
        "docid": "7378755926704079360",
        "url": ""
    },
    {
        "title": "可喜可贺！湖北28名学生不用高考保送清华北大，来自5所中学",
        "docid": "7377677694588289551",
        "url": ""
    },
    {
        "title": "高考出现\"神仙卷面\"，字迹工整犹如印刷体，老师看后舍不得扣分",
        "docid": "7377696295059849762",
        "url": ""
    },
    {
        "title": "专业科普：为什么很多唱功很好的声乐老师不选择出道当歌手？",
        "docid": "7365696724192592394",
        "url": ""
    },
    {
        "title": "一张跑题的试卷，凭什么拿到央美高分？",
        "docid": "7358430610567791140",
        "url": ""
    },
    {
        "title": "清北强基计划各省排名！北京夺冠，浙江力压上海，湖南跌下神坛",
        "docid": "7352440875890508322",
        "url": ""
    },
    {
        "title": "怎么判断一个孩子有没有数学天赋？看完网友回复真是学到了很多！",
        "docid": "7364955376149611042",
        "url": ""
    },
    {
        "title": "穿短裙高考被骂后续：女生已放弃高考，母亲发声控诉，将追究责任",
        "docid": "7378337755215987238",
        "url": ""
    },
    {
        "title": "3年前，宁夏7岁小女孩一笑成名，后父母拒百万签约，如今怎么样了？他们有后悔当时的拒绝么？",
        "docid": "7357308923177484863",
        "url": ""
    },
    {
        "title": "2024高考，湖北一知名数学老师参加今年高考，考完他怎么说？",
        "docid": "7379080980123517451",
        "url": ""
    },
    {
        "title": "别不信！高考后发现，经常补课和从未补课的学生，差距不是一点点",
        "docid": "7379629610213949992",
        "url": ""
    },
    {
        "title": "高考结束！孩子列了6万消费清单，父母月赚一万多，需要攒10个月",
        "docid": "7379212501822620170",
        "url": ""
    },
    {
        "title": "高考志愿服务费涨至17999元，张雪峰天价课程背后，家长热情不减",
        "docid": "7377902300708258315",
        "url": ""
    },
    {
        "title": "2024湖北化学高考难度上热搜，比肩竞赛难度！偏离课本考的都没学",
        "docid": "7378468967175733794",
        "url": ""
    },
    {
        "title": "ESI中国大学100强，清华不敌国科大，北师大跌出30强，郑大第23名",
        "docid": "7379096216002363914",
        "url": ""
    },
    {
        "title": "三年前立志“拱城里白菜”的衡中考生，被自己打脸了",
        "docid": "7376916770663334400",
        "url": ""
    },
    {
        "title": "高考第一题你还能拿下吗？",
        "docid": "7377725250139587091",
        "url": ""
    },
    {
        "title": "16省份新一轮“双一流”建设高校名单公布！速看～",
        "docid": "7378828408626610703",
        "url": ""
    },
    {
        "title": "沈阳正式公示！这37人高考加分！",
        "docid": "7379503775478628904",
        "url": ""
    },
    {
        "title": "江西的尴尬：环四川穷，环江西富？揭秘背后的原因",
        "docid": "7353858968483316276",
        "url": ""
    },
    {
        "title": "当一群清华学生开始在抖音“刷题”",
        "docid": "7378460834990850571",
        "url": ""
    },
    {
        "title": "顶级985南京大学计算机专业，毕业20年后，宿舍4个苏北人实现逆袭",
        "docid": "7362007453845914151",
        "url": ""
    },
    {
        "title": "多省高考物理难度大涨，考生：躲过了数学，却被物理保送大专了！",
        "docid": "7377959827349324288",
        "url": ""
    },
    {
        "title": "湖北一学霸放弃保送清华，说要享受高考过程，后来他考了多少分？",
        "docid": "7353210629586059810",
        "url": ""
    },
    {
        "title": "太辛苦！河北高考结束，白发父亲一人扛所有行李！评论全是骂声！",
        "docid": "7379250842068582912",
        "url": ""
    },
    {
        "title": "高中生发明“咯噔”字体，孤芳自赏却并不得分，网友劝其早日清醒",
        "docid": "7365187137802830347",
        "url": ""
    },
    {
        "title": "一牛蛙影响高考被抓！笑死在评论区……",
        "docid": "7378411408410542644",
        "url": ""
    },
    {
        "title": "小学生玩“烟卡”，打断两根手指，一个烟卡30元？评论区炸了！",
        "docid": "7370649061524800035",
        "url": ""
    },
    {
        "title": "2003年，他偷窃高考试卷，背熟后去参加考试，看到考题却傻眼了",
        "docid": "7348662052329751079",
        "url": ""
    },
    {
        "title": "1179万毕业即失业？复旦教授:在发达的国家也用不到那么多大学生",
        "docid": "7379628237095174708",
        "url": ""
    },
    {
        "title": "曾并驾齐驱的四大工学院，如今差距明显，皆因走了不同的发展道路",
        "docid": "7374680023870996992",
        "url": ""
    },
    {
        "title": "原来南北方跑操差异这么大！看完网友分享，南方人表示涨见识了！",
        "docid": "7379123072601506358",
        "url": ""
    },
    {
        "title": "很少看到德国留学生的段子，别说学霸，就是季羡林去了都得延毕！",
        "docid": "7356142097965105698",
        "url": ""
    },
    {
        "title": "越闹越大！17岁女生凭一己之力，将中专生送上热搜，评论区炸锅！",
        "docid": "7380008777371746866",
        "url": ""
    },
    {
        "title": "2024年前5月《nature》和《Science》全球发文统计，哈佛世界第一",
        "docid": "7379145211370390016",
        "url": ""
    },
    {
        "title": "根本不愁就业！衡水孙老师：跟唐尚珺说好，大学毕业来衡水当教师",
        "docid": "7379129779645973018",
        "url": ""
    },
    {
        "title": "盘点孝感市已建和即将建设的9所大学",
        "docid": "7357944687354921484",
        "url": ""
    },
    {
        "title": "留学生出国前后落差感太大了!看完网友分享,发现生在中国太幸福了",
        "docid": "7368302034430411305",
        "url": ""
    },
    {
        "title": "汉口学院现任领导班子成员，看看都是谁",
        "docid": "7378740577782792738",
        "url": ""
    },
    {
        "title": "60门满绩、四级700分……网友：这就是“六边形战士”吗",
        "docid": "7351672597119107647",
        "url": ""
    },
    {
        "title": "河南“零分女生”蒋多多：在试卷上写8000字长文，抨击高考制度",
        "docid": "7379900102151455286",
        "url": ""
    },
    {
        "title": "你什么时候斩断了童年时代的拉扯?网友:30岁才知道人生不差这一口",
        "docid": "7360578788540989987",
        "url": ""
    },
    {
        "title": "国内高校学科质量“大洗牌”，清北失去榜首位置，浙大上位被吐槽",
        "docid": "7353145876933657127",
        "url": ""
    },
    {
        "title": "原来留学生那股平静的疯感都是这么来的!看完网友分享,汗流浃背了",
        "docid": "7359748356748739084",
        "url": ""
    },
    {
        "title": "高考要是考了700分，是什么待遇，网友们的回答把我逗乐了",
        "docid": "7378849544299201058",
        "url": ""
    },
    {
        "title": "瘫子娘、疯子爹，744分高考状元被清华录取7年后，如今生活怎样？",
        "docid": "7350206096168043023",
        "url": ""
    },
    {
        "title": "人大附中的高考生，断崖式领先！到底牛在哪？家境、学习且不谈",
        "docid": "7379467139339649576",
        "url": ""
    },
    {
        "title": "卖疯了！武汉男生专治“玩手机”，全网求链接——",
        "docid": "7374797573666554408",
        "url": ""
    },
    {
        "title": "你们学校宿舍有哪些不得了的违禁品？网友：搜出了一具千年尸骸",
        "docid": "7346867351704633867",
        "url": ""
    },
    {
        "title": "学费17万！666分进了浙大海宁校区，家长：花钱买10分进电气专业",
        "docid": "7373275318692250127",
        "url": ""
    },
    {
        "title": "太卷了！浙江女孩获金牌保送清华！老爸豪赠宾利！评论全是酸味！",
        "docid": "7379440571586216475",
        "url": ""
    },
    {
        "title": "太难了！女演员被气进医院……网友：深有感触！",
        "docid": "7357647132918071843",
        "url": ""
    },
    {
        "title": "高考状元李泰伯,拒绝清华北大后遭11所名校拒绝,如今怎样?",
        "docid": "7379434579414811199",
        "url": ""
    },
    {
        "title": "大学生真的会嫌弃家乡特产吗？网友：我妈做的榨菜我差点拿不出手",
        "docid": "7355810841796657698",
        "url": ""
    },
    {
        "title": "刘海猫被学生活活掐死，傻孩子到最后都以为那个人是在跟它玩儿",
        "docid": "7373212720487514643",
        "url": ""
    },
    {
        "title": "00后老师出题，主打一个沉浸式做题，学生：出得好，以后别出了",
        "docid": "7358054151806272052",
        "url": ""
    },
    {
        "title": "不要再说重庆大学是什么末流985！现在高攀不起了",
        "docid": "7348639310603764236",
        "url": ""
    },
    {
        "title": "曾经粮食部最早的直属院校，武汉轻工大学，为啥混成了最后一名？",
        "docid": "7363545831154418230",
        "url": ""
    },
    {
        "title": "坐着迈巴赫去高考的少爷，揭示了700分的努力 也可能不及他的起点",
        "docid": "7379463446058664459",
        "url": ""
    },
    {
        "title": "留学500万回国月薪7000 当事人：后悔没用这些钱买一套上海的房",
        "docid": "7377597360303571510",
        "url": ""
    },
    {
        "title": "寒门出贵子已无可能！社会阶层已经固化，普通人难有出路！",
        "docid": "7380079731149898259",
        "url": ""
    },
    {
        "title": "毕业即失业？张雪峰不推荐的3大劝退专业，“寒门学子”最好别碰",
        "docid": "7378857940859748891",
        "url": ""
    },
    {
        "title": "高考687分女学霸，被父亲偷改志愿错失北大，此后24年不回家，再联系时一句话让母亲泪崩……",
        "docid": "7378767852666421796",
        "url": ""
    },
    {
        "title": "绵阳女生笑着笑着就哽咽了，曝人生金句出彩，这是青春最美的样子",
        "docid": "7378694570776838665",
        "url": ""
    },
    {
        "title": "公务员：最绝望的不是一直考不上，而是上岸后才发现选岗错误",
        "docid": "7377177998790885903",
        "url": ""
    },
    {
        "title": "山东某大学宿舍没空调大学生排队领冰块，已经过上了甄嬛的生活",
        "docid": "7379861712540926527",
        "url": ""
    },
    {
        "title": "2024年高考数学难度：现场的学生直呼简单，120分以上没问题！",
        "docid": "7377705978801717812",
        "url": ""
    },
    {
        "title": "看了8090后的童年照，才明白现在的孩子为什么轻易出现心理问题了",
        "docid": "7369554099123175976",
        "url": ""
    },
    {
        "title": "淡定女学霸张雨欣：考场外的意外走红，她的未来不止于此",
        "docid": "7379818278107775523",
        "url": ""
    },
    {
        "title": "名单公布！信阳42名学子通过清华北大高校专项计划审核",
        "docid": "7379065673555427875",
        "url": ""
    },
    {
        "title": "县城陪读妈妈不被看见的孤独：有人抑郁，有人出轨",
        "docid": "7363568347042939402",
        "url": ""
    },
    {
        "title": "他16岁读博，没想到如今成了无业啃老族，却比很多人都活得清醒",
        "docid": "7379844567916495395",
        "url": ""
    },
    {
        "title": "汶川地震的“范跑跑”，如今儿女双全住别墅，没师德却越混越好?",
        "docid": "7369860084383367720",
        "url": ""
    },
    {
        "title": "一个北大毕业生的佛系人生：没写过简历，没用过微信",
        "docid": "7369407784429208102",
        "url": ""
    },
    {
        "title": "农妇母亲激将学渣儿子：“你敢考清华，我就当作家！”结果怎样",
        "docid": "7352848230868435468",
        "url": ""
    },
    {
        "title": "厉害了！人大附中女孩上热搜，“厅里厅气”引热议！",
        "docid": "7379440436190757414",
        "url": ""
    },
    {
        "title": "高考结束才明白，普通班鸡头和尖子班凤尾差距！看网友评论我悟了",
        "docid": "7379465217572389412",
        "url": ""
    },
    {
        "title": "考生只用了一下橡皮，监考老师竟直接喊来武警，幕后真相惊动全省",
        "docid": "7379930093866025481",
        "url": ""
    },
    {
        "title": "中国高考状元陈勤：留美工作年薪154万，被解雇后从高楼一跃而下",
        "docid": "7379534833216766498",
        "url": ""
    },
    {
        "title": "她被哈佛全奖录取，承诺报效祖国！如今却换国籍、嫁美国人",
        "docid": "7359488882394432040",
        "url": ""
    },
    {
        "title": "红河州最强高中排名，开远一中第5，建水一中第4，你知道哪几所？",
        "docid": "7370925182065803817",
        "url": ""
    },
    {
        "title": "终于知道为啥说日本留学选东京是地狱模式!重庆人去都直呼遭不住",
        "docid": "7358671728899572275",
        "url": ""
    },
    {
        "title": "衡水中学没动静了？扯下应试教育的最后一块遮羞布！清北都不敢要",
        "docid": "7379883632679092773",
        "url": ""
    },
    {
        "title": "全网点赞的17岁中专女孩，是怎么被发现的？",
        "docid": "7380177593804276234",
        "url": ""
    },
    {
        "title": "全班倒数第一考上上海大学，考生却说：我恨班主任一辈子",
        "docid": "7379935081023865379",
        "url": ""
    },
    {
        "title": "再发达的国家也用不到那么多大学生，复旦教授的话，扎了家长的心",
        "docid": "7377632651517133351",
        "url": ""
    },
    {
        "title": "2024高考作文题，又坑死一波乡下穷人的考生，真的想骂出题人",
        "docid": "7378048822942941748",
        "url": ""
    },
    {
        "title": "2024年语文高考，名句默写考了啥？为何很多考生都笑了？",
        "docid": "7377659336228717094",
        "url": ""
    },
    {
        "title": "山窝里飞出金凤凰，一中专生数学竞赛排名超数学博士，高考状元",
        "docid": "7380152275710378523",
        "url": ""
    },
    {
        "title": "恭喜驻马店新增一所大学",
        "docid": "7377779966068441626",
        "url": ""
    },
    {
        "title": "保安以一己之力让浙江冲上热搜！家长给孩子取作业被拒，校方回应",
        "docid": "7379981733678137919",
        "url": ""
    },
    {
        "title": "西安交通大学和华中科技大学，都是985，怎么选？听听老师怎么说",
        "docid": "7376065191731135012",
        "url": ""
    },
    {
        "title": "海南高考无条形码后续：考试局回应、炸裂内情曝光，网友呼吁追责",
        "docid": "7377682156312642048",
        "url": ""
    },
    {
        "title": "火了!女大学生实名举报高校领导潜规则内幕,有些事真让人大开眼界",
        "docid": "7380189734863225371",
        "url": ""
    },
    {
        "title": "“记住你们现在的模样，清白且勇敢！”辽宁一高中毕业典礼家长发言爆火，当事人发声",
        "docid": "7379400646295962138",
        "url": ""
    },
    {
        "title": "河南“零分女生”蒋多多：因不满高考制度，在试卷上写8000字长文",
        "docid": "7379909455128855051",
        "url": ""
    },
    {
        "title": "央美毕业展作品被吐槽像“一堆垃圾”？作者道歉，网友吵翻！",
        "docid": "7372758862291681807",
        "url": ""
    },
    {
        "title": "164万大学生！中国高校第一城诞生",
        "docid": "7377586781731979839",
        "url": ""
    },
    {
        "title": "从3+2到理综再到3+1+2，化学权重逐次下降",
        "docid": "7361559083343807017",
        "url": ""
    },
    {
        "title": "中专女孩高分入围阿里数赛，总奖金高达400万，北大韦神曾获金奖",
        "docid": "7380200556209390095",
        "url": ""
    },
    {
        "title": "人大附中高考生的走红与评论区现象——背后原因与反思",
        "docid": "7379430298578092556",
        "url": ""
    },
    {
        "title": "热搜第一！辽宁女生高考后一觉睡30小时，网友：大脑在格式化……",
        "docid": "7380227159610180136",
        "url": ""
    },
    {
        "title": "笑喷了！广东的抑郁症率最低不是没有道理的！网友评论区现身说法",
        "docid": "7379059330831729167",
        "url": ""
    },
    {
        "title": "男学生长太高，班主任站板凳训话，网友乐了：孩子看起来憋笑憋很久",
        "docid": "7349074198490333734",
        "url": ""
    },
    {
        "title": "2024年高考山西一博士生参加高考，来看看他怎么说",
        "docid": "7378802992218161715",
        "url": ""
    },
    {
        "title": "逆袭！17岁中专女生姜萍爆冷拿下数学竞赛全球12名，引发网友热议",
        "docid": "7379999004865610280",
        "url": ""
    },
    {
        "title": "音乐学院书记被女生举报性骚扰，湖南涉外经济学院回应",
        "docid": "7380208849447436839",
        "url": ""
    },
    {
        "title": "河南考生的悲哀！全省前1%，没有考上985，父母吵了5天说孩子毁了",
        "docid": "7379848298552689162",
        "url": ""
    },
    {
        "title": "湖南名气不大的本科院校，就业优势明显，大一就被预定入职央企",
        "docid": "7351715001389924876",
        "url": ""
    },
    {
        "title": "为什么数学和物理好的孩子感觉更聪慧",
        "docid": "7356217200748855871",
        "url": ""
    },
    {
        "title": "“新型攀比”逐渐兴起，比炫富还可恶，部分家长还蒙在鼓里！",
        "docid": "7372135709785817635",
        "url": ""
    },
    {
        "title": "哈工大学术权杖亮相，被吐槽是“外来文化”？看知情人怎么怼的",
        "docid": "7379542124951274036",
        "url": ""
    },
    {
        "title": "川美毕业展上，胖女人摞一堆、吃剩的苹果核，求求美术生们收手吧",
        "docid": "7380219107347628596",
        "url": ""
    },
    {
        "title": "江苏高考真的很厉害吗？在2021年最大规模八省联考中，江苏第一名",
        "docid": "7378007579945665024",
        "url": ""
    },
    {
        "title": "04年山东姑娘高考546分落榜，打工16年发现，自己竟被人顶替了！",
        "docid": "7380166263122805287",
        "url": ""
    },
    {
        "title": "多省高考化学变难！考生：题目考得很偏，是近年来最难化学卷！",
        "docid": "7378329172646674944",
        "url": ""
    },
    {
        "title": "我国“工业大学”排名：浙江工业第3，广东工业第7，湖北工业无缘",
        "docid": "7365715632790176271",
        "url": ""
    },
    {
        "title": "浙江留美博士当街斩首同胞，双方还仅认识13天，父母去美捞人无果",
        "docid": "7372879117768835634",
        "url": ""
    },
    {
        "title": "高考结束后才明白，普通班鸡头和尖子班凤尾，差距不是一星半点",
        "docid": "7379180988120695332",
        "url": ""
    },
    {
        "title": "全国32所科技大学排名，中科大排名第一，陕西竟然有5所科技大学",
        "docid": "7355785723393491494",
        "url": ""
    },
    {
        "title": "“人大附中女生的沉稳”引争议：撕开无数中国家庭的悲哀",
        "docid": "7380228812467929615",
        "url": ""
    },
    {
        "title": "纯211大学5大梯队，考上前2级未来不愁就业，2024届学生可关注",
        "docid": "7363536529181917736",
        "url": ""
    },
    {
        "title": "传奇：被北大劝退，转年以状元身份入清华，现又在北大直博了。",
        "docid": "7379997430191358479",
        "url": ""
    },
    {
        "title": "为什么头部高中不按中考成绩分班，而是重新考试",
        "docid": "7308333085698245174",
        "url": ""
    },
    {
        "title": "吃不起饭在考场外徘徊的河南考生，如今传来了好消息，网友泪目！",
        "docid": "7379172388388274723",
        "url": ""
    },
    {
        "title": "哪一刻让你意识到了这就是命？网友：公务员考试差0.01分的时候",
        "docid": "7379921048529011215",
        "url": ""
    },
    {
        "title": "今年衡水中学为什么没动静？网友评论太真实了！清北都不敢要！",
        "docid": "7380133362553356835",
        "url": ""
    },
    {
        "title": "国小事多！在韩留学生因几块肉遭学校歧视，评论区炸锅，后续来了",
        "docid": "7379816092896379446",
        "url": ""
    },
    {
        "title": "仅9所大学入选！“101计划”计算机牵头高校一览，有你的大学吗？",
        "docid": "7377348018493833747",
        "url": ""
    },
    {
        "title": "《小周后赋》华而不实堆砌辞藻，但作者为高二学子，应当鼓励",
        "docid": "7356853168431235619",
        "url": ""
    },
    {
        "title": "小学生试卷“日本风”我们的名字哪去了，这是管不了还有没人管？",
        "docid": "7379909925733974582",
        "url": ""
    },
    {
        "title": "高考统一试卷，江苏学生笑了，其他地方的学生要努力追赶上",
        "docid": "7379495427760079369",
        "url": ""
    },
    {
        "title": "南京理工、华东理工、武汉理工，三个211理工类大学谁更强",
        "docid": "7348712565960180258",
        "url": ""
    },
    {
        "title": "为什么广东的高考考场外空无一人？广东家长：去了能多考几分？",
        "docid": "7378277035602444841",
        "url": ""
    },
    {
        "title": "厉害！祝贺上海13名学霸提前被清华选中，不用高考，来自四所中学",
        "docid": "7379958734867284518",
        "url": ""
    },
    {
        "title": "高考687分女状元，被父亲偷改志愿错失北大，怄气24年没回过家",
        "docid": "7379831111536362018",
        "url": ""
    },
    {
        "title": "老师要求学生们带香水小样上课，留学生拿出风油精，教授惊呆了",
        "docid": "7369063670233432639",
        "url": ""
    },
    {
        "title": "跨栏比赛，白衣选手逐渐掌握“技巧”，白衣服是第一名吗？",
        "docid": "7362104273531830834",
        "url": ""
    },
    {
        "title": "7岁女童立定跳远1.83米惊呆网友，老师：这就是传说中的天赋异禀",
        "docid": "7376196230931546674",
        "url": ""
    },
    {
        "title": "武汉高校男生喝酒晚归，与宿管阿姨爆笑深情对话：又是一个酒蒙子",
        "docid": "7350157358481277480",
        "url": ""
    },
    {
        "title": "网红小黑诸鸣儿子保送北大物理！共封400斤好酒，妻子是护士长",
        "docid": "7380156698939507238",
        "url": ""
    },
    {
        "title": "男孩喊话学校饭菜有问题，却遭校方思想教育，网友：这谁能吃的下",
        "docid": "7379911839968231974",
        "url": ""
    },
    {
        "title": "全校唯一一个自驾上学的高中生，家到学校7.5公里，开车20分钟",
        "docid": "7353954617824182836",
        "url": ""
    },
    {
        "title": "中国师范大学100强！陕师大第6、川师大第26、南师大第4",
        "docid": "7379855853425295887",
        "url": ""
    },
    {
        "title": "闹大了！家长晚10点取作业遭拒？苦求保安半小时。学校急忙回应",
        "docid": "7380185743634727459",
        "url": ""
    },
    {
        "title": "战略支援部队撤销后，河南唯一的军校被拆分，高考能不能捡漏？",
        "docid": "7360998925773324851",
        "url": ""
    },
    {
        "title": "中专女孩高分入围阿里数赛，总奖金高达400万，北大韦神曾获金奖",
        "docid": "7380203820611011108",
        "url": ""
    },
    {
        "title": "男生被殴打开水烫，高温天被逼穿长袖遮伤，化脓9天后学校才知晓",
        "docid": "7379912110203060771",
        "url": ""
    },
    {
        "title": "定向培养军士，在湖北招收1676人！",
        "docid": "7379889372386083337",
        "url": ""
    },
    {
        "title": "陪读12年妈妈说好辛苦，没想到评论区炸锅：让人窒息的爱自我感动",
        "docid": "7378326010384712226",
        "url": ""
    },
    {
        "title": "河北高考状元被北大录取，11年后失业在家自称“废物”！她怎么了",
        "docid": "7377928957154361882",
        "url": ""
    },
    {
        "title": "武汉大学不兼并另两所211高校和1所医科大学，能否成为985高校？",
        "docid": "7377565660299133440",
        "url": ""
    },
    {
        "title": "学院书记被大四女生举报性骚扰，辅导员让其不要钻牛角尖，高校回应：正在调查，涉事人员已被停职",
        "docid": "7380195290986316315",
        "url": ""
    },
    {
        "title": "这才是数学！如果有人听不懂数学，那不是数学的错，是传授者的错",
        "docid": "7355110561299923467",
        "url": ""
    },
    {
        "title": "互联网大佬推荐的4个专业，高考生有必要听听，家长值得收藏！",
        "docid": "7379918409586180617",
        "url": ""
    },
    {
        "title": "长沙这所大学升为本科后，校名降为学院，名气走低，期盼改回原名",
        "docid": "7378853973752660534",
        "url": ""
    },
    {
        "title": "辽宁一女生高考结束后直接“一睡不起”，家人：根本不敢叫醒！",
        "docid": "7379625122845524492",
        "url": ""
    },
    {
        "title": "放弃211合肥工业大学，选择浙江工业大学，这个选择错了吗？",
        "docid": "7362055565826081299",
        "url": ""
    },
    {
        "title": "姜萍老师称最好能申请到常熟理工，校方回应：先来这里打好基础，硕士再去浙大，我们助你实现梦想",
        "docid": "7380227741976674856",
        "url": ""
    },
    {
        "title": "看图猜明星电视角色，不一定全猜对，别太离谱就行",
        "docid": "7359547734086812201",
        "url": ""
    },
    {
        "title": "湖南一高校男领导性骚扰学生事件：具体细节曝光，女学生行为存疑",
        "docid": "7380218200070881804",
        "url": ""
    },
    {
        "title": "央媒怒赞、名校开抢！看到“手下败将”履历后，才明白姜萍有多牛",
        "docid": "7380241881092850217",
        "url": ""
    },
    {
        "title": "护理学被列入国控专业，意味着什么？",
        "docid": "7348811000763892235",
        "url": ""
    },
    {
        "title": "今年衡水中学为什么没动静？网友评论太真实了！清北都不敢要！",
        "docid": "7380202920786821644",
        "url": ""
    },
    {
        "title": "全班倒五，却考进211的河南考生:病态观念，祸害多少中国孩子",
        "docid": "7380266136232821298",
        "url": ""
    },
    {
        "title": "河南“零分女生”蒋多多：因不满高考制度，在试卷上写8000字长文",
        "docid": "7379418542329922100",
        "url": ""
    },
    {
        "title": "为什么应届生的身份这么值钱？看完网友的评论、似乎是这么个理！",
        "docid": "7380229447829520948",
        "url": ""
    },
    {
        "title": "英媒：超过一半的英国大学生需长时间工作维持生计 每星期工作近两天",
        "docid": "7379946907629552162",
        "url": ""
    }
]