[
    {
        "title": "山东少女3年不买卫生纸，例假时不用卫生巾，家中却养300条蚯蚓！",
        "docid": "7321638365492019749",
        "url": ""
    },
    {
        "title": "第一批读博的00后，已经进化成了“学术猪八戒”",
        "docid": "7311152661590491648",
        "url": ""
    },
    {
        "title": "罗翔老师会不会为爱泼斯坦案件受害人们主持公平正义呢？我很期待",
        "docid": "7321604219335754249",
        "url": ""
    },
    {
        "title": "我00后女孩，在日本上学，只想着嫁个有钱人，回到国内才发现错了",
        "docid": "7305648962294530571",
        "url": ""
    },
    {
        "title": "合肥工业大学，4个机械专业男生，毕业6年的现状",
        "docid": "7295009348336714274",
        "url": ""
    },
    {
        "title": "被这些萝卜岗笑死 全能大萝卜",
        "docid": "7298986829658030618",
        "url": ""
    },
    {
        "title": "中产孩子追逐学历，就好比49年加入国军：五千叔教你什么最来钱！",
        "docid": "7307057440476889615",
        "url": ""
    },
    {
        "title": "简直闻所未闻！英国考雅思8分，到了国内才给5.5，人都傻了！",
        "docid": "7309451367016481295",
        "url": ""
    },
    {
        "title": "中国最厉害的一座城市，有86所大学，众多军校，大学生上百万！",
        "docid": "7299483962638991926",
        "url": ""
    },
    {
        "title": "我，34岁宝妈，重新参加高考，监考老师竟然是我高中同学",
        "docid": "7306139173676024331",
        "url": ""
    },
    {
        "title": "“桃李满天下，自家结苦瓜”，网友辣评：祖坟也不能一直冒青烟",
        "docid": "7304483296267289115",
        "url": ""
    },
    {
        "title": "“少儿编程太扯”程序员家长吐槽，自己够专业，娃至少12岁前不教",
        "docid": "7291086436999152183",
        "url": ""
    },
    {
        "title": "高校理科实力排名！工科排名反转，浙大仅第9，华科才20，北航42",
        "docid": "7317398338012185128",
        "url": ""
    },
    {
        "title": "为什么父母见不得自家孩子高兴？看完评论区网友的分享，太震撼了",
        "docid": "7300835090089902592",
        "url": ""
    },
    {
        "title": "网友分享：30年前的大学录取通知书和成绩单，满纸都是回忆",
        "docid": "7310246082041152054",
        "url": ""
    },
    {
        "title": "中考生的“好消息”，有望明年政策全面实施，学生兴奋不已",
        "docid": "7319860173495960079",
        "url": ""
    },
    {
        "title": "为什么我周围认识的人，基本没有一个是考上985、211大学的",
        "docid": "7290126708190085647",
        "url": ""
    },
    {
        "title": "神童张炘炀：28岁没结婚，北京待不下去来上海，顿顿吃素最多17元",
        "docid": "7299766757349130804",
        "url": ""
    },
    {
        "title": "汶川地震丢下学生逃跑的北大才子“范跑跑”，13年后怎么样了",
        "docid": "7322072573310075455",
        "url": ""
    },
    {
        "title": "没有父母撑腰的孩子懦弱一生",
        "docid": "7295732238745190927",
        "url": ""
    },
    {
        "title": "刚刚，教育部辟谣！",
        "docid": "7321209547215897151",
        "url": ""
    },
    {
        "title": "甄嬛传十级试卷考试开始！",
        "docid": "7298739357593109032",
        "url": ""
    },
    {
        "title": "活了这么久才知道，原来教孩子学好拼音居然这么简单!",
        "docid": "7321353598728765961",
        "url": ""
    },
    {
        "title": "被人羡慕的医学专业，或许已不适合普通家庭，后代想逆袭真的很难",
        "docid": "7294655584979583514",
        "url": ""
    },
    {
        "title": "八十年代小学课本里要背诵的这些课文，现在你还会背几篇？",
        "docid": "7289724382052631103",
        "url": ""
    },
    {
        "title": "初中：韦达定理十种变形",
        "docid": "7290736226284454415",
        "url": ""
    },
    {
        "title": "评职称不认可的论文期刊名单！【黑名单】",
        "docid": "7293448216560026149",
        "url": ""
    },
    {
        "title": "四川最难考的大学，是它们！最低611分！",
        "docid": "7307070324212826650",
        "url": ""
    },
    {
        "title": "2024QS世界大学排名！中国内地、港澳台排名及世界排名前50高校！",
        "docid": "7318639240442380815",
        "url": ""
    },
    {
        "title": "张雪峰讲工科专业：工科类最吃香的8大专业",
        "docid": "7308335102176723507",
        "url": ""
    },
    {
        "title": "山东的大学排名",
        "docid": "7301226723679437353",
        "url": ""
    },
    {
        "title": "五年前，那个走10里山路上学，满头冰花的男孩，后来怎么样了？",
        "docid": "7307963204138385932",
        "url": ""
    },
    {
        "title": "在社会上“吃得开”的人，大多都具备这5点特质，不服都不行",
        "docid": "7307930040463786508",
        "url": ""
    },
    {
        "title": "墨尔本大学相当于中国什么大学",
        "docid": "7299773139033260563",
        "url": ""
    },
    {
        "title": "医学最牛的20所大学：全国最顶尖的医科大学有哪几个？",
        "docid": "7302991773843702322",
        "url": ""
    },
    {
        "title": "从大学宿舍关系你学到了什么？",
        "docid": "7320152213874213416",
        "url": ""
    },
    {
        "title": "私立研究型大学崛起：西湖大学、福耀科大、东方理工剑指世界一流",
        "docid": "7311919827126632971",
        "url": ""
    },
    {
        "title": "教育部：部分留学生文凭将不被国家认可，成绩再好也无效！",
        "docid": "7319837696158056996",
        "url": ""
    },
    {
        "title": "孩子最反感的父母行为，竟是这2个字",
        "docid": "7294571655056523785",
        "url": ""
    },
    {
        "title": "参加完德国小学的家长会，我彻底想开了",
        "docid": "7304912104392344118",
        "url": ""
    },
    {
        "title": "父母的“愚蠢”真的会毁掉子女一辈子！网友分享真实经历，太扎心",
        "docid": "7315790912389612069",
        "url": ""
    },
    {
        "title": "爱上四十多岁的英语老师怎么办？网友的回答令人爆笑！",
        "docid": "7317853176147821110",
        "url": ""
    },
    {
        "title": "复旦大学：本科毕业生直接就业不到两成 超七成选择继续深造",
        "docid": "7321916285515203072",
        "url": ""
    },
    {
        "title": "背熟了你的完型填空就厉害了",
        "docid": "7296306401499300390",
        "url": ""
    },
    {
        "title": "都是公安部直属，中国人民警察大学和中国人民公安大学有何区别？",
        "docid": "7312354723326263848",
        "url": ""
    },
    {
        "title": "1981年，内蒙一老师花半月工资给学生买鞋，26年后学生送她一套房",
        "docid": "7311232344487232063",
        "url": ""
    },
    {
        "title": "闲着没事可以考的3个证书！可评职称、领补贴，还能报销学费！",
        "docid": "7303828765824778771",
        "url": ""
    },
    {
        "title": "高三尖子生被父亲逼着退学，女孩哭求：让我考完行吗，后来怎么样",
        "docid": "7307861404042822170",
        "url": ""
    },
    {
        "title": "没考上研究生，出国读“水硕”再回国就业靠谱吗？张雪峰给出回应",
        "docid": "7299073313744503335",
        "url": ""
    },
    {
        "title": "全国民办本科中，只有这7所拥有硕士点，比一些公办本科都强",
        "docid": "7292610591519375881",
        "url": ""
    },
    {
        "title": "江西一本医学院，4个临床医学男生，毕业五年现状",
        "docid": "7295674385342644762",
        "url": ""
    },
    {
        "title": "​口碑越来越差的几所英国大学！",
        "docid": "7293901060367237658",
        "url": ""
    },
    {
        "title": "南开大学2024保研生源高校人数统计！快来围观～",
        "docid": "7300718553810911784",
        "url": ""
    },
    {
        "title": "这三所大学没有985和211的头衔，却是国家“公务员的摇篮”",
        "docid": "7288259597742129703",
        "url": ""
    },
    {
        "title": "九年级奥林匹克数学竞赛试卷",
        "docid": "7294213172159480330",
        "url": ""
    },
    {
        "title": "张雪峰点评中北大学：中北大学出来好找工作吗？",
        "docid": "7292777003286200866",
        "url": ""
    },
    {
        "title": "二本师范大学就业现状调查",
        "docid": "7299254387959120447",
        "url": ""
    },
    {
        "title": "毋须说教，流浪孙博士足以让孩子醒悟，考一所名牌大学有多重要",
        "docid": "7321282935167009314",
        "url": ""
    },
    {
        "title": "公费师范生被通报！当地教育局：退还7.475万元",
        "docid": "7322011615514362377",
        "url": ""
    },
    {
        "title": "华南农业大学，4个会计女生，毕业2年的现状",
        "docid": "7291962143900107291",
        "url": ""
    },
    {
        "title": "一听这位广西“小砂糖橘”妈妈说的话，就知道她没少看董宇辉直播",
        "docid": "7319807672092590642",
        "url": ""
    },
    {
        "title": "湖北寒门学霸放弃保送清华，扬言要享受高考全过程，后来考多少分",
        "docid": "7314837588483998262",
        "url": ""
    },
    {
        "title": "原来突然“开窍”真的会让人生如同开挂了！看完大开眼界，惊呆了",
        "docid": "7318329850732118543",
        "url": ""
    },
    {
        "title": "同分不同命系列：7名433分考生的录取结果",
        "docid": "7321233204902429196",
        "url": ""
    },
    {
        "title": "“多巴胺”的“胺”不读ān！最新十大语文差错公布",
        "docid": "7319854584460182042",
        "url": ""
    },
    {
        "title": "你家孩子在学校担任什么干部？其他我都忍了，那个灯光师出来一下",
        "docid": "7296540442810745359",
        "url": ""
    },
    {
        "title": "考上这5所双非，就等于读了一个211",
        "docid": "7291167394712879651",
        "url": ""
    },
    {
        "title": "热门专业已悄悄转变，男生公开简历遭“疯抢”，张雪峰说得没错",
        "docid": "7320941029954372130",
        "url": ""
    },
    {
        "title": "中山大学为啥有两个医学院？一个是亲生的，一个是抱养的！",
        "docid": "7310901004823396903",
        "url": ""
    },
    {
        "title": "校名确定！新“医科大学”通过审核，东北或将迎来新一轮更名热",
        "docid": "7321325590886416911",
        "url": ""
    },
    {
        "title": "我太太太太同意这位老师的观点了！",
        "docid": "7316739377416421926",
        "url": ""
    },
    {
        "title": "400-500分考生能报考哪些大学？2024有需要的考生重点关注！",
        "docid": "7320498909061628456",
        "url": ""
    },
    {
        "title": "北京市最憋屈的十大高校",
        "docid": "7320639267464839680",
        "url": ""
    },
    {
        "title": "今年各省联考时间定了！就是：3月16号！",
        "docid": "7320416541345055273",
        "url": ""
    },
    {
        "title": "幼儿园必须大量识字！专家呼吁家长早早着手培养孩子学习习惯",
        "docid": "7321568125479961115",
        "url": ""
    },
    {
        "title": "北大校长蔡元培：真正有远见的教育，是让孩子拥有这4种能力",
        "docid": "7306326812643656255",
        "url": ""
    },
    {
        "title": "424所民办本科大学名单公布，民办本科应该如何划分类型？",
        "docid": "7296387765011431988",
        "url": ""
    },
    {
        "title": "耶鲁教授揭露残酷真相：童年被严重透支的孩子，很难形成健全人格",
        "docid": "7312120722678366761",
        "url": ""
    },
    {
        "title": "“溜索女孩”：8岁就溜索200米渡江上学，16年后她的选择让人意外",
        "docid": "7309773261389775395",
        "url": ""
    },
    {
        "title": "二十多年前，湖南曾有10所部属院校，如今只剩2所，令人唏嘘不已",
        "docid": "7291177767356531263",
        "url": ""
    },
    {
        "title": "还以为留学生过得很好呢，没想刷到评论区，全是各地留学生的吐槽",
        "docid": "7309693424377020964",
        "url": ""
    },
    {
        "title": "这8所大学，是211工程大学天花板，赶超985大学，考上就是赚到！",
        "docid": "7310891117078413850",
        "url": ""
    },
    {
        "title": "大家有没有过无心插柳的经历？网友：英语老师直接跨越了阶层",
        "docid": "7321973065406071348",
        "url": ""
    },
    {
        "title": "中南大学：看了电子科技大学，才知道什么叫“时代红利”",
        "docid": "7305937240994284082",
        "url": ""
    },
    {
        "title": "体制内上岸后，明显感受到了信息茧房的恐怖！",
        "docid": "7313554600459256371",
        "url": ""
    },
    {
        "title": "中信银行2024年拟录用毕业生生源高校人数统计！快来围观",
        "docid": "7320014597652546100",
        "url": ""
    },
    {
        "title": "实验区小中高学制“4+3+2”？南京一区教育局回应",
        "docid": "7320535753459597858",
        "url": ""
    },
    {
        "title": "大学土木建筑：曾经年入60万的状元专业，如今已是 “提桶跑路”",
        "docid": "7298653106647286291",
        "url": ""
    },
    {
        "title": "越穷的家长，越喜欢在3件事上“装大方”，看看有你吗？尽早避雷",
        "docid": "7314250535610335744",
        "url": ""
    },
    {
        "title": "教育部：长江学者申报向14所高校倾斜",
        "docid": "7321621457108042303",
        "url": ""
    },
    {
        "title": "为了学分脸都不要了？一男生在俄罗斯留学，为拿学分选修中文课",
        "docid": "7294796020620231179",
        "url": ""
    },
    {
        "title": "湖北省抛开部属高校后，省属高校实力不堪入目，有些指标啥也不是",
        "docid": "7320872379499692580",
        "url": ""
    },
    {
        "title": "小学生作文《雪》被老师表扬，妈妈纳闷一问孩子：用AI改写鲁迅的",
        "docid": "7312328255561368101",
        "url": ""
    },
    {
        "title": "爸妈没时间参加家长会，自己就去了，同桌妈妈一句话，笑喷了！",
        "docid": "7321553100803047976",
        "url": ""
    },
    {
        "title": "“双非”高校排名“洗牌”？浙工大无缘榜首，江苏不愧是教育强省",
        "docid": "7293821806400684596",
        "url": ""
    },
    {
        "title": "20年前，我卖房子辞公职去英国，留学赚钱两手抓苦拼20年破圈",
        "docid": "7297948437265138216",
        "url": ""
    },
    {
        "title": "研究生开组会时，都是什么鬼样子？我总结了15种类型...",
        "docid": "7297121929985606159",
        "url": ""
    },
    {
        "title": "天津中德应用技术大学是一所什么样的大学？",
        "docid": "7297510197696873001",
        "url": ""
    },
    {
        "title": "有哪些看似很小的事，其实很要命？都是你想不到的事",
        "docid": "7290440486723076644",
        "url": ""
    },
    {
        "title": "张雪峰公司成立职业培训学校",
        "docid": "7321922196060865076",
        "url": ""
    },
    {
        "title": "笑不活了! 广西11个“沙糖桔”勇闯哈尔滨，网友：尔滨你可看好了",
        "docid": "7319768597335769615",
        "url": ""
    },
    {
        "title": "归国留学生加入公务员队伍不是洪水猛兽！",
        "docid": "7293734077743317539",
        "url": ""
    },
    {
        "title": "现在毕业留在美国的中国留学生，背景都不简单",
        "docid": "7310516517161091636",
        "url": ""
    },
    {
        "title": "老课文：80后课文《初冬》被收录教材60年 到底是什么地方的冬天？",
        "docid": "7296735812451090995",
        "url": ""
    },
    {
        "title": "教育部：中小学要组织全员艺术素质测评",
        "docid": "7319807671865999912",
        "url": ""
    },
    {
        "title": "五年级上册数学：不规则图形面积计算专项训练，给孩子强化练习",
        "docid": "7308685351349682739",
        "url": ""
    },
    {
        "title": "为什么新高考2.0以后 选择地理和政治理科生越来越少？",
        "docid": "7302634814518379060",
        "url": ""
    },
    {
        "title": "中国美术学院：本科毕业生最主要毕业去向是自由职业",
        "docid": "7322019139571630632",
        "url": ""
    },
    {
        "title": "全国最“穷”的211大学，其实特别牛",
        "docid": "7289028324586947107",
        "url": ""
    },
    {
        "title": "老课文：70后初中课本里的《井冈翠竹》记住了一种手法叫顶真",
        "docid": "7301938321192878592",
        "url": ""
    },
    {
        "title": "教育部官宣：12所学院更名大学",
        "docid": "7320434485827944998",
        "url": ""
    },
    {
        "title": "信息差真的很害人",
        "docid": "7295565558861578764",
        "url": ""
    },
    {
        "title": "称呼女王为什么用Your Majesty，而不是My Majesty？",
        "docid": "7307577669523472908",
        "url": ""
    },
    {
        "title": "“土木工程”2023年全球300强排名来了，重庆大学世界第七",
        "docid": "7295705335732372002",
        "url": ""
    },
    {
        "title": "公认最难背的九篇文言文，你能背出几篇？一起试试看！",
        "docid": "7304310679354524211",
        "url": ""
    },
    {
        "title": "老课文：80后课本里的《驿路梨花》 消失近二十年后再回初中教材",
        "docid": "7304140621802504713",
        "url": ""
    },
    {
        "title": "那些年在高校合并潮中“消失”的工业大学，哪一所最值得惋惜？",
        "docid": "7306343505528472116",
        "url": ""
    },
    {
        "title": "毕业即失业? 本科就业老大难专业汇总！高考生提前了解～",
        "docid": "7297093152891699727",
        "url": ""
    },
    {
        "title": "大学“生活费”等级出炉！一个月1500是啥水平？在校生回答很现实",
        "docid": "7315983097974030883",
        "url": ""
    },
    {
        "title": "南开副校长陈洪：强调研究生必须发论文，误国误民，害人匪浅",
        "docid": "7300183974822003251",
        "url": ""
    },
    {
        "title": "在读研究生：太爽了！还有这3笔钱可以拿",
        "docid": "7321638239520522787",
        "url": ""
    },
    {
        "title": "国考中的天花板—中央部委是怎样的",
        "docid": "7292944590800257562",
        "url": ""
    },
    {
        "title": "加入美国籍就是背叛祖国",
        "docid": "7321872640136790564",
        "url": ""
    },
    {
        "title": "读研后才明白，考研和保研的差距不是一星半点，考研党心里要有数",
        "docid": "7300226415847752202",
        "url": ""
    },
    {
        "title": "又一所省会城市大学来了！全国总共到底有几所？这所值得关注！",
        "docid": "7309001121782432308",
        "url": ""
    },
    {
        "title": "被遗忘的珞珈山奇迹：武汉大学的“刘道玉时代”",
        "docid": "7298248360367342118",
        "url": ""
    },
    {
        "title": "国考来了，父母有案底，可以报考公务员吗",
        "docid": "7290510220378669605",
        "url": ""
    },
    {
        "title": "盘点陕西省考公务员冷门职位-狱警",
        "docid": "7294083116140954150",
        "url": ""
    },
    {
        "title": "“逆向转学”火上热搜！怎么转学？有什么规定？",
        "docid": "7321950693735842354",
        "url": ""
    },
    {
        "title": "工作三年，才知道读研的意义",
        "docid": "7319528044358779429",
        "url": ""
    },
    {
        "title": "公平可能只在中国才有了，也只有中国才在乎你的公平！",
        "docid": "7321934032210510374",
        "url": ""
    },
    {
        "title": "张雪峰谈流浪博士：他不是回国而是出国？安置后他想做啥？",
        "docid": "7321270100219396618",
        "url": ""
    },
    {
        "title": "2023年国内论文被Hindawi撤稿数千篇，武大、山大等高校上榜",
        "docid": "7320584493738410515",
        "url": ""
    },
    {
        "title": "英语成绩差的孩子就“死磕”这18张图，再笨也不会低于98分！",
        "docid": "7295921035348804131",
        "url": ""
    },
    {
        "title": "中国式父母对孩子最残忍的伤害是什么",
        "docid": "7312822370144813602",
        "url": ""
    },
    {
        "title": "当你答辩时，老师突然给你暗号！",
        "docid": "7311304722747621922",
        "url": ""
    },
    {
        "title": "见多了学生闯祸，我们来看看老师闯祸是什么体验！",
        "docid": "7298377812900233747",
        "url": ""
    },
    {
        "title": "理科状元张晓勇：清华毕业5年后回乡做保安，如今每月工资5000元",
        "docid": "7298646856061452827",
        "url": ""
    },
    {
        "title": "一人说一个天坑专业！你和孩子踩坑了吗？",
        "docid": "7308180525708345891",
        "url": ""
    },
    {
        "title": "全国理工大学20强，北理头筹，山理踩线入场，莞工只能先靠边站",
        "docid": "7288975807974769204",
        "url": ""
    },
    {
        "title": "复旦留美博士在纽约街头流浪16年：1988年通过考试后赴美，曾在SCI发表多篇论文",
        "docid": "7320590857634824741",
        "url": ""
    },
    {
        "title": "教育部：这类研究生，再扩招！",
        "docid": "7320112734576607779",
        "url": ""
    },
    {
        "title": "惊喜！儿子的阅读理解几乎从不扣分，这帮助他成为真正的学霸",
        "docid": "7313703549337387570",
        "url": ""
    },
    {
        "title": "张雪峰都不建议报考的4大专业，特别难就业，很多人还不知道",
        "docid": "7301576373896823337",
        "url": ""
    },
    {
        "title": "毁掉孩子视力的不是手机和电视，而是这2样东西，很多父母不知道",
        "docid": "7289014648886837818",
        "url": ""
    },
    {
        "title": "当代父母最大的成功：给孩子指明4条出路，代代安稳",
        "docid": "7320892843260690978",
        "url": ""
    },
    {
        "title": "2006年，河南女孩用0分抗议高考，为此赌上一生，现在后悔了吗",
        "docid": "7321906785609171475",
        "url": ""
    },
    {
        "title": "潮评丨不要因为“流浪博士”的存在就轻易否定少年班",
        "docid": "7321603986657034786",
        "url": ""
    },
    {
        "title": "老课文：80后课本里的《可爱的草塘》 “棒打狍子瓢舀鱼”的北大荒",
        "docid": "7293713005978714639",
        "url": ""
    },
    {
        "title": "盘点那些“成绩+拼爹”的中外合作大学",
        "docid": "7320049741088490034",
        "url": ""
    },
    {
        "title": "看完你还敢让孩子带同学回家吗？网友们的血泪教训让上万家长沉思",
        "docid": "7302080160491405834",
        "url": ""
    },
    {
        "title": "“搬砖小伙”林万东：高考713分，被嘲考上清华也没用，现在咋样",
        "docid": "7317156846039482943",
        "url": ""
    },
    {
        "title": "邓超孙俪儿子惊艳演技，引发家庭教育思考",
        "docid": "7322034295118610984",
        "url": ""
    },
    {
        "title": "人大90后才女苏紫紫：不顾批评做人体模特，如今怎么样了？",
        "docid": "7312754389096251904",
        "url": ""
    },
    {
        "title": "什么样的孩子容易被霸凌被欺负？中国政法大学教授总结了4种情况",
        "docid": "7289639196799959613",
        "url": ""
    },
    {
        "title": "同济大学，近年来上海最失意的985，抄底正当时",
        "docid": "7321354681568084515",
        "url": ""
    },
    {
        "title": "现在当什么老师好？张雪峰：当然是大专老师，网友：你小声点！",
        "docid": "7291515557235425792",
        "url": ""
    },
    {
        "title": "新概念第一册 单词默写纸全",
        "docid": "7301600581926453795",
        "url": ""
    },
    {
        "title": "小学低年级家长要不要陪孩子写作业？我真的太赞同她的观点了！",
        "docid": "7313434320373727753",
        "url": ""
    },
    {
        "title": "闹大了！580元的“升学e网通”APP 校方：自愿买 家长 我敢不自愿？",
        "docid": "7321982181612929546",
        "url": ""
    },
    {
        "title": "上课讲到“两个黄鹂鸣翠柳”，小学生灵魂拷问，老师竟无言以对",
        "docid": "7311252277917794825",
        "url": ""
    },
    {
        "title": "协会的证书不要碰",
        "docid": "7321344212635796020",
        "url": ""
    },
    {
        "title": "怎么给孩子报兴趣班？李玫瑾建议报两类，并非钢琴、画画和书法",
        "docid": "7310622273986200101",
        "url": ""
    },
    {
        "title": "我考上985后才知道，很多考不上的人，高中阶段都是在无效学习",
        "docid": "7317105887800525362",
        "url": ""
    },
    {
        "title": "我们的学生从小到大不学逻辑，是很严重的缺陷",
        "docid": "7298933484440224271",
        "url": ""
    },
    {
        "title": "黄冈中学教育集团正式成立",
        "docid": "7322094725434098191",
        "url": ""
    },
    {
        "title": "石河子大学，真的可以低分上名校吗",
        "docid": "7315439860225933878",
        "url": ""
    },
    {
        "title": "西湖大学“90后”美女教授诞生，履历优秀，毕业院校不一般！",
        "docid": "7301860281410421282",
        "url": ""
    },
    {
        "title": "孩子，如果你觉得学习很累，看看凌晨2点清华的教学楼",
        "docid": "7289259313909531196",
        "url": ""
    },
    {
        "title": "太实用！看完我立即发给正上高中的妹妹，董宇辉讲完形填空4原则",
        "docid": "7307144908400525861",
        "url": ""
    },
    {
        "title": "“数字”请假条，还得是音乐老师，其他老师都看不懂",
        "docid": "7297521330793382410",
        "url": ""
    },
    {
        "title": "很多大学生都不会，家长值得收藏，看完涨知识了！",
        "docid": "7321973454901740043",
        "url": ""
    },
    {
        "title": "没有情绪价值的父母养不出有幸福感的孩子",
        "docid": "7299322990666236457",
        "url": ""
    },
    {
        "title": "雅思和托福哪个含金量更高？一文读懂雅思和托福的区别",
        "docid": "7298257703653196300",
        "url": ""
    },
    {
        "title": "语文课本因为一个“逗号”被质疑，家长认为有问题老师看了也蒙了",
        "docid": "7304130409170846249",
        "url": ""
    },
    {
        "title": "以前的小学生：背课文；现在的小学生：举报课文",
        "docid": "7316769412172956212",
        "url": ""
    },
    {
        "title": "考公人，报考纪委监委一定要谨慎选择，避免掉坑！",
        "docid": "7298276949498413622",
        "url": ""
    },
    {
        "title": "1012亩！陕西一省会高校拟整体搬迁，网友：或为升格做准备",
        "docid": "7321541694816731700",
        "url": ""
    },
    {
        "title": "辛苦读书12年，就能换来60年的轻松吗？看过来人如何泼冷水。",
        "docid": "7321944896016319028",
        "url": ""
    },
    {
        "title": "不用交学费！这些院校研究生奖学金100%全覆盖！",
        "docid": "7303718048144654859",
        "url": ""
    },
    {
        "title": "我找工作时怎么没读到罗翔老师的这段话啊 ​​​",
        "docid": "7304660000616530441",
        "url": ""
    },
    {
        "title": "“好吃”是“delicious”，那“难吃”用英语怎么说？",
        "docid": "7298161618813256246",
        "url": ""
    },
    {
        "title": "说一句你高中最牛的学习技巧",
        "docid": "7289814360103535144",
        "url": ""
    },
    {
        "title": "太棒了！专业仅有的4位女生年级前四保研",
        "docid": "7306719715441820198",
        "url": ""
    },
    {
        "title": "一语点醒梦中人，中式教育还是有点东西的！",
        "docid": "7307336272966648346",
        "url": ""
    },
    {
        "title": "被纪录片喂大的孩子，眼界和格局远超同龄人！",
        "docid": "7309773845685191183",
        "url": ""
    },
    {
        "title": "大学生最好的状态是什么？ ​​​",
        "docid": "7321689037352206848",
        "url": ""
    },
    {
        "title": "母亲瘫痪，父亲疯了，744分高考状元被清华录取7年后，过得如何？",
        "docid": "7319436505800311323",
        "url": ""
    },
    {
        "title": "广西综合实力排名靠前的8所高校毕业生就业签约数量排前10的单位",
        "docid": "7300010392565498422",
        "url": ""
    },
    {
        "title": "韦仁龙：13岁父母双亡，靠捡垃圾谋生，6年后以707高分考上北大",
        "docid": "7301950845606969897",
        "url": ""
    },
    {
        "title": "“妈，我受不了啦”：谁发明的“人贴人”跑操，服从测试还嫌不够",
        "docid": "7292647544285610511",
        "url": ""
    },
    {
        "title": "“多巴胺”的“胺”不读ān？",
        "docid": "7319809362216911414",
        "url": ""
    },
    {
        "title": "武则天的一项发明，今天高考仍在使用，不得不佩服这女人的智商",
        "docid": "7305333339076985379",
        "url": ""
    },
    {
        "title": "子女会不会沦落为“底层人”，要看父母的这3个选择",
        "docid": "7311555160521179682",
        "url": ""
    },
    {
        "title": "国防科技大学录取条件，想上国科大，记住这5点",
        "docid": "7320193804299076105",
        "url": ""
    },
    {
        "title": "重庆一班主任要求学生购买付费APP 涉事学校：费用已全部清退",
        "docid": "7321968052503872063",
        "url": ""
    },
    {
        "title": "现实就是最好的讽刺！为什么要读书!",
        "docid": "7316006777684886066",
        "url": ""
    },
    {
        "title": "八十年代中专生活（二）",
        "docid": "7299790369155170852",
        "url": ""
    },
    {
        "title": "10分钟可以知道怎么分辨阿拉伯语字母？",
        "docid": "7299258274401124874",
        "url": ""
    },
    {
        "title": "方程至今不理解，Equation却让我茅塞顿开，这就是要学英语的原因",
        "docid": "7292051234499445248",
        "url": ""
    },
    {
        "title": "车上贴的 “Baby in car” 竟然是中式英文！那外国人说什么？",
        "docid": "7293331951619801641",
        "url": ""
    },
    {
        "title": "艺考的水有多深？为了考试真的是不择手段啊",
        "docid": "7318202613269758505",
        "url": ""
    },
    {
        "title": "两次拒绝北大，贷款100万读哈佛大学的贵州农村女孩，如今怎样了",
        "docid": "7317899651724804662",
        "url": ""
    },
    {
        "title": "为什么说大一新生入学，揭开了太多家庭的心酸 ，网友留言让人泪目",
        "docid": "7301683376476488207",
        "url": ""
    },
    {
        "title": "“我又要动别人的奶酪了”，张雪峰喊话普通家长，有钱也别去尝试",
        "docid": "7301975551400116774",
        "url": ""
    },
    {
        "title": "如何正确评价南开已故教授艾跃进？",
        "docid": "7311687593836642826",
        "url": ""
    },
    {
        "title": "山东理工：对不起，湖南大学武汉大学，强行溯源我可以到稷下学宫",
        "docid": "7307477195398677027",
        "url": ""
    },
    {
        "title": "毕业后才发现文科和理科的差距，多数家长后悔，当初为什么要干预",
        "docid": "7319000364798214691",
        "url": ""
    },
    {
        "title": "《梁启超家书》：一个家庭最大的悲哀，就是把教育的顺序搞错了",
        "docid": "7296852180001686050",
        "url": ""
    },
    {
        "title": "中国人为何不愿读技校？现在技工人才缺口超大，看看国外怎么做的",
        "docid": "7309391808655295026",
        "url": ""
    },
    {
        "title": "函授本科到底有没有用？来看看大家怎么说",
        "docid": "7302023386711900672",
        "url": ""
    },
    {
        "title": "2018年最嚣张的高考生，嘲讽高考题目垃圾，他现如今怎么样了？",
        "docid": "7307873154079539763",
        "url": ""
    },
    {
        "title": "稳了！幼儿园毕业，直接冲击名校硕士，他的人生剧本里没有loser",
        "docid": "7293437708410651172",
        "url": ""
    },
    {
        "title": "《月光曲》中的穷姑娘为何能有钢琴？网友与教科书的回答各有千秋",
        "docid": "7305756391078330895",
        "url": ""
    },
    {
        "title": "小学生都谈恋爱了？写的情书让老师不忍直视，满篇“土味情话”！",
        "docid": "7313482868490387983",
        "url": ""
    },
    {
        "title": "华中科技大学 — 西安交通大学，你选谁？ 谁的实力更强？",
        "docid": "7296356370520949267",
        "url": ""
    },
    {
        "title": "为什么学习好的孩子很少被欺负？退休班主任说出实情：和成绩无关",
        "docid": "7307248479641076275",
        "url": ""
    },
    {
        "title": "23岁女研究生在街头捡到一个流浪儿，21年后将他培养成留美博士",
        "docid": "7321578479110144546",
        "url": ""
    },
    {
        "title": "2008年，被喷不务正业的校长叶志平，汶川地震救下全校无一伤亡",
        "docid": "7315728754310185526",
        "url": ""
    },
    {
        "title": "初中成绩拔尖的学生，高中继续拔尖概率大不大？",
        "docid": "7219485566264525371",
        "url": ""
    },
    {
        "title": "人民日报写的太好了，气势磅礴的文字！ ​​​",
        "docid": "7296703548367979049",
        "url": ""
    },
    {
        "title": "广西考神，高考10次拒绝北大，32岁圆梦清华，36岁毕业后去哪里了",
        "docid": "7305798220217696808",
        "url": ""
    },
    {
        "title": "你的孩子是学霸还是学渣，看他放学回家后的第一件事就知道了",
        "docid": "7321969267623494171",
        "url": ""
    },
    {
        "title": "供一名研究生要花多少钱？3年时间是这个数，普通家庭犹豫不前",
        "docid": "7316850837844754982",
        "url": ""
    },
    {
        "title": "河南女孩王娟：六岁失去双腿，带着爷爷的愿望考上大学",
        "docid": "7320446383868363299",
        "url": ""
    },
    {
        "title": "老课文：80后初中课本里的《分马》 作者真的不是赵树理",
        "docid": "7294496135400505856",
        "url": ""
    },
    {
        "title": "为什么物化生组合整体水平高出那么多?",
        "docid": "7288688505771917835",
        "url": ""
    },
    {
        "title": "中央司法警官学院，一所被忽视的好大学",
        "docid": "7290880902840959540",
        "url": ""
    },
    {
        "title": "为什么要狠抓一年级？一年级非常重要",
        "docid": "7289236099380494902",
        "url": ""
    },
    {
        "title": "计算机系应该趁早培养的六种能力从大一开始拉开差距",
        "docid": "7321989806760739338",
        "url": ""
    },
    {
        "title": "全国各地的宝宝们相继到达哈尔滨，让老铁看看都有哪些！",
        "docid": "7321572332408635904",
        "url": ""
    },
    {
        "title": "北体学生与鸟合影引发热议，北京大爷一句话网友排队认亲",
        "docid": "7322272452078256652",
        "url": ""
    },
    {
        "title": "用毕生所学，看图猜成语，全对算你牛",
        "docid": "7295141691567292947",
        "url": ""
    },
    {
        "title": "老课文：80后小学课本里的《小站》 消失在京包线上那道风景线",
        "docid": "7290375592187363880",
        "url": ""
    },
    {
        "title": "代画即作弊",
        "docid": "7322253177015976460",
        "url": ""
    },
    {
        "title": "知识经济时代的基石,中公教育创造更好的未来!",
        "docid": "7321986729794110003",
        "url": ""
    },
    {
        "title": "学校让学生吃剩馒头？校长：我在食堂和学生吃一锅的饭 教育局回应",
        "docid": "7321658127357772323",
        "url": ""
    },
    {
        "title": "山东高校2023年实力排名：77所大学划分7档，青岛大学排第3档次",
        "docid": "7297886361682690560",
        "url": ""
    },
    {
        "title": "华理有个“学霸”寝室：优秀×4 全寝保研 再续“理”缘",
        "docid": "7321991520612008488",
        "url": ""
    },
    {
        "title": "老课文：70后课本里的《上学路上》还记得那个叫赵伟红的女孩吗？",
        "docid": "7312645485163135526",
        "url": ""
    },
    {
        "title": "留美博士流浪街头：希望有人帮他找回曾经失去的自我",
        "docid": "7320158161200153151",
        "url": ""
    },
    {
        "title": "2020年高考，湖南考生兴奋冲出考场跳“一字马”，后来怎样了？",
        "docid": "7294931122872468002",
        "url": ""
    },
    {
        "title": "2024年起，如果人口下滑无法逆转，教育产业或将出现3大重要转变",
        "docid": "7305701729620951586",
        "url": ""
    },
    {
        "title": "哈尔滨音乐学院师生，哈尔滨火车站上演精彩音乐会",
        "docid": "7322111618601566735",
        "url": ""
    },
    {
        "title": "新录用公务员任职定级规定",
        "docid": "7289438778689716797",
        "url": ""
    },
    {
        "title": "山东算啥？云南才是考公第一大省，公务员待遇比肩东部省份",
        "docid": "7297409168326033935",
        "url": ""
    },
    {
        "title": "美国高校排名竟是用钱买的？美媒曝光",
        "docid": "7322262414420886016",
        "url": ""
    },
    {
        "title": "2022年全国前300高校部门决算经费汇总！快来围观～",
        "docid": "7290136093775708707",
        "url": ""
    },
    {
        "title": "退伍后当了民办教师，在局长位子上退休，人生逆袭得益于我的初恋",
        "docid": "7312840514125365799",
        "url": ""
    },
    {
        "title": "新高考：选科不对，努力白费，提前规划受益无穷",
        "docid": "7297507637594866186",
        "url": ""
    },
    {
        "title": "为什么要办理上海居住证？",
        "docid": "7303185318432457228",
        "url": ""
    },
    {
        "title": "一位老师哭诉：农村学生越来越难教了，怎么教也教不会",
        "docid": "7322016874874110464",
        "url": ""
    },
    {
        "title": "盘点改名失败的高校：长春理工大学，你知道她原来叫什么吗？",
        "docid": "7318029470789730827",
        "url": ""
    },
    {
        "title": "我国“中医药大学”最新排名，北中医稳居第一，天中位列全国第三",
        "docid": "7300765668033430054",
        "url": ""
    },
    {
        "title": "毕业生就业率呈下降趋势的3所985，难就业，名校光环也不顶事",
        "docid": "7317555114859872783",
        "url": ""
    },
    {
        "title": "2008年，背母上学的孝子刘秀祥，拒绝了55万年薪，如今怎么样了？",
        "docid": "7322001838662763019",
        "url": ""
    },
    {
        "title": "985毕业家长：我竟被三年级几何题难住了！",
        "docid": "7308185811348914729",
        "url": ""
    },
    {
        "title": "给儿子狠狠做了次断舍离，这几类兴趣班早就该放弃",
        "docid": "7304105502202413603",
        "url": ""
    },
    {
        "title": "12张图带你认清全部大学专业！你想学什么专业？太有用了！",
        "docid": "7295944301408895498",
        "url": ""
    },
    {
        "title": "广西最好就业的4所大学，尤其第三所，分数不高毕业包分配",
        "docid": "7320785312010486299",
        "url": ""
    },
    {
        "title": "为什么上课时间不全国统一？评论区炸了，一神回复让上万人沉默了",
        "docid": "7321996768882360886",
        "url": ""
    },
    {
        "title": "逆向思维",
        "docid": "7295937754163282467",
        "url": ""
    },
    {
        "title": "无犯罪记录证明，到底在安慰谁？",
        "docid": "7289991038263951912",
        "url": ""
    },
    {
        "title": "又来一波看图猜成语:挑战你的知识含量来了",
        "docid": "7293390963664224831",
        "url": ""
    },
    {
        "title": "过去上学真的“免费”吗，听听大家怎么说？",
        "docid": "7311213851130348070",
        "url": ""
    },
    {
        "title": "考研弃考率有多高？原来并不是所有报名的都会去参加考试！",
        "docid": "7313220873736045068",
        "url": ""
    },
    {
        "title": "初二分水岭以后，成绩是否就此定型？",
        "docid": "7226337016085168651",
        "url": ""
    },
    {
        "title": "全国“双一流”高校毕业生就业去向汇总！快来围观～",
        "docid": "7291500445255320079",
        "url": ""
    },
    {
        "title": "小学六种表现成绩迟早下滑",
        "docid": "7298996614583222819",
        "url": ""
    },
    {
        "title": "适合捡漏！这两所一本大学有二本分就能上，考上就赚了！",
        "docid": "7300371737387303459",
        "url": ""
    },
    {
        "title": "当代父母最明智的选择：选对3件事，让子女脱离“底层人”",
        "docid": "7321740713908584979",
        "url": ""
    },
    {
        "title": "毕业后才明白，“省内”和“省外”上大学的区别，后悔当初选错了",
        "docid": "7316823493491245578",
        "url": ""
    },
    {
        "title": "“无须”与“无需”",
        "docid": "7299284933191680524",
        "url": ""
    },
    {
        "title": "山东最尴尬的大学，没有之一！",
        "docid": "7313151417949159948",
        "url": ""
    },
    {
        "title": "湖北省车牌字母代码5分钟速记：为什么湖北鄂B是黄石？",
        "docid": "7290832802323366461",
        "url": ""
    },
    {
        "title": "男孩进入青春期，会有两个明显的变化，家长早知早干预儿子早受益",
        "docid": "7322031499745231398",
        "url": ""
    },
    {
        "title": "大四成为预备党员，毕业以后怎么转正？",
        "docid": "7308713295195587106",
        "url": ""
    },
    {
        "title": "考研究生，如果能去这8所大学，就业基本无忧，待遇和福利如何？",
        "docid": "7303517015183458816",
        "url": ""
    },
    {
        "title": "背熟这些，生物会考稳过！",
        "docid": "7301481094468289034",
        "url": ""
    },
    {
        "title": "速算口诀大全，太实用，给孩子收藏备用吧！",
        "docid": "7301992955874165300",
        "url": ""
    },
    {
        "title": "都说考试黑幕多，但看了“艺考”黑幕之后才发现：其它都是小儿科",
        "docid": "7321953354454991410",
        "url": ""
    },
    {
        "title": "大学的课究竟在讲什么？我真服了！ ​",
        "docid": "7292340011792351784",
        "url": ""
    },
    {
        "title": "我95后理工男，麻省理工“双硕士”，靠开中介公司，年收入2000万",
        "docid": "7300538523491287567",
        "url": ""
    },
    {
        "title": "“商丘神童”4岁熟读四书五经，9岁高考13岁大学毕业，如今现状令人唏嘘",
        "docid": "7312684285063496192",
        "url": ""
    },
    {
        "title": "当其他的00后还在上学，他都当校长了",
        "docid": "7317625911178969663",
        "url": ""
    },
    {
        "title": "花钱找代画乱象，该重视起来了",
        "docid": "7322006877464936998",
        "url": ""
    },
    {
        "title": "别再花钱买网课了，9个国家给的补课平台！这些网站都能免费学习",
        "docid": "7314544866792391219",
        "url": ""
    },
    {
        "title": "广东省大学排名“大调整”，南科大位列第一，华工跌至第三",
        "docid": "7315333515112890914",
        "url": ""
    },
    {
        "title": "看到女儿国内外学霸同学们的近况，我突然不焦虑了",
        "docid": "7299720709180244489",
        "url": ""
    },
    {
        "title": "终于有人把教师职称等级整理出来了！",
        "docid": "7306900303415329306",
        "url": ""
    },
    {
        "title": "财政压力下的三座大山，教师医生公务员，你认为谁最应该被精简？",
        "docid": "7320927848310161958",
        "url": ""
    },
    {
        "title": "教育部公布！5个新专业来了",
        "docid": "7321132712310374953",
        "url": ""
    },
    {
        "title": "学生磨蹭，是懒还是病？专家解析让你恍然大悟！",
        "docid": "7321707105986118171",
        "url": ""
    },
    {
        "title": "哈佛大学：5个震撼心灵的故事，改变你的一生",
        "docid": "7295000053075165731",
        "url": ""
    },
    {
        "title": "2024考研国家线预测出炉！附近年考研国家线！快来围观～",
        "docid": "7318321003875271203",
        "url": ""
    },
    {
        "title": "浦东这里拟新建一所初级中学，来看详情→",
        "docid": "7321657523763855907",
        "url": ""
    },
    {
        "title": "以为冷门却意外吃香的5个医学类专业，就业超好！",
        "docid": "7299620682319757860",
        "url": ""
    },
    {
        "title": "本科生“回炉”读职校增多 职校升本如何满足社会需求",
        "docid": "7321934666754507275",
        "url": ""
    },
    {
        "title": "小学语文、数学、英语学习方法",
        "docid": "7296118982418367017",
        "url": ""
    },
    {
        "title": "辅导员变保姆？大学生“巨婴化”现象应警惕",
        "docid": "7321729780330758719",
        "url": ""
    },
    {
        "title": "英语背会这几张表，你的英语就牛了，家里有孩子的，赶紧保存下来",
        "docid": "7322139370880991784",
        "url": ""
    },
    {
        "title": "谁成功把孩子生在了巅峰？这年出生高考压力最大，家长需早做打算",
        "docid": "7320520917469184566",
        "url": ""
    },
    {
        "title": "时评之道·“椒”谈 | 张天熠小组：已识乾坤大，犹怜草木青",
        "docid": "7322363929383584292",
        "url": ""
    },
    {
        "title": "高二的分层开始了",
        "docid": "7293702164420543039",
        "url": ""
    },
    {
        "title": "值得背诵的刘禹锡经典名句，精选336句，收藏起来，随时背诵！",
        "docid": "7321933036478759461",
        "url": ""
    },
    {
        "title": "辅导员不是“24小时服务员”",
        "docid": "7322123468617744908",
        "url": ""
    },
    {
        "title": "为夜生活赋能！青年夜校本周课程预告",
        "docid": "7322022892558942746",
        "url": ""
    },
    {
        "title": "为什么博士生难以按期毕业？",
        "docid": "7306313469304062498",
        "url": ""
    },
    {
        "title": "张雪峰说河北的大学：河北最好的大学有几所学校？",
        "docid": "7290374176110805558",
        "url": ""
    },
    {
        "title": "太原理工的这些，一般人我不告诉他",
        "docid": "7321911356176155162",
        "url": ""
    },
    {
        "title": "郑强教授：你还记得有一个叫肖丽的女孩吗",
        "docid": "7319404827417526795",
        "url": ""
    },
    {
        "title": "不懂就先查一下，上来就喷只能证明自己无知，这篇课文没任何问题",
        "docid": "7300043020479693321",
        "url": ""
    },
    {
        "title": "哈哈哈，好多同学用量角器。老师说不能用量角器，要有解题过程。",
        "docid": "7298219247690367498",
        "url": ""
    },
    {
        "title": "重点高中尖子生妈妈送给初中生的几点经验！",
        "docid": "7297184952855511592",
        "url": ""
    },
    {
        "title": "给一二年级的家长提个醒，不想出现三年级现象提前避开这些坑！",
        "docid": "7290763331986817593",
        "url": ""
    },
    {
        "title": "湖北省大学排名大调整：武汉大学领跑，地大、理工等高校齐头并进",
        "docid": "7321158909358506536",
        "url": ""
    },
    {
        "title": "教育改革：为什么迟迟不进行？",
        "docid": "7321893497215140389",
        "url": ""
    },
    {
        "title": "我是母亲，也是教师，关于教育我承认我站着说话不腰疼……",
        "docid": "7321576367581020723",
        "url": ""
    },
    {
        "title": "上海的民办大学排名",
        "docid": "7289792314741195305",
        "url": ""
    },
    {
        "title": "神童学霸理科状元徐海燕，考入北大，却因一个意外“英年早逝”",
        "docid": "7303187305387819570",
        "url": ""
    },
    {
        "title": "小学生眼中的大学生是什么样子的?大学生：捧杀比侮辱更可怕！",
        "docid": "7320439234194850367",
        "url": ""
    },
    {
        "title": "大批留学生校门口愤怒举牌、扎营过夜！这矛盾闹大了！",
        "docid": "7322274396897362472",
        "url": ""
    },
    {
        "title": "小马心疼马，马术课上不下去了",
        "docid": "7322249167936553483",
        "url": ""
    },
    {
        "title": "冻梨怎样才不会化……放假了，什么都想给爸爸妈妈带回家尝一尝！",
        "docid": "7322369851509522994",
        "url": ""
    },
    {
        "title": "为救学生，她的双腿被截肢，获捐款1000万的她，11年后怎么样了？",
        "docid": "7315367429742445107",
        "url": ""
    },
    {
        "title": "这一刻，我突然读懂了二十年前的语文课文",
        "docid": "7305368155948827175",
        "url": ""
    },
    {
        "title": "中小学生寒假安全提示12条，转给师生家长！",
        "docid": "7322020520492237364",
        "url": ""
    },
    {
        "title": "山西将新设立一所12000人规模高校，2024年开始招生！",
        "docid": "7320093165984301608",
        "url": ""
    },
    {
        "title": "“一口气通关，真开心！”小学生在游戏中复习知识",
        "docid": "7322065277653385765",
        "url": ""
    },
    {
        "title": "教师职称制度里的酸儒、腐儒和犬儒，我就是酸儒：只酸，不腐不犬",
        "docid": "7321276757875671588",
        "url": ""
    },
    {
        "title": "刚刚公布！河北已明确！即日起实行！！",
        "docid": "7322335705286558243",
        "url": ""
    },
    {
        "title": "大手拉小手——深圳市坪山区新合实验学校聘任深圳技术大学青马学员担任校外辅导员",
        "docid": "7322345983474696704",
        "url": ""
    },
    {
        "title": "浙江考生最低多少分可以留在省内读本科?",
        "docid": "7294650564720411190",
        "url": ""
    },
    {
        "title": "普通家庭的大学生出路在什么地方？给你四条建议！",
        "docid": "7320509621163246080",
        "url": ""
    },
    {
        "title": "一线老师怒斥：要求所有中小学教师做教研，是想当然，是瞎胡闹",
        "docid": "7303115986503500324",
        "url": ""
    },
    {
        "title": "四川7所高中通过清北认证，成为优质生源中学",
        "docid": "7321820073742696972",
        "url": ""
    },
    {
        "title": "我国河北省大学最新排名，河大稳居第二，铁大位列第五",
        "docid": "7314099947480023561",
        "url": ""
    },
    {
        "title": "自立能力：大学生成长的“隐形翅膀”",
        "docid": "7322018136441143827",
        "url": ""
    },
    {
        "title": "“鸡娃”鸡出心理问题？家庭教育不妨多些“松弛感”|睡前聊一会儿",
        "docid": "7322132321824604706",
        "url": ""
    },
    {
        "title": "娄底高校学子不畏冰冷河水 勇救落水老人",
        "docid": "7322273700512891446",
        "url": ""
    },
    {
        "title": "紧急提醒！突增！夜间应减少出行！",
        "docid": "7311250337690550810",
        "url": ""
    },
    {
        "title": "云上花瑶、赧水情深，2024年湖南教育电视台少儿春晚隆回专场将举行",
        "docid": "7322369537444446747",
        "url": ""
    },
    {
        "title": "网友称山东美术统考有阅卷评委私调学生成绩，招生考试院：已接到举报信息",
        "docid": "7322296713354658323",
        "url": ""
    },
    {
        "title": "上午10点，成绩公布！",
        "docid": "7322271907741565490",
        "url": ""
    },
    {
        "title": "全国多所高校相继官宣“开园”！假期临近，你想去哪个学校转转",
        "docid": "7321279228023013926",
        "url": ""
    },
    {
        "title": "面向全国，人选6名！有才您就来，深圳宝安对外引进公办学校校长",
        "docid": "7322278614308094516",
        "url": ""
    },
    {
        "title": "从源头严防机构“爆雷跑路”！苏州工业园区有“神器”",
        "docid": "7322067576569676314",
        "url": ""
    },
    {
        "title": "“代画参赛”是在带坏孩子",
        "docid": "7322282238304158217",
        "url": ""
    },
    {
        "title": "“一分钟就满了”，上海爱心寒托班报名开启，家长们铆足劲抢名额",
        "docid": "7322375196256584229",
        "url": ""
    },
    {
        "title": "山东省内大学新排名，山师大第四，齐工大上榜，青理工跌出前十！",
        "docid": "7303509667144057385",
        "url": ""
    },
    {
        "title": "1988年我考上了中专，父亲亲自送我去了学校！",
        "docid": "7317087492853858870",
        "url": ""
    },
    {
        "title": "一年级的小孩上课能有多离谱？上公开课，一群小朋友给领导磕头",
        "docid": "7296852931461448255",
        "url": ""
    },
    {
        "title": "大一时登记，6年后履约捐献造血干细胞，95后上海姑娘用爱为生命接力",
        "docid": "7322389902161936937",
        "url": ""
    },
    {
        "title": "堪称“并校收割机”的广州大学，曾合并9所大学却无缘双一流",
        "docid": "7313805988107420201",
        "url": ""
    },
    {
        "title": "高校开设的恋爱课，其实也是一种“必修课”",
        "docid": "7322055490958623284",
        "url": ""
    },
    {
        "title": "考公务员和考研哪个更难？",
        "docid": "7297845447933526569",
        "url": ""
    },
    {
        "title": "老俞闲话丨让内心变得从容、温暖和笃定",
        "docid": "7314944728355865139",
        "url": ""
    },
    {
        "title": "《鸣龙少年》：你相信吗？我们都将成为更好的自己",
        "docid": "7321574893458571788",
        "url": ""
    },
    {
        "title": "教育高质量发展看山西：九一实验学校唐槐校区举行心理活动结营仪式",
        "docid": "7321544480413729321",
        "url": ""
    },
    {
        "title": "认准！这29家机构可承办广州中小学生研学实践活动",
        "docid": "7322099597965509161",
        "url": ""
    },
    {
        "title": "被央视开除，要求中国人向世界道歉，55岁的阿丘现状清贫",
        "docid": "7320807792565649970",
        "url": ""
    },
    {
        "title": "郑强教授喝了两碗茅台晕倒了，究竟是为啥事呢",
        "docid": "7322073675287511591",
        "url": ""
    },
    {
        "title": "娄底市星星实验学校：书记校长进思政课堂",
        "docid": "7322319548391309860",
        "url": ""
    },
    {
        "title": "荔湾区公布持证校外教育培训机构名单",
        "docid": "7322292021224751670",
        "url": ""
    },
    {
        "title": "清华大学：中国碳中和目标下的风光技术展望研究报告",
        "docid": "7322290139374338610",
        "url": ""
    },
    {
        "title": "故宫9000多间房没用一个钉子？好想看一看！“围炉童话 成长迎新”2024心愿TOP10火热征集中",
        "docid": "7322350998964765210",
        "url": ""
    },
    {
        "title": "【校招】鞍钢集团2024年校园招聘正式启动！",
        "docid": "7322068326262325760",
        "url": ""
    },
    {
        "title": "山东高考985录取分数线：山东多少分能上985大学？（2024参考）",
        "docid": "7296030880161104396",
        "url": ""
    },
    {
        "title": "教育之道，在于公平公正！",
        "docid": "7322096565215248922",
        "url": ""
    },
    {
        "title": "中考满分作文：《激起心中的那股劲》",
        "docid": "7322040853462172211",
        "url": ""
    },
    {
        "title": "叫了上千个人宝贝，没人骂他渣男​全在夸？",
        "docid": "7322290499237282345",
        "url": ""
    },
    {
        "title": "东北最牛高考班10年后“再度重相逢”，网友感慨万千",
        "docid": "7322379182082654770",
        "url": ""
    },
    {
        "title": "二年级上册语文：期末真题检测卷，题量大，题型全面",
        "docid": "7322021022822335039",
        "url": ""
    },
    {
        "title": "国内第一所“金融大学”要来了？",
        "docid": "7321589646365262399",
        "url": ""
    },
    {
        "title": "校长学生围桌坐 共享美食话成长",
        "docid": "7322104899184607763",
        "url": ""
    },
    {
        "title": "天津大学恋爱课上可以学到什么",
        "docid": "7321945178854638092",
        "url": ""
    },
    {
        "title": "山东最好的5所大学，毕业单位抢着要，很多家长不知道错失机会",
        "docid": "7318210448301376000",
        "url": ""
    },
    {
        "title": "短视频易成“语文差错”泛滥区？如何树立语言规范意识",
        "docid": "7322395960976392743",
        "url": ""
    },
    {
        "title": "新中国唯一一所光学精密机械学院现状如何？",
        "docid": "7291528353902166587",
        "url": ""
    },
    {
        "title": "北京8万余名考生明起参加高中学考合格考 这些事项要注意",
        "docid": "7322084221479223808",
        "url": ""
    },
    {
        "title": "我，53岁普拉提教练，心态特年轻，纹身、养猫，还参加比基尼大赛",
        "docid": "7316360594276794920",
        "url": ""
    },
    {
        "title": "只有八零后才能看懂的老照片，可惜已经回不去了",
        "docid": "7303188299743707698",
        "url": ""
    },
    {
        "title": "当翻看童年时的这些老课本里的经典插图，你能控制住不流泪吗？",
        "docid": "7294219543906697766",
        "url": ""
    },
    {
        "title": "这是湖南改名“最成功”的高校，原校名土气十足，新校名高大上！",
        "docid": "7293452060417294848",
        "url": ""
    },
    {
        "title": "​2023国内外高校分级对标排名！一大波“双非”远超海外高校",
        "docid": "7301134540645630499",
        "url": ""
    },
    {
        "title": "贫穷，是对一个人最精准的教育",
        "docid": "7319853330086707762",
        "url": ""
    },
    {
        "title": "数学和物理谁更难，也许答案是化学？",
        "docid": "7286825514294379064",
        "url": ""
    },
    {
        "title": "《初中生的竞争压力：15岁少年的呼喊》",
        "docid": "7322332963239772699",
        "url": ""
    },
    {
        "title": "湖南省学费最贵的10所大学",
        "docid": "7320490685411770899",
        "url": ""
    },
    {
        "title": "姚洋: 我们的教育出了大问题，孩子不会思考， 正在变成做题机器",
        "docid": "7317465632524780047",
        "url": ""
    },
    {
        "title": "为何满墙奖状的孩子仍无缘大学，问题出在哪里？",
        "docid": "7322011493464080911",
        "url": ""
    },
    {
        "title": "留学生的圈子真的很乱吗？网友：留过学的朋友让我离留学生远一点",
        "docid": "7319125049250939404",
        "url": ""
    },
    {
        "title": "深圳大学第二，浙工大、杭电前五！双非大学排行榜最新出炉",
        "docid": "7321659367114736128",
        "url": ""
    },
    {
        "title": "班主任直言：有这几个特征的孩子，小学成绩只会越来越差！",
        "docid": "7291937161811853843",
        "url": ""
    },
    {
        "title": "“又被没钱的生活叫醒了”，研究生上岸没宿舍，还必须高价去租房",
        "docid": "7313761032206418482",
        "url": ""
    },
    {
        "title": "河北地大、医大都能在正定建校区！只有石铁大不行？啥原因？",
        "docid": "7303521783267836426",
        "url": ""
    },
    {
        "title": "各阶段教师工作压力大小排行榜",
        "docid": "7293032918333915675",
        "url": ""
    },
    {
        "title": "中石油教师卡怎么办理",
        "docid": "7319715548248785460",
        "url": ""
    },
    {
        "title": "新闻无学？名编名记带他们学新闻，“邹韬奋卓越新闻导师领航计划”在沪启动",
        "docid": "7322321623133471242",
        "url": ""
    },
    {
        "title": "四川省考笔试难度大增，网友评论亮了！看看他们是怎么说的",
        "docid": "7321323625771647540",
        "url": ""
    },
    {
        "title": "盛典展播｜因患癌截肢，这位15岁的“独臂少年”是个乐天派",
        "docid": "7322366148023124534",
        "url": ""
    },
    {
        "title": "武汉初中普高率排名！谁是武汉初中扛把子？普高率哪家强？",
        "docid": "7321933958738985506",
        "url": ""
    },
    {
        "title": "大学真相，你的堕落是从这三个上课误区开始的",
        "docid": "7291170743604281913",
        "url": ""
    },
    {
        "title": "重磅！2023年度ESI新晋学科，出炉！",
        "docid": "7321551632930685478",
        "url": ""
    },
    {
        "title": "教育部：增设5个新医科专业，服务健康产业发展",
        "docid": "7322297328839442984",
        "url": ""
    },
    {
        "title": "关于党校学历认可度的问题",
        "docid": "7306912834905096715",
        "url": ""
    },
    {
        "title": "总投资47亿，规划超1700亩，兰州一高校拟整体搬迁",
        "docid": "7320433481446982179",
        "url": ""
    },
    {
        "title": "新疆警察学院，是一所什么层次的学校，考上就能端上铁饭碗吗？",
        "docid": "7299403045266473526",
        "url": ""
    },
    {
        "title": "复习不用愁！“学霸值班室”助力期末考试周",
        "docid": "7322111825846272547",
        "url": ""
    },
    {
        "title": "2024江苏“三新”第一批录取名单出炉！南京工程学院登顶！",
        "docid": "7321715523925000739",
        "url": ""
    },
    {
        "title": "100道脑筋急转弯，快和孩子玩起来",
        "docid": "7321308192078840357",
        "url": ""
    },
    {
        "title": "中山大学“学霸寝室”！全员转专业“上岸”：3人直博、1人出国！",
        "docid": "7322023472887087643",
        "url": ""
    },
    {
        "title": "申报这个职业技能等级评价机构，有细化规范了！",
        "docid": "7321602814709760524",
        "url": ""
    },
    {
        "title": "河南一学校被曝饭菜差，家长讨说法：拨出萝卜带出泥，校长被停职",
        "docid": "7320482018893070860",
        "url": ""
    },
    {
        "title": "高中物理全套思维导图（高清版）",
        "docid": "7322352754381341184",
        "url": ""
    },
    {
        "title": "高清维出席安徽大学深圳校友会2024年年会",
        "docid": "7322396439617847808",
        "url": ""
    },
    {
        "title": "我，被骗过手机睡过桥底，32岁当上乡村教师，带孩子做实验寻找光",
        "docid": "7310191960126767627",
        "url": ""
    },
    {
        "title": "优秀！安徽一女生本科期间学术论文在SSCI期刊发表",
        "docid": "7322438648417714697",
        "url": ""
    },
    {
        "title": "初中物理知识点思维导图，真的很全面",
        "docid": "7322298302824137226",
        "url": ""
    },
    {
        "title": "江苏省民办本科高校分析",
        "docid": "7322363361495302697",
        "url": ""
    },
    {
        "title": "消操拿证3个月，坑到无力吐槽",
        "docid": "7318214346873143808",
        "url": ""
    },
    {
        "title": "昨天，和一位大学教授聊了聊关于电子信息专业。。。",
        "docid": "7298249212704440866",
        "url": ""
    },
    {
        "title": "原来这些大学同属于一家公司，中国民办高等教育新四大家族",
        "docid": "7314580746625499674",
        "url": ""
    },
    {
        "title": "为什么公安联考岗位很多都是派出所？",
        "docid": "7291855723472978447",
        "url": ""
    },
    {
        "title": "挂科甚至退学的本科生越来越多，老师认为“已尽力”",
        "docid": "7301327431087309375",
        "url": ""
    },
    {
        "title": "印象外冈小学：一壶清茗，一派生机",
        "docid": "7322376911286796850",
        "url": ""
    },
    {
        "title": "为什么很多班级第一的学霸 不是班长或者学习委员",
        "docid": "7315568168414806539",
        "url": ""
    },
    {
        "title": "630分，选择上海海关学院，放弃兰州大学的人，会后悔吗？",
        "docid": "7308871549044703807",
        "url": ""
    },
    {
        "title": "高考轻易别走强基！高中学理科大学选工科，是一般人会走的路",
        "docid": "7293033491929760296",
        "url": ""
    },
    {
        "title": "新高考赋分，表面上的相对合理，但实际并非如此",
        "docid": "7235621484687983115",
        "url": ""
    },
    {
        "title": "高中女生“饺子”字体走红，阅卷老师都想吃！",
        "docid": "7322017308003140108",
        "url": ""
    },
    {
        "title": "其实美国签证官只看中你这两点！",
        "docid": "7300869979384185394",
        "url": ""
    },
    {
        "title": "国内公认前十王牌公安警校，入警率超高≈毕业包分配",
        "docid": "7303108078914781708",
        "url": ""
    },
    {
        "title": "北大“屠夫”陆步轩：毕业后当街卖肉，被嘲20年，如今怎样了？",
        "docid": "7321623560056357428",
        "url": ""
    },
    {
        "title": "深圳师生家长：寒假时间定了！下学期开学时间看这里",
        "docid": "7322300554754310693",
        "url": ""
    },
    {
        "title": "研究生分为“3个档次”，第三类上岸简单但含金量最低，你选哪个",
        "docid": "7320933067294671394",
        "url": ""
    },
    {
        "title": "中建三局公司承建的兰州大学榆中校区主体结构全面封顶",
        "docid": "7319846119264764457",
        "url": ""
    },
    {
        "title": "2023“希望杯”全国数学邀请赛（三年级）试题及参考答案",
        "docid": "7319469433741754880",
        "url": ""
    },
    {
        "title": "一个鸡娃妈妈的血泪史：不会浪费生命的孩子，永远学不会成功",
        "docid": "7297597670485754383",
        "url": ""
    },
    {
        "title": "转给你在读研的孩子，别让信息差毁了你！",
        "docid": "7321226982287491603",
        "url": ""
    },
    {
        "title": "大武汉一日丨武汉这14个地方，免费！",
        "docid": "7322482924610404875",
        "url": ""
    },
    {
        "title": "重塑东北重型机械学院：哈尔滨工业大学的教育力量再次崛起！",
        "docid": "7322290186648830504",
        "url": ""
    },
    {
        "title": "名单公布！张家港15所学校上榜",
        "docid": "7321959890015371791",
        "url": ""
    },
    {
        "title": "同日两项合作签约！江苏高校探索学科交叉融合新模式",
        "docid": "7322415258398736896",
        "url": ""
    },
    {
        "title": "飞索求学的孩子：下一代无须再吃当年的苦丨不惑 2024",
        "docid": "7318634729845244453",
        "url": ""
    },
    {
        "title": "安徽省高校2023年档次排名：52所大学分8档，安徽财经大学居第3档",
        "docid": "7300849790999396891",
        "url": ""
    },
    {
        "title": "考研只能报一所学校吗？没考上怎么办？",
        "docid": "7301697520982327871",
        "url": ""
    },
    {
        "title": "中赢集团向罗山一学校捐赠一批图书及体育器材",
        "docid": "7322354646213968418",
        "url": ""
    },
    {
        "title": "2023年湖北军校最低分数线-各军校在湖北录取分数线（2024参考）",
        "docid": "7292966853159436815",
        "url": ""
    },
    {
        "title": "2023年广东省高职院校排名：广东轻工职院夺冠，广州铁路职院第5",
        "docid": "7298678897079042611",
        "url": ""
    },
    {
        "title": "公示！2023“感动中原”年度教育人物",
        "docid": "7321705863079838249",
        "url": ""
    },
    {
        "title": "新加坡外交部兼国家发展部高级政务部长沈颖女士携高级代表团参访长沙玮希外籍人员子女学校",
        "docid": "7322470405313298970",
        "url": ""
    },
    {
        "title": "河北省学费最贵的10所大学",
        "docid": "7320113239306830390",
        "url": ""
    },
    {
        "title": "上音校园正式对外开放",
        "docid": "7322302853702418998",
        "url": ""
    },
    {
        "title": "2024年发表核心，能救一个是一个",
        "docid": "7322276150691152436",
        "url": ""
    },
    {
        "title": "读博士能给你带来什么？",
        "docid": "7299435823413133843",
        "url": ""
    },
    {
        "title": "青海妇联：巾帼志愿者服务团队为受灾家庭提供心理辅导",
        "docid": "7322386026830332457",
        "url": ""
    },
    {
        "title": "港校天价留位费还在涨！谁给你的勇气？",
        "docid": "7321714750634066472",
        "url": ""
    },
    {
        "title": "被‘小砂糖橘’霸屏了",
        "docid": "7319487598446297652",
        "url": ""
    },
    {
        "title": "白云区高中概述，附近三年分数线",
        "docid": "7322024482334786048",
        "url": ""
    }
]