[
    {
        "title": "人大代表提议用财政补贴在国际学校上学的富家子弟，因为学费太贵",
        "docid": "7324604399580365312",
        "url": ""
    },
    {
        "title": "重庆大一女生坠楼身亡后续，父母发声：女儿性格温柔疑遭“霸凌”",
        "docid": "7323439806619320895",
        "url": ""
    },
    {
        "title": "一复旦硕士考公三年，看到今年成绩，直接傻眼",
        "docid": "7324319661624263220",
        "url": ""
    },
    {
        "title": "上课讲到“两个黄鹂鸣翠柳”，小学生灵魂拷问，老师竟无言以对",
        "docid": "7311252277917794825",
        "url": ""
    },
    {
        "title": "各阶段教师工作压力大小排行榜",
        "docid": "7293032918333915675",
        "url": ""
    },
    {
        "title": "二次函数28个考点",
        "docid": "7324221740157305384",
        "url": ""
    },
    {
        "title": "脑瘫少年王释玉热爱文史哲，写下100多首诗，渴望走进大学校园",
        "docid": "7323982914964898342",
        "url": ""
    },
    {
        "title": "公办学校欠电费无法正常教学，让家长接学生回家！办公经费去哪了",
        "docid": "7323198214755058211",
        "url": ""
    },
    {
        "title": "关于党校学历认可度的问题",
        "docid": "7306912834905096715",
        "url": ""
    },
    {
        "title": "社会人员进大学校园方便吗？记者走访在兰各大高校",
        "docid": "7324479853166936612",
        "url": ""
    },
    {
        "title": "专家支招艺考生：能报更多志愿，选择更应谨慎",
        "docid": "7324701464927027721",
        "url": ""
    },
    {
        "title": "2008年，父母支持985高校的女儿退学当尼姑，15年过去她后悔了吗",
        "docid": "7324543605388116518",
        "url": ""
    },
    {
        "title": "英国留学签证新政开始生效！“水硕”真的成为历史了？",
        "docid": "7324570038906913295",
        "url": ""
    },
    {
        "title": "用毕生所学，看图猜成语，全对算你牛",
        "docid": "7295141691567292947",
        "url": ""
    },
    {
        "title": "湖北大学楚才学院建院十五周年拔尖创新人才培养论坛成功举办",
        "docid": "7324658651552301583",
        "url": ""
    },
    {
        "title": "山科大“范哥”做辅导员20年：是学生的人生导师，也是知心朋友",
        "docid": "7324596222088757812",
        "url": ""
    },
    {
        "title": "广州市政协委员黄丽丽：让更多孩子“有学上、上好学”",
        "docid": "7324578713013256730",
        "url": ""
    },
    {
        "title": "中新教育｜香港各大学增收非本地本科生 5所大学调升学费3.6%至10.3%",
        "docid": "7324533775777022504",
        "url": ""
    },
    {
        "title": "北京电子科技学院，性价比非常高，考上就是铁饭碗，你眼馋了吗？",
        "docid": "7300500715100078629",
        "url": ""
    },
    {
        "title": "新疆警察学院，是一所什么层次的学校，考上就能端上铁饭碗吗？",
        "docid": "7299403045266473526",
        "url": ""
    },
    {
        "title": "大学生的假期，理想最违背现实的一次",
        "docid": "7324679271564837410",
        "url": ""
    },
    {
        "title": "设计师发帖称被长江大学盗图制作录取通知书，校长信箱回复媒体：请关注官方后续",
        "docid": "7324696069907464739",
        "url": ""
    },
    {
        "title": "北京海淀10所民办学校不再具备办学资格",
        "docid": "7322439844498670099",
        "url": ""
    },
    {
        "title": "29所高校撤销42个研究生学位点",
        "docid": "7315741801598960179",
        "url": ""
    },
    {
        "title": "“老师，我可以给这个哥哥回信吗？”",
        "docid": "7324267178877403663",
        "url": ""
    },
    {
        "title": "小学语文、数学、英语学习方法",
        "docid": "7296118982418367017",
        "url": ""
    },
    {
        "title": "麻阳：“利剑护蕾”安全讲座守护女生健康成长",
        "docid": "7324588649390473740",
        "url": ""
    },
    {
        "title": "青浦世外高中来了！新江湾城九年一贯制和寄宿高中开建！还有这些新校",
        "docid": "7324633893109203507",
        "url": ""
    },
    {
        "title": "刚刚，可以查成绩了！",
        "docid": "7323775860614431232",
        "url": ""
    },
    {
        "title": "走进苏霍姆林斯基教育圣地，近距离感受他的教育理念和相关实践",
        "docid": "7324650506880860726",
        "url": ""
    },
    {
        "title": "主播林林：我是农民的孩子，读北大四年是俞老师交学费，非常感恩",
        "docid": "7324579548555805194",
        "url": ""
    },
    {
        "title": "三年级：全班无人做对！为何？此题有坑！边长未知，咋求周长？",
        "docid": "7321524325713232411",
        "url": ""
    },
    {
        "title": "华中农业大学通报“一教师被举报学术不端”：启动调查程序",
        "docid": "7324708403325305359",
        "url": ""
    },
    {
        "title": "哈尔滨工业大学 — 西安交通大学，你选谁？ 谁的实力更强？",
        "docid": "7302261918104846898",
        "url": ""
    },
    {
        "title": "我考上985后才知道，很多考不上的人，高中阶段都是在无效学习",
        "docid": "7317105887800525362",
        "url": ""
    },
    {
        "title": "“请不要在大学里当个乖孩子。”",
        "docid": "7306528554073178676",
        "url": ""
    },
    {
        "title": "东南大学喜报：郸城一高8名优秀学子工作或深造！",
        "docid": "7323908078058029602",
        "url": ""
    },
    {
        "title": "衡水二中举办保护野生动物创意海报设计活动，增强生态保护意识",
        "docid": "7324529344918405642",
        "url": ""
    },
    {
        "title": "2024年全国公办本科大学最新名单公布，真正代表各省教育水平",
        "docid": "7321357097440969228",
        "url": ""
    },
    {
        "title": "黑龙江大学也准备好了！",
        "docid": "7324357640643953186",
        "url": ""
    },
    {
        "title": "大学里那些难过的瞬间！20块钱被拉黑！家里最后的5000块钱！",
        "docid": "7324685755190903306",
        "url": ""
    },
    {
        "title": "从小学视角来看考985有多难",
        "docid": "7310197060463559168",
        "url": ""
    },
    {
        "title": "深圳师生家长：寒假时间定了！下学期开学时间看这里",
        "docid": "7322300554754310693",
        "url": ""
    },
    {
        "title": "江苏最好就业的6所非211大学，王牌专业实力强，毕业堪比211",
        "docid": "7305647379649266176",
        "url": ""
    },
    {
        "title": "从武汉这所大学毕业完全不愁饭碗",
        "docid": "7323948151449158198",
        "url": ""
    },
    {
        "title": "堪称“并校收割机”的广州大学，曾合并9所大学却无缘双一流",
        "docid": "7313805988107420201",
        "url": ""
    },
    {
        "title": "辽宁招录6996名公务员和工作人员 1月16日起报名",
        "docid": "7323707875417801227",
        "url": ""
    },
    {
        "title": "被誉为最美图书！收纳2500件经典，带你迅速搭建艺术素养",
        "docid": "7324512305428431401",
        "url": ""
    },
    {
        "title": "北大博雅基地今起授牌，最先颁给浙江这所山区县中！它为何受北大“偏爱”？",
        "docid": "7324693963644944933",
        "url": ""
    },
    {
        "title": "2023年湖北军校最低分数线-各军校在湖北录取分数线（2024参考）",
        "docid": "7292966853159436815",
        "url": ""
    },
    {
        "title": "官宣！河南这所知名大学，力争复建！",
        "docid": "7324693034820846130",
        "url": ""
    },
    {
        "title": "今 起 报 名！",
        "docid": "7324508263348617766",
        "url": ""
    },
    {
        "title": "2024成都高三一模，看成都各学校的榜首竞争，为啥四北很厉害！",
        "docid": "7323888453492883983",
        "url": ""
    },
    {
        "title": "山西：灵石县新建第四中学项目冬季施工不“打烊” 项目建设不“畏寒”",
        "docid": "7324531802679476770",
        "url": ""
    },
    {
        "title": "小学生家长朋友们：这样的书法班，千万不要让孩子去！",
        "docid": "7324426199353115147",
        "url": ""
    },
    {
        "title": "度假区第二小学举行教职工趣味运动会",
        "docid": "7324616094395040266",
        "url": ""
    },
    {
        "title": "告诉孩子！成绩的差距，来自这10个习惯的差距 | 精选",
        "docid": "7321329354498540032",
        "url": ""
    },
    {
        "title": "市教学能手，在2023年中小学教师副高职称评审中落选，原因何在？",
        "docid": "7319020267068572179",
        "url": ""
    },
    {
        "title": "高中生可以跟着教授搞科研 熊丙奇：培养英才需要摆脱“功利思维”",
        "docid": "7324596138592797235",
        "url": ""
    },
    {
        "title": "2024年辽宁省招考6996名公务员 1月16日9时至1月20日24时报名 3月16日-17日笔试",
        "docid": "7324094284670583322",
        "url": ""
    },
    {
        "title": "川大新校区，最新进展！",
        "docid": "7324590010610287143",
        "url": ""
    },
    {
        "title": "广东两高校入选！2023年度教育部哲学社科项目立项结果公布",
        "docid": "7324343793766302260",
        "url": ""
    },
    {
        "title": "女子遛狗时发现一学生被遗忘在校车内2小时，女子：“要是夏天的话，孩子早热中暑了！”",
        "docid": "7322994835802522152",
        "url": ""
    },
    {
        "title": "四川政府采购评审专家测试泄题？组织方称已报警，3月将补考",
        "docid": "7324588275187319336",
        "url": ""
    },
    {
        "title": "隆回华星职校：“两校一基地”揭牌",
        "docid": "7324588656759751222",
        "url": ""
    },
    {
        "title": "神童学霸理科状元徐海燕，考入北大，却因一个意外“英年早逝”",
        "docid": "7303187305387819570",
        "url": ""
    },
    {
        "title": "苏北四城市:盐城、淮安、连云港、宿迁大学分布情况比较——",
        "docid": "7322634619898036746",
        "url": ""
    },
    {
        "title": "湖南科技大学物理与电子科学学院爱心课堂支教服务泉塘子中学实践基地揭牌成立",
        "docid": "7324601455791505946",
        "url": ""
    },
    {
        "title": "“一键预约”进高校博物馆艺术馆参观，真方便！",
        "docid": "7324525186983363126",
        "url": ""
    },
    {
        "title": "逐光，一路芬芳！名校校友走进湘潭经开区",
        "docid": "7324554894130659879",
        "url": ""
    },
    {
        "title": "新加坡媒体：苦等加拿大签证，中国学生陷入两难",
        "docid": "7324470216124154403",
        "url": ""
    },
    {
        "title": "中央机关及其直属机构2024年度考试录用公务员调剂公告",
        "docid": "7323786366372889098",
        "url": ""
    },
    {
        "title": "展现“未来之城”的日新月异，雄安新区首次走进疏解高校办展",
        "docid": "7324618183380992522",
        "url": ""
    },
    {
        "title": "南京这名大学生太暖了！他将奖学金捐给了山区孩子",
        "docid": "7324688864868680219",
        "url": ""
    },
    {
        "title": "Go！上大人自己的Campus Walk！",
        "docid": "7324642237848617512",
        "url": ""
    },
    {
        "title": "山西大学荣获两项2023年度国家社科基金重大招标项目",
        "docid": "7324215072765723171",
        "url": ""
    },
    {
        "title": "山西大学2024年招聘公告",
        "docid": "7323791800303436329",
        "url": ""
    },
    {
        "title": "迁往省会成都：中国民用航空飞行学院天府校区即将开始运行",
        "docid": "7323968478749344290",
        "url": ""
    },
    {
        "title": "漳州市教育局公示18人！",
        "docid": "7324631477755560500",
        "url": ""
    },
    {
        "title": "校市合作大关篇：星星之火照亮乌蒙",
        "docid": "7324711255262937654",
        "url": ""
    },
    {
        "title": "川大、西南交大新校区，封顶！",
        "docid": "7324688583552795136",
        "url": ""
    },
    {
        "title": "又来一波看图猜成语:挑战你的知识含量来了",
        "docid": "7293390963664224831",
        "url": ""
    },
    {
        "title": "申报这个职业技能等级评价机构，有细化规范了！",
        "docid": "7321602814709760524",
        "url": ""
    },
    {
        "title": "1988年我考上了中专，父亲亲自送我去了学校！",
        "docid": "7317087492853858870",
        "url": ""
    },
    {
        "title": "守护花季，相伴成长！垫江“公安守未”防性侵走进校园",
        "docid": "7324275918724432434",
        "url": ""
    },
    {
        "title": "“逆势下降”背后，经济第一大省有多努力",
        "docid": "7324693035277648435",
        "url": ""
    },
    {
        "title": "挂科甚至退学的本科生越来越多，老师认为“已尽力”",
        "docid": "7301327431087309375",
        "url": ""
    },
    {
        "title": "2024上海市校外教育展示会本周五开幕",
        "docid": "7324664524420858387",
        "url": ""
    },
    {
        "title": "河南省2024年度统一考试录用公务员工作启动 共计划招录9900人",
        "docid": "7324476959239881268",
        "url": ""
    },
    {
        "title": "喜报！怀化市钟秀学校教师在省集体备课大赛中获奖",
        "docid": "7324658011853980194",
        "url": ""
    },
    {
        "title": "一名四岁女孩备考16年后的高考火了！评论区家长内卷严重，笑麻了",
        "docid": "7322736146314838582",
        "url": ""
    },
    {
        "title": "喜讯！华农襄阳校区图书馆获得超低能耗建筑认证",
        "docid": "7324535122232230415",
        "url": ""
    },
    {
        "title": "初入职场，来一场丝滑的英文自我介绍，第一印象错不了",
        "docid": "7324607829606760987",
        "url": ""
    },
    {
        "title": "2条比高考简单的中科大之路，家长越早帮孩子规划，成功率越高",
        "docid": "7323762163959546431",
        "url": ""
    },
    {
        "title": "对“年度十大语文差错”不能一笑置之",
        "docid": "7324530826660659727",
        "url": ""
    },
    {
        "title": "学“家”文化，做“龙”手工！东风东路小学假前教育周活动多",
        "docid": "7324521806650638867",
        "url": ""
    },
    {
        "title": "被“投诉”的老师们：学生丢失了块橡皮，警察来了3次",
        "docid": "7322721764528620073",
        "url": ""
    },
    {
        "title": "青年说",
        "docid": "7324489748943356426",
        "url": ""
    },
    {
        "title": "多所高校试点取消绩点 实行“等级制”考核评定",
        "docid": "7324092464107930139",
        "url": ""
    },
    {
        "title": "澳门大学新校区选址横琴岛西部，相关规划正在推进中",
        "docid": "7323978821727240754",
        "url": ""
    },
    {
        "title": "原来学习英语这么简单！怪不得以前班里学霸每次英语考试都满分",
        "docid": "7324741063103824436",
        "url": ""
    },
    {
        "title": "青岛艺术学校人物形象设计专业开启韩国研学之旅",
        "docid": "7324679987544588809",
        "url": ""
    },
    {
        "title": "博士生培养调查：按期毕业难，有人读了七八年",
        "docid": "7304811202075689491",
        "url": ""
    },
    {
        "title": "胡国胜：建议广州分阶段增加普通高中学位",
        "docid": "7323888349612884517",
        "url": ""
    },
    {
        "title": "研究生分为“3个档次”，第三类上岸简单但含金量最低，你选哪个",
        "docid": "7320933067294671394",
        "url": ""
    },
    {
        "title": "变化中的恒定：“基本不等式”换个角度带给我的一些想法",
        "docid": "7324502661355766324",
        "url": ""
    },
    {
        "title": "公益夜校 惠及青年",
        "docid": "7324530847795986984",
        "url": ""
    },
    {
        "title": "双学位和第二学位一样吗？究竟什么是双学位，要不要报考？",
        "docid": "7311222358910517795",
        "url": ""
    },
    {
        "title": "初三数学课在操场里上？长沙这所学校打造趣味户外实践课程",
        "docid": "7323909166970815003",
        "url": ""
    },
    {
        "title": "小孩教育“硬上”是会出问题的",
        "docid": "7324600905863905843",
        "url": ""
    },
    {
        "title": "2024年湖北省考共计划招录10457人，1月17日开始报名",
        "docid": "7324543686698631719",
        "url": ""
    },
    {
        "title": "闯关游戏取代试卷 这所学校的期末考试很有趣！",
        "docid": "7324632842724573708",
        "url": ""
    },
    {
        "title": "新年首签！广州市白云工商技师学院开启校企合作新篇章",
        "docid": "7324599047908901428",
        "url": ""
    },
    {
        "title": "龘龘龙吟，典耀中华——湖南铁道作品在2023年湖南省“诵读中国”经典诵读决赛中获“季军”",
        "docid": "7324637443158835731",
        "url": ""
    },
    {
        "title": "“取消中考”？教育部发文回应！",
        "docid": "7323012384224756287",
        "url": ""
    },
    {
        "title": "刚刚发布！河北省中考体育调整！",
        "docid": "7323148288637927974",
        "url": ""
    },
    {
        "title": "石榴快评丨25岁获正高级讲师，好环境好政策让青年人才脱颖而出",
        "docid": "7324683771814478362",
        "url": ""
    },
    {
        "title": "高中数学——条件概率与全概率公式，贝叶斯公式8类题型汇编",
        "docid": "7323901740611502643",
        "url": ""
    },
    {
        "title": "浙江中小学“午休躺睡”如何做？这场现场会透露新信息",
        "docid": "7324691364023665189",
        "url": ""
    },
    {
        "title": "19年安徽学霸备战高考，手上长奇怪肉疙瘩，看病后哭喊为什么是我",
        "docid": "7317977704815395378",
        "url": ""
    },
    {
        "title": "沉痛哀悼！方流芳教授千古！",
        "docid": "7324639082351428146",
        "url": ""
    },
    {
        "title": "免考！吉林省最新通知！",
        "docid": "7324619432435925554",
        "url": ""
    },
    {
        "title": "合力让“黑竞赛”无处藏身",
        "docid": "7324530843299611151",
        "url": ""
    },
    {
        "title": "“西南”“成渝”等不能出现在中职校名中",
        "docid": "7323740311350526500",
        "url": ""
    },
    {
        "title": "长沙这所学校被授牌“国家义务教育《体育与健康》教材试教试用实验学校”",
        "docid": "7324518541447840310",
        "url": ""
    },
    {
        "title": "渤海大学举行2024年“辅导员万家行”家访活动启动仪式",
        "docid": "7324150655587762742",
        "url": ""
    },
    {
        "title": "河南计划选调1044名大学毕业生到基层工作，1月15日起报名",
        "docid": "7324294352036004406",
        "url": ""
    },
    {
        "title": "南宁市17所示范性高中介绍大全（含分数线、高考上线率等）",
        "docid": "7304473997600260659",
        "url": ""
    },
    {
        "title": "杭州钱塘（新）区推进环大学城创新圈建设 促区校合作发展",
        "docid": "7324495278663418418",
        "url": ""
    },
    {
        "title": "河南工学院在中国大学生工程实践与创新能力大赛中荣获金奖",
        "docid": "7324627384026841634",
        "url": ""
    },
    {
        "title": "“刘老师，您去哪里了呀？”“老师去保家卫国了……”",
        "docid": "7300810641835573775",
        "url": ""
    },
    {
        "title": "合肥的学生有福了，多所985大学将在合肥布局，河南学生羡慕不已",
        "docid": "7324250969620775433",
        "url": ""
    },
    {
        "title": "中国留学地位下滑：国际竞争加剧，值得重视！",
        "docid": "7324746048445006399",
        "url": ""
    },
    {
        "title": "海口市有一中、二中、四中、七中，为何没有三中、五中和六中？",
        "docid": "7299386800060514851",
        "url": ""
    },
    {
        "title": "连州唯一！这间学校获评广东省航空航天特色学校",
        "docid": "7324620648444101130",
        "url": ""
    },
    {
        "title": "二年级语文下册预习必备💥课文同步练习字帖",
        "docid": "7324512095440028179",
        "url": ""
    },
    {
        "title": "雷州市第一中学1926年一2023年历任校长！",
        "docid": "7296485771911971378",
        "url": ""
    },
    {
        "title": "新八省联考来了！385万人的盛宴，哪个省将夺冠？大数据揭秘",
        "docid": "7324695249358799394",
        "url": ""
    },
    {
        "title": "警惕“慢就业”变成“懒就业”",
        "docid": "7324578511476376103",
        "url": ""
    },
    {
        "title": "一年级上册数学易错拔尖卷来了，全是期末易错考点，提前做稳赢",
        "docid": "7306364903060144692",
        "url": ""
    },
    {
        "title": "反反复复地出！近5年出现了15次！感觉公务员考试出题人也有点懒",
        "docid": "7301123341367263784",
        "url": ""
    },
    {
        "title": "2018年，山东那个51岁瞒着妻子参加高考的泥瓦匠，后来怎么样了？",
        "docid": "7315306507778818586",
        "url": ""
    },
    {
        "title": "上海唯一所军校，福利待遇一流，录取分数却不高！",
        "docid": "7322760963772662324",
        "url": ""
    },
    {
        "title": "3+1+2赋分谁最吃亏：人越少赋分越高吗？附赋分有优势的科目",
        "docid": "7306858511286813211",
        "url": ""
    },
    {
        "title": "2024国考分数线公布",
        "docid": "7323781479925170714",
        "url": ""
    },
    {
        "title": "🥇南工大三朵金花代表江苏，首获全国一等奖！",
        "docid": "7324656374145974821",
        "url": ""
    },
    {
        "title": "西安30所学校已“名校摘牌”，有没有你家门口",
        "docid": "7312357363468648960",
        "url": ""
    },
    {
        "title": "校企“双向奔赴”，华为携手贵州大学共建数智人才新生态",
        "docid": "7324574861455065636",
        "url": ""
    },
    {
        "title": "湖北工业大学生命科学与健康工程学院揭牌",
        "docid": "7324697381927502390",
        "url": ""
    },
    {
        "title": "驻马店经济开发区：推进优质教育均衡发展 办好人民满意教育",
        "docid": "7324675016229421583",
        "url": ""
    },
    {
        "title": "底层出身，为何总感觉有一群人拖我后腿？网友扎心经历震撼读者",
        "docid": "7292601005806617138",
        "url": ""
    },
    {
        "title": "​「林府家规」是什么梗｜贫民窟刻薄太后和月入4k太子爷的选妃标准",
        "docid": "7321990113092026919",
        "url": ""
    },
    {
        "title": "多地紧急通知：停课！停学！停运！",
        "docid": "7324501817025675791",
        "url": ""
    },
    {
        "title": "儿子突然下定决心学习​，杭州一妈妈高兴坏了！一查，果然有“鬼”……紧急提醒！",
        "docid": "7324191507626426899",
        "url": ""
    },
    {
        "title": "被社会毒打后才明白的道理！网友分享一个比一个震撼，醍醐灌顶",
        "docid": "7303813159406649896",
        "url": ""
    },
    {
        "title": "大学生坐硬座27小时只剩嘴硬，网友调侃：好一个嘴硬！气色都没了",
        "docid": "7324160533379170826",
        "url": ""
    },
    {
        "title": "因为1000块钱，武汉24岁研究生意外去世，经历曝光后全网泪目",
        "docid": "7323009541040308775",
        "url": ""
    },
    {
        "title": "6年前，叫嚣让儿子当“101%美国人”的中国教授，如今过得如何？",
        "docid": "7323506533772673536",
        "url": ""
    },
    {
        "title": "国考出成绩了，一考生总成绩144.7分凡尔赛：签了选调不会去面试",
        "docid": "7323753826903818787",
        "url": ""
    },
    {
        "title": "武大三朵金花获全国大奖！网友狂赞：又美又棒",
        "docid": "7324229883872330255",
        "url": ""
    },
    {
        "title": "果然，还是老祖宗知道怎么哄孩子，网友：我可太吃这一套了",
        "docid": "7324257304465949225",
        "url": ""
    },
    {
        "title": "“就业面真广啊”！美术生晒就业现状，看后快把人笑不活了",
        "docid": "7323121154343223842",
        "url": ""
    },
    {
        "title": "张雪峰建议考的非“双一流”。却又实力强的学校！替孩子收藏起来",
        "docid": "7312347992063885860",
        "url": ""
    },
    {
        "title": "“籍贯”是什么，何为籍，何为贯？填写籍贯到底有什么作用呢？",
        "docid": "7301636666513768960",
        "url": ""
    },
    {
        "title": "云南男生、女生最新平均身高公布！网友：还好没拖后腿",
        "docid": "7324321435202191906",
        "url": ""
    },
    {
        "title": "安徽省内大学排名",
        "docid": "7297039978935370277",
        "url": ""
    },
    {
        "title": "张雪峰说的“劝人学医，天打雷劈”，原来还有下半句",
        "docid": "7296410058299458083",
        "url": ""
    },
    {
        "title": "24年前，那个嫁给美国老头的“北大才女”田晓菲，现如今怎么样了",
        "docid": "7285310766851424802",
        "url": ""
    },
    {
        "title": "学习的本质，就是极致重复",
        "docid": "7308555451170734630",
        "url": ""
    },
    {
        "title": "你以为的那些“坏习惯”，真的不用改！",
        "docid": "7298667196585099839",
        "url": ""
    },
    {
        "title": "堂堂北大硕士，毕业中科院工作六年，结果：房买不起，女朋友跑了",
        "docid": "7320423765819916809",
        "url": ""
    },
    {
        "title": "985高材生曹阳:赴德留学后神秘失踪，14年后现身国内却成流浪汉",
        "docid": "7303461189244289555",
        "url": ""
    },
    {
        "title": "钢琴市场崩盘，中产标志的终结？",
        "docid": "7323995711857639951",
        "url": ""
    },
    {
        "title": "内地生来港留学半年后，坦言: 冲击太大了！",
        "docid": "7318265426369118761",
        "url": ""
    },
    {
        "title": "江苏本科院校分布图",
        "docid": "7321691853845004810",
        "url": ""
    },
    {
        "title": "这就是\"同学聚会\"很现实的一个故事，你细品。",
        "docid": "7324150885125243407",
        "url": ""
    },
    {
        "title": "学校这种钱也敢收?老师在app布置作业，让580元买会员！官方通告",
        "docid": "7322773283986850344",
        "url": ""
    },
    {
        "title": "高考时数学交白卷，作文写28个字，大学校长看后：立即发录取通知",
        "docid": "7316494685600743975",
        "url": ""
    },
    {
        "title": "学生吃完西瓜上厕所没冲水，暑假结束，回来后厕所变成了西瓜地",
        "docid": "7321528837253349907",
        "url": ""
    },
    {
        "title": "吉林大学各专业排名",
        "docid": "7313824832490406441",
        "url": ""
    },
    {
        "title": "2024全年考证时间表 你准备考哪个？ ​​​",
        "docid": "7314119741818405403",
        "url": ""
    },
    {
        "title": "停止说教！看央视力荐的这些纪录片唤醒孩子内驱力！",
        "docid": "7303473545269756454",
        "url": ""
    },
    {
        "title": "爱上四十多岁的英语老师怎么办？网友的回答令人爆笑！",
        "docid": "7317853176147821110",
        "url": ""
    },
    {
        "title": "神童张炘炀：28岁没结婚，北京待不下去来上海，顿顿吃素最多17元",
        "docid": "7299766757349130804",
        "url": ""
    },
    {
        "title": "国考中的天花板—中央部委是怎样的",
        "docid": "7292944590800257562",
        "url": ""
    },
    {
        "title": "初中生设计“生物通道”，数载后成现实",
        "docid": "7324092467324813887",
        "url": ""
    },
    {
        "title": "18岁农村娃考上北大，全村凑钱赠路费，百亿身价后送每户村民别墅",
        "docid": "7309800199067681295",
        "url": ""
    },
    {
        "title": "9年前，成都一17岁女孩赴德留学，中学阶段情窦初开爱上外国帅哥",
        "docid": "7311133225383150099",
        "url": ""
    },
    {
        "title": "张雪峰不推荐专业",
        "docid": "7306912424253489690",
        "url": ""
    },
    {
        "title": "成为博士意味着什么？",
        "docid": "7322684777629401635",
        "url": ""
    },
    {
        "title": "小熊猫代表在东北雪地干架，两个老师都拉不起来！评论区笑疯了",
        "docid": "7323054049014858275",
        "url": ""
    },
    {
        "title": "11年前那个被父亲逼迫，在雪地裸跑的4岁男孩，如今有什么成就？",
        "docid": "7301592596047053331",
        "url": ""
    },
    {
        "title": "年轻老师为啥辞职的越来越多？网友回答怕得癌症",
        "docid": "7300482750983799333",
        "url": ""
    },
    {
        "title": "英语老师们都是怎么做到每天衣着不重样的？评论引起上万人围观！",
        "docid": "7294770201000919564",
        "url": ""
    },
    {
        "title": "知识以一种奇怪的方式进入了我的脑子里",
        "docid": "7296828643819979304",
        "url": ""
    },
    {
        "title": "河南考生移民黑龙江有错吗？",
        "docid": "7323798628941513231",
        "url": ""
    },
    {
        "title": "父母的“愚蠢”真的会毁掉子女一辈子！网友分享真实经历，太扎心",
        "docid": "7315790912389612069",
        "url": ""
    },
    {
        "title": "见多了学生闯祸，我们来看看老师闯祸是什么体验！",
        "docid": "7298377812900233747",
        "url": ""
    },
    {
        "title": "数据来了！小学教师将过剩150万！评论区瞬间沦陷——",
        "docid": "7320257922280489499",
        "url": ""
    },
    {
        "title": "年仅43岁！大连理工大学赵佳飞教授突然离世，死因值得引起重视",
        "docid": "7324560179419169292",
        "url": ""
    },
    {
        "title": "山东的大学排名",
        "docid": "7301226723679437353",
        "url": ""
    },
    {
        "title": "第一批读博的00后，已经进化成了“学术猪八戒”",
        "docid": "7311152661590491648",
        "url": ""
    },
    {
        "title": "中国的基础教育远远强过美国，为啥诺贝尔奖数量却远远不如？",
        "docid": "7324208531836633627",
        "url": ""
    },
    {
        "title": "为了学分脸都不要了？一男生在俄罗斯留学，为拿学分选修中文课",
        "docid": "7294796020620231179",
        "url": ""
    },
    {
        "title": "竟然会有人看不起骑电动车接孩子的人，骑电驴是因为穷吗？别逗了",
        "docid": "7302721184196510242",
        "url": ""
    },
    {
        "title": "纯211大学排名，分为5大梯队，华北电力和南航位列第2梯队",
        "docid": "7301612283288207909",
        "url": ""
    },
    {
        "title": "凌晨2点在堆雪人，你看见我那南方舍友了吗？",
        "docid": "7311662309024645672",
        "url": ""
    },
    {
        "title": "“中午12点”是am还是pm?别这么多年都搞不清楚！",
        "docid": "7299723301918671399",
        "url": ""
    },
    {
        "title": "简直闻所未闻！英国考雅思8分，到了国内才给5.5，人都傻了！",
        "docid": "7309451367016481295",
        "url": ""
    },
    {
        "title": "越穷的家长，越喜欢在3件事上“装大方”，看看有你吗？尽早避雷",
        "docid": "7314250535610335744",
        "url": ""
    },
    {
        "title": "曾经的第一名和倒数第一名，后来都怎么样了？网友：都在监狱！",
        "docid": "7294870666086531621",
        "url": ""
    },
    {
        "title": "墨尔本大学相当于中国什么大学",
        "docid": "7299773139033260563",
        "url": ""
    },
    {
        "title": "背熟了你的完型填空就厉害了",
        "docid": "7296306401499300390",
        "url": ""
    },
    {
        "title": "一级建造师的新出路！住建部发布征求意见稿",
        "docid": "7324499789583155764",
        "url": ""
    },
    {
        "title": "100个脑筋急转弯",
        "docid": "7313843520207553033",
        "url": ""
    },
    {
        "title": "去年一年的销量不如以前一个月，钢琴卖不动了！",
        "docid": "7324567308427559458",
        "url": ""
    },
    {
        "title": "普林斯顿大学的“数学”全球最强，北京大学只能排名第28位",
        "docid": "7296802236439724596",
        "url": ""
    },
    {
        "title": "都是公安部直属，中国人民警察大学和中国人民公安大学有何区别？",
        "docid": "7312354723326263848",
        "url": ""
    },
    {
        "title": "当代父母最大的成功：给孩子指明4条出路，代代安稳",
        "docid": "7320892843260690978",
        "url": ""
    },
    {
        "title": "2008年，被喷不务正业的校长叶志平，汶川地震救下全校无一伤亡",
        "docid": "7315728754310185526",
        "url": ""
    },
    {
        "title": "为何看了很多书，表达能力还是差，应该怎么办？网友评论都是精髓",
        "docid": "7292327640768594484",
        "url": ""
    },
    {
        "title": "“不如不上了，回国睡觉”，在加拿大留学的女儿对我说出这样的话",
        "docid": "7307484401389208116",
        "url": ""
    },
    {
        "title": "为什么父母见不得自家孩子高兴？看完评论区网友的分享，太震撼了",
        "docid": "7300835090089902592",
        "url": ""
    },
    {
        "title": "为了你不挂科老师有多努力",
        "docid": "7309856738012873250",
        "url": ""
    },
    {
        "title": "去了一趟江苏，发现江苏是网红最少的省份，值得点赞",
        "docid": "7322380450851406345",
        "url": ""
    },
    {
        "title": "我太太太太同意这位老师的观点了！",
        "docid": "7316739377416421926",
        "url": ""
    },
    {
        "title": "看了半天才看明白，这些短文太有趣了，太精彩了",
        "docid": "7323809108841972265",
        "url": ""
    },
    {
        "title": "中产孩子追逐学历，就好比49年加入国军：五千叔教你什么最来钱！",
        "docid": "7307057440476889615",
        "url": ""
    },
    {
        "title": "当你答辩时，老师突然给你暗号！",
        "docid": "7311304722747621922",
        "url": ""
    },
    {
        "title": "体重18公斤的新生来北航报到！高考645分，立志做中国的“霍金”",
        "docid": "7322380675733062196",
        "url": ""
    },
    {
        "title": "南方人被东北人的基因颠覆认知？这是小学生？？",
        "docid": "7323614022955024946",
        "url": ""
    },
    {
        "title": "高中地理题目有多离谱？网友：我永远忘不了山羊为什么上树！",
        "docid": "7310929236527809039",
        "url": ""
    },
    {
        "title": "爸爸就是这样把我骗上了“985”",
        "docid": "7295549064631222818",
        "url": ""
    },
    {
        "title": "现在哪怕父母是厅部级干部，通过关系进公务员体制，也是不现实的",
        "docid": "7317934865188586038",
        "url": ""
    },
    {
        "title": "原来突然“开窍”真的会让人生如同开挂了！看完大开眼界，惊呆了",
        "docid": "7318329850732118543",
        "url": ""
    },
    {
        "title": "知名“双一流”大学教授，被11名硕士、博士研究生集体实名举报学术不端！校方回应……",
        "docid": "7324854869192868390",
        "url": ""
    },
    {
        "title": "四年级竞赛题，求长方形面积，学霸：不会做",
        "docid": "7315449049073631780",
        "url": ""
    },
    {
        "title": "高校理科实力排名！工科排名反转，浙大仅第9，华科才20，北航42",
        "docid": "7317398338012185128",
        "url": ""
    },
    {
        "title": "网友分享：30年前的大学录取通知书和成绩单，满纸都是回忆",
        "docid": "7310246082041152054",
        "url": ""
    },
    {
        "title": "读书懵懂时，老师曾说过哪些让你终身难忘的话？网友：受益终身！",
        "docid": "7301324702629429775",
        "url": ""
    },
    {
        "title": "当年施一公砸200亿打造西湖大学，扬言5年内超过清华，结果怎样了",
        "docid": "7309755849571254818",
        "url": ""
    },
    {
        "title": "“我爸比我还叛逆”，00后晒与家长聊天记录，网友：这易碎的亲情",
        "docid": "7294939083733221926",
        "url": ""
    },
    {
        "title": "我们祖先很聪明，为什么现代科学却起源于西方？评论区说出了真相",
        "docid": "7305786672414147107",
        "url": ""
    },
    {
        "title": "北大才子杨舒春，不顾父母跪求拒进外交部，种地12年后现状如何",
        "docid": "7300852643818390042",
        "url": ""
    },
    {
        "title": "终于有人把世界顶尖的十五所大学整理出来了，家长再忙也要收藏！",
        "docid": "7322648930431484454",
        "url": ""
    },
    {
        "title": "理科状元张晓勇：清华毕业5年后回乡做保安，如今每月工资5000元",
        "docid": "7299635784884273683",
        "url": ""
    },
    {
        "title": "687分女状元戴柳：被父亲偷改志愿错失北大，抛弃父母20年不回家",
        "docid": "7324254137917637158",
        "url": ""
    },
    {
        "title": "高校评分太搞笑了，名牌大学都被大学生玩坏了。",
        "docid": "7302438455072752167",
        "url": ""
    },
    {
        "title": "1.18米袖珍妈妈冒死产子，儿子14岁被西安交大录取，如今怎样了？",
        "docid": "7321299125507555849",
        "url": ""
    },
    {
        "title": "计算机全球排名第一大学的毕业生八成都留在了美国，中国占1/5",
        "docid": "7321517480068055586",
        "url": ""
    },
    {
        "title": "成绩再好也没戏！户口本上出现这“4个字”，基本无缘公务员！",
        "docid": "7320940646901891603",
        "url": ""
    },
    {
        "title": "论留学生在外国的生活有多炸裂？",
        "docid": "7308252750138147343",
        "url": ""
    },
    {
        "title": "老师感慨：即便同样穿校服，也能看出孩子“经济”差距，很现实",
        "docid": "7324870991996273203",
        "url": ""
    },
    {
        "title": "12年前，那个嫁给印度男人的厦大女生郑墨沫，现在怎么样了？",
        "docid": "7323408941805928995",
        "url": ""
    },
    {
        "title": "中国研究生数量激增，教育部发话了！",
        "docid": "7323938152417427968",
        "url": ""
    },
    {
        "title": "青海学霸不顾父母反对，从北大退学，去读技校！如今他怎样了",
        "docid": "7312721454657929779",
        "url": ""
    },
    {
        "title": "我00后女孩，在日本上学，只想着嫁个有钱人，回到国内才发现错了",
        "docid": "7305648962294530571",
        "url": ""
    },
    {
        "title": "不要相信普通二本没用了！今天就告诉你，本科学历的几大重要作用",
        "docid": "7315413270733718025",
        "url": ""
    },
    {
        "title": "刚上高一的孩子心态崩了，我当即决定：离职陪读",
        "docid": "7310568901698650676",
        "url": ""
    },
    {
        "title": "2006年，河南女孩用0分抗议高考，为此赌上一生，现在后悔了吗？",
        "docid": "7324159970251948579",
        "url": ""
    },
    {
        "title": "上海女教师，将学生骗至废弃楼房，对她说：老师帮你洗头，随后将1瓶硫酸泼向她…",
        "docid": "7304914774076195343",
        "url": ""
    },
    {
        "title": "钢琴销量断崖式下滑，中产“钢琴梦”彻底醒了，家长“卷不动”",
        "docid": "7324667100562342435",
        "url": ""
    },
    {
        "title": "留学生的圈子真的很乱吗？网友：留过学的朋友让我离留学生远一点",
        "docid": "7324556214657647143",
        "url": ""
    },
    {
        "title": "一人说一个天坑专业！你和孩子踩坑了吗？",
        "docid": "7308180525708345891",
        "url": ""
    },
    {
        "title": "2024QS世界大学排名！中国内地、港澳台排名及世界排名前50高校！",
        "docid": "7318639240442380815",
        "url": ""
    },
    {
        "title": "合肥工业大学，4个机械专业男生，毕业6年的现状",
        "docid": "7295009348336714274",
        "url": ""
    },
    {
        "title": "广东“神童”陈舒音： 7岁上初中，12岁620分考入浙大，如今怎样？",
        "docid": "7324224203803394595",
        "url": ""
    },
    {
        "title": "1981年，内蒙一老师花半月工资给学生买鞋，26年后学生送她一套房",
        "docid": "7311232344487232063",
        "url": ""
    },
    {
        "title": "中国最厉害的一座城市，有86所大学，众多军校，大学生上百万！",
        "docid": "7299483962638991926",
        "url": ""
    },
    {
        "title": "被这些萝卜岗笑死 全能大萝卜",
        "docid": "7298986829658030618",
        "url": ""
    },
    {
        "title": "班主任直言：有这几个特征的孩子，小学成绩只会越来越差！",
        "docid": "7291937161811853843",
        "url": ""
    },
    {
        "title": "有望冲击第3轮“双一流”的高校，共30所，“深圳大学”呼声最高",
        "docid": "7297440181907571234",
        "url": ""
    },
    {
        "title": "湖南女孩钟芳蓉，高考676分报考北大考古系，如今怎么样了？",
        "docid": "7320515125071741455",
        "url": ""
    },
    {
        "title": "有人问，考上中国政法大学意味着什么？老师告诉你答案",
        "docid": "7324136842382033419",
        "url": ""
    },
    {
        "title": "西南大学，东南大学，中南大学，江南大学哪所学校实力最强？",
        "docid": "7309751608261837312",
        "url": ""
    },
    {
        "title": "有一种妈妈 表面摆烂，背后卷王",
        "docid": "7296716448976945675",
        "url": ""
    },
    {
        "title": "为什么很多重点高中，并不认可私立初中的量产高分",
        "docid": "7320758555324465700",
        "url": ""
    },
    {
        "title": "黑龙江这所高校突然爆火！门前排起长队，只为见它一眼！",
        "docid": "7323833607523418639",
        "url": ""
    },
    {
        "title": "我，34岁宝妈，重新参加高考，监考老师竟然是我高中同学",
        "docid": "7306139173676024331",
        "url": ""
    },
    {
        "title": "北大校长蔡元培：真正有远见的教育，是让孩子拥有这4种能力",
        "docid": "7306326812643656255",
        "url": ""
    },
    {
        "title": "这是教育的悲哀？网友：孩子的想象力和创造力不该如此消磨殆尽",
        "docid": "7320964743727186466",
        "url": ""
    },
    {
        "title": "继985/211工程后，教育部101计划全国仅56所大学入选",
        "docid": "7293412691903791651",
        "url": ""
    },
    {
        "title": "还以为留学生过得很好呢，没想刷到评论区，全是各地留学生的吐槽",
        "docid": "7309693424377020964",
        "url": ""
    },
    {
        "title": "江苏孩子这几天在干嘛？",
        "docid": "7324679509985477120",
        "url": ""
    },
    {
        "title": "西南地区高校排名：重庆大学仅第3，昆理工挤掉5所双一流进前10",
        "docid": "7291485307629748736",
        "url": ""
    },
    {
        "title": "没有父母撑腰的孩子懦弱一生",
        "docid": "7295732238745190927",
        "url": ""
    },
    {
        "title": "福建高考状元陈勤：留美工作年薪154万，被解雇后从办公楼跳下",
        "docid": "7303800461579551242",
        "url": ""
    },
    {
        "title": "“福建农林大学，同宿舍5个农学生，毕业14年后真实人生”读后感",
        "docid": "7295643199606243875",
        "url": ""
    },
    {
        "title": "上戏表演系校友云集《繁花》，他们对表演教学有何启示？",
        "docid": "7324853325429047859",
        "url": ""
    },
    {
        "title": "2024大学排名！师范类、医药类、财经类、政法类…",
        "docid": "7320165294318993954",
        "url": ""
    },
    {
        "title": "高三尖子生被父亲逼着退学，女孩哭求：让我考完行吗，后来怎么样",
        "docid": "7307861404042822170",
        "url": ""
    },
    {
        "title": "称呼女王为什么用Your Majesty，而不是My Majesty？",
        "docid": "7307577669523472908",
        "url": ""
    },
    {
        "title": "985高校排名“大洗牌”，西北工业大学令人遗憾，吉林大学成黑马",
        "docid": "7300047753706013193",
        "url": ""
    },
    {
        "title": "医学最牛的20所大学：全国最顶尖的医科大学有哪几个？",
        "docid": "7302991773843702322",
        "url": ""
    },
    {
        "title": "全国民办本科中，只有这7所拥有硕士点，比一些公办本科都强",
        "docid": "7292610591519375881",
        "url": ""
    },
    {
        "title": "2831人考试2093人次替考，分管副校长解聘",
        "docid": "7324149071403598373",
        "url": ""
    },
    {
        "title": "研究生开组会时，都是什么鬼样子？我总结了15种类型...",
        "docid": "7297121929985606159",
        "url": ""
    },
    {
        "title": "这是湖南改名“最成功”的高校，原校名土气十足，新校名高大上！",
        "docid": "7293452060417294848",
        "url": ""
    },
    {
        "title": "工作三年，才知道读研的意义",
        "docid": "7319528044358779429",
        "url": ""
    },
    {
        "title": "房租飞涨，加拿大将限制国际学生",
        "docid": "7324832439606526499",
        "url": ""
    },
    {
        "title": "德国留学为什么难毕业？不要学费也很少有人去！网友回复真相了！",
        "docid": "7324896777172271650",
        "url": ""
    },
    {
        "title": "又一高校地学部成立！",
        "docid": "7324128099489137204",
        "url": ""
    },
    {
        "title": "最好的社交方式：“示弱”",
        "docid": "7313724482420670991",
        "url": ""
    },
    {
        "title": "高质量的自学网站，自学成才，应有尽有，收藏起来备用",
        "docid": "7324259124165820968",
        "url": ""
    },
    {
        "title": "孩子最反感的父母行为，竟是这2个字",
        "docid": "7294571655056523785",
        "url": ""
    },
    {
        "title": "还记得“小娘惹”肖燕吗？去贵州支教了？",
        "docid": "7299433362475926031",
        "url": ""
    },
    {
        "title": "2024年专业技术人员职业资格考试计划发布！附时间表",
        "docid": "7324936900517855779",
        "url": ""
    },
    {
        "title": "四部门提示！这些竞赛都是“黑竞赛”",
        "docid": "7324246595401449984",
        "url": ""
    },
    {
        "title": "英语介词手绘全汇总！太牛了！#英语 #英语语法 #英语介词",
        "docid": "7300858161220239924",
        "url": ""
    },
    {
        "title": "20年前，我卖房子辞公职去英国，留学赚钱两手抓苦拼20年破圈",
        "docid": "7297948437265138216",
        "url": ""
    },
    {
        "title": "2018年一女高材生，公开辱骂中国人并屡教不改，结局大快人心",
        "docid": "7324483603172327936",
        "url": ""
    },
    {
        "title": "福耀科技大学（暂名）各学院院长到位 校园整体工程接近尾声",
        "docid": "7324883846552502824",
        "url": ""
    },
    {
        "title": "1977年高考试卷流出，题目难度看乐高中生，学渣直呼生错年代",
        "docid": "7303401976006623794",
        "url": ""
    },
    {
        "title": "这5类大学生在未来“最不值钱”，毕业即失业，学历再高也没用！",
        "docid": "7307919830672376371",
        "url": ""
    },
    {
        "title": "停止降分录取“体育生”“艺术生” 让兴趣特长回归本源",
        "docid": "7324848557968949779",
        "url": ""
    },
    {
        "title": "5个“烂大街”的本科专业，父母眼中“高大上”，实际上就业不易",
        "docid": "7322331097193677352",
        "url": ""
    },
    {
        "title": "盘点那些“成绩+拼爹”的中外合作大学",
        "docid": "7320049741088490034",
        "url": ""
    },
    {
        "title": "老师别生气哦！根据我的观察，学生成绩好坏和老师真的关系不大。",
        "docid": "7323164437156758016",
        "url": ""
    },
    {
        "title": "熬夜写作业写到凌晨！老师班级群及时叫停，应试教育下学生的悲哀",
        "docid": "7324310291310281225",
        "url": ""
    },
    {
        "title": "首批！2024国考进面名单公布：11.5万人入围，最高144.7分",
        "docid": "7323787244349702710",
        "url": ""
    },
    {
        "title": "“溜索女孩”：8岁就溜索200米渡江上学，16年后她的选择让人意外",
        "docid": "7309773261389775395",
        "url": ""
    },
    {
        "title": "80后昆明女子飞行17年，事业爱情双丰收：人生没有捷径，但有秘籍",
        "docid": "7308154960527720979",
        "url": ""
    },
    {
        "title": "盘点陕西省考公务员冷门职位-狱警",
        "docid": "7294083116140954150",
        "url": ""
    },
    {
        "title": "老课文：70后初中课本里的《井冈翠竹》记住了一种手法叫顶真",
        "docid": "7301938321192878592",
        "url": ""
    },
    {
        "title": "高校清退留学生，释放何种信号？",
        "docid": "7324964845684720191",
        "url": ""
    },
    {
        "title": "电子科技大学成都学院位列全国独立学院排行榜前三强",
        "docid": "7324601265596498432",
        "url": ""
    },
    {
        "title": "2024国家电网二批！预计将招7000人，3月起报名，建议收藏！",
        "docid": "7322713867035968034",
        "url": ""
    },
    {
        "title": "华北水利水电大学校长聘任仪式举行",
        "docid": "7324155516823978548",
        "url": ""
    },
    {
        "title": "2023年，全国教育经费高达6万亿！一中学因欠电费不得不停课！",
        "docid": "7324158338131444278",
        "url": ""
    },
    {
        "title": "张雪峰都不建议报考的4大专业，特别难就业，很多人还不知道",
        "docid": "7301576373896823337",
        "url": ""
    },
    {
        "title": "高校评分，当代年轻人没有我不敢评的学校，简直笑拉了，总结神了",
        "docid": "7303459899072283171",
        "url": ""
    },
    {
        "title": "把电诈公司推荐给毕业大学生，导致学生坐牢，学生透露更多内情！",
        "docid": "7324910097921704488",
        "url": ""
    },
    {
        "title": "张培祥：两度辍学考上北大，24岁病逝，学校为其在八宝山办葬礼",
        "docid": "7317196128641221155",
        "url": ""
    },
    {
        "title": "老课文：80后课文《初冬》被收录教材60年 到底是什么地方的冬天？",
        "docid": "7296735812451090995",
        "url": ""
    },
    {
        "title": "惊喜！儿子的阅读理解几乎从不扣分，这帮助他成为真正的学霸",
        "docid": "7313703549337387570",
        "url": ""
    },
    {
        "title": "西南医科大学2023届本科生约9成留川就业，58.89%去医疗卫生单位",
        "docid": "7324226777692488226",
        "url": ""
    },
    {
        "title": "最有水平的教育方式：一半是内卷，一半是松弛",
        "docid": "7313752433455989286",
        "url": ""
    },
    {
        "title": "教育部公布立项结果！103个哲学社科项目入选",
        "docid": "7324267171243147813",
        "url": ""
    },
    {
        "title": "许颖：加强落实美育浸润行动的建议",
        "docid": "7324632169824272923",
        "url": ""
    },
    {
        "title": "《鸣龙少年》：中国式问题家庭，是时代的典型，也是孩子的悲剧",
        "docid": "7321914434790621747",
        "url": ""
    },
    {
        "title": "北大“屠夫”陆步轩：毕业后当街卖肉，被嘲20年，如今怎样了？",
        "docid": "7320926351551726114",
        "url": ""
    },
    {
        "title": "公认最难背的九篇文言文，你能背出几篇？一起试试看！",
        "docid": "7304310679354524211",
        "url": ""
    },
    {
        "title": "开家长会，爸妈没时间，自己参加，结局把我笑惨了！",
        "docid": "7317525838231274024",
        "url": ""
    },
    {
        "title": "小学生作文《雪》被老师表扬，妈妈纳闷一问孩子：用AI改写鲁迅的",
        "docid": "7312328255561368101",
        "url": ""
    },
    {
        "title": "知名主持人海霞，有新身份",
        "docid": "7324254011408843300",
        "url": ""
    },
    {
        "title": "安徽男生平均身高174cm，女生161.51cm！你呢？",
        "docid": "7324122261110293044",
        "url": ""
    },
    {
        "title": "从上海坐公交到漠河！考完研，他出发了",
        "docid": "7324944238007812623",
        "url": ""
    },
    {
        "title": "如果教育决定道德状况，那改革开放后的道德问题根源于六七十年代",
        "docid": "7323124544556941835",
        "url": ""
    },
    {
        "title": "“多巴胺”不读ān！2023十大语文差错！你读对了几个？",
        "docid": "7319846581195801151",
        "url": ""
    },
    {
        "title": "太上头！老师批卷子原地崩溃，网友：教的五谷丰登，学的颗粒无收",
        "docid": "7322731086986232331",
        "url": ""
    },
    {
        "title": "当老师得知自己的儿子数学才考了18分，被网友的评论笑死在评论区",
        "docid": "7297819008911901196",
        "url": ""
    },
    {
        "title": "2024年校友会大学排名，华科超越中科大，南开超越武大",
        "docid": "7324901325127729703",
        "url": ""
    },
    {
        "title": "500万善款点亮苦命孤儿的希望之星！杨六斤的人生逆袭",
        "docid": "7324676263711474211",
        "url": ""
    },
    {
        "title": "中信银行2024年拟录用毕业生生源高校人数统计！快来围观",
        "docid": "7320014597652546100",
        "url": ""
    },
    {
        "title": "知天命之年，我不再看不起教师职称：或许，皇帝的新衣必须赞美！",
        "docid": "7324282668307235355",
        "url": ""
    },
    {
        "title": "大学土木建筑：曾经年入60万的状元专业，如今已是 “提桶跑路”",
        "docid": "7298653106647286291",
        "url": ""
    },
    {
        "title": "班主任：父母隔三差五就要翻翻孩子的书包，若有4种惊喜，要注意",
        "docid": "7304865672105001491",
        "url": ""
    },
    {
        "title": "当老师们被问“尖子生是你培养出来的吗？”老师集体沉默了",
        "docid": "7324985504087294464",
        "url": ""
    },
    {
        "title": "天津：91类证书可以直接贯通职称",
        "docid": "7324179999207506471",
        "url": ""
    },
    {
        "title": "博士进高校工作，有哪些好处？",
        "docid": "7302023660401967655",
        "url": ""
    },
    {
        "title": "老课文：80后课本里的《金色的鱼钩》收录教材60年 作者到底是谁？",
        "docid": "7308975403157488137",
        "url": ""
    },
    {
        "title": "女生发问‘读大学何意’，评论区反思激烈，思考教育本质！",
        "docid": "7324723671095329306",
        "url": ""
    },
    {
        "title": "“优雅，实在是太优雅了……”",
        "docid": "7324985547896766988",
        "url": ""
    },
    {
        "title": "自律的孩子，都是靠这4步“套路”出来的！",
        "docid": "7301593170348098059",
        "url": ""
    },
    {
        "title": "四大名著知识点汇总",
        "docid": "7324880214105178651",
        "url": ""
    },
    {
        "title": "女生高考模拟考试挫折情绪低落，同学们的合唱点亮她心中的曙光",
        "docid": "7324648130698363430",
        "url": ""
    },
    {
        "title": "电子科大清水河校区去往成都东站、“天双”双机场的同学们有福啦",
        "docid": "7324882051256091147",
        "url": ""
    },
    {
        "title": "济南俩女孩被牛津大学录取背后",
        "docid": "7323796672054952511",
        "url": ""
    },
    {
        "title": "中医大学教授都不会看病，这样能教出会看病的学生吗？",
        "docid": "7320081716558266914",
        "url": ""
    },
    {
        "title": "苏大去年有学生借阅410册图书，江苏高校学子喜欢读哪些书？",
        "docid": "7324998531054879295",
        "url": ""
    },
    {
        "title": "孩子是个学渣是什么体验……网友的评论真是哭笑不得",
        "docid": "7301946945981923874",
        "url": ""
    },
    {
        "title": "中山大学为啥有两个医学院？一个是亲生的，一个是抱养的！",
        "docid": "7310901004823396903",
        "url": ""
    },
    {
        "title": "2024 考证时间表，太实用了！收藏备用！",
        "docid": "7305689383964426806",
        "url": ""
    },
    {
        "title": "公考申论结尾写法",
        "docid": "7324475344751493642",
        "url": ""
    },
    {
        "title": "参加完德国小学的家长会，我彻底想开了",
        "docid": "7304912104392344118",
        "url": ""
    },
    {
        "title": "北大教授与学渣女儿：不报辅导班、考倒数第一，接受孩子的平庸",
        "docid": "7317202705171628579",
        "url": ""
    },
    {
        "title": "是不是考上东北电力大学就能够进入到国家电网？",
        "docid": "7308693297873240611",
        "url": ""
    },
    {
        "title": "“保研”与“考研”的学生，有何区别？导师更喜欢哪一类研究生？",
        "docid": "7314128501094318592",
        "url": ""
    },
    {
        "title": "为省5块钱面包，父母赔上6岁儿子的生命，结局让人心疼",
        "docid": "7322393313095729704",
        "url": ""
    },
    {
        "title": "西北工业大学太仓校区的折戟之路",
        "docid": "7295224936753349172",
        "url": ""
    },
    {
        "title": "湖北寒门学霸放弃保送清华，扬言要享受高考全过程，后来考多少分",
        "docid": "7314837588483998262",
        "url": ""
    },
    {
        "title": "18年前，那个带着妹妹上大学，感动中国的洪战辉，如今怎么样了？",
        "docid": "7314253966379024911",
        "url": ""
    },
    {
        "title": "中南大学：看了电子科技大学，才知道什么叫“时代红利”",
        "docid": "7305937240994284082",
        "url": ""
    },
    {
        "title": "英语成绩差的孩子就“死磕”这18张图，再笨也不会低于98分！",
        "docid": "7295921035348804131",
        "url": ""
    },
    {
        "title": "老课文：80后初中课本里的《分马》 作者真的不是赵树理",
        "docid": "7294496135400505856",
        "url": ""
    },
    {
        "title": "登上热搜！这位武汉副教授火了，竟是因为“过于可爱”",
        "docid": "7323539472459727379",
        "url": ""
    },
    {
        "title": "2024浙江省大学排名出炉，杭电荣登第四，温州大学位列15",
        "docid": "7320555274300015131",
        "url": ""
    },
    {
        "title": "沈阳市通报6起在职教师违规补课，处理17名教师，网友评论区炸锅",
        "docid": "7324446182233801227",
        "url": ""
    },
    {
        "title": "博士，延毕之后还给发钱吗？",
        "docid": "7324308669414654483",
        "url": ""
    },
    {
        "title": "广州大学，一所与城市地位严重不匹配的大学",
        "docid": "7317093873602413090",
        "url": ""
    },
    {
        "title": "“当00后成为班主任后”哈哈哈简直是当代活阎王！",
        "docid": "7307953341471048242",
        "url": ""
    },
    {
        "title": "一语点醒梦中人，中式教育还是有点东西的！",
        "docid": "7307336272966648346",
        "url": ""
    },
    {
        "title": "评职称不认可的论文期刊名单！【黑名单】",
        "docid": "7293448216560026149",
        "url": ""
    },
    {
        "title": "培养5位院士，和顶尖985合作，竟然是“二本”医学院！",
        "docid": "7302274559686902307",
        "url": ""
    },
    {
        "title": "燕京大学的女大学生，长得超漂亮，清一色的豪门千金",
        "docid": "7324878881344258572",
        "url": ""
    },
    {
        "title": "7804亩！山东大学砸432亿建第9个校区！冲击中国Top10宝座！",
        "docid": "7323918295386767912",
        "url": ""
    },
    {
        "title": "昨天，和一位大学教授聊了聊关于电子信息专业。。。",
        "docid": "7298249212704440866",
        "url": ""
    },
    {
        "title": "2024广东省考报名人数统计：4781个职位暂无人报考",
        "docid": "7324904006755549736",
        "url": ""
    },
    {
        "title": "最新！西安市教育局发布！",
        "docid": "7324701366532751891",
        "url": ""
    },
    {
        "title": "打脸？国考高分无缘进面，考生后悔无比：汉语言文学被吹上天了！",
        "docid": "7324152291337142794",
        "url": ""
    },
    {
        "title": "笑不活了！张雪峰宣布捐款哈理工，评论区笑梗不断",
        "docid": "7324362849839792675",
        "url": ""
    },
    {
        "title": "“多巴胺”的“胺”不读ān？",
        "docid": "7319809362216911414",
        "url": ""
    },
    {
        "title": "清华大学公告：退学处理！",
        "docid": "7324143758147076645",
        "url": ""
    },
    {
        "title": "妈妈发视频吐槽女儿“不懂得让着弟弟”，网友看到另外一幕，扎心",
        "docid": "7324953031588872738",
        "url": ""
    },
    {
        "title": "“我爸堪比日本天皇！”96年官二代赴日本留学，结果惨遭现实打脸",
        "docid": "7324915552626344511",
        "url": ""
    },
    {
        "title": "二小一生中最大的遗憾",
        "docid": "7324661582326628875",
        "url": ""
    },
    {
        "title": "2024年单招：考多少分才能上公办大专？",
        "docid": "7298510688505479720",
        "url": ""
    },
    {
        "title": "九年级奥林匹克数学竞赛试卷",
        "docid": "7294213172159480330",
        "url": ""
    },
    {
        "title": "东南大学医学院",
        "docid": "7324582209213006376",
        "url": ""
    },
    {
        "title": "中国人民公安大学2023年各专业录取分数",
        "docid": "7322668790100476479",
        "url": ""
    },
    {
        "title": "如果孩子数学不开窍，一定要看看这几部央视力荐的神级纪录片！",
        "docid": "7324900876299207178",
        "url": ""
    },
    {
        "title": "中听 | 揭露学术不端，不应该让11人“抱团取暖”",
        "docid": "7324965201303732788",
        "url": ""
    },
    {
        "title": "现场人山人海！重庆一学院获批更名为大学，大批校友连夜回校留影",
        "docid": "7309290517702181386",
        "url": ""
    },
    {
        "title": "他把高级教师职称给弄丢了，退休金没有同学张老师高",
        "docid": "7324962174772789799",
        "url": ""
    },
    {
        "title": "动不动就“停课”，是最低级的教育手段！学校应该担负起责任",
        "docid": "7324810199603364352",
        "url": ""
    },
    {
        "title": "“华为杯”第48届ICPC亚洲区决赛在上海大学成功举办",
        "docid": "7324218393174098441",
        "url": ""
    },
    {
        "title": "无限极“思利及人”助学计划：培养健康行业新生力量|无限极老板",
        "docid": "7324954854635176457",
        "url": ""
    },
    {
        "title": "​浙大成立集成电路学院，微电子学院撤销",
        "docid": "7325018754029683227",
        "url": ""
    },
    {
        "title": "西京学院49名学生被退学，保留学籍期满或休学期满未及时复学",
        "docid": "7324297820226699811",
        "url": ""
    },
    {
        "title": "高校图书馆借阅量下降，爱看书的大学生少了？",
        "docid": "7324490391779148307",
        "url": ""
    },
    {
        "title": "二本师范大学就业现状调查",
        "docid": "7299254387959120447",
        "url": ""
    },
    {
        "title": "海口美兰区19所公办园招收春季插班生",
        "docid": "7325046000577118757",
        "url": ""
    },
    {
        "title": "龙年专属、三行“情书”……这些期末“花式”评语创意十足，你最喜欢哪一款？",
        "docid": "7324964110909784614",
        "url": ""
    },
    {
        "title": "第一次见到能带孩子选专业、看大学的杂志，太实用了！",
        "docid": "7324883406994063898",
        "url": ""
    },
    {
        "title": "老课文：80后课本里的《可爱的草塘》 “棒打狍子瓢舀鱼”的北大荒",
        "docid": "7293713005978714639",
        "url": ""
    },
    {
        "title": "湖北工业大学(湖北工学院)等5所高校与科研机构相继合并",
        "docid": "7301109573921227273",
        "url": ""
    },
    {
        "title": "高职教师获评“湖北省青年岗位能手”，他带的学生同时入选",
        "docid": "7324988692593246772",
        "url": ""
    },
    {
        "title": "接受平庸那一刻是什么心情?",
        "docid": "7324694312087077411",
        "url": ""
    },
    {
        "title": "2024年国家公务员考试笔试成绩公布",
        "docid": "7323552275245744691",
        "url": ""
    },
    {
        "title": "一级注册建造师考试难度分析及专业选择！",
        "docid": "7324955079457669668",
        "url": ""
    },
    {
        "title": "广东这所高校，给手抖的食堂阿姨颁奖！",
        "docid": "7324356694845342218",
        "url": ""
    },
    {
        "title": "手机视频摄制、街舞、声乐、礼仪、美妆、流行声乐，百姓大课堂“市民夜校”开课了",
        "docid": "7325018833121673754",
        "url": ""
    },
    {
        "title": "2008年，那个故意“高考0分”的安徽男孩徐孟南，后来怎么样了？",
        "docid": "7324960077306315299",
        "url": ""
    },
    {
        "title": "年轻没有预见死亡",
        "docid": "7305385156033249832",
        "url": ""
    },
    {
        "title": "如何利用寒假时间改变自己",
        "docid": "7324964940811403816",
        "url": ""
    },
    {
        "title": "河南神童何雪豪：8岁被特招入伍，如今退役赴国外深造",
        "docid": "7308990380186305074",
        "url": ""
    },
    {
        "title": "\"9岁男童独挑大梁！每天做饭等待深夜归来的爸爸\"",
        "docid": "7325026338846687778",
        "url": ""
    },
    {
        "title": "知名主持人海霞、王志出任中国传媒大学博导？校方确认",
        "docid": "7324249939365036555",
        "url": ""
    },
    {
        "title": "从厌学生到国赛选手！这位携创高级技工学校学子上演“反转人生”",
        "docid": "7324666381029392896",
        "url": ""
    },
    {
        "title": "英语零基础秒懂语法，这一章足够了",
        "docid": "7321179994037027343",
        "url": ""
    },
    {
        "title": "为什么现行语文教材中几乎不选用纳兰容若的词？",
        "docid": "7324946723787342351",
        "url": ""
    },
    {
        "title": "这些证书，国家已经取消，不要再报考了。",
        "docid": "7314925159977222708",
        "url": ""
    },
    {
        "title": "终于有人把高中选科利弊，整理出来了，给孩子收藏吧",
        "docid": "7313814123123311142",
        "url": ""
    },
    {
        "title": "公立中学欠费停电，教育局该承担多大责任？",
        "docid": "7323175124574683698",
        "url": ""
    },
    {
        "title": "校友会2024中国理工类大学排名，中国科技大学、武昌首义学院第一",
        "docid": "7324975411988234804",
        "url": ""
    },
    {
        "title": "400-500分考生能报考哪些大学？2024有需要的考生重点关注！",
        "docid": "7320498909061628456",
        "url": ""
    },
    {
        "title": "闲着没事可以考的3个证书！可评职称、领补贴，还能报销学费！",
        "docid": "7303828765824778771",
        "url": ""
    },
    {
        "title": "惊人的韦奇定律：子女会不会沦落为“底层人”，要看父母的定力",
        "docid": "7317861088383779355",
        "url": ""
    },
    {
        "title": "二本为什么不建议考公务员？",
        "docid": "7319840592266330676",
        "url": ""
    },
    {
        "title": "清华大学：华为和比亚迪是本届毕业生就业民企前两名",
        "docid": "7324895343639069223",
        "url": ""
    },
    {
        "title": "当孩子不爱学习的时候，就告诉他，学历的重要性",
        "docid": "7324987539931333157",
        "url": ""
    },
    {
        "title": "为救学生，她的双腿被截肢，获捐款1000万的她，11年后怎么样了？",
        "docid": "7315367429742445107",
        "url": ""
    },
    {
        "title": "安徽省高校2023年档次排名：52所大学分8档，安徽财经大学居第3档",
        "docid": "7300849790999396891",
        "url": ""
    },
    {
        "title": "“哦得了，我屋里崽的班主任是应届生”",
        "docid": "7324945482143449612",
        "url": ""
    },
    {
        "title": "兰州大学包国宪教授荣获公共管理学科特殊贡献奖",
        "docid": "7324866585519735336",
        "url": ""
    },
    {
        "title": "首次颁奖！1310万元！恭喜泉州五中、晋江一中、德化一中、永春一中……",
        "docid": "7324851505520329268",
        "url": ""
    },
    {
        "title": "火热的哈尔滨还有这些大学可以逛：哈工大等多所高校开放参观",
        "docid": "7324330534648447507",
        "url": ""
    },
    {
        "title": "潮声丨哈佛普林斯顿……当藤校留学生遇到浙江乡村",
        "docid": "7324838043540554240",
        "url": ""
    },
    {
        "title": "SED发布最新报告：美国博士数量大涨，毕业后年薪达$160,000！",
        "docid": "7324205035091558963",
        "url": ""
    },
    {
        "title": "广州美国人外籍人员子女学校举行红包艺术展",
        "docid": "7325006805342650892",
        "url": ""
    }
]