[
    {
        "title": "红极一时的“集成灶”，为何突然惨遭“嫌弃”？听听过来人的实话",
        "docid": "7298988399841821220",
        "url": ""
    },
    {
        "title": "油烟机买“侧吸”还是“顶吸”？多亏装修师傅提醒，幸亏没选错",
        "docid": "7277809931565531707",
        "url": ""
    },
    {
        "title": "地暖已经过时了？现在流行装这种，节能舒适，省钱又省空间",
        "docid": "7277481355938759209",
        "url": ""
    },
    {
        "title": "为什么越来越多人不铺瓷砖了？建议学深圳人的做法，美观无甲醛！",
        "docid": "7297632067808952872",
        "url": ""
    },
    {
        "title": "买沙发时，选“布艺”的还是“皮”的？我家不听劝，后悔买错了",
        "docid": "7280511012561060371",
        "url": ""
    },
    {
        "title": "建议：这“5种茶几”正在被淘汰，别再买了，是过来人的经验教训",
        "docid": "7277792235553309238",
        "url": ""
    },
    {
        "title": "自来水用不用装前置过滤器？多亏老师傅提醒，差一点就被坑了",
        "docid": "7303110398666932736",
        "url": ""
    },
    {
        "title": "5种家具“跌落神坛”，虽“曾经风光”，但终究逃不过被市场淘汰",
        "docid": "7282293189288411684",
        "url": ""
    },
    {
        "title": "16w穷装138 ㎡新房，效果是这样，我也应该满意了吧",
        "docid": "7276334631333642787",
        "url": ""
    },
    {
        "title": "销售员不经意透露：这4种家具尽量“买小”，大尺寸反而不中用！",
        "docid": "7296409672477852197",
        "url": ""
    },
    {
        "title": "我参观了邻居家，第一次知道空调还可以这样安装，真的学到了很多",
        "docid": "7297489693460005395",
        "url": ""
    },
    {
        "title": "干湿分离已经过时了，现在流行这样设计，太实用了！",
        "docid": "7275990842874004002",
        "url": ""
    },
    {
        "title": "从20到30块，这么「哇塞」的家居物件，怎么会不火呢？",
        "docid": "7294997714419696164",
        "url": ""
    },
    {
        "title": "走进她家才知道什么叫美观实用，全屋大白墙不造型，没有一丝俗气",
        "docid": "7274904072716108348",
        "url": ""
    },
    {
        "title": "21个巧妙到爆的设计，设计师简直是天才！",
        "docid": "7289781077034566205",
        "url": ""
    },
    {
        "title": "这是我见过最理想的家：光一个阳台就美不胜收，网友：在家即度假",
        "docid": "7293504009279799819",
        "url": ""
    },
    {
        "title": "小卧室这样装，绝了！",
        "docid": "7303070084279419426",
        "url": ""
    },
    {
        "title": "蒙特空间设计 张家齐-PAMI 荣获美国TITAN泰坦地产设计大奖-白金奖",
        "docid": "7304866213317050906",
        "url": ""
    },
    {
        "title": "这是我见过最满意的家：安徽夫妇把160㎡新房装修得真漂亮",
        "docid": "7296884484464214580",
        "url": ""
    },
    {
        "title": "这是我见过最满意的家：凭客餐厅一体柜就让无数人效仿，太实用了",
        "docid": "7292007706183942708",
        "url": ""
    },
    {
        "title": "别看不起普通人的装修，干净整洁就是最大的体面！",
        "docid": "7287592626088591933",
        "url": ""
    },
    {
        "title": "没错！我就是不欢迎亲戚朋友，才把家装成这样，真的太香了",
        "docid": "7299501169888690722",
        "url": ""
    },
    {
        "title": "165㎡独栋别墅，一层客厅+书房，两层房间好舒适，处处细节！",
        "docid": "7304503158288859682",
        "url": ""
    },
    {
        "title": "研究发现：有钱人家里，从来不放这5种东西，并非是迷信！",
        "docid": "7302420351802278454",
        "url": ""
    },
    {
        "title": "看到她家，进门就让人眼前一亮，尤其是客厅，布置得实用又耐看",
        "docid": "7279245008266625536",
        "url": ""
    },
    {
        "title": "为了偷懒，装修时这“6处”多花了两万，入住后真香，这钱花得值",
        "docid": "7280051892234469945",
        "url": ""
    },
    {
        "title": "换过4次“四件套”我悟了：100元的四件套和1000元的，差别太大了",
        "docid": "7274468611383935545",
        "url": ""
    },
    {
        "title": "地暖已经过时了，现在流行石墨烯发热地板，一个月费用不到300",
        "docid": "7303000951756096009",
        "url": ""
    },
    {
        "title": "分享|氛围感的家",
        "docid": "7277813724285534772",
        "url": ""
    },
    {
        "title": "这4种用起来很舒服的东西，其实非常危险",
        "docid": "7276019071559254564",
        "url": ""
    },
    {
        "title": "终于有人把“家务清单”讲明白了，每天这样坚持，家里一尘不染！",
        "docid": "7278215032159388216",
        "url": ""
    },
    {
        "title": "30岁姑娘买下18㎡房子，闺蜜笑称“巴掌大”，改装后反而羡慕极了",
        "docid": "7300840744037007882",
        "url": ""
    },
    {
        "title": "曾经全家反对，如今越用越爽！厨房这6个进步设计，下套我还要装",
        "docid": "7276349900395495995",
        "url": ""
    },
    {
        "title": "木材再见！混凝土仿木，更耐用，更环保，更现代化",
        "docid": "7280829876163576381",
        "url": ""
    },
    {
        "title": "别把家运“堵”住了！不管房子多小，这3个地方要空起来",
        "docid": "7299004247188750883",
        "url": ""
    },
    {
        "title": "分享|80平治愈系的家",
        "docid": "7300036486605324800",
        "url": ""
    },
    {
        "title": "臻木香板与禾*板7大板材性能测试，实力大公开！",
        "docid": "7304935740692398627",
        "url": ""
    },
    {
        "title": "法国博主的家，能看到铁塔的小家，美轮美奂",
        "docid": "7274428038476005928",
        "url": ""
    },
    {
        "title": "没用的“8件”卧室家具，费钱占地方，白送也不要，你家有几件？",
        "docid": "7287480952027234872",
        "url": ""
    },
    {
        "title": "分享|87平的家",
        "docid": "7275224615280984628",
        "url": ""
    },
    {
        "title": "别在门口放脚垫了，真脏！如今流行这种，省钱又干净，实用",
        "docid": "7298630316091540003",
        "url": ""
    },
    {
        "title": "云南一太太，因“龟背竹客厅墙”走红，真壮观，妥妥的视觉盛宴",
        "docid": "7290822825529737739",
        "url": ""
    },
    {
        "title": "发现北京一户五口之家：仅凭一个“玄关”就圈粉无数，太美了",
        "docid": "7278649010926600740",
        "url": ""
    },
    {
        "title": "入住才半年，发现了厨房的“5个坑”，希望你别再踩了",
        "docid": "7273311431368638976",
        "url": ""
    },
    {
        "title": "18个令人敬畏的设计理念，设计师太牛了！",
        "docid": "7277475641925534265",
        "url": ""
    },
    {
        "title": "河北一29岁太太，因“鸭脚木客厅”走红，那叫一个高级，真治愈！",
        "docid": "7298873331950846490",
        "url": ""
    },
    {
        "title": "断舍离清单：家里这5样东西早点扔了，家里立马大一倍，生活舒适",
        "docid": "7297171520818905636",
        "url": ""
    },
    {
        "title": "越来越多人选择不铺地板了？建议学别人这样设计，环保耐用还美观",
        "docid": "7288166888872444455",
        "url": ""
    },
    {
        "title": "好酷！它让38m²小屋收纳堪比60m² ‼️",
        "docid": "7286851236640080396",
        "url": ""
    },
    {
        "title": "祸不单行！新房装完才10天，足足落下55条装修遗憾，想哭哭不出来",
        "docid": "7302364976109503039",
        "url": ""
    },
    {
        "title": "发现北京一位35岁姐姐54㎡的家，那叫一个高级，分享给大家瞧瞧！",
        "docid": "7297233024289178138",
        "url": ""
    },
    {
        "title": "第3套房：电线坚决不埋墙！学学广州人的做法，聪明又实用",
        "docid": "7294924207908012554",
        "url": ""
    },
    {
        "title": "重庆一29岁太太，因“拒绝装柜子”而走红，全屋空无一物，真高级",
        "docid": "7294126408165736998",
        "url": ""
    },
    {
        "title": "四川夫妻拒绝“过度装修”，把131平家装得堪称教科书，太高级了",
        "docid": "7281100246229238307",
        "url": ""
    },
    {
        "title": "8个不贵，但质感绝了的家居小物，到底谁发明的，太感谢了",
        "docid": "7276776581015061044",
        "url": ""
    },
    {
        "title": "睡觉时，卧室门开着好还是关着好？不是迷信，而是有科学根据",
        "docid": "7294834996819362341",
        "url": ""
    },
    {
        "title": "装修越简单越显大，看看她家，全屋贴墙布不造型，大方耐看不过时",
        "docid": "7275678704897081910",
        "url": ""
    },
    {
        "title": "当乔迁礼物买的10个家居物件，打开就舍不得送人了",
        "docid": "7281832373070463500",
        "url": ""
    },
    {
        "title": "让大沥全铝家居“上网”，他们做对了什么？",
        "docid": "7305045318603948579",
        "url": ""
    },
    {
        "title": "那些你不知道的10种新型装饰材料，从美轮美奂到画龙点睛！",
        "docid": "7304973623041851944",
        "url": ""
    },
    {
        "title": "天津一住户的家，一进屋就不想离开，随手一拍堪比电影画面，真美",
        "docid": "7282349626714325561",
        "url": ""
    },
    {
        "title": "退休后，建议早添置的12种东西，为了自己，也为了不给儿女添负担",
        "docid": "7287783211185455657",
        "url": ""
    },
    {
        "title": "发现一位80后太太的50㎡“豪宅”，全屋塞满柜子，却没有丝毫俗气",
        "docid": "7304966958377009700",
        "url": ""
    },
    {
        "title": "这是我见过最温馨的家：光一个餐厅就让无数人效仿，太有烟火气了",
        "docid": "7274565728253526547",
        "url": ""
    },
    {
        "title": "5件非常适合冬天的家具！这个冬天，让家里更加舒适。",
        "docid": "7304577230016479753",
        "url": ""
    },
    {
        "title": "10个“省腰”的家居设计，干活的人才懂，它们用起来有多爽",
        "docid": "7275344823660462646",
        "url": ""
    },
    {
        "title": "风管支吊架间距及位置的确定",
        "docid": "7303411052769837568",
        "url": ""
    },
    {
        "title": "百得胜攻克5级高色牢度技术 打开水漆木皮千亿级市场",
        "docid": "7305029680116072979",
        "url": ""
    },
    {
        "title": "12个高效家务小技巧，让家不再脏乱~",
        "docid": "7279036722480988706",
        "url": ""
    },
    {
        "title": "开始买家电家具，我终于知道，装修预算的钱一直不够的原因了",
        "docid": "7273684044092293666",
        "url": ""
    },
    {
        "title": "三大家装趋势正当红，照着搬打造满分潮家！",
        "docid": "7304966843922891316",
        "url": ""
    },
    {
        "title": "越来越多人不装金刚网纱窗？学学浙江人的做法，美观又实用",
        "docid": "7287860111082209853",
        "url": ""
    },
    {
        "title": "南京一退休阿姨，全款买下一66㎡小屋，布置得一尘不染，晒晒",
        "docid": "7300159867561558547",
        "url": ""
    },
    {
        "title": "一位29岁石家庄姑娘，买下“没人要”的一楼老破小，客厅塞主卧里",
        "docid": "7303855562662396456",
        "url": ""
    },
    {
        "title": "770㎡新中式大宅：建筑精美，唐代风格满满",
        "docid": "7304953162346136079",
        "url": ""
    },
    {
        "title": "欧铂丽全屋定制|厨房改造步骤知多少？",
        "docid": "7304930537402401343",
        "url": ""
    },
    {
        "title": "为什么越来越多人宁愿选1米5的床，也不选1米8的？",
        "docid": "7304221383461192229",
        "url": ""
    },
    {
        "title": "家里还在傻傻装踢脚线？早过时了，现在流行这样装，漂亮还省钱",
        "docid": "7280158609428726311",
        "url": ""
    },
    {
        "title": "北京发现一户高层这样晒衣服，装法实在让人佩服，太机智了！",
        "docid": "7274057473802420736",
        "url": ""
    },
    {
        "title": "2024广州定制家居展年度主题及《定制家居 中国原创》图书正式发布",
        "docid": "7305053086957978124",
        "url": ""
    },
    {
        "title": "浙江发现一户人家的装修，因为太会布置而走红，所以拍照给大伙看",
        "docid": "7273366654883529251",
        "url": ""
    },
    {
        "title": "40年楼龄的老房子，被他用宜家改成了住不起的样子！",
        "docid": "7273476731351286307",
        "url": ""
    },
    {
        "title": "即使居住8年的家，依旧窗明几净，干净整洁，这生活状态太牛了！",
        "docid": "7301323018566484480",
        "url": ""
    },
    {
        "title": "河南一夫妻，拒绝过度装修，全屋那叫一个极简，这才是心动的感觉",
        "docid": "7301626386127929867",
        "url": ""
    },
    {
        "title": "将废旧电扇放在阳台，居然有这么多的好处，可比卖废品强太多了！",
        "docid": "7293787725684245029",
        "url": ""
    },
    {
        "title": "发现一个51岁阿姨的家，那叫一个高级，分享给大家瞧瞧，羡慕极了",
        "docid": "7275239113958556216",
        "url": ""
    },
    {
        "title": "你全天都开着窗? 错了，开窗记住“五要四不要”",
        "docid": "7290926219732812323",
        "url": ""
    },
    {
        "title": "浙江一33岁太太，家里从不大扫除，却一尘不染，一进屋就不想离开",
        "docid": "7301624884747321868",
        "url": ""
    },
    {
        "title": "不是我说，这几种窗户可比落地窗好看多了！",
        "docid": "7289258454601073167",
        "url": ""
    },
    {
        "title": "客厅和阳台千万不要随意打通！",
        "docid": "7272205409501708855",
        "url": ""
    },
    {
        "title": "江苏发现一61岁阿姨的家，那叫一个高级，拍照给大伙瞅瞅，超羡慕",
        "docid": "7284786255253029412",
        "url": ""
    },
    {
        "title": "司米精致生活馆圆满启幕，迭新升级“高端整案定制”战略",
        "docid": "7305011202647228937",
        "url": ""
    },
    {
        "title": "山东一25岁太太，因太会“收拾”而走红，全屋窗明几净，一尘不染",
        "docid": "7281641055265784331",
        "url": ""
    },
    {
        "title": "安徽一女姑娘的独居小屋，那叫一个高级，一进门就不想离开，真美",
        "docid": "7273664800432112187",
        "url": ""
    },
    {
        "title": "家居美陈 | 不被定义的家",
        "docid": "7304944127068684837",
        "url": ""
    },
    {
        "title": "Note Design Studio&造作新家设计师×极致的北欧风格",
        "docid": "7305068897265287743",
        "url": ""
    },
    {
        "title": "室内设计用AI图片生成方案的风格库来了！",
        "docid": "7304895861669691938",
        "url": ""
    },
    {
        "title": "卫生间反味臭气熏天？花点小钱就能解决大问题！",
        "docid": "7288202023190020608",
        "url": ""
    },
    {
        "title": "50张有设计感的入户门头设计",
        "docid": "7303715468739772978",
        "url": ""
    },
    {
        "title": "9款高颜值现代简约餐边柜，家里装修怎能少了它？邻居都羡慕哭了",
        "docid": "7304942539893834274",
        "url": ""
    },
    {
        "title": "窗帘尽量别选这5种颜色，绝非迷信，而是过来人的经验教训！",
        "docid": "7278175940746904099",
        "url": ""
    },
    {
        "title": "封阳台别用“断桥铝”门窗！教你正确做法，保温又隔热，真好用",
        "docid": "7282348416486048313",
        "url": ""
    },
    {
        "title": "山西女主因太会收纳而走红，把115㎡家打理得整洁又实用，超羡慕",
        "docid": "7272204721644454460",
        "url": ""
    },
    {
        "title": "为什么越来越多的人不做乳胶漆？现在流行这么做，好看又不含甲醛",
        "docid": "7279068093631136308",
        "url": ""
    },
    {
        "title": "建议大家：厕所不能正对这4个地方！不是迷信，有科学根据",
        "docid": "7298268730264748584",
        "url": ""
    },
    {
        "title": "体验后才明白，卫生间“8不用”有道理，不是胡说，而是经验总结",
        "docid": "7285692903631422012",
        "url": ""
    },
    {
        "title": "10年装修工头坦言：如果给自己装房子，我一定坚持这“8不装”！",
        "docid": "7294535685451547163",
        "url": ""
    },
    {
        "title": "无缝嵌入自由开合，澳柯玛零嵌冰箱健康焕新家",
        "docid": "7304867725908787746",
        "url": ""
    },
    {
        "title": "现代和简约风格的区别？简约风格注意事项？",
        "docid": "7304868376478810636",
        "url": ""
    },
    {
        "title": "给你的阳台装个茶室",
        "docid": "7291226405541528099",
        "url": ""
    },
    {
        "title": "越来越多的人卫生间不装洗手台！如今流行这么做，太高明了",
        "docid": "7280115318243033600",
        "url": ""
    },
    {
        "title": "三十种餐边柜设计",
        "docid": "7289048168061731369",
        "url": ""
    },
    {
        "title": "床头放什么吉祥又好运？一起来看看~",
        "docid": "7305026896377774601",
        "url": ""
    },
    {
        "title": "这个家终于可以毕业了，完美收工",
        "docid": "7280349240642355748",
        "url": ""
    },
    {
        "title": "越来越多人做瓷砖美缝，有必要吗？第2次装修，这些不吐不快",
        "docid": "7277387741443621435",
        "url": ""
    },
    {
        "title": "新中式“茶书房”爆火，比传统书房更实用",
        "docid": "7291628154643382824",
        "url": ""
    },
    {
        "title": "晚明时期的家具审美风尚",
        "docid": "7304471061867954707",
        "url": ""
    },
    {
        "title": "换了3次灯我才懂，吸顶灯一定要“5不选”，不是胡说是真的有道理",
        "docid": "7279227320694194745",
        "url": ""
    },
    {
        "title": "10年前瓷砖上墙只用水泥砂浆，为什么现在就不行？内行人道出原因",
        "docid": "7276716255602786875",
        "url": ""
    },
    {
        "title": "全屋定制翻车现场！一个脑洞大开的设计师遇到一个敢做的客户！",
        "docid": "7304549656183243264",
        "url": ""
    },
    {
        "title": "8款让人眼前一亮的影视墙",
        "docid": "7296456843239440948",
        "url": ""
    },
    {
        "title": "“穷看厅堂，富看厨房”，不是迷信，是装修时要注意这7个忌讳！",
        "docid": "7286743357043376700",
        "url": ""
    },
    {
        "title": "卫生间水管别再用红砖包管啦，现在流行这样包，隔音又省事",
        "docid": "7273363567779316278",
        "url": ""
    },
    {
        "title": "合肥办公室设计：办公室装修不可缺少的室内装修元素",
        "docid": "7304900404062667279",
        "url": ""
    },
    {
        "title": "卧室再也不打柜，实现衣柜无甲醛",
        "docid": "7301974615713284623",
        "url": ""
    },
    {
        "title": "现代风装修就复制我家吧！",
        "docid": "7283720780997771817",
        "url": ""
    },
    {
        "title": "37个令人敬畏的木工之作，光创意我都能给100分，太赞了!",
        "docid": "7300441645684638249",
        "url": ""
    },
    {
        "title": "涂料面漆成片脱落，到底是什么造成的？",
        "docid": "7304820551191642675",
        "url": ""
    },
    {
        "title": "2023年乳胶漆怎么选？菱花白？杏子灰？还是汝窑？",
        "docid": "7276670449067852300",
        "url": ""
    },
    {
        "title": "家里没有储物间怎么办？不妨来看看八百库",
        "docid": "7297805244426093056",
        "url": ""
    },
    {
        "title": "两万块钱，到底有没有退",
        "docid": "7280017747852050956",
        "url": ""
    },
    {
        "title": "嘉兴实景案例丨『栖心之境』龙润壹城 230㎡ 现代简约",
        "docid": "7304860116036108809",
        "url": ""
    },
    {
        "title": "壁炉风机，实力解决烟囱横向过长或户外无法安装烟囱等难题",
        "docid": "7304525816719950390",
        "url": ""
    },
    {
        "title": "首发 . 许鑫 ｜家的底色，朴拙而温存【环球设计3379期】",
        "docid": "7304234355013468735",
        "url": ""
    },
    {
        "title": "我的厨房改造进化史（全过程）",
        "docid": "7279038168093950476",
        "url": "https://www.ixigua.com/7279038168093950476"
    },
    {
        "title": "牛叔展示自己看家本领，别人花钱都请不到他去抹灰，从不轻易出手",
        "docid": "7296802431403295243",
        "url": "https://www.ixigua.com/7296802431403295243"
    },
    {
        "title": "土豪订制一张万元的红木茶桌送朋友，看着分解木头，工人都惊叹了",
        "docid": "7285411719654933032",
        "url": "https://www.ixigua.com/7285411719654933032"
    },
    {
        "title": "10年没人住的房子，历时120天改造，成为大家梦寐以求的田园小院",
        "docid": "7273437891177808439",
        "url": "https://www.ixigua.com/7273437891177808439"
    },
    {
        "title": "如果你一定要买宜家的话，建议看看这个视频！",
        "docid": "7276386999966433844",
        "url": "https://www.ixigua.com/7276386999966433844"
    },
    {
        "title": "柜门合页铰链调整教学！再也不用担心家里的柜门缝隙不均匀了！",
        "docid": "7290515989748253196",
        "url": "https://www.ixigua.com/7290515989748253196"
    },
    {
        "title": "这套房子室内设计挺不错，色彩明亮给人耳目一新的感觉，值得借鉴",
        "docid": "7304278147644686857",
        "url": "https://www.ixigua.com/7304278147644686857"
    },
    {
        "title": "小院最后一个房间终于完工了，小核桃认真做监工，自己动手好充实",
        "docid": "7272717159669858851",
        "url": "https://www.ixigua.com/7272717159669858851"
    },
    {
        "title": "舅舅连夜加班安装电路！老挝的地板砖价格太贵了！贵2.5倍！",
        "docid": "7296147498211967539",
        "url": "https://www.ixigua.com/7296147498211967539"
    },
    {
        "title": "房子吊顶包工头催要工钱！小伙一次性取25万泰铢！账户差点归零！",
        "docid": "7301613730922988082",
        "url": "https://www.ixigua.com/7301613730922988082"
    },
    {
        "title": "为了防止塌方，耗资3万砌的三七墙，不知道值不值！",
        "docid": "7287582218942480951",
        "url": "https://www.ixigua.com/7287582218942480951"
    },
    {
        "title": "女客户说她家里没电了，我去维修没想到是这种情况，果断扭头就走",
        "docid": "7272680439213621820",
        "url": "https://www.ixigua.com/7272680439213621820"
    },
    {
        "title": "翻新老房子的柜子，又发现好多老古董，看看都有些什么",
        "docid": "7273910608016179727",
        "url": "https://www.ixigua.com/7273910608016179727"
    },
    {
        "title": "做了一辈子的木工，第一次见楼梯能这样设计制作！实在太妙了",
        "docid": "7294508260273422857",
        "url": "https://www.ixigua.com/7294508260273422857"
    },
    {
        "title": "暗访网购家具产业链！详情页和买家秀都是如何造假的？",
        "docid": "7282957644535595580",
        "url": "https://www.ixigua.com/7282957644535595580"
    },
    {
        "title": "香港老板的深圳香蜜湖一号顶复500㎡豪宅，装修后新家有多甜美？",
        "docid": "7286011707628093989",
        "url": "https://www.ixigua.com/7286011707628093989"
    },
    {
        "title": "两套沙发图片材料标注几乎一样价格却差近2000！切开对比看看！下",
        "docid": "7278732295236911616",
        "url": "https://www.ixigua.com/7278732295236911616"
    },
    {
        "title": "老板新修的洋房，八百请我制作花岗岩台阶，光洁度都晃眼睛",
        "docid": "7279043877255053865",
        "url": "https://www.ixigua.com/7279043877255053865"
    },
    {
        "title": "上万元芝华仕头层牛皮沙发能用几年？内部材料做工如何？拆开看看",
        "docid": "7287630771290898984",
        "url": "https://www.ixigua.com/7287630771290898984"
    },
    {
        "title": "老房改造旧家具比我们年龄都大，花几十块翻新一下，还挺不错",
        "docid": "7273517120531628559",
        "url": "https://www.ixigua.com/7273517120531628559"
    },
    {
        "title": "家里新家快修好了，漂亮简洁妈妈很满意，这是我梦中新宅的模样",
        "docid": "7302863803048591908",
        "url": "https://www.ixigua.com/7302863803048591908"
    },
    {
        "title": "实拍家具制造厂内幕，难怪这行业如此暴利！可别再被销售乱忽悠了",
        "docid": "7289455180163056143",
        "url": "https://www.ixigua.com/7289455180163056143"
    },
    {
        "title": "90度内平开窗改180度内开内倒教程，最详细180度内开内倒安装教程",
        "docid": "7274866566859063823",
        "url": "https://www.ixigua.com/7274866566859063823"
    },
    {
        "title": "邻居请我做张桌子，谈好的价只收300，看到成品后非要给我500块",
        "docid": "7278652464306324024",
        "url": "https://www.ixigua.com/7278652464306324024"
    },
    {
        "title": "中国老公去看别墅电路布局！老挝媳妇带饭看老公！暖心了！",
        "docid": "7295628388767793679",
        "url": "https://www.ixigua.com/7295628388767793679"
    },
    {
        "title": "忙忙碌碌的小院，最后一个房间也有点样子了，绿色柜子还挺好看的",
        "docid": "7278927850537747000",
        "url": "https://www.ixigua.com/7278927850537747000"
    },
    {
        "title": "小院一步步打造，大厅沙发摆上有家的味道了，投影仪装上感觉不错",
        "docid": "7271877953402307084",
        "url": "https://www.ixigua.com/7271877953402307084"
    },
    {
        "title": "实木创意桌子太贵！大叔动手做一张成本不到50，8级木匠当场傻眼",
        "docid": "7292066176635830799",
        "url": "https://www.ixigua.com/7292066176635830799"
    },
    {
        "title": "自己动手改造150平毛坯房，家具全部自己做",
        "docid": "7279324672875987456",
        "url": "https://www.ixigua.com/7279324672875987456"
    },
    {
        "title": "胖哥定做个四米长白钢水槽，费劲巴力的安装上，阳台装修终于完工",
        "docid": "7272267822334476859",
        "url": "https://www.ixigua.com/7272267822334476859"
    },
    {
        "title": "花了30多万装修完了，一镜到底看看啥样。开始下一站旅行了。",
        "docid": "7293201465571541541",
        "url": "https://www.ixigua.com/7293201465571541541"
    },
    {
        "title": "小天天又揽了一整栋楼的废品，龙叔累到浑身抽筋，俊俊赶紧来支援",
        "docid": "7276360811185078795",
        "url": "https://www.ixigua.com/7276360811185078795"
    },
    {
        "title": "楼下住户嫌有响声，半夜用棍子砸门",
        "docid": "7281429842317279800",
        "url": "https://www.ixigua.com/7281429842317279800"
    },
    {
        "title": "孟老板这豪宅快要竣工了，大别墅真豪华，一进屋都懵圈了，太牛了",
        "docid": "7283741847460151864",
        "url": "https://www.ixigua.com/7283741847460151864"
    },
    {
        "title": "院子凉亭鱼池找平开工",
        "docid": "7271561116210168320",
        "url": "https://www.ixigua.com/7271561116210168320"
    },
    {
        "title": "进户门有没有必要加装指纹密码锁？师傅终于说出实话，多亏提醒",
        "docid": "7290945521332683298",
        "url": "https://www.ixigua.com/7290945521332683298"
    },
    {
        "title": "10万买来的大木头，花8000请师父打造，半成品的木板简直太艳丽了",
        "docid": "7274467737693651491",
        "url": "https://www.ixigua.com/7274467737693651491"
    },
    {
        "title": "爸妈苏北县城150平养老房，6个月终于完成，儿子直呼比上海家还好",
        "docid": "7284484155587428925",
        "url": "https://www.ixigua.com/7284484155587428925"
    },
    {
        "title": "在雷暴之夜的舒适房间，伴着大雨，闪电和雷鸣，放松深度睡眠",
        "docid": "7280455685215617547",
        "url": "https://www.ixigua.com/7280455685215617547"
    },
    {
        "title": "忠义阳阳家装修，请表哥来帮忙，表哥说材料人工他全包了",
        "docid": "7304961459816301092",
        "url": "https://www.ixigua.com/7304961459816301092"
    },
    {
        "title": "粉丝花一千多买的沙发“翻车了”！现场切开看看内部材质明白了",
        "docid": "7274631147101880872",
        "url": "https://www.ixigua.com/7274631147101880872"
    },
    {
        "title": "接了个安装电视的活，到了客户家又吵起来了，再也不接这种活了",
        "docid": "7293781616764453376",
        "url": "https://www.ixigua.com/7293781616764453376"
    },
    {
        "title": "安装工打漏水管责任谁来承担，搞不好几天白干",
        "docid": "7277492234168042020",
        "url": "https://www.ixigua.com/7277492234168042020"
    },
    {
        "title": "小伙花1000多买了1张白蜡木实木床,切开看到这造假技术惊呼太牛了",
        "docid": "7290960194987622947",
        "url": "https://www.ixigua.com/7290960194987622947"
    },
    {
        "title": "这是清华学霸梦寐以求的北京一套七房复式，闪闪发光的老房改造",
        "docid": "7281647080865694219",
        "url": "https://www.ixigua.com/7281647080865694219"
    },
    {
        "title": "邻居请我做一桌子，开始嫌八百块贵了，结果看到成品直接给三千",
        "docid": "7278652333704086072",
        "url": "https://www.ixigua.com/7278652333704086072"
    },
    {
        "title": "过冬用的柴火，骨骼奇特，挑出来打造茶桌，从此走向人生巅峰。",
        "docid": "7284292936249180726",
        "url": "https://www.ixigua.com/7284292936249180726"
    },
    {
        "title": "这个512㎡长形豪宅太精致！两层都有精雕特色，有品位！",
        "docid": "7304958508942950946",
        "url": ""
    },
    {
        "title": "单身辣妈的52平法式小家，独居生活到底有多爽？#小户型",
        "docid": "7294096954408370697",
        "url": "https://www.ixigua.com/7294096954408370697"
    },
    {
        "title": "简简单单吊个棚，不想大动干戈的地方可以这样做！PVC板吊顶教程",
        "docid": "7303861154215821862",
        "url": "https://www.ixigua.com/7303861154215821862"
    },
    {
        "title": "黄铜水龙头的大规模生产，走进工厂，看看水龙头的制作工艺",
        "docid": "7274985052688089661",
        "url": "https://www.ixigua.com/7274985052688089661"
    },
    {
        "title": "围观农村水泥路面施工，包工包料490元每立方贵吗？这速度太快了",
        "docid": "7278157468885058063",
        "url": "https://www.ixigua.com/7278157468885058063"
    },
    {
        "title": "二个师傅经过两天努力，3个房间木地板顺利完工，效果出来很满意",
        "docid": "7274533442758148669",
        "url": "https://www.ixigua.com/7274533442758148669"
    },
    {
        "title": "土豪出五万请龙二改造院子，开始还说偷工减料，结果完工后震撼了",
        "docid": "7278493767827456568",
        "url": "https://www.ixigua.com/7278493767827456568"
    },
    {
        "title": "老刘新房客厅装了一台85寸电视，影音效果堪比影院，真的太好了",
        "docid": "7289710642762940983",
        "url": "https://www.ixigua.com/7289710642762940983"
    },
    {
        "title": "若再装修，一定坚持“十不装”！不但实用性强，家务活还能少一半",
        "docid": "7272659772766159395",
        "url": "https://www.ixigua.com/7272659772766159395"
    },
    {
        "title": "侧吸油烟机好还是顶吸油烟机好？师傅终于说出实话，切记提醒",
        "docid": "7289109838867464767",
        "url": "https://www.ixigua.com/7289109838867464767"
    },
    {
        "title": "才知道，原来用一个口罩就能把生锈的阀门打开，师傅现场演示！",
        "docid": "7286804574642864696",
        "url": "https://www.ixigua.com/7286804574642864696"
    },
    {
        "title": "孟师傅大别墅真阔气，一进屋都蒙圈，今天这是又添东西了，来看看",
        "docid": "7289982945384006178",
        "url": "https://www.ixigua.com/7289982945384006178"
    },
    {
        "title": "小夫妻花一百万买了个阳台，逆天改造变身超级豪华LOFT！",
        "docid": "7288173785747096079",
        "url": "https://www.ixigua.com/7288173785747096079"
    },
    {
        "title": "高档歺椅",
        "docid": "7305036322342142479",
        "url": "https://www.ixigua.com/7305036322342142479"
    },
    {
        "title": "过一个星期搬进新房，买了电暖桌冬天用，定的沙发床铺过两天进场",
        "docid": "7304624697193431591",
        "url": "https://www.ixigua.com/7304624697193431591"
    },
    {
        "title": "3.6米自建房，双跑楼梯带卫生间的设计来了",
        "docid": "7276409772289557052",
        "url": "https://www.ixigua.com/7276409772289557052"
    },
    {
        "title": "瓦工界的杂技高手，工人踩滚轮滚平水泥面，网友：行行出状元",
        "docid": "7300495594605249051",
        "url": "https://www.ixigua.com/7300495594605249051"
    },
    {
        "title": "回到安徽老家旧房改造，一天扔了好几车东西，现在的环境咋样？",
        "docid": "7277812651361894927",
        "url": "https://www.ixigua.com/7277812651361894927"
    },
    {
        "title": "退休夫妻的28㎡，真的很好看！",
        "docid": "7284524755280069160",
        "url": ""
    },
    {
        "title": "成都90后女孩100w打造125㎡大一居：悬浮书架C位，任性漫游无死角",
        "docid": "7305224700727149071",
        "url": ""
    },
    {
        "title": "工程质量过程管控亮点系列——装饰装修",
        "docid": "7305185844472611363",
        "url": ""
    },
    {
        "title": "入住一年的roomtour，媳妇啥也不管，一镜到底，就等验收",
        "docid": "7279652007458275896",
        "url": "https://www.ixigua.com/7279652007458275896"
    },
    {
        "title": "小程专收废弃钢管和木料，给小学生打造折叠凳子，赚得盆满钵满",
        "docid": "7275379425678459428",
        "url": "https://www.ixigua.com/7275379425678459428"
    },
    {
        "title": "小哥展示“00后砌墙大法”，轻轻一推砌好一排，老师傅惊掉大牙",
        "docid": "7290803557325308453",
        "url": "https://www.ixigua.com/7290803557325308453"
    },
    {
        "title": "女子花近20万买2个40平车库，打通装修后住进一家6口：直接躺平",
        "docid": "7284437097241543208",
        "url": "https://www.ixigua.com/7284437097241543208"
    },
    {
        "title": "冬日居家幸福清单",
        "docid": "7305226366969086475",
        "url": ""
    },
    {
        "title": "45万装修的小窝是生活",
        "docid": "7304938127242887692",
        "url": ""
    },
    {
        "title": "案例分享| 艺术感极强的几款学校导视设计",
        "docid": "7305280416112624155",
        "url": ""
    },
    {
        "title": "傻眼了！江苏小哥阳台上装马桶被吐槽“太离谱”，网友：现场直播",
        "docid": "7304807753057665562",
        "url": ""
    },
    {
        "title": "告别千篇一律，大胆爱上这些造型侧边柜吧",
        "docid": "7302264430002389538",
        "url": ""
    },
    {
        "title": "安置房交付标准参考图例(管道、强弱电、消防…)，112页可下载！",
        "docid": "7305297727649317388",
        "url": ""
    },
    {
        "title": "冷库节能之老旧库板喷涂聚氨酯",
        "docid": "7304275632799023650",
        "url": ""
    },
    {
        "title": "装修瓷砖施工看到工人做3件事，立刻让他走人，人品问题不给机会",
        "docid": "7302256251470086708",
        "url": ""
    },
    {
        "title": "富轩门窗工匠文化宣传片上线 解读门窗工匠大师的匠心坚守",
        "docid": "7305331940541039123",
        "url": ""
    },
    {
        "title": "俗语说“床靠两面墙，家中遭病殃”指的是哪两面墙",
        "docid": "7305214932533133851",
        "url": ""
    },
    {
        "title": "参观嫂子省城的新家，满屋乱糟糟，电视柜太渗人，看完哭笑不得",
        "docid": "7298234578060575244",
        "url": ""
    },
    {
        "title": "看了这位70后太太的家才发现，能留住人心的家，绝不是靠豪装",
        "docid": "7305290979522200079",
        "url": ""
    }
]