[
    {
        "title": "填缝工具#装修 #施工 #施工现场 #新工具",
        "docid": "7347310500948116002",
        "url": ""
    },
    {
        "title": "俗话说：“无论家里有钱没钱，茶几上不要放四样”，过来人的经验",
        "docid": "7366087731359023655",
        "url": ""
    },
    {
        "title": "建议大家：把这4个“先进设计”带回家，幸福感加倍提升，收藏好",
        "docid": "7362736981736096266",
        "url": ""
    },
    {
        "title": "90岁婆婆的极简生活，太治愈了，打开衣柜的那一刻，让人哭破防！",
        "docid": "7353511832864195107",
        "url": ""
    },
    {
        "title": "冲着这个大阳台买的房子，做了自己喜欢的落地窗",
        "docid": "7341629779143197238",
        "url": ""
    },
    {
        "title": "大叔利用毫不起眼的pvc管，就搭建出一款室外雨棚，真是涨见识了",
        "docid": "7340361671191462438",
        "url": ""
    },
    {
        "title": "第二套房子，我绝不会再装断桥铝平开窗，不是胡说，是真的受够了",
        "docid": "7358260477446636067",
        "url": ""
    },
    {
        "title": "“没必要买”的5种家具，都是曾经备受追捧，现在却不值得购买的",
        "docid": "7343181657744900660",
        "url": ""
    },
    {
        "title": "看了她家，才知道什么叫岁月静好，全屋装修简约治愈，太有品味了",
        "docid": "7338372469172863523",
        "url": ""
    },
    {
        "title": "现在的包工头都聪明，盖房子要求包工包料，这活干的能行吗？",
        "docid": "7358700359055606313",
        "url": ""
    },
    {
        "title": "铲的越来越直了，品质也越来越好，这不就是客户所期待的嘛",
        "docid": "7352898283490148876",
        "url": ""
    },
    {
        "title": "果然高手隐藏在民间，",
        "docid": "7355195574066348578",
        "url": ""
    },
    {
        "title": "无论你家在几层，建议都加装一个止逆阀，防反臭！反水！隔音",
        "docid": "7337558653651812916",
        "url": ""
    },
    {
        "title": "女子看房发现“猫条”窗户，嵌在墙上只有一小条缝，打开后绷不住",
        "docid": "7349775276752142859",
        "url": ""
    },
    {
        "title": "居家，不需要看起来很贵，住起来温馨舒适就可以，认可吗",
        "docid": "7343430290197021225",
        "url": ""
    },
    {
        "title": "中堂入座有学问！中国人的规矩不能丢！",
        "docid": "7358258877512794636",
        "url": ""
    },
    {
        "title": "江苏发现一户人家，因家里太干净而走红，拍照给大伙瞅瞅，真服气",
        "docid": "7337128239779070502",
        "url": ""
    },
    {
        "title": "“断舍离”女孩火上央视，88㎡的家6件家具，常年坚持不消费",
        "docid": "7341352164100768290",
        "url": ""
    },
    {
        "title": "老师傅用砂模技术大量生产石桌，一件八百订单都排到明年了",
        "docid": "7363243174975767078",
        "url": ""
    },
    {
        "title": "河北一帅小伙不结婚，一房一车一猫一个人的生活，过的有滋有味",
        "docid": "7356853817842926114",
        "url": ""
    },
    {
        "title": "巴基斯坦制作豪华大门全过程，偷工减料严重，成品却十分惊艳！",
        "docid": "7345006067744997888",
        "url": ""
    },
    {
        "title": "老婆给1000买餐桌，用50块买拆卸木板自己造，省下的全是私房钱",
        "docid": "7356126035262407202",
        "url": ""
    },
    {
        "title": "一层平房这样建，面宽4间，光线充足，空间敞亮",
        "docid": "7332300463712551478",
        "url": ""
    },
    {
        "title": "河北夫妇拒绝过度装修，客厅一个小细节，让无数人效仿，太高级了",
        "docid": "7344005462205170230",
        "url": ""
    },
    {
        "title": "在客厅摆上一张大长桌，实际体验到底如何？大长桌怎么选？",
        "docid": "7352778514352734754",
        "url": ""
    },
    {
        "title": "冰箱嵌入餐边柜，就应该这样设计，附带设计图",
        "docid": "7335591109156340264",
        "url": ""
    },
    {
        "title": "门垫该放门外好还是门内好？听内行人说完，才发现我一直放错了！",
        "docid": "7332382670447510051",
        "url": ""
    },
    {
        "title": "为什么风靡一时的PVC板吊顶“跌落神坛”？不解决这些，终将淘汰",
        "docid": "7343562010133086755",
        "url": ""
    },
    {
        "title": "95平的宅基地自建4层现代别墅，拥有50平米大客厅、4间舒适套卧",
        "docid": "7340533828915806735",
        "url": ""
    },
    {
        "title": "冰箱到货后，一定别踩这5个坑，否则，用不了多久就得坏！",
        "docid": "7363242495603458598",
        "url": ""
    },
    {
        "title": "简直就是浪费材料坑业主，这能拿到工钱？结果却是水电工自家装修",
        "docid": "7339527125730558464",
        "url": ""
    },
    {
        "title": "5㎡的卫生间收纳做到极致也是很厉害了！",
        "docid": "7342441628327559707",
        "url": ""
    },
    {
        "title": "坚持客厅改了半墙，入住后全家人都赞不绝口，原来半墙还能这么好！",
        "docid": "7359555965626368521",
        "url": ""
    },
    {
        "title": "最被中国家庭低估的一个柜子",
        "docid": "7337890290743181839",
        "url": ""
    },
    {
        "title": "卫生间还做干湿分离就落伍了，如今流行这样改",
        "docid": "7355057737648161295",
        "url": ""
    },
    {
        "title": "阳台洗衣柜设计带尺寸，快来抄作业",
        "docid": "7335991238438502964",
        "url": ""
    },
    {
        "title": "60个科学家居尺寸，建议保存好",
        "docid": "7341944709839290932",
        "url": ""
    },
    {
        "title": "20款衣柜书桌装修图",
        "docid": "7333824522229629492",
        "url": ""
    },
    {
        "title": "武汉一姑娘不要客厅，没有踢脚线，把家装成了无数人的理想",
        "docid": "7344605296880517632",
        "url": ""
    },
    {
        "title": "这是不是大家的装修心路：从满心期待，到摆烂随便？",
        "docid": "7353546051481780776",
        "url": ""
    },
    {
        "title": "20款主卧衣柜设计",
        "docid": "7363681222310035968",
        "url": ""
    },
    {
        "title": "终于有了自己的家，家不一定要有多少华丽，但是一定要有温馨。",
        "docid": "7353235121849287220",
        "url": ""
    },
    {
        "title": "老旧的铁轨木枕无人要，捡回家为客服定制复古桌，零成本全是利润",
        "docid": "7358715441273012762",
        "url": ""
    },
    {
        "title": "用镀锌方管制作阳光房，成本低到难以置信！",
        "docid": "7349020458489545250",
        "url": ""
    },
    {
        "title": "卧室的床怎么放才合适？很多人不懂，看完涨知识了",
        "docid": "7351687131246510619",
        "url": ""
    },
    {
        "title": "为啥越来越多人买法式冰箱？体验过后，发现这6个优点难以拒绝",
        "docid": "7340582365037281827",
        "url": ""
    },
    {
        "title": "800在网上买块稀有檀木，简单加工成大板桌，天然木纹美到窒息",
        "docid": "7337571945078882852",
        "url": ""
    },
    {
        "title": "“不封阳台”的人越来越多？10年装修师傅告诉你：不封就对了！",
        "docid": "7365618053712855615",
        "url": ""
    },
    {
        "title": "老祖宗的审美yyds，一个充满中国古典气息的家",
        "docid": "7366074741418967552",
        "url": ""
    },
    {
        "title": "多亏装了这个餐边柜，现在家里餐厅超实用，谁见了都夸好看！",
        "docid": "7338265541050171931",
        "url": ""
    },
    {
        "title": "泰州发现一户人家的装修，那叫一个干净清爽，真的很难不爱",
        "docid": "7337567191619125799",
        "url": ""
    },
    {
        "title": "为什么比利时人盖房要在墙砖里铺一层铁丝网",
        "docid": "7354688741614551593",
        "url": ""
    },
    {
        "title": "原木风好看吗？#装修完工实景",
        "docid": "7365835587472851519",
        "url": ""
    },
    {
        "title": "75张“鲁班尺”的高清照片，送给需要建房和装修的朋友",
        "docid": "7338944876488573459",
        "url": ""
    },
    {
        "title": "学邻居在地砖上重铺一层木地板，使用半年，我哭着拆掉了",
        "docid": "7362129868940657152",
        "url": ""
    },
    {
        "title": "42m²爆改2室｜靠“地台床”，隔出独立卧室！",
        "docid": "7364247252208173608",
        "url": ""
    },
    {
        "title": "温暖的家治愈各种天气！",
        "docid": "7363463964456206885",
        "url": ""
    },
    {
        "title": "光橱柜就让朋友久久不愿离去！橱柜的颜色这样搭配，真的好看！",
        "docid": "7336750850213413426",
        "url": ""
    },
    {
        "title": "无意间看到工人竟是这样安装栏杆的，以后再也不敢倚靠它了！",
        "docid": "7356501522160550450",
        "url": ""
    },
    {
        "title": "再次装修厨房，坚持了5个“先进设计”！看似不起眼，实则很实用",
        "docid": "7306384749940212260",
        "url": ""
    },
    {
        "title": "铺瓷砖神操作，果然高手在民间",
        "docid": "7353245143254467106",
        "url": ""
    },
    {
        "title": "干了30年的木工，第一次见桌子能这样玩？难怪订单不断赚大钱",
        "docid": "7365433637636702783",
        "url": ""
    },
    {
        "title": "成家后才发现的“7大不值得买的物品”，宣传和实际使用相差太大",
        "docid": "7338970867050807858",
        "url": ""
    },
    {
        "title": "徐州夫妇因拒绝过度装修走红，光一个客厅就让无数人效仿，太高级",
        "docid": "7339430366979113509",
        "url": ""
    },
    {
        "title": "我家厨房的6个“纯摆设”，用不上也用不起，大家千万不要被骗了",
        "docid": "7337869249052262947",
        "url": ""
    },
    {
        "title": "自装了2套房，我终于找到了“省钱方向”，门槛都被邻居踩烂了",
        "docid": "7354715476989149730",
        "url": ""
    },
    {
        "title": "装过2套房才明白，家里这8样东西，尽量买大的，比小的好用太多！",
        "docid": "7359582526249222665",
        "url": ""
    },
    {
        "title": "女孩买9米深公寓被嘲像口井，装修1年变4层楼，面积翻倍效果惊艳",
        "docid": "7339374643788120611",
        "url": ""
    },
    {
        "title": "大风雨刮走了窗户，大家把关键的原因忽略了！",
        "docid": "7353074683723645476",
        "url": ""
    },
    {
        "title": "为何我不建议你装风管机，过来人表示，3大缺点，难以忍受！",
        "docid": "7351680096703332876",
        "url": ""
    },
    {
        "title": "浙江发现一户人家的装修，处处透露着高级感，一进屋就不想离开",
        "docid": "7335079910769328659",
        "url": ""
    },
    {
        "title": "等我换房，次卧再也不装榻榻米了，学邻居这样设计，太聪明了！",
        "docid": "7341290887878427188",
        "url": ""
    },
    {
        "title": "徒弟把水龙头装歪了，业主不愿意要赔钱，你看老师傅是怎么补救的",
        "docid": "7366067381984199203",
        "url": ""
    },
    {
        "title": "20款悬空电视柜装修图",
        "docid": "7334329995571151394",
        "url": ""
    },
    {
        "title": "第二次装修，我坚持了8个装修决定，入住后妙用无穷，太明智了！",
        "docid": "7338684136850604607",
        "url": ""
    },
    {
        "title": "“要想家中富，墙上藏三物”，三物指啥，老一辈挂画经验管用吗？",
        "docid": "7337870986148102668",
        "url": ""
    },
    {
        "title": "穷装修地下室篮球场花了多少钱。#在家打球 #地下室装修",
        "docid": "7359894984491565619",
        "url": ""
    },
    {
        "title": "解释你们对阳光房的疑惑以及寒酸的正房、反正正房也没人看",
        "docid": "7337545344781615628",
        "url": ""
    },
    {
        "title": "67平小家，连空调师傅都说哇！这装修可以！",
        "docid": "7365354232192467496",
        "url": ""
    },
    {
        "title": "这个有妈妈在的家，格外温馨幸福！",
        "docid": "7333394241982611968",
        "url": ""
    },
    {
        "title": "越来越多人卧室不买床了！建议学江苏人的做法，既实用又省地方",
        "docid": "7337956025498386944",
        "url": ""
    },
    {
        "title": "上海一28岁太太的新家火了，仅一个鞋柜就被无数人效仿，太实用了",
        "docid": "7364324621161611791",
        "url": ""
    },
    {
        "title": "看完她家的厨房收纳，我觉得自家厨房真是白装了！",
        "docid": "7332394149582389795",
        "url": ""
    },
    {
        "title": "建议大家：这4类家电，没坏也要扔掉，不是瞎说，用久了有害！",
        "docid": "7337234718540415528",
        "url": ""
    },
    {
        "title": "辽宁一女太太，因“三角梅客厅”走红，禅意十足，那叫一个治愈！",
        "docid": "7338355951411429940",
        "url": ""
    },
    {
        "title": "房子已经打扫干净了，可以安心去上班了！",
        "docid": "7340122679963288101",
        "url": ""
    },
    {
        "title": "等我买第二套房子，餐厅绝不定制餐边柜！这么装，美观实用又省钱",
        "docid": "7355175456372474407",
        "url": ""
    },
    {
        "title": "被这7个家居“进步设计”爽到了，直戳生活痛点，实用性远超预期",
        "docid": "7359464495137260059",
        "url": ""
    },
    {
        "title": "20款客厅灰色地砖装修图",
        "docid": "7346500714103079464",
        "url": ""
    },
    {
        "title": "卧室面积小也不怕，床和衣柜这样做非常省空间！",
        "docid": "7340591652362519079",
        "url": ""
    },
    {
        "title": "90后女子买房被送60平大阳台，网友称没用，装修完直呼惊艳又实用",
        "docid": "7349828677670994471",
        "url": ""
    },
    {
        "title": "红砖艺术墙，十年不新，百年不旧，低调而又不失奢华",
        "docid": "7354651936945242634",
        "url": ""
    },
    {
        "title": "幸亏没听劝，家里的柜子这样设计太香了，设计师都夸我有才！",
        "docid": "7352787102851138089",
        "url": ""
    },
    {
        "title": "90后妈妈在外买25㎡公寓独居：每周逃离家庭一天",
        "docid": "7354767679145984575",
        "url": ""
    },
    {
        "title": "装修中最不值得花钱的10个地方，我家中了一半，白白浪费几万块",
        "docid": "7351294570061169186",
        "url": ""
    },
    {
        "title": "全小区都羡慕的卫生间，干湿三分离，美观整洁又大气",
        "docid": "7340442513343463975",
        "url": ""
    },
    {
        "title": "极简生活后才发现：有很多家务都是自找的！",
        "docid": "7353273858864005686",
        "url": ""
    },
    {
        "title": "“瓷砖上墙”为何突然没人装了？看过这4个缺点，你就不奇怪了",
        "docid": "7335124839600390693",
        "url": ""
    },
    {
        "title": "卧室别再做定制衣柜了，建议学广东人的做法，能省好多钱",
        "docid": "7356160041906405928",
        "url": ""
    },
    {
        "title": "毛坯房正确装修顺序！三个月完工不返工！！",
        "docid": "7349604341482897929",
        "url": ""
    },
    {
        "title": "卫生间装修不想返工，6点提前和工人交代，别等翻车再抱怨就晚了",
        "docid": "7332473825180942848",
        "url": ""
    },
    {
        "title": "当初不顾家人反对，我坚持全屋“瓷砖上墙”，入住3年后苦不堪言",
        "docid": "7360606436310647334",
        "url": ""
    },
    {
        "title": "广东一36岁太太的家火了，几乎没有装修，简单随性，治愈了很多人",
        "docid": "7363863994245054976",
        "url": ""
    },
    {
        "title": "头一次见卫生间这样做干湿分离，太聪明了，连淋浴房都省了",
        "docid": "7334710305609794082",
        "url": ""
    },
    {
        "title": "我的家别人肯定会说太暗了，黑乎乎的，可是我真的喜欢啊！",
        "docid": "7333194958033715746",
        "url": ""
    },
    {
        "title": "这是我见过最干净的家，大白墙，石膏线，入住后庆幸当初的决定",
        "docid": "7351305826092450341",
        "url": ""
    },
    {
        "title": "越来越多人不在门口放“地垫”！建议学学这户人家做法，干净耐用",
        "docid": "7327909160232763913",
        "url": ""
    },
    {
        "title": "上海43㎡做玻璃砖墙+长虹门，采光绝了",
        "docid": "7333502885554389543",
        "url": ""
    },
    {
        "title": "智能马桶是智商税，没必要安装，用了1年，来说说我的使用感受",
        "docid": "7359118313442361856",
        "url": ""
    },
    {
        "title": "小卧室就不要做榻榻米了，请师傅这样装，既漂亮又省空间",
        "docid": "7353203232241484303",
        "url": ""
    },
    {
        "title": "云南一新婚夫妇的新房火了，虽不豪华，却是很多家庭的榜样，晒晒",
        "docid": "7344969072372908579",
        "url": ""
    },
    {
        "title": "不听爸妈劝，非要在阳台放茶桌",
        "docid": "7365768855676994063",
        "url": ""
    },
    {
        "title": "断舍离之后，我坚决不囤这7样东西了，个个为贫穷家庭的通病！",
        "docid": "7342102388083638819",
        "url": ""
    },
    {
        "title": "这5种沙发“水很深”，一不小心就踩坑！沙发避坑攻略值得收藏！",
        "docid": "7339179813925929523",
        "url": ""
    },
    {
        "title": "新房4.8米电视背景怎么设计，看看这3款案例吧",
        "docid": "7365423024528540187",
        "url": ""
    },
    {
        "title": "家里，真心建议不买这些「大垃圾」",
        "docid": "7342703630758052352",
        "url": ""
    },
    {
        "title": "全屋定制板材大揭秘：兔宝宝 万华等七大国产品牌性能PK",
        "docid": "7357222892100207155",
        "url": ""
    },
    {
        "title": "台湾爸妈说：大陆这种桌子，在台湾找不到！【广西南宁家具城】",
        "docid": "7353176861536420379",
        "url": ""
    },
    {
        "title": "不顾老公反对，自己决定把家装修成新中式，老祖宗的审美果然在线",
        "docid": "7365739372920013347",
        "url": ""
    },
    {
        "title": "当初不听劝，坚持用不锈钢橱柜，如今越用越香，下次我还要再装！",
        "docid": "7343229403017413159",
        "url": ""
    },
    {
        "title": "听劝！这10个家居建议实用又巧妙，任何人不知道都会遗憾的！",
        "docid": "7351592570234913307",
        "url": ""
    },
    {
        "title": "普通人家，干干净净就看着很舒服！",
        "docid": "7354324992865141258",
        "url": ""
    },
    {
        "title": "为什么“横厅”越来越受欢迎，客厅这么设计真的香",
        "docid": "7343407985693278760",
        "url": ""
    },
    {
        "title": "为什么越来越多人选游击队，而不选装修公司？我以血泪史告诉你",
        "docid": "7341644198443287059",
        "url": ""
    },
    {
        "title": "被“吹捧上天”的大单槽，为何不“香”了？只因这4个问题太突出",
        "docid": "7342802686770725414",
        "url": ""
    },
    {
        "title": "中堂摆放有讲究！象征的是“中国人的脸面”！",
        "docid": "7353568427342135823",
        "url": ""
    },
    {
        "title": "为何越来越多人家“砌墙”做衣柜？体验后才发现：真香！",
        "docid": "7361352658575688242",
        "url": ""
    },
    {
        "title": "床垫上的“薄膜”要不要撕掉？多亏家具老板提醒，难怪床上螨虫多",
        "docid": "7351670567491322408",
        "url": ""
    },
    {
        "title": "完蛋了！入户门正对卫生间，这种户型怎么破？",
        "docid": "7342319944031306275",
        "url": ""
    },
    {
        "title": "云南一夫妇的新家火了，全屋不吊顶，不走石膏线，简单耐看，晒晒",
        "docid": "7364217911013327395",
        "url": ""
    },
    {
        "title": "家庭电路，你只要愿意学，一定能学会。",
        "docid": "7355724140550144539",
        "url": ""
    },
    {
        "title": "听我一句劝，装修越简单，家里越显大！",
        "docid": "7356130537368912422",
        "url": ""
    },
    {
        "title": "换了2次房才懂：卧室门一定坚持“5不买”！都是花钱买的教训",
        "docid": "7361240193631830580",
        "url": ""
    },
    {
        "title": "家里装修，这些别装，正在被淘汰！",
        "docid": "7338048503610458660",
        "url": ""
    },
    {
        "title": "去同事家做客，一进门就被惊艳了，玄关柜这样装不仅实用还漂亮",
        "docid": "7334706147351396916",
        "url": ""
    },
    {
        "title": "卫生间这么装，漂亮又省钱！",
        "docid": "7352830737428562467",
        "url": ""
    },
    {
        "title": "小户型就复制我家吧，真的好看又温馨啊",
        "docid": "7362749837794837046",
        "url": ""
    },
    {
        "title": "香港一90后姑娘火了，蜗居9㎡小屋，空间利用到极致，小家很治愈",
        "docid": "7364228701384475136",
        "url": ""
    },
    {
        "title": "家装电缆安全载流量、功率线径关系",
        "docid": "7342072258598748722",
        "url": ""
    },
    {
        "title": "卫生间装修提前做好9点功课",
        "docid": "7337813643490427430",
        "url": ""
    },
    {
        "title": "越来越多的人，为何不选择装断桥铝窗了？因为系统窗是更好的选择",
        "docid": "7355420171906892297",
        "url": ""
    },
    {
        "title": "睡觉的房间，床要如何摆放？不是迷信，老一辈却说：里头讲究不小",
        "docid": "7350971189252096575",
        "url": ""
    },
    {
        "title": "卧室中的床，建议：不要朝着这三面墙摆放！不是迷信，是真为你好",
        "docid": "7356491241707602472",
        "url": ""
    },
    {
        "title": "明明说空调“免费安装”，安装时却加收各种费用，你有被坑过？",
        "docid": "7361271533224100367",
        "url": ""
    },
    {
        "title": "“断舍离”女孩火上央视，家里仅有6件家具，选择常年“不消费”",
        "docid": "7339815961606406682",
        "url": ""
    },
    {
        "title": "有这样的阳台茶室，我一整天都不想出门了",
        "docid": "7365769630276960820",
        "url": ""
    },
    {
        "title": "听我一句劝，这3种沙发想清楚再买,都是花钱买的教训！",
        "docid": "7365334644021445171",
        "url": ""
    },
    {
        "title": "看了辽宁一宝妈家的装修，那叫一个叫高级，一进门就被治愈了",
        "docid": "7358760260213260819",
        "url": ""
    },
    {
        "title": "第一次装修没什么经验，很容易被人忽悠，听听过来人的建议！",
        "docid": "7340192912640590351",
        "url": ""
    },
    {
        "title": "5年前不顾家人反对，装修时坚持瓷砖上墙，入住后我欲哭无泪",
        "docid": "7339714173360079411",
        "url": ""
    },
    {
        "title": "若再买“智能马桶”，我一定选这8种款式，不是矫情，是被坑惨了",
        "docid": "7338312956960227880",
        "url": ""
    },
    {
        "title": "为什么我不建议你装地暖？过来人表示：这4个缺点太突出",
        "docid": "7344642446959575615",
        "url": ""
    },
    {
        "title": "封了一次阳台后，才知道断桥铝封窗的“6个坑”，都是经验教训！",
        "docid": "7348073892755685900",
        "url": ""
    },
    {
        "title": "第二套房子，我不会再装“木地板”，并非胡说，而是真的受够了！",
        "docid": "7359840163029189157",
        "url": ""
    },
    {
        "title": "审美，不是有钱就能办得到",
        "docid": "7363234373635703311",
        "url": ""
    },
    {
        "title": "III霸总的家 这才是高级典范",
        "docid": "7365725763524264484",
        "url": ""
    },
    {
        "title": "不管房子有多大，开门都不要对着“6种东西”！不是迷信，是教训",
        "docid": "7353188236535087635",
        "url": ""
    },
    {
        "title": "打算装修的，听我一句劝，如果预算低，这6条装修细节要牢记！",
        "docid": "7332727200824754703",
        "url": ""
    },
    {
        "title": "头一次见香港49㎡的房子，居然有3室2厅，忍不住晒晒，太高级了！",
        "docid": "7351037972441039397",
        "url": ""
    },
    {
        "title": "谁懂！家里这10个地方“ 空着”有多爽？干净舒心家务消失",
        "docid": "7358837474606481931",
        "url": ""
    },
    {
        "title": "越来越多人厨房装这种“插座”，老师傅都点头夸好，回家照着装！",
        "docid": "7337961456195289652",
        "url": ""
    },
    {
        "title": "越来越多人阳台不贴瓷砖了，现在有钱人流行这么做，好看又实用",
        "docid": "7338002854591906344",
        "url": ""
    },
    {
        "title": "“警告各位”装风暖浴霸，牢记以下这8句选购口诀！安装不踩坑！",
        "docid": "7363638055091192374",
        "url": ""
    },
    {
        "title": "看了日本的卫生间设计，才知道，我们落后了这么多年！",
        "docid": "7359013287567049266",
        "url": ""
    },
    {
        "title": "床头还在刷大白墙？看看这10款床头墙吧，美不胜收！",
        "docid": "7357938916785373705",
        "url": ""
    },
    {
        "title": "地板也能玩出花！于自然间，演绎生活的另一种“美”法",
        "docid": "7366173016230789684",
        "url": ""
    },
    {
        "title": "动辙成百上千万，甚至过亿！明式家具为何这么贵",
        "docid": "7365773401950028323",
        "url": ""
    },
    {
        "title": "这个深色调的家，真的好高级！",
        "docid": "7348428036527637043",
        "url": ""
    },
    {
        "title": "乳胶漆、艺术漆、护墙板和墙布哪种好？对比之后，选择不纠结！",
        "docid": "7359809059333210676",
        "url": ""
    },
    {
        "title": "为何越来越多人不装断桥铝窗？缺点渐渐凸显，学学广东人的做法",
        "docid": "7336772054782198306",
        "url": ""
    },
    {
        "title": "建议大家：若不差钱，咬咬牙添置“这4样”，生活质量大大提升！",
        "docid": "7358359006433329702",
        "url": ""
    },
    {
        "title": "新家入住一年后，我最满意的14个设计",
        "docid": "7340443354968637991",
        "url": ""
    },
    {
        "title": "为何越来越多人不建议瓷砖通铺？我家也跟风，入住3年苦不堪言",
        "docid": "7339358386712347175",
        "url": ""
    },
    {
        "title": "越来越多人不装“鸟笼式”防盗窗！学学北京人的做法，好看又好用",
        "docid": "7314199828849082891",
        "url": ""
    },
    {
        "title": "农村5款造价10多万的1层别墅设计图，大气实用接地气！",
        "docid": "7336037345776583183",
        "url": ""
    },
    {
        "title": "装修这30个坑，都是我辛辛苦苦踩出来的，你就不要再傻傻掉进去了",
        "docid": "7343919474720473634",
        "url": ""
    },
    {
        "title": "越来越多人不装平开窗！建议学学聪明人的做法，没想到这么实用",
        "docid": "7319748263207240192",
        "url": ""
    },
    {
        "title": "若再买沙发，一定坚持“8不买”，不是瞎说，而是踩坑后的经验",
        "docid": "7356471886450246184",
        "url": ""
    },
    {
        "title": "建议大家：若不差钱，咬咬牙在客厅添置“这4样”，提升生活质量",
        "docid": "7350954989583499826",
        "url": ""
    },
    {
        "title": "越来越多人厨房不装吊柜了，有钱人都这样做，太实用了！",
        "docid": "7344256437323022858",
        "url": ""
    },
    {
        "title": "家具厂切割千年实木板，直径超五米，多土豪的能用得起这样的木料",
        "docid": "7346160889676071434",
        "url": ""
    },
    {
        "title": "女子工作偶遇奇葩装修，用水泥浇筑做悬空床，网友看后炸锅了",
        "docid": "7336772742375637530",
        "url": ""
    },
    {
        "title": "这7种床垫就是智商税！再便宜都不要买，你家踩坑了吗？",
        "docid": "7344595760870261258",
        "url": ""
    },
    {
        "title": "不顾老公的反对，我把新房装成了大酒店，至今不敢发朋友圈",
        "docid": "7366036294964707874",
        "url": ""
    },
    {
        "title": "女子装修吐槽送货放门口不送进院子里，以为网友会支持自己没想到",
        "docid": "7362035849187295744",
        "url": ""
    },
    {
        "title": "老板准备扔掉的裂缝木头，新来的小伙用线给他缝上！成品价涨几倍",
        "docid": "7346591178378838547",
        "url": ""
    },
    {
        "title": "女子请设计师朋友做个带暗格的抽屉，成品让她傻眼，朋友：别放钱",
        "docid": "7349085026623226404",
        "url": ""
    },
    {
        "title": "柜子里外长度不一样，女子怀疑其中有暗格，网友：你老公肯定知道",
        "docid": "7348736236959302181",
        "url": ""
    },
    {
        "title": "五一小长假乔迁入住新房，小日子太舒服啦，全屋装修非常满意啊",
        "docid": "7364409434983891497",
        "url": ""
    },
    {
        "title": "​我家装修完，含泪总结最后悔的12件后悔事！",
        "docid": "7346498232932942336",
        "url": ""
    },
    {
        "title": "瓷砖贴完，坑才开始！这8件事瓷砖铺好后别忘了做，不然要踩坑！",
        "docid": "7355146663951860258",
        "url": ""
    },
    {
        "title": "建议各位：家里的这4种“凉席”，尽快扔掉，并非迷信，都是经验",
        "docid": "7366219761748935187",
        "url": ""
    },
    {
        "title": "师傅说还是年轻人会装修，衣柜装出花来了 ​​​",
        "docid": "7343078007105749513",
        "url": ""
    },
    {
        "title": "女子花12万网购200个快递对新房软装，看到成品网友怒赞：太值了",
        "docid": "7336408771557917236",
        "url": ""
    },
    {
        "title": "加装电梯一楼损失惨重，一年花费1万多维修费，用不上却深受其害",
        "docid": "7358091771223474700",
        "url": ""
    },
    {
        "title": "发现一栋废弃别墅，主人出国后再没回来，改装跑车沙发电视全都在",
        "docid": "7345463211783717428",
        "url": ""
    },
    {
        "title": "真是不可思议，小伙用石膏板把套一改成了套二，丈母娘高兴极了",
        "docid": "7333558049786823183",
        "url": ""
    },
    {
        "title": "装修费用高是因为过度装修了",
        "docid": "7356731852079612453",
        "url": ""
    },
    {
        "title": "发现一户人家装修，外国人见到不断称赞叫好，一个客厅就如此高级",
        "docid": "7366045295697986100",
        "url": ""
    },
    {
        "title": "骨灰级穷装顺序（三个月完工不返工）",
        "docid": "7344962086851904040",
        "url": ""
    },
    {
        "title": "老师傅见证“00后砌墙法”，被吓得目瞪口呆怀疑人生：这就是知识",
        "docid": "7366448410859143714",
        "url": ""
    },
    {
        "title": "20款主卧床头背景",
        "docid": "7365552321553564194",
        "url": ""
    },
    {
        "title": "如此奇特的别墅门槛建造方式还是头一次见，手艺人的技术简直太牛",
        "docid": "7333336121180422667",
        "url": ""
    },
    {
        "title": "今天分享一下线型灯的安装全过程。#双眼皮线形灯 #双眼皮吊顶",
        "docid": "7345073978987577908",
        "url": ""
    },
    {
        "title": "小伙用烧过的木头就制作出了一款创意十足的茶几，太厉害了。",
        "docid": "7333218095965831714",
        "url": ""
    },
    {
        "title": "最优秀的加装电梯平层入户方案就在这里，你看懂了吗？",
        "docid": "7336870584003314191",
        "url": ""
    },
    {
        "title": "酒店捡回来的脏地毯，冲洗出10几斤的污泥，结果干净后能值好几千",
        "docid": "7361945938367087123",
        "url": ""
    },
    {
        "title": "见过修地基的，没有见过用水泥柱子修地基，师傅用独特方法建地基",
        "docid": "7354744600793514508",
        "url": ""
    },
    {
        "title": "90后女孩租下一间清水房，亲手将它改造翻新，房东收租时都傻眼了",
        "docid": "7338322590714298934",
        "url": ""
    },
    {
        "title": "这样建造楼梯护栏的方式真是富丽堂皇，简直让人大开眼界涨见识了",
        "docid": "7333147611660026383",
        "url": ""
    },
    {
        "title": "为何越来越多人不做“瓷砖通铺”？过来人：这3个缺点很难受",
        "docid": "7342396257518404136",
        "url": ""
    },
    {
        "title": "20款榻榻米床（带尺寸）",
        "docid": "7359609355295867427",
        "url": ""
    },
    {
        "title": "晚上睡觉时，要不要关卧室门？并非迷信，而是有科学依据的",
        "docid": "7340470496229605929",
        "url": ""
    },
    {
        "title": "四川小伙果然是高手，在家打造折叠挂墙晾衣架，成品一出惊艳全场",
        "docid": "7352766455680598580",
        "url": ""
    },
    {
        "title": "上海13平老破小爆改成四室一厅，设计师差点被邻居骂哭？",
        "docid": "7353575040832504339",
        "url": ""
    },
    {
        "title": "青岛老朱买了一楼老房子，总感觉喘不动气，终于找出原因了",
        "docid": "7337627038544888358",
        "url": ""
    },
    {
        "title": "大疆、腾讯高管都买啥家具？暗访深圳顶级家具复刻工厂！",
        "docid": "7345301014037627427",
        "url": ""
    },
    {
        "title": "ENF板材是个大坑！说说板材环保国标背后的真相，避免智商税！",
        "docid": "7345322724883169832",
        "url": ""
    },
    {
        "title": "安装断桥铝窗，要想不被坑，一定要牢记住这几点",
        "docid": "7359213615574008335",
        "url": ""
    },
    {
        "title": "地暖房住了3年后，我决定新家装暖气片，孰好孰坏，对比一目了然",
        "docid": "7331732427813224960",
        "url": ""
    },
    {
        "title": "这样花三千给室内装修成了上万效果，隔热保温的同时还能有效隔音",
        "docid": "7343558234559087130",
        "url": ""
    },
    {
        "title": "70米超级豪华游艇",
        "docid": "7339012902432539136",
        "url": ""
    },
    {
        "title": "瓦工铺地砖，采用自己琢磨的方法，一天能搞别人三天的活#手工",
        "docid": "7336527739333444122",
        "url": ""
    },
    {
        "title": "卧室装修以实用为主，窗帘不做满墙做飘窗，只要布帘不要纱",
        "docid": "7344607828436320822",
        "url": ""
    },
    {
        "title": "前置过滤器是智商税，没必要安装，用了2年，来说说我的使用感受",
        "docid": "7333902161925128739",
        "url": ""
    },
    {
        "title": "水电师傅嫌我事多，因为我让他做这12件事！",
        "docid": "7357289773519618612",
        "url": ""
    },
    {
        "title": "不管你有没有钱，装修都要把钱花在刀刃上，有些东西真没必要买贵",
        "docid": "7351608131706716713",
        "url": ""
    },
    {
        "title": "有谁知道典型江浙沪的家庭氛围是什么样的？跟你客气客气还当真了",
        "docid": "7366407339311677993",
        "url": ""
    },
    {
        "title": "梦天木作案例丨180m²现代静享家，承载生活的极简艺术",
        "docid": "7365779679581585974",
        "url": ""
    },
    {
        "title": "医用家具设计如何展现",
        "docid": "7366505958710739491",
        "url": ""
    },
    {
        "title": "手把手教你买窗帘，一定记好8选8不选！",
        "docid": "7341671691422335528",
        "url": ""
    },
    {
        "title": "窗台石怎么挑选？怎么安装？解答7个关键问题，避坑攻略值得收藏",
        "docid": "7335803939553673743",
        "url": ""
    },
    {
        "title": "头一次见到如此漂亮的庭院鱼池的修建过程，独具创意，寓意十足",
        "docid": "7357946081738490383",
        "url": ""
    },
    {
        "title": "邻居换了入户门，比我家门高了不少，心里别扭，我家要不要换？",
        "docid": "7355761574524715570",
        "url": ""
    },
    {
        "title": "一个简单的花架，却美了整个院子",
        "docid": "7365772568449548863",
        "url": ""
    },
    {
        "title": "越来越多人不装“窗帘”了，现在流行这样设计，省钱美观还实用",
        "docid": "7365719151899312666",
        "url": ""
    },
    {
        "title": "刚买的水刀竟然不知道怎么用",
        "docid": "7361003848976040475",
        "url": ""
    },
    {
        "title": "辛辛苦苦回农村老家建的房子被很多人说难看，今天带大家看看二楼",
        "docid": "7345618167244423692",
        "url": ""
    },
    {
        "title": "大叔真是脑洞大开，竟用塑料管打造出一款收纳方便的多功能晾衣架",
        "docid": "7344270322427920936",
        "url": ""
    },
    {
        "title": "你家装修师傅肯定不会告诉你，这10个装修真相！",
        "docid": "7341328414990959138",
        "url": ""
    },
    {
        "title": "万万想不到，原来客厅沙发还可以用砖块来造型砌建，真是太完美了",
        "docid": "7345477426018779663",
        "url": ""
    },
    {
        "title": "当初不顾家人反对坚持“全屋瓷砖上墙”，入住3年后真是苦不堪言",
        "docid": "7363836490477994506",
        "url": ""
    },
    {
        "title": "次卧只有7平方，怎样设计才能充分利用空间？",
        "docid": "7347618970754613811",
        "url": ""
    },
    {
        "title": "一样的阳台，不同的封窗，原来效果差别这么大！",
        "docid": "7341026023775044130",
        "url": ""
    },
    {
        "title": "装修完我才知道！除了卫生间，这6个地方也要刷防水！",
        "docid": "7338347386994983464",
        "url": ""
    },
    {
        "title": "装修最怕不懂装懂，看看真正懂装修的人是怎么做的~",
        "docid": "7342442306090107432",
        "url": ""
    },
    {
        "title": "装修一定要在场的14个时间点，再忙你也要过来，不然就容易返工！",
        "docid": "7347914273718272564",
        "url": ""
    },
    {
        "title": "远超智慧（CBD家居）Z206软床：予自己舒雅生活",
        "docid": "7366535235753771520",
        "url": ""
    },
    {
        "title": "这就是改造！倒霉蛋赖旭东封神之作，3万块改出30万的效果",
        "docid": "7356172790002942516",
        "url": ""
    },
    {
        "title": "小伙竟然用碎瓷砖铺出漂亮的地面效果 太牛了#手工diy",
        "docid": "7338804298929111561",
        "url": ""
    },
    {
        "title": "为什么越来越多人不装中央空调？原因很现实，这些缺点太突出",
        "docid": "7353476403607700007",
        "url": ""
    },
    {
        "title": "盘下一间荒废小院，一家人一起将它改造翻新，居住在里面太温馨了",
        "docid": "7333935361749582372",
        "url": ""
    },
    {
        "title": "用砖和水泥制作拱形鱼缸 #砌红砖高手视频",
        "docid": "7338394007791534633",
        "url": ""
    },
    {
        "title": "墙内预埋网线拉不动就一定换不了吗？来看看大神是如何操作的！",
        "docid": "7333903035221049908",
        "url": ""
    },
    {
        "title": "进口牛皮如何被吹上天的？探访佛山真皮工厂！",
        "docid": "7363487081178104360",
        "url": ""
    },
    {
        "title": "越来越多人淋浴间不装玻璃隔断了，学学外国人的设计，省钱还实用",
        "docid": "7333955345909940771",
        "url": ""
    },
    {
        "title": "土豪用5万枚硬币铺地板，如今十多年过去了，地板变成怎样了？",
        "docid": "7348712974422376994",
        "url": ""
    },
    {
        "title": "不是迷信！不论家里多有钱，客厅别放这“4样”东西，是哪四样？",
        "docid": "7362373377631306266",
        "url": ""
    },
    {
        "title": "再买木地板，看完这篇避雷攻略，就不会花钱买教训了",
        "docid": "7341314349811679779",
        "url": ""
    },
    {
        "title": "装修完入住后我才发现，这些东西真的很鸡肋!",
        "docid": "7345761522465063459",
        "url": ""
    },
    {
        "title": "拥有一个漂亮的书房是什么体验？这9款高颜值书房，你喜欢那个？",
        "docid": "7341683309984776743",
        "url": ""
    },
    {
        "title": "“不封阳台”的人越来越多？10年装修师傅告诉你：不封就对了！",
        "docid": "7365655033783894554",
        "url": ""
    },
    {
        "title": "建议不要购买的9种“坑人床”，简直就是家具界的大垃圾！",
        "docid": "7356592291207021096",
        "url": ""
    },
    {
        "title": "“断舍离”女孩火上央视，家里仅有6件家具，选择常年“不消费”",
        "docid": "7339790165164147263",
        "url": ""
    },
    {
        "title": "钻机拆卸承重柱，发现是砖头砌成的，不需要钢筋吗？",
        "docid": "7366502866464277019",
        "url": ""
    },
    {
        "title": "越来越多人厨房不装一般吊柜了，头一次见这种设计，看完回家重装",
        "docid": "7356797157074010639",
        "url": ""
    },
    {
        "title": "你看英国人维修铁管漏水，不用电焊不用停水，方法太高明了！",
        "docid": "7335394099362693666",
        "url": ""
    },
    {
        "title": "越来越多人不建议瓷砖通铺了？我家也跟风，入住2年发现缺点很多",
        "docid": "7343500031519113780",
        "url": ""
    },
    {
        "title": "当入住后新鲜劲一过，我不得不承认，原来这些地方我都装错了！",
        "docid": "7364013880802132518",
        "url": ""
    },
    {
        "title": "哈哈哈男孩子太逗了吧笑笑笑",
        "docid": "7348234479569371682",
        "url": ""
    },
    {
        "title": "计划用600块把阳台改造成理想的样子，手残党也能学会的改造教程",
        "docid": "7365500412633448969",
        "url": ""
    },
    {
        "title": "为何越来越多人厨房不装水槽了？现在流行这么做，美观实用不占地",
        "docid": "7337635597525844507",
        "url": ""
    },
    {
        "title": "好端端的马桶竟被美女特意这样一番大改造，没想到成品却惊艳众人",
        "docid": "7336159214857159179",
        "url": ""
    },
    {
        "title": "全屋通铺地砖的优点和缺点，不建议全屋通铺，两年后会后悔的。",
        "docid": "7345252610808594971",
        "url": ""
    },
    {
        "title": "装修最不值得花钱的13个地方，不要什么都买贵的，把钱花在刀刃上",
        "docid": "7353570526415045120",
        "url": ""
    },
    {
        "title": "日子过久了才发现，家里越用越爽的设计是这9个，缺一个都超可惜",
        "docid": "7337523821181698600",
        "url": ""
    },
    {
        "title": "解清帅房子装修基本完工，恢宏壮观，室内宽敞明亮，别具一格。",
        "docid": "7363886049187136050",
        "url": ""
    },
    {
        "title": "我妈真是神了！不花一分钱，就把这些烦人的“家务痛点”解决了",
        "docid": "7366561758602871348",
        "url": ""
    },
    {
        "title": "Less is more｜以少胜多，以简胜繁",
        "docid": "7366561359619981860",
        "url": ""
    },
    {
        "title": "你看美国人是怎么换水龙头的，太先进了，保证用30年也不会漏水",
        "docid": "7363690441654731327",
        "url": ""
    },
    {
        "title": "老楼加装电梯如何让一楼受益，完美设计平层入户，大爷的方案绝了",
        "docid": "7344731664075260479",
        "url": ""
    },
    {
        "title": "20款复式楼梯装修",
        "docid": "7350353624586781224",
        "url": ""
    },
    {
        "title": "雪宝板材儿童健康板：守护儿童，健康至上",
        "docid": "7366443517533733410",
        "url": ""
    },
    {
        "title": "这5个“破烂”，下次装修打死我都不用了，妥妥的花钱添堵",
        "docid": "7357972641136902694",
        "url": ""
    },
    {
        "title": "3万7装修一套130平方的房子，业主：没想到居然干这么没良心的活",
        "docid": "7366548871134069274",
        "url": ""
    },
    {
        "title": "土豪用5万枚硬币铺地板，如今十多年过去了，地板变成怎样了？",
        "docid": "7341003832446747145",
        "url": ""
    },
    {
        "title": "我花700做了一个8000多的多功能跨床桌，简直太香了 ..",
        "docid": "7364729180707422760",
        "url": ""
    },
    {
        "title": "没点实力真不敢睡！业主硬核装修用瓷砖砌床完工：家具都省了？",
        "docid": "7351318322573083146",
        "url": ""
    },
    {
        "title": "我把木地板换回“石塑地板”！心里话不吐不快，别再跟风了",
        "docid": "7342843804078408227",
        "url": ""
    },
    {
        "title": "刷乳胶漆前，一定要和油工沟通好15件事！",
        "docid": "7345038503463436834",
        "url": ""
    },
    {
        "title": "“断舍离”女孩火上央视，88㎡的家6件家具，常年坚持“不消费”",
        "docid": "7343541908507623977",
        "url": ""
    },
    {
        "title": "这6个“破烂”，下次装修打死我都不用了！个个是中国家庭的通病",
        "docid": "7347256228935959055",
        "url": ""
    },
    {
        "title": "买两间水泥房送到了，吊车得用五十吨的才行，安装好一看还真不错",
        "docid": "7342832349454795301",
        "url": ""
    },
    {
        "title": "镶地砖开头放线过程，方法简单实用，初学者可以借鉴一下。",
        "docid": "7340282122739352101",
        "url": ""
    },
    {
        "title": "小夫妻花800万买下栋废弃工厂，花时间改造成住宅，太震撼奢华了",
        "docid": "7354686916224745994",
        "url": ""
    },
    {
        "title": "为什么我买地漏的时候没刷到这篇？",
        "docid": "7348704199472923188",
        "url": ""
    },
    {
        "title": "真石漆、水包水、水包砂三种涂料的施工及清包工价格，超详细",
        "docid": "7351636684120932879",
        "url": ""
    },
    {
        "title": "山东发现一户人家，因家里太干净而走红，拍照给大伙瞅瞅，太羡慕",
        "docid": "7336239321936118272",
        "url": ""
    },
    {
        "title": "浙江发现一户人家的装修，那叫一个高级耐看，拍照给大伙瞅瞅",
        "docid": "7337947678610833929",
        "url": ""
    },
    {
        "title": "二手市场收获一个旧沙发，用刀子划开后尴尬了，里面丢弃私人物品",
        "docid": "7352118321858544137",
        "url": ""
    },
    {
        "title": "3分钟记录了我跟老公花了一年时间的自装全过程。",
        "docid": "7351816865326301706",
        "url": ""
    },
    {
        "title": "从未见过这样修建房子地基，只见师傅往地面插入大量竹子",
        "docid": "7335002301859693075",
        "url": ""
    },
    {
        "title": "俗话说：“无论家里有钱没钱，茶几上不要放四样”，多人已经吃亏",
        "docid": "7336591646424990223",
        "url": ""
    },
    {
        "title": "越来越多人地面不铺瓷砖、地板！现在流行装这种，实用更美观",
        "docid": "7340604026046218802",
        "url": ""
    },
    {
        "title": "一个人的29㎡，一点也不压抑！",
        "docid": "7352819209795519016",
        "url": ""
    },
    {
        "title": "上海一对夫妻为孩子买下40㎡蜗居，教科书式改造，三代人住也不挤",
        "docid": "7355380095567086095",
        "url": ""
    },
    {
        "title": "楼上漏水到楼下，楼上拒不处理，楼下可以这样维修",
        "docid": "7359877857185399323",
        "url": ""
    },
    {
        "title": "商场卖5k的实木双人床，花200买木料自己造，质量甚至更胜一筹",
        "docid": "7337565565525230130",
        "url": ""
    },
    {
        "title": "想不到竟有如此独特的别墅护栏砌砖造型方式，这手艺真是太牛了！",
        "docid": "7336970540869124647",
        "url": ""
    },
    {
        "title": "过来人的装修经验之谈！",
        "docid": "7337221345253671439",
        "url": ""
    },
    {
        "title": "终于有人把“装修避坑指南”总结出来了",
        "docid": "7340665478966673960",
        "url": ""
    },
    {
        "title": "曾“红极一时”的金刚网纱窗，为何逐渐被淘汰？过来人道出原因！",
        "docid": "7356896140631015986",
        "url": ""
    },
    {
        "title": "美女野外用树根制作茶桌，看完后作品惊艳众人",
        "docid": "7336847289712116276",
        "url": ""
    },
    {
        "title": "老楼加装电梯，完美设计平层入户，高层用户后悔了费用高到吓人？",
        "docid": "7343979128133321235",
        "url": ""
    },
    {
        "title": "东北农村，装修特殊好的大砖房，花了六七万，装成啥样，带你看看",
        "docid": "7340475590576865855",
        "url": ""
    },
    {
        "title": "新房美缝一年后才知道的事儿，5位过来人的真实反馈，全是大实话",
        "docid": "7337619167816024610",
        "url": ""
    },
    {
        "title": "德州市生产的座椅电梯3：多种方式控制上下楼，使用方便",
        "docid": "7355830340826759730",
        "url": ""
    },
    {
        "title": "住了2年终于明白，地暖和暖气片哪个更好！很多人都不知道",
        "docid": "7342774411751506458",
        "url": ""
    },
    {
        "title": "河北一女主晒65㎡小家，全屋收拾的那叫一个干净，一般人真做不到",
        "docid": "7354672829482172937",
        "url": ""
    },
    {
        "title": "女子“晒”自家装修，这装修让人哭笑不得，网友：别发出来气我们",
        "docid": "7346059830228058651",
        "url": ""
    },
    {
        "title": "干了十几年维修，居然不知道死口三通还能这样接，太厉害了！",
        "docid": "7357359953033560603",
        "url": ""
    },
    {
        "title": "做再多的柜子，都不如一个储物间实用！记住装修不要做太多的柜子",
        "docid": "7356146495143281188",
        "url": ""
    },
    {
        "title": "新房入住6个月，最正确的决定就是厨房做高低台，做饭洗碗超舒服",
        "docid": "7347865521318003234",
        "url": ""
    },
    {
        "title": "推拉窗安全系数最低 高层住宅应避免使用",
        "docid": "7360088081950589467",
        "url": ""
    },
    {
        "title": "装修中的那些事儿！防止踩雷",
        "docid": "7337668142913569315",
        "url": ""
    },
    {
        "title": "一个村子里有7款漂亮小洋房，大家快来看看，哪款最好看？",
        "docid": "7343219125740012069",
        "url": ""
    },
    {
        "title": "当初不顾家人反对把新房装成了出租屋风，现在哭都来不及",
        "docid": "7349037062009389580",
        "url": ""
    },
    {
        "title": "Home walk 一镜到底云参观我的极繁复古家！#家的样子 #软装搭配",
        "docid": "7339132448087507496",
        "url": ""
    },
    {
        "title": "终于完工啦，不过还没家具，全屋定制柜子真棒，特别满意啊",
        "docid": "7355870291496534540",
        "url": ""
    },
    {
        "title": "床垫怎么选？记住这9点，包你选好床垫",
        "docid": "7357971387664859685",
        "url": ""
    },
    {
        "title": "水电改造一定要预留的20个插座！",
        "docid": "7363693270948151858",
        "url": ""
    },
    {
        "title": "网络改造！如何实现隐藏式全屋有线覆盖？光纤如何走线？",
        "docid": "7365019644400239154",
        "url": ""
    },
    {
        "title": "什么才是去客厅化。#别墅设计 #大平层设计 #客厅设计 #茶室设计",
        "docid": "7339475675453227574",
        "url": ""
    },
    {
        "title": "这就是我历时八个月，花费30万装修的家#现代轻奢 #一镜到底",
        "docid": "7343516034017690162",
        "url": ""
    },
    {
        "title": "牛人不用六通的情况下，竟能这样将错综复杂的水管对接到滴水不漏",
        "docid": "7347683362443952666",
        "url": ""
    },
    {
        "title": "LOFT公寓",
        "docid": "7366562421206417957",
        "url": ""
    },
    {
        "title": "装修十装十不装",
        "docid": "7337617759654199862",
        "url": ""
    }
]