[
    {
        "title": "办公室桌子放置的最佳位置是什么",
        "docid": "7331901249346732607",
        "url": ""
    },
    {
        "title": "陈年堵头锈死了拆掉方法如何找，小小锉刀亮亮相效果出奇嘎嘎好",
        "docid": "7311224628579172914",
        "url": "https://www.ixigua.com/7311224628579172914"
    },
    {
        "title": "寻访民间手艺人：瞎掰凳 瞎掰凳也叫鲁班枕，",
        "docid": "7333896264893301258",
        "url": "https://www.ixigua.com/7333896264893301258"
    },
    {
        "title": "小两口花光积蓄惠州买房，花4万定全屋定制，看见新房反应太真实",
        "docid": "7326837649308811828",
        "url": "https://www.ixigua.com/7326837649308811828"
    },
    {
        "title": "陪封哥买瓷砖下集，封哥要花小钱办大事，老板娘比我俩还能忽悠",
        "docid": "7308976281406669362",
        "url": "https://www.ixigua.com/7308976281406669362"
    },
    {
        "title": "德国水工修墙里的暖气管，真是专业，这技术得值多少钱啊",
        "docid": "7324528257460765194",
        "url": "https://www.ixigua.com/7324528257460765194"
    },
    {
        "title": "家里只有两三度不开空调待不住，师傅出马扮侦探抓捕凶手猜猜看",
        "docid": "7320503509370012186",
        "url": "https://www.ixigua.com/7320503509370012186"
    },
    {
        "title": "下水管弯头破个洞，假水工用自行车内胎给补住了，不知道会不会漏",
        "docid": "7317621177806455331",
        "url": "https://www.ixigua.com/7317621177806455331"
    },
    {
        "title": "开荒保洁11个小妙招，跟老爸学会自己做，又省一大笔#装修避坑",
        "docid": "7309031432205107766",
        "url": "https://www.ixigua.com/7309031432205107766"
    },
    {
        "title": "夫妻俩竟然将啤酒瓶打造成结实又美观的家具，而且创意十足！",
        "docid": "7312773618243469851",
        "url": "https://www.ixigua.com/7312773618243469851"
    },
    {
        "title": "德国人安装马桶，不用打胶，永远不会反臭味，这技术也太先进了！",
        "docid": "7321298304526975527",
        "url": "https://www.ixigua.com/7321298304526975527"
    },
    {
        "title": "美国别墅的水管都是铜管，不单是为了高贵，维修起来也是非常方便",
        "docid": "7326490900392215092",
        "url": "https://www.ixigua.com/7326490900392215092"
    },
    {
        "title": "下水管断在墙里，工资1万元的老水工是这样接的，不砸墙轻松接好",
        "docid": "7306520826608779776",
        "url": "https://www.ixigua.com/7306520826608779776"
    },
    {
        "title": "北京华尔道夫总统套房",
        "docid": "7333109756158263827",
        "url": ""
    },
    {
        "title": "干挂式护墙板上墙，不需要木板打底 毛胚房直接上去安装",
        "docid": "7333498306343273012",
        "url": "https://www.ixigua.com/7333498306343273012"
    },
    {
        "title": "小哥干了20年木匠，独自设计打造中式木床，这手艺能出师了吗？",
        "docid": "7322024917300740608",
        "url": "https://www.ixigua.com/7322024917300740608"
    },
    {
        "title": "马桶排污管移位一米多，口径变小法兰形似摇摇车，老铁们如何应对",
        "docid": "7306725708230099495",
        "url": "https://www.ixigua.com/7306725708230099495"
    },
    {
        "title": "热熔PP水管焊接前还要剥皮？看懂的都是老师傅",
        "docid": "7330635610015269402",
        "url": "https://www.ixigua.com/7330635610015269402"
    },
    {
        "title": "邻居做饭家里就有异味，这次可算找到毛病了，都是装修遗漏的问题",
        "docid": "7330829690435240500",
        "url": "https://www.ixigua.com/7330829690435240500"
    },
    {
        "title": "墙里水管内牙破裂漏水，师傅教你一招，不用砸墙轻松搞定",
        "docid": "7314673410347860516",
        "url": "https://www.ixigua.com/7314673410347860516"
    },
    {
        "title": "地板砖下水管三通漏水，业主花1000元维修，被我10分钟搞定",
        "docid": "7333636897740980748",
        "url": "https://www.ixigua.com/7333636897740980748"
    },
    {
        "title": "小姑子毕业两年在市里买房，全屋装修真漂亮，村花看着都羡慕",
        "docid": "7323607497565012516",
        "url": "https://www.ixigua.com/7323607497565012516"
    },
    {
        "title": "二拉拉带我看房子，装修大气和我想的一样，有说有笑幸福满满",
        "docid": "7310538135342383657",
        "url": "https://www.ixigua.com/7310538135342383657"
    },
    {
        "title": "老房子贴砖造价的花费大家觉得如何？农村小院越来越舒服了",
        "docid": "7311630757678547456",
        "url": "https://www.ixigua.com/7311630757678547456"
    },
    {
        "title": "买的美式家具送来了，127平的新家大变样，老公居然有点后悔了",
        "docid": "7327578812185575951",
        "url": "https://www.ixigua.com/7327578812185575951"
    },
    {
        "title": "PPR管死角热熔教程",
        "docid": "7306822142862033442",
        "url": "https://www.ixigua.com/7306822142862033442"
    },
    {
        "title": "老公脑子好使，设计的窗帘独一份，装修的坑被他完美的避开了",
        "docid": "7330084746254844425",
        "url": "https://www.ixigua.com/7330084746254844425"
    },
    {
        "title": "朋友们这些家电真不用买贵的#干货分享 #避坑指南 #家电 #装修",
        "docid": "7333174756071440931",
        "url": "https://www.ixigua.com/7333174756071440931"
    },
    {
        "title": "实木板是怎么加工出来的来看看国外的加工水平",
        "docid": "7306502912346325554",
        "url": "https://www.ixigua.com/7306502912346325554"
    },
    {
        "title": "新房买家具，媳妇挑选实木沙发，刚安装好就后悔了",
        "docid": "7307537572199301671",
        "url": "https://www.ixigua.com/7307537572199301671"
    },
    {
        "title": "干一票大的，爆改三栋楼，预算高达9位数！",
        "docid": "7314245779525370418",
        "url": "https://www.ixigua.com/7314245779525370418"
    },
    {
        "title": "大叔仅用一些烂木头就制作出了一款创意十足的茶几，真是太厉害了",
        "docid": "7317657259478745611",
        "url": "https://www.ixigua.com/7317657259478745611"
    },
    {
        "title": "水泥工师傅们继续给房子批墙，有点期待全部批完后的整体效果了",
        "docid": "7308670218035954226",
        "url": "https://www.ixigua.com/7308670218035954226"
    },
    {
        "title": "不管你装修费用多紧张，这4样东西要考虑品牌的",
        "docid": "7309060584945746451",
        "url": "https://www.ixigua.com/7309060584945746451"
    },
    {
        "title": "低价改造老破小，持续进行中～",
        "docid": "7314256155373470259",
        "url": "https://www.ixigua.com/7314256155373470259"
    },
    {
        "title": "北京的新家开始软装啦，订的美式实木床到了，网购的床垫也很惊喜",
        "docid": "7303842910397694498",
        "url": "https://www.ixigua.com/7303842910397694498"
    },
    {
        "title": "美国人带3公斤的水压，在铜管上安装阀门，真的让我大开眼界！",
        "docid": "7303552078276723240",
        "url": "https://www.ixigua.com/7303552078276723240"
    },
    {
        "title": "二娃进城选橱柜，看了一整套木质柜，小妹一听价格就怂了还得再看",
        "docid": "7320910446297350695",
        "url": "https://www.ixigua.com/7320910446297350695"
    },
    {
        "title": "日本旧房幸亏前房主的这设计，才不挨冻，几天不打理院子不像样了",
        "docid": "7325747676983755300",
        "url": "https://www.ixigua.com/7325747676983755300"
    },
    {
        "title": "装修真是个无底洞，新房大门安装花了1万多，老公激动的想入伙了",
        "docid": "7322384840387625472",
        "url": "https://www.ixigua.com/7322384840387625472"
    },
    {
        "title": "告别几年出租屋生活，添新家具必需品，给宝宝一个温暖的家。",
        "docid": "7323195062920315426",
        "url": "https://www.ixigua.com/7323195062920315426"
    },
    {
        "title": "马桶移位，未切爆水管看似幸运，实则是细节所致，成功自来",
        "docid": "7303464675516580393",
        "url": "https://www.ixigua.com/7303464675516580393"
    },
    {
        "title": "北京的新家装修好了，请了专业擦玻璃的，其余地方自己做开荒保洁",
        "docid": "7303497819477049871",
        "url": "https://www.ixigua.com/7303497819477049871"
    },
    {
        "title": "历时三个月，我的老破小终于改造完成啦",
        "docid": "7308673361935073829",
        "url": "https://www.ixigua.com/7308673361935073829"
    },
    {
        "title": "蜡台的精致工艺：历史的见证🔥",
        "docid": "7333838542285570600",
        "url": "https://www.ixigua.com/7333838542285570600"
    },
    {
        "title": "小张340万北京买房，拆开阳台要哭了，豆腐渣工程？该怎么装修？",
        "docid": "7303561113289884175",
        "url": "https://www.ixigua.com/7303561113289884175"
    },
    {
        "title": "旧房改造vlog|花小钱办“大事”",
        "docid": "7311616700553396763",
        "url": "https://www.ixigua.com/7311616700553396763"
    },
    {
        "title": "未来的家具，会逐渐脱离本身的定义，以自由舒适作为最高要义。",
        "docid": "7333957410509455922",
        "url": "https://www.ixigua.com/7333957410509455922"
    },
    {
        "title": "灯光案例｜惊艳你的透光大理石幻彩灯光诞生全过程",
        "docid": "7333847838167826984",
        "url": "https://www.ixigua.com/7333847838167826984"
    },
    {
        "title": "搬了新家慢慢收拾，儿子买了新窗帘，老母亲看中了：这款式好看！",
        "docid": "7316761720444322338",
        "url": "https://www.ixigua.com/7316761720444322338"
    },
    {
        "title": "泡沫板代替水泥板！老外建房打地基神操作，房子能住吗？",
        "docid": "7302724653221577216",
        "url": "https://www.ixigua.com/7302724653221577216"
    },
    {
        "title": "AVAD范可萨设计 | 保亿观雲昆月城·与山共舞，与野为伴",
        "docid": "7332135750324224524",
        "url": ""
    },
    {
        "title": "都说1.5米床好，为何多数人却用1.8米？我用了10年来说说真实感受",
        "docid": "7322662237452206592",
        "url": ""
    },
    {
        "title": "1.8米的床为什么不香了？从深受追捧到无人问津，4个缺点太明显",
        "docid": "7308260413769187874",
        "url": ""
    },
    {
        "title": "建议大家：咬咬牙在客厅添置这3个好物，提升生活品质",
        "docid": "7311976802384593460",
        "url": ""
    },
    {
        "title": "她把阳台装成这样，朋友来了都不想待客厅了。",
        "docid": "7331587233008812584",
        "url": ""
    },
    {
        "title": "为啥马桶有一大一小两个按钮？我也今天才清楚，切记之后别瞎按了",
        "docid": "7332058660413260329",
        "url": ""
    },
    {
        "title": "这是我见过最漂亮的家，太美了。给大家分享看看",
        "docid": "7323305395122930230",
        "url": ""
    },
    {
        "title": "6个“跌下神坛”的厨房产物，虽红极一时，被时代淘汰终究躲不过",
        "docid": "7324190655159943680",
        "url": ""
    },
    {
        "title": "越来越多的人卫生间不装洗手台，而是装在马桶上，真的太实用了！",
        "docid": "7325749270991290921",
        "url": ""
    },
    {
        "title": "等我换房，阳台再也不晒衣服了，学别人这样设计，太聪明了",
        "docid": "7324520455434961443",
        "url": ""
    },
    {
        "title": "都说日本的卫生间牛，看完这个卫生间，才知道什么叫做牛！",
        "docid": "7332378720009437731",
        "url": ""
    },
    {
        "title": "看了日本人的衣柜，才发现我家的衣柜设计并不合理，值得借鉴！",
        "docid": "7316348603294089762",
        "url": ""
    },
    {
        "title": "“惨绝人寰”花30万，新房装成“公共厕所”，气得把木工告上法庭",
        "docid": "7313596452658266664",
        "url": ""
    },
    {
        "title": "我把1.8米大床换成1.5米床后，有些话不吐不快，太真实了",
        "docid": "7323879735564616243",
        "url": ""
    },
    {
        "title": "头一次见日本卫生间设计，真是太聪明了，看完想回家学着这样装",
        "docid": "7314604459957469747",
        "url": ""
    },
    {
        "title": "这是我见过最满意的家：光一个客厅就让无数人效仿，太温馨耐看了",
        "docid": "7301983540244414976",
        "url": ""
    },
    {
        "title": "苏州母女的107㎡两居，堪比18世纪艺术公寓！每一平都惊艳眼球！",
        "docid": "7315309986438070825",
        "url": ""
    },
    {
        "title": "中国式卫生间，最该断舍离的10个设计",
        "docid": "7314942711424434728",
        "url": ""
    },
    {
        "title": "这是我见过最精致的新家：光一个卧室就圈粉无数，给大家瞅瞅",
        "docid": "7315424138678551079",
        "url": ""
    },
    {
        "title": "人家这才叫洗漱台，你家只能算洗脸盆！",
        "docid": "7316471858802016802",
        "url": ""
    },
    {
        "title": "越来越多人卧室不买大床了，年轻人都爱这样设计，好看又实用",
        "docid": "7308766957677871651",
        "url": ""
    },
    {
        "title": "新房入住后，最满意的16个设计!",
        "docid": "7308519002882540084",
        "url": ""
    },
    {
        "title": "这是我见过最满意的家：美女晒出109㎡新房，装修堪称教科书",
        "docid": "7308629107363873320",
        "url": ""
    },
    {
        "title": "越来越多人装暖气片！划算吗？把地暖改成暖气片后，说说我的感受",
        "docid": "7306402767294579241",
        "url": ""
    },
    {
        "title": "装修可以接地气，但不能接地府啊，有些房子，装着装着就不想要了",
        "docid": "7314268220087714345",
        "url": ""
    },
    {
        "title": "主卧别再死磕衣帽间了！学学浙江网友的做法，那叫一个实用",
        "docid": "7317572522160226866",
        "url": ""
    },
    {
        "title": "当初不顾反对，执意将橱柜台面换成“不锈钢”！用半年后，不后悔",
        "docid": "7311542080064487975",
        "url": ""
    },
    {
        "title": "都说明装暖气片不好，为啥现在这么火？体验后发现，它真的很爽",
        "docid": "7304559576648122931",
        "url": ""
    },
    {
        "title": "救命！！老祖宗的审美真的美到窒息！大胆用色的中式风格家居yyds",
        "docid": "7311895597085164082",
        "url": ""
    },
    {
        "title": "为何我不建议你刷乳胶漆？过来人表示：4大缺点，很难忍受",
        "docid": "7307417405297574400",
        "url": ""
    },
    {
        "title": "安徽夫妇晒出129㎡新家：全屋没看到一点俗气，堪称装修教科书啊",
        "docid": "7310528751392489984",
        "url": ""
    },
    {
        "title": "邻居第一次来我家直呼：这是收纳狂魔吧？家里也太干净了！",
        "docid": "7325392481162461731",
        "url": ""
    },
    {
        "title": "越来越多人放弃地暖，选择发热瓷砖！为何？6个优势，很难拒绝",
        "docid": "7304081131312972315",
        "url": ""
    },
    {
        "title": "如果我家长这样，我能住到天荒地老！",
        "docid": "7328034039305208347",
        "url": ""
    },
    {
        "title": "越来越多人“电线”不埋地里了！现在流行都这样装，省钱又实用",
        "docid": "7323140421700321804",
        "url": ""
    },
    {
        "title": "为何许多人不刮腻子，选择做竹木纤维板，这5个优点难以拒绝",
        "docid": "7311140975236137524",
        "url": ""
    },
    {
        "title": "这3种床为何突然没人买了？看完它们这些缺点，就一点不奇怪了",
        "docid": "7316851003888796196",
        "url": ""
    },
    {
        "title": "物管阻止“封阳台”，邻居的做法让人大开眼界，效果比封阳台更棒",
        "docid": "7302996958329733686",
        "url": ""
    },
    {
        "title": "家庭电路合集，看懂这些电路，所有的家庭电路接线都不怕",
        "docid": "7302797346092384783",
        "url": ""
    },
    {
        "title": "为什么说：“床靠两面墙，家中遭病殃”，床不能靠在哪两面墙上？",
        "docid": "7332703858856215092",
        "url": ""
    },
    {
        "title": "客厅可不只是用来看电视的，看看人家的客厅，进来都想拍拍照！",
        "docid": "7307616813146210826",
        "url": ""
    },
    {
        "title": "越来越多人阳台不装“大玻璃窗”！头次见到这么设计，太聪明了",
        "docid": "7329327847405879808",
        "url": ""
    },
    {
        "title": "农村曾火爆一时的“水磨石”，寿命长达40年，为何现在很少人用？",
        "docid": "7310072715024663040",
        "url": ""
    },
    {
        "title": "用了不到一年，果断把“岩板餐桌”换回了实木餐桌，感受太真实了",
        "docid": "7324898155814715941",
        "url": ""
    },
    {
        "title": "越来越多人衣柜不做顶柜了！建议学浙江人的做法，10年也不过时",
        "docid": "7313114402457551414",
        "url": ""
    },
    {
        "title": "为何中国到处都是防盗窗？明明犯罪率高，国外却没有安装？",
        "docid": "7312389974337405503",
        "url": ""
    },
    {
        "title": "越来越多人不在门口放“地垫”！建议学学这户人家做法，干净耐用",
        "docid": "7327909160232763913",
        "url": ""
    },
    {
        "title": "这就是我花费5w打造出来的治愈系小花园呀",
        "docid": "7301724377920373300",
        "url": ""
    },
    {
        "title": "全屋胡桃色，还挺高级的！",
        "docid": "7322851562697802240",
        "url": ""
    },
    {
        "title": "等我有房了，阳台才不要晾衣杆，学学这样做！",
        "docid": "7311163496362934784",
        "url": ""
    },
    {
        "title": "不用怀疑，美式风格永远不会过时！",
        "docid": "7323572212509016627",
        "url": ""
    },
    {
        "title": "等到40岁，你也会爱上这个140㎡的房子！",
        "docid": "7330267518428938786",
        "url": ""
    },
    {
        "title": "“红极一时”的地暖为何“跌下神坛”？看完4个缺点，就不奇怪了",
        "docid": "7317849460409811508",
        "url": ""
    },
    {
        "title": "我的家别人肯定会说太暗了，黑乎乎的，可是我真的喜欢啊！",
        "docid": "7333194958033715746",
        "url": ""
    },
    {
        "title": "50张有设计感的入户门头设计",
        "docid": "7303715468739772978",
        "url": ""
    },
    {
        "title": "装修硬装就对了。2024硬装流程大合集",
        "docid": "7324514209138901567",
        "url": ""
    },
    {
        "title": "第二次装修，阳台绝对不装这9样东西！不是矫情，是费力不讨好！",
        "docid": "7324480027713176115",
        "url": ""
    },
    {
        "title": "下次装修，厨房再也不用推拉门了，学人家装口袋门，真的太聪明了",
        "docid": "7303878135669015091",
        "url": ""
    },
    {
        "title": "看完这个卫生间，真想回去重装了，太漂亮实用了，还干湿分离",
        "docid": "7320537730919449088",
        "url": ""
    },
    {
        "title": "安徽一夫妇的新家火了，全屋不吊顶，不走石膏线，简单耐看，晒晒",
        "docid": "7309649943252369959",
        "url": ""
    },
    {
        "title": "为何我不建议你贴墙布？过来人吐槽：这3个缺点，很难忍受",
        "docid": "7309381474648736290",
        "url": ""
    },
    {
        "title": "如果财务自由，我真的只想待在我这个115平的小家里！",
        "docid": "7328759810705588771",
        "url": ""
    },
    {
        "title": "后悔了！河南小夫妻主卧改错了被吐槽，网友：“有点尴尬！”",
        "docid": "7302930453328413222",
        "url": ""
    },
    {
        "title": "越来越多人不装断桥铝窗，建议学广西人做法，体验过才知道多实用",
        "docid": "7317050995467715087",
        "url": ""
    },
    {
        "title": "南方人不明白，北方暖气费一交好几千，为什么不开空调？",
        "docid": "7312783807231541786",
        "url": ""
    },
    {
        "title": "辽宁23岁姑娘，买下“没人要”的顶楼，25㎡客厅挑空两层，真服了",
        "docid": "7301682936104436274",
        "url": ""
    },
    {
        "title": "全屋定制“丑柜子”大盘点：这9种设计是公认的丑！你踩坑了吗？",
        "docid": "7300583650729493043",
        "url": ""
    },
    {
        "title": "不是“小厨宝”不够好，而是“电热水龙头”更具性价比，太真实了",
        "docid": "7315215858400395817",
        "url": ""
    },
    {
        "title": "30多岁小姐姐，因太会布置走红，靠一个餐厅圈粉无数，太高级！",
        "docid": "7301952641729659418",
        "url": ""
    },
    {
        "title": "曾红极一时的落地窗，已跌下神坛，现在都开始这样做，美观又实用",
        "docid": "7311527663671362099",
        "url": ""
    },
    {
        "title": "浙江夫妇拒绝过度装修，把137m²的家装得空无一物，太有品味了",
        "docid": "7329514646607020544",
        "url": ""
    },
    {
        "title": "江苏夫妇拒绝过度装修，把94m²的家布置的空无一物，太干净了",
        "docid": "7331620520644985355",
        "url": ""
    },
    {
        "title": "大圆桌不兴了，现在流行这么装，整洁美观，拍照给大家看看",
        "docid": "7280667858827280931",
        "url": ""
    },
    {
        "title": "辽宁夫妇拒绝过度装修，把120m²家装得堪称教科书级别，太高级了",
        "docid": "7317268827262599695",
        "url": ""
    },
    {
        "title": "装修千万别让父母掺和，评论区:妈妈呀！美式风格配了个大红窗帘",
        "docid": "7316901805391561251",
        "url": ""
    },
    {
        "title": "福建一位95后小姐姐，因拒绝父母过度参与装出来的家，太让人羡慕",
        "docid": "7301669283728687670",
        "url": ""
    },
    {
        "title": "在老公的坚持下，电视墙打满柜子，如今深感其明智之举",
        "docid": "7317191159490019851",
        "url": ""
    },
    {
        "title": "客厅别再死磕柔光砖了！入住半年后，我恨不得砸掉，太难了",
        "docid": "7322431504125690395",
        "url": ""
    },
    {
        "title": "当初装修有“多火”，如今就有“多丑”，都是源自“烂大街”设计",
        "docid": "7301215234529001995",
        "url": ""
    },
    {
        "title": "第2套房：全屋坚决不刷乳胶漆！学广东人的做法，美观实用还省钱",
        "docid": "7315702763432755723",
        "url": ""
    },
    {
        "title": "山东发现一户人家的装修，那叫一个高级耐看，拍照给大伙瞅瞅，",
        "docid": "7326862505493316131",
        "url": ""
    },
    {
        "title": "女子将24㎡车库改成家，一家4口入住没房贷没房租，晒格局羡慕了",
        "docid": "7328971929686229539",
        "url": ""
    },
    {
        "title": "门窗商家：有钱人系统窗，穷人装断桥铝！网友：谁给你的勇气？",
        "docid": "7310851140181213734",
        "url": ""
    },
    {
        "title": "越来越多人“冰箱不放厨房”？参观完他们家，才发现自己有多少蠢",
        "docid": "7331683937452081676",
        "url": ""
    },
    {
        "title": "电热水器为什么不香了？从盲目跟风到无人问津，这6大缺点太明显",
        "docid": "7327850252793446947",
        "url": ""
    },
    {
        "title": "早知道我也学邻居业主，不打柜，一根杆+拉帘代替存储，美观实用",
        "docid": "7303876363268768307",
        "url": ""
    },
    {
        "title": "上海一退休夫妻的家，处处透露着高级感，一进屋就不想离开，真美",
        "docid": "7315384485951488524",
        "url": ""
    },
    {
        "title": "装修7个月完工，全屋打扫干净很耐看，忍不住先给大家分享一下！",
        "docid": "7323572455317340707",
        "url": ""
    },
    {
        "title": "最重最硬的一种木材，硬如钢铁般，质感很棒",
        "docid": "7324567716613112360",
        "url": ""
    },
    {
        "title": "为何越来越多人厨房不装推拉门了？学广东人的做法，好看又显大！",
        "docid": "7314243565448593972",
        "url": ""
    },
    {
        "title": "这是我见过最理想的家：全屋只刷乳胶漆，不做造型，多久都不过时",
        "docid": "7303149464607703592",
        "url": ""
    },
    {
        "title": "家的样子：内心要有多幸福才能装出这么美好的屋子",
        "docid": "7311887128399708724",
        "url": ""
    },
    {
        "title": "河南一夫妻，拒绝过度装修，全屋那叫一个极简，这才是心动的感觉",
        "docid": "7301626386127929867",
        "url": ""
    },
    {
        "title": "这是我见过最理想的家，南北通透的户型，多久都不过时",
        "docid": "7321365193014493746",
        "url": ""
    },
    {
        "title": "重庆一49岁阿姨，全屋不吊顶，连石膏线都不要，简单耐看，真高级",
        "docid": "7303409301753119259",
        "url": ""
    },
    {
        "title": "新中式沙发一出，沙发落伍了，简约整洁省空间，太高级了",
        "docid": "7309718149061460480",
        "url": ""
    },
    {
        "title": "全屋通铺木地板，那叫一个高级",
        "docid": "7316570108242215424",
        "url": ""
    },
    {
        "title": "如果要重来，餐边柜一定要这样做",
        "docid": "7304990837279441427",
        "url": ""
    },
    {
        "title": "一张跨越45年的照片！网友：这不是我家吗？！",
        "docid": "7315968578736554535",
        "url": ""
    },
    {
        "title": "这才叫卧室，你那最多算个窝！",
        "docid": "7331310066970542631",
        "url": ""
    },
    {
        "title": "不顾全家反对，坚持选择全铝衣柜，使用2年，只能说真香",
        "docid": "7315353315611558426",
        "url": ""
    },
    {
        "title": "老妈坚持这样设计，效果太完美了",
        "docid": "7315969465282298383",
        "url": ""
    },
    {
        "title": "条件允许的话，4种家电建议一步到位，不是烧包是后期更换太麻烦",
        "docid": "7314125798108103218",
        "url": ""
    },
    {
        "title": "不信你看，往往家里干净的，大多数都是这几类人，无一例外",
        "docid": "7330941544868282931",
        "url": ""
    },
    {
        "title": "为什么物业反对装前置过滤器？听过来人讲完才知道，危险在身边",
        "docid": "7308689247102501415",
        "url": ""
    },
    {
        "title": "5个“跌下神坛”的客厅产物，或许淡出中国家庭也只是时间问题",
        "docid": "7322067939438936586",
        "url": ""
    },
    {
        "title": "为何我不建议大家装灯暖浴霸？过来人表示这3个缺点，难以忍受",
        "docid": "7316794228393853474",
        "url": ""
    },
    {
        "title": "辽宁一退休阿姨的极简生活，全屋因干净而富有，处处透露着高级感",
        "docid": "7330897881849741824",
        "url": ""
    },
    {
        "title": "热水器地线能接墙里吗？十年老电工提醒：别拿生命开玩笑",
        "docid": "7301658980920328731",
        "url": ""
    },
    {
        "title": "阳台装修最大的“鬼话”：装落地大玻璃！用过才知道，缺点太多！",
        "docid": "7321903106885960226",
        "url": ""
    },
    {
        "title": "老公硬是把卫生间“二八”分，洗衣机挤进去！方便极了，晒晒",
        "docid": "7323166173343187496",
        "url": ""
    },
    {
        "title": "别听售货员“瞎说”，这5种“床”白给都不要，别再傻傻上当了！",
        "docid": "7313864933090574884",
        "url": ""
    },
    {
        "title": "建议大家：不管床多大，床底下不能放“这几样”，真的不是迷信",
        "docid": "7302414426593067539",
        "url": ""
    },
    {
        "title": "木工师傅说，怪不得年轻人都做这种衣柜",
        "docid": "7305698011823440384",
        "url": ""
    },
    {
        "title": "真是佩服！江苏大姐堆满杂物的家被吐槽眼花缭乱，网友：感觉窒息",
        "docid": "7313117678204437042",
        "url": ""
    },
    {
        "title": "江苏发现一80后夫妻的家，简单干净又高级，拍给大家瞅瞅，超羡慕",
        "docid": "7317455453372908070",
        "url": ""
    },
    {
        "title": "一位29岁石家庄姑娘，买下“没人要”的一楼老破小，客厅塞主卧里",
        "docid": "7303855562662396456",
        "url": ""
    },
    {
        "title": "​假如我家能重装，一定不装这25样东西！",
        "docid": "7314175221933343284",
        "url": ""
    },
    {
        "title": "入住后才明白，这4件家具没必要买太大，“小一号”更实用",
        "docid": "7302311912463663628",
        "url": ""
    },
    {
        "title": "这个有妈妈在的家，格外温馨幸福！",
        "docid": "7333394241982611968",
        "url": ""
    },
    {
        "title": "我们家卧室飘窗下面被人塞了两个空调外机，嗡嗡响该找谁说理去？",
        "docid": "7319767166885413385",
        "url": ""
    },
    {
        "title": "镇江夫妇拒绝过度装修，把143m²的家装的堪称教科书级别，太羡慕",
        "docid": "7311110869675426358",
        "url": ""
    },
    {
        "title": "我把中央空调换回“壁挂机”后，有些大实话不吐不快，太真实了",
        "docid": "7319710267020050944",
        "url": ""
    },
    {
        "title": "江苏发现一户人家的装修，全屋布置的干净又实用，太有品味了",
        "docid": "7323536796762767907",
        "url": ""
    },
    {
        "title": "头一次见有人这样装“踢脚线”的！真的太聪明了，给大家晒晒",
        "docid": "7313109547047043603",
        "url": ""
    },
    {
        "title": "媳妇出个妙招，卧室不放床做个“地台”，完工真心实用！晒晒",
        "docid": "7313878176344687143",
        "url": ""
    },
    {
        "title": "曾经有多香，如今就有多糟心，入住2年，我果断拆掉了阳光房",
        "docid": "7303497313686061602",
        "url": ""
    },
    {
        "title": "别看我厨房小，我花的心思可不少！",
        "docid": "7322815665813946931",
        "url": ""
    },
    {
        "title": "装修中那些最满意的设计，你们家里有吗",
        "docid": "7321689430484419124",
        "url": ""
    },
    {
        "title": "为何越来越多人嫌弃瓷砖上墙了，过来人道出6个缺点，越看越糟心",
        "docid": "7307058072172626472",
        "url": ""
    },
    {
        "title": "卧室再也不打柜，实现衣柜无甲醛",
        "docid": "7301974615713284623",
        "url": ""
    },
    {
        "title": "用竹子代替钢筋，浇灌的混凝土到底有没有用？真的能住人吗？",
        "docid": "7317884903734460967",
        "url": ""
    },
    {
        "title": "为什么不建议做“全屋瓷砖”？我家用了2年，真想拆掉重装！",
        "docid": "7322773495925834276",
        "url": ""
    },
    {
        "title": "河北一户人家，因家里太干净而走红，全屋干净整洁，令人羡慕",
        "docid": "7316716159632605732",
        "url": ""
    },
    {
        "title": "谁家还铺木地板，早过气了，如今大家都用这种地板，美观还环保",
        "docid": "7301937618953372223",
        "url": ""
    },
    {
        "title": "越来越多的人选择在家里做水泥地面，真是太聪明了",
        "docid": "7316416553111618100",
        "url": ""
    },
    {
        "title": "若我家再装修，发誓坚持“9装9不装”，不为别的，就为省钱和实用",
        "docid": "7309403976674312758",
        "url": ""
    },
    {
        "title": "曾经被吹捧上天，如今却成了笑话的3大装修设计，你还敢乱装吗？",
        "docid": "7302357396263813695",
        "url": ""
    },
    {
        "title": "温州女孩远嫁泰国：住混搭风豪宅、用天价家具、光佣人就有6个！",
        "docid": "7305958985583034914",
        "url": ""
    },
    {
        "title": "为何如今，越来越多的人不愿买LED灯了呢？离不开以下这几种原因",
        "docid": "7303838704924246580",
        "url": ""
    },
    {
        "title": "地暖不热怎么办？好多人的放水方法是错的，多亏师傅好心提醒",
        "docid": "7308748930651603456",
        "url": ""
    },
    {
        "title": "装修真别一身反骨，若能重来一遍，我发誓这7处会听劝，都是泪啊",
        "docid": "7301678626813329970",
        "url": ""
    },
    {
        "title": "124平的房子，普通人装修真的拼尽全力！",
        "docid": "7316567137886175754",
        "url": ""
    },
    {
        "title": "水电最大的坑，就是听了师傅的鬼话，入住后才发现自己有多蠢",
        "docid": "7302770624408158731",
        "url": ""
    },
    {
        "title": "我家3米长的衣柜，真没木工什么事",
        "docid": "7317940083724943913",
        "url": ""
    },
    {
        "title": "装修别忘了这20个插座位置，漏一个都麻烦！",
        "docid": "7327964285265510912",
        "url": ""
    },
    {
        "title": "十年前的装修VS十年后的装修～",
        "docid": "7312467784393671205",
        "url": ""
    },
    {
        "title": "浙江一33岁太太，家里从不大扫除，却一尘不染，一进屋就不想离开",
        "docid": "7301624884747321868",
        "url": ""
    },
    {
        "title": "这是我见过最漂亮的家：光一个卧室就让无数人效仿，温馨又有品味",
        "docid": "7301619269668799011",
        "url": ""
    },
    {
        "title": "这抠抠搜搜装出的卧室真舒服！",
        "docid": "7316713136923509282",
        "url": ""
    },
    {
        "title": "阳台和客厅间的推拉门该不该拆？过来人的经验：别拆！太后悔了！",
        "docid": "7308680311775396389",
        "url": ""
    },
    {
        "title": "建议：常睡觉的房间，尽量别放这5样东西！并非迷信，都有所依据",
        "docid": "7300819411970851354",
        "url": ""
    },
    {
        "title": "森林有诗黄柏林2022-2023设计作品回顾",
        "docid": "7334240952292508212",
        "url": ""
    },
    {
        "title": "不管你多节俭，这8种床千万不要买，不是胡说，而是过来人的教训",
        "docid": "7320797090077262388",
        "url": ""
    },
    {
        "title": "换了3次床垫，我懂了：床垫一定要“7不选”，花上万元买来的教训",
        "docid": "7296030038250832435",
        "url": ""
    },
    {
        "title": "我听了师傅的话，做了四米满墙衣柜。",
        "docid": "7309406832530326055",
        "url": ""
    },
    {
        "title": "邻居不要的衣柜，我搬回家用了一年，放倒巧变榻榻米，省了大几千",
        "docid": "7318258464768426548",
        "url": ""
    },
    {
        "title": "5㎡的厨房用出20㎡的效果，你家的厨房也可以办到！",
        "docid": "7307561097530606115",
        "url": ""
    },
    {
        "title": "马桶前配一个小板凳，可能会救命！让家人们用起来",
        "docid": "7333905176610685452",
        "url": ""
    },
    {
        "title": "四年前，被装修师傅用一颗长钉钉破了下水道主水管，从此噩梦开始",
        "docid": "7304192028328804916",
        "url": ""
    },
    {
        "title": "这是我见过最惊艳的家：花费9万装好115平米新房，堪称装修教科书",
        "docid": "7306759286531801640",
        "url": ""
    },
    {
        "title": "衣柜装成这样，装修师傅都说连夸好！",
        "docid": "7303834818452963880",
        "url": ""
    },
    {
        "title": "越来越多人不建议瓷砖通铺了？我家也跟风，入住2年发现缺点很多",
        "docid": "7320152689524982291",
        "url": ""
    },
    {
        "title": "阳台还能这样装？我家的阳台算是白瞎了!",
        "docid": "7319437055732466212",
        "url": ""
    },
    {
        "title": "美女拒绝“过度装修”，把142㎡新家装得很漂亮，堪称装修教科书",
        "docid": "7303092438711878178",
        "url": ""
    },
    {
        "title": "世界各地的家：美剧里的美式复古小屋",
        "docid": "7301517533318939188",
        "url": ""
    },
    {
        "title": "如果给自己家选床，我一定不选这10种床，都是睡过之后的真实感受",
        "docid": "7317852664467915299",
        "url": ""
    },
    {
        "title": "选床一定要记好这8句话，照着去买不踩坑！",
        "docid": "7327954063893611048",
        "url": ""
    },
    {
        "title": "被无数人吐槽的“蠢设计”，得知正确用法后：原来蠢的是我自己！",
        "docid": "7326871994333544995",
        "url": ""
    },
    {
        "title": "我家厨房装修最后悔的，就是买了5个“活祖宗”，用不上也用不起",
        "docid": "7317579556452499968",
        "url": ""
    },
    {
        "title": "很多家庭装修不会选射灯，内行人透露：看这8点，买对射灯太简单",
        "docid": "7317229908575470090",
        "url": ""
    },
    {
        "title": "为什么有钱人家里很少铺“瓷砖”？听泥工师傅说完，我恍然大悟",
        "docid": "7313853766196150820",
        "url": ""
    },
    {
        "title": "第2套房：水电线坚决不做横平竖直，学广东人的做法，省钱又实用",
        "docid": "7321618693727912500",
        "url": ""
    },
    {
        "title": "为何越来越多人装电地暖！体验过后，发现这7个优势很难拒绝",
        "docid": "7319336865046331944",
        "url": ""
    },
    {
        "title": "曲面屏、香槟金画框，外立面卷出颜值新高度｜龙年“卷卷”八天乐",
        "docid": "7334254495222006284",
        "url": ""
    },
    {
        "title": "千万别在灶台上放这“3样”东西，真不是迷信，都是经验和教训！",
        "docid": "7303455396323639817",
        "url": ""
    },
    {
        "title": "厨房炉灶要靠东墙还是靠西墙？听听专业师傅的分析，不再迷茫了",
        "docid": "7260376652104925750",
        "url": ""
    },
    {
        "title": "阳台只用来堆杂物晾衣服？看看人家的阳台太美了！",
        "docid": "7314619469245235762",
        "url": ""
    },
    {
        "title": "127平米，选择简单大气的现代简约风格，整体耐看干净",
        "docid": "7302592552086192692",
        "url": ""
    },
    {
        "title": "详解LOW-E玻璃",
        "docid": "7301085447835632165",
        "url": ""
    },
    {
        "title": "7个常见的“装修翻车案例”，都是网友的血泪史，一个比一个心塞",
        "docid": "7306007910264881700",
        "url": ""
    },
    {
        "title": "看完她家的厨房设计，我觉得自家厨房真是白装了！",
        "docid": "7312261987595977255",
        "url": ""
    },
    {
        "title": "硬装花费14万，邻居说喜欢，看着简单高级！",
        "docid": "7303810610733957666",
        "url": ""
    },
    {
        "title": "20款嵌入式冰箱柜实拍图",
        "docid": "7322741792032588288",
        "url": ""
    },
    {
        "title": "恕我直言，有些包工头不懂建房，现场施工简直是乱来",
        "docid": "7319415109770887716",
        "url": ""
    },
    {
        "title": "世界各地的家：家是治愈一切坏情绪的解药",
        "docid": "7302966377126642176",
        "url": ""
    },
    {
        "title": "入户鞋柜系列",
        "docid": "7306033364456014386",
        "url": ""
    },
    {
        "title": "我把“大玻璃落地窗”换成普通窗户后，有些话不吐不快，太真实了",
        "docid": "7317938136439636499",
        "url": ""
    },
    {
        "title": "8个迹象说明你家的是无效装修",
        "docid": "7320284664537711115",
        "url": ""
    },
    {
        "title": "门垫该放门外好还是门内好？听内行人说完，才发现我一直放错了！",
        "docid": "7332382670447510051",
        "url": ""
    },
    {
        "title": "前年还销售火爆的卧式冰柜为什么没人买了？看过这些原因就明白了",
        "docid": "7325311366762398208",
        "url": ""
    },
    {
        "title": "家的样子：生活气息是家的灵魂",
        "docid": "7307418411334631970",
        "url": ""
    },
    {
        "title": "家用2.5平方电线够用吗？听专业老师傅分析，避免踩坑、上当",
        "docid": "7320982709533245990",
        "url": ""
    },
    {
        "title": "第二次装修，我坚持了8个装修决定，入住3年，妙用无穷，太明智了",
        "docid": "7321619245832438335",
        "url": ""
    },
    {
        "title": "祸不单行！新房装完才10天，足足落下55条装修遗憾，想哭哭不出来",
        "docid": "7302364976109503039",
        "url": ""
    },
    {
        "title": "如何判断邻居家装了暖气循环泵？",
        "docid": "7303796873314271807",
        "url": ""
    },
    {
        "title": "20款卧室窗帘实拍图",
        "docid": "7321720329775727156",
        "url": ""
    },
    {
        "title": "关于楼板承重问题的讨论",
        "docid": "7323518326238790178",
        "url": ""
    },
    {
        "title": "真火壁炉的设计原理，很多自制壁炉都是以它作技术指导（附图）",
        "docid": "7301197984333595190",
        "url": ""
    },
    {
        "title": "戏剧性的买暖气片过程，越熟越坑，一个比一个坑，瞪大眼睛吧",
        "docid": "7323447036018442789",
        "url": ""
    },
    {
        "title": "家的样子：普通又觉得很美，因为有了生活的样子",
        "docid": "7322263628399395362",
        "url": ""
    },
    {
        "title": "教你一招防止断桥铝商家造假，确保装到家的跟买的一致，建议收藏",
        "docid": "7309104746509124132",
        "url": ""
    },
    {
        "title": "建议大家：厨房别再贴“瓷砖”了！聪明人都这样装，高级还耐脏",
        "docid": "7310142057262498319",
        "url": ""
    },
    {
        "title": "​10招让你家装出高级感，亲测有效！",
        "docid": "7314597966856569384",
        "url": ""
    },
    {
        "title": "聚脲好还是环氧彩砂好？我家两种都做了，才明白到底该选哪一种！",
        "docid": "7303907619469902347",
        "url": ""
    },
    {
        "title": "客厅别再乱装了！晒晒我家，客厅装小矮柜，立马多间“茶室”！",
        "docid": "7305957597100720675",
        "url": ""
    },
    {
        "title": "我从网购一套阳台藤椅所引发的思考",
        "docid": "7312248101015355940",
        "url": ""
    },
    {
        "title": "河北农村自建18×21米一层小院，前院宽敞可停车，后院隐蔽放杂物",
        "docid": "7302362116525588992",
        "url": ""
    },
    {
        "title": "循环泵应该安装在供水管还是回水管？位置不同供暖效果差很多",
        "docid": "7305290397134389795",
        "url": ""
    },
    {
        "title": "装修瓷砖施工看到工人做3件事，立刻让他走人，人品问题不给机会",
        "docid": "7302256251470086708",
        "url": ""
    },
    {
        "title": "系统窗也不省心，下雨就漏水，总也根除不了",
        "docid": "7318938471501201961",
        "url": ""
    },
    {
        "title": "装修一套房子需要多长时间，给你们仔细算算！",
        "docid": "7319795405028491810",
        "url": ""
    },
    {
        "title": "10款高级又极简的衣柜配色",
        "docid": "7307206102574432806",
        "url": ""
    },
    {
        "title": "45万装修的小窝是生活",
        "docid": "7304938127242887692",
        "url": ""
    },
    {
        "title": "厨房照着这么装，好用到飞起！惊艳整个小区！",
        "docid": "7317829347581706802",
        "url": ""
    },
    {
        "title": "第一次找装修公司，一定要问清楚25个问题",
        "docid": "7320540713853256227",
        "url": ""
    },
    {
        "title": "如何用石膏线装饰电视背景墙",
        "docid": "7332735827237487139",
        "url": ""
    },
    {
        "title": "即使居住8年的家，依旧窗明几净，干净整洁，这生活状态太牛了！",
        "docid": "7301323018566484480",
        "url": ""
    },
    {
        "title": "买房之后别急着装修！忽视这5点，还不如直接住“毛坯房”",
        "docid": "7333826618789773859",
        "url": ""
    },
    {
        "title": "如果重选一次瓷砖，我还要拒绝这10个选择，不是矫情，是被坑惨了",
        "docid": "7302358532899701259",
        "url": ""
    },
    {
        "title": "卫生间回填，一旦发现工人没这样做，立马返工！漏水就晚了！",
        "docid": "7313841762290811433",
        "url": ""
    },
    {
        "title": "瓷砖怎么选？装修买瓷砖，一定要掌握这6大选法，没有商家敢坑你",
        "docid": "7300907317988688420",
        "url": ""
    },
    {
        "title": "又捡着漏了！宜家便宜实用又美丽的小物件，太喜欢了",
        "docid": "7316804665776112182",
        "url": ""
    },
    {
        "title": "连拆四堵承重墙 业主肠子都悔青了……",
        "docid": "7327229664199000595",
        "url": ""
    },
    {
        "title": "邻居赚了大钱回村建造豪宅，师傅们打地基的气势，就让我开眼界了",
        "docid": "7327968538633699867",
        "url": "https://www.ixigua.com/7327968538633699867"
    },
    {
        "title": "花4万改造的阳光房花2万改造的正房，人工全自己、没有家具",
        "docid": "7302285017245057551",
        "url": "https://www.ixigua.com/7302285017245057551"
    },
    {
        "title": "你敢相信这是瓷砖? 750*1500柔光砖全房通铺，效果浑然一体",
        "docid": "7302774339651404315",
        "url": "https://www.ixigua.com/7302774339651404315"
    },
    {
        "title": "90后小伙裸辞回乡，花3万秘密翻新母亲的老宅，打算给她个惊喜",
        "docid": "7325682116346577434",
        "url": "https://www.ixigua.com/7325682116346577434"
    },
    {
        "title": "杨凌鼎拓装饰家装工装一站式配齐，欢迎新老客户进店咨询",
        "docid": "7334169263575400995",
        "url": "https://www.ixigua.com/7334169263575400995"
    },
    {
        "title": "#防静电地板#防静电地板多少钱一平方#宁夏哪里卖防静电地板#抗静",
        "docid": "7334159375520825890",
        "url": "https://www.ixigua.com/7334159375520825890"
    },
    {
        "title": "5个月改造废弃的老房子，将它变成梦想的样子，全村人都羡慕极了",
        "docid": "7329396755827851811",
        "url": "https://www.ixigua.com/7329396755827851811"
    },
    {
        "title": "坍塌土房爆改成窑洞别墅，村里人看笑了",
        "docid": "7303842946267382306",
        "url": "https://www.ixigua.com/7303842946267382306"
    },
    {
        "title": "【1818黄金眼】“芝华仕”俩月后松松垮垮  头等舱没心情再坐",
        "docid": "7323503407547810358",
        "url": "https://www.ixigua.com/7323503407547810358"
    },
    {
        "title": "同样都是在瓷砖上开线盒，德国技工和中国技工差别在哪里？涨见识",
        "docid": "7328032803273212425",
        "url": "https://www.ixigua.com/7328032803273212425"
    },
    {
        "title": "老房内丝弯头氧化一碰掉渣，平日术业有专攻，跨界维修显轻松",
        "docid": "7313398788042883596",
        "url": "https://www.ixigua.com/7313398788042883596"
    },
    {
        "title": "邻居说：同样的户型 你家为什么看着比我家大？#家的样子 #家居",
        "docid": "7323532528990880293",
        "url": "https://www.ixigua.com/7323532528990880293"
    },
    {
        "title": "新家落成庆典",
        "docid": "7334108530019926565",
        "url": "https://www.ixigua.com/7334108530019926565"
    },
    {
        "title": "有钱赖着不还的人",
        "docid": "7334266368399213096",
        "url": "https://www.ixigua.com/7334266368399213096"
    },
    {
        "title": "等我换房，卫生间再也不装洗手台了！学日本人这样设计，太有才了",
        "docid": "7326117354956882486",
        "url": "https://www.ixigua.com/7326117354956882486"
    },
    {
        "title": "300租下一间老破小，亲自动手将它改造翻修，房东收租时都傻眼了",
        "docid": "7326793796157932083",
        "url": "https://www.ixigua.com/7326793796157932083"
    },
    {
        "title": "我把主卫改成衣帽间后，有些话不得不说，肠子都悔青了！",
        "docid": "7313845802177135143",
        "url": "https://www.ixigua.com/7313845802177135143"
    },
    {
        "title": "已经5年了，入住后水表就一直转，不知道什么原因？",
        "docid": "7327511144594309641",
        "url": "https://www.ixigua.com/7327511144594309641"
    },
    {
        "title": "一口气看完：男人买下1820年的法国农舍，用2年改造成超大别墅！",
        "docid": "7324644273591648822",
        "url": "https://www.ixigua.com/7324644273591648822"
    },
    {
        "title": "这么独特的贴砖技术你们见过吗？太震撼了，#制作过程 #贴砖工艺",
        "docid": "7316540118775530036",
        "url": "https://www.ixigua.com/7316540118775530036"
    },
    {
        "title": "龙年的第一个买家秀，刺猬紫檀财源滚滚沙发加象头圆桌#刺猬紫檀",
        "docid": "7334171125016723977",
        "url": "https://www.ixigua.com/7334171125016723977"
    },
    {
        "title": "诺鑫木门",
        "docid": "7334179385928319503",
        "url": "https://www.ixigua.com/7334179385928319503"
    },
    {
        "title": "我家虽然不是豪宅，但是真的好宅#家的样子 #现代简约 #客厅",
        "docid": "7311623263816581673",
        "url": "https://www.ixigua.com/7311623263816581673"
    },
    {
        "title": "老公装修不让动飘窗，拼个架子变成床，金属衣柜亮眼网友直夸实用",
        "docid": "7304099143755301426",
        "url": "https://www.ixigua.com/7304099143755301426"
    },
    {
        "title": "酷妈为孩子打造有滑滑梯的家，170㎡秒变大型游乐场！ #装修",
        "docid": "7311538178140144138",
        "url": "https://www.ixigua.com/7311538178140144138"
    },
    {
        "title": "已经花了30万，房子也没盖好，后期还得多少钱才能住进去啊",
        "docid": "7326012929629749794",
        "url": "https://www.ixigua.com/7326012929629749794"
    },
    {
        "title": "这家业主太牛了，把阳台设计这么好，让人看了简直不可思议！",
        "docid": "7312385037503201846",
        "url": "https://www.ixigua.com/7312385037503201846"
    },
    {
        "title": "路边闲置的木头，被牛人化腐朽为神奇！一番鬼斧神工成品惊艳全场",
        "docid": "7303857077967913524",
        "url": "https://www.ixigua.com/7303857077967913524"
    },
    {
        "title": "卫生间还在做干湿分离就落伍了，这样做比邻居家两个卫生间都实用",
        "docid": "7333433507404612147",
        "url": "https://www.ixigua.com/7333433507404612147"
    },
    {
        "title": "五百元搞定自己家的两个卫生间吊顶",
        "docid": "7304682250426122791",
        "url": "https://www.ixigua.com/7304682250426122791"
    },
    {
        "title": "这样独特砌红砖技术你见过吗？真是高手在民间啊#手艺人",
        "docid": "7325530392969249320",
        "url": "https://www.ixigua.com/7325530392969249320"
    },
    {
        "title": "就门口这一点工程竟然花了一万多，夫妻俩生气吵架说早知道自己干",
        "docid": "7327635000650629669",
        "url": "https://www.ixigua.com/7327635000650629669"
    },
    {
        "title": "业主出500块熔接水管，前提是不打断钢筋，师傅只用5分钟就干完了",
        "docid": "7330238070299722276",
        "url": "https://www.ixigua.com/7330238070299722276"
    },
    {
        "title": "花200万买了一个联排别墅，带大家看看里面的格局，又当房奴了",
        "docid": "7333127893268529675",
        "url": "https://www.ixigua.com/7333127893268529675"
    },
    {
        "title": "33岁终于把自己喜欢的一切放进自己的房子里，不为悦人，只为悦己",
        "docid": "7311263455028183563",
        "url": "https://www.ixigua.com/7311263455028183563"
    },
    {
        "title": "大叔利用烧制的玻璃，制作出五彩斑斓的吊灯，手艺那是相当的高深",
        "docid": "7324666862544323112",
        "url": "https://www.ixigua.com/7324666862544323112"
    },
    {
        "title": "为什么钻瓷砖之前要贴上一层胶布？不买包好烟，师傅根本不会教你",
        "docid": "7327712679404143114",
        "url": "https://www.ixigua.com/7327712679404143114"
    },
    {
        "title": "爆改北京430平老宅！用时5个月花掉整整80万！没想到竟改造成这样",
        "docid": "7304266184231223820",
        "url": "https://www.ixigua.com/7304266184231223820"
    },
    {
        "title": "五合一浴霸安装流程，进场到结束米师傅个人分享，你学废了吗",
        "docid": "7311548067352674856",
        "url": "https://www.ixigua.com/7311548067352674856"
    },
    {
        "title": "下水管断在墙里怎么接弯头？500块钱的活被我5分钟干完了，太快了",
        "docid": "7312102845825122855",
        "url": "https://www.ixigua.com/7312102845825122855"
    },
    {
        "title": "两人住78平的房子，真的很舒服啊",
        "docid": "7334162571584537088",
        "url": ""
    },
    {
        "title": "装了3套房才懂得：这6样东西越大越好，千万别在尺寸上省钱！",
        "docid": "7301529535764890163",
        "url": "https://www.ixigua.com/7301529535764890163"
    },
    {
        "title": "从没见过如此独特的门头建造方式，不知道大家觉得怎么样？",
        "docid": "7329899246193377801",
        "url": "https://www.ixigua.com/7329899246193377801"
    },
    {
        "title": "上海发现一户人家厨房，布置真是脑洞大开，拍给大家看看，真先进",
        "docid": "7325850450484429353",
        "url": "https://www.ixigua.com/7325850450484429353"
    },
    {
        "title": "新房装修，要不要包窗口，有哪些优缺点？",
        "docid": "7332465692676981286",
        "url": "https://www.ixigua.com/7332465692676981286"
    },
    {
        "title": "水电工绝活，PPR水管死口加装三通，不用拆墙，轻松热熔，涨知识",
        "docid": "7306173326777385481",
        "url": "https://www.ixigua.com/7306173326777385481"
    },
    {
        "title": "惊人的设计理念，小伙低价收购实木托盘，改造后成品让人大开眼界",
        "docid": "7321961856955449894",
        "url": "https://www.ixigua.com/7321961856955449894"
    },
    {
        "title": "抠门！广东小姑娘晒自己新家，因太简陋被嘲笑，同事:不自量力！",
        "docid": "7334172754809438729",
        "url": ""
    },
    {
        "title": "卧室吊顶！木工施工制作全过程石膏板吊顶，只用了28分钟就做好了",
        "docid": "7309452260780868111",
        "url": "https://www.ixigua.com/7309452260780868111"
    },
    {
        "title": "温控阀门对地暖流量的影响，真的是成倍的影响，你看看你家有吗！",
        "docid": "7304585204151091727",
        "url": "https://www.ixigua.com/7304585204151091727"
    },
    {
        "title": "100万拿下1037平老宅！历经整整123天爆改！这变化简直是翻天覆地",
        "docid": "7309043461691277836",
        "url": "https://www.ixigua.com/7309043461691277836"
    },
    {
        "title": "地板瓷砖破了一块不用换新，学会这个方法，不花一分钱完好修复",
        "docid": "7328727163921367590",
        "url": "https://www.ixigua.com/7328727163921367590"
    },
    {
        "title": "假水工这样安装暖气，不管多大的水压也不会热，看看他是怎么装的",
        "docid": "7306498358478045711",
        "url": "https://www.ixigua.com/7306498358478045711"
    },
    {
        "title": "有想法的留言",
        "docid": "7334319546276741683",
        "url": "https://www.ixigua.com/7334319546276741683"
    },
    {
        "title": "新中式门楼安装现场，新中式门楼，配你家房子，你会喜欢吗？",
        "docid": "7306722092781666852",
        "url": "https://www.ixigua.com/7306722092781666852"
    },
    {
        "title": "石头如何当“黄金”卖？暗访广东云浮大理石市场！",
        "docid": "7322027682496152118",
        "url": "https://www.ixigua.com/7322027682496152118"
    },
    {
        "title": "费事费力没有几个腰疼费，手摇晾衣架是食之无味或弃之可惜？",
        "docid": "7323430970214842895",
        "url": "https://www.ixigua.com/7323430970214842895"
    },
    {
        "title": "学会这招让你不用切割管道的情况下，还能安装水龙头做到滴水不漏",
        "docid": "7321812061196190220",
        "url": "https://www.ixigua.com/7321812061196190220"
    },
    {
        "title": "2头都是死口怎么修水管，看完这个视频才知道，为什么他工资12000",
        "docid": "7311737134732280332",
        "url": "https://www.ixigua.com/7311737134732280332"
    },
    {
        "title": "自制钢铁客厅",
        "docid": "7323154199889084939",
        "url": "https://www.ixigua.com/7323154199889084939"
    }
]