[
    {
        "title": "卫生间局促无比，功能区零乱且有触电隐患，合理规划移位大战走起",
        "docid": "7326431908903322146",
        "url": ""
    },
    {
        "title": "广东湿，你害不害怕，我表示，挺好的😂😂😂#回南天 #入住毛坯房",
        "docid": "7330149228787958324",
        "url": ""
    },
    {
        "title": "上海小伙年前买的斗柜请安装师傅上门安装完成，效率很高相当满意",
        "docid": "7334162914925871668",
        "url": ""
    },
    {
        "title": "女人就没有家，二娃蹭饭蹭得不好意思了，今天自己做了红烧排骨",
        "docid": "7310153678663451176",
        "url": ""
    },
    {
        "title": "妹妹98平的房子装修花了15万，一家人过来参观，这姑娘真厉害",
        "docid": "7328338452737425983",
        "url": ""
    },
    {
        "title": "下水管弯头破个洞，假水工用自行车内胎给补住了，不知道会不会漏",
        "docid": "7317621177806455331",
        "url": ""
    },
    {
        "title": "深圳木工，现场樱桃实木电视柜制作",
        "docid": "7340276696807506447",
        "url": ""
    },
    {
        "title": "有需要装修水电的老板，请联系18897510926",
        "docid": "7340125686125986344",
        "url": ""
    },
    {
        "title": "小哥干了20年木匠，独自设计打造中式木床，这手艺能出师了吗？",
        "docid": "7322024917300740608",
        "url": ""
    },
    {
        "title": "今天小哥赚了七百多",
        "docid": "7340227328356090422",
        "url": ""
    },
    {
        "title": "工人们也要回家过年了，二娃把新房卫生打扫一遍，年后要做内装",
        "docid": "7331319370251305491",
        "url": ""
    },
    {
        "title": "大叔为了省钱竟然亲自为儿子打造结婚家具#高手在民间 #木工diy",
        "docid": "7320141371611251209",
        "url": ""
    },
    {
        "title": "想不到竟有如此独特的别墅护栏砌砖造型方式，这手艺真是太牛了！",
        "docid": "7336970540869124647",
        "url": ""
    },
    {
        "title": "膨胀螺丝孔大了松了如何补救？水电工师傅教你2个妙招，轻松解决",
        "docid": "7332052085653176870",
        "url": ""
    },
    {
        "title": "美学欣赏，美的陶醉",
        "docid": "7340293864877457955",
        "url": ""
    },
    {
        "title": "有了这个80㎡的胡桃奶油风小家，再也不用租房搬家了！",
        "docid": "7339881200615735835",
        "url": ""
    },
    {
        "title": "老房翻新打造学区房，凸显家庭对教育的重视，黛玮成为家人的希望",
        "docid": "7331904666311230004",
        "url": ""
    },
    {
        "title": "墙里水管内牙破裂漏水，师傅教你一招，不用砸墙轻松搞定",
        "docid": "7314673410347860516",
        "url": ""
    },
    {
        "title": "苏州越越一清早和老公去批发市场挑选车库里的墙砖地砖颜色花纹",
        "docid": "7337867623893303845",
        "url": ""
    },
    {
        "title": "拿到合约的那一刻好激动啊！近2000平方的花园餐厅即将开始施工",
        "docid": "7313001476501176870",
        "url": ""
    },
    {
        "title": "凤台县凤凰镇岗胡村贴中堂壁画",
        "docid": "7340278038451618330",
        "url": ""
    },
    {
        "title": "墙面开裂，这个方法非常有用，专业师傅告诉你",
        "docid": "7337150111451087370",
        "url": ""
    },
    {
        "title": "纯铜水管维修，美国水电工这般操作才叫专业",
        "docid": "7308004563129205257",
        "url": ""
    },
    {
        "title": "带媳妇回陕西老家过年，又添了几样新家具，把屋里布置一下很温馨",
        "docid": "7332075755642225179",
        "url": ""
    },
    {
        "title": "第3套房子：电线不要埋墙了！看看广州人的做法，真是聪明又实用",
        "docid": "7328035844013752872",
        "url": ""
    },
    {
        "title": "抄作业清单|如何借鉴刘雯历时三年装修新家的设计审美",
        "docid": "7340210551643243048",
        "url": ""
    },
    {
        "title": "巍巍家床沙发热水器全部装好，软装花费1万多了，期待年前入住",
        "docid": "7328770264181768719",
        "url": ""
    },
    {
        "title": "Vlog✨6个长期主义好物，提升做饭幸福感～ （第一次录",
        "docid": "7339455640978489883",
        "url": ""
    },
    {
        "title": "老房改造vlog|和我一起来干活吧",
        "docid": "7309423164839166473",
        "url": ""
    },
    {
        "title": "物业阻止“封阳台”，邻居的做法让人大开眼界，效果比封阳台还棒",
        "docid": "7319132980399178294",
        "url": ""
    },
    {
        "title": "马桶上盖正常，下盖落下无缓冲？一分钱不花修好",
        "docid": "7310859408341533218",
        "url": ""
    },
    {
        "title": "拿出珍藏的上等红木，祖传手艺打造家具送女儿，亲戚朋友羡慕不已",
        "docid": "7319424554324099596",
        "url": ""
    },
    {
        "title": "拆了它，温度就能上升三四度！#地暖不热 #温控阀拆除",
        "docid": "7321694288004907554",
        "url": ""
    },
    {
        "title": "欧文进城为隔断买大理石板，为新水罐买配件，生活不紧不慢。",
        "docid": "7339397298125963811",
        "url": ""
    },
    {
        "title": "夫妻俩竟然将啤酒瓶打造成结实又美观的家具，而且创意十足！",
        "docid": "7312773618243469851",
        "url": ""
    },
    {
        "title": "在县城买的新房，正在赶工装修中，看看40万的房子能装出啥效果？",
        "docid": "7336111511511040552",
        "url": ""
    },
    {
        "title": "小院里寒风刺骨，阳光房里却温暖如春",
        "docid": "7313070364349694516",
        "url": ""
    },
    {
        "title": "家具送到新房了，美好生活从现在开始，加油！#老挝生活",
        "docid": "7324980136204632626",
        "url": ""
    },
    {
        "title": "结婚十几年，终于完成了一件人生大事，在城里有了属于自己的房子",
        "docid": "7318225833972204047",
        "url": ""
    },
    {
        "title": "50后老两口干净整洁的家，年过65岁不算老，多向年轻人学习。",
        "docid": "7319054797360136756",
        "url": ""
    },
    {
        "title": "为什么越来越多人不铺瓷砖了？建议学深圳人的做法，美观无甲醛！",
        "docid": "7328265093240586792",
        "url": ""
    },
    {
        "title": "第一次遇到这种奇怪的安装地漏方法，弹簧都打不进去疏通地漏视频",
        "docid": "7320820018604671540",
        "url": ""
    },
    {
        "title": "惠州新房装修半年多，媳妇想在年前入住，看到结果有点失落",
        "docid": "7322759455958172200",
        "url": ""
    },
    {
        "title": "优品汇全屋定制",
        "docid": "7340281828110139915",
        "url": ""
    },
    {
        "title": "花1000元租农村小院改造，三月后除了厨房，幺姑想返工重来",
        "docid": "7328043700792721920",
        "url": ""
    },
    {
        "title": "加装电梯使用2年后，仍然看起来简洁漂亮，内行看门道说明原因",
        "docid": "7319835575974887986",
        "url": ""
    },
    {
        "title": "#监控下的一幕",
        "docid": "7340163370357785114",
        "url": ""
    },
    {
        "title": "旧房改造vlog|花小钱办“大事”",
        "docid": "7311616700553396763",
        "url": ""
    },
    {
        "title": "家里东西越多，家务活就多，今天改造客厅",
        "docid": "7310180818319180326",
        "url": ""
    },
    {
        "title": "生活才是最重要的：新年家的小小改变",
        "docid": "7317222760436990473",
        "url": ""
    },
    {
        "title": "厨房改造为何迟迟不见动工？当知道原因的那一刻老挝媳妇也沉默了",
        "docid": "7323895135979340339",
        "url": ""
    },
    {
        "title": "开荒保洁11个小妙招，跟老爸学会自己做，又省一大笔#装修避坑",
        "docid": "7309031432205107766",
        "url": ""
    },
    {
        "title": "一起看看50W装的房子是啥样，装修真实太费钱了，羡慕死我了",
        "docid": "7338991743787860499",
        "url": ""
    },
    {
        "title": "打造有品质的居所：过开心又有质量的生活",
        "docid": "7319415908672373275",
        "url": ""
    },
    {
        "title": "装修有时候不敢说实话，说了很多业主也不信，太难了",
        "docid": "7307514717772186131",
        "url": ""
    },
    {
        "title": "农村老房子我没有在家",
        "docid": "7340038385224352291",
        "url": ""
    },
    {
        "title": "1.8米×2米大床正跌落神坛，有这些缺点，被淘汰只是时间问题",
        "docid": "7307284725155136000",
        "url": ""
    },
    {
        "title": "新房正式开始装修，小敏细心挑选大门，整套房子装修下来要多少钱",
        "docid": "7338902412536578614",
        "url": ""
    },
    {
        "title": "南丰领奖，顺便陪封哥去看瓷砖，两个半桶水选了一上午没看上",
        "docid": "7308562205766025755",
        "url": ""
    },
    {
        "title": "装修完交完尾款，80％的业主都没有找装饰公司要这4样东西。",
        "docid": "7317957077270430234",
        "url": ""
    },
    {
        "title": "费事费力没有几个腰疼费，手摇晾衣架是食之无味或弃之可惜？",
        "docid": "7323430970214842895",
        "url": ""
    },
    {
        "title": "#展厅实拍 #原木生活",
        "docid": "7340212066206908964",
        "url": ""
    },
    {
        "title": "2024年流行的装修风格，要记得收藏！#长沙装修设计 #全案设计",
        "docid": "7340262414292058659",
        "url": ""
    },
    {
        "title": "工人今天来给二哥吊顶了，这下冬天不怕冷了，一家四口一间屋正好",
        "docid": "7317668880259351075",
        "url": ""
    },
    {
        "title": "在枣庄乳胶漆的价格给您贴墙布，当天贴您当天住，高端大气上档次",
        "docid": "7340123827852018216",
        "url": ""
    },
    {
        "title": "农村生活不易。",
        "docid": "7340368829370860084",
        "url": ""
    },
    {
        "title": "过了年还有没买家具的，带你们云逛顾家家居#顾家家居",
        "docid": "7340152262699942437",
        "url": ""
    },
    {
        "title": "分享日常  注意事项！",
        "docid": "7330519542420439589",
        "url": ""
    },
    {
        "title": "浙江夫妇因太会布置走红，把8m²卧室改造成电竞房，太哇塞了",
        "docid": "7330948683074339328",
        "url": ""
    },
    {
        "title": "辽宁一女太太，因“三角梅客厅”走红，禅意十足，那叫一个治愈！",
        "docid": "7338355951411429940",
        "url": ""
    },
    {
        "title": "把家里的“大单槽”换成双水槽，用了6个月，心里话不吐不快",
        "docid": "7312246376514044456",
        "url": ""
    },
    {
        "title": "她把阳台装成这样，朋友来了都不想待客厅了。",
        "docid": "7331587233008812584",
        "url": ""
    },
    {
        "title": "5个“正在消失”的卧室产物，淡出中国家庭，只是时间早晚的问题",
        "docid": "7328307774415389236",
        "url": ""
    },
    {
        "title": "陈小纭北京的家不大，装修也简单，“整理癖”却收拾得整整齐齐",
        "docid": "7327911301290770995",
        "url": ""
    },
    {
        "title": "1.8米的床为什么不香了？从深受追捧到无人问津，4个缺点太明显",
        "docid": "7324644114052710924",
        "url": ""
    },
    {
        "title": "任性媳妇不听劝，非要客厅布置满书柜，完工后我闭嘴了！效果惊人",
        "docid": "7328877302127919627",
        "url": ""
    },
    {
        "title": "这样的书房，谁都可以呆一整天吧！",
        "docid": "7328742054983565834",
        "url": ""
    },
    {
        "title": "有了这个100平的小家后，那个破班是一天也不想上了！",
        "docid": "7328270022710182440",
        "url": ""
    },
    {
        "title": "看了外国的厨房设计，才明白，难怪中国人一做饭就喊累！",
        "docid": "7336432088062837282",
        "url": ""
    },
    {
        "title": "新房交作业了，父母装修的风格，全程都是父母包办，你喜欢吗？",
        "docid": "7311886850522923529",
        "url": ""
    },
    {
        "title": "看了广州一户退休夫妻的家，才知道什么叫岁月静好一进门就被治愈",
        "docid": "7335813367657677327",
        "url": ""
    },
    {
        "title": "父母辈装修VS年轻人装修，这也差太多了吧！",
        "docid": "7328325680561963520",
        "url": ""
    },
    {
        "title": "建议大家：鞋子不要都堆在门口！学浙江人做法，干净美观上档次",
        "docid": "7322017138066391563",
        "url": ""
    },
    {
        "title": "用了一年电动晾衣架又换回老式晾衣架，心里话不吐不快，太真实了",
        "docid": "7315753307815920180",
        "url": ""
    },
    {
        "title": "厦门一60岁女阿姨，因太会布置而走红，全屋一尘不染，治愈超多人",
        "docid": "7322767534086881804",
        "url": ""
    },
    {
        "title": "买不起大平层，69平的小复式也很香！",
        "docid": "7336513294649524776",
        "url": ""
    },
    {
        "title": "不是吧！山东小哥跟风贴柔光砖，搞卫生时苦不堪言！网友：拆了吧",
        "docid": "7337065007815082523",
        "url": ""
    },
    {
        "title": "天津发现一户人家，因太会布置而走红，全屋那叫一个高级，晒晒",
        "docid": "7318776054926017035",
        "url": ""
    },
    {
        "title": "装修最大的鬼话，就是厨房一定要做吊柜！入住后，才知道有多鸡肋",
        "docid": "7338373033860121140",
        "url": ""
    },
    {
        "title": "山东发现一户人家，因家里太干净而走红，拍照给大伙瞅瞅，太羡慕",
        "docid": "7336239321936118272",
        "url": ""
    },
    {
        "title": "5套造价仅20万以内农村2层别墅，详细户型图纸还不收藏！",
        "docid": "7326901408275890740",
        "url": ""
    },
    {
        "title": "35岁大姑娘买下23㎡LOFT，利用4米层高切出隔层卧室，一人住太爽",
        "docid": "7307244104113865255",
        "url": ""
    },
    {
        "title": "客厅沙发知识点",
        "docid": "7313524305248600615",
        "url": ""
    },
    {
        "title": "家里选床真的是太重要了，选的好睡的好风水好",
        "docid": "7326102430851449382",
        "url": ""
    },
    {
        "title": "去深圳才发现，有钱人客厅早不放“茶几”！这么布置，太聪明了",
        "docid": "7337250214635454988",
        "url": ""
    },
    {
        "title": "我空房子反击楼上3天，楼上主动和解，一招教你解决楼上噪音问题",
        "docid": "7339402106916438591",
        "url": ""
    },
    {
        "title": "这样的阳台柜，一般人很难不动心啊！",
        "docid": "7337116527046443557",
        "url": ""
    },
    {
        "title": "6幢24年将流行的农村1层小洋楼，建在了心坎上，户型图纸收藏好！",
        "docid": "7331652017695457792",
        "url": ""
    },
    {
        "title": "江苏夫妇拒绝过度装修，把94m²的家布置的空无一物，太干净了",
        "docid": "7331620520644985355",
        "url": ""
    },
    {
        "title": "越来越多人“逃离”复式楼，老业主哭诉：太心酸",
        "docid": "7330575624823898687",
        "url": ""
    },
    {
        "title": "164.9平米的房子可以做到什么程度?",
        "docid": "7314855562070639119",
        "url": ""
    },
    {
        "title": "第三次装修，最终放弃了铺木地板！选择铺贴木纹砖，省钱又实用",
        "docid": "7322364467474465314",
        "url": ""
    },
    {
        "title": "一张跨越45年的照片！网友：这不是我家吗？！",
        "docid": "7315968578736554535",
        "url": ""
    },
    {
        "title": "理想卧室",
        "docid": "7319307195999552010",
        "url": ""
    },
    {
        "title": "沈阳姑娘利用走廊2㎡，布置卡座和水吧，网友：半平米都不浪费",
        "docid": "7325004490724704779",
        "url": ""
    },
    {
        "title": "你家的行李箱是否无处安放？",
        "docid": "7327869795100017163",
        "url": ""
    },
    {
        "title": "看了江苏一户退休夫妇的家，才知道什么叫高级，一进门就被治愈了",
        "docid": "7337545794159116863",
        "url": ""
    },
    {
        "title": "河北夫妇拒绝过度装修，把80m²的家装的堪称教科书级别，太高级了",
        "docid": "7314576047184413221",
        "url": ""
    },
    {
        "title": "多功能书房大升级，舒适度满分！",
        "docid": "7319311787630215690",
        "url": ""
    },
    {
        "title": "这才是真正的别墅。一个字豪？",
        "docid": "7339542272176489011",
        "url": ""
    },
    {
        "title": "卫生间面积小，在马桶上这样做，卫生间瞬间扩大5㎡！",
        "docid": "7308553493894185498",
        "url": ""
    },
    {
        "title": "最被中国家庭低估的一个柜子",
        "docid": "7337890290743181839",
        "url": ""
    },
    {
        "title": "我把“大块玻璃”换回“分段窗”后！有些话不得不说，太真实了",
        "docid": "7331676306739085850",
        "url": ""
    },
    {
        "title": "造一方小院，把日子过成诗一样美好！",
        "docid": "7339904946915394083",
        "url": ""
    },
    {
        "title": "当年流行高端大气的灰色瓷砖，现在怎么收拾都看不出干净，真后悔",
        "docid": "7324200673858568715",
        "url": ""
    },
    {
        "title": "这4种“床”为啥没人买了？售货员说出实情：谁买谁是大冤种",
        "docid": "7322056838223086080",
        "url": ""
    },
    {
        "title": "停暖后，要不要关“暖气阀门”？幸亏师傅及时提醒，不然就弄错了",
        "docid": "7339842886948618804",
        "url": ""
    },
    {
        "title": "越来越多人厨房开始做「去家务化」设计，试过才知道有多爽？",
        "docid": "7319113906117820982",
        "url": ""
    },
    {
        "title": "我妈说，你家是真的一点也不欢迎亲戚啊！",
        "docid": "7339181260843221531",
        "url": ""
    },
    {
        "title": "都说1.5米床好，为何多数人却用1.8米？我用了10年来说说真实感受",
        "docid": "7322662237452206592",
        "url": ""
    },
    {
        "title": "10年包工头坦言：给我自己装房子，我一定坚持5不装，看看！",
        "docid": "7310147758219051535",
        "url": ""
    },
    {
        "title": "家装得那么好看，为什么不发朋友圈？",
        "docid": "7307918656800309770",
        "url": ""
    },
    {
        "title": "为什么装了水暖的都后悔了？过来人吐露：电暖比水暖更省钱耐用！",
        "docid": "7307926071990059547",
        "url": ""
    },
    {
        "title": "再买阳台封窗，我一定要问“27个问题”，不是矫情，而是经验教训",
        "docid": "7308591639508091427",
        "url": ""
    },
    {
        "title": "回村就盖这栋现代别墅吧，面宽15米，拥有8间卧室，非常舒适",
        "docid": "7332435004272263707",
        "url": ""
    },
    {
        "title": "做衣柜用颗粒板还是生态板？师傅终于说出实话，多亏好心提醒",
        "docid": "7319527411581026851",
        "url": ""
    },
    {
        "title": "若再买吸顶灯，我一定拒绝这7个款式，不是矫情，而是吃过太多亏",
        "docid": "7332036650652533282",
        "url": ""
    },
    {
        "title": "发现上海56岁退休阿姨家：住79㎡，从不断舍离，家中照样一尘不染",
        "docid": "7308951109337596443",
        "url": ""
    },
    {
        "title": "停止供暖后，地暖开关得关闭吗？听老师傅一说，我用错了10年！",
        "docid": "7336843744886473256",
        "url": ""
    },
    {
        "title": "这“四大闲置物”劝你别买！内行人：“人傻钱多，根本用不上”！",
        "docid": "7324371741109649939",
        "url": ""
    },
    {
        "title": "门垫该放门外好还是门内好？听内行人说完，才发现我一直放错了！",
        "docid": "7332382670447510051",
        "url": ""
    },
    {
        "title": "餐边柜颜值天花板",
        "docid": "7332113918351131175",
        "url": ""
    },
    {
        "title": "关于地源热泵，你需要知道的6件事！",
        "docid": "7316823024198533651",
        "url": ""
    },
    {
        "title": "我的退休极简生活（极简一年不仅收获了清爽的家，还攒下5万元）",
        "docid": "7329359763148505611",
        "url": ""
    },
    {
        "title": "买家具，“原木”和“实木”不能选错！不止是钱的事，更关乎品质",
        "docid": "7300819501174637083",
        "url": ""
    },
    {
        "title": "惊艳！“暗卫”变“明卫”！设计师重新布局，老三居旧貌换新颜",
        "docid": "7339867771474084362",
        "url": ""
    },
    {
        "title": "“断舍离”女孩火上央视，家里仅有6件家具，选择常年“不消费”",
        "docid": "7339825991407370793",
        "url": ""
    },
    {
        "title": "这才是真正的客厅电视墙，你家的那个只能叫墙",
        "docid": "7332366961210327586",
        "url": ""
    },
    {
        "title": "已经5年了，入住后水表就一直转，不知道什么原因？",
        "docid": "7327511144594309641",
        "url": ""
    },
    {
        "title": "我家虽然不是豪宅，但是真的好宅#家的样子 #现代简约 #客厅",
        "docid": "7311623263816581673",
        "url": ""
    },
    {
        "title": "封阳台最便宜方案，造价不到断桥铝的一半，效果大家自己去评价。",
        "docid": "7310888539758166539",
        "url": ""
    },
    {
        "title": "不是大平层，是我143平的小家。装修一年，入住半年，简简单单",
        "docid": "7334635665948148224",
        "url": ""
    },
    {
        "title": "30岁女子花10万买150平老破小，改造效果令网友眼红：转卖能翻倍",
        "docid": "7326013487468315162",
        "url": ""
    },
    {
        "title": "越来越多人淋浴间不装玻璃隔断了，学学外国人的设计，省钱还实用",
        "docid": "7333955345909940771",
        "url": ""
    },
    {
        "title": "铁管压着电线，剪断太可惜了，水电工教我一招，5秒轻松抽出电线",
        "docid": "7337651745600111142",
        "url": ""
    },
    {
        "title": "商场卖5k的实木双人床，花200买木料自己造，质量甚至更胜一筹",
        "docid": "7337565565525230130",
        "url": ""
    },
    {
        "title": "地板瓷砖破了一块不用换新，学会这个方法，不花一分钱完好修复",
        "docid": "7328727163921367590",
        "url": ""
    },
    {
        "title": "入住一年迎来了粉丝来访，一个劲的夸很赞！！",
        "docid": "7310597905000169994",
        "url": ""
    },
    {
        "title": "上等花梨木被大爷当柴烧，捡回半截加工成独脚桌，全村都来抢着要",
        "docid": "7332372286748426792",
        "url": ""
    },
    {
        "title": "老婆给2k买实木桌，拿100买根木料自己造，老婆直呼这钱花得值",
        "docid": "7320529330198643227",
        "url": ""
    },
    {
        "title": "床靠两面墙，家人病怏怏，大床别靠2面墙！不是迷信，都有所依据",
        "docid": "7340486082033123866",
        "url": ""
    },
    {
        "title": "毯毯荡荡 触脚可及",
        "docid": "7340472564743504399",
        "url": ""
    },
    {
        "title": "益圆木门 | 定义艺术与和谐，重构功能与美学",
        "docid": "7340478907822801445",
        "url": ""
    },
    {
        "title": "盘下一间荒废小院，一家人一起将它改造翻新，居住在里面太温馨了",
        "docid": "7333935361749582372",
        "url": ""
    },
    {
        "title": "真是不可思议，小伙用石膏板把套一改成了套二，丈母娘高兴极了",
        "docid": "7333558049786823183",
        "url": ""
    },
    {
        "title": "花3天制作了一对超有氛围的落地灯",
        "docid": "7317968693433434676",
        "url": ""
    },
    {
        "title": "暗访成都最大装修公司！商家都是如何套路你的？",
        "docid": "7324196209533387316",
        "url": ""
    },
    {
        "title": "不过度装修的家，一切都刚刚好！",
        "docid": "7329483455991972387",
        "url": ""
    },
    {
        "title": "花光一个月工资，终于把卧室打造成老婆想要的样子，太值了",
        "docid": "7309154822186336808",
        "url": ""
    },
    {
        "title": "参观朋友中式四合院太漂亮，一颗盆景都上10万，美美看后太羡慕了",
        "docid": "7310524734940054056",
        "url": ""
    },
    {
        "title": "这才是真资格的极品夫妻，把旧房子拆除大改造，太震撼奢华了",
        "docid": "7314632217639158322",
        "url": ""
    },
    {
        "title": "花200万买了一个联排别墅，带大家看看里面的格局，又当房奴了",
        "docid": "7333127893268529675",
        "url": ""
    },
    {
        "title": "装修",
        "docid": "7340476500796015155",
        "url": ""
    },
    {
        "title": "品质家装",
        "docid": "7340487048924824116",
        "url": ""
    },
    {
        "title": "家设计这么好，不宅在家都有点可惜了！",
        "docid": "7340319284213727795",
        "url": ""
    },
    {
        "title": "这家业主太牛了，把阳台设计这么好，让人看了简直不可思议！",
        "docid": "7312385037503201846",
        "url": ""
    },
    {
        "title": "自己动手也能更换铝合金窗户滑轮非常简单。",
        "docid": "7323428171213177353",
        "url": ""
    },
    {
        "title": "36平三室一厅小家一镜到底，无关大小，喜欢休息时候拉上窗帘",
        "docid": "7313564972972737061",
        "url": ""
    },
    {
        "title": "女子工作偶遇奇葩装修，用水泥浇筑做悬空床，网友看后炸锅了",
        "docid": "7336772742375637530",
        "url": ""
    },
    {
        "title": "给荒废几十年的老房装上窗户，让它也能看看外面的世界 #改造小院",
        "docid": "7310477466152206875",
        "url": ""
    },
    {
        "title": "厨房的5个“先进设计”，如果家里一样都没有，说明你活在十年前!",
        "docid": "7330218552651481610",
        "url": ""
    },
    {
        "title": "后顶墙下顶地马桶摇晃不满意，改孔手术是个宝，前后对比效果好",
        "docid": "7331295219100418575",
        "url": ""
    },
    {
        "title": "最近大热的高延性混凝土是什么？跟其他加固方法对比有何优势？",
        "docid": "7340507818753081908",
        "url": ""
    },
    {
        "title": "隔壁家装修电钻声太吵，女子担忧会凿穿墙壁，下一秒预言成真！",
        "docid": "7326118195587351076",
        "url": ""
    },
    {
        "title": "长条木纹砖铺出来好看，但也有明显缺陷，很多人可能不知道",
        "docid": "7314262884689641995",
        "url": ""
    },
    {
        "title": "你看日本木工铺木地板技术有多先进，遇到畸形角，用一个纸壳搞定",
        "docid": "7335006489502974499",
        "url": ""
    },
    {
        "title": "已经换过一次施工队了，还要逼我再换吗#施工现场实拍",
        "docid": "7320512639531123254",
        "url": ""
    },
    {
        "title": "同样都是在瓷砖上开线盒，德国技工和中国技工差别在哪里？涨见识",
        "docid": "7328032803273212425",
        "url": ""
    },
    {
        "title": "如何将断裂的水管对接达到滴水不漏，学会这招小工也能成为大师傅",
        "docid": "7337257424610558483",
        "url": ""
    },
    {
        "title": "自制富豪家的悬浮壁炉。\n友情提示：戴好你的墨镜。",
        "docid": "7308000202299081243",
        "url": ""
    },
    {
        "title": "100万拿下北京老宅！耗时整整100天来改造！前后对比简直天差地别",
        "docid": "7331232032972309030",
        "url": ""
    },
    {
        "title": "应大家的要求来一个简单的RoomTour",
        "docid": "7321990344269595186",
        "url": ""
    },
    {
        "title": "小伙砍掉老丈人的荔枝树为其打造创意茶桌， 这手艺太牛了！",
        "docid": "7326519066255393320",
        "url": ""
    },
    {
        "title": "美国人安装地埋挡车桩，这般操作才叫专业！值得学习",
        "docid": "7323612212054983202",
        "url": ""
    },
    {
        "title": "工匠用一些玻璃碎渣就能制作出美轮美奂的吊灯，真是太厉害了，",
        "docid": "7310973104010985984",
        "url": ""
    },
    {
        "title": "酷妈为孩子打造有滑滑梯的家，170㎡秒变大型游乐场！ #装修",
        "docid": "7311538178140144138",
        "url": ""
    },
    {
        "title": "二堂哥的新房装修基本好了，今晚入火开夜，带大家一起来看看吧",
        "docid": "7307963856352739840",
        "url": ""
    },
    {
        "title": "惊人的设计理念，小伙低价收购实木托盘，改造后成品让人大开眼界",
        "docid": "7321961856955449894",
        "url": ""
    },
    {
        "title": "野火烧过的木头切开花纹奇特，打造实木圆桌后，成品惊呆老丈人",
        "docid": "7322725629210657318",
        "url": ""
    },
    {
        "title": "英国人接水管，不用热熔一插就行，永远不用担心接口漏水，太棒了",
        "docid": "7312066596128686592",
        "url": ""
    },
    {
        "title": "搬新家前72小时Vlog…虽然打扫很累很累，但全家人都干劲十足啊",
        "docid": "7320204483493265946",
        "url": ""
    },
    {
        "title": "小卧室不做榻榻米，又想做书桌，这个设计有点意思",
        "docid": "7330198321804116499",
        "url": ""
    },
    {
        "title": "工地开工第一天就撤场，工程行业已死透。转行、打螺丝才是正道！",
        "docid": "7340152674240692755",
        "url": ""
    },
    {
        "title": "客户买的新花洒 为省安装费找物业装 内丝弯头弄坏了需要砸墙修复",
        "docid": "7310995475107152399",
        "url": ""
    },
    {
        "title": "抄作业！老房翻新，大咖设计师绝美江景房！",
        "docid": "7317551017107653120",
        "url": ""
    },
    {
        "title": "150平一镜到底 #一镜到底 #一镜到底看我家 #一镜到底看装修",
        "docid": "7320940773317607977",
        "url": ""
    },
    {
        "title": "入住十年，都问我家里怎么没有一点杂乱东西",
        "docid": "7318642065124885030",
        "url": ""
    },
    {
        "title": "才知道，原来这样打玻璃胶，每次都是很完美，很少有人知道",
        "docid": "7321751234807857674",
        "url": ""
    },
    {
        "title": "年轻人用一盆杜鹃花装点客厅，意外引发网友热议！太美了！",
        "docid": "7340558282324656652",
        "url": ""
    },
    {
        "title": "首发｜300㎡豪宅，纯粹的极简生活篇章",
        "docid": "7340558918038929955",
        "url": ""
    },
    {
        "title": "穷装就复制我家吧，真的温馨又好看。#奶油温柔风装修 #软装搭配",
        "docid": "7339482563885007414",
        "url": ""
    },
    {
        "title": "两分钟⏰记录老爸给我装修的全过程139平顶楼复式",
        "docid": "7327642100790395404",
        "url": ""
    },
    {
        "title": "卧室做双眼皮吊顶还是石膏线？两种效果对比，哪种更经济？",
        "docid": "7319461660614361652",
        "url": ""
    },
    {
        "title": "这样独特砌红砖技术你见过吗？真是高手在民间啊#手艺人",
        "docid": "7325530392969249320",
        "url": ""
    },
    {
        "title": "惠佳苑老同学雅居油漆工开干，墙固刷起来，腻子批起来#嘉善嘉诚",
        "docid": "7340545177414533683",
        "url": ""
    },
    {
        "title": "已经花了30万，房子也没盖好，后期还得多少钱才能住进去啊",
        "docid": "7326012929629749794",
        "url": ""
    },
    {
        "title": "连廊中间户的真实感受",
        "docid": "7315773044264272418",
        "url": ""
    },
    {
        "title": "德国水电工安装排水管，才知道他们赢在了工具和材料上，值得学习",
        "docid": "7315795173827412495",
        "url": ""
    },
    {
        "title": "朋友花500万装修的别墅，简约轻奢上档次，等洞洞赚钱了也整一套",
        "docid": "7324652800531825163",
        "url": ""
    },
    {
        "title": "瓦工铺地砖，采用自己琢磨的方法，一天能搞别人三天的活#手工",
        "docid": "7336527739333444122",
        "url": ""
    },
    {
        "title": "PPR水管弯头破裂跑水，停不了水怎么修？教你一招，带水压维修",
        "docid": "7328026747168162304",
        "url": ""
    },
    {
        "title": "小日本带水压热熔水管，这样的技术非常先进，值得学习",
        "docid": "7320555299436233216",
        "url": ""
    },
    {
        "title": "楼上的噪音太大，多次沟通无果，物业又不管，教你一招，完美解决",
        "docid": "7327148869358846501",
        "url": ""
    },
    {
        "title": "女子买下顶层房子，打通装修秒变大平层：省下的钱用来装修不香吗",
        "docid": "7307531938133344777",
        "url": ""
    },
    {
        "title": "墙内预埋网线拉不动就一定换不了吗？来看看大神是如何操作的！",
        "docid": "7333903035221049908",
        "url": ""
    },
    {
        "title": "三根水管如何接在一起，无需三通巧妙接管，老师傅的经验确实够用",
        "docid": "7327248191949275660",
        "url": ""
    },
    {
        "title": "我把地暖换成暖气片后，有些话不吐不快，太真实了！",
        "docid": "7322283336821703218",
        "url": ""
    },
    {
        "title": "花12万5装修的房子，大姑姐很喜欢，来家参观也要装同款",
        "docid": "7340558229380235827",
        "url": ""
    },
    {
        "title": "这年头，谁买顶楼谁踩坑 #装修避坑 #装修 #漏水 #顶楼 #装修分享",
        "docid": "7316831946561028627",
        "url": ""
    },
    {
        "title": "上次买100寸电视的老乡搬了新家，30万就买了一套房，20万装修好",
        "docid": "7326433451862589986",
        "url": ""
    },
    {
        "title": "好消息，连水电工都不知道，水管不用热熔，没有螺纹也能接钢丝管",
        "docid": "7319528673940505100",
        "url": ""
    },
    {
        "title": "小两口花6万全屋定制，入住了半年发现问题，把经验分享给大家",
        "docid": "7308010873900139049",
        "url": ""
    },
    {
        "title": "日本女电工安装轨道插座，太厉害了！又学了一门新技术！",
        "docid": "7336598652632662539",
        "url": ""
    },
    {
        "title": "【1818黄金眼】“芝华仕”俩月后松松垮垮  头等舱没心情再坐",
        "docid": "7323503407547810358",
        "url": ""
    },
    {
        "title": "花120000买个根雕茶桌，最后却改成了鱼缸，大家觉得值不值",
        "docid": "7309414702491599400",
        "url": ""
    },
    {
        "title": "带大家参观娘家143平四室两厅的新房，光装修就花了60万!",
        "docid": "7324211553392132659",
        "url": ""
    },
    {
        "title": "徐三娃家栏杆开始拆模，现浇栏杆一体成型优缺点都有，大家看咋样",
        "docid": "7308388799237587483",
        "url": ""
    },
    {
        "title": "土豪老板花5w定制会议桌，精选巨型木料一体加工，成品太豪华了",
        "docid": "7319798410389914162",
        "url": ""
    },
    {
        "title": "用了半个多月做了一个全榫卯的衣柜",
        "docid": "7313846948241343017",
        "url": ""
    },
    {
        "title": "世纪城龙泉苑全新现代装修带地暖",
        "docid": "7340506122761011739",
        "url": ""
    },
    {
        "title": "这单间爱了吗？我是爱了，真想一直呆在房间不出去了哈哈(≧∇≦)",
        "docid": "7340589078464856639",
        "url": ""
    },
    {
        "title": "下水管断在墙里怎么接弯头？500块钱的活被我5分钟干完了，太快了",
        "docid": "7312102845825122855",
        "url": ""
    },
    {
        "title": "平平无奇的马桶，被美女打造的富丽堂皇！独一无二的创意堪称经典",
        "docid": "7334587677414851098",
        "url": ""
    },
    {
        "title": "墙体开线盒，难道你说日本的技术不先进吗？我们开一个他开三个啦",
        "docid": "7328611815285588532",
        "url": ""
    },
    {
        "title": "楼上漏水，沟通没作用怎么办？来来来，刘工放大招#装修避坑",
        "docid": "7311676903037862439",
        "url": ""
    },
    {
        "title": "花重金给孩子打造的秘密基地，结果装不了空调？！",
        "docid": "7314180188970713634",
        "url": ""
    },
    {
        "title": "假如我是一名干了多年的橱柜安装工，我一定不会告诉你这些事！",
        "docid": "7311201135476507188",
        "url": ""
    },
    {
        "title": "2头都是死口怎么修水管，看完这个视频才知道，为什么他工资12000",
        "docid": "7311737134732280332",
        "url": ""
    },
    {
        "title": "修补内丝哪家强山西小米来帮忙，老房内丝开裂渗水，热熔换新解决",
        "docid": "7328245588552909350",
        "url": ""
    },
    {
        "title": "6年别墅居住史，和多位邻居交流后总结出来的安装技巧！#别墅",
        "docid": "7340571821441450546",
        "url": ""
    },
    {
        "title": "安德烈的工作日常 揭秘战斗民族是怎么装修房子的",
        "docid": "7319732659910148623",
        "url": ""
    },
    {
        "title": "保温层很重要吗？亲身实验决定重建房屋保温层！",
        "docid": "7316882390965322280",
        "url": ""
    },
    {
        "title": "就门口这一点工程竟然花了一万多，夫妻俩生气吵架说早知道自己干",
        "docid": "7327635000650629669",
        "url": ""
    },
    {
        "title": "陕西小王和老挝媳妇小娜，厨房接水电中国制造生活用太方便了厉害",
        "docid": "7313520915957056010",
        "url": ""
    },
    {
        "title": "业主出500块熔接水管，前提是不打断钢筋，师傅只用5分钟就干完了",
        "docid": "7330238070299722276",
        "url": ""
    },
    {
        "title": "广东一对新人将婚房布置得浪漫至极，网友表示：这才是理想的婚房",
        "docid": "7340302121851634239",
        "url": ""
    },
    {
        "title": "院子小，就别整得那么复杂！",
        "docid": "7338612219799929378",
        "url": ""
    },
    {
        "title": "等我换房，卫生间再也不装洗手台了！学日本人这样设计，太有才了",
        "docid": "7326117354956882486",
        "url": ""
    },
    {
        "title": "小伙在卫生间铺地砖，这手工活真没的说，一起来看下吧",
        "docid": "7310929472566821385",
        "url": ""
    },
    {
        "title": "外行人装修VS内行人装修",
        "docid": "7314969115230536242",
        "url": ""
    },
    {
        "title": "新来木工将木料切碎，老板娘扬言要开除，成品一出老板娘躲起来",
        "docid": "7324581373049176591",
        "url": ""
    },
    {
        "title": "厨房台面怎么选？不锈钢、岩板、石英石",
        "docid": "7314172089173443126",
        "url": ""
    },
    {
        "title": "大成哥在北京做装修",
        "docid": "7340611327553258024",
        "url": ""
    },
    {
        "title": "越来越多人不安装地暖？学学河北人的做法，舒适还不担心漏水",
        "docid": "7316123035122172453",
        "url": ""
    },
    {
        "title": "卫生间4个先进设计，知道的人不多，体验过才知有多好！",
        "docid": "7337141340691661346",
        "url": ""
    },
    {
        "title": "北京神秘少爷的城堡日式搬家，豪宅竟是祖传的？！",
        "docid": "7309779619555738150",
        "url": ""
    },
    {
        "title": "农村改造房子5年，最满意就是可以烧壁炉 跳跃的火 温暖的光",
        "docid": "7317919773730439691",
        "url": ""
    },
    {
        "title": "新房装修前，一定请电工在配电箱里装上这个小东西？避免后患无穷",
        "docid": "7339044823325901364",
        "url": ""
    },
    {
        "title": "沈阳装修刮大白掠影",
        "docid": "7340282030661304882",
        "url": ""
    },
    {
        "title": "为何越来越多人厨房不装水槽了？现在流行这么做，美观实用不占地",
        "docid": "7337635597525844507",
        "url": ""
    },
    {
        "title": "140平的房子装修了半年，终于见到实景了，效果比较满意。",
        "docid": "7310551122031313458",
        "url": ""
    },
    {
        "title": "黑龙江小伙花3.5w安装空气能取暖，每天的电费是多少？有何优缺点",
        "docid": "7322362786208875071",
        "url": ""
    },
    {
        "title": "加高的地面，这样做能行吗",
        "docid": "7324219230407262720",
        "url": ""
    },
    {
        "title": "我们给客户做的全屋定制“翻车”了，以后这种板材大家慎重选择！",
        "docid": "7312485087843451432",
        "url": ""
    },
    {
        "title": "这么独特的贴砖技术你们见过吗？太震撼了，#制作过程 #贴砖工艺",
        "docid": "7316540118775530036",
        "url": ""
    },
    {
        "title": "换个水龙头，还换出事来了",
        "docid": "7324641293785956874",
        "url": ""
    },
    {
        "title": "这样建造楼梯护栏的方式真是富丽堂皇，简直让人大开眼界涨见识了",
        "docid": "7333147611660026383",
        "url": ""
    },
    {
        "title": "妈妈花20万装修后气坏儿子，到处踩坑就像住出租屋：被熟人宰了？",
        "docid": "7325306784263078409",
        "url": ""
    },
    {
        "title": "33岁终于把自己喜欢的一切放进自己的房子里，不为悦人，只为悦己",
        "docid": "7311263455028183563",
        "url": ""
    },
    {
        "title": "印度大理石地板量产工艺，全程极度舒适解压，成品温润如玉真漂亮",
        "docid": "7327136553787589157",
        "url": ""
    },
    {
        "title": "木工吊顶偷工减料怎么防？业主一招避免",
        "docid": "7311668897420476962",
        "url": ""
    },
    {
        "title": "晨妤来新家参观，妈妈想给阁楼买一张床，看看这3张床哪个好看？",
        "docid": "7322772435600671282",
        "url": ""
    },
    {
        "title": "吸顶灯不亮了怎么回事？只要检查一下这里，立马就知道哪里问题",
        "docid": "7325010225747427891",
        "url": ""
    },
    {
        "title": "好公公没花一分钱自己做的实木家具，这下可以放心让孩子住了！",
        "docid": "7340200194723611148",
        "url": ""
    },
    {
        "title": "新居装修时入户燃气管道怎样安装才规范？专业人员来支招",
        "docid": "7340637024736690703",
        "url": ""
    },
    {
        "title": "本间贵史，你熟悉的设计师 #旧房改造 #全能住宅改造王",
        "docid": "7340590821516771875",
        "url": ""
    },
    {
        "title": "开孔器旋转锉，作用一加一大于贰，拆堵头效率加快事半功倍",
        "docid": "7323096004461658658",
        "url": ""
    },
    {
        "title": "村里第一台100寸电视机，七个人抬起来才给安装上，尺寸也太大了",
        "docid": "7315344261854003746",
        "url": ""
    },
    {
        "title": "500元修30米围墙？这三小伙太聪明了！不花钱就能住洋房",
        "docid": "7318726809053299237",
        "url": ""
    },
    {
        "title": "被很多人吐槽的阳光雨棚今天来聊一聊，我为什么要做它",
        "docid": "7339835749208228352",
        "url": ""
    },
    {
        "title": "热熔2个死角弯头，一个人一把热熔器轻松搞定，太厉害了！",
        "docid": "7328345180527362595",
        "url": ""
    },
    {
        "title": "2年前买了意大利老房，到现在投入100万翻新，对比前后变化，感慨",
        "docid": "7318299020789547574",
        "url": ""
    },
    {
        "title": "瓷砖的雕花，原来是手工做出来的",
        "docid": "7317627268418044416",
        "url": ""
    },
    {
        "title": "小伙竟然用碎瓷砖铺出漂亮的地面效果 太牛了#手工diy",
        "docid": "7338804298929111561",
        "url": ""
    },
    {
        "title": "万万没想到，安装集成墙板把人整神了",
        "docid": "7318562467146105378",
        "url": ""
    },
    {
        "title": "这样做的房顶，真的结实吗",
        "docid": "7317627657070314019",
        "url": ""
    },
    {
        "title": "新房装修，要不要包窗口，有哪些优缺点？",
        "docid": "7332465692676981286",
        "url": ""
    },
    {
        "title": "你可能想象不到？楼梯竟然也能做成折叠的，而且方便省事不占空间",
        "docid": "7310571520827326995",
        "url": ""
    },
    {
        "title": "小姑子毕业两年在市里买房，全屋装修真漂亮，村花看着都羡慕",
        "docid": "7323607497565012516",
        "url": ""
    },
    {
        "title": "小两口花光积蓄惠州买房，花4万定全屋定制，看见新房反应太真实",
        "docid": "7326837649308811828",
        "url": ""
    },
    {
        "title": "三面都是死口怎么接排水管？不用任何特殊接头，老水工的方法真棒",
        "docid": "7311339166661509683",
        "url": ""
    },
    {
        "title": "买的美式家具送来了，127平的新家大变样，老公居然有点后悔了",
        "docid": "7327578812185575951",
        "url": ""
    },
    {
        "title": "洋槐做家具饱受争议，看看木匠爷爷怎么说。",
        "docid": "7323764095096717861",
        "url": ""
    }
]