[
    {
        "title": "墙体开线盒，难道你说日本的技术不先进吗？我们开一个他开三个啦",
        "docid": "7328611815285588532",
        "url": "https://www.ixigua.com/7328611815285588532"
    },
    {
        "title": "上海小伙年前买的斗柜请安装师傅上门安装完成，效率很高相当满意",
        "docid": "7334162914925871668",
        "url": "https://www.ixigua.com/7334162914925871668"
    },
    {
        "title": "假水工这样安装暖气，不管多大的水压也不会热，看看他是怎么装的",
        "docid": "7306498358478045711",
        "url": "https://www.ixigua.com/7306498358478045711"
    },
    {
        "title": "可能只有失去了很多东西才能醒悟，但谁又能预知未来呢",
        "docid": "7336555456988611082",
        "url": "https://www.ixigua.com/7336555456988611082"
    },
    {
        "title": "需要装修的联系",
        "docid": "7336594192639984155",
        "url": "https://www.ixigua.com/7336594192639984155"
    },
    {
        "title": "海尔全屋家居定制交工样板间客服电话18822508640",
        "docid": "7336594257714938405",
        "url": "https://www.ixigua.com/7336594257714938405"
    },
    {
        "title": "热熔水管错误的方法，很多人都是这样热熔，当时不漏以后也会漏",
        "docid": "7316897391569797686",
        "url": "https://www.ixigua.com/7316897391569797686"
    },
    {
        "title": "2头都是死口怎么修水管，看完这个视频才知道，为什么他工资12000",
        "docid": "7311737134732280332",
        "url": "https://www.ixigua.com/7311737134732280332"
    },
    {
        "title": "五合一浴霸安装流程，进场到结束米师傅个人分享，你学废了吗",
        "docid": "7311548067352674856",
        "url": "https://www.ixigua.com/7311548067352674856"
    },
    {
        "title": "车库与入户一体自动门，看着还挺震撼的！现场看看！",
        "docid": "7335038126819279360",
        "url": "https://www.ixigua.com/7335038126819279360"
    },
    {
        "title": "装修北京的四居室，还没买家具，小夫妻一算账已经花了这么多钱",
        "docid": "7304251235627074088",
        "url": "https://www.ixigua.com/7304251235627074088"
    },
    {
        "title": "下水管断在墙里怎么接弯头？500块钱的活被我5分钟干完了，太快了",
        "docid": "7312102845825122855",
        "url": "https://www.ixigua.com/7312102845825122855"
    },
    {
        "title": "纯铜水管维修，美国水电工这般操作才叫专业",
        "docid": "7308004563129205257",
        "url": "https://www.ixigua.com/7308004563129205257"
    },
    {
        "title": "58快线",
        "docid": "7336569249789542946",
        "url": "https://www.ixigua.com/7336569249789542946"
    },
    {
        "title": "郑州的约茶了！",
        "docid": "7336579736733319695",
        "url": "https://www.ixigua.com/7336579736733319695"
    },
    {
        "title": "打一个水钻孔300元，结果赔了500元，这次亏大了！",
        "docid": "7332884403872268800",
        "url": "https://www.ixigua.com/7332884403872268800"
    },
    {
        "title": "在县城买的新房，正在赶工装修中，看看40万的房子能装出啥效果？",
        "docid": "7336111511511040552",
        "url": "https://www.ixigua.com/7336111511511040552"
    },
    {
        "title": "爸妈心心念念的大阳台和阳光房终于封好了，离住新房子又近一步！",
        "docid": "7329459806236836387",
        "url": "https://www.ixigua.com/7329459806236836387"
    },
    {
        "title": "哥嫂终于要搬到新家住 老公一年前给侄子侄女买的学习椅派上用场",
        "docid": "7329917248196805171",
        "url": "https://www.ixigua.com/7329917248196805171"
    },
    {
        "title": "为什么钻瓷砖之前要贴上一层胶布？不买包好烟，师傅根本不会教你",
        "docid": "7327712679404143114",
        "url": "https://www.ixigua.com/7327712679404143114"
    },
    {
        "title": "结婚十几年，终于完成了一件人生大事，在城里有了属于自己的房子",
        "docid": "7318225833972204047",
        "url": "https://www.ixigua.com/7318225833972204047"
    },
    {
        "title": "我把主卫改成衣帽间后，有些话不得不说，肠子都悔青了！",
        "docid": "7313845802177135143",
        "url": "https://www.ixigua.com/7313845802177135143"
    },
    {
        "title": "家里东西越多，家务活就多，今天改造客厅",
        "docid": "7310180818319180326",
        "url": "https://www.ixigua.com/7310180818319180326"
    },
    {
        "title": "已经5年了，入住后水表就一直转，不知道什么原因？",
        "docid": "7327511144594309641",
        "url": "https://www.ixigua.com/7327511144594309641"
    },
    {
        "title": "北京12年前装修的婚房，家具都老旧了，夫妻俩一致决定换个好沙发",
        "docid": "7309031321072828982",
        "url": "https://www.ixigua.com/7309031321072828982"
    },
    {
        "title": "媳妇为避坑网上学装修，老公验收看到隐形折叠门傻眼：多此一门",
        "docid": "7305296368715694627",
        "url": "https://www.ixigua.com/7305296368715694627"
    },
    {
        "title": "带大伙看看红木城，好的工艺品，值多少钱#红木家具 #源头工厂",
        "docid": "7336143078782796338",
        "url": "https://www.ixigua.com/7336143078782796338"
    },
    {
        "title": "这法式，还没有完工都被参观800遍了！",
        "docid": "7336404111677948435",
        "url": ""
    },
    {
        "title": "打造有品质的居所：过开心又有质量的生活",
        "docid": "7319415908672373275",
        "url": "https://www.ixigua.com/7319415908672373275"
    },
    {
        "title": "农民王小：沙发垫改造一下，两口子装饰阳光房，看着真好看完美了",
        "docid": "7309401036861637131",
        "url": "https://www.ixigua.com/7309401036861637131"
    },
    {
        "title": "老房改造vlog|和我一起来干活吧",
        "docid": "7309423164839166473",
        "url": "https://www.ixigua.com/7309423164839166473"
    },
    {
        "title": "木工吊顶偷工减料怎么防？业主一招避免",
        "docid": "7311668897420476962",
        "url": "https://www.ixigua.com/7311668897420476962"
    },
    {
        "title": "装修完交完尾款，80％的业主都没有找装饰公司要这4样东西。",
        "docid": "7317957077270430234",
        "url": "https://www.ixigua.com/7317957077270430234"
    },
    {
        "title": "谁懂啊 ！ 真的被这小猪茶几惊艳到了！ #茶几   #收纳茶几",
        "docid": "7309744083008913946",
        "url": "https://www.ixigua.com/7309744083008913946"
    },
    {
        "title": "..........",
        "docid": "7335672690012848651",
        "url": "https://www.ixigua.com/7335672690012848651"
    },
    {
        "title": "铭泽装饰开工大吉",
        "docid": "7336434819397583387",
        "url": "https://www.ixigua.com/7336434819397583387"
    },
    {
        "title": "家有二胎，儿童房这样布置，邻居小孩都羡慕哭了",
        "docid": "7336647155270287887",
        "url": ""
    },
    {
        "title": "床垫是怎么制作的，床垫定制工厂。",
        "docid": "7336301998561722891",
        "url": "https://www.ixigua.com/7336301998561722891"
    },
    {
        "title": "弘阳红宝石 初八闹新春 礼樾业主专享活动来啦#弘阳家居溧水商场",
        "docid": "7336512797188031016",
        "url": "https://www.ixigua.com/7336512797188031016"
    },
    {
        "title": "陈小纭北京的家不大，装修也简单，“整理癖”却收拾得整整齐齐",
        "docid": "7327911301290770995",
        "url": ""
    },
    {
        "title": "看了外国的厨房设计，才明白，难怪中国人一做饭就喊累！",
        "docid": "7336432088062837282",
        "url": ""
    },
    {
        "title": "我决定了，一定要买个带院子的房子！",
        "docid": "7325768761707971107",
        "url": ""
    },
    {
        "title": "把家里的“大单槽”换成双水槽，用了6个月，心里话不吐不快",
        "docid": "7312246376514044456",
        "url": ""
    },
    {
        "title": "看了广州一户退休夫妻的家，才知道什么叫岁月静好一进门就被治愈",
        "docid": "7335813367657677327",
        "url": ""
    },
    {
        "title": "建议大家：鞋子不要都堆在门口！学浙江人做法，干净美观上档次",
        "docid": "7322017138066391563",
        "url": ""
    },
    {
        "title": "父母辈装修VS年轻人装修，这也差太多了吧！",
        "docid": "7328325680561963520",
        "url": ""
    },
    {
        "title": "任性媳妇不听劝，非要客厅布置满书柜，完工后我闭嘴了！效果惊人",
        "docid": "7328877302127919627",
        "url": ""
    },
    {
        "title": "这4种“床”为啥没人买了？售货员说出实情：谁买谁是大冤种",
        "docid": "7322056838223086080",
        "url": ""
    },
    {
        "title": "毛坯房装修流程图",
        "docid": "7314873059318497801",
        "url": ""
    },
    {
        "title": "越来越多人“逃离”复式楼，老业主哭诉：太心酸",
        "docid": "7330575624823898687",
        "url": ""
    },
    {
        "title": "家里选床真的是太重要了，选的好睡的好风水好",
        "docid": "7326102430851449382",
        "url": ""
    },
    {
        "title": "5个“正在消失”的卧室产物，淡出中国家庭，只是时间早晚的问题",
        "docid": "7328307774415389236",
        "url": ""
    },
    {
        "title": "第三次装修，最终放弃了铺木地板！选择铺贴木纹砖，省钱又实用",
        "docid": "7322364467474465314",
        "url": ""
    },
    {
        "title": "风靡一时的大长桌，为何突然跌下神坛？只因这几个问题太突出！",
        "docid": "7334705052147843619",
        "url": ""
    },
    {
        "title": "客厅沙发知识点",
        "docid": "7313524305248600615",
        "url": ""
    },
    {
        "title": "5套造价仅20万以内农村2层别墅，详细户型图纸还不收藏！",
        "docid": "7326901408275890740",
        "url": ""
    },
    {
        "title": "这“四大闲置物”劝你别买！内行人：“人傻钱多，根本用不上”！",
        "docid": "7324371741109649939",
        "url": ""
    },
    {
        "title": "沈阳姑娘利用走廊2㎡，布置卡座和水吧，网友：半平米都不浪费",
        "docid": "7325004490724704779",
        "url": ""
    },
    {
        "title": "木工结束后，剩余的边角料千万不要丢了，让师傅给你做这些东西！",
        "docid": "7332427587429368346",
        "url": ""
    },
    {
        "title": "看了辽宁一独居阿姨的家，才知道什么叫岁月静好，一进屋就被治愈",
        "docid": "7325434585196986917",
        "url": ""
    },
    {
        "title": "把浴室装修成和酒店一样的感觉，这种感觉真的爽爆了",
        "docid": "7335828335127413257",
        "url": ""
    },
    {
        "title": "再买阳台封窗，我一定要问“27个问题”，不是矫情，而是经验教训",
        "docid": "7308591639508091427",
        "url": ""
    },
    {
        "title": "卫生间面积小，在马桶上这样做，卫生间瞬间扩大5㎡！",
        "docid": "7308553493894185498",
        "url": ""
    },
    {
        "title": "回村就盖这套3层别墅吧，6间卧室均为套房，住进去绝对舒服",
        "docid": "7336113132282528291",
        "url": ""
    },
    {
        "title": "你家的行李箱是否无处安放？",
        "docid": "7327869795100017163",
        "url": ""
    },
    {
        "title": "暖气停暖后，究竟要不要关阀门？多亏提前了解，这次不会弄错了",
        "docid": "7328590112785252864",
        "url": ""
    },
    {
        "title": "理想卧室",
        "docid": "7319307195999552010",
        "url": ""
    },
    {
        "title": "家装得那么好看，为什么不发朋友圈？",
        "docid": "7307918656800309770",
        "url": ""
    },
    {
        "title": "多功能书房大升级，舒适度满分！",
        "docid": "7319311787630215690",
        "url": ""
    },
    {
        "title": "20款卫生间淋浴房设计",
        "docid": "7335438752774898211",
        "url": ""
    },
    {
        "title": "那个“奇怪”的酒柜：引起亲戚们的讨厌与好奇",
        "docid": "7336036638314889762",
        "url": ""
    },
    {
        "title": "当年流行高端大气的灰色瓷砖，现在怎么收拾都看不出干净，真后悔",
        "docid": "7324200673858568715",
        "url": ""
    },
    {
        "title": "都说1.5米床好，为何多数人却用1.8米？我用了10年来说说真实感受",
        "docid": "7322662237452206592",
        "url": ""
    },
    {
        "title": "回村就盖这栋现代别墅吧，面宽15米，拥有8间卧室，非常舒适",
        "docid": "7332435004272263707",
        "url": ""
    },
    {
        "title": "10年包工头坦言：给我自己装房子，我一定坚持5不装，看看！",
        "docid": "7310147758219051535",
        "url": ""
    },
    {
        "title": "若再买吸顶灯，我一定拒绝这7个款式，不是矫情，而是吃过太多亏",
        "docid": "7332036650652533282",
        "url": ""
    },
    {
        "title": "为什么装了水暖的都后悔了？过来人吐露：电暖比水暖更省钱耐用！",
        "docid": "7307926071990059547",
        "url": ""
    },
    {
        "title": "厨房要这样装，会好用10倍！",
        "docid": "7309049788329624079",
        "url": ""
    },
    {
        "title": "关于地源热泵，你需要知道的6件事！",
        "docid": "7316823024198533651",
        "url": ""
    },
    {
        "title": "做衣柜用颗粒板还是生态板？师傅终于说出实话，多亏好心提醒",
        "docid": "7319527411581026851",
        "url": ""
    },
    {
        "title": "我的退休极简生活（极简一年不仅收获了清爽的家，还攒下5万元）",
        "docid": "7329359763148505611",
        "url": ""
    },
    {
        "title": "买家具，“原木”和“实木”不能选错！不止是钱的事，更关乎品质",
        "docid": "7300819501174637083",
        "url": ""
    },
    {
        "title": "做到这六点，你家客厅的高级感就出来了",
        "docid": "7306048718233518630",
        "url": ""
    },
    {
        "title": "越来越多人淋浴间不装玻璃隔断了，学学外国人的设计，省钱还实用",
        "docid": "7333955345909940771",
        "url": "https://www.ixigua.com/7333955345909940771"
    },
    {
        "title": "#设计布局 #自建房 #设计案例分享",
        "docid": "7336066054450086452",
        "url": "https://www.ixigua.com/7336066054450086452"
    },
    {
        "title": "入住十年，都问我家里怎么没有一点杂乱东西",
        "docid": "7318642065124885030",
        "url": "https://www.ixigua.com/7318642065124885030"
    },
    {
        "title": "150平一镜到底 #一镜到底 #一镜到底看我家 #一镜到底看装修",
        "docid": "7320940773317607977",
        "url": "https://www.ixigua.com/7320940773317607977"
    },
    {
        "title": "辽宁一退休教师的家火了，无吊顶、主灯，那叫一个简雅高级，晒晒",
        "docid": "7330871188635681319",
        "url": ""
    },
    {
        "title": "山东夫妇的新家火了，全屋不吊顶 不走石膏线，简单耐看 忍不住晒晒",
        "docid": "7332769518705623564",
        "url": ""
    },
    {
        "title": "新疆一小伙，因“拒绝过度装修”而走红，一切从简，忍不住晒晒",
        "docid": "7323447836039774735",
        "url": ""
    },
    {
        "title": "广西一38岁太太，因“橡皮树客厅”而走红，时尚又治愈，羡慕了",
        "docid": "7314545888687309346",
        "url": ""
    },
    {
        "title": "浙江夫妇因太会布置走红，把8m²卧室改造成电竞房，太哇塞了",
        "docid": "7330948683074339328",
        "url": ""
    },
    {
        "title": "江苏夫妇拒绝过度装修，把94m²的家布置的空无一物，太干净了",
        "docid": "7331620520644985355",
        "url": ""
    },
    {
        "title": "厦门一60岁女阿姨，因太会布置而走红，全屋一尘不染，治愈超多人",
        "docid": "7322767534086881804",
        "url": ""
    },
    {
        "title": "后悔啊！真不该用踢脚线来取暖，学学湖南人的做法，便宜还升温快",
        "docid": "7314959911962788363",
        "url": ""
    },
    {
        "title": "福建一新婚夫妇，因“去客厅化”装修而走红，那叫一个高级，晒晒",
        "docid": "7329000164209721908",
        "url": ""
    },
    {
        "title": "河北夫妇拒绝过度装修，把80m²的家装的堪称教科书级别，太高级了",
        "docid": "7314576047184413221",
        "url": ""
    },
    {
        "title": "太丑了！江苏宝妈后悔自己的装修风格，省钱果然不行，网友：实话",
        "docid": "7310375991824613915",
        "url": ""
    },
    {
        "title": "福建一退休医生的家火了，拒绝过度装修，那叫一个高级，必须晒晒",
        "docid": "7322324580603855372",
        "url": ""
    },
    {
        "title": "一进门就惊艳到了！好高级的装修设计，太爱了",
        "docid": "7321939959781704204",
        "url": ""
    },
    {
        "title": "越来越多人厨房开始做「去家务化」设计，试过才知道有多爽？",
        "docid": "7319113906117820982",
        "url": ""
    },
    {
        "title": "外墙真石漆、水包水、水包砂、乳胶漆专业分包价格",
        "docid": "7322389370072597003",
        "url": ""
    },
    {
        "title": "冰箱是摆放在厨房，客厅还是餐厅？看完后，我马上回家调位置了",
        "docid": "7336616536632918582",
        "url": ""
    },
    {
        "title": "女主人装修为“厕所改儿童房”静音发愁，为提供给女儿舒适住宿？",
        "docid": "7314956082407899685",
        "url": ""
    },
    {
        "title": "越住越爱的家！",
        "docid": "7318594509158449702",
        "url": ""
    },
    {
        "title": "太难看了！河北小哥装修的家被吐槽，到底哪里出问题？网友：难看",
        "docid": "7309365595597177381",
        "url": ""
    },
    {
        "title": "财不进脏门，年底就按这个思路\"清”和“理\"家",
        "docid": "7324502814259593780",
        "url": ""
    },
    {
        "title": "睡觉时，到底要不要关卧室门？并非迷信，有科学道理",
        "docid": "7336738270388879912",
        "url": ""
    },
    {
        "title": "单元门厅变身奢石宫殿，电梯间像艺术展厅！｜龙年“卷卷”八天乐",
        "docid": "7333398107386135059",
        "url": ""
    },
    {
        "title": "回南天！北方朋友建议开窗通风？南方人：你给我过来看看再说话！",
        "docid": "7330143162368983567",
        "url": ""
    },
    {
        "title": "你敢相信这是瓷砖? 750*1500柔光砖全房通铺，效果浑然一体",
        "docid": "7302774339651404315",
        "url": "https://www.ixigua.com/7302774339651404315"
    },
    {
        "title": "封阳台最便宜方案，造价不到断桥铝的一半，效果大家自己去评价。",
        "docid": "7310888539758166539",
        "url": "https://www.ixigua.com/7310888539758166539"
    },
    {
        "title": "装修半年的房子终于完工了，花费11.3万，装出了自己喜欢的样子。",
        "docid": "7335766771334709810",
        "url": "https://www.ixigua.com/7335766771334709810"
    },
    {
        "title": "5个建议💡客厅瞬间高级五倍 -",
        "docid": "7304841530877936180",
        "url": "https://www.ixigua.com/7304841530877936180"
    },
    {
        "title": "厨房的5个“先进设计”，如果家里一样都没有，说明你活在十年前!",
        "docid": "7330218552651481610",
        "url": "https://www.ixigua.com/7330218552651481610"
    },
    {
        "title": "小卧室不做榻榻米，又想做书桌，这个设计有点意思",
        "docid": "7330198321804116499",
        "url": "https://www.ixigua.com/7330198321804116499"
    },
    {
        "title": "长条木纹砖铺出来好看，但也有明显缺陷，很多人可能不知道",
        "docid": "7314262884689641995",
        "url": "https://www.ixigua.com/7314262884689641995"
    },
    {
        "title": "妈妈花20万装修后气坏儿子，到处踩坑就像住出租屋：被熟人宰了？",
        "docid": "7325306784263078409",
        "url": "https://www.ixigua.com/7325306784263078409"
    },
    {
        "title": "广东湿，你害不害怕，我表示，挺好的😂😂😂#回南天 #入住毛坯房",
        "docid": "7330149228787958324",
        "url": "https://www.ixigua.com/7330149228787958324"
    },
    {
        "title": "越来越多人不安装地暖？学学河北人的做法，舒适还不担心漏水",
        "docid": "7316123035122172453",
        "url": "https://www.ixigua.com/7316123035122172453"
    },
    {
        "title": "全自动开关的设计",
        "docid": "7336786627253305894",
        "url": "https://www.ixigua.com/7336786627253305894"
    },
    {
        "title": "好物分享｜大扫除装修房子或长久不住的房子，家具都可以用这防尘膜盖起来！",
        "docid": "7318883166033445416",
        "url": "https://www.ixigua.com/7318883166033445416"
    },
    {
        "title": "隔壁家装修电钻声太吵，女子担忧会凿穿墙壁，下一秒预言成真！",
        "docid": "7326118195587351076",
        "url": "https://www.ixigua.com/7326118195587351076"
    },
    {
        "title": "山顶土坯房改造历时半个月，很多活都看不出来，改造效果开始凸显",
        "docid": "7305018793070985769",
        "url": "https://www.ixigua.com/7305018793070985769"
    },
    {
        "title": "农村改造房子5年，最满意就是可以烧壁炉 跳跃的火 温暖的光",
        "docid": "7317919773730439691",
        "url": "https://www.ixigua.com/7317919773730439691"
    },
    {
        "title": "给荒废几十年的老房装上窗户，让它也能看看外面的世界 #改造小院",
        "docid": "7310477466152206875",
        "url": "https://www.ixigua.com/7310477466152206875"
    },
    {
        "title": "女生正准备拿瓢舀，卫生间检测防水的水，男友一招两分钟解决",
        "docid": "7323069856151142953",
        "url": "https://www.ixigua.com/7323069856151142953"
    },
    {
        "title": "第3套房子：电线不要埋墙了！看看广州人的做法，真是聪明又实用",
        "docid": "7328035844013752872",
        "url": "https://www.ixigua.com/7328035844013752872"
    },
    {
        "title": "不建议在实体店购买的八样东西",
        "docid": "7336508403696730660",
        "url": ""
    },
    {
        "title": "30岁女子花10万买150平老破小，改造效果令网友眼红：转卖能翻倍",
        "docid": "7326013487468315162",
        "url": "https://www.ixigua.com/7326013487468315162"
    },
    {
        "title": "140平的房子装修了半年，终于见到实景了，效果比较满意。",
        "docid": "7310551122031313458",
        "url": "https://www.ixigua.com/7310551122031313458"
    },
    {
        "title": "著名演员每天用生命在爬楼梯，逆天改造“烂尾楼”变舒适豪宅！",
        "docid": "7303778309219811894",
        "url": "https://www.ixigua.com/7303778309219811894"
    },
    {
        "title": "简简单单吊个棚，不想大动干戈的地方可以这样做！PVC板吊顶教程",
        "docid": "7303861154215821862",
        "url": "https://www.ixigua.com/7303861154215821862"
    },
    {
        "title": "这就是我在西安75万买的学区房，为了我家老二上学买的！",
        "docid": "7305697751172383243",
        "url": "https://www.ixigua.com/7305697751172383243"
    },
    {
        "title": "参观朋友中式四合院太漂亮，一颗盆景都上10万，美美看后太羡慕了",
        "docid": "7310524734940054056",
        "url": "https://www.ixigua.com/7310524734940054056"
    },
    {
        "title": "当南方人有了暖气片………一周年悬挂式暖气片使用分享｜费用安装",
        "docid": "7309491003642577435",
        "url": "https://www.ixigua.com/7309491003642577435"
    },
    {
        "title": "花光一个月工资，终于把卧室打造成老婆想要的样子，太值了",
        "docid": "7309154822186336808",
        "url": "https://www.ixigua.com/7309154822186336808"
    },
    {
        "title": "女子买下顶层房子，打通装修秒变大平层：省下的钱用来装修不香吗",
        "docid": "7307531938133344777",
        "url": "https://www.ixigua.com/7307531938133344777"
    },
    {
        "title": "住了3年终于明白，地暖和暖气片哪个更好！很多人都搞错了",
        "docid": "7321602524333638170",
        "url": "https://www.ixigua.com/7321602524333638170"
    },
    {
        "title": "盘下一间荒废小院，一家人一起将它改造翻新，居住在里面太温馨了",
        "docid": "7333935361749582372",
        "url": "https://www.ixigua.com/7333935361749582372"
    },
    {
        "title": "木料厂丢掉的空心残料，突发奇想改成精致木桌，厂长见了直夸人才",
        "docid": "7321673433803620864",
        "url": "https://www.ixigua.com/7321673433803620864"
    },
    {
        "title": "尽管外面大雪纷飞，但这个木屋中依旧很温暖",
        "docid": "7304858015352488487",
        "url": "https://www.ixigua.com/7304858015352488487"
    },
    {
        "title": "阿拉房子重新开工，不想再使用阿胜的钱，自己一步一步来",
        "docid": "7322832368921182730",
        "url": "https://www.ixigua.com/7322832368921182730"
    },
    {
        "title": "带大家参观娘家143平四室两厅的新房，光装修就花了60万!",
        "docid": "7324211553392132659",
        "url": "https://www.ixigua.com/7324211553392132659"
    },
    {
        "title": "为什么越来越多人不用铝窗封阳台？如今流行这样做，好看不被投诉",
        "docid": "7311643032162402854",
        "url": "https://www.ixigua.com/7311643032162402854"
    },
    {
        "title": "真是一个天才，利用铁路枕木制作令人惊叹的户外餐桌，成品惊艳",
        "docid": "7303750464766476810",
        "url": "https://www.ixigua.com/7303750464766476810"
    },
    {
        "title": "晨妤来新家参观，妈妈想给阁楼买一张床，看看这3张床哪个好看？",
        "docid": "7322772435600671282",
        "url": "https://www.ixigua.com/7322772435600671282"
    },
    {
        "title": "入住一年迎来了粉丝来访，一个劲的夸很赞！！",
        "docid": "7310597905000169994",
        "url": "https://www.ixigua.com/7310597905000169994"
    },
    {
        "title": "郑州厨房下水管装止逆阀，二楼厨房害怕返水装阀门。",
        "docid": "7322336315151024674",
        "url": "https://www.ixigua.com/7322336315151024674"
    },
    {
        "title": "抄作业！老房翻新，大咖设计师绝美江景房！",
        "docid": "7317551017107653120",
        "url": "https://www.ixigua.com/7317551017107653120"
    },
    {
        "title": "花3天制作了一对超有氛围的落地灯",
        "docid": "7317968693433434676",
        "url": "https://www.ixigua.com/7317968693433434676"
    },
    {
        "title": "36平三室一厅小家一镜到底，无关大小，喜欢休息时候拉上窗帘",
        "docid": "7313564972972737061",
        "url": "https://www.ixigua.com/7313564972972737061"
    },
    {
        "title": "老婆给2k买实木桌，拿100买根木料自己造，老婆直呼这钱花得值",
        "docid": "7320529330198643227",
        "url": "https://www.ixigua.com/7320529330198643227"
    },
    {
        "title": "搬新家前72小时Vlog…虽然打扫很累很累，但全家人都干劲十足啊",
        "docid": "7320204483493265946",
        "url": "https://www.ixigua.com/7320204483493265946"
    },
    {
        "title": "自从住进这个家，我再也没羡慕过别人。虽然没有多大",
        "docid": "7322289808716333607",
        "url": "https://www.ixigua.com/7322289808716333607"
    },
    {
        "title": "商品房阳台这样封比断桥窗还实用，通风大气又好看！",
        "docid": "7305639304070431272",
        "url": "https://www.ixigua.com/7305639304070431272"
    },
    {
        "title": "拆了它，温度就能上升三四度！#地暖不热 #温控阀拆除",
        "docid": "7321694288004907554",
        "url": "https://www.ixigua.com/7321694288004907554"
    },
    {
        "title": "小日本带水压热熔水管，这样的技术非常先进，值得学习",
        "docid": "7320555299436233216",
        "url": "https://www.ixigua.com/7320555299436233216"
    },
    {
        "title": "房屋内保温材料方式千万种，我找到了一种性价比贼高的。",
        "docid": "7321788867001418276",
        "url": "https://www.ixigua.com/7321788867001418276"
    },
    {
        "title": "花重金给孩子打造的秘密基地，结果装不了空调？！",
        "docid": "7314180188970713634",
        "url": "https://www.ixigua.com/7314180188970713634"
    },
    {
        "title": "卧室窗帘不能乱挂，听老师傅一说，才发现我家挂错了",
        "docid": "7336622143578325544",
        "url": ""
    },
    {
        "title": "连廊中间户的真实感受",
        "docid": "7315773044264272418",
        "url": "https://www.ixigua.com/7315773044264272418"
    },
    {
        "title": "暗访成都最大装修公司！商家都是如何套路你的？",
        "docid": "7324196209533387316",
        "url": "https://www.ixigua.com/7324196209533387316"
    },
    {
        "title": "自己动手也能更换铝合金窗户滑轮非常简单。",
        "docid": "7323428171213177353",
        "url": "https://www.ixigua.com/7323428171213177353"
    },
    {
        "title": "切记先量坑距再买马桶，过程不对花钱受罪，做改孔手术救马桶生命",
        "docid": "7327183882426515980",
        "url": "https://www.ixigua.com/7327183882426515980"
    },
    {
        "title": "60天小院改造计划",
        "docid": "7318043748955816467",
        "url": "https://www.ixigua.com/7318043748955816467"
    },
    {
        "title": "封阳台的9种设计方案，你更喜欢哪一款？#常州门窗何莲",
        "docid": "7306829255286751796",
        "url": "https://www.ixigua.com/7306829255286751796"
    },
    {
        "title": "我把“大块玻璃”换回“分段窗”后！有些话不得不说，太真实了",
        "docid": "7331676306739085850",
        "url": ""
    },
    {
        "title": "一分钟学会贴地砖全部流程，以后贴砖不求人",
        "docid": "7322419731070190134",
        "url": "https://www.ixigua.com/7322419731070190134"
    },
    {
        "title": "北京神秘少爷的城堡日式搬家，豪宅竟是祖传的？！",
        "docid": "7309779619555738150",
        "url": "https://www.ixigua.com/7309779619555738150"
    },
    {
        "title": "卧室做双眼皮吊顶还是石膏线？两种效果对比，哪种更经济？",
        "docid": "7319461660614361652",
        "url": "https://www.ixigua.com/7319461660614361652"
    },
    {
        "title": "村里第一台100寸电视机，七个人抬起来才给安装上，尺寸也太大了",
        "docid": "7315344261854003746",
        "url": "https://www.ixigua.com/7315344261854003746"
    },
    {
        "title": "老挝丈母娘家旧房改造好一直没添家具，中国女婿花1000万买沙发。",
        "docid": "7327981419592942090",
        "url": "https://www.ixigua.com/7327981419592942090"
    },
    {
        "title": "于您所需、助您置居\n#实木整装 #全屋订制 #实景拍摄效果",
        "docid": "7336796063602803237",
        "url": "https://www.ixigua.com/7336796063602803237"
    },
    {
        "title": "厨房",
        "docid": "7336814770677121563",
        "url": "https://www.ixigua.com/7336814770677121563"
    },
    {
        "title": "你见过装修笔记吗？粉丝看大崔视频整理厚厚一本，我被感动到了",
        "docid": "7336768595454263848",
        "url": ""
    },
    {
        "title": "买下一栋50年无人居住的老房子，将它推倒重建，完工那刻太震撼了",
        "docid": "7325324131837313546",
        "url": "https://www.ixigua.com/7325324131837313546"
    },
    {
        "title": "给老丈人打一张茶桌",
        "docid": "7323158150557729307",
        "url": "https://www.ixigua.com/7323158150557729307"
    },
    {
        "title": "你看日本木工铺木地板技术有多先进，遇到畸形角，用一个纸壳搞定",
        "docid": "7335006489502974499",
        "url": "https://www.ixigua.com/7335006489502974499"
    },
    {
        "title": "100万拿下北京老宅！耗时整整100天来改造！前后对比简直天差地别",
        "docid": "7331232032972309030",
        "url": "https://www.ixigua.com/7331232032972309030"
    },
    {
        "title": "过新年搬新家 欢迎参观路哥路嫂的428平新房子 全程解说一镜到底",
        "docid": "7330872878625358372",
        "url": "https://www.ixigua.com/7330872878625358372"
    },
    {
        "title": "广漂宝妈把市中心老破学区房，爆改成带两花园的温馨小家！",
        "docid": "7319330436130275849",
        "url": "https://www.ixigua.com/7319330436130275849"
    },
    {
        "title": "脏不脏上眼看想象再美不如行动一步，地暖已清洗的老铁请比耶✌🏻",
        "docid": "7316735865617646091",
        "url": "https://www.ixigua.com/7316735865617646091"
    },
    {
        "title": "实木家具水有多深？暗访佛山实木家具工厂！",
        "docid": "7308946054357975591",
        "url": "https://www.ixigua.com/7308946054357975591"
    },
    {
        "title": "自制富豪家的悬浮壁炉。\n友情提示：戴好你的墨镜。",
        "docid": "7308000202299081243",
        "url": "https://www.ixigua.com/7308000202299081243"
    },
    {
        "title": "已经换过一次施工队了，还要逼我再换吗#施工现场实拍",
        "docid": "7320512639531123254",
        "url": "https://www.ixigua.com/7320512639531123254"
    },
    {
        "title": "看了这栋房子还有没有想要设计图的？不过局部借鉴还是可以的",
        "docid": "7306494080425722418",
        "url": "https://www.ixigua.com/7306494080425722418"
    },
    {
        "title": "朋友花500万装修的别墅，简约轻奢上档次，等洞洞赚钱了也整一套",
        "docid": "7324652800531825163",
        "url": "https://www.ixigua.com/7324652800531825163"
    },
    {
        "title": "重做房屋内保温，到底给他穿件什么样的衣服呢？",
        "docid": "7319517043173098020",
        "url": "https://www.ixigua.com/7319517043173098020"
    },
    {
        "title": "你可能想象不到？楼梯竟然也能做成折叠的，而且方便省事不占空间",
        "docid": "7310571520827326995",
        "url": "https://www.ixigua.com/7310571520827326995"
    },
    {
        "title": "黑龙江小伙花3.5w安装空气能取暖，每天的电费是多少？有何优缺点",
        "docid": "7322362786208875071",
        "url": "https://www.ixigua.com/7322362786208875071"
    },
    {
        "title": "墙面起硝起碱，刮腻子要怎样处理，专业师傅告诉你",
        "docid": "7336423776508510771",
        "url": "https://www.ixigua.com/7336423776508510771"
    },
    {
        "title": "新房装修基本结束，专门带着老妈前来参观，老妈却显的非常拘束",
        "docid": "7320185482313531904",
        "url": "https://www.ixigua.com/7320185482313531904"
    },
    {
        "title": "马桶上盖正常，下盖落下无缓冲？一分钱不花修好",
        "docid": "7310859408341533218",
        "url": "https://www.ixigua.com/7310859408341533218"
    },
    {
        "title": "不",
        "docid": "7336865769994584586",
        "url": "https://www.ixigua.com/7336865769994584586"
    },
    {
        "title": "福田上沙大二房",
        "docid": "7336838784627147315",
        "url": "https://www.ixigua.com/7336838784627147315"
    },
    {
        "title": "趋势揭秘：2024室内设计都流行这么玩！",
        "docid": "7331573246649352756",
        "url": ""
    },
    {
        "title": "花120000买个根雕茶桌，最后却改成了鱼缸，大家觉得值不值",
        "docid": "7309414702491599400",
        "url": "https://www.ixigua.com/7309414702491599400"
    },
    {
        "title": "别墅地下室采光 几根导光管搞定",
        "docid": "7314606822227673612",
        "url": "https://www.ixigua.com/7314606822227673612"
    },
    {
        "title": "20几年铸铁排水管腐烂，楼上洗澡楼下下雨，一招治好，再战十年",
        "docid": "7306321819269595648",
        "url": "https://www.ixigua.com/7306321819269595648"
    },
    {
        "title": "厨房台面怎么选？不锈钢、岩板、石英石",
        "docid": "7314172089173443126",
        "url": "https://www.ixigua.com/7314172089173443126"
    },
    {
        "title": "邻居欺人太甚占我两米地基不还，今天找来挖机给他挖了",
        "docid": "7331661714636997159",
        "url": "https://www.ixigua.com/7331661714636997159"
    },
    {
        "title": "现代风无主灯装修",
        "docid": "7336852552480522806",
        "url": "https://www.ixigua.com/7336852552480522806"
    },
    {
        "title": "旧沙发被有缘人买走 一家人围坐客厅吃火锅 别有一番滋味",
        "docid": "7323617524132610570",
        "url": "https://www.ixigua.com/7323617524132610570"
    },
    {
        "title": "不是大平层，是我143平的小家。装修一年，入住半年，简简单单",
        "docid": "7334635665948148224",
        "url": "https://www.ixigua.com/7334635665948148224"
    },
    {
        "title": "瓷砖砸了一个洞怎么修？靠这个冷门的手艺，师傅一个月能赚15000",
        "docid": "7324996167094567475",
        "url": "https://www.ixigua.com/7324996167094567475"
    },
    {
        "title": "家具送到新房了，美好生活从现在开始，加油！#老挝生活",
        "docid": "7324980136204632626",
        "url": "https://www.ixigua.com/7324980136204632626"
    },
    {
        "title": "给北京的新家做美缝，老公听人劝不自己做了，花了2000效果很满意",
        "docid": "7319456542343103027",
        "url": "https://www.ixigua.com/7319456542343103027"
    },
    {
        "title": "加装电梯使用2年后，仍然看起来简洁漂亮，内行看门道说明原因",
        "docid": "7319835575974887986",
        "url": "https://www.ixigua.com/7319835575974887986"
    },
    {
        "title": "外行人装修VS内行人装修",
        "docid": "7314969115230536242",
        "url": "https://www.ixigua.com/7314969115230536242"
    },
    {
        "title": "全屋瓷砖完成效果，一起来欣赏一下吧",
        "docid": "7303926882624504335",
        "url": "https://www.ixigua.com/7303926882624504335"
    },
    {
        "title": "这才是真资格的极品夫妻，把旧房子拆除大改造，太震撼奢华了",
        "docid": "7314632217639158322",
        "url": "https://www.ixigua.com/7314632217639158322"
    },
    {
        "title": "这年头，谁买顶楼谁踩坑 #装修避坑 #装修 #漏水 #顶楼 #装修分享",
        "docid": "7316831946561028627",
        "url": "https://www.ixigua.com/7316831946561028627"
    },
    {
        "title": "我把地暖换成暖气片后，有些话不吐不快，太真实了！",
        "docid": "7322283336821703218",
        "url": "https://www.ixigua.com/7322283336821703218"
    },
    {
        "title": "假如我是一名干了多年的橱柜安装工，我一定不会告诉你这些事！",
        "docid": "7311201135476507188",
        "url": "https://www.ixigua.com/7311201135476507188"
    },
    {
        "title": "英国人修下水管，不用伸缩节，他是怎么接的，比我们先进在哪里？",
        "docid": "7320567208449409571",
        "url": "https://www.ixigua.com/7320567208449409571"
    },
    {
        "title": "韩式地暖房，拥有上下两层烟道，添一次柴火就能取暖一整天",
        "docid": "7326619993628475956",
        "url": "https://www.ixigua.com/7326619993628475956"
    },
    {
        "title": "500元修30米围墙？这三小伙太聪明了！不花钱就能住洋房",
        "docid": "7318726809053299237",
        "url": "https://www.ixigua.com/7318726809053299237"
    },
    {
        "title": "又完工一家，130平现代简约装修效果，看看有借鉴的吗？",
        "docid": "7307202388530889253",
        "url": "https://www.ixigua.com/7307202388530889253"
    },
    {
        "title": "用了半个多月做了一个全榫卯的衣柜",
        "docid": "7313846948241343017",
        "url": "https://www.ixigua.com/7313846948241343017"
    },
    {
        "title": "打到空心墙怎么固定膨胀螺丝？很多水电工都在学这个方法，很牢固",
        "docid": "7319029583570076194",
        "url": "https://www.ixigua.com/7319029583570076194"
    },
    {
        "title": "美国人安装地埋挡车桩，这般操作才叫专业！值得学习",
        "docid": "7323612212054983202",
        "url": "https://www.ixigua.com/7323612212054983202"
    },
    {
        "title": "客户买的新花洒 为省安装费找物业装 内丝弯头弄坏了需要砸墙修复",
        "docid": "7310995475107152399",
        "url": "https://www.ixigua.com/7310995475107152399"
    },
    {
        "title": "50后老两口干净整洁的家，年过65岁不算老，多向年轻人学习。",
        "docid": "7319054797360136756",
        "url": "https://www.ixigua.com/7319054797360136756"
    },
    {
        "title": "印度大理石地板量产工艺，全程极度舒适解压，成品温润如玉真漂亮",
        "docid": "7327136553787589157",
        "url": "https://www.ixigua.com/7327136553787589157"
    },
    {
        "title": "热熔2个死角弯头，一个人一把热熔器轻松搞定，太厉害了！",
        "docid": "7328345180527362595",
        "url": "https://www.ixigua.com/7328345180527362595"
    },
    {
        "title": "地基三万，房顶三万，窗户三万，工钱八万，地砖2.5万，贴砖1.5万",
        "docid": "7313816543799083560",
        "url": "https://www.ixigua.com/7313816543799083560"
    },
    {
        "title": "太神奇了吧!把碎竹片变成一件非凡的艺术休闲桌，成品惊艳众人",
        "docid": "7314138895640494601",
        "url": "https://www.ixigua.com/7314138895640494601"
    },
    {
        "title": "有一套属于自己的房子是一种归属感，一镜到底69平连廊中户小家",
        "docid": "7308921646897857051",
        "url": "https://www.ixigua.com/7308921646897857051"
    },
    {
        "title": "无烟柴火灶制作方法，尺寸构造全部过程，值得收藏",
        "docid": "7304990110004314664",
        "url": "https://www.ixigua.com/7304990110004314664"
    },
    {
        "title": "历时三个月，我的老破小终于改造完成啦",
        "docid": "7308673361935073829",
        "url": "https://www.ixigua.com/7308673361935073829"
    },
    {
        "title": "小哥干了20年木匠，独自设计打造中式木床，这手艺能出师了吗？",
        "docid": "7322024917300740608",
        "url": "https://www.ixigua.com/7322024917300740608"
    },
    {
        "title": "我们给客户做的全屋定制“翻车”了，以后这种板材大家慎重选择！",
        "docid": "7312485087843451432",
        "url": "https://www.ixigua.com/7312485087843451432"
    },
    {
        "title": "暖气师傅终于承认了!地暖还是墙暖好?安装/取暖效果/隐形成本避坑",
        "docid": "7321174122355130895",
        "url": "https://www.ixigua.com/7321174122355130895"
    },
    {
        "title": "一镜到底看我家：55平老破小学区房旧貌换新颜啦",
        "docid": "7317917822770741779",
        "url": "https://www.ixigua.com/7317917822770741779"
    },
    {
        "title": "山东一女生，晒出自家120㎡的新房内部照走红",
        "docid": "7336196835478012457",
        "url": ""
    },
    {
        "title": "新房装修，要不要包窗口，有哪些优缺点？",
        "docid": "7332465692676981286",
        "url": "https://www.ixigua.com/7332465692676981286"
    },
    {
        "title": "妹妹98平的房子装修花了15万，一家人过来参观，这姑娘真厉害",
        "docid": "7328338452737425983",
        "url": "https://www.ixigua.com/7328338452737425983"
    },
    {
        "title": "最完美的旧楼加装电梯，一楼不反对，对周围环境没有影响",
        "docid": "7308704840765407753",
        "url": "https://www.ixigua.com/7308704840765407753"
    },
    {
        "title": "带媳妇回陕西老家过年，又添了几样新家具，把屋里布置一下很温馨",
        "docid": "7332075755642225179",
        "url": "https://www.ixigua.com/7332075755642225179"
    },
    {
        "title": "后顶墙下顶地马桶摇晃不满意，改孔手术是个宝，前后对比效果好",
        "docid": "7331295219100418575",
        "url": "https://www.ixigua.com/7331295219100418575"
    },
    {
        "title": "👉本公司专业承接各种环氧树脂地坪漆，18029028875",
        "docid": "7336901452192809483",
        "url": "https://www.ixigua.com/7336901452192809483"
    },
    {
        "title": "好喜欢😍",
        "docid": "7336922914987606562",
        "url": "https://www.ixigua.com/7336922914987606562"
    },
    {
        "title": "楼上漏水，沟通没作用怎么办？来来来，刘工放大招#装修避坑",
        "docid": "7311676903037862439",
        "url": "https://www.ixigua.com/7311676903037862439"
    },
    {
        "title": "拥有一只“真火壁炉”竟然已经这么简单了吗？堪称完美的设计方案",
        "docid": "7316165256475378213",
        "url": "https://www.ixigua.com/7316165256475378213"
    },
    {
        "title": "爆改上海25平三角形的家，28岁女儿与父母同床，母亲靠生命晾衣服",
        "docid": "7306408101916508722",
        "url": "https://www.ixigua.com/7306408101916508722"
    },
    {
        "title": "上次买100寸电视的老乡搬了新家，30万就买了一套房，20万装修好",
        "docid": "7326433451862589986",
        "url": "https://www.ixigua.com/7326433451862589986"
    },
    {
        "title": "安德烈的工作日常 揭秘战斗民族是怎么装修房子的",
        "docid": "7319732659910148623",
        "url": "https://www.ixigua.com/7319732659910148623"
    },
    {
        "title": "漏水一直漏水下来，不敢回老家过年怎么办？#漏水维修",
        "docid": "7332785979779973682",
        "url": "https://www.ixigua.com/7332785979779973682"
    },
    {
        "title": "平台爆一雷血汗又无归，愿你心中有梦眼里有光，脚下有路平坦无浪",
        "docid": "7320830233622512147",
        "url": "https://www.ixigua.com/7320830233622512147"
    },
    {
        "title": "PPR三通怎么接入钢丝软管？工地上偷学一招，什么接头都不用买",
        "docid": "7326459802111246848",
        "url": "https://www.ixigua.com/7326459802111246848"
    },
    {
        "title": "居然还有这样的创意 小伙用砖块砌筑了一款沙发 太牛了#手工diy",
        "docid": "7307605783758406170",
        "url": "https://www.ixigua.com/7307605783758406170"
    },
    {
        "title": "二拉拉带我看房子，装修大气和我想的一样，有说有笑幸福满满",
        "docid": "7310538135342383657",
        "url": "https://www.ixigua.com/7310538135342383657"
    },
    {
        "title": "女子搬新家的第一年，全屋大扫除衣物断舍离，轻轻爽爽迎新年！",
        "docid": "7333207884752880168",
        "url": "https://www.ixigua.com/7333207884752880168"
    },
    {
        "title": "北京90平的老房子，媳妇重新布置了一下客厅，瞬间变得温馨又治愈",
        "docid": "7304587528311407123",
        "url": "https://www.ixigua.com/7304587528311407123"
    },
    {
        "title": "楼梯设计",
        "docid": "7336932051247071782",
        "url": "https://www.ixigua.com/7336932051247071782"
    },
    {
        "title": "福到我家好运连连",
        "docid": "7336895787873665577",
        "url": "https://www.ixigua.com/7336895787873665577"
    },
    {
        "title": "农村小院的阳光房完工了，30平花费4300，枚子兴高采烈开始布置",
        "docid": "7315229524000670220",
        "url": "https://www.ixigua.com/7315229524000670220"
    },
    {
        "title": "日本实木储物柜加工过程，榫卯结构简约大气，国内厂商该学学",
        "docid": "7306712262617203250",
        "url": "https://www.ixigua.com/7306712262617203250"
    },
    {
        "title": "小两口花6万全屋定制，入住了半年发现问题，把经验分享给大家",
        "docid": "7308010873900139049",
        "url": "https://www.ixigua.com/7308010873900139049"
    },
    {
        "title": "保温层很重要吗？亲身实验决定重建房屋保温层！",
        "docid": "7316882390965322280",
        "url": "https://www.ixigua.com/7316882390965322280"
    },
    {
        "title": "带您逛红木大集 看真正的榫卯结构无甲醛的实木家具 价格便宜",
        "docid": "7309794578591121974",
        "url": "https://www.ixigua.com/7309794578591121974"
    },
    {
        "title": "今天家里开工装外墙，二娃请大家吃饭，十几个人的饭菜只能打包",
        "docid": "7319431210844258855",
        "url": "https://www.ixigua.com/7319431210844258855"
    },
    {
        "title": "修补内丝哪家强山西小米来帮忙，老房内丝开裂渗水，热熔换新解决",
        "docid": "7328245588552909350",
        "url": "https://www.ixigua.com/7328245588552909350"
    }
]