[
    {
        "title": "江西拾荒老人沉迷绘画40年，妻子绝望携子离开，专家：水平一般",
        "docid": "7376218360754782758",
        "url": ""
    },
    {
        "title": "梁羽生做梦也没想到，他曾经的小弟竟以《射雕英雄传》击败自己",
        "docid": "7354953091403448842",
        "url": ""
    },
    {
        "title": "他身上有文人向往的“魏晋风骨”，到底是“疯子”还是“鬼才”",
        "docid": "7376143696636543538",
        "url": ""
    },
    {
        "title": "爱上大10岁朋友妻，为她放弃财产继承，相守53年后，她去世他疯了",
        "docid": "7353914491769504268",
        "url": ""
    },
    {
        "title": "因字太好被破格提拔为状元，彭启丰的小楷几近完美！",
        "docid": "7343983285808693786",
        "url": ""
    },
    {
        "title": "庞晓戈和第一任老公离婚，如今退出梨园春，把所有青春留在了舞台",
        "docid": "7355042153304949286",
        "url": ""
    },
    {
        "title": "1996年，卢弘杰挖出8吨树根，4年后，日本人出价1200万拒绝售卖",
        "docid": "7371739639696245288",
        "url": ""
    },
    {
        "title": "别怀疑！这就是书法的捷径！古代顶级四大书法家，都用它迅速成功",
        "docid": "7358070584103879168",
        "url": ""
    },
    {
        "title": "康有为、刘海粟、赵朴初、启功、林筱之同写“观自在”，你喜欢谁",
        "docid": "7354629979731132943",
        "url": ""
    },
    {
        "title": "武侠小说里最精彩的武打描写，当以温瑞安《幽冥血河车》为代表作",
        "docid": "7356532416208437800",
        "url": ""
    },
    {
        "title": "《庆余年》原著中，四大宗师实力应该如何排名？",
        "docid": "7358582648115069478",
        "url": ""
    },
    {
        "title": "孙晓云拿下第四届兰亭奖的8个大字，最突出的特点就是肥而不腻",
        "docid": "7370257002213327375",
        "url": ""
    },
    {
        "title": "萧峰死后，后世江湖突然冒出一位武学奇才，将虚竹杀进了棺木之中",
        "docid": "7353606622591271463",
        "url": ""
    },
    {
        "title": "外国人还想挑战高阶中文？就一个去世的说法，够他们研究一辈子了",
        "docid": "7374822417396433420",
        "url": ""
    },
    {
        "title": "终于背会《滕王阁序》，太过美妙，有3点自己的看法",
        "docid": "7363652286620975667",
        "url": ""
    },
    {
        "title": "夜半惊魂！半夜在抽屉里摸到“凉飕飕的东西”—红布封口的白瓷瓶",
        "docid": "7375866348452332095",
        "url": ""
    },
    {
        "title": "建筑材料：为啥现代混凝土百年就垮塌，古罗马混凝土却能用千年？",
        "docid": "7351455468297962010",
        "url": ""
    },
    {
        "title": "番茄写小说，数据不好多少万字切比较好？其实官方说得很清楚",
        "docid": "7375537135975236130",
        "url": ""
    },
    {
        "title": "泪目！📖老课本里的暖心插画🎨",
        "docid": "7376252831605293583",
        "url": ""
    },
    {
        "title": "徐悲鸿厌恶发妻，故意给儿子起了个晦气的名字，7年后字字应验",
        "docid": "7361304196551688716",
        "url": ""
    },
    {
        "title": "“亲爸”一文太有趣了，值得一看",
        "docid": "7375744325910577679",
        "url": ""
    },
    {
        "title": "50年代，梅兰芳的舞台照，抱病最后一次登台演出，距去世仅隔68天",
        "docid": "7366568686217364031",
        "url": ""
    },
    {
        "title": "庆余年大结局，原著叶轻眉日记大曝光！叶轻眉日记里面的陈萍萍",
        "docid": "7375449489043390985",
        "url": ""
    },
    {
        "title": "四川画家一幅肖像画了1年，模特忍不了跑了，后来画作卖了7015万",
        "docid": "7342787979343446563",
        "url": ""
    },
    {
        "title": "“长歌行”和“短歌行”到底是什么意思？",
        "docid": "7343606655726387752",
        "url": ""
    },
    {
        "title": "《侠客行》石破天的父母到底是不是石清闵柔？为何小说中不说明？",
        "docid": "7355865951520571941",
        "url": ""
    },
    {
        "title": "林冲断气前才醒悟，难怪宋江鲁智深瞧不起他，你看林冲错杀了谁？",
        "docid": "7357970481267376680",
        "url": ""
    },
    {
        "title": "中国的四大石窟哪个是你心中的No.1",
        "docid": "7344619692109152768",
        "url": ""
    },
    {
        "title": "后主李煜12首绝代诗词",
        "docid": "7343802067955253794",
        "url": ""
    },
    {
        "title": "能与高宠战5个回合以上的8个高手，2人超厉害，6人有点勉强",
        "docid": "7362750859963335219",
        "url": ""
    },
    {
        "title": "告别书荒，10本重生年代文，5本老书，5本新书。",
        "docid": "7372120302781956644",
        "url": ""
    },
    {
        "title": "3岁识字、5岁博览群书、7岁就出家，9岁出国留学、12岁登坛讲经",
        "docid": "7376198200648057378",
        "url": ""
    },
    {
        "title": "山东农民坚持41年写书法，一幅字10万不卖，靠写字送儿子日本留学",
        "docid": "7359487729631068708",
        "url": ""
    },
    {
        "title": "西门庆的豪横，骄淫奢靡只是表象，读完金瓶梅才感觉后背发凉！",
        "docid": "7374349365705523775",
        "url": ""
    },
    {
        "title": "大师、淫棍、恶霸——书画大师董其昌的分裂人生",
        "docid": "7353567309405209103",
        "url": ""
    },
    {
        "title": "现如今，酱油只顾“赚钱”，却丢了“酱香”的初心",
        "docid": "7375447618526249512",
        "url": ""
    },
    {
        "title": "中国四大道教名山，个个都是福地，有空去看看，不给此生留遗憾。",
        "docid": "7343604019287720458",
        "url": ""
    },
    {
        "title": "杜甫最美的一首春天诗，美到极致，心动到极致，许你一片繁花似锦",
        "docid": "7345654666711597602",
        "url": ""
    },
    {
        "title": "“花尼姑”释智定，住4000万豪宅与两个和尚结婚，把寺庙当摇钱树",
        "docid": "7359523925841232438",
        "url": ""
    },
    {
        "title": "他是中国画坛的悲剧，一个业余爱好者，死后震惊整个美术界",
        "docid": "7373888180711408178",
        "url": ""
    },
    {
        "title": "病床上的“女梵高”，8岁瘫痪，卧床36年，却用指缝画出星辰大海",
        "docid": "7376185943440491047",
        "url": ""
    },
    {
        "title": "一曹二项三存孝，四薛五霸六七郎！六大高手，高宠为何没上榜？",
        "docid": "7355321385515778610",
        "url": ""
    },
    {
        "title": "为什么要多读书？苏轼的5首诗词，是我见过最好的回答",
        "docid": "7356805560718639631",
        "url": ""
    },
    {
        "title": "笑麻了！俄媒爆料，美国采购中国古代兵书，网友感慨都没听过书名",
        "docid": "7376214341089002011",
        "url": ""
    },
    {
        "title": "被中国人同化的老外反差能有多大？原来老外之间也存在鄙视链",
        "docid": "7375820500926300672",
        "url": ""
    },
    {
        "title": "94年老师留我在他家过夜，半夜他女儿摸黑进我屋，现在是我媳妇",
        "docid": "7376197117951623691",
        "url": ""
    },
    {
        "title": "书法史上公认的11幅神品",
        "docid": "7348632533828895282",
        "url": ""
    },
    {
        "title": "分享一组杨焕丹老师的硬笔书法",
        "docid": "7364913184211337737",
        "url": ""
    },
    {
        "title": "千万别把闫妮和靳东放在一起，真是笑死个人，绝了啊！",
        "docid": "7352705690701562404",
        "url": ""
    },
    {
        "title": "价值百万民国银婚书，被孙女融成250元银手镯，网友：富不过三代",
        "docid": "7375930433411891764",
        "url": ""
    },
    {
        "title": "玩大了！玉石现在没人买，20多年来曾经风光无限，又快速陨落！",
        "docid": "7358761043419546127",
        "url": ""
    },
    {
        "title": "这条龙舟是出了名的快，一定要看到最后",
        "docid": "7372397772097454644",
        "url": ""
    },
    {
        "title": "《剑来》为什么写得这么啰嗦？五个原因，让人很无奈",
        "docid": "7352208920338793000",
        "url": ""
    },
    {
        "title": "在《边城浪子》中傅红雪和叶开，谁的武功更高？看荆无命怎么说的",
        "docid": "7347683154402001444",
        "url": ""
    },
    {
        "title": "书荒终结者，2024年最火的十本小说，没有之一，记得收藏",
        "docid": "7359403150497694244",
        "url": ""
    },
    {
        "title": "生育率低下的最终结果：真正意义上彻底的“亡国灭种”",
        "docid": "7376162799858369062",
        "url": ""
    },
    {
        "title": "会说话的肘子《第一序列》完结三年后突破十万均订，起点第15本",
        "docid": "7355845246905827880",
        "url": ""
    },
    {
        "title": "太乙天尊作为幽冥教主，为何孙悟空大闹地府时，他却坐视不管？",
        "docid": "7355812428120130059",
        "url": ""
    },
    {
        "title": "中国最明目张胆的九大错别字，服了，你见过几个？",
        "docid": "7361316750262305334",
        "url": ""
    },
    {
        "title": "整理半年，终于把60个草书符号找全了，本文分享冬字符等8个符号",
        "docid": "7369436033987248650",
        "url": ""
    },
    {
        "title": "揭秘山东‌倒装句：南方网友直呼烧脑，语言 魅力引热议",
        "docid": "7375381754590380585",
        "url": ""
    },
    {
        "title": "33座令人印象深刻的建筑，让人叹为观止！",
        "docid": "7375398094781776418",
        "url": ""
    },
    {
        "title": "探访林徽因设计的“最文艺火车站”",
        "docid": "7371330520300470784",
        "url": ""
    },
    {
        "title": "爸又将大姑一家接来过五一，让妈一人做饭，五一早上我带妈去旅游",
        "docid": "7373860820805059083",
        "url": ""
    },
    {
        "title": "画家写生完去上厕所，回来发现俩熊孩子正在他画上涂鸦... 这哈哈~",
        "docid": "7375873584654320140",
        "url": ""
    },
    {
        "title": "戏曲演员踩鬼步来回挪动，衣摆静止仿佛飘空中，仅花3秒全场喝彩",
        "docid": "7371661424151659043",
        "url": ""
    },
    {
        "title": "于右任榜书匾额",
        "docid": "7364203654393823744",
        "url": ""
    },
    {
        "title": "烧饼央视炫耀会外语，被朱迅流利日语差点气哭，朱迅多才多艺合集",
        "docid": "7362238630208733696",
        "url": ""
    },
    {
        "title": "武松杀潘金莲，为什么要先扯开她的胸衣，难道贪图她的美色？",
        "docid": "7376188554570940928",
        "url": ""
    },
    {
        "title": "“国潮”热成“顶流” 中华文化阔步走向全球",
        "docid": "7375806011568914944",
        "url": ""
    },
    {
        "title": "晚潮 | “羽扇纶巾”究竟指的是谁？",
        "docid": "7376055206355681803",
        "url": ""
    },
    {
        "title": "眯眯眼是对亚洲人的歧视吗？网友：咱们就是太善良了",
        "docid": "7375887992906400265",
        "url": ""
    },
    {
        "title": "中国人民银行定于2024年6月8日发行国家宝藏（启蒙奠基）金银纪念币一套",
        "docid": "7376082307221865014",
        "url": ""
    },
    {
        "title": "再造“桃花源” ——评张秉毅长篇小说《五谷地》",
        "docid": "7376088963146170880",
        "url": ""
    },
    {
        "title": "36000多册近8亿字 《四库全书》究竟是什么书",
        "docid": "7360859927201759759",
        "url": ""
    },
    {
        "title": "“中国故事——以华服之美与世界对话”讲座走进马耳他",
        "docid": "7376078851354460707",
        "url": ""
    },
    {
        "title": "长沙新地标来了，年内开放！",
        "docid": "7376200185673761332",
        "url": ""
    },
    {
        "title": "新地标，来了！",
        "docid": "7363103936108167730",
        "url": ""
    },
    {
        "title": "点评：几乎无差评的十大经典网络小说",
        "docid": "7346926196506001955",
        "url": ""
    },
    {
        "title": "汉字花两千多年跳出的坑，字母语言们还在里面",
        "docid": "7358669821649699378",
        "url": ""
    },
    {
        "title": "“四不伤害”是错的，“三不伤害”才正确",
        "docid": "7355299805952000524",
        "url": ""
    },
    {
        "title": "《水浒传》十字坡的秘密：施耐庵仅用两字，揭开张青夫妇的真面目",
        "docid": "7347588345419252236",
        "url": ""
    },
    {
        "title": "咱们中国人什么时候开始不喊“爹娘”，而统一叫“爸妈”的？",
        "docid": "7376238894700675622",
        "url": ""
    },
    {
        "title": "北京打工女和抠门老外相恋，4年后知男方是豪门，自己成伯爵夫人",
        "docid": "7350610763666555427",
        "url": ""
    },
    {
        "title": "莺儿：红楼梦第一撩汉高手，初登场就满嘴黄话，绣春囊的真主人",
        "docid": "7034826969380372996",
        "url": ""
    },
    {
        "title": "中国5大奇葩建筑：柳州大夜壶上榜，山东佛跳墙一天就被拆除！",
        "docid": "7375070588416655887",
        "url": ""
    },
    {
        "title": "高圆圆胡歌vs柳岩黄轩，去影院看哪对？| 北京文艺日历",
        "docid": "7376115677213491766",
        "url": ""
    },
    {
        "title": "老秤杆别再车珠子了！文玩专家告诉你它的真正价值所在",
        "docid": "7374744635828093478",
        "url": ""
    },
    {
        "title": "持续两个多月 龙岗儿童公园上演儿童戏剧嘉年华",
        "docid": "7376177313052738075",
        "url": ""
    },
    {
        "title": "江西上高：特色文化走出国门",
        "docid": "7376109842995397147",
        "url": ""
    },
    {
        "title": "他碾压鲁智深、吓跑武松，上了梁山却沉迷美色，最后死得惨不忍睹",
        "docid": "7360649667895820815",
        "url": ""
    },
    {
        "title": "这些宝藏你了解多少？5月份非遗热搜榜发布",
        "docid": "7376239258442482188",
        "url": ""
    },
    {
        "title": "忻州市文化馆举办“庆六一·迎端午”少儿绘画作品展",
        "docid": "7376249865455567386",
        "url": ""
    },
    {
        "title": "逐浪竞舟！“金荡杯”第三届江苏省传统龙舟邀请赛（鹅湖站）开赛",
        "docid": "7375805834762240527",
        "url": ""
    },
    {
        "title": "他是一位将书法写到极致的青年教师，5夺兰亭奖，2斩国展最高奖",
        "docid": "7347554890132783654",
        "url": ""
    },
    {
        "title": "草书宋·黄庭坚《松风阁》长卷欣赏",
        "docid": "7361847368242725415",
        "url": ""
    },
    {
        "title": "寻找下一部《新龙门客栈》",
        "docid": "7375724578498282021",
        "url": ""
    },
    {
        "title": "第39届安徽省少儿书画大赛获奖作品展在肥举行",
        "docid": "7376206754171912754",
        "url": ""
    },
    {
        "title": "象征主义绘画中的“繁花”",
        "docid": "7360025588578435610",
        "url": ""
    },
    {
        "title": "上海市眼病防治中心发布新书，用故事告诉孩子爱眼护眼",
        "docid": "7376263706512065061",
        "url": ""
    },
    {
        "title": "龙舟竞渡迎端午 多地龙舟赛燃情开赛",
        "docid": "7376143434769269288",
        "url": ""
    },
    {
        "title": "老街故事｜天津五大道焕新记",
        "docid": "7358402885266244136",
        "url": ""
    },
    {
        "title": "扬州五亭桥夜景灯光工程璀璨亮相，泛光照明成就古城新名片",
        "docid": "7374319748819059239",
        "url": ""
    },
    {
        "title": "经典童话庆六一！儿童剧《绿野仙踪》在芙蓉国剧场上演",
        "docid": "7375918863440986650",
        "url": ""
    },
    {
        "title": "文化中国行｜津味老街的古韵新生，来漫游！",
        "docid": "7376260460322177599",
        "url": ""
    },
    {
        "title": "[墨轩撷英] 和而不群·山河呐喊 | 张志民",
        "docid": "7376109573750424103",
        "url": ""
    },
    {
        "title": "智永楷书集字｜巜记承天寺夜游》",
        "docid": "7376153700294738444",
        "url": ""
    },
    {
        "title": "《夜闯卧虎滩》 人民美术出版社 刘义奉 绘",
        "docid": "7376102278423003682",
        "url": ""
    },
    {
        "title": "公益演出！这部光明原创孵化戏剧即将上演",
        "docid": "7375735654716424739",
        "url": ""
    },
    {
        "title": "庆六一迎端午，青岛百联奥莱举办少儿爱国诗词大会",
        "docid": "7376209344183927296",
        "url": ""
    },
    {
        "title": "“师古不拟古”：写意花鸟画的传统技法与创新精神探析",
        "docid": "7376146937881330191",
        "url": ""
    },
    {
        "title": "【夜读 · 组诗】向边关（140）山泉与士兵",
        "docid": "7374712120270881334",
        "url": ""
    },
    {
        "title": "韩国真的不再用汉字了？并非如此！他们其实是在用汉字区分阶级！",
        "docid": "7348957521614422562",
        "url": ""
    },
    {
        "title": "端午怎么玩①|端午假期，龙舟很忙",
        "docid": "7376302993248961062",
        "url": ""
    },
    {
        "title": "张少佐解读袁阔成、单田芳两大名家谁说得更好？",
        "docid": "7357367727369110068",
        "url": ""
    },
    {
        "title": "文脉华章 | 解谜九百年前的“青绿山水”",
        "docid": "7375877770536108571",
        "url": ""
    },
    {
        "title": "端午节临近  多地举行传统民俗活动赛龙舟",
        "docid": "7376076813862208010",
        "url": ""
    },
    {
        "title": "这些石头来历竞如此之大,揭示这些石头的神秘面纱",
        "docid": "7375914231977214502",
        "url": ""
    },
    {
        "title": "《知否》卫小娘明知道流水般的补品有问题，为何还统统吃下！",
        "docid": "7369488169114272292",
        "url": ""
    },
    {
        "title": "《知否》顾廷烨为什么不直接求娶明兰，非说是盛家嫡女绕一大圈？",
        "docid": "7360533074256200244",
        "url": ""
    },
    {
        "title": "国内已建成最美的剧院之二",
        "docid": "7342903888280175138",
        "url": ""
    },
    {
        "title": "启功、赵朴初、于右任、齐白石等同写“寿”！谁的“寿”更胜一筹",
        "docid": "7357896120486117900",
        "url": ""
    },
    {
        "title": "用生命换来的“崖柏”，曾经红极一时，如今却“一文不值”",
        "docid": "7358418232014914074",
        "url": ""
    },
    {
        "title": "风水轮流转，6年前用“公式相声”叫板郭德纲的李宏烨终于被反噬",
        "docid": "7363599530438476325",
        "url": ""
    },
    {
        "title": "我爸自从开始盘手串，家里吃水果都不能乱扔果核了，都得留着待盘",
        "docid": "7349556952676123190",
        "url": ""
    },
    {
        "title": "同一个上帝，为什么犹太教，基督教和伊斯兰教间有本质冲突",
        "docid": "7352356003691741759",
        "url": ""
    },
    {
        "title": "他专业捡石头29年！最满意的是这块……",
        "docid": "7343543943306592820",
        "url": ""
    },
    {
        "title": "中书协4位书法名家，开创出四大新书体，震惊书坛，气坏网友",
        "docid": "7361738386895503884",
        "url": ""
    },
    {
        "title": "郭沫若题“中国银行”取代了谭延闿所题“中国银行”，谁更胜一筹",
        "docid": "7371339530055533091",
        "url": ""
    },
    {
        "title": "重庆被“魔改”的佛窟内，包工头竟将自己刻在卧佛前，冒充弟子？",
        "docid": "7354718574818247205",
        "url": ""
    },
    {
        "title": "2011年，苏紫紫全裸接受记者采访，并直言：“你敢看着我么？”",
        "docid": "7376280092495954432",
        "url": ""
    },
    {
        "title": "中国排名前十的镇国之宝，每一件都价值连城",
        "docid": "7375441864302658067",
        "url": ""
    },
    {
        "title": "十位全国钢笔书法大赛特等奖获得者，谁的书法更胜一筹？",
        "docid": "7368697265123148303",
        "url": ""
    },
    {
        "title": "文言文能有多简洁？看完网友的评论，你就明白了！受益匪浅！",
        "docid": "7364397480605155880",
        "url": ""
    },
    {
        "title": "张馨予赞叹的鱼皮衣 不仅能吃还是非遗",
        "docid": "7349194772218888758",
        "url": ""
    },
    {
        "title": "不愧是66w+赞的作品！画家和猫至少要疯一个",
        "docid": "7364741961284567587",
        "url": ""
    },
    {
        "title": "疑似黄庭坚书法日本拍出3亿元天价，传为中国马姓收藏家所得！",
        "docid": "7359287287030481442",
        "url": ""
    },
    {
        "title": "被步惊云狂抽大逼兜子，不会武功的武林至尊是怎么当上至尊的？",
        "docid": "7370630930576327179",
        "url": ""
    },
    {
        "title": "孙悟空画的圈能阻挡妖怪，为何他只画了一次，就再也没画过",
        "docid": "7352090697690120731",
        "url": ""
    },
    {
        "title": "苏轼才是唐宋八大家里顶级交际花！网友：跳出苏轼圈根本不可能！",
        "docid": "7355805122208858675",
        "url": ""
    },
    {
        "title": "《西游记后传》中十大战力最强的高手",
        "docid": "7350317227771445795",
        "url": ""
    },
    {
        "title": "封神：殷商为何是闻太师出征黄飞虎守家？对比两人实力就知道了",
        "docid": "7354648462610252300",
        "url": ""
    },
    {
        "title": "二郎神麾下的1犬6兄弟1200草头神为什么那么猛？他们都是谁？",
        "docid": "7368630399293194802",
        "url": ""
    },
    {
        "title": "辛弃疾写相思的巅峰词，开篇就是千古名句，一跃成了中国文学经典",
        "docid": "7362183533751763471",
        "url": ""
    },
    {
        "title": "宋词里美到窒息的中式意境",
        "docid": "7350323550215062050",
        "url": ""
    },
    {
        "title": "杨戬的八九玄功是谁教的，为啥从没见玉鼎真人使过？",
        "docid": "7362905186110603813",
        "url": ""
    },
    {
        "title": "明星的书法：徐静蕾，黄轩，夏雨，郑智化，这四个人写的真不赖！",
        "docid": "7368336253437313563",
        "url": ""
    },
    {
        "title": "王重阳为何称周伯通为师弟？你看老顽童他爹是谁？五绝见了要跪拜",
        "docid": "7367358399708709410",
        "url": ""
    },
    {
        "title": "雪中悍刀行：前30名高手排名，老黄境界太低，李淳罡仅排第六",
        "docid": "7345761931380589093",
        "url": ""
    },
    {
        "title": "《雪中悍刀行》剑九黄的武功如何？他打得过轩辕大磐吗？",
        "docid": "7337682833316053516",
        "url": ""
    },
    {
        "title": "澳门这一晚，江湖地位，人情冷暖，在赵本山身上体现得淋漓尽致",
        "docid": "7348118017936572962",
        "url": ""
    },
    {
        "title": "21年前陕西男子挖出8吨夜明珠，值22亿却不卖，今成公园“路灯”",
        "docid": "7358726265932694031",
        "url": ""
    },
    {
        "title": "南宫仆射的四大仇人，有3个是陆地神仙，她能复仇成功吗？",
        "docid": "7362018229017297408",
        "url": ""
    },
    {
        "title": "郭德纲相声启蒙老师亲口证实 开封“王婆”赵梅的丈夫是他的大徒弟",
        "docid": "7352321418090889743",
        "url": ""
    },
    {
        "title": "福建男子花200买的黄螺，内藏龙珠曾卖2200万，至今无法人工养殖",
        "docid": "7365769963564646975",
        "url": ""
    },
    {
        "title": "中国古代十大旷世文章，一生必背10大千古奇文，谁能排第一？",
        "docid": "7343936721271161353",
        "url": ""
    },
    {
        "title": "姜子牙为何不给武吉封神？他的地位比杨戬还高，实在是封无可封",
        "docid": "7360676505896370739",
        "url": ""
    },
    {
        "title": "杨绛评价张爱玲：长得难看爱出风头还奇装异服，你们都太高看她了",
        "docid": "7348684032487588390",
        "url": ""
    },
    {
        "title": "武松杀潘金莲，为什么要先扯开她的胸衣，难道也贪图她的美色？",
        "docid": "7375451817063105064",
        "url": ""
    },
    {
        "title": "西游各路仙佛战力排行，前十名都有谁？",
        "docid": "7369622652312470056",
        "url": ""
    },
    {
        "title": "入戏太深以宝玉自居，表白陈晓旭遭拒，32岁酗酒身亡",
        "docid": "7366531683908141620",
        "url": ""
    },
    {
        "title": "一生留下2首诗，仅用一首击败李白与杜甫，被称为“孤篇盖全唐”",
        "docid": "7372099044887478799",
        "url": ""
    },
    {
        "title": "为什么小说女主没有山东人？网友分享太精辟，原来是我肤浅了哈哈",
        "docid": "7369181883743076915",
        "url": ""
    },
    {
        "title": "若明教四大法王对上玄冥二老，双方谁更胜一筹?",
        "docid": "7374029448259174948",
        "url": ""
    },
    {
        "title": "澳门这一夜，赵本山出场看呆外国友人，晚宴吃席坐在马丽沈腾中间",
        "docid": "7347912381269475876",
        "url": ""
    },
    {
        "title": "才知道普通天兵是不能围剿大圣的!网友：有时候天才只是门槛",
        "docid": "7359965577844163110",
        "url": ""
    },
    {
        "title": "金庸小说里描写的哪些故事情节深深打动了你？",
        "docid": "7356176180296319528",
        "url": ""
    },
    {
        "title": "李白被妻子嫌弃，写下一首最爽的诗，最后14字被无数人当成座右铭",
        "docid": "7358041080731910682",
        "url": ""
    },
    {
        "title": "神雕侠侣人物素描引爆网络！网友惊呼：每一笔都活灵活现！",
        "docid": "7370656425057632783",
        "url": ""
    },
    {
        "title": "江西拾荒老人沉迷绘画40年，妻子携子绝望离开，专家：水平一般！",
        "docid": "7372487992830624275",
        "url": ""
    },
    {
        "title": "他画的绸缎太有光泽了，简直太亮眼！",
        "docid": "7349819608017011215",
        "url": ""
    },
    {
        "title": "天津男子花10年捡了600多块蛟河橄榄石，您会认同专家要求上交吗",
        "docid": "7374274272442761743",
        "url": ""
    },
    {
        "title": "北方搓澡真的扒开搓吗？南方网友不淡定了，评论区脸都笑红了",
        "docid": "7375906838803530274",
        "url": ""
    },
    {
        "title": "什么是你去河南才明白的事情？网友的分享很精彩，评论区里长见识",
        "docid": "7356057244896838155",
        "url": ""
    },
    {
        "title": "封神最强脑洞：闻太师远征北海15年，其实是讨伐神王奥丁",
        "docid": "7352423982278132243",
        "url": ""
    },
    {
        "title": "张大千的“限制级”美人图，十分香艳",
        "docid": "7374185497486164532",
        "url": ""
    },
    {
        "title": "“请问，我会背《咏鹅》，可以免哪个景区的门票”",
        "docid": "7351343311535718964",
        "url": ""
    },
    {
        "title": "天涯神帖：以一个修行者的真实视角，揭开宇宙天道的秘密",
        "docid": "7370642269235364390",
        "url": ""
    }
]