[
    {
        "title": "文松相亲认错人，杨树林：你整准了在搂，文松：这个也不错",
        "docid": "7319397954740683299",
        "url": ""
    },
    {
        "title": "论中式恐怖和西式恐怖的区别！看文字已经不敢晚上独自上厕所了",
        "docid": "7322262893611991563",
        "url": ""
    },
    {
        "title": "为何扶弟魔大部分是女人，很少有男人扶弟扶妹？评论区全是实话",
        "docid": "7339721297842143763",
        "url": ""
    },
    {
        "title": "您见过诸葛亮的书法吗？水平之高，竟让书圣王羲之临摹，真厉害！",
        "docid": "7322673713021977123",
        "url": ""
    },
    {
        "title": "白天演员、晚上间谍，隐姓埋名75年，95岁的“姜子牙”传奇一生",
        "docid": "7314991692636160546",
        "url": ""
    },
    {
        "title": "信息差背后的认知鸿沟：为何理解事物总有差距？",
        "docid": "7344566897914528319",
        "url": ""
    },
    {
        "title": "中国历史上最伟大的三位巨人，其中一位是我们心中永远的红太阳！",
        "docid": "7337887801309921827",
        "url": ""
    },
    {
        "title": "河图洛书高速转动，是中国古代文明的图案，弘扬中华文化。",
        "docid": "7334627698331320859",
        "url": ""
    },
    {
        "title": "《大奉打更人》仙侠里的韦小宝，许七安的七个老婆和家人都有谁",
        "docid": "7316203170626077222",
        "url": ""
    },
    {
        "title": "杜甫最难超越的一首诗，全是千古名句，千年来无人超越",
        "docid": "7311612020892336652",
        "url": ""
    },
    {
        "title": "“穿挤奶小吊带，粉发还化妆，她肯定是坏女人！”",
        "docid": "7343875339850056228",
        "url": ""
    },
    {
        "title": "关羽和赵云从未真正交手，此二人谁更厉害？敌人的反应给出了答案",
        "docid": "7312988561291461160",
        "url": ""
    },
    {
        "title": "历史与虚构交织，三国的人物故事，与文学创作之间有怎样的关系？",
        "docid": "7343896700253209115",
        "url": ""
    },
    {
        "title": "“师傅”与“师父”两词到底有何区别？别傻傻分不清，被人笑话了",
        "docid": "7312740256636830217",
        "url": ""
    },
    {
        "title": "被美国人誉为金口哨#东北二人转 #本山传媒演员 #才艺 #口哨",
        "docid": "7319458118520275510",
        "url": ""
    },
    {
        "title": "泰国的泼水节变成“露肉节”，姑娘因为穿着被抓，看完让人沉默",
        "docid": "7344633218571862563",
        "url": ""
    },
    {
        "title": "闹大了！南方小土豆：你们北方搓澡真的要扒开搓吗？评论区笑疯了",
        "docid": "7342837668743266852",
        "url": ""
    },
    {
        "title": "荡气回肠，无法遣怀—论金庸小说之结尾",
        "docid": "7339858933139653129",
        "url": ""
    },
    {
        "title": "“跳梁小丑”李玉刚跌落神坛，无法被世人宽容，梅葆玖：无法谅解",
        "docid": "7344192766546805284",
        "url": ""
    },
    {
        "title": "古龙书中唯一反派主角，天生残疾却不能人道，最后死在亲兄弟手里",
        "docid": "7337223035671478836",
        "url": ""
    },
    {
        "title": "任何事做到极致，就是艺术。#画了画了stone #抖音青年艺术家计划",
        "docid": "7327293296257008179",
        "url": ""
    },
    {
        "title": "在国外可千万不要随意说中文，真的有可能会社死，甚至被掌握精髓",
        "docid": "7322366872417157644",
        "url": ""
    },
    {
        "title": "为什么小说女主大都是江南女子",
        "docid": "7344612791292379659",
        "url": ""
    },
    {
        "title": "制作中国传统色 — 赤金",
        "docid": "7332855392176701952",
        "url": ""
    },
    {
        "title": "浙江省前100姓氏最新统计排名！你是第几名？十大姓氏花落谁家？",
        "docid": "7336743251795329563",
        "url": ""
    },
    {
        "title": "越闹越大，四川文旅方言版喊麦，四川面子都不要了！笑死在评论区",
        "docid": "7324488824372675106",
        "url": ""
    },
    {
        "title": "这种石头捡到别丢，1克重就卖2亿，认识一下万一捡到了呢",
        "docid": "7344321101813514804",
        "url": ""
    },
    {
        "title": "雪中悍刀行：那么多陆地神仙，为啥都不愿意飞升？李淳罡给出答案",
        "docid": "7326809875420398106",
        "url": ""
    },
    {
        "title": "二胎",
        "docid": "7322793881543033378",
        "url": ""
    },
    {
        "title": "刘备两次拜访诸葛亮均无功而返，博陵崔州平的话值得刘备深思",
        "docid": "7344694461970154019",
        "url": ""
    },
    {
        "title": "传统会狮礼仪",
        "docid": "7320091547729560102",
        "url": ""
    },
    {
        "title": "海燕这民歌唱的真好听，不愧为大学教授#东北二人转",
        "docid": "7315395629239566885",
        "url": ""
    },
    {
        "title": "倒背如流的29篇经典文言文，经典中的经典",
        "docid": "7318627770215645748",
        "url": ""
    },
    {
        "title": "我国两万多姓氏中，这四大姓氏几千年从未衰落，看有你的姓氏吗？",
        "docid": "7337244260183573046",
        "url": ""
    },
    {
        "title": "#三国演义 火烧博望坡（2）",
        "docid": "7317174655708561958",
        "url": ""
    },
    {
        "title": "晦明禅师收了三个徒弟：一个惨死，一个自杀，一个被吕四娘破纪录",
        "docid": "7312460459377426971",
        "url": ""
    },
    {
        "title": "我问85岁病危母亲：不救你了，你怪不怪我？母亲的回答让我泪崩",
        "docid": "7343402504186511935",
        "url": ""
    },
    {
        "title": "“生辰八字”是指哪八个字？怎么推算自己的八字，看完就全明白了",
        "docid": "7319482796509446683",
        "url": ""
    },
    {
        "title": "难以忍受僧人的性暴力，日本尼姑向社会哭诉求救",
        "docid": "7344694910550966821",
        "url": ""
    },
    {
        "title": "#窦唯 #窦佳嫄  父女合作 天问！#朝简 作品",
        "docid": "7323790461410542120",
        "url": ""
    },
    {
        "title": "少林大炮锤， 珍贵视频。@传统武术4E7h",
        "docid": "7335415073420083722",
        "url": ""
    },
    {
        "title": "外国人能听懂我们骂人的话吗？网友：世界都学中国话，cnm国际化",
        "docid": "7329155008271368719",
        "url": ""
    },
    {
        "title": "本以为道士都不食人间烟火,没想到这么叛逆,道长:主打一个反差感",
        "docid": "7344352150329655862",
        "url": ""
    },
    {
        "title": "直到我看了少林高僧打的罗汉拳，我才明白马保国所学的都是皮毛",
        "docid": "7335087634597413439",
        "url": ""
    },
    {
        "title": "“家有青龙树，后代一直富”，啥是“青龙树”，有什么依据吗？",
        "docid": "7311978311045906955",
        "url": ""
    },
    {
        "title": "小小年纪，身上是有那么点佛性在的#曹骏",
        "docid": "7316816600739512871",
        "url": ""
    },
    {
        "title": "“最成功的非人类艺术家”猪加索去世，画作售价超100万美元",
        "docid": "7343924214623273483",
        "url": ""
    },
    {
        "title": "全国政协委员兼演员靳东称赞河南，他一番话说完，网友泪如雨下",
        "docid": "7344771023810101760",
        "url": ""
    },
    {
        "title": "此文高深！只有大智大慧之人方能领悟",
        "docid": "7334496295098303011",
        "url": ""
    },
    {
        "title": "岳云鹏嫌柳岩打扮太招摇，这段太搞笑了，谁看谁笑！",
        "docid": "7317931522323907124",
        "url": ""
    },
    {
        "title": "鬼才漫画师DP Art Drawing，是如何超越人类极限的？ #科普#绘画",
        "docid": "7316647051972837938",
        "url": ""
    },
    {
        "title": "孙越罕见给张鹤擎捧哏，原来老郭说的是真的，好搭档比媳妇更难找",
        "docid": "7321594717144089139",
        "url": ""
    },
    {
        "title": "“媾和”怎么读？又是什么意思呢？举个例子你就懂了",
        "docid": "7341325597714416155",
        "url": ""
    },
    {
        "title": "1991年江青在自缢前一天，留下了一句遗言，短短一句话饱含深情！",
        "docid": "7338833080846647834",
        "url": ""
    },
    {
        "title": "你为什么当不了小说女主？网友：可能因为我有脑子",
        "docid": "7344026731009737235",
        "url": ""
    },
    {
        "title": "济公刚入佛门时，长老的话已经预示了他的一生#游本昌",
        "docid": "7325363229054632499",
        "url": ""
    },
    {
        "title": "俗话说“穷不走水，富不涉淫”，能读懂的人，就离成功就不远了！",
        "docid": "7312737729937146419",
        "url": ""
    },
    {
        "title": "二月二，重温传统：忌洗涮，避碰触，禁言忌语，必吃传统食物",
        "docid": "7344685617600823848",
        "url": ""
    },
    {
        "title": "100年了，他为啥不“老”？",
        "docid": "7344551527257899560",
        "url": ""
    },
    {
        "title": "史铁生逝世13年，再看他这9句话，振聋发聩，直击灵魂",
        "docid": "7318385666516451877",
        "url": ""
    },
    {
        "title": "一个人身上最上等的风水，不在面相，不在说话，其实就只有2个字",
        "docid": "7325256428787188234",
        "url": ""
    },
    {
        "title": "你迟早会明白，世上最“没用”的人，就是父亲",
        "docid": "7322001547989123596",
        "url": ""
    },
    {
        "title": "“千古奇书”《盐铁论》：10大“规律”，一定要懂",
        "docid": "7323416921603736064",
        "url": ""
    },
    {
        "title": "国内男人为何不选白人做女友？过来人揭秘真实原因！",
        "docid": "7344703514419347968",
        "url": ""
    },
    {
        "title": "醉美黄蜡石，雨天河滩边捡了块虫纹#纯天然奇石 #美石分享",
        "docid": "7335779503769780772",
        "url": ""
    },
    {
        "title": "鸠摩罗什与觉贤辩论，觉贤因展示“天眼通”而被赶出长安",
        "docid": "7332350398084481571",
        "url": ""
    },
    {
        "title": "庄子笔下的顶级生死观",
        "docid": "7331744846807810598",
        "url": ""
    },
    {
        "title": "女生一定要多看纪录片，不要把生命献给无知 ​ ​​​",
        "docid": "7323038714341851674",
        "url": ""
    },
    {
        "title": "如果观音和太上老君斗法，两人谁能获胜？你看太上老君说过什么",
        "docid": "7314508650960323112",
        "url": ""
    },
    {
        "title": "十大堪称神作的小说，每一本都很好看，你读过哪本？",
        "docid": "7325109122045936163",
        "url": ""
    },
    {
        "title": "左右哥：这不是德云社，歌唱祖国遇上五星红旗，真的艳了",
        "docid": "7325065683061408291",
        "url": ""
    },
    {
        "title": "“牝”字怎么读？“牝”字又是什么意思呢？",
        "docid": "7317166862184710710",
        "url": ""
    },
    {
        "title": "玉帝、如来都不知晓菩提祖师，为何此妖却识得？你看此妖真身是谁",
        "docid": "7312410790328975881",
        "url": ""
    },
    {
        "title": "如果把李元霸放到金庸武侠世界里，能排第几？",
        "docid": "7320518995034784310",
        "url": ""
    },
    {
        "title": "他从医院带走上万个被堕胎的婴尸，养了100个孩子，15年后成传奇",
        "docid": "7316796881248617014",
        "url": ""
    },
    {
        "title": "88年继母扣下我的录取通知书，舅舅提刀去取，如今我已是知名教授",
        "docid": "7323551970462728714",
        "url": ""
    },
    {
        "title": "山东：男老板悬赏4万找到18年前初恋女友，男子：打算和她结婚",
        "docid": "7343902933052113471",
        "url": ""
    },
    {
        "title": "王进的武艺是什么水平？如果他上梁山，能入选梁山五虎将吗？",
        "docid": "7328769566883299876",
        "url": ""
    },
    {
        "title": "笑抽了！当网文作者没文化是怎样的体验？我差点笑死在网友评论区",
        "docid": "7337701252555440666",
        "url": ""
    },
    {
        "title": "《史记》里细思极恐的细节，司马迁不敢明写，只好拐着弯告诉你",
        "docid": "7318721395536691752",
        "url": ""
    },
    {
        "title": "难怪没有《射雕前传》，你看那时的天下第一是谁，群豪瑟瑟发抖",
        "docid": "7327925849486524969",
        "url": ""
    },
    {
        "title": "死于剧情杀，杨云骢武功有多强？放眼整个江湖能击败他的只有2人",
        "docid": "7316422497380155955",
        "url": ""
    },
    {
        "title": "风清扬天下无敌，为何不敢杀东方不败？令狐冲知道他在想什么",
        "docid": "7333464743527236132",
        "url": ""
    },
    {
        "title": "按倪匡本意，《天龙八部》的第三主角若是游坦之会比虚竹更经典",
        "docid": "7317440978137317915",
        "url": ""
    },
    {
        "title": "70岁老农模仿《咏鹅》写了首《咏鸡》，仅18个字斩获万元文学奖金",
        "docid": "7337558130928665128",
        "url": ""
    },
    {
        "title": "在中国所有诗人中，能被称“伟大”二字的诗人，只有这六人",
        "docid": "7320127038130586131",
        "url": ""
    },
    {
        "title": "又一世界名画😅詹姆斯三分被吹踩线后神还原《向塞尚致敬》",
        "docid": "7318604855835279926",
        "url": ""
    },
    {
        "title": "金庸为何不让萧峰和鸠摩智打一架？你听扫地僧说了什么，就懂了",
        "docid": "7321227652340548115",
        "url": ""
    },
    {
        "title": "天地间有六界，玉帝只主宰三界，另外三界是谁在掌管？",
        "docid": "7316832116686864915",
        "url": ""
    },
    {
        "title": "仅凭诗中一句就被封神的10首古诗词，惊艳千年时光，越读越上头！",
        "docid": "7313554117719540276",
        "url": ""
    },
    {
        "title": "周迅18岁献身艺术，人体模特画作拍卖184万，如今被嘲“俗气",
        "docid": "7344643333127569972",
        "url": ""
    },
    {
        "title": "虚竹和梅兰竹菊做下什么丑事，不仅英年早逝，更使灵鹫宫遭遇灭门",
        "docid": "7314217346989064744",
        "url": ""
    },
    {
        "title": "人一旦开悟有多可怕？天涯神帖，揭秘“开悟”与金刚经，秘诀有三",
        "docid": "7324971865037406758",
        "url": ""
    },
    {
        "title": "诞辰百年，漫画家李志清忆金庸：其精神会一直延续下去",
        "docid": "7344749553683268148",
        "url": ""
    },
    {
        "title": "这个全国罕见的姓氏，一共只有3笔，人人会写却一读就错",
        "docid": "7339467985683546636",
        "url": ""
    },
    {
        "title": "今天，儿媳又刷新了我对她的认识",
        "docid": "7327668453786747444",
        "url": ""
    },
    {
        "title": "京剧演员彻底被带坏！女搭档公然强吻郭德纲，吓得他直呼造孽。",
        "docid": "7317047256778179098",
        "url": ""
    },
    {
        "title": "一生必看的100部顶级纪录片，不要把生命献给无知",
        "docid": "7329516680512995866",
        "url": ""
    },
    {
        "title": "郭德纲故意问梁静有孩子没，梁静：加你6个！郭德纲吃瘪片段",
        "docid": "7316081937951654439",
        "url": ""
    },
    {
        "title": "三国演义中，为啥那么多敌将碰到赵云就选择逃跑？你看张郃怎么说",
        "docid": "7313192944964469287",
        "url": ""
    },
    {
        "title": "车迟国三位国师不作恶，还保风调雨顺，为啥孙悟空还要除掉他们？",
        "docid": "7339794329797394996",
        "url": ""
    },
    {
        "title": "为什么富不过三代，这是我见过最好的答案",
        "docid": "7328200135467958836",
        "url": ""
    },
    {
        "title": "中国本土的道教为什么没有传遍全世界，网友的回答太搞笑了",
        "docid": "7344713279031427635",
        "url": ""
    },
    {
        "title": "2024金句诗词，背下来你也会文采斐然！",
        "docid": "7319640843017585187",
        "url": ""
    },
    {
        "title": "《说岳全传》中，九个神怪临凡人物的最终结局",
        "docid": "7320946820769710592",
        "url": ""
    },
    {
        "title": "《天道》认知：15句话道破社会天机，洞悉人生规则",
        "docid": "7319883975567442467",
        "url": ""
    },
    {
        "title": "真佩服这小伙的勇气，书法就这水平还每天发视频，是不是太自信了",
        "docid": "7340488665103073828",
        "url": ""
    },
    {
        "title": "男女文化源远流长——上古体操队丨睿泽鉴宝",
        "docid": "7337638302675436047",
        "url": ""
    },
    {
        "title": "坟王张鹤伦能有多浪？乱改诗词全场爆笑，嘴损气得搭档台上动手",
        "docid": "7325750024732672531",
        "url": ""
    },
    {
        "title": "甘肃00后女诗人：与父母决裂在大理流浪，摆摊卖诗集被称当代三毛",
        "docid": "7317530080887390783",
        "url": ""
    },
    {
        "title": "金庸竞赛题百分制，每题算10分，能得80分以上的是大能",
        "docid": "7330890098235441718",
        "url": ""
    },
    {
        "title": "人到中年再看岳不群，他的苦衷谁人能懂？令狐冲就是一个白眼狼！",
        "docid": "7334157165085770291",
        "url": ""
    },
    {
        "title": "冷军：用油画画竹子，我是第一人，中国人没人画过，西方人不会画",
        "docid": "7325395420502065705",
        "url": ""
    },
    {
        "title": "吹牛不打草稿，瞎话张口就来，那些忽悠人的“成功学大师”都有谁",
        "docid": "7338229166519058978",
        "url": ""
    },
    {
        "title": "宋高宗赵构写的《兰亭序》，水平不服不行，网友：皇帝里的王羲之",
        "docid": "7323035844011737600",
        "url": ""
    },
    {
        "title": "俗语“眉心双雀纹，大财福泽深”有道理吗？双雀纹暗藏了你的秘密",
        "docid": "7338613426904007206",
        "url": ""
    },
    {
        "title": "“小财看嘴，大富看眼”，老祖宗的识人术，能看出啥？",
        "docid": "7327667032752013859",
        "url": ""
    },
    {
        "title": "中国失散千年的“亲兄弟”？匈牙利与中国，相似之处让人惊叹不已",
        "docid": "7337942746672087615",
        "url": ""
    },
    {
        "title": "国内最大尼姑庵，有2万女性在此修行，天黑后必须遵守一条死规定",
        "docid": "7341322590684103203",
        "url": ""
    },
    {
        "title": "汉族是尚武的民族吗？“闻战则喜”不是随便说的",
        "docid": "7344178486065496591",
        "url": ""
    },
    {
        "title": "年纪轻轻就需要挂尿袋出门，看着有点可怜:)",
        "docid": "7344274978697151011",
        "url": ""
    },
    {
        "title": "张之洞科举考试“朱卷”，小楷书法太美了，完全不像“馆阁体”呀",
        "docid": "7328400841306636834",
        "url": ""
    },
    {
        "title": "日本展出林则徐书法，如教科书般精准，“吼书”“丑书”快来看看",
        "docid": "7330831878305710626",
        "url": ""
    },
    {
        "title": "佛教有什么“可怕”之处，古代帝王四次灭佛，强迫百万僧侣还俗",
        "docid": "7340227653884019235",
        "url": ""
    },
    {
        "title": "31岁戏曲演员李蓉车祸身亡！两车碾压司机全逃跑，2小时才被发现",
        "docid": "7319813405311844916",
        "url": ""
    },
    {
        "title": "四大名楼题匾都出自谁之手？苏轼、舒同、铁保、郭沫若谁更胜一筹",
        "docid": "7317098325302346277",
        "url": ""
    },
    {
        "title": "难怪人人都爱武松，柴进却讨厌他，儿时只见他好，长大才懂他的坏",
        "docid": "7334560869466735141",
        "url": ""
    },
    {
        "title": "人情世故那一套，为何年轻人不买账了",
        "docid": "7316481567671763492",
        "url": ""
    },
    {
        "title": "如来佛祖头上的“包”是啥？不是发型，而是让神佛畏惧的东西",
        "docid": "7317942165022802458",
        "url": ""
    },
    {
        "title": "烧香为何一定是三根？每根分别代表什么？传统文化我们要了解清楚",
        "docid": "7315308116302692914",
        "url": ""
    },
    {
        "title": "东北雨姐，这也太传神了吧！",
        "docid": "7340820846325727784",
        "url": ""
    },
    {
        "title": "为啥老外觉得中国人都很“莎士比亚”？评论区沸腾！网友：都一样",
        "docid": "7344299078849380898",
        "url": ""
    },
    {
        "title": "与汉字似是而非的文字，猛一看面熟，再一看不认识",
        "docid": "7325030828810109455",
        "url": ""
    },
    {
        "title": "被公认为“一词压两宋，孤篇盖全唐”是哪两首神来之作",
        "docid": "7323815077206049319",
        "url": ""
    },
    {
        "title": "梁思成先生为何要拆六和塔？",
        "docid": "7339881605252760115",
        "url": ""
    },
    {
        "title": "孙悟空真没遇到方寸山师兄？菩提祖师：我有个徒儿，保护悟空已久",
        "docid": "7313566634278191668",
        "url": ""
    },
    {
        "title": "一个倒霉的诗人，写了一首最孤寒的诗，短短4句，火了千年",
        "docid": "7333648038520816182",
        "url": ""
    },
    {
        "title": "事实证明，“不被曲协认可”的德云社，已经走上相声的另一条大道",
        "docid": "7343525779671761434",
        "url": ""
    },
    {
        "title": "千万别在德云社劝架，于谦一巴掌拍飞冯照洋，老秦喜提飞行套餐",
        "docid": "7322733827800728105",
        "url": ""
    },
    {
        "title": "房子继承人顺序，千万别搞错了，收藏起来看看吧",
        "docid": "7322631118551925286",
        "url": ""
    },
    {
        "title": "679米，118层——全球第2高楼：上海中心被吉隆坡PNB 118取代！",
        "docid": "7343969435814101545",
        "url": ""
    },
    {
        "title": "著名古建筑“重建前vs重建后”对比，一比吓一跳啊",
        "docid": "7316972193308082728",
        "url": ""
    },
    {
        "title": "来自老外的绝望悲鸣！感受一下他们学中文的痛苦，心理平衡了不少",
        "docid": "7336888839434617356",
        "url": ""
    },
    {
        "title": "三代白发魔女，皆为情所伤，一夜白了头发，三人武功如何排名？",
        "docid": "7327149722358104613",
        "url": ""
    },
    {
        "title": "成都女孩远嫁沙特土豪，生活奢靡住别墅，出门被迫“头顶一块布”",
        "docid": "7336893241591235135",
        "url": ""
    },
    {
        "title": "\"文学名著中那些永远无法超越的开篇\"",
        "docid": "7341862122500162086",
        "url": ""
    },
    {
        "title": "为何猪八戒要一口吞掉人参果，连嚼都不嚼？只因他知道其中秘密",
        "docid": "7315327822619853331",
        "url": ""
    },
    {
        "title": "洪秀柱一幅对联引发关注，没曾想其书法竟如此惊艳，传统不失个性",
        "docid": "7330534340054483496",
        "url": ""
    },
    {
        "title": "世界名画vs绘画地点，简直是化腐朽为神奇啊！",
        "docid": "7313903478542303759",
        "url": ""
    },
    {
        "title": "“四大名著”的思维导图，一次性整理出来了，看完涨知识了",
        "docid": "7328038111034917426",
        "url": ""
    },
    {
        "title": "镇元子供奉的是天地，菩提供奉的是日月星辰，三清供奉的又是谁？",
        "docid": "7332730068483064358",
        "url": ""
    },
    {
        "title": "中国人捐赠的旧衣服，送到非洲后成啥样了，了解后你还会捐吗",
        "docid": "7312292595017744931",
        "url": ""
    },
    {
        "title": "朱琳演《繁花》：当导演戴墨镜看着大家，所有人开始检查手头工作",
        "docid": "7320585453114671657",
        "url": ""
    },
    {
        "title": "人能无耻到什么地步，杭州首富喝醉后透露的7条血淋淋的真相",
        "docid": "7337665231336374820",
        "url": ""
    },
    {
        "title": "功力如何？中国书协主席孙晓云写的春联，你来评一下！",
        "docid": "7318587778517107227",
        "url": ""
    },
    {
        "title": "古人的才华到底有多牛，看完你就知道了",
        "docid": "7319406163832078863",
        "url": ""
    },
    {
        "title": "一个结构素描大神，笔下作品皆为骨灰级",
        "docid": "7328716619478680090",
        "url": ""
    },
    {
        "title": "杨过共娶了3个妻子，生下7子，5个是旷世大侠，2个是魔教教主",
        "docid": "7326481389770031642",
        "url": ""
    },
    {
        "title": "唐伯虎的书法水平有多高？专家：太珍贵的无法估值！真迹在美国",
        "docid": "7330158508479988258",
        "url": ""
    },
    {
        "title": "中国式审美，男人最美体型什么样？",
        "docid": "7312625028636672521",
        "url": ""
    },
    {
        "title": "《倚天》成昆的武功是什么水平呢？他只是打不过张三丰和张无忌",
        "docid": "7341421932811977279",
        "url": ""
    },
    {
        "title": "冷军画的2个破旧发动机，横着放卖198万，竖着放卖1897万，为啥？",
        "docid": "7329765914638205478",
        "url": ""
    },
    {
        "title": "李兰迪 & 话剧《原野》 ，这骨相绝了",
        "docid": "7326453410084815411",
        "url": ""
    },
    {
        "title": "不要乱认老家了！中国姓氏分布图，看看自己的根在哪里？",
        "docid": "7313424037362008611",
        "url": ""
    },
    {
        "title": "农民在家画画28年，老婆大哭，父母抬不起头，结果一幅画卖130万",
        "docid": "7338365785703842343",
        "url": ""
    },
    {
        "title": "有些人，可能永远都不明白。我们对道教，为什么这么宽容？",
        "docid": "7336230801300505099",
        "url": ""
    },
    {
        "title": "李婷的贾母，是硬化出来的，看原贾母候选人，才是真正的慈眉善目",
        "docid": "7322774062785282595",
        "url": ""
    },
    {
        "title": "30万换老父亲一条命，5个子女意见统一：我们不救",
        "docid": "7337608845994443275",
        "url": ""
    },
    {
        "title": "36岁女子升级当奶奶，妆容精致像单身小姑娘，抱着孙子满脸不情愿",
        "docid": "7344228706354758170",
        "url": ""
    },
    {
        "title": "有人问：李白如果坐过飞机会写出什么诗，评论区炸出一大波才子！",
        "docid": "7330527778863137332",
        "url": ""
    },
    {
        "title": "印度神童克林特：3岁肾衰竭，在人间不足7年，留下2.5万幅画作",
        "docid": "7327960777158525450",
        "url": ""
    },
    {
        "title": "独生女防止被吃绝户的秘诀：娶独生女等于娶提款机！",
        "docid": "7344010538638393919",
        "url": ""
    },
    {
        "title": "中国绝版老香烟，抽过3种以上说明你老了，老烟民们还记得几种？",
        "docid": "7337696042706240011",
        "url": ""
    },
    {
        "title": "小燕子永远不知，富小姐不愿嫁乞丐时，紫薇为何要出言逼迫她？",
        "docid": "7330558916948165154",
        "url": ""
    },
    {
        "title": "下落不明的9大镇国至宝，无法估量价值，其中3个可能在秦始皇陵",
        "docid": "7337241139394675252",
        "url": ""
    },
    {
        "title": "25年前的中国第一高楼，如今雄风依旧！",
        "docid": "7326577340757197366",
        "url": ""
    },
    {
        "title": "“马上林冲，马下武松”，后面还有一句，世人轻易不提",
        "docid": "7312220338895471131",
        "url": ""
    },
    {
        "title": "见到最纯粹的案例了，这才是真正的“谋士以身入局，胜天半子”啊",
        "docid": "7324652176491004470",
        "url": ""
    },
    {
        "title": "俗话：“善恶看嘴眼，贫富看手脚”，啥意思？器官识人准不准",
        "docid": "7322771570346672650",
        "url": ""
    },
    {
        "title": "“喝酒”一文太经典了，精彩段子，值得细品",
        "docid": "7344538158912209420",
        "url": ""
    },
    {
        "title": "甘肃00后女诗人：与父母决裂流浪大理，因摆摊卖诗被称为当代三毛",
        "docid": "7315718761414148634",
        "url": ""
    },
    {
        "title": "曾经红极一时的\"按辈分取名\"，为什么现在却不流行了呢？过时了吗",
        "docid": "7312749709532135963",
        "url": ""
    },
    {
        "title": "13年前，把狼当儿子养的四川女孩，10年后和它在草原上相认",
        "docid": "7314939595123393036",
        "url": ""
    },
    {
        "title": "第一张就跪了！这钢笔画雪景绝了，图鉴",
        "docid": "7323567964458910248",
        "url": ""
    },
    {
        "title": "如果第一视角是凶手？看完评论区想想都刺激，网友都太会写了！",
        "docid": "7338313341255238179",
        "url": ""
    },
    {
        "title": "高适晚年这首诗，现实：日落西山你不陪，东山再起你是谁？",
        "docid": "7312338914465939979",
        "url": ""
    },
    {
        "title": "红楼梦顶级羞辱：薛宝钗惨遭赶出大观园，八面玲珑却如此结局？",
        "docid": "7028488408825709086",
        "url": ""
    },
    {
        "title": "我有两个姑姑，大姑爱存钱，二姑爱花钱，如今她们生活天壤之别",
        "docid": "7323770982295093812",
        "url": ""
    },
    {
        "title": "陕西前100位姓氏排名，看看你的姓是从哪里迁移来的？",
        "docid": "7340487208769995291",
        "url": ""
    },
    {
        "title": "中国人都有什么有意思的特色 Buff？",
        "docid": "7344246538757341722",
        "url": ""
    },
    {
        "title": "很多人喜欢说“夜未央”，“未央”2个字到底啥意思，很多人不懂",
        "docid": "7329914858462675456",
        "url": ""
    },
    {
        "title": "齐白石画一只蝉，拍出价值8亿元，专家提议：用放大镜你再看看",
        "docid": "7339049884764652043",
        "url": ""
    },
    {
        "title": "苏轼这六首诗，治好了我的精神内耗。 ​",
        "docid": "7319468348218212900",
        "url": ""
    },
    {
        "title": "1993年作家被官员集体起诉：我儿子就强奸2次，你凭啥写八九次？",
        "docid": "7335798674129306175",
        "url": ""
    },
    {
        "title": "各国最伟大小说排行榜前三，你知道吗？",
        "docid": "7327634579547128332",
        "url": ""
    },
    {
        "title": "《金刚经》里醍醐灌顶的句子。",
        "docid": "7332875679299551744",
        "url": ""
    },
    {
        "title": "高英培关门弟子张伯鑫直播说：郭德纲能找来钱，我就跟孟鹤堂再PK",
        "docid": "7344333449312748072",
        "url": ""
    },
    {
        "title": "那些高级到骨子里的诗句",
        "docid": "7320629432199184923",
        "url": ""
    },
    {
        "title": "《道德经》道尽人生智慧的10大名句",
        "docid": "7315761335143809588",
        "url": ""
    },
    {
        "title": "写网文小说到底能不能赚到钱？3年从业人员告诉你真相！",
        "docid": "7320523508902281766",
        "url": ""
    },
    {
        "title": "成都小伙扮敦煌“妖僧”，造型惊艳中外观众，网友：简直魅惑众生",
        "docid": "7314603905042629154",
        "url": ""
    },
    {
        "title": "1米68的小学生女儿发烧了，还非得老父亲抱着，评论区笑死我了",
        "docid": "7343472697324028454",
        "url": ""
    },
    {
        "title": "李白笔下的男孩名推荐",
        "docid": "7324329134488928806",
        "url": ""
    },
    {
        "title": "中国“第一私人豪宅”：耗时300年完工，如今竟无人居住",
        "docid": "7333496646564971034",
        "url": ""
    },
    {
        "title": "国内最大尼姑庵，近2万“觉姆”在此修行，须遵守一条死规定",
        "docid": "7344575773883662886",
        "url": ""
    },
    {
        "title": "它才是名副其实“第一行书”，人大教授：《兰亭序》差它两个等级",
        "docid": "7317558970170851892",
        "url": ""
    },
    {
        "title": "“建筑女魔头”扎哈：北京大兴机场设计者，却没能亲眼见其建成！",
        "docid": "7320508028636398130",
        "url": ""
    },
    {
        "title": "丈母娘出上联：从南到北东西贵，女婿对出的下联让丈母娘很为难",
        "docid": "7316515771923169831",
        "url": ""
    },
    {
        "title": "曾经帮女儿的同学热了几年饭，现在每年都收到她的远程投喂",
        "docid": "7326522083880911370",
        "url": ""
    },
    {
        "title": "“鸡犬相闻”翻译成“鸡和狗互相闻来闻去”，评论区都是卧龙凤雏",
        "docid": "7313116406106325555",
        "url": ""
    },
    {
        "title": "春晚一句台词识破潜伏间谍，她去世23年，仍被官媒发文缅怀",
        "docid": "7344281946740130319",
        "url": ""
    },
    {
        "title": "黛玉就是贾家的免罪金牌，黛玉一死，皇帝就要对贾家抄家算账了",
        "docid": "7330605272350261801",
        "url": ""
    },
    {
        "title": "若把金庸放到如今网文圈里面，他的作品能像《剑来》一样火吗",
        "docid": "7312722958500413962",
        "url": ""
    },
    {
        "title": "如果你内心不够强大，就听听孙悟空这4句话",
        "docid": "7332777513934012964",
        "url": ""
    },
    {
        "title": "刘姥姥一眼看出宝钗是鬼，蘅芜苑外的残荷与荇菜，点明黛玉之死",
        "docid": "7329804326346670642",
        "url": ""
    },
    {
        "title": "越有钱的人越相信玄学，你知道这是为什么吗？",
        "docid": "7342758458632356404",
        "url": ""
    },
    {
        "title": "难怪裘千仞不怕东邪西毒，你看他师父是谁？连洪七公都得给面子",
        "docid": "7317597235984941604",
        "url": ""
    },
    {
        "title": "老外:“不好，一股神秘的东方力量侵袭了我”！",
        "docid": "7344706189046989353",
        "url": ""
    },
    {
        "title": "重读《肖申克的救赎》，才知道让人活得更好的，是这6样东西",
        "docid": "7338397589538275876",
        "url": ""
    },
    {
        "title": "终于有人把四大名著思维导图整理出来了，太好记了",
        "docid": "7321734115777577491",
        "url": ""
    },
    {
        "title": "“花尼姑”释智定住4000万豪宅，与两个和尚结婚，寺庙成摇钱树",
        "docid": "7344320011337040438",
        "url": ""
    },
    {
        "title": "李白和苏轼诗词的巅峰对决。简直就是神仙打架！ ​​​",
        "docid": "7315086408207680041",
        "url": ""
    },
    {
        "title": "唯一能接住小李飞刀的人，天机老人见了也得退避三舍，上官：我怕",
        "docid": "7325305944060068404",
        "url": ""
    },
    {
        "title": "杨过为何不杀阳顶天？你看阳顶天父亲是谁，张三丰见了也要叫声哥",
        "docid": "7314643198918492672",
        "url": ""
    },
    {
        "title": "金箍棒一共有3位主人，悟空是最弱的那一人，看看其他2位都是谁？",
        "docid": "7315409905630921225",
        "url": ""
    },
    {
        "title": "古诗里很旺自己的金句",
        "docid": "7328165909993079346",
        "url": ""
    },
    {
        "title": "去了嫂子家拜年之后，月光族的我决定，开始存钱",
        "docid": "7343878536790409769",
        "url": ""
    },
    {
        "title": "黄老邪的师父，到底是虚竹还是段誉，书中三个细节已给出答案",
        "docid": "7314299790421656102",
        "url": ""
    },
    {
        "title": "难怪如来、观音从不同时出门，你看西天灵山在防备哪些高手入侵？",
        "docid": "7313056259027239458",
        "url": ""
    },
    {
        "title": "不愧是央妈！一次找7位“书卷气”美人演李清照，从此才女有了脸",
        "docid": "7337492357610275328",
        "url": ""
    },
    {
        "title": "难以忍受僧人的性暴力，日本尼姑向社会哭诉求救",
        "docid": "7344669645376340491",
        "url": ""
    },
    {
        "title": "如果四大名著要删掉一本，你会选哪一本？网友的答案出奇一致",
        "docid": "7311902422568452648",
        "url": ""
    },
    {
        "title": "墓碑上：“故、先、显、考、妣”，啥意思？各有含义，千万别搞错",
        "docid": "7318268723071435303",
        "url": ""
    },
    {
        "title": "如果九灵元圣和菩提斗法，两人谁能获胜？你看九灵元圣说过什么",
        "docid": "7320127505154212406",
        "url": ""
    },
    {
        "title": "70后女主播讲演《红楼梦》，一人分饰多角，1年写下50万字脚本，被赞“红楼活了”",
        "docid": "7325638102734111273",
        "url": ""
    },
    {
        "title": "为什么穷人很少有贵人拉一把，这是我见过最好的答案",
        "docid": "7320856481770816039",
        "url": ""
    },
    {
        "title": "哪个中国人能逃过：将进酒！",
        "docid": "7333649971797787155",
        "url": ""
    },
    {
        "title": "因为太厌恶妻子，徐悲鸿给儿子起了个晦气的名字，不成想字字应验",
        "docid": "7318388233589637684",
        "url": ""
    },
    {
        "title": "贵州女孩暴走无人区，5年捡600多颗陨石，拒绝天价收购，如今怎样",
        "docid": "7328356012111462952",
        "url": ""
    },
    {
        "title": "你最庆幸自己读过哪本书？",
        "docid": "7313588668286026255",
        "url": ""
    },
    {
        "title": "《封神演义》中，为何没有神仙敢杀商纣王？女娲娘娘：我不敢",
        "docid": "7339717506883584548",
        "url": ""
    },
    {
        "title": "梁羽生虽然写了35部武侠小说，但最经典的却只有4部，你看过几部",
        "docid": "7336045555342623267",
        "url": ""
    },
    {
        "title": "鲁迅家是如何衰败的？鲁迅肯定不会告诉你，因为实在太丢人",
        "docid": "7319778790274810409",
        "url": ""
    },
    {
        "title": "每个人的爱好都是千奇百怪，最后一个你肯定没见过！",
        "docid": "7337472384431129099",
        "url": ""
    },
    {
        "title": "鼓吹阶级斗争，知道阶级是怎样形成的吗",
        "docid": "7327834075006386740",
        "url": ""
    },
    {
        "title": "历史上公认最高水平的40首古诗词，你认为怎么样，一起来欣赏吧！",
        "docid": "7314505884598616615",
        "url": ""
    },
    {
        "title": "他是混上梁山的大恶人，先害鲁达，再害武松，却娶了娇妻还成了仙",
        "docid": "7334547372377129522",
        "url": ""
    },
    {
        "title": "如果有人不喜欢你，记住庄子这4句话，你就赢了",
        "docid": "7329480397661094435",
        "url": ""
    },
    {
        "title": "好文章分享：《最近百年来，鹰酱最大的战略失误是什么？》 ​​​",
        "docid": "7325097451675992627",
        "url": ""
    },
    {
        "title": "把圆明园的原景还原出来才知道有多震撼！放在现今也相当炸裂",
        "docid": "7316315462307086863",
        "url": ""
    },
    {
        "title": "水浒中，这4个小人绝不可结交，现实中要是遇到，赶紧远离吧",
        "docid": "7328330535263814163",
        "url": ""
    },
    {
        "title": "“谪”字怎么读？又是什么意思呢？你是不是读di呢？错的离谱！",
        "docid": "7344723902037377576",
        "url": ""
    },
    {
        "title": "人活着，为什么要回报父母，这是我见过最好的答案",
        "docid": "7324153409878376995",
        "url": ""
    },
    {
        "title": "马家辉：读书，就是与顶尖大脑不断沟通的过程",
        "docid": "7320645538561507880",
        "url": ""
    },
    {
        "title": "赵本山小品有多搞笑？19分钟爆笑50次，王菲都忍不住学说东北话",
        "docid": "7329834203682603555",
        "url": ""
    },
    {
        "title": "终于理解古人那么爱看歌舞：男朋友跟她跑了我都不好意思去追",
        "docid": "7331676759739990528",
        "url": ""
    },
    {
        "title": "一位僧侣花十年时间建造数百座石塔，带两只狗在上面打坐冥想",
        "docid": "7324900826894303759",
        "url": ""
    },
    {
        "title": "正是从此刻开始，曹操看清了众诸侯内心最阴暗的一面#三国演义",
        "docid": "7329101660578873894",
        "url": ""
    },
    {
        "title": "这一刻看到了传承的意义，接过父亲的抬棺重担，文化传承不能丢",
        "docid": "7317213544955511333",
        "url": ""
    },
    {
        "title": "1994年春晚，朱时茂小品中充当“道具”的女孩，如今已经大红大紫",
        "docid": "7342428246816227878",
        "url": ""
    },
    {
        "title": "骂的好!全国政协委员靳东痛批乱象,网友:终于有人发声，太解气了",
        "docid": "7344941199763587611",
        "url": ""
    },
    {
        "title": "一首“伪造”的唐诗，意外火了几百年，考证发现唐朝根本没这诗人",
        "docid": "7336129563032371747",
        "url": ""
    },
    {
        "title": "古人诚不欺我 国画果然是写实的：有些美景一看就属于中国",
        "docid": "7336492597743419938",
        "url": ""
    },
    {
        "title": "武汉女生用两支笔，同时写出“长短”两字，网友：这是真厉害！",
        "docid": "7314532734335418931",
        "url": ""
    },
    {
        "title": "被相声新人当众叫板，郭德纲一招反杀：帮你不容易，毁你可简单了",
        "docid": "7336119139515564584",
        "url": ""
    },
    {
        "title": "我们现在思考的问题很多先贤都思考过，老子和孔子意境深远的对话",
        "docid": "7322287648964346407",
        "url": ""
    },
    {
        "title": "53岁安徽大叔写墙体字堪比印刷机，被央视称为“行走的打印机”",
        "docid": "7323513383578731018",
        "url": ""
    },
    {
        "title": "吴用临死才恍然大悟，梁山的领袖并不是晁盖或宋江，那到底是谁呢",
        "docid": "7314116095776915994",
        "url": ""
    },
    {
        "title": "我大中华为什么没有把道教传播到全世界？评论区真相了！",
        "docid": "7344178593226523170",
        "url": ""
    },
    {
        "title": "张三丰真的不可战胜吗？未必，若有一战，他不可能打败这3人",
        "docid": "7328415889937269311",
        "url": ""
    },
    {
        "title": "搞笑：郭麒麟表白马苏被拒，马苏：个矮胆挺大啊，我喜欢你爸！",
        "docid": "7321176977849877019",
        "url": ""
    },
    {
        "title": "三国：天下第一的李儒败给王司徒，逃走前还不忘挽回大局",
        "docid": "7314964486878659081",
        "url": ""
    },
    {
        "title": "嘴比脑子快的德云女孩，一句话占尽演员便宜！刘春山：没这么懵过",
        "docid": "7326068304768926258",
        "url": ""
    },
    {
        "title": "第八集：历史上真实的刘备，你一定不知道！ #刘备 #三国演义",
        "docid": "7322211461278171674",
        "url": ""
    },
    {
        "title": "老祖宗告诫我们：“富不添丁，穷不添女”，有何道理，是否可靠呢",
        "docid": "7312348233806955035",
        "url": ""
    },
    {
        "title": "你能忍住不笑吗？武汉方言真的很有意思哟，不信走进去看看！",
        "docid": "7338593664664994319",
        "url": ""
    },
    {
        "title": "三国死得最惨的十大名将，3人被万箭穿心，4人被灭三族，堪称悲剧",
        "docid": "7341616150427910693",
        "url": ""
    },
    {
        "title": "贵州女孩暴走无人区，5年捡600多颗陨石，拒绝天价收购，如今怎样",
        "docid": "7336172305766351370",
        "url": ""
    },
    {
        "title": "荣氏老宅，上海最顶级豪宅之一",
        "docid": "7337153861754585652",
        "url": ""
    },
    {
        "title": "龙为什么是中国人最重要的精神图腾？",
        "docid": "7333717347330687523",
        "url": ""
    },
    {
        "title": "到了一定的年纪就会发现，人活着的意义，大概是以下几件事",
        "docid": "7254016565543273015",
        "url": ""
    },
    {
        "title": "“建筑女魔头”扎哈：北京大兴机场设计者，却没能亲眼见其建成！",
        "docid": "7322835907713778211",
        "url": ""
    },
    {
        "title": "突然就看懂了国画！ 网友拍到自家窗外有鸟吃柿子，古人诚不欺我",
        "docid": "7319709235162382848",
        "url": ""
    },
    {
        "title": "国内最大尼姑庵，2万名女性在此修行，天黑后必须遵循一条死规定",
        "docid": "7344924111702884914",
        "url": ""
    },
    {
        "title": "难怪晁盖不传位给宋江？你看宋江对扈三娘做了什么，晁盖已看透他",
        "docid": "7327228515529622031",
        "url": ""
    },
    {
        "title": "未来中国硬笔书法第一人荆霄鹏最高水平日常书写硬笔行书高清字帖",
        "docid": "7331740115305595407",
        "url": ""
    },
    {
        "title": "肌肉三葬，速通西天！我让你把经书捡起来！！ #不一样的西游记",
        "docid": "7312250902487204378",
        "url": ""
    },
    {
        "title": "王勃这首诗，仅有两句，却是他27岁短暂一生的预兆",
        "docid": "7319415625540534799",
        "url": ""
    },
    {
        "title": "福建一小渔村，147名男人一夜之间消失，每家每户逢年过节摆空碗筷",
        "docid": "7329319798377316879",
        "url": ""
    },
    {
        "title": "若生活不如意，不妨在古人身上汲取一些力量，走出低谷期",
        "docid": "7315742359785112076",
        "url": ""
    },
    {
        "title": "人类建筑高度的极限是多少？",
        "docid": "7337560382318002751",
        "url": ""
    },
    {
        "title": "儒家，道家，佛家的区别！看完增涨知识！",
        "docid": "7344659512843944484",
        "url": ""
    },
    {
        "title": "三国中七大草包究竟都是谁？第一名竟亲手毁掉了夺取天下的机会！",
        "docid": "7323377522912821772",
        "url": ""
    },
    {
        "title": "金箍棒一共经历3位主人，悟空是“最弱”的一个，其他2位分别是谁",
        "docid": "7311915797570437695",
        "url": ""
    },
    {
        "title": "李云霄的妩媚多姿，火的一塌糊涂",
        "docid": "7319509050591625763",
        "url": ""
    },
    {
        "title": "路遥《平凡的世界》中的经典句子",
        "docid": "7326169127578796571",
        "url": ""
    },
    {
        "title": "四川自古有四个“川”，现只剩下两个川，另外两个川哪去了？",
        "docid": "7326913754296369700",
        "url": ""
    },
    {
        "title": "男子用毛笔写下“鲁迅”，乍看平平无奇，倒过来后竟是鲁迅像！",
        "docid": "7311980042416980532",
        "url": ""
    },
    {
        "title": "外国人眼中的汉字是怎样的？网友:没有字母是怎么形成文字的…",
        "docid": "7342503171413803561",
        "url": ""
    },
    {
        "title": "阎鹤祥：我师父站那不动，或往回走十年，他们都追不上",
        "docid": "7320654910792565288",
        "url": ""
    },
    {
        "title": "家里最多的东西，就是我的近万册藏书了",
        "docid": "7321569397049573929",
        "url": ""
    },
    {
        "title": "古代最神奇的一首诗，只有20字却有40种读法，每种读法都成一首诗",
        "docid": "7329325080381735458",
        "url": ""
    },
    {
        "title": "难怪王扶林非把袁玫化丑，看她的“贵妃”造型，多明艳又国色天香",
        "docid": "7321609469559947817",
        "url": ""
    },
    {
        "title": "冷军画的2个破旧发动机，横着放卖198万，竖着放卖1897万，为啥？",
        "docid": "7327581634064532002",
        "url": ""
    },
    {
        "title": "曾经红极一时的\"按辈分取名\"，为什么现在却不流行了呢？过时了吗",
        "docid": "7315616801445052978",
        "url": ""
    },
    {
        "title": "“新型啃老”已来临，比“传统啃老”更严重，很多父母还没意识到",
        "docid": "7337611776844071459",
        "url": ""
    },
    {
        "title": "网友长着南方的颜值，却说着北方的方言，这口音有点毁脸！",
        "docid": "7337935224032592384",
        "url": ""
    },
    {
        "title": "终于有人把中国家庭亲戚关系图整理出来了，替孩子收藏",
        "docid": "7335608268271714857",
        "url": ""
    },
    {
        "title": "如此的无缝印章制作堪称艺术品 太牛了#手工diy #高手在民间",
        "docid": "7337277787940520487",
        "url": ""
    },
    {
        "title": "四木禽星分别都是谁，竟然位列28星宿之首，连玉皇大帝都忌惮三分",
        "docid": "7343423673434538534",
        "url": ""
    },
    {
        "title": "“三块三叫小番”😂😂😂#京剧车祸 #京剧四郎探母坐宫",
        "docid": "7318645196634194483",
        "url": ""
    },
    {
        "title": "皮影戏中的“白骨精”有多逼真，变脸和照镜子的设计太巧妙了",
        "docid": "7325324580732699177",
        "url": ""
    },
    {
        "title": "兵器越怪，死得越快？梁山好汉的八大奇葩兵器",
        "docid": "7338343470908490303",
        "url": ""
    },
    {
        "title": "史上“最高级的马屁诗”，仅28字，胜过千言万语",
        "docid": "7336771624437858826",
        "url": ""
    },
    {
        "title": "马未都：女人不能手上一嘟噜肉，马末都直言：女子手如柴才会发财",
        "docid": "7334187713060897307",
        "url": ""
    },
    {
        "title": "你现在放我春晚看什么？颜值与搞笑并存，没有烂梗没有网络流行语",
        "docid": "7329489216109281801",
        "url": ""
    },
    {
        "title": "易小川用杠杆原理撬动铜鼎，遭到范增猜忌，动了杀心。#神话",
        "docid": "7313125733000282659",
        "url": ""
    },
    {
        "title": "不是我吹，随便拿出一个老物件，你们都不知道干什么用的。",
        "docid": "7330064825806717490",
        "url": ""
    },
    {
        "title": "难怪孙悟空没有遇到同窗校友，你看他们都去了哪？生死簿上有答案",
        "docid": "7313163668400226816",
        "url": ""
    },
    {
        "title": "国内最大尼姑庵，有2万女性在此修行，天黑后必须遵守一条死规定",
        "docid": "7345039650500805135",
        "url": ""
    },
    {
        "title": "道教真的很符合现代中国人的精神状态啊！",
        "docid": "7344990364459336244",
        "url": ""
    },
    {
        "title": "“人盖三被，福不来”，家中留这三种被子，可不是什么好事！",
        "docid": "7323541182406296073",
        "url": ""
    },
    {
        "title": "接地气更接地府的知识又增加了！",
        "docid": "7330819089223008809",
        "url": ""
    },
    {
        "title": "农村往事：早年去女同学家，同学妈一眼相中我，一定要我做她女婿",
        "docid": "7335830321113727503",
        "url": ""
    },
    {
        "title": "一枚3500年前的古埃及屎壳郎纯金戒指，能在当铺卖多少钱",
        "docid": "7331312296846688804",
        "url": ""
    },
    {
        "title": "2024年“天工奖”获奖作品欣赏（二）",
        "docid": "7330531402431611407",
        "url": ""
    },
    {
        "title": "现在的小说有多离谱？看完评论区想想都刺激，作者都太会写了！",
        "docid": "7344946575917138472",
        "url": ""
    },
    {
        "title": "洪宇宙以一人之力，成就了周瑜和袁绍二者的经典#三国演义",
        "docid": "7312402649549111848",
        "url": ""
    },
    {
        "title": "《西游记》中的小钻风真的很菜吗？#西游记 #奇葩冷知识",
        "docid": "7342811818522411547",
        "url": ""
    },
    {
        "title": "想不到3月没过一半，56岁的徐帆，再以这样方式“败光”观众缘！",
        "docid": "7345012806779241023",
        "url": ""
    },
    {
        "title": "本想让他演刘备，结果他却让刘备，永远属于了孙彦军#三国演义",
        "docid": "7338378735760572965",
        "url": ""
    },
    {
        "title": "岳云鹏当众取笑潘长江：潘长江冲上台就是一脚，郭德纲反应太好笑",
        "docid": "7312658858609443354",
        "url": ""
    },
    {
        "title": "她是水浒传最猛女将，杀了亲夫，当了王后，却因没上梁山下场凄凉",
        "docid": "7317574348276433443",
        "url": ""
    },
    {
        "title": "冷军画的2个破旧发动机，横着放卖198万，竖着放卖1897万，为啥？",
        "docid": "7327245168510435880",
        "url": ""
    },
    {
        "title": "4岁男孩写瘦金体惊呆网友，“不像是刚学会的，像是没忘干净的”",
        "docid": "7325016805192565287",
        "url": ""
    },
    {
        "title": "70岁农民模仿《咏鹅》，写了一首《咏鸡》获全国大奖，18字获万元",
        "docid": "7340081921957495322",
        "url": ""
    },
    {
        "title": "林黛玉病重之际，贾母为何不请医疗治，却让王熙凤提前准备棺木？",
        "docid": "7315315216265265676",
        "url": ""
    },
    {
        "title": "侄子杀人被抓，全家逼我顶罪，出狱后，他们跪着向我求救（下）",
        "docid": "7322412432159244851",
        "url": ""
    },
    {
        "title": "东方春晚：岳云鹏陈楚生比赛唱歌，抢不到歌词气出表情包！",
        "docid": "7333950792871150089",
        "url": ""
    },
    {
        "title": "她16岁因太美印在人民币上，曾靠低保度日16年，如今过得怎么样？",
        "docid": "7340957778494472742",
        "url": ""
    },
    {
        "title": "永远惊叹老祖宗的极致审美",
        "docid": "7343547042063041050",
        "url": ""
    },
    {
        "title": "郑板桥的字“丑陋无比”，为何赢得启功偏爱？拍卖价格高达4000万",
        "docid": "7320154476675990051",
        "url": ""
    },
    {
        "title": "放大才知道宋徽宗画的这么多，这么好，这么细",
        "docid": "7342407434927276579",
        "url": ""
    },
    {
        "title": "李商隐这首“艳”诗，堪称“撩妹”的模板，谁会不上钩？",
        "docid": "7313918512463462946",
        "url": ""
    },
    {
        "title": "史上最高级的“马屁诗”，仅28字，胜过千言万语",
        "docid": "7322339909274960411",
        "url": ""
    },
    {
        "title": "都说老三国没有演技可言，只因他们全都是本尊出演#三国演义",
        "docid": "7336894266880295476",
        "url": ""
    },
    {
        "title": "任何事做到极致，就是艺术。#抖音青年艺术家计划 #艺术在抖音",
        "docid": "7317273997215793673",
        "url": ""
    },
    {
        "title": "2024春晚#陈丽君李云霄 #陈丽君邪魅一笑 #美卷入画舞蹈",
        "docid": "7333480173800522249",
        "url": ""
    },
    {
        "title": "下班有时间，一定跟着央视来学习",
        "docid": "7318330888532574730",
        "url": ""
    },
    {
        "title": "韩国人要建地标建筑，设计公布后网友沸腾：这不是广州塔吗？",
        "docid": "7325261083726774834",
        "url": ""
    },
    {
        "title": "美国专家：中国崛起并不可怕，可怕的是他们从来不会提自己的血统",
        "docid": "7317853653405008436",
        "url": ""
    },
    {
        "title": "山西大学生看破红尘，8年徒步3700公里，7步1拜磕出“天眼”",
        "docid": "7338728203931894313",
        "url": ""
    },
    {
        "title": "大闹天宫时，关圣大帝关羽就站在一旁，为何没有出手？",
        "docid": "7343954907717796403",
        "url": ""
    },
    {
        "title": "唐代有才无德的4位大诗人，才华让人望尘莫及，人品却不值一提",
        "docid": "7314634445561627188",
        "url": ""
    },
    {
        "title": "金庸小说被解读成PUA文学？书中角色被造黄谣？网友：大清早亡了",
        "docid": "7345012363717870143",
        "url": ""
    },
    {
        "title": "余华在《活着》这本书面前，我不想说，我只想听董宇辉说",
        "docid": "7313420117851767306",
        "url": ""
    },
    {
        "title": "许仙原唱林美璊一开口，现场惊呼了！",
        "docid": "7326132968291271208",
        "url": ""
    },
    {
        "title": "一气呵成江湖体，没有剪辑全是真。老师们给打个分吧。",
        "docid": "7339361102880309812",
        "url": ""
    },
    {
        "title": "山东大妈用烧火棍作画上央视，墙上作画行云流水，堪比专业艺术家",
        "docid": "7319429541448516115",
        "url": ""
    },
    {
        "title": "燕子李三张立53岁轻功了得，翻跟头登台全场欢呼！张立秀才艺大赏",
        "docid": "7324615104837321279",
        "url": ""
    },
    {
        "title": "妈祖升起的瞬间还是有点震撼的🙏🏻#妈祖文化",
        "docid": "7334732629566194203",
        "url": ""
    },
    {
        "title": "我退休后去给侄子打工，月底结算工资，看到短信通知后，我却傻了",
        "docid": "7345006394980123175",
        "url": ""
    },
    {
        "title": "外国人：汉字是神的艺术，而英语则非常低级浅薄",
        "docid": "7334884238552269339",
        "url": ""
    },
    {
        "title": "傻儿子娶妻，父亲冲进婚房，新娘大喜：你果然中计了",
        "docid": "7344062131467207207",
        "url": ""
    },
    {
        "title": "90岁外婆住我家16年没掏一分钱，她仙逝后，我在床头柜发现一封信",
        "docid": "7316787129294520843",
        "url": ""
    },
    {
        "title": "看了这么多年英歌舞。这个版本真炸裂#中华战舞潮汕英歌已就位",
        "docid": "7332707828890763815",
        "url": ""
    },
    {
        "title": "国内最大尼姑庵，有2万女性在此修行，天黑后必须遵守一条死规定",
        "docid": "7345003018800382499",
        "url": ""
    },
    {
        "title": "水浒里的“小吕布”，曾干掉一位五虎将，被梁山六将围攻而死",
        "docid": "7325406022305415734",
        "url": ""
    },
    {
        "title": "看清楚狮尾是怎么上桩的吗😊#龙狮文化 #醒狮 #赏灯 #醒狮文化",
        "docid": "7335076639283511845",
        "url": ""
    },
    {
        "title": "古代秀才相当于现在啥学历？大学生还是研究生？别被影视剧误导了",
        "docid": "7341319658496721447",
        "url": ""
    },
    {
        "title": "街头乞丐写的字很漂亮，为什么却成不了书法家",
        "docid": "7316402751049663028",
        "url": ""
    },
    {
        "title": "书法家王惠松的信札，“柳公权”让他的硬笔字很大气，很耐品",
        "docid": "7323870239081447976",
        "url": ""
    },
    {
        "title": "安徽小伙在古庙独守10年，香火钱最少时一个月仅40元，他为何出家",
        "docid": "7342416619983847971",
        "url": ""
    },
    {
        "title": "1936年真实录像，高尔基国葬百万群众送行，斯大林亲自为他抬棺",
        "docid": "7331925547129569844",
        "url": ""
    },
    {
        "title": "外国人：看到中国56个民族和睦相处，终于知道中国强大的原因了",
        "docid": "7321988386389131811",
        "url": ""
    },
    {
        "title": "书可能是盗版的，但文字的力量是真的#余华搞笑采访",
        "docid": "7341570294693233161",
        "url": ""
    },
    {
        "title": "老三国镜头之下的艺术，每一幅画面的背后",
        "docid": "7313515895010591247",
        "url": ""
    },
    {
        "title": "1983年5元一幅没人要的画，他倾家荡产买下9000张，如今价值百亿",
        "docid": "7344977564189966857",
        "url": ""
    },
    {
        "title": "用毛笔写宋体字也是一种学习方式#原创书法作品 #写字是一种生活",
        "docid": "7334917967178236479",
        "url": ""
    },
    {
        "title": "国外网友看雪中的紫禁城，韩国网友：和我们古代的建筑很像",
        "docid": "7329443242150527551",
        "url": ""
    },
    {
        "title": "这楷书写得不是一般的美！劲健挺拔神采俊发，看了10遍还不过瘾！",
        "docid": "7328738025582952995",
        "url": ""
    },
    {
        "title": "神话中最强大的四大神羊，尤其最后一个，世间所有妖魔都怕它",
        "docid": "7314932290994799140",
        "url": ""
    }
]