[
    {
        "title": "口碑最好十部玄幻小说",
        "docid": "7337164885777941032",
        "url": ""
    },
    {
        "title": "丁佐宏教授颠覆传统观念：66至79岁才算是中年，中年人群的新定义",
        "docid": "7337665109956788777",
        "url": ""
    },
    {
        "title": "文章虽有瑕疵，但基本讲的还是通透的，读罢深以为然！",
        "docid": "7337555409626366502",
        "url": ""
    },
    {
        "title": "九十年代农村小伙将生母嫁给养父，掀起人伦波澜，现在情况如何",
        "docid": "7337596371463356991",
        "url": ""
    },
    {
        "title": "第六批国家级非遗传承人公示，江苏49人入选",
        "docid": "7337574994836587043",
        "url": ""
    },
    {
        "title": "2024，愿我们好运加满",
        "docid": "7337309944758534719",
        "url": ""
    },
    {
        "title": "当把民俗活动的重任交给年轻人后，乐坏男女老少，神仙哭笑不得",
        "docid": "7337304363406230067",
        "url": ""
    },
    {
        "title": "日本国歌只有28个字，翻译成汉语后，才知道日本人说的是什么意思",
        "docid": "7328698280123548195",
        "url": ""
    },
    {
        "title": "800元淘来的石头《凤求凰》，拿了10多年最终89万高价成交",
        "docid": "7336855799295263241",
        "url": ""
    },
    {
        "title": "王羲之妻子墓碑被发现，字迹一般被骂有辱门风，网友：不如自己写",
        "docid": "7321914942289084968",
        "url": ""
    },
    {
        "title": "列宁有多厉害？请看看他这10句话！",
        "docid": "7326895639399268883",
        "url": ""
    },
    {
        "title": "难怪燃灯能做众佛之首，看他的另外两个身份是什么，如来不得不服",
        "docid": "7321550196213924391",
        "url": ""
    },
    {
        "title": "生 肖猴：强烈的直觉告诉我，你将迎来双重喜事，快收下这份好运！",
        "docid": "7336890239363039759",
        "url": ""
    },
    {
        "title": "梅葆玖丢了！",
        "docid": "7321870176146768384",
        "url": ""
    },
    {
        "title": "田英章先生行书春联：这样的春联老百姓一定喜欢！",
        "docid": "7324518255123825187",
        "url": ""
    },
    {
        "title": "演员李丁：去世11年后，儿子又不幸离世，遗孀的选择惹人泪目！",
        "docid": "7325361328326689299",
        "url": ""
    },
    {
        "title": "有手就能画！教你简单画可爱熊猫",
        "docid": "7317921720014389770",
        "url": ""
    },
    {
        "title": "不顺时，我就默念《易经》这三句话",
        "docid": "7310958476267110963",
        "url": ""
    },
    {
        "title": "8部“超上头”的古早味言情剧，都是土狗的最爱！",
        "docid": "7308642728827896339",
        "url": ""
    },
    {
        "title": "几月出生的属龙人，一生衣食无忧，福禄双全光耀门楣！",
        "docid": "7327528329127625255",
        "url": ""
    },
    {
        "title": "红楼梦：贾家怎么得罪了皇帝？看完这个故事，就知道贾家真不能留",
        "docid": "7305330447867789864",
        "url": ""
    },
    {
        "title": "一个人命里的钱财，都是有变数的",
        "docid": "7323759036451963443",
        "url": ""
    },
    {
        "title": "长江大保护，地大师生画出来！",
        "docid": "7337505097066463756",
        "url": ""
    },
    {
        "title": "穷人为什么穷？晚唐诗人一首诗，明明白白告诉你",
        "docid": "7337456062913659427",
        "url": ""
    },
    {
        "title": "我国传统吉利的数字，既不是6，也不是8，那是几？与道家文化有关",
        "docid": "7316103470422180393",
        "url": ""
    },
    {
        "title": "2024年元宵节不一般，5个生肖要“躲月”，提醒大家5件事早做准备",
        "docid": "7337567177387819529",
        "url": ""
    },
    {
        "title": "老人过世为什么要摔瓦盆？谁摔还有大讲究，究竟有什么寓意？",
        "docid": "7316177050786988571",
        "url": ""
    },
    {
        "title": "2023阅文IP盛典：狐尾的笔年度新锐作家，爱潜水的乌贼年度作家",
        "docid": "7332121335377953318",
        "url": ""
    },
    {
        "title": "2024五本即将封神的小说，期待值拉满。",
        "docid": "7328174060171444788",
        "url": ""
    },
    {
        "title": "再读《孔乙己》才明白，为什么努力读书的人，也会沦落为底层人",
        "docid": "7329346852892656143",
        "url": ""
    },
    {
        "title": "福建游神为什么突然火了？让我来告诉你",
        "docid": "7336871776326222351",
        "url": ""
    },
    {
        "title": "参加了一个禅修班，以为参加的都是六根清净无欲无求之人",
        "docid": "7335363212000444955",
        "url": ""
    },
    {
        "title": "狂风怒吼！千年杀气最重诗词，谁可登顶榜首？",
        "docid": "7337466224445555240",
        "url": ""
    },
    {
        "title": "大年十二财源滚滚来，见者有喜，万事胜意！",
        "docid": "7337608502917497344",
        "url": ""
    },
    {
        "title": "梁羽生有部作品很奇怪，男女主角毫无存在感，却成为梁翁经典巨著",
        "docid": "7337192321144046095",
        "url": ""
    },
    {
        "title": "唐伯虎 仕女图",
        "docid": "7337689998327841317",
        "url": ""
    },
    {
        "title": "男子车祸心脏骤停10分钟，醒后称去了一趟“地狱”，画出诡异世界",
        "docid": "7312640376341512755",
        "url": ""
    },
    {
        "title": "那些惊艳千古的诗词——每一句都可以当做你的座右铭",
        "docid": "7309109069179732480",
        "url": ""
    },
    {
        "title": "“厝”字怎么读？“厝”字又是什么意思呢？",
        "docid": "7324935900700443170",
        "url": ""
    },
    {
        "title": "周易是天书吗？看懂这六条，你会发现读易经的感觉不一样了",
        "docid": "7333070137299517971",
        "url": ""
    },
    {
        "title": "再读《三体》：叶文洁为什么选择了罗辑？",
        "docid": "7337687684691591680",
        "url": ""
    },
    {
        "title": "美国人最不能理解中国人的4个习惯，声称这些习惯太难接受了",
        "docid": "7318330644500054528",
        "url": ""
    },
    {
        "title": "山西农民张喜才：苦练书法50年，八年抄完四大名著，被批无意义",
        "docid": "7337473186562343459",
        "url": ""
    },
    {
        "title": "各国最伟大小说排行榜前三，你知道吗？",
        "docid": "7327634579547128332",
        "url": ""
    },
    {
        "title": "“生辰八字”是指哪八个字？怎么推算自己的八字，看完就全明白了",
        "docid": "7319482796509446683",
        "url": ""
    },
    {
        "title": "学佛人可以吃鸡蛋吗？（印光大师）",
        "docid": "7326446761558917667",
        "url": ""
    },
    {
        "title": "“奀”字怎么读？又是什么意思呢？",
        "docid": "7333176837109285414",
        "url": ""
    },
    {
        "title": "明朝的一首词，抵得过千万首唐诗宋词，因为这首词写尽了历史沧桑！",
        "docid": "7333031701020443199",
        "url": ""
    },
    {
        "title": "山西75岁农民大叔痴迷研究阴阳40年，隐居闹市，无欲无求",
        "docid": "7320209262553203209",
        "url": ""
    },
    {
        "title": "唐太宗李世民书法，惊艳！",
        "docid": "7311481807050981942",
        "url": ""
    },
    {
        "title": "成都女孩远嫁沙特土豪，生活奢靡住别墅，出门被迫“头顶一块布”",
        "docid": "7336893241591235135",
        "url": ""
    },
    {
        "title": "行楷 800 常用字练习，太漂亮了！",
        "docid": "7319012415545311771",
        "url": ""
    },
    {
        "title": "生肖鸡：天生走狗屎运 2024离火运旺，快接住",
        "docid": "7326351347773653539",
        "url": ""
    },
    {
        "title": "生肖鼠：你们家来了三位贵客，一定要接得好，别让他们走了！",
        "docid": "7319060650108879386",
        "url": ""
    },
    {
        "title": "俗语：“男靠出生时，女靠出嫁日”，这两个时辰预示命运？有道理吗？",
        "docid": "7335342012574777897",
        "url": ""
    },
    {
        "title": "“奻”字怎么读？“娚奻嬲嫐”的意思是什么？",
        "docid": "7309402765476905512",
        "url": ""
    },
    {
        "title": "佛学太高深了，快来看看！佛教8大宗派以及佛学名词解释！",
        "docid": "7322648447587566114",
        "url": ""
    },
    {
        "title": "中式克苏鲁，一种更适合中国读者“体质”的暗黑邪说",
        "docid": "7312674251004658203",
        "url": ""
    },
    {
        "title": "行书不是乱写，17个行楷常用字祥解",
        "docid": "7313333728179159586",
        "url": ""
    },
    {
        "title": "宝宝起名·以诗为名，赋子无限可能: 宋代朱熹诗词中的男孩名字创意",
        "docid": "7308552704211583539",
        "url": ""
    },
    {
        "title": "打死镇关西时的鲁智深，官职为提辖，放到现在是多大的官？",
        "docid": "7337469326616298036",
        "url": ""
    },
    {
        "title": "这首诗颇难理解，欢迎赐教，评林新荣诗歌《初恋》",
        "docid": "7337696158675206694",
        "url": ""
    },
    {
        "title": "终南山第一隐士：隐居30多年，天天清水白菜，现亲人已认不出",
        "docid": "7312406498435449354",
        "url": ""
    },
    {
        "title": "《大宅门》白玉芬能立足提督府，原因藏在白颖园的一句话",
        "docid": "7307943166178476579",
        "url": ""
    },
    {
        "title": "不同种类的手串价格参考来了",
        "docid": "7329463597875790370",
        "url": ""
    },
    {
        "title": "有一种美",
        "docid": "7320415798214869531",
        "url": ""
    },
    {
        "title": "盘点中国历史上的“圣人”，知道一半以上就是历史达人",
        "docid": "7337659816267121178",
        "url": ""
    },
    {
        "title": "属牛人和什么生肖结婚最般配？老人的话真不假，看看有你吗?",
        "docid": "7334655017334571574",
        "url": ""
    },
    {
        "title": "紫砂壶防坑的十个小妙招——壶把内侧",
        "docid": "7327778044767207945",
        "url": ""
    },
    {
        "title": "行楷细节精讲60字",
        "docid": "7318550095556002341",
        "url": ""
    },
    {
        "title": "全国的门神你都见过几个？门神都一样统一吗？",
        "docid": "7336884324513350154",
        "url": ""
    },
    {
        "title": "人能无耻到什么地步，杭州首富喝醉后透露的7条血淋淋的真相",
        "docid": "7337665231336374820",
        "url": ""
    },
    {
        "title": "河南“两箱一提”牛奶引发热议，送礼文化背后的秘密",
        "docid": "7335728968873853440",
        "url": ""
    },
    {
        "title": "贾雨村，这个人人恨骂的恶人，只忠诚于他唯一的主人——林黛玉",
        "docid": "7337455243493458484",
        "url": ""
    },
    {
        "title": "佛都之光：河北邺城遗址发现大量北朝佛造像",
        "docid": "7330849609403073064",
        "url": ""
    },
    {
        "title": "江户小歪的文艺书屋2023年合集",
        "docid": "7337645599002772007",
        "url": ""
    },
    {
        "title": "小孩救回流浪狗，小狗叼回2枚金币，卖了2万，后来又叼回26枚金币",
        "docid": "7334658828115608073",
        "url": ""
    },
    {
        "title": "86年转业，战友到物资局我却进了快倒闭的烟厂，最后我却喜笑颜开",
        "docid": "7337678962858689063",
        "url": ""
    },
    {
        "title": "高罗佩是什么人？为何一个荷兰人能写出《大唐狄公案》？",
        "docid": "7333186355050070569",
        "url": ""
    },
    {
        "title": "走近道教：这五种人，不用上香拜神，也具有“道缘”，看看有你吗",
        "docid": "7310836153442189850",
        "url": ""
    },
    {
        "title": "上联：静待佳音笑迎客",
        "docid": "7337559453665198592",
        "url": ""
    },
    {
        "title": "钱，是怎么来的，看完醍醐灌顶！",
        "docid": "7337657839861727782",
        "url": ""
    },
    {
        "title": "中国大多数人为何反感资本主义？",
        "docid": "7337727021889634854",
        "url": ""
    },
    {
        "title": "《红灯记》李铁梅，从结婚到丈夫去世，仅4个月，82岁近况如何？",
        "docid": "7332046035453936162",
        "url": ""
    },
    {
        "title": "人口黑市究竟有多恐怖？为何如此猖狂？",
        "docid": "7336848083819151922",
        "url": ""
    },
    {
        "title": "大连横山寺供奉的是谁",
        "docid": "7307223219466486309",
        "url": ""
    },
    {
        "title": "公认八篇必背的短篇古文，你都能背下来吗？值得一读再读！",
        "docid": "7312613271310451210",
        "url": ""
    },
    {
        "title": "网友们所分享的20个怀旧老物件，感受那些2000年以来的变化",
        "docid": "7329393458546737727",
        "url": ""
    },
    {
        "title": "“千古奇书”《盐铁论》：10大“规律”，一定要懂",
        "docid": "7323416921603736064",
        "url": ""
    },
    {
        "title": "此文高深！只有慧根高的人才能真正领悟这其中所蕴含的智慧",
        "docid": "7319799844443357711",
        "url": ""
    },
    {
        "title": "禁欲文化的欲与罪",
        "docid": "7336779314006442531",
        "url": ""
    },
    {
        "title": "圣保罗狂欢节：巴西文化的热情庆典",
        "docid": "7337607503565881866",
        "url": ""
    },
    {
        "title": "越晚结婚，嫁得越好，越幸福的生肖女",
        "docid": "7307113116540649999",
        "url": ""
    },
    {
        "title": "15年水管工人发现一棵树\"不对劲\",女记者爬上去后,树\"打\"开一条缝",
        "docid": "7326096885360640550",
        "url": ""
    },
    {
        "title": "学习《易经》类传统国学知识中可能要用到的各类图片，仅供参考。",
        "docid": "7322699041115128355",
        "url": ""
    },
    {
        "title": "曾经的河北省晋州市，这些地方你都知道么？",
        "docid": "7317132026732511778",
        "url": ""
    },
    {
        "title": "一个人有没有福气，看他的房间就行了",
        "docid": "7318615802360578575",
        "url": ""
    },
    {
        "title": "盘点如今十位评书名家，哪一位的评书让你痴迷？",
        "docid": "7320602648221680169",
        "url": ""
    },
    {
        "title": "不敢相信，这婚书竟然写得这么美！太有“范”了！",
        "docid": "7320632138012066315",
        "url": ""
    },
    {
        "title": "虺：念chóng就错啦！来看看正确读音吧",
        "docid": "7318918756003267084",
        "url": ""
    },
    {
        "title": "女人叫男人的九个暗号",
        "docid": "7335594005427798537",
        "url": ""
    },
    {
        "title": "这样的女孩才聪明",
        "docid": "7337567964872950313",
        "url": ""
    },
    {
        "title": "美女主持人坚守25年，成为《梨园春》开播30年的当家“花旦”",
        "docid": "7307972874705453603",
        "url": ""
    },
    {
        "title": "顶配富二代迎娶香港当红女明星，一出手就是5亿？",
        "docid": "7337637914249413132",
        "url": ""
    },
    {
        "title": "苏轼词的“压卷之作”是哪首？只有这6首词才有资格，没人不服",
        "docid": "7310595828539015714",
        "url": ""
    },
    {
        "title": "开封王家打铁花：一年演出超1500场，人均年收入约8万",
        "docid": "7337132314532741684",
        "url": ""
    },
    {
        "title": "李维康：我与耿其昌结婚49年，坚持AA制生活，1个鸡蛋都不会多吃",
        "docid": "7336459049006825999",
        "url": ""
    },
    {
        "title": "胡懋仁：西方经济学理论基本不靠谱",
        "docid": "7337594053103927817",
        "url": ""
    },
    {
        "title": "庄子《齐物论》：人生最大的愚蠢，是困在世俗的“规矩”里",
        "docid": "7312824102178325027",
        "url": ""
    },
    {
        "title": "生肖鸡的福运出生年份：哪一年的人财运，人缘极佳？",
        "docid": "7308948954958414399",
        "url": ""
    },
    {
        "title": "四本被书名严重耽误的好小说",
        "docid": "7317480027280081420",
        "url": ""
    },
    {
        "title": "“旃”字怎么读？“旃檀”又是什么意思呢？",
        "docid": "7322464765518037556",
        "url": ""
    },
    {
        "title": "六兄“兗”是“老六”的意思吗？“兗”怎么读？山东老铁肯定知道",
        "docid": "7327229380143923775",
        "url": ""
    },
    {
        "title": "学会这30个行书大字，写榜书不再难",
        "docid": "7334142024670872079",
        "url": ""
    },
    {
        "title": "上八仙、中八仙和下八仙都有谁",
        "docid": "7330849616998498831",
        "url": ""
    },
    {
        "title": "属羊人与这3个属相结婚, 简直就是“帝王命” , 良缘佳偶 天作之合",
        "docid": "7331336155419443775",
        "url": ""
    },
    {
        "title": "败在冯瑛和唐晓澜联手之下，桂华生负气远走尼泊尔，后来怎样？",
        "docid": "7325363559980892683",
        "url": ""
    },
    {
        "title": "老话说的“午时不生女，子夜不临男”是什么意思",
        "docid": "7307069048083218984",
        "url": ""
    },
    {
        "title": "谁才是评书界的泰斗？袁阔成与单田芳：这有什么好争的？",
        "docid": "7318229367648322089",
        "url": ""
    },
    {
        "title": "人过五十岁明白挣钱是正事，诗词属小技，充风雅有余，遮风雨难成",
        "docid": "7324976899971940901",
        "url": ""
    },
    {
        "title": "一起看看《道诡异仙》的外网评论",
        "docid": "7304898241454555663",
        "url": ""
    },
    {
        "title": "古语云：宁娶二度花，不娶遗下人，二度花和遗下人指的什么女人？",
        "docid": "7315717970972525071",
        "url": ""
    },
    {
        "title": "一代奇文《命运赋》，百读不厌，成就千古经典！",
        "docid": "7305799071460196916",
        "url": ""
    },
    {
        "title": "人无横财难出头 小富由勤 大富由天 欲成大事必经磨难 你别不信！",
        "docid": "7303954757687853622",
        "url": ""
    },
    {
        "title": "生肖兔: 你感觉在地狱, 吃不下 坐不安 睡不着, 你渡劫成功有20年大运",
        "docid": "7313822426726580799",
        "url": ""
    },
    {
        "title": "凉山彝族自治州的前世今生，西凉合并，峨边、马边、米易分出。",
        "docid": "7327603247215346226",
        "url": ""
    },
    {
        "title": "他们是纯正汉族人，人口多达1亿，说正宗汉语，虽难听懂但好听！",
        "docid": "7317276017159799331",
        "url": ""
    },
    {
        "title": "山西临汾襄汾：废弃的卫生院里，有一座中国最美的古建筑斗拱",
        "docid": "7310873542164529714",
        "url": ""
    },
    {
        "title": "道家八宝“暗八仙”",
        "docid": "7314157792913654284",
        "url": ""
    },
    {
        "title": "《新华字典》被诉部分注释释义不当，专家回应",
        "docid": "7337464508296151592",
        "url": ""
    },
    {
        "title": "江西信江河黄蜡石静观妙悟66.8万易主，这块石头简直是艺术的化身",
        "docid": "7325687408035791396",
        "url": ""
    },
    {
        "title": "古代中国没有狮子，却盛行狮文化，那么狮文化到底是怎么兴起的？",
        "docid": "7336859550865392137",
        "url": ""
    },
    {
        "title": "史国良：抛妻弃子出家15年，后因儿子选择还俗，14年一幅画1173万",
        "docid": "7306811390261068339",
        "url": ""
    },
    {
        "title": "最美的10篇古文，一生至少要读一次，太治愈了！",
        "docid": "7304844361374777868",
        "url": ""
    },
    {
        "title": "1992年，马三立为何在白全福收徒仪式上说：李伯祥是门长都听他的",
        "docid": "7304546740370620963",
        "url": ""
    },
    {
        "title": "拜天公，不如拜自己，哪儿来的什么玉皇大帝？",
        "docid": "7336723153236017716",
        "url": ""
    },
    {
        "title": "恭喜您！刷到药师观音，好事即将降临！药到病除，无病无灾～",
        "docid": "7336474831909159450",
        "url": ""
    },
    {
        "title": "“韩侂胄”的“侂”怎么读？",
        "docid": "7310739668751090188",
        "url": ""
    },
    {
        "title": "三杯两盏残淡酒，万丈红尘一春秋",
        "docid": "7326704130435662371",
        "url": ""
    },
    {
        "title": "原来古人早就讲了怎么实现阶级跨越",
        "docid": "7335236867266265635",
        "url": ""
    },
    {
        "title": "我，1米58的重庆女孩，恋上了1米93的大个子，身高不是距离",
        "docid": "7313355007263506954",
        "url": ""
    },
    {
        "title": "白天演员、晚上间谍，隐姓埋名75年，95岁的“姜子牙”传奇一生",
        "docid": "7314991692636160546",
        "url": ""
    },
    {
        "title": "难怪孙悟空没有遇到同窗校友，你看他们都去了哪？生死簿上有答案",
        "docid": "7313163668400226816",
        "url": ""
    },
    {
        "title": "中国失散千年的“亲兄弟”？匈牙利与中国，相似之处让人惊叹！",
        "docid": "7336491808953844234",
        "url": ""
    },
    {
        "title": "中国有“皇氏血统”的30个姓，对照一下，有你吗？",
        "docid": "7337309265708810764",
        "url": ""
    },
    {
        "title": "史上最懒的诗人，一生只写了2句诗，却流传至今，人人皆知",
        "docid": "7316722627584868874",
        "url": ""
    },
    {
        "title": "不愧是央妈！一次找7位“书卷气”美人演李清照，从此才女有了脸",
        "docid": "7337279191521460745",
        "url": ""
    },
    {
        "title": "举报“旭日旗”成功！而我，却越来越怕了",
        "docid": "7337232830613422631",
        "url": ""
    },
    {
        "title": "难怪王扶林非把袁玫化丑，看她的“贵妃”造型，多明艳又国色天香",
        "docid": "7321609469559947817",
        "url": ""
    },
    {
        "title": "南京才女出上联：秋雨淋老舍，台湾网友对出绝妙下联，堪称经典",
        "docid": "7316743722018849321",
        "url": ""
    },
    {
        "title": "湖南100大姓排名，看看你的姓氏是哪里迁移来的？",
        "docid": "7320996937304637990",
        "url": ""
    },
    {
        "title": "皇帝宠余莺儿，不是馋她的身子也不是馋她的昆曲，真相太扎心",
        "docid": "7307230738112512524",
        "url": ""
    },
    {
        "title": "黄老邪的师父，到底是虚竹还是段誉，书中三个细节已给出答案",
        "docid": "7314299790421656102",
        "url": ""
    },
    {
        "title": "史依弘演《繁花》，王家卫导演要求，别对“宝总”太温柔",
        "docid": "7320566118668714511",
        "url": ""
    },
    {
        "title": "甄嬛的母亲倾国倾城，为何甄父偏偏深爱罪臣之女？你看她名字是啥",
        "docid": "7314948032540754467",
        "url": ""
    },
    {
        "title": "“我躺平摆烂了”用古诗词这么说，真的很绝！",
        "docid": "7309019993918833215",
        "url": ""
    },
    {
        "title": "无崖子布下珍珑棋局，其实只为等两个人，理想人选根本就不是虚竹",
        "docid": "7319104705504903691",
        "url": ""
    },
    {
        "title": "湖北究竟属于南方还是北方？",
        "docid": "7337583108721574440",
        "url": ""
    },
    {
        "title": "孙悟空吃蟠桃，为什么吃一口扔一个？你看猴哥发现了什么秘密",
        "docid": "7331744984583340556",
        "url": ""
    },
    {
        "title": "你认为是段子，原来其实是顶级思维，看完受益匪浅，启发颇多",
        "docid": "7337547796985791017",
        "url": ""
    },
    {
        "title": "《杨家将》十大高手，杨六郎难上榜，杨七郎只排第三，谁排第一？",
        "docid": "7312084020614775306",
        "url": ""
    },
    {
        "title": "清华教授为村民3D打印住宅，用160小时，只花20多万，成全国第一",
        "docid": "7332046677765276160",
        "url": ""
    },
    {
        "title": "它几乎是仅次于《西游记》的第二神剧",
        "docid": "7319045558046458408",
        "url": ""
    },
    {
        "title": "北京富人区“捡宝”，捡到14支钢笔，好几堆铜钱",
        "docid": "7337115080053834249",
        "url": ""
    },
    {
        "title": "57岁不会做饭不会做家务，闹过四个绯闻老公，却没有一个是真的",
        "docid": "7326754672936108582",
        "url": ""
    },
    {
        "title": "《知否》原著，华兰脖子上消失的金项圈，是她对袁夫人最狠的算计",
        "docid": "7320081072736584204",
        "url": ""
    },
    {
        "title": "山西！你不宣传这些地方你糊涂啊！",
        "docid": "7335456679100973580",
        "url": ""
    },
    {
        "title": "“别在垃圾桶里找朋友”这句话，我30岁才懂",
        "docid": "7306037834463396364",
        "url": ""
    },
    {
        "title": "隋唐演义：瓦岗势力中实力最强的十大战将",
        "docid": "7327459235397255717",
        "url": ""
    },
    {
        "title": "瑕不掩瑜！看了张国荣演的“贾宝玉”，才明白欧阳奋强当年有多强",
        "docid": "7322276240738484774",
        "url": ""
    },
    {
        "title": "不服80后90后，就服00后出生的孩子，他们正在改变很多传统观念",
        "docid": "7335751825066705445",
        "url": ""
    },
    {
        "title": "高铁一等座，为什么总有人打掼蛋？",
        "docid": "7323043702610559529",
        "url": ""
    },
    {
        "title": "著名古建筑“重建前vs重建后”对比，一比吓一跳啊",
        "docid": "7316972193308082728",
        "url": ""
    },
    {
        "title": "刘震云的这六部作品，都被拍成了电影或电视剧",
        "docid": "7309081394104287778",
        "url": ""
    },
    {
        "title": "世界上32个被遗弃的建筑，凄凉让人毛骨悚然，你敢一个人去吗？",
        "docid": "7306852827488551478",
        "url": ""
    },
    {
        "title": "四川自古有四个“川”，现只剩下两个川，另外两个川哪去了？",
        "docid": "7326913754296369700",
        "url": ""
    },
    {
        "title": "安徽光棍哥俩为了养弃婴，装一车土仅赚3元，35年后女婴拼命反哺",
        "docid": "7310229142317613605",
        "url": ""
    },
    {
        "title": "为什么西出阳关无故人，看地图一目了然",
        "docid": "7308573107705610787",
        "url": ""
    },
    {
        "title": "贾母想把林黛玉嫁给谁？撕掉主角光环，贾宝玉只是给林黛玉托底的",
        "docid": "7331758865908253238",
        "url": ""
    },
    {
        "title": "重庆一光棍捡到一女婴，终身未娶供她读研，她的回报让人泪目!",
        "docid": "7336885121772044839",
        "url": ""
    },
    {
        "title": "“天地不仁，以万物为刍狗”，刍狗是什么狗？大多数人都理解错了",
        "docid": "7311658530871378469",
        "url": ""
    },
    {
        "title": "《鬼吹灯》原著和电视作品中被删掉的鬼",
        "docid": "7308590984940716580",
        "url": ""
    },
    {
        "title": "悟空才1200岁，却称寿星为“老弟”，寿星不怒反喜，为什么？",
        "docid": "7322366736303686178",
        "url": ""
    },
    {
        "title": "原来他已经去世9年！6岁登上春晚8岁去世，患病时还在继续演出",
        "docid": "7329438210109571595",
        "url": ""
    },
    {
        "title": "13年前，把狼当儿子养的四川女孩，10年后和它在草原上相认",
        "docid": "7314939595123393036",
        "url": ""
    },
    {
        "title": "转眼间合作已有23年，郭德纲发文感恩于谦。其中感慨难以言表。",
        "docid": "7336115157519057419",
        "url": ""
    },
    {
        "title": "你迟早会明白，世上最“没用”的人，就是父亲",
        "docid": "7322001547989123596",
        "url": ""
    },
    {
        "title": "你若发现一个人心性不对时：不要跟他说话，一个字也不要说",
        "docid": "7333929211193262629",
        "url": ""
    },
    {
        "title": "七八十年代的七个老物件，认识一半算你厉害，全部认识的都老了吧",
        "docid": "7334212031560139273",
        "url": ""
    },
    {
        "title": "央视才女主持李梓萌书法，虽被调侃为“稚嫩体”，却引网友大夸赞",
        "docid": "7321312903989281316",
        "url": ""
    },
    {
        "title": "百位画家 | 人物集合",
        "docid": "7330610632825242147",
        "url": ""
    },
    {
        "title": "《额尔古纳河右岸》：最经典的3句话，渡了无数人",
        "docid": "7320459387578499647",
        "url": ""
    },
    {
        "title": "《天道》：丁元英去古城独居一年的真正目的是什么？",
        "docid": "7317577733268816422",
        "url": ""
    },
    {
        "title": "原来红砖也这么美，为啥还对昂贵的大理石如此执着！",
        "docid": "7327494696757084683",
        "url": ""
    },
    {
        "title": "读完原著一身冷汗，难怪白骨精本领小野心大，你看她是谁尸骨成精",
        "docid": "7313866291478266404",
        "url": ""
    },
    {
        "title": "当年你爹为了追俺给俺家挑了三年水！别听你娘瞎说，她坐井那等我",
        "docid": "7324518797707821583",
        "url": ""
    },
    {
        "title": "与汉字似是而非的文字，猛一看面熟，再一看不认识",
        "docid": "7325030828810109455",
        "url": ""
    },
    {
        "title": "他是第四代杨家将中身世最惨，武艺最好的一个，他为何会惨死？",
        "docid": "7306435293941580323",
        "url": ""
    },
    {
        "title": "男人发家真正需要几年？",
        "docid": "7337802726279037475",
        "url": ""
    },
    {
        "title": "甘肃00后女诗人：与父母决裂在大理流浪，摆摊卖诗集被称当代三毛",
        "docid": "7317530080887390783",
        "url": ""
    },
    {
        "title": "河南男子跳河救人，体力耗尽留遗言，被救女子猛然抓住他：一起走",
        "docid": "7326108786983322152",
        "url": ""
    },
    {
        "title": "只有穷人，才会痴迷于技术！值得一看！",
        "docid": "7334825901123027510",
        "url": ""
    },
    {
        "title": "1935年，胡蝶和梅兰芳外出偶遇，留下了这一张合影，气质绝佳",
        "docid": "7306449962446291497",
        "url": ""
    },
    {
        "title": "突然发现晋江作者的身体都好差啊 ​​​",
        "docid": "7331421709117030946",
        "url": ""
    },
    {
        "title": "在中国所有诗人中，能被称“伟大”二字的诗人，只有这六人",
        "docid": "7320127038130586131",
        "url": ""
    },
    {
        "title": "郭德纲正在布局，让郭麒麟接班这事绝非虚言，岳云鹏已入局！",
        "docid": "7335987085436158514",
        "url": ""
    },
    {
        "title": "王仙芝的一句话，揭开拓跋菩萨与自己的差距，李淳罡实力更弱无疑",
        "docid": "7307194851605414438",
        "url": ""
    },
    {
        "title": "宋朝人！为什么把猫画的这么丑？看完评论区才发现原来是写实！",
        "docid": "7323775783577616936",
        "url": ""
    },
    {
        "title": "按倪匡本意，《天龙八部》的第三主角若是游坦之会比虚竹更经典",
        "docid": "7317440978137317915",
        "url": ""
    },
    {
        "title": "难怪王扶林说陈晓旭不够漂亮，看看黛玉第一候选人，那才叫美",
        "docid": "7321163796519911971",
        "url": ""
    },
    {
        "title": "水浒108位好汉，他们的籍贯都覆盖了全国的哪些省份？",
        "docid": "7297066492527673865",
        "url": ""
    },
    {
        "title": "杨过共娶了3个妻子，生下7子，5个是旷世大侠，2个是魔教教主",
        "docid": "7326481389770031642",
        "url": ""
    },
    {
        "title": "宋徽宗行书太美了，丝毫看不出这就是水浒宋江最后叩拜的昏庸皇帝",
        "docid": "7309873335079322112",
        "url": ""
    },
    {
        "title": "明明是女配，名字却比女主还好听，梁羽生笔下十个好听的女配名字",
        "docid": "7304877012471087652",
        "url": ""
    },
    {
        "title": "长孙是长子的儿子，还是年龄大的孙子？很多人搞不明白，答案来了",
        "docid": "7320500256226492954",
        "url": ""
    },
    {
        "title": "全村凑钱供他上大学，他当官后却20年不回来，老爹去世时无人抬棺",
        "docid": "7313711600391897663",
        "url": ""
    },
    {
        "title": "立体汉字，向怀素致敬",
        "docid": "7318405465740689931",
        "url": ""
    },
    {
        "title": "难怪华筝会替黄蓉落泪，你看黄蓉在华山，被欧阳锋欺辱了多久？",
        "docid": "7326397114051740197",
        "url": ""
    },
    {
        "title": "射雕五绝为何不抢易筋经？你看经书在何人之手，五绝联手也打不过",
        "docid": "7316381049230017063",
        "url": ""
    },
    {
        "title": "人性还是兽性？莫言在北大女生犀利的提问下离开，网友拍手叫好",
        "docid": "7337587712846823936",
        "url": ""
    },
    {
        "title": "自从学刘姥姥心态去上班，我再也不内耗了",
        "docid": "7310043124775059979",
        "url": ""
    },
    {
        "title": "中国四大名楼，谁才是名副其实的第一呢，一个永远的话题",
        "docid": "7310046111342101042",
        "url": ""
    },
    {
        "title": "女生一定要多看纪录片，不要把生命献给无知 ​ ​​​",
        "docid": "7323038714341851674",
        "url": ""
    },
    {
        "title": "红楼梦最大尺度描写，是尤二姐的半块槟榔，羞辱贞洁突破人性底线",
        "docid": "7336409975620829732",
        "url": ""
    },
    {
        "title": "如果在景德镇设计一个青花瓷大楼会是什么样子的？",
        "docid": "7331587377665917476",
        "url": ""
    },
    {
        "title": "梁羽生武侠三位神级高手，一神一魔一疯丐，三人足以笑傲整个江湖",
        "docid": "7318380122544046633",
        "url": ""
    },
    {
        "title": "《送东阳马生序》突然又火起来了！博主哭诉读大学有什么用！",
        "docid": "7336821325224313383",
        "url": ""
    },
    {
        "title": "自己的衣品差，记得逼自己看完这些内容，你会变得很牛",
        "docid": "7324612906078126632",
        "url": ""
    },
    {
        "title": "这一次，已然66岁的潘长江，无法再被世界宽容",
        "docid": "7336046613720547859",
        "url": ""
    },
    {
        "title": "侠客岛如果请张三丰去喝粥，张三李四请得动么？黄衫女子知道答案",
        "docid": "7309848650623615526",
        "url": ""
    },
    {
        "title": "金庸给女子取名时，喜欢用单字，古龙喜欢用叠字，怎么取都好听",
        "docid": "7318570450181784079",
        "url": ""
    },
    {
        "title": "和尚们每天吃素，为何各个都是肥头大耳？看看他们的伙食就懂了",
        "docid": "7314849262960427559",
        "url": ""
    },
    {
        "title": "为了统一青菜的定义，全国人民都闹麻了",
        "docid": "7307427391884821033",
        "url": ""
    },
    {
        "title": "李白和苏轼诗词的巅峰对决。简直就是神仙打架！ ​​​",
        "docid": "7315086408207680041",
        "url": ""
    },
    {
        "title": "为什么西安宣传秦朝文化、唐朝文化，却唯独不宣传汉朝文化 ？",
        "docid": "7337462358849896994",
        "url": ""
    },
    {
        "title": "成长的标准就是：拒绝别人以后没有任何愧疚感！",
        "docid": "7318223032760189478",
        "url": ""
    },
    {
        "title": "若觉人生痛苦无意义，不妨读读叔本华",
        "docid": "7315835527847068160",
        "url": ""
    },
    {
        "title": "闹大了！广东人过传统节日被全国各地合力推广，人民日报也转发了",
        "docid": "7336744717654245899",
        "url": ""
    },
    {
        "title": "如来佛祖头上的“包”是啥？不是发型，而是让神佛畏惧的东西",
        "docid": "7317942165022802458",
        "url": ""
    },
    {
        "title": "冷军画的2个破旧发动机，横着放卖198万，竖着放卖1897万，为啥？",
        "docid": "7329765914638205478",
        "url": ""
    },
    {
        "title": "“世界就是草台班子，985也很水”，00后新世界观，创飞了老一辈",
        "docid": "7306852180194378275",
        "url": ""
    },
    {
        "title": "他们搞同性恋，中国人熟视无睹，别老拿这种事教育我们",
        "docid": "7327567376474505737",
        "url": ""
    },
    {
        "title": "芝加哥艺术论坛 | 希腊神话中的5个坏女人",
        "docid": "7311165702525583882",
        "url": ""
    },
    {
        "title": "吴侬软语醉人心",
        "docid": "7335719099400077861",
        "url": ""
    },
    {
        "title": "龙年肯定要用龙的壁纸啊！",
        "docid": "7336729156400464396",
        "url": ""
    },
    {
        "title": "梁山最后一战，扈三娘晚上去找林冲，两人见面后做了什么？",
        "docid": "7313818539734090249",
        "url": ""
    },
    {
        "title": "杨七郎对战大刀王兰英，谁能取胜？韩昌：二人根本不是同一级别！",
        "docid": "7310814517079310899",
        "url": ""
    },
    {
        "title": "民间歇后语20句，损人不带脏字，一句比一句经典，你听过几句？",
        "docid": "7312656337723425332",
        "url": ""
    },
    {
        "title": "一葵二霸三士瀚，四裴五马六高英，指哪六位评书中的用锤高手？",
        "docid": "7316789687224468009",
        "url": ""
    },
    {
        "title": "“夜未央”的“未央”是什么意思，你真的理解对了吗？",
        "docid": "7327859191937794611",
        "url": ""
    },
    {
        "title": "封神演义里十位最幸运角色：伯邑考的紫薇大帝都不如纣王一家子。",
        "docid": "7337268186318029364",
        "url": ""
    },
    {
        "title": "小狮子遇到锣鼓队，低头三甩本是美好相遇，却有人质疑是侮辱国术",
        "docid": "7335704720310272523",
        "url": ""
    },
    {
        "title": "易中天：《三字经》是“毒药”，别让孩子再学了！你赞同吗？",
        "docid": "7332014450960286245",
        "url": ""
    },
    {
        "title": "古代俗语“男怕属鸡，女怕属羊”，是什么意思？有道理吗？",
        "docid": "7311172677350588966",
        "url": ""
    },
    {
        "title": "因为太厌恶妻子，徐悲鸿给儿子起了个晦气的名字，不成想字字应验",
        "docid": "7318388233589637684",
        "url": ""
    },
    {
        "title": "妖怪想长生不老，为啥不去抢人参果？网友的分析看得我目瞪口呆！",
        "docid": "7310496994752725504",
        "url": ""
    },
    {
        "title": "韩国美女嫁入中国，第一次在婆家过年，感叹：这就是真正的春节吗",
        "docid": "7336847580938420774",
        "url": ""
    },
    {
        "title": "第二十条：日日遭受霸凌，王永强为何不带着老婆孩子逃跑？",
        "docid": "7335321368374034995",
        "url": ""
    },
    {
        "title": "龙王为什么都姓敖？",
        "docid": "7333144308981367335",
        "url": ""
    },
    {
        "title": "亲兄妹之间应该避嫌吗？带入网友真实经历，我瞬间醍醐灌顶",
        "docid": "7336898922847207947",
        "url": ""
    },
    {
        "title": "白眉大侠里的“饭桶”们",
        "docid": "7306598229842674185",
        "url": ""
    },
    {
        "title": "王进的武艺是什么水平？如果他上梁山，能入选梁山五虎将吗？",
        "docid": "7328769566883299876",
        "url": ""
    },
    {
        "title": "今天才知道二十四节气的含义是这样的，为了孩子收藏，值得学习",
        "docid": "7310034726419546662",
        "url": ""
    },
    {
        "title": "“十个学校九个坟”，学校为啥建在坟地上，甚至还选乱葬岗？",
        "docid": "7308186326036218402",
        "url": ""
    },
    {
        "title": "《三国》：如果把五虎上将给了吴国孙权，他可以统一三国吗？",
        "docid": "7310567501258211880",
        "url": ""
    },
    {
        "title": "如果将孙悟空放进《封神演义》里，会是什么水平？",
        "docid": "7326469252830396969",
        "url": ""
    },
    {
        "title": "王阳明的最后一日：浑身溃烂大夫都跑光，仅仅留下八字便撒手人寰",
        "docid": "7336849384178991635",
        "url": ""
    },
    {
        "title": "央视推荐的12本好书，你读过几本？",
        "docid": "7321366338709406247",
        "url": ""
    },
    {
        "title": "这想钱想疯了吧，这时候还拿1000件羽绒服来卖？朋友：撑死胆大的",
        "docid": "7318289378026406452",
        "url": ""
    },
    {
        "title": "45岁开窍，感谢自己读了这10本书，成为了自己想要成为的那个自己",
        "docid": "7315791437801996815",
        "url": ""
    },
    {
        "title": "时间紧迫，元春省亲为什么还要搞个诗会？只有黛玉领悟到了精髓",
        "docid": "7337138565107499560",
        "url": ""
    },
    {
        "title": "世风日下，谁之过？反思与对策",
        "docid": "7337127542635495971",
        "url": ""
    },
    {
        "title": "回农村老家参加葬礼后，才明白故乡回不去了",
        "docid": "7310439009816478217",
        "url": ""
    },
    {
        "title": "“夔”字怎么读？又是什么意思呢？夔龙一词最早出现朝代知道吗？",
        "docid": "7313453865305833994",
        "url": ""
    },
    {
        "title": "杏仙被八戒打死冤不冤？猴子：你也不看他们是啥货色！",
        "docid": "7337482217033138729",
        "url": ""
    },
    {
        "title": "他识破宋江，假装回乡探母，结果一去不返，成为水浒结局最好的人",
        "docid": "7306823815793820195",
        "url": ""
    },
    {
        "title": "躲过了中国人的筷子，却没避开越南人炭烤？越南人为啥爱吃鼠肉？",
        "docid": "7312704642146714163",
        "url": ""
    },
    {
        "title": "好听有涵养的宝宝好名字",
        "docid": "7308628893735748133",
        "url": ""
    },
    {
        "title": "有手就能画！教你简单风景画",
        "docid": "7321235488072057384",
        "url": ""
    },
    {
        "title": "陕北单身男子搞收藏：50年投了2700万，开民间博物馆藏品价值过亿",
        "docid": "7324247811007283749",
        "url": ""
    },
    {
        "title": "京剧脸谱颜色的含义",
        "docid": "7316081489463067148",
        "url": ""
    },
    {
        "title": "国内著名的八座古塔，都是第一批全国重点文物保护单位，让人惊叹",
        "docid": "7331671218230067722",
        "url": ""
    },
    {
        "title": "“家有青龙树，后代一直富”，啥是“青龙树”，有什么依据吗？",
        "docid": "7311978311045906955",
        "url": ""
    },
    {
        "title": "春节的热闹，不在麻将不在扑克也不在鞭炮，而是惊险绝伦的龙甩尾",
        "docid": "7337829615588885042",
        "url": ""
    },
    {
        "title": "北京富人区“捡宝”，捡到2个福寿金碗，还有银票",
        "docid": "7337893042751668787",
        "url": ""
    },
    {
        "title": "闹大了！“断亲”现象席卷中国家庭！再过30年，恐怕无人再走亲",
        "docid": "7336883786472391203",
        "url": ""
    },
    {
        "title": "2024甲辰年：“青龙得位，十谋九成”！",
        "docid": "7334603665049567779",
        "url": ""
    },
    {
        "title": "他是混上梁山的大恶人，先害鲁达，再害武松，却娶了娇妻还成了仙",
        "docid": "7334547372377129522",
        "url": ""
    },
    {
        "title": "俗话说“家有三老，注定衰败”：这3类老人，会导致家庭不和谐",
        "docid": "7330118112186581542",
        "url": ""
    },
    {
        "title": "有人说现在社会不公平，但是我告诉你:现在社会是最公平的",
        "docid": "7307904797217686027",
        "url": ""
    },
    {
        "title": "全世界几乎都被“字母”占领，为何只有中国能坚守“汉字体系”？",
        "docid": "7337926929640833548",
        "url": ""
    },
    {
        "title": "53岁大哥：做了5年的男保姆后，发现单身阿姨请保姆的目的不简单",
        "docid": "7337942046474256908",
        "url": ""
    },
    {
        "title": "高清壁纸：中国红，中国龙",
        "docid": "7317979654760153652",
        "url": ""
    },
    {
        "title": "上古十大神兽，青龙只能排第三！",
        "docid": "7337625363738903077",
        "url": ""
    },
    {
        "title": "《热辣滚烫》带火拍摄地，地方文旅如何接住这“泼天富贵”？丨文化观察",
        "docid": "7337665321509782051",
        "url": ""
    },
    {
        "title": "跟着底层人民视角来回顾文革岁月——读《芙蓉镇》有感",
        "docid": "7337867586849374746",
        "url": ""
    },
    {
        "title": "一毛不拔，越有钱越抠门的生肖",
        "docid": "7336148539300987392",
        "url": ""
    },
    {
        "title": "30名研究生放弃百万年薪，组团出家为僧，如今过得怎么样了？",
        "docid": "7333420492047024677",
        "url": ""
    },
    {
        "title": "一高二杨三曹四文龙，五岳六卢后面是什么？曹宁和陆文龙谁更强？",
        "docid": "7314226055752466984",
        "url": ""
    },
    {
        "title": "山东女孩苏一格：5年不用卫生巾，去厕所不用纸，却养300条蚯蚓",
        "docid": "7337213448855650868",
        "url": ""
    },
    {
        "title": "郭冬临在春晚上因一句“十个河南九个骗”惹上麻烦，如今怎么样了",
        "docid": "7337217784289739304",
        "url": ""
    },
    {
        "title": "我们目前面临的最大问题：已经不是如何发展、如何致富了",
        "docid": "7320513815588667919",
        "url": ""
    },
    {
        "title": "在聪明的基督徒面前，我就是个大笨蛋",
        "docid": "7321376152067686964",
        "url": ""
    },
    {
        "title": "“夫妻不送葬，送葬必遭殃”，夫妻为何不能给对方送葬？有依据吗",
        "docid": "7308556736251150886",
        "url": ""
    },
    {
        "title": "为什么北欧那么高的福利，国家和政府都不会破产，其他国家却会？",
        "docid": "7323412131993453090",
        "url": ""
    },
    {
        "title": "天主教和基督教的区别",
        "docid": "7336904991187714575",
        "url": ""
    },
    {
        "title": "朱军的书法下了大功夫，的确不错，行书形质高古，楷书融古出新",
        "docid": "7316044334791590440",
        "url": ""
    },
    {
        "title": "“老人无德害全家”：缺乏以下4种德行，后代就惨了",
        "docid": "7316379205669765644",
        "url": ""
    },
    {
        "title": "“马看四蹄，人看四相”，是啥意思？老祖宗留下的识人术",
        "docid": "7307118892697125395",
        "url": ""
    },
    {
        "title": "李贺写出“天若有情天亦老”盛唐之时无人可接，直到宋朝才有下句",
        "docid": "7316398776875909644",
        "url": ""
    },
    {
        "title": "难怪孙悟空要推倒人参果树，你看他用火眼金睛看到了啥秘密",
        "docid": "7322410137128485391",
        "url": ""
    },
    {
        "title": "地藏王菩萨、十殿阎王、酆都大帝、东岳大帝，谁才是地狱的主宰？",
        "docid": "7308436298845553164",
        "url": ""
    },
    {
        "title": "31岁戏曲演员李蓉车祸身亡！两车碾压司机全逃跑，2小时才被发现",
        "docid": "7319813405311844916",
        "url": ""
    },
    {
        "title": "“无德之人，一看便知”:品德不行的人，多半有此3种明显表现",
        "docid": "7312735977532277257",
        "url": ""
    },
    {
        "title": "西游记里最惨的妖怪是谁？孙悟空传他72变，他死后却被兄弟分食",
        "docid": "7304505632751895059",
        "url": ""
    },
    {
        "title": "德云社“天价茶水”200多引热议，网友：消费不起，就干脆别去",
        "docid": "7336452884919321099",
        "url": ""
    },
    {
        "title": "一个人最大的糊涂，是向外人说了这三件事",
        "docid": "7311209112740643340",
        "url": ""
    },
    {
        "title": "收藏殚精竭虑，却遭巨大损失，一切成泡影！",
        "docid": "7324171732997161508",
        "url": ""
    },
    {
        "title": "英媒：中国春节渐成世界性节日",
        "docid": "7336068093711647269",
        "url": ""
    },
    {
        "title": "网红穿龙袍扮神明被骂，心虚关闭评论，网友：刘涛演妈祖还得请示",
        "docid": "7337877209266815498",
        "url": ""
    },
    {
        "title": "简单几笔完成！画奔放的猫咪",
        "docid": "7322746573484622376",
        "url": ""
    },
    {
        "title": "“遗物四不烧，留下子孙富”，长辈离世后，哪4件东西不能烧？",
        "docid": "7310160300941050422",
        "url": ""
    },
    {
        "title": "终于有人把史上大罪人整理出来了，看完涨知识了，收藏起来看看",
        "docid": "7337910861224559116",
        "url": ""
    },
    {
        "title": "42岁，独处 +读书 +运动",
        "docid": "7312584393787179557",
        "url": ""
    },
    {
        "title": "有人说《悯农》中的“锄禾日当午”是违背作物规律",
        "docid": "7321744992018711055",
        "url": ""
    },
    {
        "title": "7年前男子刘忠文：得了一种病，生活难以自理，现在怎么样",
        "docid": "7337882459960558095",
        "url": ""
    },
    {
        "title": "18首古诗词，带你了解酒，何人借我一壶酒，醉到来年秋满楼，经典",
        "docid": "7311985678370308635",
        "url": ""
    },
    {
        "title": "老话：“家中有4空，子孙代代穷”，是哪4空？看完很有道理",
        "docid": "7332402196598407695",
        "url": ""
    },
    {
        "title": "杨六郎4个儿子，3个亲生1个义子，分别是谁？他们娶了谁做妻子？",
        "docid": "7334291193104613903",
        "url": ""
    },
    {
        "title": "我，80后，爱上小10岁台湾女孩，跟岳母相处成朋友，很开心",
        "docid": "7308624208161489420",
        "url": ""
    },
    {
        "title": "梁山虽有108将，绝世高手却只有1位，一流高手7位，别的都不入流",
        "docid": "7307922277109465652",
        "url": ""
    },
    {
        "title": "宋高宗赵构写的《兰亭序》，水平不服不行，网友：皇帝里的王羲之",
        "docid": "7323035844011737600",
        "url": ""
    },
    {
        "title": "脑洞大开的苏联时期建筑，超越时代的力量不应落幕",
        "docid": "7318706455678468648",
        "url": ""
    },
    {
        "title": "俗话：“善恶看嘴眼，贫富看手脚”，啥意思？器官识人准不准",
        "docid": "7322771570346672650",
        "url": ""
    },
    {
        "title": "“济公”，历史上真实存在，圆寂时留下一首禅诗，24字点醒无数人",
        "docid": "7336407785561014784",
        "url": ""
    },
    {
        "title": "难怪晁盖不传位给宋江？你看宋江对扈三娘做了什么，晁盖已看透他",
        "docid": "7327228515529622031",
        "url": ""
    },
    {
        "title": "茅盾文学奖最出名的获奖作品，你都知道哪些？",
        "docid": "7320078954000630322",
        "url": ""
    },
    {
        "title": "苏轼这六首诗，治好了我的精神内耗。 ​",
        "docid": "7319468348218212900",
        "url": ""
    },
    {
        "title": "西游记隐藏细节：七只蜘蛛精喊蜈蚣精是师兄，那她们的师父是谁？",
        "docid": "7304172814901215770",
        "url": ""
    },
    {
        "title": "杨五郎两个徒弟，一个为了救杨家将皇上也敢杀，一个却恩将仇报！",
        "docid": "7332631771709882891",
        "url": ""
    },
    {
        "title": "孩子是以下生肖，就是来报恩的，出生就给父母带财，光耀门楣！",
        "docid": "7331747945358082594",
        "url": ""
    },
    {
        "title": "《封神》中的“超能一家人”，为何齐齐整整交代在了西岐？",
        "docid": "7337673097707160105",
        "url": ""
    },
    {
        "title": "16个一辈子都写不出来的句子",
        "docid": "7308690048453460515",
        "url": ""
    },
    {
        "title": "他暗恋八年的女孩，出现在妹妹朋友圈，下一秒，眼神里全是震惊。",
        "docid": "7332931309104267791",
        "url": ""
    },
    {
        "title": "虞美人（李煜格）",
        "docid": "7323716236423397900",
        "url": ""
    },
    {
        "title": "2017年，定慧寺将高僧遗体捐赠国家，体检现场显示：大脑还在",
        "docid": "7322405678205944360",
        "url": ""
    },
    {
        "title": "弟弟替哥哥下矿井丧生，哥哥领20万抚恤金后发现弟弟竟没死，两兄弟争相自首",
        "docid": "7324969738478567988",
        "url": ""
    },
    {
        "title": "唐诗中最美的一场夜雪，无一高级字，却惊艳一千多年的时光",
        "docid": "7306054270833639974",
        "url": ""
    },
    {
        "title": "莫泊桑《雨伞》：看清一个人最容易的方式，谈钱",
        "docid": "7309288486308545036",
        "url": ""
    },
    {
        "title": "很多人喜欢说“夜未央”，“未央”2个字到底啥意思，很多人不懂",
        "docid": "7329914858462675456",
        "url": ""
    },
    {
        "title": "来自老外的绝望悲鸣！感受一下他们学中文的痛苦，心理平衡了不少",
        "docid": "7336888839434617356",
        "url": ""
    },
    {
        "title": "看懂《呼啸山庄》我顿悟，什么是对小人最好的报复",
        "docid": "7324319811746415119",
        "url": ""
    },
    {
        "title": "他是梁山最阴之人，一身绝技却装弱，宋江死后，他投靠奸臣当走狗",
        "docid": "7310780250751992383",
        "url": ""
    },
    {
        "title": "王安石非常经典的一首诗，成为宋诗压卷之作，千百年来无人能超越",
        "docid": "7306017720578277903",
        "url": ""
    },
    {
        "title": "红楼梦：贾府真正的救命人，是那个早被踢出权力中心的可怜女人",
        "docid": "7334935831641309708",
        "url": ""
    },
    {
        "title": "张顺至死都不知，宋江派他去方腊送的劝降信，其实是一张无字白纸",
        "docid": "7337131577648923136",
        "url": ""
    },
    {
        "title": "无语！三姐给我女儿发了6.66元新年红包，这让女儿很尴尬非常难受",
        "docid": "7333910418861113856",
        "url": ""
    },
    {
        "title": "12本足以封神的经典网络小说",
        "docid": "7324200164205003264",
        "url": ""
    },
    {
        "title": "1989年，海灯法师87岁圆寂，为什么少林寺无人追悼？",
        "docid": "7310125838131823104",
        "url": ""
    },
    {
        "title": "美版《聊斋》，不仅尺度和惊悚齐飞，更是直击人性之丑",
        "docid": "7337630001979900466",
        "url": ""
    },
    {
        "title": "国外污蔑说：中国人生存就是为了活着和简单的精神空间！",
        "docid": "7310459500933480995",
        "url": ""
    },
    {
        "title": "人一旦开悟有多可怕？天涯神帖，揭秘“开悟”与金刚经，秘诀有三",
        "docid": "7324971865037406758",
        "url": ""
    },
    {
        "title": "“两头婚”在国内悄然出现，“两头婚”逐渐增多？你能接受吗？",
        "docid": "7337689543803798042",
        "url": ""
    },
    {
        "title": "心照",
        "docid": "7326282414672757257",
        "url": ""
    },
    {
        "title": "比“前程朤朤、生活䲜䲜”更值得反对的，是官话套话",
        "docid": "7335793529207341620",
        "url": ""
    },
    {
        "title": "韩国人要建地标建筑，设计公布后网友沸腾：这不是广州塔吗？",
        "docid": "7325261083726774834",
        "url": ""
    },
    {
        "title": "全网都在等的故宫美图，来了！",
        "docid": "7337954821145887295",
        "url": ""
    },
    {
        "title": "拒绝120万天价的奇石《庄周梦蝶》在质疑声中频频参展拿奖！",
        "docid": "7319863244007424550",
        "url": ""
    },
    {
        "title": "中国被拆掉的著名古建筑，每个都无比惋惜，复制的终究是赝品",
        "docid": "7337986778252771903",
        "url": ""
    },
    {
        "title": "他一辈子“打螺丝”，捡了5000个螺丝玩成艺术，网友：看完跪了！",
        "docid": "7307948104400552474",
        "url": ""
    },
    {
        "title": "蒋纬国写得一手好字！颜筋柳骨，行有风骨，如行云流水",
        "docid": "7337334552861442587",
        "url": ""
    },
    {
        "title": "莫言：只有自己高兴了，才是生活（有深度）",
        "docid": "7311917789512581632",
        "url": ""
    },
    {
        "title": "到老都要明白，发财之前，别舍不得丢“三样东西”",
        "docid": "7337654381573161481",
        "url": ""
    },
    {
        "title": "《送东阳马生序》这么火，为什么？因为他把世间的运转规律讲完了",
        "docid": "7337171771937014309",
        "url": ""
    },
    {
        "title": "当看到韩国的舞狮，中国人悬着的心算是放下了。网友：谁丑谁尴尬",
        "docid": "7336911957397635623",
        "url": ""
    },
    {
        "title": "少马爷马志明拜师时，全国只有2个人能收他，这辈分到底有多高",
        "docid": "7330203522182562345",
        "url": ""
    },
    {
        "title": "孔子：君子周而不比，小人比而不周，周和比，分别是什么意思？",
        "docid": "7324600867859563042",
        "url": ""
    },
    {
        "title": "“亲家”不是“亲戚”，把亲家当亲戚就错了，这关乎子女的幸福",
        "docid": "7306069424228958758",
        "url": ""
    },
    {
        "title": "一个人将走大运，一眼就能看出来",
        "docid": "7307640528249242146",
        "url": ""
    },
    {
        "title": "越久远越模糊——中国瓷与西洋瓷画",
        "docid": "7330979698094195250",
        "url": ""
    },
    {
        "title": "这些年份的“纸币”都已经升值了，你家里有收藏吗？",
        "docid": "7337637631301452322",
        "url": ""
    },
    {
        "title": "中国家庭亲戚关系图",
        "docid": "7307848157306552873",
        "url": ""
    },
    {
        "title": "董宇辉推荐至少读过3遍以上的书",
        "docid": "7313407429256331803",
        "url": ""
    },
    {
        "title": "语言的竞争：英语汉语哪个才是未来，看两者之间的对比就明白了",
        "docid": "7332805337294324264",
        "url": ""
    },
    {
        "title": "贾母的陪房到哪儿去了？他们一直在荣国府宅斗的格局中，从未远离",
        "docid": "7313140041889792575",
        "url": ""
    },
    {
        "title": "2002年，马季为何对孟凡贵说：我不到场，高英培的追悼会不许开始",
        "docid": "7325815325860332066",
        "url": ""
    },
    {
        "title": "买\"新中式服装\"得数扣子？有人吓得剪掉…这些都犯忌了？",
        "docid": "7330455778681176602",
        "url": ""
    },
    {
        "title": "《剑来》十大高手，道老大垫底白泽未入前五，礼圣只能排第三",
        "docid": "7316471732095861287",
        "url": ""
    },
    {
        "title": "钟楚曦深藏不露啊，这书法写的是真好呀！",
        "docid": "7337298339316646434",
        "url": ""
    },
    {
        "title": "《鬼吹灯》里帮助过胡八一的怪物，得任何一怪，可富甲天下",
        "docid": "7310458851592307210",
        "url": ""
    },
    {
        "title": "我国唯一不禁枪的地，成年就可持枪，政府从不干预，你知道在哪吗",
        "docid": "7264861060144873999",
        "url": ""
    },
    {
        "title": "最后成神的十大禁书，大家谨慎选择阅读！",
        "docid": "7311929674232300086",
        "url": ""
    },
    {
        "title": "王勃这篇绝笔，比《滕王阁序》牛，至今无人能解，因为读不懂",
        "docid": "7307830635018715648",
        "url": ""
    },
    {
        "title": "庄子笔下的顶级生死观",
        "docid": "7331744846807810598",
        "url": ""
    },
    {
        "title": "十大巅峰玄幻小说推荐，每一本都是封神之作",
        "docid": "7307567930378748457",
        "url": ""
    },
    {
        "title": "田英章老师硬笔行书欣赏",
        "docid": "7305019413332509199",
        "url": ""
    },
    {
        "title": "中国神话传说人物你知道的有哪些",
        "docid": "7338001264724574783",
        "url": ""
    },
    {
        "title": "唐僧念的紧箍咒，究竟是什么意思？翻译成中文，其实仅有六个字",
        "docid": "7305177725008904745",
        "url": ""
    },
    {
        "title": "民间故事：厨师买了条鱼，发现鱼会说话，身份让他大开眼界",
        "docid": "7337978128285221415",
        "url": ""
    },
    {
        "title": "中国有日吹印吹，外国人里有没有“中吹”？当然有，还不老少呢！",
        "docid": "7337636175068381735",
        "url": ""
    },
    {
        "title": "北京一夜，“欺师灭祖”的何云伟出尽风头，德云社该醒醒了",
        "docid": "7337936115200246326",
        "url": ""
    },
    {
        "title": "荣氏老宅，上海最顶级豪宅之一",
        "docid": "7337153861754585652",
        "url": ""
    },
    {
        "title": "98万买下一个打火机大小“像观音”的小石头，网友：不值！",
        "docid": "7336858019776692786",
        "url": ""
    },
    {
        "title": "智商情商双全的4大生肖：聪明机智，处事圆滑，人生顺遂！",
        "docid": "7316441133683589666",
        "url": ""
    },
    {
        "title": "十大公认的世界名著，人生至少要读一次",
        "docid": "7337915506131370534",
        "url": ""
    },
    {
        "title": "猴票，一代经典之作，如今价值如何",
        "docid": "7313035170196636200",
        "url": ""
    },
    {
        "title": "每个人的爱好都是千奇百怪，最后一个你肯定没见过！",
        "docid": "7337472384431129099",
        "url": ""
    },
    {
        "title": "民国时期的毕业证书，字写得很漂亮，款式十分精美",
        "docid": "7313591971817062952",
        "url": ""
    },
    {
        "title": "文字太浅，情缘太深，写不尽这风霜一年，挥手道别",
        "docid": "7322217219801219624",
        "url": ""
    },
    {
        "title": "日本人常说的“八嘎呀路”翻译成中文到底什么意思？其实是两个词",
        "docid": "7307199413682864652",
        "url": ""
    },
    {
        "title": "山东方言。山东有个地方，外婆不叫外婆，叫姥娘。舅妈不叫舅妈",
        "docid": "7310591776048562707",
        "url": ""
    },
    {
        "title": "我妈来住了几天后，我终于知道我姐家为啥越过越顺，越过越火红了",
        "docid": "7337973436293399066",
        "url": ""
    },
    {
        "title": "“达赖”与“班禅”究竟是什么关系？二者谁的地位更高？",
        "docid": "7306527944803893760",
        "url": ""
    },
    {
        "title": "鲁迅先生的天花板情话",
        "docid": "7337831593421423115",
        "url": ""
    },
    {
        "title": "孙晓云的字怎样",
        "docid": "7326026308440752681",
        "url": ""
    },
    {
        "title": "谮：不念zān，那正确读音是？",
        "docid": "7325390986077553179",
        "url": ""
    },
    {
        "title": "唐僧是金蝉子转世，金蝉又是谁？曾让三界闻风丧胆，被接引佛降伏",
        "docid": "7337938207905972799",
        "url": ""
    },
    {
        "title": "一读就错的10个山西地名！我猜第一个你就不会！",
        "docid": "7311888642836955658",
        "url": ""
    },
    {
        "title": "属鸡人和这4个属相结婚，堪称“龙凤呈祥”，美满良缘，家道昌盛",
        "docid": "7335792419579544101",
        "url": ""
    },
    {
        "title": "中国式审美，男人最美体型什么样？",
        "docid": "7312625028636672521",
        "url": ""
    },
    {
        "title": "无论你是做什么的，都应该好好读读《百年孤独》",
        "docid": "7307545350951305738",
        "url": ""
    },
    {
        "title": "一定要懂的厚黑学",
        "docid": "7337278468704961063",
        "url": ""
    },
    {
        "title": "老人言：“三人常来串，家败人丁散”，这3种人少让他们来家里！",
        "docid": "7306872139116724745",
        "url": ""
    },
    {
        "title": "王羲之神来之笔，仅42字，放大后终于知道，什么叫如锥画沙！",
        "docid": "7337435796062126628",
        "url": ""
    },
    {
        "title": "生肖龙最匹配的三大生肖，强强联手、所向无敌！",
        "docid": "7315670366490329654",
        "url": ""
    },
    {
        "title": "一“马”当先！哪个年份出生的马人最有福，生活幸福，子孙满堂？",
        "docid": "7319791110283379254",
        "url": ""
    },
    {
        "title": "与死神抗争60年，5次调整生命预期，直到遇见你——金刚功！",
        "docid": "7335315024115712547",
        "url": ""
    },
    {
        "title": "人到中年，最顶级的智慧：不搭理",
        "docid": "7324853697568129563",
        "url": ""
    },
    {
        "title": "夜读｜向外看，向内求，向前走",
        "docid": "7336947351443063335",
        "url": ""
    },
    {
        "title": "《红楼梦》金陵十二钗中有四位凤凰，她们都是谁？",
        "docid": "7321208450883600906",
        "url": ""
    },
    {
        "title": "我们的道德标准降低了吗？没有人承认，看看晋南古民居大门吧！",
        "docid": "7307974984142471730",
        "url": ""
    },
    {
        "title": "女子再婚，前夫送来一副对联，上联：错把相思当作酒，下联太感人",
        "docid": "7307923905283523122",
        "url": ""
    },
    {
        "title": "中国县城现状，入骨三分般深刻",
        "docid": "7337944748487164454",
        "url": ""
    },
    {
        "title": "梁羽生《江湖三女侠》战力排行，吕四娘第五，独臂神尼屈居第二",
        "docid": "7308604338224562751",
        "url": ""
    },
    {
        "title": "正月十三“毒日”，阎王也害怕，牢记“4不做，2要吃”，家人平安",
        "docid": "7337998833185636879",
        "url": ""
    },
    {
        "title": "莫言说：日子能将就就将就，换个人过也不一定过的更好可能更差！",
        "docid": "7337494234385662479",
        "url": ""
    },
    {
        "title": "红楼梦：贾家最大靠山并非贾元春而是她，她死后贾家一蹶不振",
        "docid": "7321376603009729060",
        "url": ""
    },
    {
        "title": "上联在左还是右，贴春联还傻傻分不清？看横批",
        "docid": "7332652616625078796",
        "url": ""
    },
    {
        "title": "生肖龙晚年依靠的4个生肖，晚年不可缺少的是谁",
        "docid": "7308416881445093951",
        "url": ""
    },
    {
        "title": "爸妈有哪些迷信说法，其实是有科学依据的？",
        "docid": "7337928444472295986",
        "url": ""
    },
    {
        "title": "成语典故的历史人物",
        "docid": "7330043830705603084",
        "url": ""
    },
    {
        "title": "眼见着雌激素哗哗流走，我慌了",
        "docid": "7307816009598059071",
        "url": ""
    },
    {
        "title": "87版《红楼梦》里，他们一人分饰两角，你都能认出来吗？",
        "docid": "7322401171560415796",
        "url": ""
    },
    {
        "title": "番茄小说里评分最高的十本小说，哪一本是你的心头爱？（上）",
        "docid": "7323908705899217446",
        "url": ""
    },
    {
        "title": "《知否》：沈国舅独宠小邹氏好久，她为什么迟迟没怀孕？真相扎心",
        "docid": "7305767361008075275",
        "url": ""
    },
    {
        "title": "故事：五岁儿子得怪病，母亲梦见一条蛇，蛇：把家里那只花碗埋了",
        "docid": "7338002782340776460",
        "url": ""
    },
    {
        "title": "做人家、谁古宁、后事体都是啥意思？杭州有24根电线杆出圈了",
        "docid": "7338001638537888310",
        "url": ""
    },
    {
        "title": "生日是这3个月份的人一辈子福泽深厚，无病无灾，顺顺利利把钱赚",
        "docid": "7304903707396260364",
        "url": ""
    },
    {
        "title": "化身龙神，震撼全国观众！汨罗高跷王子参演杨丽萍《龙舞》亮相河南春晚",
        "docid": "7337151259793113638",
        "url": ""
    }
]