[
    {
        "title": "“随申码”添新使用渠道！市民公交出行可享“2小时内换乘”立减1元优惠",
        "docid": "7310406482674532914",
        "url": ""
    },
    {
        "title": "开心拿下3D了",
        "docid": "7311719359209341479",
        "url": "https://www.ixigua.com/7311719359209341479"
    },
    {
        "title": "你的善良，必须带点锋芒，否则等于零",
        "docid": "7311716437574451749",
        "url": "https://www.ixigua.com/7311716437574451749"
    },
    {
        "title": "老天给他可以称霸的武力，却没给他这智商！坑爹坑自己的第一猛将",
        "docid": "7120130408997454366",
        "url": "https://www.ixigua.com/7120130408997454366"
    },
    {
        "title": "一拳超人：完全体饿狼一拳把琦玉轰出地球！最强英雄爆破赶来救场",
        "docid": "7088638465889272327",
        "url": "https://www.ixigua.com/7088638465889272327"
    },
    {
        "title": "从1写到600就能获得奖品，实测交了200智商税",
        "docid": "7065248336428663310",
        "url": "https://www.ixigua.com/7065248336428663310"
    },
    {
        "title": "电视剧《安家》小品版，卖房子夸的人都飘了！",
        "docid": "6803982663167246860",
        "url": "https://www.ixigua.com/6803982663167246860"
    },
    {
        "title": "你可能不如一只鸡！鸡头的防抖能力稳如狗，鸡头为什么会这么稳？",
        "docid": "7062961301110292999",
        "url": "https://www.ixigua.com/7062961301110292999"
    },
    {
        "title": "新一代国产超算系统“天河星逸”首次发布",
        "docid": "7310398733819331091",
        "url": ""
    },
    {
        "title": "..........",
        "docid": "7311729573169725964",
        "url": "https://www.ixigua.com/7311729573169725964"
    },
    {
        "title": "周海媚参加央视《越战越勇》节目精彩片段回顾 #演员周海媚去世",
        "docid": "7311713808722952715",
        "url": "https://www.ixigua.com/7311713808722952715"
    },
    {
        "title": "一场毁灭国家的大仇，日本黑帮用美金伪钞报复美国，真实改编电影",
        "docid": "7016998010458636807",
        "url": "https://www.ixigua.com/7016998010458636807"
    },
    {
        "title": "神局 全是套路 以象为尔调虎离山 再弃车五子联攻 叹为观止",
        "docid": "7090690180092264963",
        "url": "https://www.ixigua.com/7090690180092264963"
    },
    {
        "title": "真贴心！哈马斯差点错过目标，以军装甲车心有灵犀，停下来等你打",
        "docid": "7311514363645559330",
        "url": "https://www.ixigua.com/7311514363645559330"
    },
    {
        "title": "莫兰特想拔枪！东契奇疯狂嘲讽灰熊球迷，百变表情令人拍案叫绝",
        "docid": "7311554884645028364",
        "url": "https://www.ixigua.com/7311554884645028364"
    },
    {
        "title": "警局全员恶人，复仇女警展开血洗行动，枪枪毙命一个不留！动作片",
        "docid": "7052644926630134285",
        "url": "https://www.ixigua.com/7052644926630134285"
    },
    {
        "title": "国足0-3韩国纪录短片|输不可怕，有一天能赢！",
        "docid": "7304626362180960783",
        "url": "https://www.ixigua.com/7304626362180960783"
    },
    {
        "title": "为什么美国每年都有科幻大片，中国只有搁浅的三体？",
        "docid": "6309333510902432001",
        "url": "https://www.ixigua.com/6309333510902432001"
    },
    {
        "title": "印度年度票房冠军！让你看得热血沸腾的抗英神剧《双雄起义RRR》",
        "docid": "7102027310882259487",
        "url": "https://www.ixigua.com/7102027310882259487"
    },
    {
        "title": "“氢弹只有中国有”是真的吗？难道美俄的氢弹都被销毁了？",
        "docid": "7019998777239044645",
        "url": "https://www.ixigua.com/7019998777239044645"
    },
    {
        "title": "相声有新人：高峰满嘴跑火车改编《探清水河》，竟找张云雷伴奏",
        "docid": "6611772855677878787",
        "url": "https://www.ixigua.com/6611772855677878787"
    },
    {
        "title": "法国皇帝拿破仑",
        "docid": "6733943385863766536",
        "url": "https://www.ixigua.com/6733943385863766536"
    },
    {
        "title": "高燃！盘点复仇者联盟中震撼人心的4大救场瞬间，英雄们悉数归来",
        "docid": "6818551558704202251",
        "url": "https://www.ixigua.com/6818551558704202251"
    },
    {
        "title": "我们处于什么样的时代?",
        "docid": "7073281010669978147",
        "url": "https://www.ixigua.com/7073281010669978147"
    },
    {
        "title": "神武4手游公 益 服 无限元宝版",
        "docid": "7311746817547305498",
        "url": "https://www.ixigua.com/7311746817547305498"
    },
    {
        "title": "美丽岛电子报最新滚动民调：侯柯均稳定抬升，赖清德继续下跌",
        "docid": "7311576726227272230",
        "url": ""
    },
    {
        "title": "金马奖最佳动作片！咏春大师为教功夫，美艳老婆被抓，徒弟被杀！",
        "docid": "7008835325715808806",
        "url": "https://www.ixigua.com/7008835325715808806"
    },
    {
        "title": "聆听民众心声，心系居民解忧，这位蔡甸新警把警务工作做到群众的心坎里",
        "docid": "7311213673979150863",
        "url": ""
    },
    {
        "title": "爆笑小品：贾冰真是喜剧天才  和韩雪上演爱在路上",
        "docid": "6796103201880801799",
        "url": "https://www.ixigua.com/6796103201880801799"
    },
    {
        "title": "中国镖局简史：从古代镖行到现代押运，保镖这行如何行走江湖？",
        "docid": "7124570101487141413",
        "url": "https://www.ixigua.com/7124570101487141413"
    },
    {
        "title": "朱棣有多霸气？把太子一手扶上御椅，谁再乱说话给朕砍了！",
        "docid": "6997301940061209101",
        "url": "https://www.ixigua.com/6997301940061209101"
    },
    {
        "title": "猪王真的召唤过“阴兵”？故宫宫女的真相，唐山“阴兵”事件始末",
        "docid": "7063777192643297822",
        "url": "https://www.ixigua.com/7063777192643297822"
    },
    {
        "title": "日耳曼战车vs青黄不接的水果牙！德国3-2险胜葡萄牙闯进欧洲杯4强",
        "docid": "7300159766893036067",
        "url": ""
    },
    {
        "title": "申城落叶不扫景观道观赏指南",
        "docid": "7310228635913634338",
        "url": ""
    },
    {
        "title": "日月谭天丨“妙手回冬”！民进党才是台湾最大的问题",
        "docid": "7309746892362170943",
        "url": ""
    },
    {
        "title": "钟无艳如何对线孙策，一锤下去孙策傻眼了！",
        "docid": "7028988919907615262",
        "url": "https://www.ixigua.com/7028988919907615262"
    },
    {
        "title": "第17回：郭嘉献计，吕布刘备被坑惨，曹操不费一兵夺回徐州",
        "docid": "6838886141718954500",
        "url": "https://www.ixigua.com/6838886141718954500"
    },
    {
        "title": "#周海媚曾自曝有两年说不好话 演员周海媚去世",
        "docid": "7311725768776614438",
        "url": "https://www.ixigua.com/7311725768776614438"
    },
    {
        "title": "以色列计划水淹加沙地道，驱赶哈马斯！此计划使拜登政府陷入困境",
        "docid": "7309698807984456233",
        "url": "https://www.ixigua.com/7309698807984456233"
    },
    {
        "title": "史上最秀干将！三角圆切，盲杀满血守约",
        "docid": "7037426831045165576",
        "url": "https://www.ixigua.com/7037426831045165576"
    },
    {
        "title": "喜剧班的春天：炫富界的扛把子，许君聪直接送拳头大的钻戒！",
        "docid": "6799475829635023373",
        "url": "https://www.ixigua.com/6799475829635023373"
    },
    {
        "title": "以色列迎来噩耗，核基地被哈马斯火箭弹打冒烟，还有啥制胜法宝",
        "docid": "7311597291784602146",
        "url": "https://www.ixigua.com/7311597291784602146"
    },
    {
        "title": "能让狄仁杰封神的出装，三打五也能拿3杀，打到对手直接投降",
        "docid": "7085661285190369807",
        "url": "https://www.ixigua.com/7085661285190369807"
    },
    {
        "title": "交锋失利后，菲司令登上破船，不到24小时，中方连喊2个“停止”",
        "docid": "7311705297108763172",
        "url": "https://www.ixigua.com/7311705297108763172"
    },
    {
        "title": "小品：乔杉嘚嘚瑟瑟当大款，你给我捶腿我都不搭理你！立马被打脸",
        "docid": "6818791352495505923",
        "url": "https://www.ixigua.com/6818791352495505923"
    },
    {
        "title": "他独闯精神病院，揭露黑暗现实！一篇论文，美国精神病人减少50%",
        "docid": "6996273966566343199",
        "url": "https://www.ixigua.com/6996273966566343199"
    },
    {
        "title": "著名演员周海媚因病去世，年仅57岁，生前最后公开出席活动照曝光",
        "docid": "7311716204245484086",
        "url": "https://www.ixigua.com/7311716204245484086"
    },
    {
        "title": "花几个亿开高尔夫球场的人，到底赚钱吗",
        "docid": "7007297111955866124",
        "url": "https://www.ixigua.com/7007297111955866124"
    },
    {
        "title": "如何活到108岁？饮食、收入、还是心态……",
        "docid": "7311527426994094626",
        "url": ""
    },
    {
        "title": "🎥一个视频看超级新星文班亚马“离谱”的身体天赋😲",
        "docid": "7292704919126508041",
        "url": "https://www.ixigua.com/7292704919126508041"
    },
    {
        "title": "戴夫大战僵尸  强大的橄榄球僵尸被我喷飞了头",
        "docid": "7311757959233536538",
        "url": "https://www.ixigua.com/7311757959233536538"
    },
    {
        "title": "郭德纲于谦相声“笑傲江湖”笑的全场观众肚子疼！",
        "docid": "6799203422055694848",
        "url": "https://www.ixigua.com/6799203422055694848"
    },
    {
        "title": "一觉醒来，以部长一番话轰动舆论！战争结束后，将无期限统治加沙",
        "docid": "7298935689973301760",
        "url": "https://www.ixigua.com/7298935689973301760"
    },
    {
        "title": "被世人误解的三国曹魏第一大将！败仗累累，凭啥当曹操众臣之首？",
        "docid": "7020325032060518925",
        "url": "https://www.ixigua.com/7020325032060518925"
    },
    {
        "title": "杜兰特中文纪录片：从人人敬畏的死神，到四处奔波的最强雇佣兵！",
        "docid": "7117188968805827102",
        "url": "https://www.ixigua.com/7117188968805827102"
    },
    {
        "title": "早期相声：郭德纲于谦还是选手过来的",
        "docid": "6805383796565737998",
        "url": "https://www.ixigua.com/6805383796565737998"
    },
    {
        "title": "上海-开罗 国内航司首次开通直飞北非定期客运航线",
        "docid": "7311517187263676962",
        "url": ""
    },
    {
        "title": "奇葩小哥当着韩红和李玟的面说自己是世界最高音，一开口评委懵了",
        "docid": "6355911668669923585",
        "url": "https://www.ixigua.com/6355911668669923585"
    },
    {
        "title": "圈内人曝周海媚去世细节，昨日不慎割伤脚，生前动态手上伤痕累累",
        "docid": "7311712506299286066",
        "url": "https://www.ixigua.com/7311712506299286066"
    },
    {
        "title": "燃炸了！走路带风的BGM，难得一见的现场，听得热血沸腾！",
        "docid": "6593648857937084932",
        "url": "https://www.ixigua.com/6593648857937084932"
    },
    {
        "title": "大将军拥兵自傲，不把皇帝看在眼里，一夜连降十八级，老电影",
        "docid": "7089390261133902349",
        "url": "https://www.ixigua.com/7089390261133902349"
    },
    {
        "title": "啥样的高音才厉害？他连升6key话筒都爆了，话筒：我当时害怕极了",
        "docid": "6817037295229600259",
        "url": "https://www.ixigua.com/6817037295229600259"
    },
    {
        "title": "岳云鹏说成语离不开“士可杀不可辱”，几个字的都有它，笑翻了",
        "docid": "6733049214873371150",
        "url": "https://www.ixigua.com/6733049214873371150"
    },
    {
        "title": "周杰伦现场表演，灵感突来，立刻编曲，全场动容！这是怎样的才华",
        "docid": "6724833703870071310",
        "url": "https://www.ixigua.com/6724833703870071310"
    },
    {
        "title": "自称能搞定全上海名校 24位家长被骗上千万",
        "docid": "7311357546093167158",
        "url": ""
    },
    {
        "title": "梦开始的地方🌟20年前的今天，小小罗打入曼联处子球",
        "docid": "7296447781634441780",
        "url": ""
    },
    {
        "title": "早有预感？周海媚离世前3天，忽然反常的发了一条这样的内容",
        "docid": "7311731382982541887",
        "url": "https://www.ixigua.com/7311731382982541887"
    },
    {
        "title": "怀念逝去的青春，周海媚献唱经典金曲《一生何求》永远最美周芷若",
        "docid": "7311631940874928694",
        "url": "https://www.ixigua.com/7311631940874928694"
    },
    {
        "title": "周海媚仍旧在医院抢救，目前处于昏迷中,田启文已通知其家人",
        "docid": "7311578468095885863",
        "url": "https://www.ixigua.com/7311578468095885863"
    },
    {
        "title": "起猛了看见地里长出大熊猫 网友：这个品种去哪里可以摘到？",
        "docid": "7307934775262609920",
        "url": ""
    },
    {
        "title": "网曝周海媚病逝！知情人接连爆料回应：助理报的警，去医院僵硬了",
        "docid": "7311317687140155941",
        "url": "https://www.ixigua.com/7311317687140155941"
    },
    {
        "title": "巴以事件会扩大、甚至波及整个世界！",
        "docid": "7292619821173506595",
        "url": "https://www.ixigua.com/7292619821173506595"
    },
    {
        "title": "奥司他韦为何集采“九毛九”一粒线上售价却翻了十几倍？",
        "docid": "7311517191093060137",
        "url": ""
    },
    {
        "title": "英雄・瞬间丨平凡的人给我们最多感动",
        "docid": "7305962362983711232",
        "url": ""
    },
    {
        "title": "国服第一老夫子赖神VS国服第一马超予神！谁能赢下这把单挑？！",
        "docid": "7051887024600515075",
        "url": "https://www.ixigua.com/7051887024600515075"
    },
    {
        "title": "沈龙脱口秀：活的最久的皇帝不是玉皇大帝？他的回答能气死老师！",
        "docid": "6816535994976698884",
        "url": "https://www.ixigua.com/6816535994976698884"
    },
    {
        "title": "新旧《亮剑》王有胜守仓库，新版无精打采，旧版荣光满面",
        "docid": "6810664885895037454",
        "url": "https://www.ixigua.com/6810664885895037454"
    },
    {
        "title": "NBA历史垃圾话之王：拉里伯德，话术有多牛，曾有人被喷到想自杀",
        "docid": "7074443631205024256",
        "url": "https://www.ixigua.com/7074443631205024256"
    },
    {
        "title": "17岁3局打爆faker4次，轻松拿下世界冠军！",
        "docid": "6998780492224922120",
        "url": "https://www.ixigua.com/6998780492224922120"
    },
    {
        "title": "2名以色列店员发现哈马斯武装人员后 机智藏冰箱里躲过灾难#新闻",
        "docid": "7311282504286077491",
        "url": "https://www.ixigua.com/7311282504286077491"
    },
    {
        "title": "美团买药居家快检在上海开通 3小时内可收到检测结果",
        "docid": "7311514557065871899",
        "url": ""
    },
    {
        "title": "夺命同学录",
        "docid": "7311810369213694475",
        "url": "https://www.ixigua.com/7311810369213694475"
    },
    {
        "title": "轮到中东武装收拾以色列，炮弹突然砸向第三国，以军罕见道歉了",
        "docid": "7310486077637296655",
        "url": "https://www.ixigua.com/7310486077637296655"
    },
    {
        "title": "小伙藏在机器人队伍中，不料还是被机器人老大发现了！印度电影",
        "docid": "7301961260000608808",
        "url": "https://www.ixigua.com/7301961260000608808"
    },
    {
        "title": "美菲 澳菲都搞南海巡航，下一步菲将拉谁下水？南海问题复杂化",
        "docid": "7309825985954710031",
        "url": "https://www.ixigua.com/7309825985954710031"
    },
    {
        "title": "巴以问题迫在眉睫，联合国紧急复会，朝方提议：先把美赶出联合国",
        "docid": "7311638481976394280",
        "url": "https://www.ixigua.com/7311638481976394280"
    },
    {
        "title": "巴以冲突第一视角：以色列再挑战火，哈马斯巷战对决，遍地开花",
        "docid": "7310421823685034531",
        "url": "https://www.ixigua.com/7310421823685034531"
    },
    {
        "title": "一口气看完《我的兄弟叫顺溜》，王宝强化身神枪手，热血抗日！",
        "docid": "7310526176714293797",
        "url": "https://www.ixigua.com/7310526176714293797"
    },
    {
        "title": "【时光机】至今已十年！回顾2013年友谊赛国足主场1-5不敌泰国",
        "docid": "7302013759944589851",
        "url": ""
    },
    {
        "title": "以军地面殊死战！",
        "docid": "7300815329801404937",
        "url": "https://www.ixigua.com/7300815329801404937"
    },
    {
        "title": "女人为了掩护队友撤退，结果却丢了性命。#好剧推荐 #影视解说",
        "docid": "7292713757996745256",
        "url": "https://www.ixigua.com/7292713757996745256"
    },
    {
        "title": "#周海媚曾说不是公主性格 演员周海媚去世",
        "docid": "7311723542432154146",
        "url": "https://www.ixigua.com/7311723542432154146"
    },
    {
        "title": "巴以战火再升级！以军动用钻地导弹，哈马斯大批火箭弹砸向以色列",
        "docid": "7309351734726525503",
        "url": "https://www.ixigua.com/7309351734726525503"
    },
    {
        "title": "哈马斯发动袭击的武器到底是如何运送进来的使用了哪些方法。",
        "docid": "7290218056314585652",
        "url": "https://www.ixigua.com/7290218056314585652"
    },
    {
        "title": "国民党军队物资竟被土匪接走，新一团团长分分钟夺回物资",
        "docid": "7295677232033628723",
        "url": "https://www.ixigua.com/7295677232033628723"
    },
    {
        "title": "#巴以冲突 哈马斯的领导人叶海亚.辛瓦尔",
        "docid": "7311339986640044595",
        "url": "https://www.ixigua.com/7311339986640044595"
    },
    {
        "title": "李亚鹏是如何成为娱乐圈第一蛊王的？",
        "docid": "7081075827537871397",
        "url": "https://www.ixigua.com/7081075827537871397"
    },
    {
        "title": "《热血街区3：终极任务》最后一战，黑社会被不良少年彻底击垮！",
        "docid": "6871886016366510604",
        "url": "https://www.ixigua.com/6871886016366510604"
    },
    {
        "title": "【辅助兰陵王】把对面野区当自己家，猴子整把没拿过蓝buff",
        "docid": "7018130500120379912",
        "url": "https://www.ixigua.com/7018130500120379912"
    },
    {
        "title": "越狱、枪战，墨西哥毒枭，到底有多嚣张？现实比电影更夸张！",
        "docid": "7104948285365813773",
        "url": "https://www.ixigua.com/7104948285365813773"
    },
    {
        "title": "巴以冲突：它发生在巴以，震感的却是国人！它给中国五大启示！",
        "docid": "7304962461072327178",
        "url": "https://www.ixigua.com/7304962461072327178"
    },
    {
        "title": "电影：人类往江里倒入有害物，导致江里的鱼跑到陆地，变成了怪物",
        "docid": "6911754289232740876",
        "url": "https://www.ixigua.com/6911754289232740876"
    },
    {
        "title": "女子状告城管扣物资，一审判决城管违法，本人：三轮车的损失呢",
        "docid": "7310888370178425359",
        "url": "https://www.ixigua.com/7310888370178425359"
    },
    {
        "title": "恶毒政妇希拉里：美国政坛最可怕的女人，手握死亡名单无人敢惹！",
        "docid": "7078955394252407304",
        "url": "https://www.ixigua.com/7078955394252407304"
    },
    {
        "title": "绯红女巫多强？一句话几乎抹除所有变种人，改写现实单挑凤凰之力",
        "docid": "7084923262982947341",
        "url": "https://www.ixigua.com/7084923262982947341"
    },
    {
        "title": "【科技大佬】青年雷军，也曾惨遭社会毒打",
        "docid": "6999519515126006283",
        "url": "https://www.ixigua.com/6999519515126006283"
    },
    {
        "title": "大家觉得父母生孩子需要经过你的同意",
        "docid": "7295979425106297407",
        "url": "https://www.ixigua.com/7295979425106297407"
    },
    {
        "title": "台湾街头随机采访民众，你喜欢大陆吗？回答让人目瞪口呆",
        "docid": "7291031432149860904",
        "url": "https://www.ixigua.com/7291031432149860904"
    },
    {
        "title": "盘点：李连杰五大经典打斗名场面，热血沸腾真功夫",
        "docid": "6789134160582672900",
        "url": "https://www.ixigua.com/6789134160582672900"
    },
    {
        "title": "印度“秘制”铝离子电池：永不起火，充电12分钟续航1200公里？",
        "docid": "7040348637222273543",
        "url": "https://www.ixigua.com/7040348637222273543"
    },
    {
        "title": "陕西商洛一醉酒交警在足浴店殴打残疾服务员，一审获刑两年六个月",
        "docid": "7311197307910029839",
        "url": "https://www.ixigua.com/7311197307910029839"
    },
    {
        "title": "李佳琦团队招聘一年以上经验舆情公关？是常规操作还是应急之举？",
        "docid": "7294527969111114294",
        "url": "https://www.ixigua.com/7294527969111114294"
    },
    {
        "title": "因为玩一款网游结果变成了间谍？《特工任务》太刺激了！",
        "docid": "7283471758697759244",
        "url": "https://www.ixigua.com/7283471758697759244"
    },
    {
        "title": "文森特德莱文：90杀暴躁来袭，一个能打的都没有",
        "docid": "6346070772808941826",
        "url": "https://www.ixigua.com/6346070772808941826"
    },
    {
        "title": "喜剧班的春天：要被这三儿子逗死了，竟在背后八卦皇上！",
        "docid": "6742415267973825027",
        "url": "https://www.ixigua.com/6742415267973825027"
    },
    {
        "title": "从“周芷若”到“灭绝师太”，重温周海媚的一生！一路走好！",
        "docid": "7311709361070572095",
        "url": "https://www.ixigua.com/7311709361070572095"
    },
    {
        "title": "盘点NBA球员中的黑帮社会大佬，瓜哥仅排第二，榜首无人敢惹",
        "docid": "7042698148309008904",
        "url": "https://www.ixigua.com/7042698148309008904"
    },
    {
        "title": "彩民中大奖，摊牌了，过程是这样的！#江西一彩民中2亿巨奖",
        "docid": "7310144438171337251",
        "url": "https://www.ixigua.com/7310144438171337251"
    },
    {
        "title": "喜剧班的春天：被这俩阿哥逗死了！拿皇上驾崩做赌注，亲儿子啊！",
        "docid": "6748678669163561486",
        "url": "https://www.ixigua.com/6748678669163561486"
    },
    {
        "title": "盘点朱茵谈与周星驰的恋情，提起星爷满脸幸福，如今已回不到过去",
        "docid": "6808091970850783756",
        "url": "https://www.ixigua.com/6808091970850783756"
    },
    {
        "title": "1998年天津立飞和万科两队合并！组建天津泰达足球俱乐部！",
        "docid": "7301846707216581120",
        "url": "https://www.ixigua.com/7301846707216581120"
    },
    {
        "title": "33亿的《我的纸飞机》，“抄袭”了王力宏？网友：唱着唱着就串了",
        "docid": "7311249225730228748",
        "url": "https://www.ixigua.com/7311249225730228748"
    },
    {
        "title": "周海媚因病去世！57岁香消玉殒，不结婚生子的背后原因？",
        "docid": "7311840378242793999",
        "url": "https://www.ixigua.com/7311840378242793999"
    },
    {
        "title": "什么叫顶级情商？汪涵当众给郭德纲出难题，他如何轻松化解？",
        "docid": "7309788874991993355",
        "url": "https://www.ixigua.com/7309788874991993355"
    },
    {
        "title": "美国街球皇帝：行走的过人百科全书，自创百种过人招数称霸球场！",
        "docid": "7082282681677021704",
        "url": "https://www.ixigua.com/7082282681677021704"
    },
    {
        "title": "中文填词的参差有多大？有的被全网喷，有的一开口却能惊艳全场",
        "docid": "7309744621318472229",
        "url": "https://www.ixigua.com/7309744621318472229"
    },
    {
        "title": "深度解析｜为何比亚迪停产燃油车，全球首家底气何在？",
        "docid": "7090797440109904421",
        "url": "https://www.ixigua.com/7090797440109904421"
    },
    {
        "title": "TVB史无前例的宴会，金像奖为其改期，700位大佬齐聚曾志伟寿宴",
        "docid": "7305320256296354319",
        "url": "https://www.ixigua.com/7305320256296354319"
    },
    {
        "title": "滕氏贾府代表作💥阿贾克斯客场4-1掀翻卫冕冠军皇马",
        "docid": "7310548172932645403",
        "url": ""
    },
    {
        "title": "“霸气”巩俐：戛纳为她清场，狂甩章子怡7巴掌，拒绝颁奖获称赞",
        "docid": "7089237271261479455",
        "url": "https://www.ixigua.com/7089237271261479455"
    },
    {
        "title": "这个男人被驯养成了一条狼犬，16连胜黑拳冠军在他手下过不了三拳",
        "docid": "6879036657102750222",
        "url": "https://www.ixigua.com/6879036657102750222"
    },
    {
        "title": "大的要来了!今年最强寒潮将大举南下,北方多省区出现雪灾风险",
        "docid": "7311726402297528866",
        "url": "https://www.ixigua.com/7311726402297528866"
    },
    {
        "title": "神奇四美联手“砍树”，为民除害智斗“昏君”，观众笑得合不拢嘴",
        "docid": "6742302683031405067",
        "url": "https://www.ixigua.com/6742302683031405067"
    },
    {
        "title": "综艺爆笑名场面，沈腾不愧是搞笑大佬，皇后娘娘都笑疯了！！！",
        "docid": "6819500620907545099",
        "url": "https://www.ixigua.com/6819500620907545099"
    },
    {
        "title": "人类大军进军森林国度，当怪物一出场时，他们败的一塌糊涂",
        "docid": "6602779126317187591",
        "url": "https://www.ixigua.com/6602779126317187591"
    },
    {
        "title": "“九子夺嫡”失败的皇子，下场都有多惨？雍正登基的赢家另有其人",
        "docid": "7026688518353060383",
        "url": "https://www.ixigua.com/7026688518353060383"
    },
    {
        "title": "拉丁舞师老李的一等功冲锋手记忆",
        "docid": "7310633125208834598",
        "url": ""
    },
    {
        "title": "《终末的女武神》孙悟空对战雷神索尔，挑战一口气看完23分钟",
        "docid": "7055643805512368652",
        "url": "https://www.ixigua.com/7055643805512368652"
    },
    {
        "title": "老虎嘴巴被大骨头卡住，饲养员用铁锤霸气地将它敲下！动物救助",
        "docid": "7303484885539226164",
        "url": "https://www.ixigua.com/7303484885539226164"
    },
    {
        "title": "国一元歌枷锁对线打得过国一猪八戒猪猪侠吗？",
        "docid": "7012208245511193121",
        "url": "https://www.ixigua.com/7012208245511193121"
    },
    {
        "title": "奇幻片：男主被死神追杀，怎么都死不了，发现自己身份后反杀死神",
        "docid": "6862620484018635268",
        "url": "https://www.ixigua.com/6862620484018635268"
    },
    {
        "title": "喝遍天下无敌手！莱布拉酒量天花板阿珍，大破黑帮阴谋！",
        "docid": "7071786682940391949",
        "url": "https://www.ixigua.com/7071786682940391949"
    },
    {
        "title": "老天爷喂“饭”吃？男子花600买本刮刮乐，第3张直接刮出100万！",
        "docid": "7310123948065161778",
        "url": "https://www.ixigua.com/7310123948065161778"
    },
    {
        "title": "荣耀50星晋级赛：国服吕布一己之力团灭五人，打出30%输出，无敌",
        "docid": "7076500296381235744",
        "url": "https://www.ixigua.com/7076500296381235744"
    },
    {
        "title": "蜜小涛诸葛亮2300分巅峰赛逆天五杀！",
        "docid": "7032608771817865761",
        "url": "https://www.ixigua.com/7032608771817865761"
    },
    {
        "title": "学生被老师暴打，没想到他是黑道太子，吓的立马怂了",
        "docid": "7115698641079108111",
        "url": "https://www.ixigua.com/7115698641079108111"
    },
    {
        "title": "香港著名演员周海媚因病离世,享年57岁",
        "docid": "7311727129530466828",
        "url": "https://www.ixigua.com/7311727129530466828"
    },
    {
        "title": "收一辆只开了3万公里能亏30万的宝马",
        "docid": "7301448818258608676",
        "url": "https://www.ixigua.com/7301448818258608676"
    },
    {
        "title": "不说话专心操作的刘伟你见过吗？中路兵线该吃就得吃！",
        "docid": "7082627862758425125",
        "url": "https://www.ixigua.com/7082627862758425125"
    },
    {
        "title": "37回：诸葛亮首战火烧博望坡，收服关羽张飞，被刘备设计困于高阁",
        "docid": "6901572762578453004",
        "url": "https://www.ixigua.com/6901572762578453004"
    },
    {
        "title": "36公斤的24岁越南女孩操纵着重达几十吨的中国重汽卡车！",
        "docid": "7290535150599963136",
        "url": "https://www.ixigua.com/7290535150599963136"
    },
    {
        "title": "罗老师都不知道的 法 律 知识，大家听说过吗？#罗翔#社会百态",
        "docid": "7299795374720582184",
        "url": "https://www.ixigua.com/7299795374720582184"
    },
    {
        "title": "谢娜名字里带“娜”字的都是美女，沈腾说出几个名字后全场笑喷",
        "docid": "6749095284648706571",
        "url": "https://www.ixigua.com/6749095284648706571"
    },
    {
        "title": "“肌肉流”甄姬：100%飞天减速的甄姬有多恶心，凯爹刀都砍弯了",
        "docid": "7006597693485089316",
        "url": "https://www.ixigua.com/7006597693485089316"
    },
    {
        "title": "香港第一代悍匪之吴建东，从黑帮小弟到通缉犯，真人真事改编电影",
        "docid": "7007352572537209357",
        "url": "https://www.ixigua.com/7007352572537209357"
    },
    {
        "title": "上午提车下午卖？到底什么样的叔叔会这样坑人？",
        "docid": "7297163910744900131",
        "url": "https://www.ixigua.com/7297163910744900131"
    },
    {
        "title": "男乘客咆哮大喊：踩刹车呀，踩刹车！ 女司机踩错了…😱",
        "docid": "7278932872222736933",
        "url": "https://www.ixigua.com/7278932872222736933"
    },
    {
        "title": "新起之秀童言.21894韩信目前最高战力.寂然韩小鑫也自愧不如",
        "docid": "7085663546008142373",
        "url": "https://www.ixigua.com/7085663546008142373"
    },
    {
        "title": "东北狠人大闹首尔，被各方追杀《黄海》让人热血沸腾的韩国犯罪片",
        "docid": "6800730862821310989",
        "url": "https://www.ixigua.com/6800730862821310989"
    },
    {
        "title": "以色列的异类，哈瑞迪犹太人支持巴勒斯坦，为何与以色列对着干？",
        "docid": "7305715674146570792",
        "url": "https://www.ixigua.com/7305715674146570792"
    },
    {
        "title": "百老汇原版音乐剧《音乐之声》  从上海开启巡演",
        "docid": "7310550733051494946",
        "url": ""
    },
    {
        "title": "国服第一元歌听安VS国服第一狂铁神罚！",
        "docid": "7098670212924310028",
        "url": "https://www.ixigua.com/7098670212924310028"
    },
    {
        "title": "周海媚身体不适早有预警，自知有严重生理缺陷，与爱犬终老一生",
        "docid": "7311774776995873319",
        "url": "https://www.ixigua.com/7311774776995873319"
    },
    {
        "title": "可怜的小海豹，遭到了一群卡拉老鹰的围攻，它还能活吗？",
        "docid": "7292611531223597618",
        "url": "https://www.ixigua.com/7292611531223597618"
    },
    {
        "title": "读懂体检高频词｜体检报告显示尿酸过高、有脂肪肝……它们都和久坐不动有关！",
        "docid": "7311523975820149260",
        "url": ""
    },
    {
        "title": "省一和省二的爱恨情仇！",
        "docid": "7044398159510012456",
        "url": "https://www.ixigua.com/7044398159510012456"
    },
    {
        "title": "地雷：小伙把鸡头往后扔，没想到命中太君饭碗，大事不好了",
        "docid": "7286819098305462824",
        "url": "https://www.ixigua.com/7286819098305462824"
    },
    {
        "title": "哈马斯地道挖至以军军营门口，刺探情报，城内哈马斯予以反击！",
        "docid": "7310521662544445961",
        "url": "https://www.ixigua.com/7310521662544445961"
    },
    {
        "title": "“鸡娃”的本质到底是什么？借电影《学爸》，聊一聊当下的育儿观",
        "docid": "7290796598492791354",
        "url": "https://www.ixigua.com/7290796598492791354"
    },
    {
        "title": "听一位体彩开奖女主持人对江西2.2亿中奖事件的分析：不会造假",
        "docid": "7309992904498643507",
        "url": ""
    },
    {
        "title": "真实谎言：女儿被绑架，特种兵老爸开战斗机，把绑匪老巢夷为平地",
        "docid": "7283386326479700532",
        "url": "https://www.ixigua.com/7283386326479700532"
    },
    {
        "title": "【又到了一年一度北方人看南方人玩雪的时候",
        "docid": "7299986454661300786",
        "url": "https://www.ixigua.com/7299986454661300786"
    },
    {
        "title": "从哈马斯到果敢同盟军：蒙面的背后，是战争的演变",
        "docid": "7310929938511725092",
        "url": "https://www.ixigua.com/7310929938511725092"
    },
    {
        "title": "中国人给孩子起名要考虑多少因素？这届父母让网友操碎了心",
        "docid": "7306063285227422243",
        "url": ""
    },
    {
        "title": "武大130周年雷军演讲——小米篇#武大130周年雷军捐13亿 #雷军",
        "docid": "7307073231670903333",
        "url": "https://www.ixigua.com/7307073231670903333"
    },
    {
        "title": "数据不说谎！5项生涯新低，詹姆斯巅峰状态还能持续多久",
        "docid": "7302000562323587619",
        "url": "https://www.ixigua.com/7302000562323587619"
    },
    {
        "title": "陷入沉思🙁主场0-3完败，滕哈赫赛后在场边伫立半天一动不动",
        "docid": "7310652054257877531",
        "url": ""
    },
    {
        "title": "张老三全球第一貂蝉16.0满评分53.4%输出94%参团，妹纸直呼还想要",
        "docid": "7125657207483400719",
        "url": "https://www.ixigua.com/7125657207483400719"
    },
    {
        "title": "罗志祥《精舞门》，这首歌听起来热血沸腾，亚洲舞王的称号不是盖",
        "docid": "6718594529017987591",
        "url": "https://www.ixigua.com/6718594529017987591"
    },
    {
        "title": "爸爸爬上高处梯子突然断裂，3岁儿子稳稳扶住梯子保护爸爸。",
        "docid": "7288160909338509858",
        "url": "https://www.ixigua.com/7288160909338509858"
    },
    {
        "title": "20岁的C罗是这样踢球的，跟20岁的姆巴佩比谁更强？",
        "docid": "6787755404429361679",
        "url": "https://www.ixigua.com/6787755404429361679"
    },
    {
        "title": "“刺猬流”哪吒：拥有75%免伤还能秒天秒地！场均20个头以上",
        "docid": "7036164941388186143",
        "url": "https://www.ixigua.com/7036164941388186143"
    },
    {
        "title": "梁山好汉攻打方腊，派出七人小队混入城中，结果惨遭团灭，武侠",
        "docid": "7088612542569939492",
        "url": "https://www.ixigua.com/7088612542569939492"
    },
    {
        "title": "巴以交战实拍：哈马斯步兵冲到坦克前引爆炸弹，场面紧张刺激",
        "docid": "7297182507404329507",
        "url": "https://www.ixigua.com/7297182507404329507"
    },
    {
        "title": "多款咖啡检出丙烯酰胺 “咖啡致癌”说靠谱吗？",
        "docid": "7310514733130482187",
        "url": ""
    },
    {
        "title": "曜：我讨厌刘禅！",
        "docid": "7116079726334050829",
        "url": "https://www.ixigua.com/7116079726334050829"
    },
    {
        "title": "好物分享｜家长问哪个专业好？张雪峰：我觉得在家躺着好，好的标准是什么",
        "docid": "7301325824412942888",
        "url": "https://www.ixigua.com/7301325824412942888"
    },
    {
        "title": "终极擂台：斧头帮VS刀剑会！星辰剑玫瑰剑迎战大斧，咬金一打五",
        "docid": "7003665177082233377",
        "url": "https://www.ixigua.com/7003665177082233377"
    },
    {
        "title": "豆瓣评分9.2 真正的印度神剧，你不可以错过",
        "docid": "6800665169962729987",
        "url": "https://www.ixigua.com/6800665169962729987"
    },
    {
        "title": "六分之一国土险些沦丧，左宗棠收复新疆有多难？【鹿头军师】",
        "docid": "7032094281519235597",
        "url": "https://www.ixigua.com/7032094281519235597"
    },
    {
        "title": "【海贼王人物传】克洛克达尔--------霸气十足的沙漠皇帝",
        "docid": "6845553434553221640",
        "url": "https://www.ixigua.com/6845553434553221640"
    },
    {
        "title": "夏侯惇：布甲出门的夏侯惇，狂铁打不过？",
        "docid": "7079504641183973903",
        "url": "https://www.ixigua.com/7079504641183973903"
    },
    {
        "title": "惊艳一枪11：深藏不露的反派，原来蔡京武功这么高，绝顶高手！",
        "docid": "6868145415930413581",
        "url": "https://www.ixigua.com/6868145415930413581"
    },
    {
        "title": "19岁女子被悬赏因高颜值受关注：涉案超万元，现已履行全部款项",
        "docid": "7310503228687581722",
        "url": "https://www.ixigua.com/7310503228687581722"
    },
    {
        "title": "C2C电商大战（下）马云差点坐牢、险些失去阿里、马化腾偷袭淘宝",
        "docid": "7000630898701894157",
        "url": "https://www.ixigua.com/7000630898701894157"
    },
    {
        "title": "轮到以色列害怕了？胡塞武装突发可怕警告，一招怒斩以军“命脉”",
        "docid": "7311669175607853578",
        "url": "https://www.ixigua.com/7311669175607853578"
    },
    {
        "title": "拍摄仅仅19天，投资250万港币，杜琪峰导演造就香港黑帮片的巅峰",
        "docid": "7127595145926541838",
        "url": "https://www.ixigua.com/7127595145926541838"
    },
    {
        "title": "综艺：SHE一首《Super star》，高潮响起那一刻，台下沸腾了！",
        "docid": "6763482486631563790",
        "url": "https://www.ixigua.com/6763482486631563790"
    },
    {
        "title": "张辽、张郃傻傻分不清，同是五子良将到底谁的武力值更高",
        "docid": "6875952732323185163",
        "url": "https://www.ixigua.com/6875952732323185163"
    },
    {
        "title": "德华曹操一波复活甲换名刀操作直接震惊赖神！",
        "docid": "7104204343812817446",
        "url": "https://www.ixigua.com/7104204343812817446"
    },
    {
        "title": "第九届国际艺术评论奖在上海久事美术馆揭晓",
        "docid": "7311651190935388713",
        "url": ""
    },
    {
        "title": "就连天道都要畏惧三分的男人果然还得是旗木五五开",
        "docid": "7311668233567011339",
        "url": "https://www.ixigua.com/7311668233567011339"
    },
    {
        "title": "女人对着镜子欣然自己，竟却被儿子偷看到《晚安妈咪》",
        "docid": "7283806294216999479",
        "url": "https://www.ixigua.com/7283806294216999479"
    },
    {
        "title": "周海媚抢救病例疑泄露，被指是最后体面都没留，卫健部门介入调查",
        "docid": "7311903762698895884",
        "url": "https://www.ixigua.com/7311903762698895884"
    },
    {
        "title": "国服第一关羽明眸VS职业第一边路FLy！",
        "docid": "7125422681695978017",
        "url": "https://www.ixigua.com/7125422681695978017"
    },
    {
        "title": "几百万人被圈养？如果你投胎出生在加沙，人生到底会有多悲惨？",
        "docid": "7295660609214644773",
        "url": "https://www.ixigua.com/7295660609214644773"
    },
    {
        "title": "12年杀了60多人，冻成冰尸搭房子，电影放映时超过100人离场",
        "docid": "6854437049781617160",
        "url": "https://www.ixigua.com/6854437049781617160"
    },
    {
        "title": "盘点治疗社恐的海底捞科目三舞蹈，你觉得这波操作赢在了哪里？",
        "docid": "7305685980240380453",
        "url": "https://www.ixigua.com/7305685980240380453"
    },
    {
        "title": "奥克兰城vs吉达联合，周通替补登场&中国球员时隔8年再战世俱杯",
        "docid": "7311792495065596466",
        "url": ""
    },
    {
        "title": "《大汉王朝》15，韩信果然厉害，第一战就把项羽打的措手不及！",
        "docid": "6880443495266386439",
        "url": "https://www.ixigua.com/6880443495266386439"
    },
    {
        "title": "重庆狼队妖刀第一视角，看职业选手妖刀的李元芳有多果断细节",
        "docid": "7031940849789305380",
        "url": "https://www.ixigua.com/7031940849789305380"
    },
    {
        "title": "海豹回农村，必须要注意底盘，别被刮了！",
        "docid": "7285189163018945060",
        "url": "https://www.ixigua.com/7285189163018945060"
    },
    {
        "title": "从吉林市看演唱会归来，晚上又有饭局了，东北铁锅炖，三大锅",
        "docid": "7303870534217892379",
        "url": "https://www.ixigua.com/7303870534217892379"
    },
    {
        "title": "百看不厌的狙击电影，神级狙击手被陷害，爆裂复仇团灭敌人",
        "docid": "7053341763175449101",
        "url": "https://www.ixigua.com/7053341763175449101"
    },
    {
        "title": "能用夏洛特打上巅峰第一的七星到底有多强？！",
        "docid": "7076414228051165700",
        "url": "https://www.ixigua.com/7076414228051165700"
    },
    {
        "title": "学生半年没见到妈妈，小心翼翼向老师吐露心声",
        "docid": "7304973344846447104",
        "url": "https://www.ixigua.com/7304973344846447104"
    },
    {
        "title": "土媒：土耳其总统致电遭到殴打的裁判，祝他早日康复",
        "docid": "7311700067273015808",
        "url": ""
    },
    {
        "title": "穷小伙得高人指点，得到皇上御赐宝刀，秒杀淫贼为民除害！武侠片",
        "docid": "7119772918875161119",
        "url": "https://www.ixigua.com/7119772918875161119"
    },
    {
        "title": "网友手持苹果在华为园区拍摄余承东，余承东：你拿了台 iPhone",
        "docid": "7310775849975251483",
        "url": "https://www.ixigua.com/7310775849975251483"
    },
    {
        "title": "周海媚家世曝光！贵族血统地位显赫，真正死因被曝，本有生还机会",
        "docid": "7311933043944620582",
        "url": "https://www.ixigua.com/7311933043944620582"
    },
    {
        "title": "48小时内，中国对菲律宾打响两波反制，与此同时，日本被上了一课",
        "docid": "7311614640516301350",
        "url": "https://www.ixigua.com/7311614640516301350"
    },
    {
        "title": "中国农民大闹韩国首尔，一人团灭黑白两道！让人热血沸腾的犯罪片",
        "docid": "6824864706834989571",
        "url": "https://www.ixigua.com/6824864706834989571"
    },
    {
        "title": "演员周海媚去世，曾拒演周芷若，因很不喜欢角色性格",
        "docid": "7311722476290245170",
        "url": "https://www.ixigua.com/7311722476290245170"
    },
    {
        "title": "蒋述丨司马懿：当了一辈子好人，临死偷下来一个王朝",
        "docid": "6751414306564211203",
        "url": "https://www.ixigua.com/6751414306564211203"
    },
    {
        "title": "共享农庄怎么搞？专家学者来支招",
        "docid": "7311692386391163392",
        "url": ""
    },
    {
        "title": "神雕侠侣29：郭襄被李莫愁夺走，黄蓉大怒，以打狗棒法迎击！",
        "docid": "6849291365482922504",
        "url": "https://www.ixigua.com/6849291365482922504"
    },
    {
        "title": "巅峰高燃国漫《枕刀歌》，国漫不是五毛钱特效，每一帧都热血沸腾",
        "docid": "7003330335333155359",
        "url": "https://www.ixigua.com/7003330335333155359"
    },
    {
        "title": "10日仁爱礁态势总结：太阳能板已装上，菲总参谋长现身登陆舰聚餐",
        "docid": "7311660760004821516",
        "url": "https://www.ixigua.com/7311660760004821516"
    },
    {
        "title": "疾跑电刀流司空震有多强？！鲍星星直接用它冲上巅峰前十！",
        "docid": "7122697991223247399",
        "url": "https://www.ixigua.com/7122697991223247399"
    },
    {
        "title": "周海媚颜值巅峰之作，任达华演技炸裂",
        "docid": "7311618408305885696",
        "url": "https://www.ixigua.com/7311618408305885696"
    },
    {
        "title": "19. 美以对叙利亚动手，在找什么？以色列要对加沙和戈兰高地做出",
        "docid": "7310639614182720010",
        "url": "https://www.ixigua.com/7310639614182720010"
    },
    {
        "title": "一口气看完，索隆的整场高燃鬼岛大战，共使用绝招16次！",
        "docid": "7052622499346907679",
        "url": "https://www.ixigua.com/7052622499346907679"
    },
    {
        "title": "《何以中国》进校园 邀青少年共探中华文明之源",
        "docid": "7311689762417574426",
        "url": ""
    },
    {
        "title": "德云色 DYS 直播这些年｜BK短纪录片【31】",
        "docid": "6996518102544417318",
        "url": "https://www.ixigua.com/6996518102544417318"
    },
    {
        "title": "著名女演员周海媚去世，工作室发文：因病医治无效，昨日离世",
        "docid": "7311707863276061225",
        "url": "https://www.ixigua.com/7311707863276061225"
    },
    {
        "title": "哈马斯全面反攻视频流出，以军人员伤亡惨重。场面震撼，不容错过",
        "docid": "7311721136822649371",
        "url": "https://www.ixigua.com/7311721136822649371"
    },
    {
        "title": "华为新问界M7凭什么能卖出8万台？老车主竟疯狂吐槽？！！",
        "docid": "7299596006528975369",
        "url": "https://www.ixigua.com/7299596006528975369"
    },
    {
        "title": "千年妖魔血洗人间，老和尚大战妖魔为民除害，这部武侠片画面剌激",
        "docid": "7088605871604761101",
        "url": "https://www.ixigua.com/7088605871604761101"
    },
    {
        "title": "“制裁”刘禅：一个大招秒程咬金，这伤害离谱！",
        "docid": "7110236042115940878",
        "url": "https://www.ixigua.com/7110236042115940878"
    },
    {
        "title": "假如全球速度变低,只有我不变，会发生什么",
        "docid": "7301609951632294451",
        "url": "https://www.ixigua.com/7301609951632294451"
    },
    {
        "title": "实名举报黑骑士电动车",
        "docid": "7311978595118023205",
        "url": "https://www.ixigua.com/7311978595118023205"
    },
    {
        "title": "天天皮爆笑解说：兄弟们关羽和女娲的配合真是天衣无缝。",
        "docid": "7040366537894527521",
        "url": "https://www.ixigua.com/7040366537894527521"
    },
    {
        "title": "懂车帝冬测纯电续航出炉，国产车不能为了利益没有底线特斯拉赢了",
        "docid": "7311683494340461094",
        "url": "https://www.ixigua.com/7311683494340461094"
    },
    {
        "title": "炸裂！！！  莱昂纳德14中11独取31分  快船豪取五连胜！！！",
        "docid": "7311955298204582452",
        "url": "https://www.ixigua.com/7311955298204582452"
    },
    {
        "title": "天下第一42：督主了却心愿和神候宿命一战，吸功大法对决天罡元气",
        "docid": "6828491697723277835",
        "url": "https://www.ixigua.com/6828491697723277835"
    },
    {
        "title": "有这样的优质辅助 你几点开始打发育路！#王者 #伽罗 #钟馗",
        "docid": "7052636800774472192",
        "url": "https://www.ixigua.com/7052636800774472192"
    },
    {
        "title": "比亚迪唐的上下铺模式，甚至不需要放倒后排！出行人多更方便！",
        "docid": "7283187194649379363",
        "url": "https://www.ixigua.com/7283187194649379363"
    },
    {
        "title": "【铁管说海贼133】路飞霸王色瞬秒五万敌军！奇袭战场暴打霍迪",
        "docid": "6834862459476509199",
        "url": "https://www.ixigua.com/6834862459476509199"
    },
    {
        "title": "小沈龙吐糟婚后苦逼生活，一天三顿打还跪搓衣板，笑死俺了",
        "docid": "6818085674164421131",
        "url": "https://www.ixigua.com/6818085674164421131"
    },
    {
        "title": "高级饭店把香蕉装入苦瓜里，出锅就卖38元一份，这个做法真是高手",
        "docid": "7105718450345116160",
        "url": "https://www.ixigua.com/7105718450345116160"
    },
    {
        "title": "【超清1080P中英文字幕画质收藏版】死神凯文杜兰特个人纪录片",
        "docid": "6822202042547700232",
        "url": "https://www.ixigua.com/6822202042547700232"
    },
    {
        "title": "打野百分百抓到人的技巧",
        "docid": "7016316638530109984",
        "url": "https://www.ixigua.com/7016316638530109984"
    },
    {
        "title": "非法拥核为何还不被制裁？除了五常，他们是怎么拥有核武器的？",
        "docid": "7116026949004165645",
        "url": "https://www.ixigua.com/7116026949004165645"
    },
    {
        "title": "高智商罪犯，扮成小丑抢银行，面对搜捕完美逃脱，高分喜剧电影",
        "docid": "7047826784905724424",
        "url": "https://www.ixigua.com/7047826784905724424"
    },
    {
        "title": "球场球员的临时反应 不得不服 非常厉害",
        "docid": "6831720477505880589",
        "url": "https://www.ixigua.com/6831720477505880589"
    },
    {
        "title": "娜可露露：这个蓝区实在是太恐怖了",
        "docid": "7110146114312995368",
        "url": "https://www.ixigua.com/7110146114312995368"
    },
    {
        "title": "小品：《我是演员之偶像团》@宋小宝",
        "docid": "6810262536307343875",
        "url": "https://www.ixigua.com/6810262536307343875"
    },
    {
        "title": "中华丈夫：日本妻子瞧不起中国功夫，丈夫忍无可忍，当场要他好看",
        "docid": "7282641208919687715",
        "url": "https://www.ixigua.com/7282641208919687715"
    },
    {
        "title": "奥登-一个被伤病毁了的男人 看看没受伤的赛场精彩集锦",
        "docid": "6815043757549814276",
        "url": "https://www.ixigua.com/6815043757549814276"
    },
    {
        "title": "淘宝之父孙彤宇：被马云抛弃后，借拼多多王者归来",
        "docid": "6837415827642253838",
        "url": "https://www.ixigua.com/6837415827642253838"
    },
    {
        "title": "掘开吃了熊心豹子胆，单A三分抢下地主，现场解说直呼飘了",
        "docid": "6996120949900706343",
        "url": "https://www.ixigua.com/6996120949900706343"
    },
    {
        "title": "单刷3个7级野怪，8分钟血法5级，FQQ迷惑对手！魔兽争霸3",
        "docid": "7063841404371501598",
        "url": "https://www.ixigua.com/7063841404371501598"
    },
    {
        "title": "【战术篇】14年的马刺！最完美的团队篮球！",
        "docid": "6827772661406368267",
        "url": "https://www.ixigua.com/6827772661406368267"
    },
    {
        "title": "买下整个互联网，腾讯投资到底有多强大？",
        "docid": "7046594717961683488",
        "url": "https://www.ixigua.com/7046594717961683488"
    },
    {
        "title": "周海媚唯一参与的MV《吻别》 #周海媚去世 #周海媚生平角色回顾",
        "docid": "7311941966714012212",
        "url": "https://www.ixigua.com/7311941966714012212"
    },
    {
        "title": "被禁播，被删减，真正的童年阴影来了！《第8号当铺》第一期",
        "docid": "7058236788162167333",
        "url": "https://www.ixigua.com/7058236788162167333"
    },
    {
        "title": "KPL职业选手为什么喜欢，娜可露露？",
        "docid": "7113008294297666085",
        "url": "https://www.ixigua.com/7113008294297666085"
    },
    {
        "title": "小伙竟然用洗菜盆制作了一款漂亮柴火灶 简单实用#手工diy",
        "docid": "7286064860352381495",
        "url": "https://www.ixigua.com/7286064860352381495"
    },
    {
        "title": "可惜大妈没生在日本，不然一定能成为香蕉仙人",
        "docid": "7301899675207270922",
        "url": "https://www.ixigua.com/7301899675207270922"
    },
    {
        "title": "为什么要执意写死钢铁侠？唐尼的多次拒绝，让他留到了最后",
        "docid": "6848922192873259534",
        "url": "https://www.ixigua.com/6848922192873259534"
    },
    {
        "title": "17杀国服赵云“1拖4”强行翻盘，王者60星输出高达15万，真凶！",
        "docid": "7085212258670019103",
        "url": "https://www.ixigua.com/7085212258670019103"
    },
    {
        "title": "以色列再敢攻击试试！美国一票否决后，中国特使亲赴拉法口岸",
        "docid": "7311938253857391145",
        "url": "https://www.ixigua.com/7311938253857391145"
    },
    {
        "title": "还好嘛老伙计！詹姆斯用手垫着 给了老兄弟理查德-杰弗森脑袋一下",
        "docid": "7310772843892081190",
        "url": "https://www.ixigua.com/7310772843892081190"
    },
    {
        "title": "栋笃笑：新一代男人的三不主义，大家单身的原因找到了",
        "docid": "6311419606653387009",
        "url": "https://www.ixigua.com/6311419606653387009"
    },
    {
        "title": "请明星吃虫子啃生肉，却请总统吃烤肉，硬核贝爷有多惜命？",
        "docid": "7055986718947672589",
        "url": "https://www.ixigua.com/7055986718947672589"
    },
    {
        "title": "孙悟空之父！超级赛亚人巴达克！！！",
        "docid": "7119076493023511080",
        "url": "https://www.ixigua.com/7119076493023511080"
    },
    {
        "title": "闪白对线吕布，九一开吧！",
        "docid": "7093164278433186334",
        "url": "https://www.ixigua.com/7093164278433186334"
    },
    {
        "title": "谈轩击中超大牌金刚4条9 连续三条街下注 直接给毒王dwan打懵圈",
        "docid": "7018562323577045517",
        "url": "https://www.ixigua.com/7018562323577045517"
    },
    {
        "title": "吐槽街访富二代，有钱人都是假的？",
        "docid": "6834847206642549252",
        "url": "https://www.ixigua.com/6834847206642549252"
    },
    {
        "title": "叶问4看的热血沸腾",
        "docid": "6798159383147577867",
        "url": "https://www.ixigua.com/6798159383147577867"
    },
    {
        "title": "重大消息！华为紧急大调整！百年难遇行情浮出水面！",
        "docid": "7312013526083666469",
        "url": "https://www.ixigua.com/7312013526083666469"
    },
    {
        "title": "服务员被小混混欺负，没想到他以前是黑道大哥，瞬间赶来几百小弟",
        "docid": "7073024157797057031",
        "url": "https://www.ixigua.com/7073024157797057031"
    },
    {
        "title": "被陈惠敏怒扇耳光，好莱坞拍戏又遭枪杀，当年李国豪得罪了谁？",
        "docid": "7038050638214726174",
        "url": "https://www.ixigua.com/7038050638214726174"
    },
    {
        "title": "杨丞琳公然侮辱河南人，律师解读：被骂活该，但法律要保持谦抑",
        "docid": "7311270844720742947",
        "url": "https://www.ixigua.com/7311270844720742947"
    },
    {
        "title": "被逆转！勇士vs太阳生死5分钟，库里仓促3分出手失绝平，表情沮丧",
        "docid": "7311964042388570664",
        "url": "https://www.ixigua.com/7311964042388570664"
    },
    {
        "title": "【中国武侠经典】中国最好的武侠片，曾轰动全世界，仅花费120万",
        "docid": "7107973544981725733",
        "url": "https://www.ixigua.com/7107973544981725733"
    },
    {
        "title": "周海媚5到57岁变化，不愧是最美周芷若，女神一路走好！",
        "docid": "7311645685374583322",
        "url": "https://www.ixigua.com/7311645685374583322"
    },
    {
        "title": "蒙面歌王：一首《曹操》惊艳全场！歌声不输原唱，有歌王实力！",
        "docid": "6759912800824328717",
        "url": "https://www.ixigua.com/6759912800824328717"
    },
    {
        "title": "比赛时能否奏效？中国女足赛前练习传中套路",
        "docid": "7296450246308184595",
        "url": ""
    },
    {
        "title": "“桩主”归来！去上海崇明西沙明珠湖看野鸬鹚",
        "docid": "7312027088758964746",
        "url": ""
    },
    {
        "title": "惨烈！小城市及县城的房子最终归属，你还敢买吗？",
        "docid": "6891963282840617483",
        "url": "https://www.ixigua.com/6891963282840617483"
    },
    {
        "title": "枪姐Alicia Keys最新格莱美双琴串烧表演，实力！",
        "docid": "6762749702438912520",
        "url": "https://www.ixigua.com/6762749702438912520"
    },
    {
        "title": "顶级特种兵被杀光全家， 他不惜叛国复仇 ，结局泪目，动作电影",
        "docid": "6790627284303741453",
        "url": "https://www.ixigua.com/6790627284303741453"
    },
    {
        "title": "把爱妃煮了分给大臣吃，把百姓当二十万军粮，食人魔朱粲多残暴？",
        "docid": "7078680604069659143",
        "url": "https://www.ixigua.com/7078680604069659143"
    },
    {
        "title": "你的房子贵不贵？房价上涨背后有三个“百万大军”推手！",
        "docid": "6855596382032495111",
        "url": "https://www.ixigua.com/6855596382032495111"
    },
    {
        "title": "成名后的GAI：相比上综艺，我宁愿去包工地",
        "docid": "6578027536821781000",
        "url": "https://www.ixigua.com/6578027536821781000"
    },
    {
        "title": "这是我见过最神奇的诸葛亮，扇子一挥便万箭齐发，简直就是神仙",
        "docid": "6348716540292579586",
        "url": "https://www.ixigua.com/6348716540292579586"
    },
    {
        "title": "古代皇帝为何非要用太监伺候，而不用美貌的宫女？这是什么怪癖？",
        "docid": "7051882435801416206",
        "url": "https://www.ixigua.com/7051882435801416206"
    },
    {
        "title": "山东大爷8年只卖一道菜，3天不开张，越卖价越低，很少能有回头客",
        "docid": "7070420033159201295",
        "url": "https://www.ixigua.com/7070420033159201295"
    },
    {
        "title": "马云被谁夺走了亚洲首富？对比两人的全产业分析 有本质不同",
        "docid": "6830455635918717444",
        "url": "https://www.ixigua.com/6830455635918717444"
    },
    {
        "title": "徒弟习武1年打败八家武馆，却惨死在街头，师父大怒血洗武林",
        "docid": "6891250529930838540",
        "url": "https://www.ixigua.com/6891250529930838540"
    },
    {
        "title": "摆个地摊碰运气，不料一口气卖出1000万流水：挣钱给老公花",
        "docid": "7108540168616804894",
        "url": "https://www.ixigua.com/7108540168616804894"
    },
    {
        "title": "不费一兵大败二十万大军！韩信最神一计，三个月灭国项羽灭亡伏笔",
        "docid": "7050276087078748679",
        "url": "https://www.ixigua.com/7050276087078748679"
    },
    {
        "title": "上海房租为什么涨价了？",
        "docid": "7109817151334121992",
        "url": "https://www.ixigua.com/7109817151334121992"
    },
    {
        "title": "上篇【逐句讲解】进击的巨人完结篇片尾曲",
        "docid": "7312039565123191306",
        "url": "https://www.ixigua.com/7312039565123191306"
    },
    {
        "title": "突袭：世界顶级犯罪电影，特种兵以一敌百，拳拳到肉毫无尿点",
        "docid": "7094631719059325470",
        "url": "https://www.ixigua.com/7094631719059325470"
    },
    {
        "title": "世界杯上一骑绝尘：超级新秀姆巴佩用速度生吃你防线，干瞪眼追不",
        "docid": "6808441930561618436",
        "url": "https://www.ixigua.com/6808441930561618436"
    },
    {
        "title": "太危险⚠️商务车强行超车变道，渣土车暴怒，疯狂追赶别停...",
        "docid": "7292706132294894090",
        "url": "https://www.ixigua.com/7292706132294894090"
    },
    {
        "title": "比关羽还强的男人！一战封神立下大功，却被主公暗中毒杀？",
        "docid": "7086244513638777381",
        "url": "https://www.ixigua.com/7086244513638777381"
    },
    {
        "title": "林冲为纳投名状，大战青面兽杨志，怎料竟坐上梁山第四把交椅！",
        "docid": "7024733141679997454",
        "url": "https://www.ixigua.com/7024733141679997454"
    },
    {
        "title": "联盟第三的场均出场时间，因为热爱，35岁的杜兰特正在与时间对抗",
        "docid": "7303808764514468389",
        "url": "https://www.ixigua.com/7303808764514468389"
    },
    {
        "title": "57岁玉女掌门人周海媚于11日去世！饱受红斑狼疮折磨，曾爆长30斤",
        "docid": "7311720967750091316",
        "url": "https://www.ixigua.com/7311720967750091316"
    },
    {
        "title": "不错不错",
        "docid": "7312048234166223386",
        "url": "https://www.ixigua.com/7312048234166223386"
    },
    {
        "title": "东游记：穿山甲得到万年魔功，成为终极大BOSS，八仙的噩梦来了",
        "docid": "7001757039613444622",
        "url": "https://www.ixigua.com/7001757039613444622"
    },
    {
        "title": "龙珠：弗利沙大哥古拉有多强。超赛都打不赢？",
        "docid": "7110107293022159367",
        "url": "https://www.ixigua.com/7110107293022159367"
    },
    {
        "title": "周杰伦第一神专！没有之一，从此坐上华语音乐皇帝宝座二十年！",
        "docid": "7100230249023177231",
        "url": "https://www.ixigua.com/7100230249023177231"
    },
    {
        "title": "中期掉点团灭，打野如何稳住局势？赵云未来纪元即将优化",
        "docid": "7034074142626284032",
        "url": "https://www.ixigua.com/7034074142626284032"
    },
    {
        "title": "洪七公背诵九阴真经保住性命，欧阳锋怒打灵智上人技惊四座！",
        "docid": "6998082176189202980",
        "url": "https://www.ixigua.com/6998082176189202980"
    },
    {
        "title": "【话说GT(六)】史上最帅超赛变身初登场！贝比魂归太阳！",
        "docid": "7123528505714803236",
        "url": "https://www.ixigua.com/7123528505714803236"
    },
    {
        "title": "古代“最强阵法”排名，诸葛亮八卦阵至今无人能解",
        "docid": "7104162707271582245",
        "url": "https://www.ixigua.com/7104162707271582245"
    },
    {
        "title": "信息量巨大！周海媚诊断病历被助理曝光，一纸揭开真正死因！",
        "docid": "7312040778468065855",
        "url": "https://www.ixigua.com/7312040778468065855"
    },
    {
        "title": "当阎君变成安禄山后，在皇上面前也不失霸气反王",
        "docid": "6383112620141330690",
        "url": "https://www.ixigua.com/6383112620141330690"
    },
    {
        "title": "罗杰被正式处死，红发当场泪崩！终于看到鹰眼和龙年轻时长啥样了",
        "docid": "7000205639980941828",
        "url": "https://www.ixigua.com/7000205639980941828"
    },
    {
        "title": "梦泪冲国服镜被演，大导演还是巅峰赛榜一，20000战力国服露娜！",
        "docid": "6846429030481134092",
        "url": "https://www.ixigua.com/6846429030481134092"
    },
    {
        "title": "盘点娱乐圈中明星的神预言，果然全部一击就中，令人佩服不已",
        "docid": "6822911202004304398",
        "url": "https://www.ixigua.com/6822911202004304398"
    },
    {
        "title": "陆小凤：高手对决往往一瞬之间，西门吹雪秒杀叶孤城，剑神诛剑仙",
        "docid": "6894446986276110852",
        "url": "https://www.ixigua.com/6894446986276110852"
    },
    {
        "title": "用cctv5的方式打开《少林足球》，这才叫足球比赛！",
        "docid": "7020355884119392798",
        "url": "https://www.ixigua.com/7020355884119392798"
    },
    {
        "title": "新赛季肉铠打野，一个人追着一群打，你被肉铠支配过吗？",
        "docid": "7087232243025838595",
        "url": "https://www.ixigua.com/7087232243025838595"
    },
    {
        "title": "巅峰赛定榜第一！23000分杨玉环天花板！高分局的T0中单有多强？",
        "docid": "7110906450930565662",
        "url": "https://www.ixigua.com/7110906450930565662"
    },
    {
        "title": "33+6+17！东契奇12.12集锦：疯狂以慢打快打爆湖人大闸，太秀了",
        "docid": "7311918797915423266",
        "url": "https://www.ixigua.com/7311918797915423266"
    },
    {
        "title": "第四次忍界大战开始，八尾大战鬼鲛，鬼鲛死亡？（火影四战2）",
        "docid": "7092033383189971469",
        "url": "https://www.ixigua.com/7092033383189971469"
    },
    {
        "title": "虞姬被秦兵欺负，项羽火力全开阵斩100秦兵，直接征服美人！",
        "docid": "7073370890133570060",
        "url": "https://www.ixigua.com/7073370890133570060"
    },
    {
        "title": "赖神老夫子对战张大仙战队酷偕！一个打五个还能带走对面射手！",
        "docid": "7065189307748712992",
        "url": "https://www.ixigua.com/7065189307748712992"
    },
    {
        "title": "好样的！哈登说试10场就10场，已清楚快船连败因威少，谨记2教训",
        "docid": "7306001707690000922",
        "url": "https://www.ixigua.com/7306001707690000922"
    },
    {
        "title": "综艺感爆棚的明星合集，沈腾扬言刘德华长的太丑，自己挖坑自己跳",
        "docid": "6810647740431729155",
        "url": "https://www.ixigua.com/6810647740431729155"
    },
    {
        "title": "凯皇人物传下篇：将血液蒸腾为气浪的男人，我斑愿称你为最强！",
        "docid": "6801609367650042371",
        "url": "https://www.ixigua.com/6801609367650042371"
    },
    {
        "title": "祖国已强大，谴责无用！菲律宾和美国谴责中国",
        "docid": "7312051026679464460",
        "url": "https://www.ixigua.com/7312051026679464460"
    },
    {
        "title": "明星尴尬采访太精彩！张艺兴两次神回答，热巴娜扎被叫错名",
        "docid": "7075663778360558111",
        "url": "https://www.ixigua.com/7075663778360558111"
    },
    {
        "title": "香港“大圈帮”火拼本土黑帮，一句话引发两大社团千人混战，港片",
        "docid": "7101148324178330143",
        "url": "https://www.ixigua.com/7101148324178330143"
    },
    {
        "title": "一口气看完咒术主角战亡名单，死亡不是终点",
        "docid": "7057786397729489415",
        "url": "https://www.ixigua.com/7057786397729489415"
    },
    {
        "title": "MKMF 2006 我爱的现场 东方神起+super junior 最爱7分时的画面",
        "docid": "6505653499001307651",
        "url": "https://www.ixigua.com/6505653499001307651"
    },
    {
        "title": "巴以冲突双方是如何对决的？哈马斯又是如何摧毁以色列坦克的？",
        "docid": "7310740908423840267",
        "url": "https://www.ixigua.com/7310740908423840267"
    },
    {
        "title": "109回：孙权向曹丕投降求救，曹丕看戏，孙十万掏空家底决战刘备",
        "docid": "6884514486732980747",
        "url": "https://www.ixigua.com/6884514486732980747"
    },
    {
        "title": "如果不是有监控，我都猜不到这车祸是怎么造成的",
        "docid": "7310786271784206882",
        "url": "https://www.ixigua.com/7310786271784206882"
    },
    {
        "title": "一个过气港星的去世，值得这样吗？周海媚离世为何备受关注？",
        "docid": "7312003605547581962",
        "url": "https://www.ixigua.com/7312003605547581962"
    },
    {
        "title": "看吧你就",
        "docid": "7312085835619729929",
        "url": "https://www.ixigua.com/7312085835619729929"
    },
    {
        "title": "火爆！太阳VS勇士最后6分钟：布克一人狂飙12-0，库里错失3分绝平",
        "docid": "7311958431898960419",
        "url": "https://www.ixigua.com/7311958431898960419"
    },
    {
        "title": "卡普回忆揭开神之谷真相，史上最强恶魔果实出现！",
        "docid": "7018896020088029733",
        "url": "https://www.ixigua.com/7018896020088029733"
    },
    {
        "title": "theshy这个操作有多大胆？25滴血还回头，当反杀后，解说都服气了",
        "docid": "7037405783696507422",
        "url": "https://www.ixigua.com/7037405783696507422"
    },
    {
        "title": "86回：陆逊火烧连营，刘备七十万大军灰飞烟灭，退守白帝城",
        "docid": "6852204792106877448",
        "url": "https://www.ixigua.com/6852204792106877448"
    },
    {
        "title": "10名以色列军人遭伏击身亡，哈马斯显然不是乌合之众",
        "docid": "7312074229904572954",
        "url": "https://www.ixigua.com/7312074229904572954"
    },
    {
        "title": "阿酒狂妄自大开局扔大王，狂输两炸大快人心，解说大呼过瘾",
        "docid": "6995790394164249099",
        "url": "https://www.ixigua.com/6995790394164249099"
    }
]