[
    {
        "title": "【死神】守护静灵庭的勇者！ 22位护庭十三队队长能力全面解读！",
        "docid": "7282658692724425277",
        "url": "https://www.ixigua.com/7282658692724425277"
    },
    {
        "title": "一个血法师，圈养8级猛犸，5级神装剑圣忍不了！魔兽争霸3",
        "docid": "7290161274615562815",
        "url": "https://www.ixigua.com/7290161274615562815"
    },
    {
        "title": "街霸6大司马：上分继续，神头鬼脸的不谈",
        "docid": "7276410395043037733",
        "url": "https://www.ixigua.com/7276410395043037733"
    },
    {
        "title": "周星驰生涯转折之作，33年前星爷凭这部电影开创了“无厘头”时代",
        "docid": "7303839272128217619",
        "url": "https://www.ixigua.com/7303839272128217619"
    },
    {
        "title": "盘点火影中超级难做的任务，成功者寥寥无几，确定不是超S级？",
        "docid": "7294936212018561590",
        "url": "https://www.ixigua.com/7294936212018561590"
    },
    {
        "title": "玛雅文明究竟是不是来自外星？",
        "docid": "7298290257450140179",
        "url": "https://www.ixigua.com/7298290257450140179"
    },
    {
        "title": "【咒术回战】243话：乙骨杀入战局，一击绝杀羂索！",
        "docid": "7305045051229667894",
        "url": "https://www.ixigua.com/7305045051229667894"
    },
    {
        "title": "为什么印度是全世界离婚率最低的地方？？？",
        "docid": "7281594707744916023",
        "url": "https://www.ixigua.com/7281594707744916023"
    },
    {
        "title": "你好胖东来，再见富士康 #胖东来 #富士康",
        "docid": "7305988761450938930",
        "url": "https://www.ixigua.com/7305988761450938930"
    },
    {
        "title": "温铁军：政治国家还是伪装成国家的文明？重看中国的稳态政治结构",
        "docid": "7301881705164603943",
        "url": "https://www.ixigua.com/7301881705164603943"
    },
    {
        "title": "5级剑圣连续跳劈以后 魔兽争霸xiaoy解说120 lyn",
        "docid": "7288513006571520531",
        "url": "https://www.ixigua.com/7288513006571520531"
    },
    {
        "title": "3级的蛇棒，硬刚70人口雄鹿，从头拼到尾！魔兽争霸3",
        "docid": "7292670910006624803",
        "url": "https://www.ixigua.com/7292670910006624803"
    },
    {
        "title": "绯闻无数的富豪刘銮雄，投资恒大暴亏超百亿，为何他不恨许家印？",
        "docid": "7301676775094878732",
        "url": "https://www.ixigua.com/7301676775094878732"
    },
    {
        "title": "咒术回战，只打高端局的漏瑚，真实实力究竟如何？",
        "docid": "7299759128342168090",
        "url": "https://www.ixigua.com/7299759128342168090"
    },
    {
        "title": "外国小伙声称他在51区域见过外星人？！【国际尬聊112】",
        "docid": "7296164830556357130",
        "url": "https://www.ixigua.com/7296164830556357130"
    },
    {
        "title": "许昕生涯5大神仙球 每一个都是艺术品",
        "docid": "7304670445393936922",
        "url": "https://www.ixigua.com/7304670445393936922"
    },
    {
        "title": "新能源车和燃油车相比谁更安全？如何选择一辆更安全的新能源车？",
        "docid": "7265678085381915147",
        "url": "https://www.ixigua.com/7265678085381915147"
    },
    {
        "title": "路边小店卖了20年的蹄膀店，3个菜只要百元，每道菜都吃不完。",
        "docid": "7284896976980836924",
        "url": "https://www.ixigua.com/7284896976980836924"
    },
    {
        "title": "咒术冷知识，宿傩把容器换成惠，只是为了对付五条悟吗？",
        "docid": "7300094127859991052",
        "url": "https://www.ixigua.com/7300094127859991052"
    },
    {
        "title": "这一战泰森富里险些翻车！艰难击败铁血纳干诺，实力遭到质疑",
        "docid": "7295326673862394409",
        "url": "https://www.ixigua.com/7295326673862394409"
    },
    {
        "title": "小胡让粉丝很失望？今天跟大家说点心里话",
        "docid": "7296433821703275018",
        "url": "https://www.ixigua.com/7296433821703275018"
    },
    {
        "title": "徐州请大伽麦总徒弟吃15年老公鸡，简直太贵了，吃条10斤蛋花桂鱼",
        "docid": "7288751009231602191",
        "url": "https://www.ixigua.com/7288751009231602191"
    },
    {
        "title": "大恶魔硬刚3攻3防终极骑士 魔兽争霸xiaoy解说kaho syde",
        "docid": "7286652930751463991",
        "url": "https://www.ixigua.com/7286652930751463991"
    },
    {
        "title": "【多足类】金鳞岂是池中物",
        "docid": "7305968900641030668",
        "url": "https://www.ixigua.com/7305968900641030668"
    },
    {
        "title": "“冠军”不愧是“冠军”，他们一开口才知道，为啥当初是他们赢了",
        "docid": "7291912697912918569",
        "url": "https://www.ixigua.com/7291912697912918569"
    },
    {
        "title": "【GTA】如果超人愿意为你当保镖，将会是一种什么体验",
        "docid": "7306051994451378722",
        "url": "https://www.ixigua.com/7306051994451378722"
    },
    {
        "title": "【博人传漫画84】博人喜提飞雷神，佐助变成神树！",
        "docid": "7302752487646331431",
        "url": "https://www.ixigua.com/7302752487646331431"
    },
    {
        "title": "人灵两界最强天才-樱仙子 没有小绿瓶的女版韩立【凡人修仙传】",
        "docid": "7298002466434449956",
        "url": "https://www.ixigua.com/7298002466434449956"
    },
    {
        "title": "小姐姐一手特斯拉只要11万！小胡却害怕不敢收？",
        "docid": "7280467648796688930",
        "url": "https://www.ixigua.com/7280467648796688930"
    },
    {
        "title": "韩国导演很会迎合观众嘛，选角颜值要高，拍摄特效直接观感拉满",
        "docid": "7291282478441235007",
        "url": "https://www.ixigua.com/7291282478441235007"
    },
    {
        "title": "日本怪物井上尚弥成长历程？称霸四个级别，他是亚洲最强拳王吗？",
        "docid": "7297884287880135194",
        "url": "https://www.ixigua.com/7297884287880135194"
    },
    {
        "title": "FQQ决战Sky，开局放大招，1级英雄练8级野怪！魔兽争霸3",
        "docid": "7302785597406609929",
        "url": "https://www.ixigua.com/7302785597406609929"
    },
    {
        "title": "无法抗拒的经典！36年前拍摄，至今9.1分，看完都不知道怎么拍的",
        "docid": "7274144500019266111",
        "url": "https://www.ixigua.com/7274144500019266111"
    },
    {
        "title": "为祸人间117年，残害数千万人，邪恶企业妄图掌控世界人口生存权",
        "docid": "7292798398053712395",
        "url": "https://www.ixigua.com/7292798398053712395"
    },
    {
        "title": "男女矛盾，与生产过剩有何联系？",
        "docid": "7289785126538445372",
        "url": "https://www.ixigua.com/7289785126538445372"
    },
    {
        "title": "1小时格斗残暴击倒KO合集！沉浸式暴力美学纯享！一看一个不吱声",
        "docid": "7305817520781394466",
        "url": "https://www.ixigua.com/7305817520781394466"
    },
    {
        "title": "油改电和纯电平台差距多大？极氪001 宝马i3长测拆解",
        "docid": "7281291290002752056",
        "url": "https://www.ixigua.com/7281291290002752056"
    },
    {
        "title": "石油美元的最大赢家沙特王室，为何是“愚蠢”成就了他们？",
        "docid": "7299760931326984755",
        "url": "https://www.ixigua.com/7299760931326984755"
    },
    {
        "title": "百年旅店躲藏着各种恶灵，进入者必死，2023年印尼恐怖片恶灵旅店",
        "docid": "7284465773387448844",
        "url": "https://www.ixigua.com/7284465773387448844"
    },
    {
        "title": "海难奇迹！他在30米海底活了3天被救，上岸后不敢见同事家人",
        "docid": "7306100581326651955",
        "url": "https://www.ixigua.com/7306100581326651955"
    },
    {
        "title": "金庸竟然在《射雕》中记录了大量远古神秘事件|中国版达芬奇密码",
        "docid": "7290519838639227428",
        "url": "https://www.ixigua.com/7290519838639227428"
    },
    {
        "title": "神级港片在本土默默无闻，却被韩国翻拍火了，忍不了，必须盘它",
        "docid": "7284258137136497208",
        "url": "https://www.ixigua.com/7284258137136497208"
    },
    {
        "title": "足坛百大瞬间：梅西扭转命运的进球！",
        "docid": "7281593256171962892",
        "url": "https://www.ixigua.com/7281593256171962892"
    },
    {
        "title": "硬核解析中途岛战役！ 占绝对优势的日本海军为何会输？",
        "docid": "7283821221622317587",
        "url": "https://www.ixigua.com/7283821221622317587"
    },
    {
        "title": "听说右撇子才是最不正常的存在",
        "docid": "7303785250390606372",
        "url": "https://www.ixigua.com/7303785250390606372"
    },
    {
        "title": "以为逃过一劫，其实还有一劫，死神的业务太繁忙了《死神来了》",
        "docid": "7276705357827670589",
        "url": "https://www.ixigua.com/7276705357827670589"
    },
    {
        "title": "新说唱真的是剧本吗，杨和苏为什么会被音乐节拒绝",
        "docid": "7300547651769106996",
        "url": "https://www.ixigua.com/7300547651769106996"
    },
    {
        "title": "从华尔街交易员到数十亿私募老板，金融传奇人物访谈录",
        "docid": "7306031959003070995",
        "url": "https://www.ixigua.com/7306031959003070995"
    },
    {
        "title": "四大明星！夺冠=新巨头加盟？【阿驴的篮球生涯10】",
        "docid": "7304971062276850202",
        "url": "https://www.ixigua.com/7304971062276850202"
    },
    {
        "title": "2023最新科幻爽剧《V世代》，尺度生猛炸裂，画面捂眼才能看完",
        "docid": "7287157622036234815",
        "url": "https://www.ixigua.com/7287157622036234815"
    },
    {
        "title": "陈牧驰吴楚一事件迎来大结局：一场明星对普通人的极致霸凌",
        "docid": "7303825830286328356",
        "url": "https://www.ixigua.com/7303825830286328356"
    },
    {
        "title": "肉球果实“换了”波妮一命？大熊为什么会成为“暴君”？",
        "docid": "7301242464646464034",
        "url": "https://www.ixigua.com/7301242464646464034"
    },
    {
        "title": "落后50人口，Happy正面热血硬刚，皇冠决胜之战！魔兽争霸3",
        "docid": "7275718580858323508",
        "url": "https://www.ixigua.com/7275718580858323508"
    },
    {
        "title": "完美解决祖父悖论！究极烧脑的悬疑科幻《前目的地》",
        "docid": "7303417814101164570",
        "url": "https://www.ixigua.com/7303417814101164570"
    },
    {
        "title": "一个服务行业，做到这个水平的，我是从来没见过。你们见过吗？",
        "docid": "7283378346266886716",
        "url": "https://www.ixigua.com/7283378346266886716"
    },
    {
        "title": "绿帽子减攻流 魔兽争霸xiaoy解说wfz leqi",
        "docid": "7278473573478597181",
        "url": "https://www.ixigua.com/7278473573478597181"
    },
    {
        "title": "可斩断仙剑的逆天宝物-玄天斩灵剑 ！韩立的至宝《凡人修仙传》",
        "docid": "7276061264298967609",
        "url": "https://www.ixigua.com/7276061264298967609"
    },
    {
        "title": "距春晚还有俩月，于震成万人嫌、孙涛遭抵制，赵本山的担心恐成真",
        "docid": "7306071062100476416",
        "url": "https://www.ixigua.com/7306071062100476416"
    },
    {
        "title": "拳皇95：刺客大门东丈上演双秀，鬼步滑起来了！",
        "docid": "7300194188602933801",
        "url": "https://www.ixigua.com/7300194188602933801"
    },
    {
        "title": "拼多多36元黑科技真空机，用来真空活螃蟹会怎样？",
        "docid": "7285987704016372264",
        "url": "https://www.ixigua.com/7285987704016372264"
    },
    {
        "title": "从电吹风到洗地机，戴森为什么卖啥火啥？",
        "docid": "7288252176785375779",
        "url": "https://www.ixigua.com/7288252176785375779"
    },
    {
        "title": "让公孙策爱情观炸裂的宋辽命案！《少年包青天3》之重出江湖！",
        "docid": "7291976235817632319",
        "url": "https://www.ixigua.com/7291976235817632319"
    },
    {
        "title": "票房超30亿，最新下映黑马电影，对女人来说就是一部恐怖片！",
        "docid": "7276726244840833536",
        "url": "https://www.ixigua.com/7276726244840833536"
    },
    {
        "title": "非洲街头最牛铁板烧，油漆桶加水泥袋，这烤肉一般人可不敢吃！",
        "docid": "7298435090948817442",
        "url": "https://www.ixigua.com/7298435090948817442"
    },
    {
        "title": "混血宝宝去美国看望爷爷奶奶啦，对美国菜有弹无赞，爸爸当场笑哭",
        "docid": "7294592204365005321",
        "url": "https://www.ixigua.com/7294592204365005321"
    },
    {
        "title": "吕布哪里猛了？找找自己原因好吧！",
        "docid": "7281165754949435915",
        "url": "https://www.ixigua.com/7281165754949435915"
    },
    {
        "title": "最有深度的恐怖电影，告诉你什么是地狱什么是天堂，电影地狱天堂",
        "docid": "7284474596869276220",
        "url": "https://www.ixigua.com/7284474596869276220"
    },
    {
        "title": "MMA综合格斗界最毒辣的鞭尸匠：休克 骨裂 失忆 脑震荡的重灾集群",
        "docid": "7291941879820747327",
        "url": "https://www.ixigua.com/7291941879820747327"
    },
    {
        "title": "卡卡西只是过渡火影？不不不，他做火影十几年，做了很多事呢",
        "docid": "7274079069367435830",
        "url": "https://www.ixigua.com/7274079069367435830"
    },
    {
        "title": "600斤大老虎狂炫20根鸭脖子！嚼得嘎嘎响，网友：我都想来一根！",
        "docid": "7267506457812632119",
        "url": "https://www.ixigua.com/7267506457812632119"
    },
    {
        "title": "这个杀手有点凶！《美丽的杀手》四川方言版",
        "docid": "7274525157275501115",
        "url": "https://www.ixigua.com/7274525157275501115"
    },
    {
        "title": "外国人看中国武术比武视频！惊叹这也太飒了吧？！！！",
        "docid": "7274150416542237247",
        "url": "https://www.ixigua.com/7274150416542237247"
    },
    {
        "title": "上挑昏君，下打教会，一生无败绩的中世纪战神，包你热血沸腾！",
        "docid": "7303018882820735488",
        "url": "https://www.ixigua.com/7303018882820735488"
    },
    {
        "title": "不是阿根廷没救了，是整个南美都没救了",
        "docid": "7304878971647820338",
        "url": "https://www.ixigua.com/7304878971647820338"
    },
    {
        "title": "给二哈嘴里塞把麦芽糖，把傻狗牙齿黏自闭了！太好笑了！",
        "docid": "7277045119465816610",
        "url": "https://www.ixigua.com/7277045119465816610"
    },
    {
        "title": "咒术回战，乙骨实力达到T1级别，他能打败魔虚罗吗？",
        "docid": "7303520516248175119",
        "url": "https://www.ixigua.com/7303520516248175119"
    },
    {
        "title": "子弹爆头会发生什么？旋转穿过大脑实在可怕，子弹或在头骨下拐弯",
        "docid": "7274467591433912843",
        "url": "https://www.ixigua.com/7274467591433912843"
    },
    {
        "title": "剑圣不当人，抢怪又抢宝，对手：饶不了你！魔兽争霸3",
        "docid": "7285705390275166778",
        "url": "https://www.ixigua.com/7285705390275166778"
    },
    {
        "title": "第一次在舞台上和慧伦合唱《OK?OK！》",
        "docid": "7303177911627219456",
        "url": "https://www.ixigua.com/7303177911627219456"
    },
    {
        "title": "这就是少数民族的“血统压制”吗？开口瞬间得到救赎，太好听了",
        "docid": "7300835967211209253",
        "url": "https://www.ixigua.com/7300835967211209253"
    },
    {
        "title": "【阿旺】从3千万到30亿！回顾路飞悬赏金进化史！",
        "docid": "7295363273447670307",
        "url": "https://www.ixigua.com/7295363273447670307"
    },
    {
        "title": "他改写了LPL？从“骚猪”到“校长”，PDD的逐梦之旅《沉梦昂志》",
        "docid": "7276373577262662183",
        "url": "https://www.ixigua.com/7276373577262662183"
    },
    {
        "title": "睁开双眼便是地壳崩塌的末世，人性泯灭兽性爆发，好在房贷不用还",
        "docid": "7288932471989764619",
        "url": "https://www.ixigua.com/7288932471989764619"
    },
    {
        "title": "50万买个手动挡福克斯，开8千公里车贩子只出10万收？",
        "docid": "7300503780955685402",
        "url": "https://www.ixigua.com/7300503780955685402"
    },
    {
        "title": "零番队开挂了！友哈巴赫被迫开启圣别残杀同胞！死神千年血战25下",
        "docid": "7284731628406964793",
        "url": "https://www.ixigua.com/7284731628406964793"
    },
    {
        "title": "我寻思一只兔子能有多猛，直到看到它被用铁链拴了起来！",
        "docid": "7285309668518265363",
        "url": "https://www.ixigua.com/7285309668518265363"
    },
    {
        "title": "好色成性，却英明的要命",
        "docid": "7299702456651514408",
        "url": "https://www.ixigua.com/7299702456651514408"
    },
    {
        "title": "世界上最严重错误工程：耗费巨额资金，建成一笔烂账！中国占两个",
        "docid": "7283121955795173951",
        "url": "https://www.ixigua.com/7283121955795173951"
    },
    {
        "title": "第九代丰田凯美瑞优缺点 1分钟大实话！",
        "docid": "7302433682684379657",
        "url": "https://www.ixigua.com/7302433682684379657"
    },
    {
        "title": "5个混混怒闯江湖？！文牧野监制热血电视剧《似火流年》",
        "docid": "7303047936920060470",
        "url": "https://www.ixigua.com/7303047936920060470"
    },
    {
        "title": "鸣雏为什么争议大？一句话，鸣人喜欢雏田哪一点？",
        "docid": "7279852736361955899",
        "url": "https://www.ixigua.com/7279852736361955899"
    },
    {
        "title": "7级文明到底有多可怕?",
        "docid": "7300125867182260745",
        "url": "https://www.ixigua.com/7300125867182260745"
    },
    {
        "title": "邓肯接班人，年轻人这才叫顶级天赋！",
        "docid": "7288274253407846951",
        "url": "https://www.ixigua.com/7288274253407846951"
    },
    {
        "title": "明朝为什么被称为最硬气的王朝",
        "docid": "7231720758668591677",
        "url": "https://www.ixigua.com/7231720758668591677"
    },
    {
        "title": "历史上市值最高的那些公司（上）",
        "docid": "7117976342645342750",
        "url": "https://www.ixigua.com/7117976342645342750"
    },
    {
        "title": "《许三观卖血记》：为了别人的儿子卖血，差点把自己卖死",
        "docid": "7280098082573222454",
        "url": "https://www.ixigua.com/7280098082573222454"
    },
    {
        "title": "《好像也没那么热血沸腾》曝片段  麻园诗人献唱插曲《现在现在》",
        "docid": "7288603549830021651",
        "url": "https://www.ixigua.com/7288603549830021651"
    },
    {
        "title": "【小高姐】手抓饭",
        "docid": "7292044450967061029",
        "url": "https://www.ixigua.com/7292044450967061029"
    },
    {
        "title": "香港街唱《新贵妃醉酒》！戏腔引来各地游客",
        "docid": "7277863228716089891",
        "url": "https://www.ixigua.com/7277863228716089891"
    },
    {
        "title": "#凯文凯利宝贵的人生建议 被誉为“互联网教父",
        "docid": "7288537868061508107",
        "url": "https://www.ixigua.com/7288537868061508107"
    },
    {
        "title": "史上极诡异的分尸凶案，犯案当天在监狱服刑？白日梦都不敢这么做",
        "docid": "7277773404843803197",
        "url": "https://www.ixigua.com/7277773404843803197"
    },
    {
        "title": "外国版《独行月球》，给人不一样的感觉！",
        "docid": "7283765006611841592",
        "url": "https://www.ixigua.com/7283765006611841592"
    },
    {
        "title": "台湾小众乐队有多绝？一首热歌几十亿播放，你听过几首？",
        "docid": "7278115232722092579",
        "url": "https://www.ixigua.com/7278115232722092579"
    },
    {
        "title": "中国人口结构变化的几个趋势，哪些省份人口在净减少",
        "docid": "7303815397684281895",
        "url": "https://www.ixigua.com/7303815397684281895"
    },
    {
        "title": "在世界各信仰冲突下，如何找到人类起源的答案？普罗米修斯的启发",
        "docid": "7290813734971245111",
        "url": "https://www.ixigua.com/7290813734971245111"
    },
    {
        "title": "算法已经作恶到这地步了？【科技狐】",
        "docid": "7301214442669539852",
        "url": "https://www.ixigua.com/7301214442669539852"
    },
    {
        "title": "1996年，陈可辛用一部文艺片，第三次打败李连杰【港影风云】61期",
        "docid": "7302384240493396489",
        "url": "https://www.ixigua.com/7302384240493396489"
    },
    {
        "title": "犹太财团与马斯克的恩怨情仇",
        "docid": "7304242500892525090",
        "url": "https://www.ixigua.com/7304242500892525090"
    },
    {
        "title": "我拆塔专家刘禅，出亿点暴击打输出很合理啊！！",
        "docid": "7276739786352951820",
        "url": "https://www.ixigua.com/7276739786352951820"
    },
    {
        "title": "688斗牛大赛，谁才是真正的高手！",
        "docid": "7283817186539110973",
        "url": "https://www.ixigua.com/7283817186539110973"
    },
    {
        "title": "6天5夜的噩梦！这起中国第一跨境追捕案，令人毛骨悚然！",
        "docid": "7293728809436742171",
        "url": "https://www.ixigua.com/7293728809436742171"
    },
    {
        "title": "老周：我骨子里看不起很多人",
        "docid": "7297174087380664868",
        "url": "https://www.ixigua.com/7297174087380664868"
    },
    {
        "title": "送女友一套新房，她感动得快哭了....",
        "docid": "7300108187401716258",
        "url": "https://www.ixigua.com/7300108187401716258"
    },
    {
        "title": "赵子龙七进七出救阿斗，血战长坂坡一战封神，他的枪术到底有多强",
        "docid": "7275375126206480933",
        "url": "https://www.ixigua.com/7275375126206480933"
    },
    {
        "title": "刘备是仁义还是虚伪？在张松献图时，庞统就看清楚了",
        "docid": "7295680265991488039",
        "url": "https://www.ixigua.com/7295680265991488039"
    },
    {
        "title": "办婚礼的钱到底去哪了？",
        "docid": "7291515180050022952",
        "url": "https://www.ixigua.com/7291515180050022952"
    },
    {
        "title": "被喂胖的网红狼，能带“小弟”了！它会成为下个峨眉山猴子吗？",
        "docid": "7297893082819723786",
        "url": "https://www.ixigua.com/7297893082819723786"
    },
    {
        "title": "硬捧流量，离谱策划，尬炒情怀，王牌对王牌还能走多远？",
        "docid": "7299264872096334345",
        "url": "https://www.ixigua.com/7299264872096334345"
    },
    {
        "title": "你会在房价下跌的时候离婚吗？",
        "docid": "7281573604876091940",
        "url": "https://www.ixigua.com/7281573604876091940"
    },
    {
        "title": "被誉为“日不落帝国”的大英帝国，究竟是如何衰落的？",
        "docid": "7291224610589442619",
        "url": "https://www.ixigua.com/7291224610589442619"
    },
    {
        "title": "都说日系车要凉！这台丰田保值神车还保值吗？",
        "docid": "7289364156124234279",
        "url": "https://www.ixigua.com/7289364156124234279"
    },
    {
        "title": "吕良的三尸为何少一尸？米二给双全手挖了个大坑",
        "docid": "7294581290957963826",
        "url": "https://www.ixigua.com/7294581290957963826"
    },
    {
        "title": "他每年骗马云10亿，马云却要谢他？",
        "docid": "7301895703486595622",
        "url": "https://www.ixigua.com/7301895703486595622"
    },
    {
        "title": "婚礼是年轻人的双输",
        "docid": "7291856136838480393",
        "url": "https://www.ixigua.com/7291856136838480393"
    },
    {
        "title": "泰森富里真的那么不堪吗？不要忘了，他曾终结克里琴科KO维尔德",
        "docid": "7296374984262451752",
        "url": "https://www.ixigua.com/7296374984262451752"
    },
    {
        "title": "真实锐评《这就是街舞6》队长大秀，建议重开",
        "docid": "7297994398099309119",
        "url": "https://www.ixigua.com/7297994398099309119"
    },
    {
        "title": "被失踪！外婆去世向球队请假，魔术竟宣布奥尼尔失踪，咋想的啊？",
        "docid": "7290922768193978919",
        "url": "https://www.ixigua.com/7290922768193978919"
    },
    {
        "title": "妈！买台6缸法拉利吧，省油",
        "docid": "7236256541953753656",
        "url": "https://www.ixigua.com/7236256541953753656"
    },
    {
        "title": "为什么C Block能成为中国风代表团体，C Block背后的故事",
        "docid": "7296353849944572416",
        "url": "https://www.ixigua.com/7296353849944572416"
    },
    {
        "title": "刘氏父子专克猴是吧",
        "docid": "7300506852901519887",
        "url": "https://www.ixigua.com/7300506852901519887"
    },
    {
        "title": "【大鹏德州扑克】AKvsKK！刘宣能否拿下巨额彩池？",
        "docid": "7298232335135310346",
        "url": "https://www.ixigua.com/7298232335135310346"
    },
    {
        "title": "没了韵味和灵魂 1分钟点评新皇冠 还值不值得买？",
        "docid": "7302363873716535820",
        "url": "https://www.ixigua.com/7302363873716535820"
    },
    {
        "title": "御剑飞行，外星科技加东方仙法，擎天柱瞬秒威震天",
        "docid": "7283731889846747663",
        "url": "https://www.ixigua.com/7283731889846747663"
    },
    {
        "title": "勇敢一点 你比想象的更好！",
        "docid": "7279349012078166562",
        "url": "https://www.ixigua.com/7279349012078166562"
    },
    {
        "title": "全民炒股炒币，韩国人为何痴迷投资？",
        "docid": "7299739374084850203",
        "url": "https://www.ixigua.com/7299739374084850203"
    },
    {
        "title": "谷村新司为何是港乐半壁江山？缅怀日本国宝级歌手，中国的老朋友",
        "docid": "7291143415398400512",
        "url": "https://www.ixigua.com/7291143415398400512"
    },
    {
        "title": "买了台奔驰S 却被同事嘲笑?",
        "docid": "7294210280001798708",
        "url": "https://www.ixigua.com/7294210280001798708"
    },
    {
        "title": "有人就有恩怨，有恩怨就有江湖。人就是江湖，你怎么退出",
        "docid": "7300065130418143807",
        "url": "https://www.ixigua.com/7300065130418143807"
    },
    {
        "title": "【九边】小镇做题家没选择",
        "docid": "7289004005357781515",
        "url": "https://www.ixigua.com/7289004005357781515"
    },
    {
        "title": "千万不要幻想用短棍硬刚刀具，能跑一定要跑！",
        "docid": "7284179784173945402",
        "url": "https://www.ixigua.com/7284179784173945402"
    },
    {
        "title": "40万国产MPV吊打埃尔法，二手比亚迪腾势D9值不值？",
        "docid": "7241135644766896680",
        "url": "https://www.ixigua.com/7241135644766896680"
    },
    {
        "title": "《鹊刀门》大结局来了！酣畅淋漓，令人回味无穷！",
        "docid": "7281623422742823435",
        "url": "https://www.ixigua.com/7281623422742823435"
    },
    {
        "title": "波兰发展到今天，实力有多强？波兰：就是俄罗斯来了也得喝上一壶",
        "docid": "7289373911760929295",
        "url": "https://www.ixigua.com/7289373911760929295"
    },
    {
        "title": "李世民3500骑如何击垮敌军10万？虎牢关之战（上）一战擒双王",
        "docid": "7278951197921247779",
        "url": "https://www.ixigua.com/7278951197921247779"
    },
    {
        "title": "工作日下午逛梧桐区的人是干嘛的？",
        "docid": "7294498401842889257",
        "url": "https://www.ixigua.com/7294498401842889257"
    },
    {
        "title": "前浙江女首富周晓光亲述（下）：不为人知的暴雷内幕与重整心路",
        "docid": "7291254037519794728",
        "url": "https://www.ixigua.com/7291254037519794728"
    },
    {
        "title": "日本的疯狂造舰计划，曾提出过50万吨级战列舰",
        "docid": "7278944652022317625",
        "url": "https://www.ixigua.com/7278944652022317625"
    },
    {
        "title": "16分钟了解唐末五代第一猛将李存孝被车裂的全过程【新五代23】",
        "docid": "7290026250179969572",
        "url": "https://www.ixigua.com/7290026250179969572"
    },
    {
        "title": "年轻人是否应该离开北上广深？冯仑：我依然会选择大城市",
        "docid": "7301974354194399807",
        "url": "https://www.ixigua.com/7301974354194399807"
    },
    {
        "title": "不虐员工虐高管！他如何把公司“虐”出了数亿估值美金",
        "docid": "7276764200616231460",
        "url": "https://www.ixigua.com/7276764200616231460"
    },
    {
        "title": "谢谢林雪 来青岛当我的演唱会嘉宾❤️ 心太软 +浪子心声",
        "docid": "7264893818049462844",
        "url": "https://www.ixigua.com/7264893818049462844"
    },
    {
        "title": "好物分享｜山东大哥卖鸡爪，30道工序屠宰，100个工人脱骨，2000斤大罐腌制",
        "docid": "7276737293954908728",
        "url": "https://www.ixigua.com/7276737293954908728"
    },
    {
        "title": "裸辞一年，我把公司开到了前公司隔壁",
        "docid": "7277117254477546044",
        "url": "https://www.ixigua.com/7277117254477546044"
    },
    {
        "title": "怀疑幕后黑手 官官相护 操控舆论“鲶鱼”事件 实话实说又如何",
        "docid": "7279034288161423872",
        "url": "https://www.ixigua.com/7279034288161423872"
    },
    {
        "title": "车子一撞发动机就掉出来了，这车真的很差吗？是厂家偷工减料吗？",
        "docid": "7276365981512335931",
        "url": "https://www.ixigua.com/7276365981512335931"
    },
    {
        "title": "卷完手机后，为什么华为开始卷旗舰店了？",
        "docid": "7295973539948659227",
        "url": "https://www.ixigua.com/7295973539948659227"
    },
    {
        "title": "房价不再设限！土拍恢复“价高者得”后会诞生新地王吗?",
        "docid": "7305037184762348083",
        "url": "https://www.ixigua.com/7305037184762348083"
    },
    {
        "title": "揭秘主播真实收入！仅0.4%主播月入10万元以上，普通人能逆袭吗？",
        "docid": "7290867246849753658",
        "url": "https://www.ixigua.com/7290867246849753658"
    },
    {
        "title": "大结局：乾隆含泪诛杀卢焯，百官跪地为他送行，清贫一世糊涂一时",
        "docid": "7299398697165685287",
        "url": "https://www.ixigua.com/7299398697165685287"
    },
    {
        "title": "小囿去收了两箱青蟹，母的比公的肥卖150一斤，留几只来吃真美味",
        "docid": "7298935615905595904",
        "url": "https://www.ixigua.com/7298935615905595904"
    },
    {
        "title": "从摆地摊到年营收2亿，85后小夫妻靠卖杯子跨越阶层！#程前",
        "docid": "7296059700595196431",
        "url": "https://www.ixigua.com/7296059700595196431"
    },
    {
        "title": "排队抢购，拆解手机，华为Mate60不是“真5G”，为何还引起轰动？",
        "docid": "7273064779521262117",
        "url": "https://www.ixigua.com/7273064779521262117"
    },
    {
        "title": "上海滩黑帮高手“马永贞”，横扫斧头帮成老大，真人真事改编电影",
        "docid": "7284557012544062007",
        "url": "https://www.ixigua.com/7284557012544062007"
    },
    {
        "title": "攒不下钱？6种消费陷阱在不知不觉中掏空你的钱包，赶紧戒掉！",
        "docid": "7288158692015997474",
        "url": "https://www.ixigua.com/7288158692015997474"
    },
    {
        "title": "初代日不落帝国的自由落体式衰落 西班牙为啥变得这么糟糕？",
        "docid": "7289378501780898339",
        "url": "https://www.ixigua.com/7289378501780898339"
    },
    {
        "title": "【张捷杂谈】男人结婚没有性权力却有性义务，那谁还有结婚的动机",
        "docid": "7276856420975247931",
        "url": "https://www.ixigua.com/7276856420975247931"
    },
    {
        "title": "东方朔当起双面间谍，暗中给汉武帝出谋划策，彻底架空窦太后！",
        "docid": "7278621369309495849",
        "url": "https://www.ixigua.com/7278621369309495849"
    },
    {
        "title": "中国好声音：谢霆锋唱传奇，李健听上头了",
        "docid": "7243242029839286844",
        "url": "https://www.ixigua.com/7243242029839286844"
    },
    {
        "title": "小岛连发命案，明知凶手身份却新案不断，只因嫌犯智商太高！",
        "docid": "7297238348375327295",
        "url": "https://www.ixigua.com/7297238348375327295"
    },
    {
        "title": "最懂经济，最牛叉的经济学家竟然是你丈母娘。",
        "docid": "7276292525768639028",
        "url": "https://www.ixigua.com/7276292525768639028"
    },
    {
        "title": "谁能逃过死神的绝命追杀？",
        "docid": "7288971784853193271",
        "url": "https://www.ixigua.com/7288971784853193271"
    },
    {
        "title": "黄家驹，张学友，刘德华，1993年的香港乐坛，堪称神仙打架 ！",
        "docid": "7257853981123805730",
        "url": "https://www.ixigua.com/7257853981123805730"
    },
    {
        "title": "博士杀死蜗牛被判3年？肥美的非洲佳肴，中国怎么就没人想吃？",
        "docid": "7299362369560707636",
        "url": "https://www.ixigua.com/7299362369560707636"
    },
    {
        "title": "华晨宇：那些“说”我的，我都知道",
        "docid": "7280777014901277220",
        "url": "https://www.ixigua.com/7280777014901277220"
    },
    {
        "title": "听我一句劝，不要和父母透露你的真实收入！那是你财富亏损的开始",
        "docid": "7274237550238106172",
        "url": "https://www.ixigua.com/7274237550238106172"
    },
    {
        "title": "最后，上海人都来到了虹口公园",
        "docid": "7291204490177282575",
        "url": "https://www.ixigua.com/7291204490177282575"
    },
    {
        "title": "拳皇95：刺客天秀机炮拳56连，又能吹8个月了！",
        "docid": "7285194872980668985",
        "url": "https://www.ixigua.com/7285194872980668985"
    },
    {
        "title": "大结局：李陵洗清冤屈，东方朔功成身退，汉武帝刘彻功在千秋！",
        "docid": "7280840744040923682",
        "url": "https://www.ixigua.com/7280840744040923682"
    },
    {
        "title": "北证50大涨背后的原因！",
        "docid": "7305011405143573046",
        "url": "https://www.ixigua.com/7305011405143573046"
    },
    {
        "title": "深度揭秘“二手奢侈品”！是坑？真的值得买吗？",
        "docid": "7289685494047507000",
        "url": "https://www.ixigua.com/7289685494047507000"
    },
    {
        "title": "这一回合，典韦也疯狂不起来了",
        "docid": "7281558190825669131",
        "url": "https://www.ixigua.com/7281558190825669131"
    },
    {
        "title": "王波明激辩刘纪鹏： “一股独大”是股市之痛吗？(上）",
        "docid": "7291604104718221862",
        "url": "https://www.ixigua.com/7291604104718221862"
    },
    {
        "title": "海鲜奸商大胆揭秘，直播间99元4.5斤的野生虾，就是智商税",
        "docid": "7278623133286793740",
        "url": "https://www.ixigua.com/7278623133286793740"
    },
    {
        "title": "哥哥被神秘组织杀害，弟弟从少林出山，一人血洗江湖，动作",
        "docid": "7280850013742334527",
        "url": "https://www.ixigua.com/7280850013742334527"
    },
    {
        "title": "「乐评」家人们谁懂啊，王心凌新歌MV是在演电影吗？",
        "docid": "7305001707564433959",
        "url": "https://www.ixigua.com/7305001707564433959"
    },
    {
        "title": "莫迪重磅改革，能改变印度得国运吗？（上集）",
        "docid": "7284410555815854649",
        "url": "https://www.ixigua.com/7284410555815854649"
    },
    {
        "title": "德国有多少中国骗子？多到无法想象",
        "docid": "7298280259307340298",
        "url": "https://www.ixigua.com/7298280259307340298"
    },
    {
        "title": "孙权要罢免周瑜，吴国太出面训斥：你以为你是曹操吗",
        "docid": "7280836102990004748",
        "url": "https://www.ixigua.com/7280836102990004748"
    },
    {
        "title": "超级联赛1——三条街！Dwan鸡贼的蹲了Hellmuth三条街？",
        "docid": "7305434895315108404",
        "url": "https://www.ixigua.com/7305434895315108404"
    },
    {
        "title": "窦太后跟刘彻斗的你死我活，气得双目失明，东方朔两个字拯救她！",
        "docid": "7276026227159368248",
        "url": "https://www.ixigua.com/7276026227159368248"
    },
    {
        "title": "细看《金瓶梅》中的潘金莲，让人绝望，真实到骨子的人性奇书",
        "docid": "7285001412121985591",
        "url": "https://www.ixigua.com/7285001412121985591"
    },
    {
        "title": "侍魂2：全国冠军与世界冠军的奇葩秀，各种意外比获胜更好看！",
        "docid": "7303516271700607551",
        "url": "https://www.ixigua.com/7303516271700607551"
    },
    {
        "title": "“你们差点就防住我了”，这才是人类跳投天花板！",
        "docid": "7297547855210906152",
        "url": "https://www.ixigua.com/7297547855210906152"
    },
    {
        "title": "男人暗杀失败惨遭报复，孤军奋战开启反向追杀！",
        "docid": "7304595557010375168",
        "url": "https://www.ixigua.com/7304595557010375168"
    },
    {
        "title": "为何在海上渴死也不能喝海水，只是因为咸？把海水烧干后就明白了",
        "docid": "7296845602888155674",
        "url": "https://www.ixigua.com/7296845602888155674"
    },
    {
        "title": "拳皇95：刺客高能罕见大鱼吃小鱼，这一把可以吹7个月！",
        "docid": "7287552250447135266",
        "url": "https://www.ixigua.com/7287552250447135266"
    },
    {
        "title": "《时光音乐会》杀疯了！消失的歌手集体回归，狠狠拿捏8090后！",
        "docid": "7304584236797952566",
        "url": "https://www.ixigua.com/7304584236797952566"
    },
    {
        "title": "天生领袖，未来的世一中！",
        "docid": "7284555695146893863",
        "url": "https://www.ixigua.com/7284555695146893863"
    },
    {
        "title": "哈哈哈哈哈哈亮哥：我不在也能被踹是吧？ #王栎鑫回应老来俏",
        "docid": "7299881101273924105",
        "url": "https://www.ixigua.com/7299881101273924105"
    },
    {
        "title": "吕布最高真伤，一个大招9676真伤，即将破万！",
        "docid": "7285593022543495735",
        "url": "https://www.ixigua.com/7285593022543495735"
    },
    {
        "title": "「乐评」周杰伦“往事不堪回首”竟是命运齿轮转动开始",
        "docid": "7287918289777328679",
        "url": "https://www.ixigua.com/7287918289777328679"
    },
    {
        "title": "改版后的玄策打野，为什么很强",
        "docid": "7304934154914365992",
        "url": "https://www.ixigua.com/7304934154914365992"
    },
    {
        "title": "苹果发布会上0-4的墨子，也太丢人啦。#苹果发布会",
        "docid": "7278148020112196115",
        "url": "https://www.ixigua.com/7278148020112196115"
    },
    {
        "title": "假如你突然化身杜兰特",
        "docid": "7285926530683765248",
        "url": "https://www.ixigua.com/7285926530683765248"
    },
    {
        "title": "锡安的鞋：生而为鞋，我本不该承受如此压力...",
        "docid": "7305295380118405672",
        "url": "https://www.ixigua.com/7305295380118405672"
    },
    {
        "title": "小老板们了解中江塔嘛？  #大司马",
        "docid": "7291980723215893003",
        "url": "https://www.ixigua.com/7291980723215893003"
    },
    {
        "title": "关羽在麦城被杀，一生经历九大高光时刻，只可惜死于鼠辈之手",
        "docid": "7306408455962067507",
        "url": "https://www.ixigua.com/7306408455962067507"
    },
    {
        "title": "双11宝藏跑鞋抄底清单！7双不同价位精选",
        "docid": "7296353201484694068",
        "url": "https://www.ixigua.com/7296353201484694068"
    },
    {
        "title": "我不是联盟第一控卫，我只负责把第一控卫送回家！",
        "docid": "7299781960589967872",
        "url": "https://www.ixigua.com/7299781960589967872"
    },
    {
        "title": "【女武神原创】济颠VS荷鲁斯，未见疾苦怎称梵行，所谓的活佛",
        "docid": "7273780600132239930",
        "url": "https://www.ixigua.com/7273780600132239930"
    },
    {
        "title": "东北大鹌鹑：敌我伊泽瑞尔的较量，到底谁更胜一筹",
        "docid": "7285561530421084731",
        "url": "https://www.ixigua.com/7285561530421084731"
    },
    {
        "title": "玄策打辅助超越钟馗，只要中钩子，神仙也难逃！",
        "docid": "7303469304240931362",
        "url": "https://www.ixigua.com/7303469304240931362"
    },
    {
        "title": "特斯拉再出事，连撞11车，智能汽车真的是现在“老司机”需求吗？",
        "docid": "7306470560493077055",
        "url": "https://www.ixigua.com/7306470560493077055"
    },
    {
        "title": "特鲁姆普神仙球来了！为了破百也是拼了",
        "docid": "7306161740944048678",
        "url": "https://www.ixigua.com/7306161740944048678"
    },
    {
        "title": "历代皇帝最佳饰演者，秦朝至三国篇",
        "docid": "7289751217490788901",
        "url": "https://www.ixigua.com/7289751217490788901"
    },
    {
        "title": "“六界”歌手都有谁？这6位在自己统治区封神，开口就是那味儿",
        "docid": "7304931614381998632",
        "url": "https://www.ixigua.com/7304931614381998632"
    },
    {
        "title": "和黑哨通话134次，警方查他！最差裁判福斯特，凭什么屹立NBA不倒",
        "docid": "7304669367697211945",
        "url": "https://www.ixigua.com/7304669367697211945"
    },
    {
        "title": "中 路 上 分 现 状",
        "docid": "7297181784511513100",
        "url": "https://www.ixigua.com/7297181784511513100"
    },
    {
        "title": "一个人是怎样成长起来的？",
        "docid": "7305336748345819684",
        "url": "https://www.ixigua.com/7305336748345819684"
    },
    {
        "title": "大小相差10亿倍！这颗100年无花果树，却要靠一只小蜂才能存活",
        "docid": "7306408409547407911",
        "url": "https://www.ixigua.com/7306408409547407911"
    },
    {
        "title": "“音痴”一开口，“歌手”都找不到调，周深：你是在搞笑吗？",
        "docid": "7306426248471937599",
        "url": "https://www.ixigua.com/7306426248471937599"
    },
    {
        "title": "《亚运名人堂》之刘翔亚运会勇夺三连冠！",
        "docid": "7280775615308169767",
        "url": "https://www.ixigua.com/7280775615308169767"
    },
    {
        "title": "无脑、投流、暴利：短剧一天赚1亿，剧组挤爆横店",
        "docid": "7306380340200342070",
        "url": "https://www.ixigua.com/7306380340200342070"
    },
    {
        "title": "弹窗开屏摇一摇、互联网流氓广告是如何进化的？",
        "docid": "7306357961432302116",
        "url": "https://www.ixigua.com/7306357961432302116"
    },
    {
        "title": "16岁神童博士过得不好？ 学校要完成孩子的社会化",
        "docid": "7281458830322762298",
        "url": "https://www.ixigua.com/7281458830322762298"
    },
    {
        "title": "为何全网都在抢张志磊？首位黄种人重量级拳王，创造历史衣锦还乡",
        "docid": "7285705403324138041",
        "url": "https://www.ixigua.com/7285705403324138041"
    },
    {
        "title": "中国电诈在缅北，世界电诈在印度",
        "docid": "7306355365279597056",
        "url": "https://www.ixigua.com/7306355365279597056"
    },
    {
        "title": "“今天开始就是自己人了”当低智男生想学骑自行车，小哥哥这样说",
        "docid": "7306047530192765466",
        "url": "https://www.ixigua.com/7306047530192765466"
    },
    {
        "title": "【大鹏德州扑克】刘宣变身幸运女神！卡后门顺，一张就到！",
        "docid": "7298235501658669604",
        "url": "https://www.ixigua.com/7298235501658669604"
    },
    {
        "title": "啥？这石头价值600万？确定？",
        "docid": "7297198514327519756",
        "url": "https://www.ixigua.com/7297198514327519756"
    },
    {
        "title": "如果，美国加息到20%……",
        "docid": "7306378645528904227",
        "url": "https://www.ixigua.com/7306378645528904227"
    },
    {
        "title": "中国第一省是广东，世界第一强省加州，实力有多强悍？",
        "docid": "7302724938085958156",
        "url": "https://www.ixigua.com/7302724938085958156"
    },
    {
        "title": "击败了老年阿里被泰森一拳KO！霍姆斯配得上时代王者这个称号吗？",
        "docid": "7293074077219029567",
        "url": "https://www.ixigua.com/7293074077219029567"
    },
    {
        "title": "初晓敏：抢先试驾智界S7 |聚光电场",
        "docid": "7306358720546636324",
        "url": "https://www.ixigua.com/7306358720546636324"
    },
    {
        "title": "如果大狗伤人，美国人会怎么办？",
        "docid": "7297498533333205504",
        "url": "https://www.ixigua.com/7297498533333205504"
    },
    {
        "title": "明白了李元芳打野的抓人思路，轻松一波拿下",
        "docid": "7306318326010282511",
        "url": "https://www.ixigua.com/7306318326010282511"
    },
    {
        "title": "爸爸病死，哥哥被车撞死，马瑟林的人生一直都需要证明才能存在！",
        "docid": "7299859720326775335",
        "url": "https://www.ixigua.com/7299859720326775335"
    },
    {
        "title": "工作日下午在外面逛街的人是干嘛的？",
        "docid": "7304919670186836532",
        "url": "https://www.ixigua.com/7304919670186836532"
    },
    {
        "title": "品一品王自如对董明珠说的那番话：看似低劣的马屁，实则极其高明",
        "docid": "7301676936135344675",
        "url": "https://www.ixigua.com/7301676936135344675"
    },
    {
        "title": "这届小孩哥太厉害了，在海拔4200+的地方唱跳RAP，台风猛的一批",
        "docid": "7290450736444342819",
        "url": "https://www.ixigua.com/7290450736444342819"
    },
    {
        "title": "年少不知有林皇，错把.......#林加德 #足球",
        "docid": "7293449140950958627",
        "url": "https://www.ixigua.com/7293449140950958627"
    },
    {
        "title": "山姆所代表的仓储会员制，是否会取代传统超市？",
        "docid": "7296373757013459468",
        "url": "https://www.ixigua.com/7296373757013459468"
    },
    {
        "title": "海洋间谍：雄性大翅鲸暴力求爱，雌性大翅鲸极力反抗",
        "docid": "7249949093303321127",
        "url": "https://www.ixigua.com/7249949093303321127"
    },
    {
        "title": "曹操调集5万大军操练，想把张松吓走，不想张松转头去找刘备",
        "docid": "7294930372393959936",
        "url": "https://www.ixigua.com/7294930372393959936"
    },
    {
        "title": "上海路人觉得工作到几岁才能存到10万元？",
        "docid": "7303837594654081551",
        "url": "https://www.ixigua.com/7303837594654081551"
    },
    {
        "title": "最完美的复仇，是用实力征服霸凌者！",
        "docid": "7298289775210037798",
        "url": "https://www.ixigua.com/7298289775210037798"
    },
    {
        "title": "《王牌》有多捧华晨宇？流量热歌全让他翻唱，却多次现场翻车！",
        "docid": "7304092781880967732",
        "url": "https://www.ixigua.com/7304092781880967732"
    },
    {
        "title": "自由美利坚沦为地狱？是谁捂住了她们的嘴巴！",
        "docid": "7305278885904515599",
        "url": "https://www.ixigua.com/7305278885904515599"
    },
    {
        "title": "上海《35元酒店VS3500元酒店》重庆《17元酒店VS1700酒店》炸裂",
        "docid": "7286377523808567865",
        "url": "https://www.ixigua.com/7286377523808567865"
    },
    {
        "title": "麦迪不理解，打CBA为何先笔试，领先5分中国教练为嘛叫暂停？",
        "docid": "7280565719450780218",
        "url": "https://www.ixigua.com/7280565719450780218"
    },
    {
        "title": "#亚运会 电竞金牌花落谁家",
        "docid": "7282704940047598141",
        "url": "https://www.ixigua.com/7282704940047598141"
    },
    {
        "title": "她预知了自己的危险，却无法逃脱，最终被刺71刀",
        "docid": "7304563555415228979",
        "url": "https://www.ixigua.com/7304563555415228979"
    },
    {
        "title": "外国人看得懂中国喜剧巅峰《功夫》吗？她说被征服了！",
        "docid": "7292041329301783080",
        "url": "https://www.ixigua.com/7292041329301783080"
    },
    {
        "title": "歌都“烂大街”了，却没人知道她们长啥样？歌火人不火太惨了！",
        "docid": "7277399391604998715",
        "url": "https://www.ixigua.com/7277399391604998715"
    },
    {
        "title": "拍了20多年，阿汤哥已成真特工",
        "docid": "7283409101562839563",
        "url": "https://www.ixigua.com/7283409101562839563"
    },
    {
        "title": "一代武圣关羽被杀，临死前大骂孙权贼子，拒绝投降慷慨赴死",
        "docid": "7306399474602115647",
        "url": "https://www.ixigua.com/7306399474602115647"
    },
    {
        "title": "锐评《这就是街舞6》队长名单！绝对没水货！",
        "docid": "7281246706342363659",
        "url": "https://www.ixigua.com/7281246706342363659"
    },
    {
        "title": "一口气看懂战国四大公子",
        "docid": "7249885232235708986",
        "url": "https://www.ixigua.com/7249885232235708986"
    },
    {
        "title": "在东北，各车型的女车主都是啥样人？保时捷女车主、奔驰C女车主",
        "docid": "7275178241017676349",
        "url": "https://www.ixigua.com/7275178241017676349"
    },
    {
        "title": "一个被游戏，改变命运的球员！",
        "docid": "7300884098703163915",
        "url": "https://www.ixigua.com/7300884098703163915"
    },
    {
        "title": "我偶尔还是会想#让世界暂停一分钟  但今晚先让我进入你们的噩梦",
        "docid": "7297624559405793801",
        "url": "https://www.ixigua.com/7297624559405793801"
    },
    {
        "title": "自来也为什么这么招人喜欢，总结只有4个字，真大豪杰也",
        "docid": "7277413463515890187",
        "url": "https://www.ixigua.com/7277413463515890187"
    },
    {
        "title": "马东又给郭京飞挖坑，看他怎么圆回来",
        "docid": "7234025589215724088",
        "url": "https://www.ixigua.com/7234025589215724088"
    },
    {
        "title": "这一战维尔德上演暴力秒杀！多亏裁判及时终止，否则后果不堪设想",
        "docid": "7298636633979650594",
        "url": "https://www.ixigua.com/7298636633979650594"
    },
    {
        "title": "外国音乐人第一次听伍佰，如何评价摇滚诗人？",
        "docid": "7293835234062107170",
        "url": "https://www.ixigua.com/7293835234062107170"
    },
    {
        "title": "红衣杀手是内功高手，绝技大开空门一掌能打死一人，却败给弱女子",
        "docid": "7296429823080006156",
        "url": "https://www.ixigua.com/7296429823080006156"
    },
    {
        "title": "唠唠理想汽车“理想”值不值得买？",
        "docid": "7303091528191345204",
        "url": "https://www.ixigua.com/7303091528191345204"
    },
    {
        "title": "降维打击，内线第一人，这才是FMVP级别中锋！",
        "docid": "7302369368283972096",
        "url": "https://www.ixigua.com/7302369368283972096"
    },
    {
        "title": "谁说才华不能战胜资本？盘点那些年靠实力，拿下“冠军”的歌手！",
        "docid": "7301506993184113171",
        "url": "https://www.ixigua.com/7301506993184113171"
    },
    {
        "title": "奥尼尔：韦斯特没干那件事，骑士八卦我都知道，但詹姆斯确实很迷",
        "docid": "7293584472778211881",
        "url": "https://www.ixigua.com/7293584472778211881"
    },
    {
        "title": "鬼卞为什么消失了，他到底发生了什么，他为什么没上巅峰对决",
        "docid": "7293870312192639542",
        "url": "https://www.ixigua.com/7293870312192639542"
    },
    {
        "title": "一个视频，看佐助在四战中的表现",
        "docid": "7295058647212622376",
        "url": "https://www.ixigua.com/7295058647212622376"
    },
    {
        "title": "🎵一月的冷空气 总会让我想起 我的手被你握紧 偷偷放口袋里…",
        "docid": "7300204270778122804",
        "url": "https://www.ixigua.com/7300204270778122804"
    },
    {
        "title": "斗地主：阿酒夺冠封神局！最牛的幕后英雄！山东好哥哥秋季赛冠军",
        "docid": "7295917956654236211",
        "url": "https://www.ixigua.com/7295917956654236211"
    },
    {
        "title": "关羽刮骨疗毒是真的吗？华佗为何不用麻沸散？二爷真不是一般人",
        "docid": "7304212973944799783",
        "url": "https://www.ixigua.com/7304212973944799783"
    },
    {
        "title": "郭靖鏖战五大高手，降龙十八掌横扫三万精兵，简直强的离谱",
        "docid": "7305327202034582057",
        "url": "https://www.ixigua.com/7305327202034582057"
    },
    {
        "title": "安东尼初生牛犊，1v1詹姆斯打不过我，联盟抢走了我的最佳新秀！",
        "docid": "7283801339480670780",
        "url": "https://www.ixigua.com/7283801339480670780"
    },
    {
        "title": "高音炸裂的存在—KTV必点曲目《拯救》",
        "docid": "7293802079267750400",
        "url": "https://www.ixigua.com/7293802079267750400"
    },
    {
        "title": "英国博主：随便秀秀我在中国的幸福生活吧",
        "docid": "7303851205661458944",
        "url": "https://www.ixigua.com/7303851205661458944"
    },
    {
        "title": "隋唐第二宇文成都VS隋唐第五伍云召！宇文成都表示：无敌很寂寞！",
        "docid": "7274169734608880164",
        "url": "https://www.ixigua.com/7274169734608880164"
    },
    {
        "title": "中投永不过时，论当代第一分卫还得看德文·布克！",
        "docid": "7301256793592857097",
        "url": "https://www.ixigua.com/7301256793592857097"
    },
    {
        "title": "时光的最后一集，祝大家都有个海阔天空的明天！ #时光音乐会",
        "docid": "7305399360320176659",
        "url": "https://www.ixigua.com/7305399360320176659"
    },
    {
        "title": "王昱珩：清华毕业20年不上班，协助警方破案，回顾他的封神之战",
        "docid": "7284559781157831203",
        "url": "https://www.ixigua.com/7284559781157831203"
    },
    {
        "title": "这玩意凭什么火了1900年？",
        "docid": "7280475669975269948",
        "url": "https://www.ixigua.com/7280475669975269948"
    },
    {
        "title": "广州车展：日系车都有钢板，没有的却是自主品牌",
        "docid": "7303776996595712546",
        "url": ""
    },
    {
        "title": "草根逆袭当上NBA主帅，进更衣室就打包吃的，为骗球员500块跳水池",
        "docid": "7305400023783572031",
        "url": "https://www.ixigua.com/7305400023783572031"
    },
    {
        "title": "撒贝宁：我就随便唱唱，怎么把伍佰20年前歌带火了？",
        "docid": "7302343112305672738",
        "url": "https://www.ixigua.com/7302343112305672738"
    },
    {
        "title": "一个视频，看鸣人在四战的所有表现",
        "docid": "7293137436748710411",
        "url": "https://www.ixigua.com/7293137436748710411"
    },
    {
        "title": "一口气看懂 五代风云",
        "docid": "7295940168387658276",
        "url": "https://www.ixigua.com/7295940168387658276"
    },
    {
        "title": "成功没有偶然！回顾中国重量级拳王张志磊的拳击之路",
        "docid": "7280834705082024507",
        "url": "https://www.ixigua.com/7280834705082024507"
    },
    {
        "title": "胡歌：既然活了下来，就不能白白活着",
        "docid": "7283406423025943098",
        "url": "https://www.ixigua.com/7283406423025943098"
    },
    {
        "title": "单雄信御果园追杀李世民，却被尉迟恭一鞭打翻：报仇没希望了！",
        "docid": "7277494981806260751",
        "url": "https://www.ixigua.com/7277494981806260751"
    },
    {
        "title": "”他选择了快到模糊的变向过人“",
        "docid": "7285573495533077033",
        "url": "https://www.ixigua.com/7285573495533077033"
    },
    {
        "title": "邓紫棋又杀疯了！翻唱《11》吊打网红百万修音，原唱尴尬了",
        "docid": "7296773468748841523",
        "url": "https://www.ixigua.com/7296773468748841523"
    },
    {
        "title": "我给张靓颖吃作死版满汉全席！我感觉我会被打！",
        "docid": "7291229182233838132",
        "url": "https://www.ixigua.com/7291229182233838132"
    },
    {
        "title": "罗成巅峰一战，日锁五龙威震天下，大唐统一天下势不可挡！",
        "docid": "7277495307619959335",
        "url": "https://www.ixigua.com/7277495307619959335"
    },
    {
        "title": "富二代科比加入湖人，初代OK组合连遭横扫，奥尼尔怒拆小便池泄愤",
        "docid": "7291615822920090150",
        "url": "https://www.ixigua.com/7291615822920090150"
    },
    {
        "title": "燃炸，巴黎街头，国乐快闪！仙侠氛围，直接拉满！#琵琶 #古筝",
        "docid": "7304916329423864354",
        "url": "https://www.ixigua.com/7304916329423864354"
    },
    {
        "title": "我后悔来中国，不是中国不好！78岁诺基亚退休副总：我对不起父母",
        "docid": "7297177654875128374",
        "url": "https://www.ixigua.com/7297177654875128374"
    },
    {
        "title": "美国男子参加节目录制，在摄像机的注视下，利用漏洞连续中奖40次",
        "docid": "7306367956215300649",
        "url": "https://www.ixigua.com/7306367956215300649"
    },
    {
        "title": "失业歌手 之 我参加过 超级男生 碎碎念 6",
        "docid": "7303475668313080354",
        "url": "https://www.ixigua.com/7303475668313080354"
    },
    {
        "title": "开口跪！街头翻唱周杰伦的《退后》，最美的爱情回忆里待续！",
        "docid": "7303432369925521935",
        "url": "https://www.ixigua.com/7303432369925521935"
    },
    {
        "title": "首发实测智界S7的无人驾驶，华为的自动驾驶已经这么厉害了吗？",
        "docid": "7306367218923930152",
        "url": "https://www.ixigua.com/7306367218923930152"
    },
    {
        "title": "这歌坛还是被“音痴”闯进来了，演员唱歌的参差，开口笑翻全场",
        "docid": "7281199956520600105",
        "url": "https://www.ixigua.com/7281199956520600105"
    },
    {
        "title": "英国硕士去澳洲做电力工人，爸妈觉得丢脸，直到一年赚了100万",
        "docid": "7279789707616715327",
        "url": "https://www.ixigua.com/7279789707616715327"
    },
    {
        "title": "谢谢来自山东潍坊的礼物❤️",
        "docid": "7298936007205126710",
        "url": "https://www.ixigua.com/7298936007205126710"
    },
    {
        "title": "大唐战神李靖，为什么在凌烟阁里，仅仅排名第八呢",
        "docid": "7287061729128186403",
        "url": "https://www.ixigua.com/7287061729128186403"
    },
    {
        "title": "印度动作电影巅峰之作，黑白双雄VS十万英兵，一箭一戟热血屠城！",
        "docid": "7298675219802915338",
        "url": "https://www.ixigua.com/7298675219802915338"
    },
    {
        "title": "哈达威与麦迪的合体，全美第三的天才篮球手，雷迪什的花期何时来",
        "docid": "7299100265431597568",
        "url": "https://www.ixigua.com/7299100265431597568"
    },
    {
        "title": "【吸奇侠】第一奇书《金瓶梅》01 天饼星的陨落",
        "docid": "7303950647060070964",
        "url": "https://www.ixigua.com/7303950647060070964"
    },
    {
        "title": "做了一个夜里看恐怖片不害怕的地下钢铁安全屋",
        "docid": "7302996719296643610",
        "url": "https://www.ixigua.com/7302996719296643610"
    },
    {
        "title": "重温漫改武侠经典《中华英雄》，就算天煞孤星，仍旧傲气中华！",
        "docid": "7297592078543979046",
        "url": "https://www.ixigua.com/7297592078543979046"
    },
    {
        "title": "奇马耶夫生涯最狼狈一战，两次被打跪险被KO，最后险胜却引人争议",
        "docid": "7294271161876742668",
        "url": "https://www.ixigua.com/7294271161876742668"
    },
    {
        "title": "杀人转包 本以为是段子 没想到是真事！",
        "docid": "7283129557488992804",
        "url": "https://www.ixigua.com/7283129557488992804"
    },
    {
        "title": "挑战搭讪一百位女生第十四天，请小姐姐看电影突然出现在她旁边",
        "docid": "7283823817376891433",
        "url": "https://www.ixigua.com/7283823817376891433"
    },
    {
        "title": "在国内签收超跑快递，阿斯顿马丁你变了…",
        "docid": "7243805147871052328",
        "url": "https://www.ixigua.com/7243805147871052328"
    },
    {
        "title": "明星艺人为何纷纷暂停直播带货：直播翻车、情怀耗尽是主要原因",
        "docid": "7302003929959793179",
        "url": "https://www.ixigua.com/7302003929959793179"
    },
    {
        "title": "【大鹏德州扑克】SIA大魔王！翻牌中天花！",
        "docid": "7291102956114412067",
        "url": "https://www.ixigua.com/7291102956114412067"
    },
    {
        "title": "权臣侮辱公主嫔妃，瘟疫洪水天灾肆虐，真实的三国到底有多可怕？",
        "docid": "7285022326608003620",
        "url": "https://www.ixigua.com/7285022326608003620"
    },
    {
        "title": "不会给领导敬酒的人，在国内职场是混不下去的？",
        "docid": "7299412087149855247",
        "url": "https://www.ixigua.com/7299412087149855247"
    },
    {
        "title": "成龙：全球最具影响力华人，创造吉尼斯纪录，梅艳芳却不想看到他",
        "docid": "7274158358897099316",
        "url": "https://www.ixigua.com/7274158358897099316"
    },
    {
        "title": "谈轩天花无限优势领先于法国赌神！百万美金巨额底池！",
        "docid": "7294523955074269722",
        "url": "https://www.ixigua.com/7294523955074269722"
    },
    {
        "title": "🦀️🦀️天津！ 下站哈尔滨见！ 要带上羽绒了～听说只有几度",
        "docid": "7293000050094178856",
        "url": "https://www.ixigua.com/7293000050094178856"
    },
    {
        "title": "周星驰这个巧合镜头，不是影迷可能都没注意到过",
        "docid": "7283812684645007872",
        "url": "https://www.ixigua.com/7283812684645007872"
    },
    {
        "title": "为何每年都在“神仙打架”？20年前华语乐坛发生了什么（专辑篇）",
        "docid": "7278232252323103232",
        "url": "https://www.ixigua.com/7278232252323103232"
    },
    {
        "title": "郭麒麟：文化水平碾压内娱，与郭德纲互相成就，童年却悲惨至极",
        "docid": "7274907137728807424",
        "url": "https://www.ixigua.com/7274907137728807424"
    },
    {
        "title": "经典回顾02年詹瓜对决，与NBA全明星赛撞车，ESPN转播高中赛事！",
        "docid": "7282701298594644532",
        "url": "https://www.ixigua.com/7282701298594644532"
    },
    {
        "title": "于谦捧一切之《吐槽西游记》，不算捧哏，算吐槽",
        "docid": "7275713893400805903",
        "url": "https://www.ixigua.com/7275713893400805903"
    },
    {
        "title": "偏见先生聊乐夏（61）二手玫瑰乐夏封神～终于成为艺术家啦",
        "docid": "7284668190590763557",
        "url": "https://www.ixigua.com/7284668190590763557"
    },
    {
        "title": "杭州亚运会太精彩，韦唯时隔33年再唱《亚洲雄风》，王者归来",
        "docid": "7283023359556715065",
        "url": "https://www.ixigua.com/7283023359556715065"
    },
    {
        "title": "独一档突破技能，年轻人你可能对速度一无所知！",
        "docid": "7305711334786925056",
        "url": "https://www.ixigua.com/7305711334786925056"
    },
    {
        "title": "“悬溺一响，李世民魂穿刘禅”",
        "docid": "7275159898864747023",
        "url": "https://www.ixigua.com/7275159898864747023"
    },
    {
        "title": "NBA最纯粹的坏人！打不好篮球就得回家继承亿万资产！",
        "docid": "7277136607864750631",
        "url": "https://www.ixigua.com/7277136607864750631"
    },
    {
        "title": "蔡可云？漏勺鑫？舞王信？在好哭和好帅之间，哥哥们选择了好笑",
        "docid": "7274640926499144229",
        "url": "https://www.ixigua.com/7274640926499144229"
    },
    {
        "title": "失业歌手的碎碎念 #vlog日常",
        "docid": "7298541989623136820",
        "url": "https://www.ixigua.com/7298541989623136820"
    },
    {
        "title": "NBA第一男模扎克·科林斯，他身上所经历的黑暗，才是他真正的光",
        "docid": "7297952129178829322",
        "url": "https://www.ixigua.com/7297952129178829322"
    },
    {
        "title": "英文直译版 杨坤《无所谓》杨坤老师 对不起哈哈哈哈",
        "docid": "7276374104922554937",
        "url": "https://www.ixigua.com/7276374104922554937"
    },
    {
        "title": "车长超5米+3.9s破百！试驾阿维塔12！开起来比特斯拉还香？",
        "docid": "7298903238861193791",
        "url": "https://www.ixigua.com/7298903238861193791"
    },
    {
        "title": "玩娜可露露感受瞬杀的感觉，比秒杀还爽",
        "docid": "7296673621706015284",
        "url": "https://www.ixigua.com/7296673621706015284"
    },
    {
        "title": "华语TOP100！挑战猜歌名！每一首都是青春！",
        "docid": "7280810936661705253",
        "url": "https://www.ixigua.com/7280810936661705253"
    },
    {
        "title": "白冰：拒绝巅峰胡歌，惨遭18线男模骗婚，离谱操作背后的原因",
        "docid": "7302372209618584105",
        "url": "https://www.ixigua.com/7302372209618584105"
    },
    {
        "title": "奥尼尔见了都要塞2万，从小人物到NBA名帅，卢指导有多会驾驭人心",
        "docid": "7300237815995073036",
        "url": "https://www.ixigua.com/7300237815995073036"
    },
    {
        "title": "《凡人修仙传》王者归来！韩立结丹 年番继续 动画77集逐帧解读",
        "docid": "7305354125594591759",
        "url": "https://www.ixigua.com/7305354125594591759"
    },
    {
        "title": "几年前的古装OST都这么好听？歌曲一响全员BE，宿命感十足！",
        "docid": "7304865854053679657",
        "url": "https://www.ixigua.com/7304865854053679657"
    },
    {
        "title": "了不起的中国颜色：上官婉儿新技能得到认可，武则天再次被惊艳",
        "docid": "7298930718934041126",
        "url": "https://www.ixigua.com/7298930718934041126"
    },
    {
        "title": "0.5秒售出1000双!中国人自己的巴黎世家?",
        "docid": "7276444388505420349",
        "url": "https://www.ixigua.com/7276444388505420349"
    },
    {
        "title": "一口气看完最残暴的超英动漫《无敌少侠》！祖国人还是太温柔了！",
        "docid": "7302754189053002251",
        "url": "https://www.ixigua.com/7302754189053002251"
    },
    {
        "title": "黄金双枪成追忆，常规赛单场168分季后赛1胜8负，甜瓜五年一轮游",
        "docid": "7285206405131272723",
        "url": "https://www.ixigua.com/7285206405131272723"
    },
    {
        "title": "外国音乐人如何评价龚琳娜被误解的神曲？",
        "docid": "7300084994519597603",
        "url": "https://www.ixigua.com/7300084994519597603"
    },
    {
        "title": "红花会犯那些致命错误，导致团队解散，揭秘红花会消失的真正原因",
        "docid": "7298941774737703465",
        "url": "https://www.ixigua.com/7298941774737703465"
    },
    {
        "title": "东方朔跟刘彻里应外合，巧妙夺回兵权，最终逼迫窦太后退休！",
        "docid": "7278248831618122240",
        "url": "https://www.ixigua.com/7278248831618122240"
    },
    {
        "title": "不用比了 原来银河E8才是最卷的那个",
        "docid": "7298611753049391653",
        "url": "https://www.ixigua.com/7298611753049391653"
    },
    {
        "title": "天空没有极限，你的未来无边！ #时光音乐会 #邓紫棋",
        "docid": "7302803137981907466",
        "url": "https://www.ixigua.com/7302803137981907466"
    },
    {
        "title": "唯一跟张志磊打满全场的人，被打得面目全非也未被KO，比乔伊斯猛",
        "docid": "7292106272143311379",
        "url": "https://www.ixigua.com/7292106272143311379"
    },
    {
        "title": "深山养900只甲鱼，估计跑了800只，到处都有甲鱼捡，这下亏大了",
        "docid": "7274087838109401600",
        "url": "https://www.ixigua.com/7274087838109401600"
    }
]