[
    {
        "title": "狗血加量不加价，你们这个综艺咋还开始动上手了？",
        "docid": "7345434311170261558",
        "url": "https://www.ixigua.com/7345434311170261558"
    },
    {
        "title": "三十年前爆火的魔法家庭喜剧《家有仙妻》！主题曲简直刻入DNA啦~",
        "docid": "7359511968887079435",
        "url": "https://www.ixigua.com/7359511968887079435"
    },
    {
        "title": "92年巨星辩论赛，乔丹：湖凯都不是历史最佳，论单挑我铁定第一！",
        "docid": "7334717365818491392",
        "url": "https://www.ixigua.com/7334717365818491392"
    },
    {
        "title": "开完之后想订车？专业赛车手怎么评价小米SU7 | 吴佩频道",
        "docid": "7351366109506830887",
        "url": "https://www.ixigua.com/7351366109506830887"
    },
    {
        "title": "红警偶遇全国冠军829！运气在我这边，全是三星怎么顶！",
        "docid": "7353381396292829707",
        "url": "https://www.ixigua.com/7353381396292829707"
    },
    {
        "title": "《大话西游》10万字拆解：观音1句诡异台词，揭开细思极恐的暗线",
        "docid": "7355411345660969509",
        "url": "https://www.ixigua.com/7355411345660969509"
    },
    {
        "title": "从睡桥洞到身家过亿，当超级土豪买下二十多辆车之后竟哭了",
        "docid": "7340590498618442250",
        "url": "https://www.ixigua.com/7340590498618442250"
    },
    {
        "title": "抢先体验比亚迪秦L，尺寸直追中型车，搭载更省油混动系统",
        "docid": "7360301513731736073",
        "url": "https://www.ixigua.com/7360301513731736073"
    },
    {
        "title": "年度榜单！2023外国音乐人最爱TOP10华语歌手个人向",
        "docid": "7333637461110686258",
        "url": "https://www.ixigua.com/7333637461110686258"
    },
    {
        "title": "《功夫》周星驰「细思极恐」的身世之谜！1个倒放才能看清的细节",
        "docid": "7338316024506548799",
        "url": "https://www.ixigua.com/7338316024506548799"
    },
    {
        "title": "震惊网友的巨型鱼！一下长大100倍，啃食物“一秒喷出血雾”？",
        "docid": "7333089905654006307",
        "url": "https://www.ixigua.com/7333089905654006307"
    },
    {
        "title": "张靓颖一开口，我人都麻了！不愧是乐坛里的“百万和声”！",
        "docid": "7340921985243251251",
        "url": "https://www.ixigua.com/7340921985243251251"
    },
    {
        "title": "令人惋惜！回顾WWE巨星“鬼面战士”——杰夫·哈迪的职业生涯！",
        "docid": "7360630149768806962",
        "url": "https://www.ixigua.com/7360630149768806962"
    },
    {
        "title": "1999年，港片大战好莱坞，日本电影渔翁得利！【港影风云】70期",
        "docid": "7341363728647979557",
        "url": "https://www.ixigua.com/7341363728647979557"
    },
    {
        "title": "“我逃婚三次，40岁财富自由后，对男性的光环彻底祛魅”",
        "docid": "7358353878124855846",
        "url": "https://www.ixigua.com/7358353878124855846"
    },
    {
        "title": "吕布 被嫌弃的打工人的一生",
        "docid": "7347224913419338259",
        "url": "https://www.ixigua.com/7347224913419338259"
    },
    {
        "title": "百万成本，出道即巅峰！14年前现象级电影，再看还是笑到肚子疼！",
        "docid": "7352855904931217939",
        "url": "https://www.ixigua.com/7352855904931217939"
    },
    {
        "title": "职业赛场上的恐吓流打法？！KPL最帅中单九尾比赛第一视角解读",
        "docid": "7346137977996870207",
        "url": "https://www.ixigua.com/7346137977996870207"
    },
    {
        "title": "怀念哥哥！外国音乐人如何评价张国荣金曲？",
        "docid": "7352099745857372687",
        "url": "https://www.ixigua.com/7352099745857372687"
    },
    {
        "title": "早死20年，就成了千古一帝",
        "docid": "7358392384612205092",
        "url": "https://www.ixigua.com/7358392384612205092"
    },
    {
        "title": "来自末日的绝望，丧尸围城，夹缝求生！",
        "docid": "7349887121718510092",
        "url": "https://www.ixigua.com/7349887121718510092"
    },
    {
        "title": "2024年度皇冠，迪拜王 vs Happy，从头到尾硬刚！魔兽争霸3",
        "docid": "7339786537653633571",
        "url": "https://www.ixigua.com/7339786537653633571"
    },
    {
        "title": "总算是抓到娜可露露了 #王者荣耀",
        "docid": "7350954938328941082",
        "url": "https://www.ixigua.com/7350954938328941082"
    },
    {
        "title": "“音痴”整顿华语乐坛！和歌手飙歌唱一个疯一个，歌手：放过我！",
        "docid": "7325710438758122011",
        "url": "https://www.ixigua.com/7325710438758122011"
    },
    {
        "title": "张子强之前，香港最大绑票案，特务亲自下场，深扒成龙《重案组》",
        "docid": "7345817003833492031",
        "url": "https://www.ixigua.com/7345817003833492031"
    },
    {
        "title": "FQQ：大战月神moon，DH跑断了腿，根本找不到人，魔兽争霸3",
        "docid": "7348372220625814027",
        "url": "https://www.ixigua.com/7348372220625814027"
    },
    {
        "title": "乘客争风吃醋？司机区别对待？结局令人抓心、#艺能人金广发",
        "docid": "7341296264111194633",
        "url": "https://www.ixigua.com/7341296264111194633"
    },
    {
        "title": "这就是霸屏神剧吗？外国人如何评价《新白娘子传奇》OST？",
        "docid": "7341696416303186447",
        "url": "https://www.ixigua.com/7341696416303186447"
    },
    {
        "title": "敖隐首次亮相职业赛场 #klg #kpl #2024kpl春季赛",
        "docid": "7343639081274114601",
        "url": "https://www.ixigua.com/7343639081274114601"
    },
    {
        "title": "9级闹牛金矿，碰到10只狮鹫，谁是赢家？魔兽争霸3",
        "docid": "7344767387356365347",
        "url": "https://www.ixigua.com/7344767387356365347"
    },
    {
        "title": "万场吕布手把手教你如何对线海诺，开局秒拿一血，把海诺打成0-5",
        "docid": "7353875988020724224",
        "url": "https://www.ixigua.com/7353875988020724224"
    },
    {
        "title": "辅助东皇太一打对抗路，亚连也只能守塔",
        "docid": "7364986074096992820",
        "url": "https://www.ixigua.com/7364986074096992820"
    },
    {
        "title": "一部“少儿不宜”的年度猛片，把人性尺度扒透了！华语《老狐狸》",
        "docid": "7363689229182927360",
        "url": "https://www.ixigua.com/7363689229182927360"
    },
    {
        "title": "30岁才入行，却成为WWE顶级明星！回顾野兽巴蒂斯塔的职业生涯！",
        "docid": "7338638754380415499",
        "url": "https://www.ixigua.com/7338638754380415499"
    },
    {
        "title": "这个李白打野，基本都在复活的路上 #王者荣耀",
        "docid": "7345773700488102451",
        "url": "https://www.ixigua.com/7345773700488102451"
    },
    {
        "title": "广州塔究竟是如何建造起来的？堪称建筑史上的伟大奇迹！",
        "docid": "7352160117082718759",
        "url": "https://www.ixigua.com/7352160117082718759"
    },
    {
        "title": "2000年，成龙，李连杰，周润发，制霸好莱坞！【华影风云】第1期",
        "docid": "7354720234919592463",
        "url": "https://www.ixigua.com/7354720234919592463"
    },
    {
        "title": "夜魔弗格森折翼之战，被盖奇彻底摧毁，从此擂台再无夜师傅！",
        "docid": "7350509588879245833",
        "url": "https://www.ixigua.com/7350509588879245833"
    },
    {
        "title": "这是什么逆天伤害？战斗项羽简直神魔无惧！",
        "docid": "7348027855718220315",
        "url": "https://www.ixigua.com/7348027855718220315"
    },
    {
        "title": "都在夸四驱顶配，那小米SU7最低配开起来如何？",
        "docid": "7351737486739145251",
        "url": "https://www.ixigua.com/7351737486739145251"
    },
    {
        "title": "打野只要刷野，位置就会暴露",
        "docid": "7355039914439901733",
        "url": "https://www.ixigua.com/7355039914439901733"
    },
    {
        "title": "拳皇97屠蛇：这个七枷社有点东西，看看把疯八神逼成啥样了",
        "docid": "7342490966101918249",
        "url": "https://www.ixigua.com/7342490966101918249"
    },
    {
        "title": "重达60万亿亿吨的地球，质量是如何被测算出来的？",
        "docid": "7362757937405624871",
        "url": "https://www.ixigua.com/7362757937405624871"
    },
    {
        "title": "高质量4V4，2个10级虚空龙，600人口大战！魔兽争霸3",
        "docid": "7340219624295760423",
        "url": "https://www.ixigua.com/7340219624295760423"
    },
    {
        "title": "目前版本的吕布现状：逆风局无能为力，顺风局只能躺赢，太难了！",
        "docid": "7357289604631757364",
        "url": "https://www.ixigua.com/7357289604631757364"
    },
    {
        "title": "终极走位：真男人进龙坑躲避技能！墨子护盾抗揍，干将九剑高伤害",
        "docid": "7353622059273945615",
        "url": "https://www.ixigua.com/7353622059273945615"
    },
    {
        "title": "埃德加凯西解读生死轮回、还有人类起源的秘密和证据",
        "docid": "7365455868017508901",
        "url": "https://www.ixigua.com/7365455868017508901"
    },
    {
        "title": "人族也能骷髅海，林瓜瓜非主流，亡灵：这怎么可能？魔兽争霸3",
        "docid": "7346496690687312418",
        "url": "https://www.ixigua.com/7346496690687312418"
    },
    {
        "title": "跨界绿帽王，赛博大冤种，最终幻想7重生剧情解读",
        "docid": "7347625414832947748",
        "url": "https://www.ixigua.com/7347625414832947748"
    },
    {
        "title": "《生而为人》父母过度的保护，竟将男孩改造成了女儿！",
        "docid": "7353596902195069494",
        "url": "https://www.ixigua.com/7353596902195069494"
    },
    {
        "title": "队友呢？！我队友呢？！",
        "docid": "7348283901921460748",
        "url": "https://www.ixigua.com/7348283901921460748"
    },
    {
        "title": "韩信还能逆风翻盘吗？ #王者荣耀",
        "docid": "7350116837813649955",
        "url": "https://www.ixigua.com/7350116837813649955"
    },
    {
        "title": "知道虚的秘密，你就知道了天道的秘密！道德经第四，五章",
        "docid": "7339779431516504630",
        "url": "https://www.ixigua.com/7339779431516504630"
    },
    {
        "title": "一口棺材换三家，170万成本拍出国产悬疑巅峰《心迷宫》",
        "docid": "7362422665031877120",
        "url": "https://www.ixigua.com/7362422665031877120"
    },
    {
        "title": "20年前的漫改游戏巅峰！GBA《龙珠大冒险》有多好玩？",
        "docid": "7346137116583133731",
        "url": "https://www.ixigua.com/7346137116583133731"
    },
    {
        "title": "上古华夏早已发现的飞升之法，秘密竟隐藏在徐霞客的旅行手记",
        "docid": "7362113085710991913",
        "url": "https://www.ixigua.com/7362113085710991913"
    },
    {
        "title": "人到中年看不得，这部电影后劲太大，万字细读《女人四十》！",
        "docid": "7355833572013703718",
        "url": "https://www.ixigua.com/7355833572013703718"
    },
    {
        "title": "恐龙快打天王版无伤速通，这小站位找的是真刁钻，全是安全点",
        "docid": "7338615266395619875",
        "url": "https://www.ixigua.com/7338615266395619875"
    },
    {
        "title": "一个永远也装不满的瓶子，也暗藏着宇宙的奥秘？",
        "docid": "7290514379555603004",
        "url": "https://www.ixigua.com/7290514379555603004"
    },
    {
        "title": "瑶妹接力赛：河道开船带瑶妹，关羽赤兔马名不虚传跑的太快了！",
        "docid": "7351711307202036276",
        "url": "https://www.ixigua.com/7351711307202036276"
    },
    {
        "title": "紧张到手心冒汗的小空间悬疑杰作！8.7高分《恐怖直播》",
        "docid": "7357924948663108115",
        "url": "https://www.ixigua.com/7357924948663108115"
    },
    {
        "title": "拳皇97屠蛇：这是大蛇一生最大的污点，也是安迪的高光时刻",
        "docid": "7338027970508980746",
        "url": "https://www.ixigua.com/7338027970508980746"
    },
    {
        "title": "盘点世界最高的雕像排行（3D比较）",
        "docid": "7343153432028840486",
        "url": "https://www.ixigua.com/7343153432028840486"
    },
    {
        "title": "对抗路东皇太一，真的可以一打三啊 #王者荣耀",
        "docid": "7345279145418752549",
        "url": "https://www.ixigua.com/7345279145418752549"
    },
    {
        "title": "票房仅298万，却创下了不可思议的奇迹，至今都无人超越！",
        "docid": "7357256561007264306",
        "url": "https://www.ixigua.com/7357256561007264306"
    },
    {
        "title": "NBA全明星为什么一年不如一年？",
        "docid": "7337983108757357096",
        "url": "https://www.ixigua.com/7337983108757357096"
    },
    {
        "title": "这才是土豪夫妻，靠着辆超级旅行房车，走到哪里都在享受奢华人生",
        "docid": "7334520220473950747",
        "url": "https://www.ixigua.com/7334520220473950747"
    },
    {
        "title": "可不要像黄忠一样，给信号都能被抓哦 #王者荣耀创作者激励计划",
        "docid": "7340186371400991283",
        "url": "https://www.ixigua.com/7340186371400991283"
    },
    {
        "title": "1996年，吴京刚入行，就碰上李连杰，票房真惨！【港影风云】60期",
        "docid": "7300173652094845479",
        "url": "https://www.ixigua.com/7300173652094845479"
    },
    {
        "title": "才几个人就敢追我？让你们看看什么是教科书式反打！",
        "docid": "7349526367262016009",
        "url": "https://www.ixigua.com/7349526367262016009"
    },
    {
        "title": "牛鹏马虎豹，功能饮料到底有多赚？",
        "docid": "7344343414202663459",
        "url": "https://www.ixigua.com/7344343414202663459"
    },
    {
        "title": "科济列夫镜：前苏联造出时光机，看见意识生物，和成吉思汗对话",
        "docid": "7364689373666902563",
        "url": "https://www.ixigua.com/7364689373666902563"
    },
    {
        "title": "助力构建正确的爱情观，评分9.1的爱情电影。",
        "docid": "7351770202579763766",
        "url": "https://www.ixigua.com/7351770202579763766"
    },
    {
        "title": "擂台赛：老白菜丝血反杀满血高渐离，英雄选对了居然这么强！",
        "docid": "7341352807645381160",
        "url": "https://www.ixigua.com/7341352807645381160"
    },
    {
        "title": "任贤齐，周华健，张宇，1998年的华语乐坛，堪称神仙打架 ！",
        "docid": "7331344648097432076",
        "url": "https://www.ixigua.com/7331344648097432076"
    },
    {
        "title": "因太强而被删掉的3个召唤师技能！若他不被删，闪现就是垃圾",
        "docid": "7350152511442911780",
        "url": "https://www.ixigua.com/7350152511442911780"
    },
    {
        "title": "谁能打得过，对抗路东皇太一呢？",
        "docid": "7363460543044289061",
        "url": "https://www.ixigua.com/7363460543044289061"
    },
    {
        "title": "敢骚扰典韦反野？戈娅，你是不是不知道死字怎么写",
        "docid": "7337923949856195082",
        "url": "https://www.ixigua.com/7337923949856195082"
    },
    {
        "title": "脑子没反应过来，嘴已经跟上了，上一秒还退票，下一秒就大合唱！",
        "docid": "7345014088634008098",
        "url": "https://www.ixigua.com/7345014088634008098"
    },
    {
        "title": "用随机打欧皇，Happy还不敢出门，怎么办到的？魔兽争霸3",
        "docid": "7358040275928744467",
        "url": "https://www.ixigua.com/7358040275928744467"
    },
    {
        "title": "2000年，冯小刚，姜文拍禁片，电视剧神仙打架！【华影风云】4期",
        "docid": "7362407061449081363",
        "url": "https://www.ixigua.com/7362407061449081363"
    },
    {
        "title": "谢榜二睡榜一，午夜修水管，盘点因榜一大哥翻车的几大网红！",
        "docid": "7363957881546211892",
        "url": "https://www.ixigua.com/7363957881546211892"
    },
    {
        "title": "韩信能翻盘的，就是有点跑偏",
        "docid": "7343844277694726706",
        "url": "https://www.ixigua.com/7343844277694726706"
    },
    {
        "title": "用1000颗珍珠土豆磨粉！做一碗甘肃天水麻辣烫！",
        "docid": "7361387433995207183",
        "url": "https://www.ixigua.com/7361387433995207183"
    },
    {
        "title": "传说级忍者家族隐藏世间，却被迫重出江湖大开杀戒，掀起腥风血雨",
        "docid": "7350249600810222117",
        "url": "https://www.ixigua.com/7350249600810222117"
    },
    {
        "title": "都市天际线：良心市长抄袭全世界知名景点，建设成为顶级旅游岛！",
        "docid": "7335394475474158131",
        "url": "https://www.ixigua.com/7335394475474158131"
    },
    {
        "title": "小米SU7提车3天就卖，亏多少？",
        "docid": "7357276652671336960",
        "url": "https://www.ixigua.com/7357276652671336960"
    },
    {
        "title": "惊天洗钱案曝光，两名华人女子背后的比特币骗局！",
        "docid": "7363981224567964212",
        "url": "https://www.ixigua.com/7363981224567964212"
    },
    {
        "title": "一口气看完日本女人的复仇，爽到不能再爽，根本停不下来！",
        "docid": "7353954607334162959",
        "url": "https://www.ixigua.com/7353954607334162959"
    },
    {
        "title": "拳皇97超级联赛a组老Kvs辉辉抢5战！堕天使03.17直播回放录制",
        "docid": "7347370492199862838",
        "url": "https://www.ixigua.com/7347370492199862838"
    },
    {
        "title": "估计宫本武藏都懵圈了",
        "docid": "7363580958202659328",
        "url": "https://www.ixigua.com/7363580958202659328"
    },
    {
        "title": "米津玄师写了4年的歌，开口就唱哭宫崎骏，网友：天才音乐人！",
        "docid": "7355665590926869032",
        "url": "https://www.ixigua.com/7355665590926869032"
    },
    {
        "title": "见过能把龙带回家的孙策吗？比觉醒之战都离谱！",
        "docid": "7359418305053983271",
        "url": "https://www.ixigua.com/7359418305053983271"
    },
    {
        "title": "“圣杯流”夏侯惇，无限二技能无限护盾，太恶心人了！#王者荣耀",
        "docid": "7348419526457426444",
        "url": "https://www.ixigua.com/7348419526457426444"
    },
    {
        "title": "多重施法最恶心英雄！面具破军流鲁班，全图轰炸！",
        "docid": "7364697150267064895",
        "url": "https://www.ixigua.com/7364697150267064895"
    },
    {
        "title": "人类虐菜精华，这才是国产大前锋天花板！",
        "docid": "7344682938552254988",
        "url": "https://www.ixigua.com/7344682938552254988"
    },
    {
        "title": "山田风太郎「忍法帖」杰作：女忍者VS男忍者，详解《女忍忍法帖》",
        "docid": "7346187145146532404",
        "url": "https://www.ixigua.com/7346187145146532404"
    },
    {
        "title": "自成一派的原创搞怪武侠《怪侠欧阳德》！剧情也太丰富了吧...",
        "docid": "7341355283748553251",
        "url": "https://www.ixigua.com/7341355283748553251"
    },
    {
        "title": "姜子牙封神后还是凡人，见到天上的神仙该咋称呼，他们谁大谁小？",
        "docid": "7332077797562647074",
        "url": "https://www.ixigua.com/7332077797562647074"
    },
    {
        "title": "程咬金带惩戒，可别反自家野区啊 #王者荣耀",
        "docid": "7358758428938306067",
        "url": "https://www.ixigua.com/7358758428938306067"
    },
    {
        "title": "“妈妈！这次真的看到仙女在天上飞！” #黄蓉 #紫颜 #射雕",
        "docid": "7351721341223076364",
        "url": "https://www.ixigua.com/7351721341223076364"
    },
    {
        "title": "1997年，港片大战好莱坞，被按在地上摩擦！【港影风云】64期",
        "docid": "7312784976649552420",
        "url": "https://www.ixigua.com/7312784976649552420"
    },
    {
        "title": "“站似一颗葱，输出如猛龙”狄仁杰：这有4000的暴击？",
        "docid": "7340585807608349225",
        "url": "https://www.ixigua.com/7340585807608349225"
    },
    {
        "title": "这橘右京到底是人是鬼？求鉴定，在线等",
        "docid": "7359758124154094089",
        "url": "https://www.ixigua.com/7359758124154094089"
    },
    {
        "title": "《飞驰人生2》开年第一燃！又爽又酷，让人欲罢不能！",
        "docid": "7333826574518747711",
        "url": "https://www.ixigua.com/7333826574518747711"
    },
    {
        "title": "隐身小歪满地蛇棒，10分钟速升5级，林瓜瓜玩新战术！魔兽争霸3",
        "docid": "7336573595735392780",
        "url": "https://www.ixigua.com/7336573595735392780"
    },
    {
        "title": "佐助永远的后盾，战过尾兽，救过火影，忍战力挽狂澜的传奇小队",
        "docid": "7356901797824463371",
        "url": "https://www.ixigua.com/7356901797824463371"
    },
    {
        "title": "在市中心工作的白领一身穿搭多少钱？",
        "docid": "7360930390716088872",
        "url": "https://www.ixigua.com/7360930390716088872"
    },
    {
        "title": "剥皮 食人魔 诡异虫茧，奥斯卡经典《沉默的羔羊》到底讲了什么？",
        "docid": "7362389217487520293",
        "url": "https://www.ixigua.com/7362389217487520293"
    },
    {
        "title": "周深翻唱VS郭顶，外国音乐人第一次看声生不息最爱哪个?",
        "docid": "7338001381405655603",
        "url": "https://www.ixigua.com/7338001381405655603"
    },
    {
        "title": "颠覆海战规则的\"万吨大驱\"：一战成名的055驱逐舰 是怎样炼成的",
        "docid": "7360966391812096575",
        "url": "https://www.ixigua.com/7360966391812096575"
    },
    {
        "title": "打团啊，谁让你带线的 #王者荣耀",
        "docid": "7346019338178167359",
        "url": "https://www.ixigua.com/7346019338178167359"
    },
    {
        "title": "邹兆龙：洪家班最狂反派，将甄子丹打进医院，分红好莱坞十几亿",
        "docid": "7336118051429220874",
        "url": "https://www.ixigua.com/7336118051429220874"
    },
    {
        "title": "拳击界的重拳之王，力量远超泰森，看似轻描淡写、实则力达千斤！",
        "docid": "7354612564304593417",
        "url": "https://www.ixigua.com/7354612564304593417"
    },
    {
        "title": "终极擂台赛：世冠阵容VS真伤阵营，世界冠军杯皮肤能否技压群雄？",
        "docid": "7365367585040400896",
        "url": "https://www.ixigua.com/7365367585040400896"
    },
    {
        "title": "如何合法‘坑’出一个世界首富？比尔盖茨和他的微软帝国（上）",
        "docid": "7364965381414650419",
        "url": "https://www.ixigua.com/7364965381414650419"
    },
    {
        "title": "最八卦的女杀手，因打听客户隐私被老板追杀，欧美犯罪喜剧片",
        "docid": "7365092837479678500",
        "url": "https://www.ixigua.com/7365092837479678500"
    },
    {
        "title": "四川大山里，捡到一根可以生吃的树，又脆又甜，你吃过吗？",
        "docid": "7335370763229626915",
        "url": "https://www.ixigua.com/7335370763229626915"
    },
    {
        "title": "闹呢！镜都要加强了？ #王者荣耀",
        "docid": "7345027078783402530",
        "url": "https://www.ixigua.com/7345027078783402530"
    },
    {
        "title": "当“音色流氓”唱同一首歌，林俊杰竟输毛不易，听完就懂为什么",
        "docid": "7342805389916209701",
        "url": "https://www.ixigua.com/7342805389916209701"
    },
    {
        "title": "中国最牛建筑家族，垄断清代90％以上皇家园林和陵寝建造，纪录片",
        "docid": "7353567360550175244",
        "url": "https://www.ixigua.com/7353567360550175244"
    },
    {
        "title": "2024大片清单！死侍、金刚狼、哥斯拉、毒液、都来了！",
        "docid": "7336713851938963987",
        "url": "https://www.ixigua.com/7336713851938963987"
    },
    {
        "title": "韩信老了，反应跟不上了啊",
        "docid": "7344545594884489743",
        "url": "https://www.ixigua.com/7344545594884489743"
    },
    {
        "title": "8000块租2000万的别墅。用套一的价格我拥有了一整层的健身房",
        "docid": "7350225763280519706",
        "url": "https://www.ixigua.com/7350225763280519706"
    },
    {
        "title": "「花生」浅谈小米SU7和保时捷Taycan：车标真差70万？",
        "docid": "7364988666755842587",
        "url": "https://www.ixigua.com/7364988666755842587"
    },
    {
        "title": "人类控球精华，这才是控卫过人天花板！",
        "docid": "7354702088087011840",
        "url": "https://www.ixigua.com/7354702088087011840"
    },
    {
        "title": "沈腾：军艺校草当喜剧演员，连续几年上春晚，却是娱圈知名毒舌",
        "docid": "7341713806415888905",
        "url": "https://www.ixigua.com/7341713806415888905"
    },
    {
        "title": "甄嬛传：宫斗摇 大橘：别爱我，没结果，除非花手摇过我！#甄嬛传",
        "docid": "7335766481386340891",
        "url": "https://www.ixigua.com/7335766481386340891"
    },
    {
        "title": "GDP一直在增长，为什么钱却这么难挣？",
        "docid": "7356813446299517475",
        "url": "https://www.ixigua.com/7356813446299517475"
    },
    {
        "title": "这下你也能猜到，对面打野的走位了吧",
        "docid": "7359487899555136063",
        "url": "https://www.ixigua.com/7359487899555136063"
    },
    {
        "title": "100年前的传奇魔术大师，创造的大象消失术，至今无人破解！",
        "docid": "7355411184205595176",
        "url": "https://www.ixigua.com/7355411184205595176"
    },
    {
        "title": "华米大战！小米SU7智驾车机能否遥遥领先？",
        "docid": "7356554922717872649",
        "url": "https://www.ixigua.com/7356554922717872649"
    },
    {
        "title": "拳坛最风骚的舞王，他是哈梅德的真传，把闪躲练到了极致！",
        "docid": "7340569568450413071",
        "url": "https://www.ixigua.com/7340569568450413071"
    },
    {
        "title": "中国通缩，美国通胀，一场没有硝烟的经济鏖战",
        "docid": "7356846834939396618",
        "url": "https://www.ixigua.com/7356846834939396618"
    },
    {
        "title": "多重反转+窒息！残酷考验人性的犯罪惊悚片《囚徒》",
        "docid": "7361082308729766412",
        "url": "https://www.ixigua.com/7361082308729766412"
    },
    {
        "title": "为啥你的车不敢快速过弯？悬挂中有哪些你注意不到的物理学？",
        "docid": "7347543640933138980",
        "url": "https://www.ixigua.com/7347543640933138980"
    },
    {
        "title": "为什么韩国人这么爱去张家界？背后原因令人深思",
        "docid": "7306107105105150498",
        "url": "https://www.ixigua.com/7306107105105150498"
    },
    {
        "title": "香港动画巅峰，被《千与千寻》抄袭？万字细读徐克《小倩》！",
        "docid": "7358431006396940835",
        "url": "https://www.ixigua.com/7358431006396940835"
    },
    {
        "title": "周深随口唱的一句歌，竟都是“万恶之源”？网友：不愧是15G冲浪",
        "docid": "7345755666873188891",
        "url": "https://www.ixigua.com/7345755666873188891"
    },
    {
        "title": "体重管理不合格！盘点因体重过大而被解雇的WWE摔角手！",
        "docid": "7341344699209318927",
        "url": "https://www.ixigua.com/7341344699209318927"
    },
    {
        "title": "全国人口第三城易主？北京减量发展，成都凭什么打赢“人口之争”",
        "docid": "7362892199006044723",
        "url": "https://www.ixigua.com/7362892199006044723"
    },
    {
        "title": "《盲井》一条人命三万块，比矿井更黑暗的是人心！",
        "docid": "7353603940904075812",
        "url": "https://www.ixigua.com/7353603940904075812"
    },
    {
        "title": "恐龙称霸地球长达上亿年，为什么没有发展出智慧文明呢？",
        "docid": "7341688540126216719",
        "url": "https://www.ixigua.com/7341688540126216719"
    },
    {
        "title": "太阳0比4出局小托马斯一脸落寞，时隔710天重返NBA的故事难再续？",
        "docid": "7363160493399212581",
        "url": "https://www.ixigua.com/7363160493399212581"
    },
    {
        "title": "根据现实大案改编，获奖无数，却注定在国内无法上映",
        "docid": "7356545825675149850",
        "url": "https://www.ixigua.com/7356545825675149850"
    },
    {
        "title": "全国GDP50强城市出炉：北方仅仅只有6座，哈尔滨尴尬落榜",
        "docid": "7357970823862288906",
        "url": "https://www.ixigua.com/7357970823862288906"
    },
    {
        "title": "你找不到对象，不是因为穷",
        "docid": "7340952330558407168",
        "url": "https://www.ixigua.com/7340952330558407168"
    },
    {
        "title": "英国博主：我工作这么努力 买辆豪车不过分吧",
        "docid": "7364343761737875983",
        "url": "https://www.ixigua.com/7364343761737875983"
    },
    {
        "title": "富家千金设计阶级游戏玩弄穷人子弟！一口气看完《金字塔游戏》",
        "docid": "7348761592915624489",
        "url": "https://www.ixigua.com/7348761592915624489"
    },
    {
        "title": "日本一家4口惨遭灭门，而凶手竟是3名中国留学生，手段极其残忍",
        "docid": "7336867524623106569",
        "url": "https://www.ixigua.com/7336867524623106569"
    },
    {
        "title": "云贵交界处发现无底深渊，索降300米进入，暗河中有白化怪鱼",
        "docid": "7363508111070233123",
        "url": "https://www.ixigua.com/7363508111070233123"
    },
    {
        "title": "《最江东小霸王的一集》",
        "docid": "7348004457000469011",
        "url": "https://www.ixigua.com/7348004457000469011"
    },
    {
        "title": "校花起诉最帅老师X骚扰，结果反转再反转，不到最后猜不出boss",
        "docid": "7359530286343782939",
        "url": "https://www.ixigua.com/7359530286343782939"
    },
    {
        "title": "历史上臭名昭著的3个人物，如今却被影视剧洗白了，成了大好人",
        "docid": "7338008101896847887",
        "url": "https://www.ixigua.com/7338008101896847887"
    },
    {
        "title": "4大优点2大缺点 试驾丰田第九代凯美瑞",
        "docid": "7342763688229044745",
        "url": "https://www.ixigua.com/7342763688229044745"
    },
    {
        "title": "拐哥抽水抓鱼好几年，第一次遇见这种事，塘坎瞬间垮了，太吓人了",
        "docid": "7361281978039009826",
        "url": "https://www.ixigua.com/7361281978039009826"
    },
    {
        "title": "侯孝贤为数不多的黑帮片《南国再见南国》一位黑帮老大的末路史",
        "docid": "7346989012361413172",
        "url": "https://www.ixigua.com/7346989012361413172"
    },
    {
        "title": "600斤大老虎舌头有多锋利？饲养员伸手凑近，果真舔一口少一层！",
        "docid": "7362128401047487026",
        "url": "https://www.ixigua.com/7362128401047487026"
    },
    {
        "title": "被韩国低估，竟称中韩科技相差无几，真实水平到底如何？",
        "docid": "7343182429295346214",
        "url": "https://www.ixigua.com/7343182429295346214"
    },
    {
        "title": "这就是改造！赖旭东爆改成都85㎡“水桶别墅”！",
        "docid": "7360987122037162534",
        "url": "https://www.ixigua.com/7360987122037162534"
    },
    {
        "title": "这恐怖片就是我审美祖师爷！颜巅时期的詹妮弗康纳利，与虫共浴",
        "docid": "7341215064646812201",
        "url": "https://www.ixigua.com/7341215064646812201"
    },
    {
        "title": "被中国制造逼疯的日本人！",
        "docid": "7335049397220147749",
        "url": "https://www.ixigua.com/7335049397220147749"
    },
    {
        "title": "直到看到了水下这一幕，才明白原来鲤鱼吃饵这么狡猾！钓鱼新观察",
        "docid": "7354540017022140938",
        "url": "https://www.ixigua.com/7354540017022140938"
    },
    {
        "title": "花4487元进的一车水果卖完有多少利润，今天来揭晓答案！",
        "docid": "7351670060928205339",
        "url": "https://www.ixigua.com/7351670060928205339"
    },
    {
        "title": "就想无脑看《哥斯拉大战金刚2》！OK的，只论重点助你看爽看懂",
        "docid": "7362374798233895424",
        "url": "https://www.ixigua.com/7362374798233895424"
    },
    {
        "title": "比三峡还高114米，我国耗资664亿，3000米海拔堆出全国最高土石坝",
        "docid": "7336873242378011145",
        "url": "https://www.ixigua.com/7336873242378011145"
    },
    {
        "title": "不要高溢价只要性价比！年轻人用“平替”来教育消费市场",
        "docid": "7352426486185329171",
        "url": "https://www.ixigua.com/7352426486185329171"
    },
    {
        "title": "车评人深信不疑，探陆就是下一个楼兰，日产是吃屎都赶不上热乎的",
        "docid": "7343575668690846249",
        "url": "https://www.ixigua.com/7343575668690846249"
    },
    {
        "title": "李玄保不住了，杨金水喊来芸娘，让他死前爽一次",
        "docid": "7352865524012810762",
        "url": "https://www.ixigua.com/7352865524012810762"
    },
    {
        "title": "火了17年的《外滩十八号》，竟是金志文写的，网友：被你瞒过去了",
        "docid": "7339831251034964490",
        "url": "https://www.ixigua.com/7339831251034964490"
    },
    {
        "title": "素人演技训练班 这是一种很新的表演方式\n#搞笑 #模仿 #演技",
        "docid": "7343943689523331621",
        "url": "https://www.ixigua.com/7343943689523331621"
    },
    {
        "title": "张之维的狂、鬼、强、胜、大巴掌！",
        "docid": "7353621902742520358",
        "url": "https://www.ixigua.com/7353621902742520358"
    },
    {
        "title": "中亚东干人160年来都认识左宗棠，对中国有强烈归属感，盼回陕西",
        "docid": "7338394498920022538",
        "url": "https://www.ixigua.com/7338394498920022538"
    },
    {
        "title": "我选歌的能力真不行啊，仅差那么一丁点就会惨遭淘汰了",
        "docid": "7356498753877967396",
        "url": "https://www.ixigua.com/7356498753877967396"
    },
    {
        "title": "李世民晚年御驾亲征，最后却含恨而终，死前大骂儿子！",
        "docid": "7348395818300211721",
        "url": "https://www.ixigua.com/7348395818300211721"
    },
    {
        "title": "“我爸在我高考前跳楼了，但我和我妈过得更快乐了”",
        "docid": "7344249505636123170",
        "url": "https://www.ixigua.com/7344249505636123170"
    },
    {
        "title": "激战，汗水，满屏大长腿，但这绝不是一部物化女性的无脑爽片",
        "docid": "7353630582154199606",
        "url": "https://www.ixigua.com/7353630582154199606"
    },
    {
        "title": "澳洲移民故事：武汉学渣干厨师和保安三年买房，四年成功移民！",
        "docid": "7331571753049260544",
        "url": "https://www.ixigua.com/7331571753049260544"
    },
    {
        "title": "鱼满为患！水草被吃光，草海变“秃海”，长江禁渔会不会重蹈覆辙",
        "docid": "7336779823798452788",
        "url": "https://www.ixigua.com/7336779823798452788"
    },
    {
        "title": "自作主张要不得！盘点WWE节目中因偏离剧本而受惩罚的选手！",
        "docid": "7334283626416833061",
        "url": "https://www.ixigua.com/7334283626416833061"
    },
    {
        "title": "骗过审核，国产恐怖片出现真鬼？详解国产烧脑恐怖片《青魇》",
        "docid": "7354260343163453991",
        "url": "https://www.ixigua.com/7354260343163453991"
    },
    {
        "title": "30岁，朋友们都在上海买房定居了，而我却决定暂时不买房了。",
        "docid": "7341671803649327670",
        "url": "https://www.ixigua.com/7341671803649327670"
    },
    {
        "title": "财阀家族在韩国真能一手遮天？是营销号夸大还是事实如此？",
        "docid": "7345319516802384395",
        "url": "https://www.ixigua.com/7345319516802384395"
    },
    {
        "title": "为何中国可以根除缅北电诈，而美国对墨西哥毒贩无可奈何？",
        "docid": "7331302183084196362",
        "url": "https://www.ixigua.com/7331302183084196362"
    },
    {
        "title": "甄嬛手撕瓜六 斐雯静白杖毙 #甄嬛传 #甄嬛传十级观众 #宫斗剧",
        "docid": "7337999569428415026",
        "url": "https://www.ixigua.com/7337999569428415026"
    },
    {
        "title": "日本采耳店事件：41岁痴汉爱上19岁采耳师，求爱未果后痛下杀手",
        "docid": "7345683746966503936",
        "url": "https://www.ixigua.com/7345683746966503936"
    },
    {
        "title": "周深竟被学员质疑“不行”？下一秒现场打脸，网友：太离谱了！",
        "docid": "7356890227480363561",
        "url": "https://www.ixigua.com/7356890227480363561"
    },
    {
        "title": "华语最神秘的音乐人！创作的金曲年年霸榜，却用艺名走江湖",
        "docid": "7341258449902273075",
        "url": "https://www.ixigua.com/7341258449902273075"
    },
    {
        "title": "狂揽176项大奖，超100亿票房，一夜刷爆朋友圈，这片真猛！",
        "docid": "7343538296519295526",
        "url": "https://www.ixigua.com/7343538296519295526"
    },
    {
        "title": "顶级捕食者的晚年有多凄惨？为啥只有饿死的狮子，没有饿死的老虎",
        "docid": "7338734496843792933",
        "url": "https://www.ixigua.com/7338734496843792933"
    },
    {
        "title": "未成年保护法会成为护身符吗？看看日本首起未成年人被判死刑案",
        "docid": "7348422972585181750",
        "url": "https://www.ixigua.com/7348422972585181750"
    },
    {
        "title": "裸辞后，44岁的“媒体大佬”在星巴克假装上班",
        "docid": "7354203062866543131",
        "url": "https://www.ixigua.com/7354203062866543131"
    },
    {
        "title": "太敢拍了！狼师狩猎多名女学生！这尺度居然能上映？《童话世界》",
        "docid": "7360267448999739955",
        "url": "https://www.ixigua.com/7360267448999739955"
    },
    {
        "title": "姜维的一生之敌邓艾牛在哪？【后蜀汉时代04】",
        "docid": "7365419937353073178",
        "url": "https://www.ixigua.com/7365419937353073178"
    },
    {
        "title": "50人抢一份180块的日结工作，还要干满12小时，底层打工人有多难",
        "docid": "7356557860689576488",
        "url": "https://www.ixigua.com/7356557860689576488"
    },
    {
        "title": "【大鹏德州扑克】打出系列最大彩池！330万！",
        "docid": "7342870087076708898",
        "url": "https://www.ixigua.com/7342870087076708898"
    },
    {
        "title": "兽化病毒席卷全世界，感染者会随机变成动物，有人变猪有人变舔狗",
        "docid": "7361738320721904162",
        "url": "https://www.ixigua.com/7361738320721904162"
    },
    {
        "title": "家乐福大润发关门，胖东来凭啥崛起？中国大超市30年发展史",
        "docid": "7337551750003589667",
        "url": "https://www.ixigua.com/7337551750003589667"
    },
    {
        "title": "挑战重庆令牌石公路，号称吓退不少老司机的天路，真的太危险了！",
        "docid": "7363239522114634250",
        "url": "https://www.ixigua.com/7363239522114634250"
    },
    {
        "title": "泰森生涯最后一战，输给三流拳击手，昔日战神泪洒现场！",
        "docid": "7332391979038933554",
        "url": "https://www.ixigua.com/7332391979038933554"
    },
    {
        "title": "富四代进监狱捡肥皂，捡成了监狱一哥，皂滑弄人啊！无节操喜剧",
        "docid": "7364757055695782438",
        "url": "https://www.ixigua.com/7364757055695782438"
    },
    {
        "title": "几个月前的问界M7提车视频，突然涌入一群不明生物！",
        "docid": "7363942102385820198",
        "url": "https://www.ixigua.com/7363942102385820198"
    },
    {
        "title": "《毛里求斯》第5集：抓大螃蟹和琵琶虾，300斤重的远洋白鳍鲨",
        "docid": "7362038105244860947",
        "url": "https://www.ixigua.com/7362038105244860947"
    },
    {
        "title": "30年前，5头长江江豚被放入天鹅洲自然繁殖，现在它们怎么样了？",
        "docid": "7350624708385047050",
        "url": "https://www.ixigua.com/7350624708385047050"
    },
    {
        "title": "这才是港片的巅峰之作，成龙最接近死亡的一次，场面精彩又剌激",
        "docid": "7350231087450161701",
        "url": "https://www.ixigua.com/7350231087450161701"
    },
    {
        "title": "中国、丹麦教育大比拼，丹麦少年切磋哈尔滨学校，结局毫无悬念",
        "docid": "7361008668839674407",
        "url": "https://www.ixigua.com/7361008668839674407"
    },
    {
        "title": "浙江：云和山的彼端（一）：贫困的温州？打破地理的传奇之城",
        "docid": "7354719361326907919",
        "url": "https://www.ixigua.com/7354719361326907919"
    },
    {
        "title": "成都是如何极速开出迪士尼的？",
        "docid": "7361700058800882214",
        "url": "https://www.ixigua.com/7361700058800882214"
    },
    {
        "title": "跨7个省份，走1万公里，坚持12年，这条追凶之路太苦！《三大队》",
        "docid": "7343908253904699956",
        "url": "https://www.ixigua.com/7343908253904699956"
    },
    {
        "title": "83天身体溶解，身体腐败如烂泥，近距离接触巨量辐射会怎样？",
        "docid": "7361794041651921443",
        "url": "https://www.ixigua.com/7361794041651921443"
    },
    {
        "title": "袁绍和他家族凭什么成为东汉最强？【汉末风云】",
        "docid": "7342348525151355432",
        "url": "https://www.ixigua.com/7342348525151355432"
    },
    {
        "title": "在中国钱太不经花了，看到高科技全自动华为汽车，忍不住花了30万",
        "docid": "7344391231306203663",
        "url": "https://www.ixigua.com/7344391231306203663"
    },
    {
        "title": "金基德8.0高分神作《空房间》，仅凭2句台词，道明家与爱的真谛",
        "docid": "7343428263982826047",
        "url": "https://www.ixigua.com/7343428263982826047"
    },
    {
        "title": "赏金万元全省通告，江苏这么做只为了猎捕野猪？更深意义不言而喻",
        "docid": "7361001882807960090",
        "url": "https://www.ixigua.com/7361001882807960090"
    },
    {
        "title": "马尔代夫赶海抓龙虾，一小时收获一桌价值过万，豪华海鲜大餐盛宴",
        "docid": "7354693851241677351",
        "url": "https://www.ixigua.com/7354693851241677351"
    },
    {
        "title": "现实版“零元购”，拼夕夕的“仅退款”究竟有多魔幻？",
        "docid": "7337628661505655336",
        "url": "https://www.ixigua.com/7337628661505655336"
    },
    {
        "title": "一口气了解AMD | 别光盯着英伟达了~",
        "docid": "7363169077914927626",
        "url": "https://www.ixigua.com/7363169077914927626"
    },
    {
        "title": "春节档最有争议的电影，没有之一！到底是票房神话还是圈钱神话？",
        "docid": "7365827149963461147",
        "url": "https://www.ixigua.com/7365827149963461147"
    },
    {
        "title": "详解黄曼巴0.8秒绝杀火箭细节，科比：西部最难防的球员是罗伊！",
        "docid": "7365895476526187043",
        "url": "https://www.ixigua.com/7365895476526187043"
    },
    {
        "title": "揭秘洗钱套路：我充个话费，就成了帮凶？",
        "docid": "7343908484989387316",
        "url": "https://www.ixigua.com/7343908484989387316"
    },
    {
        "title": "民工讨薪20次无果，为1560元将老板灭门，英雄还是恶魔？",
        "docid": "7347668820586136105",
        "url": "https://www.ixigua.com/7347668820586136105"
    },
    {
        "title": "上丧母，下夭儿，中间死宠物，这冲喜冲得。胖橘视角看甄嬛传11",
        "docid": "7341411544037032482",
        "url": "https://www.ixigua.com/7341411544037032482"
    },
    {
        "title": "网红挑战只用100块钱环游世界，并挣到一百万！",
        "docid": "7361341270566666802",
        "url": "https://www.ixigua.com/7361341270566666802"
    },
    {
        "title": "浩浩荡荡的垃圾分类运动，如今烂尾了？怪民众环保意识太淡薄吗？",
        "docid": "7350997889453130240",
        "url": "https://www.ixigua.com/7350997889453130240"
    },
    {
        "title": "女护士被领导长期霸占，携男友复仇当锤杀，结局凄惨令人唏嘘！",
        "docid": "7356826701709443603",
        "url": "https://www.ixigua.com/7356826701709443603"
    },
    {
        "title": "红莲改版后最大受益人？！亚连胜率突破53%！“盾霸”流亚连分享",
        "docid": "7365438610654364195",
        "url": "https://www.ixigua.com/7365438610654364195"
    },
    {
        "title": "刘备以国礼标准迎接张松，大吃大喝三天三夜让他受宠若惊",
        "docid": "7334371765289910810",
        "url": "https://www.ixigua.com/7334371765289910810"
    },
    {
        "title": "带台湾友人第一次品尝武汉“过早”竟然全是满满的碳水炸弹",
        "docid": "7338650634184458786",
        "url": "https://www.ixigua.com/7338650634184458786"
    },
    {
        "title": "2023年末房贷余额38万亿元，20年来首次下降，对普通人意味着什么",
        "docid": "7359301004585599507",
        "url": "https://www.ixigua.com/7359301004585599507"
    },
    {
        "title": "【社会难题】邪教为何如此难以根除？为什么都劝不动？",
        "docid": "7359139132881175074",
        "url": "https://www.ixigua.com/7359139132881175074"
    },
    {
        "title": "海贼王 克力架前后实力对比 一枪一个对比四挡路飞",
        "docid": "7344623588500210186",
        "url": "https://www.ixigua.com/7344623588500210186"
    },
    {
        "title": "500米的街道7家药店，年利润仅3万元！谁在中国大规模开药店？",
        "docid": "7364320391373783579",
        "url": "https://www.ixigua.com/7364320391373783579"
    },
    {
        "title": "女孩一年改5个专业，换男友比衣服还勤，30岁已经是老司机",
        "docid": "7334914813941776905",
        "url": "https://www.ixigua.com/7334914813941776905"
    },
    {
        "title": "他45岁满身肥肉像水桶，退休10年被轰400拳，却用太极KO世界拳王",
        "docid": "7365566915583934976",
        "url": "https://www.ixigua.com/7365566915583934976"
    },
    {
        "title": "印度学者请教李光耀：印度该怎样崛起？李光耀：没人能治理好",
        "docid": "7346153820579168803",
        "url": "https://www.ixigua.com/7346153820579168803"
    },
    {
        "title": "修理工眼中的好车，10万内家轿，就推荐这4款",
        "docid": "7349178015752028710",
        "url": "https://www.ixigua.com/7349178015752028710"
    },
    {
        "title": "襄阳城破郭靖战死，郭襄张三丰分别创立教派，倚天江湖正式开启！",
        "docid": "7343549363043435048",
        "url": "https://www.ixigua.com/7343549363043435048"
    },
    {
        "title": "电影字幕是中国特产？国外只有残疾人用？",
        "docid": "7356893337841828388",
        "url": "https://www.ixigua.com/7356893337841828388"
    },
    {
        "title": "哪有在电影院给孩子放小视频的？大人别给孩子丢脸了",
        "docid": "7336917154031370779",
        "url": "https://www.ixigua.com/7336917154031370779"
    },
    {
        "title": "关于迈腾最全面的分析#迈腾#迈腾B9",
        "docid": "7343201724275884559",
        "url": "https://www.ixigua.com/7343201724275884559"
    },
    {
        "title": "女人因为长得太好看，成了全村女人的公敌，意大利第一美女出演",
        "docid": "7345503174435963419",
        "url": "https://www.ixigua.com/7345503174435963419"
    },
    {
        "title": "新能源能替代房地产成支柱吗？成都放松限购一线核心区会跟进吗？",
        "docid": "7364559783615005184",
        "url": "https://www.ixigua.com/7364559783615005184"
    },
    {
        "title": "原来这些Kpop神曲，全来源于“欧美”！粉丝：明明是“采样”！",
        "docid": "7365790400969179683",
        "url": "https://www.ixigua.com/7365790400969179683"
    },
    {
        "title": "做了2000年的附庸国，朝鲜半岛为什么没被纳入中国版图？",
        "docid": "7344301824679084553",
        "url": "https://www.ixigua.com/7344301824679084553"
    },
    {
        "title": "获奖无数的奥斯卡R级喜剧片，评委：“敢拍，我们就敢给大奖！”",
        "docid": "7359382397433872923",
        "url": "https://www.ixigua.com/7359382397433872923"
    },
    {
        "title": "能让世界都为之震颤，鸟山明究竟有多牛？",
        "docid": "7344235789561594383",
        "url": "https://www.ixigua.com/7344235789561594383"
    },
    {
        "title": "中国花9亿把黄河引到沙漠里，沙漠变绿洲不是梦",
        "docid": "7365829105629004300",
        "url": "https://www.ixigua.com/7365829105629004300"
    },
    {
        "title": "人送外号“飞天魔鬼”的邓肯，大学生涯到底有多强？",
        "docid": "7349077963171693071",
        "url": "https://www.ixigua.com/7349077963171693071"
    },
    {
        "title": "韩国拍的纪录片，却让中国网友脊背发凉！学习背叛努力的人了吗？",
        "docid": "7340973871124152844",
        "url": "https://www.ixigua.com/7340973871124152844"
    },
    {
        "title": "鹿晗足球技术有多好？范志毅认证内娱最佳，相关微博破吉尼斯记录",
        "docid": "7341326703156953640",
        "url": "https://www.ixigua.com/7341326703156953640"
    },
    {
        "title": "资产价格下跌，是出手抄底的时机吗？日元加息为何贬值？",
        "docid": "7351229576791458315",
        "url": "https://www.ixigua.com/7351229576791458315"
    },
    {
        "title": "周芷若深情告白张无忌，怎料师父鬼魂突然出现，周芷若当场吓晕！",
        "docid": "7358001067902108201",
        "url": "https://www.ixigua.com/7358001067902108201"
    },
    {
        "title": "特斯拉车卖不动了，布局储能？10分钟看懂储能行业商业模式！",
        "docid": "7339487317633172002",
        "url": "https://www.ixigua.com/7339487317633172002"
    },
    {
        "title": "衣服全是“假货”？南极人滥卖吊牌吃恶果，这4家品牌或重蹈覆辙",
        "docid": "7335750180266279487",
        "url": "https://www.ixigua.com/7335750180266279487"
    },
    {
        "title": "淋了同一场雨 一起去了趟威远。谢谢你们！谢谢南京 长沙。武汉见",
        "docid": "7364409525903983113",
        "url": "https://www.ixigua.com/7364409525903983113"
    },
    {
        "title": "傻白甜遭遇职场霸凌，财阀婆婆强势上门撑腰，2024欧美最新喜剧片",
        "docid": "7344758222399635968",
        "url": "https://www.ixigua.com/7344758222399635968"
    },
    {
        "title": "70岁犹太裔巨富，为何要入籍中国？",
        "docid": "7345397248961806863",
        "url": "https://www.ixigua.com/7345397248961806863"
    },
    {
        "title": "国人生育成本报告出炉：养娃成本超人均GDP5倍之多，几乎全球最高",
        "docid": "7358440528977297974",
        "url": "https://www.ixigua.com/7358440528977297974"
    },
    {
        "title": "华语乐坛“四大门派”，周深空灵派，毛不易走心派",
        "docid": "7353569537452671525",
        "url": "https://www.ixigua.com/7353569537452671525"
    },
    {
        "title": "周星驰名场面，被指着鼻子骂还不能还嘴，和星爷拍戏到底有多累？",
        "docid": "7336865211862745600",
        "url": "https://www.ixigua.com/7336865211862745600"
    },
    {
        "title": "3年内，不考虑买房了 #黄金投资 #股票交易 #房价下跌 #房地产税",
        "docid": "7364971059085083174",
        "url": "https://www.ixigua.com/7364971059085083174"
    },
    {
        "title": "美陆军削减特种部队规模，应对大国竞争！美特种部队何去何从？",
        "docid": "7293849951145034249",
        "url": "https://www.ixigua.com/7293849951145034249"
    },
    {
        "title": "被踢出九大行星的冥王星，究竟隐藏了多少秘密？",
        "docid": "7356489184854409740",
        "url": "https://www.ixigua.com/7356489184854409740"
    },
    {
        "title": "无根生为何要见老老天师张静清？",
        "docid": "7349091869130916378",
        "url": "https://www.ixigua.com/7349091869130916378"
    },
    {
        "title": "柔软、学习多项技能，章鱼真的是6亿年前的战败后的外星生物吗？",
        "docid": "7340306175331828261",
        "url": "https://www.ixigua.com/7340306175331828261"
    },
    {
        "title": "恶毒保姆一年“送”走8位老人，被抓时扬言，老人活多久她说了算",
        "docid": "7343924572879749632",
        "url": "https://www.ixigua.com/7343924572879749632"
    },
    {
        "title": "本田CRV的三大优点，三大缺点，接受了再买也不迟",
        "docid": "7361173250187756044",
        "url": "https://www.ixigua.com/7361173250187756044"
    },
    {
        "title": "赵金成血战黎德志 弃马搏杀三车闹士 小卒剜心残忍入局豪取六连胜",
        "docid": "7341750015427084850",
        "url": "https://www.ixigua.com/7341750015427084850"
    },
    {
        "title": "吃个好瓜真难！创收25亿的硒砂瓜被禁种！三十斤的西瓜王没人卖！",
        "docid": "7361002884852351522",
        "url": "https://www.ixigua.com/7361002884852351522"
    },
    {
        "title": "三嫁诸侯成就汉朝顶配家族",
        "docid": "7363464395915166223",
        "url": "https://www.ixigua.com/7363464395915166223"
    },
    {
        "title": "要里子还是要面子，顶配迈腾和低配A4L怎么选？",
        "docid": "7320157305956368906",
        "url": "https://www.ixigua.com/7320157305956368906"
    },
    {
        "title": "天下霸唱有多牛逼，故事横跨万亿年，从宇宙混沌到现代社会！",
        "docid": "7365454876911862312",
        "url": "https://www.ixigua.com/7365454876911862312"
    },
    {
        "title": "张翠山被逼自尽，殷素素伤心欲绝，竟留下无忌随丈夫而去！",
        "docid": "7347999371965530639",
        "url": "https://www.ixigua.com/7347999371965530639"
    },
    {
        "title": "什么是电磁悬架？给汽车底部安装8个钕磁铁，瞬间秒杀百万豪车！",
        "docid": "7364970610125963776",
        "url": "https://www.ixigua.com/7364970610125963776"
    },
    {
        "title": "原来你是这样的大布！盘点WWE猛兽大布的搞笑名场面！",
        "docid": "7348384749142868532",
        "url": "https://www.ixigua.com/7348384749142868532"
    },
    {
        "title": "浅嗑一口张艺凡范世錡，这是明目张胆的偏爱啊？？？#张艺凡",
        "docid": "7355793998114390547",
        "url": "https://www.ixigua.com/7355793998114390547"
    },
    {
        "title": "华为还有多少业务你不知道，你越制裁我越强！",
        "docid": "7347633854947164691",
        "url": "https://www.ixigua.com/7347633854947164691"
    },
    {
        "title": "预算20万B级轿车，别考虑油耗，省油买车是冤种#丰田凯美瑞",
        "docid": "7353787199969559078",
        "url": "https://www.ixigua.com/7353787199969559078"
    },
    {
        "title": "播求独闯日本擂台，凭借着膝腿连击，日本第一人被踢的尿血！",
        "docid": "7346439046191088168",
        "url": "https://www.ixigua.com/7346439046191088168"
    },
    {
        "title": "20年后高楼将沦为“贫民窟”？欧美已摆烂，我国能找出破局之道吗",
        "docid": "7365811472456221211",
        "url": "https://www.ixigua.com/7365811472456221211"
    },
    {
        "title": "煮食烹饪仙人掌，你会喜欢吃吗？",
        "docid": "7363465482759995942",
        "url": "https://www.ixigua.com/7363465482759995942"
    },
    {
        "title": "假如你在野外发现这种会跳舞的蘑菇,最好马上去医院!",
        "docid": "7360635132350464521",
        "url": "https://www.ixigua.com/7360635132350464521"
    },
    {
        "title": "神级表白现场？闺蜜火力十足？结局令人胆寒、#艺能人金广发",
        "docid": "7335439386358350388",
        "url": "https://www.ixigua.com/7335439386358350388"
    },
    {
        "title": "这对抗路赵云，有点厉害啊 #王者荣耀",
        "docid": "7359131470948270644",
        "url": "https://www.ixigua.com/7359131470948270644"
    },
    {
        "title": "虽迟但到！终于轮到我提小米SU7了！ #小米汽车 #小米su7",
        "docid": "7355444779225874944",
        "url": "https://www.ixigua.com/7355444779225874944"
    },
    {
        "title": "人口学就是一切。教育不应是独木桥，要鼓励社会的包容和多元化",
        "docid": "7345405699226075711",
        "url": "https://www.ixigua.com/7345405699226075711"
    },
    {
        "title": "吴镇宇好可怜哈哈哈哈！惠子实力反选？又水一期《无限超越班2》",
        "docid": "7365851710163681844",
        "url": "https://www.ixigua.com/7365851710163681844"
    },
    {
        "title": "紫衫龙王大战金毛狮王，只为争夺屠龙刀，怎料波斯三使突然出现！",
        "docid": "7358351192079991322",
        "url": "https://www.ixigua.com/7358351192079991322"
    },
    {
        "title": "新婚旅行，她却要分床睡？！",
        "docid": "7346472023490560553",
        "url": "https://www.ixigua.com/7346472023490560553"
    },
    {
        "title": "静态体验上汽大众途观L Pro！想买油车的！一定要看！全球同步",
        "docid": "7356141307514847771",
        "url": "https://www.ixigua.com/7356141307514847771"
    },
    {
        "title": "人类力量的巅峰对决，硬拉超500公斤的大力士，在擂台打起来了！",
        "docid": "7339106541507314176",
        "url": "https://www.ixigua.com/7339106541507314176"
    },
    {
        "title": "孙权在历史上的评价为什么那么低呢？",
        "docid": "7341714063262810650",
        "url": "https://www.ixigua.com/7341714063262810650"
    },
    {
        "title": "美国发展最大的问题是什么？可能会让美国落后世界20年",
        "docid": "7361409162925834764",
        "url": "https://www.ixigua.com/7361409162925834764"
    },
    {
        "title": "252匹的45A4对上254匹的新蒙迪欧，起步就分出胜负了 #奥迪A4L",
        "docid": "7357665810485084681",
        "url": "https://www.ixigua.com/7357665810485084681"
    },
    {
        "title": "张无忌使出武当太极拳，吊打火工头陀传人，张三丰都看傻眼了！",
        "docid": "7355797524063617548",
        "url": "https://www.ixigua.com/7355797524063617548"
    },
    {
        "title": "终极测评！未来五年哪种资产最赚钱？",
        "docid": "7346838331336065563",
        "url": "https://www.ixigua.com/7346838331336065563"
    },
    {
        "title": "如果你的朋友买了小米su7！你上车后第一件事应该干什么？#小米",
        "docid": "7360387039960760847",
        "url": "https://www.ixigua.com/7360387039960760847"
    },
    {
        "title": "突击测试武汉国际学校学生英文水平？！【硬核Vlog22】",
        "docid": "7337608154219610660",
        "url": "https://www.ixigua.com/7337608154219610660"
    },
    {
        "title": "中国拳王遇到黑哨，获胜者被打进了医院，张志磊却这样回应！",
        "docid": "7331250825068708388",
        "url": "https://www.ixigua.com/7331250825068708388"
    },
    {
        "title": "法拍房，没实力别碰。",
        "docid": "7345328235393384975",
        "url": "https://www.ixigua.com/7345328235393384975"
    },
    {
        "title": "U8原地掉头特写，看着都心疼，松软砂石路面磨损太大了#仰望u8",
        "docid": "7314235699459260955",
        "url": "https://www.ixigua.com/7314235699459260955"
    },
    {
        "title": "公司终于开业啦！给每位员工都发红包，连镇长都来了，场面太隆重",
        "docid": "7358297881398542857",
        "url": "https://www.ixigua.com/7358297881398542857"
    },
    {
        "title": "【大鹏德州扑克】小胜靠技，大胜靠运！龙总翻牌拿到天葫芦！",
        "docid": "7333423174585385472",
        "url": "https://www.ixigua.com/7333423174585385472"
    },
    {
        "title": "以前的电视剧有多癫，小时候带入是主角，现在带入的是懵逼的路人",
        "docid": "7343909903771599397",
        "url": "https://www.ixigua.com/7343909903771599397"
    },
    {
        "title": "网红车坦克300，当时加价有多狠，现在亏得就有多惨！",
        "docid": "7358096853277246006",
        "url": "https://www.ixigua.com/7358096853277246006"
    },
    {
        "title": "极致的暗恋！喜欢一个人，心是藏不住的，逐帧解读《情书》P3",
        "docid": "7342115405412565567",
        "url": "https://www.ixigua.com/7342115405412565567"
    },
    {
        "title": "街霸2：红人六次升龙拳被春丽空擒杀，这操控简直帅到没朋友了！",
        "docid": "7349418009368363572",
        "url": "https://www.ixigua.com/7349418009368363572"
    },
    {
        "title": "挑战回家不撸猫~",
        "docid": "7358383143436583463",
        "url": "https://www.ixigua.com/7358383143436583463"
    },
    {
        "title": "带妹妹试驾零跑C10！年轻人怎么看这台车？",
        "docid": "7343493300533494311",
        "url": "https://www.ixigua.com/7343493300533494311"
    },
    {
        "title": "太生猛了，去海鲜市场生蚝刺身自助，捞一个炫一个",
        "docid": "7355448905075294757",
        "url": "https://www.ixigua.com/7355448905075294757"
    },
    {
        "title": "我叫独孤无敌，主角没来我是武林神话，主角来了我是武林笑话",
        "docid": "7338683995238236709",
        "url": "https://www.ixigua.com/7338683995238236709"
    },
    {
        "title": "当夹子音女生突然变声说东北话，路人脸上写满了惊讶",
        "docid": "7342444380261319183",
        "url": "https://www.ixigua.com/7342444380261319183"
    },
    {
        "title": "综合格斗十大极恶犯规：从绝育到失明，这些禁招让人目瞪口呆",
        "docid": "7346122686180885011",
        "url": "https://www.ixigua.com/7346122686180885011"
    },
    {
        "title": "发展才是硬道理！老丁找的新场地都不太行，再看下3个新位置",
        "docid": "7363544689502487081",
        "url": "https://www.ixigua.com/7363544689502487081"
    },
    {
        "title": "张无忌vs崆峒五老，乾坤大挪移vs七伤拳，一场大战一触即发！",
        "docid": "7353221707198366246",
        "url": "https://www.ixigua.com/7353221707198366246"
    },
    {
        "title": "88岁老人服毒自尽，3个儿子静等3小时，母亲去世直接拉去火葬场",
        "docid": "7365461857685111350",
        "url": "https://www.ixigua.com/7365461857685111350"
    },
    {
        "title": "日本的神仙水，在中国终于卖不动了？",
        "docid": "7362102479099691559",
        "url": "https://www.ixigua.com/7362102479099691559"
    },
    {
        "title": "B9登场：油车的荣光，全新一代迈腾来守候！",
        "docid": "7361463897900974629",
        "url": "https://www.ixigua.com/7361463897900974629"
    },
    {
        "title": "“混蛋”的性格！辅佐三巨头冠军起步，隆多与凯尔特人决裂被扫地",
        "docid": "7359899456235536922",
        "url": "https://www.ixigua.com/7359899456235536922"
    },
    {
        "title": "《神雕侠侣》中，黄蓉为什么变得让很多观众讨厌了？！",
        "docid": "7342422373036982835",
        "url": "https://www.ixigua.com/7342422373036982835"
    },
    {
        "title": "《这车有点》小米SU7，惊艳的“米家”新成员",
        "docid": "7351571493450416675",
        "url": "https://www.ixigua.com/7351571493450416675"
    },
    {
        "title": "侍魂2：乌龟五次超杀奥义喂饱手速王，手速王被秀最惨局诞生了！",
        "docid": "7360654693938397734",
        "url": "https://www.ixigua.com/7360654693938397734"
    },
    {
        "title": "海贼王 火影同人制作 白胡子对抗宇智波斑 霸气和忍术的对决",
        "docid": "7355792100128096822",
        "url": "https://www.ixigua.com/7355792100128096822"
    },
    {
        "title": "原来男人最好的医美是……",
        "docid": "7343432354200814131",
        "url": "https://www.ixigua.com/7343432354200814131"
    },
    {
        "title": "卧龙凤雏忽变道，千万别对镜子笑！",
        "docid": "7361404829148643881",
        "url": "https://www.ixigua.com/7361404829148643881"
    },
    {
        "title": "【大鹏德州扑克】刘宣翻前AK秒接ALLIN，女鲨鱼拒绝被剥削！",
        "docid": "7338339425128350220",
        "url": "https://www.ixigua.com/7338339425128350220"
    },
    {
        "title": "周瑜：这村夫是不是在耍我？",
        "docid": "7351325185338769920",
        "url": "https://www.ixigua.com/7351325185338769920"
    },
    {
        "title": "自己吓自己，胆小没出息",
        "docid": "7344682287554003494",
        "url": "https://www.ixigua.com/7344682287554003494"
    },
    {
        "title": "美国暴露强盗本性？女子继承百万房屋被人霸占，报警后自己反被捕",
        "docid": "7365892408497668634",
        "url": "https://www.ixigua.com/7365892408497668634"
    },
    {
        "title": "孩子到武汉读幼儿园，公立私立差距大吗？1年要花多少钱？",
        "docid": "7336822378917757474",
        "url": "https://www.ixigua.com/7336822378917757474"
    },
    {
        "title": "武林群雄争夺屠龙宝刀，金毛狮王霸气登场，狮吼功震翻群雄！",
        "docid": "7345030865769988645",
        "url": "https://www.ixigua.com/7345030865769988645"
    },
    {
        "title": "发传单穷小伙，攒够700万：一辈子忘不了那个跟我要罚款的保安",
        "docid": "7336167340666847782",
        "url": "https://www.ixigua.com/7336167340666847782"
    },
    {
        "title": "为啥游神突然爆火？这个流传了几百年的习俗，究竟是起源于什么？",
        "docid": "7341374688972833280",
        "url": "https://www.ixigua.com/7341374688972833280"
    },
    {
        "title": "雷总，车标卖不，我是学生",
        "docid": "7351459194458866228",
        "url": "https://www.ixigua.com/7351459194458866228"
    },
    {
        "title": "98年最后一投六冠到手，乔丹：除非我退休，否则没人能打败我们！",
        "docid": "7342130830041022995",
        "url": "https://www.ixigua.com/7342130830041022995"
    },
    {
        "title": "小伙想练成北斗神拳，结果成了按摩师傅！！ #抖音动漫杂谈研究所",
        "docid": "7348391626659594762",
        "url": "https://www.ixigua.com/7348391626659594762"
    },
    {
        "title": "没有空悬和铝合金 低配小米SU7底盘还行吗？",
        "docid": "7358297493785805353",
        "url": "https://www.ixigua.com/7358297493785805353"
    },
    {
        "title": "对抗路尽头是什么？是FLY的大局观  #kpl #2024kpl春季赛",
        "docid": "7365596213246165545",
        "url": "https://www.ixigua.com/7365596213246165545"
    },
    {
        "title": "这个太监啥都懂！半夜和妃子讨论皇上性趣，说新人像生黄瓜似的！",
        "docid": "7347533549442073142",
        "url": "https://www.ixigua.com/7347533549442073142"
    },
    {
        "title": "杰瑞成为逆天主角！在最新剧情里过于抢眼！（使命比探03）",
        "docid": "7365115009250099775",
        "url": "https://www.ixigua.com/7365115009250099775"
    },
    {
        "title": "问界M7无图智驾，挑战长沙最拥挤的高桥大市场，华为智驾服不服？",
        "docid": "7332510585521472039",
        "url": "https://www.ixigua.com/7332510585521472039"
    },
    {
        "title": "川菜omakase是怎么回事？？麻婆豆腐在线组装",
        "docid": "7354311855818408474",
        "url": "https://www.ixigua.com/7354311855818408474"
    },
    {
        "title": "张无忌为救周芷若，一人独战玄冥二老，打的他俩鼻青眼肿！",
        "docid": "7356158531441001000",
        "url": "https://www.ixigua.com/7356158531441001000"
    },
    {
        "title": "忍刀七人众之间差距有多大？只有鬼鲛稳影级，七刀满月最具潜力",
        "docid": "7335286932211302962",
        "url": "https://www.ixigua.com/7335286932211302962"
    },
    {
        "title": "62岁老爸太敢说了！锐评智界S7跟小米SU7 老爸第一次开新能源车",
        "docid": "7359514091158929931",
        "url": "https://www.ixigua.com/7359514091158929931"
    },
    {
        "title": "世界最差的格斗选手，109负19胜，成绩刷新了世界纪录！",
        "docid": "7352473049582535218",
        "url": "https://www.ixigua.com/7352473049582535218"
    },
    {
        "title": "黄药师，你不就是喜欢梅超风吗？说出来会死啊",
        "docid": "7344652273279140367",
        "url": "https://www.ixigua.com/7344652273279140367"
    },
    {
        "title": "来广州旅行，误入黑人聚集区，感觉走在了非洲的街头",
        "docid": "7360412503475487283",
        "url": "https://www.ixigua.com/7360412503475487283"
    },
    {
        "title": "卖事故车嫌小胡出价低，比完价格又回来了，小胡还加价收？",
        "docid": "7360585992144683546",
        "url": "https://www.ixigua.com/7360585992144683546"
    },
    {
        "title": "盘点拳击史上票房最高的10场比赛！梅威瑟泰森独揽前十，各占五场",
        "docid": "7362441959762231859",
        "url": "https://www.ixigua.com/7362441959762231859"
    },
    {
        "title": "30万人齐打五星！人生必看的电影之一，刷多少遍都不嫌多！",
        "docid": "7357671057064624675",
        "url": "https://www.ixigua.com/7357671057064624675"
    },
    {
        "title": "英雄可以受委屈不能没有切尔西,非洲萨普如何搭配驾驭蓝色切尔西?",
        "docid": "7360564691745112603",
        "url": "https://www.ixigua.com/7360564691745112603"
    },
    {
        "title": "外国朋友震惊中国人都住这样的房子?为啥在中国边境城市疯狂购物?",
        "docid": "7349615713499218472",
        "url": "https://www.ixigua.com/7349615713499218472"
    },
    {
        "title": "宇儿聊小米SU7，被搭讪了！",
        "docid": "7352011389222945306",
        "url": "https://www.ixigua.com/7352011389222945306"
    },
    {
        "title": "银河系中心为何异常明亮？那里究竟隐藏着怎样的秘密？",
        "docid": "7335667807259984393",
        "url": "https://www.ixigua.com/7335667807259984393"
    },
    {
        "title": "莫泊桑《流浪汉》底层人堕落：社会如何将一个善良人逼迫为罪犯？",
        "docid": "7360987439906849315",
        "url": "https://www.ixigua.com/7360987439906849315"
    },
    {
        "title": "吃掉女儿的卵，让她成为自己一辈子的奴隶，兰花蜂世界有多恐怖？",
        "docid": "7364194709842952713",
        "url": "https://www.ixigua.com/7364194709842952713"
    },
    {
        "title": "小米SU7车机设置全览，手机厂造车的“降维打击”？ #小米su7",
        "docid": "7361749052804989475",
        "url": "https://www.ixigua.com/7361749052804989475"
    },
    {
        "title": "这才叫嚣张跋扈！悍匪二弟于荣光，持枪和警察血拼，太嚣张，港片",
        "docid": "7337642889587589666",
        "url": "https://www.ixigua.com/7337642889587589666"
    },
    {
        "title": "营地倒闭潮来临",
        "docid": "7365779727753314825",
        "url": "https://www.ixigua.com/7365779727753314825"
    },
    {
        "title": "欣哲评车丨小米SU7赛道内测实录 全程真实无充值 好坏都说",
        "docid": "7351612131113959945",
        "url": "https://www.ixigua.com/7351612131113959945"
    },
    {
        "title": "【大鹏德州扑克】华人美女VIVIAN！集美貌和牌技于一身的女子！",
        "docid": "7345723522175468042",
        "url": "https://www.ixigua.com/7345723522175468042"
    },
    {
        "title": "男人遭遇“鬼打墙”，跑断腿也无法离开别墅，结果发现自己才是鬼",
        "docid": "7360851311123759616",
        "url": "https://www.ixigua.com/7360851311123759616"
    },
    {
        "title": "中国真的是五省三市养活全国吗？（下集）",
        "docid": "7340839971437314612",
        "url": "https://www.ixigua.com/7340839971437314612"
    },
    {
        "title": "凯美瑞、迈腾、雅阁谁的底盘用料扎实！",
        "docid": "7347579136371917353",
        "url": "https://www.ixigua.com/7347579136371917353"
    },
    {
        "title": "一口气看完海贼王“空白100年”！乔伊·波伊都留下了哪些秘密？",
        "docid": "7351353159823917606",
        "url": "https://www.ixigua.com/7351353159823917606"
    },
    {
        "title": "《猩球崛起4》预告解析！300年后人类丧失智商成猩猩的猎物！",
        "docid": "7338351707715764788",
        "url": "https://www.ixigua.com/7338351707715764788"
    },
    {
        "title": "龙珠超漫画超级英雄篇1:红缎带重建中，新人造人出现",
        "docid": "7359893387924898330",
        "url": "https://www.ixigua.com/7359893387924898330"
    }
]