[
    {
        "title": "倒在12码点！索斯盖特罚失关键点球，英格兰负德国无缘96欧洲杯决赛",
        "docid": "7303498436635001383",
        "url": ""
    },
    {
        "title": "突然烧到40℃！有医院日均接诊超千人 乙流患者猛增 甲流、乙流差别不大 医生建议别在家自行检测",
        "docid": "7320072939771642404",
        "url": ""
    },
    {
        "title": "夫妻俩把羊崽当作亲儿子抚养，不料羊崽的爸爸上门复仇！《羊崽》",
        "docid": "7299371480243307035",
        "url": "https://www.ixigua.com/7299371480243307035"
    },
    {
        "title": "美团线下帝国崛起，下一个中国首富",
        "docid": "7305358058741072399",
        "url": "https://www.ixigua.com/7305358058741072399"
    },
    {
        "title": "真正的兄弟情！哈登：加盟快船是因为威少，洛杉矶是我们共同的家",
        "docid": "7297096550365430307",
        "url": "https://www.ixigua.com/7297096550365430307"
    },
    {
        "title": "这位小哥的下巴就是人体液压机#看一遍笑一遍 #解压 #每日一笑",
        "docid": "7299781248573145652",
        "url": "https://www.ixigua.com/7299781248573145652"
    },
    {
        "title": "影视：干儿子出车祸后去世，得知真相后书记坐不住了",
        "docid": "7319788565414707739",
        "url": "https://www.ixigua.com/7319788565414707739"
    },
    {
        "title": "孟羽童一年的广告费400万，终于理解她为什么从格力离职",
        "docid": "7299793695992676898",
        "url": "https://www.ixigua.com/7299793695992676898"
    },
    {
        "title": "这是詹俊的故事-英超活字典，足球数据库",
        "docid": "7320143459707585074",
        "url": "https://www.ixigua.com/7320143459707585074"
    },
    {
        "title": "穿最短的裙子，弹最飒的琴！400页曲谱听完，老外当场滑跪！",
        "docid": "7321682863366242866",
        "url": "https://www.ixigua.com/7321682863366242866"
    },
    {
        "title": "星爷：是个神一般的男人， 再加上吴孟达，看了就忍不住想笑！",
        "docid": "6331729725598155009",
        "url": "https://www.ixigua.com/6331729725598155009"
    },
    {
        "title": "新网球王子，德川的复仇，一军统帅平等院凤凰的实力！",
        "docid": "6359435792323330306",
        "url": "https://www.ixigua.com/6359435792323330306"
    },
    {
        "title": "小岳岳“寡妇嗓”唱网红歌，短短几天播放破63亿，网友：太对味了",
        "docid": "7316700999983301172",
        "url": "https://www.ixigua.com/7316700999983301172"
    },
    {
        "title": "能让狄仁杰封神的出装，三打五也能拿3杀，打到对手直接投降",
        "docid": "7085661285190369807",
        "url": "https://www.ixigua.com/7085661285190369807"
    },
    {
        "title": "东游记：穿山甲得到万年魔功，成为终极大BOSS，八仙的噩梦来了",
        "docid": "7001757039613444622",
        "url": "https://www.ixigua.com/7001757039613444622"
    },
    {
        "title": "综艺大张伟爆笑接梗合集，情商爆表金句频出，每句都在我的笑点上",
        "docid": "6810671426748547587",
        "url": "https://www.ixigua.com/6810671426748547587"
    },
    {
        "title": "巅峰贝尔高光集锦：这恐怖的速度！！！",
        "docid": "7314935598081704483",
        "url": "https://www.ixigua.com/7314935598081704483"
    },
    {
        "title": "《倩女幽魂3》复刻经典究竟是狗尾续貂还是另有深意",
        "docid": "7065160944581607943",
        "url": "https://www.ixigua.com/7065160944581607943"
    },
    {
        "title": "大蛇丸：不愧是三忍，同时对付两个确实有点吃力",
        "docid": "6802227048040366603",
        "url": "https://www.ixigua.com/6802227048040366603"
    },
    {
        "title": "三路被破大翻盘，后期真神吕布恐怖级战力，闪现向前谁能挡我！",
        "docid": "7070330963007537671",
        "url": "https://www.ixigua.com/7070330963007537671"
    },
    {
        "title": "没了颜值，丢了操作，他凭什么依旧越来越火？",
        "docid": "6845244609312850443",
        "url": "https://www.ixigua.com/6845244609312850443"
    },
    {
        "title": "小女孩脑内植入神秘芯片，能屏蔽一切不良画面 ！《方舟天使》",
        "docid": "7293429353755443775",
        "url": "https://www.ixigua.com/7293429353755443775"
    },
    {
        "title": "150分钟一口气看完海贼王蛋糕岛篇章！路飞四档升级打败克力架",
        "docid": "7016538653405118983",
        "url": "https://www.ixigua.com/7016538653405118983"
    },
    {
        "title": "关羽满门被灭，太子被杀皇帝投降，都城变地狱，蜀汉灭亡有多惨？",
        "docid": "7076025543003079199",
        "url": "https://www.ixigua.com/7076025543003079199"
    },
    {
        "title": "巅峰尤文！1996-98年的尤文图斯有多强？",
        "docid": "7310385362180768290",
        "url": "https://www.ixigua.com/7310385362180768290"
    },
    {
        "title": "靠一句话行走江湖八大网红：从周立齐到小吉吉，你都知道几个？",
        "docid": "7126907861770175008",
        "url": "https://www.ixigua.com/7126907861770175008"
    },
    {
        "title": "世界拳王被判入狱，刚来就找别人麻烦，没曾想碰上个硬茬！电影",
        "docid": "6878532747627856387",
        "url": "https://www.ixigua.com/6878532747627856387"
    },
    {
        "title": "张老三全球第一貂蝉16.0满评分53.4%输出94%参团，妹纸直呼还想要",
        "docid": "7125657207483400719",
        "url": "https://www.ixigua.com/7125657207483400719"
    },
    {
        "title": "麦迪个人纪录片：长枪白马飘如诗，将飘逸演绎到极致，1号传奇！",
        "docid": "7125626745801474567",
        "url": "https://www.ixigua.com/7125626745801474567"
    },
    {
        "title": "喜剧班的春天：要被这三儿子逗死了，竟在背后八卦皇上！",
        "docid": "6742415267973825027",
        "url": "https://www.ixigua.com/6742415267973825027"
    },
    {
        "title": "盘点八名大侠：曹正淳“他真像一头猛虎啊，没想到霸刀如此厉害”",
        "docid": "6819267110238159363",
        "url": "https://www.ixigua.com/6819267110238159363"
    },
    {
        "title": "见过夏侯惇带飞吗？逆风守护高地，以一敌五力挽狂澜",
        "docid": "7008066401499873823",
        "url": "https://www.ixigua.com/7008066401499873823"
    },
    {
        "title": "🙈她才15岁啊！基迪亲密搂着女孩与她哥哥视频",
        "docid": "7304817787971568180",
        "url": "https://www.ixigua.com/7304817787971568180"
    },
    {
        "title": "一口气看完《异形》全集，从造物主到生化人，耗时40亿年！",
        "docid": "7084819023996813865",
        "url": "https://www.ixigua.com/7084819023996813865"
    },
    {
        "title": "动漫解说：一口气看完灌篮高手全国大赛",
        "docid": "7057136087642145291",
        "url": "https://www.ixigua.com/7057136087642145291"
    },
    {
        "title": "李信的实力有多强？20万大军全军覆没，秦始皇反而让他连连晋升？",
        "docid": "7085508526235517448",
        "url": "https://www.ixigua.com/7085508526235517448"
    },
    {
        "title": "第一次遇到这么凶的猪八戒，全程追着吕布揍，吕布毫无还手之力！",
        "docid": "7119486333420208680",
        "url": "https://www.ixigua.com/7119486333420208680"
    },
    {
        "title": "10年前被骂成烂片，如今却成为了经典，《剑雨》到底好看在哪？",
        "docid": "7021869170321162783",
        "url": "https://www.ixigua.com/7021869170321162783"
    },
    {
        "title": "一口气看完《不可燃物孝子传》爆肝四个月！所有精彩篇章看过瘾！",
        "docid": "7118352789851341349",
        "url": "https://www.ixigua.com/7118352789851341349"
    },
    {
        "title": "小品《吃面》：笑死人！宋小宝被坑连吃三管辣根拌面，辣出眼泪",
        "docid": "6755429631681102349",
        "url": "https://www.ixigua.com/6755429631681102349"
    },
    {
        "title": "冰雪游不止哈尔滨 全国赏雪地图出炉",
        "docid": "7321181113483788841",
        "url": ""
    },
    {
        "title": "许多曼联球迷的愿望想必在游戏里应该可以实现...",
        "docid": "7314833237388296723",
        "url": "https://www.ixigua.com/7314833237388296723"
    },
    {
        "title": "楼市起伏不定，什么时候是买房的好时机？",
        "docid": "7293801285588156947",
        "url": "https://www.ixigua.com/7293801285588156947"
    },
    {
        "title": "周海媚颜值巅峰之作，任达华演技炸裂实力加盟",
        "docid": "7311409669162041865",
        "url": "https://www.ixigua.com/7311409669162041865"
    },
    {
        "title": "全是人！经典推荐 这一段飞花令把人都用完了 再不学点就浪费了",
        "docid": "7314911185101554186",
        "url": "https://www.ixigua.com/7314911185101554186"
    },
    {
        "title": "直到看见加沙的现况，我才真懂了艾公的话，大炮是丈量国土面积的",
        "docid": "7290835213327073847",
        "url": "https://www.ixigua.com/7290835213327073847"
    },
    {
        "title": "小伙竟利用废旧油桶，给老丈人打造了一辆皮实耐用又轻便的手推车",
        "docid": "7315876473498239528",
        "url": "https://www.ixigua.com/7315876473498239528"
    },
    {
        "title": "特工的越狱方法，就是与众不同",
        "docid": "7294458733847904805",
        "url": "https://www.ixigua.com/7294458733847904805"
    },
    {
        "title": "杨毅：若哈利伯顿是流量大队的头牌明星 打到现在已是历史前50了",
        "docid": "7306437815737582120",
        "url": "https://www.ixigua.com/7306437815737582120"
    },
    {
        "title": "笑不活了！都2024年了，跨年晚会被吐槽颜值的还是四大普女哈哈！",
        "docid": "7319057204009501199",
        "url": "https://www.ixigua.com/7319057204009501199"
    },
    {
        "title": "狼人杀视频整合计划之Pandakill第二季第4期 白狼王守卫",
        "docid": "6795749058024571400",
        "url": "https://www.ixigua.com/6795749058024571400"
    },
    {
        "title": "比鲁斯热血沸腾，吉连被惊醒，悟空和凯夫拉的战斗，引来众神瞩目",
        "docid": "7072958043557888548",
        "url": "https://www.ixigua.com/7072958043557888548"
    },
    {
        "title": "四大版本潘凤名场面，东潘凤，西吕布，这就是人称无双上将的潘凤",
        "docid": "6779509077497086478",
        "url": "https://www.ixigua.com/6779509077497086478"
    },
    {
        "title": "钟无艳如何对线孙策，一锤下去孙策傻眼了！",
        "docid": "7028988919907615262",
        "url": "https://www.ixigua.com/7028988919907615262"
    },
    {
        "title": "蒙面歌王：选手刚开口，伊能静直呼歌神！真是张学友来了？",
        "docid": "6762854688959234568",
        "url": "https://www.ixigua.com/6762854688959234568"
    },
    {
        "title": "太一坠崖后嘉儿陷入黑化！天女兽错误进化——堕落天使",
        "docid": "7036955968034308616",
        "url": "https://www.ixigua.com/7036955968034308616"
    },
    {
        "title": "詹姆斯疯狂扭动大秀舞姿 队友们还真配合😂",
        "docid": "7310831608934695465",
        "url": "https://www.ixigua.com/7310831608934695465"
    },
    {
        "title": "盘点四大办会员卡名场面：只要你入了银行这个聚宝坑，我保你发财",
        "docid": "6823676286259429892",
        "url": "https://www.ixigua.com/6823676286259429892"
    },
    {
        "title": "一拳超人：完全体饿狼一拳把琦玉轰出地球！最强英雄爆破赶来救场",
        "docid": "7088638465889272327",
        "url": "https://www.ixigua.com/7088638465889272327"
    },
    {
        "title": "比顶级打手还强的老虎可杰第一视角.裴擒虎还能这样玩.刷新认知",
        "docid": "7045539446841836062",
        "url": "https://www.ixigua.com/7045539446841836062"
    },
    {
        "title": "朱元璋杀了这么多功臣，为何没有一个人反抗？帝王的心机有多可怕",
        "docid": "7057896241308369415",
        "url": "https://www.ixigua.com/7057896241308369415"
    },
    {
        "title": "太疯狂了，富豪悬赏10亿杀人，举国疯狂甚至连警察都要成为杀手！",
        "docid": "7039973344535380487",
        "url": "https://www.ixigua.com/7039973344535380487"
    },
    {
        "title": "【铁管说海贼118】两年后实力初显露！三主力震惊世界的一击！",
        "docid": "7069756378528776711",
        "url": "https://www.ixigua.com/7069756378528776711"
    },
    {
        "title": "米莱狄“天花板”来了，能轻松秒杀周瑜，15-25也能翻盘",
        "docid": "7125013829108531747",
        "url": "https://www.ixigua.com/7125013829108531747"
    },
    {
        "title": "余华英拐卖儿童案 审理过程中他的证词很关键",
        "docid": "7321632062904107520",
        "url": ""
    },
    {
        "title": "自己人别开腔！💩勇士全员登机前展歌喉 如听仙乐耳暂“聋”",
        "docid": "7316356812448465444",
        "url": "https://www.ixigua.com/7316356812448465444"
    },
    {
        "title": "花42块钱和6个美女恋爱，男大学生玩着玩着就哭了",
        "docid": "7298553813814739508",
        "url": "https://www.ixigua.com/7298553813814739508"
    },
    {
        "title": "2024或成楼市格局洗牌年：这个口子有松开的迹象了",
        "docid": "7319400764026618405",
        "url": "https://www.ixigua.com/7319400764026618405"
    },
    {
        "title": "华为海思芯片技术被窃取，WiFi芯片赛道的黑马，尊湃通讯全凭抄袭",
        "docid": "7316511445297037833",
        "url": "https://www.ixigua.com/7316511445297037833"
    },
    {
        "title": "影视：男人武功尽废被人看不起，没想到因祸得福意外突破修为",
        "docid": "7307878765881885234",
        "url": "https://www.ixigua.com/7307878765881885234"
    },
    {
        "title": "假如全球速度变低,只有我不变，会发生什么",
        "docid": "7301609951632294451",
        "url": "https://www.ixigua.com/7301609951632294451"
    },
    {
        "title": "激起民愤！以色列女兵一把推翻巴勒斯坦老妪，事后还阻挡救助",
        "docid": "7322016403840729638",
        "url": "https://www.ixigua.com/7322016403840729638"
    },
    {
        "title": "珍藏！ 广东宏远宝玛仕黄金一代VS现役广东男篮5分钟录像回顾",
        "docid": "7318200538913309235",
        "url": "https://www.ixigua.com/7318200538913309235"
    },
    {
        "title": "王大陆：唐僧和我有什么区别，唐僧取经我娶你！明星土味情话合集",
        "docid": "6825874838528197134",
        "url": "https://www.ixigua.com/6825874838528197134"
    },
    {
        "title": "罗杰被正式处死，红发当场泪崩！终于看到鹰眼和龙年轻时长啥样了",
        "docid": "7000205639980941828",
        "url": "https://www.ixigua.com/7000205639980941828"
    },
    {
        "title": "湖南春晚：刘宪华红色战袍唱《龙的传人》，小提琴拉响，燃炸全场",
        "docid": "6785888478090494471",
        "url": "https://www.ixigua.com/6785888478090494471"
    },
    {
        "title": "“制裁”刘禅：一个大招秒程咬金，这伤害离谱！",
        "docid": "7110236042115940878",
        "url": "https://www.ixigua.com/7110236042115940878"
    },
    {
        "title": "护国狂魔张玉安：1人舌战11国选手，扬言要让日本选手跪着听历史",
        "docid": "7103719608770626056",
        "url": "https://www.ixigua.com/7103719608770626056"
    },
    {
        "title": "盘点神级反转名场面，王大锤：就因为我像彦祖，所以不能当歌手吗",
        "docid": "6808846243641426439",
        "url": "https://www.ixigua.com/6808846243641426439"
    },
    {
        "title": "逼真的义耳是如何制作出来的？对缺失耳朵的人来说，真是伟大发明",
        "docid": "7296063099273609762",
        "url": "https://www.ixigua.com/7296063099273609762"
    },
    {
        "title": "李铁以前的采访挺有意思，我们都被他骗了",
        "docid": "7320445120241893938",
        "url": "https://www.ixigua.com/7320445120241893938"
    },
    {
        "title": "“技能流”廉颇对线吕布！一套就打他7000伤害？连杀5次直接崩溃",
        "docid": "7014013721085379108",
        "url": "https://www.ixigua.com/7014013721085379108"
    },
    {
        "title": "动漫解说：一口气看完《龙珠》",
        "docid": "7057100008448852494",
        "url": "https://www.ixigua.com/7057100008448852494"
    },
    {
        "title": "爆红5季！打破美剧烂尾命运！9.6分神剧《绝命毒师》终极大结局",
        "docid": "7008849511141671461",
        "url": "https://www.ixigua.com/7008849511141671461"
    },
    {
        "title": "李小璐有多酷爱嘻哈范，即兴说唱张口就来，这水平真不是盖的",
        "docid": "6818079048128791052",
        "url": "https://www.ixigua.com/6818079048128791052"
    },
    {
        "title": "“刺猬流”哪吒：拥有75%免伤还能秒天秒地！场均20个头以上",
        "docid": "7036164941388186143",
        "url": "https://www.ixigua.com/7036164941388186143"
    },
    {
        "title": "一个杯子能倒水，但他却不能喝#动画解说#人性#动画",
        "docid": "7314647782026019328",
        "url": "https://www.ixigua.com/7314647782026019328"
    },
    {
        "title": "异星魔怪，终极冒险！比肩《异形》设定生猛的科幻恐怖电影",
        "docid": "7092326495246516749",
        "url": "https://www.ixigua.com/7092326495246516749"
    },
    {
        "title": "24年状元热门亚历克斯-萨尔NBL集锦 场均18分钟9.6+4.4+1.1帽",
        "docid": "7320565555076235785",
        "url": "https://www.ixigua.com/7320565555076235785"
    },
    {
        "title": "布兰妮是如何被囚禁的，一代天后沦为美国噩梦，真相不堪入目",
        "docid": "7057868890575110664",
        "url": "https://www.ixigua.com/7057868890575110664"
    },
    {
        "title": "蒙面歌王：选手一开口，孙皓鸡皮疙瘩都起来了！听得我浑身酥！",
        "docid": "6763192485876335116",
        "url": "https://www.ixigua.com/6763192485876335116"
    },
    {
        "title": "酷谐代仙直播，抓职业选手代价有多大？无敌花木兰满地图寻仇",
        "docid": "7086891422615339532",
        "url": "https://www.ixigua.com/7086891422615339532"
    },
    {
        "title": "警局全员恶人，复仇女警展开血洗行动，枪枪毙命一个不留！动作片",
        "docid": "7052644926630134285",
        "url": "https://www.ixigua.com/7052644926630134285"
    },
    {
        "title": "世界级抓人比赛，10个最精彩的抓人过程。",
        "docid": "6808870638149698048",
        "url": "https://www.ixigua.com/6808870638149698048"
    },
    {
        "title": "民间高手浇地，太有智慧了",
        "docid": "7292229331907314227",
        "url": "https://www.ixigua.com/7292229331907314227"
    },
    {
        "title": "“钢筋流”鲁班：肉到离谱，伤害爆炸！",
        "docid": "7058050283049320991",
        "url": "https://www.ixigua.com/7058050283049320991"
    },
    {
        "title": "《寻味》丨川渝锅底上海味",
        "docid": "7321240401124377142",
        "url": ""
    },
    {
        "title": "2021最火韩综《单身即地狱》（上）",
        "docid": "7053354434562097677",
        "url": "https://www.ixigua.com/7053354434562097677"
    },
    {
        "title": "预言怪才尹正，尹正：猫是老虎是师父，黄子韬：真的？",
        "docid": "6817454083209691651",
        "url": "https://www.ixigua.com/6817454083209691651"
    },
    {
        "title": "“终结9秒”刘禅：如果终结技能只有9秒CD会怎样，竟然恐怖如斯？",
        "docid": "7053370059523424804",
        "url": "https://www.ixigua.com/7053370059523424804"
    },
    {
        "title": "实力的蒙面唱将，完美的低音唱功，这竟是陈楚生？",
        "docid": "6840601553737351688",
        "url": "https://www.ixigua.com/6840601553737351688"
    },
    {
        "title": "电影：人类往江里倒入有害物，导致江里的鱼跑到陆地，变成了怪物",
        "docid": "6911754289232740876",
        "url": "https://www.ixigua.com/6911754289232740876"
    },
    {
        "title": "消失歌手去哪了2:黄义达出家/萧潇变网红/Tank心脏病 Ringo姐姐",
        "docid": "7054764832842908173",
        "url": "https://www.ixigua.com/7054764832842908173"
    },
    {
        "title": "伽罗退位，后羿下台，米莱狄才是“最强射手”，能打的鲁班喊爸爸",
        "docid": "7119742583760716328",
        "url": "https://www.ixigua.com/7119742583760716328"
    },
    {
        "title": "新上海书城为何有那么多踮脚也够不到的书",
        "docid": "7321206884302733839",
        "url": ""
    },
    {
        "title": "卡恩：只要有我在，就没有球能进得去！",
        "docid": "7312611809544897060",
        "url": "https://www.ixigua.com/7312611809544897060"
    },
    {
        "title": "港娱25载，细数红极一时的八大名场面，你还记得哪一个？",
        "docid": "7115759566364607014",
        "url": "https://www.ixigua.com/7115759566364607014"
    },
    {
        "title": "盘点：柯达五大名场面，大哥这个倭寇有点不一样啊，还跑了俩",
        "docid": "6813262529586790920",
        "url": "https://www.ixigua.com/6813262529586790920"
    },
    {
        "title": "热血歌曲《乱世巨星》遇上张万霖，放眼整个上海滩，谁敢动我！",
        "docid": "6804830096319316491",
        "url": "https://www.ixigua.com/6804830096319316491"
    },
    {
        "title": "“三宝石”关羽：当移速突破700的时候，我变成了光",
        "docid": "7069376100899652133",
        "url": "https://www.ixigua.com/7069376100899652133"
    },
    {
        "title": "对比乔丹和詹姆斯所压制的球星，就知道谁才是GOAT",
        "docid": "7310935987096715817",
        "url": "https://www.ixigua.com/7310935987096715817"
    },
    {
        "title": "【国庆特制】如果王家卫来拍亮剑，这是你没看过的李云龙",
        "docid": "7013909402180649486",
        "url": "https://www.ixigua.com/7013909402180649486"
    },
    {
        "title": "用钱买的怎么输😂李铁冲超采访：没有对手能从我们身上带走1分",
        "docid": "7322098289166500406",
        "url": ""
    },
    {
        "title": "那些综艺里让人气愤的瞬间！当众戳人伤疤，把低俗趣味当笑点！",
        "docid": "7036313269719532039",
        "url": "https://www.ixigua.com/7036313269719532039"
    },
    {
        "title": "王力宏《天地龙鳞》气势磅礴，听得热血沸腾，难得的好歌",
        "docid": "7051151771720221214",
        "url": "https://www.ixigua.com/7051151771720221214"
    },
    {
        "title": "科幻片：末日后，机器人饲养人类，幸存者奋起反抗却发现可怕真相",
        "docid": "6787193061496586756",
        "url": "https://www.ixigua.com/6787193061496586756"
    },
    {
        "title": "【中国武侠经典】中国最好的武侠片，曾轰动全世界，仅花费120万",
        "docid": "7107973544981725733",
        "url": "https://www.ixigua.com/7107973544981725733"
    },
    {
        "title": "胡塞导弹不长眼，印度海军倾巢出动，莫迪要给胡塞一点颜色瞧瞧",
        "docid": "7319810472465662515",
        "url": "https://www.ixigua.com/7319810472465662515"
    },
    {
        "title": "人口下降后，盖了那么多房子卖给谁？",
        "docid": "7041886618176717345",
        "url": "https://www.ixigua.com/7041886618176717345"
    },
    {
        "title": "模仿史上最强戒烟#戒烟 #烟民看过来 #看一遍笑一遍",
        "docid": "7300522450935087643",
        "url": "https://www.ixigua.com/7300522450935087643"
    },
    {
        "title": "中国太阳的牌面❗众多曼城球星录视频支持孙继海的“海选未来”计划",
        "docid": "7322029931394531881",
        "url": ""
    },
    {
        "title": "乌鸦哥有多狠？谈判时一句话不说，一直倒酒，吓的对方瑟瑟发抖！",
        "docid": "7084961447163200034",
        "url": "https://www.ixigua.com/7084961447163200034"
    },
    {
        "title": "哈尔滨再整新活：松花江上铺地毯，鹤岗唯一的鹤现身中央大街",
        "docid": "7321194249343959586",
        "url": "https://www.ixigua.com/7321194249343959586"
    },
    {
        "title": "用中文在国外点餐，只要足够社牛，在任何地方都可以用中文",
        "docid": "7315651995405615616",
        "url": "https://www.ixigua.com/7315651995405615616"
    },
    {
        "title": "生抢哈登字母哥！让钩子蒸发13亿美金！盘点锡安的五个恐怖瞬间",
        "docid": "7305744575375606272",
        "url": "https://www.ixigua.com/7305744575375606272"
    },
    {
        "title": "《甜蜜家园》第二季，怪物之王诞生，能力逆天引领怪物全面进化",
        "docid": "7307894051028926987",
        "url": "https://www.ixigua.com/7307894051028926987"
    },
    {
        "title": "巴以交战真实画面，哈马斯闪电突袭以色列，海陆空三位一体打击",
        "docid": "7296013753122816531",
        "url": "https://www.ixigua.com/7296013753122816531"
    },
    {
        "title": "南方小土豆入侵哈尔滨，东北人有多宠小土豆，烤肠大爷都喊公主了",
        "docid": "7317578635719016987",
        "url": "https://www.ixigua.com/7317578635719016987"
    },
    {
        "title": "还能这么踢❓贝肯鲍尔这脚外脚背任意球太写意了，看着都没发力",
        "docid": "7321919924510376502",
        "url": ""
    },
    {
        "title": "金马奖最佳动作片！咏春大师为教功夫，美艳老婆被抓，徒弟被杀！",
        "docid": "7008835325715808806",
        "url": "https://www.ixigua.com/7008835325715808806"
    },
    {
        "title": "张雪峰因文科都是服务业言论被起诉，疑发微博回应：有条狗冲我叫",
        "docid": "7321709923317285411",
        "url": "https://www.ixigua.com/7321709923317285411"
    },
    {
        "title": "随风是唯一能够和小锦儿对比的李白.我们看下他们两个有什么不同",
        "docid": "7052279808830800414",
        "url": "https://www.ixigua.com/7052279808830800414"
    },
    {
        "title": "这一次，董宇辉不再沉默，与东方小孙激烈沟通，善良也要带点锋芒",
        "docid": "7310915898829865510",
        "url": "https://www.ixigua.com/7310915898829865510"
    },
    {
        "title": "项少龙连晋殿前比试，连晋惨遭项少龙戏耍，输人又输阵",
        "docid": "7097574229943845412",
        "url": "https://www.ixigua.com/7097574229943845412"
    },
    {
        "title": "魔幻般的步伐，世界足坛最具创意的运球，既花哨又有趣",
        "docid": "6784983585540538883",
        "url": "https://www.ixigua.com/6784983585540538883"
    },
    {
        "title": "能让米莱狄成神的装备，前期就能崛起，吕布都能随便单杀！",
        "docid": "7038577390011974180",
        "url": "https://www.ixigua.com/7038577390011974180"
    },
    {
        "title": "攻守皆是大神！贝肯鲍尔世界杯顶级集锦🎥超强的六边形战士",
        "docid": "7321908580268425763",
        "url": ""
    },
    {
        "title": "猩猩和人类开战，刚上桥发现不对劲，立即下令族人散开",
        "docid": "7125413518631043619",
        "url": "https://www.ixigua.com/7125413518631043619"
    },
    {
        "title": "街头弹珠骗术，20元一次谁玩谁赔，里面到底藏着什么机关？",
        "docid": "7057816463595274760",
        "url": "https://www.ixigua.com/7057816463595274760"
    },
    {
        "title": "日本能登地震已致126死，日本政府宣称“目前只接受美国援助”",
        "docid": "7320859739708260898",
        "url": "https://www.ixigua.com/7320859739708260898"
    },
    {
        "title": "两个女司机，分别撞上骑车大妈，这车祸我也看不懂了……",
        "docid": "7312087716894605865",
        "url": "https://www.ixigua.com/7312087716894605865"
    },
    {
        "title": "南韩老兵和北朝鲜士兵的“爱恨情仇",
        "docid": "7303546214023168527",
        "url": "https://www.ixigua.com/7303546214023168527"
    },
    {
        "title": "2021KPL年度胜率第一射手易峥第一视角，最强公孙离究竟能多细节",
        "docid": "7032175591679853064",
        "url": "https://www.ixigua.com/7032175591679853064"
    },
    {
        "title": "网游中当商人有多赚钱？网友曝光其流水：月入291万仅支出83万",
        "docid": "6875611224059576836",
        "url": "https://www.ixigua.com/6875611224059576836"
    },
    {
        "title": "生涯高光一战！孔塞桑上演帽子戏法，送德国小组垫底出局",
        "docid": "7322051836062630435",
        "url": ""
    },
    {
        "title": "记者见闻：流感药供应充足吗？",
        "docid": "7322075484521906729",
        "url": ""
    },
    {
        "title": "2022最新动作电影《魔女2》二代魔女掀起腥风血雨，战斗力爆表",
        "docid": "7122750218717790750",
        "url": "https://www.ixigua.com/7122750218717790750"
    },
    {
        "title": "三好学生开学第一天，仅凭一张脸，就当上了学校老大！",
        "docid": "7116814575567438367",
        "url": "https://www.ixigua.com/7116814575567438367"
    },
    {
        "title": "2023懂车帝冬测超充测试结果公布：哪辆车才是“真800V”？",
        "docid": "7308978694503170587",
        "url": "https://www.ixigua.com/7308978694503170587"
    },
    {
        "title": "盘点：沙溢老师在综艺里的名场面，也是位被综艺之神眷顾的男人！",
        "docid": "6813734310571409927",
        "url": "https://www.ixigua.com/6813734310571409927"
    },
    {
        "title": "忽必烈38：元朝开国皇后有多霸道？一个眼神惊呆忽必烈，当场道歉",
        "docid": "7038930506016096775",
        "url": "https://www.ixigua.com/7038930506016096775"
    },
    {
        "title": "赵本山小品生涯中的最后一个作品，和宋小宝爆笑全场 (二)",
        "docid": "6809548879004959239",
        "url": "https://www.ixigua.com/6809548879004959239"
    },
    {
        "title": "冷门好球丨云代尔疯狂大四喜，包括这粒精彩远射",
        "docid": "7321708514446426658",
        "url": ""
    },
    {
        "title": "被禁播，被删减，真正的童年阴影来了！《第8号当铺》第一期",
        "docid": "7058236788162167333",
        "url": "https://www.ixigua.com/7058236788162167333"
    },
    {
        "title": "内心柔软且有原则，身披铠甲而有温度",
        "docid": "7301896086338470400",
        "url": "https://www.ixigua.com/7301896086338470400"
    },
    {
        "title": "比关羽还强的男人！一战封神立下大功，却被主公暗中毒杀？",
        "docid": "7086244513638777381",
        "url": "https://www.ixigua.com/7086244513638777381"
    },
    {
        "title": "电视剧《安家》小品版，卖房子夸的人都飘了！",
        "docid": "6803982663167246860",
        "url": "https://www.ixigua.com/6803982663167246860"
    },
    {
        "title": "盘点四大坑儿名场面，万万没想到大锤被刘备摔死了，好没尊严啊",
        "docid": "6827760791928701443",
        "url": "https://www.ixigua.com/6827760791928701443"
    },
    {
        "title": "打野百分百抓到人的技巧",
        "docid": "7016316638530109984",
        "url": "https://www.ixigua.com/7016316638530109984"
    },
    {
        "title": "二流子蜥蜴上演西部传奇，国内的魔幻配音，3D动漫《兰戈》",
        "docid": "7024490267814298119",
        "url": "https://www.ixigua.com/7024490267814298119"
    },
    {
        "title": "国王杯淘汰黄潜后抽中巴萨，第三级别球队萨拉曼卡全队欢呼雀跃",
        "docid": "7321926899498959410",
        "url": ""
    },
    {
        "title": "《雷神4》：雷神大展神威，秒杀神王宙斯，血洗宙斯神殿",
        "docid": "7124963495698924069",
        "url": "https://www.ixigua.com/7124963495698924069"
    },
    {
        "title": "“巨肉流”甄姬：场均1000护甲+500魔抗，兰陵王看了真想吐血",
        "docid": "7016989483270668814",
        "url": "https://www.ixigua.com/7016989483270668814"
    },
    {
        "title": "破坏神很不耐烦，竟敢打扰他的清净，可下一秒，他当场跪下",
        "docid": "7011811996760801829",
        "url": "https://www.ixigua.com/7011811996760801829"
    },
    {
        "title": "五年前的亏，詹姆斯吃一次就记住",
        "docid": "7309703573415395849",
        "url": "https://www.ixigua.com/7309703573415395849"
    },
    {
        "title": "小伙藏在机器人队伍中，不料还是被机器人老大发现了！印度电影",
        "docid": "7301961260000608808",
        "url": "https://www.ixigua.com/7301961260000608808"
    },
    {
        "title": "遇到百发百中百里咋办？智商碾压也是一种取胜手段！",
        "docid": "7094267928031429160",
        "url": "https://www.ixigua.com/7094267928031429160"
    },
    {
        "title": "布罗利出场即无敌， 传超实力恐怖如此【旧版布罗利】",
        "docid": "6892706209409794563",
        "url": "https://www.ixigua.com/6892706209409794563"
    },
    {
        "title": "贝肯鲍尔PK克鲁伊夫！🎥1974年世界杯决赛：德国2-1荷兰",
        "docid": "7321925618961613347",
        "url": ""
    },
    {
        "title": "起猛了馒头竟然能做成烧鸡 网友：蒸馒头也要考研吗？ ​",
        "docid": "7289330420607500860",
        "url": ""
    },
    {
        "title": "2024年各大卫视跨年晚会，阵容堪比神仙打架，你都看了吗？",
        "docid": "7319070865571643954",
        "url": "https://www.ixigua.com/7319070865571643954"
    },
    {
        "title": "不良人：人人都想螳螂捕蝉黄雀在后，可真正布局之人却从未现身",
        "docid": "7317470493123183155",
        "url": "https://www.ixigua.com/7317470493123183155"
    },
    {
        "title": "国外小哥做大死，竟敢光着膀子与蛮牛玩单挑，下一秒求锤得锤",
        "docid": "7313918912716866086",
        "url": "https://www.ixigua.com/7313918912716866086"
    },
    {
        "title": "刚下班就遇到了丧尸大爆发，第一视角带你用各种武器大战丧尸",
        "docid": "7288971530582065721",
        "url": "https://www.ixigua.com/7288971530582065721"
    },
    {
        "title": "无规矩不成方圆#似火流年 #似火流年年度狠剧",
        "docid": "7304892256614842921",
        "url": "https://www.ixigua.com/7304892256614842921"
    },
    {
        "title": "龙年纪念币纪念钞启动兑换 网点大排长龙",
        "docid": "7322080544995754515",
        "url": ""
    },
    {
        "title": "（二）在杨过面前的这一跪，郭芙用了整整的二十年！",
        "docid": "6875492776377582093",
        "url": "https://www.ixigua.com/6875492776377582093"
    },
    {
        "title": "美国不聪明天才科学家设计的坦克",
        "docid": "7308283909148672564",
        "url": "https://www.ixigua.com/7308283909148672564"
    },
    {
        "title": "盘点小时候，那些令人绝望的巨痛瞬间，你都经历过几个#动画",
        "docid": "7294988676160094739",
        "url": "https://www.ixigua.com/7294988676160094739"
    },
    {
        "title": "会哭的孩子有糖吃",
        "docid": "7304153216797639209",
        "url": "https://www.ixigua.com/7304153216797639209"
    },
    {
        "title": "周星驰作弊靠警局，成龙作弊靠小抄，盘点那些花样百出的作弊方式",
        "docid": "6827455337801449991",
        "url": "https://www.ixigua.com/6827455337801449991"
    },
    {
        "title": "听听四位主播如何评论董宇辉升职加薪的背后",
        "docid": "7314644588973523508",
        "url": "https://www.ixigua.com/7314644588973523508"
    },
    {
        "title": "不费一兵大败二十万大军！韩信最神一计，三个月灭国项羽灭亡伏笔",
        "docid": "7050276087078748679",
        "url": "https://www.ixigua.com/7050276087078748679"
    },
    {
        "title": "记者观察丨新年伊始 新能源车企价格战继续“卷”",
        "docid": "7321696490463330842",
        "url": ""
    },
    {
        "title": "性感天后蔡妍：称金钟国是自己偶像，转身却对蔡徐坤犯起“花痴”",
        "docid": "7003998173056533005",
        "url": "https://www.ixigua.com/7003998173056533005"
    },
    {
        "title": "动作片：小伙成为全校老大，却遭其他学校挑衅，一怒挑战对方全校",
        "docid": "6854363477918941710",
        "url": "https://www.ixigua.com/6854363477918941710"
    },
    {
        "title": "“电刀轰炸流”墨子太残忍，一炮闪电加爆炸把对面全轰没了",
        "docid": "7026332113649533444",
        "url": "https://www.ixigua.com/7026332113649533444"
    },
    {
        "title": "拼了！哈工大喜迎小砂糖橘参观，现场安排小火箭发射表演",
        "docid": "7320852613086315071",
        "url": "https://www.ixigua.com/7320852613086315071"
    },
    {
        "title": "女孩扫地扫把莫名消失，一看监控傻眼了",
        "docid": "7289507959279714853",
        "url": "https://www.ixigua.com/7289507959279714853"
    },
    {
        "title": "裘千尺逼杨过娶女儿，杨过不从他竟用这种方法",
        "docid": "7293984021670068745",
        "url": "https://www.ixigua.com/7293984021670068745"
    },
    {
        "title": "“辅助流”甄姬：18分钟比赛15分钟都在减速，钟馗偷偷躲在角落哭",
        "docid": "6999918989782549028",
        "url": "https://www.ixigua.com/6999918989782549028"
    },
    {
        "title": "从“离家近”，到把这里变成自己家 这是属于皇马队长的进击之路",
        "docid": "7313139293063807499",
        "url": "https://www.ixigua.com/7313139293063807499"
    },
    {
        "title": "这些采访有多尬？当着章子怡、刘亦菲面内涵本人，忍爆炸了",
        "docid": "7075661803258118670",
        "url": "https://www.ixigua.com/7075661803258118670"
    },
    {
        "title": "白毛坏坏的疯化之路，本是高才生，却成绝命毒师：角头外传浪流连",
        "docid": "7087948587451023903",
        "url": "https://www.ixigua.com/7087948587451023903"
    },
    {
        "title": "赖神被青帝猴子打到4-7还能赢下比赛？！",
        "docid": "7056578886833799692",
        "url": "https://www.ixigua.com/7056578886833799692"
    },
    {
        "title": "越军司令记忆中的中越战争：高平只剩一栋楼房，因为贴了毛主席像",
        "docid": "7312792682819617320",
        "url": "https://www.ixigua.com/7312792682819617320"
    },
    {
        "title": "两萌娃在巷子里玩耍，面对突然出现的车",
        "docid": "7318207822313980467",
        "url": "https://www.ixigua.com/7318207822313980467"
    },
    {
        "title": "格林：多少家长心中的望子成龙，实际上却毁了孩子的一生",
        "docid": "7303159587644015104",
        "url": "https://www.ixigua.com/7303159587644015104"
    },
    {
        "title": "北方人打雪仗都这么猛吗？带上医保就是干",
        "docid": "7299046805503738418",
        "url": "https://www.ixigua.com/7299046805503738418"
    },
    {
        "title": "纯白荣耀自此开始🤩1947年的今天查马丁（现伯纳乌）正式启用",
        "docid": "7312402182723093046",
        "url": ""
    },
    {
        "title": "【盘点】如果沙溢在综艺节目中，受到的伤害有段位，沙溢：不玩了",
        "docid": "6819554464257540615",
        "url": "https://www.ixigua.com/6819554464257540615"
    },
    {
        "title": "影视中的“文盲”名场面，岳云鹏愣是把心中无尘，说成生煎中心",
        "docid": "6807201631046730254",
        "url": "https://www.ixigua.com/6807201631046730254"
    },
    {
        "title": "公主请上车，公主的一天充满仪式感！",
        "docid": "7293490742932111906",
        "url": "https://www.ixigua.com/7293490742932111906"
    },
    {
        "title": "“5无尽”黄忠：你们没想到吧，二技能还能这么用！",
        "docid": "6876737599558386180",
        "url": "https://www.ixigua.com/6876737599558386180"
    },
    {
        "title": "综艺爆笑名场面，马东：岳云鹏拿第一你觉得他配吗？沈腾：呸！",
        "docid": "6782758652596978187",
        "url": "https://www.ixigua.com/6782758652596978187"
    },
    {
        "title": "这部电影，我敢说它绝对是你的童年阴影！惊悚片《大头怪婴》",
        "docid": "7289348854770565689",
        "url": "https://www.ixigua.com/7289348854770565689"
    },
    {
        "title": "我们犯的是死罪，医院院长倒卖出生证明每张赚6万给拐卖儿童洗白",
        "docid": "7298374604450431524",
        "url": "https://www.ixigua.com/7298374604450431524"
    },
    {
        "title": "全网年入千万的八大广东网红：一场直播3个亿，坐拥上海七套房？",
        "docid": "7009867847123862029",
        "url": "https://www.ixigua.com/7009867847123862029"
    },
    {
        "title": "盘点影视大型“看脸”场面，长得好看真可以为所欲为，这变脸太快",
        "docid": "6815115639288496643",
        "url": "https://www.ixigua.com/6815115639288496643"
    },
    {
        "title": "小伙用简易材料就打造出特斯拉电动汽车，这跑在路上也太拉风了吧",
        "docid": "7295276013817332243",
        "url": "https://www.ixigua.com/7295276013817332243"
    },
    {
        "title": "速冻后的广东人#搞笑 #内容过于真实 #看一遍笑一遍 #广东降温",
        "docid": "7313122571955012150",
        "url": "https://www.ixigua.com/7313122571955012150"
    },
    {
        "title": "综艺感爆棚的明星合集，沈腾扬言刘德华长的太丑，自己挖坑自己跳",
        "docid": "6810647740431729155",
        "url": "https://www.ixigua.com/6810647740431729155"
    },
    {
        "title": "孙悟空现出真身，一只巨型大猩猩，打得牛魔王惨叫连连！奇幻片",
        "docid": "6888491922965561863",
        "url": "https://www.ixigua.com/6888491922965561863"
    },
    {
        "title": "没想到将两个灭火器这样一番改造，竟能制作快速升温的室内供暖炉",
        "docid": "7311748191953617442",
        "url": "https://www.ixigua.com/7311748191953617442"
    },
    {
        "title": "实测南方小土豆在东北市场买一个水果不会被老板囊",
        "docid": "7318050560261751333",
        "url": "https://www.ixigua.com/7318050560261751333"
    },
    {
        "title": "大尺度恋综来袭，这季的女嘉宾可都不简单，狐狸上线！",
        "docid": "7312383061420114468",
        "url": "https://www.ixigua.com/7312383061420114468"
    },
    {
        "title": "孩子用水枪呲爸爸遭反击，捂着脑袋大喊别再射了：敢和90后斗？",
        "docid": "7311289350568804901",
        "url": "https://www.ixigua.com/7311289350568804901"
    },
    {
        "title": "iu：曾被嘲长得丑，遭朴明秀公开刁难，后凭唱功逆袭成人气女王",
        "docid": "7129386109657678367",
        "url": "https://www.ixigua.com/7129386109657678367"
    },
    {
        "title": "双截龙格斗：比利该如何征服BOSS，这在当年也是一大难题",
        "docid": "7121191134986306061",
        "url": "https://www.ixigua.com/7121191134986306061"
    },
    {
        "title": "1937年南京沦陷珍贵影像，日军疯狂庆祝，众多南京大屠杀罪魁出镜",
        "docid": "7311635916085592585",
        "url": "https://www.ixigua.com/7311635916085592585"
    },
    {
        "title": "修好心中的那座桥才是最重要的事#银河补习班 #邓超 #白宇",
        "docid": "7305299682211660325",
        "url": "https://www.ixigua.com/7305299682211660325"
    },
    {
        "title": "为什么Lisa的颜在全球好评，却被韩网打压？",
        "docid": "7021834210478555661",
        "url": "https://www.ixigua.com/7021834210478555661"
    },
    {
        "title": "德华居然赖神附体！用老夫子carry打上将近2200分！",
        "docid": "7071169338643841548",
        "url": "https://www.ixigua.com/7071169338643841548"
    },
    {
        "title": "香港“大圈帮”火拼本土黑帮，一句话引发两大社团千人混战，港片",
        "docid": "7101148324178330143",
        "url": "https://www.ixigua.com/7101148324178330143"
    },
    {
        "title": "伊一《舞娘》跑调惊着全场！于文文捂脸薛之谦抓狂，毛不易懵了",
        "docid": "6703792260485480974",
        "url": "https://www.ixigua.com/6703792260485480974"
    },
    {
        "title": "德华全网领头羊哪吒，巅峰赛0-6评分仅仅2.8，惨遭粉丝举报禁赛！",
        "docid": "6905964450944287239",
        "url": "https://www.ixigua.com/6905964450944287239"
    },
    {
        "title": "这样用木头手工制作的创意洗漱台还是第一次见，真是让人大开眼界",
        "docid": "7296940067073983027",
        "url": "https://www.ixigua.com/7296940067073983027"
    },
    {
        "title": "学校出现诡异事件，课桌在操场上竟然拼出巨大数字9！《倒计时》",
        "docid": "7315716199365640742",
        "url": "https://www.ixigua.com/7315716199365640742"
    },
    {
        "title": "男子骑三轮车失控撞进诊所，测量血压的大叔血压飙升，不可思议呀",
        "docid": "7310186284994003507",
        "url": "https://www.ixigua.com/7310186284994003507"
    },
    {
        "title": "这15倍镜AWM就离谱，捡到就吃鸡！",
        "docid": "6917834974422893063",
        "url": "https://www.ixigua.com/6917834974422893063"
    },
    {
        "title": "女孩自己动手给家里安装了一套地暖 轻松告别冬天的寒冷#手工diy",
        "docid": "7301673630587912714",
        "url": "https://www.ixigua.com/7301673630587912714"
    },
    {
        "title": "电影解析：冲击感十足，动感时刻，完美融合的极致动作力作！",
        "docid": "7322334648418173476",
        "url": "https://www.ixigua.com/7322334648418173476"
    },
    {
        "title": "男主表面上唯唯诺诺，实则是一个隐藏大佬",
        "docid": "7087506710352527879",
        "url": "https://www.ixigua.com/7087506710352527879"
    },
    {
        "title": "云天河的芈月有多强？！打得枷锁元歌直呼受不了！",
        "docid": "7073758655300141579",
        "url": "https://www.ixigua.com/7073758655300141579"
    },
    {
        "title": "这样用便当盒种植空心菜的方式还是头一次见，真是高端创意又实用",
        "docid": "7304414711452598796",
        "url": "https://www.ixigua.com/7304414711452598796"
    },
    {
        "title": "影视中那些男神反派，网友：不怕反派坏，就怕反派帅！",
        "docid": "6809922698043458060",
        "url": "https://www.ixigua.com/6809922698043458060"
    },
    {
        "title": "比鲁斯与布欧大战，谁才是真正的破坏神，那个男人出现，震撼全场",
        "docid": "7075192867219571213",
        "url": "https://www.ixigua.com/7075192867219571213"
    },
    {
        "title": "刘禅：追又追不上，打又打不死，跑又跑不掉",
        "docid": "7013665988961174024",
        "url": "https://www.ixigua.com/7013665988961174024"
    },
    {
        "title": "周海媚19～57岁荧幕变化，女神一路走好",
        "docid": "7311482872630608396",
        "url": "https://www.ixigua.com/7311482872630608396"
    },
    {
        "title": "汪苏泷和他的漂亮姐姐们，别人上音综他上恋综，台下满脸姨母笑",
        "docid": "7320493156422976019",
        "url": "https://www.ixigua.com/7320493156422976019"
    },
    {
        "title": "这才叫嚣张！黑警陷害记者入狱，还侮辱他女朋友，港片解说",
        "docid": "7058627848919056899",
        "url": "https://www.ixigua.com/7058627848919056899"
    },
    {
        "title": "米莱狄是对抗路第一战神，能轻松单杀关羽，单挑团战都无敌",
        "docid": "7029679054093713933",
        "url": "https://www.ixigua.com/7029679054093713933"
    },
    {
        "title": "《终末的女武神》原作漫画，战力排名 TOP15，截至2022年6月25日",
        "docid": "7118704359084392973",
        "url": "https://www.ixigua.com/7118704359084392973"
    },
    {
        "title": "谢霆锋《活着viva》 经典中的经典！",
        "docid": "6769178491653980684",
        "url": "https://www.ixigua.com/6769178491653980684"
    },
    {
        "title": "比异形更可怕的深海寄生虫！高分科幻电影《夺命高校》",
        "docid": "7006914823921500708",
        "url": "https://www.ixigua.com/7006914823921500708"
    },
    {
        "title": "现在德华是为了节目效果而下饭，那么以前的德华究竟有多强？",
        "docid": "7035574234860651046",
        "url": "https://www.ixigua.com/7035574234860651046"
    },
    {
        "title": "甄子丹现场表演咏春合集，速度真的太快，把录音麦克风都打断了！",
        "docid": "6814033715782484487",
        "url": "https://www.ixigua.com/6814033715782484487"
    },
    {
        "title": "僵约42：将臣为娶女娲，不惜与全世界为敌，没想到老天爷都不同意",
        "docid": "6898686081076560395",
        "url": "https://www.ixigua.com/6898686081076560395"
    },
    {
        "title": "被称为KPL最准守约的久诚有多准？来看看这把比赛！",
        "docid": "7099413633503298060",
        "url": "https://www.ixigua.com/7099413633503298060"
    },
    {
        "title": "A股到底了吗？有人说:2878历史大底你相信吗？我觉得要准备甲钴胺",
        "docid": "7322014585790136859",
        "url": "https://www.ixigua.com/7322014585790136859"
    },
    {
        "title": "两代神王皆沦为阶下囚，地狱里的怪物有多离谱？揭秘希腊神话秘闻",
        "docid": "7086014115763880478",
        "url": "https://www.ixigua.com/7086014115763880478"
    },
    {
        "title": "风云二59：风云力战双龙元龙爪断浪，步惊云不敌被重创气息全无",
        "docid": "6814031871597347341",
        "url": "https://www.ixigua.com/6814031871597347341"
    },
    {
        "title": "国服第一达摩柱子VS国服第一孙策树叶！",
        "docid": "7052184488213742091",
        "url": "https://www.ixigua.com/7052184488213742091"
    },
    {
        "title": "明知山有虎就选择绕道而行的美国航母！！",
        "docid": "7321257702859440680",
        "url": "https://www.ixigua.com/7321257702859440680"
    },
    {
        "title": "57岁周海媚因病去世！生前长期受红斑狼疮折磨，前夫吕良伟悼念",
        "docid": "7311909800953479718",
        "url": "https://www.ixigua.com/7311909800953479718"
    },
    {
        "title": "拜仁vs皇马篮球赛悼念贝肯鲍尔，皇马球员穿特制T恤致敬传奇",
        "docid": "7322251447042294324",
        "url": ""
    },
    {
        "title": "罗志祥和蝴蝶姐姐综艺时刻：恺乐选罗志祥接安全之吻，害羞到出汗",
        "docid": "6819156859442692620",
        "url": "https://www.ixigua.com/6819156859442692620"
    },
    {
        "title": "三版杨过使重剑，古天乐经典帅气，任贤齐不堪一击，后一位像小孩",
        "docid": "6817982179943907844",
        "url": "https://www.ixigua.com/6817982179943907844"
    },
    {
        "title": "天天皮爆笑解说：两万战力的花木兰，对抗路的生活太难了。",
        "docid": "7048532393225159206",
        "url": "https://www.ixigua.com/7048532393225159206"
    },
    {
        "title": "伟大的父爱让faker感动落泪",
        "docid": "7301263874337014283",
        "url": "https://www.ixigua.com/7301263874337014283"
    },
    {
        "title": "周海媚19-57岁颜值变化，女神一路走好",
        "docid": "7312409449363309093",
        "url": "https://www.ixigua.com/7312409449363309093"
    },
    {
        "title": "天下第一42：督主了却心愿和神候宿命一战，吸功大法对决天罡元气",
        "docid": "6828491697723277835",
        "url": "https://www.ixigua.com/6828491697723277835"
    },
    {
        "title": "李元芳有什么了不起？马可波罗就是李元芳的天敌",
        "docid": "7018746395347649055",
        "url": "https://www.ixigua.com/7018746395347649055"
    },
    {
        "title": "已经融入了？湖人新援温德勒&梅斯三分训练 命中率均令人担心",
        "docid": "7322197720649941519",
        "url": ""
    },
    {
        "title": "中国人给孩子起名要考虑多少因素？这届父母让网友操碎了心",
        "docid": "7306063285227422243",
        "url": ""
    },
    {
        "title": "巅峰时期的小丑女究竟有多迷人，看完这个你绝对能找到答案",
        "docid": "7295686159815049767",
        "url": "https://www.ixigua.com/7295686159815049767"
    },
    {
        "title": "小伙为小猫咪徒手建造了座漂亮城堡 太牛了#手工diy #高手在民间",
        "docid": "7306134672667968012",
        "url": "https://www.ixigua.com/7306134672667968012"
    },
    {
        "title": "“鹅腿阿姨”暂停烤鹅腿，哽咽称压力太大，只想平平安安做烧烤",
        "docid": "7306801001011348009",
        "url": "https://www.ixigua.com/7306801001011348009"
    },
    {
        "title": "不是真货买不起，而是电子版的更有性价比",
        "docid": "7289365480392491520",
        "url": "https://www.ixigua.com/7289365480392491520"
    },
    {
        "title": "剑圣都无法驾驭的神剑，竟被送水工随手拔出，太牛了",
        "docid": "7320888390525092391",
        "url": "https://www.ixigua.com/7320888390525092391"
    },
    {
        "title": "打不死的华为，遇上了闭不上嘴的余承东",
        "docid": "7293095470476460584",
        "url": "https://www.ixigua.com/7293095470476460584"
    },
    {
        "title": "金州DNA注入！波杰命中离谱全场投篮 疯狂庆祝跑丢拖鞋😂",
        "docid": "7322215605375861248",
        "url": "https://www.ixigua.com/7322215605375861248"
    },
    {
        "title": "Papi酱旗下的八大顶流网红：纯欲女神一夜爆火，梦依深陷抄袭门",
        "docid": "7032604089905545736",
        "url": "https://www.ixigua.com/7032604089905545736"
    },
    {
        "title": "《情癫大圣》速看，外星人勇敢追爱唐僧，华丽变身大战群妖",
        "docid": "6829872954810040844",
        "url": "https://www.ixigua.com/6829872954810040844"
    },
    {
        "title": "天天皮爆笑解说：达摩对线花木兰，达摩给花木兰上了一课。",
        "docid": "7089719691811226123",
        "url": "https://www.ixigua.com/7089719691811226123"
    },
    {
        "title": "【终末的女武神42】齐天大圣开启法天象地，混世四猴齐聚竞技场",
        "docid": "6996275792833413646",
        "url": "https://www.ixigua.com/6996275792833413646"
    },
    {
        "title": "没想到鸡蛋还能这么玩，周杰伦也太会玩了吧",
        "docid": "7308658420280721960",
        "url": "https://www.ixigua.com/7308658420280721960"
    },
    {
        "title": "盘点男主变身情节，丑男摇身一变成为大帅哥，满屏帅气藏不住",
        "docid": "6824364671672254987",
        "url": "https://www.ixigua.com/6824364671672254987"
    },
    {
        "title": "小锦儿李白发明宗师无尽新出装！直接见谁秒谁！",
        "docid": "7104153730966258214",
        "url": "https://www.ixigua.com/7104153730966258214"
    },
    {
        "title": "有周海媚当女主，换我做编剧也给她写成老婆",
        "docid": "7311640918933799433",
        "url": "https://www.ixigua.com/7311640918933799433"
    },
    {
        "title": "天天皮爆笑解说：一万八战力的宫本，两万战力的芈月。",
        "docid": "7084526726444745254",
        "url": "https://www.ixigua.com/7084526726444745254"
    },
    {
        "title": "黑胡子：这跟打路飞的不是一个力道啊！战国：你爷爷可不叫卡普！",
        "docid": "7050464210307777031",
        "url": "https://www.ixigua.com/7050464210307777031"
    },
    {
        "title": "周海媚颜值爆表的一部剧，纵横四海原班人马，超好看的一部剧",
        "docid": "7309308567541318153",
        "url": "https://www.ixigua.com/7309308567541318153"
    },
    {
        "title": "天下第一4：太后化身捧哏大师，成是非梅开二度立下大功",
        "docid": "7029246000589963790",
        "url": "https://www.ixigua.com/7029246000589963790"
    },
    {
        "title": "芈月：这玩意走对抗路？同样的技能我输了～",
        "docid": "7116807079637025292",
        "url": "https://www.ixigua.com/7116807079637025292"
    },
    {
        "title": "索隆重击爆发！凯多被一刀砍到暴血，你也有霸王色吗？！小子！",
        "docid": "7126484014856143390",
        "url": "https://www.ixigua.com/7126484014856143390"
    },
    {
        "title": "慌了！以爆发大规模抗议，要求总理下台，以内阁会议爆发激烈争吵",
        "docid": "7321673097424142882",
        "url": "https://www.ixigua.com/7321673097424142882"
    },
    {
        "title": "松岳名都违规乱象 ​楼顶设备区加顶起墙住人",
        "docid": "7320570474197549604",
        "url": ""
    },
    {
        "title": "今日趣图：两年之期已到，恭迎欧冠之王归位！😏",
        "docid": "7304603568038920730",
        "url": ""
    },
    {
        "title": "两大女高音对飚神曲《煎熬》果然铁肺女王不是盖的！",
        "docid": "6793974282817896973",
        "url": "https://www.ixigua.com/6793974282817896973"
    },
    {
        "title": "“天王嫂”昆凌：年仅22岁成天王嫂，十年赔光周杰伦8亿",
        "docid": "7042997016250548744",
        "url": "https://www.ixigua.com/7042997016250548744"
    },
    {
        "title": "猫头鹰戴上黄金铠甲，成为无畏的黄金战士，一部奇幻动作电影",
        "docid": "6877220265500082696",
        "url": "https://www.ixigua.com/6877220265500082696"
    },
    {
        "title": "看了胡歌版的《梁祝》才发现，原来我并不讨厌马文才",
        "docid": "7095762323851182605",
        "url": "https://www.ixigua.com/7095762323851182605"
    },
    {
        "title": "蒙面歌王：昔日歌王声带受损！一首《女人花》直接把伊能静唱哭了",
        "docid": "6700840434802885128",
        "url": "https://www.ixigua.com/6700840434802885128"
    },
    {
        "title": "盘点娱乐圈的“撞脸明星”，两人同台让人傻傻分不清，网友：脸盲",
        "docid": "6815126109441491469",
        "url": "https://www.ixigua.com/6815126109441491469"
    },
    {
        "title": "陈柏宇就是靠这首歌奠定了乐坛的地位，听着听着就泪目了！",
        "docid": "6773179266671575556",
        "url": "https://www.ixigua.com/6773179266671575556"
    },
    {
        "title": "万恶之源：五大爆笑男歌声，你掀起波澜抛弃了我，实在太魔性了",
        "docid": "6775440632744772107",
        "url": "https://www.ixigua.com/6775440632744772107"
    },
    {
        "title": "墨瑜：吕布为什么被叫做龙坑战神，大招起四个完成三杀，太爽了",
        "docid": "7085639926347366942",
        "url": "https://www.ixigua.com/7085639926347366942"
    },
    {
        "title": "香港黑帮大佬“肥仔坤”，跛豪跟他混饭吃，陈惠敏是其保镖，港片",
        "docid": "7064485850628751908",
        "url": "https://www.ixigua.com/7064485850628751908"
    },
    {
        "title": "他拿剪刀剪开了马路#童年动画#搞笑动画#怀旧动画",
        "docid": "7314279570281562661",
        "url": "https://www.ixigua.com/7314279570281562661"
    },
    {
        "title": "罗永浩就是董宇辉的最大嘴替，俞敏洪画的饼被他一一拆穿！真敢说",
        "docid": "7313892935756415499",
        "url": "https://www.ixigua.com/7313892935756415499"
    },
    {
        "title": "成都AG超玩会一诺第一视角，看一诺的马可有多果断细节",
        "docid": "7030394789300273677",
        "url": "https://www.ixigua.com/7030394789300273677"
    },
    {
        "title": "扎职：陈伟霆得罪大人物，文哥独自赴鸿门宴，一根牙签解决问题！",
        "docid": "6796058517150106125",
        "url": "https://www.ixigua.com/6796058517150106125"
    },
    {
        "title": "18岁身家上亿🤑网红speed向网友展示他1000万美元的新豪宅",
        "docid": "7305326360111940096",
        "url": "https://www.ixigua.com/7305326360111940096"
    },
    {
        "title": "冲刺2024·“世界超市”里的长三角畅想",
        "docid": "7320634819854041615",
        "url": ""
    },
    {
        "title": "因为一碗泡面 马东旭灭了敌对的黑帮！！！",
        "docid": "7322411777742864931",
        "url": "https://www.ixigua.com/7322411777742864931"
    },
    {
        "title": "香港第一代悍匪之吴建东，从黑帮小弟到通缉犯，真人真事改编电影",
        "docid": "7007352572537209357",
        "url": "https://www.ixigua.com/7007352572537209357"
    },
    {
        "title": "拳皇2002：八神隐藏大招一跃而起，肖陈全表示被秀哭了",
        "docid": "7124978477131891231",
        "url": "https://www.ixigua.com/7124978477131891231"
    },
    {
        "title": "让我们来看看那些年黑胡子被打过的脸吧",
        "docid": "6828543021278036480",
        "url": "https://www.ixigua.com/6828543021278036480"
    },
    {
        "title": "小品：乔杉嘚嘚瑟瑟当大款，你给我捶腿我都不搭理你！立马被打脸",
        "docid": "6818791352495505923",
        "url": "https://www.ixigua.com/6818791352495505923"
    },
    {
        "title": "漫威最新电影《永恒族》双手奉上！",
        "docid": "7052677392489415176",
        "url": "https://www.ixigua.com/7052677392489415176"
    },
    {
        "title": "有人说他是最有才华的富二代，听完这首歌的现场版，默默地服气了",
        "docid": "6391054996390019329",
        "url": "https://www.ixigua.com/6391054996390019329"
    },
    {
        "title": "【盘点】那些”年龄成谜“的名场面，你告诉我，这特么是8岁！",
        "docid": "6802609531252638219",
        "url": "https://www.ixigua.com/6802609531252638219"
    },
    {
        "title": "Theshy生涯5大变态走位，这个回头多少人看懵了？总之，算我一个",
        "docid": "6859026929673044484",
        "url": "https://www.ixigua.com/6859026929673044484"
    },
    {
        "title": "威少是哈登来快船的主要原因，这就是哈登和威少的兄弟情#哈登",
        "docid": "7312815900766241331",
        "url": "https://www.ixigua.com/7312815900766241331"
    },
    {
        "title": "4.5万吨战舰报废，造船厂被海啸摧毁，关东大地震并未唤醒日本人",
        "docid": "7319379821090308645",
        "url": "https://www.ixigua.com/7319379821090308645"
    },
    {
        "title": "荆轲下：嫪毐嫌命长，与太后生了两个儿子，竟还要造反打秦王！",
        "docid": "7098965679650374144",
        "url": "https://www.ixigua.com/7098965679650374144"
    },
    {
        "title": "艺术、创意、想象力！《报告老板》为何是数一数二的互联网喜剧？",
        "docid": "7032210073258721805",
        "url": "https://www.ixigua.com/7032210073258721805"
    },
    {
        "title": "拳皇97：老K用这三场翻盘，把自己送上了直播榜第一",
        "docid": "7053313226414490143",
        "url": "https://www.ixigua.com/7053313226414490143"
    },
    {
        "title": "重返现场⑤丨大英博物馆：文物回家路漫漫",
        "docid": "7320570512525165065",
        "url": ""
    },
    {
        "title": "女孩玩捉迷藏躲在床底，不料亲眼目睹父亲被害！《恶女》",
        "docid": "7290012125018358324",
        "url": "https://www.ixigua.com/7290012125018358324"
    },
    {
        "title": "带未来的村霸巡视一下它们的领地！",
        "docid": "7295753574338789907",
        "url": "https://www.ixigua.com/7295753574338789907"
    },
    {
        "title": "“社交悍匪”孙颖莎，和领导处成哥们，就没有她拿捏不了的人！",
        "docid": "7303464318849253899",
        "url": "https://www.ixigua.com/7303464318849253899"
    },
    {
        "title": "雷迪什成为詹姆斯最信任的人，他不是奇兵，而是正在发出埋藏的光",
        "docid": "7300577310225531446",
        "url": "https://www.ixigua.com/7300577310225531446"
    },
    {
        "title": "第1集|小伙想偷吃瞎子的鸡蛋，怎料瞎子是绝世高手！",
        "docid": "7310606937391890985",
        "url": "https://www.ixigua.com/7310606937391890985"
    },
    {
        "title": "太可恨！恶意别车害死人，跟警察说是被追尾，还找姐姐做假证...",
        "docid": "7313442157430309410",
        "url": "https://www.ixigua.com/7313442157430309410"
    },
    {
        "title": "“一别再无归期，相见只能在梦里” #感人故事",
        "docid": "7290382253807698491",
        "url": "https://www.ixigua.com/7290382253807698491"
    },
    {
        "title": "国一曹操天花板第一视角.能用曹操上巅峰第一的男人到底有多强",
        "docid": "7037926751699370526",
        "url": "https://www.ixigua.com/7037926751699370526"
    },
    {
        "title": "索隆人物志5：两年后从没用全力！砍双皇一战，奠定最强皇副！",
        "docid": "6995851628087607845",
        "url": "https://www.ixigua.com/6995851628087607845"
    },
    {
        "title": "看啥不服过两招的老沙，顶着一头老血，在顶上战争挨个教做人！",
        "docid": "7064127317169144357",
        "url": "https://www.ixigua.com/7064127317169144357"
    },
    {
        "title": "【盘点】周星驰电影中“帅不过三秒”名场面：小鬼，我忍你很久了",
        "docid": "6760227708359148040",
        "url": "https://www.ixigua.com/6760227708359148040"
    },
    {
        "title": "男人设计连环套，成功让敌人上钩",
        "docid": "7321971034473792040",
        "url": "https://www.ixigua.com/7321971034473792040"
    },
    {
        "title": "国服第一不知火舞鹿乃超过小锦儿冲上了巅峰第一！",
        "docid": "7049326797682377219",
        "url": "https://www.ixigua.com/7049326797682377219"
    },
    {
        "title": "国服第一关羽明眸VS职业第一边路FLy！",
        "docid": "7125422681695978017",
        "url": "https://www.ixigua.com/7125422681695978017"
    },
    {
        "title": "成都AG超玩会一诺第一视角，国服第一公孙离究竟有多细节",
        "docid": "7032481261700514340",
        "url": "https://www.ixigua.com/7032481261700514340"
    },
    {
        "title": "中国人民警察节 无人机灯光秀“点燃”徐汇滨江",
        "docid": "7322284360605024787",
        "url": ""
    },
    {
        "title": "五影会谈开始，佐助须佐大闹五影会谈，雷影断臂！（火影四战1）",
        "docid": "7091245758422352397",
        "url": "https://www.ixigua.com/7091245758422352397"
    },
    {
        "title": "盘点影视装B爆笑名场面，说最硬的话，吃最软的饭，真香！",
        "docid": "6820650202064486925",
        "url": "https://www.ixigua.com/6820650202064486925"
    },
    {
        "title": "斗地主的爆笑场面，一把好牌输了6万四，遇到猪队友神仙都救不了",
        "docid": "6821523319917904388",
        "url": "https://www.ixigua.com/6821523319917904388"
    },
    {
        "title": "代驾在ATM小屋取暖被保安驱赶，“臭代驾这你家啊？”，银行回应",
        "docid": "7322379351138239028",
        "url": "https://www.ixigua.com/7322379351138239028"
    },
    {
        "title": "国服第一曹操陌辰再次登顶巅峰第一！并且对上神罚狂铁打出16评分",
        "docid": "7067474432725352993",
        "url": "https://www.ixigua.com/7067474432725352993"
    },
    {
        "title": "暗黑风武侠混剪，江湖快剑，十步一杀！",
        "docid": "6784651630814953996",
        "url": "https://www.ixigua.com/6784651630814953996"
    },
    {
        "title": "【白胡子海贼团】我们可是旧时代的王",
        "docid": "6855550618661028365",
        "url": "https://www.ixigua.com/6855550618661028365"
    },
    {
        "title": "搞笑一幕！马竞新闻发布会椅子出问题，德保罗越坐越矮",
        "docid": "7322276663553884713",
        "url": ""
    },
    {
        "title": "《繁花》落幕剧迷依依不舍 深夜的黄河路人气依旧",
        "docid": "7322276555408261641",
        "url": ""
    },
    {
        "title": "盘点被爱情公寓毁掉的几大神曲：听完让你不记得原唱，太魔性了",
        "docid": "6811058655983567371",
        "url": "https://www.ixigua.com/6811058655983567371"
    },
    {
        "title": "丁嶋安一挑整个唐门，这就是两豪杰的实力！151",
        "docid": "7073806200013488648",
        "url": "https://www.ixigua.com/7073806200013488648"
    },
    {
        "title": "钟馗：快撤退，三打五我们没有胜算，百里：慌什么，二换四，血赚",
        "docid": "6902790717177856515",
        "url": "https://www.ixigua.com/6902790717177856515"
    },
    {
        "title": "【盘点】影视剧中那些最能打的反派人物，每次都怕主角“打不过”",
        "docid": "6762444354171699720",
        "url": "https://www.ixigua.com/6762444354171699720"
    },
    {
        "title": "面对蚂蚁入侵，鸟爸爸与鸟妈妈的不同反应！#神奇动物在抖音",
        "docid": "7321192562604933670",
        "url": "https://www.ixigua.com/7321192562604933670"
    },
    {
        "title": "不可一世的奈落，竟被一箭射爆彻底身死道消，神乐终于自由了！",
        "docid": "7088270613521007139",
        "url": "https://www.ixigua.com/7088270613521007139"
    },
    {
        "title": "两个地方足协负责人，双肩包，各送陈戌源30万“拜码头”",
        "docid": "7322275822445019648",
        "url": ""
    },
    {
        "title": "全网自带BGM八大网红：从2018代古拉K到2021白冰，谁的BGM最上头",
        "docid": "7090092499846791687",
        "url": "https://www.ixigua.com/7090092499846791687"
    },
    {
        "title": "我说东皇对抗路，除了狂铁，其他战士和坦克型英雄都被吊起来打！",
        "docid": "7101613945504399872",
        "url": "https://www.ixigua.com/7101613945504399872"
    },
    {
        "title": "《我有一座恐怖屋》凭什么可以制霸起点碾压玄幻！",
        "docid": "6639494492007170568",
        "url": "https://www.ixigua.com/6639494492007170568"
    },
    {
        "title": "格局小了，每次穿越都能复制自己，他却偏偏杀掉，克隆大军不要！",
        "docid": "7019872775414219271",
        "url": "https://www.ixigua.com/7019872775414219271"
    },
    {
        "title": "炁体源流VS丹噬，术之尽头落败，唐门丹噬封神！",
        "docid": "7115452044680364557",
        "url": "https://www.ixigua.com/7115452044680364557"
    },
    {
        "title": "德华曹操一波复活甲换名刀操作直接震惊赖神！",
        "docid": "7104204343812817446",
        "url": "https://www.ixigua.com/7104204343812817446"
    },
    {
        "title": "张雪峰评价董宇辉事件:花几亿挖你你以为是好事啊？",
        "docid": "7316582501147902473",
        "url": "https://www.ixigua.com/7316582501147902473"
    },
    {
        "title": "东航C919航线“上新”开始执飞京沪航线",
        "docid": "7322279140684595748",
        "url": ""
    },
    {
        "title": "恐怖躲猫猫",
        "docid": "7322480332476219954",
        "url": "https://www.ixigua.com/7322480332476219954"
    },
    {
        "title": "一顿饭吃死所有室友，只因老实人讲了个故事！令人心痛的剧情片",
        "docid": "7072688499459588622",
        "url": "https://www.ixigua.com/7072688499459588622"
    },
    {
        "title": "0人口如何翻盘？看Moon神级表演！2021年度最佳 魔兽争霸",
        "docid": "7029701409788396045",
        "url": "https://www.ixigua.com/7029701409788396045"
    },
    {
        "title": "【TOP10】一人之力毁灭军队的战斗",
        "docid": "6808228591952724495",
        "url": "https://www.ixigua.com/6808228591952724495"
    },
    {
        "title": "惊了！妖道李淳风，推背图为什么只敢推算两千年的原因？",
        "docid": "6831470245429903875",
        "url": "https://www.ixigua.com/6831470245429903875"
    },
    {
        "title": "爆笑沙雕五大场面，秀与不秀皆在一念间，沈腾：江湖上有你的传说",
        "docid": "6817012012959138307",
        "url": "https://www.ixigua.com/6817012012959138307"
    },
    {
        "title": "秀一手露娜无惧三惩阵容，15.2评分乱飞路人“九月”",
        "docid": "7089863858801607206",
        "url": "https://www.ixigua.com/7089863858801607206"
    }
]