[
    {
        "title": "男孩7岁被拐，13年后去博物馆，指着物件道：这是我小时候的玩具",
        "docid": "7291131494344081983",
        "url": ""
    },
    {
        "title": "去了一趟美国，有点意外，跟我们之间的差距太明显了",
        "docid": "7308227112413364774",
        "url": ""
    },
    {
        "title": "日照这些景区入选省级名单",
        "docid": "7308308548746773019",
        "url": ""
    },
    {
        "title": "嘉定夜色图鉴，邀你共赏~（上）",
        "docid": "7308352584429978152",
        "url": ""
    },
    {
        "title": "泰国普吉周末迎2艘豪华游轮逾6000游客！海滩外游聚集！",
        "docid": "7308255163033108992",
        "url": ""
    },
    {
        "title": "北京的旅游路线攻略",
        "docid": "7308302695729889802",
        "url": ""
    },
    {
        "title": "为秋日美景锦上添花，这些果实“俏也不争秋”",
        "docid": "7308283005968466469",
        "url": ""
    },
    {
        "title": "清晨，追光者们聚集在这座苏州园林的“顶流”",
        "docid": "7308271092567753253",
        "url": ""
    },
    {
        "title": "探秘湛江霞山公园：一座城市的历史印记与自然奇观",
        "docid": "7307966987282792969",
        "url": ""
    },
    {
        "title": "“双11”“囤冰雪”消费者已踏上旅途：长白山游客接待量已超往年高峰期",
        "docid": "7308301707870765583",
        "url": ""
    },
    {
        "title": "广东省也能感受秋天的浪漫，岭南红叶世界——红枫林",
        "docid": "7292782274393899561",
        "url": ""
    },
    {
        "title": "浙江杭州旅游必去十大景点",
        "docid": "7284084940193497657",
        "url": ""
    },
    {
        "title": "整治完成！把秀美景色还给崇明人民",
        "docid": "7307502159741157940",
        "url": ""
    },
    {
        "title": "四川最后一个“秘境”——玛嘉沟，可媲美九寨沟",
        "docid": "7274181797116707385",
        "url": ""
    },
    {
        "title": "如何做亮重庆研学旅行名片？大学生有“金点子”",
        "docid": "7308255998052041268",
        "url": ""
    },
    {
        "title": "探访博山蒋洗凡故居，这位辛亥革命先驱有怎样的革命人生？",
        "docid": "7308242919574487603",
        "url": ""
    },
    {
        "title": "探索四川废弃宾馆，投资几百万打了水漂",
        "docid": "7307987117819298304",
        "url": ""
    },
    {
        "title": "旅游，我为什么选择自由行？切身体会，可供参考",
        "docid": "7294397881279316495",
        "url": ""
    },
    {
        "title": "侗乡冬季旅游热度不减",
        "docid": "7308376497960796708",
        "url": ""
    },
    {
        "title": "寻景湖南丨十步之内必有芳草，这个烈士公园园中有园",
        "docid": "7308259913468723746",
        "url": ""
    },
    {
        "title": "秋日里的中国太太太太美了！每一帧都值得收藏",
        "docid": "7285277031237960253",
        "url": ""
    },
    {
        "title": "松江这里“下雪了”！",
        "docid": "7308388314707722762",
        "url": ""
    },
    {
        "title": "背包旅行我在桂林（兴坪篇）",
        "docid": "7308348359943668276",
        "url": ""
    },
    {
        "title": "年轻活力的深圳那些被人忽视的历史古城，你都知道多少？",
        "docid": "7308373382691848742",
        "url": ""
    },
    {
        "title": "先睹为快！第36届太阳岛雪博会多个雕塑雕刻完毕",
        "docid": "7308378753569391113",
        "url": ""
    },
    {
        "title": "雪域高原的神秘民族——藏族",
        "docid": "7308372295452639763",
        "url": ""
    },
    {
        "title": "25岁香港女孩，日行20多公里，脚底疼膝盖疼，一天吃3颗止疼药",
        "docid": "7285925418648371712",
        "url": ""
    },
    {
        "title": "海洋历史文化名港名镇名村 | 三亚港：疍家小渔村蜕变游艇集聚区",
        "docid": "7308378110029611546",
        "url": ""
    },
    {
        "title": "铜仁之美",
        "docid": "7308366709948351017",
        "url": ""
    },
    {
        "title": "停步醉风，细品亚丁的那些风花雪月",
        "docid": "7308358805463646756",
        "url": ""
    },
    {
        "title": "自驾游第六站：途经安康",
        "docid": "7278975136035176972",
        "url": ""
    },
    {
        "title": "国潮盛会即将来袭！千灯集·灯火汤山将于近期照亮江苏园博园",
        "docid": "7308357964078383666",
        "url": ""
    },
    {
        "title": "中国游客在塞尔维亚街头碰见正在巡逻的中国警察，异国他乡看见那一抹蓝太激动",
        "docid": "7289629770302800438",
        "url": ""
    },
    {
        "title": "一座城市的文化坐标",
        "docid": "7307072893245342258",
        "url": ""
    },
    {
        "title": "京郊景区公交直达路线",
        "docid": "7284222681321390604",
        "url": ""
    },
    {
        "title": "最近长宁入眼皆是画，快出门轧个马路吧~",
        "docid": "7308205701846106634",
        "url": ""
    },
    {
        "title": "水清天蓝冬景美",
        "docid": "7308313118403330594",
        "url": ""
    },
    {
        "title": "广州北回归线公园",
        "docid": "7308388395913511464",
        "url": ""
    },
    {
        "title": "通往拉萨的高速公路，海拔最高施工难度巨大，一个伟大的世纪工程",
        "docid": "7283705593121112631",
        "url": ""
    },
    {
        "title": "曾繁华一时人声鼎沸，如今人去楼空一片萧条，玉门老城经历了什么",
        "docid": "7290548570808402432",
        "url": ""
    },
    {
        "title": "2023第五届海南国际旅游美食发展论坛在海口举办",
        "docid": "7308294854042518079",
        "url": ""
    },
    {
        "title": "十问海南，环岛旅游公路",
        "docid": "7308036938471277056",
        "url": ""
    },
    {
        "title": "朝圣之旅（十）",
        "docid": "7307983337149727273",
        "url": ""
    },
    {
        "title": "嗨冰雪 乐亚冬CITY WALK｜哈尔滨一日游路线怎么走",
        "docid": "7308177412716659252",
        "url": ""
    },
    {
        "title": "【标题】梦幻西湖，千古风华映现",
        "docid": "7308023708092776995",
        "url": ""
    },
    {
        "title": "洛阳市景区全面对外开放，推动当地旅游业新发展",
        "docid": "7305791152496673307",
        "url": ""
    },
    {
        "title": "武汉：红枫惹人醉 冬景美如画",
        "docid": "7308176539399799337",
        "url": ""
    },
    {
        "title": "中国60个美景，去过20个算你厉害，你去过几个？",
        "docid": "7292983584938295842",
        "url": ""
    },
    {
        "title": "12月西安游玩资讯速递",
        "docid": "7308284182500082217",
        "url": ""
    },
    {
        "title": "苏州姑苏区：遍染金黄，桐泾北路秋色“上妆”",
        "docid": "7308163880117781029",
        "url": ""
    },
    {
        "title": "“男人天堂”阿卡族部落：女人赚钱养家，男人负责“貌美如花”？",
        "docid": "7280482278189531667",
        "url": ""
    },
    {
        "title": "洛阳龙门石窟、老君山等32家景区向昌平人免费开放",
        "docid": "7308294851907535412",
        "url": ""
    },
    {
        "title": "在成都，遇见金黄色的初冬",
        "docid": "7308327558540804647",
        "url": ""
    },
    {
        "title": "仿佛走进了仙境！来中环绿地感受斑斓深秋的魅力吧",
        "docid": "7308221119155520026",
        "url": ""
    },
    {
        "title": "南京出发坐公交车到南方去过冬第四天：安庆——池州——上饶。",
        "docid": "7308402951976960550",
        "url": ""
    },
    {
        "title": "从辽宁营口搬到河北邯郸的第五天，感悟时光悠长的温情",
        "docid": "7308410621425451530",
        "url": ""
    },
    {
        "title": "今天，天池封冰！",
        "docid": "7308328140890341888",
        "url": ""
    },
    {
        "title": "长宁这条6.25公里长的骑行道，美翻了！",
        "docid": "7308367232650871306",
        "url": ""
    },
    {
        "title": "浦南这条乡间公路，金灿灿的，美翻啦！",
        "docid": "7308166952802026010",
        "url": ""
    },
    {
        "title": "圆满落幕！2023“美美观山湖·文化旅游节”闭幕式精彩纷呈",
        "docid": "7308270842201653798",
        "url": ""
    },
    {
        "title": "青海小环线P05.茶卡茶卡！咔嚓咔嚓！茶卡盐湖-黑马河镇-元者村",
        "docid": "7308419443376587290",
        "url": ""
    },
    {
        "title": "（经济）塞上湖城迎来冰雪季",
        "docid": "7308276757902230066",
        "url": ""
    },
    {
        "title": "海南省\"十四五规划\"交通，建设三条最美旅游公路。",
        "docid": "7281469155805659708",
        "url": ""
    },
    {
        "title": "湖湘自然历丨水光潋滟⑦山水环绕，“热”力十足",
        "docid": "7308175361442284071",
        "url": ""
    },
    {
        "title": "“死亡之海”中的神秘地，我国“最难”抵达的村落，至今不知来源",
        "docid": "7283467871701975563",
        "url": ""
    },
    {
        "title": "凤凰：小荞麦绘就大前景",
        "docid": "7308275627814634022",
        "url": ""
    },
    {
        "title": "重庆被“摘牌”的4A景区，曾耗16亿建设，如今“潦草”收场！",
        "docid": "7296008362754605578",
        "url": ""
    },
    {
        "title": "相城区：这座近千年的古桥————凤凰桥",
        "docid": "7308195606068003366",
        "url": ""
    },
    {
        "title": "上海崇明西沙明珠湖迎来最美观赏季",
        "docid": "7307588842373169691",
        "url": ""
    },
    {
        "title": "重庆开州：雪山云海美若仙境",
        "docid": "7307994567470072371",
        "url": ""
    },
    {
        "title": "苏州狮子山：一迳抱幽山 居然城市间",
        "docid": "7308293721790857766",
        "url": ""
    },
    {
        "title": "宁波四明山秋色缤纷，红若暮霞",
        "docid": "7308284231510655551",
        "url": ""
    },
    {
        "title": "重返20℃，长沙“入冬体验券”到期！走，去享受五彩斑斓的冬",
        "docid": "7308347753674310182",
        "url": ""
    },
    {
        "title": "中国故事丨雅鲁藏布江中游河谷：从沙丘废土到美酒飘香",
        "docid": "7307594918682280475",
        "url": ""
    },
    {
        "title": "兴平最大的古会，一个村13年轮一次，有故事有美食有热闹",
        "docid": "7307962064784654899",
        "url": ""
    },
    {
        "title": "【秋韵漓江 遇见桂林山水】行走在漓江百里画廊风景线上",
        "docid": "7308377424038216211",
        "url": ""
    },
    {
        "title": "福州周边，这棵悄悄美了近千个秋冬的银杏终于火了！",
        "docid": "7307904757702951476",
        "url": ""
    },
    {
        "title": "周至最美环山路，地图上没有标示，青峦翠竹湖水咖啡，景美路好",
        "docid": "7308147590288114202",
        "url": ""
    },
    {
        "title": "盐城秘境：藏在长三角的“绿野仙踪”",
        "docid": "7279721616056697383",
        "url": ""
    },
    {
        "title": "紫牛拍咖 | 飞阅南京灵谷寺，看日出时分万物苏醒",
        "docid": "7308368151954620991",
        "url": ""
    },
    {
        "title": "安化县白沙溪茶厂工业旅游区见闻",
        "docid": "7308191177961161256",
        "url": ""
    },
    {
        "title": "博克图，百年前火车拉来的小镇，曾经重兵防守，如今冷冷清清！",
        "docid": "7277169732208542242",
        "url": ""
    },
    {
        "title": "视频丨初冬岳塘入眼成画",
        "docid": "7308226378716152335",
        "url": ""
    },
    {
        "title": "大冶龙角山野线穿越，风吹芦苇诗画攀爬",
        "docid": "7308221721835160074",
        "url": ""
    },
    {
        "title": "万万没想到！这是浙江宁波开业不到半年大商场真实现状！无法理解",
        "docid": "7307569408577438218",
        "url": "https://www.ixigua.com/7307569408577438218"
    },
    {
        "title": "穷游在路上，广西那丽服务区，可能是中国最大的服务区！",
        "docid": "7276443008198214205",
        "url": "https://www.ixigua.com/7276443008198214205"
    },
    {
        "title": "广西崇左那都屯·明仕田园揽胜（六）",
        "docid": "7308186456453808674",
        "url": ""
    },
    {
        "title": "刚从内蒙古旅游回来，说说我对呼和浩特的7条看法，全部独家干货",
        "docid": "7275529931055120935",
        "url": ""
    },
    {
        "title": "冬日新疆怎么玩？国铁开通乌鲁木齐至阿勒泰专列",
        "docid": "7308304361510502947",
        "url": ""
    },
    {
        "title": "看！赣州彩林如画的样子！",
        "docid": "7308198821039751714",
        "url": ""
    },
    {
        "title": "广西阴雨绵绵：阴天小雨齐上阵，主要雨量集中桂北地区！",
        "docid": "7308138754689008191",
        "url": ""
    },
    {
        "title": "甬城月湖深秋初冬的诗意画卷",
        "docid": "7308359786721296935",
        "url": ""
    },
    {
        "title": "千城百县看中国｜河北灵寿：初冬松阳河 景如画 意更浓",
        "docid": "7307429254328189480",
        "url": ""
    },
    {
        "title": "今天回老家了，开我的新车回去，虽然路途遥远，但是有车很有面子",
        "docid": "7292395819221975579",
        "url": "https://www.ixigua.com/7292395819221975579"
    },
    {
        "title": "“中国畲乡 风情景宁” 2023景宁文化旅游在杭召开推介会",
        "docid": "7308139042632188443",
        "url": ""
    },
    {
        "title": "南京出发坐公交车到南方去过冬第二天：南京——马鞍山——芜湖。",
        "docid": "7308067163297006095",
        "url": ""
    },
    {
        "title": "实拍美国晚上街道，看看美国安不安全？",
        "docid": "7279746434470478390",
        "url": "https://www.ixigua.com/7279746434470478390"
    },
    {
        "title": "河源快倒闭的万达广场",
        "docid": "7299813624661410342",
        "url": "https://www.ixigua.com/7299813624661410342"
    },
    {
        "title": "武昌江边终于来了个女歌唱高手，把听歌大爷大妈们搞得眼泪直流",
        "docid": "7288653681845600787",
        "url": "https://www.ixigua.com/7288653681845600787"
    },
    {
        "title": "男子夜爬泰山登顶，用唢呐吹西游记主题曲，游客怀疑来到了花果山",
        "docid": "7303831576759468595",
        "url": "https://www.ixigua.com/7303831576759468595"
    },
    {
        "title": "3人爬泰山看日出原地睡着，10点多还没醒被围观拍照：睡成了景点",
        "docid": "7280363260283453991",
        "url": "https://www.ixigua.com/7280363260283453991"
    },
    {
        "title": "银川不愧为塞上江南，看看人家这孩子上学的场景，有几个城市能比",
        "docid": "7305587061833073206",
        "url": "https://www.ixigua.com/7305587061833073206"
    },
    {
        "title": "俄罗斯啥都大，看看他们吃的肚包肉，你能吃下两个吗？",
        "docid": "7279558069799879168",
        "url": "https://www.ixigua.com/7279558069799879168"
    },
    {
        "title": "20年前的广州新市墟，百信广场人行天桥人山人海，如今变这样了。",
        "docid": "7279295208712471096",
        "url": "https://www.ixigua.com/7279295208712471096"
    },
    {
        "title": "实拍深圳特色合水口村，听说这里有很多漂亮的小姐姐",
        "docid": "7283767564285674018",
        "url": "https://www.ixigua.com/7283767564285674018"
    },
    {
        "title": "永昌县环山水库：尚未雕琢的天然翡翠，静待你的发现",
        "docid": "7307969587599950387",
        "url": ""
    },
    {
        "title": "苏州现在成了什么样子，实拍昆山小镇，当下现状",
        "docid": "7282691075876225547",
        "url": "https://www.ixigua.com/7282691075876225547"
    },
    {
        "title": "探秘大唐盛世！走进大唐芙蓉园，领略千年皇家园林的韵味",
        "docid": "7308371989390049802",
        "url": ""
    },
    {
        "title": "深坑酒店为什么没人来住呢？这么多钱造出来的，何时才能回本？",
        "docid": "7287990869276230203",
        "url": "https://www.ixigua.com/7287990869276230203"
    },
    {
        "title": "逛俄罗斯-50度的早市，他们本地人卖的东西和我们的完全不一样",
        "docid": "7304278652886352418",
        "url": "https://www.ixigua.com/7304278652886352418"
    },
    {
        "title": "实拍郑州富士康周边现状！产业链转移走了？真的已经人去楼空了？",
        "docid": "7285636871454261817",
        "url": "https://www.ixigua.com/7285636871454261817"
    },
    {
        "title": "观鸟，去南昌五星垦殖场白鹤小镇吧！",
        "docid": "7308307899644707365",
        "url": ""
    },
    {
        "title": "乌兰察布冰雪体育文化旅游系列活动启动当天，市长带头体验滑雪",
        "docid": "7308293992125350411",
        "url": ""
    },
    {
        "title": "郴州市景区全面对外开放推动旅游业的蓬勃发展",
        "docid": "7305785716259209754",
        "url": ""
    },
    {
        "title": "今天特意这样穿，为了徒步原始森林",
        "docid": "7291565105467589132",
        "url": "https://www.ixigua.com/7291565105467589132"
    },
    {
        "title": "霍启刚、邝美云甘肃行！",
        "docid": "7278917291625054720",
        "url": "https://www.ixigua.com/7278917291625054720"
    },
    {
        "title": "香港人会买比亚迪吗？带大家去香港看看马路上什么车最多？#香港",
        "docid": "7274774424090313253",
        "url": "https://www.ixigua.com/7274774424090313253"
    },
    {
        "title": "坐飞机如何选座最佳？飞行记录超过99.9%的旅行达人分享攻略",
        "docid": "7297855591593067008",
        "url": ""
    },
    {
        "title": "长沙、南昌到底有什么好玩的？旅游人气远超江浙城市。",
        "docid": "7285551174336528896",
        "url": ""
    },
    {
        "title": "全国5A级景区名录",
        "docid": "7275992774364004883",
        "url": ""
    },
    {
        "title": "以前觉得刘伟元是个憨憨，现在才发现他太精明了",
        "docid": "7294613883934327331",
        "url": ""
    },
    {
        "title": "最值得去的8个AAAAA级景区，你来过几个？",
        "docid": "7289417819241431593",
        "url": ""
    },
    {
        "title": "今天的牛背山，就长这样！手机拍摄，无后期",
        "docid": "7293401798298141219",
        "url": ""
    },
    {
        "title": "海南过冬哪里好？为啥最后我选择了这里？",
        "docid": "7299693475820421641",
        "url": ""
    },
    {
        "title": "当你朋友找你玩，不同城市的至暗时刻，看了网友的回复直呼真实",
        "docid": "7287861404441313827",
        "url": ""
    },
    {
        "title": "今天的南昌洪都机械厂让你高攀不起",
        "docid": "7280825852651110927",
        "url": ""
    },
    {
        "title": "湖南境内归属感不太强的十五个县，有你家乡吗？",
        "docid": "7288605058109800994",
        "url": ""
    },
    {
        "title": "在凤凰古城玩了3天多，和大家说几句心里话，句句都是肺腑之言！",
        "docid": "7280843640183226941",
        "url": ""
    },
    {
        "title": "东北的寒冷能制服每一个嘴硬的南方人",
        "docid": "7303512029489627698",
        "url": ""
    },
    {
        "title": "很多香港观众看了《无穷之路3》，想要安排新疆西藏之旅丨主创谈",
        "docid": "7307453973622506021",
        "url": ""
    },
    {
        "title": "自驾游，是选择公路还是高速？来说说我们的看法和做法",
        "docid": "7287928918227616308",
        "url": ""
    },
    {
        "title": "以为西双版纳已经很美了，直到我去了芒市！逢人安利！",
        "docid": "7302263291366130239",
        "url": ""
    },
    {
        "title": "辽宁人均最富的城，盘锦到底有多重要？",
        "docid": "7287777513785393676",
        "url": ""
    },
    {
        "title": "我，为走遍全世界，做沙发客，有的沙发主竟然回家就裸体",
        "docid": "7277587079134134795",
        "url": ""
    },
    {
        "title": "目前你去过最满意的旅游城市是哪里？",
        "docid": "7297030674245337638",
        "url": ""
    },
    {
        "title": "云南玩了一周多回来，来说点大实话！",
        "docid": "7280370724341269047",
        "url": ""
    },
    {
        "title": "上海游客在杭州徒步，被野猪夹夹了七个小时终获救",
        "docid": "7308190963489358375",
        "url": ""
    },
    {
        "title": "江苏省会为什么是南京，不是苏州？网友评论出奇的一边倒！",
        "docid": "7305440726123545138",
        "url": ""
    },
    {
        "title": "已经一个月的万宁旅居生活！",
        "docid": "7298214339692364303",
        "url": ""
    },
    {
        "title": "你目前去过最满意的旅行地是哪里？",
        "docid": "7290431587421192767",
        "url": ""
    },
    {
        "title": "越来越多的人离开重庆，4个很现实的原因，也很无奈！",
        "docid": "7279771968952582656",
        "url": ""
    },
    {
        "title": "国内令人扫兴的几个5A级景区，你去过几个？",
        "docid": "7279946394377421373",
        "url": ""
    },
    {
        "title": "库尔勒，新疆最无聊的旅游城市，又大又空又乏味",
        "docid": "7299014702406599168",
        "url": ""
    },
    {
        "title": "今天到丹霞山核心景区之后，实在忍不住吐槽这五个方面。",
        "docid": "7285346344032961083",
        "url": ""
    },
    {
        "title": "我在南宁的相亲角，读懂了残酷的婚恋潜规则",
        "docid": "7287146304160350783",
        "url": ""
    },
    {
        "title": "武功山逆天，庐山仅第9！神农架跌出前10，40大名山你去过几座",
        "docid": "7295202366628954674",
        "url": ""
    },
    {
        "title": "网红打卡地堪比垃圾厂",
        "docid": "7302905042921603610",
        "url": ""
    },
    {
        "title": "不要轻装上阵去云南了好吗！！听劝",
        "docid": "7283708197842485801",
        "url": ""
    },
    {
        "title": "从韩国旅行回来，有些话不知当讲不当讲，带你看看真实的韩国生活",
        "docid": "7287434071888708150",
        "url": ""
    },
    {
        "title": "刚从澳大利亚回来，告诉你一个真实的澳大利亚，不要相信网上说的",
        "docid": "7306755844195254793",
        "url": ""
    },
    {
        "title": "中国“零差评”的3座旅游城市，当地人热情不宰客，去过的还想去",
        "docid": "7283713287416824361",
        "url": ""
    },
    {
        "title": "网传的北京爬山“鄙视”链，你在哪一级？",
        "docid": "7294654396565275171",
        "url": ""
    },
    {
        "title": "都说甘肃天水穷，旅游才发现，天水人民的生活和想象中差别太大了",
        "docid": "7304580405959803392",
        "url": ""
    },
    {
        "title": "中国冬季最温暖的5座城市，平均22℃以上！带上家人去旅游吧",
        "docid": "7302377101704184332",
        "url": ""
    },
    {
        "title": "浙江省天台县为何如此落后？",
        "docid": "7306883016672051750",
        "url": ""
    },
    {
        "title": "从洛阳搬到西安的第三年，不得不说，两个城市之间的差距真的大",
        "docid": "7307863864966758927",
        "url": ""
    },
    {
        "title": "去三亚玩了5天多，和大家说几句心里话，句句都是肺腑之言！",
        "docid": "7281634408975614520",
        "url": ""
    },
    {
        "title": "刚从防城港玩回来，跟大家说说真心话，与我想象中的不太一样~",
        "docid": "7287753621238792738",
        "url": ""
    }
]