[
    {
        "title": "中央为发展新疆，选定伊犁州为第16个“副省级市”，为何是伊犁？",
        "docid": "7312373886409015860",
        "url": ""
    },
    {
        "title": "两个老女人出游记",
        "docid": "7310346313680470567",
        "url": ""
    },
    {
        "title": "奇怪！山西文旅局还没反应！徐云花100元看云冈石窟，有点别扭",
        "docid": "7311320509072097803",
        "url": ""
    },
    {
        "title": "曾经没有以色列的巴勒斯坦是什么样的？",
        "docid": "7290770913669169704",
        "url": ""
    },
    {
        "title": "去新疆旅游，四个人点30根羊肉串，老板笑着说吃完免单！",
        "docid": "7281226241498694203",
        "url": ""
    },
    {
        "title": "我在非洲安哥拉晒被子，被黑人嘲笑了，难道黑人的被子不晒吗？",
        "docid": "7312375569537057314",
        "url": ""
    },
    {
        "title": "西沙巨变，面积0.01平方公里的羚羊礁沙洲上竟崛起了一座现代渔村",
        "docid": "7306574452999979530",
        "url": ""
    },
    {
        "title": "成都最大苍蝇馆，顾客坐满河两岸，上菜论车不论盘三轮推啥你吃啥",
        "docid": "7306388002220458530",
        "url": ""
    },
    {
        "title": "我退休金3000，劝你别和这3种人一起旅行，太痛苦了！",
        "docid": "7285123617183023674",
        "url": ""
    },
    {
        "title": "北京欢乐谷新免票政策，有3类人员可以免费入园",
        "docid": "7310919827005145615",
        "url": ""
    },
    {
        "title": "我，27岁浙江小伙，放弃40万年薪，裸辞到巴厘岛冲浪和做数字游民",
        "docid": "7279676062450074124",
        "url": ""
    },
    {
        "title": "深圳市中心「法式浪漫花园」，还藏着一个免费市集！",
        "docid": "7313107826434392585",
        "url": ""
    },
    {
        "title": "北京中产的精致徒步团，太拼了",
        "docid": "7293436959773688356",
        "url": ""
    },
    {
        "title": "实探全球最贵悦榕庄，不止沙漠帐篷与峡谷泳池",
        "docid": "7280071172438442515",
        "url": ""
    },
    {
        "title": "大爷想进儿子家被拒，却望见亲家在屋，大爷痛哭：咱有退休金多好",
        "docid": "7313009724445033014",
        "url": ""
    },
    {
        "title": "云南省区划调整设想：16个地市州精简为10个",
        "docid": "7312295494050136603",
        "url": ""
    },
    {
        "title": "人间仙境:广西大山里的美景",
        "docid": "7311291132741222947",
        "url": ""
    },
    {
        "title": "男子自驾车去游川藏，途中遇到27岁女孩拦车，便与她结伴同游",
        "docid": "7298943326426511422",
        "url": ""
    },
    {
        "title": "被遗忘的东北古都，一城似三城，物价地板砖，养老城市天花板！",
        "docid": "7291494641348739621",
        "url": ""
    },
    {
        "title": "刚从广西百色玩回来，跟大家说说真心话，与我想象中的不太一样",
        "docid": "7292608649476899368",
        "url": ""
    },
    {
        "title": "姚叔叔定居云南曲靖8年即将离开的外地人，如何看待这个城市",
        "docid": "7313228182742745612",
        "url": ""
    },
    {
        "title": "超级中国县｜千年古城余姚“焕新”记",
        "docid": "7312222826956767771",
        "url": ""
    },
    {
        "title": "刚刚，上海官宣入冬，今年第一波城市冬景美图来啦！",
        "docid": "7313208065547944460",
        "url": ""
    },
    {
        "title": "武汉一所大学，居然藏着一位大人物的陵园，免费却少有游客知！",
        "docid": "7301865915028619802",
        "url": ""
    },
    {
        "title": "雪景看不够，亦庄新城雪景大片正在加载中",
        "docid": "7312439530588815887",
        "url": ""
    },
    {
        "title": "儋州，海南西部的一朵“奇葩”。",
        "docid": "7297427318690103819",
        "url": ""
    },
    {
        "title": "去了一趟广州之后，发现广州人跟东北人差距实在是太大了！",
        "docid": "7311541704279900682",
        "url": ""
    },
    {
        "title": "推荐：武汉周边不输江南的5个古村落，你知道几个？",
        "docid": "7282382129663984143",
        "url": ""
    },
    {
        "title": "知乎者也丨李典义：夜游石马兜",
        "docid": "7313018567774716466",
        "url": ""
    },
    {
        "title": "闵行这个网红地又有限时美景上线，每一张都不辜负你的双眼",
        "docid": "7313148370388861467",
        "url": ""
    },
    {
        "title": "山东被严重低估的城市，景色不输青岛和烟台，存在感却全省垫底",
        "docid": "7301123798433202688",
        "url": ""
    },
    {
        "title": "攀枝花:“过冬的神仙城市”指南",
        "docid": "7313190466802074152",
        "url": ""
    },
    {
        "title": "江苏苏州：雨中园林醉游人",
        "docid": "7313020228328882714",
        "url": ""
    },
    {
        "title": "你打卡过几处？我国57项世界遗产每一项都美如画",
        "docid": "7280331344297984523",
        "url": ""
    },
    {
        "title": "最火最in！苏州太湖新晋十大网红打卡地！",
        "docid": "7312309693127524873",
        "url": ""
    },
    {
        "title": "昆明哪些地方可以赶乡街？收好这份时间表，挨个去~",
        "docid": "7301520195964125722",
        "url": ""
    },
    {
        "title": "浙江杭州旅游必去十大景点",
        "docid": "7284084940193497657",
        "url": ""
    },
    {
        "title": "国内现存当年英法德建造的4座钢结构百年老桥，不知哪里还有？",
        "docid": "7312656744021754380",
        "url": ""
    },
    {
        "title": "上海建造的“中国第一个主题乐园”，营业5年便倒闭，已成为废墟",
        "docid": "7303901317469454874",
        "url": ""
    },
    {
        "title": "在洛阳玩了5天，和大家说几句心里话，句句都是肺腑之言！",
        "docid": "7294572623231500850",
        "url": ""
    },
    {
        "title": "免费！免费！免费！不去亏大了",
        "docid": "7312368093995614783",
        "url": ""
    },
    {
        "title": "刚从巴西回来，有些话不知当讲不当讲，带你看看真正的巴西生活",
        "docid": "7304235274551214603",
        "url": ""
    },
    {
        "title": "中国最低调的五个康养胜地，看完只想马上去养老！",
        "docid": "7304454380151915043",
        "url": ""
    },
    {
        "title": "北京两人去东莞，在景区吃烧鹅花65元，结账时惊呼：真这么便宜？",
        "docid": "7295642501526995475",
        "url": ""
    },
    {
        "title": "花西子杭州线下旗舰店，打造“蒙古族”非遗文化体验空间",
        "docid": "7312991660848824884",
        "url": ""
    },
    {
        "title": "长沙封面 | 降温了！趁变“装”前再来重温一次这样的星城吧！",
        "docid": "7312997756795159091",
        "url": ""
    },
    {
        "title": "从老挝旅行回来，有些话不知当讲不当讲，带你看看真正的老挝生活",
        "docid": "7290443944796635687",
        "url": ""
    },
    {
        "title": "巴勒斯坦伯利恒：耶稣的出生地，成千上万朝圣者和游客敬仰之地",
        "docid": "7291180876161876543",
        "url": ""
    },
    {
        "title": "秦皇岛这个数十亿烂尾工程，如今沦为钓鱼爱好者的天堂",
        "docid": "7297400434220679689",
        "url": ""
    },
    {
        "title": "英吉沙旅游冬季不“冷”",
        "docid": "7313058588812329506",
        "url": ""
    },
    {
        "title": "赏读｜回顾中世纪环北海一带的人文历史 重释北海对欧洲及现代世界的影响",
        "docid": "7313070716084372019",
        "url": ""
    },
    {
        "title": "去4线城市山东枣庄玩了9天，你们猜我们花了多少钱",
        "docid": "7313156845693698579",
        "url": ""
    },
    {
        "title": "无锡2处，入选！",
        "docid": "7313114956214419980",
        "url": ""
    },
    {
        "title": "人生必备的旅行清单，累了就去走一走",
        "docid": "7280800890804601378",
        "url": ""
    },
    {
        "title": "雪中的苏州“美丽冻人”!苏州人怎能不爱雪？",
        "docid": "7313060536420319755",
        "url": ""
    },
    {
        "title": "在广州古外港旁的博物馆，邂逅漂洋过海的希腊诸神！",
        "docid": "7313020109668074036",
        "url": ""
    },
    {
        "title": "从前门大街溜达到王府井，再次觉得王府井改造工程是个重大败笔",
        "docid": "7293493470184964618",
        "url": ""
    },
    {
        "title": "从腾冲旅游回来，说几句大实话，句句都是肺腑之言！",
        "docid": "7298712047616311834",
        "url": ""
    },
    {
        "title": "为啥放假不建议去格林纳达旅游？听听田大妈的看法",
        "docid": "7313115913945907722",
        "url": ""
    },
    {
        "title": "苏州：水杉秘境，带你走进童话世界！",
        "docid": "7312317152197919241",
        "url": ""
    },
    {
        "title": "刚刚！福建下雪了！",
        "docid": "7313099744023380480",
        "url": ""
    },
    {
        "title": "价格开始上涨！有的已经买不到了……",
        "docid": "7313054885597987338",
        "url": ""
    },
    {
        "title": "武汉最大的夜市，1公里分布着千余摊位，一到晚上挤得水泄不通",
        "docid": "7303432697203376694",
        "url": ""
    },
    {
        "title": "游历几个道观，亲眼见到道教衰落",
        "docid": "7299764379011875337",
        "url": ""
    },
    {
        "title": "浦江游览上新啦！“魔力悦星”开启黄浦江上的“演艺新空间”",
        "docid": "7313057368357650996",
        "url": ""
    },
    {
        "title": "第一次来武汉怎么玩？3天2晚全攻略来了，必打卡&不踩雷，收藏！",
        "docid": "7282220990795579939",
        "url": ""
    },
    {
        "title": "探索神奇岛屿的秘密！不可错过！！",
        "docid": "7313149504021316111",
        "url": ""
    },
    {
        "title": "船到古巴， 船员体验古巴社会主义制度下的旅行，2项特权令人自豪",
        "docid": "7281458946580365859",
        "url": ""
    },
    {
        "title": "去一趟浙江台州回来，总结出5条建议",
        "docid": "7313106482030019126",
        "url": ""
    },
    {
        "title": "三年收复156公里领土，三千人加入中国籍，片马对我国有多重要",
        "docid": "7312691836303639050",
        "url": ""
    },
    {
        "title": "低温预警！宁波第一场雪应该下在这",
        "docid": "7312741853131686415",
        "url": ""
    },
    {
        "title": "雪后金陵",
        "docid": "7313107209700295207",
        "url": ""
    },
    {
        "title": "雪映华山再现冬日仙境",
        "docid": "7312707939432055306",
        "url": ""
    },
    {
        "title": "在昆明畅快骑行！这5条Cityride路线，千万别错过~",
        "docid": "7313196410067894803",
        "url": ""
    },
    {
        "title": "19年神秘男隐居吕梁山谷，石屋常留2条猛犬看守，生活在世外桃源",
        "docid": "7312403670711484966",
        "url": ""
    },
    {
        "title": "下雪啦！一秒get太湖入冬“仪式感”！",
        "docid": "7313093628581364262",
        "url": ""
    },
    {
        "title": "@长春人，不容错过的视觉盛宴，带你打卡最炫酷的北国春城幻境光影秀",
        "docid": "7313082552670437942",
        "url": ""
    },
    {
        "title": "合美术馆：20230827",
        "docid": "7313045666425733686",
        "url": ""
    },
    {
        "title": "北京游记（第五站）",
        "docid": "7312741399299031604",
        "url": ""
    },
    {
        "title": "登上邮轮“危机”四伏，下船游景点全是套路，免税店坑你没商量！",
        "docid": "7311956145546347042",
        "url": ""
    },
    {
        "title": "刚从阿根廷旅行回来，有些话不知当讲不当讲",
        "docid": "7284529806547599891",
        "url": ""
    },
    {
        "title": "2012年，广东水底发现多具女性骸骨，调查后揭开一段残忍的历史",
        "docid": "7296799138438562356",
        "url": ""
    },
    {
        "title": "这个最冷的周末，快来参与1039最暖的相聚！",
        "docid": "7313166849133249058",
        "url": ""
    },
    {
        "title": "走进张浦镇，探秘昆山传统村落",
        "docid": "7312347918718583331",
        "url": ""
    },
    {
        "title": "一眼心动！在杨浦邂逅“美拉德”之风",
        "docid": "7312480186786791986",
        "url": ""
    },
    {
        "title": "逛遍全国菜市场，才发现水太深了",
        "docid": "7279982755390259753",
        "url": ""
    },
    {
        "title": "天津最大降雪出现在这！多趟列车停运！",
        "docid": "7312013167654093362",
        "url": ""
    },
    {
        "title": "太原和合肥的对比，不比不知道，差异实在太大了!",
        "docid": "7310810964432618025",
        "url": ""
    },
    {
        "title": "一上午遇到了七八十人上龙门山！民警巡山一圈后，发出提醒",
        "docid": "7313045911046029874",
        "url": ""
    },
    {
        "title": "4号线直达的石船镇赶场，我愿称之为重庆赶场界天花板！",
        "docid": "7290423016662696504",
        "url": ""
    },
    {
        "title": "这个中国“最没存在感”省会，原来这么牛....",
        "docid": "7273097899876254243",
        "url": ""
    },
    {
        "title": "在柳州玩了四天，和大家说几句心里话，句句都是肺腑之言！",
        "docid": "7289335664955671095",
        "url": ""
    },
    {
        "title": "@金普人，3！2！1！雪҉ 雪҉ 雪҉ 上“链接”",
        "docid": "7313100242520818210",
        "url": ""
    },
    {
        "title": "潮声丨“南极游”热捧背后，脆弱生态又该如何平衡",
        "docid": "7312996629685125644",
        "url": ""
    },
    {
        "title": "游客追求“体验感”“参与感”",
        "docid": "7312247097695191563",
        "url": ""
    },
    {
        "title": "重庆被“摘牌”的4A景区，曾耗16亿建设，如今“潦草”收场！",
        "docid": "7296008362754605578",
        "url": ""
    },
    {
        "title": "凌庆成：不登高山，不知天之高也—高尾山纪行—",
        "docid": "7313017662236262963",
        "url": ""
    },
    {
        "title": "河南有哪些千年古县？盘点河南13个千年古县，有你家乡吗？",
        "docid": "7296324585368027648",
        "url": ""
    },
    {
        "title": "广东·惠东·印象村貌·背子头村篇 ·这儿有你小时候老家的影子吗？",
        "docid": "7311680204492112403",
        "url": ""
    },
    {
        "title": "暮年再游鼓浪屿，儿时记忆今犹在",
        "docid": "7313044657041179163",
        "url": ""
    },
    {
        "title": "香！松江的蜡梅绽放啦！",
        "docid": "7312983361876705819",
        "url": ""
    },
    {
        "title": "韩城司马迁祠创建国家5A级景区应该考虑的几个角度",
        "docid": "7312261939504169526",
        "url": ""
    },
    {
        "title": "来大兴安岭，邂逅“冰雪奇缘”",
        "docid": "7313284065535197722",
        "url": ""
    },
    {
        "title": "人这一辈子，一定要去一趟茫崖！",
        "docid": "7302215776470417956",
        "url": ""
    },
    {
        "title": "走起！12月25日至26日，相约武陵源景区登高迎新",
        "docid": "7313074248770650650",
        "url": ""
    },
    {
        "title": "去四川绵阳旅游，不吹不黑，说一说我对这里的4个经历",
        "docid": "7313141300075823655",
        "url": ""
    },
    {
        "title": "韶关乐昌坪石，这样的粤北小镇你会喜欢吗？",
        "docid": "7282922614841000487",
        "url": ""
    },
    {
        "title": "退休6年，换了3种旅行方式都放弃后，我发现人老了这样旅行更自在",
        "docid": "7312951059511542282",
        "url": ""
    },
    {
        "title": "贵州百科全书走红，距贵阳仅204公里，门票40远胜黄果树",
        "docid": "7313191423955026484",
        "url": ""
    },
    {
        "title": "踏浪寻鲜｜一图看懂南通长寿之旅怎么玩",
        "docid": "7313097791642010150",
        "url": ""
    },
    {
        "title": "浙江一景区索道疑因大风突然停运，50余名游客被困缆车两小时后获救",
        "docid": "7313100019841434121",
        "url": ""
    },
    {
        "title": "太震撼了，打五星都嫌少！这部神作，我不推荐，你永远不知道！",
        "docid": "7288979542453289483",
        "url": ""
    },
    {
        "title": "从连云港搬到常州的第三年，不得不说，两个城市间的差距真的大",
        "docid": "7313089984247349800",
        "url": ""
    },
    {
        "title": "前段时间刚从成都金堂县出差回来，谈谈我在那里的见闻",
        "docid": "7313254191454028339",
        "url": ""
    },
    {
        "title": "河南万仙山郭亮村私家车不能进村了！敢相信“带路族”吗？",
        "docid": "7295297208491262464",
        "url": ""
    },
    {
        "title": "国家公园守护者｜九曲溪上的生态守护者",
        "docid": "7313056802453684774",
        "url": ""
    },
    {
        "title": "来邵阳新邵县出差，待了9天，聊聊我都经历了什么",
        "docid": "7313249880716132883",
        "url": ""
    },
    {
        "title": "漫山雾凇 美不胜收",
        "docid": "7313183761162879498",
        "url": ""
    },
    {
        "title": "哈萨克纪实：相同的边界，不同的世界",
        "docid": "7291303702890332687",
        "url": ""
    },
    {
        "title": "东台在沪推介康养旅游，诚邀沪上游客“森呼吸”“寻乡愁”“品美味”",
        "docid": "7313167444120912421",
        "url": ""
    },
    {
        "title": "元旦“上新”！成都传媒集团东郊记忆用文创激发消费活力",
        "docid": "7313163272399290931",
        "url": ""
    },
    {
        "title": "“玩转大武陵·寻美新重庆”冬日主题文旅活动举行",
        "docid": "7313020209790124594",
        "url": ""
    },
    {
        "title": "成都市武侯区：政企携手挖掘夜经济发展新动能",
        "docid": "7313106477366166050",
        "url": ""
    },
    {
        "title": "十二月行之八",
        "docid": "7313158779909472822",
        "url": ""
    },
    {
        "title": "每天了解一个繁华都市—中国 泰州",
        "docid": "7312064510045831734",
        "url": ""
    },
    {
        "title": "“湖北省科普教育基地”名单公布 应城市楚珍园旅游景区上榜",
        "docid": "7313045528617730569",
        "url": ""
    },
    {
        "title": "我们从死亡中学会了什么？一位母亲自我救赎的旅行",
        "docid": "7313071862567682597",
        "url": ""
    },
    {
        "title": "武当问道之五：亲历方能明理",
        "docid": "7311885520877945378",
        "url": ""
    },
    {
        "title": "适合全家出动！2024来过一种很“星”的年",
        "docid": "7313202191852978707",
        "url": ""
    },
    {
        "title": "石家庄灵寿五岳寨：许你一场冬雪里的雄美",
        "docid": "7312706668377375284",
        "url": ""
    },
    {
        "title": "走起！“六六”达达逛遍中国雕塑之都",
        "docid": "7313007851394581026",
        "url": ""
    },
    {
        "title": "淮安，一座拥有独特气质的城市",
        "docid": "7312767076962222628",
        "url": ""
    },
    {
        "title": "沙洲日记 | 公馆门",
        "docid": "7313130606702199333",
        "url": ""
    },
    {
        "title": "超拉风！鄂州又多一网红打卡点",
        "docid": "7312264907636998667",
        "url": ""
    },
    {
        "title": "首尔灯节 华丽亮相",
        "docid": "7313077545065300532",
        "url": ""
    },
    {
        "title": "湖北一景区山顶被人多处涂写“渣男”，镇政府：开放景区，不好管理",
        "docid": "7313077425397940788",
        "url": ""
    },
    {
        "title": "遇见那达慕⑥那达慕战袍 美丽不冻人",
        "docid": "7313120847399944744",
        "url": ""
    },
    {
        "title": "千城胜景｜河北迁西：巍巍长城雪景美如画",
        "docid": "7313162841572557324",
        "url": ""
    },
    {
        "title": "哈尔滨网红大雪人惊艳返场",
        "docid": "7313092771907207714",
        "url": ""
    },
    {
        "title": "河南伏羲山：玉树琼花 美不胜收",
        "docid": "7313159301990875698",
        "url": ""
    },
    {
        "title": "巴基斯坦媒体智库人士：更多人应亲眼看看真实的新疆",
        "docid": "7313149987502834210",
        "url": ""
    },
    {
        "title": "（镜观中国·新华社国内新闻照片一周精选）（15）雪后华山更娇娆",
        "docid": "7313170550598418980",
        "url": ""
    },
    {
        "title": "秀我中国｜海南骑楼老街：感受流逝的岁月",
        "docid": "7312994536274969115",
        "url": ""
    },
    {
        "title": "四川攀枝花逆天了，全国都很冷，我要去26度的攀枝花",
        "docid": "7313109660922364457",
        "url": ""
    },
    {
        "title": "湖北美术馆：20230916（星期六.晴）",
        "docid": "7313062902922215948",
        "url": ""
    },
    {
        "title": "新时代中国调研行·长城篇｜当万里长城遇见母亲河",
        "docid": "7313108230639993381",
        "url": ""
    },
    {
        "title": "视频+图集｜清远金子山现雾凇云海，美如“冰雪奇缘”童话世界",
        "docid": "7313049812722074166",
        "url": ""
    },
    {
        "title": "“坐着动车游云南”逐渐受越南游客青睐",
        "docid": "7313025326933180969",
        "url": ""
    },
    {
        "title": "第一批去东北旅游的南方人，已经麻了",
        "docid": "7311621161933210152",
        "url": ""
    },
    {
        "title": "深圳动物园被指成人票太贵！官方称“属中等水平”引网友吐槽",
        "docid": "7312167535024144906",
        "url": ""
    },
    {
        "title": "中央为什么点名发展阜阳？终于有答案了！",
        "docid": "7281508731257504312",
        "url": ""
    },
    {
        "title": "官方定调！重庆渝东北各区县官方定位及介绍",
        "docid": "7313128234685039116",
        "url": ""
    },
    {
        "title": "中国地理位置最好的5个省",
        "docid": "7310457125929730598",
        "url": ""
    },
    {
        "title": "常州和南通的对比，不比不知道，差异实在太大了！",
        "docid": "7312329910444540479",
        "url": ""
    },
    {
        "title": "中国最令人失望的城市之一：衡水",
        "docid": "7312360508114387490",
        "url": ""
    },
    {
        "title": "从湖北武汉搬到广东惠州的第40天，谈谈这两座城市的不同",
        "docid": "7310847235946824202",
        "url": ""
    },
    {
        "title": "乌鲁木齐和呼和浩特的对比，不比不知道，差异实在太大了！",
        "docid": "7312312388190765631",
        "url": ""
    },
    {
        "title": "上海最值得逛的十大商场，你都去过吗？",
        "docid": "7308985911512384015",
        "url": ""
    },
    {
        "title": "雪！雪！雪！今天晚上！浙江江西，安徽湖南湖北迎来大面积的降雪",
        "docid": "7313132677506023973",
        "url": ""
    },
    {
        "title": "老外盯上中国这4个城市了？赖着不想走，日子过的真的太舒适了",
        "docid": "7306698202533872155",
        "url": ""
    },
    {
        "title": "“故宫闭馆”上热搜，官方雪后美景大片来了",
        "docid": "7311225077915222528",
        "url": ""
    },
    {
        "title": "2万一晚，这可能是中国最贵的民宿",
        "docid": "7312623689441329683",
        "url": ""
    },
    {
        "title": "中国最大的县，比一大半省份面积都大，甚至大过很多欧洲国家！",
        "docid": "7298239447471571475",
        "url": ""
    },
    {
        "title": "中国最令人可惜的城市之一：银川市",
        "docid": "7310981347705750053",
        "url": ""
    },
    {
        "title": "刚从湖南回来，说一说真实的湖南人什么样子，看我说的对不对",
        "docid": "7312325699585868299",
        "url": ""
    },
    {
        "title": "深圳必打卡的11大景点",
        "docid": "7300523594197697075",
        "url": ""
    },
    {
        "title": "中国最令人可惜的城市之一：乌鲁木齐市",
        "docid": "7312732897713111589",
        "url": ""
    },
    {
        "title": "走街串巷逛西安，西郊“土门”，竟也成了时代的眼泪？",
        "docid": "7311983246190035493",
        "url": ""
    },
    {
        "title": "什么叫“富人思维”？网友：跟我出门旅游一趟，手把手教会你",
        "docid": "7313023249057661490",
        "url": ""
    },
    {
        "title": "澳门｜刚从澳门旅行回来，带你看看真实的澳门生活！",
        "docid": "7296697179974992384",
        "url": ""
    },
    {
        "title": "美！张家界国家森林公园迎来今冬首雪",
        "docid": "7313119627788452391",
        "url": ""
    },
    {
        "title": "广东最大的湖泊，比50个杭州西湖还大，是日进斗金的“鱼米之乡”",
        "docid": "7281580078042022459",
        "url": ""
    },
    {
        "title": "北京雪后:颐和园不能去了，太费内存",
        "docid": "7311639804285108770",
        "url": ""
    },
    {
        "title": "故宫下雪啦！20张雪景大片看尽紫禁城雪落：这才是人间真绝色！",
        "docid": "7312616856526045731",
        "url": ""
    },
    {
        "title": "深圳哪儿最好玩？深圳这17个旅游必去景点，趁着周末假期赶紧出发",
        "docid": "7303899325313073716",
        "url": ""
    },
    {
        "title": "从郑州搬到西安的第三年，不得不说，两个城市之间的差距真的大",
        "docid": "7310123930617135679",
        "url": ""
    },
    {
        "title": "全家移民新西兰10年，她说出7个“不要移来新西兰”的理由",
        "docid": "7309722062082589210",
        "url": ""
    },
    {
        "title": "颐和园：一场初雪银装素裹，雪中皇家园林之美，摄影人的美拍作品",
        "docid": "7311410378670342690",
        "url": ""
    },
    {
        "title": "中国有“良心”的三座城市，5A景点都免费",
        "docid": "7298027210798154281",
        "url": ""
    },
    {
        "title": "江西第一大城，除了吃辣还有多少惊喜？",
        "docid": "7287366747097727528",
        "url": ""
    },
    {
        "title": "旅游尽量少晒朋友圈,别分走了自己的福气",
        "docid": "7309084589132235279",
        "url": ""
    },
    {
        "title": "刚从三亚回来，掏心窝子说些实话…",
        "docid": "7291890362397327887",
        "url": ""
    },
    {
        "title": "刚刚从稻城亚丁玩回来，给大家说些掏心窝子的话！",
        "docid": "7285724819419693583",
        "url": ""
    },
    {
        "title": "探索辽宁某医科大学废弃教学楼，充满福尔马林的味道",
        "docid": "7309018036936360488",
        "url": ""
    },
    {
        "title": "都说美国富，我从北京去美国回来，有些话憋在心里，不吐不快！",
        "docid": "7312743713737720355",
        "url": ""
    },
    {
        "title": "长三角有一座很不起眼的城市，名气不大，名字很响",
        "docid": "7287020890536313405",
        "url": ""
    },
    {
        "title": "内蒙古最大城市、最大县、最大镇、最大村",
        "docid": "7298968308865319460",
        "url": ""
    },
    {
        "title": "甘肃这五个县冬天最冷，让人受不了，有没有你家乡呢？",
        "docid": "7310863602834096649",
        "url": ""
    },
    {
        "title": "中国最令人失望的城市之一：营口市",
        "docid": "7312741883141194280",
        "url": ""
    },
    {
        "title": "初秋的清晨",
        "docid": "7285163942417318415",
        "url": ""
    },
    {
        "title": "青旅真的只有年轻人住吗？多次住过青旅的70后，用亲身体验告诉你",
        "docid": "7312331514795082281",
        "url": ""
    },
    {
        "title": "退休后和蓝颜知己旅游8次，结果生病住院却没人照顾",
        "docid": "7312633609138373160",
        "url": ""
    },
    {
        "title": "一万出头就能去南极，是人民币哦！",
        "docid": "7287091875386458680",
        "url": ""
    },
    {
        "title": "武汉的“九龙城寨”：这里比家乡靠近城市，比城市靠近家乡",
        "docid": "7313352094407361061",
        "url": ""
    },
    {
        "title": "烧了129年的新疆“火焰山”，曾每年损失20亿，扑灭后惊艳世人！",
        "docid": "7300563972376265267",
        "url": ""
    },
    {
        "title": "海南最值得去的10个景点，有没有车也要去一趟，你去过几个",
        "docid": "7302381573935038995",
        "url": ""
    },
    {
        "title": "黑龙江漠河，南方人最好不要轻易去，因为那里的冷不是我们能承受",
        "docid": "7312710678744384009",
        "url": ""
    },
    {
        "title": "获得九项世界第一，绍兴花费13亿打造的寺庙，但游客却不买账",
        "docid": "7309727411238175251",
        "url": ""
    },
    {
        "title": "爆红的茨姆，不为人知的秘密",
        "docid": "7299632239003582987",
        "url": ""
    },
    {
        "title": "中国最令人遗憾的城市之一：青岛市",
        "docid": "7311957943837278739",
        "url": ""
    },
    {
        "title": "越南第二大城市河内，物价低得出奇，美女到处可见",
        "docid": "7305180434848367123",
        "url": ""
    },
    {
        "title": "为什么住酒店不能选无窗的？前台透露，便宜也不要选！",
        "docid": "7310031874641265186",
        "url": ""
    },
    {
        "title": "南昌梅岭一幕！美爆了",
        "docid": "7313338921872687635",
        "url": ""
    },
    {
        "title": "我国面积排名前十的广场，天安门广场仅列第六",
        "docid": "7306439249463886388",
        "url": ""
    },
    {
        "title": "层林尽染，五彩缤纷，秋之韵，美醉了！",
        "docid": "7291100942366409227",
        "url": ""
    },
    {
        "title": "上海有群人有家不回，“搬家式”露营一年一住100天，到底为啥？",
        "docid": "7298178567723385379",
        "url": ""
    },
    {
        "title": "洛阳第一城争夺战：偃师与孟津，到底谁更有实力问鼎？",
        "docid": "7285351793239294525",
        "url": ""
    },
    {
        "title": "在广州玩了四天多，说几句大实话，句句都是肺腑之言！",
        "docid": "7301315198328259110",
        "url": ""
    },
    {
        "title": "没看错！广东下雪了！",
        "docid": "7313253077262582283",
        "url": ""
    },
    {
        "title": "看看美国的旧金山和中国的深圳，给我的感受到底是什么？",
        "docid": "7299735584568771072",
        "url": ""
    },
    {
        "title": "探秘湖南无人村，误入死人谷，逃出来后，至今还觉得后怕，太恐怖",
        "docid": "7286768662797943335",
        "url": ""
    },
    {
        "title": "这里只有夏天和冬天，没有冬雪看，只能观冬雨",
        "docid": "7313355332292657718",
        "url": ""
    },
    {
        "title": "从湖北武汉搬到湖北十堰居住，这是我5年多最开心的时候",
        "docid": "7312550628537074217",
        "url": ""
    },
    {
        "title": "门头沟圈门鳌鱼沟现在值得一游",
        "docid": "7280837141838496267",
        "url": ""
    },
    {
        "title": "30张超美的罕见自然奇观，实属罕见！",
        "docid": "7298926893909180991",
        "url": ""
    },
    {
        "title": "河北冬天最冷的7个县，冰箱里都比室外暖和，看看有你家乡吗",
        "docid": "7310208750181515814",
        "url": ""
    },
    {
        "title": "从青海西宁搬到成都青羊区的第8天，谈一下我内心的真实感受",
        "docid": "7312625843250217509",
        "url": ""
    },
    {
        "title": "宝成铁路甩开天水，决定了宝鸡天水不同的发展轨迹",
        "docid": "7305605615476032000",
        "url": ""
    },
    {
        "title": "联合国认定的四川6个千年古县，有你家乡吗？",
        "docid": "7313180239444771328",
        "url": ""
    },
    {
        "title": "中国最令人失望的城市之一：吕梁市",
        "docid": "7312750632606597672",
        "url": ""
    },
    {
        "title": "白雪点缀的北京园博园也太美了吧！排不上故宫的小伙伴们看过来呀",
        "docid": "7312737166654767657",
        "url": ""
    },
    {
        "title": "重庆为何能够成为直辖市？",
        "docid": "7313045183447171610",
        "url": ""
    },
    {
        "title": "为什么“自驾游”的人越来越少？车主：有4大原因，千万别犯傻",
        "docid": "7310862116804674111",
        "url": ""
    },
    {
        "title": "海南环岛游热门景点大集合🗺旅游搭子必看",
        "docid": "7307636634773160474",
        "url": ""
    },
    {
        "title": "80年前四川康定旧照：3座城门还没拆，跑马山和现在不一样",
        "docid": "7310001618785665576",
        "url": ""
    },
    {
        "title": "四川一座十分特别县级市：先在南充后归广安，如今又在融入重庆",
        "docid": "7282006136202297917",
        "url": ""
    },
    {
        "title": "刚从西安周至县回来，有些话，不知当讲不当讲",
        "docid": "7310232212455408165",
        "url": ""
    },
    {
        "title": "来羊创打卡潮流集市，感受夜间烟火气",
        "docid": "7313135470274183717",
        "url": ""
    },
    {
        "title": "国家地理诚不欺我！12月的哈尼梯田绝美！",
        "docid": "7312815761704419877",
        "url": ""
    },
    {
        "title": "甘肃张掖：雪浴丹霞景色美",
        "docid": "7313339243739349539",
        "url": ""
    },
    {
        "title": "海南十大必玩景色，全部去过才算真正玩转海南",
        "docid": "7306836964739973644",
        "url": ""
    },
    {
        "title": "“北方雪乡之美”冰雪奇观寄托着蓝色之恋",
        "docid": "7313364293263688246",
        "url": ""
    },
    {
        "title": "中国最令人可惜的城市之一：泰安",
        "docid": "7311524321812742692",
        "url": ""
    },
    {
        "title": "北京颐和园雪后风光美如画",
        "docid": "7313393888956400166",
        "url": ""
    },
    {
        "title": "同事刚从香港旅游回来，有些话不吐不快，告诉你一个真实的香港",
        "docid": "7313233954281390604",
        "url": ""
    },
    {
        "title": "盘点河北省12大五星级饭店",
        "docid": "7302241794820178484",
        "url": ""
    },
    {
        "title": "自驾游这样选酒店，保证你能选到满意又性价比高的酒店",
        "docid": "7283478020537516559",
        "url": ""
    },
    {
        "title": "秋日里的中国太太太太美了！每一帧都值得收藏",
        "docid": "7285277031237960253",
        "url": ""
    },
    {
        "title": "刚从日本出差回来，有些话不吐不快，带你看看真实的日本生活！",
        "docid": "7301969966436975144",
        "url": ""
    },
    {
        "title": "中国“最懒”的3座城市，街上美女多，当地人天天喝茶打牌很安逸",
        "docid": "7308539482179994152",
        "url": ""
    },
    {
        "title": "6个上海必去的宝藏小众市集，连上海人都不一定知道",
        "docid": "7297986558123115018",
        "url": ""
    },
    {
        "title": "南极游复苏：价格普遍超10万，被年轻人视为“人生梦想”",
        "docid": "7312621637487165962",
        "url": ""
    },
    {
        "title": "世界上最孤独的国家，1600公里内没有邻国，总人口的5%都是华人",
        "docid": "7310940736160055871",
        "url": ""
    },
    {
        "title": "浙江新昌大佛寺景区国际征集赛引多国设计师参与 5家入围角逐桂冠",
        "docid": "7313093914804699685",
        "url": ""
    },
    {
        "title": "还没想好元旦假期去哪儿玩？外地游客已经看好重庆温泉了！",
        "docid": "7312719876962091583",
        "url": ""
    },
    {
        "title": "中国最贵的湖泊：价值超12万亿，军队24小时巡逻，里面藏了什么？",
        "docid": "7301597624984257058",
        "url": ""
    },
    {
        "title": "眉山市军工厂旧址，昔日辉煌员工都是知识分子，如今厂区满目荒芜",
        "docid": "7287950230203695650",
        "url": ""
    },
    {
        "title": "嘉定的这些马路终于藏不住了！你去过没？③",
        "docid": "7313362308171317786",
        "url": ""
    },
    {
        "title": "镇江迎大变局，撤县设区畅想，打造长三角先进制造基地和中心城市",
        "docid": "7313089445904564787",
        "url": ""
    },
    {
        "title": "中国40 个最美宝藏地，去过十个以上算旅行达人！",
        "docid": "7303166988984435200",
        "url": ""
    },
    {
        "title": "31个被人类废弃和遗忘的地方，在这里人类似乎已经消失！",
        "docid": "7310938626060714530",
        "url": ""
    },
    {
        "title": "从北京去上海旅游回来,有些话憋在心里,谈谈我对上海的的看法",
        "docid": "7283053829304648207",
        "url": ""
    },
    {
        "title": "推荐云南这8个如仙境般的县，去过3个以上便是人生赢家！",
        "docid": "7307236562457166375",
        "url": ""
    },
    {
        "title": "雪落泰安！堪称大自然巅峰之作！",
        "docid": "7312312693028192777",
        "url": ""
    },
    {
        "title": "五十岁以后，开始旅行吧",
        "docid": "7280128101307122210",
        "url": ""
    },
    {
        "title": "游遍中国名寺之1024：江苏扬州宝应宁国寺",
        "docid": "7312797589785723444",
        "url": ""
    },
    {
        "title": "中哈边境小城额敏，窝阔台汗国的都城所在，如今还有什么遗迹可寻",
        "docid": "7304962338220802600",
        "url": ""
    },
    {
        "title": "中国最可惜的城市：保山",
        "docid": "7313363268922262028",
        "url": ""
    },
    {
        "title": "中国最令人失望的城市之一：鞍山市",
        "docid": "7312367257840108072",
        "url": ""
    },
    {
        "title": "美不胜收的西安植物园！",
        "docid": "7294260165354914331",
        "url": ""
    },
    {
        "title": "东北人去过一趟河北，发现河北人和东北人差距实在是太大了",
        "docid": "7313193101575586341",
        "url": ""
    },
    {
        "title": "都说天津富，我从上海去天津回来，有些话憋在心里，不吐不快！",
        "docid": "7294458767029142035",
        "url": ""
    },
    {
        "title": "贵州这个县与重庆接壤，没有火车站和高铁，酒店价格比贵阳还高",
        "docid": "7292812669340582438",
        "url": ""
    },
    {
        "title": "荷兰人体博物馆：世界第一个“人体”主题博物馆 | 馆窥天下",
        "docid": "7293710942625088035",
        "url": ""
    },
    {
        "title": "中国最令人遗憾的城市之一：丽江市",
        "docid": "7312839270245499427",
        "url": ""
    },
    {
        "title": "中国最让人误会的2座城市，明明在黄河边，却属于淮河流域城市！",
        "docid": "7313096008111047179",
        "url": ""
    },
    {
        "title": "浙江衢州80余景区全年免费开放，旅游攻略",
        "docid": "7310749509225579023",
        "url": ""
    },
    {
        "title": "奇观天下|全球唯一八星级酒店 垃圾桶和水龙头都是金的",
        "docid": "7312706375711228455",
        "url": ""
    },
    {
        "title": "大片！雪后的大明湖美成了一幅水墨画卷！",
        "docid": "7313379835794080292",
        "url": ""
    },
    {
        "title": "保康：横冲赏雪不觉寒 如诗如画梦成仙",
        "docid": "7313427237167055412",
        "url": ""
    },
    {
        "title": "明天11点开园！ 第二十五届哈尔滨冰雪大世界亮点抢先看",
        "docid": "7313436796577333801",
        "url": ""
    },
    {
        "title": "重庆多地降雪已“签收” 当熟悉的风景披上一身雪花……",
        "docid": "7313392360476688937",
        "url": ""
    },
    {
        "title": "我国唯一3000年未改名的城市，只因出过一美人，一说名字世人皆知",
        "docid": "7285563414779527739",
        "url": ""
    },
    {
        "title": "南岳衡山大量游客夜间滞留数小时，景区回应：客流量过大且集中下山致堵车",
        "docid": "7313418001780015667",
        "url": ""
    },
    {
        "title": "不止219！100天6万里，80%的祖国美景，又一条“退休必驾”路线！",
        "docid": "7313101364157219379",
        "url": ""
    },
    {
        "title": "北京胡同探险：漫步胡同，品味老北京的独特风情",
        "docid": "7313108811706040842",
        "url": ""
    },
    {
        "title": "1907年，一个法国人独自爬上泰山，拍下了几乎没有游客的壮观泰山",
        "docid": "7308338524737094154",
        "url": ""
    },
    {
        "title": "用一场雨中徒步 轻轻唤醒刺桐城",
        "docid": "7313369620642349577",
        "url": ""
    },
    {
        "title": "我68岁上海人，旅游无数，终于发现最适合我们老年人的旅游方式",
        "docid": "7310144579607659017",
        "url": ""
    },
    {
        "title": "全网期待的大雪人回归了！今年，它还带了小伙伴🤩",
        "docid": "7313377994956030475",
        "url": ""
    },
    {
        "title": "杭州第一场雪，为什么总是在临安？",
        "docid": "7313396937959850523",
        "url": ""
    },
    {
        "title": "从上海市中心去周庄古镇很是方便。",
        "docid": "7286643488219972130",
        "url": ""
    },
    {
        "title": "周末去哪玩？商场变身英伦冬日小镇",
        "docid": "7312868940978487848",
        "url": ""
    },
    {
        "title": "看完外蒙古牧民冬天的生活，再看内蒙古牧民冬天的生活，差距巨大",
        "docid": "7302669219379151400",
        "url": ""
    },
    {
        "title": "耶路撒冷：世界最古老、最神圣的城市之一",
        "docid": "7287211360411222567",
        "url": ""
    },
    {
        "title": "广东又一景点走红，以奇、险、秀、幽为特色，人称南粤小华山",
        "docid": "7312763927724311092",
        "url": ""
    },
    {
        "title": "60个人，在海滩发现了奇怪的东西，海洋神秘的一角",
        "docid": "7290444258560492043",
        "url": ""
    },
    {
        "title": "从阿根廷旅游回来了，有些话不吐不快，带你看看真正的阿根廷生活",
        "docid": "7304196496163914252",
        "url": ""
    },
    {
        "title": "济南大明湖雪景，每一张都可做壁纸",
        "docid": "7312396561865294388",
        "url": ""
    },
    {
        "title": "就在明天！免费！",
        "docid": "7284876480402948642",
        "url": ""
    },
    {
        "title": "又乱又差！被嘲“鬼打墙”！真有深圳人爱逛这个商场？",
        "docid": "7313105085867885066",
        "url": ""
    },
    {
        "title": "国庆从北京去了烟台出差,发现烟台人民生活跟我想象中差别太大了",
        "docid": "7294261488670261772",
        "url": ""
    },
    {
        "title": "中国八大古都，河南占4个，论建都年代久不是西安、北京",
        "docid": "7313323609790267940",
        "url": ""
    },
    {
        "title": "北京今冬迎初雪 颐和园雪景如画",
        "docid": "7311155947207164443",
        "url": ""
    },
    {
        "title": "准噶尔汗国曾经的都城，西蒙古的代表，400年后古城是什么模样",
        "docid": "7302420229349458468",
        "url": ""
    },
    {
        "title": "山西这五个县冬天最难熬，天气极冷没法出门，看看有你的家乡吗？",
        "docid": "7309868950081683977",
        "url": ""
    },
    {
        "title": "海南省\"十四五规划\"交通，建设三条最美旅游公路。",
        "docid": "7281469155805659708",
        "url": ""
    },
    {
        "title": "要门票的不去！不买纪念品，不在景区吃饭或住宿，为何越来越多？",
        "docid": "7299359521397359131",
        "url": ""
    },
    {
        "title": "广西一条河里开出莫奈的花园惊艳了 河中开满海菜花如繁星洒落",
        "docid": "7292776256347963938",
        "url": ""
    },
    {
        "title": "当鹅毛大雪亲吻什刹海：时光仿佛慢了下来，共享寂静浪漫",
        "docid": "7312445769082995227",
        "url": ""
    },
    {
        "title": "实拍重庆开州刘伯承故居，带大家看看刘伯承元帅的家里是什么样子",
        "docid": "7300561395606209064",
        "url": ""
    },
    {
        "title": "上海“翻新”失败的古镇，曾经很繁华，如今冷冷清清",
        "docid": "7304910812899131923",
        "url": ""
    },
    {
        "title": "人这一辈子，一定要沿这条路看看海南！",
        "docid": "7310004682523591209",
        "url": ""
    },
    {
        "title": "24个历史遗留下来的有趣文物，供后人探索！",
        "docid": "7281914318868972095",
        "url": ""
    },
    {
        "title": "中国最令人失望的城市之一：南通市",
        "docid": "7312292094536647208",
        "url": ""
    },
    {
        "title": "天津市中心藏着一座古村，少有人知的世外桃源，仿佛回到几百年前",
        "docid": "7305235045369922087",
        "url": ""
    },
    {
        "title": "中国七大最美仙境，去过一个就是人间值得",
        "docid": "7300848739663577612",
        "url": ""
    },
    {
        "title": "游客在天坑景区内打排球，遇上梦幻丁达尔效应，光都仿佛有了形状！",
        "docid": "7290406339812065833",
        "url": ""
    },
    {
        "title": "家里再不景气，也要带孩子去这7座城市",
        "docid": "7313237201423204864",
        "url": ""
    },
    {
        "title": "有机会的话，你会选择移民北欧吗？网友的想法可能和你不一样",
        "docid": "7313415370914775587",
        "url": ""
    },
    {
        "title": "绝美！杭州这里现罕见“奇观”，网友拍下来了",
        "docid": "7313440616824930853",
        "url": ""
    },
    {
        "title": "德化九仙山迎来今年冬天首场雾凇",
        "docid": "7313149455917056553",
        "url": ""
    },
    {
        "title": "大理苍山雪又遇洱海蓝",
        "docid": "7313410262651568679",
        "url": ""
    },
    {
        "title": "我在印尼7年，这里风俗很奇葩，竟把先人挖出来游街，三年一次",
        "docid": "7280540143621161511",
        "url": ""
    },
    {
        "title": "跟了3次团才知道，出门旅行尽量带上这6样东西，关键时刻作用大",
        "docid": "7294841095492567589",
        "url": ""
    },
    {
        "title": "雪后居庸关长城",
        "docid": "7313358047278006811",
        "url": ""
    },
    {
        "title": "有雪的冬天",
        "docid": "7313160362898145844",
        "url": ""
    },
    {
        "title": "内蒙古到底有多牛？今天带您认识一个不一样的内蒙！",
        "docid": "7300187062497034761",
        "url": ""
    },
    {
        "title": "暴雪下的威海，美的超乎想象！",
        "docid": "7313324617018491403",
        "url": ""
    },
    {
        "title": "中国最令人心酸的城市之一：四平",
        "docid": "7313384864701497908",
        "url": ""
    },
    {
        "title": "安徽竟藏着一座被严重低估的名山，这是被黄山耽搁的名山",
        "docid": "7312606584662737443",
        "url": ""
    },
    {
        "title": "香港故宫只有4层，文物却很丰富，明清皇室收藏的物件颇多",
        "docid": "7313431694411858468",
        "url": ""
    },
    {
        "title": "雪后梯子岩",
        "docid": "7313422333237281330",
        "url": ""
    },
    {
        "title": "长途驾车不困秘诀",
        "docid": "7280163207556710972",
        "url": ""
    },
    {
        "title": "周村状元府的来历",
        "docid": "7289253292528534056",
        "url": ""
    },
    {
        "title": "南京到版纳一游第二回—鲜花美女曼听园，金碧巍峨总佛寺",
        "docid": "7313453663630934564",
        "url": ""
    },
    {
        "title": "海岸亮灯迎春辉，深圳欢乐海岸2024超级新年启幕",
        "docid": "7313425501585326611",
        "url": ""
    },
    {
        "title": "2023年海南欢乐节 餐饮满100元减30元",
        "docid": "7313398567727546890",
        "url": ""
    },
    {
        "title": "1991年17位登山队员遇难，7年后发现日记，遇难前2万藏民伏地念咒",
        "docid": "7303865911092576804",
        "url": ""
    },
    {
        "title": "中国最美八大滨海城市排行榜，看看你的家乡有没有上榜？",
        "docid": "7312984851865420315",
        "url": ""
    },
    {
        "title": "符拉迪沃斯托克：再见海参崴？",
        "docid": "7278851899959411241",
        "url": ""
    },
    {
        "title": "易中天：西安告诉我，自信是汉文明的底色",
        "docid": "7302337975894524455",
        "url": ""
    },
    {
        "title": "刚从梵净山回来，给大家一些诚恳建议",
        "docid": "7296004605509403170",
        "url": ""
    },
    {
        "title": "“全国一大怪”的县城，属于河南却位于山东省境内，这是为什么？",
        "docid": "7301252900980818432",
        "url": ""
    },
    {
        "title": "河南这五个县冬天最难熬，冷入骨髓，看看有你的家乡吗？",
        "docid": "7309865218510094874",
        "url": ""
    },
    {
        "title": "山东有一个三千年古县，名字只有一个字，但大多数人一开口就读错",
        "docid": "7303471703039050266",
        "url": ""
    },
    {
        "title": "327公里变948公里，这条全新国道承包了浙晥的秘境山水！",
        "docid": "7312685131721032192",
        "url": ""
    },
    {
        "title": "秦岭大山深处有座古镇，是灞河的源头!",
        "docid": "7295922915952968232",
        "url": ""
    },
    {
        "title": "我，76年杭州女人，辛苦赚到百万，因一时贪念，被股市割了韭菜",
        "docid": "7285926296083907072",
        "url": ""
    },
    {
        "title": "毗邻南京的这座小城，值得你来过个周末",
        "docid": "7293509013965931058",
        "url": ""
    },
    {
        "title": "贵州又一古城走红，人称铜仁小平遥，门票免费却少有人知",
        "docid": "7313455072627671592",
        "url": ""
    },
    {
        "title": "青浦局部有“雪”，蟠龙天地江南“雪”景令冬日氛围感up！",
        "docid": "7313172982170763827",
        "url": ""
    },
    {
        "title": "国庆避开人挤人，推荐5个冷门旅行目的地，人少景美，去了都说好",
        "docid": "7282227942888063529",
        "url": ""
    },
    {
        "title": "偏爱错峰游、玩法更丰富 看“银发族”如何撬动旅游大市场",
        "docid": "7313399081433383424",
        "url": ""
    },
    {
        "title": "一部电梯1个亿！越变越壕的景区，为何不怕烧钱？",
        "docid": "7292754140457959988",
        "url": ""
    },
    {
        "title": "贵州又一古镇走红，人称赤水小上海，门票10元值得一游",
        "docid": "7313458609332027956",
        "url": ""
    },
    {
        "title": "申城寒潮来袭，游客热情不减",
        "docid": "7313244101904859658",
        "url": ""
    },
    {
        "title": "重庆酉阳高海拔地区降雪 雪景如画",
        "docid": "7313356982667264563",
        "url": ""
    },
    {
        "title": "中国最遗憾的城市之一：山西省大同市",
        "docid": "7310457441765245451",
        "url": ""
    },
    {
        "title": "我裸辞到坦桑尼亚穷游，当地女人没地位，到年龄要切部分性器官",
        "docid": "7286782890762240512",
        "url": ""
    },
    {
        "title": "为何川藏线上的司机，总要点根烟扔出窗外？其实扔烟的都是聪明人",
        "docid": "7304956307637895719",
        "url": ""
    },
    {
        "title": "曾是南京最大的私家园林，投资4亿复建，平时游客量只有两位数",
        "docid": "7290914385285939712",
        "url": ""
    },
    {
        "title": "重庆永川、铜梁、大足三区交界被撤销的小镇，曾因开矿而兴盛起来",
        "docid": "7285194692256711228",
        "url": ""
    },
    {
        "title": "新宁德拍客团丨何加进：2023年冬的第一场雾淞",
        "docid": "7313462112796312099",
        "url": ""
    },
    {
        "title": "沧州离天津这么近，但许多人却没有游玩过。",
        "docid": "7303443299459858980",
        "url": ""
    },
    {
        "title": "从琉球旅行回来，说几句大实话，告诉你一个最真实的琉球",
        "docid": "7288627120060793407",
        "url": ""
    },
    {
        "title": "漫山红叶层林尽染 醉赏金秋太平",
        "docid": "7288965993160819234",
        "url": ""
    },
    {
        "title": "蒙古国距中国最近的县城，用中国电，花人民币，还想喝咱的自来水",
        "docid": "7296375212843696691",
        "url": ""
    },
    {
        "title": "刚从深圳回来，告诉你一个真相，不要相信网上说的",
        "docid": "7313376821716763176",
        "url": ""
    },
    {
        "title": "出国必看！各国出入境能带多少钱？搞错可能会坐牢！",
        "docid": "7312710530102624804",
        "url": ""
    },
    {
        "title": "都说武汉比南京好，我在武汉和南京待过多年，它们差距太大了",
        "docid": "7313210826721100307",
        "url": ""
    },
    {
        "title": "最低-28.8℃！北京怀柔山区出现罕见雾凇美景",
        "docid": "7313410905969230375",
        "url": ""
    },
    {
        "title": "武汉木兰山银装素裹",
        "docid": "7313347018561896999",
        "url": ""
    },
    {
        "title": "到山西旅行，最不能错过的十大景区，你去过了几个 ?",
        "docid": "7313381319315145268",
        "url": ""
    },
    {
        "title": "仙桃这里又多了家宝藏农场",
        "docid": "7313477708573671951",
        "url": ""
    },
    {
        "title": "因修沙漠公路被发现的“中国沙漠第一村”，村民不知今夕是何夕！",
        "docid": "7313479857126736436",
        "url": ""
    },
    {
        "title": "文化润心，服务暖心——2023湖北省公共文化服务宣传推广活动火热开展",
        "docid": "7313464628519273012",
        "url": ""
    },
    {
        "title": "新疆的包车司机有多卷？集多种功能于一身，还得卖萌逗笑当小丑？",
        "docid": "7286744346526433850",
        "url": ""
    },
    {
        "title": "90后的小夫妻，开着床车旅行，转了一圈，不料俩人都变了",
        "docid": "7311100884597998089",
        "url": ""
    },
    {
        "title": "雪后的北海公园，宛如仙境",
        "docid": "7313426776376902185",
        "url": ""
    },
    {
        "title": "来九寨沟真不用报团，超详细九寨沟黄龙两天三晚自由行攻略",
        "docid": "7294523357502997042",
        "url": ""
    },
    {
        "title": "近3000亩！江阴这里好美，藏不住了……",
        "docid": "7312637390823195151",
        "url": ""
    },
    {
        "title": "大喜事！郴州仰天湖大草原景区成为全国典型",
        "docid": "7313413681768235546",
        "url": ""
    },
    {
        "title": "限流！莽山五指峰景区紧急提醒",
        "docid": "7313486501495570953",
        "url": ""
    },
    {
        "title": "北京出发高铁直达，周末出行18种方案，18个城市",
        "docid": "7310150427067269632",
        "url": ""
    },
    {
        "title": "秦岭太洋公路，全长140公里，堪称一条秦岭山区最美山路",
        "docid": "7283396482357576233",
        "url": ""
    },
    {
        "title": "江苏宿迁：古黄河公园冬季美景",
        "docid": "7313460003501834767",
        "url": ""
    },
    {
        "title": "来者何人？报上名来！古人来到长城，是怎么“通关”的？",
        "docid": "7280332963488023100",
        "url": ""
    },
    {
        "title": "去了一趟东北哈尔滨，我真的特别想吐槽，对南方人实在太不友好了",
        "docid": "7313367557195629106",
        "url": ""
    },
    {
        "title": "今天的牛背山，就长这样！手机拍摄，无后期",
        "docid": "7293401798298141219",
        "url": ""
    },
    {
        "title": "震撼！北京初雪后，长城化身银色巨龙",
        "docid": "7311638657105478194",
        "url": ""
    },
    {
        "title": "上海即将消失的老城推荐：永远消失，又少了一段回忆！ [烟花]",
        "docid": "7313143005660217867",
        "url": ""
    },
    {
        "title": "黄河陕西大荔段现壮美流凌景观",
        "docid": "7313454496322257446",
        "url": ""
    },
    {
        "title": "南川雪景“上新” 游客踏雪赏景",
        "docid": "7313490149554422312",
        "url": ""
    },
    {
        "title": "三万里自驾游归来谈穷游",
        "docid": "7300085852787753510",
        "url": ""
    },
    {
        "title": "从朝鲜旅游回来，有些话不知当讲不当讲？带你看看真实的朝鲜！",
        "docid": "7298920206733607439",
        "url": ""
    },
    {
        "title": "单这一座博物馆就绝对值得你专程来这个城市。",
        "docid": "7287131170750431804",
        "url": ""
    },
    {
        "title": "从铜仁德江县搬到三线城市安徽宿州，感受这俩城市的不同",
        "docid": "7313325564625027610",
        "url": ""
    },
    {
        "title": "中国即将崛起的城市：吉安市",
        "docid": "7312738960428679695",
        "url": ""
    },
    {
        "title": "老俞闲话丨世间所有的喜悦都来自希望他人快乐",
        "docid": "7297070616816910858",
        "url": ""
    },
    {
        "title": "东北大妈游西安，逛回民街吃羊盆，结账时顿悟：西安为啥大家爱来",
        "docid": "7290364898088092172",
        "url": ""
    },
    {
        "title": "组图｜水杉红了",
        "docid": "7312670898828378661",
        "url": ""
    },
    {
        "title": "在崇明观赏双子座流星雨，绝美！",
        "docid": "7313485978210583075",
        "url": ""
    },
    {
        "title": "中国60个美景，去过20个算你厉害，你去过几个？",
        "docid": "7292983584938295842",
        "url": ""
    },
    {
        "title": "弋阳圭峰镇的水杉“火”了",
        "docid": "7313405512996176424",
        "url": ""
    },
    {
        "title": "落叶缓扫 留住风景",
        "docid": "7313365528679088681",
        "url": ""
    },
    {
        "title": "冬日魔法！哈尔滨松花江冰泡景观美轮美奂",
        "docid": "7313471462764282403",
        "url": ""
    },
    {
        "title": "【晋城】超美！雪落龙马湖！一眼千年！",
        "docid": "7312624600423809555",
        "url": ""
    },
    {
        "title": "到北固山逛一圈似乎找到了镇江旅游搞不好的原因",
        "docid": "7290554261946696252",
        "url": ""
    },
    {
        "title": "中国雪乡夜景仿若童话世界",
        "docid": "7313520424292221494",
        "url": ""
    },
    {
        "title": "西安红旗厂后山",
        "docid": "7291970696446870055",
        "url": ""
    },
    {
        "title": "混在朝鲜（379）朝鲜人如何在筒子楼做饭？",
        "docid": "7312660339152323113",
        "url": ""
    },
    {
        "title": "印度男子来中国旅游，5天后感慨：这3个方面让我意外",
        "docid": "7313162954898375209",
        "url": ""
    },
    {
        "title": "青甘环游14天，繁华落尽的冷湖石油基地和拍摄九层妖塔的石油小镇",
        "docid": "7288663251963937280",
        "url": ""
    },
    {
        "title": "强降雪“助攻”  绝美“南国雪原”风光已上线",
        "docid": "7313515713090912818",
        "url": ""
    },
    {
        "title": "元旦出行预订大幅上升，酒店订单增长超5倍",
        "docid": "7313455297782628873",
        "url": ""
    },
    {
        "title": "淮北周边旅游景点推荐",
        "docid": "7313133597836329481",
        "url": ""
    },
    {
        "title": "无需远行，5个适合踏秋的北京近郊景区赶紧收藏打卡吧~",
        "docid": "7284542089822585407",
        "url": ""
    },
    {
        "title": "57岁单身汉患癌，拒绝手术去旅行，半路临终恶化，托医生给办后事",
        "docid": "7313467150725972490",
        "url": ""
    },
    {
        "title": "我对加拿大的第一印象，不是冷，而是这6点",
        "docid": "7284775670310322746",
        "url": ""
    },
    {
        "title": "盘点山东人口最多的十大乡镇，是否有你的家乡？",
        "docid": "7290589122752856587",
        "url": ""
    },
    {
        "title": "一场雪，成就了北国风光",
        "docid": "7313531121067786767",
        "url": ""
    },
    {
        "title": "中国最令人遗憾的城市之一：天津市",
        "docid": "7312805448246329897",
        "url": ""
    },
    {
        "title": "褒斜道最具科技含量处  疑为李冰发明丨寻路蜀道",
        "docid": "7313494943028134410",
        "url": ""
    },
    {
        "title": "粤今冬首份“银装素裹”已送达",
        "docid": "7313379992145429004",
        "url": ""
    },
    {
        "title": "走进大理喜洲有近百年历史的图书馆",
        "docid": "7313476395202658855",
        "url": ""
    },
    {
        "title": "贵州梵净山：冬雪迎客来",
        "docid": "7313424399779365415",
        "url": ""
    },
    {
        "title": "宝鸡市人口结构分析，千年古城的人口流失困境",
        "docid": "7312650135358833215",
        "url": ""
    },
    {
        "title": "在阿尔巴尼亚住了62天，不吹不黑，谈谈那里的风土人情",
        "docid": "7312352710429491766",
        "url": ""
    },
    {
        "title": "温暖的退休生活记录5: 旅居美国半年我眼中的普通美国人的生活",
        "docid": "7297602640068870665",
        "url": ""
    },
    {
        "title": "欧洲三人组坐高铁直接震撼！向往成都的悠闲生活，直言要搬到中国",
        "docid": "7300702770145952293",
        "url": ""
    },
    {
        "title": "我，59年老大姐，迪拜做生意20年，一家4口分居3国，团圆太难",
        "docid": "7287217203903300131",
        "url": ""
    },
    {
        "title": "旅游｜澳大利亚布里斯班，一座容易被忽略的城市",
        "docid": "7313437008603415081",
        "url": ""
    },
    {
        "title": "蒙古人睡在蒙古包里，那他们怎么洗澡上厕所？当地姑娘说出了真相",
        "docid": "7305338690711126562",
        "url": ""
    },
    {
        "title": "光绪皇帝的囚禁之地——玉澜堂",
        "docid": "7288959731593527867",
        "url": ""
    },
    {
        "title": "往返6次婺源！整理出人少路线(精华避雷版）",
        "docid": "7281912405079474745",
        "url": ""
    },
    {
        "title": "火树银花跨年夜、摩登星光跨年趴……只有河南与电影小镇跨年夜为您开启新年好运",
        "docid": "7313499906361442868",
        "url": ""
    },
    {
        "title": "又添一处休闲游玩好去处！将打造成闵行的“植物园”",
        "docid": "7313439641804751400",
        "url": ""
    },
    {
        "title": "福建下雪啦！雪花纷飞，银装素裹，宛如童话世界",
        "docid": "7313480436431667763",
        "url": ""
    },
    {
        "title": "打工人从上海回来了，告诉你一个真实的上海，别相信网上的了",
        "docid": "7311631127297671720",
        "url": ""
    },
    {
        "title": "盘点今年到过的那些公园～⑧",
        "docid": "7313508522598269490",
        "url": ""
    },
    {
        "title": "葡萄牙 | 从葡萄牙旅游回来，说几句不中听的话！",
        "docid": "7286022788643684923",
        "url": ""
    },
    {
        "title": "冬日北京又有新去处，北京世园花灯艺术节下周开幕",
        "docid": "7313509834287088178",
        "url": ""
    },
    {
        "title": "这5个省份消失在中国地图上，可遗留的风景却美上了天！",
        "docid": "7287457980952609343",
        "url": ""
    },
    {
        "title": "哥伦比亚到底有什么好，为何中国男人去了就不想回来？因为这几点",
        "docid": "7312735139325542946",
        "url": ""
    },
    {
        "title": "中国最惊险的10大风景，看一下有你在的地方，你都去过吗?",
        "docid": "7310493777184145971",
        "url": ""
    },
    {
        "title": "大明山再现雾凇美景",
        "docid": "7313496340921860627",
        "url": ""
    },
    {
        "title": "京郊景区公交直达路线",
        "docid": "7284222681321390604",
        "url": ""
    },
    {
        "title": "自驾游，是选择公路还是高速？来说说我们的看法和做法",
        "docid": "7287928918227616308",
        "url": ""
    },
    {
        "title": "柳州下雪啦！冻成狗也要看这个神奇的雾凇雨凇大秀！",
        "docid": "7313550402518123043",
        "url": ""
    },
    {
        "title": "中国唯一一个兵城，城内一半人口是军人，被称为最安全的城市",
        "docid": "7312691929983861259",
        "url": ""
    },
    {
        "title": "50多名游客浙江湖州乘缆车被困近3小时冻得发抖？景区：均安全下山",
        "docid": "7313542573514473984",
        "url": ""
    },
    {
        "title": "秦岭将军山寻幽探险",
        "docid": "7313542377380610599",
        "url": ""
    },
    {
        "title": "震撼！不愧是“天上佛国，人间色达”",
        "docid": "7313387442672042534",
        "url": ""
    },
    {
        "title": "去了一趟延吉回来让我大开眼界，去延吉旅游避坑看这一篇就GO了",
        "docid": "7298551684337304090",
        "url": ""
    },
    {
        "title": "【天眼镜像】遵义仙人山雪景吸引市民“撒欢”",
        "docid": "7313414600408711695",
        "url": ""
    },
    {
        "title": "大武汉一日丨打卡江汉路，留意脚下！",
        "docid": "7313558672700326427",
        "url": ""
    },
    {
        "title": "我国唯一一个位于三江交汇处的城市，你知道是哪里吗？",
        "docid": "7312759966794957331",
        "url": ""
    }
]