[
    {
        "title": "果然视频｜“公主照”带火老建筑，冰雪游仍需整体性打造",
        "docid": "7309975017352266280",
        "url": ""
    },
    {
        "title": "青岛人坐火车能出国啦！一天能到4个国家，逛吃逛吃逛吃不停",
        "docid": "7310000357709595155",
        "url": ""
    },
    {
        "title": "刚从阿根廷旅行回来，有些话不知当讲不当讲",
        "docid": "7284529806547599891",
        "url": ""
    },
    {
        "title": "售罄！元旦春节假期，它爆单了",
        "docid": "7310961069224002087",
        "url": ""
    },
    {
        "title": "无需远行，5个适合踏秋的北京近郊景区赶紧收藏打卡吧~",
        "docid": "7284542089822585407",
        "url": ""
    },
    {
        "title": "周村状元府的来历",
        "docid": "7289253292528534056",
        "url": ""
    },
    {
        "title": "闵行这个网红地又有限时美景上线，每一张都不辜负你的双眼",
        "docid": "7310942465312326156",
        "url": ""
    },
    {
        "title": "“枫”情万种，“醉”美阳澄湖！",
        "docid": "7310472141232161317",
        "url": ""
    },
    {
        "title": "冬季并非旅行的终结，而是冒险和浪漫的序章",
        "docid": "7310922924783944246",
        "url": ""
    },
    {
        "title": "逛江南古镇，“蟹”逅肥美大闸蟹，还有与众不同的吃姜方式等着你！",
        "docid": "7310877688989008420",
        "url": ""
    },
    {
        "title": "浑源，一个美女横行霸道的地方",
        "docid": "7291557597679944192",
        "url": ""
    },
    {
        "title": "时隔13年，“印象系列”4.0版在福建揭幕！《最忆船政》首场定档12月23日",
        "docid": "7310907976464794175",
        "url": ""
    },
    {
        "title": "从北海涠洲岛玩回来，跟大家说说真心话，和我想象的很不一样",
        "docid": "7307425441617429003",
        "url": ""
    },
    {
        "title": "希腊之梦：神话传奇与蓝色海岸的历史奇迹",
        "docid": "7310857071644115475",
        "url": ""
    },
    {
        "title": "济郑高铁开通，濮阳26家景区推出优惠政策",
        "docid": "7310983338515317248",
        "url": ""
    },
    {
        "title": "即将开通！持身份证就能去",
        "docid": "7309273494708159012",
        "url": ""
    },
    {
        "title": "8年前，广西小伙带200元，带绝症女友穷游中国，如今二人怎么样了",
        "docid": "7278602017524875828",
        "url": ""
    },
    {
        "title": "长江11号主题邮局",
        "docid": "7310926931678593570",
        "url": ""
    },
    {
        "title": "你打卡过几处？我国57项世界遗产每一项都美如画",
        "docid": "7280331344297984523",
        "url": ""
    },
    {
        "title": "扫码了解前世今生！金泽古镇古桥“身份证”焕新",
        "docid": "7310893885789143589",
        "url": ""
    },
    {
        "title": "太震撼了，打五星都嫌少！这部神作，我不推荐，你永远不知道！",
        "docid": "7288979542453289483",
        "url": ""
    },
    {
        "title": "人口才5万多人的县城，没有铁路和高速，每天晚上都跟过春节似的",
        "docid": "7292668423841382922",
        "url": ""
    },
    {
        "title": "走进越南河内吉灵-河东线城市轻轨",
        "docid": "7310882223866020379",
        "url": ""
    },
    {
        "title": "河南万仙山郭亮村私家车不能进村了！敢相信“带路族”吗？",
        "docid": "7295297208491262464",
        "url": ""
    },
    {
        "title": "人生必备的旅行清单，累了就去走一走",
        "docid": "7280800890804601378",
        "url": ""
    },
    {
        "title": "宛如走进“油画”！这一波“叶”景不容错过！",
        "docid": "7310408937956819495",
        "url": ""
    },
    {
        "title": "广州南沙以文旅带动交流，构筑RCEP文商旅国际交往新平台",
        "docid": "7310883148878070309",
        "url": ""
    },
    {
        "title": "来徐州邳州市玩了12天，作为外地人我这么评价它",
        "docid": "7310087212056871478",
        "url": ""
    },
    {
        "title": "徐汇秋冬限定Park Walk！逛公园好似开盲盒，惊艳不期而遇",
        "docid": "7310795611375354402",
        "url": ""
    },
    {
        "title": "泰国游行记",
        "docid": "7310790715729150504",
        "url": ""
    },
    {
        "title": "刚从巴西回来，有些话不知当讲不当讲，带你看看真正的巴西生活",
        "docid": "7304235274551214603",
        "url": ""
    },
    {
        "title": "ParkWalk！让我们在园区与美好不期而遇！",
        "docid": "7310942421226062347",
        "url": ""
    },
    {
        "title": "周末游→被低估的古村落！两天一夜人均400元攻略~",
        "docid": "7310866177923301925",
        "url": ""
    },
    {
        "title": "“不赶时间、走哪玩哪”成为出游新风尚 年轻人开启“打听式旅游”",
        "docid": "7309275773209297444",
        "url": ""
    },
    {
        "title": "看见贺兰沉浸式演艺点燃宁夏冬日",
        "docid": "7310921021325345321",
        "url": ""
    },
    {
        "title": "4号线直达的石船镇赶场，我愿称之为重庆赶场界天花板！",
        "docid": "7290423016662696504",
        "url": ""
    },
    {
        "title": "鄂州：吴大帝的帝都——武昌",
        "docid": "7310948705749516810",
        "url": ""
    },
    {
        "title": "来北京游玩，这5家老字号一定要打卡，味道正宗，吃过了不留遗憾",
        "docid": "7295550733204800052",
        "url": ""
    },
    {
        "title": "醉白池，真好看！",
        "docid": "7310423543262626330",
        "url": ""
    },
    {
        "title": "东南亚免签国连成片“说走就走”，泰国印尼在思考如何加码",
        "docid": "7310966193484497427",
        "url": ""
    },
    {
        "title": "不要再被叙利亚骗了！4个事实，带你看看最真实的叙利亚",
        "docid": "7310865260569805327",
        "url": ""
    },
    {
        "title": "巴勒斯坦伯利恒：耶稣的出生地，成千上万朝圣者和游客敬仰之地",
        "docid": "7291180876161876543",
        "url": ""
    },
    {
        "title": "用“随申行”也能预订浦江游览船票？一起来看操作流程",
        "docid": "7310863774406754879",
        "url": ""
    },
    {
        "title": "五台山奇遇记二（第二次独自去五台山）",
        "docid": "7309673425621205542",
        "url": ""
    },
    {
        "title": "傥骆道上，一座小城的死与生｜寻路蜀道",
        "docid": "7310874057380282880",
        "url": ""
    },
    {
        "title": "三亚不断丰富旅游消费场景 推动国际旅游消费中心建设",
        "docid": "7310928827864351267",
        "url": ""
    },
    {
        "title": "从白俄罗斯旅游回来，不吹不黑，说几句白俄罗斯的大实话",
        "docid": "7281896689542201908",
        "url": ""
    },
    {
        "title": "李家坑",
        "docid": "7305685015050977792",
        "url": ""
    },
    {
        "title": "人在旅途：春风不度玉门关，西出阳关无故人",
        "docid": "7310126781011968552",
        "url": ""
    },
    {
        "title": "草木凋零时，佛像露真容！深秋，来杭州最小的山看最大的摩崖石刻",
        "docid": "7310027703627940367",
        "url": ""
    },
    {
        "title": "越多人打卡越悲凉！绝美“地球之心”面临沙漠化",
        "docid": "7310821524150518299",
        "url": ""
    },
    {
        "title": "四川适合避寒过冬的2个城市，空气好环境优，坐动车不到5小时",
        "docid": "7309450181408817702",
        "url": ""
    },
    {
        "title": "荆楚地理|襄阳有座低调名山，皇帝曾来巡游，庞德公、孟浩然、皮日休在此隐居",
        "docid": "7310796655513748008",
        "url": ""
    },
    {
        "title": "北方的回避一下，广西能看见雪的地方，今年冬天不能再错过了",
        "docid": "7310126691698262591",
        "url": ""
    },
    {
        "title": "木里，一个被忽略的胜境天堂，人少清静无门票，比稻城亚丁还美",
        "docid": "7310930043545584140",
        "url": ""
    },
    {
        "title": "从马来西亚回来，有些大实话不得不说了",
        "docid": "7310199535878423090",
        "url": ""
    },
    {
        "title": "相约吉林粉雪｜来这里过年，感受童年最初的样子",
        "docid": "7310985266624709170",
        "url": ""
    },
    {
        "title": "金佛山云海",
        "docid": "7310880819545899554",
        "url": ""
    },
    {
        "title": "汉中最有年味儿的大集来喽，真热闹！",
        "docid": "7310401009732338216",
        "url": ""
    },
    {
        "title": "不受外媒影响 泰国达叻府3岛小长假预计迎来2万游客！",
        "docid": "7310829456024158772",
        "url": ""
    },
    {
        "title": "德国游客组团游中国，一出机场就急了，电视里的中国是假的！",
        "docid": "7310502409363767860",
        "url": ""
    },
    {
        "title": "相约吉林粉雪·海报新闻｜让你一秒回到童年的“雪村”",
        "docid": "7310789728809452042",
        "url": ""
    },
    {
        "title": "诗和家乡.国殇",
        "docid": "7309632046337507840",
        "url": ""
    },
    {
        "title": "“宁马”秀碧水福道，尽展宁德之美！",
        "docid": "7310763035193262643",
        "url": ""
    },
    {
        "title": "来九寨沟真不用报团，超详细九寨沟黄龙两天三晚自由行攻略",
        "docid": "7294523357502997042",
        "url": ""
    },
    {
        "title": "无阿里不西藏：达姆寺，直面生死，珍惜生活（原创）",
        "docid": "7309778766690025994",
        "url": ""
    },
    {
        "title": "四川最后一个“秘境”——玛嘉沟，可媲美九寨沟",
        "docid": "7274181797116707385",
        "url": ""
    },
    {
        "title": "第6次来南通启东市，谈谈我的感受",
        "docid": "7310117853104374313",
        "url": ""
    },
    {
        "title": "云逛博物馆——第一站湖北省博物馆看编钟",
        "docid": "7310995184924361231",
        "url": ""
    },
    {
        "title": "南京的名胜——石头城，夫子庙，玄武湖，莫愁湖",
        "docid": "7309950921193128467",
        "url": ""
    },
    {
        "title": "贵州一处湖泊，面积相当于17个红枫湖，76个杭州西湖，2个洱海",
        "docid": "7310438791003701772",
        "url": ""
    },
    {
        "title": "辞职5年走遍中国后，突然发现：旅游对我失去了吸引力",
        "docid": "7310892803599729179",
        "url": ""
    },
    {
        "title": "从湖南长沙搬到四川眉山的第8天，用心感受两个城市的不同",
        "docid": "7310346529565573682",
        "url": ""
    },
    {
        "title": "（社会）江苏无锡：全力打造大运河文化带",
        "docid": "7310886239442649651",
        "url": ""
    },
    {
        "title": "我的一次旅游经历，让我再也不敢结伴旅游了",
        "docid": "7303483313258594855",
        "url": ""
    },
    {
        "title": "嘉定人夜里厢都去哪儿？指南来啦→",
        "docid": "7310919296987890230",
        "url": ""
    },
    {
        "title": "重逢秘境 拥抱美好⑧｜松阳：寻找万亩茶海中的一点白",
        "docid": "7307210988079366671",
        "url": ""
    },
    {
        "title": "甸尾水杉冬日限定色彩“上线”",
        "docid": "7310970097328489000",
        "url": ""
    },
    {
        "title": "黄浦江畔，夜色如画",
        "docid": "7310765767761347123",
        "url": ""
    },
    {
        "title": "听讲座+CityWalk，青少年沉浸式了解苏州河的历史文化",
        "docid": "7310803324767552040",
        "url": ""
    },
    {
        "title": "大运河黄金旅游线暨浙江省诗路旅游目的地推选活动开始了！",
        "docid": "7310783270353060390",
        "url": ""
    },
    {
        "title": "景区回应男童体验飞天威亚疑摔落 ：操作失误致游客脚尖在地面滑行 约谈项目方并处罚",
        "docid": "7310847808935264808",
        "url": ""
    },
    {
        "title": "品读｜ 只要在路上，就强过停在原地",
        "docid": "7310771634221335066",
        "url": ""
    },
    {
        "title": "贵州松桃：欢乐过苗年",
        "docid": "7310862483911524902",
        "url": ""
    },
    {
        "title": "特色旅游赶“潮”出圈 “白色经济”激活文旅市场活力",
        "docid": "7310855876884464167",
        "url": ""
    },
    {
        "title": "韶关乐昌坪石，这样的粤北小镇你会喜欢吗？",
        "docid": "7282922614841000487",
        "url": ""
    },
    {
        "title": "调侃几句内蒙额济纳的旅游环境，觉得有意思，没有恶意",
        "docid": "7284455652796596791",
        "url": ""
    },
    {
        "title": "“石窟艺术沉浸体验”亮相国博",
        "docid": "7310722602694230591",
        "url": ""
    },
    {
        "title": "“骑”乐无穷！这条骑行线路里藏着最美的南河！",
        "docid": "7310846975388156428",
        "url": ""
    },
    {
        "title": "缤纷莽山公园，健步感慨万千",
        "docid": "7310711386181501480",
        "url": ""
    },
    {
        "title": "68岁上海老人退休后的旅居新生活：每个城市都是家",
        "docid": "7310831132755526195",
        "url": ""
    },
    {
        "title": "45岁退休大姐，一人一车自驾游全国：身心获得治愈，找到真正自由",
        "docid": "7298793700585253063",
        "url": ""
    },
    {
        "title": "竹溪县天宝乡的“小三峡”别有洞天",
        "docid": "7309442924885819942",
        "url": ""
    },
    {
        "title": "岱山有位爱石头的老人 他用方寸景观还原海岛风景",
        "docid": "7310819100283339302",
        "url": ""
    },
    {
        "title": "创意之光点亮光明！记者带你打卡公明古墟里的文化设计大展",
        "docid": "7310894719360516634",
        "url": ""
    },
    {
        "title": "教堂印象",
        "docid": "7310916554219930127",
        "url": ""
    },
    {
        "title": "元旦春节旅游热度“红红火火” 多措并举助力出入境游恢复提升",
        "docid": "7310879000459821587",
        "url": ""
    },
    {
        "title": "一年飞了14次，出门旅行7次，2022年我都去了哪些地方",
        "docid": "7309725515185783336",
        "url": ""
    },
    {
        "title": "哇，好期待！庐山“冰雪世界”要来啦！",
        "docid": "7310771231274402319",
        "url": ""
    },
    {
        "title": "一万次心动！“美拉德”的风吹到了岳阳！",
        "docid": "7310071725079790130",
        "url": ""
    },
    {
        "title": "人民大会堂变身商业圣地：新闻发布会的成本与魅力解析",
        "docid": "7310796340593082907",
        "url": ""
    },
    {
        "title": "我90后，不愿各种卷，半年挣钱半年旅行，独自背包行走20多个国家",
        "docid": "7308916826640548393",
        "url": ""
    },
    {
        "title": "人这一辈子，一定要去一趟茫崖！",
        "docid": "7302215776470417956",
        "url": ""
    },
    {
        "title": "大自然的涌泉相“抱”",
        "docid": "7309979616037323318",
        "url": ""
    },
    {
        "title": "到锦江乐园享童话雪国、浪漫飘雪、花车巡游……早鸟59元起",
        "docid": "7310824564832076314",
        "url": ""
    },
    {
        "title": "叶良骏：我心中的庄市老街",
        "docid": "7310134033491526196",
        "url": ""
    },
    {
        "title": "重庆南岸：“一路枫景”美如画",
        "docid": "7310798817539555875",
        "url": ""
    },
    {
        "title": "我与类乌齐查杰玛大殿的探访之缘",
        "docid": "7310782013844472371",
        "url": ""
    },
    {
        "title": "世博文化公园让你体验不一样的“公园+”",
        "docid": "7310931805363323429",
        "url": ""
    },
    {
        "title": "“用故事点燃爱”，浏阳周末烟花秀绽放夜空",
        "docid": "7310954910043603468",
        "url": ""
    },
    {
        "title": "淮南文旅来肥举办嘉年华 派送2000张牛肉汤免费品尝券",
        "docid": "7310892142241743369",
        "url": ""
    },
    {
        "title": "黄浦赏秋地图｜拍银杏还需特意去找？家门口就有",
        "docid": "7310756808652538394",
        "url": ""
    },
    {
        "title": "焕彩新生，探寻杨树浦路上个世纪的工业记忆",
        "docid": "7310789368657543720",
        "url": ""
    },
    {
        "title": "海鸥狂欢泸沽湖",
        "docid": "7310918474849632822",
        "url": ""
    },
    {
        "title": "直击引领区｜浦东制定“骑行公约”呼吁市民共同遵守",
        "docid": "7310750230008726066",
        "url": ""
    },
    {
        "title": "第五届南京国际房车露营展举行 看“户外经济”如何成为消费新风口",
        "docid": "7310838682653590027",
        "url": ""
    },
    {
        "title": "程建华：枫香傲立高冈上",
        "docid": "7310844751765652005",
        "url": ""
    },
    {
        "title": "小众打卡点！昆明版“塞纳河”风光，绝了!",
        "docid": "7310970104555029002",
        "url": ""
    },
    {
        "title": "鸡鸣闻三省——骑游天下（十八）内蒙古准格尔旗",
        "docid": "7308260475450556928",
        "url": ""
    },
    {
        "title": "南京周边旅游景点推荐一日游",
        "docid": "7310780291613131275",
        "url": ""
    },
    {
        "title": "人人都该在秋天去一次安徽！",
        "docid": "7278933920119718461",
        "url": ""
    },
    {
        "title": "上海这处文化地标重启！有人拖行李来，有人提前一小时到，为了啥？",
        "docid": "7310913997643989555",
        "url": ""
    },
    {
        "title": "年底开放！成都又一生态公园要来了",
        "docid": "7310122865272291852",
        "url": ""
    },
    {
        "title": "宁德市景区全面开放：推动旅游业发展新突破",
        "docid": "7310420470115893769",
        "url": ""
    },
    {
        "title": "“骑时很酷”开启一场暖冬cityride！魔都潮人齐聚外滩，在冬日奇境中收获畅快购物体验",
        "docid": "7310873408928432655",
        "url": ""
    },
    {
        "title": "图集丨上海动物园“美拉德”大片出炉",
        "docid": "7310189642207216180",
        "url": ""
    },
    {
        "title": "南京的名胜——中山陵，总统府，雨花台",
        "docid": "7309953888222773799",
        "url": ""
    },
    {
        "title": "岭南第一村印象",
        "docid": "7310886266411778575",
        "url": ""
    },
    {
        "title": "上海：古刹景色美",
        "docid": "7310917638304039460",
        "url": ""
    },
    {
        "title": "在“广马”中路过大美荔湾，领略古韵与现代的完美融合",
        "docid": "7310935787850809894",
        "url": ""
    },
    {
        "title": "瑞丽江两岸：缅北战火与避难逃生",
        "docid": "7310671283774210600",
        "url": ""
    },
    {
        "title": "十二月去日照，建议看完这篇…",
        "docid": "7310976120101519923",
        "url": ""
    },
    {
        "title": "“男人天堂”阿卡族部落：女人赚钱养家，男人负责“貌美如花”？",
        "docid": "7280482278189531667",
        "url": ""
    },
    {
        "title": "杭州卖鱼桥怀旧系列之九——游“江桥暮雨”和御码头",
        "docid": "7310872455772684800",
        "url": ""
    },
    {
        "title": "真的红了！鲁迅公园红枫进入最佳观赏期",
        "docid": "7310046080128205362",
        "url": ""
    },
    {
        "title": "亳州：陵西湖公园冬景醉游人",
        "docid": "7310877351260029455",
        "url": ""
    },
    {
        "title": "潜梦岛",
        "docid": "7311058103917609509",
        "url": ""
    },
    {
        "title": "相约吉林粉雪｜梅河口知北村的供销社，太怀旧啦！",
        "docid": "7310985302708224521",
        "url": ""
    },
    {
        "title": "慢下来，走走看看城市好风景，阿姨爷叔聚会拍照又多了好去处！上海14个慢行示范区建成",
        "docid": "7310847677297213978",
        "url": ""
    },
    {
        "title": "晓峰近距离｜直击全国首创新旅游零售综合体——三亚海旅超体开业迎宾",
        "docid": "7310854312766292507",
        "url": ""
    },
    {
        "title": "滑雪、冰钓、看烟花 东方甄选看世界助力吉林文旅再出圈",
        "docid": "7310985277072622118",
        "url": ""
    },
    {
        "title": "【烟火人间】忘川：​我想去昆明",
        "docid": "7310444008520909348",
        "url": ""
    },
    {
        "title": "高楼灯海，静谧街巷，上海奇妙夜的正确打开方式→",
        "docid": "7310788734931550735",
        "url": ""
    },
    {
        "title": "@松江人，快来辰山植物园打卡晚秋风景",
        "docid": "7310933137637425690",
        "url": ""
    },
    {
        "title": "河北邯郸将军岭长城（晋冀鲁豫自驾游之十）",
        "docid": "7310857585798840870",
        "url": ""
    },
    {
        "title": "国内18个祈福最灵验宝地，有车没车都要抽空走一趟，你去过几个？",
        "docid": "7310198678256665122",
        "url": ""
    },
    {
        "title": "台江南园特色民俗文化街区开街",
        "docid": "7310770244136583734",
        "url": ""
    },
    {
        "title": "“冬游四川1元购”！凉山5个4A景区门票 “ 1元购 ”",
        "docid": "7310998848153960998",
        "url": ""
    },
    {
        "title": "徒步郴州骡马古道，感受红色情怀与悠悠古韵交融",
        "docid": "7310783118523974181",
        "url": ""
    },
    {
        "title": "打卡梅溪湖“中国结”步行桥 ，沉浸式感受建筑艺术之美",
        "docid": "7310107520419447323",
        "url": ""
    },
    {
        "title": "不得不信，人和城市之间也是有磁场的",
        "docid": "7310435072769999401",
        "url": ""
    },
    {
        "title": "中国最遗憾的城市之一：襄阳市",
        "docid": "7310113229962166819",
        "url": ""
    },
    {
        "title": "去了趟上海旅游，发现上海人跟想象中差距太大了，尤其是素质方面",
        "docid": "7310890929668276773",
        "url": ""
    },
    {
        "title": "澳门｜刚从澳门旅行回来，带你看看真实的澳门生活！",
        "docid": "7296697179974992384",
        "url": ""
    },
    {
        "title": "从郑州搬到西安的第三年，不得不说，两个城市之间的差距真的大",
        "docid": "7310123930617135679",
        "url": ""
    },
    {
        "title": "旅游尽量少晒朋友圈,别分走了自己的福气",
        "docid": "7309084589132235279",
        "url": ""
    },
    {
        "title": "深圳必打卡的11大景点",
        "docid": "7300523594197697075",
        "url": ""
    },
    {
        "title": "刚从三亚回来，掏心窝子说些实话…",
        "docid": "7291890362397327887",
        "url": ""
    },
    {
        "title": "从山西长治搬到昆明的第101天，讲一下我在这俩城市的体验",
        "docid": "7308356378303824393",
        "url": ""
    },
    {
        "title": "上海最值得逛的十大商场，你都去过吗？",
        "docid": "7308985911512384015",
        "url": ""
    },
    {
        "title": "南京去宜兴已经没有大巴坐了",
        "docid": "7310080684108939813",
        "url": ""
    },
    {
        "title": "湖南与湖北：两个相邻省份的多方面差异！",
        "docid": "7310447294346871323",
        "url": ""
    },
    {
        "title": "搬来南阳邓州市的第4天，聊聊我的感受",
        "docid": "7310273526773154340",
        "url": ""
    },
    {
        "title": "我求求大家了，来河南旅游一次吧，世界顶级的旅游体验",
        "docid": "7279788211755713076",
        "url": ""
    },
    {
        "title": "探索辽宁某医科大学废弃教学楼，充满福尔马林的味道",
        "docid": "7309018036936360488",
        "url": ""
    },
    {
        "title": "国内十大主题乐园，你知道在哪吗？",
        "docid": "7302259076053058083",
        "url": ""
    },
    {
        "title": "中国最潮湿的十个地方，看一眼就要滴出水来",
        "docid": "7274606109054124601",
        "url": ""
    },
    {
        "title": "全家移民新西兰10年，她说出7个“不要移来新西兰”的理由",
        "docid": "7309722062082589210",
        "url": ""
    },
    {
        "title": "乐山这7个古镇，太适合秋天去漫步了！",
        "docid": "7277875580341600808",
        "url": ""
    },
    {
        "title": "从孟加拉国回来，有些话不说说憋的难受，这才是最真实的孟加拉国",
        "docid": "7301852745710043659",
        "url": ""
    },
    {
        "title": "刚从日本出差回来，有些话不吐不快，带你看看真实的日本生活！",
        "docid": "7301969966436975144",
        "url": ""
    },
    {
        "title": "盘点山东人口最多的十大乡镇，是否有你的家乡？",
        "docid": "7290589122752856587",
        "url": ""
    },
    {
        "title": "为什么“自驾游”的人越来越少？车主：有4大原因，千万别犯傻",
        "docid": "7310862116804674111",
        "url": ""
    },
    {
        "title": "烧了129年的新疆“火焰山”，曾每年损失20亿，扑灭后惊艳世人！",
        "docid": "7300563972376265267",
        "url": ""
    },
    {
        "title": "1907年，一个法国人独自爬上泰山，拍下了几乎没有游客的壮观泰山",
        "docid": "7308338524737094154",
        "url": ""
    },
    {
        "title": "为什么住酒店不能选无窗的？前台透露，便宜也不要选！",
        "docid": "7310031874641265186",
        "url": ""
    },
    {
        "title": "酒店的床，到底藏着多少秘密？",
        "docid": "7277484401129554473",
        "url": ""
    },
    {
        "title": "往返6次婺源！整理出人少路线(精华避雷版）",
        "docid": "7281912405079474745",
        "url": ""
    },
    {
        "title": "国庆从北京去了烟台出差,发现烟台人民生活跟我想象中差别太大了",
        "docid": "7294261488670261772",
        "url": ""
    },
    {
        "title": "洛阳第一城争夺战：偃师与孟津，到底谁更有实力问鼎？",
        "docid": "7285351793239294525",
        "url": ""
    },
    {
        "title": "中国最大的县，比一大半省份面积都大，甚至大过很多欧洲国家！",
        "docid": "7298239447471571475",
        "url": ""
    },
    {
        "title": "这一次旅行，徐州、济南、淄博、威海、青岛，我最推荐哪座城？",
        "docid": "7279340370822054454",
        "url": ""
    },
    {
        "title": "欧洲三人组坐高铁直接震撼！向往成都的悠闲生活，直言要搬到中国",
        "docid": "7300702770145952293",
        "url": ""
    },
    {
        "title": "河北冬天最冷的7个县，冰箱里都比室外暖和，看看有你家乡吗",
        "docid": "7310208750181515814",
        "url": ""
    },
    {
        "title": "探秘湖南无人村，误入死人谷，逃出来后，至今还觉得后怕，太恐怖",
        "docid": "7286768662797943335",
        "url": ""
    },
    {
        "title": "看看美国的旧金山和中国的深圳，给我的感受到底是什么？",
        "docid": "7299735584568771072",
        "url": ""
    },
    {
        "title": "曾是南京最大的私家园林，投资4亿复建，平时游客量只有两位数",
        "docid": "7290914385285939712",
        "url": ""
    },
    {
        "title": "层林尽染，五彩缤纷，秋之韵，美醉了！",
        "docid": "7291100942366409227",
        "url": ""
    },
    {
        "title": "我68岁上海人，旅游无数，终于发现最适合我们老年人的旅游方式",
        "docid": "7310144579607659017",
        "url": ""
    },
    {
        "title": "从上海市中心去周庄古镇很是方便。",
        "docid": "7286643488219972130",
        "url": ""
    },
    {
        "title": "悦榕集团推出“养修之旅”，凯悦天地会员计划焕新升级 丨 一周旅行指南",
        "docid": "7311143044617732627",
        "url": ""
    },
    {
        "title": "秋天的苏州，才是国内旅游天花板",
        "docid": "7303697772799361536",
        "url": ""
    },
    {
        "title": "刚刚从稻城亚丁玩回来，给大家说些掏心窝子的话！",
        "docid": "7285724819419693583",
        "url": ""
    },
    {
        "title": "秋日里的中国太太太太美了！每一帧都值得收藏",
        "docid": "7285277031237960253",
        "url": ""
    },
    {
        "title": "苏州有什么特产值得带回家？这6样最具代表性，档次高，送礼有面",
        "docid": "7309785324572377637",
        "url": ""
    },
    {
        "title": "重庆洪崖洞：如何从“网红”走向“长红”？",
        "docid": "7311146650012287514",
        "url": ""
    },
    {
        "title": "“全国一大怪”的县城，属于河南却位于山东省境内，这是为什么？",
        "docid": "7301252900980818432",
        "url": ""
    },
    {
        "title": "我68岁，退休后跟团 自驾游，试错无数后发现:人老了这样旅游更香",
        "docid": "7282569237858681398",
        "url": ""
    },
    {
        "title": "山川之间 万种风情",
        "docid": "7311150508562170404",
        "url": ""
    },
    {
        "title": "盘点河北省12大五星级饭店",
        "docid": "7302241794820178484",
        "url": ""
    },
    {
        "title": "旅游散心时遇上的30岁民宿老板娘，成了我的心灵归宿",
        "docid": "7310086164021756443",
        "url": ""
    },
    {
        "title": "自驾游走高速，可以在服务区过夜睡觉吗？",
        "docid": "7280852770511684133",
        "url": ""
    },
    {
        "title": "广东最大的湖泊，比50个杭州西湖还大，是日进斗金的“鱼米之乡”",
        "docid": "7281580078042022459",
        "url": ""
    },
    {
        "title": "枫叶正当红！一起去浙南打卡最美“枫”景",
        "docid": "7310551060232471081",
        "url": ""
    },
    {
        "title": "一个只能乘船才能进入的绝美艺术之地，你会想要一探究竟吗？？？",
        "docid": "7310063833505071666",
        "url": ""
    },
    {
        "title": "中国最令人可惜的城市之一：银川市",
        "docid": "7310981347705750053",
        "url": ""
    },
    {
        "title": "上海出发，乘豪华大邮轮巡游18天澳大利亚+新西兰，行程价格出炉",
        "docid": "7309004332530287115",
        "url": ""
    },
    {
        "title": "爱看中国古装剧的老挝男孩：沉醉于这的文化和美景",
        "docid": "7311145543084802610",
        "url": ""
    },
    {
        "title": "24个历史遗留下来的有趣文物，供后人探索！",
        "docid": "7281914318868972095",
        "url": ""
    },
    {
        "title": "中国40 个最美宝藏地，去过十个以上算旅行达人！",
        "docid": "7303166988984435200",
        "url": ""
    },
    {
        "title": "江西第一大城，除了吃辣还有多少惊喜？",
        "docid": "7287366747097727528",
        "url": ""
    },
    {
        "title": "实拍重庆开州刘伯承故居，带大家看看刘伯承元帅的家里是什么样子",
        "docid": "7300561395606209064",
        "url": ""
    },
    {
        "title": "自驾黄柏塬，西安出发承包秦岭最美秋色",
        "docid": "7282328317347512844",
        "url": ""
    },
    {
        "title": "门头沟圈门鳌鱼沟现在值得一游",
        "docid": "7280837141838496267",
        "url": ""
    },
    {
        "title": "一部电梯1个亿！越变越壕的景区，为何不怕烧钱？",
        "docid": "7292754140457959988",
        "url": ""
    },
    {
        "title": "我国唯一3000年未改名的城市，只因出过一美人，一说名字世人皆知",
        "docid": "7285563414779527739",
        "url": ""
    },
    {
        "title": "海南环岛游热门景点大集合🗺旅游搭子必看",
        "docid": "7307636634773160474",
        "url": ""
    },
    {
        "title": "眉山市军工厂旧址，昔日辉煌员工都是知识分子，如今厂区满目荒芜",
        "docid": "7287950230203695650",
        "url": ""
    },
    {
        "title": "五十岁以后，开始旅行吧",
        "docid": "7280128101307122210",
        "url": ""
    },
    {
        "title": "自驾游这样选酒店，保证你能选到满意又性价比高的酒店",
        "docid": "7283478020537516559",
        "url": ""
    },
    {
        "title": "中国“最懒”的3座城市，街上美女多，当地人天天喝茶打牌很安逸",
        "docid": "7308539482179994152",
        "url": ""
    },
    {
        "title": "俄罗斯海参崴：中国商人在此低调发财，生活样样离不开中国",
        "docid": "7310479215151923775",
        "url": ""
    },
    {
        "title": "北京出发高铁直达，周末出行18种方案，18个城市",
        "docid": "7310150427067269632",
        "url": ""
    },
    {
        "title": "上海自驾2h的小县城，竟藏着一个称霸全国的豪迈美食江湖！",
        "docid": "7307755933395026447",
        "url": ""
    },
    {
        "title": "过来人的忠告：退休后，关系再好也不要和这4种人结伴旅游",
        "docid": "7300413457990533695",
        "url": ""
    },
    {
        "title": "江西省11市，一起推牌九，每市两张牌，单论知名度看看哪里最有名",
        "docid": "7310769751934960191",
        "url": ""
    },
    {
        "title": "贵州这个县与重庆接壤，没有火车站和高铁，酒店价格比贵阳还高",
        "docid": "7292812669340582438",
        "url": ""
    },
    {
        "title": "坐着飞机去朝鲜旅游，带你看看真实的朝鲜，不要相信网上说的了",
        "docid": "7304845532537700883",
        "url": ""
    },
    {
        "title": "60个人，在海滩发现了奇怪的东西，海洋神秘的一角",
        "docid": "7290444258560492043",
        "url": ""
    },
    {
        "title": "中国最贵的湖泊：价值超12万亿，军队24小时巡逻，里面藏了什么？",
        "docid": "7301597624984257058",
        "url": ""
    },
    {
        "title": "1991年17位登山队员遇难，7年后发现日记，遇难前2万藏民伏地念咒",
        "docid": "7303865911092576804",
        "url": ""
    },
    {
        "title": "内蒙古最大城市、最大县、最大镇、最大村",
        "docid": "7298968308865319460",
        "url": ""
    },
    {
        "title": "从北京去上海旅游回来,有些话憋在心里,谈谈我对上海的的看法",
        "docid": "7283053829304648207",
        "url": ""
    },
    {
        "title": "要门票的不去！不买纪念品，不在景区吃饭或住宿，为何越来越多？",
        "docid": "7299359521397359131",
        "url": ""
    },
    {
        "title": "从阿根廷旅游回来了，有些话不吐不快，带你看看真正的阿根廷生活",
        "docid": "7304196496163914252",
        "url": ""
    },
    {
        "title": "南宁七星路上的神秘“小黄屋”：屋主乃民国达官，网上传言有阿飘",
        "docid": "7309794854438208000",
        "url": ""
    },
    {
        "title": "重庆永川、铜梁、大足三区交界被撤销的小镇，曾因开矿而兴盛起来",
        "docid": "7285194692256711228",
        "url": ""
    },
    {
        "title": "跟了3次团才知道，出门旅行尽量带上这6样东西，关键时刻作用大",
        "docid": "7294841095492567589",
        "url": ""
    },
    {
        "title": "国内9大“假古镇”，投资多的花了300亿门票贵到300元值得一游吗",
        "docid": "7292161536737477139",
        "url": ""
    },
    {
        "title": "易中天：西安告诉我，自信是汉文明的底色",
        "docid": "7302337975894524455",
        "url": ""
    },
    {
        "title": "北京初雪！故宫角楼景色上新",
        "docid": "7311161086609244709",
        "url": ""
    },
    {
        "title": "上海“翻新”失败的古镇，曾经很繁华，如今冷冷清清",
        "docid": "7304910812899131923",
        "url": ""
    },
    {
        "title": "中国最令人可惜的城市之一：青岛",
        "docid": "7310417822424056339",
        "url": ""
    },
    {
        "title": "30张超美的罕见自然奇观，实属罕见！",
        "docid": "7298926893909180991",
        "url": ""
    },
    {
        "title": "中国最惊险的10大风景，看一下有你在的地方，你都去过吗?",
        "docid": "7310493777184145971",
        "url": ""
    },
    {
        "title": "国内旅游最坑人的四个“怪现状”，玩的是寂寞，溜走的是智商！",
        "docid": "7302332860600566335",
        "url": ""
    },
    {
        "title": "2023中国最具幸福感城市top1！刚入12月，就凭一组照片惊艳中国！",
        "docid": "7311102213496160803",
        "url": ""
    },
    {
        "title": "露营装备，完整指南大全套！你需要的都在这里了，快收藏起来吧！",
        "docid": "7288158435240378934",
        "url": ""
    },
    {
        "title": "漓江上这座200多年历史的神秘小岛，将要“消失”?",
        "docid": "7309392768252723748",
        "url": ""
    },
    {
        "title": "宝成铁路甩开天水，决定了宝鸡天水不同的发展轨迹",
        "docid": "7305605615476032000",
        "url": ""
    },
    {
        "title": "今年国内旅游市场预计恢复至疫前九成以上",
        "docid": "7311155947207148059",
        "url": ""
    },
    {
        "title": "箭扣长城雪景美如水墨画",
        "docid": "7311175363416080923",
        "url": ""
    },
    {
        "title": "6个上海必去的宝藏小众市集，连上海人都不一定知道",
        "docid": "7297986558123115018",
        "url": ""
    },
    {
        "title": "高清大图到！雪后的箭扣长城，让你想起了哪句诗？",
        "docid": "7311148162893857314",
        "url": ""
    },
    {
        "title": "银杏披“金妆”！宁德龙湫寺迎来浪漫初冬",
        "docid": "7310573117691249202",
        "url": ""
    },
    {
        "title": "去了一趟延吉回来让我大开眼界，去延吉旅游避坑看这一篇就GO了",
        "docid": "7298551684337304090",
        "url": ""
    },
    {
        "title": "北京今冬迎初雪 颐和园雪景如画",
        "docid": "7311155947207164443",
        "url": ""
    },
    {
        "title": "（图集）属于郑州的“诗和远方”，雪下美景令人动容｜今冬新景看河南",
        "docid": "7311169040507257354",
        "url": ""
    },
    {
        "title": "蒙古国距中国最近的县城，用中国电，花人民币，还想喝咱的自来水",
        "docid": "7296375212843696691",
        "url": ""
    },
    {
        "title": "CityWalk城市漫步丨今天，我们去南青路人民北路",
        "docid": "7310416644223500810",
        "url": ""
    },
    {
        "title": "毗邻南京的这座小城，值得你来过个周末",
        "docid": "7293509013965931058",
        "url": ""
    },
    {
        "title": "雪后蝶湖美如画",
        "docid": "7311161163834901046",
        "url": ""
    },
    {
        "title": "看完外蒙古牧民冬天的生活，再看内蒙古牧民冬天的生活，差距巨大",
        "docid": "7302669219379151400",
        "url": ""
    },
    {
        "title": "准噶尔汗国曾经的都城，西蒙古的代表，400年后古城是什么模样",
        "docid": "7302420229349458468",
        "url": ""
    },
    {
        "title": "莫奈姆瓦夏古镇",
        "docid": "7310405047580820008",
        "url": ""
    },
    {
        "title": "贵州遵义竹元石林，比云南石林更壮观，一起去看看它的奇异之美吧",
        "docid": "7310395513365660201",
        "url": ""
    },
    {
        "title": "湖南道县：城市公园 冬景如画",
        "docid": "7311161084759671330",
        "url": ""
    },
    {
        "title": "江西三清山景区门票价目",
        "docid": "7281566012728689213",
        "url": ""
    },
    {
        "title": "上海和天津的对比，不比不知道，差异实在太大了!",
        "docid": "7310114120580465171",
        "url": ""
    },
    {
        "title": "乌兹别克：在最豪华的菜市场，发现苏联的秘密",
        "docid": "7299656469023179283",
        "url": ""
    },
    {
        "title": "河南郑州有一条民国风情街，就在市中心，已经成为了网红打卡点",
        "docid": "7277952199609893417",
        "url": ""
    },
    {
        "title": "美如画！北京迎来2023年初雪，故宫发布雪景大片",
        "docid": "7311202670701117986",
        "url": ""
    },
    {
        "title": "中国“衰落最严重”的5座城市，看看有你的家乡吗？",
        "docid": "7311144380781249076",
        "url": ""
    },
    {
        "title": "【“遗”见钟情• 施秉喀斯特】有一种价值叫“唯一性”  ——施秉喀斯特申遗背后的故事",
        "docid": "7311177669688427060",
        "url": ""
    },
    {
        "title": "英国城市千篇一律没有灵魂，旅行42天，我已经审美疲劳",
        "docid": "7277386676916257299",
        "url": ""
    },
    {
        "title": "京城飘雪  美不胜收",
        "docid": "7311192896101679616",
        "url": ""
    },
    {
        "title": "旅行去过广西德天瀑布后，谈谈我对德天瀑布的几点旅行印象",
        "docid": "7311198732513591871",
        "url": ""
    },
    {
        "title": "北京游客被困海拔5000米绝望坡 四川巴朗山为何拦不住“任性”登山客？｜封面深镜",
        "docid": "7311193055250367028",
        "url": ""
    },
    {
        "title": "在南城，与美好相遇",
        "docid": "7311133803685233163",
        "url": ""
    },
    {
        "title": "十问海南，环岛旅游公路",
        "docid": "7308036938471277056",
        "url": ""
    },
    {
        "title": "联合国总部迁往保定的大胆构想",
        "docid": "7310119534256898579",
        "url": ""
    },
    {
        "title": "初秋的清晨",
        "docid": "7285163942417318415",
        "url": ""
    },
    {
        "title": "东北大妈游西安，逛回民街吃羊盆，结账时顿悟：西安为啥大家爱来",
        "docid": "7290364898088092172",
        "url": ""
    },
    {
        "title": "耶路撒冷：世界最古老、最神圣的城市之一",
        "docid": "7287211360411222567",
        "url": ""
    },
    {
        "title": "话说金陵古城墙",
        "docid": "7311210081771930164",
        "url": ""
    },
    {
        "title": "秦岭大山深处有座古镇，是灞河的源头!",
        "docid": "7295922915952968232",
        "url": ""
    },
    {
        "title": "邵武加快推进世遗1号风景道二都“养生谷”项目建设",
        "docid": "7309639640108171791",
        "url": ""
    },
    {
        "title": "刚从陕西延安出差回来，回到济南市中区，谈谈经历",
        "docid": "7310561469601923595",
        "url": ""
    },
    {
        "title": "道教圣地茅山老子神像高33米重106吨，为全球之最",
        "docid": "7311098301368287770",
        "url": ""
    },
    {
        "title": "广西梧州旅游必去十大景点",
        "docid": "7310386708271841829",
        "url": ""
    },
    {
        "title": "出行价格有点飘！浙江人提前准备",
        "docid": "7310373754683589172",
        "url": ""
    },
    {
        "title": "忻府区全力打造温泉康养旅居高地",
        "docid": "7311155677056221715",
        "url": ""
    },
    {
        "title": "我裸辞到坦桑尼亚穷游，当地女人没地位，到年龄要切部分性器官",
        "docid": "7286782890762240512",
        "url": ""
    },
    {
        "title": "结棍！上海首个运动主题商场来了！全新的玩乐打卡圣地！附近还有个网红地标→",
        "docid": "7310520376457773577",
        "url": ""
    },
    {
        "title": "国庆避开人挤人，推荐5个冷门旅行目的地，人少景美，去了都说好",
        "docid": "7282227942888063529",
        "url": ""
    },
    {
        "title": "我，59年老大姐，迪拜做生意20年，一家4口分居3国，团圆太难",
        "docid": "7287217203903300131",
        "url": ""
    },
    {
        "title": "喜讯！张家界大峡谷景区成功获评2023年省级文明旅游示范单位",
        "docid": "7310153837330022922",
        "url": ""
    },
    {
        "title": "冬季适合旅行的6个地方，去过3个是真爱粉！",
        "docid": "7310977122045100596",
        "url": ""
    },
    {
        "title": "去九寨沟旅游，有10个注意事项，一定要提前了解一下",
        "docid": "7311141466267484683",
        "url": ""
    },
    {
        "title": "浙江衢州80余景区全年免费开放，旅游攻略",
        "docid": "7310749509225579023",
        "url": ""
    },
    {
        "title": "长三角有一座很不起眼的城市，名气不大，名字很响",
        "docid": "7287020890536313405",
        "url": ""
    },
    {
        "title": "我，塞尔维亚人，来中国第一次吃火锅，感觉像女巫变魔法的大锅",
        "docid": "7279811685308416575",
        "url": ""
    },
    {
        "title": "蒙古人睡在蒙古包里，那他们怎么洗澡上厕所？当地姑娘说出了真相",
        "docid": "7305338690711126562",
        "url": ""
    },
    {
        "title": "忽然，就想去西宁了！",
        "docid": "7310500264455586356",
        "url": ""
    },
    {
        "title": "四川一座十分特别县级市：先在南充后归广安，如今又在融入重庆",
        "docid": "7282006136202297917",
        "url": ""
    },
    {
        "title": "在北京环球度假区偶遇初雪，现场很有冬日氛围感——",
        "docid": "7311202329204851235",
        "url": ""
    },
    {
        "title": "济南森林公园今冬第二场雪",
        "docid": "7311192183729078836",
        "url": ""
    },
    {
        "title": "内蒙古到底有多牛？今天带您认识一个不一样的内蒙！",
        "docid": "7300187062497034761",
        "url": ""
    },
    {
        "title": "开放创新 绿色发展 宜居宜业",
        "docid": "7311092418873573925",
        "url": ""
    },
    {
        "title": "河南嵩山风景区、康百万庄园、银基动物王国等多个景区暂时闭园",
        "docid": "7311179498442080780",
        "url": ""
    },
    {
        "title": "美！当紫禁城邂逅初雪",
        "docid": "7311206311004226082",
        "url": ""
    },
    {
        "title": "中国最遗憾的城市之一：黄冈市",
        "docid": "7310135386037092905",
        "url": ""
    },
    {
        "title": "12月份黄山市17家4A级景区门票免费",
        "docid": "7310378332150252084",
        "url": ""
    },
    {
        "title": "置身梦幻！夜晚的雪乡宛如童话世界",
        "docid": "7311226377540895267",
        "url": ""
    },
    {
        "title": "中国最令人怅然的城市：张家界",
        "docid": "7310883045681349132",
        "url": ""
    },
    {
        "title": "广东：深圳东江纵队纪念馆",
        "docid": "7311171585677869583",
        "url": ""
    },
    {
        "title": "最新实拍丨苏州初冬的“美拉德”，美出了童话感！",
        "docid": "7311186478532100658",
        "url": ""
    },
    {
        "title": "探寻龙的踪迹：中国龙景风景区的魅力之旅",
        "docid": "7310350457493357067",
        "url": ""
    },
    {
        "title": "啥？还没去过色达？那你值得一看！",
        "docid": "7311178377229419071",
        "url": ""
    },
    {
        "title": "世界上最孤独的国家，1600公里内没有邻国，总人口的5%都是华人",
        "docid": "7310940736160055871",
        "url": ""
    },
    {
        "title": "“故宫闭馆”上热搜，官方雪后美景大片来了",
        "docid": "7311225077915222528",
        "url": ""
    },
    {
        "title": "广西一条河里开出莫奈的花园惊艳了 河中开满海菜花如繁星洒落",
        "docid": "7292776256347963938",
        "url": ""
    },
    {
        "title": "我，76年杭州女人，辛苦赚到百万，因一时贪念，被股市割了韭菜",
        "docid": "7285926296083907072",
        "url": ""
    },
    {
        "title": "黄浦赏秋地图｜去网红大楼看树叶与光影跳舞",
        "docid": "7311243981567099392",
        "url": ""
    },
    {
        "title": "绝美！苏州太湖边藏着一个童话小镇",
        "docid": "7311254000488792610",
        "url": ""
    },
    {
        "title": "杨澜盛赞晋江： 有一种无处不在的文化感",
        "docid": "7311160130186560040",
        "url": ""
    },
    {
        "title": "我在印尼7年，这里风俗很奇葩，竟把先人挖出来游街，三年一次",
        "docid": "7280540143621161511",
        "url": ""
    },
    {
        "title": "央视再度大篇幅聚焦常熟！",
        "docid": "7311242982886212148",
        "url": ""
    },
    {
        "title": "周末走起！去毕节泡温泉",
        "docid": "7311188903954825765",
        "url": ""
    },
    {
        "title": "跨越千年，昆山这条古内河道风采依旧",
        "docid": "7311144467582009871",
        "url": ""
    },
    {
        "title": "值得奔赴！来宝山欣赏“美拉德”晨曲吧~",
        "docid": "7311143460130538024",
        "url": ""
    },
    {
        "title": "佛山三江交汇地，“中国首富”的荣氏家族曾居住，并掘了第一桶金",
        "docid": "7311226940014199348",
        "url": ""
    },
    {
        "title": "北京迎来2023年冬天首场降雪箭扣长城银装素裹分外妖娆",
        "docid": "7311218868473954850",
        "url": ""
    },
    {
        "title": "情怀消费？道德绑架？云南导游建议游客买一朵菊花献给我们的烈士",
        "docid": "7310803058051908107",
        "url": ""
    },
    {
        "title": "中国60个美景，去过20个算你厉害，你去过几个？",
        "docid": "7292983584938295842",
        "url": ""
    },
    {
        "title": "河北邯郸红色记忆小镇（晋冀鲁豫自驾游之十一）",
        "docid": "7311139019218272795",
        "url": ""
    },
    {
        "title": "【高清组图】金沙江“峡谷双虹”现日落金山壮美景观",
        "docid": "7311169357412172329",
        "url": ""
    },
    {
        "title": "单这一座博物馆就绝对值得你专程来这个城市。",
        "docid": "7287131170750431804",
        "url": ""
    },
    {
        "title": "“龟山电视塔”36年兴衰，藏着一位“湖北首富”的人生浮沉",
        "docid": "7297417103915893248",
        "url": ""
    },
    {
        "title": "从琉球旅行回来，说几句大实话，告诉你一个最真实的琉球",
        "docid": "7288627120060793407",
        "url": ""
    },
    {
        "title": "江山如画丨海南万宁冲浪小镇“乘风踏浪” 解锁潮玩“流量密码”",
        "docid": "7311116510204822031",
        "url": ""
    },
    {
        "title": "三亚十大必玩景点，去过九处才算真正玩转三亚",
        "docid": "7306854749499507241",
        "url": ""
    },
    {
        "title": "沉浸式体验河南大雪！郑州宛如童话世界、开封成了汴京……",
        "docid": "7311245476458758707",
        "url": ""
    },
    {
        "title": "河北遵化：古长城雪景如画",
        "docid": "7311249799158874633",
        "url": ""
    },
    {
        "title": "来市属公园，邂逅京城初雪！一大波雪景美图来袭→",
        "docid": "7311246203079934498",
        "url": ""
    },
    {
        "title": "老照片：1939年的四川康定，“情歌之城”跑马山风光独特",
        "docid": "7310001618785665576",
        "url": ""
    },
    {
        "title": "2024常州灯会本周五亮灯，七大主题区域等你来打卡",
        "docid": "7311265291026235913",
        "url": ""
    },
    {
        "title": "AI眼中的中国｜人文山西，承千年文脉",
        "docid": "7305910744103617061",
        "url": ""
    },
    {
        "title": "淡水路不“淡”，转角遇见“浓”",
        "docid": "7311259553629651482",
        "url": ""
    },
    {
        "title": "中国与新加坡互免签证 出入境旅游实现双向奔赴",
        "docid": "7311172641627341351",
        "url": ""
    },
    {
        "title": "爆红的茨姆，不为人知的秘密",
        "docid": "7299632239003582987",
        "url": ""
    },
    {
        "title": "一半用户滑雪时会旅游，租车自驾滑雪订单大增",
        "docid": "7311155942908396032",
        "url": ""
    },
    {
        "title": "高颜值打卡点！德州长河公园新园向市民开放",
        "docid": "7311173376897532427",
        "url": ""
    },
    {
        "title": "马来西亚第二大城市，位于亚欧大陆最南端，与新加坡仅隔一条海峡",
        "docid": "7303025474651947530",
        "url": ""
    },
    {
        "title": "雪后模式口，再现驼铃古道韵味",
        "docid": "7311258932759233033",
        "url": ""
    },
    {
        "title": "喜马拉雅山神秘的村落：女人成年后，要么嫁给陌生人要么去当尼姑",
        "docid": "7279451199663997479",
        "url": ""
    },
    {
        "title": "太出片啦！海湾国家森林公园彩叶林进入最佳观赏期",
        "docid": "7311236248256135691",
        "url": ""
    },
    {
        "title": "峨眉山神秘挑山工，掌握一个奇怪方法，挑120斤上山不累",
        "docid": "7285948604534211109",
        "url": ""
    },
    {
        "title": "1小时18分！380多年！",
        "docid": "7305759279968158246",
        "url": ""
    },
    {
        "title": "我能想到最浪漫的事，就是一起去是硇洲岛...",
        "docid": "7311248935371244086",
        "url": ""
    },
    {
        "title": "长城雪后景观",
        "docid": "7309047820735332900",
        "url": ""
    },
    {
        "title": "天津市中心藏着一座古村，少有人知的世外桃源，仿佛回到几百年前",
        "docid": "7305235045369922087",
        "url": ""
    },
    {
        "title": "为何川藏线上的司机，总要点根烟扔出窗外？其实扔烟的都是聪明人",
        "docid": "7304956307637895719",
        "url": ""
    },
    {
        "title": "辽宁一海边藏着一座地下弹药库，曾存放弹药1200吨，内部场景探秘",
        "docid": "7279390709105459746",
        "url": ""
    },
    {
        "title": "【停运！太原。公告！还有…暂时关闭！】",
        "docid": "7311168505922404899",
        "url": ""
    },
    {
        "title": "为什么南京长江大桥不能拆了重建？真的是中国人的骄傲",
        "docid": "7308912595988578816",
        "url": ""
    },
    {
        "title": "沧州离天津这么近，但许多人却没有游玩过。",
        "docid": "7303443299459858980",
        "url": ""
    },
    {
        "title": "这5个省份消失在中国地图上，可遗留的风景却美上了天！",
        "docid": "7287457980952609343",
        "url": ""
    },
    {
        "title": "辽宁唯一的单字县，地处“辽西故道要冲”，有“绿色宝库”之称",
        "docid": "7301671869298672137",
        "url": ""
    },
    {
        "title": "苏州最偏僻的古镇，地处两省一市交界处，至今没有任何旅游开发！",
        "docid": "7282647636992180736",
        "url": ""
    },
    {
        "title": "山东有一个三千年古县，名字只有一个字，但大多数人一开口就读错",
        "docid": "7303471703039050266",
        "url": ""
    },
    {
        "title": "江苏有座冷门旅游城市，号称九朝帝里，这4个景点没来等于白来",
        "docid": "7311108828614214170",
        "url": ""
    },
    {
        "title": "春熙路马上就要迎来他的百岁生日了",
        "docid": "7311155797902328355",
        "url": ""
    },
    {
        "title": "宜春这个野生动物世界，你们去过吗？",
        "docid": "7311153497150538303",
        "url": ""
    },
    {
        "title": "中国最令人怜惜的城市之一：保山市",
        "docid": "7310874749516120587",
        "url": ""
    },
    {
        "title": "探秘盛赞中国帝王之乡——陕西的历史文化魅力",
        "docid": "7311143499041128999",
        "url": ""
    },
    {
        "title": "“死亡之海”中的神秘地，我国“最难”抵达的村落，至今不知来源",
        "docid": "7283467871701975563",
        "url": ""
    },
    {
        "title": "柳叶湖体育旅游运动基地获授国家体育旅游示范基地",
        "docid": "7311165633641988608",
        "url": ""
    },
    {
        "title": "是 时 候 去 一 趟 鄱（pó）阳 湖 了",
        "docid": "7310400282360676902",
        "url": ""
    },
    {
        "title": "深圳西丽湖，有时间一定要去一次，体验很棒",
        "docid": "7310198886109577754",
        "url": ""
    },
    {
        "title": "联合国认定的山西6个千年古县，有你家乡吗？",
        "docid": "7310877405810557480",
        "url": ""
    },
    {
        "title": "紧急通知！山东！雪雪雪！第二轮降雪来袭！",
        "docid": "7311257130702094875",
        "url": ""
    },
    {
        "title": "甘肃这五个县冬天最冷，让人受不了，有没有你家乡呢？",
        "docid": "7310863602834096649",
        "url": ""
    },
    {
        "title": "故宫初雪美景持续放送",
        "docid": "7311243912571601458",
        "url": ""
    },
    {
        "title": "2023年冬天武汉的第一场雪，落在黄陂",
        "docid": "7311289381904941618",
        "url": ""
    },
    {
        "title": "31个被人类废弃和遗忘的地方，在这里人类似乎已经消失！",
        "docid": "7310938626060714530",
        "url": ""
    },
    {
        "title": "日本老哥在渡轮上住24小时：“胶囊床”只有2㎡，居住功能却很全",
        "docid": "7309106134479782439",
        "url": ""
    },
    {
        "title": "绝美！天向菏泽寄雪初",
        "docid": "7311197795292283430",
        "url": ""
    },
    {
        "title": "在虹口，不止有Citywalk，还有Citysport",
        "docid": "7311249399634608677",
        "url": ""
    },
    {
        "title": "去陕西延安旅行回来后，不吹不黑，说说我的真实体验",
        "docid": "7310557659466547731",
        "url": ""
    },
    {
        "title": "阿富汗之旅：解开穆斯林美女的神秘面纱，她非要嫁到中国！",
        "docid": "7311278018838889000",
        "url": ""
    },
    {
        "title": "中国七大最美仙境，去过一个就是人间值得",
        "docid": "7300848739663577612",
        "url": ""
    },
    {
        "title": "吴王护城河，已成鄂州人的“烟火”福地",
        "docid": "7311225484581765668",
        "url": ""
    },
    {
        "title": "香港这个地方爆火！内地游客蜂拥前往打卡！",
        "docid": "7311273977689899529",
        "url": ""
    },
    {
        "title": "两人一车一狗，海南旅居生活：准备篇。",
        "docid": "7311207765857600054",
        "url": ""
    },
    {
        "title": "惊喜，门票1元购！阿坝州这些景区全都免费",
        "docid": "7311250665655861771",
        "url": ""
    },
    {
        "title": "他们自驾52天15000多公里，完成一段值得回味一生的旅程！",
        "docid": "7286311495263388219",
        "url": ""
    },
    {
        "title": "从缅甸旅行回来，有些话不知当讲不当讲，带你看看真正的缅甸生活",
        "docid": "7292036007304938020",
        "url": ""
    },
    {
        "title": "海南省\"十四五规划\"交通，建设三条最美旅游公路。",
        "docid": "7281469155805659708",
        "url": ""
    },
    {
        "title": "国内避寒天花板：游客不足三亚的1%，比万宁小众，被余华疯狂点赞",
        "docid": "7300517852833120787",
        "url": ""
    },
    {
        "title": "青海湖再现冰封奇观",
        "docid": "7311240100447306259",
        "url": ""
    },
    {
        "title": "秦岭太洋公路，全长140公里，堪称一条秦岭山区最美山路",
        "docid": "7283396482357576233",
        "url": ""
    },
    {
        "title": "盘点那些“藏”在河南高校里的博物馆",
        "docid": "7311156052802798117",
        "url": ""
    },
    {
        "title": "湖南“一秒入冬”！接下来雾凇雪景即将登场",
        "docid": "7311303605687468580",
        "url": ""
    },
    {
        "title": "外国友人镜头里的长三角地区——开放创新 绿色发展 宜居宜业",
        "docid": "7311133647648899610",
        "url": ""
    },
    {
        "title": "老俞闲话丨世间所有的喜悦都来自希望他人快乐",
        "docid": "7297070616816910858",
        "url": ""
    },
    {
        "title": "牧之野：我们并不是很了解历史",
        "docid": "7284260178060165691",
        "url": ""
    },
    {
        "title": "西流湖披上银装宛如水墨画",
        "docid": "7311244679113490959",
        "url": ""
    },
    {
        "title": "北京亮马河“二十四桥”的春夏秋冬",
        "docid": "7311283305973973530",
        "url": ""
    },
    {
        "title": "从湖北武汉搬到广东惠州的第40天，谈谈这两座城市的不同",
        "docid": "7310847235946824202",
        "url": ""
    },
    {
        "title": "自驾去过16个省市，退休后自驾35000公里，这位老司机有话要说！",
        "docid": "7306715162433110528",
        "url": ""
    },
    {
        "title": "八达岭长城发布初雪绝美照片",
        "docid": "7311235241912467987",
        "url": ""
    },
    {
        "title": "冷冷冷|哦豁，计划“泡汤”咯！",
        "docid": "7311302343688405530",
        "url": ""
    },
    {
        "title": "中国最遗憾的城市之一：湖南省邵阳市",
        "docid": "7308352286236099107",
        "url": ""
    },
    {
        "title": "“落叶不扫”景观道成为上海街头季节限定浪漫美景",
        "docid": "7310341450657563170",
        "url": ""
    },
    {
        "title": "浦东滨江夜景再升级！先睹为快→",
        "docid": "7311321276080374284",
        "url": ""
    },
    {
        "title": "我和老伴旅居在深圳（十七）游深圳八景之首——大鹏所城",
        "docid": "7311258870088122930",
        "url": ""
    },
    {
        "title": "亳州市博物馆经两个月施工和提升改造全新亮相",
        "docid": "7311302517655716387",
        "url": ""
    },
    {
        "title": "我求求大家了，来安徽铜陵旅游一次吧，绝不会让你失望",
        "docid": "7311259038988321299",
        "url": ""
    },
    {
        "title": "不是京都正是魔都！这座免费的古典公园赏枫最佳时～",
        "docid": "7311313607042941503",
        "url": ""
    },
    {
        "title": "一夜之间全白了！云台山壮美雪景半价畅游！",
        "docid": "7311246472992113161",
        "url": ""
    },
    {
        "title": "来这里开启梧桐树下的Citywalk吧",
        "docid": "7311235394220147251",
        "url": ""
    },
    {
        "title": "信号山：小麦岛桥通行在即 期待“野生景点”旅游体验感升级",
        "docid": "7311279244200444431",
        "url": ""
    },
    {
        "title": "金鸡湖畔“枫”景独好",
        "docid": "7311199005793419827",
        "url": ""
    },
    {
        "title": "来不及解释了！就在12月24日！",
        "docid": "7311305988496589348",
        "url": ""
    },
    {
        "title": "老山郊野公园上看雪景，大地一片雪白",
        "docid": "7311178990608368178",
        "url": ""
    },
    {
        "title": "台州人忘不掉的老城记忆，原来都藏在洪家",
        "docid": "7311163094191866403",
        "url": ""
    },
    {
        "title": "璀璨明珠扎兰屯",
        "docid": "7311133769099575845",
        "url": ""
    },
    {
        "title": "北京畅游攻略｜北京前门漫步，避开人流新玩法！4个地方推荐！",
        "docid": "7311162619547976232",
        "url": ""
    },
    {
        "title": "高铁只要2小时，就能赏秋景、逛古城、吃美食，好吃好玩又不累！",
        "docid": "7278858176475300391",
        "url": ""
    },
    {
        "title": "人这一辈子，一定要沿这条路看看海南！",
        "docid": "7310004682523591209",
        "url": ""
    },
    {
        "title": "蛇盘山之巅：俯瞰山谷的壮丽景色",
        "docid": "7311246407288373772",
        "url": ""
    },
    {
        "title": "全市唯一！温州江心屿入选省级名单",
        "docid": "7311214780785115688",
        "url": ""
    },
    {
        "title": "中国国内旅游人气持续飙升",
        "docid": "7311110428304605746",
        "url": ""
    },
    {
        "title": "京郊景区公交直达路线",
        "docid": "7284222681321390604",
        "url": ""
    },
    {
        "title": "2023第二十三届磨房深圳百公里在光明举行",
        "docid": "7311239186596921890",
        "url": ""
    },
    {
        "title": "文明古城：希腊雅典和罗马之旅",
        "docid": "7310984674288190003",
        "url": ""
    },
    {
        "title": "丽水，浙江骑行的天花板",
        "docid": "7309395061723365888",
        "url": ""
    },
    {
        "title": "手机壁纸｜祖国的大好河山",
        "docid": "7284180780338070056",
        "url": ""
    },
    {
        "title": "中国最遗憾的城市之一:锦州",
        "docid": "7308223925816672808",
        "url": ""
    },
    {
        "title": "我国面积排名前十的广场，天安门广场仅列第六",
        "docid": "7306439249463886388",
        "url": ""
    },
    {
        "title": "从银川回来，有几句真话想对大家说，千万不要相信网上说的",
        "docid": "7310933860601610763",
        "url": ""
    },
    {
        "title": "郑州之林雪后美景",
        "docid": "7311173573077385747",
        "url": ""
    },
    {
        "title": "我在乌兹别克斯坦生活5年，这里崇尚一夫多妻制，号称男人的天堂",
        "docid": "7298261758665238090",
        "url": ""
    },
    {
        "title": "揭秘浙江首创的“野外博物馆”：浙大团队与四个保护地的自然教育新玩法",
        "docid": "7311273017731482127",
        "url": ""
    },
    {
        "title": "九华山的前世今生：白云与九华城",
        "docid": "7311241496446566953",
        "url": ""
    },
    {
        "title": "橙香橘黄，霜晴冻叶！青浦冬日美景“拍了拍”你",
        "docid": "7311321347773366819",
        "url": ""
    },
    {
        "title": "#文章首发挑战赛#临潼游记",
        "docid": "7311331533414187557",
        "url": ""
    },
    {
        "title": "清初古桥——沈阳永安桥",
        "docid": "7310791612958016054",
        "url": ""
    }
]