[
    {
        "title": "笑晕！南方姑娘在哈尔滨嘴犟后果惨重，200斤东北大哥冻哭在南方",
        "docid": "7328015751615414847",
        "url": ""
    },
    {
        "title": "深圳这块「霸气提示牌」，要火！9个字，格局拉满！",
        "docid": "7326747450620772879",
        "url": ""
    },
    {
        "title": "山东被严重低估的城市，景色不输青岛和烟台，存在感却全省垫底",
        "docid": "7301123798433202688",
        "url": ""
    },
    {
        "title": "杭州湾的烂淤泥里抠螃蟹",
        "docid": "7306417528367383081",
        "url": ""
    },
    {
        "title": "中国一个县比省还要大，甚至超过一些欧洲国家，它究竟在哪里？",
        "docid": "7314954614120432128",
        "url": ""
    },
    {
        "title": "恩施市最充满活力的5个乡镇将要大发展，是你家乡吗？",
        "docid": "7296258654519607808",
        "url": ""
    },
    {
        "title": "成都一个新的网红玻璃栈道，长3公里，落差207米，仿佛走入云端",
        "docid": "7296825524477870628",
        "url": ""
    },
    {
        "title": "遂宁市更名：关于遂宁市改名舍得市的研究与奇思妙想",
        "docid": "7327918493373235766",
        "url": ""
    },
    {
        "title": "上海一女子去哈尔滨，吃饭不顾劝阻点三道菜，菜上桌表示傻眼了",
        "docid": "7314555260016591423",
        "url": ""
    },
    {
        "title": "一个不起眼的五线城市的寺院竟然会有五个世界之最！",
        "docid": "7307092412072067594",
        "url": ""
    },
    {
        "title": "中国最委屈的山，明明是中华道教第一山，却入不了道教四大名山",
        "docid": "7309734231410836031",
        "url": ""
    },
    {
        "title": "我海南人，贷款到英国留学，刚下飞机发现这里好破！颠覆我的认知",
        "docid": "7321020570336985635",
        "url": ""
    },
    {
        "title": "比三亚人少，冬天24℃，最适合躺平的海滨小城，物价不到三亚一半",
        "docid": "7320158708981072422",
        "url": ""
    },
    {
        "title": "就问尔滨，你家的冰雕师，有不敢雕的、有雕不出来的吗",
        "docid": "7327196865697727026",
        "url": ""
    },
    {
        "title": "笑晕了 新疆伊犁建冰雪大世界邀请游客游玩 我却笑死在网友的评论区",
        "docid": "7321265020552462860",
        "url": ""
    },
    {
        "title": "哈尔滨爆火，日本人坐不住了，试图阻止中国人前去731遗址",
        "docid": "7327200439941448218",
        "url": ""
    },
    {
        "title": "不输乌镇，陕西你不宣传这个古镇糊涂啊！",
        "docid": "7300063171195486754",
        "url": ""
    },
    {
        "title": "别来加拿大，别来加拿大，别来加拿大",
        "docid": "7311559631619359243",
        "url": ""
    },
    {
        "title": "海水比三亚干净，物价几乎海南最低，多次上榜“避寒旅游名城”！",
        "docid": "7317096598440542772",
        "url": ""
    },
    {
        "title": "广西客栈老板去哈尔滨，途经长沙果断退票通宵玩雪：果然没让我们失望",
        "docid": "7326907990207169065",
        "url": ""
    },
    {
        "title": "8年前，广西小伙带200元，带绝症女友穷游中国，如今二人怎么样了",
        "docid": "7311922597078368809",
        "url": ""
    },
    {
        "title": "“商务座都快成景点了”，打工人流行周末坐高铁回血？",
        "docid": "7298973059078210058",
        "url": ""
    },
    {
        "title": "中国一共318个AAAAA级景区，这个省份竟占近十分之一！去过几个？",
        "docid": "7313191295307350565",
        "url": ""
    },
    {
        "title": "2024春节可以去的8个小众城市，反向旅游过暖冬",
        "docid": "7318326496047677990",
        "url": ""
    },
    {
        "title": "90后的小夫妻，开着床车旅行，转了一圈，不料俩人都变了",
        "docid": "7311100884597998089",
        "url": ""
    },
    {
        "title": "为什么住酒店不能选无窗的？前台透露，便宜也不要选！",
        "docid": "7310031874641265186",
        "url": ""
    },
    {
        "title": "“最江南”的五座城市，江苏三座，浙江两座，你去过几座呢？",
        "docid": "7319289754674266634",
        "url": ""
    },
    {
        "title": "四川省最奇怪的地级市——内江市",
        "docid": "7319781758323786249",
        "url": ""
    },
    {
        "title": "上海七宝老街现状",
        "docid": "7314763173951799820",
        "url": ""
    },
    {
        "title": "不要再被以色列骗了！5个事实，带你看看最真实的以色列",
        "docid": "7316119263520375347",
        "url": ""
    },
    {
        "title": "世界上唯一没有国籍的民族：一生只能待在水里，身体开始“进化”",
        "docid": "7327200526352024090",
        "url": ""
    },
    {
        "title": "刚从巴西回来，有些话不知当讲不当讲，带你看看真正的巴西生活",
        "docid": "7304235274551214603",
        "url": ""
    },
    {
        "title": "四川省最奇怪的地级市——巴中市",
        "docid": "7320570440022655525",
        "url": ""
    },
    {
        "title": "外媒很纳闷，为什么“出手阔绰”的中国游客现在不去国外了？",
        "docid": "7325755922209931795",
        "url": ""
    },
    {
        "title": "横琴有多发达？特区中的特区，比肩纽约和曼哈顿，你去过吗？",
        "docid": "7309743949278200357",
        "url": ""
    },
    {
        "title": "在美国，我想看看邻居家的花圃，儿子警告我，这样做可能人命关天",
        "docid": "7314276790330098212",
        "url": ""
    },
    {
        "title": "刚从定州市旅游回来，说几句真心话，谈谈我对定州的看法",
        "docid": "7309391756611633703",
        "url": ""
    },
    {
        "title": "北疆十一城市宜居排名，乌鲁木齐排第五，你的城市排第几？",
        "docid": "7298435498140336703",
        "url": ""
    },
    {
        "title": "尔滨，活该你火，东北大哥邀请穷游小土豆回家取暖，最后破防了",
        "docid": "7327866024672379407",
        "url": ""
    },
    {
        "title": "湖南最奇怪的地级市——常德市",
        "docid": "7321711214999093797",
        "url": ""
    },
    {
        "title": "刘伟元漠河之行收入多少？发了44个视频，冻生病两次，来钱不易",
        "docid": "7325989201059676708",
        "url": ""
    },
    {
        "title": "关于乐山市改名峨眉山市的可行性研究",
        "docid": "7326377816965071387",
        "url": ""
    },
    {
        "title": "为省2000元路费，小伙带怀孕妻子骑行1350公里，跨越三省回家过年",
        "docid": "7327566763720540682",
        "url": ""
    },
    {
        "title": "山西大学生徒步去拉萨，走3700公里磕出“天眼”，背后原因很感人",
        "docid": "7317161832559460901",
        "url": ""
    },
    {
        "title": "新西兰生活两年，告诉你一个真实的新西兰，说几句大家不爱听的话",
        "docid": "7316896376511005234",
        "url": ""
    },
    {
        "title": "满街垃圾，到处是黑人，中国游客竟然不敢相信：这里是法国巴黎？",
        "docid": "7327681725910270504",
        "url": ""
    },
    {
        "title": "为什么都选择新野，而不是选择去经济体量接近邻近的唐河",
        "docid": "7327469989609734666",
        "url": ""
    },
    {
        "title": "广东人赴哈尔滨旅行：惊叹东北人的身高与时尚魅力",
        "docid": "7323564024820433445",
        "url": ""
    },
    {
        "title": "笑炸了，北方网友来武汉旅游被冻到抖：怎么感觉湖北比东北还冷！",
        "docid": "7327713590088335924",
        "url": ""
    },
    {
        "title": "如果要在我国选出10个6A级景区，我一定选这10个地方！",
        "docid": "7313362912138068514",
        "url": ""
    },
    {
        "title": "深圳哪些地方非去不可？",
        "docid": "7307538984312308264",
        "url": ""
    },
    {
        "title": "笑死！湖北文旅利川市旅游局美女局长全程英语介绍，评论区嗯 搞笑",
        "docid": "7326529871524463143",
        "url": ""
    },
    {
        "title": "网红打卡地堪比垃圾厂",
        "docid": "7302905042921603610",
        "url": ""
    },
    {
        "title": "北方人第一次来三亚，在亚特兰蒂斯吃了个饭，结账时哭了！",
        "docid": "7325447123691635211",
        "url": ""
    },
    {
        "title": "千万不要在西藏无人区小便！后果你承受不了",
        "docid": "7312286017569129023",
        "url": ""
    },
    {
        "title": "中国一生必去的50个地方，去过10个就不枉此生，你去过几个？",
        "docid": "7301643682187346472",
        "url": ""
    },
    {
        "title": "不是新疆太远，而是甘肃太长，甘肃到底有多长？",
        "docid": "7312450029481902607",
        "url": ""
    },
    {
        "title": "走街串巷逛西安，西郊“土门”，竟也成了时代的眼泪？",
        "docid": "7311983246190035493",
        "url": ""
    },
    {
        "title": "旅游尽量少晒朋友圈,别分走了自己的福气",
        "docid": "7309084589132235279",
        "url": ""
    },
    {
        "title": "2020年，徒步可可西里的女大学生，全身赤裸遭野兽啃食，死因成谜",
        "docid": "7327584853560623668",
        "url": ""
    },
    {
        "title": "都说甘肃天水穷，旅游才发现，天水人民的生活和想象中差别太大了",
        "docid": "7304580405959803392",
        "url": ""
    },
    {
        "title": "为什么在青藏无人区，晚上烧火取暖等于找死？过来人告诉你答案",
        "docid": "7328221831138722330",
        "url": ""
    },
    {
        "title": "在海陵岛玩了3天，跟大家说说真心话，与我想象中的不太一样",
        "docid": "7300921461773074995",
        "url": ""
    },
    {
        "title": "在越南胡志明机场索要小费没给，机场海关把我关进了小房子",
        "docid": "7321656905578037811",
        "url": ""
    },
    {
        "title": "高速服务区如何盈利？多数人只上厕所或接热水，但有4点你想不到",
        "docid": "7319450698939548194",
        "url": ""
    },
    {
        "title": "我国最美的六个溶洞，不仅漂亮，还都是5A级景区，你去过几个呢？",
        "docid": "7301614339449504282",
        "url": ""
    },
    {
        "title": "成都人为什么喜欢去凉山晒太阳？西昌房价之高，在四川排名第二",
        "docid": "7321947009899102755",
        "url": ""
    },
    {
        "title": "都说宝鸡市比渭南市好，宝鸡渭南都去过，差距太大了",
        "docid": "7325621834530013732",
        "url": ""
    },
    {
        "title": "雪已落下，花也开好了，张颂文喊话：韶关欢迎朋友来！",
        "docid": "7327995005480600100",
        "url": ""
    },
    {
        "title": "旅游攻略大全，一生必去的50个地方，收藏备用",
        "docid": "7302368785422418482",
        "url": ""
    },
    {
        "title": "老外盯上中国这4个城市了？赖着不想走，日子过的真的太舒适了",
        "docid": "7306698202533872155",
        "url": ""
    },
    {
        "title": "非洲唯一的黄种人国家，资源丰富却穷困潦倒，人均日收入仅8.8元",
        "docid": "7322751554552578587",
        "url": ""
    },
    {
        "title": "我国从未改名的三座城市，名字沿用了3000多年，有你的家乡吗？",
        "docid": "7324941068909265462",
        "url": ""
    },
    {
        "title": "哭着走出731遗址时，讲解员对我们说：别回头向前走，有国泰民安",
        "docid": "7322345921227162163",
        "url": ""
    },
    {
        "title": "福建旅游不容错过的5大景区，攻略路线地图请收藏",
        "docid": "7309454202378535459",
        "url": ""
    },
    {
        "title": "真的不要再去泸沽湖了，广西也有一个绝美湖，天使留下的一颗眼泪",
        "docid": "7299790812073214518",
        "url": ""
    },
    {
        "title": "中国最遗憾的城市之：湖南岳阳",
        "docid": "7306517946560496138",
        "url": ""
    },
    {
        "title": "重新审视湖南省会，为什么说迁往娄底更合适",
        "docid": "7311940847854354956",
        "url": ""
    },
    {
        "title": "这次全了，全国34个省旅游攻略地图，请收藏",
        "docid": "7316890351430795811",
        "url": ""
    },
    {
        "title": "收集来的福建省各城市旅游景点攻略图",
        "docid": "7318641523695059482",
        "url": ""
    },
    {
        "title": "如果想去上海旅游，存下来吧，很难找到全的",
        "docid": "7323566999841047040",
        "url": ""
    },
    {
        "title": "湖南已开启暴雪模式，二广高速堵车严重，但愿都安好，平安到家。",
        "docid": "7326840128297599538",
        "url": ""
    },
    {
        "title": "为何总统套房一晚以万为单位？5项“隐形服务”，普通游客没见过",
        "docid": "7325382715594228276",
        "url": ""
    },
    {
        "title": "从泰国旅游回来，有些话不吐不快，带你看看真实的泰国！",
        "docid": "7301460324689904191",
        "url": ""
    },
    {
        "title": "为何川藏线上的司机，总要点根烟扔出窗外？其实扔烟的都是聪明人",
        "docid": "7304956307637895719",
        "url": ""
    },
    {
        "title": "去了一趟广州，发现广州人普遍这样，跟北方人大相径庭",
        "docid": "7316184700316910119",
        "url": ""
    },
    {
        "title": "她骑行60万公里，27年寻遍全国，找到女儿后没掉一滴泪",
        "docid": "7303487577066308111",
        "url": ""
    },
    {
        "title": "超越湘西冬宝，牛儿山脚下的雪景被制茶人二叔拍摄出了新高度",
        "docid": "7327449169600545320",
        "url": ""
    },
    {
        "title": "我在非洲安哥拉晒被子，被黑人嘲笑了，难道黑人的被子不晒吗？",
        "docid": "7312375569537057314",
        "url": ""
    },
    {
        "title": "笑死了！南方姑娘在哈尔滨花了70万，怒问文旅局：你们管不管？",
        "docid": "7326136643688219155",
        "url": ""
    },
    {
        "title": "扬州早茶三巨头：个个都是百年茶社，本地人去都要拿号排队",
        "docid": "7303928155319239222",
        "url": ""
    },
    {
        "title": "哈尔滨每一年都是提前储冰，露天存一年也不会融化，网友:夏天呢",
        "docid": "7326379192190239259",
        "url": ""
    },
    {
        "title": "徐云太敏锐，他又摸到了时代的脉搏，成功的踩准了一波",
        "docid": "7321985852907782668",
        "url": ""
    },
    {
        "title": "“没人疼就去爬山，爬完浑身疼！”网友：杀人诛心指路牌",
        "docid": "7298264723353600512",
        "url": ""
    },
    {
        "title": "笑炸了，北方网友到武汉旅游被冻到抖：怎么感觉湖北比东北还冷！",
        "docid": "7328339770785202740",
        "url": ""
    },
    {
        "title": "江苏第一市，江苏第一县，江苏第一镇，江苏第一村，究竟花落谁家",
        "docid": "7306523750617383475",
        "url": ""
    },
    {
        "title": "中国最令人失望的城市之一：鞍山市",
        "docid": "7313967029696971298",
        "url": ""
    },
    {
        "title": "什么是“CityWalk”？为什么年轻人会突然爱上“CityWalk”？",
        "docid": "7296308877950386714",
        "url": ""
    },
    {
        "title": "零下70度的西伯利亚，极寒天气超7个月，当地人怎么解决吃喝拉撒",
        "docid": "7309776760781603391",
        "url": ""
    },
    {
        "title": "喷子、杠精、键盘侠、网特都傻眼了，全民大团结只需11个小沙糖桔",
        "docid": "7320797115603632678",
        "url": ""
    },
    {
        "title": "笑死了！河南老君山对属龙或姓名带龙字的免门票，我笑死在评论里",
        "docid": "7326477221659689524",
        "url": ""
    },
    {
        "title": "终于有人整理出来这些旅游城市规划了(国内)",
        "docid": "7328270573212402214",
        "url": ""
    },
    {
        "title": "我国唯一一个比本省省会级别还高的城市,你去过吗？",
        "docid": "7320792029418799650",
        "url": ""
    },
    {
        "title": "百度百科认为的中国最美十大名山，黄山仅排第4，华山无缘上榜",
        "docid": "7321737946816610831",
        "url": ""
    },
    {
        "title": "都说扬州比无锡好，扬州无锡都去过，不得不说差距还是真的大",
        "docid": "7326891009748599306",
        "url": ""
    },
    {
        "title": "成都叫“蓉”，重庆叫“渝”，上海叫“沪”，西安的简称叫什么？",
        "docid": "7322428079010660927",
        "url": ""
    },
    {
        "title": "为啥故宫到下午5点就关门了？因为63年的教训，不得不防",
        "docid": "7296819571137217064",
        "url": ""
    },
    {
        "title": "库尔勒，新疆最无聊的旅游城市，又大又空又乏味",
        "docid": "7299014702406599168",
        "url": ""
    },
    {
        "title": "反向旅游，9个被低估的小众城市，会玩的人已经先偷偷去了",
        "docid": "7300547174675497487",
        "url": ""
    },
    {
        "title": "我收藏的旅游攻略(22)",
        "docid": "7301158097635115535",
        "url": ""
    },
    {
        "title": "从法国回来，告诉你一个真实的法国，别再轻信网上的流言蜚语了",
        "docid": "7326787765977694755",
        "url": ""
    },
    {
        "title": "为啥选择岳池县，而不是选择经济体量接近邻近的邻水县",
        "docid": "7327280600937660954",
        "url": ""
    },
    {
        "title": "无限次飞行？南航畅游中国飞出本了么？朋友：太划算了！",
        "docid": "7326453902017462799",
        "url": ""
    },
    {
        "title": "甘肃文旅一出手即是巅峰，我姓甘欢迎各位小心“甘”，评论区笑死",
        "docid": "7324156046132445731",
        "url": ""
    },
    {
        "title": "中国最“挣钱”的名山！一年门票收入10亿，接待游客近400万人",
        "docid": "7327984113905189413",
        "url": ""
    },
    {
        "title": "匈牙利发展到什么程度了？刚从匈牙利回来，告诉你一个真实匈牙利",
        "docid": "7315022168834785842",
        "url": ""
    },
    {
        "title": "重庆9个最值得去的地方，有车没车都要抽空走一趟，你去过哪个？",
        "docid": "7306919480289149440",
        "url": ""
    },
    {
        "title": "世界最著名的四大古都，哪一个历史最悠久？西安竟然屈居第三",
        "docid": "7316114615783031334",
        "url": ""
    },
    {
        "title": "四川广安，唐代保留下来的古镇，未经开发一切还是老样子",
        "docid": "7296365007590261257",
        "url": ""
    },
    {
        "title": "我，70后，在澳洲和土著人酒后去狩猎被甩下悬崖，找到时九死一生",
        "docid": "7323972703243878964",
        "url": ""
    },
    {
        "title": "广东观音山悬赏百万元征下联8年无中标，景区回应",
        "docid": "7326425925334106676",
        "url": ""
    },
    {
        "title": "广东双城记：江门和中山的对比，不比不知道，没想到差异这么大",
        "docid": "7321947552922944037",
        "url": ""
    },
    {
        "title": "哈尔滨旅游回来，难以置信只有900多万人口哈尔滨，发展成这样了",
        "docid": "7325276138580771366",
        "url": ""
    },
    {
        "title": "闹大了！男子景区加油被强制买门票，整个四川受牵连 景区悔不当初",
        "docid": "7327123054407385652",
        "url": ""
    },
    {
        "title": "遍地都是韩国人，张家界有被“孝”到",
        "docid": "7302449252024975906",
        "url": ""
    },
    {
        "title": "我国又一5A景区面临“破产”，曾客流量上千万，如今却负债9亿",
        "docid": "7303826423432020532",
        "url": ""
    },
    {
        "title": "刚从西双版纳旅行回来，不吹不黑，谈谈我的真实感受",
        "docid": "7326518744493392395",
        "url": ""
    },
    {
        "title": "深圳哪儿最好玩？深圳这17个旅游必去景点，趁着周末假期赶紧出发",
        "docid": "7303899325313073716",
        "url": ""
    },
    {
        "title": "以为桂林已经很美了，直到我来了广西崇左",
        "docid": "7307464575593955880",
        "url": ""
    },
    {
        "title": "杭州1h可达！浙江第一摆烂古镇，早茶却卷赢了广州，怎么还不火！",
        "docid": "7307833528694506035",
        "url": ""
    },
    {
        "title": "中国第三大岛屿，每年以143米的速度在扩大，很快将会和大陆相连",
        "docid": "7308666131160547881",
        "url": ""
    },
    {
        "title": "从德国回来，有些话不吐不快，带你看看真实的德国！",
        "docid": "7302433530213057036",
        "url": ""
    },
    {
        "title": "全国旅游竟被北海美人鱼打败，神似刘亦菲颜值让所有男人失抵抗力",
        "docid": "7327332187060240934",
        "url": ""
    },
    {
        "title": "砂糖橘东北睡1宿变果脯 床单、被罩仿佛像是被水洗过一般",
        "docid": "7321295456573588007",
        "url": ""
    },
    {
        "title": "为何现在很少酒店“查房”了？前台说出真相，并不担心游客乱来",
        "docid": "7321558762995991079",
        "url": ""
    },
    {
        "title": "这大概就是老祖宗骨子里不灭的极致审美吧！",
        "docid": "7307543090885100067",
        "url": ""
    },
    {
        "title": "武功山逆天，庐山仅第9！神农架跌出前10，40大名山你去过几座",
        "docid": "7295202366628954674",
        "url": ""
    },
    {
        "title": "四个保存完好的古城墙，个个意义重大、历史悠久，你去过哪里？",
        "docid": "7318412651833541135",
        "url": ""
    },
    {
        "title": "红河神秘的百年老宅，装饰用了6公斤黄金，主人曾在香港做商号",
        "docid": "7298932706535260672",
        "url": ""
    },
    {
        "title": "酒店民宿“9点退房，12点入住”被骂上热搜！",
        "docid": "7301852546531246628",
        "url": ""
    },
    {
        "title": "退休6年，换了3种旅行都放弃后，我才发现人老了这样旅行更自在",
        "docid": "7303423716640801332",
        "url": ""
    },
    {
        "title": "我国著名历史博物馆中的17大镇馆之宝",
        "docid": "7307084890603209250",
        "url": ""
    },
    {
        "title": "河南低调的三线小城，竟是国内唯一永久性宜居城市，实至名归",
        "docid": "7300194363953447463",
        "url": ""
    },
    {
        "title": "广西共9个AAAAA级景区！去过几个！",
        "docid": "7318724304278209061",
        "url": ""
    },
    {
        "title": "游历几个道观，亲眼见到道教衰落",
        "docid": "7299764379011875337",
        "url": ""
    },
    {
        "title": "中国不能没有墨脱！全国最后通公路的县城，2/3的土地被印度侵占",
        "docid": "7326051110752649738",
        "url": ""
    },
    {
        "title": "走遍全国很多地区，我感觉辽宁人的生活是最幸福的",
        "docid": "7325765779734692379",
        "url": ""
    },
    {
        "title": "去了上海和北京，我发现北京跟上海差的不是一点点而已",
        "docid": "7327271904262930985",
        "url": ""
    },
    {
        "title": "中国最遗憾的城市之一：湖北省十堰市",
        "docid": "7306895925077705235",
        "url": ""
    },
    {
        "title": "中国最贵的湖泊：价值超12万亿，军队24小时巡逻，里面藏了什么？",
        "docid": "7301597624984257058",
        "url": ""
    },
    {
        "title": "从上海去西安旅游回来，有些话憋在心里，谈谈我对西安的看法",
        "docid": "7295640960141672975",
        "url": ""
    },
    {
        "title": "中国最值得去的8个5A级景区，不去后悔！你去过几个？",
        "docid": "7295563889524212236",
        "url": ""
    },
    {
        "title": "盘点中国5A景区20强，黄山第3，张家界第6，泰山挤进前10",
        "docid": "7324229495337124379",
        "url": ""
    },
    {
        "title": "真实访谈：46岁，旅居国人，一趟匈牙利，瞬间感觉国内不香了",
        "docid": "7328203212589122063",
        "url": ""
    },
    {
        "title": "河南让商贩接待游客说普通话 ，是要想笑死谁呀？",
        "docid": "7327668174983135755",
        "url": ""
    },
    {
        "title": "四川三大宜居地级市：攀枝花上榜，遂宁、成都入围，有你家乡吗？",
        "docid": "7296022901214446132",
        "url": ""
    },
    {
        "title": "占地2690亩是故宫两倍，山东“最大”的公园，还免费对外开放",
        "docid": "7322316305988829730",
        "url": ""
    },
    {
        "title": "好消息，3月开放！",
        "docid": "7327541152121471507",
        "url": ""
    },
    {
        "title": "绝美浪漫！今天成都人都在等的大片，来了！",
        "docid": "7327522807347266088",
        "url": ""
    },
    {
        "title": "重新审视云南省会：为什么说迁往大理市是最佳最明智的选择！",
        "docid": "7327243198105993754",
        "url": ""
    },
    {
        "title": "又挖到四川被低估的宜居小城！比成都清净，比昆明舒服，物价便宜",
        "docid": "7324596987205714483",
        "url": ""
    },
    {
        "title": "四川北路的老弄堂有龙出没！来这里过海派春节→",
        "docid": "7328383727267840512",
        "url": ""
    },
    {
        "title": "对话湖北文旅“小昭牌”邱淑贞分淑：舞蹈专业，想为家乡上分",
        "docid": "7326489782409626152",
        "url": ""
    },
    {
        "title": "广东省最奇怪的地级市——江门市",
        "docid": "7316779972352344610",
        "url": ""
    },
    {
        "title": "笑喷！美媒报道“中国游客消失”| 网友调侃，我要笑死在评论区了",
        "docid": "7327571181425721908",
        "url": ""
    },
    {
        "title": "我是穷人的思维吗？出远门喜欢坐普通火车的卧铺，不喜欢高铁",
        "docid": "7323259610087932468",
        "url": ""
    },
    {
        "title": "8个退休后老人自驾游的案例，车轮一转消费上10000，但还是很划算",
        "docid": "7307413683955581440",
        "url": ""
    },
    {
        "title": "在西双版纳玩了四天多，和大家说几句心里话，句句都是肺腑之言！",
        "docid": "7294961926550503974",
        "url": ""
    },
    {
        "title": "古人出门旅行有多难？别被电视剧骗了，很多人不会单独出行",
        "docid": "7327896054102491698",
        "url": ""
    },
    {
        "title": "新疆的饭贵吗？我也说几句。",
        "docid": "7324645256912323112",
        "url": ""
    },
    {
        "title": "现存的“中国第一县衙”，历经5朝347位县官，品级规格历史独一份",
        "docid": "7327622519250174516",
        "url": ""
    },
    {
        "title": "山西最美十大景点：第一云冈石窟，第二悬空寺，第三平遥古城",
        "docid": "7295593782748398091",
        "url": ""
    }
]