[
    {
        "title": "我心中的12个6A景区，江苏2个，甘肃1个，湖北1个，新疆1个",
        "docid": "7354557885516612136",
        "url": ""
    },
    {
        "title": "德国奇葩浴场有多舒服？要求必须赤身，男女混浴，已有上千年历史",
        "docid": "7376216028210856488",
        "url": ""
    },
    {
        "title": "中国有多少城市能撑起来七日游？",
        "docid": "7361770579650789903",
        "url": ""
    },
    {
        "title": "实在太“疯狂”了！成都人的生活模式，外地人真的学不会！",
        "docid": "7353659732409582107",
        "url": ""
    },
    {
        "title": "平平无奇的南京红山动物园，为什么偏偏火遍全国？",
        "docid": "7358665978937180713",
        "url": ""
    },
    {
        "title": "65岁前，一定要去的中国这10个5A景区，去过1个便觉这人间值得",
        "docid": "7368366966714761764",
        "url": ""
    },
    {
        "title": "8年40趟亲子旅行，我才发现：孩子其实并不在乎去哪玩",
        "docid": "7361986041693209107",
        "url": ""
    },
    {
        "title": "为什么很多去日本旅游的人，不发朋友圈？听了这些实话我沉默了",
        "docid": "7346876019686654491",
        "url": ""
    },
    {
        "title": "中国最值得去的30大景点，去过5个，此生无憾",
        "docid": "7365548406657303074",
        "url": ""
    },
    {
        "title": "中国最美的22大风景，去过6个此生无憾，你去过几个呢？",
        "docid": "7372820687020360232",
        "url": ""
    },
    {
        "title": "露营中的高端局：妈妈式露营，怎么费事怎么来！那才够劲！",
        "docid": "7362104389101814287",
        "url": ""
    },
    {
        "title": "【超适合旅行发的朋友圈文案】​凑个热闹 ，挤趟人海。",
        "docid": "7356149431386800681",
        "url": ""
    },
    {
        "title": "浙江省值得去的九大景点，去过5个算合格，你去过几个？",
        "docid": "7361722568123892243",
        "url": ""
    },
    {
        "title": "南方人第一次去沈阳，说几句大实话，希望东北人别生气",
        "docid": "7347614729239642643",
        "url": ""
    },
    {
        "title": "中国哪里的溶洞最美？网友推荐，这10个溶洞上榜！你去过几个呢？",
        "docid": "7365083568436986403",
        "url": ""
    },
    {
        "title": "陕西：女孩陪男友挤绿皮火车，长相清秀神似明星，啥福气能娶到她",
        "docid": "7377791660376932905",
        "url": ""
    },
    {
        "title": "中国10大最美海岛，去过6个了不起，全部去过的也太幸福了！",
        "docid": "7370968155789083175",
        "url": ""
    },
    {
        "title": "听劝！河南这个低调景区，才是真正的世外桃源！累了就来避世几天",
        "docid": "7377041580215157282",
        "url": ""
    },
    {
        "title": "前几天去了趟滁州，忍不住要吐槽两句，滁州毕竟是安徽的第三城",
        "docid": "7359875061924348479",
        "url": ""
    },
    {
        "title": "全列卧铺+管家式服务！网友惊呼：豪华大床房来了",
        "docid": "7351314384960111156",
        "url": ""
    },
    {
        "title": "“这里不是中国！不会有人惯你们”大妈成公害，网友：丢人到国外",
        "docid": "7375735379107775016",
        "url": ""
    },
    {
        "title": "黔西南发现大地母亲，相似度达到99.9%，已经在网上走红了好几年",
        "docid": "7368440281261244962",
        "url": ""
    },
    {
        "title": "中国十大名山，泰山只能排第二，爬过五座是青铜，爬过七座是王者",
        "docid": "7359507355547386422",
        "url": ""
    },
    {
        "title": "女子寺庙里求姻缘，下一秒竟然灵验了",
        "docid": "7351256839457243683",
        "url": ""
    },
    {
        "title": "两名游客夜爬泰山看日出，结果一觉睡到天亮",
        "docid": "7353069891534094874",
        "url": ""
    },
    {
        "title": "董宇辉要去山西了，文旅局长提前把山西拍出了人们向往的人间仙境",
        "docid": "7378783885385105956",
        "url": ""
    },
    {
        "title": "彭州市龙兴寺，荷花绽放，风采动人！",
        "docid": "7379206817489011212",
        "url": ""
    },
    {
        "title": "斯堪的纳维亚女性平均水平，你能拿捏的住吗？",
        "docid": "7358421606202343986",
        "url": ""
    },
    {
        "title": "【916阳光俱乐部】“亲爱的爸妈”在四川玩嗨了！",
        "docid": "7379579918247674409",
        "url": ""
    },
    {
        "title": "中国最大气的古镇，廊桥世界第一，风景抢眼美食满街，还不要门票",
        "docid": "7365518859387896372",
        "url": ""
    },
    {
        "title": "“尔滨人”的生活仪式感：“上江沿儿”乐享夏日闲趣",
        "docid": "7379440056240554531",
        "url": ""
    },
    {
        "title": "弯道骑太快，用脚刹车也停不下来了",
        "docid": "7363096958807835188",
        "url": ""
    },
    {
        "title": "没关系，一个人也可以走遍天下，适合一个人旅行的7个城市",
        "docid": "7348931892865008179",
        "url": ""
    },
    {
        "title": "逛姐出街｜高考落幕，快和逛姐一起get暑期出游新装备",
        "docid": "7379447143536476684",
        "url": ""
    },
    {
        "title": "文化中国行",
        "docid": "7364567509016412698",
        "url": ""
    },
    {
        "title": "看！这是我们的城→",
        "docid": "7379448920467391012",
        "url": ""
    },
    {
        "title": "机票仅300，国内最具松弛感海滨城市，人少景美，坐1元公交去看海",
        "docid": "7360192389916492328",
        "url": ""
    },
    {
        "title": "有院子的人，回家就是度假",
        "docid": "7356197524664844827",
        "url": ""
    },
    {
        "title": "为何川藏上的司机，总要点根烟扔出窗外？藏民：扔烟的都是聪明人",
        "docid": "7379495407501492799",
        "url": ""
    },
    {
        "title": "端午第一天的赢家诞生，这座小城被挤爆了",
        "docid": "7379548906738188839",
        "url": ""
    },
    {
        "title": "好险！长江180度拐弯，避免了“叛国”命运？",
        "docid": "7375871935588172351",
        "url": ""
    },
    {
        "title": "外国博主纷纷发布“中国探险记”，有太多“没想到”……",
        "docid": "7364235469153911305",
        "url": ""
    },
    {
        "title": "重庆本地人的真心建议 去重庆不要只去洪崖洞，强烈推荐这7个地方",
        "docid": "7373465817914130984",
        "url": ""
    },
    {
        "title": "何必到瑞士？广州市6个地铁就能到的世外桃源，晚上还能回家吃饭",
        "docid": "7362827789755482663",
        "url": ""
    },
    {
        "title": "阿拉伯“开放”的国家，女性穿“超短裤”上班，吸引了很多游客",
        "docid": "7379557300924629544",
        "url": ""
    },
    {
        "title": "北京惊讶了，上海也惊讶了，没想到天津竟是“北方的江南”",
        "docid": "7378047882093445643",
        "url": ""
    },
    {
        "title": "日照、青岛、威海、烟台哪里的海更好看？",
        "docid": "7372133911306011199",
        "url": ""
    },
    {
        "title": "上海“小鹿公园”火了！浦东一座冷门宝藏公园走红！免费的，你去过吗？",
        "docid": "7378013150161011200",
        "url": ""
    },
    {
        "title": "成都第一批网红景点：曾经热闹非凡的地方，即将成为一代人的记忆",
        "docid": "7359058951029178921",
        "url": ""
    },
    {
        "title": "法国“重口味”博物馆，曾要求裸体入馆参观，超3万人报名参加",
        "docid": "7379587776416268819",
        "url": ""
    },
    {
        "title": "历史上真正的江南四大名城，江苏就占了三座，每座城市都有一座湖",
        "docid": "7375479489499644457",
        "url": ""
    },
    {
        "title": "从嫌土到“打call”，小城青年为何“赤裸裸地”炫家乡",
        "docid": "7379057732097409590",
        "url": ""
    },
    {
        "title": "荆州郢城文化园高开低走，从火爆到荒凉只用了几个月，原因何在？",
        "docid": "7347542364086436352",
        "url": ""
    },
    {
        "title": "后续！43岁中国女游客在希腊坠海带给我们的旅游安全警示",
        "docid": "7379491237751030306",
        "url": ""
    },
    {
        "title": "常常听到“消费降级”，可旅游的人却那么多 ，网友：穷游罢了！",
        "docid": "7379554711005643316",
        "url": ""
    },
    {
        "title": "高铁直达，别去景德镇挤了，这座花费26亿元打造的空中悬空小镇",
        "docid": "7352721960238891530",
        "url": ""
    },
    {
        "title": "哈萨克斯坦阿拉木图，号称“世界上绿化最好的城市”？实际如何？",
        "docid": "7375461995604525578",
        "url": ""
    },
    {
        "title": "为啥海南这么风景宜人的度假岛，在古代会被专门当成流放之地呢？",
        "docid": "7350859573744206351",
        "url": ""
    },
    {
        "title": "中国最美六大草原，有没有车也要去一趟，你去过几个",
        "docid": "7348292722199101990",
        "url": ""
    },
    {
        "title": "《国家地理》精心挑选的中国一生必游的50处胜地",
        "docid": "7357555627268342309",
        "url": ""
    },
    {
        "title": "“海参崴”现状，有几句话不得不说，看看真实的海参崴",
        "docid": "7378712933271945728",
        "url": ""
    },
    {
        "title": "中国最美的100公里，眼睛在天堂，轮胎在地狱！",
        "docid": "7376973428085195302",
        "url": ""
    },
    {
        "title": "中国最美的14个古镇 去过8个就人间值得，你们去过几个。",
        "docid": "7359926081819984434",
        "url": ""
    },
    {
        "title": "河南徒步研学团，12到19岁，28天1040公里，网友：在古代这叫流放",
        "docid": "7379180074517479946",
        "url": ""
    },
    {
        "title": "3天暴走西湖边33个墓，我从没有这样看清过生死！",
        "docid": "7363962884914790946",
        "url": ""
    },
    {
        "title": "照片骗人？江西婺源篁岭是美如画卷还是磨刀霍霍？亲身体验告诉你",
        "docid": "7374617923458957876",
        "url": ""
    },
    {
        "title": "门票40却火过迪士尼！曾是中国最穷动物园，今成功逆袭成“顶流”",
        "docid": "7354691990245704255",
        "url": ""
    },
    {
        "title": "陕西耗资30亿打造的景区走红，未来有望成为5A级景区，值得一去!",
        "docid": "7369216909197181475",
        "url": ""
    },
    {
        "title": "中高考生准考证别丢！武汉40个景区推出免门票、特惠游→",
        "docid": "7379466318765949449",
        "url": ""
    },
    {
        "title": "越南游记：“西贡”这么好听，本地人不服，凭啥改“胡志明市”？",
        "docid": "7375459978628383269",
        "url": ""
    },
    {
        "title": "四川与土耳其：人口相当，二者GDP差一个成都，世界美食王国牵手",
        "docid": "7377573014378005044",
        "url": ""
    },
    {
        "title": "暑期去哪儿旅游？预定高峰已开启！",
        "docid": "7379166323923812898",
        "url": ""
    },
    {
        "title": "“骑行社交”成新宠 不求竞速求放松",
        "docid": "7379500742006014514",
        "url": ""
    },
    {
        "title": "已成绝版照片！新疆赛里木湖各个营地均已拆除，再也没法住在湖边",
        "docid": "7348816198529712680",
        "url": ""
    },
    {
        "title": "中国四大古镇之一，美过西塘，赛过乌镇，永久免票",
        "docid": "7362898133027701260",
        "url": ""
    },
    {
        "title": "石榴图说丨穿越山海 自有疆味万千风景",
        "docid": "7379513385812689423",
        "url": ""
    },
    {
        "title": "总要去一趟襄阳吧！",
        "docid": "7379559165745758732",
        "url": ""
    },
    {
        "title": "我国最神奇的六大景点！一个比一个震撼！",
        "docid": "7365066620735291956",
        "url": ""
    },
    {
        "title": "全是便宜货！广州旅游不能不逛的10个批发市场 服装鞋子都是批发价",
        "docid": "7351666979272524326",
        "url": ""
    },
    {
        "title": "中国15大旅游风景，去过3个不简单，去过6个就太幸福了",
        "docid": "7379488310151971328",
        "url": ""
    },
    {
        "title": "曾经被嫌弃的跟团游，咋成了新顶流？",
        "docid": "7357633380738974260",
        "url": ""
    },
    {
        "title": "真不是贵州！在广东被严重低估的避世古镇",
        "docid": "7371968212365312522",
        "url": ""
    },
    {
        "title": "上海市中心这盆荷花一定是下一个爆火机位！",
        "docid": "7379593448048935460",
        "url": ""
    },
    {
        "title": "离开广西之前，一定要打包带走的十样特产，本地特色，送礼有面子",
        "docid": "7374063791631237671",
        "url": ""
    },
    {
        "title": "河南最美的7个地方，有车没车都要抽空走一趟，你去过几个？",
        "docid": "7358010217998877218",
        "url": ""
    },
    {
        "title": "黄陂夜游火上央视，亲水项目热度攀升",
        "docid": "7379057522528797236",
        "url": ""
    },
    {
        "title": "放弃大理吧！我在广东找到了最有风的地方！",
        "docid": "7379433248151142939",
        "url": ""
    },
    {
        "title": "北京最难进的公园 · 刚开一个月",
        "docid": "7372074694914228748",
        "url": ""
    },
    {
        "title": "全球最\"拥挤\"的城市，比香港还挤，面积还没有我国一个村子大",
        "docid": "7372947614913987112",
        "url": ""
    },
    {
        "title": "“国潮”文创产品为文旅消费添活力（消费视窗·聚焦“新国潮”）",
        "docid": "7379508996069179904",
        "url": ""
    },
    {
        "title": "法国发达到什么程度了？带你看看真实的，法国生活！",
        "docid": "7362909695469716007",
        "url": ""
    },
    {
        "title": "它是陕西最适合养老的县，是北方也是南方！山美水美，值得一去",
        "docid": "7366084847103967795",
        "url": ""
    },
    {
        "title": "揭开伊朗的面纱2：伊朗人如何看待中国人？歧视？尊重？都不是！",
        "docid": "7349176581828870695",
        "url": ""
    },
    {
        "title": "煤老板正在排队出国",
        "docid": "7370839804726215207",
        "url": ""
    },
    {
        "title": "旅行回来写两篇文章收益5000元！努力就有收获，但方向比努力重要",
        "docid": "7364603823232664099",
        "url": ""
    },
    {
        "title": "夏至“冰城”，究竟有几度？—— “尔滨”努力打造文旅“长红”",
        "docid": "7379519603455607311",
        "url": ""
    },
    {
        "title": "贵州糊涂啊，为什么不大力宣传这里，云端的仙境-黄平飞云崖",
        "docid": "7356445833769845274",
        "url": ""
    },
    {
        "title": "浙江发现一处奇景，成千上万根巨型石柱整齐地插在海面，世界罕见",
        "docid": "7350485194950017546",
        "url": ""
    },
    {
        "title": "1944年，飞虎队员拍摄的彩色昆明，那时的滇池竟蓝的如此澄澈！",
        "docid": "7361713514237477387",
        "url": ""
    },
    {
        "title": "镇江和扬州，我选择去了镇江，听听我的真实感受",
        "docid": "7356806988069618186",
        "url": ""
    },
    {
        "title": "十年自驾游旅行总结出10条精髓，全是干货，建议收藏",
        "docid": "7337433361008312868",
        "url": ""
    },
    {
        "title": "再也不选择自驾游了！网友：自驾游是自由，并不是为了省钱啊",
        "docid": "7360319597675528739",
        "url": ""
    },
    {
        "title": "距今近800年！汉阳这处历史古迹焕新颜",
        "docid": "7379533468278538804",
        "url": ""
    },
    {
        "title": "烟花三月下扬州！刚从扬州回来，能“劝”一个是一个！",
        "docid": "7350528438547137033",
        "url": ""
    },
    {
        "title": "欧洲美女远嫁中国坦言：中国不可怕，可怕的是中欧生活差距大",
        "docid": "7365133620727677467",
        "url": ""
    },
    {
        "title": "中国成为“人间天堂”！外国人趋之若鹜，挤破脑袋都想进来！",
        "docid": "7379429193076982281",
        "url": ""
    },
    {
        "title": "有没有适合一个人旅行的冷门城市？",
        "docid": "7350656419442246154",
        "url": ""
    },
    {
        "title": "中国唯一破产的5A景区：负债几亿！却坚持不提高门票价格？",
        "docid": "7365408955415740962",
        "url": ""
    },
    {
        "title": "相信我！新疆会“惩罚”每一个去旅游但不做“厕所攻略”的人！",
        "docid": "7369956384160645673",
        "url": ""
    },
    {
        "title": "我原以为云南石林很震撼，直到我去了这里，我发现这比石林更震撼",
        "docid": "7355103453448766004",
        "url": ""
    },
    {
        "title": "武汉有条将要拆除的600年老街，游客们表示遗憾，居民却期待许久",
        "docid": "7372578189341704743",
        "url": ""
    },
    {
        "title": "别去挤千户苗寨了！高铁直达，这个侗族寨子，美得像梦幻仙境！",
        "docid": "7376863979269833242",
        "url": ""
    },
    {
        "title": "我心目中河南洛阳最美5大景点，少去一个都是遗憾，你去过几个？",
        "docid": "7356095669777416755",
        "url": ""
    },
    {
        "title": "我的阿勒泰之禾木村，中国最美乡村。",
        "docid": "7370665790430790159",
        "url": ""
    },
    {
        "title": "中国西部最大的边境城市——伊宁",
        "docid": "7367360628946027049",
        "url": ""
    },
    {
        "title": "太行山大峡谷和太行大峡谷，一字之差却有云泥之别，很多人分不清",
        "docid": "7374067882390602240",
        "url": ""
    },
    {
        "title": "距太原仅19分钟可达的小城，比平遥更让我喜欢，还藏着独特的古寺",
        "docid": "7366621036023022089",
        "url": ""
    },
    {
        "title": "德国博主：“中国复制了一处希腊度假岛，甚至天气”",
        "docid": "7360825204647494185",
        "url": ""
    },
    {
        "title": "在大凉山支教五年，说句不好听的话，大凉山人最大的特点就是热情",
        "docid": "7356848168627077669",
        "url": ""
    },
    {
        "title": "世界上最大山体雕刻，竟藏在山东，是乐山大佛的3倍",
        "docid": "7366070554606142003",
        "url": ""
    },
    {
        "title": "人生建议：一定要吃完这条路再离开郑州！",
        "docid": "7360951600712319527",
        "url": ""
    },
    {
        "title": "（外代二线）巴伦支海风光",
        "docid": "7379129357391921691",
        "url": ""
    },
    {
        "title": "市民游客别跑空，凌波门仍在修缮收尾",
        "docid": "7379183774373380634",
        "url": ""
    },
    {
        "title": "山西行永乐宫，烈日下美女解说员带董宇辉，看元代壁画",
        "docid": "7379514745075892777",
        "url": ""
    },
    {
        "title": "从孟加拉国回来，有些话不说憋得难受，这才是最真实的孟加拉国！",
        "docid": "7379664387764453898",
        "url": ""
    },
    {
        "title": "好壮观，重庆景区半夜被游客挤爆，网友：这是来攻打洪崖洞吗？",
        "docid": "7363734438049530406",
        "url": ""
    },
    {
        "title": "中国唯一3000年没改名的古都！曾是北方第一，却有100万人离开！",
        "docid": "7377673945819922971",
        "url": ""
    },
    {
        "title": "洛阳和大同两座城市都去过，实话实说，大同被低估了",
        "docid": "7340044102471369235",
        "url": ""
    },
    {
        "title": "不是所有地方都凉快，6-8月去贵州避暑，选对这些地方",
        "docid": "7377151678270669364",
        "url": ""
    },
    {
        "title": "五岳中唯一一座不是5A级景区的山，你知道是哪座吗？",
        "docid": "7363868306845090341",
        "url": ""
    },
    {
        "title": "刚从黄山宏村回来，实话实说，真实的宏村和网上说的不一样",
        "docid": "7373622278510199330",
        "url": ""
    },
    {
        "title": "陕西的一个县，巨资打造的古镇，为何发展不起来？",
        "docid": "7360690982532334091",
        "url": ""
    },
    {
        "title": "上海出发！爱达魔都号6天5晚行程和价格表来了！",
        "docid": "7376958674855625226",
        "url": ""
    },
    {
        "title": "80年前四川峨眉山旧照，只见僧人不见游客，猴子温顺自带仙气",
        "docid": "7376914143674122764",
        "url": ""
    },
    {
        "title": "在邮轮上旅游的体验如何？网友真实经历告诉你真相！",
        "docid": "7364828374604595747",
        "url": ""
    },
    {
        "title": "从泸沽湖走近路到稻城亚丁，276公里自驾走了11小时，步步惊心",
        "docid": "7361038999127130624",
        "url": ""
    },
    {
        "title": "英国人游完中国再游韩国，看看网友们给他们提了什么建议？",
        "docid": "7376256749008945700",
        "url": ""
    },
    {
        "title": "超赞！退休了就去这个中国最适合养老的古镇，冬暖夏凉、四季宜居",
        "docid": "7373862987158848026",
        "url": ""
    },
    {
        "title": "德国旅游博主KEN对比中国和印度，中国很现代，印度是特别的体验",
        "docid": "7371442857196012032",
        "url": ""
    },
    {
        "title": "扬州大运河博物馆为何人气超过南博和苏博，成为江苏第一？",
        "docid": "7358653511082508841",
        "url": ""
    },
    {
        "title": "小城旅游火爆，不如去次常熟！这条一日游线路不要门票，安静闲适",
        "docid": "7365522616108630543",
        "url": ""
    },
    {
        "title": "广东顺德被誉为“世界美食之都”，有一条著名美食街，你来过吗？",
        "docid": "7362761862368444963",
        "url": ""
    },
    {
        "title": "英国姑娘来广东旅游，回国哭8天，坦言英国与广东差距一目了然",
        "docid": "7377557597596959243",
        "url": ""
    },
    {
        "title": "一定要去的6个绝美古镇，累了就去小住几日！",
        "docid": "7353923431076790835",
        "url": ""
    },
    {
        "title": "一位过世的老人，把生命写在了老家的墙上",
        "docid": "7358664340154614291",
        "url": ""
    },
    {
        "title": "西安飞往多个城市机票不到200元 业内提醒：廉价票要注意使用条件",
        "docid": "7368817334763586086",
        "url": ""
    },
    {
        "title": "真不是贵州，就在广东，隐藏在山林的避世古镇",
        "docid": "7367040192669237799",
        "url": ""
    },
    {
        "title": "刚刚游览完北京市和天津市，说句大实话，看看两地相去甚远呀",
        "docid": "7378832001434010153",
        "url": ""
    },
    {
        "title": "真实的“古巴”现状，偌大的唐人街却看不到华人，他们都去哪了",
        "docid": "7379608326889406988",
        "url": ""
    },
    {
        "title": "甘肃7大5A级王牌景区，你去过几个？世界文化遗产落榜，为什么？",
        "docid": "7350481507707798031",
        "url": ""
    },
    {
        "title": "中国最北、最南、最东、最西的4座城市，你都去过吗？",
        "docid": "7363109730455355919",
        "url": ""
    },
    {
        "title": "我国唯一没有山的城市，最高的地方不足8米，城市名字以调料命名",
        "docid": "7372072994056782376",
        "url": ""
    },
    {
        "title": "老蛇口抹不去的记忆",
        "docid": "7354264502046720527",
        "url": ""
    },
    {
        "title": "退役军人优待证优惠那些事儿——旅游#湖北篇",
        "docid": "7360614070904422964",
        "url": ""
    },
    {
        "title": "太爽了！这5个和中国免签的国家一定要去，人美景美东西还好吃",
        "docid": "7371405515806523913",
        "url": ""
    },
    {
        "title": "高铁直达，这座仙侠风满满的千年古镇，比乌镇更值得一游",
        "docid": "7373174319418966554",
        "url": ""
    },
    {
        "title": "跟了4次团才明白：出门旅游，这6样物品很重要，行李再多也要带上",
        "docid": "7371358817717633586",
        "url": ""
    },
    {
        "title": "去了一趟西安和长沙，实话实说：西安和长沙的差异确实挺大的！",
        "docid": "7377563539763970614",
        "url": ""
    },
    {
        "title": "黄龙景区回来后的一点启示",
        "docid": "7355311143579140608",
        "url": ""
    },
    {
        "title": "为什么说弟弟是最好的旅游搭子？网友回答太精辟，看完后笑疯了！",
        "docid": "7364593249610170915",
        "url": ""
    },
    {
        "title": "人生不止一种活法,无家可归35年只为踏遍天下",
        "docid": "7379567803927511587",
        "url": ""
    },
    {
        "title": "广州有一趟直达拉萨的慢火车，全程4980公里历时53小时，400余元",
        "docid": "7366640271025488394",
        "url": ""
    },
    {
        "title": "我90后安徽姑娘，在伊朗旅游时，被警察要求需戴头巾，让人很无语",
        "docid": "7375807324662874659",
        "url": ""
    },
    {
        "title": "实拍：河南开封现实版《清明上河图》 复刻古都千年繁华",
        "docid": "7360295132597322277",
        "url": ""
    },
    {
        "title": "这才是绍兴的正确打开方式，无需攻略，直接跟着走就行！",
        "docid": "7360113263884927551",
        "url": ""
    },
    {
        "title": "中国8座5A级名山，去过3座就了不起了，去过5个简直太牛了",
        "docid": "7376473591132455463",
        "url": ""
    },
    {
        "title": "安徽16大城市政府大楼实拍，池州像城堡，六安最接地气",
        "docid": "7376661075578470966",
        "url": ""
    },
    {
        "title": "中国此生一定要去的12个城市，看看你去过几个",
        "docid": "7374347814157779508",
        "url": ""
    },
    {
        "title": "中国最东、最西、最南、最北的4座城市，你去过哪个",
        "docid": "7376870108318990874",
        "url": ""
    },
    {
        "title": "贵州被吐槽最“坑”的4A景区，商业化严重，门票90仍不缺游客",
        "docid": "7354787151969796617",
        "url": ""
    },
    {
        "title": "今天我去了肇兴侗寨，这哪像是一个旅游热点村寨，感觉是一个圩场",
        "docid": "7364807162541670947",
        "url": ""
    },
    {
        "title": "我不听劝去埃及旅游，遍地都是骗子垃圾和烂尾楼，跟想象中差远了",
        "docid": "7373135501299106355",
        "url": ""
    },
    {
        "title": "河南最成功的古城，据说总投资127亿，关键还免费，你去过吗？",
        "docid": "7378834048410354191",
        "url": ""
    },
    {
        "title": "我奶奶重男轻女，是外婆把我带大，长大后我买房接外婆一起住",
        "docid": "7375807348998226467",
        "url": ""
    },
    {
        "title": "淄川与博山合起来有了淄博的名字，为啥淄博市中心却成了张店？",
        "docid": "7353447258412679715",
        "url": ""
    },
    {
        "title": "水绕沙丘夏日美",
        "docid": "7378106432383631911",
        "url": ""
    },
    {
        "title": "笑不活了，武汉到重庆仅需3小时。我要笑死在网友评论区了",
        "docid": "7351751915174347298",
        "url": ""
    },
    {
        "title": "融媒·深调查丨同样是“充电”，价格却不同",
        "docid": "7379515773003317801",
        "url": ""
    },
    {
        "title": "“行进中国”调研行·投资新疆｜伊宁六星街，一眼惊艳",
        "docid": "7379607371268309556",
        "url": ""
    },
    {
        "title": "游客自驾遇上牦牛拦路不敢鸣笛，没想到藏族小哥直接飞起一脚",
        "docid": "7356437946213335589",
        "url": ""
    },
    {
        "title": "太壕了！俞敏洪请假20天自驾游西藏，开3辆百万豪车，评论区炸锅",
        "docid": "7356479679466848779",
        "url": ""
    },
    {
        "title": "有什么事是旅游多次才知道的？看完网友的评论我明白了！",
        "docid": "7377294314562437651",
        "url": ""
    },
    {
        "title": "中国66个第一批AAAAA景区，去过33个算合格，去过55个算旅游达人",
        "docid": "7363155190322561546",
        "url": ""
    },
    {
        "title": "\"请问我只会背《咏鹅》，可以免哪个景区的门票？\"",
        "docid": "7351693208482546214",
        "url": ""
    },
    {
        "title": "中国“零差评”的8座旅游景点，50岁前一定要去一次！超级美!",
        "docid": "7377224159958483506",
        "url": ""
    },
    {
        "title": "广东肇庆鼎湖山景区为什么火了？谈谈我一家三口的两天两夜肇庆游",
        "docid": "7358062345010201123",
        "url": ""
    },
    {
        "title": "真相来了！央视曝光的厦门鼓浪屿“宰客王”，官方拿它都没辙？",
        "docid": "7379220219991949876",
        "url": ""
    },
    {
        "title": "英国人倾家荡产旅行，来中国3个月改变命运，去韩国竟成“囧途”",
        "docid": "7379491110961398272",
        "url": ""
    },
    {
        "title": "台湾青年感叹，第一次踏上大陆这片土地，一眼望去尽是繁华，很爱",
        "docid": "7352362387946865192",
        "url": ""
    },
    {
        "title": "“板凳团”占据乐山大佛观景平台，“不给钱不让拍”？文旅局最新回应",
        "docid": "7379558070105408051",
        "url": ""
    },
    {
        "title": "26岁小伙徒步从海南走回甘肃老家：出发前负债2万，194天赚了3万",
        "docid": "7378538123552195124",
        "url": ""
    },
    {
        "title": "女子徒步318川藏线，两次搭车均被要求同住，不敢下车怕激怒对方",
        "docid": "7378894203763311139",
        "url": ""
    },
    {
        "title": "上海大学生花29天坐公交到新加坡：一共花费了3000多元",
        "docid": "7374243100832842291",
        "url": ""
    },
    {
        "title": "世界最孤独的国家，方圆1600公里没有邻国，一年放假140天",
        "docid": "7365042021054087690",
        "url": ""
    },
    {
        "title": "听我一句劝，不要买露营装备！",
        "docid": "7349876466504696374",
        "url": ""
    },
    {
        "title": "我，格鲁吉亚音乐家，来中国留学爱上中国，全家人赞同我留在这里",
        "docid": "7357511825610621494",
        "url": ""
    },
    {
        "title": "不要去皮子街",
        "docid": "7356836259303522870",
        "url": ""
    },
    {
        "title": "为什么在杭州定居生活的新疆人不多，而大多都喜欢成都西安等城市",
        "docid": "7356459852682314280",
        "url": ""
    },
    {
        "title": "广西最美丽的十个地方",
        "docid": "7349457781658894848",
        "url": ""
    },
    {
        "title": "河南省信阳市十大著名景区，你去过几个？",
        "docid": "7357674890059039243",
        "url": ""
    },
    {
        "title": "又一座中国城市被老外“占据”，十万老外赖着不走，你知道是哪吗",
        "docid": "7377686035310740003",
        "url": ""
    },
    {
        "title": "比昆明舒服一倍，游客却不及丽江一半！好想去云南这座山水慢城！",
        "docid": "7379016814338114063",
        "url": ""
    },
    {
        "title": "6.11独库公路刚回来，说点大实话！",
        "docid": "7379535195609547273",
        "url": ""
    },
    {
        "title": "我湖南人，去过四川省打工生活才知道，两地差的不止是GDP",
        "docid": "7365711840099353107",
        "url": ""
    },
    {
        "title": "陕西的一个村， 一年旅游收入超过10个亿，为啥这么火？",
        "docid": "7362061931122836002",
        "url": ""
    },
    {
        "title": "挖到广西最低调的边境大城，比桂林丰满，吃得还大胆！性价比满满",
        "docid": "7358349707208409639",
        "url": ""
    },
    {
        "title": "中国25大名山，黄山只能排第2，爬过3座是青铜，爬过6座是王者",
        "docid": "7369978045693887016",
        "url": ""
    },
    {
        "title": "端午假期消费持续火热 文旅融合跑出“加速度”",
        "docid": "7379508566908027443",
        "url": ""
    },
    {
        "title": "传统文化引领文旅消费新潮：烟火气满满 文化味更浓",
        "docid": "7379581929626141236",
        "url": ""
    },
    {
        "title": "湖北恩施州建设世界级旅游目的地",
        "docid": "7379065267445350964",
        "url": ""
    },
    {
        "title": "浙江男子痴迷穷游，35年徒步拉车30万公里，59岁走到黑河人没了",
        "docid": "7347634664380760612",
        "url": ""
    },
    {
        "title": "老君山和泰山谁高？没可比性，一个胜在自然高度，一个赢在影响力",
        "docid": "7354773328115008026",
        "url": ""
    },
    {
        "title": "中国人被“来都来了”硬控的一生！",
        "docid": "7365003948585845300",
        "url": ""
    },
    {
        "title": "我当过老师，开5家餐馆，如今带家人旅居3年，不花钱还挣了30万",
        "docid": "7346985871431991848",
        "url": ""
    },
    {
        "title": "让你活得舒服的22个好习惯，别委屈自己",
        "docid": "7371493182376247843",
        "url": ""
    },
    {
        "title": "我，40+在新西兰重启人生下半场，带娃从奢入俭，从繁华到宁静",
        "docid": "7370883832439980581",
        "url": ""
    },
    {
        "title": "中俄免签后，黑河的早餐走向了国际化，网友却在评论区开始酸了！",
        "docid": "7376460156551152180",
        "url": ""
    },
    {
        "title": "自驾游各种户外做饭方式优缺点总结，东西都买了，坑都替你们踩了",
        "docid": "7370232640871236150",
        "url": ""
    },
    {
        "title": "多去旅行，少去旅游",
        "docid": "7362741937553850907",
        "url": ""
    },
    {
        "title": "一名43岁中国女性在希腊莱夫卡达岛滑翔伞事故不幸身亡",
        "docid": "7379496012437586466",
        "url": ""
    },
    {
        "title": "世界上唯一没有中国人的“国家”，无论是谁，只允许停留3个小时",
        "docid": "7379152702170759743",
        "url": ""
    },
    {
        "title": "中国人此生必驾，11条景观大道，穿草原，过峡谷！不走一次不甘心",
        "docid": "7360546066699158031",
        "url": ""
    },
    {
        "title": "川西环线自驾游最佳路线图",
        "docid": "7353279563890229770",
        "url": ""
    },
    {
        "title": "全世界最美的唯一人体草原，就在新疆！一个被上帝宠坏的地方！",
        "docid": "7378742918036652555",
        "url": ""
    },
    {
        "title": "老外144小时扎堆中国游，被古建筑彻底俘获，成外网最强嘴替！",
        "docid": "7379095491286319656",
        "url": ""
    },
    {
        "title": "剑门关景区全文背诵《蜀道难》免105元门票，工作人员：每人只有一次机会",
        "docid": "7355757267154698786",
        "url": ""
    },
    {
        "title": "五一高速服务区：晚上挤满露营搭帐篷的人，真是脑洞大开思想新奇",
        "docid": "7366007532235620916",
        "url": ""
    },
    {
        "title": "100年前杭州西湖长啥样？古朴又自然，却没什么游客",
        "docid": "7362774296197956096",
        "url": ""
    },
    {
        "title": "夏至“冰城”，究竟有几度？—— “尔滨”努力打造文旅“长红”",
        "docid": "7379519255320003084",
        "url": ""
    },
    {
        "title": "江苏扬州：瘦西湖春景如画",
        "docid": "7355057175758373428",
        "url": ""
    },
    {
        "title": "#ChinaTravel 成“流量密码”？外国人旅行中国后“开撕”西方媒体",
        "docid": "7379469224932098569",
        "url": ""
    },
    {
        "title": "董宇辉山西行第一站开启，被芮城永乐宫的讲解员张青老师惊艳到了",
        "docid": "7379511588677517839",
        "url": ""
    },
    {
        "title": "传统的自驾游已经过时了，现在流行这3种新潮的自驾游",
        "docid": "7353546756325376552",
        "url": ""
    },
    {
        "title": "全国多地官宣：即日起，免票！",
        "docid": "7379568440573198886",
        "url": ""
    },
    {
        "title": "我去了湛江，万万没想到湛江美景超多，我游了7个最具代表性景点",
        "docid": "7344867476372455988",
        "url": ""
    },
    {
        "title": "广东顺德有一条“网红街”，游客都去打卡，本地人却说不会去了？",
        "docid": "7363966511708373556",
        "url": ""
    },
    {
        "title": "我和老伴在深圳当了四个月的深圳人，有10点体会，分享给大家",
        "docid": "7356147031871717914",
        "url": ""
    },
    {
        "title": "新疆迎今夏首轮高温天气 特色沙疗产业带旺当地旅游经济",
        "docid": "7379485082878312987",
        "url": ""
    },
    {
        "title": "难怪说中原人能打天下!河南的徒步研学真是令人叹为观止,大受震撼",
        "docid": "7379455356994454056",
        "url": ""
    },
    {
        "title": "真人真事：娶了500多个老婆，生了800多个孩子，还高寿活到80岁",
        "docid": "7357195543405183525",
        "url": ""
    },
    {
        "title": "研学团徒步1040公里从河南走到甘肃，回应：参与者多为青少年，男生全程负重",
        "docid": "7379548238963048975",
        "url": ""
    },
    {
        "title": "中国车被赞爆！浙F绿牌车环游欧亚，在塞尔维亚“像回家”",
        "docid": "7367208881645175311",
        "url": ""
    },
    {
        "title": "中国“零差评”8个旅游景点，全部在山东，当地人热情不宰客！",
        "docid": "7378712401249632818",
        "url": ""
    },
    {
        "title": "女子徒步318川藏线，两次搭车均被要求同住，不敢下车怕激怒对方",
        "docid": "7379118669462356490",
        "url": ""
    },
    {
        "title": "太漂亮了，100年前的济南竟是这样，城墙很完整，老火车站还在",
        "docid": "7376210070731375115",
        "url": ""
    },
    {
        "title": "江苏有座名山，海拔只有55.2米，却被誉为“天下第一江山”！",
        "docid": "7357917952999473699",
        "url": ""
    },
    {
        "title": "北京最神秘的寺庙：与雍和宫齐名，比故宫难约，只在周末开放",
        "docid": "7356224687200092711",
        "url": ""
    },
    {
        "title": "十年骑车无人知，一朝吃货天下闻！这一刻骑车和不骑车的都沉默了",
        "docid": "7358845777597022731",
        "url": ""
    },
    {
        "title": "四川女子月入10万，几十台车找王婆说媒？平民舞台，别变名利场！",
        "docid": "7352043941954617883",
        "url": ""
    },
    {
        "title": "跟随董宇辉，打卡武当山，从早上九点爬到四点，差点死在武当山上",
        "docid": "7354338025859711538",
        "url": ""
    },
    {
        "title": "40年前，美国游客在北京参观故宫，拍摄了这组照片",
        "docid": "7358807223583326758",
        "url": ""
    },
    {
        "title": "武汉有国家级旅游度假区了，在这里",
        "docid": "7379800586285318682",
        "url": ""
    },
    {
        "title": "东北三省都一个样？错，仅黑龙江省就能分出至少四个人文圈",
        "docid": "7361705511714128434",
        "url": ""
    },
    {
        "title": "人这一辈子，一定要去一趟大连！",
        "docid": "7356395577141576207",
        "url": ""
    },
    {
        "title": "携程发布端午节出游报告 武汉客源主要来自这几个城市",
        "docid": "7378766258172510774",
        "url": ""
    },
    {
        "title": "河北的一个县，文物古迹1800多处，你去过吗？",
        "docid": "7357537310289805859",
        "url": ""
    },
    {
        "title": "从天津出发2小时高铁可以到达的城市旅游路线。",
        "docid": "7349187686378258944",
        "url": ""
    },
    {
        "title": "中国最美走廊，全长1000公里，甘肃自驾天花板，网友0差评！",
        "docid": "7369773362761761314",
        "url": ""
    },
    {
        "title": "西安旅行五天，一共去了13个景点，说一些个人看法，都是真实感受",
        "docid": "7376641600136446515",
        "url": ""
    },
    {
        "title": "同程旅行端午数据：长沙入围热门酒店预订目的地前十",
        "docid": "7378833175373546047",
        "url": ""
    },
    {
        "title": "危险！四川瓦屋山景区有游客被落石砸中！细节已曝光！评论区沦陷",
        "docid": "7379757186039284265",
        "url": ""
    },
    {
        "title": "两骑友想穿过隧道走近路，没想到火车迎面开过来",
        "docid": "7373985530897236543",
        "url": ""
    },
    {
        "title": "河南文旅赢麻了！董宇辉的与辉同行阅山河，最后一站开封上大招了",
        "docid": "7363271783875641890",
        "url": ""
    },
    {
        "title": "旅游 | 董宇辉山西运城首探～永乐宫壁画惊艳，文化之旅再燃激情。",
        "docid": "7379597944162484748",
        "url": ""
    },
    {
        "title": "悲剧！年轻女孩独自徒步意外死亡 原因曝光 评论炸锅：无知太可怕了",
        "docid": "7378816219095024154",
        "url": ""
    },
    {
        "title": "文旅新探|走进吐鲁番博物馆 探寻丝路文化",
        "docid": "7368690542655439400",
        "url": ""
    },
    {
        "title": "江西景德镇：“陶瓷龙舟” 栩栩如生",
        "docid": "7378755758873133587",
        "url": ""
    },
    {
        "title": "火了火了！呼和浩特的这些巷（hàng）子你还没去？",
        "docid": "7379438386664292901",
        "url": ""
    },
    {
        "title": "美国姐妹花来中国旅游，家人担心不安全，临走前:中国让人意外",
        "docid": "7352000469273051689",
        "url": ""
    },
    {
        "title": "有没有特别值得推荐的冷门城市？看看网友们怎么说！推荐的都不错",
        "docid": "7347192084610302516",
        "url": ""
    },
    {
        "title": "三次走进沈从文笔下的“边城”，回回都有不一样的感受",
        "docid": "7365360639897846284",
        "url": ""
    },
    {
        "title": "今天我去了百里杜鹃金坡景区，没有我想象的那么震撼，有点失望。",
        "docid": "7356990123856134696",
        "url": ""
    },
    {
        "title": "三省交界的陕南秘境小城，藏着超多“神级”风景！3天2晚攻略来了",
        "docid": "7362386689396032012",
        "url": ""
    },
    {
        "title": "一个人在昆明住了4天5晚，和大家聊聊真实感受，附自由行旅游攻略",
        "docid": "7350492563088671247",
        "url": ""
    },
    {
        "title": "我为什么说海上游轮不值得去。",
        "docid": "7370576416565428776",
        "url": ""
    },
    {
        "title": "夏日敦煌旅游人气旺",
        "docid": "7377757294786642442",
        "url": ""
    },
    {
        "title": "Zoo walk流行，逛动物园是在“逛”什么？",
        "docid": "7376431616111018531",
        "url": ""
    },
    {
        "title": "湖南“特种兵”母女6年爬山100座",
        "docid": "7357728486993265204",
        "url": ""
    },
    {
        "title": "中国10大仙境 去过一个便是人间值得，你们去过几个。",
        "docid": "7361112328617738779",
        "url": ""
    },
    {
        "title": "世界上最荒凉的首都：耗资40亿却无人愿意居住，街上空荡荡像鬼城",
        "docid": "7364280097576256036",
        "url": ""
    },
    {
        "title": "山西行鹳雀楼，面食大姐出圈了，笑谈间给董宇辉做一碗女婿面",
        "docid": "7379569467266794003",
        "url": ""
    },
    {
        "title": "人鬼不识太原城折腾来折腾去就折腾出这么一个城门楼子吗？",
        "docid": "7378958623713575439",
        "url": ""
    },
    {
        "title": "瞰中国｜河北涞源：雨后白石山云海如画",
        "docid": "7379178529423884840",
        "url": ""
    },
    {
        "title": "山东文旅大玩谐音梗，16 地市全部“躺枪”，山东网友无言以对",
        "docid": "7377312266124870207",
        "url": ""
    },
    {
        "title": "长春历史上第一座公园——胜利公园： 自然风光与历史文化有机结合 地铁口的打卡地",
        "docid": "7379625391364866570",
        "url": ""
    },
    {
        "title": "万千气象看云南｜“走不出云南的旅行博主”现场推介“什么是云南”",
        "docid": "7352451136034652687",
        "url": ""
    },
    {
        "title": "山东男子潜水发现11个罐子，我却笑死在了评论区！",
        "docid": "7379621536698794496",
        "url": ""
    },
    {
        "title": "去云南玩了7天，有些话不吐不快，终于见识到云南人的素质！",
        "docid": "7346145408969736740",
        "url": ""
    },
    {
        "title": "为何总统房一晚以万为单位？5项“隐形服务”，一般游客没体验过",
        "docid": "7379527823712584207",
        "url": ""
    },
    {
        "title": "全中国\"绝妙\"的7大胜景，绝美如画！一生一定要感受一次！",
        "docid": "7379757599526371855",
        "url": ""
    },
    {
        "title": "随着外国游客的逐步暴增，中国正在成为世界的旅游“圣”地",
        "docid": "7379428996007641626",
        "url": ""
    },
    {
        "title": "来华旅游人数猛增！老外回国后现身说法：中国比想象中发达得多",
        "docid": "7379794012309406217",
        "url": ""
    },
    {
        "title": "智利：喝不完的红酒、吃不完的果；挖不完的铜矿、捕不完的鱼",
        "docid": "7352040938279092736",
        "url": ""
    },
    {
        "title": "“我的阿勒泰”客流高峰到来 哈巴河开启“宠粉”模式",
        "docid": "7379166194881790515",
        "url": ""
    },
    {
        "title": "西安大隐于市的皇家寺院，无门票，公交直达，不少老西安不知道",
        "docid": "7377028631992566298",
        "url": ""
    },
    {
        "title": "苏州古镇老街排行榜（建议收藏）",
        "docid": "7351752204489196059",
        "url": ""
    },
    {
        "title": "盘点中国5A景区风景20强",
        "docid": "7357316813866271244",
        "url": ""
    },
    {
        "title": "新疆旅游的正确打开方式：时间、路线、南北疆，一篇搞懂！",
        "docid": "7365282491978039843",
        "url": ""
    },
    {
        "title": "西昌很美，不会有下次了",
        "docid": "7350561997940916746",
        "url": ""
    },
    {
        "title": "盘点广西区内不服地级市“大哥”管的县级“小弟”，来宾最惨",
        "docid": "7360698926917304869",
        "url": ""
    },
    {
        "title": "为什么在新疆旅行时，遇到最多的是广东人？新疆旅行很多次后发现",
        "docid": "7379527075265036854",
        "url": ""
    },
    {
        "title": "第一次去甘肃，一定要打卡的十个地方",
        "docid": "7360623512853152291",
        "url": ""
    },
    {
        "title": "我亲自去了陕西咸阳礼泉县的袁家村，说实话，这次的体验真的失望",
        "docid": "7365331450754793994",
        "url": ""
    },
    {
        "title": "我69岁，上周与初恋出游，第二天我们默契“分手”，从此江湖不见",
        "docid": "7375562869624029730",
        "url": ""
    },
    {
        "title": "我是北方人，对遥远的浙江有6点疑问，一直希望有人解答",
        "docid": "7373889414370345483",
        "url": ""
    },
    {
        "title": "网友建议西柏坡，嶂石岩等景区应取消摆渡车 官方回复！",
        "docid": "7379117343286444556",
        "url": ""
    },
    {
        "title": "这才是中国最美公路No.1，比318美比独库传奇，走一次够吹牛一生",
        "docid": "7376174222336377359",
        "url": ""
    },
    {
        "title": "我国有哪些“一线天”景区？这10个“一线天”，你觉得哪个最美？",
        "docid": "7365027420543402548",
        "url": ""
    },
    {
        "title": "暴赚530亿！144小时中国游，震碎老外三观",
        "docid": "7379875070870749732",
        "url": ""
    },
    {
        "title": "浙江“被低估”的千年古城，媲美大理古城，杭州出发高铁40min",
        "docid": "7376663126152659508",
        "url": ""
    },
    {
        "title": "泰国现状，夜晚活力与法律的约束，真实的泰国是怎样的？",
        "docid": "7353865118666703400",
        "url": ""
    },
    {
        "title": "天水交警“毫无底线”！游客旅游没位置停车，交警：我把警车挪开",
        "docid": "7351245250561802787",
        "url": ""
    },
    {
        "title": "武汉青山红钢城的俄罗斯方块建筑越来越少了，红砖三层楼房成历史",
        "docid": "7378893789072491008",
        "url": ""
    },
    {
        "title": "深圳网红公园上新，就在这个区，网友直呼“太好出片了”",
        "docid": "7379697347636232767",
        "url": ""
    },
    {
        "title": "中国最美15大山水景区，去过10个那真的人间值得，你去过几个",
        "docid": "7355040367697248778",
        "url": ""
    },
    {
        "title": "原以为山西2线远超江西2线，到过太原和南昌后，真是大感意外！",
        "docid": "7379415412766802473",
        "url": ""
    },
    {
        "title": "日本加大入境审查，有游客下飞机后直接被遣返，网友评论亮了",
        "docid": "7379516404771095059",
        "url": ""
    },
    {
        "title": "有多少人想移民中国？来自印度女孩的直言，如果可以想马上过来！",
        "docid": "7372516120089182720",
        "url": ""
    },
    {
        "title": "65岁前，一定要去的中国这15个5A景区，去过10个人间值得",
        "docid": "7353586878669226523",
        "url": ""
    },
    {
        "title": "中国这 3 座城市正在崛起，有望比肩北上广深，成为国际大都市！",
        "docid": "7363868087302799882",
        "url": ""
    },
    {
        "title": "为何现在很少酒店查房了，真不怕顾客“乱来”？酒店前台说实话",
        "docid": "7369518483949781545",
        "url": ""
    },
    {
        "title": "这样的济南森林公园你见过吗？简直美爆了",
        "docid": "7364282348709429811",
        "url": ""
    },
    {
        "title": "穿古装游古城 荆州“战国袍”撬动古城“热经济”",
        "docid": "7379827097117753894",
        "url": ""
    },
    {
        "title": "此生必驾318，开到一半想回家，盘点318沿途景点",
        "docid": "7368410706275811877",
        "url": ""
    },
    {
        "title": "周知！陕西多家景区发布免门票通知",
        "docid": "7378036231350370850",
        "url": ""
    },
    {
        "title": "即使赔款900万卢布也要收复，伊犁河谷对于中国到底意味着什么？",
        "docid": "7372143561053176354",
        "url": ""
    },
    {
        "title": "40℃成片！多地突破极值！上海竟成“避暑圣地”",
        "docid": "7379771812198007315",
        "url": ""
    },
    {
        "title": "有哪些是你去了安徽才知道的事情?网友：骑车跨省去安徽偷老母鸡",
        "docid": "7379833953354318345",
        "url": ""
    },
    {
        "title": "天津的海边公园怎么选？终于有人说清了",
        "docid": "7362714769847075391",
        "url": ""
    },
    {
        "title": "22岁女生独自5天爬五岳，3300元完成特种兵式打卡",
        "docid": "7365481142772974099",
        "url": ""
    },
    {
        "title": "商家笑麻了！河南之行，董宇辉是如何插入手机广告的？网友：丝滑",
        "docid": "7361738626667250227",
        "url": ""
    },
    {
        "title": "女子徒步318川藏线，两度搭车均被要求同住，不敢下车怕激怒对方",
        "docid": "7379842608807281161",
        "url": ""
    },
    {
        "title": "2.17亿！鄂州超热！",
        "docid": "7379171015739392575",
        "url": ""
    },
    {
        "title": "“天山号”旅游列车今日启程",
        "docid": "7366158916327277090",
        "url": ""
    },
    {
        "title": "天堂寨风景区：千里大别山，醉美天堂寨",
        "docid": "7354616284660826650",
        "url": ""
    },
    {
        "title": "追繁花 | 踏青红叶谷，春日里的浪漫诗篇",
        "docid": "7358297939900367397",
        "url": ""
    },
    {
        "title": "网红城市哈尔滨打造江上演出吸引游客",
        "docid": "7379883608779096603",
        "url": ""
    },
    {
        "title": "来华旅游人数猛增！老外回国后现身说法：中国比想象中发达得多",
        "docid": "7379850017248494090",
        "url": ""
    },
    {
        "title": "海南最值得去的7个AAAAA级景区，去过3个算合格，你去过几个",
        "docid": "7361380096600572454",
        "url": ""
    },
    {
        "title": "这条环岛路，选一种方式来自驾！",
        "docid": "7379605628894986767",
        "url": ""
    },
    {
        "title": "多地宣布：免费！这个证一定要收好~",
        "docid": "7379195854596489728",
        "url": ""
    },
    {
        "title": "中国最“长”的省，横跨2400公里，相当于12个韩国，3个日本",
        "docid": "7347565622840050203",
        "url": ""
    },
    {
        "title": "避暑季 “趣”保康！夏日里，这些“宝藏线路”，承包你所有快乐",
        "docid": "7378865257948938804",
        "url": ""
    },
    {
        "title": "\"视觉盛宴！从未见过的北京天空之美，美得令人窒息！\"",
        "docid": "7379715861755560502",
        "url": ""
    },
    {
        "title": "山西晋城最适合游玩的六处地方，古迹多，门票不贵，花费少玩得好",
        "docid": "7358373117028467238",
        "url": ""
    },
    {
        "title": "苏州8个免费园林，0元打卡，人少景美又免费，赶快收藏！",
        "docid": "7362466732725846563",
        "url": ""
    },
    {
        "title": "以为宏村够美了，直到我去了这个高铁直达的小众免费古村落！！",
        "docid": "7379128690624250408",
        "url": ""
    },
    {
        "title": "游客在内蒙古旅游抽中一匹价值2万元的马，景区：已派车送马，无饲养条件也可折现领奖",
        "docid": "7379862734818624015",
        "url": ""
    },
    {
        "title": "央视曝光厦门鼓浪屿宰客一条龙，“灰色产业链”由来已久",
        "docid": "7377972181403304500",
        "url": ""
    },
    {
        "title": "仰望U8西藏回来，分享4个缺点和4个优点！",
        "docid": "7373306489022333480",
        "url": ""
    },
    {
        "title": "北京网友发出警告：千万不要去河北，否则会患上河北后遗症",
        "docid": "7379444631026729484",
        "url": ""
    },
    {
        "title": "四川通江，一个藏在大巴山深处的古镇，外界基本无人知晓",
        "docid": "7350221502756913703",
        "url": ""
    },
    {
        "title": "秦岭腹地这小城里就适合发呆：除了一条老街，只剩下青山绿水",
        "docid": "7371356047547695654",
        "url": ""
    },
    {
        "title": "苏州最有价值的地方在哪里？",
        "docid": "7376588316633809442",
        "url": ""
    },
    {
        "title": "我，80后，老婆带3岁儿子和情夫开房，我崩溃想自杀，靠骑行治愈",
        "docid": "7373135475470615077",
        "url": ""
    },
    {
        "title": "26岁甘肃小伙从海南出发徒步4100公里回到老家：历时194天，直播收入3万多元",
        "docid": "7376939040031801895",
        "url": ""
    },
    {
        "title": "马来西亚版“一国两制”：西马人去东马，甚至还要带护照？",
        "docid": "7374194270992925218",
        "url": ""
    },
    {
        "title": "高考结束，来丽水毕业旅行吧",
        "docid": "7379889100351914496",
        "url": ""
    },
    {
        "title": "假如你只在澳门玩1天❗建议直接抄作业❗",
        "docid": "7369780379240202764",
        "url": ""
    },
    {
        "title": "中国最有文化意义的10个古镇，全部在南方，一生一定要去一次！",
        "docid": "7379594521430770211",
        "url": ""
    },
    {
        "title": "文旅部确定新一批国家级旅游度假区",
        "docid": "7379594195800949298",
        "url": ""
    },
    {
        "title": "我国唯一一座什么都免费城市，人口2300设8座机场，外国人进不来",
        "docid": "7368431212886606371",
        "url": ""
    },
    {
        "title": "去了6次重庆，终于把重庆旅游玩的透透的，盘点公认零差评的景点",
        "docid": "7358357290225140278",
        "url": ""
    },
    {
        "title": "采摘、戏水、露营、烧烤……今年夏天建议你去这里",
        "docid": "7379793469478339112",
        "url": ""
    },
    {
        "title": "在美国的孤独与寂寞",
        "docid": "7355491266018181684",
        "url": ""
    },
    {
        "title": "江汉路步行街，今昔两重天",
        "docid": "7378891272724939299",
        "url": ""
    },
    {
        "title": "荷兰“重口味”博物馆，内部人体结构逼真，6岁以下禁止进入",
        "docid": "7374704333205635636",
        "url": ""
    },
    {
        "title": "“江南第一村”呈坎：天然八卦布局，静谧如画，相传去后一生无坎",
        "docid": "7351351454642504226",
        "url": ""
    },
    {
        "title": "西安今天究竟有多热？多个地标位置的地表温度爆表",
        "docid": "7379179190429499954",
        "url": ""
    },
    {
        "title": "国外兴起全裸度假村？男女同场不穿衣服狂欢，网友：有点反胃",
        "docid": "7379807119014511156",
        "url": ""
    },
    {
        "title": "女子徒步318川藏线，两度搭车均被要求同住，不敢下车怕激怒对方",
        "docid": "7379848767123505698",
        "url": ""
    },
    {
        "title": "28张图看世界：塞萨洛尼基的夜景像地狱之城，乌云压顶的沙皇祭坛",
        "docid": "7379859684087398923",
        "url": ""
    },
    {
        "title": "全国第六、山西第一！云冈石窟上榜！",
        "docid": "7379791639663936027",
        "url": ""
    },
    {
        "title": "突发惨剧！四川瓦屋山景区滚石砸中1女子，当场身亡，惨不忍睹！",
        "docid": "7379804381199254056",
        "url": ""
    },
    {
        "title": "英国人卖房全家游中国三个月，抵韩后画风突变开启人在囧途模式？",
        "docid": "7379918377529147904",
        "url": ""
    },
    {
        "title": "重庆大山里发现50公里洞穴，洞内藏着世界最长暗河，出口直通湖北",
        "docid": "7365409827726623244",
        "url": ""
    },
    {
        "title": "此景，美得已让人穿越！",
        "docid": "7352143886581498378",
        "url": ""
    },
    {
        "title": "虎丘｜绿意蔓延",
        "docid": "7379806673608737307",
        "url": ""
    },
    {
        "title": "沙湖公园第十届荷花展6月14日开幕！500余种、3000余盆精品荷迎接市民观赏",
        "docid": "7379919543390470656",
        "url": ""
    },
    {
        "title": "走！去谷城金牛寺村露营去",
        "docid": "7378865550920876559",
        "url": ""
    },
    {
        "title": "广东雷州最美9大中国传统村落，这里藏着秀丽古韵风光",
        "docid": "7344406828316672538",
        "url": ""
    },
    {
        "title": "“仙境”还是“险境”？野游不可任性丨人民锐见",
        "docid": "7379217523633357321",
        "url": ""
    },
    {
        "title": "中国旅游热潮涌动，外国游客亲身体验：中国远超想象",
        "docid": "7379824151810425383",
        "url": ""
    },
    {
        "title": "请教已经爬了超过5次老君山的狠人，做的攻略超详细",
        "docid": "7355794219145740837",
        "url": ""
    },
    {
        "title": "考古遗址变身公园，换一种方式打开历史",
        "docid": "7379770994732433961",
        "url": ""
    },
    {
        "title": "组图丨张家界大峡谷：天空之镜 云端漫步",
        "docid": "7379583147463180850",
        "url": ""
    },
    {
        "title": "我在荷兰生活了6个月，说几句可能很多人不爱听的大实话",
        "docid": "7379641225541927434",
        "url": ""
    },
    {
        "title": "太壕了！中国小伙目睹真实非洲：住宿淡季4000一晚，路边全是豪车",
        "docid": "7379916823329833512",
        "url": ""
    },
    {
        "title": "陕西安康小县城，地广人稀县城只有两万人，风景秀丽好有烟火气",
        "docid": "7360296359876133388",
        "url": ""
    },
    {
        "title": "中国最美的16大风景，去过2个不简单，去过5个就太幸福了",
        "docid": "7356033780765196834",
        "url": ""
    },
    {
        "title": "山西的5A级景区，哪些最值得一去？哪些又不值得去看呢？",
        "docid": "7353538847927534132",
        "url": ""
    },
    {
        "title": "即将开园！江夏又一旅游乐园要来啦",
        "docid": "7379804096506659338",
        "url": ""
    },
    {
        "title": "中美青年交流架起“未来之桥”",
        "docid": "7379239087972106767",
        "url": ""
    },
    {
        "title": "非洲富裕小岛国：建国仅32年，美女如云风光绝美，对中国游客免签",
        "docid": "7361016934266143247",
        "url": ""
    },
    {
        "title": "来苏州寒山寺需要知道的冷知识",
        "docid": "7347936792655741459",
        "url": ""
    },
    {
        "title": "东北人在成都、重庆、武汉游玩半个月，纵观城建水平浅谈我的感受",
        "docid": "7378136534945366565",
        "url": ""
    },
    {
        "title": "多景区宣布：高考生免费！",
        "docid": "7379037904602923520",
        "url": ""
    },
    {
        "title": "游客内蒙旅游抽中价值2万蒙古马 景区：送到家",
        "docid": "7379534615219454479",
        "url": ""
    },
    {
        "title": "我，985硕士，放弃铁饭碗到澳洲当保洁，月薪一两万却感觉很值得",
        "docid": "7349480741439341067",
        "url": ""
    },
    {
        "title": "爬泰山的人嘴有多硬？工作人员：门票100，你现在大概爬了5元",
        "docid": "7353456643713073664",
        "url": ""
    },
    {
        "title": "郑州首个“国家级旅游度假区”诞生 看它如何玩转“文旅+”",
        "docid": "7379835382709420595",
        "url": ""
    },
    {
        "title": "“夜经济”激发文旅新活力",
        "docid": "7379506609942184489",
        "url": ""
    },
    {
        "title": "笑疯了！去阿勒泰旅游的人，膀胱都快炸了，厕所更加炸裂！",
        "docid": "7373618637762003483",
        "url": ""
    },
    {
        "title": "美国人第一次来中国......“完全不是我们所期望的”",
        "docid": "7379826706418336297",
        "url": ""
    },
    {
        "title": "万万没想到，端午节粽子没火，老外扎堆各大景点却成了头条",
        "docid": "7379932952433525263",
        "url": ""
    },
    {
        "title": "如果不差钱，退休前一定要来这3座城市逛逛，要不然这辈子白活了",
        "docid": "7375474944060277299",
        "url": ""
    },
    {
        "title": "河南一“翻新”失败的景区，风景不输张家界，改名后却无人问津",
        "docid": "7376944337063657996",
        "url": ""
    },
    {
        "title": "最适合让父母养老的几个城市，冬天可达30°C，物价低，景色美",
        "docid": "7347620782320796212",
        "url": ""
    },
    {
        "title": "刚从台湾回来，告诉你一个真实的台湾省，不要相信别人说的了",
        "docid": "7379875126085190198",
        "url": ""
    },
    {
        "title": "荷兰露天厕所，是更开放了吗？是文化差异还是人类文明倒退了？",
        "docid": "7379909190468370971",
        "url": ""
    },
    {
        "title": "人这一辈子，一定要去一趟昆明！",
        "docid": "7351967026074042915",
        "url": ""
    },
    {
        "title": "开封清明上河园：一朝入画，梦回千年",
        "docid": "7379848209201529378",
        "url": ""
    },
    {
        "title": "高温下的避暑胜地 西安郊区有片“绿野仙踪”",
        "docid": "7379532386301788681",
        "url": ""
    },
    {
        "title": "我和老伴在深圳旅居4个月零5天，总共花了多少钱，分享给大家",
        "docid": "7353074046914806309",
        "url": ""
    },
    {
        "title": "湖北唯一上榜！黄陂木兰湖获批国家级旅游度假区",
        "docid": "7379979888406708776",
        "url": ""
    },
    {
        "title": "退休前必去的20个AAAAA级景区，去过10个不枉此生，你去过几个？",
        "docid": "7355109032031420940",
        "url": ""
    },
    {
        "title": "中国15大旅游风景，去过3个不简单，去过6个就太幸福了",
        "docid": "7359582194958025216",
        "url": ""
    },
    {
        "title": "立方快评 | 多地景区取消预约，限流不该只有预约这一种方式",
        "docid": "7379794981994725898",
        "url": ""
    },
    {
        "title": "我在新疆自驾游42天，南疆北疆行程15000公里，谈谈我的所见所闻",
        "docid": "7370247325773513226",
        "url": ""
    },
    {
        "title": "焦作云台山景区免票政策，这10类人员免门票",
        "docid": "7353503696216637992",
        "url": ""
    },
    {
        "title": "从广西坐火车去北京，需要多少钱？最便宜的才200多！",
        "docid": "7366521963592221238",
        "url": ""
    },
    {
        "title": "去江苏扬州瘦西湖旅游回来后，看看我对瘦西湖的总结",
        "docid": "7350289949243408923",
        "url": ""
    },
    {
        "title": "贵州铜仁值得一去的六大景点！",
        "docid": "7348313176205591076",
        "url": ""
    },
    {
        "title": "长江边水位下降后惊现“石头阵”，整齐壮观，是什么人摆放的？",
        "docid": "7379254365007168037",
        "url": ""
    },
    {
        "title": "一生至少要去一次的中国最美古镇，这6个全部去过，人生完美！",
        "docid": "7377699042496922152",
        "url": ""
    },
    {
        "title": "中国唯一3000年没改名的古都！曾是北方第一，却有100万人",
        "docid": "7379941261450510867",
        "url": ""
    },
    {
        "title": "真不是江西，就在广东，小众旅游地，不过风景很美",
        "docid": "7369256310184362550",
        "url": ""
    },
    {
        "title": "合肥周边两天一夜就去这里—值得N刷、景美人少",
        "docid": "7356425109529215522",
        "url": ""
    },
    {
        "title": "世界最大城市之一，建成区面积超过许多国家，总面积接近13个上海",
        "docid": "7374698851049030144",
        "url": ""
    },
    {
        "title": "俄罗斯一位男子钓鱼时，走来一只熊，却很有礼貌坐在一边看钓鱼！",
        "docid": "7364712936097382952",
        "url": ""
    },
    {
        "title": "密密麻麻全是人！全国人民这是要来攻打哈尔滨吗？肩膀都摩擦肿了",
        "docid": "7364355955259163187",
        "url": ""
    },
    {
        "title": "“老网红”稻城亚丁，到底值不值得去？",
        "docid": "7353971133089923599",
        "url": ""
    },
    {
        "title": "新加坡又被游客吐槽了！厕所、公园、商场到处都是nonono",
        "docid": "7379900188309127743",
        "url": ""
    },
    {
        "title": "深中通道开通后，深圳人周末到中山游玩，哪些景点最好玩？",
        "docid": "7378465305343689227",
        "url": ""
    },
    {
        "title": "畅游长江，武汉15艘游船等你来玩",
        "docid": "7379974630464930331",
        "url": ""
    },
    {
        "title": "徽州天路，比皖南川藏线更美更刺激！",
        "docid": "7357324435252118035",
        "url": ""
    },
    {
        "title": "“公路＋旅游”扮靓美好生活",
        "docid": "7379787406314177033",
        "url": ""
    },
    {
        "title": "触手可及的大草原，托乎拉苏大草原(精伊牧道)",
        "docid": "7379645800940323364",
        "url": ""
    },
    {
        "title": "广州冼村原居民，整整坚持了14年，房子的周围，都已经被挖空了",
        "docid": "7359008780157190691",
        "url": ""
    }
]