[
    {
        "title": "剑门关景区全文背诵《蜀道难》免105元门票，工作人员：每人只有一次机会",
        "docid": "7355757267154698786",
        "url": ""
    },
    {
        "title": "成都这个免费5A景区，还有人不知道？民国风满满，再忙也要去一次",
        "docid": "7367638936564548111",
        "url": ""
    },
    {
        "title": "西山岛：中国内湖最大岛屿，很多江苏人都不知道",
        "docid": "7344281131031986722",
        "url": ""
    },
    {
        "title": "山西的5A级景区，哪些最值得一去？哪些又不值得去看呢？",
        "docid": "7353538847927534132",
        "url": ""
    },
    {
        "title": "半价、免票！明日武汉这些景区对女士、医护人员有优惠",
        "docid": "7367713940787151387",
        "url": ""
    },
    {
        "title": "江夏这条“花路”，美得正当时",
        "docid": "7367563694277935628",
        "url": ""
    },
    {
        "title": "我河南人，刚去盐城出差了几天，对盐城有6个疑问，实在想不明白",
        "docid": "7366832191395004928",
        "url": ""
    },
    {
        "title": "浙江省10个免费4A/5A景区，不去白不去！",
        "docid": "7338750841694667327",
        "url": ""
    },
    {
        "title": "千奇百怪，大开眼界！云南菜市场的蔬菜，你认识一半，算我输",
        "docid": "7342107192620941862",
        "url": ""
    },
    {
        "title": "大家发没发现？哈尔滨本地人有五种习惯，让外地人很难接受",
        "docid": "7366822293647147520",
        "url": ""
    },
    {
        "title": "终于有人把广州旅游攻略全部整理出来了",
        "docid": "7340511424885572106",
        "url": ""
    },
    {
        "title": "青年发现｜走，到户外徒步去！",
        "docid": "7367232923193442868",
        "url": ""
    },
    {
        "title": "刚从广东湛江回来含泪总结的攻略教训，去湛江旅游看这一篇就GO了",
        "docid": "7341689388398936585",
        "url": ""
    },
    {
        "title": "西双版纳景洪市泼水节主战场-泼水广场重头戏，十万大军盛况空前",
        "docid": "7357329795744694835",
        "url": ""
    },
    {
        "title": "重庆包租婆晒晚餐走红，评论区火了，网友：有钱的人都是这样吗",
        "docid": "7367560768987693608",
        "url": ""
    },
    {
        "title": "西藏国道318上的驾驶难题：遇见这种情况怎么让？",
        "docid": "7351932258355413556",
        "url": ""
    },
    {
        "title": "好壮观，重庆景区半夜被游客挤爆，网友：这是来攻打洪崖洞吗？",
        "docid": "7363734438049530406",
        "url": ""
    },
    {
        "title": "上海海洋大学首次举办国潮文化节",
        "docid": "7367703747956785714",
        "url": ""
    },
    {
        "title": "信阳也将有自己的古城了！新建的罗山古城挹秀门已初露容颜",
        "docid": "7343905209716113920",
        "url": ""
    },
    {
        "title": "初夏去哪玩？不如一起来采摘樱桃吧！",
        "docid": "7367556217390023180",
        "url": ""
    },
    {
        "title": "黑龙江漠河再现北极光美景",
        "docid": "7367657334481158693",
        "url": ""
    },
    {
        "title": "洋浦古盐田：不守公德的女游客",
        "docid": "7336447926874735116",
        "url": ""
    },
    {
        "title": "带干娘夜游木兰不夜城~#开封王婆到武汉木兰不夜城了",
        "docid": "7367579584444924442",
        "url": ""
    },
    {
        "title": "新建的凌波门栈桥，整体格局和以前一模一样，还原了历史建筑。",
        "docid": "7356188530747376138",
        "url": ""
    },
    {
        "title": "贵州水城落水洞水坝，已烂尾多年，仿佛时间按下了暂停键",
        "docid": "7343083596918063625",
        "url": ""
    },
    {
        "title": "中国最宜居的内地城市前十排名：1、苏州2、成都3、杭州",
        "docid": "7367456363368301068",
        "url": ""
    },
    {
        "title": "今年“5.1”不一般，三大反常现象相继出现，令人不得不深思",
        "docid": "7367577398709109283",
        "url": ""
    },
    {
        "title": "法国美女来中国旅行，被景区游客塞土特产，感慨中国人太热情了",
        "docid": "7365450565943427595",
        "url": ""
    },
    {
        "title": "不被认为是旅游城市的武汉为何人挤人？这些原因很关键",
        "docid": "7365316975952593458",
        "url": ""
    },
    {
        "title": "越闹越大！专家建议不要买低价票，网友：为何不在源头解决问题！",
        "docid": "7367746506650092059",
        "url": ""
    },
    {
        "title": "5·19中国旅游日 | 咸阳景区惠民措施来了",
        "docid": "7367613117703930394",
        "url": ""
    },
    {
        "title": "一关镇滇黔——贵州镇远",
        "docid": "7366873265195844096",
        "url": ""
    },
    {
        "title": "西湖边共享电瓶车火了！这股风能刮回杭州核心城区吗",
        "docid": "7367685852242018842",
        "url": ""
    },
    {
        "title": "带娃爬武功山的家长有多崩溃？纷纷吐槽后悔！评论区要笑疯了",
        "docid": "7365109691346600457",
        "url": ""
    },
    {
        "title": "武汉植物园母亲节推出“绣球赠市民”活动，市民入园拍照打卡可领，每天限量500盆",
        "docid": "7367565160703083027",
        "url": ""
    },
    {
        "title": "车随人走，人玩车停！“坐着火车游新疆”是啥体验？",
        "docid": "7367237568552927744",
        "url": ""
    },
    {
        "title": "我自驾五百多公里，满心欢喜的去看映山红，结果看到的景色是这样",
        "docid": "7367009029925847604",
        "url": ""
    },
    {
        "title": "发明318的人真是个天才！留给后人进藏的方式已经不多了！",
        "docid": "7360936226989605412",
        "url": ""
    },
    {
        "title": "美国女友来中国旅游，回国后哭了2天，坦言美国与中国差距太大！",
        "docid": "7367546383424815652",
        "url": ""
    },
    {
        "title": "黑人美女来中国旅游，路过警察本能想躲，事后感叹中国真是和平",
        "docid": "7351621470373544511",
        "url": ""
    },
    {
        "title": "上海独生女嫁巴勒斯坦小伙，婚后生5个儿子，住300万别墅到处旅游",
        "docid": "7366521768716010024",
        "url": ""
    },
    {
        "title": "作为一个南京人，我崩溃了",
        "docid": "7352857400833131027",
        "url": ""
    },
    {
        "title": "闯入舟山“莫奈花园”，邂逅浪漫“天花板”",
        "docid": "7367656711299039771",
        "url": ""
    },
    {
        "title": "博主进藏旅游捡垃圾走红网络，国民的悲哀！这一点真该学学日本",
        "docid": "7367556939246649866",
        "url": ""
    },
    {
        "title": "可看！可拿？武汉植物园帮你把母亲节安排得妥妥的～",
        "docid": "7367586584998330932",
        "url": ""
    },
    {
        "title": "云南人口流出最多的10个县区，第一名流出37.1万人，堪比一个县",
        "docid": "7356250219413013007",
        "url": ""
    },
    {
        "title": "中国舞狮外国表演，英国伦敦万人看舞狮高桩醒狮表演惊艳外国人。",
        "docid": "7339383320197005875",
        "url": ""
    },
    {
        "title": "我当过老师，开5家餐馆，如今带家人旅居3年，不花钱还挣了30万",
        "docid": "7346985871431991848",
        "url": ""
    },
    {
        "title": "实拍深圳东门步行街，老外也慕名而来，这位网红歌手很有实力",
        "docid": "7351678110296703551",
        "url": ""
    },
    {
        "title": "2024年5A景区热度百强出炉：陕西上榜8个",
        "docid": "7366870744041079308",
        "url": ""
    },
    {
        "title": "下次旅游可以这样发朋友圈[哇] ​​​",
        "docid": "7365844174278722100",
        "url": ""
    },
    {
        "title": "吐槽：苏州的一处伤疤 石路商圈的一大败笔",
        "docid": "7364393134844887591",
        "url": ""
    },
    {
        "title": "宇辉效应！订单增速超北上广，5天央视报道60次，河南文旅赢麻了",
        "docid": "7365707976318943755",
        "url": ""
    },
    {
        "title": "江夏灵山：乱石矿坑蝶变汉版“稻城亚丁”",
        "docid": "7367622833507320335",
        "url": ""
    },
    {
        "title": "日本推出厕所旅游，外国游客看了：我好幸福！",
        "docid": "7367668944448029196",
        "url": ""
    },
    {
        "title": "当护士节遇上母亲节，襄阳景区优惠来啦！",
        "docid": "7367644950743515682",
        "url": ""
    },
    {
        "title": "“去有风的地方” 发现小城",
        "docid": "7367554573768524324",
        "url": ""
    },
    {
        "title": "梦回千年入画卷，白马山小学研学团打卡开封清明上河园",
        "docid": "7367546660970381887",
        "url": ""
    },
    {
        "title": "女子山东旅游发现洗手台很高 抬头就剩个脑袋 我却笑死在评论区!",
        "docid": "7367578868883931688",
        "url": ""
    },
    {
        "title": "河南投资50亿打造的公园：成为地标被誉为“郑州之光”",
        "docid": "7359357855671157288",
        "url": ""
    },
    {
        "title": "纪录片：美国费城肯辛顿僵尸街：贫民窟女性悲惨生活，毫无隐私",
        "docid": "7342139772619457078",
        "url": ""
    },
    {
        "title": "南宁自然风光秀丽，是一个宜居有魅力的城市",
        "docid": "7366785474284880435",
        "url": ""
    },
    {
        "title": "二凯哥探秘物华天宝的湖南岳阳",
        "docid": "7367621634603156022",
        "url": ""
    },
    {
        "title": "老街记忆",
        "docid": "7367651313494032933",
        "url": ""
    },
    {
        "title": "小城大学，西南大学荣昌校区，也是百年学府",
        "docid": "7364591004915139111",
        "url": ""
    },
    {
        "title": "文化中国行丨中式码头墙+巴洛克建筑 来这个江南古镇看中西合璧",
        "docid": "7362475150137213449",
        "url": ""
    },
    {
        "title": "离江门不远的翁源，有一片仅有1%人知道的美丽鹅卵石山谷",
        "docid": "7366265703466271232",
        "url": ""
    },
    {
        "title": "打造“水上梨园 靖港大集” 长沙靖港古镇将全面“焕新 ”",
        "docid": "7367677665337295411",
        "url": ""
    },
    {
        "title": "巴西人对中国人的态度怎么样？刚刚从巴西旅游回来，谈谈感受！",
        "docid": "7367595041511997988",
        "url": ""
    },
    {
        "title": "是牛马还是镜子？峨眉山骡子超负荷上山，无数网友共鸣：这就是我",
        "docid": "7367178030462124554",
        "url": ""
    },
    {
        "title": "三个北京人一同去新乡市，回到家就得了“河南后遗症”笑死人了！",
        "docid": "7367462858232840756",
        "url": ""
    },
    {
        "title": "18岁小伙辍学骑行西藏危险重重，别人捡女朋友他捡妈",
        "docid": "7354729799832568360",
        "url": ""
    },
    {
        "title": "仰望U8居然要和我拔河把我肚子笑的疼#仰望u8 #开着挖机去西藏",
        "docid": "7364725616157196810",
        "url": ""
    },
    {
        "title": "自驾游8年，总结出自驾游的精髓在于这10点，你了解多少？",
        "docid": "7344956790137881124",
        "url": ""
    },
    {
        "title": "巴黎文旅做梦都没想到，中国博主的视频，让他们多年文旅宣传白干",
        "docid": "7353580614961857059",
        "url": ""
    },
    {
        "title": "武汉居然还有这么好玩的地方，拍照太出片啦，周末遛娃好去处",
        "docid": "7360904397477380643",
        "url": ""
    },
    {
        "title": "峨眉山运货骡子累到吐血，眼角含泪，景区不管，网友：训练猴子驮",
        "docid": "7367542836264272394",
        "url": ""
    },
    {
        "title": "2024年5A景区热度百强出炉：浙江上榜10个",
        "docid": "7366553583254422068",
        "url": ""
    },
    {
        "title": "凯迪拉克XT自驾莫干山",
        "docid": "7364924447049908776",
        "url": ""
    },
    {
        "title": "好看，好香，好好吃！",
        "docid": "7366884693435859492",
        "url": ""
    },
    {
        "title": "今天我去了肇兴侗寨，这哪像是一个旅游热点村寨，感觉是一个圩场",
        "docid": "7364807162541670947",
        "url": ""
    },
    {
        "title": "美媒：赴中国旅行，不妨坐坐绿皮慢火车",
        "docid": "7366763629326139942",
        "url": ""
    },
    {
        "title": "打造高品质滨水开放空间，这两个公园等你来",
        "docid": "7367587254103900724",
        "url": ""
    },
    {
        "title": "为什么中国人的旅游方式普遍特别累？一句话道出真相，说得太对了",
        "docid": "7342031501649609225",
        "url": ""
    },
    {
        "title": "去过塞尔维亚回来的人，简直不敢相信自己去的就是塞尔维亚!",
        "docid": "7366822759286014514",
        "url": ""
    },
    {
        "title": "中国车被赞爆！浙F绿牌车环游欧亚，在塞尔维亚“像回家”",
        "docid": "7367208881645175311",
        "url": ""
    },
    {
        "title": "“zoo walk”为啥火了？",
        "docid": "7366837757605872155",
        "url": ""
    },
    {
        "title": "大叔骑行西藏捡到一只藏獒，才收养两天，就开始学会护主了",
        "docid": "7344675662152204819",
        "url": ""
    },
    {
        "title": "从柬埔寨传来的新年祝福：王冰冰的异国风情跨年夜！",
        "docid": "7367658713291080218",
        "url": ""
    },
    {
        "title": "世界“最拥挤”首都：人口密度是北京75倍，面积却没我国一个村大",
        "docid": "7366236341489697291",
        "url": ""
    },
    {
        "title": "江西吃辣记",
        "docid": "7367579252180484645",
        "url": ""
    },
    {
        "title": "刚从重庆回来，告诉大家一个真实的重庆，不像网上说的那么回事！",
        "docid": "7365390592441909769",
        "url": ""
    },
    {
        "title": "大雨中独自露营 - 在透明塑料屋里过夜",
        "docid": "7339152094642831887",
        "url": ""
    },
    {
        "title": "比景区好看多了，世界公认的最美高速，我会再来的",
        "docid": "7345761999457878563",
        "url": ""
    },
    {
        "title": "潜入大阪红灯区，实拍日本政府最不想让全世界看到的日本贫民窟。",
        "docid": "7367626648172118528",
        "url": ""
    },
    {
        "title": "闹大了！峨眉山景区用骡子运货物被网友怒骂，网友：你我都是牛马",
        "docid": "7366813811494355490",
        "url": ""
    },
    {
        "title": "山西晋城，太行一号公路旁边拍到的，这是什么动物？？",
        "docid": "7352887460596023849",
        "url": ""
    },
    {
        "title": "一万人的空城，发现废弃药品无人电影院，现实中的寂静岭太恐怖了",
        "docid": "7353243436922700328",
        "url": ""
    },
    {
        "title": "母爱如山！西藏朝圣路上，十万磕头诠释信仰与母爱！",
        "docid": "7367655580393488906",
        "url": ""
    },
    {
        "title": "淄博，青岛没想到！中途杀出个诸葛亮，临沂市成为焦点，一飞冲天",
        "docid": "7366883842650587699",
        "url": ""
    },
    {
        "title": "贵州一景点门票高达9999元，还限定人数？景区回应",
        "docid": "7367689013966389814",
        "url": ""
    },
    {
        "title": "3天暴走西湖边33个墓，我从没有这样看清过生死！",
        "docid": "7363962884914790946",
        "url": ""
    },
    {
        "title": "法国美女来中国旅行，下地铁后感慨不想再来，结果却被狠狠打脸",
        "docid": "7367307231778095626",
        "url": ""
    },
    {
        "title": "“19℃夏”盛邀“人间天堂”，咸丰文旅来杭推介",
        "docid": "7367672989044752933",
        "url": ""
    },
    {
        "title": "湖南“特种兵”母女6年爬山100座",
        "docid": "7357728486993265204",
        "url": ""
    },
    {
        "title": "\"请问我只会背《咏鹅》，可以免哪个景区的门票？\"",
        "docid": "7351693208482546214",
        "url": ""
    },
    {
        "title": "好疯狂！重庆密密麻麻全是人！感觉观音桥这个桥都要压塌了！",
        "docid": "7354203658236346931",
        "url": ""
    },
    {
        "title": "我心中的12个6A景区，江苏2个，甘肃1个，湖北1个，新疆1个",
        "docid": "7354557885516612136",
        "url": ""
    },
    {
        "title": "网友说：玉林没什么了不起的，我想笑，你知道玉林在中国的地位吗",
        "docid": "7338714000349528616",
        "url": ""
    },
    {
        "title": "我国哪里“最没人情味”？这3个地方榜上有名，主要是没烟火味儿",
        "docid": "7345712330321658378",
        "url": ""
    },
    {
        "title": "以为大理已经够美了，直到我来到弥勒！小众又宝藏！",
        "docid": "7345717884024521242",
        "url": ""
    },
    {
        "title": "五一高速服务区：晚上挤满露营搭帐篷的人，真是脑洞大开思想新奇",
        "docid": "7366007532235620916",
        "url": ""
    },
    {
        "title": "外国博主纷纷发布“中国探险记”，有太多“没想到”……",
        "docid": "7364235469153911305",
        "url": ""
    },
    {
        "title": "10000人民币在朝鲜能玩多久？网友：消费比上海还离谱。",
        "docid": "7365429368685855282",
        "url": ""
    },
    {
        "title": "武汉开通首条空中骑行绿道：沿途有大片花海和多个打卡点，线路灵活出入方便",
        "docid": "7367308643257205288",
        "url": ""
    },
    {
        "title": "20城2024年五一长假客流排行榜:武汉力压北京登顶、昆明第七！",
        "docid": "7366520403940721161",
        "url": ""
    },
    {
        "title": "五一假期“最受欢迎”景区榜单出炉 老君山位列第二",
        "docid": "7367170633861530153",
        "url": ""
    },
    {
        "title": "中国唯一“永久宜居城市”，却有200多万人抢着离开！",
        "docid": "7366894144796885544",
        "url": ""
    },
    {
        "title": "老君山和泰山谁高？没可比性，一个胜在自然高度，一个赢在影响力",
        "docid": "7354773328115008026",
        "url": ""
    },
    {
        "title": "章子怡的“九宫格”，让黄山又火了",
        "docid": "7366406471937999401",
        "url": ""
    },
    {
        "title": "国内唯一“禁止成年男性”进入的地方！门票0元，比色达更震撼！",
        "docid": "7366994741671559731",
        "url": ""
    },
    {
        "title": "“zoo walk”火了：年轻人盯上动物园，园方想着法子帮动物出圈",
        "docid": "7366826953795502644",
        "url": ""
    },
    {
        "title": "从长沙旅游回来，被长沙人吓到了，长沙人的素质，确实与众不同！",
        "docid": "7367320038170264079",
        "url": ""
    },
    {
        "title": "30个令人毛骨悚然的废弃地点，会让你起鸡皮疙瘩！",
        "docid": "7354314515103678987",
        "url": ""
    },
    {
        "title": "五一旅游城市排名出炉！京沪领跑，前五都是大城市，小众城市崛起",
        "docid": "7366046523349762570",
        "url": ""
    },
    {
        "title": "全国唯一写错字的火车站，66年不改正，专家：不改反而更美",
        "docid": "7363202310543196723",
        "url": ""
    },
    {
        "title": "清末时期的福建福州：路边的小庙破败不堪，游神的人偶面目狰狞",
        "docid": "7340872344824857122",
        "url": ""
    },
    {
        "title": "陕西比较奇特的城市汉中，五一我去了一趟，有几点实在想不到",
        "docid": "7366828680930214440",
        "url": ""
    },
    {
        "title": "离了个大谱，奉化家家养委座，一条街上竟然有二十多个蒋校长",
        "docid": "7366840024488460810",
        "url": ""
    },
    {
        "title": "我陕西人，在四川成都逛了几天，对成都有9个疑问，实在想不明白",
        "docid": "7366101212191621672",
        "url": ""
    },
    {
        "title": "中国十大名山，泰山只能排第二，爬过五座是青铜，爬过七座是王者",
        "docid": "7359507355547386422",
        "url": ""
    },
    {
        "title": "中国这12条景观公路！都美得极致特别是最后1条，不走一次不甘心",
        "docid": "7341217451700503092",
        "url": ""
    },
    {
        "title": "西安最热闹的八大夜市",
        "docid": "7353517925330190882",
        "url": ""
    },
    {
        "title": "我国唯一一座什么都免费城市，人口2300设8座机场，外国人进不来",
        "docid": "7361620625594597938",
        "url": ""
    },
    {
        "title": "粤西大草原：探索广东的隐藏瑰宝",
        "docid": "7341738586624229938",
        "url": ""
    },
    {
        "title": "世界最大、中国首座、北上海最新......魔都“之最”又要集中上新啦!",
        "docid": "7366455919120613938",
        "url": ""
    },
    {
        "title": "安徽省免费景区大赏，不比要门票的差",
        "docid": "7339414439353336371",
        "url": ""
    },
    {
        "title": "来南昌打卡月季美出新高度！",
        "docid": "7367174491547369984",
        "url": ""
    },
    {
        "title": "山西十四大旅游景区",
        "docid": "7334690710228386338",
        "url": ""
    },
    {
        "title": "洛阳和大同两座城市都去过，实话实说，大同被低估了",
        "docid": "7340044102471369235",
        "url": ""
    },
    {
        "title": "贵州一景点门票9999元，景区：科考价值高，每年只允许200人入洞",
        "docid": "7367702570792256009",
        "url": ""
    },
    {
        "title": "贵州乌蒙山上发现了3万亩的杜鹃花海，最大的树龄超过了千年",
        "docid": "7354193576391492111",
        "url": ""
    },
    {
        "title": "中国最值得去的30大景点，去过5个，此生无憾",
        "docid": "7365548406657303074",
        "url": ""
    },
    {
        "title": "江苏低调夺冠！五一成文旅消费冠军，江苏网友：江苏真没啥好玩！",
        "docid": "7366173248494977536",
        "url": ""
    },
    {
        "title": "跟随董宇辉，打卡武当山，从早上九点爬到四点，差点死在武当山上",
        "docid": "7354338025859711538",
        "url": ""
    },
    {
        "title": "此景，美得已让人穿越！",
        "docid": "7352143886581498378",
        "url": ""
    },
    {
        "title": "江苏最被低估的城市，为啥春日风光不输苏州、扬州？",
        "docid": "7367224811841454644",
        "url": ""
    },
    {
        "title": "建议采纳！市民可在4个公园免费领月季",
        "docid": "7366999772060058147",
        "url": ""
    },
    {
        "title": "印度网友：中国那么美好，为什么没有很多外国游客去中国旅游？",
        "docid": "7345652879857910335",
        "url": ""
    },
    {
        "title": "“五一”假期《驼铃传奇》接待游客15万人次再创历史新高",
        "docid": "7367189882642498075",
        "url": ""
    },
    {
        "title": "《我家在娄底》第二季丨第一集《家山》：山脉即根脉 此心念家山",
        "docid": "7337128467508658722",
        "url": ""
    },
    {
        "title": "网红胖东来，缘何引客来 | 睡前聊一会儿",
        "docid": "7341413489703027215",
        "url": ""
    },
    {
        "title": "真不是贵州，就在广东，隐藏在山林的避世古镇",
        "docid": "7367040192669237799",
        "url": ""
    },
    {
        "title": "最美“郴州八景”：人这一辈子，一定要去一趟郴州！",
        "docid": "7336457111087596069",
        "url": ""
    },
    {
        "title": "苏州博物馆门前的河水又出圈啦",
        "docid": "7363885030793445927",
        "url": ""
    },
    {
        "title": "十年自驾游旅行总结出10条精髓，全是干货，建议收藏",
        "docid": "7337433361008312868",
        "url": ""
    },
    {
        "title": "重庆值得一去的八大景点！",
        "docid": "7342385531143258643",
        "url": ""
    },
    {
        "title": "闹大了！江汉路步行街“黄金屋”美女跳舞PK“金凤楼”帅哥唱歌！",
        "docid": "7367347746262565414",
        "url": ""
    },
    {
        "title": "背起来，终于体验到了知识变现！",
        "docid": "7366832735391924746",
        "url": ""
    },
    {
        "title": "哈尔滨已经失守！这也不是冬天啊！怎么旅游大军春天就来攻城！",
        "docid": "7365343253430731276",
        "url": ""
    },
    {
        "title": "耗资一百亿打造的“熊出没”，刚开业就人山人海，直升机起起落落",
        "docid": "7336940280048288293",
        "url": ""
    },
    {
        "title": "24岁宁波小伙徒步旅行，35年走了30万公里，59岁于他乡结束一生",
        "docid": "7340487383873258003",
        "url": ""
    },
    {
        "title": "四川必去的八大最美古镇，个个独具韵味、流连忘返~",
        "docid": "7325279982719074868",
        "url": ""
    },
    {
        "title": "一下子空了！今天早上的成都，是这样的",
        "docid": "7365801010746638889",
        "url": ""
    },
    {
        "title": "文化中国行｜宋韵风与艺术范共生  这个历史街区有点in",
        "docid": "7361254032901653007",
        "url": ""
    },
    {
        "title": "中国最美15大山水景区，去过10个那真的人间值得，你去过几个",
        "docid": "7355040367697248778",
        "url": ""
    },
    {
        "title": "五一普吉岛之旅：邂逅海湾度假美女",
        "docid": "7367566020376183311",
        "url": ""
    },
    {
        "title": "厦门火车站和机场一样大！台湾妹子发大陆见闻被骂：别做井底之蛙",
        "docid": "7366909152330826240",
        "url": ""
    },
    {
        "title": "全列卧铺+管家式服务！网友惊呼：豪华大床房来了",
        "docid": "7351314384960111156",
        "url": ""
    },
    {
        "title": "广州十大必去景点，你都去过哪些？",
        "docid": "7341233219221832226",
        "url": ""
    },
    {
        "title": "武当山唯一的缺点就是门票贵！深山偶遇隐修老道长，打卡冷门遗址",
        "docid": "7340260983891706379",
        "url": ""
    },
    {
        "title": "全是便宜货！广州旅游不能不逛的10个批发市场 服装鞋子都是批发价",
        "docid": "7351666979272524326",
        "url": ""
    },
    {
        "title": "中国人被“来都来了”硬控的一生！",
        "docid": "7365003948585845300",
        "url": ""
    },
    {
        "title": "海南版浪漫星海！火龙果开花原来这么美",
        "docid": "7341914056011301413",
        "url": ""
    },
    {
        "title": "北方唯一入选“中国永久宜居之城”的城市，退休后就去这养老",
        "docid": "7348621769558819347",
        "url": ""
    },
    {
        "title": "泰国现状，夜晚活力与法律的约束，真实的泰国是怎样的？",
        "docid": "7353865118666703400",
        "url": ""
    },
    {
        "title": "去了山东和山西，说实话，在山东面前，山西真的是个“小地方”",
        "docid": "7367157319723123211",
        "url": ""
    },
    {
        "title": "我福建人，去一趟岳阳市，回到家就得了\"岳阳后遗症\"",
        "docid": "7367258249923412532",
        "url": ""
    },
    {
        "title": "携程发布2024“五一”假期旅行总结：入出境游增速高于国内游，下沉市场增速高于一二线市场",
        "docid": "7365418388182696498",
        "url": ""
    },
    {
        "title": "80年代美国人拍摄的少林寺：这才是少林寺当初样子，但商业味渐浓",
        "docid": "7344236429410763304",
        "url": ""
    },
    {
        "title": "“五一”旅游热门地TOP10出炉！泰山位列前六",
        "docid": "7365732137859695104",
        "url": ""
    },
    {
        "title": "峭壁飞人邹在宏：代烧“龙头香”，一次199元，春节一天最多挣2万",
        "docid": "7337142141586440740",
        "url": ""
    },
    {
        "title": "海南最值得去的7个AAAAA级景区，去过3个算合格，你去过几个",
        "docid": "7361380096600572454",
        "url": ""
    },
    {
        "title": "去西藏旅行人很多，为何来新疆的却这么少？原因让新疆人无言以对",
        "docid": "7366506663756481043",
        "url": ""
    },
    {
        "title": "一定要去的6个绝美古镇，累了就去小住几日！",
        "docid": "7353923431076790835",
        "url": ""
    },
    {
        "title": "上海宁可损失1000亿收益，为何也要造这座免费的公园？",
        "docid": "7367587086800585250",
        "url": ""
    },
    {
        "title": "湖北比较奇怪的城市襄阳，五一我去了一趟，有几点实在想不到",
        "docid": "7365848874517250611",
        "url": ""
    },
    {
        "title": "江苏扬州：瘦西湖春景如画",
        "docid": "7355057175758373428",
        "url": ""
    },
    {
        "title": "我原以为云南石林很震撼，直到我去了这里，我发现这比石林更震撼",
        "docid": "7355103453448766004",
        "url": ""
    },
    {
        "title": "福建有一奇怪的石缝，相传每天都会淌出一碗米，原因至今无人知晓",
        "docid": "7344545600416858633",
        "url": ""
    },
    {
        "title": "藏不住了！北京怀柔的蔷薇花瀑上线",
        "docid": "7367709134113784374",
        "url": ""
    },
    {
        "title": "“新中式出片神器”背后：它早已惊艳了世界7000年",
        "docid": "7366940092142813736",
        "url": ""
    },
    {
        "title": "广州人的疑惑：这些破地方怎么成网红打卡地了？",
        "docid": "7367296434499715618",
        "url": ""
    },
    {
        "title": "一票游三城！高铁旅游计次票再上新，怎么买如何用？",
        "docid": "7367652822327902729",
        "url": ""
    },
    {
        "title": "聊聊我在东帝汶工作两年的感受，这个国家比朝鲜还神秘",
        "docid": "7367900788921778700",
        "url": ""
    },
    {
        "title": "拼团游爆火：年轻人玩上了一种很新的旅行 专家：更建议从正规旅行平台选择“拼团游”",
        "docid": "7367213250079769129",
        "url": ""
    },
    {
        "title": "南京滨江公园：初夏红枫盛开，赏枫何须待秋时",
        "docid": "7366912943679914530",
        "url": ""
    },
    {
        "title": "热评丨从小县城火爆，看到更开阔的风景",
        "docid": "7366207513957728768",
        "url": ""
    },
    {
        "title": "去爬完黄山回来后，说几句实话，句句都是肺腑之言",
        "docid": "7362096969604579894",
        "url": ""
    },
    {
        "title": "8000平方米马鞭草花海盛开 赶紧去拍拍拍！",
        "docid": "7367175156856406568",
        "url": ""
    },
    {
        "title": "又一座中国城市，被10多万老外“占领”，昆明究竟有何魔力？",
        "docid": "7339158815029953064",
        "url": ""
    },
    {
        "title": "真不是黑贵州，自驾一趟大理到德钦，世界级景区的梦可以醒了",
        "docid": "7346175490334360127",
        "url": ""
    },
    {
        "title": "月季、琼花、金鱼草……世纪公园赏花指南来了→",
        "docid": "7367308805488509440",
        "url": ""
    },
    {
        "title": "初夏在“恋”塘，相遇“一路生花”吧~",
        "docid": "7367618097328505355",
        "url": ""
    },
    {
        "title": "德天大瀑布，归来不看瀑",
        "docid": "7367663416552473138",
        "url": ""
    },
    {
        "title": "这绝对是青岛最美的公园之一，可惜才几天时间就被破坏成这样了！",
        "docid": "7367262463097569827",
        "url": ""
    },
    {
        "title": "台湾人去了一趟重庆市，回台湾后她是这样评价重庆的！",
        "docid": "7365091388482257419",
        "url": ""
    },
    {
        "title": "川西一绝美县城，人人都听过却极少人去过！春夏花如海，艳惊四座",
        "docid": "7093466724225417760",
        "url": ""
    },
    {
        "title": "我，一个外地人，在西安吃了十几种小吃，最念念不忘的是牛肉酥饼",
        "docid": "7339082847632261671",
        "url": ""
    },
    {
        "title": "招募令！运城文旅带你探国宝啦！",
        "docid": "7367949772101091840",
        "url": ""
    },
    {
        "title": "对话“开挖掘机去西藏”男子：已抵珠峰脚下，行程近5000公里，一路受助也在助人",
        "docid": "7367723529766273546",
        "url": ""
    },
    {
        "title": "Jay和Ari一家人已经到达皖南老家，老岳父独自出行理发，风景如画",
        "docid": "7358011273801417227",
        "url": ""
    },
    {
        "title": "没想到国家博物馆有这么大！看完网友分享，真的让人大开眼界了",
        "docid": "7361265361033052726",
        "url": ""
    },
    {
        "title": "武汉多个景区：今天免费、半价！",
        "docid": "7367908304141484544",
        "url": ""
    },
    {
        "title": "网红大表哥泰国行“栽跟头”，未付小费遭机场恶意扣留，网友热议",
        "docid": "7367649324291768873",
        "url": ""
    },
    {
        "title": "打造＂登船如登机＂舒适旅游体验 重庆寸滩港港口工程“进度条”刷新",
        "docid": "7367707094683796007",
        "url": ""
    },
    {
        "title": "雨后塘栖：马路枇杷消失了，销售点的白沙枇杷10元/斤",
        "docid": "7367701232678683176",
        "url": ""
    },
    {
        "title": "中国最大气的古镇，廊桥世界第一，风景抢眼美食满街，还不要门票",
        "docid": "7365518859387896372",
        "url": ""
    },
    {
        "title": "整合175项新场景新玩法    五月长沙成悠游乐享地",
        "docid": "7367993462874112531",
        "url": ""
    },
    {
        "title": "河南郑州:最大之一郑州列车编组站，将退出历史舞台！",
        "docid": "7355895297471906342",
        "url": ""
    },
    {
        "title": "江苏南京值得一去的六大景点！",
        "docid": "7336428307413828132",
        "url": ""
    },
    {
        "title": "途径安徽到好心大叔家里打水，被他家的厨房吸引了，灶台好别致！",
        "docid": "7344294643783172647",
        "url": ""
    },
    {
        "title": "刚刚开始大老远看不清感觉奇奇怪怪的近了看，惊呆了老铁",
        "docid": "7367602132234699327",
        "url": ""
    },
    {
        "title": "淄川与博山合起来有了淄博的名字，为啥淄博市中心却成了张店？",
        "docid": "7353447258412679715",
        "url": ""
    },
    {
        "title": "贵州糊涂啊，为什么不大力宣传这里，云端的仙境-黄平飞云崖",
        "docid": "7356445833769845274",
        "url": ""
    },
    {
        "title": "五月限定浪漫！苏州的月季花超有氛围感",
        "docid": "7367223475700744714",
        "url": ""
    },
    {
        "title": "为什么江苏的旅游宣传很薄弱？网友：老祖宗宣传够了，现在吃老本",
        "docid": "7367790693072470579",
        "url": ""
    },
    {
        "title": "这个夏天，一定要走一次甘青大环线，真的太美了！",
        "docid": "7365692760109842944",
        "url": ""
    },
    {
        "title": "王婆还没回归万岁山，“舞台”已经被拆了一多半",
        "docid": "7360834882680914467",
        "url": ""
    },
    {
        "title": "尼泊尔登山者再创纪录 第29次登顶珠峰",
        "docid": "7367949388653593139",
        "url": ""
    },
    {
        "title": "实拍昔日“国内最大商业综合体”！这是现场真实现状！大家看看吧",
        "docid": "7347707108353442355",
        "url": ""
    },
    {
        "title": "商家笑麻了！河南之行，董宇辉是如何插入手机广告的？网友：丝滑",
        "docid": "7361738626667250227",
        "url": ""
    },
    {
        "title": "从湛江旅游回来，告诉你一个真实的湛江，没有大家说的那么差",
        "docid": "7358328038985056768",
        "url": ""
    },
    {
        "title": "国内最大尼姑庵，有2万女性在此修行，天黑后必须遵守一条死规定",
        "docid": "7341322590684103203",
        "url": ""
    },
    {
        "title": "香港美女出差四川省成都市，回家后她是这样评价成都的！",
        "docid": "7367251946282975744",
        "url": ""
    },
    {
        "title": "湖南女大学生5天爬五岳庆祝22岁生日，她怎么做到的？当事人揭秘",
        "docid": "7365485752966365696",
        "url": ""
    },
    {
        "title": "安徽最值得去的6个古村落，有没有车也要去一趟，你去过哪几个",
        "docid": "7335302107278475817",
        "url": ""
    },
    {
        "title": "坪山区一批口袋公园建成开园，让“公园20分钟效应”触手可及",
        "docid": "7367628496635576873",
        "url": ""
    },
    {
        "title": "中国66个第一批AAAAA景区，去过33个算合格，去过55个算旅游达人",
        "docid": "7363155190322561546",
        "url": ""
    },
    {
        "title": "中国版的“贝加尔湖”，蓄水量相当于1470个杭州西湖",
        "docid": "7344387091675251254",
        "url": ""
    },
    {
        "title": "没想到五一都开始反向旅游了",
        "docid": "7367725226983326258",
        "url": ""
    },
    {
        "title": "世界上最大山体雕刻，竟藏在山东，是乐山大佛的3倍",
        "docid": "7366070554606142003",
        "url": ""
    },
    {
        "title": "从人山人海到无人问津，现在被迫免费开放，还有游客买账吗？",
        "docid": "7359491699338379812",
        "url": ""
    },
    {
        "title": "自驾游费钱吗？看完这10个实例，心里就有谱了",
        "docid": "7340549863421018687",
        "url": ""
    },
    {
        "title": "上海最值得去的10个景点，你去过几个？",
        "docid": "7341632099566338570",
        "url": ""
    },
    {
        "title": "奇观天下 | 蔚蓝色的红海休闲度假胜地——赫尔格达",
        "docid": "7367659181308248615",
        "url": ""
    },
    {
        "title": "中国最美六大草原，有没有车也要去一趟，你去过几个",
        "docid": "7348292722199101990",
        "url": ""
    },
    {
        "title": "两次差点原地抛锚，乙醇汽油是坑货？乌鸦“尔滨”自驾游记（下）",
        "docid": "7343842234011255315",
        "url": ""
    },
    {
        "title": "九寨沟的五彩池，能不能灌点水进去",
        "docid": "7362046895126938164",
        "url": ""
    },
    {
        "title": "密密麻麻全是人！严重怀疑今天全宜昌的人都跑这儿来了！挤爆了",
        "docid": "7367918941089530394",
        "url": ""
    },
    {
        "title": "4月份超10万人！北京这条市郊铁路火了！乘车攻略来了",
        "docid": "7367281386610868747",
        "url": ""
    },
    {
        "title": "探秘重庆无人小镇，到处都是废弃房屋和汽车，荒草遍地，啥原因？",
        "docid": "7336445821888102921",
        "url": ""
    },
    {
        "title": "人这一辈子，一定要去一趟昆明！",
        "docid": "7351967026074042915",
        "url": ""
    },
    {
        "title": "小伙摩旅偶遇“无人村”，忐忑后开门进屋躲雨，网友却不淡定了",
        "docid": "7358760583694549543",
        "url": ""
    },
    {
        "title": "地表最美的芝樱花开成“花地毯”啦 就在蛟河！",
        "docid": "7367649160641774106",
        "url": ""
    },
    {
        "title": "陈楚生骑电车游三亚，一步一个熟人，回老家贼惬意放飞自我",
        "docid": "7354217608255635968",
        "url": ""
    },
    {
        "title": "总要来一趟南昌，看课本里的滕王阁吧！",
        "docid": "7367650605025722915",
        "url": ""
    },
    {
        "title": "震撼！北京上空竟现极光奇景，慕田峪等地成观赏热点",
        "docid": "7368008213092155904",
        "url": ""
    },
    {
        "title": "到底是什么原因让一个县级博物馆跻身首批国家一级博物馆？",
        "docid": "7361104948660011559",
        "url": ""
    },
    {
        "title": "中国游客去德国吃大闸蟹，给了400块刚想离开，却被德国老板喊住",
        "docid": "7367930993339056666",
        "url": ""
    },
    {
        "title": "新疆旅游的正确打开方式：时间、路线、南北疆，一篇搞懂！",
        "docid": "7365282491978039843",
        "url": ""
    },
    {
        "title": "黄石这一景点6月下旬开门迎客",
        "docid": "7367912247266263567",
        "url": ""
    },
    {
        "title": "穿岚见岚又是岚",
        "docid": "7367904459089642010",
        "url": ""
    },
    {
        "title": "一个人在床车里听着雨声吃泡面，一觉醒来，窗外下起了鹅毛大雪",
        "docid": "7336598609321951763",
        "url": ""
    },
    {
        "title": "成都金堂蜀葵文化旅游季正式启幕，鲜花山谷等你来“打卡”",
        "docid": "7367269156674191922",
        "url": ""
    },
    {
        "title": "“我在丽江开酒吧十年，赔惨了”",
        "docid": "7336870487228416539",
        "url": ""
    },
    {
        "title": "长三角这些高速服务区“卷”出圈，被网友赞“逆天”",
        "docid": "7367965990216352306",
        "url": ""
    },
    {
        "title": "外网热评西安不夜城，美网友疑惑一个发展中国家旅游为何如此火爆",
        "docid": "7335891665376412201",
        "url": ""
    },
    {
        "title": "跨6省自驾12000公里，才明白，老年人要选择合适的出行方式",
        "docid": "7341205256715420171",
        "url": ""
    },
    {
        "title": "如果想去广州旅游，存下来吧，很难找到全的",
        "docid": "7339908077942538752",
        "url": ""
    },
    {
        "title": "一家4口自驾呼伦贝尔，来回9天，一共花费了多少钱？",
        "docid": "7337289316164583955",
        "url": ""
    },
    {
        "title": "“雨后的钱塘才是真江南，淋了一身诗意” 天青色的烟雨",
        "docid": "7336731130693059081",
        "url": ""
    },
    {
        "title": "我亲自去了陕西咸阳礼泉县的袁家村，说实话，这次的体验真的失望",
        "docid": "7365331450754793994",
        "url": ""
    },
    {
        "title": "叫板林芝，比伊犁撩人！中国被低估的世外桃源，3月杏花开成海",
        "docid": "7339847867894333979",
        "url": ""
    },
    {
        "title": "三省交界的陕南秘境小城，藏着超多“神级”风景！3天2晚攻略来了",
        "docid": "7362386689396032012",
        "url": ""
    },
    {
        "title": "5·19中国旅游日 | 还剩七天！铜川倒计时接力",
        "docid": "7368030107404911114",
        "url": ""
    },
    {
        "title": "杭州宋城水上飞人 表演十分精彩，门票这么贵还是人山人海",
        "docid": "7365024565581480460",
        "url": ""
    },
    {
        "title": "俄罗斯美女来中国旅行，表示满足一个条件，立马就嫁到中国",
        "docid": "7341340107108418082",
        "url": ""
    },
    {
        "title": "春节旅行丨长沙——翻滚在热辣中的烟火气，今晚搞点么子恰咯？",
        "docid": "7367920568915575332",
        "url": ""
    },
    {
        "title": "峨眉山骡子运到吐血了，景区拒绝采访，网友抵制：你们还有人性吗",
        "docid": "7367261913312690703",
        "url": ""
    },
    {
        "title": "湖北一座冷门景区走红，素以“小九寨沟”自居，风景优美游客稀少",
        "docid": "7345107212639486464",
        "url": ""
    },
    {
        "title": "四川大姐在新疆沙漠守井，这生活一般人受不了！听她怎么说的？",
        "docid": "7360172365549929001",
        "url": ""
    },
    {
        "title": "花三千万建造的模型机场有多逆天？",
        "docid": "7359725498613629476",
        "url": ""
    },
    {
        "title": "这也许就是买问界的意义吧！ 长途NCA自驾游，真的太舒服了",
        "docid": "7343961533749461540",
        "url": ""
    },
    {
        "title": "天津最大的公园，人山人海，景色宜人，关键免费停车带大家看一看",
        "docid": "7358066041592906281",
        "url": ""
    },
    {
        "title": "中俄西部还有边界线？只有55公里左右，却让哈萨克和外蒙无法接壤",
        "docid": "7360303054534640140",
        "url": ""
    },
    {
        "title": "这就是春天里的中国！",
        "docid": "7341971566202749503",
        "url": ""
    },
    {
        "title": "武汉动物园，谁来谁后悔！劝退！",
        "docid": "7335642289110417972",
        "url": ""
    },
    {
        "title": "#＃上热门 西安到宝鸡这段近200公里的河堤路，国内公路的天花板",
        "docid": "7356426408115044876",
        "url": ""
    },
    {
        "title": "可怜的嘎吉米，一个月要哭60来次#旅行推荐官 #嘎吉米与阿布达",
        "docid": "7361745738134454796",
        "url": ""
    },
    {
        "title": "北京深山幽美的无人村，推开门仿佛回到40年前，70多户都走了",
        "docid": "7338727785106604544",
        "url": ""
    },
    {
        "title": "刚从广东汕头回来含泪总结的避坑攻略，去汕头旅游看这一篇就GO了",
        "docid": "7343506337982186034",
        "url": ""
    },
    {
        "title": "四川博物院入选新一轮中央地方共建国家级重点博物馆",
        "docid": "7367599517883073059",
        "url": ""
    },
    {
        "title": "曾经引起争议耗费34亿元改造的郑州金水河，现已完全改造完毕",
        "docid": "7366101721099010598",
        "url": ""
    },
    {
        "title": "中国女生背包客独行非洲，遭遇手机被抢，视频被疯传成为反面教材",
        "docid": "7367393879454237194",
        "url": ""
    },
    {
        "title": "刚从广东惠州回来含泪总结的深刻教训，去惠州旅游看这一篇就GO了",
        "docid": "7345282918324912666",
        "url": ""
    },
    {
        "title": "天津市的曙光水镇已建成开放，2024年最好的休闲打卡地！",
        "docid": "7365830450478334502",
        "url": ""
    },
    {
        "title": "去江苏扬州瘦西湖旅游回来后，看看我对瘦西湖的总结",
        "docid": "7350289949243408923",
        "url": ""
    },
    {
        "title": "没想到中国万里长城尽头竟然在这里，不得不说古人简直太聪明了",
        "docid": "7340265327697723913",
        "url": ""
    },
    {
        "title": "中国自驾游路线图 欢迎参考",
        "docid": "7353128280494522892",
        "url": ""
    },
    {
        "title": "重庆又一个洋人街，春节游人如织，天空之镜成网红",
        "docid": "7335016804676534784",
        "url": ""
    },
    {
        "title": "1天涌入上万个“朝鲜族公主” 年轻人为何喜欢去延吉？",
        "docid": "7367141413328290323",
        "url": ""
    },
    {
        "title": "初夏“调色盘”上新了 巴南区百万株绣球花盛开",
        "docid": "7367524247482221091",
        "url": ""
    },
    {
        "title": "人生建议：一定要吃完这条路再离开郑州！",
        "docid": "7360951600712319527",
        "url": ""
    },
    {
        "title": "缅甸街头才有的现象，中国游客表示难以接受，纷纷直言：太尴尬了",
        "docid": "7366327080973402664",
        "url": ""
    },
    {
        "title": "“老网红”稻城亚丁，到底值不值得去？",
        "docid": "7353971133089923599",
        "url": ""
    },
    {
        "title": "杭州又浪漫了，西湖边框字幕，走过的行人像在播放人生电影",
        "docid": "7364021085437690408",
        "url": ""
    },
    {
        "title": "看湖南｜这个剧火了，98%的演员是当地村民！咋回事儿？",
        "docid": "7367948809114255891",
        "url": ""
    },
    {
        "title": "唯一两次走完六千公里长江路的日本人如何看中国？",
        "docid": "7368037510494945843",
        "url": ""
    },
    {
        "title": "中国唯一没有山的城市，海拔仅5米，当地人想爬山都成奢望",
        "docid": "7361245104952197666",
        "url": ""
    },
    {
        "title": "实拍虎牢关遗址，洛阳东大门地势险要，刘关张有没有在此大战吕布",
        "docid": "7334633063466566178",
        "url": ""
    },
    {
        "title": "甘肃被隐藏的宝藏小城，几乎浓缩了大西北全部美景，却少有人提起",
        "docid": "6750140554023010830",
        "url": ""
    },
    {
        "title": "宠粉！为让游客观赏极光，阿勒泰宣布晚上“关灯”",
        "docid": "7368001902480491023",
        "url": ""
    },
    {
        "title": "中国“零差评”的5座旅游城市，50岁之前一定要去一次！",
        "docid": "7345817369001951779",
        "url": ""
    },
    {
        "title": "《我的阿勒泰》绝美风景壁纸，浪漫经典治愈文案！",
        "docid": "7367599610556400178",
        "url": ""
    },
    {
        "title": "中国最后一座活着的古城，拥有国内唯一法式小火车，美了1200年",
        "docid": "7340977854689313315",
        "url": ""
    },
    {
        "title": "图片仅供参考，被狠狠的上了一课！#西江千户苗寨 #苗族姑娘",
        "docid": "7354914271358091817",
        "url": ""
    },
    {
        "title": "苏州古镇老街排行榜（建议收藏）",
        "docid": "7351752204489196059",
        "url": ""
    },
    {
        "title": "2024年不知道去哪里旅游，直接收藏这4张攻略地图",
        "docid": "7340284904892088832",
        "url": ""
    },
    {
        "title": "帝都五条入门级骑行路线真的超好骑，沿途全是迷人地标！",
        "docid": "7367546435719627275",
        "url": ""
    },
    {
        "title": "远眺黄果树瀑布。也就那样吧。#旅行大玩家 #风景 #贵州",
        "docid": "7349393660405875252",
        "url": ""
    }
]