[
    {
        "title": "56岁大姐嫁20岁小伙，“同床”过后大姐气色红润 有钱真好",
        "docid": "7367641808043672099",
        "url": ""
    },
    {
        "title": "女子家养锦鲤跳出水池，这设计真是反人类！",
        "docid": "7336983825060528678",
        "url": ""
    },
    {
        "title": "农村随处可见的彩钢瓦房，为何非要强制拆除？它到底有什么危害？",
        "docid": "7352836256667222591",
        "url": ""
    },
    {
        "title": "继承“家业”种红薯 他把红薯种出了新“高度”",
        "docid": "7367151455146639908",
        "url": ""
    },
    {
        "title": "开鲁阻止耕种最新后续！张家大哥:就算转租7千，别人也管不了",
        "docid": "7363132211513541154",
        "url": ""
    },
    {
        "title": "更新一下缀化月季这个棒槌..能不能开啊？#我的乡村生活 #月季",
        "docid": "7339799567149302335",
        "url": ""
    },
    {
        "title": "大白菜上的\"小黑点\"到底是什么？能不能吃？告诉你答案",
        "docid": "7367634607019246090",
        "url": ""
    },
    {
        "title": "这些蔬菜过了五月就不能种了,你的菜园还在傻种别的吗？来看看。",
        "docid": "7367420367373156905",
        "url": ""
    },
    {
        "title": "闹大了!女子十亩樱桃树被锯断，真凶曝光，恶意报复，果然不简单",
        "docid": "7349846189333807627",
        "url": ""
    },
    {
        "title": "常熟耗资千万公园23年底竣工4月拆除，官方回应，村民：他们有钱",
        "docid": "7367639637889909300",
        "url": ""
    },
    {
        "title": "早桃错峰上市助农增收",
        "docid": "7367641189581144576",
        "url": ""
    },
    {
        "title": "广西橘长本来只想卖沃柑，却意外变成水果代言人！",
        "docid": "7339885588315243017",
        "url": ""
    },
    {
        "title": "三亚行道树上的菠萝蜜",
        "docid": "7340905533072736807",
        "url": ""
    },
    {
        "title": "78年退伍去大队榨油百斤菜籽只出18斤油，之后一个姑娘却登门道歉",
        "docid": "7337954027982537252",
        "url": ""
    },
    {
        "title": "中国农业大国14亿人口，如果停止对外进口粮食，够养活所有人吗？",
        "docid": "7340908616025309731",
        "url": ""
    },
    {
        "title": "农村散养的山牛红修狗，胆量大性格亲人，小孩子抓起来它都不出声",
        "docid": "7349514912571490825",
        "url": ""
    },
    {
        "title": "枇杷之乡迎丰收 共富工坊助共富",
        "docid": "7367633830557024808",
        "url": ""
    },
    {
        "title": "价格猛降！太仓人吃货直呼：“小龙虾自由”稳了！",
        "docid": "7367633765822251535",
        "url": ""
    },
    {
        "title": "广西一老总建房，请三位外国佬设计，真是颠覆全村人",
        "docid": "7346420479739200009",
        "url": ""
    },
    {
        "title": "儿子36，不结婚不谈对象，上海大叔越说越激动",
        "docid": "7362131032500109875",
        "url": ""
    },
    {
        "title": "很多人一直都不信，在农村即使是金丝楠木，很多人都认不出来",
        "docid": "7335414002274697762",
        "url": ""
    },
    {
        "title": "多个品种荔枝遭遇小小年，上市荔枝部分店卖30元一斤",
        "docid": "7367525082450821671",
        "url": ""
    },
    {
        "title": "中国遍地是楼房，国外到处是农场，原来这是一步大棋！",
        "docid": "7366633748601815590",
        "url": ""
    },
    {
        "title": "她直播赚钱我是一点都不眼红 梗太密集了，都不知道从哪里开始笑",
        "docid": "7337978475040473626",
        "url": ""
    },
    {
        "title": "苏州的“三虾季”来哉！",
        "docid": "7367340272377741850",
        "url": ""
    },
    {
        "title": "劳动人民的智慧！整捆电缆搬不上山， 工人们一个妙招轻松解决",
        "docid": "7367280811667620367",
        "url": ""
    },
    {
        "title": "冰雹过后增城荔农力挽狂澜！荔枝抢收疯狂，每斤收购价惊喜10元！",
        "docid": "7366824888869257763",
        "url": ""
    },
    {
        "title": "阿拉斯加不仅盛产帝王蟹，还有其它螃蟹和各种鳕鱼 #帝王蟹",
        "docid": "7339147761021157940",
        "url": ""
    },
    {
        "title": "走进科学得拍三期之拖拉机去哪了",
        "docid": "7349596240059597346",
        "url": ""
    },
    {
        "title": "若干年后这家人要是也搬走，这良田万亩留给谁种？",
        "docid": "7355311837006856716",
        "url": ""
    },
    {
        "title": "今天小龙虾又大跌价，明天都不想起虾子了。#抖音记录农村生活",
        "docid": "7358411780386718245",
        "url": ""
    },
    {
        "title": "中国相控阵雷达大突破，竟被农民拿来防控野猪！",
        "docid": "7339839174365413903",
        "url": ""
    },
    {
        "title": "铁岭昌图95年女孩，在沈阳小河沿早市卖炖酸菜，迎来“泼天”富贵",
        "docid": "7345490898832654882",
        "url": ""
    },
    {
        "title": "为啥我们现在的水泥楼顶层都会发生渗漏？",
        "docid": "7343459872413352484",
        "url": ""
    },
    {
        "title": "萌化了！女儿看上姥爷养的鹌鹑，一个劲给妈妈使眼色逗乐网友",
        "docid": "7337154210577941044",
        "url": ""
    },
    {
        "title": "男子上山采到完整马蜂窝，原来熊出没里的马蜂窝是真的",
        "docid": "7341963566070956556",
        "url": ""
    },
    {
        "title": "菲律宾榴莲突然涌现，试图强行进入中国市场？底气何在？",
        "docid": "7367522746940637708",
        "url": ""
    },
    {
        "title": "越闹越大！广东300吨“僵尸荔枝”上市，专家被骂，网友：不敢吃",
        "docid": "7366828938456302116",
        "url": ""
    },
    {
        "title": "平桥区打造区域超级小麦育种基地",
        "docid": "7366746444922929673",
        "url": ""
    },
    {
        "title": "“像是做了一场热闹的梦”",
        "docid": "7336780784126624307",
        "url": ""
    },
    {
        "title": "高原湖泊  水清鱼跃（探访）",
        "docid": "7367541856227459584",
        "url": ""
    },
    {
        "title": "养鸭还是体力活，挖蚯蚓，一旦失手，就有鸭肉吃了！",
        "docid": "7367585793600127540",
        "url": ""
    },
    {
        "title": "日吃百元餐 “工作”要听曲 这些牛真“牛”",
        "docid": "7353630178704245288",
        "url": ""
    },
    {
        "title": "无法容忍！农民工被恶意讨薪，我们敢怒敢言，不惧打压！",
        "docid": "7367693361089757696",
        "url": ""
    },
    {
        "title": "河南固始：初夏田间插秧忙",
        "docid": "7367662498692891172",
        "url": ""
    },
    {
        "title": "夏日喜收获#",
        "docid": "7366993423259402787",
        "url": ""
    },
    {
        "title": "别眨眼！八十秒带你看完农村自建房一层建造全过程！#自建房",
        "docid": "7346407261314482698",
        "url": ""
    },
    {
        "title": "湛江渔民抓到一条626斤大鱼，2天后卖出25040元",
        "docid": "7358029085311795727",
        "url": ""
    },
    {
        "title": "美好生活在云南｜玉溪江川50余亩马蹄莲竞相绽放",
        "docid": "7367633771962647074",
        "url": ""
    },
    {
        "title": "初夏药材管收忙",
        "docid": "7367565949770318375",
        "url": ""
    },
    {
        "title": "不可思议的铁链开荒，两台推土机拖拽一条铁链，一天处理上百亩",
        "docid": "7366566392834818601",
        "url": ""
    },
    {
        "title": "探访潜江28年虾店：“五一”卖了六七千斤小龙虾，老食客专程从外地回来过七十大寿",
        "docid": "7367651720421278259",
        "url": ""
    },
    {
        "title": "总投资3亿元！南山镇以项目为王推动全域土地综合整治",
        "docid": "7367655251165741583",
        "url": ""
    },
    {
        "title": "扒活人的房，拆死人的坟，中西部农村无人想当村干部",
        "docid": "7367559188849951286",
        "url": ""
    },
    {
        "title": "听我一句劝，完美的自建房，不仅仅是风水，还有科学",
        "docid": "7344277760195658294",
        "url": ""
    },
    {
        "title": "小龙虾虾头不能吃？每天最多吃几个？这5个问题一次性说清楚！",
        "docid": "7367528861070033435",
        "url": ""
    },
    {
        "title": "原来榴莲是这么采摘的，终于明白了",
        "docid": "7344727717969691188",
        "url": ""
    },
    {
        "title": "武汉藕带提前半月上市：多个菜摊售价15至25元不等，预计一周后将迎来大规模上市",
        "docid": "7367706362639319561",
        "url": ""
    },
    {
        "title": "修剪月季花 市民来分享",
        "docid": "7367648903921140258",
        "url": ""
    },
    {
        "title": "央媒看武威丨甘肃民勤沙葱产值超2亿元 种植一次可连续收割十年",
        "docid": "7367561382277071395",
        "url": ""
    },
    {
        "title": "渔民赶海时捡到一根海肠，解剖一下，眼前这幕简直了！",
        "docid": "7360960226297971236",
        "url": ""
    },
    {
        "title": "尝鲜正当时！“水果之王”降价啦",
        "docid": "7367749399113515529",
        "url": ""
    },
    {
        "title": "狗对主人的气味有多敏感？它仅是闻了一下气味，便知道了主人位置",
        "docid": "7367610537376481802",
        "url": ""
    },
    {
        "title": "乡村振兴｜村子很“潮”：安徽归巢游子“唤醒”青山",
        "docid": "7367685189700502042",
        "url": ""
    },
    {
        "title": "熟了！五月枇杷黄澄澄",
        "docid": "7367524278721544738",
        "url": ""
    },
    {
        "title": "山东省樱桃种植第一市，第一县，第一镇",
        "docid": "7365787660156060171",
        "url": ""
    },
    {
        "title": "笑不活了，广东300吨冻眠10个月的荔枝上市，网友：实现荔枝自由",
        "docid": "7366467711813091879",
        "url": ""
    },
    {
        "title": "农村建房化粪池你做对了吗？关键5点，90%的朋友不知道！",
        "docid": "7336447188798751266",
        "url": ""
    },
    {
        "title": "很多农村人关心身后事，说好听点是务虚，说难听点就是愚蠢！",
        "docid": "7367566676931445285",
        "url": ""
    },
    {
        "title": "牛羊肉价格为何下跌？",
        "docid": "7367205890115650084",
        "url": ""
    },
    {
        "title": "我认为：生产队时的社员出工不出力、混工分，这只是个别现象！",
        "docid": "7366866269045326376",
        "url": ""
    },
    {
        "title": "温铁军教授：不要鼓吹中国农村土地私有化，去印度看看再说话",
        "docid": "7366855381940781578",
        "url": ""
    },
    {
        "title": "吃货们着急了！今年广西人还能享“荔枝自由”吗？",
        "docid": "7367528838219416083",
        "url": ""
    },
    {
        "title": "创历次之最！中越联合放流1.28亿尾水生生物",
        "docid": "7367154936095982134",
        "url": ""
    },
    {
        "title": "退休后，无论退休金多高，你去农村老家转一圈，就会明白3件事",
        "docid": "7360592826293305890",
        "url": ""
    },
    {
        "title": "沉浸式掰野竹笋了，这种笋子吃的就是一个嫩 #2024新农人计划",
        "docid": "7365421465518211622",
        "url": ""
    },
    {
        "title": "事实证明，老一辈人的眼光和智慧，超前了几十年",
        "docid": "7365668235720606243",
        "url": ""
    },
    {
        "title": "\"小岗村严金昌直言：大包干38载，未致富不怪我们！\"",
        "docid": "7367109062376391202",
        "url": ""
    },
    {
        "title": "价格大“跳水”！“榴莲自由”要来了吗？",
        "docid": "7367598696341225995",
        "url": ""
    },
    {
        "title": "农村怪现象：有本事的人断香火，没本事的人却人丁兴旺，咋回事？",
        "docid": "7353525450523607571",
        "url": ""
    },
    {
        "title": "江高4岁小醒狮超萌！#舞狮 #民俗文化 #醒狮闹新春 #江高镇",
        "docid": "7340150236977267210",
        "url": ""
    },
    {
        "title": "六七十年代，东北农村有多冷？那时候的农村人是怎样御寒的？",
        "docid": "7336967553765524007",
        "url": ""
    },
    {
        "title": "越南北方农村住宅建设水平已接近我国江浙沪一带农村",
        "docid": "7343080321774387764",
        "url": ""
    },
    {
        "title": "2024年农村建房，全国各地“最新政策”整理！建议收藏参考",
        "docid": "7366955143591658038",
        "url": ""
    },
    {
        "title": "最狗血的婚礼! 新郎接到前女友电话当场逃婚 新娘在台上急中生智",
        "docid": "7349069322562503220",
        "url": ""
    },
    {
        "title": "养殖黑鱼和野生黑鱼，谁的气场更强大？",
        "docid": "7367243531214062117",
        "url": ""
    },
    {
        "title": "名存实亡的中国石榴之乡-蒙自，十四亿人养不活一块最好的石榴地",
        "docid": "7340244192213500467",
        "url": ""
    },
    {
        "title": "很幸运嫁给有钱人家，都说我高攀了，带大家看一下婆家的全景豪宅",
        "docid": "7360607041351582247",
        "url": ""
    },
    {
        "title": "小龙虾跌破10元/斤？潜江中国虾谷：“小青”6元起批，精品虾价格超过30元",
        "docid": "7366942374230262313",
        "url": ""
    },
    {
        "title": "红薯“倒插苗”栽培产量高，啥是倒插苗？好处不只是结薯多",
        "docid": "7347275852055216649",
        "url": ""
    },
    {
        "title": "种玉米试试套种这些作物和蔬菜，一块地收获两种，双双都获高产",
        "docid": "7336149230043595318",
        "url": ""
    },
    {
        "title": "刚提的新车还没来得及上牌，结果就和电瓶车亲密接触了一下",
        "docid": "7344235757479854611",
        "url": ""
    },
    {
        "title": "洪水退去，湖南一处洼地鱼多人多，可惜后来场景很难看",
        "docid": "7356509148332327463",
        "url": ""
    },
    {
        "title": "农田里种出黄金，1亩白芍10万元，背后引发了农民的惊人变化",
        "docid": "7366859629566951970",
        "url": ""
    },
    {
        "title": "新麦来了一个“下马威”？0.85~0.87元，2024年5月11日小麦行情",
        "docid": "7367501491744719395",
        "url": ""
    },
    {
        "title": "广西罕见井水沸腾，像一口烧开的大锅，水不知哪里来不知哪里去",
        "docid": "7359934475721146907",
        "url": ""
    },
    {
        "title": "阳江这只小虫子，能创造亩产60000元的价值！",
        "docid": "7360337329887740450",
        "url": ""
    },
    {
        "title": "江西远嫁四川南充，这就是我老公家的山沟里，当初在广东认识",
        "docid": "7335701853147136527",
        "url": ""
    },
    {
        "title": "淮安顶流“小李书记”又上央视了！",
        "docid": "7367557734235767331",
        "url": ""
    },
    {
        "title": "孙女回家小跑喊“爷爷爷爷”，爷爷一把抱起孙女，久久不愿放下",
        "docid": "7356137778683314723",
        "url": ""
    },
    {
        "title": "来自农村长辈的炸裂大瓜，后辈毫无保留说出，果然姜还是老的辣呀",
        "docid": "7367612061896950291",
        "url": ""
    },
    {
        "title": "建房子的时候，留下刚出生的宝宝的脚印，告知这房是他的",
        "docid": "7367639765836890661",
        "url": ""
    },
    {
        "title": "大庆渔民发现六只“不明生物”？原来是它……",
        "docid": "7367209249706983999",
        "url": ""
    },
    {
        "title": "100元3个？岳阳人的“榴莲自由”来了吗？",
        "docid": "7366923243288117798",
        "url": ""
    },
    {
        "title": "网友热议！90后最美村官，看着像50岁，实际仅有20多岁",
        "docid": "7367377664472285723",
        "url": ""
    },
    {
        "title": "200名干部插秧2亩耗资49万元？官方：插秧2.5亩仅花几万",
        "docid": "7367677813475967488",
        "url": ""
    },
    {
        "title": "老人去世前向监控喊孙女见最后一面：爷爷明天要走了，你来看下嘛",
        "docid": "7362424418515026444",
        "url": ""
    },
    {
        "title": "震惊！60岁农民6000元买15年养老保险，到手养老金竟不足千元？",
        "docid": "7367737059894985216",
        "url": ""
    },
    {
        "title": "分田单干40年，现在农村光棍一个村比一个村多，事实是这样吗？",
        "docid": "7357756266346840614",
        "url": ""
    },
    {
        "title": "王婆休假一个月？今天李婆替身了，看看差距有多大",
        "docid": "7353573397466448434",
        "url": ""
    },
    {
        "title": "在七十年代，十块钱人民币能买到什么",
        "docid": "7341353550536409610",
        "url": ""
    },
    {
        "title": "美国人养2000头驴防狼，为什么狼怕驴？看看驴的段位有多高",
        "docid": "7361245434641121846",
        "url": ""
    },
    {
        "title": "周新成 | 哪些孩子还在乡镇中学读书？校长直言：都是在城里买不起房的",
        "docid": "7341576388685824550",
        "url": ""
    },
    {
        "title": "南阳日报社百名记者走基层｜唐河：“新农人” 成致富“兴农人”",
        "docid": "7367158980508008975",
        "url": ""
    },
    {
        "title": "深山里的香蕉熟透了都无人采摘，阿姐只好摘回家晒干喂猪",
        "docid": "7356602199587324453",
        "url": ""
    },
    {
        "title": "赶海捕鱼：菲律宾渔民在红树林中捕捉长相酷似蝎子的泥龙虾！",
        "docid": "7336527642328564276",
        "url": ""
    },
    {
        "title": "穷人进城富人归乡",
        "docid": "7367578735714779674",
        "url": ""
    },
    {
        "title": "美好生活在云南｜鲜甜多汁！曲靖会泽本土车厘子陆续成熟啦",
        "docid": "7366927651833053723",
        "url": ""
    },
    {
        "title": "五月枇杷满树金 杭州塘栖枇杷进入采摘季",
        "docid": "7367631716016456192",
        "url": ""
    },
    {
        "title": "汉源县将于5月19日举行富庄镇万亩甜樱桃采摘体验季启动仪式暨“樱桃王”评选比赛活动",
        "docid": "7367718605783417359",
        "url": ""
    },
    {
        "title": "仁和2000多亩枇杷陆续成熟！提前尝鲜初夏甜蜜",
        "docid": "7367563894094692873",
        "url": ""
    },
    {
        "title": "温州中式婚礼的天花板  温州良工集团的大公子成婚大典",
        "docid": "7356504342465249828",
        "url": ""
    },
    {
        "title": "云投诉丨网友反映养牛场污染环境 业主：环保设备投入近百万 建设符合环保要求",
        "docid": "7367653226297999882",
        "url": ""
    },
    {
        "title": "90后美女：18岁开始不用卫生巾、上厕所不用纸，却养300只蚯蚓！",
        "docid": "7367269799744913960",
        "url": ""
    },
    {
        "title": "广东300吨冻眠荔枝解冻上市，网友：吃出一种预制菜的既视感。",
        "docid": "7366436627108971027",
        "url": ""
    },
    {
        "title": "农村又要变样了！只因一项行动全面展开，每个村要覆盖到位",
        "docid": "7366429183021367846",
        "url": ""
    },
    {
        "title": "我们的人民政府可以为群众操心到什么地步？",
        "docid": "7367414104144839205",
        "url": ""
    },
    {
        "title": "大妈想拿新郎手上的红包，都被新郎巧妙躲过",
        "docid": "7367345514666590720",
        "url": ""
    },
    {
        "title": "内蒙古达里湖迎来华子鱼洄游季生态奇观",
        "docid": "7367268921474286131",
        "url": ""
    },
    {
        "title": "重庆村民因枇杷滞销，将千余斤枇杷踩碎，网友：我吃不起你卖不掉",
        "docid": "7366897402806157876",
        "url": ""
    },
    {
        "title": "别被电视剧骗了！生产队时期的农民，晚上的活动比你想象的还丰富",
        "docid": "7331275731627115008",
        "url": ""
    },
    {
        "title": "任亮亮：天天迎检、火化也搞排名，被围困的“亮点村”负担何时休？",
        "docid": "7347127532002771506",
        "url": ""
    },
    {
        "title": "湖北孝感141个村民被冒名注册149个工商执照 知情人：村里为骗补贴而注册",
        "docid": "7367363011868607003",
        "url": ""
    },
    {
        "title": "树下“滴油”，他们出动了",
        "docid": "7361737627634172466",
        "url": ""
    },
    {
        "title": "再过五十年，农村的房子会越来越值钱吗？网友：再过二十来看看。",
        "docid": "7365078673822728742",
        "url": ""
    },
    {
        "title": "八十年代考上中师中专的，大部分现在都生活在最底层",
        "docid": "7366809755093828123",
        "url": ""
    },
    {
        "title": "15天内，价格跌了近一半！商家：一天一个价，可能还会跌！",
        "docid": "7365723950045020682",
        "url": ""
    },
    {
        "title": "重庆华侨城附近有野猪出没？工作人员：已抓获1只，继续摸排",
        "docid": "7367285137488527935",
        "url": ""
    },
    {
        "title": "开鲁县事件后续来了，国家督导整改要求曝光，局长:老实人吃了亏",
        "docid": "7366230156962513443",
        "url": ""
    },
    {
        "title": "海关总署连发公告，塞尔维亚蓝莓、匈牙利樱桃将登上中国餐桌，相关产品线上已有销售",
        "docid": "7367286269791044131",
        "url": ""
    },
    {
        "title": "29岁修理工发明“旋风除草刀”，一天工作量10分钟就完成",
        "docid": "7358814456275304994",
        "url": ""
    },
    {
        "title": "宁阳为救人英雄王龙亲属发放慰问金100万元，政府抚养其子到18岁",
        "docid": "7366593055267176998",
        "url": ""
    },
    {
        "title": "笑不活了，29岁村支书回应长相显老，我笑死在评论区",
        "docid": "7367209742470726185",
        "url": ""
    },
    {
        "title": "这三粒“洋种子” 云南一不小心种成全国“最大”",
        "docid": "7340831398669992486",
        "url": ""
    },
    {
        "title": "农村建房开工第一天就刷到要合村并镇，我们这也会合并吗？",
        "docid": "7343232953885360655",
        "url": ""
    },
    {
        "title": "200多个品种、30万朵月季正绽放！上海这个免费鲜花农场藏不住了",
        "docid": "7366883585468531234",
        "url": ""
    },
    {
        "title": "回乡建房的12条建议！条条都是血泪经验，帮你省钱不掉坑",
        "docid": "7337091722930815524",
        "url": ""
    },
    {
        "title": "贵阳背猪大汉走红网络 ，16岁女儿：爸爸很辛苦",
        "docid": "7366035226675380748",
        "url": ""
    },
    {
        "title": "红砖房的危局",
        "docid": "7337163818193469993",
        "url": ""
    },
    {
        "title": "女子在家门口晒着太阳，大娘直接上门给她说媒，女子隔天举动亮了",
        "docid": "7364708154896024090",
        "url": ""
    },
    {
        "title": "五一假期回到农村乡下老家，住了几天，彻底改变了我看法：呆不住",
        "docid": "7365470852567122486",
        "url": ""
    },
    {
        "title": "女子菜地浇水，无意舀起一条滑溜长胡须的鱼，给家人一看赶紧放生",
        "docid": "7336404889327075891",
        "url": ""
    },
    {
        "title": "猪的寿命是多少年，如果一头猪一辈子不杀，能长到多大呢？",
        "docid": "7340469683713344015",
        "url": ""
    },
    {
        "title": "我国哪里的辣椒最出名？中国十大辣椒产地，哪个地方的最辣呢？",
        "docid": "7363563966297129522",
        "url": ""
    },
    {
        "title": "农村建房有“宁往前赶一山，不向后挪一砖”的说法，对吗？",
        "docid": "7351603244260672026",
        "url": ""
    },
    {
        "title": "河南50多名年轻人，捐资16.8万元，回村干了件大事！",
        "docid": "7340595972013474356",
        "url": ""
    },
    {
        "title": "广东一农户花80万元平移4层楼房60米，平移期间全家仍住屋内，施工方揭秘",
        "docid": "7353615214350336547",
        "url": ""
    },
    {
        "title": "​养花不如种水果，“4种果树”，剪个枝插盆里就活，够吃十几年！",
        "docid": "7343508370252612136",
        "url": ""
    },
    {
        "title": "女子阳台种出像鸡蛋那么大的西瓜，切开网友沸腾：连皮都舍不得扔",
        "docid": "7359391940397236763",
        "url": ""
    },
    {
        "title": "女生在羊场摸羊屁股，手感Q弹晃动时太有弹性，一旁大爷眼神亮了",
        "docid": "7350924933922456076",
        "url": ""
    },
    {
        "title": "解锁农业黑科技｜在楼房里育新种",
        "docid": "7354288019991708194",
        "url": ""
    },
    {
        "title": "太爷爷凶了小重孙几句，小重孙开始“反复质问”太爷",
        "docid": "7338639176952840742",
        "url": ""
    },
    {
        "title": "直辖市的县为什么热衷于升区？垫江县被纳入重庆主城都市区版图",
        "docid": "7353440773561516571",
        "url": ""
    },
    {
        "title": "越闹越大！越来越多年轻人辞职去种地冲上热搜，评论区炸锅了",
        "docid": "7367197789110944256",
        "url": ""
    },
    {
        "title": "网友在山上发现一大片野生菌，朵朵紧挨着连成一条蜿蜒的“河流”",
        "docid": "7366183843499344419",
        "url": ""
    },
    {
        "title": "10套农村中式小院，藏有四季绚烂，绝美设计你一定不能错过",
        "docid": "7338335448453939752",
        "url": ""
    },
    {
        "title": "云南一寡妇带5儿女深山过“原始生活”二十余年，18年才上户口",
        "docid": "7338260677792498211",
        "url": ""
    },
    {
        "title": "500年“世界第一渔港”，沦落到禁渔20年无鱼可捕，堪称断子绝孙",
        "docid": "7361001015367238159",
        "url": ""
    },
    {
        "title": "杀鸡时，肚子里有一块“黄油”常被丢掉，殊不知是个宝，涨知识了",
        "docid": "7363107172512875071",
        "url": ""
    },
    {
        "title": "闹大了！干部严防死守村民烧秸秆，月餐费竟高达10多万，网友炸了",
        "docid": "7351976271352300042",
        "url": ""
    },
    {
        "title": "利川深山惊现“齐天大圣”，头戴紫金冠，盘坐莲花台",
        "docid": "7342055373706101282",
        "url": ""
    },
    {
        "title": "废桶可别扔，拿来种生姜，6个月挖出“一桶姜山”，一年吃不完",
        "docid": "7348703547925987903",
        "url": ""
    },
    {
        "title": "父母不到60患癌去世，我把母亲养鸡的石钵带到广州，种上落地生根",
        "docid": "7336485732216898098",
        "url": ""
    },
    {
        "title": "渡马镇：油菜喜迎丰收 机械收割节本增效",
        "docid": "7367567882475274803",
        "url": ""
    },
    {
        "title": "这就是当初我不顾父母反对嫁的婆家！也是所有人嫁到江苏的下场！",
        "docid": "7342016770024636940",
        "url": ""
    },
    {
        "title": "女孩收拾的干干净净准备出门，哥哥：前脚说去约会，瞬间哭着回",
        "docid": "7346795255372612096",
        "url": ""
    },
    {
        "title": "人均资产600万到负债400亿：毁掉“天下第一村”的是人，不是时代",
        "docid": "7366953809047814707",
        "url": ""
    },
    {
        "title": "男子将山中泉眼改造成鱼池，豪气倒入一桶鱼喂养，隔天一看傻眼",
        "docid": "7366065494530458164",
        "url": ""
    },
    {
        "title": "云南打跳，小狗的DNA觉醒了",
        "docid": "7344682785057014272",
        "url": ""
    },
    {
        "title": "现在的土地承包制变成烫手山芋，有些人地卖了，钱用了，怎么分？",
        "docid": "7352719909199118857",
        "url": ""
    },
    {
        "title": "大哥这一网下去河里鱼都要笑了，“撒得太好了 下次不要再撒了”",
        "docid": "7367252276916552232",
        "url": ""
    },
    {
        "title": "3种果树，随意剪个枝，插土里就活，果子密密麻麻，全家吃不完",
        "docid": "7338390376048411163",
        "url": ""
    },
    {
        "title": "农业这块儿，任何省份都干不过新疆，新疆农业这么厉害得感谢兵团",
        "docid": "7359978817009648137",
        "url": ""
    },
    {
        "title": "六七十年代的人不在了，也许就没有春节了，三个原因现实又残酷",
        "docid": "7335347013862867508",
        "url": ""
    },
    {
        "title": "曾是80年代“最火”的下饭菜，今却遭冷落也难寻，你当时吃过没？",
        "docid": "7351337130461676069",
        "url": ""
    },
    {
        "title": "继父来我家42年，靠做木匠活养大我们兄弟仨，母亲走后他却消失了",
        "docid": "7360941827182314010",
        "url": ""
    },
    {
        "title": "农民养老金迎来好消息，湖南60岁和65岁农民，每月养老金有多少？",
        "docid": "7347923306210902591",
        "url": ""
    },
    {
        "title": "老天眷顾河南立夏后的天气，今年河南小麦会是一个丰收年",
        "docid": "7365678918693437963",
        "url": ""
    },
    {
        "title": "合乡、并村、撤屯，是该考虑的时候了",
        "docid": "7346881584345170484",
        "url": ""
    },
    {
        "title": "洪水过后，河边捡漏，发现1米长的大鱼",
        "docid": "7364236497878254080",
        "url": ""
    },
    {
        "title": "交过公粮的农民，为什么领不到退休金？终于有了答案！",
        "docid": "7361259077684560423",
        "url": ""
    },
    {
        "title": "女子捞一网小鱼均匀撒进田地，鱼活蹦乱跳一片银色：当成肥料了？",
        "docid": "7367636543143576105",
        "url": ""
    },
    {
        "title": "我对老家陕西农村办丧事的几点建议，希望能引起大家的共鸣和思考",
        "docid": "7354540847980954162",
        "url": ""
    },
    {
        "title": "狼是真的养不熟吗？08年内蒙牧羊人救下小狼，长大后意外发生了！",
        "docid": "7341755513882821155",
        "url": ""
    },
    {
        "title": "洛阳市孟津区麻屯镇：“红”了大樱桃 “火”了好日子",
        "docid": "7367640145543152180",
        "url": ""
    },
    {
        "title": "最后的采燕窝人余成明：一斤高达2万6，但儿子宁愿打工也不学",
        "docid": "7339079173220925967",
        "url": ""
    },
    {
        "title": "巴基斯坦：麦收季节田间忙",
        "docid": "7366781249198883347",
        "url": ""
    },
    {
        "title": "汉川：1200亩桑树变身助农增收“摇钱树”",
        "docid": "7367247322650051081",
        "url": ""
    },
    {
        "title": "10套造价30万左右的自建房，房间多客厅大，收藏赶紧回家建",
        "docid": "7337217915743306240",
        "url": ""
    },
    {
        "title": "农田很常见的蛴螬最怕什么？",
        "docid": "7366954263404200486",
        "url": ""
    },
    {
        "title": "请远离汉江边！湖北省启动汉江中下游梯级枢纽联合生态调度",
        "docid": "7367629848883331603",
        "url": ""
    },
    {
        "title": "曾经，妈妈的哪句话让你破防了？",
        "docid": "7367719832822759973",
        "url": ""
    },
    {
        "title": "农村老话说：“门要常打开，户要常关闭”，门和户有什么不同吗？",
        "docid": "7354591202613658112",
        "url": ""
    },
    {
        "title": "环境行动内江秸秆焚烧问题曝光，居民要求严惩不贷，“零容忍”",
        "docid": "7366930724584309285",
        "url": ""
    },
    {
        "title": "“盐湖股份”升级为央企，要一飞冲天了？",
        "docid": "7367614296001380905",
        "url": ""
    },
    {
        "title": "荔枝价格贵到飞起？现在荔枝多少钱一斤？今年荔枝为什么这么贵？",
        "docid": "7367312097060897316",
        "url": ""
    },
    {
        "title": "2024年三伏天时间表来了，今年三伏天不一般，今年三伏要热到哭？",
        "docid": "7367571081726607907",
        "url": ""
    },
    {
        "title": "农村拆迁按宅基地面积乘1.2进行补偿，与建筑面积无关，合理吗？",
        "docid": "7365771045061984806",
        "url": ""
    },
    {
        "title": "男子跟大爷聊天口渴了，大爷给男子整一个甘蔗解渴",
        "docid": "7352698376594391561",
        "url": ""
    },
    {
        "title": "农村小贩高价回收的长头发，都被拿去做什么了？真的做酱油了吗？",
        "docid": "7346190943395201546",
        "url": ""
    },
    {
        "title": "没想到不婚族这股潮流正涌向农村，光棍越来越多，评论区破防了！",
        "docid": "7341988185141969419",
        "url": ""
    },
    {
        "title": "内蒙古干部拦春耕后续：纪委已介入，更多内幕曝出，“上级”慌了",
        "docid": "7367917185802568255",
        "url": ""
    },
    {
        "title": "重庆深山发现大批荒废的豪华别墅，废弃多年已杂草丛生，太可惜了",
        "docid": "7353505501469999643",
        "url": ""
    },
    {
        "title": "湖北百余名村民身份被冒用注册个体户？回应：正在调查",
        "docid": "7367300391928840714",
        "url": ""
    },
    {
        "title": "公公把地笼放到菜园水沟，儿媳表示白瞎功夫，却意外收到很多黄鳝",
        "docid": "7358237454098399783",
        "url": ""
    },
    {
        "title": "我在湖北潜江做虾贩：每天凌晨四点去收虾，一天能卖两三万斤，没有暴富神话",
        "docid": "7367948123919909388",
        "url": ""
    },
    {
        "title": "今年的杨柳飞絮咋这么多！到底啥时候结束？官方回应",
        "docid": "7367802634943742527",
        "url": ""
    },
    {
        "title": "北京大妈活到106岁，6个儿子都死了，天坛大爷直言说出心里话",
        "docid": "7365912915091980836",
        "url": ""
    },
    {
        "title": "一人结婚，全家举债？部分农村婚姻失衡调查",
        "docid": "7367271525802164786",
        "url": ""
    },
    {
        "title": "专家：水稻每亩1200公斤，可信吗？听老农民谈经验全都明白了",
        "docid": "7338225239626908200",
        "url": ""
    },
    {
        "title": "【中国经济时报】国际领先！这项技术在襄州成功应用",
        "docid": "7367741709075972618",
        "url": ""
    },
    {
        "title": "#300年长寿甘蔗如今还在发新芽   在福建南平的万前村",
        "docid": "7350222035412320783",
        "url": ""
    },
    {
        "title": "大人小孩欢聚一堂，真正诠释了回老家建房的意义#喜气洋洋",
        "docid": "7335443134308549159",
        "url": ""
    },
    {
        "title": "樱桃是哪里的特产？中国10个樱桃主要产地，你觉得哪里最有名？",
        "docid": "7365395372150456859",
        "url": ""
    },
    {
        "title": "29岁女村支书回应“长相显老”：风吹日晒的真实写照，也不太喜欢打扮",
        "docid": "7367177099792384575",
        "url": ""
    },
    {
        "title": "“臭屁虫”卖400元1斤堪比冰荔？有东莞人说它是“童年的味道”",
        "docid": "7356158231795941924",
        "url": ""
    },
    {
        "title": "昆明榴莲大丰收，价格暴跌。",
        "docid": "7366811702735815231",
        "url": ""
    },
    {
        "title": "挖荠菜当心这些“假荠菜”鱼目混珠，怎么精准识别？看这些地方",
        "docid": "7348701372051669519",
        "url": ""
    },
    {
        "title": "“一年旱涝看小满”，5月20日小满，今下半年是旱是涝？答案来了",
        "docid": "7367162179549692457",
        "url": ""
    },
    {
        "title": "见识一下东南亚的高手处理牛蹄，去毛如削萝卜皮，刀工手法一绝",
        "docid": "7344615342875869696",
        "url": ""
    },
    {
        "title": "男人动手制作一个工具捕鱼，鱼获满满，真的是厉害",
        "docid": "7342806579035111948",
        "url": ""
    },
    {
        "title": "山里有一种叫“地皮”的野菜，你是否认识",
        "docid": "7336506533511905792",
        "url": ""
    },
    {
        "title": "这里的蓝莓成熟了，一直能采摘到8月份",
        "docid": "7367252737337377318",
        "url": ""
    },
    {
        "title": "浉河区村民黄秀梅：打造庭院经济 引领乡村振兴",
        "docid": "7367573422693499429",
        "url": ""
    },
    {
        "title": "青贮小麦一亩卖1500元？农业部回应来了！但是评论区网友都不买账",
        "docid": "7366080133473583655",
        "url": ""
    },
    {
        "title": "在鸟不拉屎的水沟钓鱼，却有意想不到的鱼获#户外捕鱼 #钓鱼",
        "docid": "7334690539370021428",
        "url": ""
    },
    {
        "title": "美国的猪原来是这样养的，难怪会成为全球养猪大国，一起来见识下",
        "docid": "7347655786417685046",
        "url": ""
    },
    {
        "title": "兄弟们找到个好地方，白条太多啦，一网回家刺激#户外撒网捕鱼",
        "docid": "7364314204628582953",
        "url": ""
    },
    {
        "title": "水中精灵（军鱼）#河鲜 #石娟鱼#野生鱼 #原生态原滋味 #军鱼",
        "docid": "7352852208126526003",
        "url": ""
    },
    {
        "title": "打工人的绝望：农民工面临无工可打的困境，提前预防是关键！",
        "docid": "7339468161504657960",
        "url": ""
    },
    {
        "title": "塞尔维亚蓝莓获准入华！欧洲最大蓝莓生产国“卷”进中国市场，当地企业准备“大干一场”",
        "docid": "7367722968752931362",
        "url": ""
    },
    {
        "title": "男子拿出一块肉，喂河里的小鳄鱼吃，网友：这鳄鱼怎么只有头啊",
        "docid": "7367910889930818089",
        "url": ""
    },
    {
        "title": "140元一斤！江西人都出动了，很多路边随处可见",
        "docid": "7365297086071308850",
        "url": ""
    },
    {
        "title": "上百人在不起眼的河撒网捕鱼，每一网都是渔获满满，这是什么资源",
        "docid": "7346887427484549695",
        "url": ""
    },
    {
        "title": "河北小伙花13年，“救活”中国失传千年的传承，全世界仅他一人会",
        "docid": "7340161650341184012",
        "url": ""
    },
    {
        "title": "老人常说：“宅不栽五阴之木”，房前屋后不能栽这5种树，哪5种？",
        "docid": "7367946543166833167",
        "url": ""
    },
    {
        "title": "姑娘自建30米跨河大桥后续，桥梁两端修筑石墩，这下涨水也不怕",
        "docid": "7364025520851583539",
        "url": ""
    },
    {
        "title": "来自马来西亚的担忧：海南榴莲很可能超越我们，尤其是猫山王",
        "docid": "7365377483484430883",
        "url": ""
    },
    {
        "title": "大反转!干部拦春耕后续：张某4元承包，却以700一亩转让",
        "docid": "7361622831945515558",
        "url": ""
    },
    {
        "title": "姥爷没胃口，妈妈把饭搭子 送来了，谁吃谁能香迷糊 了",
        "docid": "7352785248440025626",
        "url": ""
    },
    {
        "title": "焚烧怕有污染，不烧影响生产：秸秆处置何解？",
        "docid": "7356434103456105012",
        "url": ""
    },
    {
        "title": "王婆舞台首次迎来“男女通吃”的安徽女孩👧 #开封王婆回归",
        "docid": "7365850730298606107",
        "url": ""
    },
    {
        "title": "不要小瞧一只狗的潜力！鳄鱼不慎从养殖基地逃走，狗狗实力压制",
        "docid": "7367607813675156018",
        "url": ""
    },
    {
        "title": "家里有棵枇杷树",
        "docid": "7344276153433555468",
        "url": ""
    },
    {
        "title": "大姐在深山里发现野生土豆？立马撬开石头开挖，一挖就是一大筐",
        "docid": "7336127112144749067",
        "url": ""
    },
    {
        "title": "天价彩礼为何屡屡触动社会神经？",
        "docid": "7367949048919212559",
        "url": ""
    },
    {
        "title": "广东省科技厅副厅长“提篮带货”：200多吨“冻眠荔枝”上市，系去年6月采摘",
        "docid": "7366503140075569679",
        "url": ""
    },
    {
        "title": "黄瓜浇水非常有讲究，千万不要随意乱浇水，黄瓜到底如何浇水呢？",
        "docid": "7361707216283517480",
        "url": ""
    },
    {
        "title": "榴莲跌至10元1斤？商家：今年价格确有下跌，但太便宜的可能是次果",
        "docid": "7367714319745991202",
        "url": ""
    },
    {
        "title": "湘西大叔家不通马路 为方便女儿回家停车 花3年手工凿出特殊车位",
        "docid": "7362169950725014053",
        "url": ""
    },
    {
        "title": "十块钱在70年代的饭店能吃些什么？",
        "docid": "7339329560783192576",
        "url": ""
    },
    {
        "title": "没有土地农民要拿什么生存？孟晓苏有站在农民的角度考虑过？",
        "docid": "7340916846092714548",
        "url": ""
    },
    {
        "title": "我国哪里的红枣最好吃？经过对比，这4个地方最有名，有你家乡吗",
        "docid": "7331661900495880731",
        "url": ""
    },
    {
        "title": "60，70年代，赤脚医生，农民没有看不起病，真正体现了救死扶伤！",
        "docid": "7345763807530517042",
        "url": ""
    },
    {
        "title": "四川“矮人村”，村民身高不超1米却并非侏儒症，庄稼都是缩小版",
        "docid": "7352849473619460619",
        "url": ""
    },
    {
        "title": "移栽蔬菜要记住，两个时候别施肥，秧苗不长别担心，这招就能解决",
        "docid": "7362500409820234251",
        "url": ""
    },
    {
        "title": "中国耕地抛荒问题：对重庆等地案例分析与对策 探讨农村农业的出路",
        "docid": "7366027242406724132",
        "url": ""
    },
    {
        "title": "这是中国人的院子，有花有田有远山，片尾还有个彩蛋#中式庭院",
        "docid": "7343492430454653449",
        "url": ""
    },
    {
        "title": "越闹越大？万吨粮食消失后续，网友发现一大蹊跷：别再查了",
        "docid": "7367335400517468722",
        "url": ""
    },
    {
        "title": "我家有个“穷亲戚”从来不在我家吃饭，这次来送“礼”还是不吃饭",
        "docid": "7364684379957953060",
        "url": ""
    },
    {
        "title": "广东粤西年例家庭内部矛盾爆发，大家都说年例味道变了#粤西年例",
        "docid": "7341414588656812563",
        "url": ""
    },
    {
        "title": "草甘膦加速爆发！化工高景气核心赛道，龙头强者恒强",
        "docid": "7365732405590409763",
        "url": ""
    },
    {
        "title": "农村有老房子的人注意了！这一次，不仅要排查农房，还要定期房检",
        "docid": "7364688514853782067",
        "url": ""
    },
    {
        "title": "卢克文：允许一户建老百姓愿意，网友：等着呢，设计师都找好了",
        "docid": "7367219295689900583",
        "url": ""
    },
    {
        "title": "五菱宏光在藏区真是神车，居然能装下两匹马，长见识。",
        "docid": "7336547245766607399",
        "url": ""
    },
    {
        "title": "从搬出山到“飞”出山，湖北秭归——鲜橙搭上无人机（在现场）",
        "docid": "7367905782794338831",
        "url": ""
    },
    {
        "title": "很多人都被骗了，赶集时看到这几样东西千万别买，买了肯定吃亏",
        "docid": "7340116115161219623",
        "url": ""
    },
    {
        "title": "2岁小孩在村里有一堆狗朋友，每天应酬不停玩到天黑不想回家",
        "docid": "7348413099134845474",
        "url": ""
    },
    {
        "title": "广西小伙农村盖房，因邻居不肯让路，没装修就丢弃了",
        "docid": "7344573270941532708",
        "url": ""
    },
    {
        "title": "厦门一年轻妈妈，一口气买下2700多元海鲜！只因……",
        "docid": "7359542810511589903",
        "url": ""
    },
    {
        "title": "男子放生泥鳅，却忘记将袋子解开，网友：放生放了个寂寞",
        "docid": "7339333355445584421",
        "url": ""
    },
    {
        "title": "说三农：当年农民出工支援国家建设，到底是不是“义务”？",
        "docid": "7346804402738577961",
        "url": ""
    },
    {
        "title": "苏州市民迎来“吃虾季”，虾类大量上市价格下降",
        "docid": "7367275982073463307",
        "url": ""
    },
    {
        "title": "15名知青50年后返乡大悟阳平虎岗村忆峥嵘岁月重温故里情",
        "docid": "7362815540681687603",
        "url": ""
    },
    {
        "title": "花了9000买回来的犟驴！因为它太黏人了，我都开始严重讨厌它了",
        "docid": "7346485620006453798",
        "url": ""
    },
    {
        "title": "打球的没有累死，旁边的观众笑死😆",
        "docid": "7335683153463837193",
        "url": ""
    },
    {
        "title": "“吃瓜盛宴”开启，西瓜价格持续走低",
        "docid": "7367339983105245696",
        "url": ""
    },
    {
        "title": "蜂蜜为什么难卖，养蜂行业很难见到光明，怎么办呢？",
        "docid": "7340819493754634767",
        "url": ""
    },
    {
        "title": "十年禁渔的功劳！长江南京段发现“新鱼种”，鱼资源恢复指日可待",
        "docid": "7367218664728298036",
        "url": ""
    },
    {
        "title": "“医美”五年后，大树树洞接近愈合，他们怎么做到的？",
        "docid": "7360512962836103721",
        "url": ""
    },
    {
        "title": "东北野鸡“满天飞”，为何吃货却不敢下嘴？农民直言：真惹不起！",
        "docid": "7367571911792067072",
        "url": ""
    },
    {
        "title": "榴莲突发跳水！已经“腰斩”！商家：一天一个价，可能还会跌！",
        "docid": "7365937673426469428",
        "url": ""
    },
    {
        "title": "它的出现，传统的联合收割机会被替代嘛？",
        "docid": "7339732534776824357",
        "url": ""
    },
    {
        "title": "农村女孩在家放牛，把牛处成了闺蜜，网友：养大了舍不得卖吧",
        "docid": "7363587967351685673",
        "url": ""
    },
    {
        "title": "广西外嫁女回老家，没想到变成这样子，太气人了1",
        "docid": "7346421657781600807",
        "url": ""
    },
    {
        "title": "乡镇干部变“网红”，直播带货为乡亲！",
        "docid": "7367706103477518858",
        "url": ""
    },
    {
        "title": "户口回迁农村，需打破“单向流动”桎梏",
        "docid": "7350969833011397120",
        "url": ""
    },
    {
        "title": "对话小龙虾剥虾机研发团队成员：一小时能剥200斤虾仁，相当于50倍人力",
        "docid": "7367918522904789542",
        "url": ""
    },
    {
        "title": "回乡创业：甘肃镇原小伙卖掉上海一套房，包2000亩地一年赚5000万",
        "docid": "7341036900071522856",
        "url": ""
    },
    {
        "title": "熟而不采，绕城绿道农作物成谜！成都兴城集团回复揭开真相！",
        "docid": "7366548551477920283",
        "url": ""
    },
    {
        "title": "恩施市太阳河乡：林下黑猪供不应求",
        "docid": "7367309162722394676",
        "url": ""
    },
    {
        "title": "这是最好钓的鱼种之一，没意见吧",
        "docid": "7358747824995729929",
        "url": ""
    },
    {
        "title": "太气人了！山里一人家外出打工十年没回家，没想到变成这样",
        "docid": "7353513463592780340",
        "url": ""
    },
    {
        "title": "两个大公鸡打架，滑铲那一下笑死我了",
        "docid": "7343025879531913755",
        "url": ""
    },
    {
        "title": "全国乡村振兴职业技能大赛落幕 资阳籍大一女生站上国家级赛场",
        "docid": "7367364362241344026",
        "url": ""
    },
    {
        "title": "家门口有一个马蜂窝男子拿着竹竿，躲在车里，捅马蜂窝",
        "docid": "7337515901060973108",
        "url": ""
    },
    {
        "title": "闹大啦，新上任，对杨树棉一个不留，没想到评论区炸锅了",
        "docid": "7367979475256328723",
        "url": ""
    },
    {
        "title": "一条街8个摊，“农田卫士”癞蛤蟆被剥皮贩售！",
        "docid": "7362393569342013992",
        "url": ""
    },
    {
        "title": "农民工16年变迁：大学生占比翻倍、建筑业减少1500万人",
        "docid": "7367215968273252916",
        "url": ""
    },
    {
        "title": "用新能源轻松抓捕田里黄鳝，这种可刑的操作方式你见过吗？",
        "docid": "7364052054496510499",
        "url": ""
    },
    {
        "title": "黑猪秒变白猪，高压水枪“滋滋”两下，立马就将猪洗白白！",
        "docid": "7360165103112552997",
        "url": ""
    },
    {
        "title": "大阴谋！紧急叫停，农村农业部明确发声，严禁毁坏青苗的行为！",
        "docid": "7367684991020532274",
        "url": ""
    },
    {
        "title": "总量近3亿人，农民工实现稳就业，什么是关键？",
        "docid": "7367518383337718307",
        "url": ""
    },
    {
        "title": "三兄弟往家里寄了300万建房子，过年回来看到这样子直接傻眼了",
        "docid": "7355131115541266978",
        "url": ""
    },
    {
        "title": "两个村子搞的并居，家家二层小楼，看看这新村搞的咋样。",
        "docid": "7347704143924232715",
        "url": ""
    },
    {
        "title": "江苏85后博士花5万，改造自家宅基地：整个家都不一样了",
        "docid": "7359585695008358948",
        "url": ""
    },
    {
        "title": "西安一条河龙虾泛滥，应网友的要求，展示一下抓龙虾以及收获",
        "docid": "7360572475765162535",
        "url": ""
    },
    {
        "title": "奇男子水上漂泊2年，不仅建造竹筏别墅，神级捕鱼技术让人惊叹",
        "docid": "7341576597281243684",
        "url": ""
    },
    {
        "title": "云南已消失的4个品牌，昔日火遍全国，如今沦为时代的眼泪",
        "docid": "7360710485001404979",
        "url": ""
    },
    {
        "title": "二舅养的一头猪没卖出去，我们大家去二舅家大吃一顿，二舅哭了",
        "docid": "7337517697862861338",
        "url": ""
    },
    {
        "title": "我真的不敢回农村建房了！老家离县城才10公里，我却想在县城买房",
        "docid": "7343935109634884159",
        "url": ""
    },
    {
        "title": "最辛苦的十大职业，收藏起来看看，我是农民，你呢？",
        "docid": "7366232557391774258",
        "url": ""
    },
    {
        "title": "堂叔两个女儿回来拜年了，小女儿一家开汽车，大女儿一家骑摩托车",
        "docid": "7335618794293248563",
        "url": ""
    },
    {
        "title": "中国“国宝级”农民，武警24小时持枪保护，种的东西不愁销路",
        "docid": "7350565472145932819",
        "url": ""
    },
    {
        "title": "这效果有人喜欢吗#农村自建别墅 #家的样子 #实景拍摄效果",
        "docid": "7356950022916833804",
        "url": ""
    },
    {
        "title": "大鱼从30米高的水库摔下，村民手持6米长网兜打捞，场面难得一见",
        "docid": "7363683271748715008",
        "url": ""
    },
    {
        "title": "婚礼变“好声音”决赛，新郎新娘对唱飙歌，网友：必须淘汰一个？",
        "docid": "7334707498031448614",
        "url": ""
    },
    {
        "title": "外出务工人员回流多",
        "docid": "7358646111994806834",
        "url": ""
    },
    {
        "title": "农村老物件：80岁的全认识，60以上的能认80%，90，00后闻所未闻",
        "docid": "7349077950496637450",
        "url": ""
    },
    {
        "title": "张馨予家的院子：满是花海，果树，敷面膜摘月季，让人羡慕",
        "docid": "7365430982247203355",
        "url": ""
    },
    {
        "title": "舅舅结婚让小外甥改口喊舅妈“叫三声舅妈”，小外甥一喊全场爆笑",
        "docid": "7355696146079023635",
        "url": ""
    },
    {
        "title": "3个大局已定，退休人员看完却坐不住了，希望你早知道，早做准备",
        "docid": "7367310753168474665",
        "url": ""
    },
    {
        "title": "对于村村合并，农民们的内心有点小纠结：安置房能给大点吗？",
        "docid": "7338280980635075123",
        "url": ""
    },
    {
        "title": "农村断亲现象为何越来越严重？",
        "docid": "7001356600212472361",
        "url": ""
    },
    {
        "title": "2023年养猪公司亏惨了：正邦亏50亿、温氏亏60亿、牧原亏38亿",
        "docid": "7337555504534897190",
        "url": ""
    },
    {
        "title": "玉米“豪横大涨”！玉米这波涨价彻底压不住了！5月12日玉米报价",
        "docid": "7367623828220133898",
        "url": ""
    },
    {
        "title": "16年前,大爷在家挖出鱼泉,靠卖鱼年入30万,现在怎样了?",
        "docid": "7365379573971681833",
        "url": ""
    },
    {
        "title": "矿泉水瓶成育苗“神器”，保温保湿还便宜",
        "docid": "7360859266858844699",
        "url": ""
    },
    {
        "title": "上海男子每天艰难抢菜，猛然想起阳台有片菜地，上楼一看惊喜万分",
        "docid": "7347491203086189067",
        "url": ""
    },
    {
        "title": "菏泽“树哥”郭有才和女朋友苏畅在市区长城路京九铁路桥西开的郭忠道烤腰子店爆棚了！！上百人挤着抢座！",
        "docid": "7367731446838067738",
        "url": ""
    },
    {
        "title": "4000万吨，再造一个东北！内蒙古如何成中美粮食战争的下一张王牌",
        "docid": "7367689477470356009",
        "url": ""
    },
    {
        "title": "为啥秸秆不能露天烧？五个误区要厘清",
        "docid": "7347151007157207578",
        "url": ""
    },
    {
        "title": "又一款水果降价！价格近乎“腰斩”",
        "docid": "7367151678242259497",
        "url": ""
    },
    {
        "title": "为什么越来越多的人，一定要在老家建房？只因这三点，打动上万人",
        "docid": "7354293657362580002",
        "url": ""
    },
    {
        "title": "现在城市扫马路的、当保洁的、当保姆的、当保安的、多数都是农民",
        "docid": "7357910031431762483",
        "url": ""
    },
    {
        "title": "即将消失的雅砻江“采燕人”：一斤卖到2万6，儿子宁愿打工也不学",
        "docid": "7339451307587191332",
        "url": ""
    },
    {
        "title": "抗癌药草，人称“癞蛤蟆草”，农村地里常遇到",
        "docid": "7359031179120935478",
        "url": ""
    },
    {
        "title": "湖南麻阳山间竹笋遍地生",
        "docid": "7360147695866102287",
        "url": ""
    },
    {
        "title": "2098.9W粉丝的网红康仔农人被疑翻车，网友：越来越奇葩",
        "docid": "7365528767726600767",
        "url": ""
    },
    {
        "title": "拿了补贴就跑？1万家企业集体注销，人民日报的呼吁该重视了",
        "docid": "7367791671070704154",
        "url": ""
    },
    {
        "title": "突然暴涨！网友：吃不起！福州的情况是……",
        "docid": "7368057884032303627",
        "url": ""
    },
    {
        "title": "肿瘤塞满骨缝，老汉艰难卖废品攒钱买药，儿子成博士后4年没回家",
        "docid": "7348291482577257001",
        "url": ""
    },
    {
        "title": "榴莲价格开跌，有摊贩一天内降5元/斤",
        "docid": "7367631632494412340",
        "url": ""
    },
    {
        "title": "备战“三夏”忙 农民购机“热”",
        "docid": "7367932901222040105",
        "url": ""
    },
    {
        "title": "长江生态大翻盘?禁渔十年成果揭晓，甲鱼成生态恢复“代言人”！",
        "docid": "7367867987732316723",
        "url": ""
    },
    {
        "title": "1983年除夕二姨没钱过年，母亲背着袋子过去，并把表姐带回家",
        "docid": "7335666375823819301",
        "url": ""
    },
    {
        "title": "16亿只蟹宝宝在崇明集中投放",
        "docid": "7366986838324314635",
        "url": ""
    },
    {
        "title": "热瓜旦 #甜瓜种植 #新疆哈密瓜 #甜瓜 #田园生活 #甜瓜",
        "docid": "7339412766455038499",
        "url": ""
    },
    {
        "title": "50岁爷爷俩月没见孙子，下火车赶来看孙子，不料宝宝见爷爷竟这样",
        "docid": "7357292873216754185",
        "url": ""
    },
    {
        "title": "非洲最“悲痛”的婚礼，新娘发出惨叫没人理，父母反而还很开心",
        "docid": "7348360811997299238",
        "url": ""
    },
    {
        "title": "增产超30% 节水超25% 新疆农业大学沙地苜蓿科研项目取得新突破",
        "docid": "7367649822704271898",
        "url": ""
    }
]