[
    {
        "title": "叶澜依为什么如此嚣张，连皇帝都不放在眼里？她的靠山是谁？",
        "docid": "7313092805667258889",
        "url": ""
    },
    {
        "title": "1943年，汉奸李士群被日本人毒杀，死状凄惨，身体蜷缩的像猴子",
        "docid": "7317203987009143323",
        "url": ""
    },
    {
        "title": "前南斯拉夫解体，死得最壮烈的将军：被西方审判，当庭服毒身亡",
        "docid": "7292385326042022441",
        "url": ""
    },
    {
        "title": "马克思致信恩格斯：圣诞到了，给我寄点过节费",
        "docid": "7316899269632492032",
        "url": ""
    },
    {
        "title": "北洋水师最巅峰时，为什么不先下手灭掉日本海军？",
        "docid": "7316416369678172691",
        "url": ""
    },
    {
        "title": "李斯十大名言，鲁迅盛赞之",
        "docid": "7316434470691914280",
        "url": ""
    },
    {
        "title": "1935年，胡蝶和梅兰芳外出偶遇，留下了这一张合影，气质绝佳",
        "docid": "7299854257287791115",
        "url": ""
    },
    {
        "title": "吐蕃的版图兴衰：盛极一时的高原帝国如何最终归于中华大一统？",
        "docid": "7313805807006237235",
        "url": ""
    },
    {
        "title": "东西德合并后东德人民的生活水平提高了吗？萨沙问答第233集",
        "docid": "7316944191656018495",
        "url": ""
    },
    {
        "title": "东汉开国皇后郭圣通，为何会被刘秀废黜？郭圣通到底做错了什么？",
        "docid": "7292727126682255883",
        "url": ""
    },
    {
        "title": "水浒传中十恶不赦的高俅，在历史上结局如何，是否得到严惩？",
        "docid": "7309274878782423564",
        "url": ""
    },
    {
        "title": "1981年湖北老头在深山称帝并建立后宫，10年骗55名女子，结局如何",
        "docid": "7317194886150324772",
        "url": ""
    },
    {
        "title": "涨知识了！中国近代史脉络，为孩子收藏吧，没有比这个更贴心的了",
        "docid": "7317270649502941733",
        "url": ""
    },
    {
        "title": "在清朝，道台、总督和巡抚，哪个官职最大？如何排位？",
        "docid": "7317252727703372303",
        "url": ""
    },
    {
        "title": "唐朝为什么会被称为巨唐！",
        "docid": "7316626935499473417",
        "url": ""
    },
    {
        "title": "长白山中，5只狼围杀一少年：他竟能护牛、救人、杀跑狼|旧闻",
        "docid": "7298909500730327564",
        "url": ""
    },
    {
        "title": "古代宝刀削铁如泥，为何科技进步后，现代反而做不到了？",
        "docid": "7287498073835323943",
        "url": ""
    },
    {
        "title": "辅佐秦昭襄王创下不世之业的7位文臣武将",
        "docid": "7292739191769743872",
        "url": ""
    },
    {
        "title": "功德林军衔最低的战犯：本已投诚，为何却还是被送入功德林改造？",
        "docid": "7313948523635491338",
        "url": ""
    },
    {
        "title": "胤禩为何惧怕福晋郭络罗氏？就她娘家那背景，换成谁都得忌惮三分",
        "docid": "7304142038663414311",
        "url": ""
    },
    {
        "title": "大明朝审验军功首级，是真的专业到令人瞠目：齿脸皮发，看投摸刮",
        "docid": "7289238257009738255",
        "url": ""
    },
    {
        "title": "西宁、南宁大家都知道，东宁、北宁在哪里？",
        "docid": "7299274242355446308",
        "url": ""
    },
    {
        "title": "有一位女子凭借其非凡的舞姿和绝世的美貌成为了众人瞩目的焦点。",
        "docid": "7316971017023406631",
        "url": ""
    },
    {
        "title": "被死神遗忘的老人，活到146岁，把四任妻子和儿女全都“熬死”",
        "docid": "7311156504504681012",
        "url": ""
    },
    {
        "title": "10年前，那个美国抓捕未果，入籍俄罗斯的斯诺登，如今过得怎样",
        "docid": "7316826794479321640",
        "url": ""
    },
    {
        "title": "扮猪吃老虎：李氏父子顶级权斗",
        "docid": "7307843369508749875",
        "url": ""
    },
    {
        "title": "顺治皇帝只活到了23岁，为何却生下了14个孩子，他是如何做到的？",
        "docid": "7297419816795669032",
        "url": ""
    },
    {
        "title": "同为苏联领导人，戈尔巴乔夫与赫鲁晓夫的退休生活，为何相差甚远",
        "docid": "7316595280479207973",
        "url": ""
    },
    {
        "title": "一代情僧仓央嘉措：被押解去北京的路上离世，他真正的死因是什么",
        "docid": "7285890553399689747",
        "url": ""
    },
    {
        "title": "忽必烈定国号元，为何不继续称蒙古？",
        "docid": "7291483341277430324",
        "url": ""
    },
    {
        "title": "晚清老照片告诉你，这才是真实的清朝，一百年前的穷人有多穷",
        "docid": "7299702894855504403",
        "url": ""
    },
    {
        "title": "隋唐：靠山王杨林有四位得力大将，他们的武力如何排名？",
        "docid": "7289336675208020514",
        "url": ""
    },
    {
        "title": "张居正见到李成梁后，忧虑的说道：以后灭我大明的人肯定是他",
        "docid": "7314869768329282067",
        "url": ""
    },
    {
        "title": "袁世凯虽然争议很大，但却有一个世界闻名的孙子，为中国奋斗一生",
        "docid": "7317146827730584064",
        "url": ""
    },
    {
        "title": "太平天国覆灭后，曾国藩挖开洪秀全墓，看到其中场景，竟当场呕吐",
        "docid": "7316485957229068810",
        "url": ""
    },
    {
        "title": "知县退休后能享受哪些待遇？别看级别不高，影响力却不能小觑",
        "docid": "7311564697453675008",
        "url": ""
    },
    {
        "title": "万历帝死后24年明朝便亡国，明实亡于万历这句话到底对不对？",
        "docid": "7316396979720831526",
        "url": ""
    },
    {
        "title": "天开函谷壮关中，函谷关易守难攻？看地图一目了然",
        "docid": "7285931629716046370",
        "url": ""
    },
    {
        "title": "比犹太人更加顽强的民族, 在被灭2300多年后, 于1991年终于复国",
        "docid": "7296334822497141299",
        "url": ""
    },
    {
        "title": "雅尔哈善杀降：清准战争最血腥的一幕，一夜屠尽4000准噶尔骑兵",
        "docid": "7291225792003277353",
        "url": ""
    },
    {
        "title": "全球最后一个封建领土：443年共传承22代人，如今年赚上亿",
        "docid": "7317119914152821263",
        "url": ""
    },
    {
        "title": "2007年渣滓洞被山洪冲毁，意外发现一地洞，洞中藏品揭开沉痛历史",
        "docid": "7300890234416792115",
        "url": ""
    },
    {
        "title": "他是倭寇眼中的大明战神，从无败绩，居然也有认怂的时候",
        "docid": "7317245363520274959",
        "url": ""
    },
    {
        "title": "唐朝的武力巅峰明明是唐高宗时代，为何人们只提贞观之治？",
        "docid": "7316841508958323251",
        "url": ""
    },
    {
        "title": "赵括的父亲赵奢，只打赢秦国一次，为何就被称作名将？",
        "docid": "7291294619302953506",
        "url": ""
    },
    {
        "title": "如何才能拯救一个舔狗男孩儿",
        "docid": "7317201201983095323",
        "url": ""
    },
    {
        "title": "清代的一等侍卫是个多大的官，地位高不高？",
        "docid": "7317182682726056486",
        "url": ""
    },
    {
        "title": "“杨家将”在正史之中真实的结局",
        "docid": "7290817156168696379",
        "url": ""
    },
    {
        "title": "八国联军侵华，有七国归还了部分赔款，唯有一国叫嚣：一分不还！",
        "docid": "7317300764009857555",
        "url": ""
    },
    {
        "title": "兆惠：雍正亲自提拔，乾隆为他牵马，6年收复清朝六分之一疆土",
        "docid": "7289732214957425210",
        "url": ""
    },
    {
        "title": "清朝人口为何出现爆炸式增长，从7000万猛增到4亿多，原因很简单",
        "docid": "7292976791281713701",
        "url": ""
    },
    {
        "title": "为何在中国神权永远无法压制王权？这便是中国强大的真正根源",
        "docid": "7299049979648590399",
        "url": ""
    },
    {
        "title": "约在100年前的1930年，当时世界最高的摩天大楼，从1位到10位",
        "docid": "7285192501491827252",
        "url": ""
    },
    {
        "title": "周朝八百年，实际别扭的很！",
        "docid": "7289793466173899325",
        "url": ""
    },
    {
        "title": "崇祯皇帝的最后24小时：大明王朝崩塌的最后一天，他做了什么？",
        "docid": "7301507890148557353",
        "url": ""
    },
    {
        "title": "“时间错觉”有多震撼？8张图片告诉你答案！",
        "docid": "7316811640794939958",
        "url": ""
    },
    {
        "title": "当年，村里那位牛气冲天的计生委干部，大家来看看他如今怎么样？",
        "docid": "7317152169906504243",
        "url": ""
    },
    {
        "title": "罕见的“南明史”影视剧",
        "docid": "7317100503325311522",
        "url": ""
    },
    {
        "title": "日本明治维新成功原因",
        "docid": "7308579109842534927",
        "url": ""
    },
    {
        "title": "山西盂县皇后村人为啥大都姓“鄯”？他们真的是楼兰人的后裔吗？",
        "docid": "7295226212337598988",
        "url": ""
    },
    {
        "title": "古代武将真能举几十斤的兵器打一天？出土文物，揭秘兵器真实重量",
        "docid": "7296083797051851318",
        "url": ""
    },
    {
        "title": "94岁失明老兵隐居71年，因日军大印暴露身份，部队用6辆坦克迎接",
        "docid": "7315594601924936228",
        "url": ""
    },
    {
        "title": "600年前明朝大移民，812个姓氏从洪洞大槐树下出发，他们到了哪里",
        "docid": "7296781247828623910",
        "url": ""
    },
    {
        "title": "元朝覆灭，数百万蒙古女子被明军俘虏，朱元璋处理的方式令人叹服",
        "docid": "7306336984933532196",
        "url": ""
    },
    {
        "title": "门阀士族的最后50年，五代十国的骄兵悍将为啥不鸟这些高门了",
        "docid": "7280457915029406220",
        "url": ""
    },
    {
        "title": "历史上满蒙多次联姻，为什么八国联军侵华时，蒙古不支援大清？",
        "docid": "7316560375934239286",
        "url": ""
    },
    {
        "title": "28岁的徐志摩：“苏俄一切都是演戏”",
        "docid": "7316600552773730850",
        "url": ""
    },
    {
        "title": "中国历史上408位皇帝，只有这个省人才辈出却从没出过皇帝，为何",
        "docid": "7317218136959222298",
        "url": ""
    },
    {
        "title": "大英帝国是如何失去海上霸权的",
        "docid": "7316079850337403428",
        "url": ""
    },
    {
        "title": "秦统一天下后，周天子得到了什么待遇？秦始皇想羞辱他都找不到人",
        "docid": "7287830642614829623",
        "url": ""
    },
    {
        "title": "超过6成人口是华人！华人为何聚居圣诞岛？他们是哪来的？",
        "docid": "7283770326218097188",
        "url": ""
    },
    {
        "title": "悍匪陶耀标，强抢放牛女娃做压寨夫人，败露后藏身山洞17年",
        "docid": "7296683043354460672",
        "url": ""
    },
    {
        "title": "朱棣的三个儿子结局，老大当皇帝老二被活活烤死，老三最好",
        "docid": "7293780167720616499",
        "url": ""
    },
    {
        "title": "汉武帝六个儿子，为啥偏要立幼子刘弗陵为继承人？",
        "docid": "7298239492584964645",
        "url": ""
    },
    {
        "title": "清朝为什么能够统治近三百年？主要在于两个问题的解决",
        "docid": "7293421535963005452",
        "url": ""
    },
    {
        "title": "历史的疑惑：章邯率领的是囚犯？不，是正规军",
        "docid": "7316438487912530459",
        "url": ""
    },
    {
        "title": "世人皆知“凿壁偷光”，却不知匡衡的真面目，令人唏嘘",
        "docid": "7317168930546778635",
        "url": ""
    },
    {
        "title": "古代少女还没发育成熟，为何13、14岁就要嫁人？答案其实很简单！",
        "docid": "7299280866755248677",
        "url": ""
    },
    {
        "title": "1949年，徐林侠哀求特务：放了小萝卜头吧，让他上街要饭去也好",
        "docid": "7294959399318471209",
        "url": ""
    },
    {
        "title": "15张罕见历史老照片：100年前高丽将军的出行方式，太搞笑",
        "docid": "7296472801245053477",
        "url": ""
    },
    {
        "title": "马斯克也未必买的起10亿一根金丝楠木不计其数，历经3任传奇主人",
        "docid": "7317219645449110042",
        "url": ""
    },
    {
        "title": "名将坟场：古代惨烈到影响国运的一次败仗，折损名将最多的一战",
        "docid": "7289356904193884709",
        "url": ""
    },
    {
        "title": "商朝国都朝歌，周朝国都西岐，如今位于什么地方？",
        "docid": "7290450947032039976",
        "url": ""
    },
    {
        "title": "清朝皇室乳母：选拔标准极其严苛，作用不止喂奶那么简单",
        "docid": "7316475882665935387",
        "url": ""
    },
    {
        "title": "一段很野的正史",
        "docid": "7285902357735473683",
        "url": ""
    },
    {
        "title": "人类史上残酷的一面，被拍了出来，细扒这部电影，真牛",
        "docid": "7316450871250879012",
        "url": ""
    },
    {
        "title": "红巾军首领被困城中，向朱元璋求救，刘伯温却认为坚决不能救！",
        "docid": "7317183735814783551",
        "url": ""
    },
    {
        "title": "大学生毕业前一天，被两名神秘军人带走，销声匿迹30年后名动天下",
        "docid": "7316484318174986787",
        "url": ""
    },
    {
        "title": "战国四大公子排名：能力大比拼，你心中的最强是谁？",
        "docid": "7317153088384221747",
        "url": ""
    },
    {
        "title": "为何古人认为出了“五服”就不是亲戚，“五服”究竟代表什么？",
        "docid": "7316196616644493875",
        "url": ""
    },
    {
        "title": "康熙口误叫错一水果名字，后人也跟着叫错300年，今叫法仍然不对",
        "docid": "7287824768446120503",
        "url": ""
    },
    {
        "title": "古人被判灭九族之罪时，亲属为何不逃？其实选择逃跑的人才是真蠢",
        "docid": "7291962050169831962",
        "url": ""
    },
    {
        "title": "范文程的根基有多深？他的子孙不管有才无才，皇帝最少要给二品",
        "docid": "7288976341406319167",
        "url": ""
    },
    {
        "title": "生了120多个儿子，刘备的祖先，汉武帝刘彻的哥哥——中山靖王！",
        "docid": "7284029511774372409",
        "url": ""
    },
    {
        "title": "唐朝时期的中国到底有多繁华和强盛？不愧为中华文明的巅峰时期",
        "docid": "7317237185500398115",
        "url": ""
    },
    {
        "title": "\"卢小嘉与黄金荣：民国传奇公子的江湖风云\"",
        "docid": "7317255508468072994",
        "url": ""
    },
    {
        "title": "龙袍是帝王的象征，为什么到了宋朝，皇帝突然都不穿龙纹了？",
        "docid": "7286662865057006137",
        "url": ""
    },
    {
        "title": "文天祥骂吕文焕是叛宋逆贼，焕：我守襄阳六年，宋廷干什么去了？",
        "docid": "7316124050572165669",
        "url": ""
    },
    {
        "title": "西周末年厉鬼杀人事件，周宣王之死",
        "docid": "7316756471096902185",
        "url": ""
    },
    {
        "title": "武则天一生心狠手辣，临终前却对一人念念不忘，特意下诏为他平反",
        "docid": "7299382413153600041",
        "url": ""
    },
    {
        "title": "秦始皇一生修建6大“世界级”工程，4个屹立至今，都是世界级遗产",
        "docid": "7317096901982519817",
        "url": ""
    },
    {
        "title": "1934年红军52团失踪，中央多次调查无果，67年后村中老人讲出真相",
        "docid": "7316925064492892723",
        "url": ""
    },
    {
        "title": "在古代，从广州到北京需要多长时间？结果可能和你想的不一样",
        "docid": "7307550963101860403",
        "url": ""
    },
    {
        "title": "中国姓氏都有自己的守护神，你姓什么？看看你的“守护神”是谁？",
        "docid": "7304869456302391847",
        "url": ""
    },
    {
        "title": "明亡亡于天启？你可以同情崇祯，但不要低估了那个木匠的智慧",
        "docid": "7304559022118781477",
        "url": ""
    },
    {
        "title": "唐朝之后，为何中原王朝都不再将长安作为都城？有三个主要原因",
        "docid": "7289622280504902198",
        "url": ""
    },
    {
        "title": "92岁台湾老兵重庆寻亲，下飞机后向女儿提出质疑：这是台北？",
        "docid": "7309292961052181002",
        "url": ""
    },
    {
        "title": "日军入侵东莞真实场景！士兵坐在虎门炮台上，表情一脸的轻蔑",
        "docid": "7286833835461886518",
        "url": ""
    },
    {
        "title": "一个家庭的财运如何，看孩子的长相就知道了",
        "docid": "7226165365540192826",
        "url": ""
    },
    {
        "title": "含山公主：朱元璋最长寿之女，历经8朝，明朝16帝她可能见过一半",
        "docid": "7287851290812498493",
        "url": ""
    },
    {
        "title": "隋唐第一女将，杀罗士信，生擒程咬金，却在新婚之夜死于丈夫之手",
        "docid": "7310125763519873546",
        "url": ""
    },
    {
        "title": "大明王朝：陈洪示好，竟被徐阶当面羞辱？这才是官场大智慧",
        "docid": "7307248381259186727",
        "url": ""
    },
    {
        "title": "古人在没有打火机的年代，如何生火做饭？难道天天钻木取火吗？",
        "docid": "7312308499235897895",
        "url": ""
    },
    {
        "title": "他才是项羽最大的敌人，让刘邦忌惮不已，司马迁不敢写",
        "docid": "7317097801639330343",
        "url": ""
    },
    {
        "title": "著名文物修复前vs修复后，简直是化腐朽为神奇啊！",
        "docid": "7313224363217027594",
        "url": ""
    },
    {
        "title": "淮南王刘长之死：有时候，真相远比史书所记载的，还要可怖！",
        "docid": "7316342321237230092",
        "url": ""
    },
    {
        "title": "四猛之首罗士信父亲，一战单挑18将遇宇文成都，两大无敌谁更强？",
        "docid": "7299466715539489295",
        "url": ""
    },
    {
        "title": "李自成人生中最后一战九宫山之战有多惨烈？兵败身死仍留一大谜团",
        "docid": "7291491430919651876",
        "url": ""
    },
    {
        "title": "秦朝灭亡后，名将王翦的后代分家避祸，不料造就2个千年豪门",
        "docid": "7295946757765087783",
        "url": ""
    },
    {
        "title": "袁崇焕遭凌迟处死，侍卫发毒誓守墓，如今18代后人已执行393",
        "docid": "7316795467915149875",
        "url": ""
    },
    {
        "title": "六七十年代，秦城监狱里的五不准，晚上睡觉，双手不能放被子里",
        "docid": "7298955120388719115",
        "url": ""
    },
    {
        "title": "秦朝一名将：熬死了秦始皇、汉高祖，成功继位称帝，名字妇孺皆知",
        "docid": "7289413458243109415",
        "url": ""
    },
    {
        "title": "在韩国实行三光政策, 凌辱女游击队员, 杀人比日军还多的国父",
        "docid": "7283907813309891087",
        "url": ""
    },
    {
        "title": "朱元璋骑马经过田间，看到一位大汉在睡觉，从此得了半个明朝",
        "docid": "7289268627193561635",
        "url": ""
    },
    {
        "title": "晚清偷拍的真实影像！每一张珍贵黑白相片记录了一个时代的创伤！",
        "docid": "7316859582226596391",
        "url": ""
    },
    {
        "title": "陕西97岁农民去世，国民党总部从台湾送来牌匾，上书4字民族之光",
        "docid": "7293423180571722266",
        "url": ""
    },
    {
        "title": "明清小冰期到底有多冷？持续了600年，间接导致了明朝的灭亡！",
        "docid": "7304587392290226728",
        "url": ""
    },
    {
        "title": "中国最后一名知青：滞留北大荒41年，41年后战友来找他：跟我回京",
        "docid": "7306443394375680527",
        "url": ""
    },
    {
        "title": "曾经那些被贩卖的女黑奴，她们的一生究竟是怎样的？",
        "docid": "7290484260295688745",
        "url": ""
    },
    {
        "title": "相士给人看面相，结果一进门扭头就走，他说：这家人都不是一般人",
        "docid": "7285566593252508216",
        "url": ""
    },
    {
        "title": "第一个睁眼看世界的中国人：被匈奴逼迫娶妻生子，如今后代过千人",
        "docid": "7317236363525554707",
        "url": ""
    },
    {
        "title": "70岁老臣被赐死，吃完断头饭后，说了临终遗言，皇帝闻听后：免死",
        "docid": "7303545023227544102",
        "url": ""
    },
    {
        "title": "为什么穆罕默德不立女婿阿里当接班人？你看看他有多少个圣妻！",
        "docid": "7317154121826468352",
        "url": ""
    },
    {
        "title": "我国史上唯一一个外国皇后，坐上后位第一件事，出兵灭了自己母国",
        "docid": "7292219499905401385",
        "url": ""
    },
    {
        "title": "我国历史有1500年“空白期”，无任何史料记载，中间发生了什么？",
        "docid": "7287159455941509669",
        "url": ""
    },
    {
        "title": "1950年聂荣臻下令枪决一师级干部，临刑前却含泪嘱咐：给他点鱼吃",
        "docid": "7293367840512786944",
        "url": ""
    },
    {
        "title": "尉迟恭的儿子成为唐朝恶霸，强抢民女，连皇帝都包庇",
        "docid": "7316396099005252122",
        "url": ""
    },
    {
        "title": "蒙古往事：军阀“汤大虎”汤玉麟",
        "docid": "7312373356588909068",
        "url": ""
    },
    {
        "title": "为什么法国会想不到德军绕开马奇诺防线？",
        "docid": "7304158758266257974",
        "url": ""
    },
    {
        "title": "黄巾军中有五位猛将，个个骁勇善战，有一人可力敌关羽赵云",
        "docid": "7286306379265065491",
        "url": ""
    },
    {
        "title": "捷克与斯洛伐克分裂之后，为什么没有国家之间激烈的矛盾？",
        "docid": "7313551608665784869",
        "url": ""
    },
    {
        "title": "盎格鲁撒克逊民族简史",
        "docid": "7286662242634957312",
        "url": ""
    },
    {
        "title": "他是杨家将中的矮脚虎，一出世就差点吓死母亲，个子小却有大能量",
        "docid": "7308029962081075727",
        "url": ""
    },
    {
        "title": "晚清老照片：百年前颐和园实景，慈禧太后最喜欢住这里",
        "docid": "7317258819275719177",
        "url": ""
    },
    {
        "title": "清朝驯服蒙古的原因，史书将其藏得太深，难怪清朝时蒙古没有南侵",
        "docid": "7317235689601827369",
        "url": ""
    },
    {
        "title": "1979年，台军连长孤身泅渡台湾海峡回国，如今成大陆经济学泰斗",
        "docid": "7133403864702812705",
        "url": ""
    },
    {
        "title": "听官名即知人物官场段位续：看清剧时不可不知的满清官制（军武）",
        "docid": "7316790102964257306",
        "url": ""
    },
    {
        "title": "大火持续三月，方圆百里尽成灰烬，谁让阿房宫被彻底烧毁？",
        "docid": "7317090591723012620",
        "url": ""
    },
    {
        "title": "秦汉时期的珍禽异兽",
        "docid": "7315271093336408614",
        "url": ""
    },
    {
        "title": "为啥中国古代城防只发展出了夯土、包砖城墙？欧洲却有石砌城墙？",
        "docid": "7292982425112756746",
        "url": ""
    },
    {
        "title": "只因风水太好，古代的大人物都爱葬在这里",
        "docid": "7316408599067034146",
        "url": ""
    },
    {
        "title": "1955年火柴厂工人吹牛，前女友愤然举报，八路军悬案真相大白",
        "docid": "7314193689939591715",
        "url": ""
    },
    {
        "title": "西南地区最大土匪头子曹绍华的覆灭",
        "docid": "7317138269341368867",
        "url": ""
    },
    {
        "title": "古人常说“千年的王朝难有,千年的世家常在”是为什么?",
        "docid": "7316962804039189027",
        "url": ""
    },
    {
        "title": "清朝老照片：穷人无立锥之地，富人妻妾成群，贫富差距太大",
        "docid": "7308236487400866316",
        "url": ""
    },
    {
        "title": "世人皆知兵仙韩信，却不知东汉有位大将比他还强，还发明了个成语",
        "docid": "7317118366542709275",
        "url": ""
    },
    {
        "title": "皇帝无法生育，忠臣把怀孕妻送给皇帝，诞生了一成语，流传至今",
        "docid": "7296037944199234048",
        "url": ""
    },
    {
        "title": "秦国军功赐田，不担心将来土地不够分吗？1976年考古才知商鞅机智",
        "docid": "7294426895909831202",
        "url": ""
    },
    {
        "title": "英美的“盎格鲁撒克逊人”从哪里来?",
        "docid": "7310208928363708979",
        "url": ""
    },
    {
        "title": "民国上海黑帮大亨的远见：送15岁儿子参加新四军，解放后安享晚年",
        "docid": "7287044981780070948",
        "url": ""
    },
    {
        "title": "日本女护士嫁中国将军64年，生下歌唱家女儿，女婿更是家喻户晓",
        "docid": "7294554385911464499",
        "url": ""
    },
    {
        "title": "\"科举路上的捷径：书生柳青的悲剧\"",
        "docid": "7317057145038733876",
        "url": ""
    },
    {
        "title": "1936年红军师长流落广西，秘密埋下6担银元3担枪支，最后找回了吗",
        "docid": "7316768389215863333",
        "url": ""
    },
    {
        "title": "岳飞虽死，后裔却是一代比一代牛，二十一世孙战功不输岳飞",
        "docid": "7289718773186265641",
        "url": ""
    },
    {
        "title": "松赞干布死后，没有子嗣的文成公主，在西藏的30年是怎么度过的？",
        "docid": "7299327889215226383",
        "url": ""
    },
    {
        "title": "陈宫的智谋怎么样？如果听从他的计策，吕布还会败给曹操吗？",
        "docid": "7288359618890498594",
        "url": ""
    },
    {
        "title": "李渊为什么不选李世民当太子，是你也不会！",
        "docid": "7293325358466941466",
        "url": ""
    },
    {
        "title": "岳飞被处决当日，十万岳家军为什么没来劫法场？你看监斩官是谁",
        "docid": "7313816846011187775",
        "url": ""
    },
    {
        "title": "难怪雍正从未怀疑过眉庄：你看她怀孕时都做了啥，比甄嬛聪明多了",
        "docid": "7306406313184510518",
        "url": ""
    },
    {
        "title": "司马懿的洛水之誓后果有多严重？中国因此出现系统性的道德坍塌",
        "docid": "7313405911693820451",
        "url": ""
    },
    {
        "title": "2005年，杨虎城孙子找到杀害爷爷的凶手，笑着说：祝您活到110岁",
        "docid": "7302330438046286399",
        "url": ""
    },
    {
        "title": "张郃的一生值得反复品读，那能代表我们职场人的大多数，一声叹息",
        "docid": "7314480634179633703",
        "url": ""
    },
    {
        "title": "为什么说三国鼎立，吴国最难",
        "docid": "7284633809772233255",
        "url": ""
    },
    {
        "title": "十年后才懂，皇上不杀安陵容，却罚终生禁足每日掌嘴，真相太残酷",
        "docid": "7292768168915812899",
        "url": ""
    },
    {
        "title": "发现没？雍正临死前为何要“扯黄带子”？其实甄嬛险些输了",
        "docid": "7286782510233879097",
        "url": ""
    },
    {
        "title": "魏延大喊“谁敢杀我”被杀，其实前面他还说了一句，那句才是关键",
        "docid": "7304836655695938088",
        "url": ""
    },
    {
        "title": "马谡如果当道下寨，能不能守住街亭？司马懿说得再明白不过",
        "docid": "7316887735808623119",
        "url": ""
    },
    {
        "title": "20张罕见历史老照片，刘亦菲曾说自己是全家最丑的，还真是如此",
        "docid": "7299379351031235081",
        "url": ""
    },
    {
        "title": "古代夫妇睡觉时，为什么让丫鬟守在床边，夫妻俩不觉得尴尬吗？",
        "docid": "7309100978719457807",
        "url": ""
    },
    {
        "title": "燕青为何能迷住李师师？原因主要有3点，大多数女性都很欣赏",
        "docid": "7293418075477770779",
        "url": ""
    },
    {
        "title": "血统纯正的汉人是单眼皮？那双眼皮从哪来？作为炎黄子孙必须知道",
        "docid": "7317224669764125236",
        "url": ""
    },
    {
        "title": "回宫后嬛嬛竟比宜修尊贵？看懂钮祜禄的含金量，才理解皇后的崩溃",
        "docid": "7288988273828151860",
        "url": ""
    },
    {
        "title": "只有范蠡才能看透人心",
        "docid": "7299891810006991411",
        "url": ""
    },
    {
        "title": "1929年，林徽因一张罕见的“孕装照”，仙气十足，美的不可方物",
        "docid": "7305729852546908684",
        "url": ""
    },
    {
        "title": "“汉寿亭侯”是最低的侯爵，为何关羽一直挂在嘴边？点醒上万读者",
        "docid": "7291175809195393570",
        "url": ""
    },
    {
        "title": "吕蒙杀死关羽父子后，为何就突然暴毙而亡？吴主孙权：他独断独行",
        "docid": "7306037104600498728",
        "url": ""
    },
    {
        "title": "“扬州瘦马”是什么？清朝时期权贵们的爱好，却摧残无数花季少女",
        "docid": "7290368212963902004",
        "url": ""
    },
    {
        "title": "吕布没杀过一个有名大将，为啥他却是第一猛将？神评点醒上万网友",
        "docid": "7290704162734670371",
        "url": ""
    },
    {
        "title": "如果周瑜不死，会同意吕蒙用白衣渡江这种计谋去袭取荆州吗?",
        "docid": "7293295776615383606",
        "url": ""
    },
    {
        "title": "现在的德国人如何看待希特勒",
        "docid": "7289383382646260265",
        "url": ""
    },
    {
        "title": "段誉晚年有多惨？你听一灯大师给黄蓉疗伤时说了什么，就懂了",
        "docid": "7302818421442347561",
        "url": ""
    },
    {
        "title": "刘备夷陵之战几乎败光家底，为何无人称他昏君？引得上万网友感慨",
        "docid": "7293404892822258191",
        "url": ""
    },
    {
        "title": "杨过为何不灭了明教？书中暗示，教中这七大高手能将他活活打死",
        "docid": "7287120173684146723",
        "url": ""
    },
    {
        "title": "《投名状》中，庞青云加封两江总督，受太后垂青，为何非死不可？",
        "docid": "7298543586869510693",
        "url": ""
    },
    {
        "title": "封神之后，姜子牙见到天上的神仙时该怎么称呼，他们谁大谁小？",
        "docid": "7302008443161215539",
        "url": ""
    },
    {
        "title": "为何曹操想到挖走徐庶，却没想挖走诸葛孔明？神回答点醒上万读者",
        "docid": "7291482732637585935",
        "url": ""
    },
    {
        "title": "三国乱世时期，真正能称上顶级猛将只有5人，其他人根本不值一提",
        "docid": "7299407177830498868",
        "url": ""
    },
    {
        "title": "吴敬中一见翠平便知余则成有问题：你们不是老夫妻，她还是个姑娘",
        "docid": "7311647162058801675",
        "url": ""
    },
    {
        "title": "张居正扳倒高拱：一场教科书级别的权力斗争",
        "docid": "7304170477730234895",
        "url": ""
    },
    {
        "title": "杜月笙被绑架，绑匪要40万，他说：我出90万，剩下的请兄弟们喝茶",
        "docid": "7306074801238753792",
        "url": ""
    },
    {
        "title": "英王陈玉成有多少个老婆？他与李秀成关系如何？",
        "docid": "7291535999400821289",
        "url": ""
    },
    {
        "title": "霍去病为何要公然射杀李敢？绝非一时冲动，而是不得不杀！",
        "docid": "7307439136192348722",
        "url": ""
    },
    {
        "title": "朱高炽有10个儿子，为什么没有一人敢和朱瞻基抢皇位？",
        "docid": "7307188808809038347",
        "url": ""
    },
    {
        "title": "清代妃嫔等级划分图",
        "docid": "7316523133950100008",
        "url": ""
    },
    {
        "title": "朱元璋吃过老婆婆的豆腐汤赞不绝口，离开后却随即下令：杀了她",
        "docid": "7297033442708013622",
        "url": ""
    },
    {
        "title": "贾家真正的靠山，既不是皇帝也不是贾元春，而是从没出场的两个人",
        "docid": "7312812619994300955",
        "url": ""
    },
    {
        "title": "三皇五帝",
        "docid": "7286424650555605540",
        "url": ""
    },
    {
        "title": "《步步惊心》雍正为什么非要对玉檀施以蒸刑，不让她死的痛快些！",
        "docid": "7295670866284347943",
        "url": ""
    },
    {
        "title": "母亲被敌人绑在城头，将军痛哭过后照样攻城，曹操：此人不可大用",
        "docid": "7287016144282665507",
        "url": ""
    },
    {
        "title": "多尔衮是亲王，吴三桂也是亲王，这两个亲王哪个更上一层楼？",
        "docid": "7290189451542954552",
        "url": ""
    },
    {
        "title": "古代第一排士兵明知必死，为何还全力冲锋？答案很现实，换谁都冲",
        "docid": "7297067041616675364",
        "url": ""
    },
    {
        "title": "背叛刘邦，却封千户侯；高祖记恨终生，又不能杀：此人背景不简单",
        "docid": "7311726769970020899",
        "url": ""
    },
    {
        "title": "汉末迷案：糜芳、傅士仁作为刘备的功臣元老，为何要突然背叛关羽",
        "docid": "7284317292165415479",
        "url": ""
    },
    {
        "title": "孟婆身为弱女子，六界为何无人敢动？看看她丈夫和爹是谁就知道了",
        "docid": "7299400551069024808",
        "url": ""
    },
    {
        "title": "比王耀武、胡琏还能打的李玉堂，为何抗战胜利后，被蒋介石弃用？",
        "docid": "7317255372069470729",
        "url": ""
    },
    {
        "title": "英法“火烧圆明园”后，左宗棠与曾国藩反应，为什么截然相反？",
        "docid": "7298623870796792335",
        "url": ""
    },
    {
        "title": "岳飞的官职有多高",
        "docid": "7306775837708386855",
        "url": ""
    },
    {
        "title": "她因长得漂亮，被日军军官强行霸占5年，还生下女儿却至死未见面",
        "docid": "7315657587323339283",
        "url": ""
    },
    {
        "title": "“十常侍”死前为什么说：“臣等殄灭，天下乱矣。惟陛下自爱”？",
        "docid": "7285251000229888566",
        "url": ""
    },
    {
        "title": "浙江11市，每市一个家喻户晓的代表人物",
        "docid": "7303706213768872511",
        "url": ""
    },
    {
        "title": "曹操生性多疑，为何典韦却可以披甲带刀面见？评论区点醒上万网友",
        "docid": "7288895483894874664",
        "url": ""
    },
    {
        "title": "韩国人评选的“亚洲第一战神”，令日本人鄙夷，中国人笑而不语",
        "docid": "7309046509834699316",
        "url": ""
    },
    {
        "title": "黄忠在杀掉夏侯渊之后，他才真正弄明白，为何关羽不喜欢他",
        "docid": "7299352888252695055",
        "url": ""
    },
    {
        "title": "多尔衮为什么会被捧的那么高？评论区点醒上万读者",
        "docid": "7293750849145193012",
        "url": ""
    },
    {
        "title": "大英现在还有多少实力？英国：全球比我强的国家，应该不超过三个",
        "docid": "7301913142534717987",
        "url": ""
    },
    {
        "title": "曹魏将领为何都怕赵云，而不是关羽呢？网友：挺过三刀啥事没有！",
        "docid": "7293383128419156531",
        "url": ""
    },
    {
        "title": "暗杀警察厅长，暴打黄金荣，卢小嘉在军阀亲爹失势后结局如何",
        "docid": "7317289126179668531",
        "url": ""
    },
    {
        "title": "历史上著名的三大毒计，让人汗毛倒竖，最后一个堪称不出世之毒计",
        "docid": "7308666001720082959",
        "url": ""
    },
    {
        "title": "关羽败亡后，鞍前马后的周仓何去何从？",
        "docid": "7295752543257772570",
        "url": ""
    },
    {
        "title": "“抽烟的父亲”这个段子太精彩了，越品越有味",
        "docid": "7316955330783593000",
        "url": ""
    },
    {
        "title": "三国之一的东吴究竟有多不受待见？为何瞧不起东吴，上万网友讨论",
        "docid": "7293436350613897762",
        "url": ""
    },
    {
        "title": "沈眉庄随手抓“一把金瓜子”：为啥苏培盛颤抖接过赏赐？它多昂贵",
        "docid": "7287399866979205671",
        "url": ""
    },
    {
        "title": "法国人那么懒，为什么法国还是发达国家？看看真实的法国什么样",
        "docid": "7311325237487518234",
        "url": ""
    },
    {
        "title": "才华不敌林徽因，容貌逊于陆小曼，却得两任丈夫宠爱，后成外交家",
        "docid": "7290448896936018493",
        "url": ""
    },
    {
        "title": "清朝的“九门提督”，放到现在，相当于什么职位？",
        "docid": "7301611280547594752",
        "url": ""
    },
    {
        "title": "明朝皇后的墓里，出土十一双高跟鞋，古人真是又爱美又潮流",
        "docid": "7300143526842057267",
        "url": ""
    },
    {
        "title": "Ai高清还原 清朝的12位皇帝",
        "docid": "7306475371934188068",
        "url": ""
    },
    {
        "title": "大明王朝：只有嘉靖和吕芳知道杨金水在装疯？不，至少还有这6人",
        "docid": "7308378050964865555",
        "url": ""
    },
    {
        "title": "从拿破仑到希特勒，为何都要发动对俄战争？沙俄究竟侵略多少国家",
        "docid": "7312013145349030426",
        "url": ""
    },
    {
        "title": "唯一存世的“状元”考卷，2460字无可挑剔，不输现代的“书法家”",
        "docid": "7283666271630295609",
        "url": ""
    },
    {
        "title": "他是梁山最阴之人，一身神功却装弱，遇强敌就想投降，却活到最后",
        "docid": "7301650274329428534",
        "url": ""
    },
    {
        "title": "刘伯温讨水喝，农妇向水里撒了把谷壳，多年后刘伯温才知其中道理",
        "docid": "7293439962215924275",
        "url": ""
    },
    {
        "title": "一句台词识破潜伏间谍，赵丽蓉去世23年后，多家官媒仍发文缅怀",
        "docid": "7289755838510744121",
        "url": ""
    },
    {
        "title": "瑞典发达到了什么程度了？刚从瑞典回来，告诉你一个真实的瑞典",
        "docid": "7313563032234312255",
        "url": ""
    },
    {
        "title": "算命先生不认识你，却能张口说出你家几口人，真相其实很简单",
        "docid": "7300777796723393039",
        "url": ""
    },
    {
        "title": "武则天长啥样？古画揭秘真容，珠圆玉润身高1米67，堪称绝代佳人",
        "docid": "7301562382306804243",
        "url": ""
    },
    {
        "title": "吴起和白起相比谁的能力强？在战场上相遇谁能赢？说出来别不信",
        "docid": "7288902499011183115",
        "url": ""
    },
    {
        "title": "活得好的秘诀：不要脸",
        "docid": "7286276705222984227",
        "url": ""
    },
    {
        "title": "以色列眼中的四大强国都有谁？美俄上榜，我国在其中吗？",
        "docid": "7290853013454471740",
        "url": ""
    },
    {
        "title": "日军是怎么打进广西的？",
        "docid": "7292981755726823987",
        "url": ""
    },
    {
        "title": "晋这个国号，为何这么受欢迎？",
        "docid": "7288887143018103330",
        "url": ""
    },
    {
        "title": "1986年非洲尼奥斯湖，一夜夺走1700多条人命，将水抽干揪出凶手",
        "docid": "7308723499136057882",
        "url": ""
    },
    {
        "title": "楚国超级大墓，墓穴深到让盗墓贼绝望，官方动员2万人才找到墓室",
        "docid": "7287524739093135891",
        "url": ""
    },
    {
        "title": "史上最懒的诗人，一生只写了2句诗，却流传至今，人人皆知",
        "docid": "7297142163995902502",
        "url": ""
    },
    {
        "title": "三国打成一锅粥，为何没外族入侵？你看镇守边关的是谁就知道了",
        "docid": "7305978484969669160",
        "url": ""
    },
    {
        "title": "没有韩信，刘邦能打败项羽吗？网友的逆天神回复，太形象了",
        "docid": "7302638596702716470",
        "url": ""
    },
    {
        "title": "伊斯兰教为何分裂为逊尼派和什叶派？",
        "docid": "7316829363155059254",
        "url": ""
    },
    {
        "title": "清朝巡抚自创酷刑，仅2月“站死”370人，最后自己落得这结果",
        "docid": "7314270819620962828",
        "url": ""
    },
    {
        "title": "正史上公认的六大猛将，没有一个是虚构的人物，个个武力值爆表！",
        "docid": "7313557377561756223",
        "url": ""
    },
    {
        "title": "魏征是个凡人为何敢斩龙王？看看他的真实身份是啥？比皇帝还要高",
        "docid": "7315679575608984091",
        "url": ""
    },
    {
        "title": "李煜最艳一首词：刻画，女子最美部位，争议不断却让人爱不释手！",
        "docid": "7300528290475819561",
        "url": ""
    },
    {
        "title": "我国古代唯一被灭绝的民族：所作所为让人唾弃，被各族集体绞杀",
        "docid": "7316473824307347977",
        "url": ""
    },
    {
        "title": "董卓阵容豪华，顶尖谋士2人，猛将10员，其中3人比肩五虎将",
        "docid": "7302967820252348964",
        "url": ""
    },
    {
        "title": "山东人当年“闯关东”，为何宁愿去严寒的东北，也不去富饶的南方",
        "docid": "7304943204775133736",
        "url": ""
    },
    {
        "title": "敢回怼年羹尧的甘肃巡抚什么背景？年大将军又为何只能向帽子撒气",
        "docid": "7309382538848682505",
        "url": ""
    },
    {
        "title": "杜月笙一生争议不断，但他却有个全国闻名的儿子，为中国奋斗一生",
        "docid": "7291219330170389033",
        "url": ""
    },
    {
        "title": "汪伪“76号”特务万里浪",
        "docid": "7295991782079218215",
        "url": ""
    },
    {
        "title": "哥哥你走西口，西口在哪儿？",
        "docid": "7284130354477253177",
        "url": ""
    },
    {
        "title": "古代文人最高的谥号是“文正”，为什么千百年来只有27人有幸获得",
        "docid": "7306069885531570740",
        "url": ""
    },
    {
        "title": "马皇后有两个女儿，她们的经历证明了朱标和朱棣都是马皇后生的",
        "docid": "7297254023546143244",
        "url": ""
    },
    {
        "title": "老照片：胡因梦和父亲合影，连战妻子美艳动人，孙立人的青涩模样",
        "docid": "7315774584791056915",
        "url": ""
    },
    {
        "title": "康熙最长寿儿子：手握重兵却未参与九子夺嫡，70岁时乾隆仍重用他",
        "docid": "7316694502297666085",
        "url": ""
    },
    {
        "title": "秦始皇统一六国时，世界各国都在干什么？看到日本时请先憋住笑",
        "docid": "7311642207621710362",
        "url": ""
    },
    {
        "title": "他是赵云的同门师兄，三国真正的常胜将军，一生无败绩却鲜有人知",
        "docid": "7288516218850443815",
        "url": ""
    },
    {
        "title": "徐锡麟被害前清兵给拍了张照片，看后很不满：没笑容怎么留给后代？再拍一张",
        "docid": "7307138818136818216",
        "url": ""
    },
    {
        "title": "武汉长江大桥下，居然埋葬着一位皇帝，现今却无人祭拜荒草丛生 ！",
        "docid": "7297042952906768896",
        "url": ""
    },
    {
        "title": "被原子弹轰炸后，100年不能住人，为何广岛长崎现在住这么多人？",
        "docid": "7290358953408676404",
        "url": ""
    },
    {
        "title": "希特勒饮弹自尽时，手里还剩下多少兵力？德军真的打不赢了吗？",
        "docid": "7310116797301621260",
        "url": ""
    },
    {
        "title": "中国十大黑帮你知道有哪些吗，有些至今还存在，帮众达几十万人！",
        "docid": "7306446561427604031",
        "url": ""
    },
    {
        "title": "大明最后的脊梁，明末战死沙场的八位名将。",
        "docid": "7293320327860322831",
        "url": ""
    },
    {
        "title": "杨康临死时，完颜洪烈为何抛弃他？你看杨过在杨康墓碑上看到了啥",
        "docid": "7288264552339227188",
        "url": ""
    },
    {
        "title": "汪伦：只是一小小县令，却靠打赏李白留名千古，你猜有多大手笔？",
        "docid": "7316729394834407955",
        "url": ""
    },
    {
        "title": "72年内蒙发现康熙女儿墓，尸体穿龙袍240年不腐，陪葬品价值过亿",
        "docid": "7295924032347193875",
        "url": ""
    },
    {
        "title": "皇帝为了羞辱宰相，把50岁的乳母嫁给他，新婚夜他兴奋不已谢皇上",
        "docid": "7316761882197869071",
        "url": ""
    },
    {
        "title": "“不愿为国而战”引发群体共鸣？历史告诉过国家是如何爱你的！",
        "docid": "7308988305759076905",
        "url": ""
    },
    {
        "title": "古代生育能力强的10大帝王！",
        "docid": "7293829680783524387",
        "url": ""
    },
    {
        "title": "其实在三国中很多计策都很下作，为什么白衣渡江会被后人诟病？",
        "docid": "7306172875592172032",
        "url": ""
    },
    {
        "title": "金庸生前想以20万回收的报纸，就是这张",
        "docid": "7290951911103087115",
        "url": ""
    },
    {
        "title": "司马懿九子：师最狠，昭最毒，干最诡，伦最狂，一家没有省油的灯",
        "docid": "7287428746519642681",
        "url": ""
    },
    {
        "title": "网友晒图：扎心了，历史总是惊人的相似",
        "docid": "7285266907279213114",
        "url": ""
    },
    {
        "title": "朱元璋最痛恨的一个姓，男子代代为奴，女子世世为娼，所为何故？",
        "docid": "7304638848221610506",
        "url": ""
    },
    {
        "title": "辛弃疾一生六百多首诗词，又力主抗金，为何却一字不提岳飞",
        "docid": "7296506853003952675",
        "url": ""
    },
    {
        "title": "来，盘盘历史上的“显眼包”",
        "docid": "7290758768911057447",
        "url": ""
    },
    {
        "title": "金庸小说中华筝的原型，大元最无情的公主，身怀六甲却屠戮百万人",
        "docid": "7296786138314965555",
        "url": ""
    },
    {
        "title": "历史上“比妃子还美”的皇帝，也就成毅能演了吧？",
        "docid": "7292216609748533769",
        "url": ""
    },
    {
        "title": "罗艺父子被辽兵追杀，幼年时救下的18只小狼，化身“燕云十八骑”",
        "docid": "7285560602678821410",
        "url": ""
    },
    {
        "title": "陈近南：32年英雄，300年大义，历史上的他，比金庸笔下更伟大",
        "docid": "7284055204663001656",
        "url": ""
    },
    {
        "title": "孙殿英炸开慈禧墓后，为何不先拿珍宝，而是急着扒慈禧的裤子？",
        "docid": "7317194285567476263",
        "url": ""
    },
    {
        "title": "蒋介石逃往台湾，因飞机超重扔下10块“石头”，结果却成镇国之宝",
        "docid": "7314202150366691859",
        "url": ""
    },
    {
        "title": "诸葛亮在四川究竟有着怎样的地位？一位网友的回答点醒上万读者",
        "docid": "7284283855832580660",
        "url": ""
    },
    {
        "title": "要不是大清亡了，我们没机会看这泼天的富贵",
        "docid": "7306815969966621218",
        "url": ""
    },
    {
        "title": "红楼梦的作者曹雪芹家族是如何得罪了雍正以至于落得抄家的下场？",
        "docid": "7295383261885432359",
        "url": ""
    },
    {
        "title": "兵马俑中出现一张奇怪的“脸”，专家无法解释，如今禁止出国展览",
        "docid": "7287898993315561996",
        "url": ""
    },
    {
        "title": "刘备错失的8大名将，有5人可打退关羽，2人打服孙权，3个边防大将",
        "docid": "7290557227755520564",
        "url": ""
    },
    {
        "title": "卫青一代名将，却被文人耻笑，苏轼以恶毒语言攻击他，这是为什么",
        "docid": "7304197792179044901",
        "url": ""
    },
    {
        "title": "为何古代没人敢伪造圣旨？你看圣旨第一个字是啥，怎么造？",
        "docid": "7303505356561433128",
        "url": ""
    },
    {
        "title": "洛水之誓到底意味着什么？为何刘秀面对杀兄之仇，依然不敢反悔？",
        "docid": "7290832358339789371",
        "url": ""
    },
    {
        "title": "曹操杀死杨修后，笑问其父杨彪怎么瘦了？杨彪一句话成千古名言",
        "docid": "7291914362796179978",
        "url": ""
    },
    {
        "title": "1941年拍的抗日战争真实纪录片，封存多年的军方绝密档案",
        "docid": "7288225304328602131",
        "url": "https://www.ixigua.com/7288225304328602131"
    },
    {
        "title": "赵匡胤千里送京娘 小周后手提金缕鞋 斧声烛影的故事还有人记得吗",
        "docid": "7289326766500348427",
        "url": "https://www.ixigua.com/7289326766500348427"
    },
    {
        "title": "500万的手串只值50块，男子欲哭无泪要离开，专家惊呼盒子很值钱",
        "docid": "7315354171878670848",
        "url": "https://www.ixigua.com/7315354171878670848"
    },
    {
        "title": "她是民国名媛，嫁富二代生六娃，最终因执念被丈夫和情敌合谋杀害",
        "docid": "7288538662587875875",
        "url": ""
    },
    {
        "title": "缅甸仅用30年，从领跑亚洲经济到一穷二白，是如何作死的？",
        "docid": "7316813291152622095",
        "url": ""
    },
    {
        "title": "皇上请弟弟吃饭，倒杯毒酒说：祝弟弟活千岁，弟弟一句话保住了命",
        "docid": "7291932560953999910",
        "url": ""
    },
    {
        "title": "日本鬼子禽兽不如！！",
        "docid": "7299074029116523060",
        "url": "https://www.ixigua.com/7299074029116523060"
    },
    {
        "title": "汉王听说朱棣想过立他当皇帝，委屈的对着画像痛哭，原谅老头了",
        "docid": "7288545484703171133",
        "url": "https://www.ixigua.com/7288545484703171133"
    },
    {
        "title": "'当蒋介石唱起故乡的云'",
        "docid": "7294914141696098825",
        "url": "https://www.ixigua.com/7294914141696098825"
    },
    {
        "title": "朱元璋北伐追打元朝时，四大汗国都在干什么？为何不领兵来救",
        "docid": "7317086099644351012",
        "url": ""
    },
    {
        "title": "华佗死的冤不冤？那时候的条件是否有可能完成颅内手术？",
        "docid": "7291513774236893707",
        "url": ""
    },
    {
        "title": "世界上“最年轻”的小国，独立至今12年，首都甚至没条像样的公路",
        "docid": "7306458836502888970",
        "url": ""
    },
    {
        "title": "一个不允许他国人员定居的国家：摩洛希亚共和国",
        "docid": "7295036675275964939",
        "url": ""
    },
    {
        "title": "商辂：三元及第，历经4朝，当19年宰相不杀一人，所以子孙满堂",
        "docid": "7294269476512825867",
        "url": ""
    },
    {
        "title": "她是红军唯一女司令，却在36岁含冤而死，彭德怀痛惜：天理难容",
        "docid": "7304951695099396618",
        "url": ""
    },
    {
        "title": "大唐灭亡时有多惨烈？皇帝被杀，9名皇子被勒死，大臣被投尸黄河",
        "docid": "7300113693810000399",
        "url": ""
    },
    {
        "title": "终身未婚培养出79名院士，晚年却被赶出清华，清华欠他一句道歉",
        "docid": "7287852379830387263",
        "url": ""
    },
    {
        "title": "华夏传奇六猛将：薛家将世代英雄的不朽武功",
        "docid": "7316438023095632411",
        "url": ""
    },
    {
        "title": "新中国的传奇三姐妹：大姐嫁给上将，二姐嫁给中将，三妹嫁给少将",
        "docid": "7307543495928316428",
        "url": ""
    },
    {
        "title": "塔吉克斯坦之殇：三分天下的内部地缘结构引发内忧外患，有苦难言",
        "docid": "7285565914534232611",
        "url": ""
    },
    {
        "title": "二、李自成祖坟里的“小白蛇”真相",
        "docid": "7304336030641963520",
        "url": ""
    },
    {
        "title": "美国历史教科书中的中国：重点介绍6个人物，全部篇幅仅有20页",
        "docid": "7298490568555119167",
        "url": ""
    },
    {
        "title": "用一句话来形容，当年的唐朝到底有多强盛？评论区点燃了上万读者",
        "docid": "7297854386540265999",
        "url": ""
    },
    {
        "title": "焚书坑儒，敢说不是为民除害？",
        "docid": "7317301836015665691",
        "url": ""
    },
    {
        "title": "曹操：搞好社交关系，不要请人吃饭，要做到以下三点",
        "docid": "7309272697006227983",
        "url": ""
    },
    {
        "title": "长津湖“活死人”，全连只剩他一人，93天47次手术，后来怎么样了",
        "docid": "7315319481902006825",
        "url": ""
    },
    {
        "title": "古代没疫苗也没抗生素，瘟疫都是如何结束?中西方差别巨大",
        "docid": "7316726649402327571",
        "url": ""
    },
    {
        "title": "“蹲地吃饭罚20元”背后，其实是大凉山在为建国初的“欠账”买单",
        "docid": "7316097769897345574",
        "url": ""
    },
    {
        "title": "历史上有奇葩嗜好的五大皇帝，雍正最高级，其他让人不忍直视",
        "docid": "7299030450046042624",
        "url": ""
    },
    {
        "title": "1947年女英雄孙瑞兰被捕，她被敌人架在火炉上炙烤，折磨了4天4夜",
        "docid": "7317172327005815306",
        "url": ""
    },
    {
        "title": "中国古代第一猛将：因死得太冤被百姓敬为神，死后无人盗其墓",
        "docid": "7300022746468500003",
        "url": ""
    },
    {
        "title": "古代800里加急有多快？为何连劫匪都不敢去抢，强盗：根本是找死",
        "docid": "7306444757310587403",
        "url": ""
    },
    {
        "title": "行刑前，她取下手表递给刽子手，说： 别打我肚子，朝我脑袋开枪",
        "docid": "7303538534785794597",
        "url": ""
    },
    {
        "title": "历史上共592名状元，三分之一都来自一个省，堪称中国“学霸省”",
        "docid": "7317204184661557797",
        "url": ""
    },
    {
        "title": "著名古迹“修复前vs修复后”的对比，真是一比吓一跳啊…",
        "docid": "7315789407448515099",
        "url": ""
    },
    {
        "title": "真不知道：第二次世界大战的大佬们，在一战时都在忙什么？",
        "docid": "7317412404797751819",
        "url": ""
    },
    {
        "title": "中国古代最清廉宰相，穷到连皇帝也看不下去：爱卿，你多少贪点吧",
        "docid": "7288591030247735842",
        "url": ""
    },
    {
        "title": "雍正王朝：我们都被看似老实的四福晋骗了，她才是隐藏最深的女人",
        "docid": "7291473508943675945",
        "url": ""
    },
    {
        "title": "史学大家王赓武：中国是世界的边缘",
        "docid": "7314651098034553382",
        "url": ""
    },
    {
        "title": "白起活埋40万赵军？1995年老农刨出战国尸骨坑，专家看后揭露真相",
        "docid": "7314184123000619555",
        "url": ""
    },
    {
        "title": "历史上家喻户晓的4位名将，其实根本不存在，别再被电视剧给骗了",
        "docid": "7304965280000836108",
        "url": ""
    },
    {
        "title": "中国历朝军队服，唐军“霸气”，宋军“华美”，明军“威武”",
        "docid": "7294272905855238695",
        "url": ""
    },
    {
        "title": "真实的晚清军队，可能颠覆我们的认知",
        "docid": "7280541522079580713",
        "url": ""
    },
    {
        "title": "哲别死亡之谜：率领2万蒙军歼败10万俄军，却死于保加利人之手？",
        "docid": "7297565226751672884",
        "url": ""
    },
    {
        "title": "诸葛亮和郭嘉谁更厉害？曹操赤壁战败后仰天长叹，道破了两人高低",
        "docid": "7298969165577585163",
        "url": ""
    },
    {
        "title": "王后被送上断头台，不小心踩了刽子手的脚，她下意识地说：对不起",
        "docid": "7298602126731985460",
        "url": ""
    },
    {
        "title": "李光耀：我庆幸是英国殖民新加坡，对于他们的离开，我心怀感恩",
        "docid": "7312387725201392143",
        "url": ""
    },
    {
        "title": "苏联克格勃间谍学校：教女间谍床上功夫，就连爱因斯坦也沦陷其中",
        "docid": "7289272727704486411",
        "url": ""
    },
    {
        "title": "明朝十六位皇帝一览表",
        "docid": "7290156771162309159",
        "url": ""
    },
    {
        "title": "张辽心知肚明：关羽能秒斩颜良文丑，为何打不过弱一流庞德？",
        "docid": "7294073804685525523",
        "url": ""
    },
    {
        "title": "《康熙王朝》中的索额图、明珠、陈廷敬，到底谁的官最大？",
        "docid": "7285955764403913268",
        "url": ""
    },
    {
        "title": "安史之乱中，王昌龄、高适、李白、杜甫、岑参等诗人的结局如何",
        "docid": "7287907778902032948",
        "url": ""
    },
    {
        "title": "西方为什么无法瓜分中国？不是因为清朝军队，而是因为中国老百姓",
        "docid": "7290855705257869880",
        "url": ""
    },
    {
        "title": "Ai还原清朝十二帝",
        "docid": "7305194867188056587",
        "url": ""
    },
    {
        "title": "西府赵王李元霸和金锤驸马薛葵，谁才是天下第一？",
        "docid": "7312389408908083722",
        "url": ""
    },
    {
        "title": "她差点成为中国历史上的第二位女帝，后来为何自己选择放弃",
        "docid": "7297524930953200182",
        "url": ""
    },
    {
        "title": "曾国藩的智慧：用毒辣计谋除掉两江总督何桂清，堪称官场教科书",
        "docid": "7290212404909589053",
        "url": ""
    },
    {
        "title": "太平天国：杨秀清打仗水平如何，且看他破两大营",
        "docid": "7290800275378487863",
        "url": ""
    },
    {
        "title": "李自成的才能在中国历史上是什么水准？",
        "docid": "7294843472714924544",
        "url": ""
    },
    {
        "title": "做了26年皇太子，中风卧床不起，得知父亲离世立马站起来登基",
        "docid": "7294219017148301864",
        "url": ""
    },
    {
        "title": "陈胜吴广起义后发展出那么庞大的队伍，为什么转瞬间就失败了？",
        "docid": "7317248187151041076",
        "url": ""
    },
    {
        "title": "如果有一天俄罗斯挺不住，愿意出售外东北，我国赎回要花多少钱？",
        "docid": "7316499348957889039",
        "url": ""
    },
    {
        "title": "中国最好的龙脉在河南，24位皇帝埋这里 | 豫记",
        "docid": "7316733280802456064",
        "url": ""
    },
    {
        "title": "兜兜转转，又回到1836年，在巨大贸易逆差面前，我们却不是满清了",
        "docid": "7314943269665014324",
        "url": ""
    },
    {
        "title": "子婴智杀赵高：抓住人性的反杀，奸诈赵高难防备，傀儡终胜权臣",
        "docid": "7288991409921638951",
        "url": ""
    },
    {
        "title": "女王的堂妹：真正的蓝血公主，比女王美，与菲利普亲王有染近20年",
        "docid": "7290853524156940800",
        "url": ""
    },
    {
        "title": "是不是感觉五子良将中的乐进如谜一样？谜底蕴含了残酷的职场规则",
        "docid": "7315344312815206964",
        "url": ""
    },
    {
        "title": "为何范进中举后突然疯了？把他中举后的官职放到现代，或许你也疯",
        "docid": "7312451454265082380",
        "url": ""
    },
    {
        "title": "罗家将：罗艺、罗成、罗通、罗章，连续四代都没有得到善终",
        "docid": "7311677934552318464",
        "url": ""
    },
    {
        "title": "“开隋九老”个个都是英雄豪杰，哪一位堪称第一硬汉？",
        "docid": "7315244859521335827",
        "url": ""
    },
    {
        "title": "西安的恶名，有多少是拜道北所赐",
        "docid": "7293986401828323874",
        "url": ""
    },
    {
        "title": "韩国末代公主李德惠：被日本人带到岛上折磨，晚年成精神病人",
        "docid": "7316434840998527488",
        "url": ""
    },
    {
        "title": "武当山有多牛？朱棣遣30万人修了14年建6000多间房，等级堪比故宫",
        "docid": "7286846160365470223",
        "url": ""
    },
    {
        "title": "文强被俘后，收到杜聿明十包香烟，10年后，助力杜聿明第一批特赦",
        "docid": "7303095944231387683",
        "url": ""
    },
    {
        "title": "肯尼迪亲妹妹：被父亲视为家族耻辱、强行切除大脑，后成智障",
        "docid": "7286718953681142326",
        "url": ""
    },
    {
        "title": "他夺取外孙帝位，统一天下，却被儿子所杀：死后他的陵墓成了地名",
        "docid": "7315970430987174400",
        "url": ""
    },
    {
        "title": "秦、罗、程、尉迟、薛、郭，唐朝的六大将门家族，哪家结局最好？",
        "docid": "7316128838168363556",
        "url": ""
    },
    {
        "title": "知否：难怪林小娘被发卖时，人贩子要看她的牙口，大娘子心里清楚",
        "docid": "7317200847023161865",
        "url": ""
    },
    {
        "title": "蒋介石的12个结拜兄弟结局一览",
        "docid": "7315584662984835636",
        "url": ""
    },
    {
        "title": "曹丕为何不顾群臣劝阻，决意要杀死曹操的救命恩人之子",
        "docid": "7317557707244945956",
        "url": ""
    },
    {
        "title": "为什么杜十娘选择投江自杀，也不原谅李甲呢？她的人性大考验失败",
        "docid": "7300948001894662683",
        "url": ""
    },
    {
        "title": "权谋到这种地步，艺术已成",
        "docid": "7290010266711065149",
        "url": ""
    },
    {
        "title": "乾隆对福康安有多喜爱？除了江山不能给，能赏的都赏给了他",
        "docid": "7295354198299214388",
        "url": ""
    },
    {
        "title": "赵匡胤写下半首诗，400年来无人接下句，朱元璋：这有何难，我来",
        "docid": "7292229470222697023",
        "url": ""
    },
    {
        "title": "谁的祖上入关早 谁的工资就高 八旗军内部的工资标准就这么简单粗暴",
        "docid": "7305009443040215589",
        "url": ""
    },
    {
        "title": "长城不到8米高真能御敌？西方教授表示：中国长城改变了世界格局",
        "docid": "7300893650383290891",
        "url": ""
    },
    {
        "title": "薛蛟为何成为薛家将第四代核心？",
        "docid": "7292184812822168105",
        "url": ""
    },
    {
        "title": "平型关战役主要将领军衔一览",
        "docid": "7317229177844302376",
        "url": ""
    },
    {
        "title": "张三丰为何终身不娶老婆？把他七个徒弟的名字连起来读，就明白了",
        "docid": "7310160988299510312",
        "url": ""
    },
    {
        "title": "李世民临死前嘱咐儿子：这人太厉害，你镇不住，还是杀了吧",
        "docid": "7316700699809612338",
        "url": ""
    },
    {
        "title": "古人的衣服拖在地上很长，他们不怕把衣服弄脏吗？答案其实很简单",
        "docid": "7299074366036394533",
        "url": ""
    },
    {
        "title": "何为格局，沉不住气时，请看看司马懿",
        "docid": "7317484534101246516",
        "url": ""
    },
    {
        "title": "康熙帝说我死后，这俩儿子必须除掉，雍正帝却为何违抗父命",
        "docid": "7316847940307305023",
        "url": ""
    },
    {
        "title": "伪装成小国的“大国”，200多万平方公里国土，却不愿对外承认？",
        "docid": "7315373354373792271",
        "url": ""
    },
    {
        "title": "老知青带着陕北媳妇回北京，父母不给房子住，99年一口气买2套",
        "docid": "7298749531914158611",
        "url": ""
    },
    {
        "title": "39年，贺子珍在苏联的留影，注意看她的穿着，比以前更漂亮了",
        "docid": "7314321333104820771",
        "url": ""
    },
    {
        "title": "道光年间，俄国小伙在北京闲逛买了部“闲书”回国，现成无价之宝",
        "docid": "7306830829349552655",
        "url": ""
    },
    {
        "title": "皇帝下令暗杀将军，将军得知后对心腹说：皇帝让我把你们都处决了",
        "docid": "7289413093116019254",
        "url": ""
    },
    {
        "title": "古代皇帝的各种奇葩死法",
        "docid": "7317517402495926820",
        "url": ""
    },
    {
        "title": "一文秒懂：20座唐代帝陵被盗情况，16座被盗，4座完好",
        "docid": "7294230789460804106",
        "url": ""
    },
    {
        "title": "刘备临死前留下一员猛将，力保蜀汉20年不亡，此人是谁？​",
        "docid": "7301957450541236770",
        "url": ""
    },
    {
        "title": "苏东坡神奇的一生",
        "docid": "7317270011440316940",
        "url": ""
    },
    {
        "title": "30件罕见文物，一出土就惊艳世界，中国有6件在其中！",
        "docid": "7301191925087060514",
        "url": ""
    },
    {
        "title": "如果他不死，曾国藩灭不了太平天国，中国近代史可能就此改写",
        "docid": "7304188546418754058",
        "url": ""
    },
    {
        "title": "他给日本捐款74万送40架战斗机，被天皇接见，86岁时终于被枪毙",
        "docid": "7289989069239534116",
        "url": ""
    },
    {
        "title": "黄维兵败被俘后，蒋介石为何说他死不足惜？跟王耀武一比，太倒霉",
        "docid": "7316857269453603366",
        "url": ""
    },
    {
        "title": "从南北朝到隋唐再到南唐，细数护国公秦叔宝家族的十代传承",
        "docid": "7313898973336175131",
        "url": ""
    },
    {
        "title": "古代十大猛将：李存孝只排第五，杨再兴为何上榜？霍去病排第几？",
        "docid": "7295642768263873076",
        "url": ""
    },
    {
        "title": "中国唯一用道士命名的城市，1400年风调雨顺来，至今未改名！",
        "docid": "7304217106470797824",
        "url": ""
    },
    {
        "title": "中国历史上的6大盛世：汉武帝唐太宗没做到，第1个出现在东汉！",
        "docid": "7316850198515794466",
        "url": ""
    },
    {
        "title": "秦始皇陵为何至今都不敢挖？德国专家核磁扫描后，发现墓中不一般",
        "docid": "7309397344062145061",
        "url": ""
    },
    {
        "title": "这种历史，电视剧也不敢拍",
        "docid": "7296377880710332963",
        "url": ""
    },
    {
        "title": "清代所有的亲王中，以权力而言排名前三位的是谁？",
        "docid": "7302688236261245481",
        "url": ""
    },
    {
        "title": "70年代，马英九和母亲秦厚修，一张珍贵的留影，身姿挺拔很帅气",
        "docid": "7291674745941377575",
        "url": ""
    },
    {
        "title": "\"揭秘历史：曹操的大丈夫举动与刘备的小人行为\"",
        "docid": "7317252370885526016",
        "url": ""
    },
    {
        "title": "古代武将骑马行军时长兵器是如何携带的？",
        "docid": "7317133681993220658",
        "url": ""
    },
    {
        "title": "我国历史上的辽国和金国，是如今的哪些省份？你知道吗？",
        "docid": "7317571283108561408",
        "url": ""
    },
    {
        "title": "“特工之王”李克农的私人相册，难得一见！",
        "docid": "7309837697995457043",
        "url": ""
    },
    {
        "title": "房地产经济和王安石变法——人口被迫流动的败笔（天涯存稿）",
        "docid": "7304479370020962857",
        "url": ""
    },
    {
        "title": "不读韦应物，不知人生何苦？深度韦应物，方知众生皆苦",
        "docid": "7305587413974286911",
        "url": ""
    },
    {
        "title": "新加坡总理李光耀，1946年秘密结婚，相伴63年，妻子葬礼含泪吻别",
        "docid": "7317114822401966626",
        "url": ""
    },
    {
        "title": "他是从小被遗弃的杨家将，十多年后救嫂救大哥，却与父亲大打出手",
        "docid": "7309372556388286991",
        "url": ""
    },
    {
        "title": "史上“最牛”间谍：情报全靠自己的猜测，结果竟然都八九不离十！",
        "docid": "7287050846846632485",
        "url": ""
    },
    {
        "title": "钟会有张良之谋，又拥兵二十多万，为何造反不到3天失败呢？",
        "docid": "7316726086346244659",
        "url": ""
    },
    {
        "title": "浙江一农户翻修鸡棚，考古队得知后激动道：我们等了十几年了",
        "docid": "7317592343090430502",
        "url": ""
    },
    {
        "title": "一百多年前，人们的生活是什么样？这些罕见老照片，让人瞬间穿越",
        "docid": "7314323895975281152",
        "url": ""
    },
    {
        "title": "他活过了整个三国时期，目睹蜀汉的兴衰，后世却用一个典故来嘲讽",
        "docid": "7315687368542323227",
        "url": ""
    },
    {
        "title": "49年，国军飞行员杨宝庆驾机起义，机舱里装满银元，晚年啥待遇？",
        "docid": "7292721297203724812",
        "url": ""
    },
    {
        "title": "康熙写错1个字，300多年无人能改，至今还挂在避暑山庄的大门上",
        "docid": "7299744011961598500",
        "url": ""
    },
    {
        "title": "99%都说国外考古“假”，这些被发现的古董，你觉得有几个是真的",
        "docid": "7309130014082548233",
        "url": ""
    },
    {
        "title": "鲍里斯：59岁8个孩子，当首相年薪130万不够花，辞职后靠演讲血赚",
        "docid": "7312037616155640329",
        "url": ""
    },
    {
        "title": "他是抗日名将，让敌人闻风丧胆，却被赵尚志枪毙，到底是谁的错？",
        "docid": "7316746278204375592",
        "url": ""
    },
    {
        "title": "北平解放前韩复榘之子不肯去台湾，称蒋介石杀了我爹，后命运如何",
        "docid": "7288879776226411044",
        "url": ""
    },
    {
        "title": "盗墓界有个“不成文规定”：金银珠宝都可拿，唯有两样东西不能动",
        "docid": "7309382034924257826",
        "url": ""
    },
    {
        "title": "秦桧子孙高中状元，路过岳飞墓写下两句诗，后成传诵千古的名句",
        "docid": "7297476754162106918",
        "url": ""
    },
    {
        "title": "41岁戴笠借口加班，让秘书来卧房，给她一杯咖啡，秘书喝完就晕了",
        "docid": "7306043866359054875",
        "url": ""
    },
    {
        "title": "我国古代四大军师排行，刘伯温仅排第二位，榜首实至名归无人超越",
        "docid": "7290739428534944313",
        "url": ""
    },
    {
        "title": "卸任15年还在被骂，小布什到底做错了什么？",
        "docid": "7314301165125648908",
        "url": ""
    },
    {
        "title": "傅作义选择起义后，他的军事集团，四大兵团司令官的结局如何？",
        "docid": "7305027029534245416",
        "url": ""
    },
    {
        "title": "《童林传》里人物原型",
        "docid": "7292217948704358923",
        "url": ""
    },
    {
        "title": "胡琏为何总能死里逃生？连粟裕都没法抓住他，白崇禧的答案很靠谱",
        "docid": "7290095836015608379",
        "url": ""
    },
    {
        "title": "从二品的布政使，与巡抚几乎平级，为何实际权力相差巨大？",
        "docid": "7287652660839203382",
        "url": ""
    },
    {
        "title": "不惜一切代价压制俄罗斯人，哈萨克的人口政策阳谋",
        "docid": "7300574127705080357",
        "url": ""
    },
    {
        "title": "刘秀去世之后，东汉世家大族横行无忌，汉明帝是如何坐稳了皇位？",
        "docid": "7302055824715776547",
        "url": ""
    },
    {
        "title": "大明王朝：沈一石的巅峰之作——只用一个局，就改了多个人的命",
        "docid": "7288287549301637690",
        "url": ""
    },
    {
        "title": "张掖为何这么重要？断匈奴之臂，张中国之掖",
        "docid": "7297448994320417295",
        "url": ""
    },
    {
        "title": "扶不起的阿斗，苏联援助15年，中国又援助20年，但依旧穷困潦倒",
        "docid": "7317175825886069285",
        "url": ""
    },
    {
        "title": "清朝时期的“中国护照”：国虽弱，但护照上的27个字却硬气十足",
        "docid": "7317611660347179560",
        "url": ""
    },
    {
        "title": "老实的国家！战败后赔款640亿美元，整整92年坚持还完",
        "docid": "7298163981267583514",
        "url": ""
    },
    {
        "title": "重磅！秦始皇帝陵陵西墓葬罕见发现！",
        "docid": "7293854211685499402",
        "url": ""
    },
    {
        "title": "1951年，广西匪首献出秘方，竟拯救上万志愿军，中央：留他一命！",
        "docid": "7292223819065131530",
        "url": ""
    },
    {
        "title": "汉宣帝为何不追尊爷爷刘据为皇帝，还给了他戾太子这个恶谥？",
        "docid": "7291588832909263399",
        "url": ""
    },
    {
        "title": "淮安韩信母亲墓发现盗洞，珍贵文物安危引关注",
        "docid": "7317572422767690281",
        "url": ""
    },
    {
        "title": "尼日利亚，中国老板的快乐福地？| 地球知识局",
        "docid": "7308587997170221604",
        "url": ""
    },
    {
        "title": "黄巢被斩首后的一些身后事",
        "docid": "7287142820647977484",
        "url": ""
    },
    {
        "title": "真正的苦日子，到底会有多惨？现实可能比想象中残酷！",
        "docid": "7317526591738282506",
        "url": ""
    },
    {
        "title": "父亲和丈夫必死一个，女子问母亲如何选，母亲回答竟成一千古成语",
        "docid": "7299411279268037132",
        "url": ""
    },
    {
        "title": "是谁把红军逼上长征路？这位毒诸葛，异常聪明，却下场凄惨",
        "docid": "7302694811755201036",
        "url": ""
    },
    {
        "title": "女地下党受刑时拒不招供，在毛森审问第一句后，才知身份已暴露",
        "docid": "7311952546950677055",
        "url": ""
    },
    {
        "title": "基督教与天主教的重要区别：教皇无误论是否正确？",
        "docid": "7316811629319127602",
        "url": ""
    },
    {
        "title": "辽宁91岁老太太病逝，临终前说出：我就是敌人一直在找的军火大盗",
        "docid": "7287864479591694863",
        "url": ""
    },
    {
        "title": "古代没有玻璃，窗户都是纸糊的，如果刮风下雨了他们该怎么应对？",
        "docid": "7317236419892806144",
        "url": ""
    },
    {
        "title": "野史：崇祯死前才知：害死自己的人不是吴三桂李自成，而是这个人",
        "docid": "7316482496118653474",
        "url": ""
    },
    {
        "title": "与胡适反目的国学大师：批评盲目西化的一席话，如今更具现实意义",
        "docid": "7283451947075387941",
        "url": ""
    },
    {
        "title": "这个朝代只存在了38年，却留下4个雄伟建筑，有的如今还在使用",
        "docid": "7317173079598236199",
        "url": ""
    },
    {
        "title": "中国最悲催的历史古都，被人为毁掉，千年未翻身变成小农村",
        "docid": "7302635365121507890",
        "url": ""
    },
    {
        "title": "如果只有闺女，算是绝后吗？",
        "docid": "7316103037708206607",
        "url": ""
    },
    {
        "title": "古代人吃什么？别被电视剧和小说骗了，我们去了可能一天都撑不了",
        "docid": "7301248894346805799",
        "url": ""
    },
    {
        "title": "新疆狼群下天山，一夜拐走36只羊，两牧民拼死追击怒斩狼王",
        "docid": "7317231754863133194",
        "url": ""
    },
    {
        "title": "真的是涨知识了！唐朝21位皇帝在位时间及评价一览！",
        "docid": "7303513505636991526",
        "url": ""
    },
    {
        "title": "“太监”和“宦官”有什么区别？如果分不清，很容易让人贻笑大方",
        "docid": "7317542249393455642",
        "url": ""
    },
    {
        "title": "千年前，中国的女子相扑，为什么成了国家的重点扫黄目标？",
        "docid": "7288639889036345867",
        "url": ""
    },
    {
        "title": "他当皇帝后送家乡人18缸咸菜，乡亲扔了17缸，倒出来一看后悔不已",
        "docid": "7288281833832399372",
        "url": ""
    },
    {
        "title": "80年代西安市长乘坐公交车，遭售票员谩骂，铁市长：你被开除了！",
        "docid": "7310556514123710987",
        "url": ""
    },
    {
        "title": "一起真实的“妾灭正妻”事件，妻惨死下葬后身上犹穿“血衣”控诉",
        "docid": "7313522141490709026",
        "url": ""
    },
    {
        "title": "秦始皇修的路，凭啥能2000多年不长草？专家解释背后特殊原因",
        "docid": "7316784662733881896",
        "url": ""
    },
    {
        "title": "没有以色列前的巴勒斯坦是什么样子的？一组老照片告诉你",
        "docid": "7288589059700916794",
        "url": ""
    }
]