[
    {
        "title": "乾隆写给英国国王的信，全篇976字愚昧至极，至今藏于大英博物馆",
        "docid": "7298749631863980583",
        "url": ""
    },
    {
        "title": "1916年袁世凯去世前预言：这三位可能统治中国，他们分别是谁？",
        "docid": "7290862175663538688",
        "url": ""
    },
    {
        "title": "海盗建国了？还真是，在拿骚",
        "docid": "7286727700981711423",
        "url": ""
    },
    {
        "title": "100年前，20万白俄难民涌入中国，后代自豪地说：我是中国人！",
        "docid": "7270042008658379304",
        "url": ""
    },
    {
        "title": "唐朝还有另一位女皇，比武则天早37年，被将士欺侮三天三夜而亡",
        "docid": "7289162788474257959",
        "url": ""
    },
    {
        "title": "横扫中亚的贵霜帝国想要吞灭汉朝，结果刚到新疆就被班超一顿胖揍",
        "docid": "7299390562774401570",
        "url": ""
    },
    {
        "title": "日本篡改历史，宣称原子弹是中国投放的？",
        "docid": "7291874774240936463",
        "url": ""
    },
    {
        "title": "金朝版图变迁：出道即巅峰，盛衰如流星",
        "docid": "7291869626643006003",
        "url": ""
    },
    {
        "title": "西方为何把世界瓜分完了，才对清朝动手？而且最终也没能分割清朝",
        "docid": "7281921147082686987",
        "url": ""
    },
    {
        "title": "都说富不过三代，但中国这个家族却强盛不衰400年，子孙至今仍在",
        "docid": "7296019119726871050",
        "url": ""
    },
    {
        "title": "天下未定就敢北伐辽国，他何来的底气？",
        "docid": "7274407868877587003",
        "url": ""
    },
    {
        "title": "乾隆皇帝当年用了什么手段，将最大的一块疆土永久纳入中国版图？",
        "docid": "7275900675639312953",
        "url": ""
    },
    {
        "title": "美国最痛恨的3个中国人，影响了美国称霸全球，最后一位家喻户晓",
        "docid": "7288109265649402368",
        "url": ""
    },
    {
        "title": "为何西方都认为，中国最强盛的并非汉唐，而是拥有先进科技的此朝",
        "docid": "7286357797275877900",
        "url": ""
    },
    {
        "title": "中国省份那么多，为何单单福建是“兵家不争之地”？",
        "docid": "7272263667196920359",
        "url": ""
    },
    {
        "title": "为什么俄罗斯不向温暖的南方扩张，俄罗斯：因为这两个帝国挡住了",
        "docid": "7301248696002331147",
        "url": ""
    },
    {
        "title": "大清打下的江山大清丢",
        "docid": "7301225915554497033",
        "url": ""
    },
    {
        "title": "超过6成人口是华人！华人为何聚居圣诞岛？他们是哪来的？",
        "docid": "7283770326218097188",
        "url": ""
    },
    {
        "title": "李善长问刘伯温：朱元璋登基前，会先杀哪个人？刘伯温说了3个字",
        "docid": "7268536494447542818",
        "url": ""
    },
    {
        "title": "历史上突然“消失”的3个人，至今没人找到，他们到底去了哪里？",
        "docid": "7300524417871135266",
        "url": ""
    },
    {
        "title": "民国“拉车人”的悲惨命运：几乎活不过40岁，一生渴望拥有黄包车",
        "docid": "7276096007971750456",
        "url": ""
    },
    {
        "title": "河南到底怎么了？",
        "docid": "7298605459454558761",
        "url": ""
    },
    {
        "title": "清军胸前的“兵、丁、卒、勇”有何深意？仅一字之差，却天壤之别",
        "docid": "7301196470920331813",
        "url": ""
    },
    {
        "title": "二十张超清彩照：揭秘日本核爆炸当天的真实场景，有人居然还笑了",
        "docid": "7277532362169336361",
        "url": ""
    },
    {
        "title": "深圳铛铛铛挖路意外发现成为千年古都！老大哥广州面色凝重！",
        "docid": "7299343982281359882",
        "url": ""
    },
    {
        "title": "山东人当年“闯关东”，为何直奔寒冷的东北，而不去富饶的南方？",
        "docid": "7283762774185116221",
        "url": ""
    },
    {
        "title": "30岁的明武宗死于豹房，豹房到底是什么? 为啥会让女子惧怕?",
        "docid": "7301113820808774195",
        "url": ""
    },
    {
        "title": "秦琼为什么如此不受待见，不但未入武庙，连十七史百将传都没入？",
        "docid": "7269229960232272443",
        "url": ""
    },
    {
        "title": "李隆基称帝后，为何立马除掉上官婉儿？史学家：换作是你也忍不住",
        "docid": "7283342588201959971",
        "url": ""
    },
    {
        "title": "古人的衣摆那么长，他们不怕拖地把衣服弄脏吗？答案很简单",
        "docid": "7272987582815863352",
        "url": ""
    },
    {
        "title": "泥瓦匠捡回家个疯妻，穿旗袍看英文书，48岁饿死才知：她哥沈从文",
        "docid": "7279867655358612028",
        "url": ""
    },
    {
        "title": "中国历史有494位皇帝，谁有资格称为千古一帝？公认只有这4位",
        "docid": "7272246907118912039",
        "url": ""
    },
    {
        "title": "杀完董卓之后，再看王允是什么行为，才会明白王允的毒辣",
        "docid": "7290358158902870528",
        "url": ""
    },
    {
        "title": "二战德国与美国征兵海报对比，美国靠女郎吸引，德国崇尚铁血武力",
        "docid": "7276750300310995475",
        "url": ""
    },
    {
        "title": "只活了36岁，却影响500年",
        "docid": "7275942586710229515",
        "url": ""
    },
    {
        "title": "“上帝之怒”：不讲武德的以色列告诉世界，啥叫真正的害我者必死",
        "docid": "7301537312952058407",
        "url": ""
    },
    {
        "title": "姚广孝帮朱棣坐上皇位，朱棣问他要何赏赐？姚：一个人！",
        "docid": "7301508196899258918",
        "url": ""
    },
    {
        "title": "真实影像，1934年蒋介石巡视山西，阎锡山孔祥熙等人接待",
        "docid": "7293729762076688923",
        "url": ""
    },
    {
        "title": "活人献祭、淫乱派对、刺杀首相…韩国邪教有多疯？",
        "docid": "7288979562187309629",
        "url": ""
    },
    {
        "title": "伊朗军神、中东谍王苏莱曼尼的传奇人生",
        "docid": "7301578210205024768",
        "url": ""
    },
    {
        "title": "武功远在楚留香之上的高手有五个，但是能打败楚留香的却没有一个",
        "docid": "7275289468318482981",
        "url": ""
    },
    {
        "title": "晁盖为何成了反面教材？做人最不能暴露的三大死穴，他都没藏住",
        "docid": "7277357921141883453",
        "url": ""
    },
    {
        "title": "正史之中，晚节不保的十大名将",
        "docid": "7296408009432121882",
        "url": ""
    },
    {
        "title": "推恩令—中国古代阳谋之首",
        "docid": "7301575322603454976",
        "url": ""
    },
    {
        "title": "老农上交40斤黄金，上交之后才发现，装黄金的罐子才是无价之宝",
        "docid": "7294591917613449739",
        "url": ""
    },
    {
        "title": "易中天曾公开表示：农民起义不值得过分吹捧",
        "docid": "7283784018662113852",
        "url": ""
    },
    {
        "title": "古代是木头城门，为何不火烧攻城？史学家：不能烧也不敢烧",
        "docid": "7269691978705584680",
        "url": ""
    },
    {
        "title": "他是三国第一猛将，25岁追杀曹操，29岁追杀刘备，46岁追杀孙权！",
        "docid": "7301507381233287718",
        "url": ""
    },
    {
        "title": "大清毁在谁手里？",
        "docid": "7283701006658372107",
        "url": ""
    },
    {
        "title": "原来古代嫡长子这么牛",
        "docid": "7273251265449345594",
        "url": ""
    },
    {
        "title": "“中国第一凶墓”？80多个盗墓贼丧命于此，墓主人身份成谜",
        "docid": "7271562544291414565",
        "url": ""
    },
    {
        "title": "好色成性，却英明的要命",
        "docid": "7296682806284354082",
        "url": ""
    },
    {
        "title": "你知道汇丰银行是谁开的吗？",
        "docid": "7301355477315748361",
        "url": ""
    },
    {
        "title": "曹操最有名的三句诗：一句成酒鬼口头禅，一句成无数人座右铭",
        "docid": "7278112940803719717",
        "url": ""
    },
    {
        "title": "戴笠最完美的一次暗杀：“23名保镖贴身保护，但脑袋却被人砍掉”",
        "docid": "7286297970671206968",
        "url": ""
    },
    {
        "title": "古代第一排士兵明知必死，为何还全力冲锋？答案很现实，换谁都冲",
        "docid": "7297067041616675364",
        "url": ""
    },
    {
        "title": "殖民外蒙，鼓励印度，怂恿越南，苏联在我们身边扎了多少钉子？",
        "docid": "7285938422781608507",
        "url": ""
    },
    {
        "title": "陕西97岁农民去世，国民党总部从台湾送来牌匾，上书4字民族之光",
        "docid": "7293423180571722266",
        "url": ""
    },
    {
        "title": "全球3个“核灾难”，中国占一个，相当于1000枚原子弹同时爆炸",
        "docid": "7298993772027724298",
        "url": ""
    },
    {
        "title": "为什么民国有大师？——10个笑段子",
        "docid": "7299352730001752616",
        "url": ""
    },
    {
        "title": "西伯利亚：砍不完的树、挖不完的矿，菜比肉贵、家家囤腌菜",
        "docid": "7298321119130894885",
        "url": ""
    },
    {
        "title": "蒙古最强悍皇后，33岁嫁7岁孩童，背丈夫征战，后7年生8个孩子",
        "docid": "7281982345136128569",
        "url": ""
    },
    {
        "title": "泰姬陵背后的惨剧：泰姬19年连生14个孩子，油尽灯枯死在了产床上",
        "docid": "7278100791808770621",
        "url": ""
    },
    {
        "title": "“闯王”李自成的五虎将",
        "docid": "7272548716207571467",
        "url": ""
    },
    {
        "title": "比小说还要荒谬的正史",
        "docid": "7278111290235667002",
        "url": ""
    },
    {
        "title": "太平天国时期改编的各省名字，快看看有没有你的家乡",
        "docid": "7301656747297784372",
        "url": ""
    },
    {
        "title": "晚清老照片告诉你，这才是真实的清朝，一百年前的穷人有多穷",
        "docid": "7299702894855504403",
        "url": ""
    },
    {
        "title": "史上“最牛”间谍：情报全靠自己的猜测，结果竟然都八九不离十！",
        "docid": "7287050846846632485",
        "url": ""
    },
    {
        "title": "隋唐第一女将，生擒程咬金，杀罗士信，却在新婚之夜死于丈夫之手",
        "docid": "7270534947151430181",
        "url": ""
    },
    {
        "title": "康熙五女儿端静公主被丈夫踢死，康熙得知后，报复手段着实高明",
        "docid": "7281561422134739493",
        "url": ""
    },
    {
        "title": "为什么古代刽子手，宁愿用钝刀砍人，也不愿将刀磨锋利呢？",
        "docid": "7271533949929718329",
        "url": ""
    },
    {
        "title": "姚广孝撺掇朱棣造反，自己却不要权也不要利，这个和尚到底图啥？",
        "docid": "7282580357730353704",
        "url": ""
    },
    {
        "title": "英法联军为何要烧毁圆明园？联军总司令日记揭秘残酷历史真相",
        "docid": "7300890273796637203",
        "url": ""
    },
    {
        "title": "曹操攻城不下，少年献十计，曹操用一计破城，曹操：此人不宜久留",
        "docid": "7275524674292056588",
        "url": ""
    },
    {
        "title": "南京大屠杀幸存者回忆：我躺在尸体堆里装死，一声不吭地挨了5刀",
        "docid": "7293562760703754786",
        "url": ""
    },
    {
        "title": "忽必烈定国号元，为何不继续称蒙古？",
        "docid": "7291483341277430324",
        "url": ""
    },
    {
        "title": "一代枭雄洪秀全，定都南京贪恋后宫，11年覆灭，却开拓了新思想",
        "docid": "7301849048598708777",
        "url": ""
    },
    {
        "title": "现今我国还有多少出生于清朝的人健在？",
        "docid": "7276607080533082624",
        "url": ""
    },
    {
        "title": "吕雉有多变态？人肉汤、人彘、乱人伦，后人评价真正的政治家",
        "docid": "7301111254042001946",
        "url": ""
    },
    {
        "title": "为什么强大的魏国很少主动进攻，而弱小的蜀国却总是北伐？",
        "docid": "7278718133521646115",
        "url": ""
    },
    {
        "title": "假如康熙传位给他，清朝或许可成超级大国，八国联军可能不是对手",
        "docid": "7279330343268991544",
        "url": ""
    },
    {
        "title": "为什么说三国鼎立，吴国最难",
        "docid": "7284633809772233255",
        "url": ""
    },
    {
        "title": "史上著名的九大“馊主意”，一个比一个馊，是哪九个？",
        "docid": "7300897988925424143",
        "url": ""
    },
    {
        "title": "柔然人逃到了欧洲，突厥人就追到欧洲造就一个最著名民族",
        "docid": "7300241511013483043",
        "url": ""
    },
    {
        "title": "宋朝之前连棉被都没有，零下几十度的寒冬，古人是怎么熬过去的？",
        "docid": "7300851230304207379",
        "url": ""
    },
    {
        "title": "打烂好牌：袁术到底错过了多少一流人才？",
        "docid": "7275002954783146496",
        "url": ""
    },
    {
        "title": "曹魏将领为何都怕赵云，而不是关羽呢？网友：挺过三刀啥事没有！",
        "docid": "7293383128419156531",
        "url": ""
    },
    {
        "title": "杨家将12寡妇西征，穆桂英最惨，被万箭穿心，仅有一人得以善终",
        "docid": "7301616160317915700",
        "url": ""
    },
    {
        "title": "85%瑞典人痛斥中国！持续三个世纪的仇恨难解，为何发展成这样？",
        "docid": "7288508204353454611",
        "url": ""
    },
    {
        "title": "正史上的光武帝刘秀，到底有多厉害？扒一扒刘秀的称帝之路！",
        "docid": "7287904679873315380",
        "url": ""
    },
    {
        "title": "古代饥荒为什么打不到鱼，不吃蚂蚱呢？原因很简单，但让人心碎",
        "docid": "7270694846027874877",
        "url": ""
    },
    {
        "title": "阿拉法特的错误，造成了巴勒斯坦的苦难，中国数十年前曾劝告未果",
        "docid": "7301221295415444022",
        "url": ""
    },
    {
        "title": "老照片：晚清时期，一名被浸猪笼的女子，躺在地上，民众冷漠围观",
        "docid": "7294665804384469567",
        "url": ""
    },
    {
        "title": "清宫戏都是骗人的，这才是真实晚清老照片，孩子在襁褓中饿得直哭",
        "docid": "7281461723931607608",
        "url": ""
    },
    {
        "title": "诸葛亮这辈子最不该杀的3员大将，若留一人，3个邓艾也进不了成都",
        "docid": "7276326222764966435",
        "url": ""
    },
    {
        "title": "纳粹疯狂的女魔头：她特殊的收藏癖好，男囚犯们害怕不已",
        "docid": "7280460260165321231",
        "url": ""
    },
    {
        "title": "“安史之乱”到底有多乱？自古最血腥的叛乱，又是如何被平定的？",
        "docid": "7272628350777147944",
        "url": ""
    },
    {
        "title": "古代深夜为啥要打更，安静地睡觉不好吗？古人的智慧令人折服",
        "docid": "7296281145723896372",
        "url": ""
    },
    {
        "title": "清朝最穷状元，殿试时在考卷上写8字，皇帝看后落泪：状元就他了",
        "docid": "7270452757218247231",
        "url": ""
    },
    {
        "title": "历史中最难造反的一个朝代，从建国到灭亡，没有人可以成功",
        "docid": "7301121227224089126",
        "url": ""
    },
    {
        "title": "拥有五个身份的明楼原型，于1987年去世",
        "docid": "7276118811974173219",
        "url": ""
    },
    {
        "title": "历史上的那些男妓，最后都怎么样了？",
        "docid": "7283031998732468748",
        "url": ""
    },
    {
        "title": "母亲被敌人绑在城头，将军痛哭过后照样攻城，曹操：此人不可大用",
        "docid": "7287016144282665507",
        "url": ""
    },
    {
        "title": "历史上“最接近神”的七人，诸葛亮仅排第五，第一位敢“封神”！",
        "docid": "7282362457564283451",
        "url": ""
    },
    {
        "title": "打响抗日第一枪之人，不是国民党、共产党，而是土匪出身的马占山",
        "docid": "7288143224118919692",
        "url": ""
    },
    {
        "title": "他是梁山上的内奸，招安后宋江都没他官职高，皇帝对他信任有加",
        "docid": "7273410867037864500",
        "url": ""
    },
    {
        "title": "开封犹太人里为何男性极少入籍以色列：不是歧视，是不愿意做手术",
        "docid": "7279603212402246201",
        "url": ""
    },
    {
        "title": "匈奴、契丹、柔然、突厥、鞑靼、女真，究竟啥意思？现在全搞懂了",
        "docid": "7290729684311294523",
        "url": ""
    },
    {
        "title": "吴起和白起相比谁的能力强？在战场上相遇谁能赢？说出来别不信",
        "docid": "7288902499011183115",
        "url": ""
    },
    {
        "title": "秦始皇为什么用“朕”自称，把“朕”字拆开看，你就知道了",
        "docid": "7269992957469164084",
        "url": ""
    },
    {
        "title": "李世民放390名死囚回家过年，约定年后回京问斩，结果回来多少人",
        "docid": "7293793445146067491",
        "url": ""
    },
    {
        "title": "蒋介石为何会输？1946年，刘伯承一语道破原因：国军有三怕",
        "docid": "7301669734758728227",
        "url": ""
    },
    {
        "title": "薛丁山三位夫人，一位法宝傍身，一位力大无穷，一位法力无边",
        "docid": "7284137552943383096",
        "url": ""
    },
    {
        "title": "陈近南：32年英雄，300年大义，历史上的他，比金庸笔下更伟大",
        "docid": "7284055204663001656",
        "url": ""
    },
    {
        "title": "20张罕见历史老照片，刘亦菲曾说自己是全家最丑的，还真是如此",
        "docid": "7299379351031235081",
        "url": ""
    },
    {
        "title": "他研究八个帝国后，称美国2026年崩溃",
        "docid": "7280118517695873588",
        "url": ""
    },
    {
        "title": "2016年考古队抽干江水，揭开张献忠沉银之谜，藏宝数量居亚洲第一",
        "docid": "7299662372866638370",
        "url": ""
    },
    {
        "title": "专家们太乌龙，竟把屠杀近百万广东民众的凶手吹捧成千古完人",
        "docid": "7298653638850052646",
        "url": ""
    },
    {
        "title": "20张震撼人心的罕见历史照片",
        "docid": "7269011321029919290",
        "url": ""
    },
    {
        "title": "为什么身强力壮的黑人不擅长打仗？还沦为奴隶，理由很简单",
        "docid": "7291593749891695138",
        "url": ""
    },
    {
        "title": "一口气看完第一次世界大战全过程",
        "docid": "7276290076542353954",
        "url": ""
    },
    {
        "title": "一战后，德国不准拥有超过十万军队。德国：十万军队+三百万警察",
        "docid": "7292648470236725787",
        "url": ""
    },
    {
        "title": "黄埔军校中，谁混的最差？",
        "docid": "7294186264977244681",
        "url": ""
    },
    {
        "title": "正史之中，论单打独斗，古代各省第一猛将",
        "docid": "7267117520388735546",
        "url": ""
    },
    {
        "title": "旧青岛第一名妓于小脚，通吃黑白两道，解放后被处死刑",
        "docid": "7301513651905823244",
        "url": ""
    },
    {
        "title": "搞笑的四川军阀，并不能成为你今天珍惜四川朋友的理由｜文史宴",
        "docid": "7299083964084666895",
        "url": ""
    },
    {
        "title": "“汉寿亭侯”是最低的侯爵，为何关羽一直挂在嘴边？点醒上万读者",
        "docid": "7291175809195393570",
        "url": ""
    },
    {
        "title": "二战时拯救犹太人的五位国际义人，以色列如何待之的？",
        "docid": "7293062787696247332",
        "url": ""
    },
    {
        "title": "AI复原中国古代历代名贤真人照片",
        "docid": "7280601619182502412",
        "url": ""
    },
    {
        "title": "李宗仁为何决定严惩韩复榘？不只是他不战而逃、违抗命令那么简单",
        "docid": "7296802374167921163",
        "url": ""
    },
    {
        "title": "民国帅哥张学良，与夫人于凤至的珍贵合影，她比张学良大4岁",
        "docid": "7272320571739341375",
        "url": ""
    },
    {
        "title": "台湾黑帮大佬陈启礼：不让台湾被外人拿走，坚决拥护一个中国",
        "docid": "7298292322410807819",
        "url": ""
    },
    {
        "title": "茅奖作家刘亮程：时间是有序、一往无前的，唯独文学可以改变时间",
        "docid": "7301733028907188777",
        "url": "https://www.ixigua.com/7301733028907188777"
    },
    {
        "title": "1939年，南斯拉夫救助了一名犹太小女孩，60年后她用轰炸作为回报",
        "docid": "7298283532299010612",
        "url": ""
    },
    {
        "title": "甘地的顶级赞誉背后，究竟有多少水分？其禁欲实验，为何会失败？",
        "docid": "7279337516279464467",
        "url": ""
    },
    {
        "title": "宋江死后，梁山泊被谁占据了？带你看正史中的梁山泊后传",
        "docid": "7280409720358568448",
        "url": ""
    },
    {
        "title": "晚清名医，大胆预测百年后的中国，鲁迅怒斥胡说八道，如今全应验",
        "docid": "7300381267403948553",
        "url": ""
    },
    {
        "title": "康熙长子胤褆被圈禁26年，无聊只能生孩子玩，结果生了20个孩子",
        "docid": "7278583563266867768",
        "url": ""
    },
    {
        "title": "为何说西方一旦衰弱，就再也不可能崛起了呢？",
        "docid": "7301335619504996916",
        "url": ""
    },
    {
        "title": "一个朋友都没有的人，看看柳宗元和刘禹锡，就活得通透了",
        "docid": "7288512557919273507",
        "url": ""
    },
    {
        "title": "杨白劳借五块大洋安葬妻子，因还不起债自杀，为何黄世仁背上骂名",
        "docid": "7272641119295717927",
        "url": ""
    },
    {
        "title": "昔日战国七雄的国都，如今有的沦为乡镇，有的跻身国际大都市",
        "docid": "7274112003415851520",
        "url": ""
    },
    {
        "title": "为什么13岁就杀人的秦舞阳，刺秦时一见到秦始皇腿都吓软了？",
        "docid": "7275709505810973196",
        "url": ""
    },
    {
        "title": "30张晚清彩照：悲惨的童养媳，青楼女子举止轻佻，别被电视剧骗了",
        "docid": "7270123921923113484",
        "url": ""
    },
    {
        "title": "晚清老照片告诉你，这才是真实的清朝，一百年前的穷人有多穷",
        "docid": "7275336063995363900",
        "url": ""
    },
    {
        "title": "1932年，一名被俘的红军师长，双拳紧握，怒目而视，后被残忍杀害",
        "docid": "7299096589954843172",
        "url": ""
    },
    {
        "title": "两座侵华日军跪像不翼而飞，监控拍下男人，身上细节让人背后一凉",
        "docid": "7301118222869234185",
        "url": ""
    },
    {
        "title": "侵华战犯东条英机绞刑现场：活活挣扎12分钟，死前被吓哭丑态百出",
        "docid": "7276397515438555685",
        "url": ""
    },
    {
        "title": "70年代，马英九和母亲秦厚修，一张珍贵的留影，身姿挺拔很帅气",
        "docid": "7291674745941377575",
        "url": ""
    },
    {
        "title": "古人被判灭九族时，家中亲属为何不逃跑？其实选择逃的人才真的蠢",
        "docid": "7297161153002783232",
        "url": ""
    },
    {
        "title": "董卓有4位大将，吕布第一，华雄第四，那么排在第二第三的是谁？",
        "docid": "7301635477286371866",
        "url": ""
    },
    {
        "title": "孙立人都能横扫日寇，为何却被蒋介石弃用？你看杜聿明说了些啥",
        "docid": "7269711236055532089",
        "url": ""
    },
    {
        "title": "大清灭亡后，溥仪的7个妹妹都嫁给了谁？这些明星其实是皇室子孙",
        "docid": "7297836919092838946",
        "url": ""
    },
    {
        "title": "唐朝贵族的三大喜好：昆仑奴、新罗婢、菩萨蛮，他们妙在哪里？",
        "docid": "7275872977370513976",
        "url": ""
    },
    {
        "title": "当军阀的最高境界是啥 是把税收到了2010年还有受害者的后人唱赞歌",
        "docid": "7275245594065715768",
        "url": ""
    },
    {
        "title": "胡亥墓，一座寒酸至极的帝陵，落下了秦朝灭亡的帷幕",
        "docid": "7290502542206157372",
        "url": ""
    },
    {
        "title": "1939年，林徽因和亲家周培源，一张罕见合影，旁边孩子是未来儿媳",
        "docid": "7269805758290805259",
        "url": ""
    },
    {
        "title": "陆小曼：与翁瑞午同居长达30年，死后灵堂上的挽联诠释了她的一生",
        "docid": "7270080643877437989",
        "url": ""
    },
    {
        "title": "吏部尚书、兵部尚书、户部尚书三者相比，哪个在实权上更胜一筹？",
        "docid": "7271892557934641718",
        "url": ""
    },
    {
        "title": "军统几任局长，都压制不了副局长戴笠，甚至提都很少提他们？",
        "docid": "7301189113724994083",
        "url": ""
    },
    {
        "title": "东吴顶配猛将太史慈打得过赵云吗？不吹不黑，30回合必分胜负",
        "docid": "7276410543559229987",
        "url": ""
    },
    {
        "title": "晚清上色老照片，记录了百年前人们的真实生活状态",
        "docid": "7271088342610215458",
        "url": ""
    },
    {
        "title": "中国历朝军队服，唐军“霸气”，宋军“华美”，明军“威武”",
        "docid": "7294272905855238695",
        "url": ""
    },
    {
        "title": "古代各省的宰相人数和代表人物一览",
        "docid": "7290453076102677044",
        "url": ""
    },
    {
        "title": "汉末迷案：糜芳、傅士仁作为刘备的功臣元老，为何要突然背叛关羽",
        "docid": "7284317292165415479",
        "url": ""
    },
    {
        "title": "大陆最后一个军统女特务,每天半包烟,晚年时感慨:共产党养我31年",
        "docid": "7277540424733377061",
        "url": ""
    },
    {
        "title": "扶苏身边有蒙恬，还有三十万大军，为何仅凭一道圣旨就乖乖自裁？",
        "docid": "7299382794164191784",
        "url": ""
    },
    {
        "title": "民国“十大”绝色佳人，你知道几个？",
        "docid": "7299732546156266038",
        "url": ""
    },
    {
        "title": "纯正的汉人是单眼皮？汉人后代双眼皮来源于哪里？炎黄子孙要明白",
        "docid": "7288645083212464652",
        "url": ""
    },
    {
        "title": "把清明上河图放大，发现一尴尬场景，树下睡觉的小伙在干什么",
        "docid": "7283666714959626787",
        "url": ""
    },
    {
        "title": "37岁富商吮吸着33岁王妃的脚趾：1992年，英国王室曝出最大丑闻",
        "docid": "7293805365417116179",
        "url": ""
    },
    {
        "title": "曹操杀死杨修后，笑问其父杨彪怎么瘦了？杨彪一句话成千古名言",
        "docid": "7291914362796179978",
        "url": ""
    },
    {
        "title": "为何说“急则有失，怒中无智”呢？你看窦婴和田蚡的结局就懂了！",
        "docid": "7279582028037685801",
        "url": ""
    },
    {
        "title": "啃了13本书，还原玄武门之变真相...",
        "docid": "7280708556172116514",
        "url": ""
    },
    {
        "title": "战国末期，为什么秦国可以连续七代明君？",
        "docid": "7273794037512520248",
        "url": ""
    },
    {
        "title": "“蛊”到底是什么？为何历朝律法对养蛊的处罚都非常严厉？",
        "docid": "7277469564047262219",
        "url": ""
    },
    {
        "title": "中国专家直言：现在是中国向美国投降的最好时候！他到底有何居心",
        "docid": "7301198919298564647",
        "url": ""
    },
    {
        "title": "朱元璋想杀沈万三，指着猪蹄问：这道菜叫啥？沈回答3字保住性命",
        "docid": "7300853330958582324",
        "url": ""
    },
    {
        "title": "老人随口说出的几个代号，竟然被儿子偷偷上报，中央部委立刻出动",
        "docid": "7269760404259422778",
        "url": ""
    },
    {
        "title": "1705年，93岁苏麻喇姑去世，53岁康熙大哭：皇子守孝，嫔礼下葬",
        "docid": "7269230338356920869",
        "url": ""
    },
    {
        "title": "楚国超级大墓，墓穴深到让盗墓贼绝望，官方动员2万人才找到墓室",
        "docid": "7287524739093135891",
        "url": ""
    },
    {
        "title": "93岁杨森临终前，拉住17岁姨太的手：我就是想过一把皇帝的瘾",
        "docid": "7287125344727925248",
        "url": ""
    },
    {
        "title": "韦绍兰：24岁被日寇掳走受尽折磨，被日军羞辱3个月生下日本孩子",
        "docid": "7301533557359444514",
        "url": ""
    },
    {
        "title": "河南洛阳有一座唐朝帝王陵，1000多年来无数盗墓贼都拿它没办法！",
        "docid": "7277767242723361291",
        "url": ""
    },
    {
        "title": "幼天王的末路：逃出天京却被旧部抛弃，写下求生供词仍遭凌迟处死",
        "docid": "7275038918184174138",
        "url": ""
    },
    {
        "title": "“杨家将”在正史之中真实的结局",
        "docid": "7290817156168696379",
        "url": ""
    },
    {
        "title": "打狗不看主人，丁宝桢杀了大太监安德海后，慈禧是怎么报复他的？",
        "docid": "7287850005825012284",
        "url": ""
    },
    {
        "title": "近两年，为什么乞丐突然“消失”了？3大原因给大家揭开真相！",
        "docid": "7291936307058606644",
        "url": ""
    },
    {
        "title": "永乐剑被八国联军抢走，如今价值12亿，英国：不准备归还中国",
        "docid": "7277181351810335284",
        "url": ""
    },
    {
        "title": "1951年，广西匪首献出秘方，竟拯救上万志愿军，中央：留他一命！",
        "docid": "7292223819065131530",
        "url": ""
    },
    {
        "title": "让北宋头痛不已的“契丹”，是现在的哪个民族，说出来你可能不信",
        "docid": "7298291694351532555",
        "url": ""
    },
    {
        "title": "苏荃贵为教主夫人，为何会甘心嫁给韦小宝？其实不只是因为怀孕",
        "docid": "7290406648143938111",
        "url": ""
    },
    {
        "title": "川岛芳子靓丽绝伦？抓捕她的军统特工披露：全身有针孔，老婆子相",
        "docid": "7270834893998031421",
        "url": ""
    },
    {
        "title": "刘备错失的8大名将，有5人可打退关羽，2人打服孙权，3个边防大将",
        "docid": "7290557227755520564",
        "url": ""
    },
    {
        "title": "南昌起义时6个师长，最后授衔的只有周士第，为何25师最牛？",
        "docid": "7301199969233928719",
        "url": ""
    },
    {
        "title": "维新变法后 慈禧为何不敢对六君子家属进行诛杀 因为她真的杀不动",
        "docid": "7292700921958613519",
        "url": ""
    },
    {
        "title": "如果你是这4个姓氏之一，可能并非炎黄子孙，而是上古蚩尤的后人",
        "docid": "7278484132508860943",
        "url": ""
    },
    {
        "title": "李香兰：由“文化汉奸”到致力中日友好，高喊“中国是我的母亲”",
        "docid": "7301610187553538595",
        "url": ""
    },
    {
        "title": "王后被送上断头台，不小心踩了刽子手的脚，她下意识地说：对不起",
        "docid": "7298602126731985460",
        "url": ""
    },
    {
        "title": "故宫牌匾上插着一支箭，200多年来无人敢拔，究竟是谁留下的",
        "docid": "7300144607773032986",
        "url": ""
    },
    {
        "title": "钱穆：中国的国都，决不可设在江南，这是为何？",
        "docid": "7300035564177621544",
        "url": ""
    },
    {
        "title": "临死前，李善长掏出免死金牌，朱元璋冷笑：看看背面写了什么",
        "docid": "7274939263400690228",
        "url": ""
    },
    {
        "title": "为何古人敢假传圣旨，却不敢造假圣旨？专家：看第一个字，咋造？",
        "docid": "7300122166941712923",
        "url": ""
    },
    {
        "title": "列宁有多厉害？看看他这10句话",
        "docid": "7281208838458475049",
        "url": ""
    },
    {
        "title": "三国第一谋士在东吴，水平远胜诸葛亮，他若不死或许天下就归吴了",
        "docid": "7280339225239880211",
        "url": ""
    },
    {
        "title": "卢沟桥上的石狮子，明明纹丝不动，为什么几百年来没人能够数清？",
        "docid": "7283834374415204922",
        "url": ""
    },
    {
        "title": "1949年冈村宁次被老蒋无罪释放，毛主席得知后大怒，连夜发令抓捕",
        "docid": "7278854908366078499",
        "url": ""
    },
    {
        "title": "日军是怎么打进广西的？",
        "docid": "7292981755726823987",
        "url": ""
    },
    {
        "title": "德富苏峰：入侵中国是发泄五十年的活力，征服中国，我们才有土地",
        "docid": "7301622450856149523",
        "url": ""
    },
    {
        "title": "雍正皇帝每天凌晨三点就要起床！！！",
        "docid": "7301574346047259199",
        "url": ""
    },
    {
        "title": "古代宝刀削铁如泥，为何科技进步后，现代反而做不到了？",
        "docid": "7287498073835323943",
        "url": ""
    },
    {
        "title": "晋这个国号，为何这么受欢迎？",
        "docid": "7288887143018103330",
        "url": ""
    },
    {
        "title": "马皇后有两个女儿，她们的经历证明了朱标和朱棣都是马皇后生的",
        "docid": "7297254023546143244",
        "url": ""
    },
    {
        "title": "梁实秋的鞋带松了，妻子俯身为他系鞋带，谁知从此却天人永隔",
        "docid": "7283338820379132456",
        "url": ""
    },
    {
        "title": "是谁把红军逼上长征路？这位毒诸葛，异常聪明，却下场凄惨",
        "docid": "7301240336108913204",
        "url": ""
    },
    {
        "title": "02年台湾老人回江苏探亲，喝醉后说漏嘴，女儿：您是共产党的兵？",
        "docid": "7289017266446844453",
        "url": ""
    },
    {
        "title": "他当皇帝后送家乡人18缸咸菜，乡亲扔了17缸，倒出来一看后悔不已",
        "docid": "7288281833832399372",
        "url": ""
    },
    {
        "title": "长城不到8米高真能御敌？西方教授表示：中国长城改变了世界格局",
        "docid": "7300893650383290891",
        "url": ""
    },
    {
        "title": "山西省大同市（古称云中）历史名人前五位",
        "docid": "7270834272599065149",
        "url": ""
    },
    {
        "title": "杨玉环陵墓出土，专家打开棺椁一看，千年前“传言”或被证实",
        "docid": "7300758301178970651",
        "url": ""
    },
    {
        "title": "你可以说正史不正，但不能说野史不野！看完这些我三观重塑了……",
        "docid": "7281856902223495695",
        "url": ""
    },
    {
        "title": "山东有一个三千年古县，名字只有一个字，但大多数人一开口就读错",
        "docid": "7301667610813743667",
        "url": ""
    },
    {
        "title": "康熙皇帝驾崩，雍正没急着固权，而是先除掉了侍奉康熙60年的心腹",
        "docid": "7301982838763848219",
        "url": ""
    },
    {
        "title": "古代打仗，为什么不能绕过城池，而选择拼死攻城？",
        "docid": "7301627133632299554",
        "url": ""
    },
    {
        "title": "抗日县长贪色，被抓现行：只要你给日本人做事，我媳妇就给你",
        "docid": "7301867126619406898",
        "url": ""
    },
    {
        "title": "40年前的秋日猎熊之殇：8只猎狗命丧熊口，2名猎人重伤|旧事",
        "docid": "7283788767289459235",
        "url": ""
    },
    {
        "title": "成吉思汗女儿为给丈夫报仇，四天屠城杀了一百万人，连狗都没放过",
        "docid": "7300822619715174924",
        "url": ""
    },
    {
        "title": "康熙、乾隆二帝为何长寿？只因祖孙俩都戒掉了多数帝王的通病",
        "docid": "7301406503473381922",
        "url": ""
    },
    {
        "title": "1943年，日军扫荡有多凶残？姑娘哭道：你看猪圈里掉落了什么？",
        "docid": "7298734935664984613",
        "url": ""
    },
    {
        "title": "我国史上唯一一个外国皇后，坐上后位第一件事，出兵灭了自己母国",
        "docid": "7292219499905401385",
        "url": ""
    },
    {
        "title": "长白山中，5只狼围杀一少年：他竟能护牛、救人、杀跑狼|旧闻",
        "docid": "7298909500730327564",
        "url": ""
    },
    {
        "title": "宋庆龄拒绝与孙中山合葬，直言：她伴我53年，我答应要和她葬一起",
        "docid": "7301287014446957094",
        "url": ""
    },
    {
        "title": "乾隆赐刘墉跳河自尽，刘墉接旨后却回家洗了个澡，事后才知真高明",
        "docid": "7276694575316681231",
        "url": ""
    },
    {
        "title": "故宫没有1个厕所，上万人该如何方便？看完才知道古人真聪明！",
        "docid": "7298225924829577738",
        "url": ""
    },
    {
        "title": "徐达醉酒后被朱元璋抬上龙床，醒来后的机智做法，救他一命",
        "docid": "7281082241755972151",
        "url": ""
    },
    {
        "title": "蜀汉有什么魅力？后期三大将军都是曹魏降将，却无一人临阵倒戈",
        "docid": "7301296874479632905",
        "url": ""
    },
    {
        "title": "世界上寿命最长的王朝：竟能延续2680年传位126代，至今依旧存在",
        "docid": "7278489634454372921",
        "url": ""
    },
    {
        "title": "1950年，约旦为何吞并巴勒斯坦的土地？",
        "docid": "7290003779373187599",
        "url": ""
    },
    {
        "title": "1972年慕尼黑惨案后，梅厄夫人：胆敢伤害以色列人，必须付出代价",
        "docid": "7290490580734411275",
        "url": ""
    },
    {
        "title": "南京大屠杀前，国军钮先铭逃进永清寺。和尚喊:“脱衣！洗头！”",
        "docid": "7274515050218684963",
        "url": ""
    },
    {
        "title": "大地主刘文彩62岁因病逝世，留下7个子女，如今现状如何？",
        "docid": "7293462323556172322",
        "url": ""
    },
    {
        "title": "当年解放军两次出兵缅北，为何没有彻底清除当地的军阀武装？",
        "docid": "7299076029602185754",
        "url": ""
    },
    {
        "title": "历史上有奇葩嗜好的五大皇帝，雍正最高级，其他让人不忍直视",
        "docid": "7299030450046042624",
        "url": ""
    },
    {
        "title": "屠城是把全城人都杀光吗？清军在扬州屠杀10日，是暴戾还是理性？",
        "docid": "7286781812754465315",
        "url": ""
    },
    {
        "title": "有人永远意识不到，你扔掉的垃圾，却是别人拼命争夺的资源",
        "docid": "7280509835542872628",
        "url": ""
    },
    {
        "title": "临终前，李世民嘱咐儿子：此人不可留，你镇不住，就杀了吧",
        "docid": "7281816592747446803",
        "url": ""
    },
    {
        "title": "明朝灭亡24小时前，曾发生过2件怪事，至今想来还让人觉得诡异",
        "docid": "7301921707403657763",
        "url": ""
    },
    {
        "title": "三皇五帝",
        "docid": "7286424650555605540",
        "url": ""
    },
    {
        "title": "古代十大元帅、十大将，历代名将，谁有资格上榜（秦朝至清朝）",
        "docid": "7270397711084732984",
        "url": ""
    },
    {
        "title": "盗墓贼姚玉忠寻宝从不用高科技，为何一找一个准，原来他有这本事",
        "docid": "7268651887358935592",
        "url": ""
    },
    {
        "title": "秦王要吃公鸡下的蛋，神童甘罗：这还不简单，后甘罗官拜丞相",
        "docid": "7278144248707711547",
        "url": ""
    },
    {
        "title": "关羽，张飞，马超，赵云死后各留下一员小将，蜀国才没有早早覆灭",
        "docid": "7270793949785227816",
        "url": ""
    },
    {
        "title": "1985年战友牺牲，他信守诺言去战友家尽孝，9年后娶战友妹妹为妻",
        "docid": "7276855064747164214",
        "url": ""
    },
    {
        "title": "大战爆发，中国必须死保的10大城市里还有一个三线城市吗？",
        "docid": "7301248052801716770",
        "url": ""
    },
    {
        "title": "印度的“七寸”在哪儿？掐断西里古里走廊，等于打着了印度的七寸",
        "docid": "7280452144430547508",
        "url": ""
    },
    {
        "title": "项羽为何被称为千古无二？他创造了3个历史第一，至今无人能破",
        "docid": "7299041502150541878",
        "url": ""
    },
    {
        "title": "全球首位华裔女总统，以华人身份为傲，刚上台就把美军全部赶出国",
        "docid": "7281892598791553593",
        "url": ""
    },
    {
        "title": "八国联军撤退后，慈禧是如何对待东南各督抚不进京勤王的？",
        "docid": "7301686415111275071",
        "url": ""
    },
    {
        "title": "82岁云南老人服毒自杀，警方发现：他是军委高官找了40年的人",
        "docid": "7301614053146395176",
        "url": ""
    },
    {
        "title": "狼牙山五壮士跳崖后，还有两人活着，葛振林坦言：多亏了那位道士",
        "docid": "7299776335046623796",
        "url": ""
    },
    {
        "title": "黄埔军校中，谁的武功最高？",
        "docid": "7299712440844157476",
        "url": ""
    },
    {
        "title": "13岁小红军过草地时，因私事离队，回来却发现茫茫草原空无一人",
        "docid": "7279018040325718563",
        "url": ""
    },
    {
        "title": "三国时期的顶级猛将：史实与演义的差距",
        "docid": "7301956012171493907",
        "url": ""
    },
    {
        "title": "布政使和巡抚到底谁相当于省长？很多人会弄错，其实并不简单！",
        "docid": "7301198507275469346",
        "url": ""
    },
    {
        "title": "59年前，19岁的实习生米米，到白宫第4天就成为总统肯尼迪的情人",
        "docid": "7300384933988811304",
        "url": ""
    },
    {
        "title": "非洲残暴独裁者多伊，死得有多惨？卡扎菲、萨达姆都比他“体面”",
        "docid": "7301957681705878025",
        "url": ""
    },
    {
        "title": "“最大”弹药库：储量够打一次世界大战，究竟是谁野心这么大？",
        "docid": "7291619306352296502",
        "url": ""
    },
    {
        "title": "1986年陈永贵追悼会上，华国锋盯着遗体发呆，反复说着一句话",
        "docid": "7276890051395502592",
        "url": ""
    },
    {
        "title": "她是唯一在正史上立传的女战神，戎马一生，死后留下48座坟墓!",
        "docid": "7301884936724840969",
        "url": ""
    },
    {
        "title": "历史上伊朗两次升起“黑旗”都是大获全胜",
        "docid": "7291597776549478912",
        "url": ""
    },
    {
        "title": "喝了顿大酒，把自己和儿子都喝死了，好好的叛乱，成了笑柄。",
        "docid": "7300934686791254538",
        "url": ""
    },
    {
        "title": "她因容貌美丽被日本军官惦记，婚礼时请10名保镖，今108岁仍健在",
        "docid": "7297153733916574271",
        "url": ""
    },
    {
        "title": "名将坟场：古代惨烈到影响国运的一次败仗，折损名将最多的一战",
        "docid": "7289356904193884709",
        "url": ""
    },
    {
        "title": "秦始皇的宝贝不是兵马俑，而是失踪的这三件，至今无人见其真容",
        "docid": "7272195973391532563",
        "url": ""
    },
    {
        "title": "刺探我国长达30年，被精心包装的老间谍，给你鼓掌的不一定是朋友",
        "docid": "7277415544222269988",
        "url": ""
    },
    {
        "title": "古代皇帝的“初夜”给了谁？不是皇后也不是皇妃，但这种人很常见",
        "docid": "7301969358589346338",
        "url": ""
    },
    {
        "title": "听起来很假，却真实存在的18个事实！",
        "docid": "7301668363775181352",
        "url": ""
    },
    {
        "title": "维多利亚女王厌恶生育，被丈夫说服连生9胎，血友病传遍欧洲王室",
        "docid": "7294932762820805159",
        "url": ""
    },
    {
        "title": "杜月笙一生争议不断，但他却有个全国闻名的儿子，为中国奋斗一生",
        "docid": "7291219330170389033",
        "url": ""
    },
    {
        "title": "范文程的根基有多深？他的子孙不管有才无才，皇帝最少要给二品",
        "docid": "7288976341406319167",
        "url": ""
    },
    {
        "title": "四猛之首罗士信父亲，一战单挑18将遇宇文成都，两大无敌谁更强？",
        "docid": "7299466715539489295",
        "url": ""
    },
    {
        "title": "清代一举人抱一麻袋的馒头参加殿试，康熙说：你就是状元了",
        "docid": "7301273060794745378",
        "url": ""
    },
    {
        "title": "46年上千日本人尸体被扒光扔进浑江，日右翼组织至今仍耿耿于怀！",
        "docid": "7269706456172102196",
        "url": ""
    },
    {
        "title": "为什么晋朝建立后，不抹掉“弑杀曹髦”这样的黑历史？",
        "docid": "7269683875436102183",
        "url": ""
    },
    {
        "title": "耶稣死后真的复活了吗？科学家检测完他的裹尸布后，发现端倪？",
        "docid": "7292342469348737577",
        "url": ""
    },
    {
        "title": "以色列残暴的正义 历史总是如此相似",
        "docid": "7301889646760444455",
        "url": ""
    },
    {
        "title": "他自称多尔衮十世孙：为保皇室血脉不娶汉女，向国家索要故宫祖产",
        "docid": "7301988585031713307",
        "url": ""
    },
    {
        "title": "古代阿拉伯人是如何看待中国人的？这几点特性，中国千年都没改变",
        "docid": "7275216887817011772",
        "url": ""
    },
    {
        "title": "薛岳为何看不起白崇禧？你看薛岳的夫人是谁，跟宋美龄是啥关系",
        "docid": "7272311583060197951",
        "url": ""
    },
    {
        "title": "1942年，远征军女兵遭日军侵犯，一女军医却说：不要怕，我有办法",
        "docid": "7278138979810034230",
        "url": ""
    },
    {
        "title": "李自成临终前痛哭流涕：如果当年听吴三桂的话，满清必败无疑",
        "docid": "7276628017089315363",
        "url": ""
    },
    {
        "title": "“为了胜利向我开炮”，刘世龙悲苦一生，病床上领奖到逝世仅11天",
        "docid": "7284604603667104316",
        "url": ""
    },
    {
        "title": "难怪李宗仁竞选副总统时，蒋介石白崇禧都反对，一年后才知真高明",
        "docid": "7272731143622197771",
        "url": ""
    },
    {
        "title": "拉宾：无数人都想念他，28年前，两国和平被一声枪响终结",
        "docid": "7292699192475009536",
        "url": ""
    },
    {
        "title": "谭嗣同家世显赫，在菜市场遭难时，身为湖北巡抚的老爸冷眼旁观",
        "docid": "7301216247729963554",
        "url": ""
    },
    {
        "title": "李渊是隋的唐国公，建唐后封了两个异姓“王”与数十个“国公”",
        "docid": "7268950677441921593",
        "url": ""
    },
    {
        "title": "民国奉系军阀“三少”之冯庸",
        "docid": "7274111639438262796",
        "url": ""
    },
    {
        "title": "诸葛亮为什么毫不留情地斩杀张任？张任的武艺在三国是什么水准？",
        "docid": "7289051249893229116",
        "url": ""
    },
    {
        "title": "无差别打劫中国船只，抢杀劫掠的索马里海盗，如今为何销声匿迹？",
        "docid": "7301991508381647398",
        "url": ""
    },
    {
        "title": "董卓四大金刚——排名第二第三是高顺和张辽。",
        "docid": "7301861839380742690",
        "url": ""
    },
    {
        "title": "赵匡胤杯酒释兵权时，唯独漏掉了一个人，结果被他夺去了宋朝江山",
        "docid": "7294812002642444840",
        "url": ""
    },
    {
        "title": "1954年，蒋介石最后一次悄悄回浙江，眺望家乡，留下了这几张照片",
        "docid": "7301603408157786676",
        "url": ""
    },
    {
        "title": "罗通扫北中最强十大猛将排名",
        "docid": "7274566317988938255",
        "url": ""
    },
    {
        "title": "古代4个兵家必争之地：三市一省，得之可安天下，有你的家乡吗？",
        "docid": "7299276880010773007",
        "url": ""
    },
    {
        "title": "汉武帝嫌胡人进贡的动物长得丑，扔笼子里喂老虎，老虎却伏地不起",
        "docid": "7294559409471423028",
        "url": ""
    },
    {
        "title": "6岁称象的曹冲，为什么13岁就离奇去世，是天妒英才还是被人陷害",
        "docid": "7301888662155936271",
        "url": ""
    },
    {
        "title": "弘皙：康熙疼爱28年，雍正倚重13载，胤礽之子，乾隆为何容不下？",
        "docid": "7282655030455321147",
        "url": ""
    },
    {
        "title": "一度令明朝头疼的“瓦剌”，如今演变成了哪个民族？",
        "docid": "7277745521404478009",
        "url": ""
    },
    {
        "title": "慈禧太后西逃后的紫禁城：日本人拍摄，图8龙床跟影视里差别大",
        "docid": "7290899513110970916",
        "url": ""
    },
    {
        "title": "中国第一造反大省，古近代大小造反从未缺席!为什么这么民风彪悍?",
        "docid": "7278956752572629543",
        "url": ""
    },
    {
        "title": "北京故宫博物院的宋朝帝后画像全部公开了，看看他们都长什么样？",
        "docid": "7295254065049698867",
        "url": ""
    },
    {
        "title": "蒙恬被杀前说了一句千古名言，曹操十分推崇，每当委屈时必读一次",
        "docid": "7293034312407417371",
        "url": ""
    },
    {
        "title": "徐阶求助张居正对付严世蕃，张居正说道：对付严世蕃只需要一个人",
        "docid": "7301504065958363659",
        "url": ""
    },
    {
        "title": "吴承恩的墓竟然是这样被发现的，网友：第一次见正史比野史还野",
        "docid": "7301616290471838258",
        "url": ""
    },
    {
        "title": "“知县”和“县令”有何不同？一字之差，却是天差地别",
        "docid": "7301958533556453923",
        "url": ""
    },
    {
        "title": "包拯死后，为何展昭一夜之间就消失了？看看包拯临终前说了什么",
        "docid": "7270780613307974156",
        "url": ""
    },
    {
        "title": "白居易在晚年时，前后一共养了33个家妓！多数仅15岁",
        "docid": "7301852066602074658",
        "url": ""
    },
    {
        "title": "斩草不除根，李隆基灭了太平公主一家，独留了她的儿子薛崇简",
        "docid": "7301213804967232052",
        "url": ""
    },
    {
        "title": "夏威夷群岛，距离美国本土3700公里，是怎样变成美国领土的？",
        "docid": "7280846773265383994",
        "url": ""
    },
    {
        "title": "她喊了朱元璋一声“弟弟”，朱元璋让她流一辈子泪，享一辈子福",
        "docid": "7296419498683892264",
        "url": ""
    },
    {
        "title": "清朝的“九门提督”，放到现在，相当于什么职位？",
        "docid": "7301611280547594752",
        "url": ""
    },
    {
        "title": "字不少，事儿挺大",
        "docid": "7278261926743015977",
        "url": ""
    },
    {
        "title": "古代将军镇守边疆，手握几十万兵马，为何却很少叛乱，他们怕什么",
        "docid": "7300119971866198537",
        "url": ""
    },
    {
        "title": "1996年，朝鲜26名特种兵被韩国4万军警包围，最终他们结局如何？",
        "docid": "7275666091723293223",
        "url": ""
    },
    {
        "title": "麒麟的真相，信息量巨大",
        "docid": "7275211135392088617",
        "url": ""
    },
    {
        "title": "杨林扫北帐下四大将，隋唐四大总兵的父亲都是谁？",
        "docid": "7269916307930284596",
        "url": ""
    },
    {
        "title": "大禹治水这个庞大工程，为何很难找到遗址？俄专家：治的不是黄河",
        "docid": "7277407988736868875",
        "url": ""
    },
    {
        "title": "说一说隋唐十八条好汉的身份、相貌、坐骑、兵器、战绩、结局",
        "docid": "7294072142969438731",
        "url": ""
    },
    {
        "title": "被凌迟处死的“皇帝”：四肢钉在牛车上割了1516刀，临终才16岁",
        "docid": "7271158528642433599",
        "url": ""
    },
    {
        "title": "秦始皇两件超前的发明，一件领先美国千年，另一件至今都无法超越",
        "docid": "7278948477525180928",
        "url": ""
    },
    {
        "title": "汶川大地震中幸存的“神车”！被纪念馆收藏，只因车牌太特殊",
        "docid": "7285757257349530124",
        "url": ""
    },
    {
        "title": "阿富汗第三大族自称中国“后裔”？典型黄皮肤，与当地人抗争百年",
        "docid": "7292407559594525223",
        "url": ""
    },
    {
        "title": "1968年13岁男孩捡到玉玺，上交后获20元奖励，44年后专家再次上门",
        "docid": "7273319033620628025",
        "url": ""
    },
    {
        "title": "白求恩临终前，在信中向聂荣臻提出请求：给我的离婚妻子拨一笔钱",
        "docid": "7287387411313672744",
        "url": ""
    },
    {
        "title": "朝鲜战争中，被志愿军打惨的土耳其，战后得了个大便宜",
        "docid": "7275679276781797888",
        "url": ""
    },
    {
        "title": "大明死棋，无解了",
        "docid": "7280772431672132115",
        "url": ""
    },
    {
        "title": "美国中央情报局挂在石墙上的第一颗黑星，与中国有关！",
        "docid": "7275173778635211264",
        "url": ""
    },
    {
        "title": "1948年，我军放一名被俘“伙夫”回家，谁知竟放走敌军王牌军长",
        "docid": "7272244731253080631",
        "url": ""
    },
    {
        "title": "流落在中国的外国公主，婉拒回国继承亿万遗产，坚称自己是中国人",
        "docid": "7296028387309765171",
        "url": ""
    },
    {
        "title": "胤祺：康熙第五子，皇子中的君子，雍正憎恨其母，却放过了他",
        "docid": "7276041200405119527",
        "url": ""
    },
    {
        "title": "崇祯以为杀魏忠贤天纵英明，实际上却打破政治平衡，亡国就是必然",
        "docid": "7301729891001827849",
        "url": ""
    }
]