[
    {
        "title": "为什么我们自称是汉人？而不是唐人，宋人，秦人或清人？",
        "docid": "7298642435591143955",
        "url": ""
    },
    {
        "title": "俄罗斯死亡之路：低温冻死1.7万修路工，就地埋在永久冻土公路下",
        "docid": "7324496388006445579",
        "url": ""
    },
    {
        "title": "康熙驾崩当夜，随侍60年的心腹被处死，雍正：只因他犯了三宗罪",
        "docid": "7306345815725982249",
        "url": ""
    },
    {
        "title": "他的传奇，《明史》中装不下",
        "docid": "7325261514695655947",
        "url": ""
    },
    {
        "title": "慈禧太后与曾国藩的一场斗法，晚清第一奇案揭开军阀割据的帷幕",
        "docid": "7325945934423556659",
        "url": ""
    },
    {
        "title": "只需看文字就毛骨悚然的地方",
        "docid": "7325466707949601299",
        "url": ""
    },
    {
        "title": "王寿山：辽西巨匪杜立三",
        "docid": "7309357394105008679",
        "url": ""
    },
    {
        "title": "它是中国史上最神秘王朝，夹在夏商之间，至今未被历史学家承认",
        "docid": "7325494844737143334",
        "url": ""
    },
    {
        "title": "北京故宫博物院的宋朝帝后画像全部公开了，看看他们都长什么样？",
        "docid": "7295254065049698867",
        "url": ""
    },
    {
        "title": "被称为白色蒙古！俄罗斯打下蒙古多少地盘？沙皇也是半个蒙古人！",
        "docid": "7306077966960689704",
        "url": ""
    },
    {
        "title": "丁奉：东吴的四朝老臣，从东汉活到了西晋，见证了三国的兴衰存亡",
        "docid": "7305960279165108776",
        "url": ""
    },
    {
        "title": "古代战争讲东征、南征、西征，为何唯独向北叫“北伐”？少有人知",
        "docid": "7322741590899196470",
        "url": ""
    },
    {
        "title": "朱标到底有多恐怖？他若不死朱棣不敢篡位，中国历史差点被他改写",
        "docid": "7299655121493836327",
        "url": ""
    },
    {
        "title": "法国和英国谁更强？看完两国真实对比，原来差距已经这么大了",
        "docid": "7317574459534311945",
        "url": ""
    },
    {
        "title": "古代武将，真能举七八十斤的兵器打仗？出土文物揭秘兵器真实重量",
        "docid": "7312699099210695231",
        "url": ""
    },
    {
        "title": "四猛之首罗士信父亲，一战单挑18将遇宇文成都，两大无敌谁更强？",
        "docid": "7299466715539489295",
        "url": ""
    },
    {
        "title": "先秦十子，您了解多少",
        "docid": "7322797877317960226",
        "url": ""
    },
    {
        "title": "1938年，八路军司令员遭地主砍成三段，萧华大怒：派重兵复仇！",
        "docid": "7311899369987555874",
        "url": ""
    },
    {
        "title": "史上有名的王号——晋王篇，哪个才是你心目中的当之无愧？",
        "docid": "7325268468507591183",
        "url": ""
    },
    {
        "title": "朱棣的三个儿子结局，老大当皇帝老二被活活烤死，老三最好",
        "docid": "7293780167720616499",
        "url": ""
    },
    {
        "title": "吕蒙杀死关羽父子后，为何就突然暴毙而亡？吴主孙权：他独断独行",
        "docid": "7306037104600498728",
        "url": ""
    },
    {
        "title": "她是杨家将劲敌，连败杨宗英穆桂英7员宋将，却爱上了杨四郎之子",
        "docid": "7308204362592010815",
        "url": ""
    },
    {
        "title": "老照片：1932年，张学良陪同墨索里尼的女儿，一起游览长城",
        "docid": "7295027720915042879",
        "url": ""
    },
    {
        "title": "英女王有多大度？送走菲利普亲王，96岁的她和亲王的情人成了朋友",
        "docid": "7326035688611512866",
        "url": ""
    },
    {
        "title": "河南这座小城，许多地名3000年未改，连起来完美还原武王伐纣过程",
        "docid": "7307957994091332115",
        "url": ""
    },
    {
        "title": "皇帝将一人关进大牢中，临死前告诉儿子：狱中给你留了位大将",
        "docid": "7312773277657661963",
        "url": ""
    },
    {
        "title": "张之洞与“东乡血案”始末",
        "docid": "7325132490203595301",
        "url": ""
    },
    {
        "title": "中国历史上的三次收复台湾",
        "docid": "7324102097962680832",
        "url": ""
    },
    {
        "title": "曹操进封魏王，刘备自称汉中王，他俩封王是否合法？还是刘邦高明",
        "docid": "7325662970204242469",
        "url": ""
    },
    {
        "title": "清朝13位八旗驻防将军，控制全国各要地，地位比总督还高",
        "docid": "7325062780275687972",
        "url": ""
    },
    {
        "title": "周朝就分封了那么几个“公爵”，其他人都是乱叫的。",
        "docid": "7295312084240319012",
        "url": ""
    },
    {
        "title": "陶寺遗址的惊人发现，揭示尧舜禅让背后的血腥真相",
        "docid": "7299716815834694178",
        "url": ""
    },
    {
        "title": "解放后，一老农家中藏枪，追问之下才道出：村外井底埋了个日本兵",
        "docid": "7308741865728229925",
        "url": ""
    },
    {
        "title": "她因长得漂亮，被日军军官强行霸占5年，还生下女儿却至死未见面",
        "docid": "7315657587323339283",
        "url": ""
    },
    {
        "title": "刘邦、李渊用不到7年统一天下，为何曹操打了34年却只三分天下？",
        "docid": "7311550666005561891",
        "url": ""
    },
    {
        "title": "明朝灭亡24小时前，曾发生过2件怪事，至今想来还让人觉得诡异",
        "docid": "7301921707403657763",
        "url": ""
    },
    {
        "title": "历史上突然“消失”的3个人，至今没人找到，他们到底去了哪里？",
        "docid": "7300524417871135266",
        "url": ""
    },
    {
        "title": "大唐灭亡时有多惨烈？皇帝被杀，9名皇子被勒死，大臣被投尸黄河",
        "docid": "7300113693810000399",
        "url": ""
    },
    {
        "title": "上坑爹下坑娃：14年败尽国家元气，大唐名存实亡回天无力",
        "docid": "7319058930427314707",
        "url": ""
    },
    {
        "title": "1916年，洛克菲勒以12.5万美元买下北京豫王府，整个北京城震动",
        "docid": "7303467477676540450",
        "url": ""
    },
    {
        "title": "流落在中国的外国公主，婉拒回国继承亿万遗产，坚称自己是中国人",
        "docid": "7314582065696440832",
        "url": ""
    },
    {
        "title": "54年彭德怀视察海南岛，海南军区司令告诉孩子：他现在不会骂我了",
        "docid": "7293373456098329115",
        "url": ""
    },
    {
        "title": "令女王一见钟情的菲利普亲王有多帅？女儿结婚时他52岁比新郎还帅",
        "docid": "7319747518617666088",
        "url": ""
    },
    {
        "title": "汪直：效宪宗犬马，虐女真铁骑，明朝4大宦官，为何仅他能善终？",
        "docid": "7299111923625656842",
        "url": ""
    },
    {
        "title": "烧死未断气还在挣扎的人们——《侵华日军战犯手记》",
        "docid": "7325453324961432101",
        "url": ""
    },
    {
        "title": "顺治的废后到底去了哪里？中朝两国的记载相互印证，终于有了答案",
        "docid": "7325794985205301770",
        "url": ""
    },
    {
        "title": "史学大家王赓武：中国是世界的边缘",
        "docid": "7314651098034553382",
        "url": ""
    },
    {
        "title": "谁的祖上入关早 谁的工资就高 八旗军内部的工资标准就这么简单粗暴",
        "docid": "7305009443040215589",
        "url": ""
    },
    {
        "title": "全球最后一个被日本殖民国家在联合国呐喊：自由的钟声再次响起！",
        "docid": "7326103029109998121",
        "url": ""
    },
    {
        "title": "袁绍告诉你，为什么有人一个朋友都没有",
        "docid": "7208754631466451491",
        "url": ""
    },
    {
        "title": "明朝官职品级知识",
        "docid": "7312801236619756044",
        "url": ""
    },
    {
        "title": "此三个职务级别不高但却是公认的肥差，一任下来后半辈子吃喝不愁",
        "docid": "7324239923438207503",
        "url": ""
    },
    {
        "title": "两德统一前后，付出的代价有多大",
        "docid": "7305390356110066226",
        "url": ""
    },
    {
        "title": "外西北、外东北，都是我国故土，如果能收回一个，哪个价值更高?",
        "docid": "7325701055978422784",
        "url": ""
    },
    {
        "title": "1950年，客人点了“一菜一汤”后餐馆老板娘哽咽：终于听到暗号了",
        "docid": "7310186697319318042",
        "url": ""
    },
    {
        "title": "幽州在什么地方，为什么幽州总会成为反中原政权势力的根据地",
        "docid": "7303489553108042255",
        "url": ""
    },
    {
        "title": "中国最后一个藩属国：1937年才停止进贡，宣称永远支持中国",
        "docid": "7324977400029626880",
        "url": ""
    },
    {
        "title": "1980年，晚年的梁兴初，坐在沙发上，穿着老布鞋，如同邻家的爷爷",
        "docid": "7325652630259401251",
        "url": ""
    },
    {
        "title": "卢沟桥上的石狮子，明明纹丝不动，为什么几百年来没人能够数清？",
        "docid": "7301118985393816105",
        "url": ""
    },
    {
        "title": "古代地广人稀，那么古人安家，是不是随便盖房都可以？",
        "docid": "7303787677936550451",
        "url": ""
    },
    {
        "title": "历史冷知识！安徽历史上的十大名人，你知道多少？",
        "docid": "7310822833805099556",
        "url": ""
    },
    {
        "title": "1952年小兴安岭女匪首逃进深山老林，30年后被发现，为何她能存活",
        "docid": "7295691136688210443",
        "url": ""
    },
    {
        "title": "唯一没有被美国驻军的西方强国，美军穷尽所能，几十年都无可奈何",
        "docid": "7323053777991844393",
        "url": ""
    },
    {
        "title": "太罕见！110年前山西老照片，清朝的高速也堵成狗，消失的驮轿",
        "docid": "7325287589941166626",
        "url": ""
    },
    {
        "title": "新中国的传奇三姐妹：大姐嫁给上将，二姐嫁给中将，三妹嫁给少将",
        "docid": "7307543495928316428",
        "url": ""
    },
    {
        "title": "胤禩为何惧怕福晋郭络罗氏？就她娘家那背景，换成谁都得忌惮三分",
        "docid": "7304142038663414311",
        "url": ""
    },
    {
        "title": "甘做汉奸50年！他为日本捐款送40架战机，受天皇接见，86岁被枪决",
        "docid": "7309783630157595173",
        "url": ""
    },
    {
        "title": "贵阳施工挖掘 发现地下溶洞 疑似水牢",
        "docid": "7325335202011103796",
        "url": ""
    },
    {
        "title": "清朝为什么能够统治近三百年？主要在于两个问题的解决",
        "docid": "7293421535963005452",
        "url": ""
    },
    {
        "title": "为什么罗兴亚人成为“世界上最不受欢迎的族群”，在其母国也同样",
        "docid": "7325688800855065122",
        "url": ""
    },
    {
        "title": "三井财团根基有多深？侵华日军背后的财主？产品至今在中国畅销？",
        "docid": "7326133603484647946",
        "url": ""
    },
    {
        "title": "蔡伦不是造纸第一人吗？考古发现真相，出土的纸比蔡伦早300多年",
        "docid": "7297415503729951267",
        "url": ""
    },
    {
        "title": "耿保国：花100万买70间明代大院危房，26年过去了，结局怎样了",
        "docid": "7307184436397933056",
        "url": ""
    },
    {
        "title": "清代一举人抱一麻袋的馒头参加殿试，康熙说：你就是状元了",
        "docid": "7301273060794745378",
        "url": ""
    },
    {
        "title": "1958年山东公安逮捕一女医生，随即被押往上海枪决了，她犯了何罪",
        "docid": "7325726904701796901",
        "url": ""
    },
    {
        "title": "“好事做尽，必有灾殃”？人生中的平衡与节制，一起看看吧！",
        "docid": "7325343239685554703",
        "url": ""
    },
    {
        "title": "蒋介石进行的台湾土改三步走，把地主直接改造成了“资本家”",
        "docid": "7325018687466275364",
        "url": ""
    },
    {
        "title": "李自成败亡前夜...",
        "docid": "7315739864849433103",
        "url": ""
    },
    {
        "title": "晚清上色老照片，记录了100多年前人们的真实生活场景",
        "docid": "7303362338877882891",
        "url": ""
    },
    {
        "title": "东南西北四大“京”，北京和南京人人皆知，东京和西京去了哪里",
        "docid": "7326060510531568163",
        "url": ""
    },
    {
        "title": "长征时红军翻越了哪些雪山，它们位于何处？如今这些雪山咋样了？",
        "docid": "7306794936312332827",
        "url": ""
    },
    {
        "title": "这些照片记录了一个重要时刻，我们不会忘记。",
        "docid": "7319234741511799307",
        "url": ""
    },
    {
        "title": "100多年前，李鸿章从日本回国后曾说，此国不除，日后必成大患。",
        "docid": "7325453288587985420",
        "url": ""
    },
    {
        "title": "这八件文物曾被认为是赝品，如今每一件都是镇馆之宝",
        "docid": "7305025676699763209",
        "url": ""
    },
    {
        "title": "28年地下党被捕入狱，偷牛贼狱友却偷偷对他说：你想不想逃出去？",
        "docid": "7316437483854578203",
        "url": ""
    },
    {
        "title": "清代汉人仅有五人获封公爵，但能世袭罔替的，不过一人而已",
        "docid": "7294472388123902499",
        "url": ""
    },
    {
        "title": "清代的县丞放到现在是什么级别，有没有副县长权力大？",
        "docid": "7314837078481682971",
        "url": ""
    },
    {
        "title": "晚清的新式军队：盘点清末新军士兵的10件个人装备",
        "docid": "7300118428713501221",
        "url": ""
    },
    {
        "title": "曹操杀了杨修，笑问其父杨彪为啥瘦了？杨彪的回答造就一千古名言",
        "docid": "7311234363587805711",
        "url": ""
    },
    {
        "title": "太平天国历史最后的守望者赖汉英：洪秀全的小舅子，活到96岁高龄",
        "docid": "7325240729368920587",
        "url": ""
    },
    {
        "title": "他是民国名将，叶挺薛岳是其部下，至今不知被何人暗杀",
        "docid": "7303134285282820619",
        "url": ""
    },
    {
        "title": "1938年，彭老总和蒋中正，一张罕见的合影，一句话让对方哑口无言",
        "docid": "7314298858186785321",
        "url": ""
    },
    {
        "title": "20世纪最疯狂的罪犯，活在现实的黑帮教父，阿尔卡彭的一生。",
        "docid": "7326095713283686946",
        "url": ""
    },
    {
        "title": "东汉帝国一百年没搞定的羌人，到底什么来路？",
        "docid": "7317149896463614498",
        "url": ""
    },
    {
        "title": "他：在毛人凤下达枪决后，将衣物送给友人，谁知却被两名特务救走",
        "docid": "7311591652244619785",
        "url": ""
    },
    {
        "title": "印尼前总统苏加诺：在日本访问时喜欢19岁姑娘，将其娶回家当老婆",
        "docid": "7326062769458168330",
        "url": ""
    },
    {
        "title": "中国“西侯度人”：距今超过240万年，非洲起源说又一次被打破",
        "docid": "7314692590241612307",
        "url": ""
    },
    {
        "title": "甲午战争时期，中日朝三国军队服装图解",
        "docid": "7295372335002731048",
        "url": ""
    },
    {
        "title": "皇帝无法生育，忠臣把怀孕妻送给皇帝，诞生了一成语，流传至今",
        "docid": "7296037944199234048",
        "url": ""
    },
    {
        "title": "宋徽宗VS李后主，扁鹊VS华佗，谁才是真正的大佬？",
        "docid": "7326122659603333682",
        "url": ""
    },
    {
        "title": "农民起义，为什么只发生在中国，外国没有？",
        "docid": "7325814082261893672",
        "url": ""
    },
    {
        "title": "俄罗斯占领我国的8个地区，如今已被标注为中文名，都位于哪里？",
        "docid": "7325098363274166836",
        "url": ""
    },
    {
        "title": "左良玉手握80万重兵，崇祯数次求救却不出兵，亡国后痛哭到吐血",
        "docid": "7299294749180527144",
        "url": ""
    },
    {
        "title": "苏步青的日本妻子在家洗碗，日军突然闯进家里，要求共进日本菜",
        "docid": "7302727849549791771",
        "url": ""
    },
    {
        "title": "汪伪76号（9）魔窟里的女人们（中）“爆裂一生”的佘爱珍",
        "docid": "7302266806255878692",
        "url": ""
    },
    {
        "title": "中国历代王朝要解决的问题，为什么核心就是这两点",
        "docid": "7320593868423053878",
        "url": ""
    },
    {
        "title": "老版三国诸葛亮葬礼用掉一吨纸钱，这才是跨越千年对英雄的敬畏！",
        "docid": "7325368326694699554",
        "url": ""
    },
    {
        "title": "十室九户无儿郎，皖军至今人未归，中华的脊梁骨，有安徽人的一份",
        "docid": "7324600277553267200",
        "url": ""
    },
    {
        "title": "八旗旗主真能让军机处首席大臣和珅下跪？",
        "docid": "7325381209050137103",
        "url": ""
    },
    {
        "title": "一名清朝县令，每年的俸禄是45两，可硬性支出大约需要3万两！",
        "docid": "7292743796864188940",
        "url": ""
    },
    {
        "title": "玄武门之变，蓄谋已久还是偶然发生？陈寅恪：有人起到了关键作用",
        "docid": "7325281902468858368",
        "url": ""
    },
    {
        "title": "古代妃子为何戴长指甲套？除了好看之外，更多的是为了方便皇帝",
        "docid": "7325706591989301800",
        "url": ""
    },
    {
        "title": "东汉末年是4国并存，为何罗贯中只写了三国？被抹去的一国很熟悉",
        "docid": "7318670415348679179",
        "url": ""
    },
    {
        "title": "中央社有意回避被毙点",
        "docid": "7311615347990315546",
        "url": ""
    },
    {
        "title": "奇 闻 异 事 : 雌 雄 难 辨 的 采 花 贼",
        "docid": "7323076590748238370",
        "url": ""
    },
    {
        "title": "赵子儿对薄姬苟富贵即取笑，改写汉初历史；她就是每个人身边的人",
        "docid": "7326123538279465491",
        "url": ""
    },
    {
        "title": "1937年的一天，一位村民告诉村长：日本人就要到了，快准备好开水",
        "docid": "7323604535241392655",
        "url": ""
    },
    {
        "title": "清朝的左都御史和右都御史，到底有多大分别？一字之差，天壤之别",
        "docid": "7324931098432586267",
        "url": ""
    },
    {
        "title": "东千佛洞八仙拐杖 这件珍贵文物是怎么发现的？",
        "docid": "7310025339919843874",
        "url": ""
    },
    {
        "title": "岳飞被害死后，他的五个儿子都是怎样的结局？是否被秦桧所害？",
        "docid": "7325429664137757193",
        "url": ""
    },
    {
        "title": "殷商灭亡后有一人逃到了海外，还建立了一个国家，一直延续至今",
        "docid": "7292975434298327561",
        "url": ""
    },
    {
        "title": "在古代正史猛将大比拼：揭秘古代各省单打独斗第一人",
        "docid": "7299672448021316150",
        "url": ""
    },
    {
        "title": "明英宗朱祁镇的三大污点和三大亮点是什么？",
        "docid": "7325323859308085795",
        "url": ""
    },
    {
        "title": "南阳若把全国唯一的梅花城保留下来，申请世界文化遗产也有可能",
        "docid": "7303525691071922723",
        "url": ""
    },
    {
        "title": "得大利者，不能与民争利！",
        "docid": "7326078726113296950",
        "url": ""
    },
    {
        "title": "从天堂到炼狱：太平军仅仅攻陷半个杭州，清廷却输掉整座江南大营",
        "docid": "7300605137159504410",
        "url": ""
    },
    {
        "title": "没有以色列前的巴勒斯坦美女，看完你不想说点什么吗？",
        "docid": "7294466577062167052",
        "url": ""
    },
    {
        "title": "兵马俑中一张无法被解释的“脸”，让人疑惑，如今被禁止出国展览",
        "docid": "7296749099154440713",
        "url": ""
    },
    {
        "title": "他是杨家将中的矮脚虎，一出世就差点吓死母亲，个子小却有大能量",
        "docid": "7308029962081075727",
        "url": ""
    },
    {
        "title": "一代完人李光地的三大丑闻",
        "docid": "7298331916460458550",
        "url": ""
    },
    {
        "title": "红军长征时那“吃人”的草地，现在变得怎么样？",
        "docid": "7325351514259210803",
        "url": ""
    },
    {
        "title": "哪里是什么党项，人家是“大夏！”",
        "docid": "7317592614437257764",
        "url": ""
    },
    {
        "title": "正史之中，晚节不保的十大名将",
        "docid": "7296408009432121882",
        "url": ""
    },
    {
        "title": "5千年历史经验告诉我们，最大的危机是百姓认定“国家和我无关”",
        "docid": "7325645761026441763",
        "url": ""
    },
    {
        "title": "在古代，从广州到北京需要多长时间？结果可能和你想的不一样",
        "docid": "7307550963101860403",
        "url": ""
    },
    {
        "title": "她是古代第一才女，才貌双全却写了一本烂书，毒害中国女性2000年",
        "docid": "7320620917217051176",
        "url": ""
    },
    {
        "title": "如果中国有两个她这样的女人，足以将日本沉没！时间是最大的敌人",
        "docid": "7325399165239443968",
        "url": ""
    },
    {
        "title": "“日本鬼子”一词，究竟触碰了谁的神经？为何引起了如此大争议？",
        "docid": "7325823297093042715",
        "url": ""
    },
    {
        "title": "是政治改变经济？还是经济改变政治？",
        "docid": "7326214656488423976",
        "url": ""
    },
    {
        "title": "一口气看完田齐历史：70个儿子打天下，抵不过1个妈宝男",
        "docid": "7326004639139758643",
        "url": ""
    },
    {
        "title": "中国姓氏都有自己的守护神，你姓什么？看看你的“守护神”是谁？",
        "docid": "7304869456302391847",
        "url": ""
    },
    {
        "title": "世界上最壮观的考古发现之一——萨顿胡船葬",
        "docid": "7302365717339619855",
        "url": ""
    },
    {
        "title": "古代800里加急有多快？为何连劫匪都不敢去抢，强盗：根本是找死",
        "docid": "7306444757310587403",
        "url": ""
    },
    {
        "title": "道观炊烟袅袅，引来903名饥饿红军，道长掰手指：东西够吃吗？",
        "docid": "7324257489229218330",
        "url": ""
    },
    {
        "title": "傅作义选择起义后，他的军事集团，四大兵团司令官的结局如何？",
        "docid": "7305027029534245416",
        "url": ""
    },
    {
        "title": "15张罕见历史老照片：100年前高丽将军的出行方式，太搞笑",
        "docid": "7296472801245053477",
        "url": ""
    },
    {
        "title": "他好吃好色，却活到82岁",
        "docid": "7319772941292683815",
        "url": ""
    },
    {
        "title": "列举《康熙王朝》和《雍正王朝》与史实不符之处",
        "docid": "7311557602335277594",
        "url": ""
    },
    {
        "title": "真正的苦日子，到底会有多惨？现实可能比想象中残酷！",
        "docid": "7317526591738282506",
        "url": ""
    },
    {
        "title": "被严重低估的秀才：考取难度远超想象，高含金量，考上祖坟冒青烟",
        "docid": "7297875296110363163",
        "url": ""
    },
    {
        "title": "帕拉庄园—旧西藏三大领主贵族庄园",
        "docid": "7325636106781737512",
        "url": ""
    },
    {
        "title": "一口气看懂东汉灭蜀之战！刘秀如何攻破巴蜀天险，彻底统一天下？",
        "docid": "7295675924362887718",
        "url": ""
    },
    {
        "title": "建工业区挖到十口红棺椁，工程暂停，过路老汉帮了大忙",
        "docid": "7325481154566619667",
        "url": ""
    },
    {
        "title": "陈平六出奇计，有哪六计，对刘邦有哪些帮助",
        "docid": "7326050327352918555",
        "url": ""
    },
    {
        "title": "2005年，杨虎城孙子找到杀害爷爷的凶手，笑着说：祝您活到110岁",
        "docid": "7302330438046286399",
        "url": ""
    },
    {
        "title": "大明第一淫贼，落网",
        "docid": "7295608202493477402",
        "url": ""
    },
    {
        "title": "唐朝最大的昏君，因为此人，世界第一的大唐帝国彻底走向覆灭",
        "docid": "7307161124960289295",
        "url": ""
    },
    {
        "title": "为什么杜十娘选择投江自杀，也不原谅李甲呢？她的人性大考验失败",
        "docid": "7300948001894662683",
        "url": ""
    },
    {
        "title": "史上最厉害的王朝，存活407年，出了七位厉害的皇帝。",
        "docid": "7301510815298470440",
        "url": ""
    },
    {
        "title": "抗美援朝期间，战犯吴绍周提出2条妙计，毛主席提前特赦",
        "docid": "7325408521326412297",
        "url": ""
    },
    {
        "title": "古代武将，真能举几十斤的兵器打一天？出土文物揭秘兵器真实重量",
        "docid": "7307960955722711606",
        "url": ""
    },
    {
        "title": "东汉离世界末日有多近",
        "docid": "7325071288731615780",
        "url": ""
    },
    {
        "title": "大唐第一猛将：去世6年后安禄山反叛，此人若在，安禄山不敢反。",
        "docid": "7325441349317558835",
        "url": ""
    },
    {
        "title": "隋朝版图变迁：功成大一统，陨落如流星",
        "docid": "7304560702973739558",
        "url": ""
    },
    {
        "title": "比犹太人更加顽强的民族, 在被灭2300多年后, 于1991年终于复国",
        "docid": "7296334822497141299",
        "url": ""
    },
    {
        "title": "假如把韩信放到三国，大致相当于谁的水平？网友逆天神评论无敌了",
        "docid": "7322066518110421516",
        "url": ""
    },
    {
        "title": "霍去病打下4座城，取了4个霸气名字，两千多年没改名并且沿用至今",
        "docid": "7301610509911360009",
        "url": ""
    },
    {
        "title": "古代闹饥荒，百姓们为何放着河里的鱼虾不抓，要去吃草根、啃树皮",
        "docid": "7323098145381581322",
        "url": ""
    },
    {
        "title": "《如懿传》：为啥乾隆一年睡意欢800次，只“白嫖”却不给她晋封",
        "docid": "7326136664744116755",
        "url": ""
    },
    {
        "title": "如果光绪继续变法、慈禧听之任之，大清能够与西方列强抗衡吗？",
        "docid": "7321600021991211546",
        "url": ""
    },
    {
        "title": "吕后活着谁都不敢乱动，为何她一死，陈平周勃就敢诛吕？",
        "docid": "7309876958379377179",
        "url": ""
    },
    {
        "title": "单亲妈妈带儿子为啥难嫁？多尔衮给出了答案",
        "docid": "7303114576319791656",
        "url": ""
    },
    {
        "title": "妈妈，什么是教养，这是我见过最正确的答案",
        "docid": "7325698970838221353",
        "url": ""
    },
    {
        "title": "怪不得司马懿会撤兵，城楼上这两个书童，是整场空城计的疑点",
        "docid": "7320884970719822372",
        "url": ""
    },
    {
        "title": "为何在古代，就连一件破棉袄、旧皮袍，也能被典当出银子来？",
        "docid": "7324965382597886518",
        "url": ""
    },
    {
        "title": "霍去病为何要公然射杀李敢？绝非一时冲动，而是不得不杀！",
        "docid": "7307439136192348722",
        "url": ""
    },
    {
        "title": "曹魏将领为何都怕赵云，而不是关羽呢？网友：挺过三刀啥事没有！",
        "docid": "7293383128419156531",
        "url": ""
    },
    {
        "title": "当年山西人“走西口”，为何不去富裕的沿海，而是直奔穷苦的草原",
        "docid": "7306036162291073562",
        "url": ""
    },
    {
        "title": "岳飞被处决当日，十万岳家军为什么没来劫法场？你看监斩官是谁",
        "docid": "7313816846011187775",
        "url": ""
    },
    {
        "title": "“秀才”相当于现在什么学历？说出来可别不信，别被影视剧误导了",
        "docid": "7304993369934610982",
        "url": ""
    },
    {
        "title": "将军分肉忘了车夫，次日车夫直接驾车将他拉去敌营，从此多一成语",
        "docid": "7322000068251320844",
        "url": ""
    },
    {
        "title": "终于把四大名著思维导图整理出来啦！太好记啦！太棒了！！！",
        "docid": "7326056081611358735",
        "url": ""
    },
    {
        "title": "汉末的江东集团为什么存在感不强？被骂作江东鼠辈，皆是种因得果",
        "docid": "7323187204846043700",
        "url": ""
    },
    {
        "title": "知否根本不敢拍的盛家孙辈生活，灭顶灾难降临，明兰80岁都逃不掉",
        "docid": "7294176921045533220",
        "url": ""
    },
    {
        "title": "扑克牌上的 12 个历史人物",
        "docid": "7324980754809831999",
        "url": ""
    },
    {
        "title": "古代文人最高的谥号是“文正”，为什么千百年来只有27人有幸获得",
        "docid": "7306069885531570740",
        "url": ""
    },
    {
        "title": "戴妃的离婚真相：与卡米拉无关，是她自己作妖，女王忍不了",
        "docid": "7325446965612626495",
        "url": ""
    },
    {
        "title": "司马懿的洛水之誓后果有多严重？中国因此出现系统性的道德坍塌",
        "docid": "7313405911693820451",
        "url": ""
    },
    {
        "title": "扎心了，确定长得漂亮并不重要？看完网友的分享，我无可辩驳",
        "docid": "7322694637376782888",
        "url": ""
    },
    {
        "title": "“八柱国”是哪八人？为什么叫“柱国”？",
        "docid": "7318683484107899443",
        "url": ""
    },
    {
        "title": "康熙的九子夺嫡，每个人都是什么样的下场？",
        "docid": "7306159522945483303",
        "url": ""
    },
    {
        "title": "历史上这四人，离一统天下近在咫尺，却偏偏走错了最后一步",
        "docid": "7306056374919004683",
        "url": ""
    },
    {
        "title": "这是中国最安全的省,两千年来没打过大仗,抗日战争时期都十分太平",
        "docid": "7294820375412998666",
        "url": ""
    },
    {
        "title": "真实的李治，有多恐怖？武则天的上位掌权，都在他的计划之内",
        "docid": "7295582905920111167",
        "url": ""
    },
    {
        "title": "朱棣爱惨了徐妙云，2人不仅9年生了7个孩子，生同衾，死同穴",
        "docid": "7322378405868257843",
        "url": ""
    },
    {
        "title": "诸葛亮和郭嘉谁更厉害？曹操赤壁战败后仰天长叹，道破了两人高低",
        "docid": "7298969165577585163",
        "url": ""
    },
    {
        "title": "白起活埋40万赵军？1995年老农刨出战国尸骨坑，专家看后揭露真相",
        "docid": "7314184123000619555",
        "url": ""
    },
    {
        "title": "开创一个伟大朝代，却被正史严重矮化",
        "docid": "7325361482890281524",
        "url": ""
    },
    {
        "title": "朱高炽有10个儿子，为什么没有一人敢和朱瞻基抢皇位？",
        "docid": "7307188808809038347",
        "url": ""
    },
    {
        "title": "敢回怼年羹尧的甘肃巡抚什么背景？年大将军又为何只能向帽子撒气",
        "docid": "7309382538848682505",
        "url": ""
    },
    {
        "title": "《步步惊心》雍正为什么非要对玉檀施以蒸刑，不让她死的痛快些！",
        "docid": "7295670866284347943",
        "url": ""
    },
    {
        "title": "为了争夺两江总督职位，曾国藩与清廷火力全开，撕下伪装",
        "docid": "7308273025684685327",
        "url": ""
    },
    {
        "title": "冰岛发达到了什么程度？让我告诉你一个真实的冰岛！",
        "docid": "7317137127802896911",
        "url": ""
    },
    {
        "title": "从拿破仑到希特勒，为何都要发动对俄战争？沙俄究竟侵略多少国家",
        "docid": "7312013145349030426",
        "url": ""
    },
    {
        "title": "史上嫁最远的公主，路上耗时2年，赶到时新郎去世只能嫁给其儿子",
        "docid": "7296788968962998821",
        "url": ""
    },
    {
        "title": "早已没多少人看的报纸，为何报社还在持续印刷，到底是谁在买？",
        "docid": "7317538814761828902",
        "url": ""
    },
    {
        "title": "朱厚熜：为人不诚、为臣不忠、为子孙不孝、为夫不义、为父不慈",
        "docid": "7314964221790290447",
        "url": ""
    },
    {
        "title": "没有电的古代，天一黑就要睡觉吗？其实他们的夜生活也很丰富",
        "docid": "7310535244321915418",
        "url": ""
    },
    {
        "title": "他是梁山最阴之人，一身神功却装弱，遇强敌就想投降，却活到最后",
        "docid": "7301650274329428534",
        "url": ""
    },
    {
        "title": "曹丕为何不把汉献帝送去益州恶心刘备？评论区争论点醒了上万网友",
        "docid": "7294439944344044047",
        "url": ""
    },
    {
        "title": "三国乱世时期，真正能称上顶级猛将只有5人，其他人根本不值一提",
        "docid": "7299407177830498868",
        "url": ""
    },
    {
        "title": "山东人当年“闯关东”，为何宁愿去严寒的东北，也不去富饶的南方",
        "docid": "7304943204775133736",
        "url": ""
    },
    {
        "title": "中国败家子天花板，一晚输掉上海100栋房，晚年穷困潦倒惨死家中",
        "docid": "7318044840418312742",
        "url": ""
    },
    {
        "title": "张郃的一生值得反复品读，那能代表我们职场人的大多数，一声叹息",
        "docid": "7314480634179633703",
        "url": ""
    },
    {
        "title": "朱元璋最痛恨的一个姓，男子代代为奴，女子世世为娼，所为何故？",
        "docid": "7304638848221610506",
        "url": ""
    },
    {
        "title": "三国力量最大的八大悍将排名：张飞第五，排名第一的曾经打退吕布",
        "docid": "7320596636089516584",
        "url": ""
    },
    {
        "title": "苏东坡神奇的一生",
        "docid": "7317270011440316940",
        "url": ""
    },
    {
        "title": "虽然是个小人，却是战国时代大国战略第一人",
        "docid": "7307044883213206051",
        "url": ""
    },
    {
        "title": "扶苏身边有蒙恬，还有三十万大军，为何仅凭一道圣旨就乖乖自裁？",
        "docid": "7299382794164191784",
        "url": ""
    },
    {
        "title": "闻仲打了15年的北海，究竟有多恐怖？姜子牙为何终身不敢踏足？",
        "docid": "7317554290107826740",
        "url": ""
    },
    {
        "title": "张居正扳倒高拱：一场教科书级别的权力斗争",
        "docid": "7304170477730234895",
        "url": ""
    },
    {
        "title": "吴敬中一见翠平便知余则成有问题：你们不是老夫妻，她还是个姑娘",
        "docid": "7311647162058801675",
        "url": ""
    },
    {
        "title": "“百无一用是书生”的上一句，才是千古经典，写出了人性的丑陋",
        "docid": "7317190554767606308",
        "url": ""
    },
    {
        "title": "红楼梦的作者曹雪芹家族是如何得罪了雍正以至于落得抄家的下场？",
        "docid": "7295383261885432359",
        "url": ""
    },
    {
        "title": "康熙重臣，大清名臣姚启圣！一生有多牛",
        "docid": "7318733993598714402",
        "url": ""
    },
    {
        "title": "AI复原最美的北宋皇后——记录古代中国最耻辱的亡国历程",
        "docid": "7286866560579764792",
        "url": ""
    },
    {
        "title": "30个关于二战的冷知识，每一个都让你大开眼界",
        "docid": "7314526302885741068",
        "url": ""
    },
    {
        "title": "中国最后一对土匪夫妻，1965年出动7000余人围捕，结局大快人心！",
        "docid": "7305592474272629248",
        "url": ""
    },
    {
        "title": "瓦岗山散将之后，赫赫有名的贾柳楼四十六友都何去何从了？",
        "docid": "7298603897663373860",
        "url": ""
    },
    {
        "title": "台湾杜月笙墓地：朝向上海，破败不堪，坟冢后侧八个大字令人深思",
        "docid": "7316909414215483919",
        "url": ""
    },
    {
        "title": "二战时期，南斯拉夫人救了个犹太女孩，50年后女孩选择用轰炸回报",
        "docid": "7298606871693722147",
        "url": ""
    },
    {
        "title": "李光耀：我庆幸是英国殖民新加坡，对于他们的离开，我心怀感恩",
        "docid": "7312387725201392143",
        "url": ""
    },
    {
        "title": "江德福退休后为啥能在干休所横着走，连干休所所长的面子也不给？",
        "docid": "7323895919744139776",
        "url": ""
    },
    {
        "title": "大明王朝：严嵩为何非要给“六心居”老板题字？极高明的自保！",
        "docid": "7313873486496301595",
        "url": ""
    },
    {
        "title": "马谡如果当道下寨，能不能守住街亭？司马懿说得再明白不过",
        "docid": "7316887735808623119",
        "url": ""
    },
    {
        "title": "在古代大家族中，假如嫡长子去世了，长孙和次子谁地位更高？",
        "docid": "7319835623345488395",
        "url": ""
    },
    {
        "title": "古代青楼女子的“行内话”，到现在却成大众口头禅，时常挂在嘴边",
        "docid": "7316853799547847220",
        "url": ""
    },
    {
        "title": "1683年施琅收复台湾后，向康熙请示攻打日本，但康熙的回复很意外",
        "docid": "7325744086127526450",
        "url": ""
    },
    {
        "title": "历史上家喻户晓的4位名将，其实根本不存在，别再被电视剧给骗了",
        "docid": "7304965280000836108",
        "url": ""
    },
    {
        "title": "刘备一生最大失误：三顾茅庐请出诸葛亮，却错失了另两个绝世高人",
        "docid": "7301257118131634723",
        "url": ""
    },
    {
        "title": "秦末时，章邯的部队以骊山囚徒为主，为何能连战连胜，险些翻盘？",
        "docid": "7311869376943194639",
        "url": ""
    },
    {
        "title": "扬州“瘦马”是什么？明清权贵的恶俗喜好，曾风靡数百年之久",
        "docid": "7306010970567000628",
        "url": ""
    },
    {
        "title": "血统纯正的汉人是单眼皮？那么双眼皮从哪来？作为中国人必须知道",
        "docid": "7299737936004858368",
        "url": ""
    },
    {
        "title": "如果你没背景，靠什么才能出头呢？主父偃的经历对你会有所启示！",
        "docid": "7325324580049338943",
        "url": ""
    },
    {
        "title": "光绪朝廷重臣的罕见合影，阵容庞大，几乎囊括了六部九卿各位大员",
        "docid": "7312828831939756583",
        "url": ""
    },
    {
        "title": "朗顿家族：西藏最富有的家族之一，财富和地位令人艳羡！",
        "docid": "7323494126363705891",
        "url": ""
    },
    {
        "title": "隋唐：第一猛、第一绝、第一杰，这三个第一都是怎样的结局？",
        "docid": "7301194638000816652",
        "url": ""
    },
    {
        "title": "乾隆对福康安有多喜爱？除了江山不能给，能赏的都赏给了他",
        "docid": "7295354198299214388",
        "url": ""
    },
    {
        "title": "世界上发育最快的民族，8岁就能结婚生子？其中到底有何隐情？",
        "docid": "7306052797416555020",
        "url": ""
    },
    {
        "title": "历史上功高震主，而善保始终的12位名将",
        "docid": "7311096015954772518",
        "url": ""
    },
    {
        "title": "古代流放女囚犯，来回几千里路，为何衙役们却还抢着去押送？",
        "docid": "7304943521033716239",
        "url": ""
    },
    {
        "title": "黄埔军校中，谁长得最帅？",
        "docid": "7318212277210284559",
        "url": ""
    },
    {
        "title": "伊丽莎白一世终生未婚，为了美貌涂猪油戴假发，有时候7天不卸妆",
        "docid": "7296002340467933707",
        "url": ""
    },
    {
        "title": "死于小人物之手的10位历史名人",
        "docid": "7307953462241755702",
        "url": ""
    },
    {
        "title": "长孙是长子的儿子，还是年龄大的孙子？很多人搞不明白，答案来了",
        "docid": "7296391229141500431",
        "url": ""
    },
    {
        "title": "五代十国时期最荒淫无道的君主",
        "docid": "7325703401919414795",
        "url": ""
    },
    {
        "title": "宠妻宠过了头，长孙皇后无福消受，她的早逝或源于李世民无尽的爱",
        "docid": "7304853058746614307",
        "url": ""
    },
    {
        "title": "曝光克林顿，出卖莱温斯基，“好闺蜜”琳达最终下场如何？",
        "docid": "7317182637309805066",
        "url": ""
    },
    {
        "title": "康熙皇长子胤禔，高墙圈禁26年生下20胎，雍正：他可以死了",
        "docid": "7323537180507996724",
        "url": ""
    },
    {
        "title": "和珅出上联：三斤四两五花肉，纪晓岚对出下联，和珅吓得当场下跪",
        "docid": "7312807892259078675",
        "url": ""
    },
    {
        "title": "稳坐春晚前排20年、一人住7层别墅、78岁仍单身，这3位女性真厉害",
        "docid": "7293830429785145906",
        "url": ""
    },
    {
        "title": "母系社会人人平等，为什么被历史所淘汰？",
        "docid": "7298154446210040329",
        "url": ""
    },
    {
        "title": "1944年，土匪头子王鼎山派人送来借条：希望新四军接济40万发子弹",
        "docid": "7321559905730249256",
        "url": ""
    },
    {
        "title": "四大美男之一的兰陵王，能美到什么程度？复原后的容貌美如冠玉",
        "docid": "7309020799716033034",
        "url": ""
    },
    {
        "title": "英王陈玉成有多少个老婆？他与李秀成关系如何？",
        "docid": "7291535999400821289",
        "url": ""
    },
    {
        "title": "魏征是个凡人为何敢斩龙王？看看他的真实身份是啥？比皇帝还要高",
        "docid": "7315679575608984091",
        "url": ""
    },
    {
        "title": "1929年，林徽因一张罕见的“孕装照”，仙气十足，美的不可方物",
        "docid": "7305729852546908684",
        "url": ""
    },
    {
        "title": "蒋介石为何那么重用杜聿明？你看陈诚和白崇禧，在背后都干了些啥",
        "docid": "7318685312014713371",
        "url": ""
    },
    {
        "title": "战国七雄：秦楚齐燕赵魏韩，分别在哪些省份，有你家乡吗？",
        "docid": "7316870111053283840",
        "url": ""
    },
    {
        "title": "中国最悲催的历史古都，被人为毁掉，千年未翻身变成小农村",
        "docid": "7302635365121507890",
        "url": ""
    },
    {
        "title": "他是梁山最窝囊的好汉，默许妻子与他人私通，一上战场便沦为炮灰",
        "docid": "7326000189381444148",
        "url": ""
    },
    {
        "title": "“东山再起”的“东山”，指的是哪座山？有什么历史典故？",
        "docid": "7300172871584842250",
        "url": ""
    },
    {
        "title": "汪伪“76号”特务万里浪",
        "docid": "7295991782079218215",
        "url": ""
    },
    {
        "title": "731旧址内，小伙拿着红旗，数次哽咽，多去旧馆看看，那里更震惊",
        "docid": "7326330119076282892",
        "url": ""
    },
    {
        "title": "雍正王朝：难怪诺敏临终前大喊冤枉，你看雍正帝为啥急着砍他头？",
        "docid": "7318957433861620224",
        "url": ""
    },
    {
        "title": "三国都乱成那样了，为什么没有外族入侵？笑死在网友的评论里",
        "docid": "7319129404381659700",
        "url": ""
    },
    {
        "title": "大英现在还有多少实力？英国：全球比我强的国家，应该不超过三个",
        "docid": "7301913142534717987",
        "url": ""
    },
    {
        "title": "清朝的三眼花翎有多厉害，298年来仅有8个人拥有，和珅都没有混上",
        "docid": "7299745305065898507",
        "url": ""
    },
    {
        "title": "故宫牌匾上插着一支箭，200多年来无人敢拔，究竟是谁留下的",
        "docid": "7300144607773032986",
        "url": ""
    },
    {
        "title": "李渊为何要抢姨父的江山？都是姨母做的孽！",
        "docid": "7324987963279131170",
        "url": ""
    },
    {
        "title": "再看《康熙王朝》才懂：周培公被贬11年，为何临终前还愿意献皇图",
        "docid": "7319448083736560138",
        "url": ""
    },
    {
        "title": "末代皇帝溥仪大婚现场：婉容长得确实漂亮，但吸食鸦片后不忍直视",
        "docid": "7320288245538144778",
        "url": ""
    },
    {
        "title": "我国历史有1500年“空白期”，无任何史料记载，中间发生了什么？",
        "docid": "7316090676159218213",
        "url": ""
    },
    {
        "title": "“活武松”何广位：生擒猛虎七只，豹子230只，比武松还牛？",
        "docid": "7316851080925790730",
        "url": ""
    },
    {
        "title": "三星堆的龙，有多超乎想象？",
        "docid": "7304190367795216915",
        "url": ""
    },
    {
        "title": "狼性：知青打了咬牛野狼一棍子，野狼竟追到住地伏击他|传闻",
        "docid": "7326319547819180595",
        "url": ""
    },
    {
        "title": "浙江11市，每市一个家喻户晓的代表人物",
        "docid": "7303706213768872511",
        "url": ""
    },
    {
        "title": "重温《康熙王朝》：才懂康熙把16岁的蓝齐儿卖给仇敌的真实隐情",
        "docid": "7319895114187751971",
        "url": ""
    },
    {
        "title": "大明最后的脊梁，明末战死沙场的八位名将。",
        "docid": "7293320327860322831",
        "url": ""
    },
    {
        "title": "朱祁钰：朱瞻基厌恶他，朱祁镇恼恨他，活了28岁留下两个待解谜",
        "docid": "7326190812558721571",
        "url": ""
    },
    {
        "title": "张灵甫遗孀回台，74师老兵坐了满满20桌，陈毅的担忧绝非没有",
        "docid": "7318315738731725364",
        "url": ""
    },
    {
        "title": "2007年，张灵甫妻子在孟良崮，站在丈夫阵亡的地方，之后留下4字",
        "docid": "7321324717267943975",
        "url": ""
    },
    {
        "title": "非洲国王在德国打工：白天修车，晚上处理国事，工资养活一个国家",
        "docid": "7295692967627588132",
        "url": ""
    },
    {
        "title": "英国军官不解：英国为何归还香港？直到2000年一英国上将道出真相",
        "docid": "7309415640421483008",
        "url": ""
    },
    {
        "title": "9800多万人，陈姓家族的发迹与失落",
        "docid": "7304275448647975478",
        "url": ""
    },
    {
        "title": "多亏了这个外国人，留下乾隆的真实相貌，和电视上看到的不一样",
        "docid": "7314296783729918501",
        "url": ""
    },
    {
        "title": "1983年，粟裕76岁生日时，和三个孙子的一张珍贵合影，其乐融融",
        "docid": "7299828456454668839",
        "url": ""
    },
    {
        "title": "乔家大院那么富有，为何日军入侵时却不敢抢？看看门口挂的什么",
        "docid": "7326009523121013287",
        "url": ""
    },
    {
        "title": "历史上的六大遗憾，一个比一个令人痛心疾首，哪个最让你意难平？",
        "docid": "7313848754207998504",
        "url": ""
    },
    {
        "title": "她一脱成名，后葬送5万法国士兵，死后头颅做防腐永久存放博物馆",
        "docid": "7306773679503917606",
        "url": ""
    },
    {
        "title": "哪些年湖北出过的狠人你知道吗？",
        "docid": "7299771468932743690",
        "url": ""
    },
    {
        "title": "相比于中美俄，国土面积世界第二大的加拿大为什么没有存在感？",
        "docid": "7317223488887046692",
        "url": ""
    },
    {
        "title": "古代刑罚：用山羊的舌头执刑，过程温柔，却让人倍感痛苦",
        "docid": "7297320780206227978",
        "url": ""
    },
    {
        "title": "靠篡位登基且是明君的八个皇帝",
        "docid": "7308321970695701031",
        "url": ""
    },
    {
        "title": "1988年，张幼仪去世，墓碑上刻了4个字，是对徐志摩的强烈讽刺",
        "docid": "7323047614465966626",
        "url": ""
    },
    {
        "title": "汪伦：只是一小小县令，却靠打赏李白留名千古，你猜有多大手笔？",
        "docid": "7316729394834407955",
        "url": ""
    },
    {
        "title": "准噶尔汗国有何厉害之处？为何它能抗住满清持续七十多年的打击？",
        "docid": "7321675376483795508",
        "url": ""
    },
    {
        "title": "黄帝死后一千年夏朝才建立，这一段空白的历史，究竟发生了什么？",
        "docid": "7296798626876719656",
        "url": ""
    },
    {
        "title": "他当了48年皇帝，40年不碰女人，一直活到86岁，结果却成千古笑柄",
        "docid": "7299339228990259712",
        "url": ""
    },
    {
        "title": "中国历史十大托孤事件",
        "docid": "7326323841804976652",
        "url": ""
    },
    {
        "title": "武则天墓前61个无头石人,百年来难以解释,1971年两位农民提供线索",
        "docid": "7317936782211940918",
        "url": ""
    },
    {
        "title": "在没有蜀汉的日子里，东吴面对魏晋两朝，如何孤军奋战撑了17年？",
        "docid": "7293045103852012041",
        "url": ""
    },
    {
        "title": "1935年，胡蝶和梅兰芳外出偶遇，留下了这一张合影，气质绝佳",
        "docid": "7299854257287791115",
        "url": ""
    },
    {
        "title": "二战时拯救犹太人的五位国际义人，以色列如何待之的？",
        "docid": "7293062787696247332",
        "url": ""
    },
    {
        "title": "秦始皇陵为何至今都不敢挖？德国专家核磁扫描后，发现墓中不一般",
        "docid": "7309397344062145061",
        "url": ""
    },
    {
        "title": "状元一般能到什么级别？在京混个四品很轻松，外放的话保底是二品",
        "docid": "7316763848793850377",
        "url": ""
    },
    {
        "title": "清朝老照片：县太爷威风凛凛，李鸿章的小娇妾，宛若仙子妩媚动人",
        "docid": "7308665971391119935",
        "url": ""
    },
    {
        "title": "震惊中外的世界第一土匪，迫使丝绸之路改道，中俄蒙三国联合斩杀",
        "docid": "7302750059866276378",
        "url": ""
    },
    {
        "title": "各个朝代的昏君之最，我认为他们才是真正的亡国之君。",
        "docid": "7326363014624952870",
        "url": ""
    },
    {
        "title": "朱元璋吃过老婆婆的豆腐汤赞不绝口，离开后却随即下令：杀了她",
        "docid": "7297033442708013622",
        "url": ""
    },
    {
        "title": "“王不过项，力不过霸，将不过李，拳不过金”分别指的是谁？",
        "docid": "7296735867308229183",
        "url": ""
    },
    {
        "title": "唐朝女人究竟有多开放？现代人都自愧不如，实在伦理崩坏",
        "docid": "7326172172085363212",
        "url": ""
    },
    {
        "title": "黄维被围双堆集后，已断难逃生，为何胡琏却还要飞进去“送死”？",
        "docid": "7300162563613098530",
        "url": ""
    },
    {
        "title": "一念关山：为啥皇帝没怀疑初贵妃红杏出墙？她比昭节皇后聪明多了",
        "docid": "7309407160444699155",
        "url": ""
    },
    {
        "title": "国人所自豪的“黄种人”，在欧美人眼里，为什么是一种“歧视”",
        "docid": "7307468588187779584",
        "url": ""
    },
    {
        "title": "埃及人修金字塔的时候，“中国人”在干什么？说出来你也许不信",
        "docid": "7298533460203799080",
        "url": ""
    },
    {
        "title": "孟阿香：92岁去世后，为3个智残儿子留下千斤粮食，后来怎样了？",
        "docid": "7323477751934009910",
        "url": ""
    },
    {
        "title": "建文帝下落之谜，有可能隐居在湖南益阳栖霞寺",
        "docid": "7295268659114197543",
        "url": ""
    },
    {
        "title": "一度天下无敌的阿拉伯人，最后是怎么变成战五渣的？",
        "docid": "7310407535230960128",
        "url": ""
    },
    {
        "title": "印度尼西亚：这个国家极度排斥华人，为何当地华人还坚持留下来？",
        "docid": "7307863082947412518",
        "url": ""
    },
    {
        "title": "他在刘备手下不得志，关羽眼中更是废柴，为何转投他人却成牛人？",
        "docid": "7308350344680112680",
        "url": ""
    },
    {
        "title": "日本人有多残忍？将女战士朱凡双腿捆绑在游艇上，整个人被撕裂开",
        "docid": "7326404596425818624",
        "url": ""
    },
    {
        "title": "武则天一生心狠手辣，临终前却对一人念念不忘，特意下诏为他平反",
        "docid": "7299382413153600041",
        "url": ""
    },
    {
        "title": "古代中了探花，为啥比中状元还高兴呢？原来有一不成文“规定”",
        "docid": "7314491648904282687",
        "url": ""
    },
    {
        "title": "大清灭亡后，溥仪的7个妹妹都嫁给了谁？这些明星其实是皇室子孙",
        "docid": "7297836919092838946",
        "url": ""
    },
    {
        "title": "面对金兀术重兵围困京城，曾经闻名的北宋六大家族为何不见踪迹？",
        "docid": "7300603515179893283",
        "url": ""
    },
    {
        "title": "这该死的因果报应——司马师之死为西晋的“八王之乱”埋下了伏笔",
        "docid": "7306028295810941452",
        "url": ""
    },
    {
        "title": "六朝古都——大同，你知道是哪六朝吗？",
        "docid": "7298978037532475904",
        "url": ""
    },
    {
        "title": "吕后去世不到4个月，吕氏就被诛灭。这是怎么做到的？",
        "docid": "7298539679162057256",
        "url": ""
    },
    {
        "title": "为什么神仙在商朝时候可以干预人间，到了周朝却再不能干预人间？",
        "docid": "7311543587731456564",
        "url": ""
    },
    {
        "title": "明宪宗晚年感叹膝下无子，太监扑通跪倒：您儿子6岁了，在冷宫里",
        "docid": "7326062611626443316",
        "url": ""
    },
    {
        "title": "“抽烟的父亲”这个段子太精彩了，越品越有味",
        "docid": "7316955330783593000",
        "url": ""
    },
    {
        "title": "清末上色老照片：女道姑与道士罕见合照，电视上演的都是骗人的",
        "docid": "7322451804166341154",
        "url": ""
    },
    {
        "title": "中国历史上最严重的地震居然在西安？西安适合做国都吗？",
        "docid": "7294501660087353897",
        "url": ""
    },
    {
        "title": "色胆包天：戴笠坠机军统特务皆痛哭，只有电讯处长高兴得笑掉下巴",
        "docid": "7326023769007374889",
        "url": ""
    },
    {
        "title": "说说田蚡：这个汉武帝刘彻的舅舅，可不是个只知道贪腐的小角色！",
        "docid": "7295391458747122215",
        "url": ""
    },
    {
        "title": "陕西发现3平方“穷人墓”，盗墓贼都懒得挖，专家却挖出225件国宝",
        "docid": "7304999842168865330",
        "url": ""
    },
    {
        "title": "我们常说黄花大闺女，这个花是指什么花?为什么是黄花而非别的花",
        "docid": "7304854983177437731",
        "url": ""
    },
    {
        "title": "1948年，上海一赌鬼工人被判死刑，死后，妻子才知道他真实身份",
        "docid": "7312387401278800418",
        "url": ""
    },
    {
        "title": "李自成兵败到底有多悲惨！让我们看看一代枭雄刘宗敏结局就知道",
        "docid": "7303811050968367653",
        "url": ""
    },
    {
        "title": "徐锡麟被害前清兵给拍了张照片，看后很不满：没笑容怎么留给后代？再拍一张",
        "docid": "7307138818136818216",
        "url": ""
    },
    {
        "title": "母亲嫌儿子太丑扔地上，尼姑路过大笑：给我养，结果成就千古一帝",
        "docid": "7312717406412177920",
        "url": ""
    },
    {
        "title": "刘备夷陵之战几乎败光家底，为何无人称他昏君？引得上万网友感慨",
        "docid": "7293404892822258191",
        "url": ""
    },
    {
        "title": "古代的“枪”杆是用什么材料做的？并不是铁棍，普通人也用不起",
        "docid": "7310505257530917416",
        "url": ""
    },
    {
        "title": "98年北京一老人去世，养女在遗物中发现血书，才得知自己真实身",
        "docid": "7326082696898380307",
        "url": ""
    },
    {
        "title": "苏联最强的时候有多猛？硬是把三个已经独立的国家，直接合并",
        "docid": "7325751615594512896",
        "url": ""
    },
    {
        "title": "康熙曾用30名宫女做试验，最后死了4人，却造福后世无数老百姓",
        "docid": "7303784617940091427",
        "url": ""
    },
    {
        "title": "契丹族消失之谜：150万契丹人人间蒸发，一封信件，解开千古谜团",
        "docid": "7303822023917371916",
        "url": ""
    },
    {
        "title": "1973年，因高考交白卷，被判入狱15年的张铁生，现如今怎样",
        "docid": "7325285956771824168",
        "url": ""
    },
    {
        "title": "中国历史上，被亲儿子杀害的四位皇帝，你都知道吗？",
        "docid": "7303491506764022309",
        "url": ""
    },
    {
        "title": "中国最“短命”的省，从设立到撤销仅有三年",
        "docid": "7296665005653672484",
        "url": ""
    },
    {
        "title": "我们熟悉的她早已逝世，曾嫁给其貌不扬的矿工，却谱写出浪漫爱情",
        "docid": "7305307570535776822",
        "url": ""
    },
    {
        "title": "清末格格金默玉：她不叫格格，奴才回答也不是喳，电视里都不对",
        "docid": "7325739479031906853",
        "url": ""
    },
    {
        "title": "蓝天野：白天演员、晚上间谍，隐姓埋名75年，姜子牙曾是地下党",
        "docid": "7320893222681920019",
        "url": ""
    },
    {
        "title": "清代所有的亲王中，以权力而言排名前三位的是谁？",
        "docid": "7302688236261245481",
        "url": ""
    },
    {
        "title": "孝庄美貌与智慧并存，为何皇太极就是不喜欢她？只因她有1个缺点",
        "docid": "7296790695695237683",
        "url": ""
    },
    {
        "title": "53年后弄明白了，当年苏联挖穿地球，为何挖到12262米就停了？",
        "docid": "7317929963209294355",
        "url": ""
    },
    {
        "title": "乾隆继后乌拉那拉氏，如懿娴妃坏皇后的历史原型，今天终于知道了",
        "docid": "7326181967522365967",
        "url": ""
    },
    {
        "title": "清末老照片：感觉电视剧里都是假的",
        "docid": "7326105084167995914",
        "url": ""
    },
    {
        "title": "一个亲王，一年能收入多少钱？",
        "docid": "7295920742292734476",
        "url": ""
    },
    {
        "title": "都说富不过三代，但中国这个家族却强盛不衰400年，子孙至今仍在",
        "docid": "7296019119726871050",
        "url": ""
    },
    {
        "title": "古代的“三妻四妾”制度，一夫多妻的真实历史，并非想象那么美好",
        "docid": "7318261996309463579",
        "url": ""
    },
    {
        "title": "20张照片告诉你一个真实的清朝，原来这么多年我们都被电视剧骗了",
        "docid": "7307044308719714857",
        "url": ""
    },
    {
        "title": "日本出土的一块金印，印底却刻着五个汉字，日本人翻译后很难接受",
        "docid": "7299759090635375141",
        "url": ""
    },
    {
        "title": "刘禅投降后写了3字，司马昭不敢杀他，群臣不解，司马昭：倒着读",
        "docid": "7298649429480096295",
        "url": ""
    },
    {
        "title": "王后被送上断头台，不小心踩了刽子手的脚，她下意识地说：对不起",
        "docid": "7298602126731985460",
        "url": ""
    },
    {
        "title": "此将一生只打一次胜仗，换中国三百年无人敢犯，一句名言流传千古",
        "docid": "7304823368665399858",
        "url": ""
    },
    {
        "title": "当年买了泰坦尼克号票的8位顶级富豪，为何开船前，却都没上船？",
        "docid": "7311656888750473762",
        "url": ""
    },
    {
        "title": "“不愿为国而战”引发群体共鸣？历史告诉过国家是如何爱你的！",
        "docid": "7308988305759076905",
        "url": ""
    },
    {
        "title": "刘备临死前留下一员猛将，力保蜀汉20年不亡，此人是谁？​",
        "docid": "7301957450541236770",
        "url": ""
    },
    {
        "title": "南水北调挖出了河南多少秘密？",
        "docid": "7309650539762254386",
        "url": ""
    },
    {
        "title": "读明史最大的谬论：明朝灭亡是天意而非人祸",
        "docid": "7326415180047352332",
        "url": ""
    },
    {
        "title": "史上第二汉奸-李陵，却是历史绕不开的桩",
        "docid": "7325633574001721906",
        "url": ""
    },
    {
        "title": "张居正终身不用海瑞，曾坦言此人一旦入朝，大明将永无宁日",
        "docid": "7326054701345505832",
        "url": ""
    },
    {
        "title": "兵精将猛如日中天的瓦岗寨, 为什么一转眼就烟消云散了?真相是什么",
        "docid": "7325629663856968244",
        "url": ""
    },
    {
        "title": "19岁孙尚香嫁给49岁刘备，为何一直没有生下子嗣？说出来你别不信",
        "docid": "7299375082445685258",
        "url": ""
    },
    {
        "title": "刘伯温讨水喝，女人故意往碗里撒了一把谷壳，刘伯温：她大有智慧",
        "docid": "7311899494222856756",
        "url": ""
    },
    {
        "title": "清朝老照片：穷人无立锥之地，富人妻妾成群，贫富差距太大",
        "docid": "7308236487400866316",
        "url": ""
    },
    {
        "title": "为何范进中举后突然疯了？把他中举后的官职放到现代，或许你也疯",
        "docid": "7301228326633423371",
        "url": ""
    },
    {
        "title": "袁世凯虽然争议很大，但却有一个世界闻名的孙子，为中国奋斗一生",
        "docid": "7317146827730584064",
        "url": ""
    },
    {
        "title": "国民党军官“前方吃紧，后方紧吃”老照片，贪污腐败，焉能不败！",
        "docid": "7311510477736591898",
        "url": ""
    },
    {
        "title": "中国古代史时间线",
        "docid": "7321129420164203020",
        "url": ""
    },
    {
        "title": "曹操：搞好社交关系，不要请人吃饭，要做到以下三点",
        "docid": "7309272697006227983",
        "url": ""
    },
    {
        "title": "兜兜转转，又回到1836年，在巨大贸易逆差面前，我们却不是满清了",
        "docid": "7314943269665014324",
        "url": ""
    },
    {
        "title": "朱元璋临终前，身旁一个4岁女孩笑个不停，看到后：给朕刀下留人",
        "docid": "7325700019258917428",
        "url": ""
    },
    {
        "title": "古代男子，特别是皇帝总喜欢娶十三四岁的少女，有何深层原因？",
        "docid": "7314116621021430311",
        "url": ""
    },
    {
        "title": "23张很难相信却不得不信的罕见图片，“黑暗女王”极致黑，开眼了",
        "docid": "7302786837326955049",
        "url": ""
    },
    {
        "title": "临死前，董卓大喊6字被后世耻笑千年，如今却成为现代人的口头禅",
        "docid": "7312761990844563979",
        "url": ""
    },
    {
        "title": "韩网友：隋朝被韩国打亡国，越南网友不甘示弱，沙特韩国网友互怼",
        "docid": "7311909098923541030",
        "url": ""
    },
    {
        "title": "明朝皇后的墓里，出土十一双高跟鞋，古人真是又爱美又潮流",
        "docid": "7300143526842057267",
        "url": ""
    },
    {
        "title": "历史上有奇葩嗜好的五大皇帝，雍正最高级，其他让人不忍直视",
        "docid": "7299030450046042624",
        "url": ""
    },
    {
        "title": "老照片：胡因梦和父亲合影，连战妻子美艳动人，孙立人的青涩模样",
        "docid": "7315774584791056915",
        "url": ""
    },
    {
        "title": "徐阶求助张居正对付严世蕃，张居正说道：对付严世蕃只需要一个人",
        "docid": "7301504065958363659",
        "url": ""
    },
    {
        "title": "郑和下西洋带回2只“麒麟”，朱棣稀罕不已，如今画像公开太荒唐",
        "docid": "7301151725619020326",
        "url": ""
    },
    {
        "title": "Ai还原清朝十二帝",
        "docid": "7305194867188056587",
        "url": ""
    },
    {
        "title": "北大一教授，路遇一女子贩卖成吉思汗画像，他花3块钱买下来",
        "docid": "7298603795574080019",
        "url": ""
    },
    {
        "title": "古代历史上，力气最大的五大猛将，第一名有万斤神力无人能敌",
        "docid": "7325458707653935654",
        "url": ""
    },
    {
        "title": "多尔衮为什么会被捧的那么高？评论区点醒上万读者",
        "docid": "7293750849145193012",
        "url": ""
    },
    {
        "title": "《琅琊榜》的梁帝清除本国7万士兵，如果放到现实，会有啥结果？",
        "docid": "7322464127052677684",
        "url": ""
    },
    {
        "title": "武汉长江大桥下，居然埋葬着一位皇帝，现今却无人祭拜荒草丛生 ！",
        "docid": "7297042952906768896",
        "url": ""
    },
    {
        "title": "为何白起打了一辈子仗只是16级的大良造，嫪毐却是最高爵20级列侯",
        "docid": "7326384383584551461",
        "url": ""
    },
    {
        "title": "圆明园“马首”被赌王捐给祖国后，专家拍了X光，有了意外发现",
        "docid": "7311996277372518950",
        "url": ""
    },
    {
        "title": "曹冲因称象成名，世人皆夸其聪明，司马懿却认为他真是蠢到了家",
        "docid": "7307078769998070307",
        "url": ""
    },
    {
        "title": "历史上的七大遗憾，哪个让你意难平？",
        "docid": "7306159307207426597",
        "url": ""
    },
    {
        "title": "古代生育能力强的10大帝王！",
        "docid": "7293829680783524387",
        "url": ""
    },
    {
        "title": "古代战场上，为什么守城士兵宁愿用石头砸，也不愿意推倒梯子呢？",
        "docid": "7325366812831580698",
        "url": ""
    },
    {
        "title": "故宫没有1个厕所，上万人该如何方便？看完才知道古人真聪明！",
        "docid": "7298225924829577738",
        "url": ""
    },
    {
        "title": "慈禧太后西逃后的紫禁城：日本人拍摄，图8龙床跟影视里差别大",
        "docid": "7298587432805614131",
        "url": ""
    },
    {
        "title": "越南最美皇后：美貌让国王放弃纳妃，7年生5胎，身材变形丈夫变心",
        "docid": "7312773982586077735",
        "url": ""
    },
    {
        "title": "古代没有指纹识别技术，为何还要按手印画押？这就是老祖宗的智慧",
        "docid": "7311665469646733835",
        "url": ""
    },
    {
        "title": "西伯利亚：砍不完的树、挖不完的矿，菜比肉贵、家家囤腌菜",
        "docid": "7298321119130894885",
        "url": ""
    },
    {
        "title": "古人看不到这张精准地貌图，却能精准把控都城选址和重要关隘选择",
        "docid": "7309102899173278244",
        "url": ""
    },
    {
        "title": "中国5000年最牛的人：两次官至相国，三次散财天下，万世敬仰",
        "docid": "7309059892206125577",
        "url": ""
    },
    {
        "title": "老农上交40斤黄金，上交之后才发现，装黄金的罐子才是无价之宝",
        "docid": "7294591917613449739",
        "url": ""
    },
    {
        "title": "山东男寿星杨明运，从光绪23年活到2014年，却一辈子无儿无女",
        "docid": "7325362869129511424",
        "url": ""
    },
    {
        "title": "朱元璋屠戮功臣的真相是什么？",
        "docid": "7325643590368510491",
        "url": ""
    },
    {
        "title": "为什么中国实现了大一统，一片大平原的欧洲却统一不了？",
        "docid": "7326408321869791756",
        "url": ""
    },
    {
        "title": "父亲和丈夫必死一个，女子问母亲如何选，母亲回答竟成一千古成语",
        "docid": "7299411279268037132",
        "url": ""
    },
    {
        "title": "一起真实的“妾灭正妻”事件，妻惨死下葬后身上犹穿“血衣”控诉",
        "docid": "7313522141490709026",
        "url": ""
    },
    {
        "title": "中欧内陆国奥地利地缘环境怎么样",
        "docid": "7324996913705812480",
        "url": ""
    },
    {
        "title": "缅甸：最担心古代中国分裂的国家，一旦中国发生内战，常常遭暴打",
        "docid": "7302266065046782502",
        "url": ""
    },
    {
        "title": "拿破仑征战欧洲之路：科西嘉雄狮横空出世，法兰西战神横扫欧洲",
        "docid": "7326395589196284468",
        "url": ""
    },
    {
        "title": "浙江千年古庙挖出梁山伯墓葬，墓志铭清晰可见，揭开梁祝化蝶真相",
        "docid": "7296677973124547113",
        "url": ""
    },
    {
        "title": "历史上著名的10大阳谋，第10个是房地产，就知道10大阳谋的无解。",
        "docid": "7308158726517752335",
        "url": ""
    },
    {
        "title": "辛弃疾一生六百多首诗词，又力主抗金，为何却一字不提岳飞",
        "docid": "7296506853003952675",
        "url": ""
    },
    {
        "title": "罗家将：罗艺、罗成、罗通、罗章，连续四代都没有得到善终",
        "docid": "7311677934552318464",
        "url": ""
    },
    {
        "title": "清朝赔给列强的4.5亿两白银，折合到现如今，大约是多少人民币？",
        "docid": "7325027953297064460",
        "url": ""
    },
    {
        "title": "古人的衣服拖在地上很长，他们不怕把衣服弄脏吗？答案其实很简单",
        "docid": "7299074366036394533",
        "url": ""
    },
    {
        "title": "蜀汉后期无大将？其实并非如此，蜀汉后期并不缺大将",
        "docid": "7304521922859205157",
        "url": ""
    },
    {
        "title": "埃塞俄比亚：照抄中国，GDP二十年翻10倍，形势大好为何又陷战乱",
        "docid": "7306838738905285135",
        "url": ""
    },
    {
        "title": "刘胡兰唯一亲妹妹今何在？曾亲见姐姐就义，伤心至七天滴水未进！",
        "docid": "7326113444246651404",
        "url": ""
    },
    {
        "title": "蒋介石为何会输？1946年，刘伯承一语道破原因：国军有三怕",
        "docid": "7301669734758728227",
        "url": ""
    },
    {
        "title": "美国人：中国“国兴”组织太可怕！5个国兴杀神美国人至今都哆嗦",
        "docid": "7310214998889153076",
        "url": ""
    },
    {
        "title": "黄巢最后一战对上师弟李存孝，罗家枪会禹王神槊，落败自刎灭巢山",
        "docid": "7325748095986745871",
        "url": ""
    },
    {
        "title": "张学良迷恋一生的赵一荻到底有多美？看完这些老照片，就能明白了",
        "docid": "7315040080685580851",
        "url": ""
    },
    {
        "title": "河南到底怎么了？",
        "docid": "7298605459454558761",
        "url": ""
    },
    {
        "title": "是谁把红军逼上长征路？这位毒诸葛，异常聪明，却下场凄惨",
        "docid": "7302694811755201036",
        "url": ""
    },
    {
        "title": "一大臣亲自杀了隋炀帝并归顺大唐，李世民忍他9年，最终灭他三族",
        "docid": "7300813853167354407",
        "url": ""
    },
    {
        "title": "你的老婆，有可能不是你老婆",
        "docid": "7297805615673049600",
        "url": ""
    },
    {
        "title": "清末老照片：头顶灵符的义和团成员，嫖客和风尘女子一同出镜",
        "docid": "7300179116983992844",
        "url": ""
    },
    {
        "title": "商朝到底是个怎样的朝代？一口气看完商朝554年历史!",
        "docid": "7318742777691603471",
        "url": ""
    },
    {
        "title": "苏联曾有三次机会掀翻美国，赢得冷战的胜利，为何最后全部失败？",
        "docid": "7317915106111799871",
        "url": ""
    },
    {
        "title": "蒙古往事：军阀“汤大虎”汤玉麟",
        "docid": "7312373356588909068",
        "url": ""
    },
    {
        "title": "一座与世隔绝的孤岛上，竟藏着人类文明灭绝的警告？",
        "docid": "7314582982533136935",
        "url": ""
    },
    {
        "title": "华夏最有骨气的王朝：只管放马过来，亡国之前也要让荷兰赔款求和",
        "docid": "7326493956265738771",
        "url": ""
    },
    {
        "title": "古代丫鬟的100种“使用”方式，有多可怕？图文揭秘",
        "docid": "7320783837217440291",
        "url": ""
    },
    {
        "title": "中国古代四大名妓",
        "docid": "7324195773401399820",
        "url": ""
    },
    {
        "title": "茜茜公主：身高172腰围50仍在减肥，因为她能拿得出手的只有美貌",
        "docid": "7326498584395366963",
        "url": ""
    },
    {
        "title": "封神大战后，苏妲己去哪儿了？女娲娘娘许下的承诺兑现了吗？",
        "docid": "7299329548150243881",
        "url": ""
    },
    {
        "title": "盗墓界有个“不成文规定”：金银珠宝都可拿，唯有一样东西不能动",
        "docid": "7306394946314043954",
        "url": ""
    },
    {
        "title": "民国军阀姨太太罕见老照片：不但有本土姨太太，还有外籍姨太太",
        "docid": "7303007331490660873",
        "url": ""
    },
    {
        "title": "解放前夜的上海老照片",
        "docid": "7313760338472780351",
        "url": ""
    },
    {
        "title": "台湾老兵回到江苏探亲，喝醉后失言，女儿惊觉父亲不是国民党",
        "docid": "7300869970056053283",
        "url": ""
    },
    {
        "title": "001_大英博物馆镇馆之宝：「罗塞塔石碑」",
        "docid": "7294972843987845671",
        "url": ""
    },
    {
        "title": "秦始皇还有后人存世吗？这4个姓氏的人，极有可能就是始皇的子孙",
        "docid": "7299750178273083915",
        "url": ""
    },
    {
        "title": "2010年，湖南一农民砍柴时，看到诡异景象，专家：建议封锁消息",
        "docid": "7299755464970240524",
        "url": ""
    },
    {
        "title": "杨虎城和张学良差距有多大 年龄差7岁 兵力差一倍 江湖地位差两段",
        "docid": "7316121062876643878",
        "url": ""
    },
    {
        "title": "731遗址参观排队，交大教授称历史存在虚构，日军没有发动鼠疫战",
        "docid": "7326514270877827595",
        "url": ""
    },
    {
        "title": "一代大侠甘凤池传奇",
        "docid": "7326016981931721226",
        "url": ""
    },
    {
        "title": "\"揭秘苏联普通人与高官的生活差别！惊人真相让你目瞪口呆\"",
        "docid": "7325681755703411254",
        "url": ""
    },
    {
        "title": "清代岁入一百两属于什么档次？有钱谈不上，娶一两房小妾压力不大",
        "docid": "7314186993565450803",
        "url": ""
    },
    {
        "title": "太平天国最高降将韦俊，为何清廷没有杀他，他降清后结局如何？",
        "docid": "7325432210315084327",
        "url": ""
    },
    {
        "title": "文强被俘后，收到杜聿明十包香烟，10年后，助力杜聿明第一批特赦",
        "docid": "7303095944231387683",
        "url": ""
    },
    {
        "title": "这位低调的明朝皇帝，在位仅六年，将全世界一半的白银都赚了回来",
        "docid": "7325633723691581988",
        "url": ""
    },
    {
        "title": "600年前的明朝大移民，812个姓氏从洪洞大槐树下出发，有你姓没？",
        "docid": "7297188631872094730",
        "url": ""
    },
    {
        "title": "清宫戏都是骗人的，这才是真实晚清老照片，孩子在襁褓中饿得直哭",
        "docid": "7298319632400892452",
        "url": ""
    },
    {
        "title": "1978年，郭沫若最后一次公开露面的镜头，遗愿： 骨灰撒向大寨肥田",
        "docid": "7311126857338880523",
        "url": ""
    },
    {
        "title": "被凌迟处死的“皇帝”：四肢被钉在囚车上割了1516刀，死时才16岁",
        "docid": "7326102126894236211",
        "url": ""
    },
    {
        "title": "吕布死后，貂蝉去哪了？",
        "docid": "7326168997521785363",
        "url": ""
    },
    {
        "title": "蒙恬自杀前说了两句千古名言，曹操推崇备至，每当委屈时必读一次",
        "docid": "7295555251753910838",
        "url": ""
    },
    {
        "title": "一战封神：虎牢关之战中李世民的用兵方略",
        "docid": "7325682456257331739",
        "url": ""
    },
    {
        "title": "王莽功德被赞像圣人，妻子简朴如奴仆，逼迫儿子自杀只为立人设？",
        "docid": "7317228956317467145",
        "url": ""
    },
    {
        "title": "考生因相貌太丑乾隆出上联挖苦，却被当场对出，乾隆大喜：赐探花",
        "docid": "7307209990174818854",
        "url": ""
    },
    {
        "title": "秦国军功赐田，不担心将来土地不够分吗？1976年考古才知商鞅机智",
        "docid": "7294426895909831202",
        "url": ""
    },
    {
        "title": "古代官员退休后，为什么非要告老还乡？留在京城养老不好吗？",
        "docid": "7309000491382456847",
        "url": ""
    },
    {
        "title": "蒋介石被两大国连哄带吓 外蒙古就这样被弄丢了",
        "docid": "7326230724158210596",
        "url": ""
    },
    {
        "title": "山西武乡一带，为什么不少人长得“深目高鼻多须”？",
        "docid": "7304975618406449676",
        "url": ""
    },
    {
        "title": "一哥“俗人读史”之：他才是功德林里人缘不好的战犯",
        "docid": "7326364709954273802",
        "url": ""
    },
    {
        "title": "清代名臣刘墉，果真配称“好官”？其实，他比贪官和珅还可恨",
        "docid": "7326068683154604585",
        "url": ""
    },
    {
        "title": "吐蕃的版图兴衰：盛极一时的高原帝国如何最终归于中华大一统？",
        "docid": "7313805807006237235",
        "url": ""
    },
    {
        "title": "林则徐厉害，他的一个女儿更厉害，至今祠堂香火依旧鼎盛",
        "docid": "7306784003754328586",
        "url": ""
    },
    {
        "title": "害死岳飞13年后秦桧得重病，高宗探视病情，秦桧一句话不说只流泪",
        "docid": "7318758769977786943",
        "url": ""
    },
    {
        "title": "天启大爆炸：20000多人伤亡，死者全身赤裸，离奇现象如何产生？",
        "docid": "7312779579662680602",
        "url": ""
    },
    {
        "title": "打开历史胶囊，30张图片记录往日的美好时刻",
        "docid": "7325618354625380915",
        "url": ""
    },
    {
        "title": "70岁老臣被赐死，吃完断头饭后，说了临终遗言，皇帝闻听后：免死",
        "docid": "7303545023227544102",
        "url": ""
    },
    {
        "title": "江西孤儿靠乞讨长大成人，23岁时北京来人找他：你亲妈是个大首长",
        "docid": "7320046614512108073",
        "url": ""
    },
    {
        "title": "吕蒙正：写出历史上最穷的一副对联，却从乞丐到宰相的逆袭人生",
        "docid": "7317650850317681167",
        "url": ""
    },
    {
        "title": "明清时的八府巡按到底是个多大的官？从一品水师提督都要礼让三分",
        "docid": "7303791338049421864",
        "url": ""
    },
    {
        "title": "太平天国的洪全福见大势已去，漂洋过海远遁古巴，得到孙中山认可",
        "docid": "7301193138138432035",
        "url": ""
    }
]