[
    {
        "title": "张学良迷恋一生的赵一荻到底有多美？看完这些老照片，就能明白了",
        "docid": "7362428905958949416",
        "url": ""
    },
    {
        "title": "朱元璋外甥得一绝色小妾，日夜缠绵，朱元璋：她已怀孕，可以死了",
        "docid": "7369987859509412389",
        "url": ""
    },
    {
        "title": "民国的时候为什么要把内蒙古拆分为热河、察哈尔和绥远三个省份？",
        "docid": "7353252922215399951",
        "url": ""
    },
    {
        "title": "乐毅很快就打得齐国只剩下两城，为什么就是打不下这最后两城呢？",
        "docid": "7340797992401994267",
        "url": ""
    },
    {
        "title": "为何石达开受寸磔之刑时一声不吭？不是他不想吭，而是根本吭不了",
        "docid": "7363638272305660425",
        "url": ""
    },
    {
        "title": "三看《康熙王朝》：才懂为何魏东亭看完康熙的遗诏，突然就断了气",
        "docid": "7361681902203388470",
        "url": ""
    },
    {
        "title": "59岁的王昌龄被贬返回老家，途经亳州，竟被亳州刺史一枪捅死",
        "docid": "7342851406929773093",
        "url": ""
    },
    {
        "title": "一百万大洋能买一个师的装备，却不能养一个师，这是怎么回事？",
        "docid": "7343605994100032036",
        "url": ""
    },
    {
        "title": "湘西“转世村”：7800人中110人有着前世记忆，专家调查结果如何",
        "docid": "7356164397322813967",
        "url": ""
    },
    {
        "title": "从两白旗追杀到两蓝旗 皇太极子孙对多尔衮一系的打压持续了近百年",
        "docid": "7353592366433108519",
        "url": ""
    },
    {
        "title": "汤玉麟多次反叛作死，触碰底线，为何张家父子却都没有下死手？",
        "docid": "7351245737893839371",
        "url": ""
    },
    {
        "title": "美版知乎:中国古代很强大，为什么近代却被英国人给打败了？",
        "docid": "7369878715892826634",
        "url": ""
    },
    {
        "title": "日本占领大半个中国，为什么没有去挖中国的皇陵？",
        "docid": "7363122360871928383",
        "url": ""
    },
    {
        "title": "金兀术引以为傲的铁浮屠，是如何被岳飞粉碎不败神话的？",
        "docid": "7349059175604978185",
        "url": ""
    },
    {
        "title": "37年他救下25万中国人，其孙子因疫情向中国求救，我国什么态度？",
        "docid": "7370653614093861417",
        "url": ""
    },
    {
        "title": "1986年洪学智访美，遭挑衅问什么学校毕业的，回答令对方无地自容",
        "docid": "7347965762021163535",
        "url": ""
    },
    {
        "title": "为救朱元璋他身中9箭，朱元璋：定不负你！多年后将其满门抄斩",
        "docid": "7349493450112352806",
        "url": ""
    },
    {
        "title": "453年宋文帝在宫中被太子乱刀砍死，他开了历史上弑父篡位之先河",
        "docid": "7337350050261320201",
        "url": ""
    },
    {
        "title": "不要争了，对待前三十年，这才是一个正确的态度",
        "docid": "7350287787658232346",
        "url": ""
    },
    {
        "title": "朱元璋杀贪官六亲不认，女儿问杀得完吗？朱元璋答5字震慑人心",
        "docid": "7370654113367032361",
        "url": ""
    },
    {
        "title": "历史上最谦虚的皇帝：不称朕，不碰后宫之女，甚至连龙椅都不坐",
        "docid": "7367524485504991781",
        "url": ""
    },
    {
        "title": "一个节度使有多少兵？膨胀的节度使令人咋舌",
        "docid": "7355741742773256767",
        "url": ""
    },
    {
        "title": "刘邦驾崩15年后，托孤大臣杀光他嫡孙，历史证明刘邦杀功臣没有错",
        "docid": "7360906996621541951",
        "url": ""
    },
    {
        "title": "蒋介石用火车拉几千女人到前线，冯玉祥：西北军见不得金钱和女人",
        "docid": "7357671809703264820",
        "url": ""
    },
    {
        "title": "1937年日军听闻乔家大院有钱，劫掠至此，为何被门上一物吓退？",
        "docid": "7370209863308100130",
        "url": ""
    },
    {
        "title": "新华社报道网红郭有才，但不要忘记齐国管仲曾高价收购楚国的鹿！",
        "docid": "7370165759638897206",
        "url": ""
    },
    {
        "title": "明朝十六帝排名分为四档：百分制，前两档及格，后两档不及格",
        "docid": "7361406527728960011",
        "url": ""
    },
    {
        "title": "凶猛卖身、生殖剥削，日本如何榨干女性？",
        "docid": "7269785087582093887",
        "url": ""
    },
    {
        "title": "毛主席逝世当天，广播电视台突发播音事故，多年后揭开背后真相",
        "docid": "7359924582767133221",
        "url": ""
    },
    {
        "title": "高家将：少不征南，罗英枪挑高怀亮；老不扫北，高怀德殒命幽州",
        "docid": "7359080464864444962",
        "url": ""
    },
    {
        "title": "巴黎有一碑文，补齐玄武门之变关键环节：难怪李世民能杀死李建成",
        "docid": "7353093673058320911",
        "url": ""
    },
    {
        "title": "历史上真实的紫薇很凄惨：不仅自己红颜薄命，儿子也成为他人笑柄",
        "docid": "7361004825003344423",
        "url": ""
    },
    {
        "title": "同为割让的领土，为何收回了香港，却收不回割给沙俄的500万土",
        "docid": "7370376251730248231",
        "url": ""
    },
    {
        "title": "乾隆八年号称“史上最热的夏天”，到底热到啥程度？超乎你的想象",
        "docid": "7353589457620042274",
        "url": ""
    },
    {
        "title": "1986年老妇到陵园给红军前夫扫墓，儿子惊叫：妈，墓碑上有您名字",
        "docid": "7363175164667773480",
        "url": ""
    },
    {
        "title": "大奸臣是什么下场？活了多少岁？严嵩87，蔡京80，秦桧和赵高呢？",
        "docid": "7342303396638065161",
        "url": ""
    },
    {
        "title": "兄弟姐妹即使断交了，也要帮这三个忙，这不是心机，而是远见",
        "docid": "7356060477232792074",
        "url": ""
    },
    {
        "title": "1300年前的国宝，中国最早唐代帽子实物，险被武则天毁坏",
        "docid": "7353939640472044073",
        "url": ""
    },
    {
        "title": "三寸金莲可以走路吗？1919年街头影像，告诉你答案",
        "docid": "7336646397665477171",
        "url": ""
    },
    {
        "title": "犹太财团风暴来袭？昂撒人真的要对美联储动手了？",
        "docid": "7370313101159596553",
        "url": ""
    },
    {
        "title": "杀死近万只翠鸟，只为一顶奢华的“凤冠”，它到底有多值钱？",
        "docid": "7358469080422203915",
        "url": ""
    },
    {
        "title": "一个死后被盗墓贼剁掉双足的女子，是她给中国带来了千年陋习？",
        "docid": "7358427225584140809",
        "url": ""
    },
    {
        "title": "三国虎父虎子有谁？关羽父子中上，诸葛亮父子中下，谁名列前茅？",
        "docid": "7370162077077488155",
        "url": ""
    },
    {
        "title": "诸葛亮是靠吹出来的，历史上其实很普通？",
        "docid": "7338385651467207179",
        "url": ""
    },
    {
        "title": "朱见深不恨废过自己的朱祁钰吗，为什么还要追封他为皇帝？",
        "docid": "7353659250168939048",
        "url": ""
    },
    {
        "title": "历史的尘埃——1997年：才喝了三十年热水",
        "docid": "7342770855845937699",
        "url": ""
    },
    {
        "title": "中国历史上未曾一败的两大战神，至今无人能超越，却无一能善终",
        "docid": "7369904505352700451",
        "url": ""
    },
    {
        "title": "雍正死后，张廷玉请求配享太庙，乾隆：无耻奴才，你有什么功绩？",
        "docid": "7345406598711394857",
        "url": ""
    },
    {
        "title": "1950年双枪老太婆判死刑，毛主席：必须枪毙她",
        "docid": "7369816426910122507",
        "url": ""
    },
    {
        "title": "中国长城那么矮小有什么用？美国专家说了7个字：长城害惨了欧洲",
        "docid": "7369903143943848502",
        "url": ""
    },
    {
        "title": "八岁男孩被俘虏后，淡定地对朱元璋说：你别杀我，我能统一蒙古",
        "docid": "7345062662218564122",
        "url": ""
    },
    {
        "title": "清代后妃“喜容画像”有哪些奥秘，宫廷肖像画可以分为几种？",
        "docid": "7369850769913152035",
        "url": ""
    },
    {
        "title": "朱元璋灭元之后，针对遗留下的数十万蒙古女子，处理方式十分高明",
        "docid": "7350963985409344038",
        "url": ""
    },
    {
        "title": "张学良怎么没把遗产给子女，没捐给台湾或大陆，而是捐给了美国？",
        "docid": "7370508931078144552",
        "url": ""
    },
    {
        "title": "历史背后的独特印记：那些“非传统”太监的传奇人生",
        "docid": "7370671875581624869",
        "url": ""
    },
    {
        "title": "古代有那么多银子，为什么现在却消失不见了?历史研究给出了答案",
        "docid": "7350977876335985206",
        "url": ""
    },
    {
        "title": "当年买泰坦尼克号船票的8位顶级富豪，为啥开船前，却都没上船？",
        "docid": "7353318526641242661",
        "url": ""
    },
    {
        "title": "从清朝到现在，欧美为何推行大麻合法化？毒品如何摧毁一个国家？",
        "docid": "7370308390419071528",
        "url": ""
    },
    {
        "title": "英国常年被唱衰嘲笑五常垫底，为什么英国还是如此发达？",
        "docid": "7370702987259298323",
        "url": ""
    },
    {
        "title": "在日本发现吴三桂原版反清檄文，揭开降清真相：怪不得满清抹黑他",
        "docid": "7370394888216805929",
        "url": ""
    },
    {
        "title": "大西王张献忠麾下3位谋士、5位猛将之结局",
        "docid": "7370588172616778281",
        "url": ""
    },
    {
        "title": "阿拉伯人对华独特偏爱：头皮发麻的真相！",
        "docid": "7370440018587861558",
        "url": ""
    },
    {
        "title": "1980年，总参政审干部看到孔继宁档案：他的父亲是不是毛主席女婿",
        "docid": "7369486063691235892",
        "url": ""
    },
    {
        "title": "成都市金堂县想把县城从赵镇搬到淮口？梳理金堂历史上的3个县城",
        "docid": "7345833754948174347",
        "url": ""
    },
    {
        "title": "布什家族，被称为美国第一政治豪门，究竟有多有钱？",
        "docid": "7337570710632137231",
        "url": ""
    },
    {
        "title": "陈平牺牲2000女子，换来刘邦一命，临终泪流不止：我家必毁于阴祸",
        "docid": "7354969799426179619",
        "url": ""
    },
    {
        "title": "甘肃陆军第一师师长李长清：出席鸿门宴，被活埋在省政府后花园",
        "docid": "7340545430201221695",
        "url": ""
    },
    {
        "title": "1946年真实影像,日本乙级战犯，杀人王野间助之贤被处决",
        "docid": "7338117499013202472",
        "url": ""
    },
    {
        "title": "仍未统一的发达国家：其南方重镇被外国占领300年，至今无法收复",
        "docid": "7370217514623599130",
        "url": ""
    },
    {
        "title": "明末老百姓有多惨？看看山东举人的恐怖日记：想要活下去，太难了",
        "docid": "7345361713979752970",
        "url": ""
    },
    {
        "title": "他们明知眼前是深渊却慷慨赴死，1986年切尔诺贝利英雄们真实影像",
        "docid": "7352371947579933194",
        "url": ""
    },
    {
        "title": "大汉奸汪精卫媚日演讲原声视频",
        "docid": "7337821062299648550",
        "url": ""
    },
    {
        "title": "九十岁的鱼俱罗能刀斩李元霸，但却只怕一人",
        "docid": "7345671277585482266",
        "url": ""
    },
    {
        "title": "1935年顾汝章训练真实影像，铁砂掌轰碎岩石，力量相当惊人",
        "docid": "7349375226523681319",
        "url": ""
    },
    {
        "title": "内蒙古挖出康熙女儿墓，头戴凤冠身披龙袍，肉身240余年未腐",
        "docid": "7367722073608847910",
        "url": ""
    },
    {
        "title": "1964年非洲大屠杀真实影像，比巴勒斯坦惨烈，拍摄记者差点被击毙",
        "docid": "7345103292944351754",
        "url": ""
    },
    {
        "title": "日本巅峰时期面积有多大？高达700万平方公里，理想版图更疯狂",
        "docid": "7356848722443305498",
        "url": ""
    },
    {
        "title": "1980年上海城市影像，没有任何现代化高楼",
        "docid": "7359713433253577256",
        "url": ""
    },
    {
        "title": "历史上真正成功的变法只有两次，一次是商鞅变法，一次是改革开放",
        "docid": "7370643607096656399",
        "url": ""
    },
    {
        "title": "我国十大著名古墓群分布区",
        "docid": "7345692053311242771",
        "url": ""
    },
    {
        "title": "吴用自杀前终于恍然大悟，梁山真正的老大不是宋江，其实另有其人",
        "docid": "7345108772416930344",
        "url": ""
    },
    {
        "title": "“伪装”成小国的大国：明明有200多万平方千米国土，却不愿承认",
        "docid": "7368357863539966498",
        "url": ""
    },
    {
        "title": "美国发现了多个印第安盔甲，上面竟然挂满了中国的古钱币",
        "docid": "7369406063802401291",
        "url": ""
    },
    {
        "title": "战国七雄，为什么韩国自始至终都是最弱的一个？",
        "docid": "7313594605243695656",
        "url": ""
    },
    {
        "title": "8个特殊的资本主义国家，都自称“社会主义”，真实情况怎样？",
        "docid": "7365731194597655075",
        "url": ""
    },
    {
        "title": "1949年太原，国军师长戴炳南执行死刑前，两眼空洞，一脸的绝望",
        "docid": "7347709700223304246",
        "url": ""
    },
    {
        "title": "两块1857年的海底沉船大金砖，能在当铺卖多少钱，重达4公斤",
        "docid": "7359520187315880483",
        "url": ""
    },
    {
        "title": "这是八路军夜袭阳明堡机场牺牲战士的照片，日军拍摄，最近才公布",
        "docid": "7348073723309916722",
        "url": ""
    },
    {
        "title": "他是三国第一猛将！出战25次斩杀21名敌将，戎马一生却未遇敌手",
        "docid": "7351221994307912232",
        "url": ""
    },
    {
        "title": "曾痛打黄金荣的卢小嘉，后来结局如何了？",
        "docid": "7369870930966987298",
        "url": ""
    },
    {
        "title": "唐朝最惨烈的一仗，每小时4万士兵送命，却为大唐帝国续命150年",
        "docid": "7338335878789857827",
        "url": ""
    },
    {
        "title": "奇迹般的大唐：明明国内四分五裂，仍用最后力气毁灭三个超级强国",
        "docid": "7370373834786046475",
        "url": ""
    },
    {
        "title": "秦始皇：从未负过华夏，而历史却负了他。",
        "docid": "7370579013678694953",
        "url": ""
    },
    {
        "title": "卢旺达种族大屠杀的悲惨过程揭秘",
        "docid": "7370431949992722994",
        "url": ""
    },
    {
        "title": "63岁北京知青重返陕北看初恋，发现自己竟已儿孙满堂：我对不起你",
        "docid": "7339471564939084322",
        "url": ""
    },
    {
        "title": "掩护志愿军主力，曹玉海营与2万美军血战7天，最后全营阵亡",
        "docid": "7370215083349295652",
        "url": ""
    },
    {
        "title": "吕布和赵云，谁更厉害？#历史 #三国 #吕布 #赵云",
        "docid": "7351383851001709119",
        "url": ""
    },
    {
        "title": "明朝的“恐怖组织”：东西厂和锦衣卫甘拜下风，官员见了绕道走",
        "docid": "7367682750377230888",
        "url": ""
    },
    {
        "title": "如果唐玄宗不干涉，任由哥舒翰固守，唐军能在潼关挡住安禄山吗？",
        "docid": "7339821231506424320",
        "url": ""
    },
    {
        "title": "明朝对江南士绅无可奈何，清廷却让他们集体闭嘴，清朝是懂阴谋的",
        "docid": "7368114894107673124",
        "url": ""
    },
    {
        "title": "“郑伯克段于鄢”比你知道的还暗黑！",
        "docid": "7360845918989828643",
        "url": ""
    },
    {
        "title": "歪曲事实，混淆因果，这又是一篇不怀好意的毒文",
        "docid": "7357143273011462665",
        "url": ""
    },
    {
        "title": "无名皇帝墓首次曝光：村民千年坚守，直至2008年才揭秘墓主身份",
        "docid": "7358645731676127807",
        "url": ""
    },
    {
        "title": "郑和下西洋到随后的海禁政策转变的背后逻辑是什么？",
        "docid": "7370587496129856012",
        "url": ""
    },
    {
        "title": "闹大了！南阳举办诸葛亮仙逝1790周年座谈会，网友：谁在掏腰包？",
        "docid": "7370679592375353891",
        "url": ""
    },
    {
        "title": "雍正王朝：搞清了死鹰事件背后的逻辑，才明白老十四胤禵心有多毒",
        "docid": "7352480931494068799",
        "url": ""
    },
    {
        "title": "晚清名臣张之洞：63岁生了个儿子乐开花，长大后儿子却成著名汉奸",
        "docid": "7356063258228425228",
        "url": ""
    },
    {
        "title": "1946年愚人节当天，上海报纸登出了两则假新闻，结果成了真的预言",
        "docid": "7354275560790770210",
        "url": ""
    },
    {
        "title": "春申君黄歇养三千门客，权势滔天，为何头颅会被人割下扔在街上？",
        "docid": "7365063125609218600",
        "url": ""
    },
    {
        "title": "“铁面人”究竟是谁？被秘密囚禁34年，去世后所有痕迹被销毁",
        "docid": "7354739852912656932",
        "url": ""
    },
    {
        "title": "赵匡胤死于斧声烛影，宋太宗到底是不是凶手？司马光一语道破真相",
        "docid": "7343154792858632723",
        "url": ""
    },
    {
        "title": "“我不杀伯仁，伯仁却因我而死”这句名句背后究竟有啥隐情和逻辑",
        "docid": "7346858380147229193",
        "url": ""
    },
    {
        "title": "晚清大内侍卫真实形象：虎背熊腰，手持利刃，个个都是面露凶光",
        "docid": "7354727906864890368",
        "url": ""
    },
    {
        "title": "一家族流落海外381年，到中国认祖归宗，拿出族谱：我们是中国人",
        "docid": "7370262709672034825",
        "url": ""
    },
    {
        "title": "汉末名将皇甫嵩，曾经有三次机会改变历史，为何却一次都没抓住？",
        "docid": "7369510678664856115",
        "url": ""
    },
    {
        "title": "“大青鱼”何辜？时隔1000年，还是背锅侠",
        "docid": "7370699969424048675",
        "url": ""
    },
    {
        "title": "世界史上著名的“四大谎言”，全都是假的，至今还有人深信不疑",
        "docid": "7358401149998727695",
        "url": ""
    },
    {
        "title": "拿破仑说中国是头睡狮后还说了下半句？当时没人信，如今预言成真",
        "docid": "7348684774506086946",
        "url": ""
    },
    {
        "title": "死于48岁，至今被封神",
        "docid": "7353453491236389387",
        "url": ""
    },
    {
        "title": "1952年，林徽因和梁思成在家中与友人留影，林徽因已是形销骨立",
        "docid": "7364685534729503286",
        "url": ""
    },
    {
        "title": "紫阳真人收李元霸为徒，其实是为了保护自己的大弟子，宇文成都",
        "docid": "7358736593736286760",
        "url": ""
    },
    {
        "title": "太平天国的“幸存者”赖汉英：活到96岁高龄，吐露当年的一个秘密",
        "docid": "7370597822402773538",
        "url": ""
    },
    {
        "title": "为什么没有人拍朱元璋的宫斗剧？看完评论区我大开眼界，太真实了",
        "docid": "7363854123210818087",
        "url": ""
    },
    {
        "title": "你管魏晋南北朝叫荒诞且美好？男的蒸女的炒，老人小孩作烧烤",
        "docid": "7367908495066153524",
        "url": ""
    },
    {
        "title": "古代屠城每个人都要找出来处死吗？网友评论：心脏不好的别看",
        "docid": "7370218293929574950",
        "url": ""
    },
    {
        "title": "曹老板为什么舍不得杀陈宫？网友：那可是一生念念不忘的白月光",
        "docid": "7369521050733773339",
        "url": ""
    },
    {
        "title": "吕蒙真的是江东鼠辈吗，古代的偷袭战很多，为何人们唯独厌恶吕蒙",
        "docid": "7337619319888740914",
        "url": ""
    },
    {
        "title": "为什么秦昭王非要赐死白起？史学家：换成你，你也会赐死白起",
        "docid": "7361302991539847719",
        "url": ""
    },
    {
        "title": "法国发达到什么程度了？看看法国的真实水平，我们一直都低估它了",
        "docid": "7366611902211850778",
        "url": ""
    },
    {
        "title": "这两年时间为什么乞丐突然“消失”了？三大原因让大家看清真相",
        "docid": "7345859293561766434",
        "url": ""
    },
    {
        "title": "三国原来是一家人的斗争，看懂的是高手。",
        "docid": "7358331573312193059",
        "url": ""
    },
    {
        "title": "徐庶去了曹营，真是终身未献一计？至少献了三计！差点害死刘备",
        "docid": "7365457737306833449",
        "url": ""
    },
    {
        "title": "别再被三国演义误导了！三国武力值的巅峰是这四位，吕布没有上榜",
        "docid": "7357220656250913321",
        "url": ""
    },
    {
        "title": "六国知道秦要一个一个灭了他们，为什么不合心合力一起灭了秦？",
        "docid": "7362106813116088868",
        "url": ""
    },
    {
        "title": "张飞醉酒不堪战，为何吕布不趁机将其诛杀？你看张飞身边站着谁？",
        "docid": "7368760003856990760",
        "url": ""
    },
    {
        "title": "范进中举后发疯被人嘲笑，但你可知他后来官职有多高？",
        "docid": "7345838493945430555",
        "url": ""
    },
    {
        "title": "为什么很多人开始讨厌诸葛亮了？看完网友的分析后，我悟了",
        "docid": "7362473319364477450",
        "url": ""
    },
    {
        "title": "张飞抢了夏侯渊13岁的侄女，当做媳妇，为何夏侯一家没有报复？",
        "docid": "7360861958927417856",
        "url": ""
    },
    {
        "title": "唐玄宗早年雄才大略，为何遇到安史之乱后，却表现的如此窝囊？",
        "docid": "7338065108804928052",
        "url": ""
    },
    {
        "title": "安禄山为什么敢造反？地图来告诉你",
        "docid": "7353954516363903539",
        "url": ""
    },
    {
        "title": "戴安娜与查尔斯的爱情真相：是真爱还是虚伪的表演？",
        "docid": "7366841475139486244",
        "url": ""
    },
    {
        "title": "难道这就是传说中的“鱼肠剑”？",
        "docid": "7365701003628282431",
        "url": ""
    },
    {
        "title": "徐志摩哀求陆小曼，钱上，请节约，陆小曼：养不起我，干嘛娶我！",
        "docid": "7360888592916349480",
        "url": ""
    },
    {
        "title": "王婆身后的流量与爱情，是可以复制的吗？",
        "docid": "7352471821461242368",
        "url": ""
    },
    {
        "title": "清朝湖广总督，湖是湖北湖南，广是哪儿？",
        "docid": "7365677793645969920",
        "url": ""
    },
    {
        "title": "亚洲各国领导人年龄一览表，涨知识了，收藏起来看看",
        "docid": "7370283705077711360",
        "url": ""
    },
    {
        "title": "张学良晚年回忆溥杰发妻：如果她当时不那么“混蛋”，我肯定娶她",
        "docid": "7362790739207553574",
        "url": ""
    },
    {
        "title": "鲁迅玩伴闰土：57岁病逝，留下五子，如今后代现状让人感叹",
        "docid": "7353938960793666085",
        "url": ""
    },
    {
        "title": "侵华日军有没有看过《论持久战》？网友:看完都是共产党",
        "docid": "7370217961245688360",
        "url": ""
    },
    {
        "title": "内蒙古干涸湖布满“五彩石”，无人识货遭人捡拾，三年损失20亿",
        "docid": "7369583917143376422",
        "url": ""
    },
    {
        "title": "别被电视剧里的清朝盛世给误导了，这些清朝老照片会颠覆你的认知",
        "docid": "7354086369548943912",
        "url": ""
    },
    {
        "title": "王莽的头颅究竟有何特殊？被历代皇室当成宝贝，收藏了272年之久",
        "docid": "7346492885455618594",
        "url": ""
    },
    {
        "title": "1917年，美国社会学家拍摄的三峡，被水淹没前的三峡竟如此震撼！",
        "docid": "7358659704447304201",
        "url": ""
    },
    {
        "title": "朱元璋的墓，有多恐怖？六百多年无人敢盗，康熙乾隆都抢着跪拜",
        "docid": "7346863862878159410",
        "url": ""
    },
    {
        "title": "刘邦四十八岁才起兵，但他48岁以前做的事，颠覆你对历史的认知",
        "docid": "7342018394104857088",
        "url": ""
    },
    {
        "title": "人民日报评各省博物馆的镇馆之宝，可惜了我家的杯子没上榜！",
        "docid": "7369905966726251008",
        "url": ""
    },
    {
        "title": "人类历史演变的图，你能看懂几张?",
        "docid": "7349546810140049920",
        "url": ""
    },
    {
        "title": "明朝第一才子杨慎写下一首千古绝唱，仅开头两句，便惊艳了岁月",
        "docid": "7345266609986224679",
        "url": ""
    },
    {
        "title": "华夏历史形成一览，从伏羲传说到大秦王朝 ​​​",
        "docid": "7352260151275045402",
        "url": ""
    },
    {
        "title": "1978年3名小学生掏鸟蛋，发现价值50亿的国宝，得到50多斤粮票",
        "docid": "7341391738143621670",
        "url": ""
    },
    {
        "title": "如果李鸿章在马关不被枪击，中国在《马关条约》中损失会更多吗？",
        "docid": "7360897617674830371",
        "url": ""
    },
    {
        "title": "《庆余年》！“疯批美人”李云睿与五个男人的故事！",
        "docid": "7369365854242259471",
        "url": ""
    },
    {
        "title": "全世界都想拖美国下水之大三角战略",
        "docid": "7367785275386249780",
        "url": ""
    },
    {
        "title": "活剥皮、灌水银、割掉舌耳，16岁少女做的“人皮鼓”，有多残忍",
        "docid": "7369777958673842728",
        "url": ""
    },
    {
        "title": "通房丫环一直站立伺候夫家，33年后丈夫大笑：你快坐下，一起吃饭",
        "docid": "7350189631146607142",
        "url": ""
    },
    {
        "title": "蜀汉五虎上将中到底谁更弱？说出来根本不信，但从表现看确实如此",
        "docid": "7355321704610054708",
        "url": ""
    },
    {
        "title": "张学良迷恋的赵四小姐究竟有多美？看完这些老照片，你就明白了",
        "docid": "7367894979835904549",
        "url": ""
    },
    {
        "title": "隋唐：罗成死战宇文成都的话，能坚持多少个回合？",
        "docid": "7363484759445733900",
        "url": ""
    },
    {
        "title": "不是不报，时候未到——看曹氏后人如何报仇司马氏",
        "docid": "7345256649562833427",
        "url": ""
    },
    {
        "title": "中国的考古那么多年，是不是快挖完了？",
        "docid": "7361332170268492314",
        "url": ""
    },
    {
        "title": "冲上热搜！诸葛亮仙逝1790周年，南阳座谈会成“骗吃骗喝大会”！",
        "docid": "7370701496360665619",
        "url": ""
    },
    {
        "title": "徐向前与众多领导意见不一，起因是江青执行死刑，徐帅力排众议.",
        "docid": "7351378361794593299",
        "url": ""
    },
    {
        "title": "这是所有中国人不该忘记的德国人约翰拉贝，一己之力拯救了25万人",
        "docid": "7359093704012857893",
        "url": ""
    },
    {
        "title": "活到81岁的赵构，为何56岁就退位把皇位传给赵匡胤一脉？",
        "docid": "7348461145743606309",
        "url": ""
    },
    {
        "title": "曹髦为什么不趁上朝时做掉司马昭？而是选择自杀式讨伐",
        "docid": "7367272268198494761",
        "url": ""
    },
    {
        "title": "真的是摘桃子吗？其实，宋朝的江山有很大一部分是赵家打下来的",
        "docid": "7354279463355417126",
        "url": ""
    },
    {
        "title": "1944年真实录像，八路军破袭炮楼活捉日军俘虏，与影视剧截然不同",
        "docid": "7338740235104977462",
        "url": ""
    },
    {
        "title": "2001年张学良逝世，银行巨额存款被公开，他这么多钱是哪来的？",
        "docid": "7352061603057205800",
        "url": ""
    },
    {
        "title": "为什么春秋战国时期有些人的名字很奇怪，像是外文音译?网友热议",
        "docid": "7367643301459034659",
        "url": ""
    },
    {
        "title": "1942年河南大灾荒真实影像：灾民饿得瘦骨嶙峋，看着令人心酸！",
        "docid": "7344347876740956710",
        "url": ""
    },
    {
        "title": "古代农妇报案称军马吃她粮食，将军：剖马腹！找不到粮食砍她脑袋",
        "docid": "7358738995615957519",
        "url": ""
    },
    {
        "title": "大一统王朝的亡国之君谁最有骨气",
        "docid": "7368471075254059530",
        "url": ""
    },
    {
        "title": "三国时期最不该杀的三个人：关羽杀一个，孙权杀一个，曹操杀一个",
        "docid": "7356165577846833718",
        "url": ""
    },
    {
        "title": "1972年北京\"闹鬼\"，公安部破案无果，文盲老汉出手降服，后开先河",
        "docid": "7339754051262857762",
        "url": ""
    },
    {
        "title": "大英博物馆或将被各国搬空，女王去世后各国讨债，中国文物何时归",
        "docid": "7341671667733201460",
        "url": ""
    },
    {
        "title": "吉鸿昌的西北军有多猛？马家军最强悍队伍亲身经历：碰上死路一条",
        "docid": "7361795710355882534",
        "url": ""
    },
    {
        "title": "陪朱元璋打江山的功臣大将，朱元璋杀了30个，为何不敢动另外4人",
        "docid": "7341682810949911050",
        "url": ""
    },
    {
        "title": "1992年，南斯拉夫解体，最终分裂为6个国家，如今哪个混的最好？",
        "docid": "7366550859846746661",
        "url": ""
    },
    {
        "title": "刘备知道：诸葛亮来了徐庶就走，诸葛亮入川庞统中箭，都不是巧合",
        "docid": "7349027528549581327",
        "url": ""
    },
    {
        "title": "廖耀湘为何死活打不下黑山？你看新一军是咋说他的，堪称一针见血",
        "docid": "7338739182321762851",
        "url": ""
    },
    {
        "title": "历史上臭名昭著的四大叛将，纵然勇武过人却落得不忠不义的下场",
        "docid": "7369955420854632986",
        "url": ""
    },
    {
        "title": "有人问：二战十大名将中为什么没有中国人？评论区把人笑喷了！",
        "docid": "7367268848388735515",
        "url": ""
    },
    {
        "title": "古代店小二常问“打尖还是住店”，“打尖”是什么意思？有何不同",
        "docid": "7350852292158947894",
        "url": ""
    },
    {
        "title": "贵州发现20万明朝遗民，隐居深山600年，只因朱元璋的一道命令！",
        "docid": "7360949679699378688",
        "url": ""
    },
    {
        "title": "鳌拜在行刑前求见康熙，撕开衣服后康熙含泪免其死罪，这是为何？",
        "docid": "7355683290751435283",
        "url": ""
    },
    {
        "title": "农妇运500发子弹给八路，遇8名伪军盘查，掏布包后伪军：您慢走！",
        "docid": "7350849535171625513",
        "url": ""
    },
    {
        "title": "汉朝营救苏武，顺手救回一小随从，却没想到给匈奴制造一可怕对手",
        "docid": "7344281626342179368",
        "url": ""
    },
    {
        "title": "二战中，日本为何非要作死偷袭珍珠港？告诉你一个深层次的原因",
        "docid": "7344334220720013859",
        "url": ""
    },
    {
        "title": "古代没有自来水，百万人口的用水问题怎么解决？看长安城就明白了",
        "docid": "7352060557178077747",
        "url": ""
    },
    {
        "title": "看懂国产谍战剧需具备前提，搞清楚军统、中统和76号的区别是关键",
        "docid": "7365461794691039795",
        "url": ""
    },
    {
        "title": "1951年，洪学智夫人到老乡家歇脚，闲聊中女主人惊呼：原来是你呀",
        "docid": "7347608600988369423",
        "url": ""
    },
    {
        "title": "真实的“座山雕”有多狠，比影视剧中更加凶残，让人害怕",
        "docid": "7344274581957444136",
        "url": ""
    },
    {
        "title": "太狂妄了，当着中央督察组的面指鹿为马！竟然把江豚说成是青鱼",
        "docid": "7370870869763342884",
        "url": ""
    },
    {
        "title": "大唐第一战神：话越少，人越猛",
        "docid": "7343879307490329123",
        "url": ""
    },
    {
        "title": "苏联解体30年了，15个加盟国，谁混得最好？谁混得最惨？",
        "docid": "7358761871740928531",
        "url": ""
    },
    {
        "title": "人到中年，不要轻易把父母接到身边",
        "docid": "7367959950519288356",
        "url": ""
    },
    {
        "title": "不被世人认可的宋朝究竟有多强大，铁血强宋的称谓真不是白给的",
        "docid": "7333240640648184339",
        "url": ""
    },
    {
        "title": "刘备心里最清楚：为何张飞一战吕布只能坚持50招，二战就100招？",
        "docid": "7341599117720060435",
        "url": ""
    },
    {
        "title": "中国五个兵家必争之地：两处关隘、三座城市，有你的家乡吗？",
        "docid": "7345393111612523019",
        "url": ""
    },
    {
        "title": "楼忠福：花2亿买下一饭店，看见大堂内挂着一幅画，白捡一饭店",
        "docid": "7345044137261302311",
        "url": ""
    },
    {
        "title": "隋唐：双锏十锤倒铜旗，双锏指的是谁，十锤指的又是谁？",
        "docid": "7361720202062627364",
        "url": ""
    },
    {
        "title": "宋江被毒死后，吴用为何非要上吊，辞官不行吗？你看柴进是咋死的",
        "docid": "7356143870063575590",
        "url": ""
    },
    {
        "title": "紫薇至死不知，最爱护她的人不是尔康，也不是小燕子，而老佛爷",
        "docid": "7337975078048629284",
        "url": ""
    },
    {
        "title": "中国历史上公认“得位不正”的四个朝代",
        "docid": "7346845244149088807",
        "url": ""
    },
    {
        "title": "古代丫鬟的用处，真是可怜…​",
        "docid": "7349445729804567077",
        "url": ""
    },
    {
        "title": "美国人的历史课本是如何写中国的？仅有20页，记载了6个中国人",
        "docid": "7337960124013363747",
        "url": ""
    },
    {
        "title": "古代一个国家损失七万军队算大打击吗？看网友的评论引起万千共鸣",
        "docid": "7370286369400291892",
        "url": ""
    },
    {
        "title": "张学良喜欢却得不到的女人，一生的遗憾，结局让人心疼",
        "docid": "7343840604167668274",
        "url": ""
    },
    {
        "title": "主席临终前，为何执意将军权交给陈锡联？多年后才知伟人高明_406",
        "docid": "7369570679823303203",
        "url": ""
    },
    {
        "title": "太平天国诸王后人今何在：陈玉成后人是马来西亚第一位华人少将",
        "docid": "7338424478420435490",
        "url": ""
    },
    {
        "title": "刘表有3员大将，曹孙刘各抢一个，刘抢的最厉害，关羽也忌惮三分",
        "docid": "7354726112717521434",
        "url": ""
    },
    {
        "title": "开国少将携妻衣锦还乡，发现童养媳已苦等22年，他的选择让人泪目",
        "docid": "7370896908220400167",
        "url": ""
    },
    {
        "title": "太平军北伐，为什么只出动了2、3万人？真以为天下这么好打吗？",
        "docid": "7343533658424836646",
        "url": ""
    },
    {
        "title": "德国闪电战为什么对苏联无效？真是苏联太强，还是德军存在失误？",
        "docid": "7338681824643760679",
        "url": ""
    },
    {
        "title": "古代的“温柔”刑罚，用动物的器官行刑，让人在欢声笑语中死去",
        "docid": "7349058407560659508",
        "url": ""
    },
    {
        "title": "诸葛亮草船借箭：为何曹操宁肯射光10万支箭，也不愿在箭上点火？",
        "docid": "7369125087665979941",
        "url": ""
    },
    {
        "title": "抗日战争，如果日本赢了，日本会被汉化成为另一个少数民族吗？",
        "docid": "7341292734226956863",
        "url": ""
    },
    {
        "title": "李牧死赵国亡，国家都快要灭亡了，赵王为什么还非杀李牧？",
        "docid": "7340298779658551849",
        "url": ""
    },
    {
        "title": "89年, 上海父亲跑日本打15年黑工, 一天工资抵上海10个月, 今入美籍",
        "docid": "7337679154978587177",
        "url": ""
    },
    {
        "title": "1939年，日军狼狗部队无人可挡，董翰良猛拍大腿：怎么把它给忘了",
        "docid": "7362490865207788051",
        "url": ""
    },
    {
        "title": "曾让朱元璋放牛的地主刘德，待朱元璋当上皇帝后，下场如何？",
        "docid": "7358644175287419428",
        "url": ""
    },
    {
        "title": "旧时东北地主建的围子是胡子克星，本文带你见证那些攻杀斗防往事",
        "docid": "7356801826848768551",
        "url": ""
    },
    {
        "title": "古代银票就一张纸，为何没人造假？你看看上面那行字，怎么造假？",
        "docid": "7352509617383014912",
        "url": ""
    },
    {
        "title": "马未都：司马光砸不了缸，宋代烧不出大缸！结果被一成语打脸",
        "docid": "7357372856642077194",
        "url": ""
    },
    {
        "title": "斯大林是怎样的人？在屠杀苏联人民的比赛中，希特勒遗憾获第二名",
        "docid": "7369929003370791435",
        "url": ""
    },
    {
        "title": "多尔衮，为何放弃称帝？弟弟多铎之死，彻底粉碎多尔衮的皇帝梦",
        "docid": "7355045300375077439",
        "url": ""
    },
    {
        "title": "开国中将万毅回忆：梁兴初说\"老万,你看中央委员里还有姓万的\"",
        "docid": "7354148561438786098",
        "url": ""
    },
    {
        "title": "赵一曼临死前有多惨？被折磨了九个月，惨叫声像来自地狱",
        "docid": "7350949029934645760",
        "url": ""
    },
    {
        "title": "古代一夫多妻制下，女性是如何相处的？正妻真的不嫉妒吗",
        "docid": "7340260645478515251",
        "url": ""
    },
    {
        "title": "美国学着清末的样子，正一步步走向深渊？果然是慈禧的百年布局！",
        "docid": "7364299290887537188",
        "url": ""
    },
    {
        "title": "世界史上著名的“四大谎言”，没一个是真的，至今还有人深信不疑",
        "docid": "7369881458523947572",
        "url": ""
    },
    {
        "title": "女黑奴的悲惨人生：不仅遭男主人的折磨，还要被当繁衍工具圈养",
        "docid": "7350598205656105510",
        "url": ""
    },
    {
        "title": "北宋有一虎将，多次保护赵匡胤，被诬陷时赵匡胤只说了两个字",
        "docid": "7359884764930785830",
        "url": ""
    },
    {
        "title": "天启大爆炸：20000多人伤亡，死者全身赤裸，离奇现象如何产生？",
        "docid": "7357987114367304246",
        "url": ""
    },
    {
        "title": "黄维被关27年，妻子等他27年，可刚团聚一年，妻子就自杀了",
        "docid": "7359216338138628623",
        "url": ""
    },
    {
        "title": "三看《康熙王朝》：才明白康熙为何会将心腹魏东亭贬到台湾做知县",
        "docid": "7365459266259780159",
        "url": ""
    },
    {
        "title": "古代没有地图和导航，古人要是出远门的话，是怎么保证不会迷路的",
        "docid": "7343890677405336103",
        "url": ""
    },
    {
        "title": "刘邦私生子刘肥一家：刘肥本人懦弱无能，生的儿子却个个英武",
        "docid": "7353221658927022603",
        "url": ""
    },
    {
        "title": "犹太人的美国梦：美国总统的下一个可能是“犹太裔”？",
        "docid": "7370606744248205859",
        "url": ""
    },
    {
        "title": "九十年代下岗工人有多惨烈，为何如今很少有人提起？",
        "docid": "7368390841607422474",
        "url": ""
    },
    {
        "title": "杨秀清雄才大略，如果他一直领导太平天国，能够最终成功吗？",
        "docid": "7347006641277043240",
        "url": ""
    },
    {
        "title": "1992年，南斯拉夫解体，最终分裂为6个国家，如今哪个混的最好？",
        "docid": "7350268067911320102",
        "url": ""
    },
    {
        "title": "汉末各路诸侯都活了多少岁？董卓61岁，孙权71岁，刘备和曹操呢？",
        "docid": "7332691513874580007",
        "url": ""
    },
    {
        "title": "1980年，叶帅回到了自己的老家，留下了一张老照片",
        "docid": "7342520763473609226",
        "url": ""
    },
    {
        "title": "他绰号“野马”，身高1.2米却成功刺杀七名日本军官，96岁仍在世",
        "docid": "7366443138505785908",
        "url": ""
    },
    {
        "title": "1240年，蒙古大军用时4天攻下基辅，放火烧城，最后全城仅剩200户",
        "docid": "7343198271151915531",
        "url": ""
    },
    {
        "title": "长城那么矮完全是摆设？西方学者：你们挡住匈奴，却“害惨”欧洲",
        "docid": "7359493099809047079",
        "url": ""
    },
    {
        "title": "看懂老十三对老四的试探，才明白康熙要把老十三圈禁10年的真相！",
        "docid": "7360593833014329908",
        "url": ""
    },
    {
        "title": "她是《哈尔滨1944》杨幂的关雪原型，6岁去日本，41岁被军统处决",
        "docid": "7368369698389606938",
        "url": ""
    },
    {
        "title": "康熙重用过的5大汉臣，不仅善终且一个比一个厉害，他们都是谁？",
        "docid": "7357284457512026635",
        "url": ""
    },
    {
        "title": "别笑，我真的是文物啊",
        "docid": "7370276637734175284",
        "url": ""
    },
    {
        "title": "古代中了探花，为何比中状元还要高兴？其实有个不成文的“规定”",
        "docid": "7343911433543352868",
        "url": ""
    },
    {
        "title": "灭了三大文明古国的雅利安人，来华夏挑衅，结果被商朝扔进殉葬坑",
        "docid": "7370293758703338018",
        "url": ""
    },
    {
        "title": "1896年，李鸿章在沙俄一声嘶吼，60年后，他的混血孙儿也来上一出",
        "docid": "7348347464417608230",
        "url": ""
    },
    {
        "title": "司马南：这事越来越不对劲，警惕金融洗劫的历史或许会重演！",
        "docid": "7341748383398330930",
        "url": ""
    },
    {
        "title": "刘墉下棋胜了乾隆，乾隆怒道：不怕我杀了你？刘墉的回答堪称经典",
        "docid": "7352405612880200211",
        "url": ""
    },
    {
        "title": "中国给加纳修了1000口井，结果修的太好了，50万人都说好",
        "docid": "7370925113065144866",
        "url": ""
    },
    {
        "title": "曹丕为何不把汉献帝送去益州恶心刘备？ ​​​",
        "docid": "7338656750230651401",
        "url": ""
    },
    {
        "title": "历史总是惊人相似：清朝试图和平统一台湾，郑经却得寸进尺求独立",
        "docid": "7350572804179788307",
        "url": ""
    },
    {
        "title": "1870年，曾国藩唯一的老照片，吊三角眼，络腮胡，令人心生畏惧",
        "docid": "7347130481311318540",
        "url": ""
    },
    {
        "title": "高清老照片：旗人格格大腿岔开豪放洗衣，地主三妻四妾不输女明星",
        "docid": "7345053425979834880",
        "url": ""
    },
    {
        "title": "33张难得一见的老照片，有些曾经属于绝密！",
        "docid": "7345390885431558693",
        "url": ""
    },
    {
        "title": "国军少将奚落我军司令：你什么军衔？司令一番话，让他无地自容！",
        "docid": "7343056112897540671",
        "url": ""
    },
    {
        "title": "一口气搞懂唐朝诗人的顺序，记住你就能出口成章",
        "docid": "7342122171394818570",
        "url": ""
    },
    {
        "title": "权力游戏输家,曾红极一时的宠臣,为何遭雍正斩草除根",
        "docid": "7370647217348051506",
        "url": ""
    },
    {
        "title": "嘉庆帝膝下五子，选择平庸的道光继位，道光对他四位兄弟怎么样？",
        "docid": "7343020207058813503",
        "url": ""
    },
    {
        "title": "岳飞虽死，后裔却是一代比一代牛，二十一世孙战功不输岳飞",
        "docid": "7348764555659444748",
        "url": ""
    },
    {
        "title": "为什么古代中国无法征服世界？看看陈汤“虽远必诛”后的命运",
        "docid": "7369853066503307811",
        "url": ""
    },
    {
        "title": "蜀汉九位亡国之臣，到了晋朝后结局如何？",
        "docid": "7355871266492776975",
        "url": ""
    },
    {
        "title": "AI说文物｜这件绵袍里藏着什么秘密？",
        "docid": "7370286162457608758",
        "url": ""
    },
    {
        "title": "关羽失荆州后，为什么不乔装打扮成普通老百姓逃回益州？",
        "docid": "7370594440655929866",
        "url": ""
    },
    {
        "title": "“气功大师”严新：称可用意念拦导弹，要去清华当教授，结局如何",
        "docid": "7359123339341808166",
        "url": ""
    },
    {
        "title": "兵败邺城：大唐陌刀战神悲怆落幕，九大节度使饮恨中原",
        "docid": "7255307003890319933",
        "url": ""
    },
    {
        "title": "张学良生活及开会讲话真实影像，于于凤至罕见同框，长相十分帅气",
        "docid": "7361261623140418088",
        "url": ""
    },
    {
        "title": "日本人说话的这种声音，真的能立刻激活抗日血脉#人物故事",
        "docid": "7370273195808522771",
        "url": ""
    },
    {
        "title": "天使投资人祖师爷，因三十个字自杀。秦始皇：想当我亲爹，做梦！",
        "docid": "7365444091330576950",
        "url": ""
    },
    {
        "title": "包拯死后，为何展昭一夜之间就消失了？看看包拯临终前说了啥？",
        "docid": "7369575071411667493",
        "url": ""
    },
    {
        "title": "100年前哈尔滨有钱人聚餐，一桌子菜能吃饱吗？",
        "docid": "7361636630878552627",
        "url": ""
    },
    {
        "title": "这是1950年，西伯利亚真实狩猎老虎的影像 #纪录片 #西伯利亚虎",
        "docid": "7348762520015864357",
        "url": ""
    },
    {
        "title": "1953年英国女王伊丽莎白二世登基全过程，真是金碧辉煌，场面壮观",
        "docid": "7347522636437848602",
        "url": ""
    },
    {
        "title": "李敖先生说了句公道话！",
        "docid": "7370711513759220263",
        "url": ""
    },
    {
        "title": "绝世珍宝重现光辉——45张古埃及文明文物照片大揭秘！",
        "docid": "7349868582874038834",
        "url": ""
    },
    {
        "title": "历史上的惊天骗局：后周世宗叫柴荣，至今许多人信以为真",
        "docid": "7359484927861162537",
        "url": ""
    },
    {
        "title": "李世民有十多个儿子，为什么要立九子李治为接班人？比一比就知道",
        "docid": "7349413189651792424",
        "url": ""
    },
    {
        "title": "好战必亡是伪命题？沙俄打了三百多年仗，以战养战地盘扩大了十倍",
        "docid": "7362855211771101711",
        "url": ""
    },
    {
        "title": "实录1968年，阿根廷两男子，剑对剑决斗时的真实影像！",
        "docid": "7363589869458850315",
        "url": ""
    },
    {
        "title": "1997年真实影像，混乱的年代！",
        "docid": "7365854682159252005",
        "url": ""
    },
    {
        "title": "实录100多年前的英国童工，3岁工作却大多活不到成年，可怜极了",
        "docid": "7356575336748745268",
        "url": ""
    },
    {
        "title": "1950年抗美援朝真实录像：志愿军收复平壤，用枪杆子赢得尊严",
        "docid": "7346560718159741449",
        "url": ""
    },
    {
        "title": "千古第一战将！五马分尸居然能将马拉回来，最后杀死他的是他自己",
        "docid": "7363291986100797964",
        "url": ""
    },
    {
        "title": "隋唐中惨死的六大猛将，李元霸被亲哥哥害死，罗成最命不该绝",
        "docid": "7353648803209298459",
        "url": ""
    },
    {
        "title": "醍醐灌顶：历史学者冯学荣总结的50个历史规律",
        "docid": "7355008924694823460",
        "url": ""
    },
    {
        "title": "李渊祖孙三人、朱元璋祖孙三人和康熙祖孙三人哪一组最厉害",
        "docid": "7355453889120993828",
        "url": ""
    },
    {
        "title": "其实挟天子根本令不了诸侯，为何曹操还要费劲千辛万苦这么做？",
        "docid": "7356772471527195188",
        "url": ""
    },
    {
        "title": "古代没普通话，皇帝上朝时和各地的大臣交流，能互相听得懂吗？",
        "docid": "7344300264850981430",
        "url": ""
    },
    {
        "title": "世界最淡定的殖民地，宗主国天天盼着它独立，当地民众却坚决反对",
        "docid": "7354362408963441215",
        "url": ""
    },
    {
        "title": "成吉思汗究竟是中国的，还是蒙古国的？现在终于弄明白了",
        "docid": "7352903030838723087",
        "url": ""
    },
    {
        "title": "幽禁期间的张学良将军和夫人赵一荻，这些老照片可窥一斑而知全貌",
        "docid": "7351115058891473448",
        "url": ""
    },
    {
        "title": "杨白劳欠债不还，犯错在先，为何最后背上骂名的却是黄世仁？",
        "docid": "7369261435165409827",
        "url": ""
    },
    {
        "title": "11个儿子，10个养子尽皆骁勇猛将，一代枭雄为什么不能一统江山？",
        "docid": "7370881509592629823",
        "url": ""
    },
    {
        "title": "民国时1银元仅相当于现代的70元钱？祥子与福海：“有被冒犯！”",
        "docid": "7354638836024017419",
        "url": ""
    },
    {
        "title": "30件罕见文物，一出土就惊艳世界!",
        "docid": "7339812741311644211",
        "url": ""
    },
    {
        "title": "他给日本捐款74万送40架战斗机，获天皇接见，86岁时终被枪毙",
        "docid": "7355697412578935348",
        "url": ""
    },
    {
        "title": "朱元璋将有功之臣尽诛，唯独漏杀一人，多年后此人让大明江山易主",
        "docid": "7347988631803544076",
        "url": ""
    },
    {
        "title": "打破了“满人不可敌”神话的和通泊之战，精锐八旗几近覆灭",
        "docid": "7370617786701398554",
        "url": ""
    },
    {
        "title": "暴行究竟有多无法想象？日军对女性的肆意侵犯达到何种程度？",
        "docid": "7370715662509048329",
        "url": ""
    },
    {
        "title": "1943年，方先觉投降日军后，一张罕见合影，为何无人骂他是汉奸？",
        "docid": "7355498038770663975",
        "url": ""
    },
    {
        "title": "奸夫淫妇，斩",
        "docid": "7348381447062831656",
        "url": ""
    },
    {
        "title": "太平天国曾给各省改名，一个比一个搞笑，看看你老家被改成了啥",
        "docid": "7370397605538333221",
        "url": ""
    },
    {
        "title": "《资治通鉴》：送礼的底层逻辑，不明白这些，送了也白送",
        "docid": "7340175260958360074",
        "url": ""
    },
    {
        "title": "关羽的荆州集团八大副将的结局",
        "docid": "7349706197177483785",
        "url": ""
    },
    {
        "title": "63年，一锅炉工看完《小兵张嘎》后嘀咕：堵老乡烟囱这事咱可没干",
        "docid": "7345001776325591561",
        "url": ""
    },
    {
        "title": "中国历史上的军阀纷争与一统全国的渴望",
        "docid": "7370754662528352808",
        "url": ""
    },
    {
        "title": "1949年，解放军29个小时打下天津后，9块租界没有国家再敢提",
        "docid": "7363274827601478144",
        "url": ""
    },
    {
        "title": "为什么近些年网络上刘禅的风评越来越好？",
        "docid": "7368871816766587455",
        "url": ""
    },
    {
        "title": "1999年赖昌星接到内线电话：有人要抓你，随即逃亡12年，这人是谁",
        "docid": "7362374766281523731",
        "url": ""
    },
    {
        "title": "算命先生路过一个小县城，吓得转身就跑，满街都是王侯将相。",
        "docid": "7368878494857724456",
        "url": ""
    },
    {
        "title": "晚清十大高手都有谁？你心目中的英雄有没有他们，弘扬尚武精神",
        "docid": "7370979458339275304",
        "url": ""
    },
    {
        "title": "历史上最完美的 5 位皇帝",
        "docid": "7344649364436238889",
        "url": ""
    },
    {
        "title": "94年张学良得知儿子要回大陆，再三叮嘱：一定要到北京，再回东北",
        "docid": "7370217252563452425",
        "url": ""
    },
    {
        "title": "他是明楼的原型，因5重特工身份入狱15年，临终前说：此生无悔！",
        "docid": "7352702573377339930",
        "url": ""
    },
    {
        "title": "秦桧子孙高中状元，路过岳飞墓写下两句诗，后成人人传诵的名句",
        "docid": "7370420822088974860",
        "url": ""
    },
    {
        "title": "明朝男子将私房钱藏于木雕中，藏了600年，愣是瞒过了两任收藏家",
        "docid": "7358717978529268251",
        "url": ""
    },
    {
        "title": "张学良之子回乡省亲，中央为何委托当地政府，付给张家2000万巨款",
        "docid": "7370130320408052287",
        "url": ""
    },
    {
        "title": "原子弹下，为何没有冤魂？那要看当时广岛女性、学生做了些什么！",
        "docid": "7338076717951123983",
        "url": ""
    },
    {
        "title": "帝释天活了2千年，为什么要在五代十国时称帝？",
        "docid": "7342812627129106978",
        "url": ""
    },
    {
        "title": "岳飞遇害当日，十万岳家军为什么没来劫法场？看看监斩官就知道了",
        "docid": "7345798684460941824",
        "url": ""
    },
    {
        "title": "刘黑闼到底有多厉害，他杀了哪些唐朝将领？也只有李世民能对付他",
        "docid": "7362743159237181988",
        "url": ""
    },
    {
        "title": "历史上真实的赵敏：被迫嫁给朱元璋的傻儿子，丈夫死后被逼着殉葬",
        "docid": "7370653114812187177",
        "url": ""
    },
    {
        "title": "清朝刑场老照片：刽子手瘦弱不堪，犯人面露凶光，像狗一样被牵着",
        "docid": "7348725090856485391",
        "url": ""
    },
    {
        "title": "他是雍正最聪明的儿子，装了一辈子糊涂，却保全自己与子孙的富贵",
        "docid": "7358774319285125651",
        "url": ""
    },
    {
        "title": "乾隆皇帝的后宫",
        "docid": "7343518049712751104",
        "url": ""
    },
    {
        "title": "张作霖时期，奉天兵工厂厂区录像，出镜校长是张学良老师白永贞？",
        "docid": "7360663514215612991",
        "url": ""
    },
    {
        "title": "第三世界大战导火索？斯洛伐克总理身中多枪，凶手身份曝光！",
        "docid": "7369781771766678051",
        "url": ""
    },
    {
        "title": "1979年伊斯兰革命之前的伊朗",
        "docid": "7367834571192140288",
        "url": ""
    },
    {
        "title": "核战争如果爆发，中国有6个地方可躲，老百姓必须掌握的救命知识",
        "docid": "7341740556151996991",
        "url": ""
    },
    {
        "title": "人类为什么长眉毛？唐代的女妆为何变成日本的公卿妆？",
        "docid": "7370277615929754152",
        "url": ""
    },
    {
        "title": "古人的衣服托在地上很长，他们不怕衣服弄脏吗？原因其实很简单",
        "docid": "7353578292949139978",
        "url": ""
    },
    {
        "title": "1993年，周处除三害原型人物枪决真实影像，曾一周杀8名黑道大哥",
        "docid": "7344928209110204966",
        "url": ""
    },
    {
        "title": "王献之为了不当驸马，狠心把自己的腿弄残，公主的回复却令他崩溃",
        "docid": "7352057909213266432",
        "url": ""
    },
    {
        "title": "1924年，溥仪在翊坤宫前留影，一身戎装，皮靴高过膝盖，油光锃亮",
        "docid": "7341189593351488012",
        "url": ""
    },
    {
        "title": "这才是纯正的北京口音，谁敢不服",
        "docid": "7359185099956421120",
        "url": ""
    },
    {
        "title": "曾经的日本乙级战犯被处决前",
        "docid": "7342421820949463563",
        "url": ""
    },
    {
        "title": "2004年一日本侵华老兵来黑龙江，指着地面：下面埋着一百多箱弹药",
        "docid": "7350237818637451811",
        "url": ""
    },
    {
        "title": "俄罗斯辛辛苦苦创业1000年，一朝不慎，回到1000年以前",
        "docid": "7345828980442202639",
        "url": ""
    },
    {
        "title": "苏联间谍学校：培养的克格勃女间谍，其是怎样炼成的？",
        "docid": "7367303766975971877",
        "url": ""
    },
    {
        "title": "太多话导致误解：言语造成的悲剧",
        "docid": "7370376857289507340",
        "url": ""
    },
    {
        "title": "西安发现李建成墓碑，墓志仅55字，揭开李世民“杀兄屠弟”的真相",
        "docid": "7370275139306635776",
        "url": ""
    },
    {
        "title": "1235年蒙古第二次西征，目标斡罗思美女，第一次领略欧洲女子",
        "docid": "7356056851534627366",
        "url": ""
    },
    {
        "title": "东北土匪的真容，图2大哥即将被正法，图4竟是名震江湖的女匪首",
        "docid": "7345431797280866825",
        "url": ""
    },
    {
        "title": "1935年的中国历代疆域地图：试图通过“地图开疆”，唤醒国人",
        "docid": "7370892009739682340",
        "url": ""
    },
    {
        "title": "哥哥谋反，皇帝把侄儿叫到身边：你去传旨，朕信你父亲不会反叛！",
        "docid": "7346090184993440306",
        "url": ""
    },
    {
        "title": "中国有一家族：出59位丞相、59位将军、55位尚书，全因这12条家训",
        "docid": "7363576307239862810",
        "url": ""
    },
    {
        "title": "蜀汉历史上的10位叛徒，若不是他们，蜀汉不会那么快灭亡！",
        "docid": "7343214921590964777",
        "url": ""
    },
    {
        "title": "一百年前的珠海什么样？30张罕见照片，带你了解一个真实的珠海",
        "docid": "7362088464730407436",
        "url": ""
    },
    {
        "title": "二战后纳粹被揍真实录像，群众一拥而上纷纷踩踏，女群众最为疯狂",
        "docid": "7345873079047979558",
        "url": ""
    },
    {
        "title": "河南网友疑发现侵华日寇坟墓，当地澄清：拍摄地非本省",
        "docid": "7370912308647723539",
        "url": ""
    },
    {
        "title": "第三次世界大战的样子",
        "docid": "7355782244416127497",
        "url": ""
    },
    {
        "title": "姬昌为何嘱托儿子不要伐商？你看大周君临天下后，最大获利者是谁",
        "docid": "7363593442826158630",
        "url": ""
    },
    {
        "title": "终于知道刘备为什么叫昭烈帝，能做到这句话的帝王历史上没几个",
        "docid": "7366201216802423331",
        "url": ""
    },
    {
        "title": "最长寿皇后，熬走五任皇帝，一生做不了主，被批葬送大汉，冤吗",
        "docid": "7345075268354572854",
        "url": ""
    },
    {
        "title": "1920年代奉天老城录像，目睹闯关东者，街拍怀远门抚近门和钟鼓楼",
        "docid": "7367073638144541220",
        "url": ""
    },
    {
        "title": "温铁军：封建社会？你给我解释解释，什么叫封建",
        "docid": "7370881812131889691",
        "url": ""
    },
    {
        "title": "徐志摩逝世后留下唯一儿子徐积锴，举家定居美国，后人无人说汉语",
        "docid": "7341343612266906164",
        "url": ""
    },
    {
        "title": "晚清彩色老照片：夫妻亲密拥抱，小少爷认真看书",
        "docid": "7345030811210629668",
        "url": ""
    },
    {
        "title": "秦淮八艳柳如是，一生堪称传奇，国学大师陈寅恪为她立传",
        "docid": "7369902430588420662",
        "url": ""
    },
    {
        "title": "葡萄牙为什么能强租强占中国澳门四百多年？",
        "docid": "7350904949372469797",
        "url": ""
    },
    {
        "title": "三星堆青铜立人像场景#数藏",
        "docid": "7344869137157456424",
        "url": ""
    },
    {
        "title": "1950年噶日岭之战，土耳其旅正面硬刚志愿军被打残的真实影像",
        "docid": "7343904673801667135",
        "url": ""
    },
    {
        "title": "六合区为什么叫六合？别低估六合，历史上六合才是南京的第一座城",
        "docid": "7348412298488414731",
        "url": ""
    },
    {
        "title": "1935年，孙传芳最后的留影，杀人如麻的他，竟死在一个弱女子手里",
        "docid": "7344370185790292521",
        "url": ""
    },
    {
        "title": "越发真实的脸庞！可交互版“辛追夫人”AI智能体将实现同游客实时对话",
        "docid": "7370200270594228746",
        "url": ""
    },
    {
        "title": "工作人员按错按钮，38人被堵隧道里烧成灰烬，法国骇人火灾",
        "docid": "7366886045364781579",
        "url": ""
    },
    {
        "title": "一场轰轰烈烈的三王之战，3万对5万人，3位国王全部战死",
        "docid": "7355379862346924584",
        "url": ""
    },
    {
        "title": "危机潜伏在每个角落 我们如何在充满不确定性的世界中寻找一线生机",
        "docid": "7370993058793570851",
        "url": ""
    },
    {
        "title": "上个世纪，美军在台湾，犹如在天堂，老照片合集",
        "docid": "7370935987079414313",
        "url": ""
    },
    {
        "title": "敏昂莱既狠又聪明！亲手给魏怀仁授予军衔，转手又把他送到大国",
        "docid": "7339516608891027980",
        "url": ""
    },
    {
        "title": "哈萨克族和维族的区别，他们的诞生都离不开一个古老的游牧民族",
        "docid": "7343570562339521039",
        "url": ""
    },
    {
        "title": "1990年香港九龙城寨真实影像",
        "docid": "7368915836263727668",
        "url": ""
    },
    {
        "title": "常遇春不死，淮西集团也不会出事！",
        "docid": "7362523325526377012",
        "url": ""
    },
    {
        "title": "历史上死的最窝囊的名人，有人整理出来了，看完涨知识了。",
        "docid": "7371068242800230912",
        "url": ""
    },
    {
        "title": "古代太监娶妻后，会对妻子做些什么？一般女子是无法接受的",
        "docid": "7371073323628970537",
        "url": ""
    },
    {
        "title": "蒙古第一次西征：十五万蒙古人为何能灭掉拥兵四十万的花剌子模？",
        "docid": "7370591247490122303",
        "url": ""
    },
    {
        "title": "今日话题:现代普通人吃得比周天子还好吗？",
        "docid": "7370899670240870963",
        "url": ""
    },
    {
        "title": "南京大屠杀：日军对女性的蹂躏、侮辱到了什么地步？有多丧心病狂",
        "docid": "7370346992742941218",
        "url": ""
    },
    {
        "title": "杨家将后代竟然称霸一方，霸占一方土地长达600年，历经三朝不灭",
        "docid": "7366589637512446476",
        "url": ""
    },
    {
        "title": "女娲灭商只是因纣王骚扰她吗？真实原因却是，纣王动了众神的利益",
        "docid": "7342420257992589859",
        "url": ""
    },
    {
        "title": "武则天：历史的一页必须有我的存在，我可是当之无愧的女皇。",
        "docid": "7324588490367844898",
        "url": ""
    },
    {
        "title": "龙袍是帝王的象征，为什么到了宋朝，皇帝突然都不穿龙纹了？",
        "docid": "7367253276414362139",
        "url": ""
    },
    {
        "title": "23张看似不可能的却真实发生的图片，每一张都会令你大开眼界",
        "docid": "7366924451310518819",
        "url": ""
    },
    {
        "title": "日本切腹自杀操作并不简单，侵华日军中将，切腹后15个小时才死掉",
        "docid": "7351230730251305512",
        "url": ""
    },
    {
        "title": "三国死得最惨的10大名将：4人被斩首，2人被爆头，2人万箭穿心",
        "docid": "7361213119860949544",
        "url": ""
    },
    {
        "title": "完颜阿骨打的儿子们那么优秀，为何去世后传位给亲弟弟？",
        "docid": "7341372262991692314",
        "url": ""
    },
    {
        "title": "2001年尼泊尔王储杀父弑母，灭自家10口人后自尽，叔叔捡漏当国王",
        "docid": "7353236427628560906",
        "url": ""
    },
    {
        "title": "致敬伟人领袖 该作品在被播",
        "docid": "7353039455810224650",
        "url": ""
    },
    {
        "title": "1994年真实录像，可可西里野牦牛队打击盗猎者，县副书记牺牲现场",
        "docid": "7343909862914392587",
        "url": ""
    },
    {
        "title": "我国流失到英美两国各博物馆的元明清代精美无比的掐丝珐琅",
        "docid": "7342147618635710976",
        "url": ""
    }
]