[
    {
        "title": "华妃干‬了那么多坏事，为什么皇上最后还不舍得杀她？热评绝了！",
        "docid": "7372554393083724325",
        "url": ""
    },
    {
        "title": "靖康之耻和土木堡之变哪个更耻辱？看网友们的分享让我大开眼界！",
        "docid": "7375822403978527258",
        "url": ""
    },
    {
        "title": "再看《康熙王朝》：才发现为何容妃刷27年马桶，康熙始终不闻不问",
        "docid": "7375433396074185251",
        "url": ""
    },
    {
        "title": "雍正死后，张廷玉请求配享太庙，乾隆：无耻奴才，你有什么功绩？",
        "docid": "7345406598711394857",
        "url": ""
    },
    {
        "title": "他绰号“野马”，身高1.2米却成功刺杀七名日本军官，96岁仍在世",
        "docid": "7366443138505785908",
        "url": ""
    },
    {
        "title": "为什么说看懂了司马懿，人生的焦虑就少了一半",
        "docid": "7356283576448565800",
        "url": ""
    },
    {
        "title": "“铁面人”究竟是谁？被秘密囚禁34年，去世后所有痕迹被销毁",
        "docid": "7354739852912656932",
        "url": ""
    },
    {
        "title": "王不过项，力不过霸，将不过李，拳不过金，这四个人分别是谁？",
        "docid": "7354664559803875879",
        "url": ""
    },
    {
        "title": "历史上有没有两兄弟，一个牛，另一个更牛的？",
        "docid": "7349930141265789481",
        "url": ""
    },
    {
        "title": "陈平牺牲2000女子，换来刘邦一命，临终泪流不止：我家必毁于阴祸",
        "docid": "7354969799426179619",
        "url": ""
    },
    {
        "title": "数看明朝：从明太祖朱元璋到崇祯帝朱由检，5分钟串讲大明16帝",
        "docid": "7350930611361792562",
        "url": ""
    },
    {
        "title": "斯大林为何可以打败希特勒？看这些被处死的将军数量，就明白了",
        "docid": "7375344585125397002",
        "url": ""
    },
    {
        "title": "汉朝营救苏武，顺手救回一小随从，却没想到给匈奴制造一可怕对手",
        "docid": "7344281626342179368",
        "url": ""
    },
    {
        "title": "1235年蒙古第二次西征，目标斡罗思美女，第一次领略欧洲女子",
        "docid": "7356056851534627366",
        "url": ""
    },
    {
        "title": "军阀头子张宗昌死后，大老婆给13个小妾一人一箱现大洋，就地遣散",
        "docid": "7356907113568158258",
        "url": ""
    },
    {
        "title": "陕西一90岁老太太，宁死不上户口，结果一张照片揭露了她真实身份",
        "docid": "7346392942333936139",
        "url": ""
    },
    {
        "title": "民国时1银元仅相当于现代的70元钱？祥子与福海：“有被冒犯！”",
        "docid": "7354638836024017419",
        "url": ""
    },
    {
        "title": "晚清十大武术高手，黄飞鸿、霍元甲都排不了第一，第一被誉为武圣",
        "docid": "7360151485692510730",
        "url": ""
    },
    {
        "title": "马未都：司马光砸不了缸，宋代烧不出大缸！结果被一成语打脸",
        "docid": "7357372856642077194",
        "url": ""
    },
    {
        "title": "刘黑闼到底有多厉害，他杀了哪些唐朝将领？也只有李世民能对付他",
        "docid": "7362743159237181988",
        "url": ""
    },
    {
        "title": "乾隆八年，12天热死11400人，中国历史上最热的夏天究竟有多热？",
        "docid": "7375740499358958116",
        "url": ""
    },
    {
        "title": "1901年，一千中国人迁徙海外，租借土地999年，建起一座中国城",
        "docid": "7345346006550118912",
        "url": ""
    },
    {
        "title": "蜀汉五虎上将中到底谁更弱？说出来根本不信，但从表现看确实如此",
        "docid": "7355321704610054708",
        "url": ""
    },
    {
        "title": "作为李治的舅舅，长孙无忌到底做了什么，才会让唐高宗痛下杀手？",
        "docid": "7375356377001067034",
        "url": ""
    },
    {
        "title": "吉鸿昌的西北军有多猛？马家军最强悍队伍亲身经历：碰上死路一条",
        "docid": "7361795710355882534",
        "url": ""
    },
    {
        "title": "盐铁论（终），霍光：真以为自己能上桌？你们从始至终都是工具人",
        "docid": "7358798053018485300",
        "url": ""
    },
    {
        "title": "九十岁的鱼俱罗能刀斩李元霸，但却只怕一人",
        "docid": "7345671277585482266",
        "url": ""
    },
    {
        "title": "雍正王朝：看懂了郑春华的下场，才明白康熙帝临终前的安排有多毒",
        "docid": "7355315798161769023",
        "url": ""
    },
    {
        "title": "李渊为何要抢姨父的江山？都是姨母做的孽！",
        "docid": "7356850110908727859",
        "url": ""
    },
    {
        "title": "他任由父亲横夺心爱女人，痴情单恋白月光，千金散尽死后风光大葬",
        "docid": "7342915961320210970",
        "url": ""
    },
    {
        "title": "毛选真的很简单，看的懂、记得住、用的上。跟谁做朋友很关键！",
        "docid": "7366902175408194084",
        "url": ""
    },
    {
        "title": "《春秋》不过是鲁国一部流水账史书，为什么在历史上地位这么重？",
        "docid": "7352510881105707557",
        "url": ""
    },
    {
        "title": "宋江惨死后，吴用为什么慌忙随之自尽？背后究竟有何隐情？",
        "docid": "7349054471441269267",
        "url": ""
    },
    {
        "title": "列宁曾派特工来到中国，专门暗杀一个人：脑袋至今保存在俄博物馆",
        "docid": "7374258036333937191",
        "url": ""
    },
    {
        "title": "鲁迅玩伴闰土：57岁病逝，留下五子，如今后代现状让人感叹",
        "docid": "7353938960793666085",
        "url": ""
    },
    {
        "title": "脱离大荆州，荆钟京、天潜沔，看似成功；其实是最大的失败者",
        "docid": "7370993711787852288",
        "url": ""
    },
    {
        "title": "广东早期“土豪村”，全村搬国外！很多人却说：幸好走了",
        "docid": "7374451292703392291",
        "url": ""
    },
    {
        "title": "1992年，南斯拉夫解体，最终分裂为6个国家，如今哪个混的最好？",
        "docid": "7366550859846746661",
        "url": ""
    },
    {
        "title": "我国古代最完美的四个皇帝，想抹黑却无处下手，你最佩服哪一位？",
        "docid": "7344166815545098815",
        "url": ""
    },
    {
        "title": "他是清末名将，因妻子太美被杀害，其后代却爆红娱乐圈，是谁？",
        "docid": "7369173174325445135",
        "url": ""
    },
    {
        "title": "她是亚洲第一艳星，不爱豪门爱祖国，坐拥20亿成“卫星导航之母”",
        "docid": "7375727249905762816",
        "url": ""
    },
    {
        "title": "世界史上著名的“四大谎言”，没一个是真的，至今还有人深信不疑",
        "docid": "7369881458523947572",
        "url": ""
    },
    {
        "title": "天子守国门，君王死社稷，3分钟看懂明朝历史！",
        "docid": "7355741865699705394",
        "url": ""
    },
    {
        "title": "杨家12寡妇各个下场凄凉，穆桂英被万箭穿心，只有一人平安回归",
        "docid": "7346206113890599465",
        "url": ""
    },
    {
        "title": "长城那么矮完全是摆设？西方学者：你们挡住匈奴，却“害惨”欧洲",
        "docid": "7359493099809047079",
        "url": ""
    },
    {
        "title": "被联合国认为无药可救的黄土高原，中国死磕治理70年，成效如何？",
        "docid": "7375187069234053666",
        "url": ""
    },
    {
        "title": "世界上越混越惨的国家：自己没有一寸领土，仅有的2栋楼还是租的",
        "docid": "7375422984058438170",
        "url": ""
    },
    {
        "title": "2005年，西安出土李建成墓志，55字揭开李世民对兄弟的真实态度",
        "docid": "7346551145487254035",
        "url": ""
    },
    {
        "title": "楼忠福：花2亿买下一饭店，看见大堂内挂着一幅画，白捡一饭店",
        "docid": "7345044137261302311",
        "url": ""
    },
    {
        "title": "世修降表，东南部分士绅群体700年来的“卖国”心路历程",
        "docid": "7371045070987641385",
        "url": ""
    },
    {
        "title": "王莽的头颅究竟有何特殊？被历代皇室当成宝贝，收藏了272年之久",
        "docid": "7346492885455618594",
        "url": ""
    },
    {
        "title": "一列火车有几千名乘客，却连十几份盒饭都卖不出去，到底是何原因",
        "docid": "7343591140198728243",
        "url": ""
    },
    {
        "title": "就是这个人，让外蒙出去了，从“蒙古省”成为了蒙古国！",
        "docid": "7375349184964182540",
        "url": ""
    },
    {
        "title": "春秋五霸的都城都是哪座城市，如今发展如何？",
        "docid": "7342810692569219622",
        "url": ""
    },
    {
        "title": "历史上突然“消失”的3个人，至今没人找到，他们到底去了哪里？",
        "docid": "7343927863777755685",
        "url": ""
    },
    {
        "title": "大明王朝1566，吕芳退休前为何要去见冯保，临别还给干儿子磕头？",
        "docid": "7372380828472754739",
        "url": ""
    },
    {
        "title": "别被电视剧骗了！百姓衣不蔽体，官员肥头大耳，这才是真实的晚清",
        "docid": "7352820299148182051",
        "url": ""
    },
    {
        "title": "中国人为什么不吃猫肉？原来李时珍已告诉我们答案，古人早就试过",
        "docid": "7349499687046562304",
        "url": ""
    },
    {
        "title": "晚清大内侍卫真实形象：虎背熊腰，手持利刃，个个都是面露凶光",
        "docid": "7354727906864890368",
        "url": ""
    },
    {
        "title": "杀死近万只翠鸟，只为一顶显赫的“凤冠”，其宝石更搅动大明边疆",
        "docid": "7359794670135788072",
        "url": ""
    },
    {
        "title": "朱元璋将有功之臣尽诛，唯独漏杀一人，多年后此人让大明江山易主",
        "docid": "7347988631803544076",
        "url": ""
    },
    {
        "title": "世界最淡定的殖民地，宗主国天天盼着它独立，当地民众却坚决反对",
        "docid": "7354362408963441215",
        "url": ""
    },
    {
        "title": "帝释天活了2千年，为什么要在五代十国时称帝？",
        "docid": "7342812627129106978",
        "url": ""
    },
    {
        "title": "她是南朝的一位宫人，为何君王愿为其倾覆江山？",
        "docid": "7375690192218407478",
        "url": ""
    },
    {
        "title": "中国的考古那么多年，是不是快挖完了？",
        "docid": "7361332170268492314",
        "url": ""
    },
    {
        "title": "盘点中国历史上神秘消失的无价之宝，也许躺在某帝王将相的墓里吧",
        "docid": "7356100740978377225",
        "url": ""
    },
    {
        "title": "明朝第一才子杨慎写下一首千古绝唱，仅开头两句，便惊艳了岁月",
        "docid": "7345266609986224679",
        "url": ""
    },
    {
        "title": "蒙古第一高手是谁？杀了郭靖、生擒黄蓉，惹得张三丰老泪纵横",
        "docid": "7374626600669528628",
        "url": ""
    },
    {
        "title": "揭秘！宝马掌门人遭中美男计，机智应对。",
        "docid": "7375445361801953843",
        "url": ""
    },
    {
        "title": "十八好汉之一的秦琼，逐一对战另外十七人，多少回合能分出胜负？",
        "docid": "7365322109423305228",
        "url": ""
    },
    {
        "title": "看懂了薛仁贵兵败大非川，才明白什么叫“一将无能，累死三军”",
        "docid": "7375489614544486922",
        "url": ""
    },
    {
        "title": "诸葛亮刚死不到1年，刘禅就连杀4位大臣，马岱：刘禅是在装傻啊！",
        "docid": "7350601912540086810",
        "url": ""
    },
    {
        "title": "刘表有3员大将，曹孙刘各抢一个，刘抢的最厉害，关羽也忌惮三分",
        "docid": "7354726112717521434",
        "url": ""
    },
    {
        "title": "刘邦驾崩15年后，托孤大臣杀光他嫡孙，历史证明刘邦杀功臣没有错",
        "docid": "7360906996621541951",
        "url": ""
    },
    {
        "title": "古代皇帝用活人殉葬，那他们能在墓中存活多久？可能出乎你的意料",
        "docid": "7345436148157874727",
        "url": ""
    },
    {
        "title": "大清已灭亡106年，而乾隆7世孙仍穿龙袍祭祖，家里金碧辉煌",
        "docid": "7375623654782108175",
        "url": ""
    },
    {
        "title": "从夏遂良看武林高手在正规军面前多弱不禁风？",
        "docid": "7349907844176724534",
        "url": ""
    },
    {
        "title": "刘备知道：诸葛亮来了徐庶就走，诸葛亮入川庞统中箭，都不是巧合",
        "docid": "7349027528549581327",
        "url": ""
    },
    {
        "title": "宁古塔：苦寒之地的流放地狱",
        "docid": "7375716616766259712",
        "url": ""
    },
    {
        "title": "幽州在什么地方，为什么幽州总会成为反中原政权势力的根据地",
        "docid": "7343828350589387298",
        "url": ""
    },
    {
        "title": "没有电的古代，天一黑就要睡觉吗？其实他们的夜生活也很丰富",
        "docid": "7375061682562990619",
        "url": ""
    },
    {
        "title": "如果你一直很穷，看看刘伯温的5句话，才能富贵",
        "docid": "7375734784900858407",
        "url": ""
    },
    {
        "title": "汶川地震，那位让2300多名师生逃生的校长，仅过3年就遗憾病逝",
        "docid": "7353543783651246602",
        "url": ""
    },
    {
        "title": "苏联解体30年了，15个加盟国，谁混得最好？谁混得最惨？",
        "docid": "7358761871740928531",
        "url": ""
    },
    {
        "title": "“禁脔”全解",
        "docid": "7362198623225905705",
        "url": ""
    },
    {
        "title": "清军入关后明明封了四位藩王，为何只有“三藩之乱”？谁没参与？",
        "docid": "7375563791435710995",
        "url": ""
    },
    {
        "title": "康熙去世国库剩2716万两，雍正去世剩3452万，乾隆去世时剩多少？",
        "docid": "7375050810427720192",
        "url": ""
    },
    {
        "title": "120多年过去了，曾经的八国联军，现在都什么水平了？",
        "docid": "7374405768788984331",
        "url": ""
    },
    {
        "title": "隋唐第一女猛将武艺高强，斩罗士信擒程咬金，可惜最后痴情而亡",
        "docid": "7373864897123222025",
        "url": ""
    },
    {
        "title": "八岁男孩被俘虏后，淡定地对朱元璋说：你别杀我，我能统一蒙古",
        "docid": "7345062662218564122",
        "url": ""
    },
    {
        "title": "“说曹操，曹操就到”，其实还有下半句，人人皆知可是无人敢说",
        "docid": "7355049712996794918",
        "url": ""
    },
    {
        "title": "幽禁期间的张学良将军和夫人赵一荻，这些老照片可窥一斑而知全貌",
        "docid": "7351115058891473448",
        "url": ""
    },
    {
        "title": "非洲的“黄金部落”：酋长有80个老婆，就连女性的内衣都是镶金的",
        "docid": "7374736268212683315",
        "url": ""
    },
    {
        "title": "陈赓妻子与四子女罕见合影曝光！珍贵瞬间",
        "docid": "7375200651443241513",
        "url": ""
    },
    {
        "title": "在英国1600年前壁画上，惊现5个简体汉字，网友：难道是穿越了？",
        "docid": "7356111624626799144",
        "url": ""
    },
    {
        "title": "乾隆八年，12天热死11400人，中国历史上最热的夏天究竟有多热？",
        "docid": "7375766623895978515",
        "url": ""
    },
    {
        "title": "宋子文写了20几封情书才追上唐瑛，二人最终为什么没有在一起？",
        "docid": "7375813246714675775",
        "url": ""
    },
    {
        "title": "中国的十大商帮",
        "docid": "7375158306551104012",
        "url": ""
    },
    {
        "title": "岳飞遇害当日，十万岳家军为什么没来劫法场？看看监斩官就知道了",
        "docid": "7345798684460941824",
        "url": ""
    },
    {
        "title": "大楚兴，陈胜王！大泽乡起义成功后，陈胜为什么杀掉吴广？",
        "docid": "7375849613359710729",
        "url": ""
    },
    {
        "title": "五虎上将之中，有三人存有异心，如果刘备一统天下会先杀谁？",
        "docid": "7362802787626926642",
        "url": ""
    },
    {
        "title": "建国后湖北省黄冈、黄石、鄂州地区行政区划变迁",
        "docid": "7373307776527581731",
        "url": ""
    },
    {
        "title": "吴用自杀前终于恍然大悟，梁山真正的老大不是宋江，其实另有其人",
        "docid": "7345108772416930344",
        "url": ""
    },
    {
        "title": "吕布瞧得起的四位猛将：其中有许褚典韦，为何没有关羽赵云马超？",
        "docid": "7351977968501031475",
        "url": ""
    },
    {
        "title": "古代弓箭手都是近战脆皮？谬误！你对弓箭手的力气一无所知",
        "docid": "7375930582041231887",
        "url": ""
    },
    {
        "title": "主席临终前，为何执意将军权交给陈锡联？多年后才知伟人高明_406",
        "docid": "7369570679823303203",
        "url": ""
    },
    {
        "title": "李世民有十多个儿子，为什么要立九子李治为接班人？比一比就知道",
        "docid": "7349413189651792424",
        "url": ""
    },
    {
        "title": "世界上寿命最长的王朝：延续2680年传承126位皇帝，至今仍在延续",
        "docid": "7345775078447088139",
        "url": ""
    },
    {
        "title": "古代的“温柔”刑罚，用动物的器官行刑，让人在欢声笑语中死去",
        "docid": "7349058407560659508",
        "url": ""
    },
    {
        "title": "美国历史学家哈里斯：如果中国有两个这样的女人，足以将日本沉没",
        "docid": "7343442217317024297",
        "url": ""
    },
    {
        "title": "古代没有地图和导航，古人要是出远门的话，是怎么保证不会迷路的",
        "docid": "7343890677405336103",
        "url": ""
    },
    {
        "title": "王允被杀之后，他的家族为何因此繁荣千年？扒一扒太原王氏家族史",
        "docid": "7375187900029289012",
        "url": ""
    },
    {
        "title": "蒋介石用火车拉几千女人到前线，冯玉祥：西北军见不得金钱和女人",
        "docid": "7357671809703264820",
        "url": ""
    },
    {
        "title": "三家分晋究竟是怎么回事？晋国是超级大国，为何却被三家瓜分？",
        "docid": "7373477841192895014",
        "url": ""
    },
    {
        "title": "大凌河之战惨烈——马全部被杀，人全​​部被吃掉，骨头被当柴火",
        "docid": "7368563353490342454",
        "url": ""
    },
    {
        "title": "雍正十二月圆明园行乐图(完整版)",
        "docid": "7343981054988911140",
        "url": ""
    },
    {
        "title": "读宋史有感:“斧声烛影”的历史疑云",
        "docid": "7374028044715164175",
        "url": ""
    },
    {
        "title": "蜀汉的败亡，许多人认为过错在于关羽，但事实真的是这样吗？",
        "docid": "7374980817078075938",
        "url": ""
    },
    {
        "title": "成都市金堂县想把县城从赵镇搬到淮口？梳理金堂历史上的3个县城",
        "docid": "7345833754948174347",
        "url": ""
    },
    {
        "title": "目前现存的中国十大名剑",
        "docid": "7375480522564321843",
        "url": ""
    },
    {
        "title": "历史上，这6个人本来不可能做皇帝，却天上掉馅饼登上了皇位",
        "docid": "7373592398309474831",
        "url": ""
    },
    {
        "title": "1962年，新中国将一块原本属于清朝的藩属国，划分给了巴基斯坦",
        "docid": "7375058289471652363",
        "url": ""
    },
    {
        "title": "三国混的最成功的十个人",
        "docid": "7375775502981726783",
        "url": ""
    },
    {
        "title": "跟着苏联混，三天饿九顿？外蒙古分出去单干后，小日子过得怎样？",
        "docid": "7375156375153902114",
        "url": ""
    },
    {
        "title": "朱高炽登基一年就死了，朱高炽的死亡原因是什么？",
        "docid": "7375675351403364915",
        "url": ""
    },
    {
        "title": "孔家后人卑躬屈节之谜:自保与权谋交织",
        "docid": "7375880013037437492",
        "url": ""
    },
    {
        "title": "意大利人也喜欢开“地图炮”？意大利的南北差距为何这么大？",
        "docid": "7375854841169478163",
        "url": ""
    },
    {
        "title": "1986年老妇到陵园给红军前夫扫墓，儿子惊叫：妈，墓碑上有您名字",
        "docid": "7363175164667773480",
        "url": ""
    },
    {
        "title": "农夫报案：牛舌头被人偷割，包拯：把牛宰了，贼人自然会来自首",
        "docid": "7374790854495568435",
        "url": ""
    },
    {
        "title": "3亿汉人，被满清300万八旗统治了276年，为何不反抗？四个理由",
        "docid": "7362801805387940403",
        "url": ""
    },
    {
        "title": "缺了一块的西班牙：同在一个半岛，西班牙为什么没有吞并葡萄牙？",
        "docid": "7344993786449101338",
        "url": ""
    },
    {
        "title": "苏联为什么会解体，从二分天下到企图投降美国，苏联经历了什么？",
        "docid": "7375723705664422436",
        "url": ""
    },
    {
        "title": "得知父亲册立弟弟为君，太子连夜包围王宫，亲眼看着父亲上吊自杀",
        "docid": "7350678384881779215",
        "url": ""
    },
    {
        "title": "六合区为什么叫六合？别低估六合，历史上六合才是南京的第一座城",
        "docid": "7348412298488414731",
        "url": ""
    },
    {
        "title": "历史的尘埃——1997年：才喝了三十年热水",
        "docid": "7342770855845937699",
        "url": ""
    },
    {
        "title": "关羽的封号到底是什么？到底是汉寿县的亭侯，还是汉朝的寿亭侯？",
        "docid": "7352471578754204171",
        "url": ""
    },
    {
        "title": "范闲皇子身世传开！长公主和皇后怀疑人生，评论区也太激情了",
        "docid": "7375325038133740072",
        "url": ""
    },
    {
        "title": "1896年，李鸿章在沙俄一声嘶吼，60年后，他的混血孙儿也来上一出",
        "docid": "7348347464417608230",
        "url": ""
    },
    {
        "title": "女英烈刘惜芬：被捕后遭受卑鄙下流的酷刑，牺牲前留给难友4个字",
        "docid": "7374977977635095055",
        "url": ""
    },
    {
        "title": "哈萨克族和维族的区别，他们的诞生都离不开一个古老的游牧民族",
        "docid": "7343570562339521039",
        "url": ""
    },
    {
        "title": "1950年伍修权联合国发言影像：美台代表被怼得哑口无言，震惊全场",
        "docid": "7352156942468383244",
        "url": ""
    },
    {
        "title": "致敬伟人领袖 该作品在被播",
        "docid": "7353039455810224650",
        "url": ""
    },
    {
        "title": "1985年，济南军区对越作战真实录像，解放军血战那拉口，寸土不让",
        "docid": "7357663667179291170",
        "url": ""
    },
    {
        "title": "60年度独立建国，曾传言想要回归中国，如今甚至不如国内3线城市",
        "docid": "7373527518818681385",
        "url": ""
    },
    {
        "title": "宋江被毒死后，吴用为何非要上吊，辞官不行吗？你看柴进是咋死的",
        "docid": "7356143870063575590",
        "url": ""
    },
    {
        "title": "雍正王朝：看懂康熙驾崩时谁权力最大，才明白隐藏最深四爷党是谁",
        "docid": "7358075675481850394",
        "url": ""
    },
    {
        "title": "谈谈对闽南一代传奇赖昌星的评价",
        "docid": "7375553562345996851",
        "url": ""
    },
    {
        "title": "朱棣起兵时途经一小镇，给它取了个霸气的名字，现今成国际大都市",
        "docid": "7370974001415586367",
        "url": ""
    },
    {
        "title": "常遇春不死，淮西集团也不会出事！",
        "docid": "7362523325526377012",
        "url": ""
    },
    {
        "title": "张学良晚年回忆溥杰发妻：如果她当时不那么“混蛋”，我肯定娶她",
        "docid": "7362790739207553574",
        "url": ""
    },
    {
        "title": "老北京顺口溜“东富西贵，北贫南贱”是什么意思？",
        "docid": "7348264132011164179",
        "url": ""
    },
    {
        "title": "曾国藩的读书方法比费曼学习法还牛！",
        "docid": "7345331537031856650",
        "url": ""
    },
    {
        "title": "历史上最“完美”的皇帝，为何史学家很少提起他？实在无从下笔！",
        "docid": "7362069944508351030",
        "url": ""
    },
    {
        "title": "旧时东北地主建的围子是胡子克星，本文带你见证那些攻杀斗防往事",
        "docid": "7356801826848768551",
        "url": ""
    },
    {
        "title": "当年买泰坦尼克号船票的8位顶级富豪，为啥开船前，却都没上船？",
        "docid": "7353318526641242661",
        "url": ""
    },
    {
        "title": "这个姓氏人口接近1亿，却几千年都没出过皇帝，究竟什么原因？",
        "docid": "7348604389898093095",
        "url": ""
    },
    {
        "title": "北京规模最大的王府，住在这的主人要么绝后、要么子孙凋零",
        "docid": "7375443347038601766",
        "url": ""
    },
    {
        "title": "1949年，军统少将站长被处决，16年后，妻子凭着一本日记为其正名",
        "docid": "7347730771609666089",
        "url": ""
    },
    {
        "title": "大英帝国都亡了，香港的法官们，几时才能把头上的方便面摘掉呢？",
        "docid": "7375802684439708187",
        "url": ""
    },
    {
        "title": "中国十大丢失顶级镇国之宝",
        "docid": "7375791660342510119",
        "url": ""
    },
    {
        "title": "历史上，真实存在的方腊起义，究竟是被谁镇压了？",
        "docid": "7375341060370809371",
        "url": ""
    },
    {
        "title": "北宋五大文臣：第一名无可置疑，第二名是他",
        "docid": "7352922010856473099",
        "url": ""
    },
    {
        "title": "戴笠坠机是骗局？自导自演还是意外，真相究竟如何",
        "docid": "7375000281156715045",
        "url": ""
    },
    {
        "title": "二里头考古与夏朝记载明显不符，甲骨文显示：夏朝名字或是乌龙",
        "docid": "7375761232743170571",
        "url": ""
    },
    {
        "title": "中国古代十大常败将军",
        "docid": "7375559702582428172",
        "url": ""
    },
    {
        "title": "法正不死便无三国，法正有多恐怖？公元219年曹操说了公道话",
        "docid": "7375462719992758823",
        "url": ""
    },
    {
        "title": "古代夜晚要关闭城门，有没有偏僻的荒野小路，可以出城呢？",
        "docid": "7375391095905911305",
        "url": ""
    },
    {
        "title": "白天是演员，幕后成间谍！隐姓埋名75年，94岁蓝天野为革命做贡献",
        "docid": "7374996590040023571",
        "url": ""
    },
    {
        "title": "情深深雨濛濛：军阀陆振华到上海时几乎没兵，他的部队去哪里了？",
        "docid": "7375466547306955274",
        "url": ""
    },
    {
        "title": "同样是官商、同样有后台，胡雪岩为何就都斗不过盛宣怀？",
        "docid": "7374342192892035621",
        "url": ""
    },
    {
        "title": "美国发现了多个印第安盔甲，上面竟然挂满了中国的古钱币",
        "docid": "7368640593632739876",
        "url": ""
    },
    {
        "title": "三国原来是一家人的斗争，看懂的是高手。",
        "docid": "7358331573312193059",
        "url": ""
    },
    {
        "title": "东南亚那么大平原，为什么没形成大国？",
        "docid": "7374964338051809832",
        "url": ""
    },
    {
        "title": "为什么说刘关张团队是最理想的团队？网友的分享让我恍然大悟了！",
        "docid": "7375422735603778088",
        "url": ""
    },
    {
        "title": "除了香港澳门，中国还有一个地方租期是99年，您知道是哪里吗？",
        "docid": "7370223239882211867",
        "url": ""
    },
    {
        "title": "千古第一战将！五马分尸居然能将马拉回来，最后杀死他的是他自己",
        "docid": "7363291986100797964",
        "url": ""
    },
    {
        "title": "英国教授：四大文明古国中，印度和埃及还在，为何却只承认中国？",
        "docid": "7375858159942828582",
        "url": ""
    },
    {
        "title": "汉朝庙号最严格谥号最公正？以此而论两汉二十五帝排名简单至极！",
        "docid": "7375341177429623335",
        "url": ""
    },
    {
        "title": "历史上最完美的 5 位皇帝",
        "docid": "7344649364436238889",
        "url": ""
    },
    {
        "title": "17张晚清老照片：女子各有特色，个个漂亮，清宫戏都是骗人的",
        "docid": "7367211300864131638",
        "url": ""
    },
    {
        "title": "孙中山遗体，为何从开始的永久保存供人瞻仰，转变为混凝土封固",
        "docid": "7343800897631158795",
        "url": ""
    },
    {
        "title": "历史上这五位名臣、名将，看上去是被冤杀，其实他们死得并不冤",
        "docid": "7375435548195881487",
        "url": ""
    },
    {
        "title": "真的是摘桃子吗？其实，宋朝的江山有很大一部分是赵家打下来的",
        "docid": "7354279463355417126",
        "url": ""
    },
    {
        "title": "马谡如果按照诸葛亮安排，当道下寨，就能阻挡张郃率领的魏军吗？",
        "docid": "7356890000631284234",
        "url": ""
    },
    {
        "title": "汤玉麟多次反叛作死，触碰底线，为何张家父子却都没有下死手？",
        "docid": "7351245737893839371",
        "url": ""
    },
    {
        "title": "不吹不黑，李舜臣相当于中国什么级别的将领？网友的评论引起共鸣",
        "docid": "7375549078676963875",
        "url": ""
    },
    {
        "title": "杜月笙虽是青帮老大，但有一个闻名全国的儿子，一生为祖国奉献",
        "docid": "7375141044226163235",
        "url": ""
    },
    {
        "title": "李陵归降匈奴后，迎娶了匈奴公主，几百年后李陵后代成草原一大族",
        "docid": "7352475007987221026",
        "url": ""
    },
    {
        "title": "历史上最著名的四大叛将",
        "docid": "7356436596704494134",
        "url": ""
    },
    {
        "title": "鲁迅玩伴闰土：57岁病逝，留下五子，如今后代现状让人感叹",
        "docid": "7348393236710556179",
        "url": ""
    },
    {
        "title": "那些安葬在西湖边的名人，您想去祭拜哪位？",
        "docid": "7374701579306189327",
        "url": ""
    },
    {
        "title": "他是清末名将，因妻子太美34岁被兄弟杀害，其后代却爆红娱乐圈",
        "docid": "7375501147768947237",
        "url": ""
    },
    {
        "title": "大清已灭亡一百余年，而乾隆7世孙仍穿龙袍祭祖，家里金碧辉煌",
        "docid": "7375719042067300873",
        "url": ""
    },
    {
        "title": "历史上名声最好的太监：死后百官扶棺下葬，至今仍有人祭拜！",
        "docid": "7371697793347797519",
        "url": ""
    },
    {
        "title": "华夏历史形成一览，从伏羲传说到大秦王朝 ​​​",
        "docid": "7352260151275045402",
        "url": ""
    },
    {
        "title": "列宁曾派特工来到中国，专门暗杀一个人：脑袋至今保存在俄博物馆",
        "docid": "7375105228422611493",
        "url": ""
    },
    {
        "title": "庞统为何如此轻易殒命落凤坡？刘备比谁都清楚，“凤雏”不死不行",
        "docid": "7359362339570811428",
        "url": ""
    },
    {
        "title": "杨家将：七郎八虎的八杆枪各叫什么？为何持金轮火尖枪者是家主？",
        "docid": "7357222105173213732",
        "url": ""
    },
    {
        "title": "古代没普通话，皇帝上朝时和各地的大臣交流，能互相听得懂吗？",
        "docid": "7344300264850981430",
        "url": ""
    },
    {
        "title": "南斯拉夫解体，分裂为6个国家，如今哪个混的最好?哪个混不下去了",
        "docid": "7375821282069479951",
        "url": ""
    },
    {
        "title": "李世民想打倒的清河崔氏，是一个怎样的豪门，居然连宰相都看不起",
        "docid": "7371343872456196635",
        "url": ""
    },
    {
        "title": "为什么北宋的行政区划是最合理的，避免了京城只虹吸一个省份",
        "docid": "7373977137063952948",
        "url": ""
    },
    {
        "title": "第三次印巴战争时，美国为何密约中国出兵？事后才懂当年有多凶险",
        "docid": "7365352853348631094",
        "url": ""
    },
    {
        "title": "刘备称汉中王之前，集团人才中谁的地位比较高，实权比较大？",
        "docid": "7360353119052464675",
        "url": ""
    },
    {
        "title": "康熙去世国库剩2716万两，雍正去世剩3452万，乾隆去世时剩多少？",
        "docid": "7374999283235537458",
        "url": ""
    },
    {
        "title": "王阳明的最后一日：浑身溃烂大夫都跑光，仅仅留下八字便撒手人寰",
        "docid": "7375366468000662050",
        "url": ""
    },
    {
        "title": "4000犹太人定居河南，生活1000年早被同化，为何仍想回以色列？",
        "docid": "7375433918377427508",
        "url": ""
    },
    {
        "title": "三国中，一身武艺没有跟对人的九位名将！",
        "docid": "7370697928367079951",
        "url": ""
    },
    {
        "title": "汉文帝进京只有八个人，为什么他没被架空？他是如何一晚就掌权的",
        "docid": "7367014173433283084",
        "url": ""
    },
    {
        "title": "二战中，日本为何非要作死偷袭珍珠港？告诉你一个深层次的原因",
        "docid": "7344334220720013859",
        "url": ""
    },
    {
        "title": "民国军阀有多搞笑？靠一副麻将，养活一个旅，这是怎么做到的？",
        "docid": "7344037387384701467",
        "url": ""
    },
    {
        "title": "西安高三学霸林嘉文，距高考百天时跳楼，遗言：一生已看透两件事",
        "docid": "7345349402942505487",
        "url": ""
    },
    {
        "title": "明朝的“恐怖组织”：东西厂和锦衣卫甘拜下风，官员见了绕道走",
        "docid": "7367682750377230888",
        "url": ""
    },
    {
        "title": "1993年西班牙人均GDP是中国的34倍，GDP总量高出646亿，如今呢？",
        "docid": "7347669384066007593",
        "url": ""
    },
    {
        "title": "徐敬业起兵反武则天，神级开局，拥兵10万，为何不到2月就败亡？",
        "docid": "7364918508762808843",
        "url": ""
    },
    {
        "title": "一入九品，便非凡俗，庆余年中有多少位九品高手？屈指算来，26人",
        "docid": "7375503722266264100",
        "url": ""
    },
    {
        "title": "长平之战赵国大败后，为何还能歼灭秦军30万，全歼匈奴10万骑兵？",
        "docid": "7356043150516879935",
        "url": ""
    },
    {
        "title": "哥哥谋反，皇帝把侄儿叫到身边：你去传旨，朕信你父亲不会反叛！",
        "docid": "7346090184993440306",
        "url": ""
    },
    {
        "title": "一口气看懂东吴后期历史！孙权去世之后，后来东吴又发生了什么？",
        "docid": "7358076306061509139",
        "url": ""
    },
    {
        "title": "史书不敢提，但是我敢写",
        "docid": "7375783204118184474",
        "url": ""
    },
    {
        "title": "你觉得你比古人聪明，只能说你过于幼稚，古人比想的你坏多了",
        "docid": "7369768287212716579",
        "url": ""
    },
    {
        "title": "国民党第一谋士，蒋介石称他为“活诸葛”，却死在了自己人手里",
        "docid": "7351493943772611081",
        "url": ""
    },
    {
        "title": "古代中了探花，为何比中状元还要高兴？其实有个不成文的“规定”",
        "docid": "7343911433543352868",
        "url": ""
    },
    {
        "title": "什么是五服？不会还有人不知道吧？",
        "docid": "7375514410233659945",
        "url": ""
    },
    {
        "title": "1958年，粟裕访问朝鲜，“营长”背手站在中间，大将和上将站两旁",
        "docid": "7366780424661631524",
        "url": ""
    },
    {
        "title": "刘墉下棋胜了乾隆，乾隆怒道：不怕我杀了你？刘墉的回答堪称经典",
        "docid": "7352405612880200211",
        "url": ""
    },
    {
        "title": "历史上突然“消失”的3个人，至今没人找到，他们到底去了哪里?",
        "docid": "7365760320217842187",
        "url": ""
    },
    {
        "title": "果敢同盟军开始书写历史了？",
        "docid": "7375227834828882466",
        "url": ""
    },
    {
        "title": "张学良喜欢却得不到的女人，一生的遗憾，结局让人心疼",
        "docid": "7343840604167668274",
        "url": ""
    },
    {
        "title": "军统内部唯一的女将军，天生丽质享年98，孙女是家喻户晓的女明星",
        "docid": "7373963010446033427",
        "url": ""
    },
    {
        "title": "隋唐猛将按战力分为五档，罗成排在第三档，宇文成都在第几档？",
        "docid": "7355829096624013876",
        "url": ""
    },
    {
        "title": "中华民族大融合的肇始之战——参合陂之战",
        "docid": "7375843589227659810",
        "url": ""
    },
    {
        "title": "世界史上著名的“四大谎言”，全都是假的，至今还有人深信不疑",
        "docid": "7358401149998727695",
        "url": ""
    },
    {
        "title": "为啥说激化矛盾是解决问题的最好方式？网友：第二天他挨个道歉",
        "docid": "7375440516055450146",
        "url": ""
    },
    {
        "title": "上官婉儿一生有多少男人？2013年她的墓葬被发现，揭开历史真相",
        "docid": "7376061937425072674",
        "url": ""
    },
    {
        "title": "1992年南斯拉夫解体，分裂成为6个国家，到如今哪个发展的最好？",
        "docid": "7361443384730468918",
        "url": ""
    },
    {
        "title": "绵竹之战中，诸葛瞻真的是七万士兵，还打不过邓艾两千士兵么？",
        "docid": "7359440945659593235",
        "url": ""
    },
    {
        "title": "中国历史最著名的十大饭局！",
        "docid": "7375479967548752395",
        "url": ""
    },
    {
        "title": "古代农妇报案称军马吃她粮食，将军：剖马腹！找不到粮食砍她脑袋",
        "docid": "7358738995615957519",
        "url": ""
    },
    {
        "title": "国军少将奚落我军司令：你什么军衔？司令一番话，让他无地自容！",
        "docid": "7343056112897540671",
        "url": ""
    },
    {
        "title": "高清老照片：旗人格格大腿岔开豪放洗衣，地主三妻四妾不输女明星",
        "docid": "7345053425979834880",
        "url": ""
    },
    {
        "title": "隋唐：双锏十锤倒铜旗，双锏指的是谁，十锤指的又是谁？",
        "docid": "7361720202062627364",
        "url": ""
    },
    {
        "title": "原子弹下，为何没有冤魂？那要看当时广岛女性、学生做了些什么！",
        "docid": "7338076717951123983",
        "url": ""
    },
    {
        "title": "秦始皇一生六大“世界级”工程，如今大部分存在，都是世界级遗产",
        "docid": "7351944645728911924",
        "url": ""
    },
    {
        "title": "霍去病到底有多强 我们可能都低估了他！相当于全歼16个航母战斗群",
        "docid": "7373111967957713408",
        "url": ""
    },
    {
        "title": "列宁曾派特工来到中国，专门暗杀一个人：脑袋至今保存在俄博物馆",
        "docid": "7375373921757102643",
        "url": ""
    },
    {
        "title": "此人杀害4名红军军级将领，解放时可抓正法，为何发护照让他出境",
        "docid": "7370625710518420002",
        "url": ""
    },
    {
        "title": "巴黎有一碑文，补齐玄武门之变关键环节：难怪李世民能杀死李建成",
        "docid": "7353093673058320911",
        "url": ""
    },
    {
        "title": "拿破仑说中国是头睡狮后还说了下半句？当时没人信，如今预言成真",
        "docid": "7348684774506086946",
        "url": ""
    },
    {
        "title": "根据正史推断：他才是唯一可以守住荆州的人，比关羽勇，比黄忠强",
        "docid": "7359893244118827535",
        "url": ""
    },
    {
        "title": "他一生忠于大唐，率13个儿子及5000子弟出征，无一生还",
        "docid": "7349708711931167267",
        "url": ""
    },
    {
        "title": "三家分晋究竟是怎么回事？晋国是超级大国，为何却被三家瓜分？",
        "docid": "7375816613875974675",
        "url": ""
    },
    {
        "title": "他是清末名将，因妻子太美34岁被兄弟杀害，其后代却爆红娱乐圈",
        "docid": "7375898597680235043",
        "url": ""
    },
    {
        "title": "庞勋之乱，回家的诱惑，如何成为大唐灭亡的开端？",
        "docid": "7375362123934777866",
        "url": ""
    },
    {
        "title": "当年买泰坦尼克号船票的8位顶级富豪，为啥开船前，却都没上船？",
        "docid": "7375092698899890738",
        "url": ""
    },
    {
        "title": "日本切腹自杀操作并不简单，侵华日军中将，切腹后15个小时才死掉",
        "docid": "7351230730251305512",
        "url": ""
    },
    {
        "title": "日本占领大半个中国，为什么没有去挖中国的皇陵？",
        "docid": "7363122360871928383",
        "url": ""
    },
    {
        "title": "他给日本捐款74万送40架战斗机，获天皇接见，86岁时终被枪毙",
        "docid": "7355697412578935348",
        "url": ""
    },
    {
        "title": "兵败邺城：大唐陌刀战神悲怆落幕，九大节度使饮恨中原",
        "docid": "7255307003890319933",
        "url": ""
    },
    {
        "title": "2010年，波兰总统专机坠毁于俄罗斯，88位国家高层一天内全部团灭",
        "docid": "7358391835628438052",
        "url": ""
    },
    {
        "title": "我国十大著名古墓群分布区",
        "docid": "7345692053311242771",
        "url": ""
    },
    {
        "title": "英国教授：我始终想不明白，中国靠什么维系了数千年的文明大统一",
        "docid": "7370265089393345058",
        "url": ""
    },
    {
        "title": "1240年，蒙古大军用时4天攻下基辅，放火烧城，最后全城仅剩200户",
        "docid": "7343198271151915531",
        "url": ""
    },
    {
        "title": "几百万东德人民逃往西德，号称民主的东德，为何人民大多选择逃离",
        "docid": "7372797630058922508",
        "url": ""
    },
    {
        "title": "明代三大才子",
        "docid": "7354568161863172642",
        "url": ""
    },
    {
        "title": "他一生被老蒋开除三次党籍，后来成为共和国副主席，儿子也很优秀",
        "docid": "7366969701215257122",
        "url": ""
    },
    {
        "title": "古代为何流行表哥娶表妹？且很少生出畸形儿，答案让你意想不到！",
        "docid": "7342760027121418764",
        "url": ""
    },
    {
        "title": "如果马寅初没提出人口论，也没有计划生育，如今的我国会怎么样？",
        "docid": "7373622772725187082",
        "url": ""
    },
    {
        "title": "宋子文去世前把日记捐给美国，要求30年后公开，里面果然有大瓜",
        "docid": "7375415935576654375",
        "url": ""
    },
    {
        "title": "曾让朱元璋放牛的地主刘德，待朱元璋当上皇帝后，下场如何？",
        "docid": "7358644175287419428",
        "url": ""
    },
    {
        "title": "历史上3次神奇的巧合，让人不得不怀疑，世界或许真是一个轮回",
        "docid": "7374954287119548969",
        "url": ""
    },
    {
        "title": "越南武庙供奉18位名将，有12位是中国人，他们为何要这样设置？",
        "docid": "7363555989905211942",
        "url": ""
    },
    {
        "title": "大英现在还有多少实力？英国：全世界比我强的国家，顶多就三个",
        "docid": "7373592538093011482",
        "url": ""
    },
    {
        "title": "19世纪黑人闹事，美国直接买地建了个国家，强制黑人移民出美国",
        "docid": "7357847321356337664",
        "url": ""
    },
    {
        "title": "天津大邱庄“土皇帝”禹作敏的覆灭记：他的故事比你想得更恶劣",
        "docid": "7375005019617165843",
        "url": ""
    },
    {
        "title": "天启大爆炸：20000多人伤亡，死者全身赤裸，离奇现象如何产生？",
        "docid": "7357987114367304246",
        "url": ""
    },
    {
        "title": "朱元璋灭元之后，针对遗留下的数十万蒙古女子，处理方式十分高明",
        "docid": "7350963985409344038",
        "url": ""
    },
    {
        "title": "大清已灭亡106年，而乾隆7世孙仍穿龙袍祭祖，家里金碧辉煌",
        "docid": "7375035979302617638",
        "url": ""
    },
    {
        "title": "湖北为什么也换了省会？",
        "docid": "7374701046729556534",
        "url": ""
    },
    {
        "title": "四川神秘“小矮人村”,村民身高不足1米2，专家发现端倪",
        "docid": "7348262057894101514",
        "url": ""
    },
    {
        "title": "中国五个兵家必争之地：两处关隘、三座城市，有你的家乡吗？",
        "docid": "7345393111612523019",
        "url": ""
    },
    {
        "title": "刘青山和张子善，一共贪污171.6亿旧人民币，放到现在值多少钱？",
        "docid": "7376083849366831651",
        "url": ""
    },
    {
        "title": "“丞相”和“宰相”有什么区别",
        "docid": "7376055483486814732",
        "url": ""
    },
    {
        "title": "1950年，溥仪得知抗美援朝的消息后，当即撕开棉衣取出一件珍宝",
        "docid": "7375065962062430720",
        "url": ""
    },
    {
        "title": "解放后，一老干部回忆，当年途中遇敌，双方握着枪却假装互不认识",
        "docid": "7371096688716497423",
        "url": ""
    },
    {
        "title": "59岁的王昌龄被贬返回老家，途经亳州，竟被亳州刺史一枪捅死",
        "docid": "7342851406929773093",
        "url": ""
    },
    {
        "title": "海南发现72座海底村庄，专家：原来明朝的那个传说是真的",
        "docid": "7373831025614422564",
        "url": ""
    },
    {
        "title": "雍正驾崩后，为何与年贵妃合葬？她所生的儿子为什么不是弘字辈？",
        "docid": "7375908315522171430",
        "url": ""
    },
    {
        "title": "30张伪满洲国宣传画，鼓吹王道乐土，意图给民众洗脑，极具蛊惑性",
        "docid": "7375443408954851851",
        "url": ""
    },
    {
        "title": "古人说话也是用文言文吗？看看赵匡胤批语、雍正批阅奏折就知道！",
        "docid": "7343567048167784960",
        "url": ""
    },
    {
        "title": "张学良迷恋一生的赵一荻到底有多美？看完这些老照片，就能明白了",
        "docid": "7362428905958949416",
        "url": ""
    },
    {
        "title": "杀死近万只翠鸟，只为一顶奢华的“凤冠”，它到底有多值钱？",
        "docid": "7358469080422203915",
        "url": ""
    },
    {
        "title": "戴安娜与查尔斯的爱情真相：是真爱还是虚伪的表演？",
        "docid": "7366841475139486244",
        "url": ""
    },
    {
        "title": "世界史上著名的四大谎言",
        "docid": "7376101203706511911",
        "url": ""
    },
    {
        "title": "三千公里海疆直接“腰斩”？琉球独立，或将成为日本不可承受之重",
        "docid": "7375101149029925391",
        "url": ""
    },
    {
        "title": "他临刑前留下10多张照片，有微笑，背影，行刑，有一张扭头找妻女",
        "docid": "7374635281700192818",
        "url": ""
    },
    {
        "title": "盛行三千年的嫡长子继承制，为何到了清朝这里玩不下去了？",
        "docid": "7344975495726924329",
        "url": ""
    },
    {
        "title": "杨秀清雄才大略，如果他一直领导太平天国，能够最终成功吗？",
        "docid": "7347006641277043240",
        "url": ""
    },
    {
        "title": "1958年，刘文彩的“风水宝墓”遭到破坏，守墓人4天后竟离奇去世",
        "docid": "7353495127312073268",
        "url": ""
    },
    {
        "title": "清朝刑场老照片：刽子手瘦弱不堪，犯人面露凶光，像狗一样被牵着",
        "docid": "7348725090856485391",
        "url": ""
    },
    {
        "title": "1951年，杨振宁一家三口在美国，杜致礼气质不凡，不愧是名将之女",
        "docid": "7362235550734090786",
        "url": ""
    },
    {
        "title": "二战时，苏联为何制造屠杀波兰几万精英的卡廷惨案，真是为报仇？",
        "docid": "7375518078903353908",
        "url": ""
    },
    {
        "title": "古代银票就一张纸，为何没人造假？你看看上面那行字，怎么造假？",
        "docid": "7352509617383014912",
        "url": ""
    },
    {
        "title": "当科技与考古相遇：复现两千多年前的贝壳画",
        "docid": "7374991449642762791",
        "url": ""
    },
    {
        "title": "北宋为何放弃长安洛阳，而定都无险可守的开封？",
        "docid": "7352705425193583114",
        "url": ""
    },
    {
        "title": "911事件罕见的照片：小布什得知恐袭瞬间被抓拍，2016年才被公开",
        "docid": "7364286126154121769",
        "url": ""
    },
    {
        "title": "曾担任副总理，60岁被撤职，69岁被永远开除党籍，73岁被恢复名誉",
        "docid": "7375367672785093139",
        "url": ""
    },
    {
        "title": "中国最后一个太监自述：晚上伺候贵妃，鞋里要放一个苍耳这是为何",
        "docid": "7376123093669986855",
        "url": ""
    },
    {
        "title": "8个特殊的资本主义国家，都自称“社会主义”，真实情况怎样？",
        "docid": "7365731194597655075",
        "url": ""
    },
    {
        "title": "1939年，日军狼狗部队无人可挡，董翰良猛拍大腿：怎么把它给忘了",
        "docid": "7362490865207788051",
        "url": ""
    },
    {
        "title": "流浪老汉认抗日名将马占山为自己的儿子，又将马占山诉到法院。",
        "docid": "7375822253021299210",
        "url": ""
    },
    {
        "title": "太平军北伐，为什么只出动了2、3万人？真以为天下这么好打吗？",
        "docid": "7343533658424836646",
        "url": ""
    },
    {
        "title": "绝世珍宝重现光辉——45张古埃及文明文物照片大揭秘！",
        "docid": "7349868582874038834",
        "url": ""
    },
    {
        "title": "土郎中给乾隆看病，谁知他一号脉竟大哭：没救了！乾隆大笑：赏",
        "docid": "7375813403446624822",
        "url": ""
    },
    {
        "title": "1992年，南斯拉夫解体，最终分裂为6个国家，如今哪个混的最好？",
        "docid": "7350268067911320102",
        "url": ""
    },
    {
        "title": "大清已灭亡106年，而乾隆7世孙仍穿龙袍祭祖，家里金碧辉煌",
        "docid": "7376069265021059625",
        "url": ""
    },
    {
        "title": "63岁汤和交出兵权回乡，临走不忘要赏赐，两年后才知，他真是高明",
        "docid": "7375715332310204940",
        "url": ""
    },
    {
        "title": "杜月笙的第一打手，一生传奇人称江湖游侠，最后却毙命于公审台",
        "docid": "7375099557900616255",
        "url": ""
    },
    {
        "title": "三国死得最惨的10大名将：4人被斩首，2人被爆头，2人万箭穿心",
        "docid": "7361213119860949544",
        "url": ""
    },
    {
        "title": "古罗马奴隶主是怎样对待女奴隶的？手段非常残酷，让人不忍直视",
        "docid": "7362385328226697769",
        "url": ""
    },
    {
        "title": "诸葛亮杀了一个旷世奇才，提拔了一个文盲大将，延续蜀汉30年国运",
        "docid": "7368397308444312098",
        "url": ""
    },
    {
        "title": "赵云和高宠互换，挑铁滑车赵云必死，长坂坡高宠救阿斗两种结局！",
        "docid": "7369782652964209191",
        "url": ""
    },
    {
        "title": "赵匡胤死于斧声烛影，宋太宗到底是不是凶手？司马光一语道破真相",
        "docid": "7343154792858632723",
        "url": ""
    },
    {
        "title": "在东南亚地区人的眼里，中国是什么样的?网友：活着的罗马帝国！",
        "docid": "7376028408545706505",
        "url": ""
    },
    {
        "title": "1942年，宋子文和宋子良，宋子安的合影，三位夫人貌美如花！",
        "docid": "7359735985120231988",
        "url": ""
    },
    {
        "title": "李清照见证岳飞一生，爱国诗词只字不提岳飞，原来她和秦桧是亲戚",
        "docid": "7375630107068629558",
        "url": ""
    },
    {
        "title": "杀害杨开慧的军阀何健，解放后子孙留大陆，最终结局如何？",
        "docid": "7375959776288571954",
        "url": ""
    },
    {
        "title": "汉朝名将李陵投降匈奴后，娶匈奴公主，几百年后其后代成草原大族",
        "docid": "7374831428586045967",
        "url": ""
    },
    {
        "title": "1000多年前的“奢侈品”长什么样？来喀什市博物馆看看",
        "docid": "7362364288734659107",
        "url": ""
    },
    {
        "title": "破碎的巴勒斯坦：人口仅剩5分之1，呼唤全球心声的和平巨浪！",
        "docid": "7375919787463819828",
        "url": ""
    },
    {
        "title": "苏州3名小学生逃课掏鸟窝，不曾想掏出价值50亿国宝 可惜损毁一物",
        "docid": "7375424587128914483",
        "url": ""
    },
    {
        "title": "1993年百姓乘坐绿皮火车，看到别人打开烧鸡，馋得直咽口水",
        "docid": "7355770499282797065",
        "url": ""
    },
    {
        "title": "2009年开国少将金如栢的妻子与两位儿子的合影",
        "docid": "7362505113555960354",
        "url": ""
    },
    {
        "title": "民国奇人张静江的两位夫人：她们为张静江生下十个女儿，个个貌美",
        "docid": "7353209430039740938",
        "url": ""
    },
    {
        "title": "丞相是丞相，宰相是宰相，两者一字之差却天壤之别，可别分不清楚",
        "docid": "7349880671294358057",
        "url": ""
    },
    {
        "title": "万恶旧社会老照片：露出大胖腿的女掌柜，地主调戏长工家的女儿！",
        "docid": "7375505602113012276",
        "url": ""
    },
    {
        "title": "学过的历史在追风者完成闭环？重翻历史书,才懂几句话分量有多重",
        "docid": "7354602557899031090",
        "url": ""
    },
    {
        "title": "武王墩墓的盗墓贼“夏某”，真的比考古领队更厉害吗？",
        "docid": "7362392655440970259",
        "url": ""
    },
    {
        "title": "现实中真能削铁如泥吗？看“百炼成钢”的龙泉剑究竟有多锋利",
        "docid": "7346124426561192463",
        "url": ""
    },
    {
        "title": "1964年全军大比武影像：侦察兵大显身手，战斗力令人惊叹",
        "docid": "7348616763304575498",
        "url": ""
    },
    {
        "title": "吕布没杀过任何名将，为何会被公认三国第一猛将？这里面大有学问",
        "docid": "7375683194449887782",
        "url": ""
    },
    {
        "title": "隋唐中惨死的六大猛将，李元霸被亲哥哥害死，罗成最命不该绝",
        "docid": "7353648803209298459",
        "url": ""
    },
    {
        "title": "“广西王”的私人庭院：将省会从桂林搬到南宁，他干的",
        "docid": "7349114389301314083",
        "url": ""
    },
    {
        "title": "魏美人至死不知，“沉迷于她美色”的楚王，为啥“割掉”她的鼻子",
        "docid": "7343870304445415986",
        "url": ""
    },
    {
        "title": "《知否》里面的明兰、顾廷烨、齐衡等人在靖康之难时的结局",
        "docid": "7358480123097612810",
        "url": ""
    },
    {
        "title": "甘肃发现一壁画，让人热泪盈眶：解放百万汉人的英雄，终于找到了",
        "docid": "7343478945503183410",
        "url": ""
    },
    {
        "title": "为什么楚国国君感觉一直叫王，其他六国国君一直叫公 ？",
        "docid": "7361791316621197861",
        "url": ""
    },
    {
        "title": "雍正王朝：邬思道与佟国维的隔空对决，竟输了？信息不对等的结果",
        "docid": "7348299837689053746",
        "url": ""
    },
    {
        "title": "为何古代没人敢伪造圣旨？你看圣旨第一个字是啥，怎么造？",
        "docid": "7343497090519319066",
        "url": ""
    },
    {
        "title": "乾隆的那拉皇后到底为什么会失宠？网友评论让我恍然大悟",
        "docid": "7375420818270847526",
        "url": ""
    },
    {
        "title": "一个节度使有多少兵？膨胀的节度使令人咋舌",
        "docid": "7355741742773256767",
        "url": ""
    },
    {
        "title": "大如选秀姗姗来迟想要的效果，就是为了惊艳你们所有人",
        "docid": "7373579066655408692",
        "url": ""
    },
    {
        "title": "希腊发现1800年前的阿波罗神像",
        "docid": "7352782343582548531",
        "url": ""
    },
    {
        "title": "1904年，王维勤被活剐凌迟时一张罕见留影，面向人群，一脸的绝望",
        "docid": "7361724133568201231",
        "url": ""
    },
    {
        "title": "雍正曾告诫子孙，这两人不可杀，为何乾隆登基后却马上凌迟处死？",
        "docid": "7351324483237560867",
        "url": ""
    },
    {
        "title": "明朝在北京一套六部，在南京一套六部，请问南京六部平时做什么？",
        "docid": "7368136575471206953",
        "url": ""
    },
    {
        "title": "四羊方尊为何未列入国家博物馆的镇馆之宝？评论区网友们道出真相",
        "docid": "7355352153953059363",
        "url": ""
    },
    {
        "title": "皇帝找算命先生测字，付钱时却遭拒绝，算命先生：死人的钱不收！",
        "docid": "7366568824356799039",
        "url": ""
    },
    {
        "title": "为何说若正德不死明朝不亡？看他的3大战略布局，他才是千古一帝",
        "docid": "7375096072861008411",
        "url": ""
    },
    {
        "title": "开国中将万毅回忆：梁兴初说\"老万,你看中央委员里还有姓万的\"",
        "docid": "7354148561438786098",
        "url": ""
    },
    {
        "title": "伊朗出土元朝羊皮信，学术界研究后震惊：波斯可能曾是中国一个省",
        "docid": "7376136671961629234",
        "url": ""
    },
    {
        "title": "1974年，20岁知青报恩娶31岁寡妇，养6个孩子放弃返乡，至今不悔",
        "docid": "7372481022686839311",
        "url": ""
    },
    {
        "title": "日本给唐高宗李治进献2个美女，一夜春宵后，她们就被关进了牢笼",
        "docid": "7375356079166767625",
        "url": ""
    },
    {
        "title": "朱祁钰谥号由戾变景，说明朱祁镇无法抹除他的功绩，公道自在人心",
        "docid": "7347721618761777664",
        "url": ""
    },
    {
        "title": "美国“犹”我来做主，有网友扒出1980年时内塔尼亚胡的采访记录！",
        "docid": "7376175554883617319",
        "url": ""
    },
    {
        "title": "真正灭亡大唐的其实是吐蕃，双方大战二百年都损失惨重致同归于尽",
        "docid": "7368440318650286628",
        "url": ""
    },
    {
        "title": "军阀井岳秀手下的俩小兵，一个创建了陕北红军，一个成了开国上将",
        "docid": "7372525355925652006",
        "url": ""
    },
    {
        "title": "写进教科书的情书，在福建......",
        "docid": "7376106472381350415",
        "url": ""
    },
    {
        "title": "紫阳真人收李元霸为徒，其实是为了保护自己的大弟子，宇文成都",
        "docid": "7358736593736286760",
        "url": ""
    },
    {
        "title": "公元前79年，广川王刘去从井中捞出一女子，然后扔入大锅中煮成粥",
        "docid": "7351793999755280911",
        "url": ""
    },
    {
        "title": "川军排长神秘失踪，妻子苦寻60载，年过耄耋才知，丈夫竟是枕边人",
        "docid": "7355786782035771930",
        "url": ""
    },
    {
        "title": "中国历史上11位女中豪杰，女人中的扛把子你知道几个？惊喜在最后",
        "docid": "7361017499682456114",
        "url": ""
    },
    {
        "title": "崇洋媚外 抹黑历史的高晓松，早就走上了不归之路",
        "docid": "7376091447664722451",
        "url": ""
    },
    {
        "title": "黄姓开基祖，江夏世家，黄俏山公墓",
        "docid": "7362522245526192651",
        "url": ""
    },
    {
        "title": "蜀汉最独特的大将：关羽忌惮，张飞将他视作仇人，刘备却非常喜欢",
        "docid": "7376147882031858239",
        "url": ""
    },
    {
        "title": "加拉罕宣言：无偿归还沙俄抢占中国的所有领土！为何苏联没有执行",
        "docid": "7376134218012705332",
        "url": ""
    },
    {
        "title": "1988年，91岁于凤至在美国别墅里的珍贵照片，身体显瘦，头发花白",
        "docid": "7350703356093956627",
        "url": ""
    },
    {
        "title": "刘邦驾崩15年后，托孤大臣杀光他嫡孙，历史证明刘邦杀功臣没有错",
        "docid": "7344362676242039336",
        "url": ""
    },
    {
        "title": "这支军队攻打中国，却因迷路回不去，滞留中国200年，现加入中国",
        "docid": "7346166871965614628",
        "url": ""
    },
    {
        "title": "长孙无忌灭族的真相，比你想的要复杂",
        "docid": "7365399626456859162",
        "url": ""
    },
    {
        "title": "百年前中国在这个战场上不战而败，如今我们定要打赢这场战争",
        "docid": "7376085638350750234",
        "url": ""
    },
    {
        "title": "韩信要是听从蒯通的建议，能否与刘邦项羽三分天下？答案是不可能",
        "docid": "7360133189744099840",
        "url": ""
    },
    {
        "title": "徐庶母亲自杀后，为何他不愿再找刘备？背后跟诸葛亮脱不了关系！",
        "docid": "7376176111107867148",
        "url": ""
    },
    {
        "title": "破碎的巴勒斯坦，人口仅剩5分之1，呼唤全球心声的和平巨浪！",
        "docid": "7376154925350322728",
        "url": ""
    },
    {
        "title": "李世民为什么不等李渊死了再做皇帝？网友：当时李世民骑虎难下",
        "docid": "7376174105139233334",
        "url": ""
    },
    {
        "title": "他临刑前留下10多张照片，有微笑，背影，行刑，有一张扭头找妻女",
        "docid": "7371741729906770482",
        "url": ""
    },
    {
        "title": "刘禅投降后写了3字，司马昭不敢杀他，群臣不解，司马昭：倒着看",
        "docid": "7343445543202587146",
        "url": ""
    },
    {
        "title": "她是赫赫有名的红军女战士，曾被困在家中，如今却打破了传统束缚",
        "docid": "7376160607639044644",
        "url": ""
    },
    {
        "title": "古代有那么多银子，为什么现在却消失不见了?历史研究给出了答案",
        "docid": "7350977876335985206",
        "url": ""
    },
    {
        "title": "中国有一家族：出59位丞相、59位将军、55位尚书，全因这12条家训",
        "docid": "7363576307239862810",
        "url": ""
    },
    {
        "title": "名师高徒之吕布出世",
        "docid": "7364338292496105984",
        "url": ""
    },
    {
        "title": "古代没有空调风扇，怎能扛过炎炎夏日？有钱人的快乐你想象不到",
        "docid": "7376077734717440524",
        "url": ""
    },
    {
        "title": "克格勃少校叛逃后，把西方情报界搅得天翻地覆，让苏联恨不起来",
        "docid": "7376177916545073718",
        "url": ""
    },
    {
        "title": "历史上著名5大毒计，让人冷汗直流，最后一个堪称不世出之毒计",
        "docid": "7372795148888965673",
        "url": ""
    },
    {
        "title": "诸葛亮与王朗辩论，王朗更有道理，为什么获胜的是诸葛亮?",
        "docid": "7376178638858879514",
        "url": ""
    },
    {
        "title": "距今3000多年！我国新发现一处岩画群！",
        "docid": "7376073169800544831",
        "url": ""
    },
    {
        "title": "1900年震撼国魂：八国联军侵华背后的真相与民族抗争",
        "docid": "7376128285295641099",
        "url": ""
    },
    {
        "title": "大明朝的悲剧：崇祯帝算卦“有酉”预示国运垮台",
        "docid": "7376187574747955712",
        "url": ""
    },
    {
        "title": "长城，真的有用吗？美国专家：长城把欧洲害惨了，欧洲乱成一锅粥",
        "docid": "7375497624437146147",
        "url": ""
    },
    {
        "title": "王莽建立新朝后，当了15年的皇帝，这15年里他都在干什么",
        "docid": "7376115628526830099",
        "url": ""
    },
    {
        "title": "美国为何有数十万苗族，他们都来自哪里，和中国的苗族有何渊源？",
        "docid": "7376157384386855478",
        "url": ""
    },
    {
        "title": "牛皋怒撕圣旨，宋皇赵构生死与我何干？我眼里只有黎民和岳大哥",
        "docid": "7375285901700497947",
        "url": ""
    },
    {
        "title": "古代的“温柔”刑罚，用动物的器官行刑，让人在欢声笑语中死去",
        "docid": "7376155852819939891",
        "url": ""
    },
    {
        "title": "农妇运500发子弹给八路，遇8名伪军盘查，掏布包后伪军：您慢走！",
        "docid": "7350849535171625513",
        "url": ""
    },
    {
        "title": "1994年，一场屠杀百万人丧命，50万女子遭强奸，法国在幕后推动？",
        "docid": "7376141038429143552",
        "url": ""
    },
    {
        "title": "古代闹饥荒，百姓们为什么不抓河中的鱼虾，而是去吃草根 啃树皮",
        "docid": "7376185493988114979",
        "url": ""
    },
    {
        "title": "9个英国兵叛逃孤岛，联合土著女人消灭土著男人，孕育出罪恶习俗",
        "docid": "7376203392772801039",
        "url": ""
    },
    {
        "title": "庆余年2：悬空寺刺杀事件，实际是庆帝的布局，他有三个目的",
        "docid": "7375560732957606438",
        "url": ""
    },
    {
        "title": "死战不退，谁能抵挡张飞100个回合？整个三国，恐怕只有4人能做到",
        "docid": "7375122056154776098",
        "url": ""
    },
    {
        "title": "杨家将后代竟然称霸一方，霸占一方土地长达600年，历经三朝不灭",
        "docid": "7366589637512446476",
        "url": ""
    },
    {
        "title": "兄弟姐妹即使断交了，也要帮这三个忙，这不是心机，而是远见",
        "docid": "7356060477232792074",
        "url": ""
    },
    {
        "title": "全世界越混越惨的国家，自己没有独立领土，只有2栋楼还得交租金",
        "docid": "7376170072345149952",
        "url": ""
    },
    {
        "title": "好险！赵尔丰1910年清亡前收复西藏！晚一步后果不堪设想！",
        "docid": "7367027795391676963",
        "url": ""
    },
    {
        "title": "1898年晚清社会真实照片集，官庭腐败，百姓苦不堪言",
        "docid": "7346108026014859786",
        "url": ""
    },
    {
        "title": "乾隆为何给袁崇焕平反？",
        "docid": "7375367997034103311",
        "url": ""
    },
    {
        "title": "越南最美皇后：国王许她一夫一妻，婚后生5胎，却因衰老而被抛弃",
        "docid": "7375842394098467366",
        "url": ""
    },
    {
        "title": "中国血脉就是一个巨大的错题本! 网友:老祖宗传承的基因果然不一样",
        "docid": "7375816757308670527",
        "url": ""
    },
    {
        "title": "情深深雨濛濛：军阀陆振华到上海时几乎没兵，他的部队去哪里了？",
        "docid": "7375891376006791680",
        "url": ""
    },
    {
        "title": "野史到底能有多野",
        "docid": "7376208772232004146",
        "url": ""
    },
    {
        "title": "俄罗斯辛辛苦苦创业1000年，一朝不慎，回到1000年以前",
        "docid": "7345828980442202639",
        "url": ""
    },
    {
        "title": "李世民为何不阻止处罗掠夺并州美妇人？为何背锅的是李密的叔叔？",
        "docid": "7376090160200499746",
        "url": ""
    },
    {
        "title": "《庆余年》庆帝两大奇谋：杀叶轻眉独揽大权，大东山实现一箭三雕",
        "docid": "7374652236305023488",
        "url": ""
    },
    {
        "title": "长江不是统一的障碍",
        "docid": "7376115139361309199",
        "url": ""
    },
    {
        "title": "乾隆八年，12天热死11400人，中国历史上最热的夏天究竟有多热？",
        "docid": "7375442965012972043",
        "url": ""
    },
    {
        "title": "3600多年前，楚国从哪里来？",
        "docid": "7369752385553629696",
        "url": ""
    },
    {
        "title": "我国历史有1500年“空白期”，无任何史料记载，中间发生了什么？",
        "docid": "7376206048660636214",
        "url": ""
    },
    {
        "title": "你以为我在“洗白”安禄山，你错了，这才是历史上真实的安禄山",
        "docid": "7375925780229997065",
        "url": ""
    },
    {
        "title": "中国长城到底有没有用？美国专家说出7个字：长城害惨了欧洲",
        "docid": "7355082456800068136",
        "url": ""
    },
    {
        "title": "得知被判死刑，他面带微笑，转过身寻找妻子的镜头，看哭了记者",
        "docid": "7366262178058371596",
        "url": ""
    },
    {
        "title": "1930年，少帅张学良和私人顾问，在北戴河合影，没有想象中那么帅",
        "docid": "7365479620881318436",
        "url": ""
    },
    {
        "title": "罗斯柴尔德家族与以色列是什么关系？",
        "docid": "7373970894471692834",
        "url": ""
    },
    {
        "title": "韦小宝为什么能忽悠住《鹿鼎记》里的各色人等？",
        "docid": "7375372263375340059",
        "url": ""
    },
    {
        "title": "乾隆八年号称“史上最热的夏天”，到底热到啥程度？超乎你的想象",
        "docid": "7353589457620042274",
        "url": ""
    },
    {
        "title": "被父亲戴了绿帽子的李瑁，最后是什么结局？",
        "docid": "7352503790676951587",
        "url": ""
    },
    {
        "title": "南宋为了报靖康之耻手段有多狠？拼着灭国将百万金人弄到只剩10万",
        "docid": "7376232297453961767",
        "url": ""
    },
    {
        "title": "秦始皇为何自称“朕”？将“朕”字拆开来看看，原来内有乾坤",
        "docid": "7376208294518309410",
        "url": ""
    },
    {
        "title": "诸葛亮临终前刘禅派人慰问，诸葛亮瞬间明白：阿斗一直在装傻",
        "docid": "7376098809346032162",
        "url": ""
    },
    {
        "title": "世界谜题：四大古国中印度和埃及都还在，为什么世界只承认中国？",
        "docid": "7376225451972280844",
        "url": ""
    },
    {
        "title": "晋太妃：13岁入宫嫁给88岁乾隆，14岁守寡，独守空房历经三朝",
        "docid": "7374981192107573775",
        "url": ""
    },
    {
        "title": "战国七雄各国的首席名将分别是谁？",
        "docid": "7375212482891235850",
        "url": ""
    },
    {
        "title": "血战香积寺：4个时辰伤亡十三万人，却为大唐帝国续命150年！",
        "docid": "7376242394351649291",
        "url": ""
    },
    {
        "title": "清朝亡了一百多年，为何至今还有人守皇陵，他们是谁？工资谁发？",
        "docid": "7355745624559485455",
        "url": ""
    },
    {
        "title": "古代屠城是每个人都要找出来处死吗?网友的回复，我彻底被震撼了",
        "docid": "7376155011049177600",
        "url": ""
    },
    {
        "title": "历史上的杨家将：杨业归宋之后，迁居首都的府邸",
        "docid": "7376053135707537983",
        "url": ""
    },
    {
        "title": "难怪武则天非杀王皇后，你看不杀的后果，会有多么悲惨？",
        "docid": "7368740208465953317",
        "url": ""
    },
    {
        "title": "破碎的巴勒斯坦，人口仅剩5分之1，呼唤全球心声的和平巨浪！",
        "docid": "7376116624312566326",
        "url": ""
    },
    {
        "title": "曹操死后，曹丕为什么声称要斩杀刘备遣去吊丧的韩冉？",
        "docid": "7375930505634398730",
        "url": ""
    },
    {
        "title": "127岁湖南老寿星：13个子女却无人活过18岁，长寿秘诀引热议",
        "docid": "7376247247505195574",
        "url": ""
    },
    {
        "title": "张学良之子回乡省亲，中央为何委托当地政府，付给张家2000万巨款",
        "docid": "7376100321720648230",
        "url": ""
    },
    {
        "title": "1995年辛普森案件：前妻被杀证据统统指向辛普森，为何无罪释放？",
        "docid": "7376226363222655498",
        "url": ""
    },
    {
        "title": "仍未统一的发达国家：其南方重镇被外国占领300年，至今无法收复",
        "docid": "7370217514623599130",
        "url": ""
    },
    {
        "title": "丈夫是混蛋，她独自培养出4位中央委员，临终不知儿子已壮烈牺牲",
        "docid": "7353555452354921012",
        "url": ""
    },
    {
        "title": "1949年太原，国军师长戴炳南执行死刑前，两眼空洞，一脸的绝望",
        "docid": "7347709700223304246",
        "url": ""
    },
    {
        "title": "“我不杀伯仁，伯仁却因我而死”这句名句背后究竟有啥隐情和逻辑",
        "docid": "7346858380147229193",
        "url": ""
    },
    {
        "title": "民国败家子盛恩颐：贪女色迷豪赌败光亿万家产，晚年饿死在家门口",
        "docid": "7376082389589819919",
        "url": ""
    },
    {
        "title": "千钧一发，一个决定拯救了全世界，所有人都应该感谢这个男人",
        "docid": "7344255039763956287",
        "url": ""
    },
    {
        "title": "晚清重臣彭玉麟：人称“活阎王”，一生专杀纨绔子弟，却无人敢动",
        "docid": "7368060406616850944",
        "url": ""
    },
    {
        "title": "中国第二条超级运河开建，狂砸727.3亿却为何拆掉这么多大桥？",
        "docid": "7376197706722656783",
        "url": ""
    },
    {
        "title": "军阀杨森娶12个老婆，90岁时17岁小妾问：有几个是心甘情愿嫁你的",
        "docid": "7375912716743770665",
        "url": ""
    },
    {
        "title": "不列颠空战的失败有多严重？德国空军几乎打光自己的后备力量",
        "docid": "7376231374338032154",
        "url": ""
    },
    {
        "title": "这个日本女人嫁给“抗日将军”后，与娘家决裂，女儿嫁给了钱学森",
        "docid": "7376251772325380644",
        "url": ""
    },
    {
        "title": "赵匡胤问道士：你给算算朕还能活多少年？道士：陛下活不过今年了",
        "docid": "7376228390367543817",
        "url": ""
    },
    {
        "title": "吉尔吉斯斯坦：曾3次归属中国？其百姓自称汉朝名将李陵后裔",
        "docid": "7360970399821267492",
        "url": ""
    },
    {
        "title": "明末老百姓有多惨？看看山东举人的恐怖日记：想要活下去，太难了",
        "docid": "7345361713979752970",
        "url": ""
    },
    {
        "title": "大清已灭亡一百余年，而乾隆7世孙仍穿龙袍祭祖，家里金碧辉煌",
        "docid": "7375933130773758516",
        "url": ""
    }
]