[
    {
        "title": "假如把韩信放到三国，大致相当于谁的水平？网友逆天神评无敌了！",
        "docid": "7345082186489463331",
        "url": ""
    },
    {
        "title": "溥仪都退位了！陕甘总督还在率清军攻城，连攻下18座城，险些翻盘",
        "docid": "7318660579727262219",
        "url": ""
    },
    {
        "title": "末代皇帝溥仪大婚现场：婉容长得确实漂亮，但吸食鸦片后不忍直视",
        "docid": "7320288245538144778",
        "url": ""
    },
    {
        "title": "古代的四大“流放”地，都是现在的哪里？看看有没有你的家乡",
        "docid": "7333191729933402651",
        "url": ""
    },
    {
        "title": "中国古代为什么很少跟白人发生战争？",
        "docid": "7346541627068973619",
        "url": ""
    },
    {
        "title": "李渊的野心有多大？若将他四个儿子的名字连起来读，你就能明白了",
        "docid": "7319709526859858469",
        "url": ""
    },
    {
        "title": "当年买了泰坦尼克号票的8位顶级富豪，为何开船前，却都没上船？",
        "docid": "7313434018945712678",
        "url": ""
    },
    {
        "title": "日本财阀全景图",
        "docid": "7334869791821595145",
        "url": ""
    },
    {
        "title": "三井财团根基有多深？侵华日军背后的财主？产品至今在中国畅销？",
        "docid": "7326133603484647946",
        "url": ""
    },
    {
        "title": "我们真是误会马谡了，街亭之战排兵布阵问题不大，错在诸葛亮失察",
        "docid": "7344954690930655753",
        "url": ""
    },
    {
        "title": "一个美丽的岛国，曾被美国打的稀巴烂，如今人均GDP已达9000美元",
        "docid": "7346435284822901260",
        "url": ""
    },
    {
        "title": "纳粹的标准“卐字”到底是什么意思？以至于整个欧洲几乎都被禁用",
        "docid": "7321680573172908595",
        "url": ""
    },
    {
        "title": "历史上真实李白：一辈子不工作，还能有四段婚姻，他的钱从哪里来",
        "docid": "7320824429687456297",
        "url": ""
    },
    {
        "title": "亚历山大灭亡波斯，俘1万波斯贵妇，强迫部下：一人挑一个结婚",
        "docid": "7327924434680136255",
        "url": ""
    },
    {
        "title": "那些年阔绰的知识分子：笔墨摇钱，住大宅坐福特，有私厨佣人伺候",
        "docid": "7327491512060002855",
        "url": ""
    },
    {
        "title": "拍《九层妖塔》的荒镇为何会被废弃？因发现罕见物质全城被迫转移",
        "docid": "7324317771994333696",
        "url": ""
    },
    {
        "title": "这位低调的明朝皇帝，在位仅六年，把全世界一半的白银都赚回来了",
        "docid": "7315757616381035043",
        "url": ""
    },
    {
        "title": "俾斯麦的饮食生活：来自普鲁士的干饭王，每天都在暴饮暴食",
        "docid": "7346280027585135123",
        "url": ""
    },
    {
        "title": "商朝国都朝歌，周朝国都西岐，如今这两大名地分别位于什么地方？",
        "docid": "7327578533865062948",
        "url": ""
    },
    {
        "title": "他夺取外孙帝位，统一天下，却被儿子所杀：死后他的陵墓成了地名",
        "docid": "7315970430987174400",
        "url": ""
    },
    {
        "title": "社会特权是怎产生的",
        "docid": "7345793127069844005",
        "url": ""
    },
    {
        "title": "北京最正宗的富二代、官二代，一千个王思聪都“玩”不赢一个他",
        "docid": "7345777576369619468",
        "url": ""
    },
    {
        "title": "《封神演义》中，为何没有神仙敢杀商纣王？女娲娘娘：我都不敢",
        "docid": "7323137822263968265",
        "url": ""
    },
    {
        "title": "蒋介石逃往台湾，因飞机超重扔下10块“石头”，结果却成镇国之宝",
        "docid": "7314202150366691859",
        "url": ""
    },
    {
        "title": "清末老照片：晚清名妓貌美如花，光绪帝存世唯一照片还是偷拍的",
        "docid": "7346608234523902475",
        "url": ""
    },
    {
        "title": "这些古人做出来的东西，放在今天看，依然相当炸裂…",
        "docid": "7320550967022371347",
        "url": ""
    },
    {
        "title": "在古代朝鲜，女医生为什么会被称为“医妓”，她们的工作是什么？",
        "docid": "7341226491324023348",
        "url": ""
    },
    {
        "title": "明清时期的山西虎患：上千人命丧虎口，因美洲作物的传入而消失",
        "docid": "7333876171505173004",
        "url": ""
    },
    {
        "title": "三国后期第一猛将，不仅战功赫赫，还名震塞外，最后却被夷灭三族",
        "docid": "7346554422983623207",
        "url": ""
    },
    {
        "title": "1955年，福建渔民海上追捕国军精锐“海龙蛙兵”真实录像",
        "docid": "7336859316831715850",
        "url": ""
    },
    {
        "title": "国父孙中山唯一原声录音，国语中带着粤腔，呼吁国民觉醒",
        "docid": "7319079211602281012",
        "url": ""
    },
    {
        "title": "孟加拉一亿多人口，为什么毫无存在感？看看真实的孟加拉是什么样",
        "docid": "7319378960809394726",
        "url": ""
    },
    {
        "title": "1968年阿根廷前海军司令与记者持剑决斗真实影像",
        "docid": "7318002866726601226",
        "url": ""
    },
    {
        "title": "爷爷是上将，奶奶是13级干部，本该养尊处优的她，选择从底层做起",
        "docid": "7326061132266045964",
        "url": ""
    },
    {
        "title": "汉宣帝刘病已将西汉推向巅峰，功绩超过汉武帝，为何知名度却不高",
        "docid": "7336162356717928970",
        "url": ""
    },
    {
        "title": "苏联曾有三次机会掀翻美国，赢得冷战的胜利，为何最后全部失败？",
        "docid": "7317915106111799871",
        "url": ""
    },
    {
        "title": "军统特训班中校教官回忆：学员要练五种暗杀术，其中一种是点穴杀",
        "docid": "7346472703014027791",
        "url": ""
    },
    {
        "title": "红军长征时那“吃人”的草地，现在变得怎么样？",
        "docid": "7325351514259210803",
        "url": ""
    },
    {
        "title": "再美丽的王妃，也只是个提线木偶？在权力面前，美貌一文不值？",
        "docid": "7346525217033912832",
        "url": ""
    },
    {
        "title": "310万平方公里，却只不到100万人！那么大的土地，为啥却不生娃？",
        "docid": "7345670012188787234",
        "url": ""
    },
    {
        "title": "唐朝古籍里发现月亮的离奇记载：表面凹凸不平，有8万名专人维修",
        "docid": "7316781498849067530",
        "url": ""
    },
    {
        "title": "为什么东汉除了开头结尾，很少有人了解？东汉中期到底是怎么回事",
        "docid": "7322267646089576975",
        "url": ""
    },
    {
        "title": "曹操明知道北征乌桓的凶险，为何还要出征？消灭二袁只是顺便",
        "docid": "7346033797361779237",
        "url": ""
    },
    {
        "title": "孩子命里有没有钱，别看房子、家境，要看以下三点",
        "docid": "7318211555332735539",
        "url": ""
    },
    {
        "title": "他“掐死”小萝卜头获赏50大洋，解放后去自首，公安局：既往不咎",
        "docid": "7314214973184475659",
        "url": ""
    },
    {
        "title": "历史上不被承认的朝代",
        "docid": "7329526102106423842",
        "url": ""
    },
    {
        "title": "1057年，一家六口进京赶考，竟然全中进士？朝野为之哗然",
        "docid": "7336176378909901347",
        "url": ""
    },
    {
        "title": "杨宇霆企图建立“大辽国”",
        "docid": "7346213892542988815",
        "url": ""
    },
    {
        "title": "当年如再深挖300米，大庆油田就成日本的了，中国历史会改写吗？",
        "docid": "7342676090290782758",
        "url": ""
    },
    {
        "title": "大英帝国是如何失去海上霸权的",
        "docid": "7316079850337403428",
        "url": ""
    },
    {
        "title": "1945年真实影像：国军无视英军强行入港，香港差点提前52年回归！",
        "docid": "7345486495995658767",
        "url": ""
    },
    {
        "title": "拍马屁到这种境界，也就刘伯温能做到了，朱元璋被骂都心服口服！",
        "docid": "7329521151921783330",
        "url": ""
    },
    {
        "title": "花费50亿法郎建造马奇诺防线，内部超豪华，却只是个摆设？",
        "docid": "7324328633232228905",
        "url": ""
    },
    {
        "title": "中国最神秘的朝代，存世1600多年，为何至今不被世界各国认可？",
        "docid": "7345388118448833033",
        "url": ""
    },
    {
        "title": "历史上的某一天是星期几，不用查日历也能知道！",
        "docid": "7339156013926842920",
        "url": ""
    },
    {
        "title": "丞相是丞相，宰相是宰相，两者一字之差却天壤之别，可别分不清楚",
        "docid": "7327989250002076212",
        "url": ""
    },
    {
        "title": "秦始皇陵为何至今都不敢挖？德国专家核磁扫描后，发现墓中不一般",
        "docid": "7316847274096312895",
        "url": ""
    },
    {
        "title": "是谁击落了马航飞机？全面解密2014年“马航飞机”解体之谜",
        "docid": "7327976939266802214",
        "url": ""
    },
    {
        "title": "印度学者问李光耀：如何让印度崛起？李光耀：没人能改变印度",
        "docid": "7346509178652934695",
        "url": ""
    },
    {
        "title": "有家不能回的民族，印度华人正在纷纷逃离印度",
        "docid": "7335820424599323176",
        "url": ""
    },
    {
        "title": "徐世昌和他的后人们",
        "docid": "7346383989424357928",
        "url": ""
    },
    {
        "title": "汉和帝刘肇：9岁登基，这个不起眼的小皇帝，是真正的政治天才",
        "docid": "7323526415679947264",
        "url": ""
    },
    {
        "title": "为什么神仙在商朝时候可以干预人间，到了周朝却再不能干预人间？",
        "docid": "7337640509558784562",
        "url": ""
    },
    {
        "title": "大明王朝：看懂海瑞的经历与结局，你就懂了大明朝的3个官场真相",
        "docid": "7330255661617955365",
        "url": ""
    },
    {
        "title": "台湾黑帮大佬张安乐：一人掀动整个台湾，为统一立下汗马功劳",
        "docid": "7332015430074499595",
        "url": ""
    },
    {
        "title": "武则天衣锦还乡，上一刻一笑泯恩仇，下一刻心狠手辣报旧怨。",
        "docid": "7345765569884832296",
        "url": ""
    },
    {
        "title": "26张晚清老照片，名妓果然是名妓，就算是放在今天那也是妥妥美女",
        "docid": "7323118885539021366",
        "url": ""
    },
    {
        "title": "为何韩信是兵仙而霍去病不是？相比之下，韩信强还是霍去病厉害",
        "docid": "7330460063905399332",
        "url": ""
    },
    {
        "title": "杜月笙的老婆到底有多美？看这些老照片就知道了，美艳不可方物",
        "docid": "7330529930566009384",
        "url": ""
    },
    {
        "title": "取天下最难的一位开国雄主，不是他起点差能力差，而是出身太差了",
        "docid": "7333795871169036837",
        "url": ""
    },
    {
        "title": "比干被挖心后，明明已经活下来，为何见一卖菜老妇，便当场毙命",
        "docid": "7322402047092392488",
        "url": ""
    },
    {
        "title": "岳飞遇害当日，十万岳家军为什么没来劫法场？看看监斩官就知道了",
        "docid": "7345798684460941824",
        "url": ""
    },
    {
        "title": "数说｜中国最喜欢打牌的地方是哪里？",
        "docid": "7335334246883951142",
        "url": ""
    },
    {
        "title": "苏联解体15年后，戈尔巴乔夫告诫中国一句话，到底有何用意？",
        "docid": "7324644440201675276",
        "url": ""
    },
    {
        "title": "六千名英法联军进攻北京，曾国藩拥有12万大军，为何却见死不救？",
        "docid": "7345761874123850259",
        "url": ""
    },
    {
        "title": "忽必烈要求日本臣服，被拒绝后开始屠杀",
        "docid": "7346568003930243638",
        "url": ""
    },
    {
        "title": "她因长得漂亮，被日军军官强行霸占5年，还生下女儿却至死未见面",
        "docid": "7315657587323339283",
        "url": ""
    },
    {
        "title": "刘邦和朱元璋相比，谁是更优秀？不吹不黑，九个方面对比！",
        "docid": "7340834755287859746",
        "url": ""
    },
    {
        "title": "算算民国第一艳星有多赚钱 拉洋车9块大洋一月 她一夜玩掉8万大洋",
        "docid": "7346640159749849600",
        "url": ""
    },
    {
        "title": "俄国的东方不冻港之梦：从沙俄到苏联再到现代，有实现的可能吗？",
        "docid": "7334324857133711912",
        "url": ""
    },
    {
        "title": "“婆罗门”横亘华夏八百年，社会堪比印度，直到有人抄起40米大刀",
        "docid": "7339440239901082146",
        "url": ""
    },
    {
        "title": "黄巢最后一战对上师弟李存孝，罗家枪会禹王神槊，落败自刎灭巢山",
        "docid": "7325748095986745871",
        "url": ""
    },
    {
        "title": "被起义者视角下的南昌起义",
        "docid": "7346536216311136778",
        "url": ""
    },
    {
        "title": "历史上的英国童工：年仅三岁就被买来扫烟囱，经常有儿童被卡死亡",
        "docid": "7345558704088941107",
        "url": ""
    },
    {
        "title": "曹操告诉你，为什么别轻易和亲戚断交",
        "docid": "7329306813722133007",
        "url": ""
    },
    {
        "title": "帝国坟场-阿富汗，仅凭一己之力，硬生生拖垮了3届世界霸主",
        "docid": "7346084110366032422",
        "url": ""
    },
    {
        "title": "1949年上海国军排队登船撤退台湾真实影像，大部分人自此没有回来",
        "docid": "7317949424594846242",
        "url": ""
    },
    {
        "title": "中年危机 蒋介石也不例外 仕途不顺 炒股赔光 家人去世 儿子读书都没钱",
        "docid": "7346638536013873699",
        "url": ""
    },
    {
        "title": "俄罗斯在2次车臣之战、俄格战争大获全胜，为何在乌克兰举步维艰",
        "docid": "7319119013001429555",
        "url": ""
    },
    {
        "title": "悲惨的民国“拉车人”：几乎都活不过40岁，一生渴望拥有黄包车！",
        "docid": "7346493327430222377",
        "url": ""
    },
    {
        "title": "历史上申不害变法使得韩国国盛兵强，可为何说他的变法失败了？",
        "docid": "7346600756578894374",
        "url": ""
    },
    {
        "title": "赵匡胤的自嘲：明明是开国皇帝，却过得异常憋屈",
        "docid": "7345409633585086976",
        "url": ""
    },
    {
        "title": "北洋政府：军阀混战时期，却从未忘记统一，丢失领土皆在地图中",
        "docid": "7346259913838051903",
        "url": ""
    },
    {
        "title": "太平洋战争最惨烈一战！10万美军被2万日军围殴2小时！美军的梦魇",
        "docid": "7338378832808051210",
        "url": ""
    },
    {
        "title": "1927年张宗昌急行军真实影像，人均负重40斤，速度快如闪电！",
        "docid": "7343481693824614912",
        "url": ""
    },
    {
        "title": "20岁知青小伙，为报恩娶31岁寡妇，带4个孩子，至今仍守在大山里",
        "docid": "7323128376573870611",
        "url": ""
    },
    {
        "title": "1955年国军撤离大陈岛影像：美国舰队运输，男女老少全部离岛!",
        "docid": "7318704077872103990",
        "url": ""
    },
    {
        "title": "非洲黑人天生的奸、懒、馋、滑？地理因素解释非洲社会为什么这样",
        "docid": "7326585841135256083",
        "url": ""
    },
    {
        "title": "1943年汪精卫对英美宣战实录：叫嚣与日本共存亡，汉奸们高呼万岁",
        "docid": "7325753136948183589",
        "url": ""
    },
    {
        "title": "1960年的台湾省真实影像",
        "docid": "7327698645032108544",
        "url": ""
    },
    {
        "title": "曹髦用天子之血捍卫尊严，将司马家永远钉在耻辱柱上。#三国",
        "docid": "7329460654274937385",
        "url": ""
    },
    {
        "title": "大型纪录片缅北白应苍覆灭，依警还乡#白应苍 #白所成",
        "docid": "7330292082495619599",
        "url": ""
    },
    {
        "title": "奥尔布莱特：美国说到就能做到，美国军队很棒，不用就是浪费",
        "docid": "7322408653628113443",
        "url": ""
    },
    {
        "title": "1991年1月17日，老布什通过直播，向全世界宣布海湾战争正式打响",
        "docid": "7343504737037681186",
        "url": ""
    },
    {
        "title": "吕雉执政掌权后，为何单独没有杀刘邦的第一个情人？",
        "docid": "7317190618306839074",
        "url": ""
    },
    {
        "title": "南海惊现“水晶宫”，金银满地价值3000亿美金，发掘现场叹为观止",
        "docid": "7313898209259192866",
        "url": ""
    },
    {
        "title": "1901年，浙江金华知府大人出行照，八人抬轿，官架十足",
        "docid": "7334649066930110987",
        "url": ""
    },
    {
        "title": "英国近代崛起原因：被西方隐藏的太深，难怪二战后会沦为二流",
        "docid": "7314947770291372578",
        "url": ""
    },
    {
        "title": "岳飞之死揭露现实：千万别相信人，千万要相信人性",
        "docid": "7329843291108295194",
        "url": ""
    },
    {
        "title": "边境上，只有3个人的乡却守住2000多平方公里的国土! #卓嘎央宗#",
        "docid": "7343816727127556623",
        "url": ""
    },
    {
        "title": "今日话题，朱祁钰为什么会被朱祁镇反杀？#朱祁镇 #朱祁钰 #历史",
        "docid": "7332080128560005643",
        "url": ""
    },
    {
        "title": "2010年，菲律宾香港游客被劫持事件，菲律宾的处置方式，让人愤怒",
        "docid": "7324441331424559627",
        "url": ""
    },
    {
        "title": "1929年民国时期女子原声珍贵影像：优雅大方又美丽！",
        "docid": "7326462146098037282",
        "url": ""
    },
    {
        "title": "外国知道秦始皇之后，难过的说：为何西方没出现如此伟大的皇帝？",
        "docid": "7317878267435090466",
        "url": ""
    },
    {
        "title": "1984年真实影像，黄秋燕与剑圣于承惠实\n战，简直太漂亮了",
        "docid": "7338444459358716453",
        "url": ""
    },
    {
        "title": "太平天国亡了！十万女兵宁死不当清军俘虏！ #历史 #清朝",
        "docid": "7330634001965416997",
        "url": ""
    },
    {
        "title": "从自信到被打脸，1962年印度军人对解放军作战真实影像",
        "docid": "7331632064111837734",
        "url": ""
    },
    {
        "title": "雅利安人有多强悍？如果没有商朝倾力剿杀，中国将成为第二个印度",
        "docid": "7314217899093377576",
        "url": ""
    },
    {
        "title": "一组老照片：法国沦陷区，法国女子为德军士兵彻夜狂欢各种表演",
        "docid": "7346504914912379428",
        "url": ""
    },
    {
        "title": "古代没有浴霸，古人用什么方式洗澡？随便擦一擦还是跳河里冲呢？",
        "docid": "7346529958497534475",
        "url": ""
    },
    {
        "title": "接受1300万国外豪宅，苏联高官竟然心安理得，中国要警惕和深思",
        "docid": "7346091215475130892",
        "url": ""
    },
    {
        "title": "你一定想不到，1982年远比你想象的要开放，看完你相信了吗",
        "docid": "7331076687259501092",
        "url": ""
    },
    {
        "title": "1994年乌克兰销毁核武器真实影像，美俄两国现场监督",
        "docid": "7341384336861561353",
        "url": ""
    },
    {
        "title": "1950年西班牙，6个男人被执行金属螺旋绞刑，公开审判还原影像",
        "docid": "7345870431347278370",
        "url": ""
    },
    {
        "title": "1946年上海市民，抗议苏联军队在东北奸淫抢掠的真实影像",
        "docid": "7325683563914625551",
        "url": ""
    },
    {
        "title": "《故乡的云》———孙立人将军，晚年未了的故乡情，令人唏嘘！",
        "docid": "7327231879563149875",
        "url": ""
    },
    {
        "title": "美国白宫的“镇宫之宝”，历任总统的心头挚爱，揭秘“坚毅桌”",
        "docid": "7314259407410348585",
        "url": ""
    },
    {
        "title": "他伪装成日军侦察敌情，遇5名八路军，见穿着异常后大喊：站住！",
        "docid": "7346470158472446483",
        "url": ""
    },
    {
        "title": "1905年清兵出征真实影像，士兵衣衫褴褛，犹如乞丐炸街",
        "docid": "7324425320340292159",
        "url": ""
    },
    {
        "title": "唐朝到宋朝只有短暂53年，为什么感觉隔了几百年？",
        "docid": "7346376556010586634",
        "url": ""
    },
    {
        "title": "1944年，日军侵略广西桂林真实录像，日军被桂军炸死镜头",
        "docid": "7329349412705829376",
        "url": ""
    },
    {
        "title": "花荣不是将军是中校，林冲是军吏不是军官，鲁智深的军衔有多低？",
        "docid": "7346549027443425844",
        "url": ""
    },
    {
        "title": "项羽携带着虞姬的遗体和仅存的楚军铁骑，决意冲破刘邦的中军防线",
        "docid": "7326570569065824808",
        "url": ""
    },
    {
        "title": "德国为什么打不过苏联，答案就在这堆泥里",
        "docid": "7333960796994535975",
        "url": ""
    },
    {
        "title": "为什么说中国最完美的版图在清朝？",
        "docid": "7314591462510264844",
        "url": ""
    },
    {
        "title": "《三国志》和《后汉书》记载的讨董联军为什么没有曹操？",
        "docid": "7346528546996961802",
        "url": ""
    },
    {
        "title": "1947年真实录像，魏道明就任首任台湾省主席，发言明确台湾省归属",
        "docid": "7323902719700402703",
        "url": ""
    },
    {
        "title": "开国上将回家，女儿吓得对爷爷说：爷爷，要债的又来了",
        "docid": "7330914210114765364",
        "url": ""
    },
    {
        "title": "今日省流: 他在一分钟之内竟然干掉了14万日本人？#涨知识 #省流",
        "docid": "7335446441034416640",
        "url": ""
    },
    {
        "title": "齐白石“唯一”一幅自画像，我在辽宁省博物馆见到了真迹，很有趣",
        "docid": "7346165574709936681",
        "url": ""
    },
    {
        "title": "这位身高只有一米二的老人，是历史上令日本人害怕的顶级刺客",
        "docid": "7346449694945477147",
        "url": ""
    },
    {
        "title": "万万想不到，超出你认知的1990年，原来早就这样了，不信来看吧",
        "docid": "7327455141450220041",
        "url": ""
    },
    {
        "title": "克林顿最尴尬的采访",
        "docid": "7315200853433188900",
        "url": ""
    },
    {
        "title": "李纲的道理到今天都受用",
        "docid": "7346576886833758746",
        "url": ""
    },
    {
        "title": "巴斯隆,一人一枪,屠尽3000日本鬼子，太平洋上的机枪杀神468",
        "docid": "7337735430282052137",
        "url": ""
    },
    {
        "title": "淞沪会战有多惨？湘军番号都打没了，30万儿郎血洒黄浦江",
        "docid": "7316876286591238656",
        "url": ""
    },
    {
        "title": "华夏历史上的十八位战神，你最喜欢哪一位？",
        "docid": "7328354683389641255",
        "url": ""
    },
    {
        "title": "“野心勃勃的女人 比恋爱脑清爽多了”",
        "docid": "7326115616690176538",
        "url": ""
    },
    {
        "title": "第二次世界大战：“三巨头”雅尔塔会议珍贵影像！",
        "docid": "7325099298864300553",
        "url": ""
    },
    {
        "title": "二战时期，唯一一个没有参战的世界性强国，当时它到底在忙什么？",
        "docid": "7343862400413680154",
        "url": ""
    },
    {
        "title": "古代闹饥荒，百姓们为何放着河里的鱼虾不抓，要去吃草根、啃树皮",
        "docid": "7323098145381581322",
        "url": ""
    },
    {
        "title": "为什么古人黑道供关羽，太监供岳飞、盗墓供曹操、青楼供吕洞宾？",
        "docid": "7326898359007085108",
        "url": ""
    },
    {
        "title": "人人都说宋朝军事不行，可是唯有羸弱的宋朝折断了“上帝之鞭”！",
        "docid": "7332759349750055462",
        "url": ""
    },
    {
        "title": "乾隆给英国国王写信，全文976字尽显愚昧，至今还藏于大英博物馆",
        "docid": "7338743111177454091",
        "url": ""
    },
    {
        "title": "普法战争法国几乎亡国，德国为何不直接灭了法国？",
        "docid": "7327308914268701234",
        "url": ""
    },
    {
        "title": "为什么要在老家留一套房，到了晚年，你就懂了",
        "docid": "7325680762324271651",
        "url": ""
    },
    {
        "title": "战国七雄的首都都是哪座城市，如今发展如何",
        "docid": "7338382577235460662",
        "url": ""
    },
    {
        "title": "某乎提问：诸葛亮不识时务数次北伐，让川人做炮灰？看川人怎么说",
        "docid": "7336450422850716199",
        "url": ""
    },
    {
        "title": "如果诸葛亮北伐成功，会有怎样的历史地位？",
        "docid": "7346194758769082934",
        "url": ""
    },
    {
        "title": "唯一不信神的民族，为何是中国人？从商到周：一场弑神的权力游戏",
        "docid": "7334659267858858548",
        "url": ""
    },
    {
        "title": "晚清照片中后宫嫔妃都很丑？只不过是你没有见过漂亮的！",
        "docid": "7321739389485285903",
        "url": ""
    },
    {
        "title": "正史上公认的六大猛将，没有一个是虚构的人物，个个武力值爆表！",
        "docid": "7313557377561756223",
        "url": ""
    },
    {
        "title": "袁绍为什么要杀掉自己的首席名将麹义？",
        "docid": "7310845588810007055",
        "url": ""
    },
    {
        "title": "“八柱国”是哪八人？为什么叫“柱国”？",
        "docid": "7318683484107899443",
        "url": ""
    },
    {
        "title": "89年, 上海父亲跑日本打15年黑工, 一天工资抵上海10个月, 今入美籍",
        "docid": "7337679154978587177",
        "url": ""
    },
    {
        "title": "民国最传奇的老鸨：黄金荣前妻杜月笙恩人，81年104岁在上海去世",
        "docid": "7329523631225979432",
        "url": ""
    },
    {
        "title": "方腊仅八员大将，为何能让梁山好汉损失大半，专家：不是一个层次",
        "docid": "7346173395685622287",
        "url": ""
    },
    {
        "title": "宋江牺牲70多个兄弟，却换来一个楚州安抚使，放到现在是多大的官",
        "docid": "7335779816958722587",
        "url": ""
    },
    {
        "title": "西班牙人到底是什么人种？为什么长相和英法德等国家差异这么大？",
        "docid": "7316356652020695567",
        "url": ""
    },
    {
        "title": "知否：难怪林小娘被发卖时，人贩子要看她的牙口，大娘子心里清楚",
        "docid": "7317200847023161865",
        "url": ""
    },
    {
        "title": "30个关于德国的冷知识杂谈，看完长见识了",
        "docid": "7318974043515257385",
        "url": ""
    },
    {
        "title": "唐朝到底有多强盛？灭国记录极为凶狠！评论区里网友分享更是精彩",
        "docid": "7332680101651792411",
        "url": ""
    },
    {
        "title": "背叛刘邦，却封千户侯；高祖记恨终生，又不能杀：此人背景不简单",
        "docid": "7311726769970020899",
        "url": ""
    },
    {
        "title": "最可怕的古墓云南献王墓，真正恐怖的地方在哪儿？",
        "docid": "7328279980134400527",
        "url": ""
    },
    {
        "title": "陈后主被俘后活了15年，因为无聊向隋文帝讨官，杨坚送了他4个字",
        "docid": "7321993990377701942",
        "url": ""
    },
    {
        "title": "26年前，山西男子花100万买下70间明代大院，如今怎么样了？",
        "docid": "7319434722113913363",
        "url": ""
    },
    {
        "title": "这支军队攻打中国，却因迷路回不去，滞留中国200年，现加入中国",
        "docid": "7346166871965614628",
        "url": ""
    },
    {
        "title": "盛行三千年的嫡长子继承制，为何到了清朝这里玩不下去了？",
        "docid": "7344975495726924329",
        "url": ""
    },
    {
        "title": "刘邦四十八岁才起兵，但他48岁以前做的事，颠覆你对历史的认知",
        "docid": "7342018394104857088",
        "url": ""
    },
    {
        "title": "世界第一女毒枭布兰科，独创人体藏毒，三度弑夫，被人奉为教母",
        "docid": "7316444329915253288",
        "url": ""
    },
    {
        "title": "1945年的上海，投降的日本兵在街头很悠闲，穷人的生活依然很艰难",
        "docid": "7330850639490630170",
        "url": ""
    },
    {
        "title": "洋务派花巨资打造的北洋水师很差？不！从人到舰，它的强大你不懂",
        "docid": "7346035300432626186",
        "url": ""
    },
    {
        "title": "楼兰到底干了什么缺德事？让咱们老祖宗“斩楼兰”、“破楼兰”？",
        "docid": "7335471849008562751",
        "url": ""
    },
    {
        "title": "我国历史上虚构的八大猛将，原本是荒诞不经，国人却信以为真",
        "docid": "7326112043965383204",
        "url": ""
    },
    {
        "title": "453年宋文帝在宫中被太子乱刀砍死，他开了历史上弑父篡位之先河",
        "docid": "7337350050261320201",
        "url": ""
    },
    {
        "title": "萝莉岛上的爱泼斯坦和西方权贵们",
        "docid": "7321742116814733824",
        "url": ""
    },
    {
        "title": "历史上让人意难平的六大遗憾，就连霍去病离世，都进不了前三",
        "docid": "7327999741529326130",
        "url": ""
    },
    {
        "title": "中国历史上最黑暗的135年，诞生了4位超一流的军事天才",
        "docid": "7342454595458761231",
        "url": ""
    },
    {
        "title": "被嘲笑是“傻子”的上海顶级富少获诺贝尔奖，全世界欠他一个人情",
        "docid": "7317191310778466826",
        "url": ""
    },
    {
        "title": "杨门女将：她是大宋奸妃也是辽国金陵公主，虽是反派却死的意难平",
        "docid": "7322651383348429338",
        "url": ""
    },
    {
        "title": "彭家声到底做了什么？让自己在当年果敢“八.八事件”中众叛亲离",
        "docid": "7329157654495265320",
        "url": ""
    },
    {
        "title": "100年前，20万白俄难民逃亡到中国，后代骄傲的说：我们是中国人",
        "docid": "7329457851145962047",
        "url": ""
    },
    {
        "title": "“身长九尺”的关羽，放现在有多高？对照洛阳出土的汉尺算一算",
        "docid": "7340200141976224268",
        "url": ""
    },
    {
        "title": "2022年日本\"女帝\"出狱，曾令全球恐惧，暴捶以色列20年，她有多狠",
        "docid": "7343833785077006858",
        "url": ""
    },
    {
        "title": "整个三国中，能吊打许褚的大将有谁？仅5人可以做到，不包括马超",
        "docid": "7320235431747125769",
        "url": ""
    },
    {
        "title": "英国博物馆收藏的清朝宝贝，看到清政府旗，我忍不住笑了！",
        "docid": "7322356743734886912",
        "url": ""
    },
    {
        "title": "明朝灭亡时，让人闻风丧胆的15万锦衣卫为何不见了，他们去了哪里",
        "docid": "7327931404581405184",
        "url": ""
    },
    {
        "title": "古代男人宁愿光棍，也不愿匈奴女人为妻？这几个原因羞于启齿！",
        "docid": "7345782150203736617",
        "url": ""
    },
    {
        "title": "张学良晚年回忆溥杰发妻：如果她当时不那么混蛋，我肯定娶她",
        "docid": "7345685568128631330",
        "url": ""
    },
    {
        "title": "古代小妾职责除传宗接代外，还有个重要的作用，现今却为男人不齿",
        "docid": "7346142181469684262",
        "url": ""
    },
    {
        "title": "看了这些，你觉得欧洲正在衰落吗？",
        "docid": "7317588374037004840",
        "url": ""
    },
    {
        "title": "都说嘉庆21年是“史上最冷的夏天”，200年前的中国，到底有多冷",
        "docid": "7343190517779857939",
        "url": ""
    },
    {
        "title": "葡萄牙到底有多穷？看看真实的葡萄牙，原来我们一直高估它了",
        "docid": "7330817871087632922",
        "url": ""
    },
    {
        "title": "重达32吨的沧州铁狮子，千年不倒，为何倒在专家自作聪明的保护上",
        "docid": "7319796777111962127",
        "url": ""
    },
    {
        "title": "三国打成一锅粥，为何没外族入侵？也不看看是谁在镇守边关。",
        "docid": "7317588374573924876",
        "url": ""
    },
    {
        "title": "晚清这个嘴里被塞满干粪，吊起来处决的人，竟是潮州知府",
        "docid": "7343797789849715263",
        "url": ""
    },
    {
        "title": "这些人，亲手把癌症卖给了3.5亿中国人！",
        "docid": "7345998065079271963",
        "url": ""
    },
    {
        "title": "将军分肉忘了车夫，次日车夫直接驾车将他拉去敌营，从此多一成语",
        "docid": "7322000068251320844",
        "url": ""
    },
    {
        "title": "圆明园被毁150年后，专家准备对其修复时，意外发现50000多件文物",
        "docid": "7332332106481582633",
        "url": ""
    },
    {
        "title": "为什么唯独商鞅变法能将贵族集团压下去？",
        "docid": "7335276199977304586",
        "url": ""
    },
    {
        "title": "背熟了你的历史就厉害了",
        "docid": "7328408003818914341",
        "url": ""
    },
    {
        "title": "甄嬛传：十年后才懂，皇上为什么从来不让敬妃侍寝，真相难以启齿",
        "docid": "7319444386398814760",
        "url": ""
    },
    {
        "title": "历史的瞬间永恒——探索‘历史泄密’32张震撼人心的历史照片！",
        "docid": "7343980740504076851",
        "url": ""
    },
    {
        "title": "曹操杀死杨修后，笑问其父杨彪怎么瘦了？杨彪一语已成千古名言",
        "docid": "7325631482415235634",
        "url": ""
    },
    {
        "title": "刘伯温向农妇讨水喝，农妇故意撒了把谷壳，伯温感叹：她有大智慧",
        "docid": "7333100321042465319",
        "url": ""
    },
    {
        "title": "抗美援朝牺牲的高级将领名单，终于有人整理出来了，收藏起来看看",
        "docid": "7346213270396994067",
        "url": ""
    },
    {
        "title": "1962—1972年出生的人，是百多年来中国最幸运群体？不信来看看！",
        "docid": "7333901110845014537",
        "url": ""
    },
    {
        "title": "曾国藩为什么告老还乡？左宗棠：李秀成的150万两进了他的腰包",
        "docid": "7345722431702975016",
        "url": ""
    },
    {
        "title": "现代英国14个海外领土，大英帝国最后的荣光",
        "docid": "7320421869667090980",
        "url": ""
    },
    {
        "title": "洗大澡千万别戴珠宝，一堆古罗马私人宝石，在浴室下水道中被发现",
        "docid": "7321681522627871270",
        "url": ""
    },
    {
        "title": "布什家族，被称为美国第一政治豪门，究竟有多有钱？",
        "docid": "7337570710632137231",
        "url": ""
    },
    {
        "title": "俄罗斯辛辛苦苦创业1000年，一朝不慎，回到1000年以前",
        "docid": "7345828980442202639",
        "url": ""
    },
    {
        "title": "湖北小伙在深山“登基”并建立后宫，纳了55位后妃，最后怎么样了",
        "docid": "7343923026213241383",
        "url": ""
    },
    {
        "title": "“八拜之交”是指哪八拜？中国人不能不懂！",
        "docid": "7332396664487133715",
        "url": ""
    },
    {
        "title": "太平天国诸王后人今何在：陈玉成后人是马来西亚第一位华人少将",
        "docid": "7338424478420435490",
        "url": ""
    },
    {
        "title": "李家哪里是夺杨家的天下，其实也可以说是拿回自家错失的天下",
        "docid": "7328051766741221929",
        "url": ""
    },
    {
        "title": "让人害怕的“零口姑娘”：专家不能解释，她死前为何遭受那种对待",
        "docid": "7341720591512404543",
        "url": ""
    },
    {
        "title": "消失无踪的9大镇国之宝，价值无法估量，有3件都可能在秦始皇陵中",
        "docid": "7336537673080848933",
        "url": ""
    },
    {
        "title": "司马相如写下一封13字数字休妻诗，卓文君回了一首诗，成千古绝唱",
        "docid": "7323513234059788837",
        "url": ""
    },
    {
        "title": "300年前的人怎样将40吨铁链横跨在大渡河上，并一年内建成泸定桥",
        "docid": "7316841786943521314",
        "url": ""
    },
    {
        "title": "功德林军衔最低的战犯：本已投诚，为何却还是被送入功德林改造？",
        "docid": "7313948523635491338",
        "url": ""
    },
    {
        "title": "北宋轶事：王安石替儿子向苏洵提亲，苏小妹：不可，他儿子不长寿",
        "docid": "7346482280553021978",
        "url": ""
    },
    {
        "title": "晚清名医大胆猜测未来的新中国，鲁迅斥其胡说八道，如今一一应验",
        "docid": "7314224963588735525",
        "url": ""
    },
    {
        "title": "历史的尘埃——《诸葛瑾传》里两段让人毛骨悚然的记载",
        "docid": "7324959868677489161",
        "url": ""
    },
    {
        "title": "中国历史上被遗忘的历史罪人，导致越南脱离华夏版图的罪魁祸首",
        "docid": "7335657666720694796",
        "url": ""
    },
    {
        "title": "至今无解的3大灾难：一次在印度，一次在俄国，中国的最“诡异”",
        "docid": "7322058996813349426",
        "url": ""
    },
    {
        "title": "1985年，19岁少女被迫嫁到荒漠，多次逃离未果，15年后享誉世界",
        "docid": "7330806721490764297",
        "url": ""
    },
    {
        "title": "朱元璋为什么保留他做过乞丐的历史？",
        "docid": "7345882233301140005",
        "url": ""
    },
    {
        "title": "戴安娜王妃：睡在635斤铅棺中，独葬小岛，查尔斯一次也没去看过",
        "docid": "7319787934314709514",
        "url": ""
    },
    {
        "title": "老祖宗的审美养育了好大一个世界，国外大牌跟它简直一模一样！",
        "docid": "7344344520542601778",
        "url": ""
    },
    {
        "title": "中国古代十大禁军",
        "docid": "7327493595475903003",
        "url": ""
    },
    {
        "title": "如果唐玄宗不干涉，任由哥舒翰固守，唐军能在潼关挡住安禄山吗？",
        "docid": "7339821231506424320",
        "url": ""
    },
    {
        "title": "黄巢的确残暴，但却为国家拔除了一颗危害近1000年的“毒瘤”",
        "docid": "7335090903692558882",
        "url": ""
    },
    {
        "title": "没有一个中国人，能笑着走出大英博物馆",
        "docid": "7327281343522488841",
        "url": ""
    },
    {
        "title": "教科书上不曾提到的白奴贸易：上百万白人沦落“非洲地狱”",
        "docid": "7346794346366304807",
        "url": ""
    },
    {
        "title": "为什么在古代一件破棉袄旧皮袍也能当出银子来",
        "docid": "7322470153915695626",
        "url": ""
    },
    {
        "title": "丈夫和父亲必须死一个咋选？大臣妻子一句话解决，自此诞生一成语",
        "docid": "7335479569032086057",
        "url": ""
    },
    {
        "title": "康熙和乾隆为何能长寿？因为祖孙俩戒掉了多数帝王的通病",
        "docid": "7320444565729837602",
        "url": ""
    },
    {
        "title": "假如落凤坡死的人是诸葛亮，庞统能打赢司马懿吗？结果不言自明",
        "docid": "7318539996099641856",
        "url": ""
    },
    {
        "title": "四大美男之一的兰陵王，能美到什么程度？复原后的容貌美如冠玉",
        "docid": "7331987863188193833",
        "url": ""
    },
    {
        "title": "1957年，工人清理西湖淤泥，意外发现国宝大金龙！",
        "docid": "7336557554073567778",
        "url": ""
    },
    {
        "title": "美国人的历史课本是如何写中国的？仅有20页，记载了6个中国人",
        "docid": "7337960124013363747",
        "url": ""
    },
    {
        "title": "历史上各王朝开国难度",
        "docid": "7346787397327422004",
        "url": ""
    },
    {
        "title": "被称苏联最蠢元帅，开会说话漏洞百出，专家却说：他是扮猪吃老虎",
        "docid": "7329145295705670159",
        "url": ""
    },
    {
        "title": "比泰王还疯狂：后宫藏娇40多名美妙女子，每天花掉75万美金",
        "docid": "7344406889414951475",
        "url": ""
    },
    {
        "title": "晚清老照片：青楼女子穿肚兜与恩客搂抱，乞丐全身绑满破布取暖",
        "docid": "7346788581412848180",
        "url": ""
    },
    {
        "title": "既是伊朗军神，又是中东谍王：被美国刺杀的苏莱曼尼到底有多强？",
        "docid": "7345780123427357194",
        "url": ""
    },
    {
        "title": "白富美胡格特：19岁继承亿万家产宅家80年不出户，直到104岁去世",
        "docid": "7315250529414955539",
        "url": ""
    },
    {
        "title": "武则天嫁李世民12年没身孕，为何跟李治就有了？背后实情令人唏嘘",
        "docid": "7319013067164271144",
        "url": ""
    },
    {
        "title": "范进中举而疯被人嘲笑，但你可知他做的官，大到你意想不到",
        "docid": "7321375402579001867",
        "url": ""
    },
    {
        "title": "林则徐厉害，他的一个女儿更是厉害，至今祠堂香火依旧鼎盛！",
        "docid": "7329759951902392882",
        "url": ""
    },
    {
        "title": "苏步青的日本妻子在家洗碗，日军突然闯进家里，要求共进日本菜",
        "docid": "7323149228078006821",
        "url": ""
    },
    {
        "title": "东北土匪的真容，图2大哥即将被正法，图4竟是名震江湖的女匪首",
        "docid": "7345431797280866825",
        "url": ""
    },
    {
        "title": "张勋复辟只是一场闹剧？不！他险些造成万劫不复的后果",
        "docid": "7346217636415406627",
        "url": ""
    },
    {
        "title": "清朝灭亡后，100万清军残部去哪了？其中一支到1987年才被发现",
        "docid": "7346794970172490278",
        "url": ""
    },
    {
        "title": "长坂坡曹操下令活捉赵云，许褚张辽文聘为何不出力？原因很简单",
        "docid": "7321869205077361202",
        "url": ""
    },
    {
        "title": "太平天国后3年：不管李秀成如何努力，都无力回天",
        "docid": "7336402198639641115",
        "url": ""
    },
    {
        "title": "司马南：金融崩溃！超级大国数万亿美元怎么被人家一千万洗劫一空",
        "docid": "7342782161314923047",
        "url": ""
    },
    {
        "title": "1949年上海解放第三天，李克农密电陈毅：不惜一切代价，找到李白",
        "docid": "7332132672984154639",
        "url": ""
    },
    {
        "title": "岳飞去世后，秦桧是如何对待他两个妻子的？背后实情令人心生愤慨",
        "docid": "7328730690467234344",
        "url": ""
    },
    {
        "title": "唐朝贵族有三大喜好：昆仑奴、新罗婢、菩萨蛮，他们有何妙处？",
        "docid": "7327834829624492596",
        "url": ""
    },
    {
        "title": "中国古代历代开国皇帝虎扑评分，看到赵构绷不住了",
        "docid": "7315282174385881611",
        "url": ""
    },
    {
        "title": "张苞的死，为何会让诸葛亮脸色大变当场吐血晕倒？",
        "docid": "7320661367793664552",
        "url": ""
    },
    {
        "title": "晚清最残忍的一顿午餐：8位将领高兴入座，筷子还没动却人头落地",
        "docid": "7331376190953374235",
        "url": ""
    },
    {
        "title": "杨宇霆反对“东北易帜”的依据是什么？",
        "docid": "7325364346299810313",
        "url": ""
    },
    {
        "title": "我国古代最完美的四个皇帝，想抹黑却无处下手，你最佩服哪一位？",
        "docid": "7344166815545098815",
        "url": ""
    },
    {
        "title": "埃及人修金字塔的时候，“中国人”在干什么？说出来你也许不信",
        "docid": "7323169073318216246",
        "url": ""
    },
    {
        "title": "民国“第一奇女子”：4年交往3000名男性，28岁跳海自杀",
        "docid": "7345783184228909595",
        "url": ""
    },
    {
        "title": "唐朝最大的锦鲤：36岁才中状元，活到86岁，为官50年从未被贬!",
        "docid": "7335714030235320884",
        "url": ""
    },
    {
        "title": "此猛将与张飞打平，本可以轻松斩杀赵云出风头，为何却不敢下死手",
        "docid": "7331554414706491944",
        "url": ""
    },
    {
        "title": "首相死了，民众放鞭炮狂欢，撒切尔夫人为何让英国人如此痛恨？",
        "docid": "7314626900209713715",
        "url": ""
    },
    {
        "title": "朱元璋真的很爱马皇后吗？",
        "docid": "7343197855420629541",
        "url": ""
    },
    {
        "title": "电视剧都是骗人的，这才是真实清朝人老照片！",
        "docid": "7316162272403931648",
        "url": ""
    },
    {
        "title": "南京大屠杀后，落单日本兵频繁被杀，背后竟是一名道士、一只猴",
        "docid": "7334691669285847552",
        "url": ""
    },
    {
        "title": "为什么第一代第二代教父有很大差距？1972年3月15日《教父》公映",
        "docid": "7346181327605252644",
        "url": ""
    },
    {
        "title": "为何乱世先杀圣母？挪威血的教训，得出圣母掌权的离谱！",
        "docid": "7324212318441603619",
        "url": ""
    },
    {
        "title": "历史上祖孙三代皇帝组合谁最强？",
        "docid": "7345860285556900352",
        "url": ""
    },
    {
        "title": "古代青楼女子的“行内话”，到现在却成大众口头禅，时常挂在嘴边",
        "docid": "7316853799547847220",
        "url": ""
    },
    {
        "title": "他是三国最低调大将，实力不输关羽，先后追杀过曹操、刘备和孙权",
        "docid": "7346156258644296219",
        "url": ""
    },
    {
        "title": "古人睡觉时为什么要用硬枕,难道他们就不怕膈得慌吗?",
        "docid": "7345802076519285300",
        "url": ""
    },
    {
        "title": "1949年，一女乞丐抱着孩子找到政府：我身上有16两黄金，揣了10年",
        "docid": "7333451429241340467",
        "url": ""
    },
    {
        "title": "清政府短视与豪赌",
        "docid": "7346633939865584167",
        "url": ""
    },
    {
        "title": "日本人剖腹之后，无外力介入最少能活6小时，他们为何醉心此道？",
        "docid": "7322675427775595048",
        "url": ""
    },
    {
        "title": "历史上著名的七大“馊主意”，一个比一个馊，你知道几个？",
        "docid": "7326049911185703460",
        "url": ""
    },
    {
        "title": "“开隋九老”个个都是英雄豪杰，哪一位堪称第一硬汉？",
        "docid": "7315244859521335827",
        "url": ""
    },
    {
        "title": "复旦创始人：我是一条狗，吠叫了一百年，也没有把中国叫醒",
        "docid": "7336145303218684468",
        "url": ""
    },
    {
        "title": "珍贵老照片，纳粹将犹太女人衣服扒光，焚尸炉里面伸出一只手",
        "docid": "7346126337935049256",
        "url": ""
    },
    {
        "title": "兰陵这么好听，为何改称枣庄？",
        "docid": "7331555787363385875",
        "url": ""
    },
    {
        "title": "马谡如果当道下寨，能不能守住街亭？司马懿说得再明白不过",
        "docid": "7316887735808623119",
        "url": ""
    },
    {
        "title": "古代最有才气的十大才子，唐伯虎根本排不上，第1位最有才也最狂",
        "docid": "7340247983923151379",
        "url": ""
    },
    {
        "title": "中国女首富，二个女儿惨死，三个儿子反目成仇，她的一生多传奇？",
        "docid": "7343925848426971687",
        "url": ""
    },
    {
        "title": "卸任15年还在被骂，小布什到底做错了什么？",
        "docid": "7314301165125648908",
        "url": ""
    },
    {
        "title": "1876年，杨乃武与小白菜冤案被慈禧平反后，二人的后半生迥然不同",
        "docid": "7320158477434307106",
        "url": ""
    },
    {
        "title": "古代皇帝用活人殉葬，那他们能在墓中存活多久？可能出乎你的意料",
        "docid": "7345436148157874727",
        "url": ""
    },
    {
        "title": "长刀之夜：希特勒血洗冲锋队，为何要一夜杀光所有亲密战友？",
        "docid": "7345716586101113359",
        "url": ""
    },
    {
        "title": "同治为何19岁就驾崩了？有这样的私生活，活到19岁都算高寿",
        "docid": "7337949970483397120",
        "url": ""
    },
    {
        "title": "冈村宁次曾手握105万大军，听到日本投降后，第一反应是什么?",
        "docid": "7341212586471424512",
        "url": ""
    },
    {
        "title": "项羽已经逃出汉军的包围圈，为何在乌江自杀？史书其实记载了原因",
        "docid": "7336764657607115315",
        "url": ""
    },
    {
        "title": "大屠杀中，一女子倒地装死，特务进来补枪，用枪托捅了捅她的腹部",
        "docid": "7338241139642286604",
        "url": ""
    },
    {
        "title": "汉奸给日军捐飞机，孙女成日本民进党党首，宣称钓鱼岛是日本领土",
        "docid": "7329422161817420340",
        "url": ""
    },
    {
        "title": "中国古人发明的5个“奇技淫巧”的东西，有的放到现在仍算高科技",
        "docid": "7315721274955743759",
        "url": ""
    },
    {
        "title": "一口气搞懂唐朝诗人的顺序，记住你就能出口成章",
        "docid": "7342122171394818570",
        "url": ""
    },
    {
        "title": "外蒙为什么最终脱离了祖国母亲的怀抱？",
        "docid": "7346130468422910514",
        "url": ""
    },
    {
        "title": "守城士兵为什么不直接推倒梯子，而是费力用石头砸?士兵:谁推谁傻",
        "docid": "7337474363765260840",
        "url": ""
    },
    {
        "title": "《长安三万里》高适劝李白不要入赘，孟浩然为什么支持李白入赘？",
        "docid": "7335961311198659124",
        "url": ""
    },
    {
        "title": "张郃的一生值得反复品读，那能代表我们职场人的大多数，一声叹息",
        "docid": "7314480634179633703",
        "url": ""
    },
    {
        "title": "联合国五常中，曾有2国打算合并成超级大国，连国名都取好了",
        "docid": "7330855614207279635",
        "url": ""
    },
    {
        "title": "康熙皇长子胤禔，高墙圈禁26年生下20胎，雍正：他可以死了",
        "docid": "7323537180507996724",
        "url": ""
    },
    {
        "title": "李弥到台湾无人搭理，如何东山再起？手下团长太厉害，割据金三角",
        "docid": "7321936429624754728",
        "url": ""
    },
    {
        "title": "泼天的富贵，到天水了！",
        "docid": "7346799547596980776",
        "url": ""
    },
    {
        "title": "公认“最不受欢迎的民族”？3000万库尔德人，为何至今仍在流浪？",
        "docid": "7313869883308458522",
        "url": ""
    },
    {
        "title": "古代打仗，士兵为何被箭射中后就倒地而亡？专家：想动但不能动",
        "docid": "7330197726351163967",
        "url": ""
    },
    {
        "title": "1954年，蒋介石生前最后一次冒险绝密回到浙江，所为何事？",
        "docid": "7336493556213039628",
        "url": ""
    },
    {
        "title": "王近山领导肖永银7年却隔阂20年，晚年成其下属，痛哭：错怪你了",
        "docid": "7346592630249144842",
        "url": ""
    },
    {
        "title": "贵州金字塔神秘现身，自然形成还是人工建造？网友：会不会是古墓",
        "docid": "7346536872337768998",
        "url": ""
    },
    {
        "title": "为什么“废长立幼”是取乱之道呢？评论区一言点醒梦中人",
        "docid": "7319072259376185890",
        "url": ""
    },
    {
        "title": "民国美女徐谟佳，90岁离世，一张照片，见证她的盛世美颜和故事",
        "docid": "7321628908389483027",
        "url": ""
    },
    {
        "title": "在古代大家族中，假如嫡长子去世了，长孙和次子谁地位更高？",
        "docid": "7319835623345488395",
        "url": ""
    },
    {
        "title": "不是不报，时候未到——看曹氏后人如何报仇司马氏",
        "docid": "7345256649562833427",
        "url": ""
    },
    {
        "title": "横冲都：五代最强悍的重骑兵，李嗣源横行天下的“核武器”",
        "docid": "7345681077857698343",
        "url": ""
    },
    {
        "title": "中山靖王刘胜竟然有120个儿子？连弟弟汉武帝都瞧不起他贪色",
        "docid": "7346851547176976907",
        "url": ""
    },
    {
        "title": "葡萄牙的悲惨下场告诉我们，国家没有实力，加入什么条约都没用！",
        "docid": "7326743646689509923",
        "url": ""
    },
    {
        "title": "奥斯曼帝国：为防宫闱秽乱曾动用黑人太监，结果引发了更大的混乱",
        "docid": "7314218812218376742",
        "url": ""
    },
    {
        "title": "原子弹下，为何没有冤魂？那要看当时广岛女性、学生做了些什么！",
        "docid": "7346843110187581952",
        "url": ""
    },
    {
        "title": "死于“小人物”之手的六位“大人物”！",
        "docid": "7346595122886722084",
        "url": ""
    },
    {
        "title": "国籍代表立场",
        "docid": "7344880442778239497",
        "url": ""
    },
    {
        "title": "十恶不赦，十恶具体指什么？",
        "docid": "7323081559958012428",
        "url": ""
    },
    {
        "title": "美国历史学家哈里斯：如果中国有两个这样的女人，足以将日本沉没",
        "docid": "7343442217317024297",
        "url": ""
    },
    {
        "title": "二战后本可归属中国的琉球，却成了日本冲绳，都怪这两个历史罪人",
        "docid": "7341997603258810907",
        "url": ""
    },
    {
        "title": "古今机关单位称呼，也有人一条条整理出来了，一目了然，简单易懂",
        "docid": "7346855724024218124",
        "url": ""
    },
    {
        "title": "“俄国祖宗”的苏醒，瑞典在当初的衰落，为何是俄国崛起的开始？",
        "docid": "7345786458717930021",
        "url": ""
    },
    {
        "title": "苏联的解体，苏共的灭亡，看似是由于戈尔巴乔夫，充满了偶然性，",
        "docid": "7346625294830273087",
        "url": ""
    },
    {
        "title": "70年代南斯拉夫到底有多强大？人均月薪8000元，已率先使用机器人",
        "docid": "7321349888099336745",
        "url": ""
    },
    {
        "title": "核战争如果爆发，中国有6个地方可躲，老百姓必须掌握的救命知识",
        "docid": "7341740556151996991",
        "url": ""
    },
    {
        "title": "三国演义，那些老不死的高寿的人物，有些从东汉活到了西晋",
        "docid": "7334548064700629542",
        "url": ""
    },
    {
        "title": "解放前一共产党员将被处决，房东送断头饭时悄声道：这饭要仔细吃",
        "docid": "7345132391503413786",
        "url": ""
    },
    {
        "title": "李存孝出世",
        "docid": "7332011119861137947",
        "url": ""
    },
    {
        "title": "此二人不死，刘邦根本不敢动韩信，可惜这二个人全被韩信给杀了",
        "docid": "7328744804303553087",
        "url": ""
    },
    {
        "title": "玄武门之变，秦琼为何在门外不进去？只为对付李建成的头号猛将",
        "docid": "7326721163454251554",
        "url": ""
    },
    {
        "title": "让北宋头痛不已的“契丹”，是现在的哪个民族，说出来你或许不信",
        "docid": "7320914085330420278",
        "url": ""
    },
    {
        "title": "嘉庆帝膝下五子，选择平庸的道光继位，道光对他四位兄弟怎么样？",
        "docid": "7343020207058813503",
        "url": ""
    },
    {
        "title": "1953年了明禅师被处枪决，行刑前，他提一要求：能不能别打我的头",
        "docid": "7330631936039567908",
        "url": ""
    },
    {
        "title": "中国第一造反大省，古近代大小造反从未缺席！民风为何那么彪悍？",
        "docid": "7345437089724465703",
        "url": ""
    },
    {
        "title": "害死岳飞13年后秦桧得重病，高宗探视病情，秦桧一句话不说只流泪",
        "docid": "7318758769977786943",
        "url": ""
    },
    {
        "title": "李世民的一生有多牛？看完真长见识啦！",
        "docid": "7345999214738276874",
        "url": ""
    },
    {
        "title": "假如赵构不勒令撤军，而是支持北伐 ，岳飞能恢复中原直捣黄龙吗？",
        "docid": "7313837711771992617",
        "url": ""
    },
    {
        "title": "志愿军战俘程立人：在阿根廷成巨富拥有60万亩土地，娶了总统妹妹",
        "docid": "7332028268004016680",
        "url": ""
    },
    {
        "title": "一文看懂中华上下五千年历代王朝更替！",
        "docid": "7312289672234189322",
        "url": ""
    },
    {
        "title": "2015年，老汉拿出85年前“欠条”，红军借款400大洋，后还了多少",
        "docid": "7346107264585171493",
        "url": ""
    },
    {
        "title": "刘备心里最清楚：为何张飞一战吕布只能坚持50招，二战就100招？",
        "docid": "7341599117720060435",
        "url": ""
    },
    {
        "title": "明明都是白种人，为啥长得不一样，一文读懂欧洲各国民族构成",
        "docid": "7314488892990898728",
        "url": ""
    },
    {
        "title": "叫门天子与完颜构，哪个更垃圾呢？",
        "docid": "7346469944390910490",
        "url": ""
    },
    {
        "title": "一组数据看蒙古：不少方面都很让人意外，绝大多数跟两个邻国有关",
        "docid": "7325684361205285391",
        "url": ""
    },
    {
        "title": "明代一商人破伞被偷，伞柄暗藏巨额银票，他用一招让小偷主动归还",
        "docid": "7334726729862300194",
        "url": ""
    },
    {
        "title": "英国教授：四大文明古国中，印度和埃及还在，为什么只承认中国？",
        "docid": "7346473646271021609",
        "url": ""
    },
    {
        "title": "马谡战张郃，糊里又糊涂，“山上”是死，“当道”能活？",
        "docid": "7338025707316101683",
        "url": ""
    },
    {
        "title": "长见识！唐朝的强大你无法想象，网友：唐军铁骑之下，皆为唐土！",
        "docid": "7346878201974555176",
        "url": ""
    },
    {
        "title": "袁天罡给3人看相，预言他们必当大官，3人走后袁天罡直叹可惜",
        "docid": "7315707346490393124",
        "url": ""
    },
    {
        "title": "科举制度是不是中国历史上最愚蠢的发明？",
        "docid": "7346870392868520458",
        "url": ""
    },
    {
        "title": "楼忠福：花2亿买下一饭店，看见大堂内挂着一幅画，白捡一饭店",
        "docid": "7345044137261302311",
        "url": ""
    },
    {
        "title": "1945年国军出兵香港珍贵录像，英军敢怒不敢言，沿途百姓含泪相迎",
        "docid": "7316489805234176552",
        "url": ""
    },
    {
        "title": "1994年真实录像，可可西里野牦牛队打击盗猎者，县副书记牺牲现场",
        "docid": "7343909862914392587",
        "url": ""
    },
    {
        "title": "埃及金字塔到底是如何建造的？它和我国长城，哪个建造难度更大？",
        "docid": "7346854051591766580",
        "url": ""
    },
    {
        "title": "1931年德国高速列车真实影像：最高时速230公里，令人震撼！",
        "docid": "7317832202572530191",
        "url": ""
    },
    {
        "title": "朱元璋一刀砍出贪官，把主谋脑袋塞进地砖 #历史 #历史剧 #朱元璋",
        "docid": "7323189915838546486",
        "url": ""
    },
    {
        "title": "1987年，我军对越作战真实录像，侦察兵深入敌后活捉越军俘虏",
        "docid": "7340588963331047936",
        "url": ""
    },
    {
        "title": "二战时苏联打日本轻松的很，可到了美国打日本却为何难于上青天？",
        "docid": "7344314089789424164",
        "url": ""
    },
    {
        "title": "1932年，上海虹口公园爆炸事件，日本陆军大将被炸死",
        "docid": "7323212306266587663",
        "url": ""
    },
    {
        "title": "苏联政府该给这个叛徒发勋章：凭一人之力，把西方弄得人人自危",
        "docid": "7326909361647976979",
        "url": ""
    },
    {
        "title": "1926年慈禧御前女官跳舞影像，舞姿妩媚动人，赏心悦目！",
        "docid": "7331695716286333455",
        "url": ""
    },
    {
        "title": "古墓中的机关，考古专家究竟是如何破解的？揭秘详细过程",
        "docid": "7317230194417697332",
        "url": ""
    },
    {
        "title": "1962年台湾省真实影像",
        "docid": "7328798126683193896",
        "url": ""
    },
    {
        "title": "人人都想做皇帝，可刘秀哥俩却互相推辞#刘秀 #东汉",
        "docid": "7324319462377652763",
        "url": ""
    },
    {
        "title": "1978年3名小学生掏鸟蛋，发现价值50亿的国宝，得到50多斤粮票",
        "docid": "7341391738143621670",
        "url": ""
    },
    {
        "title": "北宋靖康之耻，杨家将为何不出来救驾？是不想还是另有原因？",
        "docid": "7346812544448758322",
        "url": ""
    },
    {
        "title": "32岁的她嫁给了一个7岁的男孩，连生8子，被称为“女版成吉思汗”",
        "docid": "7324127628271845940",
        "url": ""
    },
    {
        "title": "消失的凯特王妃，揭穿皇室“4P游戏”真相",
        "docid": "7346848516485939724",
        "url": ""
    },
    {
        "title": "史书上一笔带过的保路运动，真相远没有你想的那么简单",
        "docid": "7346752212376486436",
        "url": ""
    },
    {
        "title": "《首尔之春》：全斗焕领导的双十二政变过程回顾",
        "docid": "7346230555144389154",
        "url": ""
    },
    {
        "title": "中国古代史时间线",
        "docid": "7321129420164203020",
        "url": ""
    },
    {
        "title": "俄国战败，日本想要赔偿，沙皇：一个字不赔，不同意接着打。",
        "docid": "7346813948768846346",
        "url": ""
    },
    {
        "title": "1944年真实录像，八路军破袭炮楼活捉日军俘虏，与影视剧截然不同",
        "docid": "7338740235104977462",
        "url": ""
    },
    {
        "title": "东南亚悲惨“小国”—锡金",
        "docid": "7346531500067717642",
        "url": ""
    },
    {
        "title": "文天祥骂吕文焕是叛宋逆贼，焕：我守襄阳六年，宋廷干什么去了？",
        "docid": "7346822159609676326",
        "url": ""
    },
    {
        "title": "中国最好的龙脉在河南，24位皇帝埋这里 | 豫记",
        "docid": "7316733280802456064",
        "url": ""
    },
    {
        "title": "北宋九位皇帝高清画像复原：宋哲宗最帅，宋太祖美黑过度",
        "docid": "7331202051831366180",
        "url": ""
    },
    {
        "title": "张治中亲近我党 为什么蒋介石还一直信任他 有三点原因",
        "docid": "7337260499203392039",
        "url": ""
    },
    {
        "title": "菲利普亲王：最帅的“赘婿”，能娶到女王，全靠刀削斧凿般的俊脸",
        "docid": "7326530958742553151",
        "url": ""
    },
    {
        "title": "唐朝灭亡时有多惨烈？皇帝被杀，九名皇子被勒死，大臣被投尸黄河",
        "docid": "7336129987979117093",
        "url": ""
    },
    {
        "title": "史上嫁最远的公主，路上耗时2年，赶到时新郎去世只能嫁给其儿子",
        "docid": "7346521797837193728",
        "url": ""
    },
    {
        "title": "令人难以置信的20件古代文物，颠覆你对古代的认知",
        "docid": "7346877178870497802",
        "url": ""
    },
    {
        "title": "绝了！生同衾，死同穴，北魏拥抱葬！",
        "docid": "7346903377667899915",
        "url": ""
    },
    {
        "title": "身死族灭！880年后中国豪门大族下线。从墓志大数据看门阀的落幕",
        "docid": "7346592307921322531",
        "url": ""
    },
    {
        "title": "我见过最厉害的人，都活在低处",
        "docid": "7324994049080410636",
        "url": ""
    },
    {
        "title": "将蒙古引向西方世界的花剌子模到底是一个什么国家？",
        "docid": "7318398570070082075",
        "url": ""
    },
    {
        "title": "董卓只带三千人入京，洛阳有数万兵马，为何董卓能迅速掌握朝政？",
        "docid": "7330288784485466659",
        "url": ""
    },
    {
        "title": "美版知乎：西方为何如此讨厌中国？外国网友：因为中国从未被征服",
        "docid": "7346499487190483494",
        "url": ""
    },
    {
        "title": "野史：崇祯死前才知：害死自己的人不是吴三桂李自成，而是这个人",
        "docid": "7316482496118653474",
        "url": ""
    },
    {
        "title": "日本祖先真相大白，不是徐福后代，DNA检测让日本人无法接受",
        "docid": "7332146645343568422",
        "url": ""
    },
    {
        "title": "1993年，周处除三害原型人物枪决真实影像，曾一周杀8名黑道大哥",
        "docid": "7344928209110204966",
        "url": ""
    },
    {
        "title": "校长年轻的时候脑子还是挺清醒的！白客老师又刷新了我对他的认知",
        "docid": "7315354251343954459",
        "url": ""
    },
    {
        "title": "一直以为每个地方的学校都是建在坟场上，原来只有安徽是这样",
        "docid": "7326141981640524329",
        "url": ""
    },
    {
        "title": "古代最“温柔”的酷刑：用动物的器官行刑，让人在欢乐中死去",
        "docid": "7346846622640243227",
        "url": ""
    },
    {
        "title": "闻仲打了15年的北海，究竟有多恐怖？姜子牙为何终身不敢踏足？",
        "docid": "7317554290107826740",
        "url": ""
    },
    {
        "title": "数说｜中国最喜欢打牌的地方是哪里？",
        "docid": "7335300215438213658",
        "url": ""
    },
    {
        "title": "墓碑上的“考、妣、故、先、显”，分别是什么含义？用错会闹笑话",
        "docid": "7315331179790729728",
        "url": ""
    },
    {
        "title": "“蚩尤”究竟为何物？为何黄帝要赶尽杀绝？说出来你可能不信",
        "docid": "7320184346084639258",
        "url": ""
    },
    {
        "title": "秦始皇为何把“寡人”改成“朕”，把“朕”字拆开看，你就懂了!",
        "docid": "7336010991128035867",
        "url": ""
    },
    {
        "title": "鲁迅家是如何衰败的？鲁迅肯定不会告诉你，因为实在太丢人",
        "docid": "7320974741450572338",
        "url": ""
    },
    {
        "title": "世界上著名的8大谣言，其实全是假的，至今还有人深信",
        "docid": "7320813612367675954",
        "url": ""
    },
    {
        "title": "为何秦始皇穿黑龙袍，而后世皇帝大多穿黄龙袍？专家：他们敢？",
        "docid": "7339053038357430847",
        "url": ""
    },
    {
        "title": "1990年法国GDP是我国的3.5倍，人均是我国的63倍，现在差距多大？",
        "docid": "7345372385476051496",
        "url": ""
    },
    {
        "title": "杜月笙的老婆到底有多美？看这些老照片就知道了，美艳不可方物",
        "docid": "7346062770825069094",
        "url": ""
    },
    {
        "title": "著名古迹“修复前vs修复后”的对比，真是一比吓一跳啊…",
        "docid": "7315789407448515099",
        "url": ""
    },
    {
        "title": "古代中了探花，为啥比中状元还高兴呢？原来有一不成文“规定”",
        "docid": "7314491648904282687",
        "url": ""
    },
    {
        "title": "53年之后明白了，当年苏联挖穿地球，为什么挖到12262米就停了",
        "docid": "7330934500790469160",
        "url": ""
    },
    {
        "title": "清朝丢失的领土如今都在谁手中？",
        "docid": "7318351681560330752",
        "url": ""
    },
    {
        "title": "曾国藩为什么告老还乡？左宗棠：李秀成的150万两进了他的腰包",
        "docid": "7326822449230791209",
        "url": ""
    },
    {
        "title": "长寿之王龚来发，终身未娶活到133岁，生前唯一的爱好不太健康",
        "docid": "7320452487172112935",
        "url": ""
    },
    {
        "title": "难以置信的照片，格格大腿岔开豪放洗衣，地主三妻四妾不输女明星",
        "docid": "7346603981042844175",
        "url": ""
    },
    {
        "title": "原子弹下，为何没有冤魂？那要看当时广岛女性、学生做了些什么！",
        "docid": "7338076717951123983",
        "url": ""
    },
    {
        "title": "黄埔军校第二期，共有多少人？为何名将很少？最有名的六个人是谁",
        "docid": "7329321553739661860",
        "url": ""
    },
    {
        "title": "钱学森家族密码：一个特殊标准，保家族后代总有天才出现",
        "docid": "7346900302789952000",
        "url": ""
    },
    {
        "title": "清朝历史五大巧合，说出来你可能都不信，历史可能真就是一个轮回",
        "docid": "7330888844302762547",
        "url": ""
    },
    {
        "title": "她16岁因太美印在人民币上，曾靠低保度日，如今过得怎么样？",
        "docid": "7337547642400326178",
        "url": ""
    },
    {
        "title": "西安高三学霸林嘉文，距高考百天时跳楼，遗言：一生已看透两件事",
        "docid": "7346777922872672818",
        "url": ""
    },
    {
        "title": "袁世凯小楷奏折《彰劳勚折》台北故宫博物院藏",
        "docid": "7346789460744438309",
        "url": ""
    },
    {
        "title": "雍正王朝：邬思道逃走那天，老十三胤祥为啥拿半坛泸州老窖送他？",
        "docid": "7345094712845533731",
        "url": ""
    },
    {
        "title": "隋唐：四猛之首罗士信和十三杰之首李元霸，他俩到底谁更厉害？",
        "docid": "7324183326267277865",
        "url": ""
    },
    {
        "title": "500年“世界第一渔港”，沦落到禁渔20年无鱼可捕，堪称断子绝孙",
        "docid": "7319797568630800937",
        "url": ""
    },
    {
        "title": "汉朝之后我们才叫汉族，那么汉朝之前我们叫什么？名字有点霸气",
        "docid": "7313769936181412361",
        "url": ""
    },
    {
        "title": "清末老照片：晚清名妓貌美如花，光绪帝存世唯一照片还是偷拍的",
        "docid": "7346865322344923663",
        "url": ""
    },
    {
        "title": "曹操为什么执意要杀掉华佗？12年后才发现，他的决策是正确的",
        "docid": "7344301268548207139",
        "url": ""
    },
    {
        "title": "世界上最大的一块无主土地，面积比我国还大，日本早已经开始布局",
        "docid": "7331663429432001036",
        "url": ""
    },
    {
        "title": "1967年韩军在越南被集体炸死真实影像 美军投掷橙剂15万韩军受害",
        "docid": "7327163236292395570",
        "url": ""
    },
    {
        "title": "为何孙权宁愿自毁基业，也非要“干掉”陆逊？只怪陆逊自己作死",
        "docid": "7330551501967884800",
        "url": ""
    },
    {
        "title": "两次舍命救主勇斗李存孝的残唐第一猛将，浴血铜台府力战无敌将",
        "docid": "7328957359047574051",
        "url": ""
    },
    {
        "title": "中国古代最完美的四位皇帝，想抹黑也难以下手，你最佩服哪一位？",
        "docid": "7345358295177544211",
        "url": ""
    },
    {
        "title": "中国人为何不吃猫肉？李时珍早已告诉答案，古人早就尝试过",
        "docid": "7330916883765477903",
        "url": ""
    },
    {
        "title": "六千名英法联军攻陷北京, 曾国藩坐拥精兵12万为何却见死不救？",
        "docid": "7345799023159263744",
        "url": ""
    },
    {
        "title": "1972年内蒙发现康熙女儿墓，尸身穿龙袍240年不腐，葬品估值过亿",
        "docid": "7315344549285610024",
        "url": ""
    },
    {
        "title": "秦始皇要吃公鸡蛋，下令三天找到，大臣的7岁孙子：这很简单",
        "docid": "7332739937273446938",
        "url": ""
    },
    {
        "title": "为什么唐朝之后，西安很难再成为首都?其中有个致命原因",
        "docid": "7317929084469117477",
        "url": ""
    },
    {
        "title": "秦始皇的一个决策，让中国领先世界上千年，至今都在因此受益",
        "docid": "7333040502323003956",
        "url": ""
    },
    {
        "title": "历史的尘埃——《诸葛瑾传》里两段让人毛骨悚然的记载",
        "docid": "7346826621376152090",
        "url": ""
    },
    {
        "title": "史上嫁最远的公主，路上耗时2年，赶到时新郎去世只能嫁给其儿子",
        "docid": "7345644424333902372",
        "url": ""
    },
    {
        "title": "杜月笙的老婆到底有多美？看这些老照片就知道了，美艳不可方物",
        "docid": "7328660977506796084",
        "url": ""
    },
    {
        "title": "中山靖王刘胜竟然有120个儿子？连弟弟汉武帝都瞧不起他贪色",
        "docid": "7346161193943319094",
        "url": ""
    },
    {
        "title": "一起真实的“妾灭正妻”事件，妻惨死下葬后身上犹穿“血衣”控诉",
        "docid": "7313522141490709026",
        "url": ""
    },
    {
        "title": "古代最“温柔”的酷刑：用动物的器官行刑，让人在欢乐中死去",
        "docid": "7346884912047260195",
        "url": ""
    },
    {
        "title": "为何刘备称王时大封百官，唯独冷落赵云？刘备：你看他干了啥",
        "docid": "7346824559242248755",
        "url": ""
    },
    {
        "title": "美国官僚集团能把苏联忽悠瘸，为啥对我们不好使？答：中国太实诚",
        "docid": "7316827224446911013",
        "url": ""
    },
    {
        "title": "南京大屠杀幸存者回忆：野狗吃红了眼，到处都是女人的哭声",
        "docid": "7326918027822432795",
        "url": ""
    },
    {
        "title": "千古一帝与蒋中正的比较，高下立判！",
        "docid": "7325668167085654543",
        "url": ""
    },
    {
        "title": "他活过了整个三国时期，目睹蜀汉的兴衰，后世却用一个典故来嘲讽",
        "docid": "7315687368542323227",
        "url": ""
    },
    {
        "title": "野史也不敢这么写啊",
        "docid": "7337197236323140136",
        "url": ""
    },
    {
        "title": "1953年志愿军高炮部队密集火力，猛烈打击美军轰炸机群的真实影像",
        "docid": "7315401789191389715",
        "url": ""
    }
]