[
    {
        "title": "老年“性交易”正悄然流行？老龄艾滋患者逐年增多，问题出在哪？",
        "docid": "7302322232683708968",
        "url": ""
    },
    {
        "title": "2023年国谈开启：168个药品进入谈判环节，120万元/针“天价抗癌药”无缘最终名单",
        "docid": "7302435840351846964",
        "url": ""
    },
    {
        "title": "芋头是发物吗？什么人不能吃？",
        "docid": "7286780687137636920",
        "url": ""
    },
    {
        "title": "人生下半场，请把自己调成省电模式",
        "docid": "7283068179730350646",
        "url": ""
    },
    {
        "title": "胃病“三分靠治，七分靠养”，做到这5点，才是真正的养胃！",
        "docid": "7273782119993066018",
        "url": ""
    },
    {
        "title": "冬季虽然脑梗死高发，但聪明的人早已做好四点，还不赶紧学一学",
        "docid": "7290395597402898985",
        "url": ""
    },
    {
        "title": "当你老了，还能“吃”什么",
        "docid": "7276302248886714935",
        "url": ""
    },
    {
        "title": "都是无知惹的祸，家属私自将氧气流量调大，导致病人死亡，太可惜",
        "docid": "7286847680582664704",
        "url": ""
    },
    {
        "title": "一女子总咳嗽、易感冒，来济南就诊，竟因40多年前吸入它",
        "docid": "7301582757833048603",
        "url": ""
    },
    {
        "title": "群众就医更便捷 各地延时门诊开设情况如何？",
        "docid": "7302259918793769491",
        "url": ""
    },
    {
        "title": "腹部九宫格图，一图看懂腹痛的可能疾病",
        "docid": "7302374317336117771",
        "url": ""
    },
    {
        "title": "一针清除癌灶，费用仅为原价7.7%，我国自研抗癌疗法实施成功",
        "docid": "7301955796546470409",
        "url": ""
    },
    {
        "title": "踮踮脚就能护血管？55岁大叔每天踮脚，半年后身体有什么变化？",
        "docid": "7275247366775521852",
        "url": ""
    },
    {
        "title": "想要拉屎更通畅！医生教你超简单的通便技巧……",
        "docid": "7298209849769738788",
        "url": ""
    },
    {
        "title": "糖尿病食养指南推荐：这5个低糖主食，血糖想升高都难",
        "docid": "7291834645975646747",
        "url": ""
    },
    {
        "title": "直肠癌多是“拖”出来的？提醒：身体有4种不适，及时检查",
        "docid": "7275629286160204299",
        "url": ""
    },
    {
        "title": "多久查一次血脂比较好？一文读懂血脂筛查那些事儿",
        "docid": "7290007224901435958",
        "url": ""
    },
    {
        "title": "拔根了，何愁血压不降？中医治高血压，是治引起血压升高的原因",
        "docid": "7293369692184838697",
        "url": ""
    },
    {
        "title": "十大经方治大病，辨证准确效如桴鼓！",
        "docid": "7285321266905530915",
        "url": ""
    },
    {
        "title": "这8大减寿习惯和长寿习惯，人人都要知道！",
        "docid": "7272177787983626792",
        "url": ""
    },
    {
        "title": "热牛奶变“毒牛奶”，加热牛奶的3大坑别踩，否则没营养还伤身！",
        "docid": "7301912269812793891",
        "url": ""
    },
    {
        "title": "让脂肪肝害怕的10道菜，快学起来！",
        "docid": "7287389352756724235",
        "url": ""
    },
    {
        "title": "5年前，因吐槽鸿茅药酒，被跨省抓捕的医学硕士，如今怎样了",
        "docid": "7301928417346257449",
        "url": ""
    },
    {
        "title": "抗癌5年后，我发现癌细胞也“害怕”我们这样吃！",
        "docid": "7272657743172715065",
        "url": ""
    },
    {
        "title": "一旦遭遇失温，这些方法可以救命｜科普时间",
        "docid": "7300838741923480105",
        "url": ""
    },
    {
        "title": "“天价”靶向药那么贵，癌症患者用不起咋办？医生给出答案",
        "docid": "7270086735513076281",
        "url": ""
    },
    {
        "title": "用事实来证明：急性心肌梗死的患者，为何最快可在数分钟内死亡？",
        "docid": "7281288333081182774",
        "url": ""
    },
    {
        "title": "打一针，降脂效果维持近一年！降幅最高达97%！新药临床数据公布",
        "docid": "7301883252145717810",
        "url": ""
    },
    {
        "title": "吃降压药5年肾衰竭？长期吃药需警惕四大误区，血压更稳更长寿",
        "docid": "7275170039958241833",
        "url": ""
    },
    {
        "title": "喝完瘦了20斤，专治肥胖？医生提醒",
        "docid": "7301985578168599092",
        "url": ""
    },
    {
        "title": "家里有亲人得了癌症，有几点掏心窝的建议，分享给大家！",
        "docid": "7302255384956371492",
        "url": ""
    },
    {
        "title": "炎症是癌症的“祸根”，患上3种炎症不要拖，劝你趁早治疗",
        "docid": "7299344873793208842",
        "url": ""
    },
    {
        "title": "有些人活着，屁股却已经“死”了",
        "docid": "7271069420573852215",
        "url": ""
    },
    {
        "title": "我，一个癌症患者，一日三餐怎么吃？我坚持了五年",
        "docid": "7284461240158552587",
        "url": ""
    },
    {
        "title": "我国自主研发的降压药阿利沙坦，降压、降蛋白、护心肾，还降尿酸",
        "docid": "7296400011553047079",
        "url": ""
    },
    {
        "title": "巧用陈皮赶走湿气，专攻肥胖！",
        "docid": "7263659979469488680",
        "url": ""
    },
    {
        "title": "直播预告丨成为卷王之王的第一步，滋补品你选对了吗？",
        "docid": "7302222120686207503",
        "url": ""
    },
    {
        "title": "小便若出现2个变化，可能是肾在“呼救”！院士教你两个方法判断",
        "docid": "7268586171851342347",
        "url": ""
    },
    {
        "title": "快速缓解嗓子疼的方法",
        "docid": "7279769523308200467",
        "url": ""
    },
    {
        "title": "患者故事 | 10年“抗癌马拉松”，医患携手将晚期肺癌转为慢性病",
        "docid": "7302334675283329551",
        "url": ""
    },
    {
        "title": "他是个专开“杀人药”的老中医，行医51年，用了四吨剧毒药—李可",
        "docid": "7301299914104128054",
        "url": ""
    },
    {
        "title": "《诗经》里药食同源的TA，你认识吗？",
        "docid": "7302453925096587827",
        "url": ""
    },
    {
        "title": "一根玉米让血糖“飙升”，三高患者食用有禁忌",
        "docid": "7275221414771573305",
        "url": ""
    },
    {
        "title": "起猛了，输头孢前不用做皮试了？华西专家说，因为莫得用！",
        "docid": "7277561792040960546",
        "url": ""
    },
    {
        "title": "糖尿病人什么时候开始服用维生素B12？吃多长时间？听医生怎么说",
        "docid": "7278573929080701498",
        "url": ""
    },
    {
        "title": "达格列净，除了用于降血糖、心力衰竭、肾病保护，还有这3种作用",
        "docid": "7300069160640676363",
        "url": ""
    },
    {
        "title": "血管医学领域惊现“医学风云榜”大战",
        "docid": "7301627332844929588",
        "url": ""
    },
    {
        "title": "我的致命一击：胆总管结石ERCP取石术后并发重症胰腺炎",
        "docid": "7273031915291689530",
        "url": ""
    },
    {
        "title": "国际肺癌日 9图了解如何科学防治",
        "docid": "7302308488284439040",
        "url": ""
    },
    {
        "title": "三甲医院和三级医院的区别",
        "docid": "7272567214765556239",
        "url": ""
    },
    {
        "title": "纳入低保的大病种类，了解这些救助措施和政策支持",
        "docid": "7297011882366599717",
        "url": ""
    },
    {
        "title": "沈阳妇科丨男性也需要关注：HPV对男性健康的影响",
        "docid": "7301948903581319689",
        "url": ""
    },
    {
        "title": "4个首选降压药，疗效佳、副作用小、护心肾、每日服一次",
        "docid": "7296043040827949579",
        "url": ""
    },
    {
        "title": "42岁的他肺结节1厘米，手术切一段肺，术后发现是肺组织慢性炎症",
        "docid": "7291573378094301706",
        "url": ""
    },
    {
        "title": "一脚踩中减肥药风口，一脚迈向日化大健康赛道，翰宇药业能否实现……",
        "docid": "7302326493802512936",
        "url": ""
    },
    {
        "title": "腰椎滑脱不用做手术，中医药大学教授终于说了真话",
        "docid": "7270006364510913059",
        "url": ""
    },
    {
        "title": "仅用了3个月，血糖从16.8降到5.6，他的降糖习惯值得各位糖友学习",
        "docid": "7289349458981225018",
        "url": ""
    },
    {
        "title": "胸痛位置对照图，这6种可能致命",
        "docid": "7274084184535122473",
        "url": ""
    },
    {
        "title": "想要控制肿瘤的生长和转移，家属平时多给患者喝这碗汤",
        "docid": "7284084776141849151",
        "url": ""
    },
    {
        "title": "血管介入治疗在中晚期肝癌综合治疗中的角色 | 科技导报",
        "docid": "7301960342543106614",
        "url": ""
    },
    {
        "title": "湿气原来“最怕”它，秋天使劲吃，发汗除湿保护脾胃，提高免疫力",
        "docid": "7277473013162377767",
        "url": ""
    },
    {
        "title": "8类食物帮你恢复胰岛功能，糖友还不快吃起来？",
        "docid": "7301273219569287716",
        "url": ""
    },
    {
        "title": "二甲双胍是饭前服用还是饭后服用？看这篇文章，让您不再纠结",
        "docid": "7279223781674172947",
        "url": ""
    },
    {
        "title": "糖尿病有望逆转！国产原创降糖药，已获批上市",
        "docid": "7301937343047533091",
        "url": ""
    },
    {
        "title": "中药玉米须在治疗糖尿病上是怎样组方应用的，能够起到怎样效果？",
        "docid": "7284087120653451815",
        "url": ""
    },
    {
        "title": "身体早衰，头发早白，送你一个清代名方，补肾益精，养血乌发",
        "docid": "7271515057769497103",
        "url": ""
    },
    {
        "title": "中医不是慢郎中，送你7个急救穴，用于7种不同紧急情况！",
        "docid": "7294044193033323043",
        "url": ""
    },
    {
        "title": "3药改善大脑微循环，增加供血供氧，保护脑神经，抗头痛眩晕耳鸣",
        "docid": "7281196667909472808",
        "url": ""
    },
    {
        "title": "血压中的低压高是怎么回事？该怎么降下来呢？临床医生一文说清楚",
        "docid": "7273767942045827636",
        "url": ""
    },
    {
        "title": "急性心肌梗死的临床大全",
        "docid": "7275530340377379363",
        "url": ""
    },
    {
        "title": "阴茎受伤了怎么办？应对阴茎外伤的实用指南！",
        "docid": "7270796466531238452",
        "url": ""
    },
    {
        "title": "老人佩戴假牙，千万要注意的三点！严重甚至会危及生命",
        "docid": "7275111471066317366",
        "url": ""
    },
    {
        "title": "男人五十岁后，进入疾病高发期，日常做好五件事，拉长自己生命线",
        "docid": "7293277338727449103",
        "url": ""
    },
    {
        "title": "脾不好便稀，肾不好腰疼，肝不好腿乏，三招养好你的脾肾肝！",
        "docid": "7270704688017048064",
        "url": ""
    },
    {
        "title": "这3种食物，正慢慢“掏空”骨骼，不想惹上骨质疏松，尽量少吃",
        "docid": "7277471053554008610",
        "url": ""
    },
    {
        "title": "我奶奶确诊牙龈癌，下颌腐烂发臭，治疗后也无好转，该怎么办啊",
        "docid": "7271173428953039399",
        "url": ""
    },
    {
        "title": "“脂”道是寻常，缘来有深意—谈谈营养管理中脂肪的选择",
        "docid": "7302450715984052787",
        "url": ""
    },
    {
        "title": "中医治疗痛风怎么用药，你知道吗？",
        "docid": "7285309780728906275",
        "url": ""
    },
    {
        "title": "高血脂的背后多半是痰瘀，张仲景仅用2味中药，痰和瘀都不见了",
        "docid": "7292264850053710373",
        "url": ""
    },
    {
        "title": "经支气管镜肺减容术，慢阻肺患者的福音",
        "docid": "7282308492999508520",
        "url": ""
    },
    {
        "title": "寿命短的人，吃饭有3个坏习惯！戒掉能长寿12年",
        "docid": "7302321245461611018",
        "url": ""
    },
    {
        "title": "经常吃南瓜就能降血糖？这5个营养误区，让很多人都中招了",
        "docid": "7267443473983799869",
        "url": ""
    },
    {
        "title": "同济大学附属同济医院泌尿外科吴登龙教授入选2022年东方英才计划领军项目",
        "docid": "7302430751143084596",
        "url": ""
    },
    {
        "title": "解密小诊所的“王炸药方”",
        "docid": "7300923722335420969",
        "url": ""
    },
    {
        "title": "血脂高千万别大意，几个方法帮你降血脂！",
        "docid": "7281212665836438035",
        "url": ""
    },
    {
        "title": "老中医：长期服用中药，可能出现6大副作用，不了解或有健康隐患",
        "docid": "7293393075567723060",
        "url": ""
    },
    {
        "title": "常见病艾灸穴位对照图",
        "docid": "7287916471354245672",
        "url": ""
    },
    {
        "title": "11张表格，心血管药物最全总结！",
        "docid": "7282595551622267403",
        "url": ""
    },
    {
        "title": "咳嗽仅两天，男孩的右肺竟被“树枝”堵住了",
        "docid": "7301881605700731411",
        "url": ""
    },
    {
        "title": "心脏怦怦跳，多半是血瘀，一个中成药把瘀血化掉，心就踏实了",
        "docid": "7283883504184640059",
        "url": ""
    },
    {
        "title": "100个人当中，有多少人能活过65岁？过来人告诉你答案",
        "docid": "7301121200641262117",
        "url": ""
    },
    {
        "title": "人体缺乏维生素B2，身体3个部位会发出“预警信号”，要及时补充",
        "docid": "7274126310979650063",
        "url": ""
    },
    {
        "title": "有多少脑梗是抽烟害的？医生解释：吸烟与缺血性卒中的微妙关系",
        "docid": "7300211028162544143",
        "url": ""
    },
    {
        "title": "躺着也能长寿？这样休息比运动还管用，胜过你每天走路2小时！",
        "docid": "7282697853762798139",
        "url": ""
    },
    {
        "title": "肝脾不和的人相对容易长结节，试试逍遥丸这些搭配！",
        "docid": "7301856021666890292",
        "url": ""
    },
    {
        "title": "高血压最怕缺钾？长期服用降压药的人，建议要多吃这5种高钾食物",
        "docid": "7277783275832508991",
        "url": ""
    },
    {
        "title": "“心脏救命药”首选硝酸甘油，使用保管切记五点，千万别弄错！",
        "docid": "7279064245705409024",
        "url": ""
    },
    {
        "title": "白内障手术风险大吗？费用为何天差地别？手术前，这几件事你得搞明白",
        "docid": "7280729234161828392",
        "url": ""
    },
    {
        "title": "致湖州市第一人民医院院长的公开信",
        "docid": "7300906112566559269",
        "url": ""
    },
    {
        "title": "全国十大顶级肿瘤医院大公开！看看你所在城市的医院上榜了吗？",
        "docid": "7287101924200202767",
        "url": ""
    },
    {
        "title": "70岁以后，赶紧做好这3件事情，你有没有做好？",
        "docid": "7302279794421400079",
        "url": ""
    },
    {
        "title": "10个身体健康长寿的“金标准”，你能做到几个？",
        "docid": "7300770263728243238",
        "url": ""
    },
    {
        "title": "关于处女膜修补的一些问题",
        "docid": "7271150452056605203",
        "url": ""
    },
    {
        "title": "勇敢面对挑战，真情奉献爱心——记某医院医护人员的日夜奋战",
        "docid": "7302242647509484043",
        "url": ""
    },
    {
        "title": "心脏不适，10项心脏检查中，哪1项最为精确呢？医生告诉你",
        "docid": "7299113709165806107",
        "url": ""
    },
    {
        "title": "转扩！有关肺炎支原体感染的6个关键知识点",
        "docid": "7301660245602976271",
        "url": ""
    },
    {
        "title": "二级医院生存越来越难，与地方三甲医院竞争下可能逐渐消亡",
        "docid": "7301985130179461659",
        "url": ""
    },
    {
        "title": "今日辟谣（2023年11月17日）",
        "docid": "7302361648722575923",
        "url": ""
    },
    {
        "title": "药物研发自动化实验室行业报告：2035年全球未来自动化实验室市场将达718亿美元",
        "docid": "7302345026745844239",
        "url": ""
    },
    {
        "title": "肾囊肿越长越多，越长越大，是否会损伤肾脏？应该如何抑制生长？",
        "docid": "7271053153347584551",
        "url": ""
    },
    {
        "title": "我国发病率前五位癌：肺癌、结直肠癌、胃癌、肝癌和乳腺癌",
        "docid": "7301614743003988506",
        "url": ""
    },
    {
        "title": "扬子懂健康|宫颈癌筛查多久做一次？HPV疫苗怎么打？消除宫颈癌，听听专家怎么说",
        "docid": "7302438197589099045",
        "url": ""
    },
    {
        "title": "苏州高新区：千企共逐医疗器械产业新赛道",
        "docid": "7302344757949841955",
        "url": ""
    },
    {
        "title": "山东海王银河医药孔宪俊为何能够取得事业上的成功？",
        "docid": "7302484219635384886",
        "url": ""
    },
    {
        "title": "总是胸痛、胸闷、心慌，却又检查不出问题？可能是心脏这里堵了！",
        "docid": "7282582473551135286",
        "url": ""
    },
    {
        "title": "浏阳古港：续写“生命之光” 七旬老人离世后无偿捐赠器官和角膜",
        "docid": "7302389789054272012",
        "url": ""
    },
    {
        "title": "长期高血压，小心动脉瘤这颗“不定时炸弹”！",
        "docid": "7302311066728448566",
        "url": ""
    },
    {
        "title": "百姓看联播 | 河北援非医疗“老兵”王俊辉获得“时代楷模”称号",
        "docid": "7302329980397142566",
        "url": ""
    },
    {
        "title": "癌症、心脑血管疾病防治行动实施方案（2023—2030年）公布",
        "docid": "7301596977945739826",
        "url": ""
    },
    {
        "title": "医疗纠纷案例回顾：对腹痛未行相关检查，致患儿回家后死于心肌炎",
        "docid": "7276830558725014057",
        "url": ""
    },
    {
        "title": "301医院教授：少吃点肉吧！人到中老年应该吃什么肉？建议了解下",
        "docid": "7300868043088331315",
        "url": ""
    },
    {
        "title": "健康饮水知识问答",
        "docid": "7302476945902928424",
        "url": ""
    },
    {
        "title": "个人经验之北京种植牙：北大口腔种植牙的亲身经历帮助缺牙人士！",
        "docid": "7302375173737529908",
        "url": ""
    },
    {
        "title": "新生儿先天性肛门闭锁，清远市妇幼保健院医护团队妙手“解锁”",
        "docid": "7302370047535219239",
        "url": ""
    },
    {
        "title": "长期吃他汀会加速血管硬化？了解3个注意事项，降血脂安全又高效",
        "docid": "7287099887253488188",
        "url": ""
    },
    {
        "title": "郑州女子常逛公园看鸟，竟感染鹦鹉热肺炎“烧进”ICU",
        "docid": "7302442764111954472",
        "url": ""
    },
    {
        "title": "吸氧比喝咖啡更提神？医生怒斥：赶紧停下，吸多了会有这些危害！",
        "docid": "7288990783272010255",
        "url": ""
    },
    {
        "title": "各类口服降糖药的特点及用药交待！（值得收藏）",
        "docid": "7288913284332585527",
        "url": ""
    },
    {
        "title": "这6句忠告，送给老年糖尿病病友，一定要记牢，句句贴心！",
        "docid": "7273312681355067962",
        "url": ""
    },
    {
        "title": "湖南省第三人民医院新抗凝技术应用 为出血高危血透患者保驾护航",
        "docid": "7302335134118756864",
        "url": ""
    },
    {
        "title": "48岁阿姨在上海做了微创去眼袋，术后女儿认不出，惊呼：得叫姐姐",
        "docid": "7299667511115792908",
        "url": ""
    },
    {
        "title": "55岁阿姨，每天坚持踮脚，6个月后，她的身体发生了什么变化？",
        "docid": "7302341144887771675",
        "url": ""
    },
    {
        "title": "吃南瓜、红薯养胃还是伤胃？脾胃不好到底能不能吃？医生给出答案",
        "docid": "7301939974407242266",
        "url": ""
    },
    {
        "title": "逍遥丸的经典搭配，让你肝郁不起来！",
        "docid": "7291820826951696896",
        "url": ""
    },
    {
        "title": "中老年人早上起床后有5个表现，说明身体还算健康，占一个也不错",
        "docid": "7294185368885821979",
        "url": ""
    },
    {
        "title": "2023国家医保谈判打响 首轮至少两家企业出现",
        "docid": "7302292911410971175",
        "url": ""
    },
    {
        "title": "肝火旺，活不长，想要长寿，这几种中成药了解一下",
        "docid": "7278917253112791571",
        "url": ""
    },
    {
        "title": "我们为什么会生病?大多是因为这四个原因！",
        "docid": "7282711599020982825",
        "url": ""
    },
    {
        "title": "收藏！如何判断支原体感染？",
        "docid": "7302405797869765158",
        "url": ""
    },
    {
        "title": "听诊器的故事",
        "docid": "7302231256375558690",
        "url": ""
    },
    {
        "title": "秋冬季节孙俪最常吃的几种食物，难怪40岁了都不显老",
        "docid": "7301491939659153972",
        "url": ""
    },
    {
        "title": "医疗改革，医疗回归公益属性，势在必行",
        "docid": "7301645867663507983",
        "url": ""
    },
    {
        "title": "1.3亿患者的好消息！诺华、辉瑞纷纷入局这个百亿美元赛道",
        "docid": "7301603392458555941",
        "url": ""
    },
    {
        "title": "得了癌症血常规哪项不正常",
        "docid": "7270864579377381923",
        "url": ""
    },
    {
        "title": "养生达人常喝的七款中医茶饮！",
        "docid": "7296270853724373519",
        "url": ""
    },
    {
        "title": "扩大“朋友圈”，市七医院与15家生物医药企业签订医产融合战略协议",
        "docid": "7302403593968550434",
        "url": ""
    },
    {
        "title": "北京协和营养科，糖尿病患者降糖医嘱",
        "docid": "7295187294137369127",
        "url": ""
    },
    {
        "title": "直播预告：心梗预防、救治及术后综合管理",
        "docid": "7302315233689813556",
        "url": ""
    },
    {
        "title": "孩子吃孟鲁司特抽动，现在症状都好转了！教授：兴奋大脑的药去了",
        "docid": "7301235154427904553",
        "url": ""
    },
    {
        "title": "30天尿酸降了200多不反弹，做对了什么?方法教给你！",
        "docid": "7289340411397997090",
        "url": ""
    },
    {
        "title": "立秋后，少吃猪肉和牛肉，多吃这3种肉，腿脚有劲，精神头足！",
        "docid": "7275240916393509410",
        "url": ""
    },
    {
        "title": "17年湖南小伙患上绝症，父母4小时内相继自杀，1个月后他也\"走\"了",
        "docid": "7302374578624545334",
        "url": ""
    },
    {
        "title": "平生头一遭跟老外“同房”，感觉好笑又有点让人抓狂",
        "docid": "7298597491245875727",
        "url": ""
    },
    {
        "title": "最能让你拉屎的食物，刷了300份“窜稀配方”后，帮你找到了！",
        "docid": "7272182523294892599",
        "url": ""
    },
    {
        "title": "47岁壮汉为省100万手术费，自己锯断右腿，剧痛使他咬碎4颗牙齿",
        "docid": "7302355932158181929",
        "url": ""
    },
    {
        "title": "浙江男子肺里洗出18瓶“牛奶”！这个习惯很多人有……",
        "docid": "7301947139411198515",
        "url": ""
    },
    {
        "title": "原来她早已离世！自己定墓园和寿衣，3200万遗产全给姐姐",
        "docid": "7290499720626274874",
        "url": ""
    },
    {
        "title": "回顾：北大医学博士张进生，今失业已经十八年，在家中靠低保度日",
        "docid": "7269711974102090299",
        "url": ""
    },
    {
        "title": "热搜第一！怪不得我冬天穿不了高领……",
        "docid": "7301092678987448884",
        "url": ""
    },
    {
        "title": "长寿专家林海峰去世4年，终年51岁，背后原因惊醒无数中老年人！",
        "docid": "7294258327264002601",
        "url": ""
    },
    {
        "title": "两次断骨增高，花费115万，从1.67米变成1.81米，这位模特后悔了",
        "docid": "7294903741780902412",
        "url": ""
    },
    {
        "title": "我不要留造口，我宁愿不活了，我也不要满身粪便味",
        "docid": "7264117248632029708",
        "url": ""
    },
    {
        "title": "刷牙前不需要沾水！谈谈那些年刷错的牙",
        "docid": "7290473101450789430",
        "url": ""
    },
    {
        "title": "为什么说不抽烟、不喝酒的男人才最“可怕”？原因主要有三点",
        "docid": "7280408290864054842",
        "url": ""
    },
    {
        "title": "午睡可能影响寿命！再三提醒：50岁以后，牢记午睡“三不要”",
        "docid": "7277884824474731048",
        "url": ""
    },
    {
        "title": "俗话说“左眼跳财，右眼跳灾”，其实是错误的，眼皮跳是在提醒你",
        "docid": "7287482821214978612",
        "url": ""
    },
    {
        "title": "73岁老人盛海琳，13年前冒死生下双胞胎，采访时:若有来生绝不要",
        "docid": "7274806124841468427",
        "url": ""
    },
    {
        "title": "27岁小伙一天大便3次，确诊肠癌！3种大便异常是身体“警报”",
        "docid": "7283838027225498147",
        "url": ""
    },
    {
        "title": "我，80后烟台人，被人称“面具脸”，正规大学毕业，却找不到工作",
        "docid": "7287217161079292431",
        "url": ""
    },
    {
        "title": "阿莫西林不是消炎药？提醒：真正的消炎药只有2种，注意别认错了",
        "docid": "7287547598536507944",
        "url": ""
    },
    {
        "title": "我，90后男护士，月薪3000挺知足，网友说不如送外卖挣得多",
        "docid": "7277587048750514724",
        "url": ""
    },
    {
        "title": "男性刮胡子频率，与寿命挂钩？刮胡子次数多，说明啥？是好事吗？",
        "docid": "7283092498334007808",
        "url": ""
    },
    {
        "title": "专治不开心？“逍遥丸”突然火了！网友跟风下单，医生提醒",
        "docid": "7301690651765506587",
        "url": ""
    },
    {
        "title": "自己死亡自己知道？科学家：心脏停止跳动后，意识仍会持续",
        "docid": "7279369034376790591",
        "url": ""
    },
    {
        "title": "郑州市疾控提醒：坏情绪最伤身，8种方法帮你缓解",
        "docid": "7269677399271473720",
        "url": ""
    },
    {
        "title": "你以为的那些“坏习惯”，根本没必要改！",
        "docid": "7299474169455641107",
        "url": ""
    },
    {
        "title": "哈佛大学耗时80年，调查800多人后发现：长寿的关键并非身体强健",
        "docid": "7290766706875056698",
        "url": ""
    },
    {
        "title": "为什么有牛奶、羊奶，但没人喝猪奶？",
        "docid": "7287511919643345420",
        "url": ""
    },
    {
        "title": "酒瘾自测：喝酒出现这4种情况，别不承认，你已经是“酗酒者”了",
        "docid": "7301638986144236032",
        "url": ""
    },
    {
        "title": "为何说年龄超过50岁的人：即便身体健康，也没有多少来日方长？",
        "docid": "7300099632578085413",
        "url": ""
    },
    {
        "title": "奉劝男性：若不想被前列腺炎折磨下半生，尽早改掉这5大习惯！",
        "docid": "7284210634584523320",
        "url": ""
    },
    {
        "title": "卫校毕业31年，75个同学已有3个离世，一个医药代表，也有医生",
        "docid": "7273873443073163812",
        "url": ""
    },
    {
        "title": "老了才知道，不管有钱没钱，生病住院最好别告诉别人，没什么好处",
        "docid": "7288222201785483834",
        "url": ""
    },
    {
        "title": "为啥一到医院就要抽血？为您揭秘：抽出来的血，最终去哪儿了",
        "docid": "7290203527878623755",
        "url": ""
    },
    {
        "title": "人身上哪个部位挨打后最疼？轻轻一拳痛到休克，打架时千万保护好",
        "docid": "7277834281635217957",
        "url": ""
    },
    {
        "title": "血型不同，大脑衰老速度不同？哪种血型容易得老年痴呆？来看研究",
        "docid": "7300409018068091427",
        "url": ""
    },
    {
        "title": "羊肉是高尿酸的发物吗？不想肾病加重，有些吃的真要忌口",
        "docid": "7301151695550579238",
        "url": ""
    },
    {
        "title": "31岁儿子全职陪护“2岁”妈妈：你养我小 我陪你老",
        "docid": "7301826305052475945",
        "url": ""
    },
    {
        "title": "常吃洋葱能软化血管，杀死癌细胞？黄皮的营养高还是紫皮的高？",
        "docid": "7271217526065922575",
        "url": ""
    },
    {
        "title": "每天走多少步可以保护血管？提醒：养护血管，这5点别轻易忽视",
        "docid": "7281571475151421987",
        "url": ""
    },
    {
        "title": "医护人员被投诉的奇葩理由，怪不得他们是病人",
        "docid": "7269618668072337956",
        "url": ""
    },
    {
        "title": "985医学博士坐诊，手忙脚乱医学水平堪忧，反被病人上了一课",
        "docid": "7269712232463057460",
        "url": ""
    },
    {
        "title": "一万人中，有多少人能活到80岁？活多少岁算长寿？医生给你说实话",
        "docid": "7288986046862623266",
        "url": ""
    },
    {
        "title": "吃完动物血的第二天，排出黑便，说明身体在排毒？不少人理解错了",
        "docid": "7287546629593678336",
        "url": ""
    },
    {
        "title": "这样洗碗，细菌增加70倍！全吃进了肚子里……",
        "docid": "7281826007513121332",
        "url": ""
    },
    {
        "title": "寿命与饮食息息相关！柳叶刀公开：致死率前三的吃法，尽早改！",
        "docid": "7278259052436947490",
        "url": ""
    },
    {
        "title": "老人晚年饭量和寿命有关？医生提醒：能吃不一定是福，吃这些最好",
        "docid": "7301625007631893032",
        "url": ""
    },
    {
        "title": "杭州女子查出肺结节确诊早期肺癌 ，丈夫跟着做了CT，肺癌晚期！",
        "docid": "7301615124622656040",
        "url": ""
    },
    {
        "title": "网上配镜，全部都是个人看法，毕竟已经戴眼镜近二十年了",
        "docid": "7294205682625495562",
        "url": ""
    },
    {
        "title": "长期吃冷饭，不仅可以帮助降低血糖，还能维持肠道健康？真相来了",
        "docid": "7291979132329148962",
        "url": ""
    },
    {
        "title": "世界上最疼的病是什么病？疼痛排名前5的病，经历过的都是超人",
        "docid": "7296049581945537059",
        "url": ""
    },
    {
        "title": "胸口突然“刺痛”几秒，是猝死前兆还是心脏病预警？告诉你答案",
        "docid": "7273440449552187956",
        "url": ""
    },
    {
        "title": "为何欧美很少有“常年卧床”的老人？而我国却很多？看完令人深思",
        "docid": "7283862309041340989",
        "url": ""
    },
    {
        "title": "注意！抑郁症早期有4个危险信号",
        "docid": "7288225805451870781",
        "url": ""
    },
    {
        "title": "肾好不好，看脸就知道！脸上出现2种情况，代表你的肾脏在呼救",
        "docid": "7300854398572528163",
        "url": ""
    },
    {
        "title": "天冷：中老年早餐别舍不得，少吃馒头稀饭，多吃2样，健康入冬",
        "docid": "7295664679051919872",
        "url": ""
    },
    {
        "title": "华人医生黄馨祥：坐拥百亿却选择留在美国，拒绝回归认祖归宗",
        "docid": "7302449105698587186",
        "url": ""
    },
    {
        "title": "我，22岁女硕士，有着漂亮可爱的容貌，右眼却突然失明，身体发福",
        "docid": "7272706956484231734",
        "url": ""
    },
    {
        "title": "熬夜之后为啥心脏会砰砰跳？是危险前兆吗？",
        "docid": "7297961944152015395",
        "url": ""
    },
    {
        "title": "一人说一个死不了但很膈应人的小毛病 ​​​",
        "docid": "7282975960369037859",
        "url": ""
    },
    {
        "title": "9旬老人查出患癌，向仨女儿提唯一要求遭拒：爸爸，你是病傻了吧",
        "docid": "7300502123853185573",
        "url": ""
    },
    {
        "title": "人如果一辈子不吸烟不喝酒，寿命会不会更长？医生告诉你答案",
        "docid": "7293477172080017932",
        "url": ""
    },
    {
        "title": "提醒：4个行为会伤害女性乳房！很多人都爱做，看完记得改正",
        "docid": "7281584624147431973",
        "url": ""
    },
    {
        "title": "老后才明白，50岁到60岁，这10年，是人生中最“难熬”的时期",
        "docid": "7287959717904220728",
        "url": ""
    },
    {
        "title": "直肠癌看大便就知？提醒：上厕所时发现4个怪象，尽早做下肠镜",
        "docid": "7285041450813932086",
        "url": ""
    },
    {
        "title": "长期喝咖啡，身体最后会怎样？提醒：这3个后果，早知道早好",
        "docid": "7284952186336068096",
        "url": ""
    },
    {
        "title": "11万人研究发现：走路与寿命之间的关系，60岁以后，步数要刚刚好",
        "docid": "7291274962877743677",
        "url": ""
    },
    {
        "title": "中国版泰坦尼克号：河南小伙送女友上救生船，自己漂泊18小时获救",
        "docid": "7273349026647556623",
        "url": ""
    },
    {
        "title": "人过六十，若出现这3个好兆头，说明福气来了",
        "docid": "7273301597642342949",
        "url": ""
    },
    {
        "title": "注意！这4类药，长期吃可能导致心脏衰竭，提醒父母谨慎服用",
        "docid": "7292665388494537228",
        "url": ""
    },
    {
        "title": "穿一下疼得受不了！这种“神器”很多女生都有，医生提醒",
        "docid": "7301976018016059956",
        "url": ""
    },
    {
        "title": "烟瘾、酒瘾、色瘾，谁才是“折寿”最狠的？中老年人，别太贪心",
        "docid": "7272669937536107045",
        "url": ""
    },
    {
        "title": "哈佛大学研究发现：喝粥与死亡率的关系，长期喝粥更长寿吗？",
        "docid": "7288136619524342287",
        "url": ""
    },
    {
        "title": "耳朵里面经常痒，却啥也掏不出来？或是3种病惹的祸，最好上点心",
        "docid": "7277557163751375395",
        "url": ""
    },
    {
        "title": "身体好不好看头发就知道！",
        "docid": "7296673178473022003",
        "url": ""
    },
    {
        "title": "一场大病后，我来到深山生活，没想到一个空木桶带来8万多元收入",
        "docid": "7300537331902448180",
        "url": ""
    },
    {
        "title": "有一类人最好滴酒不沾，问自己两个问题就能测出来",
        "docid": "7270156861251486265",
        "url": ""
    },
    {
        "title": "6年内，一家4人先后查出这种癌！早期症状难察觉，医生提醒→",
        "docid": "7302424643976266274",
        "url": ""
    },
    {
        "title": "有哪些你深信不疑的生活常识，其实是假的？",
        "docid": "7269603044231283239",
        "url": ""
    },
    {
        "title": "两个战友患重病，一个遵医嘱治疗一个长年旅游，结果大相径庭",
        "docid": "7283460552113029667",
        "url": ""
    },
    {
        "title": "人类医学的至暗时刻：中世纪放血疗法",
        "docid": "7291609516112609844",
        "url": "https://www.ixigua.com/7291609516112609844"
    },
    {
        "title": "女子蒸馒头出现回缩现象，揭盖瞬间急忙拍打“抢救”，碎碎念爆笑",
        "docid": "7294560291491807759",
        "url": "https://www.ixigua.com/7294560291491807759"
    },
    {
        "title": "卵巢癌虽不是妇科最常见的恶性肿瘤，但它是妇科最难治的恶性肿瘤",
        "docid": "7301948143631860287",
        "url": "https://www.ixigua.com/7301948143631860287"
    },
    {
        "title": "肿瘤长烂了腐败了，结痂一揭开，里边全是蛆在爬！仍有办法可愈合",
        "docid": "7273073540486988348",
        "url": "https://www.ixigua.com/7273073540486988348"
    },
    {
        "title": "5岁男孩头型像冬瓜，医生：是舟状头，来晚了但好在脑发育正常",
        "docid": "7280527172971069952",
        "url": "https://www.ixigua.com/7280527172971069952"
    },
    {
        "title": "女子生完孩子不久患上绝症，时隔1年爷爷带娃探望，女子表情破防",
        "docid": "7290752472379818559",
        "url": "https://www.ixigua.com/7290752472379818559"
    },
    {
        "title": "男子骨折进医院！没承想医生是老同学，空闲时间陪着吃喝网友慕了",
        "docid": "7291924762082116107",
        "url": "https://www.ixigua.com/7291924762082116107"
    },
    {
        "title": "护士打耳洞就地取材 专业技能不能浪费",
        "docid": "7301923080408924722",
        "url": "https://www.ixigua.com/7301923080408924722"
    },
    {
        "title": "程凯养生说·2023：早晨手发胀握不拢，活动活动就缓解是怎么回事",
        "docid": "7296818203454833171",
        "url": "https://www.ixigua.com/7296818203454833171"
    },
    {
        "title": "大便之后要不要用水洗屁股？长期坚持洗的人，对身体有没有好处？",
        "docid": "7284989891968336444",
        "url": ""
    },
    {
        "title": "医保账户里的钱怎么花？能不能取？每个人都该了解的医保常识",
        "docid": "7294931003951333903",
        "url": ""
    },
    {
        "title": "再三提醒：酒后出现3个症状，可能是“胰腺炎”来了，别不当回事",
        "docid": "7283335738870153786",
        "url": ""
    },
    {
        "title": "脖子粗脑袋大，孩子见了都害怕！回头率还贼高！黑龙江这名男子到底得了啥病？",
        "docid": "7302143228915335717",
        "url": ""
    },
    {
        "title": "茶叶是打通人体经络最有效的食品？复旦研究：不同茶叶有相应归经",
        "docid": "7283758654900388352",
        "url": ""
    },
    {
        "title": "奉劝大家！牢记：抽3种烟的人别理，喝3种酒的人别交，真的很现实",
        "docid": "7275529140886766135",
        "url": ""
    },
    {
        "title": "比烟更可怕的肺癌祸首，可能就在你身边！做好3件事，肺会感激你",
        "docid": "7300870866332680739",
        "url": ""
    },
    {
        "title": "再三提醒：步入老年，肌肉流失快！不想老了干瘪，最好常做4件事",
        "docid": "7276063820760678927",
        "url": ""
    },
    {
        "title": "孩子得了过敏性鼻炎，除了用激素，这个治疗方法现在挺火的……",
        "docid": "7280791434020798976",
        "url": ""
    },
    {
        "title": "别把衰老当成病！过了60岁能做到这9点，就是健康老人",
        "docid": "7287130583984390717",
        "url": ""
    },
    {
        "title": "倾家荡产也不能治愈？提醒：这六种疾病其实治不好，别白花冤枉钱",
        "docid": "7288647762420204067",
        "url": ""
    },
    {
        "title": "在肚子上开一个肛门，他们带着排泄物走完余生",
        "docid": "7290107882090021412",
        "url": ""
    },
    {
        "title": "退休后，还对这3件事感兴趣，多半可能活过90岁",
        "docid": "7270154198707077690",
        "url": ""
    },
    {
        "title": "还记得天生胎记酷似“蝙蝠侠”的女婴吗？6次整容后，仍需治疗",
        "docid": "7275983287108289076",
        "url": ""
    },
    {
        "title": "我53岁，突然悟透不生病的秘密，做到的人不多，看看你做到了几条",
        "docid": "7278936004844012032",
        "url": ""
    },
    {
        "title": "菜市场上“最坑人”的3种食材，不安全，中老年很喜欢买，别大意",
        "docid": "7301528900952474162",
        "url": ""
    },
    {
        "title": "退休后才明白，打麻将、跳广场舞已经过时了，需要“新三样”",
        "docid": "7283666835294487075",
        "url": ""
    },
    {
        "title": "我35年前肾移植，23年前嫁小13岁老公没孩子，他把我宠成孩子",
        "docid": "7290084231643169315",
        "url": ""
    },
    {
        "title": "新研究：瑞典研究了1200位百岁老人，发现长寿者大多有这3个特点",
        "docid": "7291557758036460066",
        "url": ""
    },
    {
        "title": "关于支原体肺炎，专家这样说",
        "docid": "7293912695231889983",
        "url": ""
    },
    {
        "title": "西兰花、豆芽嘌呤高比肉还危险？高尿酸痛风不能吃？真相来了",
        "docid": "7302340675821896231",
        "url": ""
    },
    {
        "title": "家里不起眼的3个角落，很可能是白血病的“诱因”，很多人不了解",
        "docid": "7301853738887741993",
        "url": ""
    },
    {
        "title": "多名医生呼吁：中老年人要少吃南瓜和土豆，很多人还不知道",
        "docid": "7299285142210675234",
        "url": ""
    },
    {
        "title": "34岁突发尿毒症，继续工作、旅行，从未让透析停止热爱生活的脚步",
        "docid": "7282589088749453835",
        "url": ""
    },
    {
        "title": "六七十岁的老年人，如果想再多活个10年20年的，就要做好以下几点",
        "docid": "7302030509398770216",
        "url": ""
    },
    {
        "title": "每天吃一根黄瓜，身体会发生什么变化？真的降血压、降血糖？",
        "docid": "7277387934108746280",
        "url": ""
    },
    {
        "title": "被折磨3年，竟是洗澡洗出个“鸟病”！医生：很多人日常都没注意",
        "docid": "7300450768497263113",
        "url": ""
    },
    {
        "title": "从皮肤瘙痒到癌症晚期，仅3个月！这起悲剧，给所有人敲响警钟",
        "docid": "7291591506820104719",
        "url": ""
    },
    {
        "title": "水果为什么变得越来越甜，会不健康吗？",
        "docid": "7285582816052888104",
        "url": ""
    },
    {
        "title": "想治好癌症，要留一条路，才能获得长期生存。",
        "docid": "7288234259058360873",
        "url": ""
    },
    {
        "title": "“人老两个坎，熬过就长寿”，“两坎”是指哪2年？老年人要注意",
        "docid": "7294886062906802739",
        "url": ""
    },
    {
        "title": "狱医自述：上一休二，月薪2万，但我还是离开了",
        "docid": "7271561241980600884",
        "url": ""
    },
    {
        "title": "地铁站有人晕倒，北医三院护士只顾救人：没发现你在旁边",
        "docid": "7301937700305732107",
        "url": ""
    },
    {
        "title": "天冷晒太阳有4大好处！隔着玻璃晒能补钙吗？晒多久好？全告诉你",
        "docid": "7299284629385642530",
        "url": ""
    },
    {
        "title": "哪些食物要焯水？用热水还是冷水？别搞错了！",
        "docid": "7271445208888934953",
        "url": ""
    },
    {
        "title": "13年前，那个10岁就号称中医“神童”医者的刘尚谨，后来如何了？",
        "docid": "7279328885098005052",
        "url": ""
    },
    {
        "title": "年龄大了要忌嘴！建议：50岁以后，“4不吃4多吃”，为入冬打基础",
        "docid": "7299264241138221608",
        "url": ""
    },
    {
        "title": "太可惜了！我同学才领两年养老金，五月得晚期胃癌，八月人就没了",
        "docid": "7274975966093394484",
        "url": ""
    },
    {
        "title": "快速发现早期痴呆，“画钟法”被世界公认！40岁就可以开始用",
        "docid": "7273021711191228989",
        "url": ""
    },
    {
        "title": "寿命与体重的关系被发现：60岁后，这样的体重刚刚好，你达标了吗",
        "docid": "7280732447128551999",
        "url": ""
    },
    {
        "title": "烟酒不沾寿命更短？北大研究：不抽烟、不饮酒可大幅延长国人寿命",
        "docid": "7277446735432352308",
        "url": ""
    },
    {
        "title": "“被折叠的人”李华：骨头敲断4次、植入22颗钢钉，最终重获新生",
        "docid": "7302378798622769690",
        "url": ""
    },
    {
        "title": "人死后真的还有痛觉？遗体器官捐献要用麻药，还真不是小题大做",
        "docid": "7287063011695837696",
        "url": ""
    },
    {
        "title": "生病不一定就是坏事！医生：这5种病不吃药，可能更有益于健康",
        "docid": "7302318042041025078",
        "url": ""
    },
    {
        "title": "为什么越来越多人得肾结石？劝告：避开3个诱因，切莫贪嘴多吃",
        "docid": "7273046809654805053",
        "url": ""
    },
    {
        "title": "13天花费40万，医院里烧钱式的治疗，ICU凭啥这么贵?看完就明白了",
        "docid": "7275276270642987560",
        "url": ""
    },
    {
        "title": "北京医院院长送给老人3句话：很多“病”都不算病，只是衰老罢了",
        "docid": "7282756819762577983",
        "url": ""
    },
    {
        "title": "5类药不能乱碰，多吃可致“严重肝损伤”，正确使用请牢记3件事",
        "docid": "7271221143615308323",
        "url": ""
    },
    {
        "title": "身体出现这个表现，说明你血管变硬了！",
        "docid": "7281076199781909004",
        "url": ""
    },
    {
        "title": "退休后麻将不离手，这天打完两场，64岁老李肺部大面积栓塞了！",
        "docid": "7297425187031859751",
        "url": ""
    },
    {
        "title": "为什么老伴走后，寡居的女人多半能长寿？过来人告诉你这3个原因",
        "docid": "7277418803414319657",
        "url": ""
    },
    {
        "title": "体内有癌，皮肤先知？提醒：皮肤出现4种异常，可能是癌症来临",
        "docid": "7302363110667534875",
        "url": ""
    },
    {
        "title": "妇产科男医生刘淼：从不受信任到“妇女之友”，21年见证人情冷暖",
        "docid": "7291223954096964133",
        "url": ""
    },
    {
        "title": "全身麻醉相当于死过一次？麻醉之后，身体会有副作用？告诉你真相",
        "docid": "7281208079532851727",
        "url": ""
    },
    {
        "title": "坚持100天，把失去的头发养回来！",
        "docid": "7284112961801863741",
        "url": ""
    },
    {
        "title": "补血补肾必吃桑葚，送你8个桑葚的经典搭配！",
        "docid": "7286806239467029026",
        "url": ""
    },
    {
        "title": "血压高到多少会发生脑出血？医生划出3条“警戒线”，要心里有数",
        "docid": "7283313047861576207",
        "url": ""
    },
    {
        "title": "半年前肚子痛，各种检查正常，结果是晚期肠癌！后悔没做肠镜！",
        "docid": "7300758275631530530",
        "url": ""
    },
    {
        "title": "戒酒一年后，身体会有什么变化？经常喝酒的你，看完再做决定",
        "docid": "7274031218126062138",
        "url": ""
    },
    {
        "title": "61岁男子坚持不吃晚饭，降血脂、软化血管，半年后身体状况如何？",
        "docid": "7289010117339857443",
        "url": ""
    },
    {
        "title": "老年人腿软、使不上劲？提醒：补充好4种营养，走起路来腿更有力",
        "docid": "7299399871264703011",
        "url": ""
    },
    {
        "title": "没病没痛不一定是健康，这8个表现更重要！",
        "docid": "7288291325135766057",
        "url": ""
    },
    {
        "title": "你的体内有没有湿气，看几个症状就够了。若不及时祛湿，当心慢性疲劳找上门！",
        "docid": "7269589186729312780",
        "url": ""
    },
    {
        "title": "把叶菜类蔬菜放冰箱超过24小时，就有可能中毒、致癌？专家这样说",
        "docid": "7301932552070218267",
        "url": ""
    },
    {
        "title": "腰臀部疼时，尤其小腿后外侧疼痛、麻木，必做4个检查，别只拍片",
        "docid": "7286291534339703356",
        "url": ""
    },
    {
        "title": "老人难过冬？专家：这4大\"夺命坎\"都是诱因，牢记这些\"忌\"、\"宜\"",
        "docid": "7301894603077435942",
        "url": ""
    },
    {
        "title": "几个颠覆认知的生活常识！！",
        "docid": "7292977456544563747",
        "url": ""
    },
    {
        "title": "回到猝死前十天：年轻人，再给一次机会，你还会这么拼吗？",
        "docid": "7270825985652834877",
        "url": ""
    },
    {
        "title": "阿司匹林抗癌再添新证！最新研究：阿司匹林抑制癌症转移新机制",
        "docid": "7301615045748802063",
        "url": ""
    },
    {
        "title": "医保卡使用6个小技巧，让你看病就医少花钱还更方便！",
        "docid": "7284519725478969871",
        "url": ""
    },
    {
        "title": "身体突然长痣？2种情况、5大改变有恶变风险",
        "docid": "7287835047976043064",
        "url": ""
    },
    {
        "title": "一个人到了50岁后，还对3件事感兴趣，说明你很年轻，心不老",
        "docid": "7279989702135218700",
        "url": ""
    },
    {
        "title": "人的衰老并不是匀速，科学家发现：这三个年龄段老的最快",
        "docid": "7276629082111214114",
        "url": ""
    },
    {
        "title": "著名心血管病专家胡大一，实名举报！多方回应",
        "docid": "7301629843513360933",
        "url": ""
    },
    {
        "title": "6颗板栗=1碗米饭？街边糖炒栗子吃多了致癌？真相是……",
        "docid": "7290523172967973411",
        "url": ""
    },
    {
        "title": "史铁生之死：发病时妻不在身边，救护车上留三字遗言，死前捐器官",
        "docid": "7300439264037192211",
        "url": ""
    },
    {
        "title": "每天慢走一万步，能消除脂肪肝？医生：这样锻炼，效果或许会更好",
        "docid": "7296780113432150565",
        "url": ""
    },
    {
        "title": "残忍的遗传规律：父母患上这4种癌，下一代可能会“复制”",
        "docid": "7280454468088103459",
        "url": ""
    },
    {
        "title": "危险的快递驿站：一场不该发生的意外",
        "docid": "7302361030284329481",
        "url": ""
    },
    {
        "title": "每天这样吃饭，为什么≈慢性自杀？",
        "docid": "7269410763847205433",
        "url": ""
    },
    {
        "title": "想要保护肾脏，远离尿毒症？要牢记“吃饭两不要，晚上两坚持”！",
        "docid": "7287464408375132687",
        "url": ""
    },
    {
        "title": "“吃得越饱，死得越早”，是真靠谱还是伪科学？权威研究给出答案",
        "docid": "7276392800285901364",
        "url": ""
    },
    {
        "title": "28岁老公，四级胶质瘤，42次放疗，这平淡的生活属实求之不易！",
        "docid": "7281037695646925372",
        "url": ""
    },
    {
        "title": "征兵体检淘汰率升高，背后是“精索静脉曲张”惹的祸",
        "docid": "7290449986158953018",
        "url": ""
    },
    {
        "title": "养胃的日子——写给正在被胃病困扰的人，与其焦虑，不如自救",
        "docid": "7289389390051312163",
        "url": ""
    },
    {
        "title": "上亿人乳糖不耐，为何还建议你喝奶？",
        "docid": "7278222566442205732",
        "url": ""
    },
    {
        "title": "柑橘类水果是凉性还是热性，吃了会不会上火？",
        "docid": "7291187766166127143",
        "url": ""
    },
    {
        "title": "司美格鲁肽被多国限制使用？医生总结：鸡腿级降糖，鸡肋级减重",
        "docid": "7302346376556495379",
        "url": ""
    },
    {
        "title": "秋天脂肪肝，怎么瘦得快？",
        "docid": "7276661767366181428",
        "url": ""
    },
    {
        "title": "过度疲劳的6种表现",
        "docid": "7288868983246275107",
        "url": ""
    },
    {
        "title": "头孢配酒，说走就走！除了头孢，这5种药也不能沾酒，你在吃吗？",
        "docid": "7279076543249678888",
        "url": ""
    },
    {
        "title": "45岁女子，每天光吃菜不吃米饭，半年后身体发生了什么变化？",
        "docid": "7284201362357994043",
        "url": ""
    },
    {
        "title": "变态无用的节俭就是极致的自私！",
        "docid": "7276748037274534455",
        "url": ""
    },
    {
        "title": "建议中老年人：若不差钱，少吃鸡肉多吃这4样，高蛋白低脂又美味",
        "docid": "7291648807274578451",
        "url": ""
    },
    {
        "title": "早上锻炼还是晚上锻炼好？专家：这个时间锻炼，最能降低患癌风险",
        "docid": "7301869094737887781",
        "url": ""
    },
    {
        "title": "原来塞牙是牙齿在求救",
        "docid": "7280705064854143522",
        "url": ""
    },
    {
        "title": "研究发现步数和死亡率的关系，65岁后别和步数较劲，这个范围挺好",
        "docid": "7288509943127474747",
        "url": ""
    },
    {
        "title": "相比西地那非等传统“伟哥”，为何更建议中老年男性用伐地那非？",
        "docid": "7278228281210683960",
        "url": ""
    },
    {
        "title": "退休在家，养成这8个好习惯，让你的生活越过越滋润，贵不可言",
        "docid": "7278248554404463163",
        "url": ""
    },
    {
        "title": "肺癌多是“拖”出来的，提醒：身体有这4个表现，千万别轻易忽视",
        "docid": "7270397547590599202",
        "url": ""
    },
    {
        "title": "5年前，33岁的她患上了癌症，被丈夫直接抛弃最后过得怎么样？",
        "docid": "7279009489398333989",
        "url": ""
    },
    {
        "title": "医生坦言：寿命长不是靠多走路、多睡觉，坚持这2件小事就可以！",
        "docid": "7294560936495759887",
        "url": ""
    },
    {
        "title": "得了肾病，为什么不能干重活？",
        "docid": "7301884681589391872",
        "url": ""
    },
    {
        "title": "“懒”出来的老年痴呆！医生建议：中老年人不要做这些事！",
        "docid": "7275650049709752867",
        "url": ""
    },
    {
        "title": "去了一趟医院才知道，有慢性病卡竟然可以省下这么多钱！",
        "docid": "7301960684437291571",
        "url": ""
    },
    {
        "title": "8种癌症早期无症状，一发现就是中晚期",
        "docid": "7301182790509462057",
        "url": ""
    },
    {
        "title": "老中医提醒：吃中药不忌口就等于白吃！牢记这3点，别浪费药效了",
        "docid": "7290470177332953615",
        "url": ""
    },
    {
        "title": "退休后，消耗你福气的6个坏习惯，请逼自己戒掉",
        "docid": "7278916927274123832",
        "url": ""
    },
    {
        "title": "研究发现维生素C等抗氧化剂会刺激癌症生长和转移",
        "docid": "7273775960171217419",
        "url": ""
    },
    {
        "title": "为什么很多人“宁死也不放疗”？医生坦言：3种癌症选放疗或更好",
        "docid": "7283075101975757352",
        "url": ""
    },
    {
        "title": "33岁雌雄同体的女性，具备男女两性器官，该如何生存下去？",
        "docid": "7301151397893308955",
        "url": ""
    },
    {
        "title": "老年人夜尿几次算正常，有哪些危害，如何应对？医生一次讲清楚！",
        "docid": "7276374747993358889",
        "url": ""
    },
    {
        "title": "国产器械逆袭！谁能成为内窥镜之王？",
        "docid": "7293829415279247907",
        "url": ""
    },
    {
        "title": "用阿托伐他汀降脂的人注意了，服用时牢记4个细节，用错会伤身",
        "docid": "7297890372108419622",
        "url": ""
    },
    {
        "title": "确诊糖尿病，胖点好还是瘦点好？糖尿病人变瘦了是好事还是坏事？",
        "docid": "7278150038210052666",
        "url": ""
    },
    {
        "title": "25年前740克早产的“巴掌宝宝”成为护士守护更多新生儿",
        "docid": "7302663131628012069",
        "url": ""
    },
    {
        "title": "甲钴胺是糖尿病患者的“好帮手”，对付5种病很在行，吃多久停药",
        "docid": "7277825254766936611",
        "url": ""
    },
    {
        "title": "灵芝孢子粉，到底是养生好物还是慢性毒药？癌症患者可以吃吗？",
        "docid": "7283826347297128995",
        "url": ""
    },
    {
        "title": "中国式医师职称晋升，大量造假，为了晋升不择手段，本末倒置",
        "docid": "7295207870185341478",
        "url": ""
    },
    {
        "title": "人过60会出现“断崖式”衰老！无论如何，请记住运动不是最重要的",
        "docid": "7296431518095016482",
        "url": ""
    },
    {
        "title": "狂犬病为啥那么恐怖？人类与狂犬病的斗争史，2004年有人被治愈！",
        "docid": "7291610746097107497",
        "url": "https://www.ixigua.com/7291610746097107497"
    },
    {
        "title": "痔疮术后换药时放屁连汤带水的，医生会怪我吗？",
        "docid": "7289646433542603275",
        "url": "https://www.ixigua.com/7289646433542603275"
    },
    {
        "title": "\"胆结石，根本排不出去！排出去的都是骗子！\"中医带你揭秘真相！",
        "docid": "7271959705667240502",
        "url": "https://www.ixigua.com/7271959705667240502"
    },
    {
        "title": "上海：新方案奏效 儿童支原体感染病例回落",
        "docid": "7301124064754532905",
        "url": "https://www.ixigua.com/7301124064754532905"
    },
    {
        "title": "产妇生产完多久才能够洗澡洗头？",
        "docid": "7278525863501660691",
        "url": "https://www.ixigua.com/7278525863501660691"
    },
    {
        "title": "胰腺有癌，吃饭知道？身体的这些异样，可能是胰腺癌的信号",
        "docid": "7298707213043335717",
        "url": "https://www.ixigua.com/7298707213043335717"
    },
    {
        "title": "女子被蜱虫咬住不松口，情急之下用白酒将其困容器中，结局太意外",
        "docid": "7294934078666015241",
        "url": "https://www.ixigua.com/7294934078666015241"
    },
    {
        "title": "儿子记录妈妈患癌前后变化，刚开始笑着打气，3年后样子让人心酸",
        "docid": "7302709987334324748",
        "url": "https://www.ixigua.com/7302709987334324748"
    },
    {
        "title": "冰箱久放三物，全家吃完竟查出肝癌，医生叹息：早了解早做预防！",
        "docid": "7302723851543413284",
        "url": ""
    },
    {
        "title": "吸烟的人都会“短命”吗？英国有专家经过50年的调查，找出了真相",
        "docid": "7296029919543575074",
        "url": ""
    },
    {
        "title": "3年换9个“神医”身份，坑了老年人80个亿的刘洪斌，下场如何",
        "docid": "7278550988917752372",
        "url": ""
    },
    {
        "title": "一天8台乳腺癌手术，两个是男性！浙大一院医生感慨：从医30年第一次碰到",
        "docid": "7302734676039483923",
        "url": ""
    },
    {
        "title": "能健康长寿的人，下肢有这样一个特点！",
        "docid": "7297821185122009663",
        "url": ""
    },
    {
        "title": "63岁男子坚持不吃晚饭，降血脂、软化血管，半年后身体状况如何？",
        "docid": "7270780355492217359",
        "url": ""
    },
    {
        "title": "庄辉院士：乙型肝炎治愈，我们还能做什么？",
        "docid": "7296401924562174483",
        "url": ""
    },
    {
        "title": "睡眠不足的表现，你有吗？",
        "docid": "7277558027253858831",
        "url": ""
    },
    {
        "title": "2018年，北大教授妻子患绝症，她平静的说：稍等，我安排一下后事",
        "docid": "7300023144335966754",
        "url": ""
    },
    {
        "title": "为什么你打胰岛素的地方硬硬的？教你几招化解",
        "docid": "7288268436122370617",
        "url": ""
    },
    {
        "title": "突然鱼刺卡喉，千万别再吞饭、喝醋了！一篇教你正确的处理方法",
        "docid": "7280085551557132837",
        "url": ""
    },
    {
        "title": "前列腺癌一发现就是晚期？提醒：身体出现这5种症状，尽早检查",
        "docid": "7301972926960943625",
        "url": ""
    },
    {
        "title": "你会生几次病，赚多少钱，活多少岁，这4个地方早有答案",
        "docid": "7277361044710834688",
        "url": ""
    },
    {
        "title": "首部胃癌防治指南发布：4个坏习惯要改正，8个好习惯要养成！千万别让“癌从口入”",
        "docid": "7301959233690583602",
        "url": ""
    },
    {
        "title": "经常吃“陈皮”，身体会发生什么变化？中医：或能改善3个问题",
        "docid": "7271163650587623988",
        "url": ""
    },
    {
        "title": "白开水放凉后堪比慢性毒药？常喝65℃的水会致癌？答案来了",
        "docid": "7301976853102248458",
        "url": ""
    },
    {
        "title": "瘦身人眼中的肉",
        "docid": "7288206543365997115",
        "url": ""
    },
    {
        "title": "去痛片和布洛芬，哪个对人体的副作用更大？下回可别再乱吃了",
        "docid": "7270467105282097679",
        "url": ""
    },
    {
        "title": "新研究：坚持八个好习惯，有望让您逆转生物年龄，年轻六岁！",
        "docid": "7301316310376743478",
        "url": ""
    },
    {
        "title": "桃子被誉为“果中皇后”，糖尿病人经常吃，是升血糖还是降血糖？",
        "docid": "7273810053331976759",
        "url": ""
    },
    {
        "title": "腐乳到底是人间美味，还是健康的“杀手”？现在有正确答案了！",
        "docid": "7278891779251061300",
        "url": ""
    },
    {
        "title": "“秋后三不吃，吃了火不止”！入秋后“忌3物，饮4茶”，稳度秋",
        "docid": "7275226772331889193",
        "url": ""
    },
    {
        "title": "梅毒的“潜伏期”有多长？若有以下表现， 可能是梅毒在“敲门”",
        "docid": "7300026653806346789",
        "url": ""
    },
    {
        "title": "生活中“老得慢”的人，都有这5个好习惯，看看你占了几个？",
        "docid": "7295940261765464595",
        "url": ""
    },
    {
        "title": "心率60次和80次，哪个更好？有差别吗？高血压、冠心病的人了解下",
        "docid": "7289328101899649570",
        "url": ""
    },
    {
        "title": "中医教你如何看喜脉，一分钟学会！",
        "docid": "7284014901067039284",
        "url": ""
    },
    {
        "title": "你还敢这样睡觉吗？患糖尿病风险或增加72%",
        "docid": "7281510683706327592",
        "url": ""
    },
    {
        "title": "血压高到多少，才会诱发脑出血？医生给出参考值，最好心中有个数",
        "docid": "7293405571842130442",
        "url": ""
    },
    {
        "title": "长沙一大爷因便秘自行服用大量泻药，就医后发现肠子黑了",
        "docid": "7300784582918816296",
        "url": ""
    },
    {
        "title": "为什么喝酒脸红的人更易得食管癌。医生直言：和乙醛有关！",
        "docid": "7302678988911280649",
        "url": ""
    },
    {
        "title": "皮肤长红痣，除了肝病，还有可能与这3个因素有关，早了解早受益",
        "docid": "7293805121190887970",
        "url": ""
    },
    {
        "title": "一人做饭，全家致癌？有这6个做菜坏习惯，可能比外卖还不健康",
        "docid": "7274866388710310436",
        "url": ""
    },
    {
        "title": "大片皮肤脱落，躺着都不敢动！救治38天，“体无完肤”的男子涅槃重生",
        "docid": "7302448668995519026",
        "url": ""
    },
    {
        "title": "才18岁！浙江一姑娘被确诊了，还是高度恶性！",
        "docid": "7301167918631813684",
        "url": ""
    },
    {
        "title": "入门级的中医基础知识！",
        "docid": "7291819019903156770",
        "url": ""
    },
    {
        "title": "警惕老年人的“视力杀手”！我国70岁以上人群一定要注意这些事！",
        "docid": "7285204509431759360",
        "url": ""
    },
    {
        "title": "舌头有这1种现象的人，要查血糖了！很可能血糖已经超标了",
        "docid": "7291223094973170235",
        "url": ""
    },
    {
        "title": "出门在外多留点“心”，不然后悔莫及！人性的恶是无法估量的",
        "docid": "7275201577512813092",
        "url": ""
    },
    {
        "title": "吃他汀后吃水果，诱发肾衰！这水果正应季，家里有吃他汀的要注意",
        "docid": "7288201409127678520",
        "url": ""
    },
    {
        "title": "测血糖，选左手还是右手？你选对了吗？",
        "docid": "7291970929633264155",
        "url": ""
    },
    {
        "title": "医院八卦千千万，肛肠科就占一半。只有你想不到，没有他们做不到",
        "docid": "7302656709985092105",
        "url": ""
    },
    {
        "title": "长期抽烟的人，最怕这4种异样！一旦出现，或许离肺癌不远了",
        "docid": "7302358740286702114",
        "url": ""
    },
    {
        "title": "阴茎假体“三件套”到底是啥，有啥用？",
        "docid": "7281487392551404092",
        "url": ""
    },
    {
        "title": "小伙每天反复思考人生难自控，大脑被打洞后……今天开机了！",
        "docid": "7301697203628884507",
        "url": ""
    },
    {
        "title": "每天放屁和从不放屁的人相比，哪种人更健康？身体的变化骗不了人",
        "docid": "7274899505529651752",
        "url": ""
    },
    {
        "title": "交易金额超10亿美元！瑞士制药巨头买下中国抗肺癌药",
        "docid": "7302337889281507874",
        "url": ""
    },
    {
        "title": "这几种食物不但不养胃 还可能伤胃",
        "docid": "7297483767311565349",
        "url": ""
    },
    {
        "title": "一种会让牙齿掉光的病，很多人年轻时不重视",
        "docid": "7286667450270302720",
        "url": ""
    },
    {
        "title": "健康长寿并不难，贵在坚持七句话！中老年人要牢记~",
        "docid": "7301905065848078883",
        "url": ""
    },
    {
        "title": "警惕！这2个常见的动作容易让血栓瞬间脱落，堵塞血管，严重或危及生命！",
        "docid": "7278504324505436735",
        "url": ""
    },
    {
        "title": "这3种香烟千万不要买，就连烟草局的人都不抽，抽烟的快来看看！",
        "docid": "7302745961322496547",
        "url": ""
    },
    {
        "title": "早上空腹喝水，比不吃早饭危害还大？提醒：3种水真的要少喝",
        "docid": "7289794419920732683",
        "url": ""
    },
    {
        "title": "不容易老的人，大多喜欢做3件事，希望你全占了",
        "docid": "7291492003580232250",
        "url": ""
    },
    {
        "title": "做一次CT，对人体的伤害有多大？多少次会致癌？医生告诉你答案",
        "docid": "7280791277933789731",
        "url": ""
    },
    {
        "title": "人老了，不在于运动，不在于喝水！过了60岁，请牢记4项长寿准则",
        "docid": "7298268030684299787",
        "url": ""
    },
    {
        "title": "切除子宫的女人，也还是正常的女人，只不过会有2个变化",
        "docid": "7269965083420328506",
        "url": ""
    },
    {
        "title": "36岁的她鼻窦炎、鼻中隔偏曲，做了鼻窦开放术后，感觉做了个寂寞",
        "docid": "7280059506665472570",
        "url": ""
    },
    {
        "title": "茭白里面的小黑点是什么？到底能不能吃？看完文章终于明白了",
        "docid": "7278621317803622931",
        "url": ""
    },
    {
        "title": "当归配一宝，头发蹭蹭长，今天刘医生教你如何养出乌黑茂密的头发",
        "docid": "7287840207418704424",
        "url": ""
    },
    {
        "title": "人体需求维生素自查表！",
        "docid": "7302013056065520147",
        "url": ""
    },
    {
        "title": "秋天要多吃此肉，比牛肉便宜，比鸡鸭肉香，营养滋补好吃不发胖！",
        "docid": "7282645200806543913",
        "url": ""
    },
    {
        "title": "7年前，身高89厘米的湖北瓷娃娃冒死生产，女儿不幸遗传基因病",
        "docid": "7278857439028904460",
        "url": ""
    },
    {
        "title": "医生强烈不建议做的5个动作",
        "docid": "7294404333125861903",
        "url": ""
    },
    {
        "title": "医院的护工，变成医院捞钱的工具，老百姓身上的大山加重了？",
        "docid": "7278887251957187112",
        "url": ""
    },
    {
        "title": "女生例假期间，这些食物不能吃！",
        "docid": "7290579565502693928",
        "url": ""
    },
    {
        "title": "生病都是有预兆的，人体生病的8大步骤与对应症状",
        "docid": "7301111735539352118",
        "url": ""
    },
    {
        "title": "医生：眼睛有这2种变化的人，猝死几率大幅度升高，早了解早受益",
        "docid": "7301877548685132298",
        "url": ""
    },
    {
        "title": "一个只有2味药的古方，却能肝肾同补，阴阳同调，强筋壮骨",
        "docid": "7295546977893368320",
        "url": ""
    },
    {
        "title": "西安男子误吞枣核，一查竟意外发现胃癌……",
        "docid": "7302320428922552866",
        "url": ""
    },
    {
        "title": "如何预防胃癌？要记住的只有一点：千里之堤溃于蚁穴！",
        "docid": "7277131918183842316",
        "url": ""
    },
    {
        "title": "这也太吓人了吧！一网友吃火锅差点当场去世！",
        "docid": "7302358472421949952",
        "url": ""
    },
    {
        "title": "寒冬来袭，这样泡澡温暖又健康",
        "docid": "7302805053747135002",
        "url": ""
    },
    {
        "title": "64岁大爷隔一天吃一次他汀，坚持5年，结果怎样？告诉你实情",
        "docid": "7302396827385545268",
        "url": ""
    },
    {
        "title": "听音频可以减肥，解决抑郁？警惕“神医”“神药”广告",
        "docid": "7302711615063851546",
        "url": ""
    },
    {
        "title": "为什么说中老年人洗头、泡脚、洗澡各三“不”呢？究竟指的是什么",
        "docid": "7299279127889429002",
        "url": ""
    },
    {
        "title": "一年只需打两针，“长效降脂针”英克司兰钠注射液，降脂新选择",
        "docid": "7295591809386824204",
        "url": ""
    },
    {
        "title": "老人坚持喝三七粉来降血压，预防脑梗，结果如何？看完您就明白了",
        "docid": "7283324725810577957",
        "url": ""
    },
    {
        "title": "15kg瘤体！湘雅医院成功实施皮肤巨大肿瘤切除术",
        "docid": "7302792214521381376",
        "url": ""
    },
    {
        "title": "老年人关节疼痛僵硬，吃氨糖就行了？医生：2类药物比氨糖更管用",
        "docid": "7274955343363899939",
        "url": ""
    },
    {
        "title": "食品安全谣言，一起来了解真相，保护自己的健康！",
        "docid": "7287830834898829858",
        "url": ""
    },
    {
        "title": "新增超5千例！尚无特效药！发热警惕",
        "docid": "7302677335034233382",
        "url": ""
    },
    {
        "title": "男医生给女性做“肠镜”检查，会觉得难为情吗？32岁医生说出经历",
        "docid": "7302718467680272896",
        "url": ""
    },
    {
        "title": "有种丑叫做“腺样体面容”，这些症状正在提醒你",
        "docid": "7301569912026481189",
        "url": ""
    },
    {
        "title": "牙龈肿痛有口难开 盲目“降火”不可取",
        "docid": "7302645324995396106",
        "url": ""
    },
    {
        "title": "你知道甲减发展过程，会出现甲减危象吗？",
        "docid": "7294046576820109876",
        "url": ""
    },
    {
        "title": "降血糖，是早上运动好还是晚上运动好？这3点一定要记住",
        "docid": "7293774322706055714",
        "url": ""
    },
    {
        "title": "警惕冻伤，重视这些信号与防护措施！",
        "docid": "7302673674145284658",
        "url": ""
    },
    {
        "title": "学中医必备的中药知识考点汇总",
        "docid": "7283812517766545920",
        "url": ""
    },
    {
        "title": "荨麻疹类型，看看你是哪一种？",
        "docid": "7274867820511576633",
        "url": ""
    },
    {
        "title": "首都儿研所将建新院区，部分床位将疏解至此",
        "docid": "7300930040072520243",
        "url": ""
    }
]