[
    {
        "title": "面对肺部微小结节，请全社会冷静",
        "docid": "7310911052831883816",
        "url": ""
    },
    {
        "title": "华西真实病例！腹泻休克住进 ICU，确诊后主任：都错了！停掉这个医嘱",
        "docid": "7311300480334840372",
        "url": ""
    },
    {
        "title": "这些情况下吃柚子，真的很危险！转告给身边正服药的朋友",
        "docid": "7308925260727222799",
        "url": ""
    },
    {
        "title": "流感季不要乱吃感冒药！医生：这几种药，千万不能与感冒药同服！",
        "docid": "7300072651937366528",
        "url": ""
    },
    {
        "title": "乙肝五项不会看？读懂下面几张图就够了",
        "docid": "7287548499875381819",
        "url": ""
    },
    {
        "title": "长期吃冷饭，不仅可以帮助降低血糖，还能维持肠道健康？真相来了",
        "docid": "7291979132329148962",
        "url": ""
    },
    {
        "title": "新型抗癫痫药-左乙拉西坦，有效性安全性更高！这些你要知晓！",
        "docid": "7292053874666848779",
        "url": ""
    },
    {
        "title": "60岁女子抹一年痔疮膏后检查出肠癌晚期，医生：这5种情况要警惕",
        "docid": "7311354150355698217",
        "url": ""
    },
    {
        "title": "过敏性哮喘vs支气管哮喘 快来看看吧！",
        "docid": "7283525772147573300",
        "url": ""
    },
    {
        "title": "单味药有特定的效果",
        "docid": "7312647996259369499",
        "url": ""
    },
    {
        "title": "如果脸部出现这5个症状，要注意你的血糖已经升高了！",
        "docid": "7315202999637393960",
        "url": ""
    },
    {
        "title": "血糖高不高，看看脚就知道",
        "docid": "7310065081428001332",
        "url": ""
    },
    {
        "title": "“不舍回家”的老人走了，生前眼神全是不甘心！儿子也真的尽力了",
        "docid": "7315769558772564515",
        "url": ""
    },
    {
        "title": "为啥你们的脚“冷”，而我的脚却是“又冷又疼”？",
        "docid": "7315604500189069859",
        "url": ""
    },
    {
        "title": "被鱼刺卡牙缝，还要先做心电图？看完才知道中国医生才是真牛！",
        "docid": "7315714097541333558",
        "url": ""
    },
    {
        "title": "人生下半场，请把自己调成省电模式",
        "docid": "7283068179730350646",
        "url": ""
    },
    {
        "title": "白细胞达到多少确诊为白血病？",
        "docid": "7315318750000054834",
        "url": ""
    },
    {
        "title": "中国中医“大”出海丨与中国有百年缘分的德国家族：用中医治“心病”",
        "docid": "7315672876030837289",
        "url": ""
    },
    {
        "title": "为什么牙医很少和患者说保髓，而是直接建议根管治疗？",
        "docid": "7296690355104694810",
        "url": ""
    },
    {
        "title": "耗子咬你，你还能咬它啊？真实发生了……",
        "docid": "7315749555873202727",
        "url": ""
    },
    {
        "title": "为啥一到医院就要抽血？为您揭秘：抽出来的血，最终去哪儿了",
        "docid": "7290203527878623755",
        "url": ""
    },
    {
        "title": "征兵体检淘汰率升高，背后是“精索静脉曲张”惹的祸",
        "docid": "7290449986158953018",
        "url": ""
    },
    {
        "title": "黄帝内经“女七男八”生命规律大揭秘！",
        "docid": "7290793394807292473",
        "url": ""
    },
    {
        "title": "体检出来的结节、囊肿、息肉、增生，哪个才是癌症的先兆？",
        "docid": "7290732949560394301",
        "url": ""
    },
    {
        "title": "每天 1 根玉米，身体会有什么变化？有1个部位千万别浪费！",
        "docid": "7282626019058729472",
        "url": ""
    },
    {
        "title": "在医院住院期间，一直都搞不清楚几个现象！",
        "docid": "7303761610366140982",
        "url": ""
    },
    {
        "title": "这种调料要少吃，肥胖、三高、癌症都和它有关！",
        "docid": "7314189488543007266",
        "url": ""
    },
    {
        "title": "血液科医生揭秘：血常规检查中最怕看见的两种提示！",
        "docid": "7298584781636485672",
        "url": ""
    },
    {
        "title": "舌边有齿痕就是脾虚？难怪补脾没效，原因竟有三，对症调理才最佳",
        "docid": "7297042651319206400",
        "url": ""
    },
    {
        "title": "饭后应该坐着还是站着？最佳答案应该是这个",
        "docid": "7314190471067320882",
        "url": ""
    },
    {
        "title": "全身CT高清图谱，收藏！",
        "docid": "7312002055290798633",
        "url": ""
    },
    {
        "title": "耳鸣——我有一治耳鸣的方子，屡用不爽，今日公之于众",
        "docid": "7313127330082210345",
        "url": ""
    },
    {
        "title": "明明犯困，却难以入眠？来看怎么办→",
        "docid": "7315210006142468647",
        "url": ""
    },
    {
        "title": "放屁多、手脚凉……这几个身体预警要注意",
        "docid": "7288897362917884452",
        "url": ""
    },
    {
        "title": "二甲双胍抗衰防癌又添新证！新研究：可显著减少衰老T细胞数量",
        "docid": "7314908180788609536",
        "url": ""
    },
    {
        "title": "药店不愿说的 5个结节“天敌” 医院不常公开",
        "docid": "7286669947097842188",
        "url": ""
    },
    {
        "title": "足底筋膜疼痛难忍怎么办？和平医院为您“支招”",
        "docid": "7283128190455841339",
        "url": ""
    },
    {
        "title": "中老年人脚底板疼痛，是长骨刺？错！4种原因少不了",
        "docid": "7289646617509741092",
        "url": ""
    },
    {
        "title": "中医六经辨证如何理解？如蒸包子！",
        "docid": "7294610621114040832",
        "url": ""
    },
    {
        "title": "研究发现血型与疾病的发生有相关性",
        "docid": "7298141452600082955",
        "url": ""
    },
    {
        "title": "老的慢的女人",
        "docid": "7292404219112817193",
        "url": ""
    },
    {
        "title": "宫腔镜，“看清”子宫里的小秘密",
        "docid": "7313730602594107919",
        "url": ""
    },
    {
        "title": "这些日常疾病常用中成药，建议收藏起来！",
        "docid": "7304070312155480616",
        "url": ""
    },
    {
        "title": "肝病要警惕突然出现的“两痒四痛”",
        "docid": "7314273023497077287",
        "url": ""
    },
    {
        "title": "俗话说：“人过六十，两不碰，两不交”，真不是迷信，建议收藏！",
        "docid": "7314981743554871808",
        "url": ""
    },
    {
        "title": "脾虚7大证型，不会辨证的看过来！",
        "docid": "7297762343121945128",
        "url": ""
    },
    {
        "title": "无论你们关系多好，去医院看望病人时，千万别带这“三种东西”！",
        "docid": "7315433408363201064",
        "url": ""
    },
    {
        "title": "怕冷、手脚凉的下一步，就是“萎软、早谢”，千万要小心！",
        "docid": "7312250866311250467",
        "url": ""
    },
    {
        "title": "同患肥胖症！大朗这对母女相继“缩胃”减重",
        "docid": "7315668161771209243",
        "url": ""
    },
    {
        "title": "冬天正是藏精的大好时节！想藏好精，不仅要补肾，更要养肝！",
        "docid": "7314607780789322280",
        "url": ""
    },
    {
        "title": "一颗售价超100元，全病程只需服用一次，新一代“流感药”网络爆火",
        "docid": "7314906380866191922",
        "url": ""
    },
    {
        "title": "身体8大器官都怕什么？",
        "docid": "7297560815132328463",
        "url": ""
    },
    {
        "title": "常备的御寒电热毯是致癌杀手？医生：长期使用，或会带来这些问题",
        "docid": "7315713486653915699",
        "url": ""
    },
    {
        "title": "国际公认的1级致癌物，就藏在这6种食物中！你可能还在天天吃",
        "docid": "7282896921592103485",
        "url": ""
    },
    {
        "title": "这6个行为，会导致头发越掉越多?",
        "docid": "7314614985294905919",
        "url": ""
    },
    {
        "title": "青年反复发生肺炎，误诊为结核，尸体解剖才真相大白",
        "docid": "7311313668258742847",
        "url": ""
    },
    {
        "title": "肺CT报告15条“暗语”，出现这些字眼别大意",
        "docid": "7295612850989482550",
        "url": ""
    },
    {
        "title": "4岁女童被铅笔戳伤左眼，专家：就医时记得带上致伤物",
        "docid": "7315751643856355859",
        "url": ""
    },
    {
        "title": "肝经瘀堵的9大表现，你的肝经堵住了吗？",
        "docid": "7314282790739624500",
        "url": ""
    },
    {
        "title": "五谷杂粮的养生功效，你都知道吗？",
        "docid": "7289776757459141139",
        "url": ""
    },
    {
        "title": "关于手掌的穴位，你知道几个？",
        "docid": "7314624149098725907",
        "url": ""
    },
    {
        "title": "一场住院才明白：生病不管轻与重都不要跟别人说，否则会惹来麻烦",
        "docid": "7301122263682810419",
        "url": ""
    },
    {
        "title": "48岁男子每天大便两三次，确诊胰腺癌！5种异常或是身体“警报”",
        "docid": "7289355787162665507",
        "url": ""
    },
    {
        "title": "荨麻疹患者，常用中成药清单！",
        "docid": "7310044032435307043",
        "url": ""
    },
    {
        "title": "花300元看专家号，排队一上午，专家只给你看两分钟，看病真难",
        "docid": "7312308766102618676",
        "url": ""
    },
    {
        "title": "不能喝！长期饮用或引起肾衰竭……",
        "docid": "7309759648008127010",
        "url": ""
    },
    {
        "title": "体虚容易出现睡眠问题，看看你有没有这7种表现！",
        "docid": "7304447080120992291",
        "url": ""
    },
    {
        "title": "疼、痛、痒、酸、胀、麻、疲、乏、饥、饿、劳、累、聪、明之病症",
        "docid": "7289328257265271354",
        "url": ""
    },
    {
        "title": "想要乙肝好，要吃这“5宝”",
        "docid": "7286345692891677225",
        "url": ""
    },
    {
        "title": "常见症状适合用哪些药？看看这个对症中药速查表！",
        "docid": "7313060460503466531",
        "url": ""
    },
    {
        "title": "一老外在网上分享自己在中国的看病过程，引发大量老外和国人共鸣",
        "docid": "7310486481234280994",
        "url": ""
    },
    {
        "title": "精准打击癌细胞！四川大学这场路演展现核能技术新应用",
        "docid": "7315715666966233637",
        "url": ""
    },
    {
        "title": "七夕会健康 | 这股“风”，莫追",
        "docid": "7315723695152988723",
        "url": ""
    },
    {
        "title": "我们为什么会生病?大多是因为这四个原因！",
        "docid": "7282711599020982825",
        "url": ""
    },
    {
        "title": "“不死的癌症”银屑病患者首选药物，10家药企争夺国内市场！",
        "docid": "7283015301816533565",
        "url": ""
    },
    {
        "title": "精血不足容易产生“乏力感”，送你一盒中成药让你精神饱满！",
        "docid": "7306666824475853364",
        "url": ""
    },
    {
        "title": "当代年轻人有哪些不良生活习惯，你又占了多少呢？",
        "docid": "7314869102592524800",
        "url": ""
    },
    {
        "title": "天天喝！男子被确诊，晚期！医生：这是个误区",
        "docid": "7315612190713872948",
        "url": ""
    },
    {
        "title": "臀部、大腿、小腿后外侧疼痛、麻，是梨状肌综合征？不要被忽悠了",
        "docid": "7315350278177063458",
        "url": ""
    },
    {
        "title": "上热下寒有什么症状?送你一份调整指南",
        "docid": "7284057059815997993",
        "url": ""
    },
    {
        "title": "天气越冷，越不能做这些事→",
        "docid": "7311251673719112204",
        "url": ""
    },
    {
        "title": "冬季第一大补，不是牛羊肉，不仅味道鲜美，更重要的是营养丰富",
        "docid": "7315714316328796672",
        "url": ""
    },
    {
        "title": "腰间盘为什么突出？做好这8个预防，保护腰椎，远离疼痛！",
        "docid": "7315697124702732852",
        "url": ""
    },
    {
        "title": "48岁父亲，确诊肝癌，术后复发，最终过世，记录这8年抗癌之路",
        "docid": "7315745507253453338",
        "url": ""
    },
    {
        "title": "温度“冻”真格，尤要防骨折！行走尽量小碎步，骨折切勿乱揉捏",
        "docid": "7315728215245357595",
        "url": ""
    },
    {
        "title": "瘀血在哪，哪就生病，5个中成药，从头到脚化瘀血，这些您要知道",
        "docid": "7312618631186088487",
        "url": ""
    },
    {
        "title": "遭遇不幸却迎来幸运：18岁少年等来了爱心肾，重获新生",
        "docid": "7315633277711352329",
        "url": ""
    },
    {
        "title": "“中药”在人的体内，需要多长时间才能代谢完?建议提前了解",
        "docid": "7289009210275709475",
        "url": ""
    },
    {
        "title": "护肝片“陷阱”：商家打出“熬夜不伤肝”宣传语，专家直言“护肝”没有科学依据",
        "docid": "7297204637780738579",
        "url": ""
    },
    {
        "title": "最新研究发现：锻炼或更有益于年长者和慢性病患者精神健康",
        "docid": "7315566522049741351",
        "url": ""
    },
    {
        "title": "小伙病毒感冒后逆天用药！网友们瞬间炸开锅，评论区个个都是鬼才",
        "docid": "7315359420094251583",
        "url": ""
    },
    {
        "title": "经常吃这些，“姨妈”会越来越好！",
        "docid": "7284194169961087522",
        "url": ""
    },
    {
        "title": "中医常告诉你常见人体穴位位置和效果，快收藏，关键时候能救命！",
        "docid": "7315299666264867366",
        "url": ""
    },
    {
        "title": "你知道「火锅」的正确打开方式吗？5个坏习惯正在危害你的健康！",
        "docid": "7315354038588097059",
        "url": ""
    },
    {
        "title": "学中医必学知识---把脉！建议收藏！",
        "docid": "7284772282248184320",
        "url": ""
    },
    {
        "title": "有慢阻肺的人，提高长期生存质量，2种核心用药需坚持使用",
        "docid": "7301903638048621082",
        "url": ""
    },
    {
        "title": "湿热、寒湿分不清？送你2个药，一个清湿热，一个除寒湿",
        "docid": "7288576224035799586",
        "url": ""
    },
    {
        "title": "3个新药抑酸比\"拉唑\"更快？作用更强更持久，帮你治反流性食管炎",
        "docid": "7312367211967463988",
        "url": ""
    },
    {
        "title": "治疗中老年人排尿困难有哪些常用药物？",
        "docid": "7315667059646792192",
        "url": ""
    },
    {
        "title": "调养身体必用的中医常用药搭配！",
        "docid": "7306125331374735924",
        "url": ""
    },
    {
        "title": "甲状腺结节多吃6物，好的快！",
        "docid": "7307563553756561956",
        "url": ""
    },
    {
        "title": "关于艾滋病这些一定要知道！理发文身打耳洞等也可能感染艾滋",
        "docid": "7307449047705682466",
        "url": ""
    },
    {
        "title": "“冬天吃一豆，养颜又长寿”！叶酸含量是黄瓜10倍，不懂吃真可惜",
        "docid": "7311287970856780329",
        "url": ""
    },
    {
        "title": "中医清楚告诉你上热下寒的原因，轻松搞定，从此不再又上火又怕冷",
        "docid": "7312343802679673359",
        "url": ""
    },
    {
        "title": "肺不好的朋友，请记住这10个中成药，为您的健康保驾护航",
        "docid": "7312623300059251211",
        "url": ""
    },
    {
        "title": "最全手诊详解图，高清图附上！中医爱好者的福音，建议收藏转发！",
        "docid": "7312007410079334952",
        "url": ""
    },
    {
        "title": "耳朵反复流脓，当心慢性化脓性中耳炎夺走你的听力",
        "docid": "7315697873163862554",
        "url": ""
    },
    {
        "title": "股骨头坏死的朋友",
        "docid": "7315310488735253043",
        "url": ""
    },
    {
        "title": "术后辅助靶向的纠结：选一代药还是三代药？要不要联合化疗？",
        "docid": "7315408794610238002",
        "url": ""
    },
    {
        "title": "好气又好笑！男子自制药酒，2年后才发现泡的竟是塑料",
        "docid": "7313762653779198490",
        "url": ""
    },
    {
        "title": "《黄帝内经》，养生不可不知道的面部反射口诀！这些您一定要知道",
        "docid": "7314623630435467839",
        "url": ""
    },
    {
        "title": "每天按一下身体的5个“祛火穴”，全身火气通通赶走！",
        "docid": "7293298337762263604",
        "url": ""
    },
    {
        "title": "一般老年人多少岁开始“牙齿脱落”？牙掉之后，一定要注意这几点",
        "docid": "7302696919120298534",
        "url": ""
    },
    {
        "title": "民间流行的金钱草茶排石效果怎么样？缺少这2种药，可能越喝越虚",
        "docid": "7315322679509320227",
        "url": ""
    },
    {
        "title": "庄辉院士：乙型肝炎治愈，我们还能做什么？",
        "docid": "7296401924562174483",
        "url": ""
    },
    {
        "title": "流感高峰期，介绍5种中医管理局官方推荐的中成药（儿童篇）",
        "docid": "7307983296267633167",
        "url": ""
    },
    {
        "title": "中医知识：经常搓这12个部位，健康长寿​",
        "docid": "7309968994713272859",
        "url": ""
    },
    {
        "title": "骨折后究竟多长时间才能恢复好？这篇文章没有废话，纯纯干货",
        "docid": "7291127544714445324",
        "url": ""
    },
    {
        "title": "十四经络怎么疏通？关键找哪个穴？",
        "docid": "7294830487191699983",
        "url": ""
    },
    {
        "title": "治疗流感和感冒最常用的六大经方！",
        "docid": "7315760186738688564",
        "url": ""
    },
    {
        "title": "20岁高铁乘务员心脏骤停！她跪地紧急施救",
        "docid": "7315697875533644297",
        "url": ""
    },
    {
        "title": "我国自主研发的降压药阿利沙坦，降压、降蛋白、护心肾，还降尿酸",
        "docid": "7296400011553047079",
        "url": ""
    },
    {
        "title": "这10种病听起来“吓人”，其实大部分无需治疗",
        "docid": "7304934002195202611",
        "url": ""
    },
    {
        "title": "2023年版中国高尿酸血症相关疾病诊疗多学科专家共识--推荐枸橼酸盐制剂作为碱化尿液使用",
        "docid": "7302792285530571264",
        "url": ""
    },
    {
        "title": "疏肝益阳胶囊，正确的使用方法，该怎么吃？有副作用吗？",
        "docid": "7284060767597396495",
        "url": ""
    },
    {
        "title": "医生提醒：“奥美拉唑”别乱吃，小心这些副作用！",
        "docid": "7285633257570861620",
        "url": ""
    },
    {
        "title": "补脾的中成药，看这一篇就够了",
        "docid": "7295772857253036585",
        "url": ""
    },
    {
        "title": "酒石酸美托洛尔既护心又降压，但有2个“坑”需注意，一文说清楚",
        "docid": "7286791038583472677",
        "url": ""
    },
    {
        "title": "呼吸科哮喘常用药“小飞碟”舒利迭，规格剂量大盘点，千万别用错",
        "docid": "7290014222447247872",
        "url": ""
    },
    {
        "title": "都保：布地奈德福莫特罗粉吸入剂常见问题，哮喘患者很有必要知道",
        "docid": "7289287439384986146",
        "url": ""
    },
    {
        "title": "前不久去了一趟医院，发现如今医院普遍出现了奇怪的现象！",
        "docid": "7315913485878116873",
        "url": ""
    },
    {
        "title": "你知道体检报告怎么看吗？",
        "docid": "7299056695610130979",
        "url": ""
    },
    {
        "title": "补肾“金三角”搭配，建议收藏！",
        "docid": "7289024760539841063",
        "url": ""
    },
    {
        "title": "“数九天”到了！收好“九九健康日历”",
        "docid": "7315705664079151654",
        "url": ""
    },
    {
        "title": "十多种“地平”降压药大点兵，哪种降压最好?副作用小？必收藏",
        "docid": "7298312213276770852",
        "url": ""
    },
    {
        "title": "淫羊藿及其制剂主要化学成分与肝损伤作用研究进展",
        "docid": "7297897887441224227",
        "url": ""
    },
    {
        "title": "能吃能喝能运动，一查竟患有恶性肿瘤！这些人，都是高危人群",
        "docid": "7302088026497270323",
        "url": ""
    },
    {
        "title": "恩师告诉我：孩子多动症就是身弱罢了，需要向大地借点能量",
        "docid": "7296772748062245417",
        "url": ""
    },
    {
        "title": "搞懂了人体“三焦”，很多疑难杂症，都迎刃而解！",
        "docid": "7313147983074443813",
        "url": ""
    },
    {
        "title": "转危为安！这位106岁的老人被成功救治丨一家亲",
        "docid": "7315658867193905702",
        "url": ""
    },
    {
        "title": "我的同学30多岁就死了，死因很难听，家人对外说是癌症",
        "docid": "7298662733861856343",
        "url": ""
    },
    {
        "title": "两块钱的牛黄解毒片，居然有这么多功效！",
        "docid": "7299841179276034572",
        "url": ""
    },
    {
        "title": "血压高到多少会发生脑出血？医生划出3条“警戒线”，要心里有数",
        "docid": "7283313047861576207",
        "url": ""
    },
    {
        "title": "68岁的他2.4cm肺结节，被判断为3B晚期，结果术后发现好多了",
        "docid": "7289355084403032632",
        "url": ""
    },
    {
        "title": "去病要找原穴，这12原穴去全身病，爱好中医的您一定要知道！",
        "docid": "7311603091885834771",
        "url": ""
    },
    {
        "title": "医生提醒:蛋白质摄入过量，你的身体会出现这些隐患!早发现早改正",
        "docid": "7293024042142007842",
        "url": ""
    },
    {
        "title": "达仁堂的好你不懂！中药大黑马，即将爆发。",
        "docid": "7304164709521981987",
        "url": ""
    },
    {
        "title": "带你了解中医内圆运动，掌握人体气血阴阳的秘密！",
        "docid": "7284946560172098083",
        "url": ""
    },
    {
        "title": "知情人曝河南平煤神马集团医药公司存在问题，相关人员纷纷回避采访",
        "docid": "7314931793168269876",
        "url": ""
    },
    {
        "title": "冬令进补常用的中成药！",
        "docid": "7292377823288214016",
        "url": ""
    },
    {
        "title": "你知道为什么自己经常掉头发吗？看看有没有这些习惯！",
        "docid": "7307425755188068879",
        "url": ""
    },
    {
        "title": "血库告急无人献，民众却不愿意献血，现象戳中国人心中的痛!",
        "docid": "7314557012040221218",
        "url": ""
    },
    {
        "title": "导致你提前衰老的6个行为，这些坏习惯你有吗？",
        "docid": "7314521175890543113",
        "url": ""
    },
    {
        "title": "早上洗头和晚上洗头，哪个伤害更大？头发越洗越脱？早知道早受益",
        "docid": "7297904832327959050",
        "url": ""
    },
    {
        "title": "湿气的五个等级，你的湿气已经到了几级？",
        "docid": "7292397675960615459",
        "url": ""
    },
    {
        "title": "真正的抑郁症，是这9个样子",
        "docid": "7307148698935493154",
        "url": ""
    },
    {
        "title": "为什么国人宁愿相信西医，也不相信中医呢？",
        "docid": "7288877948219458109",
        "url": ""
    },
    {
        "title": "脂肪肝，不建议碰到食物黑名单",
        "docid": "7283698121245442579",
        "url": ""
    },
    {
        "title": "脂肪肝，严重不严重？你真的知道吗？",
        "docid": "7287038327801463307",
        "url": ""
    },
    {
        "title": "吸烟的这七大“好处”，从来没人告诉你！",
        "docid": "7288616307849790011",
        "url": ""
    },
    {
        "title": "经常“提肛”的男人，到底能有多强？一次性都说清了，别羞于了解",
        "docid": "7309011999009653248",
        "url": ""
    },
    {
        "title": "医生强烈不建议做的5个动作",
        "docid": "7294404333125861903",
        "url": ""
    },
    {
        "title": "梅奥诊所（Mayo Clinic）有多牛？",
        "docid": "7286658120729002533",
        "url": ""
    },
    {
        "title": "大满贯影帝李雪健抗癌23年无复发，他总结5个重点，每个人都要看",
        "docid": "7297900462690353673",
        "url": ""
    },
    {
        "title": "长期在睡前玩手机的人，会付出啥代价？医生：或要承担这5种痛苦",
        "docid": "7310027838261297690",
        "url": ""
    },
    {
        "title": "皮肤长红痣，除了肝病，还有可能与这3个因素有关，早了解早受益",
        "docid": "7293805121190887970",
        "url": ""
    },
    {
        "title": "低血糖的发作尴尬瞬间，网友：吃烧烤晕了，服务员大喊：饿死人了",
        "docid": "7315680771602711051",
        "url": ""
    },
    {
        "title": "注意！抑郁症早期有4个危险信号",
        "docid": "7288225805451870781",
        "url": ""
    },
    {
        "title": "医保卡里没有钱，在门诊看病还能报销吗？门诊医生告诉你真相！",
        "docid": "7286717673793454627",
        "url": ""
    },
    {
        "title": "时间短，硬度差，起不来，5种情况，宗筋硬，时间长",
        "docid": "7312284873321202186",
        "url": ""
    },
    {
        "title": "艾滋病患者的信息该不该被公布？网友们的遭遇真是一个比一个奇葩",
        "docid": "7302303795181355520",
        "url": ""
    },
    {
        "title": "常见家庭用药对照表",
        "docid": "7301078365006610982",
        "url": ""
    },
    {
        "title": "全球首次！湖南大学取得抑郁症“病因”重磅成果，引发国际关注！",
        "docid": "7315347138979021375",
        "url": ""
    },
    {
        "title": "刷牙时要“刷舌头”？医生提醒：这件事很多人搞错了，才会有口臭",
        "docid": "7294937658927972899",
        "url": ""
    },
    {
        "title": "过度疲劳的人是很危险的，怎么看自己是不是过度疲劳？",
        "docid": "7308728373701100072",
        "url": ""
    },
    {
        "title": "为什么胸口会“刺痛”几秒？是心脏病吗？原来是这几种问题惹的祸",
        "docid": "7287105080984126009",
        "url": ""
    },
    {
        "title": "什么病挂什么科？请把这张表转给所有人！推荐收藏",
        "docid": "7299637856157614607",
        "url": ""
    },
    {
        "title": "身体好不好看头发就知道！",
        "docid": "7296673178473022003",
        "url": ""
    },
    {
        "title": "每天慢走一万步，能消除脂肪肝？劝告：这样锻炼，效果或许会更好",
        "docid": "7299354133306311177",
        "url": ""
    },
    {
        "title": "一个人晚年所有的不幸，从35岁就开始酝酿了",
        "docid": "7290377907686605366",
        "url": ""
    },
    {
        "title": "四种行为，说明你已经严重失眠",
        "docid": "7293279826960499200",
        "url": ""
    },
    {
        "title": "皮肤巨巨好的6个原因",
        "docid": "7306779417907577378",
        "url": ""
    },
    {
        "title": "体脂从35%－18%的一些小习惯",
        "docid": "7288586691248816655",
        "url": ""
    },
    {
        "title": "都说伟哥的副作用大，你真的了解过吗？其实多数与这三点有关",
        "docid": "7297221940770062900",
        "url": ""
    },
    {
        "title": "自律一年变成大家羡慕的样子！10个洗头坏习惯，改掉！",
        "docid": "7312750507503141413",
        "url": ""
    },
    {
        "title": "花一分钟学会分辨自己是哪种体质！",
        "docid": "7307425185828078115",
        "url": ""
    },
    {
        "title": "为啥很多女生臀部上方，会有个小凸起？",
        "docid": "7306064162785100324",
        "url": ""
    },
    {
        "title": "两个作息看似相同丨实则两种截然不同的人生 ​​​",
        "docid": "7292237912665522738",
        "url": ""
    },
    {
        "title": "不同位置的腰椎间盘突出，对应的腿部位置麻木感，看到学到！",
        "docid": "7312065801853731382",
        "url": ""
    },
    {
        "title": "前列腺癌一发现就是晚期？提醒：身体出现这5种症状，尽早检查",
        "docid": "7301972926960943625",
        "url": ""
    },
    {
        "title": "两次断骨增高，花费115万，从1.67米变成1.81米，这位模特后悔了",
        "docid": "7294903741780902412",
        "url": ""
    },
    {
        "title": "5年前，因批评“鸿茅药酒”，被跨省抓捕的医学硕士，现状如何？",
        "docid": "7315534774041575974",
        "url": ""
    },
    {
        "title": "120万一针，只需一针就可以消灭癌细胞，是否意味着癌症被攻克？",
        "docid": "7308607530706862646",
        "url": ""
    },
    {
        "title": "知名歌手突然失声！嗓音疾病多发，冬季护嗓有讲究",
        "docid": "7315593493164999194",
        "url": ""
    },
    {
        "title": "身体八大虚，对照看看你是哪一个？",
        "docid": "7305704803756229154",
        "url": ""
    },
    {
        "title": "27岁小伙一天大便3次，确诊肠癌！3种大便异常是身体“警报”",
        "docid": "7283838027225498147",
        "url": ""
    },
    {
        "title": "突然火了每天爆满 医生：不建议年轻人没问题就推拿",
        "docid": "7315618155085333046",
        "url": ""
    },
    {
        "title": "红斑狼疮是什么病？真那么可怕吗？网友：尤其是漂亮的女孩要当心",
        "docid": "7315301565236429363",
        "url": ""
    },
    {
        "title": "肺部 有没有问题 看看痰就知道",
        "docid": "7286409839469740581",
        "url": ""
    },
    {
        "title": "父母超过50岁，不要再给他们做无效体检了",
        "docid": "7291840953084838450",
        "url": ""
    },
    {
        "title": "人到中年，才领悟的80个社会小经验",
        "docid": "7315083301239423538",
        "url": ""
    },
    {
        "title": "正常人的身体指标，你知道多少？收藏起来看看",
        "docid": "7314952403139822131",
        "url": ""
    },
    {
        "title": "这5类肺结节不是肺癌！",
        "docid": "7300920139451564559",
        "url": ""
    },
    {
        "title": "小时候流行的“屁股针”，为什么消失了？",
        "docid": "7303720019911901735",
        "url": ""
    },
    {
        "title": "哈佛大学耗时80年，调查800多人后发现：长寿的关键并非身体强健",
        "docid": "7290766706875056698",
        "url": ""
    },
    {
        "title": "9旬老人查出患癌，向仨女儿提唯一要求遭拒：爸爸，你是病傻了吧",
        "docid": "7315963615356535336",
        "url": ""
    },
    {
        "title": "2023年“网红药”：年初是布洛芬，年中是奥司他韦，年底是啥药？",
        "docid": "7314869894418727462",
        "url": ""
    },
    {
        "title": "中年女人保持少女感的7个技巧！",
        "docid": "7310118480689578496",
        "url": ""
    },
    {
        "title": "最新中国医院排行榜！医大一院、盛京医院上榜",
        "docid": "7305990286176617012",
        "url": ""
    },
    {
        "title": "孩子感冒发烧遇到支原体肺炎要注意，它可不是小感冒！",
        "docid": "7306119161905054242",
        "url": ""
    },
    {
        "title": "饭量决定你的寿命，适度的让自己饿一饿！",
        "docid": "7315280597067268623",
        "url": ""
    },
    {
        "title": "没半小时出不去的评论区之歪打正着把治好病了",
        "docid": "7308319525563859465",
        "url": ""
    },
    {
        "title": "排名第一的各种蔬菜，多吃多长寿！",
        "docid": "7315018532985668130",
        "url": ""
    },
    {
        "title": "癌症晚期有多痛？他用一年时间纪录抗癌到死亡全过程，看着太揪心",
        "docid": "7282366710269952572",
        "url": ""
    },
    {
        "title": "一分钟快速入睡法！",
        "docid": "7287920053494940223",
        "url": ""
    },
    {
        "title": "你知道常见螃蟹的种类和营养价值吗？",
        "docid": "7284256171974754850",
        "url": ""
    },
    {
        "title": "全麻状况下人是没有呼吸的，麻醉医生如何让你安全从手术中醒来？",
        "docid": "7307196449131889204",
        "url": ""
    },
    {
        "title": "一次管两天的他达拉非，常吃有害健康？牢记5个要点，用药更安心",
        "docid": "7306790402408202762",
        "url": ""
    },
    {
        "title": "这6种蔬菜，吃前不焯水等于在“服毒”？第一种你可能常吃",
        "docid": "7298019232045417010",
        "url": ""
    },
    {
        "title": "透过你的眼睛，看到你这四脏的健康状态！",
        "docid": "7313519446697296399",
        "url": ""
    },
    {
        "title": "44岁独自去做眼袋手术，当天做完当天走，分享这些经历给大家",
        "docid": "7283781622007579194",
        "url": ""
    },
    {
        "title": "上亿人乳糖不耐，为何还建议你喝奶？",
        "docid": "7293720969725231668",
        "url": ""
    },
    {
        "title": "6条关于肺结节的话 听听就行 不要当真",
        "docid": "7292590391067804175",
        "url": ""
    },
    {
        "title": "减掉内脏脂肪的正确顺序",
        "docid": "7306489735503987219",
        "url": ""
    },
    {
        "title": "节育环，到底救了中国女性，还是害了中国女性",
        "docid": "7303116720036758031",
        "url": ""
    },
    {
        "title": "哈佛大学研究：长白头发的人不易患癌？是科学还是谣言？真相来了",
        "docid": "7295959466464592403",
        "url": ""
    },
    {
        "title": "年轻姑娘胃和肠竟都“跑”进肺里？“凶手”是打工人最爱的它......",
        "docid": "7315607509677654554",
        "url": ""
    },
    {
        "title": "肝不好，转氨酶异常的三个阶段，你处于哪个阶段？",
        "docid": "7289272042304700928",
        "url": ""
    },
    {
        "title": "肝功能检查报告的13项怎么看？帮你全面解读！",
        "docid": "7308604346135249443",
        "url": ""
    },
    {
        "title": "如果坚持一个月“滴酒不沾”，肝能变好吗？相关研究告诉你答案",
        "docid": "7295998224907977242",
        "url": ""
    },
    {
        "title": "生殖科医生分享八卦有多离谱？网友表示难以理解",
        "docid": "7314648025366954505",
        "url": ""
    },
    {
        "title": "你以为的洗牙，实际上的洗牙",
        "docid": "7287137132525732386",
        "url": ""
    },
    {
        "title": "火遍全国的这种“小鱼啃脚Spa”，你可知有多大健康风险？",
        "docid": "7300876314071286311",
        "url": ""
    },
    {
        "title": "看看你们老家，都产什么中药材！",
        "docid": "7305569820181905935",
        "url": ""
    },
    {
        "title": "近10家药企，争相布局34亿美元系统性红斑狼疮市场",
        "docid": "7315676830256693795",
        "url": ""
    },
    {
        "title": "不知道自己有没有湿气的看过来，一分钟自测！",
        "docid": "7304523945502540340",
        "url": ""
    },
    {
        "title": "糖尿病本身就不是病，不用终身服药",
        "docid": "7314907826172789248",
        "url": ""
    },
    {
        "title": "要学中医的五行学说看这个！",
        "docid": "7290529217052262927",
        "url": ""
    },
    {
        "title": "免疫力才是最好的药，3个中成药助你提高免疫力！",
        "docid": "7302398164224262696",
        "url": ""
    },
    {
        "title": "中医舌诊案例学习",
        "docid": "7313169397031289359",
        "url": ""
    },
    {
        "title": "医生暴打手术中82岁患者！曝光后冲上热搜，网友们瞬间炸锅了",
        "docid": "7312265980887990824",
        "url": ""
    },
    {
        "title": "医学领域有哪些人们不愿相信的事实？网友分享我看呆住，刷新三观",
        "docid": "7315980101886722571",
        "url": ""
    },
    {
        "title": "最好的养生，是养自己的脾气",
        "docid": "7315809429935669786",
        "url": ""
    },
    {
        "title": "《伤寒论》108条背诵条文，学中医必会，值得收藏！",
        "docid": "7303486842182156812",
        "url": ""
    },
    {
        "title": "补血补肾必吃桑葚，送你8个桑葚的经典搭配！",
        "docid": "7286806239467029026",
        "url": ""
    },
    {
        "title": "关于支原体肺炎，专家这样说",
        "docid": "7293912695231889983",
        "url": ""
    },
    {
        "title": "赖床还有这些好处？又找到不离开被窝的理由了！",
        "docid": "7315714961542660644",
        "url": ""
    },
    {
        "title": "13年前，冒死生下双胞胎女儿的60岁失独母亲，如今丈夫也去世了",
        "docid": "7310135625351725609",
        "url": ""
    },
    {
        "title": "耳朵总是“嗡嗡嗡”响，千万不要掉以轻心！",
        "docid": "7299469754623050276",
        "url": ""
    },
    {
        "title": "甲状腺结节，3个月消散，经方的力量，经得起千年考验！",
        "docid": "7290397931289723431",
        "url": ""
    },
    {
        "title": "女性器官衰老时间表，对照一下，看完受益匪浅。",
        "docid": "7315794560926614031",
        "url": ""
    },
    {
        "title": "四川800斤夫妻：体重压塌床，为生娃，一年狂减410斤，如今怎样？",
        "docid": "7312281101039518243",
        "url": ""
    },
    {
        "title": "七步由轻到重的肝气郁结，这些您一定要知道！",
        "docid": "7308413159810449931",
        "url": ""
    },
    {
        "title": "医院不愿开的8种中成药！",
        "docid": "7297034819165815348",
        "url": ""
    },
    {
        "title": "一天一片阿司匹林，身体最后会怎样？答案已揭晓，建议告诉父母",
        "docid": "7287385436400648738",
        "url": ""
    },
    {
        "title": "脂肪最害怕的“碱性菜”，一周吃2次，小肚子偷偷的没了，身材棒",
        "docid": "7307054055988347403",
        "url": ""
    },
    {
        "title": "掉牙后，三种假牙怎么选？听听专家给出的具体建议",
        "docid": "7289770377167929910",
        "url": ""
    },
    {
        "title": "女生例假期间，这些食物不能吃！",
        "docid": "7290579565502693928",
        "url": ""
    },
    {
        "title": "高尿酸的兄弟们看这篇，啥该喝啥不该喝别弄错了……",
        "docid": "7283764906581721612",
        "url": ""
    },
    {
        "title": "八段锦细节详解，动作做到位，效果更好！",
        "docid": "7291461669665145363",
        "url": ""
    },
    {
        "title": "多大的肺结节要做手术，一文给你说的明明白白",
        "docid": "7294521427951206966",
        "url": ""
    },
    {
        "title": "做一次CT，对身体的伤害有多大？多少次会致癌？告诉你大实话",
        "docid": "7299761656627282447",
        "url": ""
    },
    {
        "title": "被吹上天的10种伪健康食品，实则坑钱第一名，劝告父母：谨慎购买",
        "docid": "7308642110993875496",
        "url": ""
    },
    {
        "title": "肝损伤的15种典型表现，1分钟自查肝功能！",
        "docid": "7291816605116301858",
        "url": ""
    },
    {
        "title": "宫颈癌多是“拖”出来的，女人身体若有3处异常，趁早就医",
        "docid": "7308262930330452543",
        "url": ""
    },
    {
        "title": "这3种抗过敏药不能长期吃，别拿生命开玩笑",
        "docid": "7312739139127214646",
        "url": ""
    },
    {
        "title": "戒烟日记——戒烟成功？该如何判定戒烟成功。第八十二天",
        "docid": "7315493130856448566",
        "url": ""
    },
    {
        "title": "腹痛、腹泻、便秘？肠易激综合征有效方，无偿分享",
        "docid": "7281152967233782312",
        "url": ""
    },
    {
        "title": "冬季吃黄精赛过人参“一箩筐”？黄精的3种吃法，说给你听！",
        "docid": "7313014456211210764",
        "url": ""
    },
    {
        "title": "肾阴虚和肾阳虚适合用哪些中成药？补肾详细版！",
        "docid": "7298323056156705320",
        "url": ""
    },
    {
        "title": "人体需求维生素自查表！",
        "docid": "7302013056065520147",
        "url": ""
    },
    {
        "title": "瘦身人眼中的肉",
        "docid": "7288206543365997115",
        "url": ""
    },
    {
        "title": "医保账户里的钱怎么花？能不能取？每个人都该了解的医保常识",
        "docid": "7294931003951333903",
        "url": ""
    },
    {
        "title": "代孕中介的“好生意”：88万套餐包性别、出生证！不乏在校大学生参与",
        "docid": "7314501495905747468",
        "url": ""
    },
    {
        "title": "肝病，三分治七分养？调养注意这几点！",
        "docid": "7292284810175709747",
        "url": ""
    },
    {
        "title": "远离胃癌，必须从这件小事做起！",
        "docid": "7315600316517401128",
        "url": ""
    },
    {
        "title": "每天吃一片维生素C的人，最后会怎么样？建议安全服用，记住几点",
        "docid": "7307816517637636617",
        "url": ""
    },
    {
        "title": "看鼻涕，就知道怎么调理鼻炎！",
        "docid": "7294579677723853366",
        "url": ""
    },
    {
        "title": "肺CT报告单，手把手教你看懂8个关键信息",
        "docid": "7295198370568782399",
        "url": ""
    },
    {
        "title": "看了这张图，人人都会熬中药！",
        "docid": "7292379375964750390",
        "url": ""
    },
    {
        "title": "阴道镜有多尴尬？盘点那些医院里的女性检查，一个比一个让人尴尬",
        "docid": "7296057706610475558",
        "url": ""
    },
    {
        "title": "吴尊友逝世,来日并不方长，珍惜现在",
        "docid": "7294587380026114612",
        "url": ""
    },
    {
        "title": "身体突然长痣？2种情况、5大改变有恶变风险",
        "docid": "7287835047976043064",
        "url": ""
    },
    {
        "title": "笑对人生，冬宝说到刘薇打的那几万块钱一克的一针，仍能泰然自若",
        "docid": "7314670212379918863",
        "url": ""
    },
    {
        "title": "最大补的鱼汤是什鱼？多喝可健胃养脾，提高免疫力",
        "docid": "7290920720979296783",
        "url": ""
    },
    {
        "title": "癌症高发是洗洁精惹的祸？",
        "docid": "7290763040801505827",
        "url": ""
    },
    {
        "title": "患癌后医生说不化疗只能活两年，但她坚决放弃，却把孙子带到三岁",
        "docid": "7315346676581974569",
        "url": ""
    },
    {
        "title": "冬季吃鱼，建议少吃鲢鱼和鲫鱼，多吃这4种鱼，鲜美不腻性价比高",
        "docid": "7315566286850114048",
        "url": ""
    },
    {
        "title": "男性尿道炎症！快快来看",
        "docid": "7315328125121020466",
        "url": ""
    },
    {
        "title": "人老了，不在于运动，不在于喝水！过了60岁，请牢记4项长寿准则",
        "docid": "7298268030684299787",
        "url": ""
    },
    {
        "title": "现在的老中医到底有多离谱？",
        "docid": "7315989802208330275",
        "url": ""
    },
    {
        "title": "2001年苏州一医生为了娶小三，给妻子下毒两年，看着妻子慢慢死去",
        "docid": "7315383683476177458",
        "url": ""
    },
    {
        "title": "怎么用低成本的方式来补充人体气血？",
        "docid": "7306500920064508450",
        "url": ""
    },
    {
        "title": "喝酒不伤身秘籍，转给常应酬的他！",
        "docid": "7315078408067662371",
        "url": ""
    },
    {
        "title": "世界上最痛的五种病，经历过的都是超人，你有经历过吗？",
        "docid": "7307889918142579226",
        "url": ""
    },
    {
        "title": "“速冻”无妨研学中医药，周末打卡广东中医药博物馆",
        "docid": "7315979573521351178",
        "url": ""
    },
    {
        "title": "五脏管五液，当管不住时，会出现这些症状！快自查一下",
        "docid": "7284894141589537321",
        "url": ""
    },
    {
        "title": "孕23周，我的儿子死于美国医疗",
        "docid": "7298971453112943139",
        "url": ""
    },
    {
        "title": "长了结石的胆囊，切还是不切？人没了胆囊又会如何？预防胆结石，需记住“五个一”",
        "docid": "7291498823996719670",
        "url": ""
    },
    {
        "title": "刮手指能解百病，这怎么刮？",
        "docid": "7311189799539409423",
        "url": ""
    },
    {
        "title": "西地那非、他达拉非、伐地那非，谁更厉害？分清楚这5点，再选择",
        "docid": "7288144027717812788",
        "url": ""
    },
    {
        "title": "阴阳才是人间大药！男不离桂附，女不离归芍：振雄风，润面色！",
        "docid": "7315158985584214554",
        "url": ""
    },
    {
        "title": "颈动脉彩超提示有斑块，到底严不严重？可以根据3个指标来判断",
        "docid": "7287843052557812283",
        "url": ""
    },
    {
        "title": "孩子脾虚不长个，脾肾一调，一年长高10公分！",
        "docid": "7288261298645713443",
        "url": ""
    },
    {
        "title": "补肾精，十子填精丸与五子衍宗丸哪个好？",
        "docid": "7284197792154763833",
        "url": ""
    },
    {
        "title": "阿司匹林、硝酸甘油、速效救心丸，急救用哪种？牢记3句话",
        "docid": "7301991970740879899",
        "url": ""
    },
    {
        "title": "白蛋白真的可以“有病治病，无病强身”？",
        "docid": "7287745684302971407",
        "url": ""
    },
    {
        "title": "身体虚弱的人，调理顺序错了反而身体可能更虚！",
        "docid": "7315600430250263055",
        "url": ""
    },
    {
        "title": "全国十大顶级肿瘤医院大公开！看看你所在城市的医院上榜了吗？",
        "docid": "7287101924200202767",
        "url": ""
    },
    {
        "title": "肺结节 牢记1455原则 10月结节变小",
        "docid": "7287428244238844428",
        "url": ""
    },
    {
        "title": "原来这些隔夜的东西都是正常的！涨知识了。",
        "docid": "7315821458738758183",
        "url": ""
    },
    {
        "title": "“请冯院长现形”背后高人居然是她！这次，冯某人及领导摊大事了",
        "docid": "7316012504885379636",
        "url": ""
    },
    {
        "title": "同样的晚期癌症，为何于娟不治，叶檀治疗有效",
        "docid": "7315655840500187682",
        "url": ""
    },
    {
        "title": "腿只要抽筋，就以为是缺钙了？可别这样犯傻了",
        "docid": "7311621848100667967",
        "url": ""
    },
    {
        "title": "阿莫西林不是消炎药？提醒：真正的消炎药只有2种，注意别认错了",
        "docid": "7287547598536507944",
        "url": ""
    },
    {
        "title": "好皮肤，从养肤开始做起！",
        "docid": "7307504916631831080",
        "url": ""
    },
    {
        "title": "痛风发作剧痛难忍，有人说电吹风一吹就好且无副作用，真的假的？",
        "docid": "7290063924827865656",
        "url": ""
    },
    {
        "title": "身为子女必须要知道的“七十不添衣，八十不祝寿”，有何讲究？",
        "docid": "7303867278989836809",
        "url": ""
    },
    {
        "title": "60岁男子，吃降压药后，发现自己那方面的功能变弱了，怎么回事？",
        "docid": "7315336074724180489",
        "url": ""
    },
    {
        "title": "80岁大爷骨密度却似30多岁，他的3个生活习惯，大部分人可做到",
        "docid": "7286806061712310784",
        "url": ""
    },
    {
        "title": "轻度抑郁症的人，多半会有这5句“口头禅”，希望你一句都没说过",
        "docid": "7316029621450359315",
        "url": ""
    },
    {
        "title": "14岁表妹，诊断恶性肿瘤，1次化疗，12次放疗，仅仅143天离世",
        "docid": "7315804462588052008",
        "url": ""
    },
    {
        "title": "手掌上这块肉，一看就知道你身体好不好",
        "docid": "7315925520565207603",
        "url": ""
    },
    {
        "title": "乙肝常见的几种结果",
        "docid": "7308276634912834063",
        "url": ""
    },
    {
        "title": "脱发的五种症型，附解决方案！",
        "docid": "7315695059482001955",
        "url": ""
    },
    {
        "title": "各种慢性疾病调理穴位汇总，很详细，建议收藏！这些您一定要知道",
        "docid": "7313380626688754195",
        "url": ""
    },
    {
        "title": "乙肝朋友想知道有没有肝硬化，这4组数字帮你评估",
        "docid": "7302601745321034249",
        "url": ""
    },
    {
        "title": "阿托伐他汀,8类人不建议服用！降脂、防心梗中风也要当心副作用",
        "docid": "7306840536407786024",
        "url": ""
    },
    {
        "title": "肺炎支原体感染——几个药物的选用和注意事项",
        "docid": "7292996347731624489",
        "url": ""
    },
    {
        "title": "工作情绪负担过重会疲惫吗？你有缓解由此带来身心疲惫的妙招吗？",
        "docid": "7315817200957506100",
        "url": ""
    },
    {
        "title": "你知道你的体检报告单都藏着啥病吗？",
        "docid": "7307228594080891407",
        "url": ""
    },
    {
        "title": "大学生在学校里刨人参啃了一口，睡了17个小时，我却笑倒在评论区",
        "docid": "7308325882970997282",
        "url": ""
    },
    {
        "title": "男人越活越年轻的21个好习惯",
        "docid": "7315322211978478130",
        "url": ""
    },
    {
        "title": "感染后咳嗽老不好，怎么也止不住？送你一盒中成药！",
        "docid": "7313862509407044096",
        "url": ""
    },
    {
        "title": "这几例短期内复发的早期肺癌，都有这个特点！",
        "docid": "7310548300510691878",
        "url": ""
    },
    {
        "title": "最近身体出现这5种迹象，说明情绪已经快崩溃了！",
        "docid": "7315994371143729715",
        "url": ""
    },
    {
        "title": "长期服用优甲乐，这8点，一定要告诉患者",
        "docid": "7291125482752442891",
        "url": ""
    },
    {
        "title": "藏在身边的“肺部大救星”是它们，冬季记得多吃，润肺止咳又营养",
        "docid": "7299734069208695359",
        "url": ""
    },
    {
        "title": "心火走嘴，肾火走耳，胃火走牙，五脏走火，看这几个地方就知道！",
        "docid": "7286365156031087163",
        "url": ""
    },
    {
        "title": "关于高血压，你不知道的事！",
        "docid": "7289018115244048931",
        "url": ""
    },
    {
        "title": "口臭是怎么形成的你知道吗",
        "docid": "7302016767327519232",
        "url": ""
    },
    {
        "title": "三七粉可以每天都喝吗？长期喝三七粉的人，身体会怎么样？",
        "docid": "7305213507061088768",
        "url": ""
    },
    {
        "title": "那些长期缺牙不修复的人，后来都怎么样了？",
        "docid": "7292338941246767651",
        "url": ""
    },
    {
        "title": "希望所有肝病患者，彩超报告单都不出现这几种提示",
        "docid": "7304104739762143770",
        "url": ""
    },
    {
        "title": "大便一通，浑身轻松，送你三个治疗便秘的中成药",
        "docid": "7312746842238861824",
        "url": ""
    },
    {
        "title": "不能长期服用的3类常用药，会破坏身体免疫力，很多人都不知道",
        "docid": "7312372641829323291",
        "url": ""
    },
    {
        "title": "22岁就中招！这个门诊晚上竟挤满年轻人…上海也开始约了！网友：很痛，但真香！",
        "docid": "7316047405345276453",
        "url": ""
    },
    {
        "title": "中年男子，颈动脉斑块，吃了5年他汀，结果怎么样了？",
        "docid": "7311164147772408355",
        "url": ""
    },
    {
        "title": "6颗板栗=1碗米饭？街边糖炒栗子吃多了致癌？真相是……",
        "docid": "7290523172967973411",
        "url": ""
    },
    {
        "title": "阴虚体质的人，牢记5种药，滋补五脏阴液，赶快收藏起来！",
        "docid": "7293722535450116608",
        "url": ""
    },
    {
        "title": "男子220元买感冒药只有2颗，看到说明书傻眼：这说明书值100",
        "docid": "7314524948696384000",
        "url": ""
    },
    {
        "title": "菠菜不能跟豆腐一起吃吗？医生叹息：这些事情很多人都给误解了！",
        "docid": "7306062341311824384",
        "url": ""
    },
    {
        "title": "吃了20年才知道，它竟然是“天然叶酸”，常吃抵抗病毒，强壮筋骨",
        "docid": "7311705509348868649",
        "url": ""
    },
    {
        "title": "衰老来临的6个征兆，你意识到了吗？",
        "docid": "7307424154528088610",
        "url": ""
    },
    {
        "title": "今年的体检结果，让我认识到，退休了再工作，真的是在用健康换钱",
        "docid": "7297461168552493579",
        "url": ""
    },
    {
        "title": "白发，记住这两味，清血热，补肾精！",
        "docid": "7315636148913717760",
        "url": ""
    },
    {
        "title": "马上停止这样泡脚，看似养生实则伤身",
        "docid": "7311507176437154313",
        "url": ""
    },
    {
        "title": "桑叶加生姜泡水喝，老一辈人留给我们的土方法，很多人都不知道",
        "docid": "7308609621039186473",
        "url": ""
    },
    {
        "title": "你为啥喜欢跷二郎腿？长期跷二郎腿真的会导致两腿长短不一吗？",
        "docid": "7315353393874010639",
        "url": ""
    },
    {
        "title": "小米真的更营养吗？营养专家做了个“对比”",
        "docid": "7306413614133772810",
        "url": ""
    },
    {
        "title": "不抽烟、不喝酒的男人最“可怕”？这三个原因，揭露背后的真相",
        "docid": "7296378756393320969",
        "url": ""
    },
    {
        "title": "一人做饭，全家致癌？有这6个做菜坏习惯，可能比外卖还不健康",
        "docid": "7304225044710818356",
        "url": ""
    },
    {
        "title": "呼吸道感染高发，建议少吃4种发物，多吃5种高蛋白食物，增强抵抗",
        "docid": "7306143173183554067",
        "url": ""
    },
    {
        "title": "去了西医医院与中医院之后，我发现了完全相反的现象，要变天了吗",
        "docid": "7313712781486735908",
        "url": ""
    },
    {
        "title": "怕冷体质，常做这7件事，暖身体",
        "docid": "7313209211118567973",
        "url": ""
    },
    {
        "title": "妇科常用的药，却是治疗男人前列腺炎、增生、肥大的良药！",
        "docid": "7315958072709710371",
        "url": ""
    },
    {
        "title": "“秋冬吃一根，腿脚站稳跟”，天冷每天吃3片， 驱寒暖身不怕冷",
        "docid": "7293448930606580235",
        "url": ""
    },
    {
        "title": "打破常识，北大51万人研究发现：长期吃辣，或可降低多种癌症风险",
        "docid": "7315248283985642024",
        "url": ""
    },
    {
        "title": "冬至来临，要“忌3样，吃3肉3菜”，顺应时令而吃，健康过冬",
        "docid": "7315033313591378467",
        "url": ""
    },
    {
        "title": "进入数九天，要知道忌嘴，少吃2样，多吃5种“黄金菜”，驱寒过冬",
        "docid": "7315445647639937573",
        "url": ""
    },
    {
        "title": "中疾控：未来一周急性呼吸道疾病可能继续下降，新冠病毒活动处于今年以来的最低水平",
        "docid": "7316073355038229007",
        "url": ""
    },
    {
        "title": "痒痒痒！仿佛有无数个小虫子在爬……如何摆脱恼人的阴道炎？",
        "docid": "7315352385172587062",
        "url": ""
    },
    {
        "title": "空心菜是“万毒之王”，重金属超标还致癌？这4种蔬菜才要少吃",
        "docid": "7288200796427305531",
        "url": ""
    },
    {
        "title": "老人身上有一股怪味吗？建议55岁后，远离3个习惯，老了或没味",
        "docid": "7299027943966474806",
        "url": ""
    },
    {
        "title": "年纪大更要忌嘴？建议60岁后：少吃稀饭面条，多吃3样，精力充沛",
        "docid": "7291468136753168937",
        "url": ""
    },
    {
        "title": "衰老真的能被“逆转”！美国研究：改变生活方式仅8周，年轻4.6岁",
        "docid": "7291852861829759503",
        "url": ""
    },
    {
        "title": "人的膝关节只能用60年？若不运动可以节省下来吗？答案告知你",
        "docid": "7304118157286048266",
        "url": ""
    },
    {
        "title": "东汉丢了伤寒论，三国扔掉针灸经，唐朝遗失千金方，哪个更可惜？",
        "docid": "7313375360731628083",
        "url": ""
    },
    {
        "title": "止咳需分寒咳、热咳，千万别搞错了",
        "docid": "7302759948038193675",
        "url": ""
    },
    {
        "title": "深圳市第三人民医院新大楼启用，肝癌及肺癌诊疗中心成立",
        "docid": "7315823479314874921",
        "url": ""
    },
    {
        "title": "手脚冰凉还特别怕冷，罪魁祸首终于找到，记住这个方法早早治愈！",
        "docid": "7315702716297200137",
        "url": ""
    },
    {
        "title": "这水果很甜，糖分却很低！硒含量是苹果18倍，冬季不吃亏大了，拿来做烧烤真绝~",
        "docid": "7311151275591074358",
        "url": ""
    },
    {
        "title": "伯伯患肺癌去世，临终前不肯说出存折和密码，伯母平静料理后事",
        "docid": "7298338715569762824",
        "url": ""
    },
    {
        "title": "再三提醒：酒后出现3个症状，可能是“胰腺炎”来了，别不当回事",
        "docid": "7283335738870153786",
        "url": ""
    },
    {
        "title": "带着饥饿感入睡到底是“好处”多还是“坏处”多？听听医生的解释",
        "docid": "7312066129089315378",
        "url": ""
    },
    {
        "title": "支原体肺炎防治9个提醒",
        "docid": "7296669571451339302",
        "url": ""
    },
    {
        "title": "动物内脏是健康杀手？不一定，这几种很值得吃！",
        "docid": "7312637944215388683",
        "url": ""
    },
    {
        "title": "浅谈饭后散步对身体健康的益处",
        "docid": "7315741714994790962",
        "url": ""
    },
    {
        "title": "人过60才明白,惜命的最好方式不是养生和锻炼，而是这5个好习惯！",
        "docid": "7313432445515219467",
        "url": ""
    },
    {
        "title": "“人老三个坎，熬过寿命长”？是哪“三年坎”，老年人要早知道",
        "docid": "7303797319278264866",
        "url": ""
    },
    {
        "title": "对于男人而言:61岁～70岁这段岁月“很难熬”，做好5点能安稳度过",
        "docid": "7313125108100039178",
        "url": ""
    },
    {
        "title": "上火不用怕，送你五个便宜又好用的五脏灭火器！",
        "docid": "7314829984189743650",
        "url": ""
    },
    {
        "title": "补气血的正确顺序",
        "docid": "7286101999551595044",
        "url": ""
    },
    {
        "title": "人有劳碌命，五十写脸上，脸上有这三种表现的人，多半命苦",
        "docid": "7314994460797338127",
        "url": ""
    },
    {
        "title": "开车要开两遍、反复洗手32次……偶数型“强迫症”折磨男子多年",
        "docid": "7315419403020550697",
        "url": ""
    },
    {
        "title": "夫妻二人同时确诊！五种癌容易成为“夫妻癌”",
        "docid": "7287502924383519288",
        "url": ""
    },
    {
        "title": "100岁长寿奶奶，早餐吃得非常有特点，专家叹息：6年都不换花样！",
        "docid": "7297129685773828643",
        "url": ""
    },
    {
        "title": "每日科普：发育性髋关节发育不良",
        "docid": "7313962142552588810",
        "url": ""
    },
    {
        "title": "寒潮来袭，6类人群更要做好防护",
        "docid": "7314591479619043851",
        "url": ""
    },
    {
        "title": "4种祛湿强力的中药，能够从头到脚去湿气，横扫痰湿、湿热、寒湿",
        "docid": "7314626835642696228",
        "url": ""
    },
    {
        "title": "早餐补蛋白是重点，中老年多吃3款早餐，提高身体免疫力",
        "docid": "7294068099056288295",
        "url": ""
    },
    {
        "title": "年纪轻轻，阴毛变白了，是肾虚吗？洗澡时掉了很多毛，说明什么",
        "docid": "7315968799847531060",
        "url": ""
    },
    {
        "title": "多发肺结节，最大8mm，某院让手术两次！教授：医生要干良心活！",
        "docid": "7294907903272550923",
        "url": ""
    },
    {
        "title": "直肠癌看大便就知？忠告：上厕所时发现4个怪象，尽早做下肠镜",
        "docid": "7310121083045282342",
        "url": ""
    },
    {
        "title": "你以为在休息，其实是在伤气血！",
        "docid": "7298677345035731491",
        "url": ""
    },
    {
        "title": "我有三儿一女，生病住院后才懂，只出钱不出力的孩子是真的聪明",
        "docid": "7298863666457070709",
        "url": ""
    },
    {
        "title": "冬至过后要“养骨”，别只喝牛奶，有条件多吃2样，骨头不脆了",
        "docid": "7315724859035173427",
        "url": ""
    },
    {
        "title": "秋天要多吃此肉，比牛肉便宜，比鸡鸭肉香，营养滋补好吃不发胖！",
        "docid": "7282645200806543913",
        "url": ""
    },
    {
        "title": "国医大师于昨晚8时08分逝世",
        "docid": "7316048763829748260",
        "url": ""
    },
    {
        "title": "女生反咬老鼠，医生惊呼：竟然没有先例！",
        "docid": "7316092459439194639",
        "url": ""
    },
    {
        "title": "妇产科男医生刘淼：从不受信任到“妇女之友”，21年见证人情冷暖",
        "docid": "7291223954096964133",
        "url": ""
    },
    {
        "title": "女性45岁绝经和54岁绝经，谁的衰老速度更快？说出大实话",
        "docid": "7295348740486267428",
        "url": ""
    },
    {
        "title": "尿酸高的人不能吃羊肉？提醒：尿酸高患者需要注意，尽量远离3物",
        "docid": "7305613285783962149",
        "url": ""
    },
    {
        "title": "每日一味中草药：淫羊藿",
        "docid": "7291852851121439272",
        "url": ""
    },
    {
        "title": "马铃薯是胃病的“加速器”吗？不想胃病变严重，尽量少吃6物",
        "docid": "7315681953955791360",
        "url": ""
    },
    {
        "title": "耳朵里面经常痒，却啥也掏不出？别不当回事，可能是4种病的信号",
        "docid": "7287494306724905507",
        "url": ""
    },
    {
        "title": "2块钱的维生素，是失眠的“顶尖药”，便宜管用",
        "docid": "7313824443632304659",
        "url": ""
    },
    {
        "title": "降温了，建议中老年人：多吃“1豆、2果、3汤”，为秋冬打好基础",
        "docid": "7287942615528505892",
        "url": ""
    },
    {
        "title": "冬天洗澡的正确方式，你知道吗？",
        "docid": "7304811622814745140",
        "url": ""
    },
    {
        "title": "怕冷，手脚凉？为什么补阳没有用？分清4种原因，补阳不走弯路",
        "docid": "7315667053417923083",
        "url": ""
    },
    {
        "title": "喝药必忌口的基本常识，你做到了吗？",
        "docid": "7304267139114861071",
        "url": ""
    },
    {
        "title": "一旦眼睛出现这8种症状要当心，这可能是大病的征兆，要及时就医",
        "docid": "7315702193766908431",
        "url": ""
    },
    {
        "title": "昨天在诊所打针，用了四种药，花了120元，是不是太贵了呀？",
        "docid": "7307084519193215488",
        "url": ""
    },
    {
        "title": "一个人命里有没有“福气”，看身材就一清二楚了，很现实的",
        "docid": "7313764748980470306",
        "url": ""
    },
    {
        "title": "八旬老汉肺部发现肿瘤，家属拒绝活检，彻底放弃治疗，这是为何？",
        "docid": "7313841415853720116",
        "url": ""
    },
    {
        "title": "老人全身皮疹、淋巴结肿大，医生叹息：生活中的这几个习惯害了他",
        "docid": "7315315333198807562",
        "url": ""
    },
    {
        "title": "原来不喜欢到私人诊所看病是因为这样！看完网友评论，我无可辩驳",
        "docid": "7313009258063610419",
        "url": ""
    },
    {
        "title": "史铁生之死：发病时妻不在身边，救护车上留三字遗言，死前捐器官",
        "docid": "7300439264037192211",
        "url": ""
    },
    {
        "title": "注意：服用倍他乐克期间，这2件事不能做，风险很大",
        "docid": "7309155691959501351",
        "url": ""
    },
    {
        "title": "医生解剖5516例猝死者，发现猝死规律：易猝死的人，有4个共同点",
        "docid": "7314572795495596579",
        "url": ""
    },
    {
        "title": "痛风妙方——我有一治痛风的方子，屡用不爽，今日公之于众。",
        "docid": "7315680975860908571",
        "url": ""
    },
    {
        "title": "中国最新癌症数据出炉！这3类癌最易致死！学会1个果蔬搭配公式，获得8倍抗癌能力！",
        "docid": "7313767912832352787",
        "url": ""
    },
    {
        "title": "72种药食同源的食材都有哪些功效？",
        "docid": "7285322767783379471",
        "url": ""
    },
    {
        "title": "“人过六十，不争四物”:过了60岁后，不争这4样东西，是大智慧",
        "docid": "7309647345778639370",
        "url": ""
    },
    {
        "title": "瑞士人均寿命超80岁，医生：他们的这几个日常生活习惯，值得借鉴",
        "docid": "7314539521612300854",
        "url": ""
    },
    {
        "title": "坦索罗辛进口和国产有什么差别？是否使患者接受手术的风险提前？",
        "docid": "7283727288141693479",
        "url": ""
    },
    {
        "title": "如何提高睡眠质量？这几点要注意→",
        "docid": "7290520768528630272",
        "url": ""
    },
    {
        "title": "华西医院到底有多牛逼？ 网友：华西最牛的是氧饱和11点3还能抢救",
        "docid": "7316013545693495808",
        "url": ""
    },
    {
        "title": "一年只需打两针，“长效降脂针”英克司兰钠注射液，降脂新选择",
        "docid": "7295591809386824204",
        "url": ""
    },
    {
        "title": "血脂化验，哪几项最主要？医生建议：4项必须查，1项最重要",
        "docid": "7303549184874119721",
        "url": ""
    },
    {
        "title": "关于器官移植合法化的思考",
        "docid": "7312457221684675082",
        "url": ""
    },
    {
        "title": "四神汤的养胃食谱分享，健脾祛湿、养胃驱寒、提高免疫力",
        "docid": "7307484655765570059",
        "url": ""
    },
    {
        "title": "哀悼！段胜如同志逝世，享年102岁",
        "docid": "7316118980748821042",
        "url": ""
    },
    {
        "title": "你知道瘦下来有多少好处吗？",
        "docid": "7314832807006667279",
        "url": ""
    },
    {
        "title": "耳鸣，多是缺这种维生素。",
        "docid": "7310136401947984423",
        "url": ""
    },
    {
        "title": "养胃的日子——养胃从啃馒头开始慢慢变好",
        "docid": "7283749875438092856",
        "url": ""
    },
    {
        "title": "长期吃他汀会加速血管硬化？了解3个注意事项，降血脂安全又高效",
        "docid": "7287099887253488188",
        "url": ""
    },
    {
        "title": "\"治腰必治臀\"？怎么腰痛能和屁股扯上关系?",
        "docid": "7314958903316316712",
        "url": ""
    },
    {
        "title": "斩断湿气之根有效利器——升阳！我只用两招 上补脾 下温肾 湿除身轻",
        "docid": "7302600785043456575",
        "url": ""
    },
    {
        "title": "仅用了3个月，血糖从16.8降到5.6，他的降糖习惯值得各位糖友学习",
        "docid": "7289349458981225018",
        "url": ""
    },
    {
        "title": "图说——肠易激综合征，到底是个啥病？",
        "docid": "7282927206387548735",
        "url": ""
    },
    {
        "title": "部分辅助生殖类医疗服务项目纳入医保 享受政策减轻生育费用",
        "docid": "7316034215378911770",
        "url": ""
    },
    {
        "title": "中医50个特效穴，针对常见疾病有奇效！收藏起来，以备不时之需！",
        "docid": "7315350878700093962",
        "url": ""
    }
]