[
    {
        "title": "寒潮携暴雪来袭！这些人群更要注意防护",
        "docid": "7336193518886568489",
        "url": ""
    },
    {
        "title": "恢复门诊第一天 皮肤科、眼科成西南医院热门科室",
        "docid": "7336205540428661288",
        "url": ""
    },
    {
        "title": "谢依霖老公重症肌无力，无法自主呼吸，只能一个人在家带2个娃",
        "docid": "7336104174889894451",
        "url": ""
    },
    {
        "title": "头孢配酒，说走就走！除了头孢，这6种药也不能沾酒，你在吃吗？",
        "docid": "7324651066816561699",
        "url": ""
    },
    {
        "title": "人到中年，什么最重要？",
        "docid": "7336057466037436969",
        "url": ""
    },
    {
        "title": "不能吃！不能吃！有剧毒！",
        "docid": "7307121831377682980",
        "url": ""
    },
    {
        "title": "宫颈癌多是“拖”出来的，女人身体若有3处异常，趁早就医",
        "docid": "7308262930330452543",
        "url": ""
    },
    {
        "title": "健康过大年｜饮酒应浅尝辄止",
        "docid": "7335300996689838627",
        "url": ""
    },
    {
        "title": "什么是铊中毒？一图带你了解",
        "docid": "7315664870844940863",
        "url": ""
    },
    {
        "title": "不同类型感冒，对症中成药的选择",
        "docid": "7308529976939184694",
        "url": ""
    },
    {
        "title": "她在生日前一天走了，以另一种方式“看人间”",
        "docid": "7305186352432218639",
        "url": ""
    },
    {
        "title": "献血之后，你的身体在悄悄发生这些变化！",
        "docid": "7303900050311528975",
        "url": ""
    },
    {
        "title": "西洋参的养生搭配，让保健效果倍增！",
        "docid": "7317142488014389779",
        "url": ""
    },
    {
        "title": "清代男科女科手抄老医书古书籍",
        "docid": "7306725622699541002",
        "url": ""
    },
    {
        "title": "医生告诉你：手术前，你一定要问清你的手术医生，这4个问题",
        "docid": "7304950466754953768",
        "url": ""
    },
    {
        "title": "有一个成药，能使眼睛明亮起来，经常用眼人的福音",
        "docid": "7320368391058293286",
        "url": ""
    },
    {
        "title": "五十看腿，六十看耳，七十心、八十看命，人是否长寿，暗藏天机！",
        "docid": "7315581336444650025",
        "url": ""
    },
    {
        "title": "为啥有些老年人过了70岁，没几年就去世了？医生：多半是3个原因",
        "docid": "7327931591429210660",
        "url": ""
    },
    {
        "title": "艾灸30问，掌握了，你也是艾灸高手",
        "docid": "7322669581670072858",
        "url": ""
    },
    {
        "title": "假期“余额不足”，这个朋友圈内容建议收藏",
        "docid": "7336001968864805414",
        "url": ""
    },
    {
        "title": "仲景治疗发热的九大经方，建议收藏！",
        "docid": "7332465189541102115",
        "url": ""
    },
    {
        "title": "寿命与体重的关系被发现：60岁后，这样的体重刚刚好，你达标没？",
        "docid": "7335047558588350987",
        "url": ""
    },
    {
        "title": "早餐补蛋白是关键，建议中老年人：多吃3款早餐，增强身体抵抗力",
        "docid": "7326843011764453951",
        "url": ""
    },
    {
        "title": "肿瘤患者只要熬过这3道坎，就算是“痊愈”了，第3个最难熬！",
        "docid": "7332730486256599615",
        "url": ""
    },
    {
        "title": "福建协和医院，这两位医生太强了！",
        "docid": "7316746500502143525",
        "url": ""
    },
    {
        "title": "多散步对血管好？医生建议：50岁后，坚持做这两件事或比运动好",
        "docid": "7316840199550714403",
        "url": ""
    },
    {
        "title": "治疗便秘常用中成药怎么选?对症下药才能从“根本”解决问题！",
        "docid": "7311676756467958291",
        "url": ""
    },
    {
        "title": "新春走基层 | 清华大学第一附属医院急诊科主治医师杨昆：为健康站岗 为生命守岁",
        "docid": "7334885763424846387",
        "url": ""
    },
    {
        "title": "我国著名中医肝病专家钱英在京病逝，享年86岁",
        "docid": "7335383513581158963",
        "url": ""
    },
    {
        "title": "益生菌能长期吃吗？有副作用吗？医生提醒：服用益生菌注意4点",
        "docid": "7304106339062891059",
        "url": ""
    },
    {
        "title": "原来在药店工作还需要这种识别技能！看完网友分享，我真心佩服了",
        "docid": "7321941702246662710",
        "url": ""
    },
    {
        "title": "胃镜报告出现，这5个潜台词，一定要重视",
        "docid": "7316437675513348617",
        "url": ""
    },
    {
        "title": "\"不只是吃，关键是吃对！解密一日三餐的正确法则！\"",
        "docid": "7336196127542723110",
        "url": ""
    },
    {
        "title": "春节吃油太多，要多喝茶刮油？",
        "docid": "7336097166907146789",
        "url": ""
    },
    {
        "title": "补钙很有用的4种食物，牛奶都不算什么，医生：年纪越大越要吃",
        "docid": "7303778251586667020",
        "url": ""
    },
    {
        "title": "心梗前的9个征兆，你一定要注意",
        "docid": "7303358926492303935",
        "url": ""
    },
    {
        "title": "米饭、馒头和面条，哪个升血糖更快？主食吃对了，血糖才能稳稳的",
        "docid": "7318069416611021312",
        "url": ""
    },
    {
        "title": "医学界发现：能活过80岁的糖尿病人，身上大都有这5个特征",
        "docid": "7324541233350492707",
        "url": ""
    },
    {
        "title": "男人五十岁以后，出现这几个现象，说明衰老到来，该保养了别大意",
        "docid": "7305328150916121123",
        "url": ""
    },
    {
        "title": "补脾最好的办法就是升阳！教你有效补脾，升阳散寒！不做无用功！",
        "docid": "7307568891545993769",
        "url": ""
    },
    {
        "title": "1400%的利润，这是多么黑心暴利的行业！",
        "docid": "7328268846878933542",
        "url": ""
    },
    {
        "title": "河北省人均实际寿命大数据分析报告，带给您不一样的生命数据解读",
        "docid": "7315669168903504447",
        "url": ""
    },
    {
        "title": "一边医院在亏损，一边患者看病贵，那高昂的医疗费用去哪里了呢？",
        "docid": "7335389150042407459",
        "url": ""
    },
    {
        "title": "我妈87岁，患有数十种疾病。带病长寿，与她独特的养生习惯有关",
        "docid": "7320138691723133475",
        "url": ""
    },
    {
        "title": "阴虚火旺？用六味地黄丸没用？教你好方法，效果会更好！",
        "docid": "7309034787593880076",
        "url": ""
    },
    {
        "title": "男子除夕前夕突遭“网脱” 长沙爱尔眼科争分夺秒为其守护光明",
        "docid": "7336074033068425766",
        "url": ""
    },
    {
        "title": "最新2型糖尿病指南出炉，强化三大药物治疗地位，你的药吃对否？",
        "docid": "7333822957238075945",
        "url": ""
    },
    {
        "title": "“阴亏于下，阳浮于上”的更年期综合征，这样调理",
        "docid": "7325550645627535898",
        "url": ""
    },
    {
        "title": "\"提升睡眠质量，长久之计：这6种西药与7种中成药您一定要知道\"",
        "docid": "7304088487052067340",
        "url": ""
    },
    {
        "title": "新春佳节大快朵颐？是时候让肠胃卸下重担了",
        "docid": "7336030292148290082",
        "url": ""
    },
    {
        "title": "自律两个月，让你颜值暴涨",
        "docid": "7335013459199672858",
        "url": ""
    },
    {
        "title": "充足阳气的六种方式：",
        "docid": "7335255186413486642",
        "url": ""
    },
    {
        "title": "当你放下这些，肾气就恢复了大半",
        "docid": "7334324626963087872",
        "url": ""
    },
    {
        "title": "曾经那么火的“乳胶枕”，为何惨遭嫌弃？过来人：用上1年就懂了",
        "docid": "7331638573303480847",
        "url": ""
    },
    {
        "title": "中医建议：睡前黄金1小时，低成本养生",
        "docid": "7325768562923438619",
        "url": ""
    },
    {
        "title": "女性“断崖式衰老”往往发生在这两个年龄！做好这4点，提前预防",
        "docid": "7336184204382585396",
        "url": ""
    },
    {
        "title": "得了腰肌劳损怎么办？腰肌劳损最全攻略，你想知道的都在这里！",
        "docid": "7303428212804436480",
        "url": ""
    },
    {
        "title": "警惕！民营医院会将面临大洗牌？你支持民营还是公立呢？",
        "docid": "7334147712504627747",
        "url": ""
    },
    {
        "title": "衰老来临的6个征兆，你意识到了吗？",
        "docid": "7307424154528088610",
        "url": ""
    },
    {
        "title": "当心！这7种症状可能是精神疾病的先兆！",
        "docid": "7312994713097896489",
        "url": ""
    },
    {
        "title": "口臭的四个行为",
        "docid": "7327314909996515878",
        "url": ""
    },
    {
        "title": "五十岁之后，这几种“饭局”，最好及时拒绝，去了，麻烦就来了",
        "docid": "7316833387477353010",
        "url": ""
    },
    {
        "title": "再贵也要吃，这3样是“心脏守护神”，中老年隔天吃1次，健康到老",
        "docid": "7305004833809973760",
        "url": ""
    },
    {
        "title": "请停止喝这5种中药，或被列入伤肝“名单”，不妨了解清楚",
        "docid": "7322712189482271266",
        "url": ""
    },
    {
        "title": "流鼻血别再仰头了，只要捏一捏这个部位，马上就能止血",
        "docid": "7323918907985674788",
        "url": ""
    },
    {
        "title": "低压长期高于90，教您3招对付它，简单有效",
        "docid": "7304195696474030601",
        "url": ""
    },
    {
        "title": "维生素B6是改善睡眠、预防脑梗死的常用药，科学服用注意这3点",
        "docid": "7320439332026827298",
        "url": ""
    },
    {
        "title": "新的一年养成这8个“好习惯”，让你越活越年轻！",
        "docid": "7334342313412477481",
        "url": ""
    },
    {
        "title": "吃饱了应该躺着、坐着还是站着？正确姿势看这里→饭后常有这些症状要警惕",
        "docid": "7318619171276308992",
        "url": ""
    },
    {
        "title": "药王孙思邈的治肺良方 仅四味药 专治肺里的痰、火、瘀",
        "docid": "7327954868218446371",
        "url": ""
    },
    {
        "title": "中医养肝从四个方面，送你四个养肝茶！",
        "docid": "7330123135448826368",
        "url": ""
    },
    {
        "title": "48岁阿姨失眠3年离世，医生建议：这2种东西少吃！了解下",
        "docid": "7334186139043168818",
        "url": ""
    },
    {
        "title": "牙痛怎么办？送你5个药，治疗5种原因引起的牙痛！",
        "docid": "7335440718443643427",
        "url": ""
    },
    {
        "title": "烦恼不过夜",
        "docid": "7310387368454865420",
        "url": ""
    },
    {
        "title": "中国唯一！河南这位教授荣获最佳女性发明奖",
        "docid": "7336218901074379274",
        "url": ""
    },
    {
        "title": "我53岁，突然发现一个保养大脑的好方法，做到不难，但是很有用",
        "docid": "7325391145390850560",
        "url": ""
    },
    {
        "title": "霜桑叶的圆运动，不要小看了这一片小桑叶",
        "docid": "7335588289270792741",
        "url": ""
    },
    {
        "title": "中风了很可怕，但是预防很简单！",
        "docid": "7314972670502896139",
        "url": ""
    },
    {
        "title": "女人的更年期是多长时间",
        "docid": "7310971233607434792",
        "url": ""
    },
    {
        "title": "湿气在哪儿，病就在哪儿，送您10个中医方，去除一身湿气",
        "docid": "7335704417411170866",
        "url": ""
    },
    {
        "title": "癌症晚期的我的自述：天上一天人间一年，生我的和我生的，对不起",
        "docid": "7303352144747692570",
        "url": ""
    },
    {
        "title": "不孕症——我有一千金方，屡用不爽，今日公之于众。",
        "docid": "7332382889868493348",
        "url": ""
    },
    {
        "title": "高血压这样服用硝苯地平，不但效果好，而且降压平稳！你用对了没",
        "docid": "7311107411635585570",
        "url": ""
    },
    {
        "title": "英山县人民医院：坚守“医”线 守护健康",
        "docid": "7335653683252019747",
        "url": ""
    },
    {
        "title": "注意！得了糖尿病，1种肉最好不吃，1种肉要少吃！",
        "docid": "7308657446476874249",
        "url": ""
    },
    {
        "title": "10类地平类降压药，各擅其长，3分钟带您了解完！高血压患者要读",
        "docid": "7307662626245329427",
        "url": ""
    },
    {
        "title": "中药配对：夫妻牵手，20对中药配伍的和谐功效",
        "docid": "7304923553869169206",
        "url": ""
    },
    {
        "title": "缺钾比缺钙危险？4个信号证明你缺钾了，建议吃这5种食物来缓解",
        "docid": "7318415672764170792",
        "url": ""
    },
    {
        "title": "与咽炎说拜拜！喉部健康的5个预防措施",
        "docid": "7335993451332551179",
        "url": ""
    },
    {
        "title": "过了60岁，“富养”自己的方式，除了睡觉遛弯，还有这8种好习惯",
        "docid": "7316388726148497971",
        "url": ""
    },
    {
        "title": "麦冬是个宝，泡水搭配，补肾养肺，健脾祛湿，气血双补还解烦安神",
        "docid": "7327110303387517492",
        "url": ""
    },
    {
        "title": "大叔一检查发现5处癌：“平时就好这一口！”",
        "docid": "7306382107855602187",
        "url": ""
    },
    {
        "title": "治疗痛风常用的4种经方，值得收藏",
        "docid": "7304449111103668777",
        "url": ""
    },
    {
        "title": "再次提醒：这5种药一旦吃上，千万别随便停！突然停服风险大",
        "docid": "7306454578429510178",
        "url": ""
    },
    {
        "title": "颈椎疼痛，睡觉时枕头矮点好？这种说法对吗？听听医生怎么说",
        "docid": "7335746017126662671",
        "url": ""
    },
    {
        "title": "33岁的她沉不住气，切了5mm纯磨玻璃肺结节，术后发现是炎症",
        "docid": "7307179552357466634",
        "url": ""
    },
    {
        "title": "嗓子疼时该不该用抗生素？小心这种致命的情况！",
        "docid": "7329400736939672098",
        "url": ""
    },
    {
        "title": "常吃的野菜——苦菜，是一味抗肿瘤的中药",
        "docid": "7314518146609021475",
        "url": ""
    },
    {
        "title": "与“狼”共“舞” 红斑狼疮患者的别样人生",
        "docid": "7313852021952791051",
        "url": ""
    },
    {
        "title": "阳气不足易生病，春天养阳正当时！",
        "docid": "7335617831541031435",
        "url": ""
    },
    {
        "title": "脂肪肝早中期要恢复过来还是可以的，注意好你的饮食！",
        "docid": "7309634441989603840",
        "url": ""
    },
    {
        "title": "带着饥饿感入睡到底是“好处”多还是“坏处”多？听听医生的解释",
        "docid": "7312066129089315378",
        "url": ""
    },
    {
        "title": "止咳五兄弟，你用对了吗?",
        "docid": "7329815841187299892",
        "url": ""
    },
    {
        "title": "骨癌有多恐怖？无数孩子在病床上痛哭，最纯真的年纪离开人间！",
        "docid": "7319481230205633059",
        "url": ""
    },
    {
        "title": "检查报告出现这些字眼要警惕",
        "docid": "7323033463974855205",
        "url": ""
    },
    {
        "title": "风油精为什么在国外这么抢手？居然还隐藏神奇妙用，赶紧在家试试",
        "docid": "7320158763314020898",
        "url": ""
    },
    {
        "title": "如何辨别艾滋皮疹",
        "docid": "7317192293323227698",
        "url": ""
    },
    {
        "title": "“在世华佗”李伯藩：2006年退休后免费看病，18年来接诊上百万人",
        "docid": "7335662792151810623",
        "url": ""
    },
    {
        "title": "痰湿是一个概念，老中医带你深度分析痰湿起因、治法、常用药",
        "docid": "7312723995684799016",
        "url": ""
    },
    {
        "title": "借助西医解剖，来取中医穴位！",
        "docid": "7335821820111077928",
        "url": ""
    },
    {
        "title": "不要去药店买优甲乐",
        "docid": "7334361959452131894",
        "url": ""
    },
    {
        "title": "37岁农民工突遭意外，从六楼坠落陷入昏迷，而医生却说不需要手术",
        "docid": "7336094705782555151",
        "url": ""
    },
    {
        "title": "小建中汤膏适用人群，快来看看吧！",
        "docid": "7332748609420689957",
        "url": ""
    },
    {
        "title": "六味地黄丸的加强版，滋阴清热、柔肝助眠，专治睡不好、半夜醒",
        "docid": "7308661696615580196",
        "url": ""
    },
    {
        "title": "我80后湖北人，在上海与香港商人结婚，为儿女来到香港，现已分居",
        "docid": "7321020487167967759",
        "url": ""
    },
    {
        "title": "人老了，出现这些状况是自然现象，有的不必治疗，学会与之相伴",
        "docid": "7335310280072675875",
        "url": ""
    },
    {
        "title": "皮肤病有4怕，你知道是什么吗？",
        "docid": "7324890967600054810",
        "url": ""
    },
    {
        "title": "多说一句：2月18日（星期日）是工作日，要上班",
        "docid": "7336132850825282102",
        "url": ""
    },
    {
        "title": "黄芪用陈醋泡2天，老辈们的做法，真是高手在民间，看完长见识了",
        "docid": "7314881353416344118",
        "url": ""
    },
    {
        "title": "精亏腿乏，血亏眼乏，气亏身乏！3个中成药，帮你补精、益气养血",
        "docid": "7313454530161951273",
        "url": ""
    },
    {
        "title": "我，当陪诊师月入5~10万，还被众多患者感激，觉得很有成就感",
        "docid": "7335853711845442088",
        "url": ""
    },
    {
        "title": "睡觉时突然腿抽筋，就是缺钙吗？错！或与3种疾病有关，多加注意",
        "docid": "7311312174386168335",
        "url": ""
    },
    {
        "title": "警惕！别让这些药物坏了你的“男性性功能”",
        "docid": "7306879359510807067",
        "url": ""
    },
    {
        "title": "“甲硝唑”便宜又好用，能治啥病？医生坦言：4种疾病效果挺好",
        "docid": "7307594029611794980",
        "url": ""
    },
    {
        "title": "“有夜尿”与“没有夜尿”的人，哪个健康？看完涨知识",
        "docid": "7316872465035477531",
        "url": ""
    },
    {
        "title": "温州一女士坚信拔血罐可养生，每周放血200ml，2年后查出健康出了问题",
        "docid": "7319784583648936487",
        "url": ""
    },
    {
        "title": "提醒：这5种病都不是病，而是年龄到了！过度治疗反而伤身！",
        "docid": "7320406148455121443",
        "url": ""
    },
    {
        "title": "“人老两个坎，熬过就长寿”，“两坎”是指哪2年？老年人要注意",
        "docid": "7274853765742805559",
        "url": ""
    },
    {
        "title": "一位社区卫生室的中医，却是治鼻炎的高手！人在四川，我们已亲访",
        "docid": "7323036411274658358",
        "url": ""
    },
    {
        "title": "湿疹，瘙痒难受，大多是湿热所致，教你1方，祛风止痒，除湿清热",
        "docid": "7304830391905468963",
        "url": ""
    },
    {
        "title": "引起阴囊潮湿的5大原因",
        "docid": "7332759160138646026",
        "url": ""
    },
    {
        "title": "“四时不开窗，家人少病殃”记住这四个时候不开窗，对家人会更好",
        "docid": "7311579162504872459",
        "url": ""
    },
    {
        "title": "别让肝病悄悄靠近：五大警告信号！",
        "docid": "7329123267309502991",
        "url": ""
    },
    {
        "title": "一图了解高血压的发病原因及危害！",
        "docid": "7312402735939240500",
        "url": ""
    },
    {
        "title": "医共体来了，乡镇卫生院变了吗？",
        "docid": "7335794083543433780",
        "url": ""
    },
    {
        "title": "大脑开始“萎缩”时，身体一般会出现这3种反应，不妨认真了解",
        "docid": "7311283039181718068",
        "url": ""
    },
    {
        "title": "女子泡在影院十多个小时看完所有春节档电影后，直接进了手术室",
        "docid": "7336018630334939698",
        "url": ""
    },
    {
        "title": "身体不好，千万别到处跟人说（切记）",
        "docid": "7320815962012877364",
        "url": ""
    },
    {
        "title": "一人住院全家不折腾，医院无陪护模式进行时",
        "docid": "7330170542202389043",
        "url": ""
    },
    {
        "title": "两个研究显示，食欲好的老年人寿命更长，可能和这4个因素有关",
        "docid": "7303675430001705487",
        "url": ""
    },
    {
        "title": "如何补气血？气血足了，皮肤透亮白",
        "docid": "7335647229338878475",
        "url": ""
    },
    {
        "title": "病人将在一两天内死亡，医生是怎么知道的？难道会算命吗",
        "docid": "7310910117883904562",
        "url": ""
    },
    {
        "title": "久坐、久站、久躺，哪个对身体伤害更大？",
        "docid": "7324236633610666515",
        "url": ""
    },
    {
        "title": "“迷药之王”三唑仑",
        "docid": "7321013005133595146",
        "url": ""
    },
    {
        "title": "时间就是大脑：医护对缺血性脑卒中的快速响应",
        "docid": "7336307778505409050",
        "url": ""
    },
    {
        "title": "各位活爹啊！过年期间别再暴饮暴食啦，医院都快忙不过来了！",
        "docid": "7335422978135802407",
        "url": ""
    },
    {
        "title": "过年剩饭剩菜太多怎么办？专家提醒：宁可剩荤不剩素",
        "docid": "7335267413942403620",
        "url": ""
    },
    {
        "title": "红薯、南瓜不能吃？医生提醒：人老了，要尽量少吃红薯和南瓜",
        "docid": "7307804459130978826",
        "url": ""
    },
    {
        "title": "“一晚上10人紧急送医”，严重可致死！近期高发……",
        "docid": "7335335158281404980",
        "url": ""
    },
    {
        "title": "体检遗漏这些项目，等于白做，为了自己和家人的健康，收藏起来吧",
        "docid": "7319674300779397695",
        "url": ""
    },
    {
        "title": "改善精子质量又多了一个方法：每天吃2把坚果",
        "docid": "7305004196208902668",
        "url": ""
    },
    {
        "title": "“医护人员面对病人的裸体，内心真的会毫无波澜吗？”哈哈哈",
        "docid": "7333279695779430923",
        "url": ""
    },
    {
        "title": "吃晚饭后，长期点根烟抽的人，身体最后会怎样？医生无奈说出实情",
        "docid": "7312777951429345833",
        "url": ""
    },
    {
        "title": "喉咙肿、吞刀片，攻击嗓子的病毒来了？医生：教你4个方法缓解",
        "docid": "7333545391293628979",
        "url": ""
    },
    {
        "title": "“安乐死”没有痛苦？别看走的很安详，但它的痛苦程度超出你想象",
        "docid": "7322044143877095972",
        "url": ""
    },
    {
        "title": "如果坚持一个月“滴酒不沾”，肝脏能变好吗？相关研究得出答案",
        "docid": "7303758023766786597",
        "url": ""
    },
    {
        "title": "十条坏习惯行为，你占了几条？",
        "docid": "7336133334864642571",
        "url": ""
    },
    {
        "title": "一次管两天的他达拉非，常吃有害健康？牢记5个要点，用药更安心",
        "docid": "7306790402408202762",
        "url": ""
    },
    {
        "title": "没有一包烟是被冤枉的？调查分析：一天抽5次，抽出86万癌症患者",
        "docid": "7330905747305595443",
        "url": ""
    },
    {
        "title": "异地医保就医如何报销，下文说清楚",
        "docid": "7315952313972408882",
        "url": ""
    },
    {
        "title": "科学家发现：只要连续2天不吃饭，就可以重建整个免疫系统?别尝试",
        "docid": "7314571288138400296",
        "url": ""
    },
    {
        "title": "“抑郁症”常说的6句话，若你一句没说过，或说明身心很健康",
        "docid": "7309732003841098240",
        "url": ""
    },
    {
        "title": "为何器官捐献时，也需要对遗体打麻药？难道死后也会感到疼痛吗？",
        "docid": "7304240029810164261",
        "url": ""
    },
    {
        "title": "90后更偏爱的三代“伟哥”盐酸伐地那非片，日常该怎么规范使用？",
        "docid": "7328209606508200448",
        "url": ""
    },
    {
        "title": "我27岁，确诊红斑狼疮，刚确诊3个月，未婚未育，我已经慌了！",
        "docid": "7333594461261283903",
        "url": ""
    },
    {
        "title": "男子不同意女子急诊插队：要死一起死 女子术后证实是急症",
        "docid": "7324865851436663347",
        "url": ""
    },
    {
        "title": "“同事的弟弟40岁，从咳嗽到白肺去世仅1周”……有这3个“反常”赶紧就医！",
        "docid": "7328000884586512911",
        "url": ""
    },
    {
        "title": "鹅蛋为啥少有人吃？也很少有鹅蛋卖？我也是刚知道，真的涨知识了",
        "docid": "7318297727358911028",
        "url": ""
    },
    {
        "title": "人体需求维生素自查表，为了自己和家人的健康，收藏起来吧！",
        "docid": "7322808185302172196",
        "url": ""
    },
    {
        "title": "曾风靡的“倒铝锅”为何销声匿迹了？铝锅真的有毒吗？真相来了！",
        "docid": "7325323089620533769",
        "url": ""
    },
    {
        "title": "男生变强壮的八个行为",
        "docid": "7333498074221904423",
        "url": ""
    },
    {
        "title": "原来所谓“医者不能自医”体现在各个行业啊！评论区笑不活了",
        "docid": "7334009773488849446",
        "url": ""
    },
    {
        "title": "它被评为“最健康蔬菜”，医生提醒：女性特别适合吃",
        "docid": "7335718822839730697",
        "url": ""
    },
    {
        "title": "中国长寿之王龚来发，终身未娶活到133岁，生前唯一爱好不太健康",
        "docid": "7321678464308920884",
        "url": ""
    },
    {
        "title": "广西男童天生拥有蓝眼，夜晚视力依旧，检查后才发现原来是生病了",
        "docid": "7316164098616869427",
        "url": ""
    },
    {
        "title": "《伤寒论》108条背诵条文，学中医必会，值得收藏！",
        "docid": "7303486842182156812",
        "url": ""
    },
    {
        "title": "人体9大排病反应",
        "docid": "7320382147012362790",
        "url": ""
    },
    {
        "title": "人的膝关节只能用60年？若不运动可以节省下来吗？答案告知你",
        "docid": "7304118157286048266",
        "url": ""
    },
    {
        "title": "荨麻疹——名医高效方，我只发1次，建议保存！",
        "docid": "7328659755315249701",
        "url": ""
    },
    {
        "title": "胃越撑越大、越饿越小？医生无奈说出实情，千万不要再绕弯路了！",
        "docid": "7306326087775093283",
        "url": ""
    },
    {
        "title": "最适合男人吃的肉类排行榜，猪肉倒数第一，牛肉排第四，先收藏了",
        "docid": "7303466152171340342",
        "url": ""
    },
    {
        "title": "偷走你健康的十大坏习惯，比吸烟还可怕的九个爱好，你中了几个？",
        "docid": "7335880666573242932",
        "url": ""
    },
    {
        "title": "一人做饭，全家致癌？有这6个做菜坏习惯，可能比外卖还不健康",
        "docid": "7304225044710818356",
        "url": ""
    },
    {
        "title": "男性常用的8种经典中成药",
        "docid": "7327691447367647763",
        "url": ""
    },
    {
        "title": "为啥很多女生臀部上方，会有个小凸起？",
        "docid": "7306064162785100324",
        "url": ""
    },
    {
        "title": "酱油是“害人油”，吃多了会致癌？瓶子上有这4个字，赶紧放下！",
        "docid": "7320555606874538508",
        "url": ""
    },
    {
        "title": "43℃就能杀死癌细胞，假如发烧到43度，可以治愈癌症吗？",
        "docid": "7320887281601069587",
        "url": ""
    },
    {
        "title": "一碗馄饨下肚，外卖小哥切掉了这个器官！他的这个习惯很多人都有",
        "docid": "7319007951497282100",
        "url": ""
    },
    {
        "title": "不发烧也白肺了！感染后有这个症状一定要去医院",
        "docid": "7325281185913946659",
        "url": ""
    },
    {
        "title": "今年起！这37种慢性病医保能报销，没有起付线，报销比例很高",
        "docid": "7333479539890881063",
        "url": ""
    },
    {
        "title": "《柳叶刀》子刊：科学家首次发现，每天3分钟剧烈运动，即可对降低阿尔茨海默病相关死亡风险产生益处，20分钟效果最佳，可降低21%！",
        "docid": "7336187479747248655",
        "url": ""
    },
    {
        "title": "6年前山东女孩捐骨髓，为白血病母亲续命，后来如何了",
        "docid": "7322287174353732135",
        "url": ""
    },
    {
        "title": "心脏支架后能活多久？和你实话实说：支撑生命的可能是这3点",
        "docid": "7316453463871914535",
        "url": ""
    },
    {
        "title": "为啥老人身上有一股怪味？避免儿女嫌弃，建议：55岁后远离3个习惯，可预防老年味！",
        "docid": "7317826683057357362",
        "url": ""
    },
    {
        "title": "留学生分享国外就医经历，真是好笑又心疼！",
        "docid": "7335463217210180159",
        "url": ""
    },
    {
        "title": "西地那非，几块钱的国产药和几十块的进口药，差异大吗？揭晓来了",
        "docid": "7314578902545039913",
        "url": ""
    },
    {
        "title": "吃核桃补脑？研究发现：爱吃核桃的人，血管和大脑都不一样……",
        "docid": "7304521777143890471",
        "url": ""
    },
    {
        "title": "42岁大哥查出6mm肺结节，半年结节逐渐消失，他的做法值得借鉴",
        "docid": "7323586982645711375",
        "url": ""
    },
    {
        "title": "戴帽子能保护心脏？医生直言：要想心脏健康，冬天多注意这几点",
        "docid": "7332368907011424818",
        "url": ""
    },
    {
        "title": "研究癌症60年，中工院院士发现最好的“抗癌运动”，很多医生在做",
        "docid": "7326124412078752291",
        "url": ""
    },
    {
        "title": "“马面女孩”吴小燕：14年出门用布遮头，23岁“换脸”后收获爱情",
        "docid": "7323793194729554495",
        "url": ""
    },
    {
        "title": "“夺命铁锅”有多可怕？用它炒菜会致癌，神经衰弱，是真的吗？",
        "docid": "7303414882228044342",
        "url": ""
    },
    {
        "title": "抑郁症发病，常见15个躯体症状，希望你一个没有！",
        "docid": "7330067345794400831",
        "url": ""
    },
    {
        "title": "男子因放鞭炮炸伤手指,抢救10天放弃,医生:为什么当时不打破伤风",
        "docid": "7334557359290860059",
        "url": ""
    },
    {
        "title": "为什么自己会口臭？看看是不是这4个原因！",
        "docid": "7325793389231063587",
        "url": ""
    },
    {
        "title": "“免疫力强”的人，一般有7个特征，若能达到4个，恭喜！",
        "docid": "7321001391982445071",
        "url": ""
    },
    {
        "title": "手术室的秘密：一台10万的手术，主刀医生可以拿多少？涨知识了",
        "docid": "7324248034358035007",
        "url": ""
    },
    {
        "title": "为什么胸口会“刺痛”几秒？是心脏病吗？原来是这几种问题惹的祸",
        "docid": "7308039474028757541",
        "url": ""
    },
    {
        "title": "生活小妙招，比牛奶还补钙的10种蔬菜，你知道吗？收藏起来涨知识",
        "docid": "7335665990614860328",
        "url": ""
    },
    {
        "title": "为什么牙齿总是长牙结石？洗牙都不管用的吗？",
        "docid": "7304945837175013940",
        "url": ""
    },
    {
        "title": "终于有人把女性器官衰老时间表，整理出来了，涨知识，收藏看看",
        "docid": "7335410288014049792",
        "url": ""
    },
    {
        "title": "泡脚的误区",
        "docid": "7312949521804214811",
        "url": ""
    },
    {
        "title": "肝病报告看这些指标",
        "docid": "7305697967518777867",
        "url": ""
    },
    {
        "title": "“爬行妈妈”董明英：嫁给大22岁光棍，3年生两个孩子，后来如何",
        "docid": "7320133307482587688",
        "url": ""
    },
    {
        "title": "17年，浙江女孩无偿捐骨髓救白血病男孩，男孩一句话让她潸然泪下",
        "docid": "7327587624498135552",
        "url": ""
    },
    {
        "title": "中医建议：甘蔗水，秋冬是大补！",
        "docid": "7334510508021957172",
        "url": ""
    },
    {
        "title": "河北少女李明馨7年花200万抗癌，亲友劝放弃，怒道：我凭啥就该死",
        "docid": "7322383017547760128",
        "url": ""
    },
    {
        "title": "为啥网上的药比实体药店“便宜”？是不是假的？现在告诉你真相",
        "docid": "7310798019782525475",
        "url": ""
    },
    {
        "title": "整天躺着的人，比经常运动的人，还要长寿？研究给出正确答案",
        "docid": "7319703624643248655",
        "url": ""
    },
    {
        "title": "过度疲劳的危害大过癌症，不要忽视你的疲劳程度！",
        "docid": "7321334341957960226",
        "url": ""
    },
    {
        "title": "午睡可能影响寿命！医生劝告：50岁以后，午睡“三不要”得牢记",
        "docid": "7308643882802217472",
        "url": ""
    },
    {
        "title": "来自中国安徽的世界第一女巨人，穿78码鞋子，一顿吃6碗炒面",
        "docid": "7324708444135719461",
        "url": ""
    },
    {
        "title": "经常吃“佛手瓜”会致癌生病？佛手瓜到底能不能吃？告诉你真相",
        "docid": "7330829429931459135",
        "url": ""
    },
    {
        "title": "脱发，身体里有3把火，掐灭了头发就长了",
        "docid": "7323041391536488975",
        "url": ""
    },
    {
        "title": "后背疼、腰疼，别总以为是累的，可能与多种疾病有关，要注意！",
        "docid": "7310015351134175744",
        "url": ""
    },
    {
        "title": "睡觉时总在凌晨3、4点醒来，一般暗示4大疾病，要引起重视",
        "docid": "7319347703836869172",
        "url": ""
    },
    {
        "title": "独女车祸丧生，57岁母亲找到离婚26年的前夫：再帮我生个孩子吧",
        "docid": "7324969945702597160",
        "url": ""
    },
    {
        "title": "中老年人要忌嘴，建议少吃南瓜和土豆，多吃5样，越吃越健康！",
        "docid": "7305987802594853416",
        "url": ""
    },
    {
        "title": "羊肉和它是绝配，男吃补肾、女吃补血！但3类人别碰，否则越补越虚",
        "docid": "7313068134083510834",
        "url": ""
    },
    {
        "title": "拯救近视干货，快码住",
        "docid": "7318939418008551946",
        "url": ""
    },
    {
        "title": "河南妙龄女子一夜变成80岁老太，两次轻生多次整形，现状如何？",
        "docid": "7313853417410167322",
        "url": ""
    },
    {
        "title": "全球一半食管癌在中国！再次忠告：家中3种食物，尽早撤下餐桌",
        "docid": "7326504683135287848",
        "url": ""
    },
    {
        "title": "肺最喜欢的养生茶，具有清肺化痰、滋阴润肺、清热解毒等功效",
        "docid": "7327507051037786665",
        "url": ""
    },
    {
        "title": "为什么台湾透析治疗率全球第一？",
        "docid": "7311370654320787978",
        "url": ""
    },
    {
        "title": "9岁女孩患白血病，妈妈放弃治疗，90后姑姑倾家荡产救侄女",
        "docid": "7330660930726150719",
        "url": ""
    },
    {
        "title": "为什么医生建议种牙，而不是首选烤瓷牙和活动假牙？",
        "docid": "7327478146344190474",
        "url": ""
    },
    {
        "title": "父亲的离世，告诉我一道理，高龄老人，别摔跤，否则等于末日来临",
        "docid": "7309396890846921256",
        "url": ""
    },
    {
        "title": "人到中年，极简过年",
        "docid": "7334700461871874587",
        "url": ""
    },
    {
        "title": "超级细菌再次袭来！专家警告：再不戒掉抗生素，神仙都救不了你！",
        "docid": "7335723317892874764",
        "url": ""
    },
    {
        "title": "奉劝男性：若不想被前列腺炎折磨下半生，尽早改掉这6大习惯！",
        "docid": "7323140178401575458",
        "url": ""
    },
    {
        "title": "为何有的女性体毛旺盛，有的却“光秃秃”？看完涨知识了",
        "docid": "7336010813826548276",
        "url": ""
    },
    {
        "title": "男子查出肠癌，后悔大哭：原来大便早已“提醒”，自己却没有在意",
        "docid": "7304861099273355776",
        "url": ""
    },
    {
        "title": "2020年，河南女孩冯双双：谁40万救我父亲，我就嫁谁，结果如何？",
        "docid": "7332424501873279527",
        "url": ""
    },
    {
        "title": "测量血压，用“左臂”还是“右臂”？弄错就可能白忙了",
        "docid": "7329016444551856703",
        "url": ""
    },
    {
        "title": "中西网红“神药”：奥司他韦和连花清瘟，用对是宝，用错是毒",
        "docid": "7309354943536693795",
        "url": ""
    },
    {
        "title": "长寿饮食来了！Nature调查46万人：40岁后这么吃，寿命延长11年",
        "docid": "7335113698635203084",
        "url": ""
    },
    {
        "title": "别再用白醋泡脚了，治疗灰指甲的管用方法是这些",
        "docid": "7334196256593789491",
        "url": ""
    },
    {
        "title": "一个家庭最大的灾难，不是穷，而是父母70岁后，出现这三种情况",
        "docid": "7331651730330944035",
        "url": ""
    },
    {
        "title": "4种鱼已被列入“致癌名单”，吃多了会致癌，可信吗？告诉你真相",
        "docid": "7323851527406977574",
        "url": ""
    },
    {
        "title": "你的咳嗽是哪种类型？看看这3个中成药是否适合你！",
        "docid": "7319486501380768296",
        "url": ""
    },
    {
        "title": "女儿减肥15天瘦30斤，母亲心疼让她多吃饭，谁知隔天女儿就去世了",
        "docid": "7331694424868618792",
        "url": ""
    },
    {
        "title": "48岁男子每天大便两三次，确诊胰腺癌！身体出现这5种症状要注意",
        "docid": "7313455224537563648",
        "url": ""
    },
    {
        "title": "人老“矮三分”上了年纪身高就“缩水”了？可能是脊柱老化的表现",
        "docid": "7336386654543856167",
        "url": ""
    },
    {
        "title": "枸杞不仅能增精，还能降血糖？枸杞干吃好，还是泡水好？答案来了",
        "docid": "7317902221469925923",
        "url": ""
    },
    {
        "title": "全球首例换头手术完成，换头后成功苏醒，为何之后又实施安乐死？",
        "docid": "7336408768764445234",
        "url": ""
    },
    {
        "title": "车前草是个宝，用它来煮水喝，或能帮助解决这5个问题",
        "docid": "7308614799901000246",
        "url": ""
    },
    {
        "title": "走路时膝盖突然软一下是病吗？别忽视，或是这5种疾病的预警信号",
        "docid": "7335717545213231657",
        "url": ""
    },
    {
        "title": "糖尿病5个坏习惯，加剧并发症",
        "docid": "7310890258458575398",
        "url": ""
    },
    {
        "title": "哈佛发现最延寿蛋白质：每多摄入10克，健康寿命可能性增加40%",
        "docid": "7331955090893013556",
        "url": ""
    },
    {
        "title": "含寄生虫最多的六大水果，再馋也要少吃，全吃过的一定是王者",
        "docid": "7328719224875123235",
        "url": ""
    },
    {
        "title": "各种慢性疾病调理穴位汇总，很详细，收藏起来以备不时之需！",
        "docid": "7333053785020875315",
        "url": ""
    },
    {
        "title": "全球首位黑人中医博士！娶中国美女说四川方言，在中国行医30多年",
        "docid": "7324626996314096166",
        "url": ""
    },
    {
        "title": "什么是蝴蝶袖？为什么说有蝴蝶袖的人心脏不太好！",
        "docid": "7320946997556101666",
        "url": ""
    },
    {
        "title": "龙眼看似不起眼，偏偏最补气和血",
        "docid": "7333065353868018187",
        "url": ""
    },
    {
        "title": "晚上不刷牙就睡觉，提醒：睡前不刷牙，这3个坏处，最好要知道",
        "docid": "7315729902760706570",
        "url": ""
    },
    {
        "title": "被子重，睡得香！研究发现：换个厚被子，失眠少了，睡眠好了",
        "docid": "7310391868867510820",
        "url": ""
    },
    {
        "title": "公鸡、母鸡进补差异大！千万别吃错，小心补药成发物……",
        "docid": "7323466557199122994",
        "url": ""
    },
    {
        "title": "山楂的常用养生搭配！",
        "docid": "7303888596078789159",
        "url": ""
    },
    {
        "title": "学习中药，从找茬开始：抓一把中药认认",
        "docid": "7327183119453569572",
        "url": ""
    },
    {
        "title": "有皮肤病的看过来，这10大中成药或许你需要！",
        "docid": "7307226174785995299",
        "url": ""
    },
    {
        "title": "20年前，揭露\"龙胆泻肝丸\"致尿毒症的记者朱玉，如今怎么样了",
        "docid": "7309790828744933907",
        "url": ""
    },
    {
        "title": "夫妻两人捐献遗体，14年后特殊“重逢”，两架白骨并排“站立”",
        "docid": "7308922798750204426",
        "url": ""
    },
    {
        "title": "这5个泡脚习惯看似养生，其实很伤身……",
        "docid": "7312253706613867046",
        "url": ""
    },
    {
        "title": "肠息肉切除后有哪些注意事项，你可千万要了解！",
        "docid": "7303404547848864266",
        "url": ""
    },
    {
        "title": "抑郁症从发病到控愈会经历的6个阶段",
        "docid": "7317911851709301248",
        "url": ""
    },
    {
        "title": "五脏九宫图，中医并不难懂！",
        "docid": "7318859193920963123",
        "url": ""
    },
    {
        "title": "胃癌早期不痛不痒，出现这5种迹象，别迟疑，多半是胃癌来敲门",
        "docid": "7321719221644444171",
        "url": ""
    },
    {
        "title": "呼声：国家财政给公立医院全额拨款会害了医院和医生！",
        "docid": "7334281187038822922",
        "url": ""
    },
    {
        "title": "肺癌来临总是“不声不响”！医生忠告：身体有这3个表现，早检查",
        "docid": "7304584707365356086",
        "url": ""
    },
    {
        "title": "10大优质蛋白质排行榜:豆腐没上榜,牛奶排倒数第1,老人看看",
        "docid": "7321266705102406170",
        "url": ""
    },
    {
        "title": "六味地黄丸、金匮肾气丸、左归丸、天王补心丸，对男性有何作用？",
        "docid": "7323780696911364662",
        "url": ""
    },
    {
        "title": "为什么一到医院就要抽血？医生揭秘：抽出来的血，最终去了哪里？",
        "docid": "7317084949046362659",
        "url": ""
    },
    {
        "title": "为啥很多老人不爱出门了？老人表示：不是不想出去，而是出门太难",
        "docid": "7328690667185160741",
        "url": ""
    },
    {
        "title": "院士提醒：一次肠镜，或能保你五年平安！40岁以后最好能检查一次",
        "docid": "7312763749721489960",
        "url": ""
    },
    {
        "title": "脾胃不好的7种证型，一看就懂，一学就会",
        "docid": "7321831214501937673",
        "url": ""
    },
    {
        "title": "血压145/95发生了脑梗塞，为什么160/100的人却没事？看完受益了",
        "docid": "7312705157987385856",
        "url": ""
    },
    {
        "title": "皮蛋对身体有害吗？医生告诉您答案，爱吃皮蛋的您不妨来了解",
        "docid": "7332832608877658664",
        "url": ""
    },
    {
        "title": "这10种主食对血糖影响小，非常适合糖尿病友长期吃！",
        "docid": "7310144896458457635",
        "url": ""
    },
    {
        "title": "全国十大顶级肿瘤医院大公开！看看你所在城市的医院上榜了吗？",
        "docid": "7324244587525259810",
        "url": ""
    },
    {
        "title": "人体各器官或功能从什么时间开始老化，这篇文章都说清楚了，赶快转发给家人！",
        "docid": "7311507154626970127",
        "url": ""
    },
    {
        "title": "上海00后整容狂人：13岁起全身都整过，2年花费400万，现在后悔了",
        "docid": "7310164942135558706",
        "url": ""
    },
    {
        "title": "河北男子从300多斤体重暴涨至560斤，靠呼吸机续命，月入几十万",
        "docid": "7320834039382999592",
        "url": ""
    },
    {
        "title": "出现这 6 个症状，说明身体正在衰老！30 岁的人必看",
        "docid": "7335781919777030708",
        "url": ""
    },
    {
        "title": "相由心生，心平能愈三千ji。",
        "docid": "7335628068276945471",
        "url": ""
    },
    {
        "title": "武汉24岁研究生猝然离世，死因竟是1000元？经历曝光所有人都哭了",
        "docid": "7322791211272520229",
        "url": ""
    },
    {
        "title": "10种清肠排便食物，排出体内毒素",
        "docid": "7325192088222466586",
        "url": ""
    },
    {
        "title": "四川91岁老太摔一跤，到医院竟查出怀孕，医生揭开尘封60年的秘密",
        "docid": "7326421805361889802",
        "url": ""
    },
    {
        "title": "甲状腺结节，不过是屎把肠子堵住了而已",
        "docid": "7310133756696969739",
        "url": ""
    },
    {
        "title": "健康：其实我们的身体不需要那么多食物！",
        "docid": "7325652823503569442",
        "url": ""
    },
    {
        "title": "名校博士自述：我是怎样查出医院多收我爸10万医疗费的",
        "docid": "7308153246408147508",
        "url": ""
    },
    {
        "title": "注意！这些都是“癌前病变”，早知道能救命！",
        "docid": "7321989522646958604",
        "url": ""
    },
    {
        "title": "小伙怀疑自己有病，1个月挂39个号，果然确诊了！",
        "docid": "7316330781545218579",
        "url": ""
    },
    {
        "title": "养“精气神”要诀“引气纳丹田，呼达四稍”，只需这样就能做到",
        "docid": "7321175940296639013",
        "url": ""
    },
    {
        "title": "湖南老人被蛇咬，用裤腰带绑住35天后截肢！蛇咬处理不当遭大罪！",
        "docid": "7336122057626960411",
        "url": ""
    },
    {
        "title": "红薯是升血糖还是降血糖？糖尿病患者能不能吃红薯？医生给出答案",
        "docid": "7305206887056867892",
        "url": ""
    },
    {
        "title": "几块钱的药，竟能延缓肾功能衰竭？它的作用可别小看！",
        "docid": "7328214913673921043",
        "url": ""
    },
    {
        "title": "养成7个小习惯，结节“找不上”你，建议收藏！",
        "docid": "7310919986921734667",
        "url": ""
    },
    {
        "title": "“伤肝大户”被揪出！提醒中老年人：再爱吃也要忍住嘴，建议了解",
        "docid": "7303737844249068082",
        "url": ""
    },
    {
        "title": "坚持吃降压药却被医生叫停！这4种降压药不能长期吃，已经被淘汰",
        "docid": "7331550489756140043",
        "url": ""
    },
    {
        "title": "吃丝瓜也要小心！这样的丝瓜竟比砒霜还毒？千万别忽视",
        "docid": "7334397591184179764",
        "url": ""
    },
    {
        "title": "糟蹋乳房的4个行为，不少女性可能经常做，看看其中有你吗",
        "docid": "7336150037137097268",
        "url": ""
    },
    {
        "title": "偷走男人阳气的8大行为！你中了几个？",
        "docid": "7335789770469048872",
        "url": ""
    },
    {
        "title": "细杆香烟和粗杆香烟，哪个危害更大？看完这个数据你可能就懂了",
        "docid": "7335348654209335847",
        "url": ""
    },
    {
        "title": "鼻毛“窜”出来的男人，有何不同？鼻毛变白暗示什么？看完涨知识",
        "docid": "7311983429476745762",
        "url": ""
    },
    {
        "title": "八段锦养生，老祖宗的功，最懂年轻人的痛",
        "docid": "7314540349597647369",
        "url": ""
    },
    {
        "title": "小时候流行的“屁股针”，为什么消失了？",
        "docid": "7303720019911901735",
        "url": ""
    },
    {
        "title": "成本14元，售价6980！涉及全国多地，快转给家里人！",
        "docid": "7319446131388891711",
        "url": ""
    },
    {
        "title": "呼吸降升法，任督二脉速通",
        "docid": "7315610739505431066",
        "url": ""
    },
    {
        "title": "睡眠不好容易老，这四种食物可改善睡眠，一周吃3次，助眠效果好",
        "docid": "7321739082630038052",
        "url": ""
    },
    {
        "title": "肝功能十三项详解，教你一分钟看懂",
        "docid": "7304945832636531240",
        "url": ""
    },
    {
        "title": "经常“提肛”的男人，到底能有多强？一次性都说清了，别羞于了解",
        "docid": "7309011999009653248",
        "url": ""
    },
    {
        "title": "留学生分享国外就医经历，评论区笑疯：医生治疗手法这么颠？",
        "docid": "7335034752531104271",
        "url": ""
    },
    {
        "title": "研究发现：世界“最健康蔬果”，中国大白菜第二",
        "docid": "7327474947079914036",
        "url": ""
    },
    {
        "title": "24岁研究生膝盖扭伤两个月后离世，器官捐给多人，遗言令人泪目",
        "docid": "7319819286414623258",
        "url": ""
    },
    {
        "title": "不想动脉硬化，心肌梗死，多吃这类海产品！花小钱治大病，太划算",
        "docid": "7336457808202367539",
        "url": ""
    },
    {
        "title": "吃了20年才知道，它竟然是“天然叶酸”，常吃抵抗病毒，强壮筋骨",
        "docid": "7312259778494186010",
        "url": ""
    },
    {
        "title": "为什么女性“下面”会发臭、有异味？医生：多半是3个原因导致",
        "docid": "7336158935432692250",
        "url": ""
    },
    {
        "title": "肝喜欢的不是蒲公英，而是3种蔬菜，建议中老年常吃，安康一整年",
        "docid": "7305958339207365147",
        "url": ""
    },
    {
        "title": "柳叶刀实锤：幽门螺杆菌是中国胃癌最大的祸根，3步教你彻底根除",
        "docid": "7307933917662560831",
        "url": ""
    },
    {
        "title": "看懂这一篇，中医号脉就不再是秘密！还配有高清版的动态图！",
        "docid": "7314858339203088959",
        "url": ""
    },
    {
        "title": "子宫最喜欢6种茶，暖宫排瘀，越养越美！",
        "docid": "7303777856520569356",
        "url": ""
    },
    {
        "title": "司美格鲁肽（2.4mg）又有新发现！用于亚洲超重/肥胖人群体重管理有效、安全",
        "docid": "7314251409778770482",
        "url": ""
    },
    {
        "title": "59岁的她肺结节1.6cm做了手术，术中良性，术后却升级到早期肺癌",
        "docid": "7320535521141670426",
        "url": ""
    },
    {
        "title": "每天1包方便面，身体会发生什么变化？",
        "docid": "7303178152044413481",
        "url": ""
    },
    {
        "title": "冻久了的腊肉、香肠不能吃，容易致癌？是真的吗？告诉你答案",
        "docid": "7309766341928927798",
        "url": ""
    },
    {
        "title": "早上洗头和晚上洗头,哪个伤害更大?千万别选错了,医生给你说实话",
        "docid": "7304593022631576116",
        "url": ""
    },
    {
        "title": "提醒广大烟民：除了戒烟，经常做这4件事，肺部也越来越干净",
        "docid": "7336164267550343717",
        "url": ""
    },
    {
        "title": "男子体内取出50多斤肿瘤！医生：割了还会长",
        "docid": "7317514754829074982",
        "url": ""
    },
    {
        "title": "退休以后，最无声的8种“炫富”，看下你占了几条",
        "docid": "7307585680123691561",
        "url": ""
    },
    {
        "title": "这样走路的人，10年死亡率提升2倍，寿命缩短3-5年！掌握3招，“走”出长寿~",
        "docid": "7308632414241604159",
        "url": ""
    },
    {
        "title": "血管堵没堵眼睛不会说谎！医生：眼睛出现这4个症状，该去检查了",
        "docid": "7334294570903175680",
        "url": ""
    },
    {
        "title": "经常吃肥肉的人，到底是长寿还是短命呢？研究告诉你真相",
        "docid": "7318341569185235508",
        "url": ""
    },
    {
        "title": "被吹上天的10种伪健康食品，实则坑钱第一名，劝告父母：谨慎购买",
        "docid": "7308642110993875496",
        "url": ""
    },
    {
        "title": "节育环不取，真会长到肉里吗？医生提醒：取环尽量别超过这个岁数",
        "docid": "7315283440549577270",
        "url": ""
    },
    {
        "title": "央视的风向标：整容风潮引发的，忧虑",
        "docid": "7336432556428493312",
        "url": ""
    },
    {
        "title": "北大教授李玲：医疗腐败泛滥，谁是罪魁祸首？",
        "docid": "7335703829742305801",
        "url": ""
    },
    {
        "title": "疏肝不用逍遥丸，化痰不用二陈丸，这个千年古方可解6郁",
        "docid": "7317523561164440100",
        "url": ""
    },
    {
        "title": "50岁到59岁这十年，哪怕再难，你也要努力得到3种东西，是刚需",
        "docid": "7322677845447279116",
        "url": ""
    },
    {
        "title": "听一句劝：得了高血压，4个坏习惯再不改掉，相当于“慢性自杀”",
        "docid": "7316533829815190016",
        "url": ""
    },
    {
        "title": "哪种“主食”最不健康？是馒头吗？医生劝告：4种主食尽量少吃",
        "docid": "7335397007382970915",
        "url": ""
    },
    {
        "title": "细思极恐！游客在普吉岛沙滩捡到硅胶假体，网友解答让人惊掉下巴",
        "docid": "7336423729071309346",
        "url": ""
    },
    {
        "title": "血脂高不能吃鸡蛋？医生提醒：不想血管堵塞，请坚持这3个好习惯",
        "docid": "7336475481770672674",
        "url": ""
    },
    {
        "title": "退休后才发现，撑起一个人底气的不是前半生的辉煌，而是如下5点",
        "docid": "7336069664566723084",
        "url": ""
    },
    {
        "title": "为了统筹后多报销，第一次到社区医院开药，药没开到，但可以预定",
        "docid": "7320115671462150656",
        "url": ""
    },
    {
        "title": "男子吃早餐后，突发脑溢血住院，医生叹息：很多人都有这几个习惯",
        "docid": "7336473504843514406",
        "url": ""
    },
    {
        "title": "你知道一旦脏腑太多寒气入侵会怎么样吗？",
        "docid": "7310001166954660386",
        "url": ""
    },
    {
        "title": "\"除夕夜烟花爆竹下的眼泪：杭州医院16位烟花伤患者告急\"",
        "docid": "7335006471987577382",
        "url": ""
    },
    {
        "title": "吃一碗方便面32天才能解毒？一个面包竟有几十种添加剂？这些问题必须说清",
        "docid": "7304061351830356495",
        "url": ""
    },
    {
        "title": "全国中医脾胃专家丁于洲博士被国医大师李佃贵收为入室弟子",
        "docid": "7328242965200437795",
        "url": ""
    },
    {
        "title": "老年人长期吃鸡蛋和不吃鸡蛋，有何区别？医生：注意3点，更健康",
        "docid": "7332055172371333641",
        "url": ""
    },
    {
        "title": "“歪脸女”赵宏秋：2020年整容变美女，拒百万年薪，只想当老师",
        "docid": "7324928061625942582",
        "url": ""
    },
    {
        "title": "免疫力差的人——容易有8种表现",
        "docid": "7303678484457456128",
        "url": ""
    },
    {
        "title": "日本惊现“针灸铜人”，轰动整个中医学界，专家却称：这不可能！",
        "docid": "7310395679006818816",
        "url": ""
    },
    {
        "title": "别急着扔！这些食物发芽后不但没“毒”，营养价值可能更高！",
        "docid": "7334286283675894287",
        "url": ""
    },
    {
        "title": "酒量是天生的还是练出来的？",
        "docid": "7310030299268710963",
        "url": ""
    },
    {
        "title": "3000多万粉丝的网红，用2年逆转糖尿病，他的方法值得收藏借鉴",
        "docid": "7314957125875204623",
        "url": ""
    },
    {
        "title": "肠道不健康的表现，脸上也能看见！",
        "docid": "7315599878996902452",
        "url": ""
    },
    {
        "title": "脆皮青年的养成计划：一个月把肝养回来",
        "docid": "7334829017687917082",
        "url": ""
    },
    {
        "title": "你真的不是懒，而是能量太低。",
        "docid": "7325611380386693651",
        "url": ""
    },
    {
        "title": "15年，陕西43岁母亲将子宫移植给22岁女儿，4年后奇迹出现",
        "docid": "7314618496166756905",
        "url": ""
    },
    {
        "title": "说明你很健康的10种表现",
        "docid": "7326876312742691354",
        "url": ""
    },
    {
        "title": "不到万不得已，阑尾，扁桃体都不要切",
        "docid": "7334515043884859931",
        "url": ""
    },
    {
        "title": "怎么看肺结节的良恶性？看看这个就知道了！",
        "docid": "7309093849082118708",
        "url": ""
    },
    {
        "title": "曲黎敏：10大“养生神句”，值得收藏",
        "docid": "7322670543549973032",
        "url": ""
    },
    {
        "title": "女性为什么容易长子宫肌瘤？医生：平时尽量避免3个行为，要注意",
        "docid": "7313127379286000182",
        "url": ""
    },
    {
        "title": "脖子腋下长出“小肉粒”是咋回事！抠掉行不行？告诉你真相",
        "docid": "7324584243307676211",
        "url": ""
    },
    {
        "title": "最全经络高清动图，所有穴位都有!再也不怕找不到穴位了",
        "docid": "7312750210810167860",
        "url": ""
    },
    {
        "title": "河北12岁女孩患癌晚期，母亲卖房治疗，她抗癌10年想活下去",
        "docid": "7335630215139787298",
        "url": ""
    },
    {
        "title": "中年男子，颈动脉斑块，吃了5年他汀，结果怎么样了？",
        "docid": "7311164147772408355",
        "url": ""
    },
    {
        "title": "四种“肝郁”后的舌象，中医教你怎么疏肝解郁！",
        "docid": "7319975630576075290",
        "url": ""
    },
    {
        "title": "52岁姐姐，比闺蜜年轻的秘密终于找到了！",
        "docid": "7336182633590030858",
        "url": ""
    },
    {
        "title": "11年男子嘴巴奇臭无比，都说他不注意卫生，检查发现病因令人惊栗",
        "docid": "7314552676199727628",
        "url": ""
    },
    {
        "title": "希望你的肺CT报告上 永远不会出现以下描述，这些您一定要知道！",
        "docid": "7314946065844355596",
        "url": ""
    },
    {
        "title": "完蛋，住院部来了个艾滋病患者",
        "docid": "7327946099300336163",
        "url": ""
    },
    {
        "title": "过度疲劳的人是很危险的，怎么看自己是不是过度疲劳？",
        "docid": "7308728373701100072",
        "url": ""
    },
    {
        "title": "咽喉总感觉不舒服，反复清嗓子，两味药泡水喝，痰化了，嗓子清了",
        "docid": "7321682046467097122",
        "url": ""
    },
    {
        "title": "男女裸睡到底有多舒服？别不好意思，7大好处，试过的人才知道",
        "docid": "7325342791788282420",
        "url": ""
    },
    {
        "title": "23岁小伙拔牙拍片时晕倒，开颅手术后去世",
        "docid": "7327888169579053606",
        "url": ""
    },
    {
        "title": "开塞露是个宝，千万别小看，这5个妙用，帮你一年省下好几百",
        "docid": "7323108456150401572",
        "url": ""
    },
    {
        "title": "请一定善待我们的“眼睛👀”，保护视力5个小妙招！！！",
        "docid": "7325970193568924210",
        "url": ""
    },
    {
        "title": "广西男子无偿献血13年，突患重病急需50万，红十字会：就这么多钱",
        "docid": "7331298333069591080",
        "url": ""
    },
    {
        "title": "癌症患者都是怎么发现自己患癌的？评论区网友说出自己经历",
        "docid": "7336190181559108132",
        "url": ""
    },
    {
        "title": "5个祛湿超猛的药，吸干全身湿气！",
        "docid": "7336007755536613940",
        "url": ""
    },
    {
        "title": "拼多多的补牙树脂：智商税还是省钱良选？网友热议！",
        "docid": "7336403866172850703",
        "url": ""
    },
    {
        "title": "大便总有种拉不干净的感觉？身体在告诉你，这些地方可能出问题了",
        "docid": "7319416212163707411",
        "url": ""
    },
    {
        "title": "三七粉可以每天都喝吗？长期喝三七粉的人，身体会怎么样？",
        "docid": "7305213507061088768",
        "url": ""
    },
    {
        "title": "长期喝咖啡，对心血管有好处还是有危害?医生告诉答案，涨知识了",
        "docid": "7311279407577219599",
        "url": ""
    },
    {
        "title": "走路时膝盖突然软一下，医生：别以为是累了，或是这些疾病的信号",
        "docid": "7321606147608560178",
        "url": ""
    },
    {
        "title": "改革还是阴谋？新年的医院领导风波",
        "docid": "7336489756785967679",
        "url": ""
    },
    {
        "title": "关于六味地黄丸，你可能不知道的10件事，别再自行服用了！",
        "docid": "7306673742569226791",
        "url": ""
    },
    {
        "title": "老中医行医80余年，逝世后把秘方刻墓碑上，许多同行前来为他扫墓",
        "docid": "7327233464280138252",
        "url": ""
    },
    {
        "title": "26岁小伙一天三包槟榔，29岁已成“割脸人”，槟榔的威力实在太大",
        "docid": "7312262685805036070",
        "url": ""
    },
    {
        "title": "整容老去和自然老去，它们的区别有多大？看看这几位明星就知道了",
        "docid": "7323533805808009767",
        "url": ""
    },
    {
        "title": "肾力觉醒！9大好习惯，让你轻松拥有铁打肾！",
        "docid": "7329050188998427151",
        "url": ""
    },
    {
        "title": "前列腺钙化就是个瘢痕",
        "docid": "7304200090082837007",
        "url": ""
    },
    {
        "title": "养脾就是养命，这6个生活习惯很伤脾，看看你有没有?",
        "docid": "7310407924793606675",
        "url": ""
    },
    {
        "title": "腐乳是营养佳品还是“致癌杀手”？困扰多年，终于有了明确答案",
        "docid": "7320917317792285238",
        "url": ""
    },
    {
        "title": "曾经很火、如今跌落神坛的7种“天价神药”，你买过几种？",
        "docid": "7329853617195794954",
        "url": ""
    },
    {
        "title": "手把手教你学中医把脉",
        "docid": "7309243419371733531",
        "url": ""
    },
    {
        "title": "糖尿病发展的4个阶段，前期到肾损伤期",
        "docid": "7311513452927975975",
        "url": ""
    },
    {
        "title": "蔡磊被吐槽以病敛财，没为渐冻病群体付出，用旧职业光环虚张声势",
        "docid": "7336497862987170345",
        "url": ""
    },
    {
        "title": "17年湖南小伙患上绝症，父母4小时内相继自杀，1个月后他也\"走\"了",
        "docid": "7304903397096866341",
        "url": ""
    },
    {
        "title": "脾胃虚弱，适合多吃的12种养胃食物",
        "docid": "7306095855038546443",
        "url": ""
    },
    {
        "title": "“癌王”黑色素瘤有多凶险？",
        "docid": "7320579213470958130",
        "url": ""
    },
    {
        "title": "蔡磊被吐槽以病敛财，没为渐冻病群体付出，用旧职业光环虚张声势",
        "docid": "7336468552981332532",
        "url": ""
    },
    {
        "title": "前列腺癌逐年高发！提醒男性：想要预防它，日常做好6件事很重要",
        "docid": "7320500905445573130",
        "url": ""
    },
    {
        "title": "收好“胆固醇含量一览表”，最好做到不给血管添堵，可分享+收藏",
        "docid": "7330088688724394530",
        "url": ""
    },
    {
        "title": "人过五十，不管在谁面前，都要少露出3张“底牌”，真的太蠢",
        "docid": "7335831348600586787",
        "url": ""
    },
    {
        "title": "男人肾精亏虚的6大症状，希望你一个也没有",
        "docid": "7336372617424830985",
        "url": ""
    },
    {
        "title": "【大卫控糖】控糖友好的10款天然胰岛素",
        "docid": "7303858709736981003",
        "url": ""
    },
    {
        "title": "湖南女孩号称千杯不醉，喝四斤白酒毫无醉意，医生检查后真相大白",
        "docid": "7324947877795824162",
        "url": ""
    },
    {
        "title": "最痛苦的癌症有哪些？",
        "docid": "7328905437779526171",
        "url": ""
    },
    {
        "title": "北大教授李玲：治病救人是神圣的，但是我们正在把它变成餐饮业",
        "docid": "7335706584293343782",
        "url": ""
    },
    {
        "title": "红薯、白薯和紫薯，哪个对糖尿病人更友好？记住：有一种不能多吃",
        "docid": "7317181641338683945",
        "url": ""
    },
    {
        "title": "口干舌燥，喝水也没用？牢记这个小方子，润肺止咳，缓解干燥",
        "docid": "7314983185589338674",
        "url": ""
    },
    {
        "title": "药店不起眼的中成药，打击超重，改善肥胖！",
        "docid": "7333459085557383695",
        "url": ""
    },
    {
        "title": "老年人耳朵不好使，经常听不见，提醒：做好2件事，帮助恢复听力",
        "docid": "7310465555327500826",
        "url": ""
    },
    {
        "title": "补硒就是“补寿命”，建议中老年人：每周吃2次这菜，延年益寿，营养仅次于灵芝！",
        "docid": "7328230372788011535",
        "url": ""
    },
    {
        "title": "贲门癌的早期症状有哪些？",
        "docid": "7303420452993778211",
        "url": ""
    },
    {
        "title": "爱吃甜食和不吃甜食的人，谁更容易患癌？研究结果或能告诉你真相",
        "docid": "7305672975155053096",
        "url": ""
    },
    {
        "title": "医生碰见罕见病例有多兴奋",
        "docid": "7336542458832110116",
        "url": ""
    },
    {
        "title": "蔡磊被吐槽以病敛财，没为渐冻病群体付出，用旧职业光环虚张声势",
        "docid": "7336491986226364980",
        "url": ""
    },
    {
        "title": "体内有五种湿，表现各不同！",
        "docid": "7304525828174545460",
        "url": ""
    },
    {
        "title": "蔡磊被吐槽以病敛财，没为渐冻病群体付出，用旧职业光环虚张声势",
        "docid": "7336504808171373071",
        "url": ""
    },
    {
        "title": "坐姿不当，可能导致慢性脑缺氧，专家推荐扩胸运动，缓解脑缺氧",
        "docid": "7336462665570976268",
        "url": ""
    },
    {
        "title": "我和这奔四的岁月，拉扯着前进",
        "docid": "7336548413250503205",
        "url": ""
    },
    {
        "title": "骨肿瘤的发展史",
        "docid": "7336483162362823208",
        "url": ""
    },
    {
        "title": "谷丙转氨酶与谷草转氨酶，哪个升高更危险？该怎样降下来？",
        "docid": "7318771014706840075",
        "url": ""
    },
    {
        "title": "最适合小白学中医的入门知识——中医舌诊！",
        "docid": "7335608116039615016",
        "url": ""
    },
    {
        "title": "耳内频痒却无果？警惕三种潜在疾病，切勿掉以轻心，别大意",
        "docid": "7335822907836842546",
        "url": ""
    },
    {
        "title": "如何在药店享受门统待遇，听医保局给你支招",
        "docid": "7327288903508066870",
        "url": ""
    },
    {
        "title": "经常解这种小便可能是癌",
        "docid": "7315356636783182375",
        "url": ""
    },
    {
        "title": "女性过了45岁以后，是胖点好还是瘦点好？医生说出了实话",
        "docid": "7311273100446908937",
        "url": ""
    },
    {
        "title": "克林霉素抗感染，为何这样用药不适宜？| 处方挑战",
        "docid": "7303520829571449370",
        "url": ""
    },
    {
        "title": "抗癌常用的五类中草药，适用于多种癌症！",
        "docid": "7314240455305364004",
        "url": ""
    },
    {
        "title": "一起学习化疗、靶向治疗、免疫治疗三者的区别",
        "docid": "7309494339837805056",
        "url": ""
    },
    {
        "title": "体检报告中的结节，钙化，囊肿都代表什么？医生一文解答",
        "docid": "7311298562439119396",
        "url": ""
    },
    {
        "title": "拉屎又快又净的6个小方法，建议收藏备用",
        "docid": "7336090665266938403",
        "url": ""
    },
    {
        "title": "这些病或许是“撑”出来的，饿一饿就行了？不妨了解一下",
        "docid": "7307071740318859791",
        "url": ""
    },
    {
        "title": "一个男人，如果能把烟和酒都戒掉，说明他有3个目的",
        "docid": "7309687198230987316",
        "url": ""
    },
    {
        "title": "你知道你的体检报告单都藏着啥病吗？",
        "docid": "7307228594080891407",
        "url": ""
    },
    {
        "title": "如果你还分不清血虚和血瘀的区别，看这个就会了",
        "docid": "7320417504113771060",
        "url": ""
    },
    {
        "title": "如果你一直洗冷水澡身体会发生什么变化",
        "docid": "7336427581077864996",
        "url": ""
    },
    {
        "title": "晚年苦不苦就看65，65到底要看什么呢？早了解不吃亏",
        "docid": "7335797310502732324",
        "url": ""
    },
    {
        "title": "结节就是血中毒了，别再盲目的做手术了！",
        "docid": "7311684939350131226",
        "url": ""
    },
    {
        "title": "2.3元一片的进口的”洋中药“迈之灵，服用时牢记这四大用药细节",
        "docid": "7318666969430540809",
        "url": ""
    },
    {
        "title": "二甲双胍吃多久能停药？长期吃会怎么样？一次性全说清楚",
        "docid": "7317095187463815734",
        "url": ""
    }
]