[
    {
        "title": "终于有人把12款万能饺子馅公式整理出来了，爱吃饺子的快收藏吧！",
        "docid": "7336551970632761891",
        "url": ""
    },
    {
        "title": "拯救全聚德",
        "docid": "7336576752631808549",
        "url": ""
    },
    {
        "title": "人间至味是团圆丨幸福满满、年味十足，拿手好菜哪家强？获奖名单揭晓！",
        "docid": "7336528612382523938",
        "url": ""
    },
    {
        "title": "【六安非遗“拜大年”】蒿子粑粑 家乡的味道",
        "docid": "7336514831618720271",
        "url": ""
    },
    {
        "title": "半年卖出50亿，曾是中国的“难喝饮料”，现在备受中年男人追捧",
        "docid": "7336042319356969482",
        "url": ""
    },
    {
        "title": "从茶饮到智能设备：养生赛道的全品类解析",
        "docid": "7336359418197459491",
        "url": ""
    },
    {
        "title": "是淮扬菜还是维扬菜？开国大典举行的盛大宴会，使用的就是维扬菜",
        "docid": "7336534881792574002",
        "url": ""
    },
    {
        "title": "爱申活暖心春丨普陀的他们守护舌尖上的年味，以美食抚慰人心",
        "docid": "7336392713924870690",
        "url": ""
    },
    {
        "title": "中医：送你6款打工人最爱的枸杞养生茶！",
        "docid": "7336198878716346932",
        "url": ""
    },
    {
        "title": "春节餐桌上的“金元宝”，是你记忆中的老味道吗？",
        "docid": "7336516393468215859",
        "url": ""
    },
    {
        "title": "电影《第二十条》办大事专用的铁盖茅台是啥？",
        "docid": "7335135669989196327",
        "url": ""
    },
    {
        "title": "海南省著名的十大小吃",
        "docid": "7315607402731160098",
        "url": ""
    },
    {
        "title": "曾经开遍地铁口的包子店，现在却倒闭完了，是包子不好吃了吗？",
        "docid": "7315040144448520740",
        "url": ""
    },
    {
        "title": "支原体过后，多吃这些食物，给肺做个“大扫除”",
        "docid": "7333626704646521394",
        "url": ""
    },
    {
        "title": "买冰糖，“黄色”和“白色”别乱买，差别很大，我也是刚刚才知道",
        "docid": "7312662173732454946",
        "url": ""
    },
    {
        "title": "打开！老底子上海人的南京西路“逛买”记忆",
        "docid": "7336515848385282611",
        "url": ""
    },
    {
        "title": "春节过后多吃这7道菜，一周不重样，迅速“掉称”，好吃没烦恼",
        "docid": "7336458441269068325",
        "url": ""
    },
    {
        "title": "50度的高温下，印度人喝饮料要加魔鬼椒，最能吃辣的民族",
        "docid": "7336517758697472527",
        "url": ""
    },
    {
        "title": "25种香料用途速查表！附：万能百搭卤汁做法！建议点赞收藏！",
        "docid": "7318707854159118859",
        "url": ""
    },
    {
        "title": "过年期间各省的美食噩梦",
        "docid": "7335715266015674915",
        "url": ""
    },
    {
        "title": "56款超好吃的面条做法，有手就会！",
        "docid": "7307144007321584138",
        "url": ""
    },
    {
        "title": "更适合中国女孩子的奶茶，好喝又健康",
        "docid": "7336549513740141096",
        "url": ""
    },
    {
        "title": "天津最好吃的4家早餐店，津门特色，干净卫生，都是当地人心头爱",
        "docid": "7308261055179653684",
        "url": ""
    },
    {
        "title": "“春天品味三草，不富也安康”尝试3道菜，错过再等一年",
        "docid": "7336492120511152640",
        "url": ""
    },
    {
        "title": "湖北竹山特色美食合碗席 演绎“舌尖上的春节”",
        "docid": "7336038668764856872",
        "url": ""
    },
    {
        "title": "四季民福、胡大、南城乡…这些北京顶流餐厅居然都是安徽人开的",
        "docid": "7334537023682003508",
        "url": ""
    },
    {
        "title": "金银蒜松茸焗牡丹虾",
        "docid": "7336539596027527715",
        "url": ""
    },
    {
        "title": "告诉大家一个很有用的方法，特别简单。",
        "docid": "7328970072087790090",
        "url": ""
    },
    {
        "title": "在家做烤肉，腌肉腌到位了，怎么做都好吃！",
        "docid": "7316754340466082345",
        "url": ""
    },
    {
        "title": "45种香辣可口的腌菜，拌面拌饭配馒头都好吃",
        "docid": "7313165527328162323",
        "url": ""
    },
    {
        "title": "全身是“宝”的菜，一健脾，二润肺，三通便，可惜很多人只吃果！",
        "docid": "7336491108338172416",
        "url": ""
    },
    {
        "title": "辽宁省著名的十大小吃",
        "docid": "7315243015739081256",
        "url": ""
    },
    {
        "title": "琳琅满目，脑洞大开！1994年的美食，你心动了吗？",
        "docid": "7335720231253901836",
        "url": ""
    },
    {
        "title": "揭秘：为何高攀不起的费列罗销量减少？为什么费列罗卖不动了？",
        "docid": "7335834938299892278",
        "url": ""
    },
    {
        "title": "好物分享｜让人欲罢不能解馋小零食",
        "docid": "7317584765983506995",
        "url": ""
    },
    {
        "title": "今年春节的家乡味",
        "docid": "7336516537572508175",
        "url": ""
    },
    {
        "title": "灌的腊肠又硬又难吃？老奶奶教我“秘方”，香肠软糯醇厚，吃着香",
        "docid": "7308916586726015539",
        "url": ""
    },
    {
        "title": "贵州三大“失败酒”，曾经火爆大江南北，如今却被嫌弃是“杂牌”",
        "docid": "7329426978930344487",
        "url": ""
    },
    {
        "title": "撒贝宁尝醋膏 酸出表情包",
        "docid": "7335770106787824191",
        "url": ""
    },
    {
        "title": "好看、好吃、好寓意 这些春节特色美食你吃过吗？",
        "docid": "7334618123192631820",
        "url": ""
    },
    {
        "title": "韩国网友：大多数中国家庭吃得起西瓜吗？中国网友的回答太搞笑了",
        "docid": "7307846624771031592",
        "url": ""
    },
    {
        "title": "春节接待超160万人次 呷哺集团返乡、旅游城市业绩亮眼",
        "docid": "7336566891659592232",
        "url": ""
    },
    {
        "title": "我们中国人司空见惯的几件小事，外国人却“惊掉”下巴！",
        "docid": "7330162175434670642",
        "url": ""
    },
    {
        "title": "火遍大江南北的“红豆”烟，怎么就输给了难抽的“白沙”！",
        "docid": "7311728106115695119",
        "url": ""
    },
    {
        "title": "果醋是“醋”吗？别再选错啦！",
        "docid": "7336547319527047718",
        "url": ""
    },
    {
        "title": "鸡蛋能不能放冰箱?好多人没搞懂，影响到家人健康，看完才明白",
        "docid": "7305706327723213346",
        "url": ""
    },
    {
        "title": "重庆大渡口区：25道菜各自精彩 春节旅游美食集体出圈",
        "docid": "7336138023862272552",
        "url": ""
    },
    {
        "title": "饺子馅能不能放蚝油？牢记“4放3不放”，饺子香嫩多汁，好吃不腻",
        "docid": "7304497047020159542",
        "url": ""
    },
    {
        "title": "新春走基层·凡人繁年丨在“无声世界”里勇敢逐梦",
        "docid": "7336111256065049099",
        "url": ""
    },
    {
        "title": "盐焗鸡是一道经典的中式菜肴，色泽金黄、口感鲜嫩、香味浓郁",
        "docid": "7336458175316656690",
        "url": ""
    },
    {
        "title": "被齐齐哈尔烤肉震惊到了！台湾网友：吃这一桌，我要先去办贷款",
        "docid": "7327689370436698651",
        "url": ""
    },
    {
        "title": "Costco自家品牌专家爆料：品质最棒的是这5样产品！",
        "docid": "7318659016568406568",
        "url": ""
    },
    {
        "title": "不管卤什么肉，只要放入4种香料，卤肉出锅十里飘香，越卤越入味",
        "docid": "7326738338185282088",
        "url": ""
    },
    {
        "title": "老话说“三天不吃青，两眼冒金星”，青菜怎么做好吃？6道青菜！",
        "docid": "7326733893179425315",
        "url": ""
    },
    {
        "title": "为什么日本人都那么瘦？网友：纯属饿的！",
        "docid": "7336415892131381800",
        "url": ""
    },
    {
        "title": "东北菜，火到国外了！",
        "docid": "7336402590022074930",
        "url": ""
    },
    {
        "title": "欢迎大家跟我一起学米线米粉的做法，好吃又简单，在家自己就能做",
        "docid": "7336600885445132863",
        "url": ""
    },
    {
        "title": "月入3万的中产，“霸占”了小学门口的脏摊",
        "docid": "7318438553833734656",
        "url": ""
    },
    {
        "title": "26元一碗的商场牛肉面，卖不动了",
        "docid": "7307034017960985122",
        "url": ""
    },
    {
        "title": "可口可乐的绝密配方，100多年无人破解，他们是如何进行保密的？",
        "docid": "7310151705528746523",
        "url": ""
    },
    {
        "title": "承包你一个月的早餐！中西式结合，简单快手，总有一款你喜欢",
        "docid": "7319474347486708234",
        "url": ""
    },
    {
        "title": "真的假的？外国人其实没那么喜欢吃中餐？",
        "docid": "7330255642747503138",
        "url": ""
    },
    {
        "title": "原来限制国人出国的最大阻碍竟然是白人饭，白人饭到底有多难吃？",
        "docid": "7327954885914739252",
        "url": ""
    },
    {
        "title": "开春后这四道汤一定要安排上，降压降脂，肠道清除干净，身体好",
        "docid": "7336163489717584403",
        "url": ""
    },
    {
        "title": "5种臭名昭著的劣质红茶，有一个算一个，对身体都没好处",
        "docid": "7304825780570325504",
        "url": ""
    },
    {
        "title": "洗猪大肠，加醋加盐加面粉是大错！教你一招，洁白透亮腥臭全跑光",
        "docid": "7315642478936408576",
        "url": ""
    },
    {
        "title": "新年来桥头这家酒楼捞“喜”，风生水起",
        "docid": "7336525698586870324",
        "url": ""
    },
    {
        "title": "打豆浆，黄豆泡好不能直接打，再多做1步，豆浆又香又浓，无残渣",
        "docid": "7311621695994004020",
        "url": ""
    },
    {
        "title": "为何鲜牛肉一斤60块，网上牛肉干却只要30块？店家透露3大实情",
        "docid": "7321180129806582312",
        "url": ""
    },
    {
        "title": "【文明创建】文明餐桌让春节团圆更有“味儿”",
        "docid": "7335942142621286927",
        "url": ""
    },
    {
        "title": "怕胖就喝这三款茶!越喝越廋",
        "docid": "7336599443208356406",
        "url": ""
    },
    {
        "title": "大年初八，除了吃饺子汤圆，别忘了吃这3样，老传统有讲究",
        "docid": "7336492574179623476",
        "url": ""
    },
    {
        "title": "在常熟，没吃这样菜，等于没过年",
        "docid": "7335850538753868329",
        "url": ""
    },
    {
        "title": "含章可贞 酒情长存 怀念我的一生恩师 | 纪念秦含章先生诞辰",
        "docid": "7336061419860804130",
        "url": ""
    },
    {
        "title": "各种蛋糕 你偏爱哪款？",
        "docid": "7336149186699821605",
        "url": ""
    },
    {
        "title": "“市面”新观察 | 新茶饮门店人潮汹涌！蜜雪冰城开到家乡小镇上",
        "docid": "7336162618023330304",
        "url": ""
    },
    {
        "title": "潘 城：小快朵颐·毛一千与有底档",
        "docid": "7336433747010568714",
        "url": ""
    },
    {
        "title": "横扫苏州卤味",
        "docid": "7336005153272627753",
        "url": ""
    },
    {
        "title": "俗话说“初七吃三样，家中状元郎”，正月初七，哪3样要抓紧吃！",
        "docid": "7336148254071341602",
        "url": ""
    },
    {
        "title": "春节大鱼大肉后，这8种蔬菜要多吃，促进代谢，消食刮油",
        "docid": "7336490963013108258",
        "url": ""
    },
    {
        "title": "春节期间不建议吃的10种零食！",
        "docid": "7334526038934028834",
        "url": ""
    },
    {
        "title": "炸藕盒，最忌用水调面糊，做好这2点，又酥又脆，金黄鲜香不油腻",
        "docid": "7315710517795095051",
        "url": ""
    },
    {
        "title": "6种早该列入“煮茶黑名单”的茶叶，泡茶好喝，但煮茶真的不行",
        "docid": "7316702672994976275",
        "url": ""
    },
    {
        "title": "来沈阳玩，这5家饭店排队也要吃，浓郁地方特色，来了不吃太遗憾",
        "docid": "7307147141242274338",
        "url": ""
    },
    {
        "title": "山东46岁大哥，到郏县花6800学饸饹面，很后悔，全部配方送有缘人",
        "docid": "7320923273129198132",
        "url": ""
    },
    {
        "title": "他15岁学徒，28岁创建冠生园，影星蝴蝶为其代言，64岁跳楼自尽",
        "docid": "7335446368654197275",
        "url": ""
    },
    {
        "title": "一套专业的包子技术，配方精准到克数，进来看看有多专业？",
        "docid": "7317611954720375347",
        "url": ""
    },
    {
        "title": "去河北下馆子就点这6道菜，本地人吃不腻，你吃过几道？",
        "docid": "7320494840976966144",
        "url": ""
    },
    {
        "title": "开水烫碗筷，广东人的餐前“仪式感”到底有必要吗？告诉你答案！",
        "docid": "7306086067340853810",
        "url": ""
    },
    {
        "title": "美味“食”光｜核桃枣泥桂圆蛋糕，简单易做有营养",
        "docid": "7336462292923810314",
        "url": ""
    },
    {
        "title": "王炸！福建女子摆摊卖无骨鸡爪，每天能卖2000元，颜值令人羡慕",
        "docid": "7336362441020015114",
        "url": ""
    },
    {
        "title": "山东一家2口的团圆饭，在朋友圈火了，一共6个菜，网友：太羡慕",
        "docid": "7335306468201677338",
        "url": ""
    },
    {
        "title": "为啥云南人偏爱“电磁炉”做饭？看过这些原因，你就不足为奇了",
        "docid": "7305651387080573490",
        "url": ""
    },
    {
        "title": "河南“6大怪菜”，都是当地人心头爱，外地人：真下不去嘴",
        "docid": "7316851706590298676",
        "url": ""
    },
    {
        "title": "诡计多端的旺旺仙贝,难怪总觉得旺旺仙贝一片好吃一片不好吃呢",
        "docid": "7330126458360365603",
        "url": ""
    },
    {
        "title": "湖北人喝可乐新玩法曝光！加姜片＋煮开，网友笑炸",
        "docid": "7336415145842983476",
        "url": ""
    },
    {
        "title": "买带鱼，记得分清“黑眼睛”和“黄眼睛”，区别不小，搞懂再花钱",
        "docid": "7312090890074358272",
        "url": ""
    },
    {
        "title": "30年牛肉店告诉你，买牛肉时，这四个部位的肉最嫩，很多人不知道",
        "docid": "7324976364321702441",
        "url": ""
    },
    {
        "title": "用了4000年，这种传奇的饼，被印度人做到了米其林星级",
        "docid": "7336621892717183529",
        "url": ""
    },
    {
        "title": "10个人9个补，养肝续命！多吃这些菜，越吃越年轻，给肉都不换！",
        "docid": "7325240726810558995",
        "url": ""
    },
    {
        "title": "常见菌菇的种类和特点",
        "docid": "7314201040453485106",
        "url": ""
    },
    {
        "title": "全国人到重庆吃，重庆人到万州吃！",
        "docid": "7310520956056633867",
        "url": ""
    },
    {
        "title": "江浙沪为什么吃得特别清淡？",
        "docid": "7336185986231665193",
        "url": ""
    },
    {
        "title": "除夕到初七，市民和游客每天吃掉5万支马迭尔冰棍",
        "docid": "7336520118174122523",
        "url": ""
    },
    {
        "title": "中医教你煮中药奶茶，好喝又健康！",
        "docid": "7316314806515188224",
        "url": ""
    },
    {
        "title": "色香味俱佳的锅巴肉片",
        "docid": "7336583070683906571",
        "url": ""
    },
    {
        "title": "印度摊贩家族，霸占一颗百年古树，制作致命美食",
        "docid": "7336324753881432610",
        "url": ""
    },
    {
        "title": "92分的神作，居然也被喷了？",
        "docid": "7336494045511827968",
        "url": ""
    },
    {
        "title": "广州人吃饭风俗禁忌大全：点解忌讳请客点七道菜？",
        "docid": "7304891108658790923",
        "url": ""
    },
    {
        "title": "茶树为什么叫枞，枞味是什么味？",
        "docid": "7319779374616936994",
        "url": ""
    },
    {
        "title": "宝总泡饭配6个小菜，包邮区网友：这个我熟",
        "docid": "7323459067329659432",
        "url": ""
    },
    {
        "title": "传说中的老虎菜，太香了。",
        "docid": "7327524341690712585",
        "url": ""
    },
    {
        "title": "古代的苹果不叫“苹果”，古人取了个唯美的名字，日本至今还在用",
        "docid": "7303873845948432946",
        "url": ""
    },
    {
        "title": "买牛肉时：这5个部位特别不划算，肉质差价格又高，很多人不知道",
        "docid": "7313899554615902754",
        "url": ""
    },
    {
        "title": "春天，吃牛羊肉不如吃它！2元一斤，鲜嫩爽口，贫血的人要多吃!",
        "docid": "7336490774941188623",
        "url": ""
    },
    {
        "title": "中国最好吃的5种咸菜，3个在南方，2个在北方，有你吃过的吗？",
        "docid": "7322779197259514377",
        "url": ""
    },
    {
        "title": "春节烧完几大桌菜，不粘锅变成很粘锅了？涂层掉了还能用吗？",
        "docid": "7336500955137475082",
        "url": ""
    },
    {
        "title": "十大假酒顺口溜",
        "docid": "7333799804524511780",
        "url": ""
    },
    {
        "title": "火锅里的东西都啥时候熟",
        "docid": "7312997307971502629",
        "url": ""
    },
    {
        "title": "女生必喝的几款汤",
        "docid": "7328391467893375538",
        "url": ""
    },
    {
        "title": "突围失败的江西瓦罐汤",
        "docid": "7332374034342347305",
        "url": ""
    },
    {
        "title": "自学烘焙的11岁浙江女孩，梦想是读职业学院，未来开一家三层餐厅",
        "docid": "7311995573014364711",
        "url": ""
    },
    {
        "title": "这5种茶不要再买了，品质一个不如一个，全都是垃圾！",
        "docid": "7313834831145124367",
        "url": ""
    },
    {
        "title": "有多少人第一次醉给了江西米酒！网友：风下午吹的，人第二天醒的",
        "docid": "7335345972429783586",
        "url": ""
    },
    {
        "title": "自热米饭的米不是真大米",
        "docid": "7330134294578430473",
        "url": ""
    },
    {
        "title": "几个酒鬼论酒，把喝酒的“好处”说得淋漓尽致",
        "docid": "7303915885646430759",
        "url": ""
    },
    {
        "title": "1990年代的闵行是什么样的？听她们说……",
        "docid": "7336220112950854198",
        "url": ""
    },
    {
        "title": "长春十家特色饭店",
        "docid": "7319088592729506316",
        "url": ""
    },
    {
        "title": "春节我在岗⑬丨餐饮业：“只要顾客满意就好！”",
        "docid": "7336535231451234856",
        "url": ""
    },
    {
        "title": "精美的糕点会“说话”",
        "docid": "7336380401641980450",
        "url": ""
    },
    {
        "title": "江苏13太保之地标美食：他们是如何把“团结”俩字干稀碎的！",
        "docid": "7323488015513403967",
        "url": ""
    },
    {
        "title": "“酥”服过龙年！“秀色可餐”还得看国风美食",
        "docid": "7336699795676971561",
        "url": ""
    },
    {
        "title": "假期结束！浙江大军返程，安徽与江西人承载了浙江餐厅半边天。",
        "docid": "7336170940486943267",
        "url": ""
    },
    {
        "title": "市面上会添加“硼砂”的5种食物，强烈建议要少吃，很多人不在乎",
        "docid": "7330923691650007567",
        "url": ""
    },
    {
        "title": "张艺谋执导“创意年俗秀”中7大地方美食：肉夹馍、毛肚黄喉、排骨年糕……",
        "docid": "7333631631893348864",
        "url": ""
    },
    {
        "title": "美国教授援引中国“茶圣”观点，竟引发国际“争端”！",
        "docid": "7330441868020318760",
        "url": ""
    },
    {
        "title": "酒瓶上有这“5个数字”，别管价格高低，100%酒精酒，知道不吃亏",
        "docid": "7321693099603509800",
        "url": ""
    },
    {
        "title": "“油中之王”茶油，为何现在很少有人吃了？ 茶油都有哪些缺点？",
        "docid": "7308568090810417673",
        "url": ""
    },
    {
        "title": "酱香型酒和浓香型酒哪个好喝？差别不止一点，看完长知识了！",
        "docid": "7324729150537974313",
        "url": ""
    },
    {
        "title": "为什么嗜茶如命的潮汕人却是没能拥有一款属于潮汕地区的名茶？",
        "docid": "7327128363515150889",
        "url": ""
    },
    {
        "title": "印度贵族老奶奶，学会了中国菜，用2米大锅做给穷人孩子吃",
        "docid": "7336512026962903586",
        "url": ""
    },
    {
        "title": "自酿酒还能喝吗？在中国喝了千年的自酿酒，为何被专家口诛笔伐？",
        "docid": "7313823402496803368",
        "url": ""
    },
    {
        "title": "海南的鹧鸪茶：一片树叶中的千年文化与智慧",
        "docid": "7332817222232326667",
        "url": ""
    },
    {
        "title": "南阳最受欢迎的7家老字号面馆！",
        "docid": "7335744389547360807",
        "url": ""
    },
    {
        "title": "韭黄怎么炒好吃，一起看一看这些菜谱，巨巨巨下饭",
        "docid": "7310911159492854272",
        "url": ""
    },
    {
        "title": "越闹越大！广西礼仪之走亲戚是每个广西小孩的噩梦，评论区笑死了",
        "docid": "7335029411483369995",
        "url": ""
    },
    {
        "title": "“梅陇三杰”入驻力波·九坊，其中一家已开业！",
        "docid": "7336411472643523108",
        "url": ""
    },
    {
        "title": "6款好喝不酸的速溶黑咖啡",
        "docid": "7322676875183456822",
        "url": ""
    },
    {
        "title": "中山城区那些消失的茶楼合集",
        "docid": "7335994924992692775",
        "url": ""
    },
    {
        "title": "甜甜蜜蜜“粘”住好运！90后糖艺师匠心创作国潮浪漫",
        "docid": "7335976860150530575",
        "url": ""
    },
    {
        "title": "我妈做的一周的晚餐！按照这个标准，你觉得哪天最好",
        "docid": "7313913578841555468",
        "url": ""
    },
    {
        "title": "“8块钱的社区食堂”，我喜欢上了，这就是成年人的“小饭桌”啊",
        "docid": "7310940246592455168",
        "url": ""
    },
    {
        "title": "我国哪里的羊肉最好吃？经评比，这3个地方榜上有名，过年备起来",
        "docid": "7327951956222362124",
        "url": ""
    },
    {
        "title": "武汉砂锅婆婆，25年不挂牌，一窝砂锅1000起，从不招待民工和学生",
        "docid": "7306068863479775778",
        "url": ""
    },
    {
        "title": "香晕了！已经连续吃了三晚 ​～太太好吃",
        "docid": "7328374207552733705",
        "url": ""
    },
    {
        "title": "饭店上菜前，为啥免费送碟花生米？看完才发现满是套路，涨知识了",
        "docid": "7324920292743381538",
        "url": ""
    },
    {
        "title": "炖鸡肉时，2种调料不要放，否则越多越柴，难怪你总做不好吃",
        "docid": "7316795687117865512",
        "url": ""
    },
    {
        "title": "铁盖茅台到底有多贵？轻伤重伤如何鉴定？《第二十条》10个知识点",
        "docid": "7335781109894136320",
        "url": ""
    },
    {
        "title": "这是银川自助天花板？你们觉得多少钱一位比较合适？（附攻略）",
        "docid": "7327168200171504140",
        "url": ""
    },
    {
        "title": "长期吸烟但坚持喝茶的我，后来都怎样了",
        "docid": "7312761293339886115",
        "url": ""
    },
    {
        "title": "一家三口在武汉，一个月600元的生活费，别不信我们吃的很丰盛",
        "docid": "7320516467953271311",
        "url": ""
    },
    {
        "title": "敢于创新！河南网友牛奶两箱装一起，连八宝粥和面包也不放过！",
        "docid": "7335704669706125851",
        "url": ""
    },
    {
        "title": "做水蒸蛋时，别傻傻只会加水，多加“这一勺”，又滑又嫩还不腥",
        "docid": "7326103210401088040",
        "url": ""
    },
    {
        "title": "这个菜是“降脂霸”，隔三岔五吃一点，帮你清理血管，身体更健康",
        "docid": "7323028224504955431",
        "url": ""
    },
    {
        "title": "每次做这个炸蘑菇，我妈都说让我去开个店，怎么都吃不够！",
        "docid": "7312796335374172707",
        "url": ""
    },
    {
        "title": "中国茶八大类",
        "docid": "7336190431548572200",
        "url": ""
    },
    {
        "title": "没利润都不长久，曾经火爆的仙庙烧鸡，不是转让就是关门了",
        "docid": "7306042160514925092",
        "url": ""
    },
    {
        "title": "调芝麻酱时，用水用油，全都错了！老北京火锅店大厨教您正确做法",
        "docid": "7326055365341151778",
        "url": ""
    },
    {
        "title": "上坟不带4果，桃子不摆供桌，老祖宗所说的“4果”，指什么水果？",
        "docid": "7307110513380344320",
        "url": ""
    },
    {
        "title": "安徽最委屈的城市，为什么藏着徽菜的半壁江山？",
        "docid": "7325720796738421248",
        "url": ""
    },
    {
        "title": "九款好喝的汤",
        "docid": "7328393612600394267",
        "url": ""
    },
    {
        "title": "建议老年人：不要太节俭，少吃南瓜多吃这5样，高蛋白低脂又美味",
        "docid": "7307438668229427763",
        "url": ""
    },
    {
        "title": "西府臊子面的两大流派，你更认可哪一派？",
        "docid": "7313724526997553699",
        "url": ""
    },
    {
        "title": "中国人到底有多喜欢吃？名声都已经传到国外去了！网友分享太精辟",
        "docid": "7330059586369618473",
        "url": ""
    },
    {
        "title": "很难打进南方的北方美食，南方人: 宁愿饿着也不吃，你喜欢几种？",
        "docid": "7312030836206551602",
        "url": ""
    },
    {
        "title": "芥末到底是什么制作的、为什么叫“芥末”？吃了20多年总算明白了",
        "docid": "7320779952721265179",
        "url": ""
    },
    {
        "title": "什么都能辜负，唯有美食不可辜负！馋哭隔壁老王了！",
        "docid": "7304260931859841548",
        "url": ""
    },
    {
        "title": "原来可乐要加热才能喝，湖北人的思想真不一样！评论让我长见识了",
        "docid": "7335995467157291530",
        "url": ""
    },
    {
        "title": "在朋友家吃到过一回，终于要来了配方。",
        "docid": "7309997949914792457",
        "url": ""
    },
    {
        "title": "大鱼大肉都不如这些菜，比骨头汤还补钙，含钙量很高，增免疫",
        "docid": "7322752539769274891",
        "url": ""
    },
    {
        "title": "第一次在广州白天鹅喝茶，一根油条价格你绝对想象不到。",
        "docid": "7319388692777452073",
        "url": ""
    },
    {
        "title": "吃播四巨头如今都怎么样了，两年没俩，恩克吃到吐血",
        "docid": "7332481647495774772",
        "url": ""
    },
    {
        "title": "这九种食物没有保质期，别傻傻的丢掉，收藏保存",
        "docid": "7336466951730283060",
        "url": ""
    },
    {
        "title": "人工合成的四样垃圾食品，估计厂家生产出来自己都不吃，尽量避免",
        "docid": "7325329960686600704",
        "url": ""
    },
    {
        "title": "闹大了！因为一根面条，胖东来被喷到又关店了",
        "docid": "7336106486609052212",
        "url": ""
    },
    {
        "title": "165岁的“狗不理”包子，如今为何卖不动了？食客：你去看看价格",
        "docid": "7311183507626836521",
        "url": ""
    },
    {
        "title": "这年夜饭也太丰盛了，你们年夜饭也这么丰盛吗？",
        "docid": "7335346281239937555",
        "url": ""
    },
    {
        "title": "两个人在家吃一顿火锅需要多少钱？钱就是这么省出来的！",
        "docid": "7328694498177942050",
        "url": ""
    },
    {
        "title": "买大虾，选“直虾”还是“弯虾”？区别很大，建议弄明白再买",
        "docid": "7322734829735494156",
        "url": ""
    },
    {
        "title": "全国哪的豆腐最好吃？经过评比，这6个地方比较出名，有你家乡吗",
        "docid": "7307596036262986259",
        "url": ""
    },
    {
        "title": "绝了！河南送礼牛奶都是两箱一提冲上热搜，当地网友发声曝光原因",
        "docid": "7336149162591781416",
        "url": ""
    },
    {
        "title": "它是“天然青霉素”，建议一周吃2次，杀菌抗炎，增强免疫力",
        "docid": "7325265132165071401",
        "url": ""
    },
    {
        "title": "只有河南的牛奶是两箱一提！不是全国统一的吗，评论区炸了",
        "docid": "7336055993907937802",
        "url": ""
    },
    {
        "title": "只要一张图，让你学会挑猪肉，选购食用油",
        "docid": "7336120473569018431",
        "url": ""
    },
    {
        "title": "走朋友不走亲戚、水果蛋挞上供桌，年轻人把春节玩出新花样",
        "docid": "7336534717229154816",
        "url": ""
    },
    {
        "title": "一个吸管引发南北对账 原来南方还甘蔗切片 包饺子的皮都是买的",
        "docid": "7322006019713630770",
        "url": ""
    },
    {
        "title": "被称为“垃圾食品”，方便面又不是军粮，为何救灾食品中总有它？",
        "docid": "7314555496135180800",
        "url": ""
    },
    {
        "title": "喝茶居然与性格有关系，大多数人都不知道！",
        "docid": "7317939031034429990",
        "url": ""
    },
    {
        "title": "陈皮茶的经典搭配",
        "docid": "7303690703685665291",
        "url": ""
    },
    {
        "title": "谁才是中国茶王？地方茶叶排名揭晓：武夷岩茶第9，龙井茶排第3",
        "docid": "7314327753396929043",
        "url": ""
    },
    {
        "title": "做这个网站的是天才，他让我在家疯狂做菜",
        "docid": "7330101674104947209",
        "url": ""
    },
    {
        "title": "中国的三鹿奶粉竟然摆在瑞士“恶心食品博物馆”里的醒目位置！",
        "docid": "7336136236090065435",
        "url": ""
    },
    {
        "title": "“十人九腰痛”，建议这4菜一周吃2次，腰不酸腿有力，越吃越健康",
        "docid": "7330587108920345115",
        "url": ""
    },
    {
        "title": "冬天使劲吃，一健脾、二润肺、三补气血，体虚的人趁现在要多吃！",
        "docid": "7303937268249936425",
        "url": ""
    },
    {
        "title": "河南大姐晒自己和儿媳做的菜，差异太大引发争议，网友：不知足",
        "docid": "7310927587415556634",
        "url": ""
    },
    {
        "title": "放进冰箱会变“毒药”？提醒：这7种食材冷藏后反而更糟糕，你还敢乱放吗？",
        "docid": "7335032758131720704",
        "url": ""
    },
    {
        "title": "不管炖啥鱼，只放葱姜蒜就错了，多放2味调料，鱼肉不腥入味好吃",
        "docid": "7318679070529782299",
        "url": ""
    },
    {
        "title": "“冬吃它们，百病不沾”冬天进补宁可不吃肉，也要吃4白1红！",
        "docid": "7313850651174715941",
        "url": ""
    },
    {
        "title": "说到心坎了！俞敏洪教如何吃桌面上的糕点碎末，董宇辉反应绝了！",
        "docid": "7322368062836097551",
        "url": ""
    },
    {
        "title": "这些买菜小技巧要知道！赶快收藏",
        "docid": "7336179176913699380",
        "url": ""
    },
    {
        "title": "每天早上坚持喝咖啡的人，后来都咋样了？看完涨知识了",
        "docid": "7329810522214564387",
        "url": ""
    },
    {
        "title": "我的喝茶历程-红茶篇",
        "docid": "7333979088039936531",
        "url": ""
    },
    {
        "title": "女人的白净是吃出来的，赶快来吧，不要再用化妆品了",
        "docid": "7318810903812653577",
        "url": ""
    },
    {
        "title": "这个春节，年轻人不过节，只求“财”",
        "docid": "7336747087625585192",
        "url": ""
    },
    {
        "title": "我妈做的这九种肉丸汤，太好喝了，每一款都深受欢迎！",
        "docid": "7309105854224024103",
        "url": ""
    },
    {
        "title": "凉拌藕片，一焯水就发黑？牢记1个诀窍，莲藕白净脆爽，入味好吃",
        "docid": "7327660078503821834",
        "url": ""
    },
    {
        "title": "四川一家五口的周末午餐，在朋友圈火了，网友：求蹭饭",
        "docid": "7305311808963969576",
        "url": ""
    },
    {
        "title": "过年必备饺子馅，6种口味任你选，一口下去满嘴鲜香。",
        "docid": "7312348987116782091",
        "url": ""
    },
    {
        "title": "空气炸锅过年不要闲置了，这样做道道是美食，隔壁小孩都馋哭了",
        "docid": "7330926730175365642",
        "url": ""
    },
    {
        "title": "9款万能酱汁配方：糖醋汁、鱼香汁、红烧汁…一次全学会，收藏了",
        "docid": "7328247239347094053",
        "url": ""
    },
    {
        "title": "山东亲戚寄来特产，女子吐槽要扔垃圾桶，网友：没见过世面的样子",
        "docid": "7322763155938460196",
        "url": ""
    },
    {
        "title": "太有情调了！浙江1女子晒出晚餐，简单丰盛又好吃，网友：有钱人",
        "docid": "7314588611352134182",
        "url": ""
    },
    {
        "title": "“反向喝茶”不可取，奉劝爱喝茶的人，尽量远离喝茶时的4个误区",
        "docid": "7314171501178274316",
        "url": ""
    },
    {
        "title": "到了汕头才知道，潮汕地区的调味品这么神奇！厨房小白秒变大厨",
        "docid": "7332106255298986550",
        "url": ""
    },
    {
        "title": "不管多有钱，新年这4种坚果千万别买！行内人：白给都不想要！",
        "docid": "7325690585401377334",
        "url": ""
    },
    {
        "title": "看的流口水的十道下饭菜做法",
        "docid": "7307631911546290722",
        "url": ""
    },
    {
        "title": "“春不养，夏易病”，建议多吃这6款春季养生粥，养肝健脾身体好",
        "docid": "7336147758883602979",
        "url": ""
    },
    {
        "title": "穷人有自己的过年法，看看穷人的年夜饭都有什么？",
        "docid": "7332417206385148435",
        "url": ""
    },
    {
        "title": "年夜饭的素菜准备了吗？我妈说这12道一定要安排！清爽可口！",
        "docid": "7331387793039704639",
        "url": ""
    },
    {
        "title": "为何四特酒全国推广没有成功？",
        "docid": "7322473519894397480",
        "url": ""
    },
    {
        "title": "落差太大了，橘三岁从东北研学回来，伙食从天掉到地，网友送回来",
        "docid": "7323955762227986970",
        "url": ""
    },
    {
        "title": "什么是预制菜？国家为什么要大力发展预制菜？答案可能出乎你意料",
        "docid": "7332012823624843813",
        "url": ""
    },
    {
        "title": "终于有人整理好了好吃不如饺子！果断收藏点赞储藏起来",
        "docid": "7336504499534086692",
        "url": ""
    },
    {
        "title": "超火的奶茶点单图鉴",
        "docid": "7333062276712268325",
        "url": ""
    },
    {
        "title": "20斤才出1斤肉，农村曾遍地都是无人要，如今卖40元一斤却难求！",
        "docid": "7325011845834801705",
        "url": ""
    },
    {
        "title": "年夜饭的味道 过年的本质",
        "docid": "7335787797464285735",
        "url": ""
    },
    {
        "title": "你电话号码是什么开头的？生意越做越大的秘密",
        "docid": "7336176241537466918",
        "url": ""
    },
    {
        "title": "河南人自己的\"驻京办\"，什么来头？",
        "docid": "7304863551833866771",
        "url": ""
    },
    {
        "title": "难怪宁愿摆地摊，也不进厂打螺丝，在南宁三轮卖甘蔗，日入300元",
        "docid": "7315110640190833152",
        "url": ""
    },
    {
        "title": "后备箱一开一关，又是一年 返程路上大家行囊里都装了些啥？",
        "docid": "7336481171196609059",
        "url": ""
    },
    {
        "title": "来兄弟家吃饭，这八天都快吃腻了，但兄弟情却加深了！真好！",
        "docid": "7333258115825484323",
        "url": ""
    },
    {
        "title": "感觉之前的虾白吃了！原汁原味才是虾的正确打开方式",
        "docid": "7320081966697660940",
        "url": ""
    },
    {
        "title": "终于吃上了网友推荐的菜谱，一共7道，太香了",
        "docid": "7313176065365901865",
        "url": ""
    },
    {
        "title": "炖大白菜，直接炖就大错特错了，教您饭店不外传的小窍门，太香了",
        "docid": "7315376898451259919",
        "url": ""
    },
    {
        "title": "它是“天然钙片”，比牛奶便宜，每周三次，强健骨骼，利肺豁痰！",
        "docid": "7321700964539302410",
        "url": ""
    },
    {
        "title": "春节不忙乱，6道菜提前准备好，简单一热就上桌，省事好吃寓意好",
        "docid": "7331973959375667775",
        "url": ""
    },
    {
        "title": "气血不足，建议多吃这4种补血又不上火的食物，增免疫补足气血",
        "docid": "7316863552055411241",
        "url": ""
    },
    {
        "title": "中老年人多吃4道“补铁菜”，气血足，精力旺，身体更健康",
        "docid": "7329076850951897611",
        "url": ""
    },
    {
        "title": "它是蔬菜中的“黑马”，一补钙，二润肠，三抗老化，中老年要常吃",
        "docid": "7320436128761250323",
        "url": ""
    },
    {
        "title": "我妈一辈子吃不胖的秘诀，原来都在这6道蒸菜身上！",
        "docid": "7318267414670688779",
        "url": ""
    },
    {
        "title": "江苏人的年夜饭与北方天差地别，平凡中透出的奢华与温情",
        "docid": "7333583008643252788",
        "url": ""
    },
    {
        "title": "50岁后，吃10斤黑豆不如1斤它，硒很高，常吃手脚麻利、腿脚有力",
        "docid": "7313866210553266724",
        "url": ""
    },
    {
        "title": "2024年夜饭提前准备了，这九道家常菜从初一吃到十五，不信你看！",
        "docid": "7306355334560662042",
        "url": ""
    },
    {
        "title": "中国高校Top1有争议，但中国高校美食Top1，一定是它！",
        "docid": "7307442403663741477",
        "url": ""
    },
    {
        "title": "腌酸菜时，别只知道加盐，学会3个技巧，不发霉不起沫，越放越香",
        "docid": "7306501341487333929",
        "url": ""
    },
    {
        "title": "除夕年夜饭，老人说“4菜不上桌，福气不进门”，这“4菜”指啥？",
        "docid": "7323050637275955723",
        "url": ""
    },
    {
        "title": "全国哪的烧鸡最好吃？盘点名气最大的5种烧鸡，你吃过几种？",
        "docid": "7313862535189938703",
        "url": ""
    },
    {
        "title": "等我退休了…一定拿这个方子去摆摊卖卤味！",
        "docid": "7326752981297431055",
        "url": ""
    },
    {
        "title": "冬季孩子咳嗽高发期，多给孩子吃这4碗汤，润肺化痰，清热解毒",
        "docid": "7311686600772043318",
        "url": ""
    },
    {
        "title": "这不比糖水店的好吃吗，几款有手就会的小甜羹，赶紧收藏",
        "docid": "7336146425346163240",
        "url": ""
    },
    {
        "title": "“睡眠不好，多是肝火旺”，建议多吃这菜！清肝火睡眠好！",
        "docid": "7316323673907380772",
        "url": ""
    },
    {
        "title": "2024年夜饭准备起来啦！这72道家常菜，总有一款是你想要的吧！",
        "docid": "7312800355052601875",
        "url": ""
    },
    {
        "title": "原来我做了这么多的菜了啊，这60道你们先选，当年夜饭菜单也行！",
        "docid": "7324258260172046911",
        "url": ""
    },
    {
        "title": "这菜比肉贵，却很少人嫌弃，见到就买，简单一煮，特别好吃",
        "docid": "7324332554075750946",
        "url": ""
    },
    {
        "title": "进入冬季，女孩子要多喝这个，气血好",
        "docid": "7311238562123809321",
        "url": ""
    },
    {
        "title": "人民大会堂落成后的第一次“国宴”，4600多人出席，安排近500桌",
        "docid": "7311311462151553546",
        "url": ""
    },
    {
        "title": "内地餐饮店全面进军香港！已有20家人气餐厅计划或已在港开店",
        "docid": "7332727656821621302",
        "url": ""
    },
    {
        "title": "贵州省各市的特产大全",
        "docid": "7303596552873083407",
        "url": ""
    },
    {
        "title": "大雪后，不宜大补，推荐3菜1汤，护肝明目，补充营养，家人都爱",
        "docid": "7310238785432732201",
        "url": ""
    },
    {
        "title": "每天吃1根油条，身体会发生什么变化？",
        "docid": "7303789467561820735",
        "url": ""
    },
    {
        "title": "年夜饭菜单已备好！54道菜供你选择！",
        "docid": "7316886108288352820",
        "url": ""
    },
    {
        "title": "自助餐吃不回本的秘密终于找到了！网友：蘸料里放压缩饼干沫",
        "docid": "7328779087928066611",
        "url": ""
    },
    {
        "title": "中国最爱芋头的省份，能把芋头吃出多少花来？",
        "docid": "7328225339678065186",
        "url": ""
    },
    {
        "title": "全家一致通过可以加入年夜饭菜单的9道菜，可以提前准备了！",
        "docid": "7327562009615516210",
        "url": ""
    },
    {
        "title": "野战部队都不能例外，为什么只有中国人，这么执著于炒糖色？",
        "docid": "7310532566024405514",
        "url": ""
    },
    {
        "title": "感谢江西的朋友，这也太好吃了。",
        "docid": "7317903446848782898",
        "url": ""
    },
    {
        "title": "十三香到底是什么香？",
        "docid": "7327185642167829029",
        "url": ""
    },
    {
        "title": "它是“穷人的阿胶”，每天吃3颗胜过1只老母鸡，滋补气血又养颜",
        "docid": "7325267552379552310",
        "url": ""
    },
    {
        "title": "过年送礼出来新花样，客人来我家，我家的冰箱满了",
        "docid": "7336103847817724443",
        "url": ""
    },
    {
        "title": "我堂妹在超市卖水果，她说今年车厘子卖不动了，想开卡车在街上卖",
        "docid": "7330766953885237796",
        "url": ""
    },
    {
        "title": "韩国网友提问：为什么中国菜看起来不如日本菜和法国菜精致？",
        "docid": "7333111659713643019",
        "url": ""
    },
    {
        "title": "天冷了，建议大家：多喝这5款营养汤，健脾胃，增免疫",
        "docid": "7310155386731332159",
        "url": ""
    },
    {
        "title": "同为洋河系列白酒，海之蓝、天之蓝、梦之蓝区别在哪？",
        "docid": "7315217947591787047",
        "url": ""
    },
    {
        "title": "2024年夜饭菜谱，记得提前收藏，吃饱喝足过个欢乐年，收多点红包",
        "docid": "7319722505580053028",
        "url": ""
    },
    {
        "title": "寒风凛冽！推荐6款暖心又暖胃的粥，赶紧为家人准备起来！",
        "docid": "7307986438749274624",
        "url": ""
    },
    {
        "title": "上海市的特产大全，你都尝过哪些",
        "docid": "7336803620547199488",
        "url": ""
    },
    {
        "title": "2024春节观察｜除夕上门做年夜饭的厨师：日赚五六千，回家吃泡面",
        "docid": "7334309209846186548",
        "url": ""
    },
    {
        "title": "答应我，有番茄的都去把它冻起来。",
        "docid": "7314257661346857498",
        "url": ""
    },
    {
        "title": "七弯八拐，丑但是很美味，这种儿时的味道你们那里叫什么?",
        "docid": "7304579848394080768",
        "url": ""
    },
    {
        "title": "煮面好吃的秘诀！收藏起来自己做",
        "docid": "7335433324041142796",
        "url": ""
    },
    {
        "title": "周末聚餐，就给朋友做这几道菜，美味好吃，特有面子",
        "docid": "7320215138618425891",
        "url": ""
    },
    {
        "title": "价值3000的上海生煎包商用做法配方免费分享给大家适合摆摊做早餐",
        "docid": "7308656252459188773",
        "url": ""
    },
    {
        "title": "吃葡萄干时，要不要洗一下？听听新疆人怎么说,告诉你正确吃法，",
        "docid": "7329784581233148435",
        "url": ""
    },
    {
        "title": "全国哪的茶叶最好喝？经过评比，这4个地方比较有名，有你家乡吗",
        "docid": "7329724623384445455",
        "url": ""
    },
    {
        "title": "我婆婆又来给我做饭了，这七天晚餐吃的都胖了，哪一天是你喜欢的",
        "docid": "7306815659726422567",
        "url": ""
    },
    {
        "title": "相信我，年夜饭做这些小甜点，生活越来越甜！",
        "docid": "7320145083465171492",
        "url": ""
    },
    {
        "title": "看年夜饭一锅出，轻松搞定满汉全席，从此在厨娘的路上登峰造极！",
        "docid": "7324589710037451298",
        "url": ""
    },
    {
        "title": "炒菜其实并不难，学会了你就是大厨",
        "docid": "7303736160738705939",
        "url": ""
    },
    {
        "title": "年夜饭创意菜/龙凤呈祥，满满的馅料，软糯可口",
        "docid": "7320589439762760243",
        "url": ""
    },
    {
        "title": "会吃的南方人，一到12月都在抓紧吃它！鲜到眉毛保不住！",
        "docid": "7309000113421517351",
        "url": ""
    },
    {
        "title": "茅台员工透露：买茅台时送的2个小酒杯，压根就不只是用来喝酒的",
        "docid": "7308685668534960703",
        "url": ""
    },
    {
        "title": "弱国无外交，中国人不得不喝的白开水，是无奈，更是辛酸！",
        "docid": "7336233275486683663",
        "url": ""
    },
    {
        "title": "冬天买羊肉，要分清“前腿肉”和“后腿肉”差别挺大，弄懂再花钱",
        "docid": "7313763812917019136",
        "url": ""
    },
    {
        "title": "厨师都不愿告诉你的炖牛羊肉配方，收藏起来备用！",
        "docid": "7318686868021969445",
        "url": ""
    },
    {
        "title": "胃病三分治七分养，多吃养胃食物，健脾又养胃",
        "docid": "7314929498275889699",
        "url": ""
    },
    {
        "title": "除夕夜可以准备这几道甜点，每一道都很好吃，建议收藏",
        "docid": "7332147186232443426",
        "url": ""
    },
    {
        "title": "中国八大菜系，哪个最好吃？",
        "docid": "7335721321164522019",
        "url": ""
    },
    {
        "title": "真是万万没想到，鸡内金用火烤一烤，吃了3天管用，就服老辈做法",
        "docid": "7331305262240285210",
        "url": ""
    },
    {
        "title": "盘点台州最好吃的6家早餐店，排队也要吃，你吃过几家？",
        "docid": "7314259450234159679",
        "url": ""
    },
    {
        "title": "买牛腱子肉妙招：据肉店老板说 前腱和后腱肉口感差很多 早懂早受益",
        "docid": "7317444142311817739",
        "url": ""
    },
    {
        "title": "立春后看到这菜大胆吃！一利尿、二刮油、三增免疫，特别是包饺子",
        "docid": "7334293152784105995",
        "url": ""
    },
    {
        "title": "七十年代去“下馆子”，2块钱在饭店都能吃些啥？满满都是回忆！",
        "docid": "7317919250235064866",
        "url": ""
    },
    {
        "title": "准备年夜饭，提前做好5道菜放冰箱，重新上锅蒸后更香，节省时间",
        "docid": "7331765208542708287",
        "url": ""
    },
    {
        "title": "常见贵州茅台王子全套系列",
        "docid": "7333462975371788834",
        "url": ""
    },
    {
        "title": "鸡蛋有这么多种花样做法，太好吃了，不能只有我知道",
        "docid": "7309060073262203426",
        "url": ""
    },
    {
        "title": "“青年厨神”梅安利的年夜饭菜谱来了！款款经典，再现老广的味道",
        "docid": "7326745544750809663",
        "url": ""
    },
    {
        "title": "13种早餐技术+16种粥技术，做一辈子的早餐，配方都拿出来了",
        "docid": "7308357164278874661",
        "url": ""
    },
    {
        "title": "年夜饭大菜谱！78道家常菜的菜谱来啦，随便选随便吃！",
        "docid": "7332427034339492391",
        "url": ""
    },
    {
        "title": "俄罗斯美食“大列巴”为何在中国不受待见？和普通面包有啥区别？",
        "docid": "7326826288205922857",
        "url": ""
    },
    {
        "title": "多吃菜少吃肉，身体少病害！建议多吃这5种碱性菜，润肺身体好",
        "docid": "7313402944639533622",
        "url": ""
    },
    {
        "title": "冬天少吃黄瓜土豆多吃它，不放肉也很鲜美，冬季吃它特养人！",
        "docid": "7304181108361527842",
        "url": ""
    },
    {
        "title": "除夕夜团圆饭吃什么呢？什么菜更应过年呢？",
        "docid": "7333468925730341403",
        "url": ""
    },
    {
        "title": "广西最怪三道菜，外地人看了直摇头，本地人表示吃不够",
        "docid": "7321581131554423305",
        "url": ""
    },
    {
        "title": "东北最有名的“四大炖菜”，鲜香美味，全吃过的，您是正宗东北人",
        "docid": "7288822499444425274",
        "url": ""
    },
    {
        "title": "经常买牛肉的人，一定要保存：",
        "docid": "7335859677114647076",
        "url": ""
    },
    {
        "title": "过年我家最爱的的虾仁三鲜饺子馅，超级鲜美又多汁儿，做法也简单",
        "docid": "7331357637650498111",
        "url": ""
    },
    {
        "title": "冬天快吃它，2元一斤全身是宝，竟然是排毒好帮手，一口回味无穷",
        "docid": "7306159878878970422",
        "url": ""
    },
    {
        "title": "4种自带“益生菌”的食物，冬天常吃，增强免疫力，身体健康",
        "docid": "7314624746270982691",
        "url": ""
    },
    {
        "title": "炒菜时，不能放葱姜蒜的4种菜，很多人都不知道，看完涨知识了",
        "docid": "7317118854843810345",
        "url": ""
    },
    {
        "title": "有人问我买那么多小鲫鱼怎么吃呢？我今天就说下我自己的做法。",
        "docid": "7309058756858692133",
        "url": ""
    },
    {
        "title": "来湖北下馆子就点这6道菜，是“鄂菜之魂”，老板：一看就是行家",
        "docid": "7304863632091906598",
        "url": ""
    },
    {
        "title": "中国人公认的下饭神器，你最喜欢哪道？",
        "docid": "7315011075953443379",
        "url": ""
    },
    {
        "title": "明明挨着都挺近！重庆四川贵州湖南都挺能吃辣，湖北却不行！",
        "docid": "7336479007480824346",
        "url": ""
    },
    {
        "title": "春晚狂喝AD钙奶的小姐姐，她到底是何方神圣？她本人出来澄清了！",
        "docid": "7336769609942647336",
        "url": ""
    },
    {
        "title": "爱吃鱼的看过来，让你一周都不重复，看了都流口水！",
        "docid": "7303880014343193127",
        "url": ""
    },
    {
        "title": "美国网友：你怎么看中国人称披萨起源于中国？网友评论让我笑翻了",
        "docid": "7330885740613861942",
        "url": ""
    },
    {
        "title": "上海一家六口的晚餐，在朋友圈火了，网友：求蹭饭",
        "docid": "7328330528082477608",
        "url": ""
    },
    {
        "title": "茶叶在人体里到底在干嘛，有人给你画出来了！",
        "docid": "7313017847402627599",
        "url": ""
    },
    {
        "title": "我分享一下我最爱的这63道家常菜！你看看是不是你们最爱的！",
        "docid": "7321378453423587876",
        "url": ""
    },
    {
        "title": "上海男子去东北媳妇家过年，每天的晚餐让他不敢动，网友：不懂吃",
        "docid": "7336404744741241396",
        "url": ""
    },
    {
        "title": "杭州“西湖醋鱼”日售一千条！评论笑死：到底是好奇心还是不甘心",
        "docid": "7336060132016964136",
        "url": ""
    },
    {
        "title": "开春后这4碗汤一定要常喝，顺时而食，身体更健康",
        "docid": "7335836581875974692",
        "url": ""
    },
    {
        "title": "【广东人、四川人、湖南人、江西人、浙江人请吃年夜饭你会跟谁走",
        "docid": "7333575459155853875",
        "url": ""
    },
    {
        "title": "虾虾你就像我这样做，嘎嘎好吃嘎嘎香，朋友吃了都叫我原地开店~",
        "docid": "7329789023689245236",
        "url": ""
    },
    {
        "title": "胃好三分治七分养，多吃几种“养胃之宝”，健脾养胃，提高免疫力",
        "docid": "7314299620946657819",
        "url": ""
    },
    {
        "title": "真是头大，过年家里这么多吃的，咋吃也吃不完，扔了又不舍得",
        "docid": "7335345819689845311",
        "url": ""
    },
    {
        "title": "法国中产被噶韭菜，天价矿泉水竟是粪水过滤而来！",
        "docid": "7336762817741668900",
        "url": ""
    },
    {
        "title": "不建议购买的四种海鲜，满满的“科技与狠活”，个个都非常坑钱",
        "docid": "7307824823110156850",
        "url": ""
    },
    {
        "title": "金华最受欢迎的10家老字号面馆",
        "docid": "7307967772494463488",
        "url": ""
    },
    {
        "title": "抽一口要两万元，一支能卖782万元！高端雪茄到底凭什么这么贵？",
        "docid": "7306089868231328295",
        "url": ""
    },
    {
        "title": "终于有人把“喝酒划拳顺口溜”整理好了，赶紧收藏起来看看吧。",
        "docid": "7328306516136641076",
        "url": ""
    },
    {
        "title": "为什么双煤气灶的左边不能炒菜？多亏师傅告知，才知以前都做错了",
        "docid": "7336753896348123702",
        "url": ""
    },
    {
        "title": "印度网友：“韩国特产”部队锅是美军吃剩下的，他们竟然还很骄傲",
        "docid": "7336759734621962763",
        "url": ""
    },
    {
        "title": "姐妹们，我懒出新高度了，却意外好吃。",
        "docid": "7312246161342022153",
        "url": ""
    },
    {
        "title": "最补脑子的食材，才不是核桃！这一口鲜美软嫩，还富含DHA！",
        "docid": "7306398412059214372",
        "url": ""
    },
    {
        "title": "北京性价比超高的苍蝇馆子，5道菜才210元，量大味美，好吃不踩雷",
        "docid": "7314641875896877619",
        "url": ""
    },
    {
        "title": "家里有糯米粉就能做成的美食，糯叽叽的超好吃，新手一次就能成功",
        "docid": "7314577866295951906",
        "url": ""
    },
    {
        "title": "春节前一定要多学几个炒菜，年夜饭才能大显身手惊艳所有人！",
        "docid": "7319473634991817231",
        "url": ""
    },
    {
        "title": "嘉兴最受欢迎的10家老字号面馆",
        "docid": "7307253685435007526",
        "url": ""
    },
    {
        "title": "承包了一周肉类做法，再也不担心冬天挨饿了，赶快拿走吧！",
        "docid": "7310805784257413683",
        "url": ""
    },
    {
        "title": "我母亲81岁，控糖20年有收获，整理岀66个控糖食谱，值得收藏",
        "docid": "7335276476130345511",
        "url": ""
    },
    {
        "title": "七大“最脏”外卖，外卖小哥都看不下去，最后一种年轻人最爱！",
        "docid": "7323471113047458315",
        "url": ""
    },
    {
        "title": "6道凉拌菜来了，凉拌菜这样做，真的是好吃到停不下来！",
        "docid": "7314264849679286825",
        "url": ""
    },
    {
        "title": "只要一张图，让你学会挑猪肉，选购食用油",
        "docid": "7328923700080804404",
        "url": ""
    },
    {
        "title": "各位亲戚朋友算我求你们，明年不要再这样送礼了！",
        "docid": "7335799543969137215",
        "url": ""
    },
    {
        "title": "各大奶茶品牌争谁遍布全国各地更多，好脏的商战！评论区笑死我了",
        "docid": "7320535100801057291",
        "url": ""
    },
    {
        "title": "我家年午饭，鲍鱼龙虾都没排上号，十道硬菜出炉，看看都是啥",
        "docid": "7333025161509798400",
        "url": ""
    },
    {
        "title": "湖南女婿在丈母娘家扬言七瓶啤酒量在山东横着走！山东网友看乐了",
        "docid": "7335754759292518975",
        "url": ""
    },
    {
        "title": "除夕家宴吃什么？5道菜安排上，荤素都有，寓意吉利，全家都喜欢",
        "docid": "7320508615738458661",
        "url": ""
    },
    {
        "title": "低价酒卖不动了，牛二、老村长、江小白下滑，茅台独大，啥信号？",
        "docid": "7334627021332480546",
        "url": ""
    },
    {
        "title": "潮汕人的年夜饭真是豪横，一大桌的硬菜不说，还有茅台和XO",
        "docid": "7335057960244249138",
        "url": ""
    },
    {
        "title": "我爸的拿手绝活～酱油泡黄瓜！真的好吃到无语呀！",
        "docid": "7330520968903016994",
        "url": ""
    },
    {
        "title": "我婆婆把下一周的晚餐给你们安排了特丰盛又好吃，颜值也高！",
        "docid": "7336764187739750948",
        "url": ""
    },
    {
        "title": "当黑龙江人来广西蹭吃“扣肉”时，看到这场酒席真的眼睛都大了！",
        "docid": "7325033095797752358",
        "url": ""
    },
    {
        "title": "饭馆最暴利的9道菜，成本“贼”低，价格却挺贵，有你常吃的吗？",
        "docid": "7309747940015686181",
        "url": ""
    },
    {
        "title": "天冷多吃不胖的家常菜，营养高味道好，太香了",
        "docid": "7321726409499099663",
        "url": ""
    },
    {
        "title": "为什么祖宗优选从不骗人？中国餐桌上的奇怪食材，藏着哪些苦难史",
        "docid": "7327508776909996544",
        "url": ""
    },
    {
        "title": "家庭版酱牛肉自用5年的方子真的太香了！",
        "docid": "7326710258079629860",
        "url": ""
    },
    {
        "title": "买香油时，只要将香油瓶子倒过来，真假香油一晃便知，别买错了",
        "docid": "7325642041638306340",
        "url": ""
    },
    {
        "title": "6款百元内的优质白酒，便宜好喝不上头，可以“闭眼入”",
        "docid": "7314516486515671606",
        "url": ""
    },
    {
        "title": "春节爆单了！杭州小伙一天赶五六场，月入5万多",
        "docid": "7334710831260811802",
        "url": ""
    },
    {
        "title": "来黑龙江下馆子就点这8道菜，有一道很少见，你吃过几道",
        "docid": "7315414995121439273",
        "url": ""
    },
    {
        "title": "售价不到20元的牛栏山，大家明知是酒精酒，为何它还能年销百亿？",
        "docid": "7321610349172752948",
        "url": ""
    },
    {
        "title": "立春后多吃它，和豆腐搭配炒更香，营养价值高还能减肥",
        "docid": "7336762226247893523",
        "url": ""
    },
    {
        "title": "一份米饭，做出来舍不得吃，太可爱了吧",
        "docid": "7317213611133272627",
        "url": ""
    },
    {
        "title": "春节过年走亲戚，发现了一个“奇怪”现象：为何大家不愿喝酒了？",
        "docid": "7336804133032296979",
        "url": ""
    },
    {
        "title": "家有破壁机的，赶紧冲",
        "docid": "7326048431427486271",
        "url": ""
    },
    {
        "title": "不管炖什么肉，加这5味“料”，不仅去腥，还能散寒养胃",
        "docid": "7336766926586217012",
        "url": ""
    },
    {
        "title": "全国哪里的“烧鸡”好吃？经过评比，这5只鸡上榜，有你家乡吗",
        "docid": "7311996630306570802",
        "url": ""
    },
    {
        "title": "十大奢华巧克力品牌",
        "docid": "7322858089336783396",
        "url": ""
    },
    {
        "title": "古时候，普通人每天吃什么？放到现代，你可能一口都咽不下去",
        "docid": "7312412512291553827",
        "url": ""
    },
    {
        "title": "养胃高手不只是小米，也可以是它！1周吃2次，健脾养胃身体棒",
        "docid": "7317606887313637951",
        "url": ""
    },
    {
        "title": "常见的五粮液及五粮液家族产品大集合",
        "docid": "7332674429115335203",
        "url": ""
    },
    {
        "title": "买排骨，“前排”“中排”“后排”差别很大，弄懂了，少花冤枉钱",
        "docid": "7314163957592523299",
        "url": ""
    },
    {
        "title": "冬季皮肤干燥多吃这菜，一保湿、二润肠、三开胃、四解毒，不懂吃可惜了",
        "docid": "7306672249434604058",
        "url": ""
    },
    {
        "title": "山东5大怪菜，本地人当成宝，外地人受不了，你又能接受几个呢？",
        "docid": "7318294210318090804",
        "url": ""
    },
    {
        "title": "央视推荐：过年在家必刷的5部纪录片，补充你的能量",
        "docid": "7334332082476843555",
        "url": ""
    },
    {
        "title": "中国哪个地方的醋最好吃？经对比，这6种榜上有名，有你家乡的吗",
        "docid": "7319797553397285386",
        "url": ""
    },
    {
        "title": "世界上排名前十的洋酒品牌，你喝过几种？",
        "docid": "7303831437235765811",
        "url": ""
    },
    {
        "title": "全国各地火锅盘点！你吃过几个？那个是你心中NO.1",
        "docid": "7312083922404508212",
        "url": ""
    },
    {
        "title": "冬天男人多吃这5道菜，火力旺身体更有活力",
        "docid": "7306354219945181708",
        "url": ""
    },
    {
        "title": "中国10种最好吃的早餐，最后一种没200块钱吃不到",
        "docid": "7309717848832754217",
        "url": ""
    },
    {
        "title": "奶奶传给我一道菜，顿顿饭都离不开。",
        "docid": "7309723663921267250",
        "url": ""
    },
    {
        "title": "当北方人第一次来广州吃烧鹅，看到这场面真的眼睛都大了！",
        "docid": "7320571287184228918",
        "url": ""
    },
    {
        "title": "江苏人的馄饨，为何让北方友人目瞪口呆？",
        "docid": "7335708979802325567",
        "url": ""
    },
    {
        "title": "广西人用一次性碗筷招待客人，就是不尊重人吗？一次性碗筷干净！",
        "docid": "7304478284421644826",
        "url": ""
    },
    {
        "title": "营养是猪肉的好几倍！没皮没骨头，口口都是肉，不懂吃可惜了",
        "docid": "7329715714569617920",
        "url": ""
    },
    {
        "title": "老北京喝酒“怪象”：高不喝茅台，低不喝牛栏山，唯爱这4款酒！",
        "docid": "7319758006755836479",
        "url": ""
    },
    {
        "title": "春节必备菜4道炸货，随便挑一道做，好吃又下酒，寓意还很好",
        "docid": "7329121880059724326",
        "url": ""
    },
    {
        "title": "80年代国营大饭店一张菜谱，你当年的收入是多少，能不能消费的起",
        "docid": "7312736487144210982",
        "url": ""
    },
    {
        "title": "“春养肝，睡得香”，立春后中老年常吃5种蔬菜，排肝毒，睡得香",
        "docid": "7332354879526273546",
        "url": ""
    },
    {
        "title": "炸裂：清亦妹妹今天吃鸡翅，老六交作业两张图片，评论区不淡定了",
        "docid": "7336162532258234915",
        "url": ""
    },
    {
        "title": "苏州人的年夜饭",
        "docid": "7333402289262150185",
        "url": ""
    },
    {
        "title": "年纪大了要舍得吃！这3种肉比牛肉强，高蛋白易消化，越吃越健康",
        "docid": "7322378993498423846",
        "url": ""
    },
    {
        "title": "不得不说我真的很爱喝汤 最主要的是营养丰富 又美味",
        "docid": "7312036803585294863",
        "url": ""
    },
    {
        "title": "中国食用油标准！大家保存收藏，千万不要买错了",
        "docid": "7330118958814773775",
        "url": ""
    },
    {
        "title": "闹大了，湖北人喝可乐要煮开还要加姜片！引全网热议，评论区笑死",
        "docid": "7336390390964470310",
        "url": ""
    },
    {
        "title": "寒冬最补的肉，不是猪肉，而是这4种肉，补气暖身，建议多安排",
        "docid": "7315423441766318611",
        "url": ""
    },
    {
        "title": "香肠晒好后，“生着冻”还是“熟着冻”？很多人不懂，难怪味道差",
        "docid": "7320528311656989225",
        "url": ""
    },
    {
        "title": "“冬天吃一瓜，不用把药抓”，买30斤晒干，随吃随取，炖肉超下饭",
        "docid": "7305963365673861643",
        "url": ""
    },
    {
        "title": "俗话说“春养肝，无烦恼”！建议平时要多吃，清热解毒，代谢好！",
        "docid": "7333912073036857910",
        "url": ""
    },
    {
        "title": "喜欢吃土豆的宝子，一定要去试试这个孜然鸡翅土豆条呀！",
        "docid": "7321312309891564068",
        "url": ""
    },
    {
        "title": "“神仙”美食八大碗，你能吃几碗？",
        "docid": "7335365638665503273",
        "url": ""
    },
    {
        "title": "腌雪里蕻，只放盐腌就错了，教你一招，翠绿鲜香，不变味不长毛",
        "docid": "7308689386043097636",
        "url": ""
    },
    {
        "title": "苏州人的这锅汤，鲜得眉毛都要掉下来",
        "docid": "7321885691116274216",
        "url": ""
    },
    {
        "title": "“冬食一菌，健康长寿”，家有小孩，用它煲汤，增体质，强免疫",
        "docid": "7314298162284495386",
        "url": ""
    },
    {
        "title": "炸萝卜丸子，牢记“3放2不放”，放错了发硬不好吃，可别不当回事",
        "docid": "7313012419817751079",
        "url": ""
    },
    {
        "title": "阖家团圆时离世，这位国家一级面点师将自己的眼角膜和遗体捐献",
        "docid": "7336716914573656595",
        "url": ""
    },
    {
        "title": "俗话说的好，冬天吃药一箩筐，不如多喝一碗汤，入冬常喝这6碗汤",
        "docid": "7275942802629214776",
        "url": ""
    },
    {
        "title": "上班族久坐不动的小仙女看过来，多吃这几样食物，促进血液循环",
        "docid": "7316440888560026149",
        "url": ""
    },
    {
        "title": "它是“洗肠菜”，几块钱一大盘！润肠通便，很多人不懂！",
        "docid": "7334765440511558182",
        "url": ""
    },
    {
        "title": "美版知乎：在中国吃麦当劳是身份的象征吗？网友评论让我笑翻了",
        "docid": "7333408986890404371",
        "url": ""
    },
    {
        "title": "现用的高压锅已经20多年了，炖肉、熬粥、烙饼样样行，真是杠杠滴",
        "docid": "7317107980833915407",
        "url": ""
    },
    {
        "title": "年夜饭没它，我不上桌。",
        "docid": "7327968406588670515",
        "url": ""
    },
    {
        "title": "安徽，餐饮“新王”正在洗牌！",
        "docid": "7336774871994679844",
        "url": ""
    },
    {
        "title": "虾皮你家还在吃吗？多亏了老渔民告知，早点提醒家里人，长个记性",
        "docid": "7318297173752889896",
        "url": ""
    },
    {
        "title": "曾被认为有毒不能吃，如今却大量种植，还被誉为“菜中珍品”？",
        "docid": "7316557438747197962",
        "url": ""
    },
    {
        "title": "茶具知识",
        "docid": "7323830868491895322",
        "url": ""
    },
    {
        "title": "18种手写配方，精准到克，牛杂的配方绝了，先收藏起来备用",
        "docid": "7312433158861881894",
        "url": ""
    },
    {
        "title": "几款适合寒冷冬天吃的暖呼呼“水煮菜”！",
        "docid": "7311145809440440841",
        "url": ""
    },
    {
        "title": "承包你一个月的午餐！家常快手，营养美味，10分钟搞定，赶紧收藏",
        "docid": "7320231808199836198",
        "url": ""
    },
    {
        "title": "笑疯了，胖东来员工尝试员工餐面条，导致闭店，网友评论却笑死了",
        "docid": "7336066896653337099",
        "url": ""
    },
    {
        "title": "贵不一定就代表好，这五款各省代表裸瓶酒经济实惠，你喝过几个？",
        "docid": "7329545651807863346",
        "url": ""
    },
    {
        "title": "陕西一家人去苏州，点了三碗面，看见价格却傻眼了",
        "docid": "7317553833184723467",
        "url": ""
    },
    {
        "title": "为啥会有人相信冰糖雪梨能止咳？",
        "docid": "7314982469521441320",
        "url": ""
    },
    {
        "title": "田边的“刺菜”你认识吗？刺菜泡水有什么好处？大多数人并不知道",
        "docid": "7336898538984849960",
        "url": ""
    },
    {
        "title": "北京春节庙会太绝了，穿背心烤串！臭豆腐自称“天下第一”？",
        "docid": "7336435200647709223",
        "url": ""
    },
    {
        "title": "云南小伙靠直播把烧烤摊变网红店：白天播两小时，晚上门店就是满的",
        "docid": "7314853828535452194",
        "url": ""
    },
    {
        "title": "现在到过年，记得：2客不请，3酒不喝，不是人情淡泊，而是现实",
        "docid": "7307843192492409354",
        "url": ""
    },
    {
        "title": "冬天多吃“补阳菜”，身体越补越好，冬天不怕冷",
        "docid": "7313826987192254976",
        "url": ""
    }
]