[
    {
        "title": "买蜂蜜时，别忘带个打火机，假蜂蜜立马“现原形”，早知道就好了",
        "docid": "7323061194137715263",
        "url": ""
    },
    {
        "title": "快过年了，儿时的年夜饭里，你记忆中最深刻的一道菜是什么？",
        "docid": "7329782835781517875",
        "url": ""
    },
    {
        "title": "海参泡发，最忌用清水泡，渔民40年经验，泡得又大又软，一次成功",
        "docid": "7328298080397640226",
        "url": ""
    },
    {
        "title": "无花果大家都爱吃，但叶子才是稀罕货，3大妙用要知道",
        "docid": "7297139725285147190",
        "url": ""
    },
    {
        "title": "正在消失的三合泥",
        "docid": "7329547165179658790",
        "url": ""
    },
    {
        "title": "首批“食在广州”认证餐厅与产品诞生",
        "docid": "7329720031955239475",
        "url": ""
    },
    {
        "title": "糖醋蒜不在传的配方，看完一定要收藏",
        "docid": "7329729708134875667",
        "url": ""
    },
    {
        "title": "“嘴刁”老广的年饭，到底有多讲究？",
        "docid": "7329846888529084962",
        "url": ""
    },
    {
        "title": "12款抗炎冠军🏆（蔬菜篇）抗炎就靠它了",
        "docid": "7302602282074505762",
        "url": ""
    },
    {
        "title": "家里有孩子的多做这几道菜，补充营养，健康成长",
        "docid": "7311259113815212583",
        "url": ""
    },
    {
        "title": "牛肉炖不烂，不是时间不够长，而是没加它！",
        "docid": "7309375402853057034",
        "url": ""
    },
    {
        "title": "日本最大啤酒商朝日，离开中国毫不留情，如今又嚷嚷重返中国市场",
        "docid": "7311964334979629605",
        "url": ""
    },
    {
        "title": "9999元五星级酒店吃一年，这种自助餐年卡划算吗？",
        "docid": "7299277966910210586",
        "url": ""
    },
    {
        "title": "VOSS三度牵手黑珍珠餐厅，精致餐饮“灵魂配角”的信心与决心",
        "docid": "7329789374487970367",
        "url": ""
    },
    {
        "title": "从青岛中山路到哈尔滨中央大街！10万瓶崂山可乐热暖哈尔滨",
        "docid": "7329846964328628747",
        "url": ""
    },
    {
        "title": "一炸一卤，这是苏州年夜饭的冷盘“重头戏”",
        "docid": "7329792958214128167",
        "url": ""
    },
    {
        "title": "关于喜宴用酒的推荐（三）你们认同吗？",
        "docid": "7316408040633532969",
        "url": ""
    },
    {
        "title": "在大雪中吃席？这吃的不是席而是人情世故",
        "docid": "7328999122227364404",
        "url": ""
    },
    {
        "title": "补气血不只是红枣，多吃这几种食物，皮肤红润，补气养血！",
        "docid": "7305382196523860532",
        "url": ""
    },
    {
        "title": "哇！太全了，常用酱油和食用油的区别，不同种类用处不一样！",
        "docid": "7329762408677851698",
        "url": ""
    },
    {
        "title": "“南方的女孩”重磅上线！南都&广铁高铁奶茶跨界联名新花样",
        "docid": "7329888692696220197",
        "url": ""
    },
    {
        "title": "2023年的烟民与酒鬼：烟慢慢变贵，酒越来越便宜，社交属性在降低",
        "docid": "7318017799668892223",
        "url": ""
    },
    {
        "title": "全国哪的啤酒最好喝？经评比，这六个地方都不错，看看有你家乡吗",
        "docid": "7324628267607491124",
        "url": ""
    },
    {
        "title": "这是银川自助天花板？你们觉得多少钱一位比较合适？（附攻略）",
        "docid": "7327168200171504140",
        "url": ""
    },
    {
        "title": "买橙子时，一定要挑“公的”，老果农教我一招，个个又香又甜",
        "docid": "7304110893703528994",
        "url": ""
    },
    {
        "title": "北京早午餐自助天花板，必须吃1次",
        "docid": "7327926267456553513",
        "url": ""
    },
    {
        "title": "南方除夕当天，这几个小心思你绝对不能错过！",
        "docid": "7329877753829163555",
        "url": ""
    },
    {
        "title": "苹果别在直接吃了，用苹果搭配这些“食材”煮水喝，脾胃太舒服了",
        "docid": "7308588715725898274",
        "url": ""
    },
    {
        "title": "上海这种“老底子小吃”进化了！有网友直呼受不了",
        "docid": "7329705552052421147",
        "url": ""
    },
    {
        "title": "常喝这几款“养颜羹”，胜过去美容院！养胃防燥，皮肤越喝越光滑",
        "docid": "7306761933363954191",
        "url": ""
    },
    {
        "title": "中国人到底有多能吃？留学能把外国人吃懵，中国饮食文化博大精深",
        "docid": "7317159796837220875",
        "url": ""
    },
    {
        "title": "你被家长喂过最敷衍的食物是什么？",
        "docid": "7324890580574896667",
        "url": ""
    },
    {
        "title": "为什么国宴要以淮扬菜为主？看完网友的分享，才知淮扬菜有多牛",
        "docid": "7307536416622592512",
        "url": ""
    },
    {
        "title": "全国最好吃的“十大面条”，5个在南方，5个在北方，你吃过哪些？",
        "docid": "7302337699967451648",
        "url": ""
    },
    {
        "title": "刘和刚：腊月十九家里“来且了”，亲自下厨给3位客人做苞米碴子",
        "docid": "7329809385578889762",
        "url": ""
    },
    {
        "title": "众多网友评价兰州拉面:面馆开了三年，牛只受了轻伤！",
        "docid": "7325707294367613490",
        "url": ""
    },
    {
        "title": "终于有人把“喝酒划拳顺口溜”整理好了，赶紧收藏起来看看吧。",
        "docid": "7329796940466487849",
        "url": ""
    },
    {
        "title": "在浙江买笋，还以为买了颗炮弹，浙江人为什么那么执迷于吃笋",
        "docid": "7305349956779852324",
        "url": ""
    },
    {
        "title": "炖肉炖排骨，放料越多越难吃，做到“1放3不放”，软烂入味超好吃",
        "docid": "7320208908567380514",
        "url": ""
    },
    {
        "title": "火遍大江南北的“红豆”烟，怎么就输给了难抽的“白沙”！",
        "docid": "7311728106115695119",
        "url": ""
    },
    {
        "title": "提醒中年人：如果“不差钱”，这2种茶能不喝就不喝，全是添加的",
        "docid": "7329036487017497122",
        "url": ""
    },
    {
        "title": "锁死这个配方…超细腻的无油版酸奶蛋糕！一次成功！巨好吃！",
        "docid": "7315619018994369064",
        "url": ""
    },
    {
        "title": "“老字号”受热捧 兴隆咖啡在三亚年货节上热销",
        "docid": "7329906184134722099",
        "url": ""
    },
    {
        "title": "这天实在太冷了，赶紧安排这6道营养汤，滋补身体，抗寒冷",
        "docid": "7328773163163730451",
        "url": ""
    },
    {
        "title": "冬记食|猪肉萝卜炖油菜！美食做法DAY 5",
        "docid": "7329886228579467810",
        "url": ""
    },
    {
        "title": "我心中的下酒王者：盐水鸭，做法就是这么简单",
        "docid": "7305369028145693203",
        "url": ""
    },
    {
        "title": "烙饼，用冷水还是开水？厨娘教你2招，柔软多层，凉了也不硬",
        "docid": "7299325282778038836",
        "url": ""
    },
    {
        "title": "年夜饭之炸丸子，淀粉选择有讲究，这样做外酥里嫩，寓意团团圆圆",
        "docid": "7329777355634147879",
        "url": ""
    },
    {
        "title": "做的是老酱，品的是年味，留下的是乡愁……",
        "docid": "7329804245933720103",
        "url": ""
    },
    {
        "title": "九毛九再推大众化新品牌，进军贵州酸汤火锅",
        "docid": "7329469890501394959",
        "url": ""
    },
    {
        "title": "神秘组织天津大麻花，没人买却走遍全国，是人贩子还是间谍？",
        "docid": "7311631956059226634",
        "url": ""
    },
    {
        "title": "吃生菜，白菜都不如吃它，一控血糖，二促排便，三润肺祛燥",
        "docid": "7306417695246352946",
        "url": ""
    },
    {
        "title": "买尖椒时，如何区分辣不辣？菜农：辣不辣看“3处”，别挑错了",
        "docid": "7301625086904189494",
        "url": ""
    },
    {
        "title": "好物分享｜过年想做卤肉的请收藏，分享用了几十年的配方，出锅十里飘香",
        "docid": "7329719800920523299",
        "url": ""
    },
    {
        "title": "有人问我买那么多小鲫鱼怎么吃呢？我今天就说下我自己的做法。",
        "docid": "7309058756858692133",
        "url": ""
    },
    {
        "title": "烟叶呛人，为什么卷烟却很香？烟草公司不会告诉你的秘密！",
        "docid": "7326819062984540713",
        "url": ""
    },
    {
        "title": "女人每周坚持喝1碗，胜过10张面膜！润肤美颜，更显年轻！",
        "docid": "7297805513251832335",
        "url": ""
    },
    {
        "title": "超养生的营养豆浆、米糊合集！9种做法！",
        "docid": "7303685913689981480",
        "url": ""
    },
    {
        "title": "预算4000+，半自动咖啡机打造1㎡意大利风情咖啡角",
        "docid": "7329822408155464242",
        "url": ""
    },
    {
        "title": "今年打算过一个不一样的年！",
        "docid": "7329733214892016162",
        "url": ""
    },
    {
        "title": "李铭顺在新加坡做盆菜，你敢尝试吗",
        "docid": "7329943779836756518",
        "url": ""
    },
    {
        "title": "担心外面饼不干净，建议自己动手！分享6道做法，赶紧收藏起来",
        "docid": "7326554549106573843",
        "url": ""
    },
    {
        "title": "笑不活了！反预制菜成餐厅新卖点，网友回复小心是个噱头！",
        "docid": "7329163025091838498",
        "url": ""
    },
    {
        "title": "完美复刻这款网红“豆腐汤”丨“闵”朝吃啥",
        "docid": "7329863503462990347",
        "url": ""
    },
    {
        "title": "茶毫很小，功效却很大",
        "docid": "7329322123305320972",
        "url": ""
    },
    {
        "title": "6款好喝不酸的速溶黑咖啡",
        "docid": "7322676875183456822",
        "url": ""
    },
    {
        "title": "70岁退休厨师长，教了我10个做菜的技巧，学会后让我厨艺大增",
        "docid": "7311309186313978380",
        "url": ""
    },
    {
        "title": "北海烹协黄宗君会长等领导大力支持 黎法艺大师厨艺事业突飞猛进",
        "docid": "7329689442866971136",
        "url": ""
    },
    {
        "title": "这群人吃遍全世界，最后发现哪也比不过澳洲！这份最让人念念不忘",
        "docid": "7329405944160272906",
        "url": ""
    },
    {
        "title": "特色年货推陈创新频频“吸睛” 消费市场活力四射、新潮澎湃",
        "docid": "7329727122674336292",
        "url": ""
    },
    {
        "title": "才知道，炒花生米不能先放油，教你绝招，又香又脆，放半年不回软",
        "docid": "7301671999297126927",
        "url": ""
    },
    {
        "title": "甄选“好物” |尝一口榴莲饼唇齿留香 越南榴莲饼在三亚年货节热销",
        "docid": "7329875281601856038",
        "url": ""
    },
    {
        "title": "价值3000的上海生煎包商用做法配方免费分享给大家适合摆摊做早餐",
        "docid": "7308656252459188773",
        "url": ""
    },
    {
        "title": "糖葫芦也要这么卷了吗？",
        "docid": "7305078873950192138",
        "url": ""
    },
    {
        "title": "茅台和红旗联手今日头条推出拜年活动，简单无脑，保底收入9.9",
        "docid": "7328215060349157951",
        "url": ""
    },
    {
        "title": "响油芦笋，清脆好味道！",
        "docid": "7329896042294493732",
        "url": ""
    },
    {
        "title": "读书、喝茶，学会释怀，万般自在",
        "docid": "7320039095811064331",
        "url": ""
    },
    {
        "title": "自己做炸藕合，一点也不难",
        "docid": "7329814300967977506",
        "url": ""
    },
    {
        "title": "灌的腊肠又硬又难吃？老奶奶教我“秘方”，香肠软糯醇厚，吃着香",
        "docid": "7308916586726015539",
        "url": ""
    },
    {
        "title": "冬天没事干的时候就霍霍面粉吧，给大家分享几款特别好吃的面点！",
        "docid": "7298654194691883557",
        "url": ""
    },
    {
        "title": "为什么说：“宁愿请一人吃饭，不要同请一群人”？原因值得深思！",
        "docid": "7297626701012419087",
        "url": ""
    },
    {
        "title": "熬猪油，只放盐是外行，切记多放2样，又白又香没腥味，久放不坏",
        "docid": "7302229093037130259",
        "url": ""
    },
    {
        "title": "常见橙子的区别及口感",
        "docid": "7318987779541697024",
        "url": ""
    },
    {
        "title": "不管蒸啥菜，切忌直接加面粉，教你1招，鲜香美味不成坨",
        "docid": "7296780782545420852",
        "url": ""
    },
    {
        "title": "合肥最受欢迎的10家老字号面馆！",
        "docid": "7319114876108948022",
        "url": ""
    },
    {
        "title": "请山东朋友吃天津菜，4道菜270元，朋友却说不值，大家看看咋样？",
        "docid": "7298980187310506511",
        "url": ""
    },
    {
        "title": "中医教你煮中药奶茶，好喝又健康！",
        "docid": "7316314806515188224",
        "url": ""
    },
    {
        "title": "酱爆鸭片、焦溜丸子、现烤披萨……北京高铁盒饭上新",
        "docid": "7329702662273565210",
        "url": ""
    },
    {
        "title": "山东最被忽略的美食之城，如何重新定义了鲁菜？",
        "docid": "7305959858493637170",
        "url": ""
    },
    {
        "title": "背靠茅台17分钟售罄1800瓶  台源酒如何破局大众酱酒",
        "docid": "7329474126891270683",
        "url": ""
    },
    {
        "title": "月销量9999+的“爽文外卖”，到底是谁在开？",
        "docid": "7327188382256251455",
        "url": ""
    },
    {
        "title": "让外省朋友闻风丧胆的广东菜白切鸡，网友：难以下口，不会做菜！",
        "docid": "7326823691579474486",
        "url": ""
    },
    {
        "title": "猪肉30一斤时候，回锅肉从25涨到35，现在猪肉15，回锅肉还是35",
        "docid": "7327342078994743858",
        "url": ""
    },
    {
        "title": "湖南大姐哭诉才做好的菜，直接被上海儿媳妇扔掉了，网友却笑喷了",
        "docid": "7297050312500724278",
        "url": ""
    },
    {
        "title": "几年前风靡全国的驴肉火烧，为何被打入“冷宫”了？是变难吃了吗",
        "docid": "7320879552098697763",
        "url": ""
    },
    {
        "title": "经常做饭的人，一定要收藏",
        "docid": "7329856361892807220",
        "url": ""
    },
    {
        "title": "中国厨神无保留，分享绝密配方，赠送给有缘人，先收藏起来",
        "docid": "7300931907087417906",
        "url": ""
    },
    {
        "title": "河北大妈来上海，吃了一顿“天价菜”怀疑被宰，评论区却一边倒",
        "docid": "7329426897912316450",
        "url": ""
    },
    {
        "title": "感谢江西的朋友，这也太好吃了。",
        "docid": "7317903446848782898",
        "url": ""
    },
    {
        "title": "怎样选择好吃的猪肉？",
        "docid": "7301106292104577570",
        "url": ""
    },
    {
        "title": "冻久了的牛羊肉不能吃，会致癌？肉冻多久不能吃？告诉你答案",
        "docid": "7329864869447156264",
        "url": ""
    },
    {
        "title": "这5种茶不要再买了，品质一个不如一个，全都是垃圾！",
        "docid": "7313834831145124367",
        "url": ""
    },
    {
        "title": "打卡上海老字号，寻找《繁花》中排骨年糕的味道！",
        "docid": "7329866269317612044",
        "url": ""
    },
    {
        "title": "家里有糯米粉就能做成的美食，糯叽叽的超好吃，新手一次就能成功",
        "docid": "7314577866295951906",
        "url": ""
    },
    {
        "title": "靓虾“火”出国  “湛品”正出圈",
        "docid": "7329771900002042420",
        "url": ""
    },
    {
        "title": "剑南春携手国博、紫金山天文台，举杯美酒，共话苍穹！",
        "docid": "7329855388043084323",
        "url": ""
    },
    {
        "title": "吃醋不为人知的7大好处",
        "docid": "7328414770351063586",
        "url": ""
    },
    {
        "title": "济南记事｜卤水点豆腐",
        "docid": "7329770655132893734",
        "url": ""
    },
    {
        "title": "盒马奥莱、叮咚奥莱、奥乐齐……九里亭居民，备年货啦！",
        "docid": "7329790682863141385",
        "url": ""
    },
    {
        "title": "苏州老面馆里的“堂倌”",
        "docid": "7327100059047166514",
        "url": ""
    },
    {
        "title": "医生提醒：西红柿炒鸡蛋，尽量不要放“此物”，很多人都做错了！",
        "docid": "7309784249657016841",
        "url": ""
    },
    {
        "title": "老两口晚餐只有2个菜，都是蒸蒸煮煮，网友直夸：太养生了",
        "docid": "7319884473146360372",
        "url": ""
    },
    {
        "title": "菜市场中的4样“造假重灾区”，买过你就是“冤种”，看看都是啥",
        "docid": "7329439322573898250",
        "url": ""
    },
    {
        "title": "颜值高的12道菜，简单易学，过年露一手，都夸你厨艺好！",
        "docid": "7329062780462481955",
        "url": ""
    },
    {
        "title": "清洗猪大肠，切忌用食盐，三十年猪肉贩教你巧用这2样，不发腥",
        "docid": "7297902542598619663",
        "url": ""
    },
    {
        "title": "梅州不可错过的5道经典名菜，每一道都是人气之选，你尝过几种？",
        "docid": "7329750040200004136",
        "url": ""
    },
    {
        "title": "首家中法合资企业让酒香飘向世界",
        "docid": "7329797514721935909",
        "url": ""
    },
    {
        "title": "冬日必备！香甜营养的桂圆汤圆酒酿鸡蛋汤",
        "docid": "7329896029275619851",
        "url": ""
    },
    {
        "title": "连喝两周，都觉得自己红光满面，气血好了，赶紧收藏起来",
        "docid": "7307224527455404555",
        "url": ""
    },
    {
        "title": "在家做烤肉，腌肉腌到位了，怎么做都好吃！",
        "docid": "7316754340466082345",
        "url": ""
    },
    {
        "title": "终于有人把蒸东西时间表整理出来了，妈妈一定要收藏下来看看",
        "docid": "7329940868222288393",
        "url": ""
    },
    {
        "title": "炖酸菜牢记“3放3不放”，出锅又酸又脆，香的不得了！别再放错了",
        "docid": "7315259447268508194",
        "url": ""
    },
    {
        "title": "因便宜惨遭嫌弃的5大光瓶酒，酒质却出奇好，全是老酒客的心头宝",
        "docid": "7299028324238524947",
        "url": ""
    },
    {
        "title": "上海市的特产大全",
        "docid": "7303608289169015330",
        "url": ""
    },
    {
        "title": "被开除“酒籍”的四川白酒，曾是国内第一，如今连名字都留不下来",
        "docid": "7316860184385585675",
        "url": ""
    },
    {
        "title": "火锅这层煮出来的浮沫，到底是精华还是脏东西？要不要撇去？",
        "docid": "7301125677573636662",
        "url": ""
    },
    {
        "title": "苹果+它一起煮，效果很大，一润肺，二养胃，三排毒，四补血",
        "docid": "7302813111667917353",
        "url": ""
    },
    {
        "title": "生吃降火，熟吃健脾！10元5斤，每天吃一点，作用真大，别不懂吃",
        "docid": "7312809493090419241",
        "url": ""
    },
    {
        "title": "杀年猪，何以成为统一中国人新年的头等大事？",
        "docid": "7329394743107633699",
        "url": ""
    },
    {
        "title": "河南省各市的特产大全",
        "docid": "7303477624130273832",
        "url": ""
    },
    {
        "title": "我决定了…以后汤圆就这么吃！",
        "docid": "7327108243703743028",
        "url": ""
    },
    {
        "title": "雄关漫道真如铁 而今迈步从头越——劲牌有限公司2023年度社会责任报告",
        "docid": "7329432807011566119",
        "url": ""
    },
    {
        "title": "新春观察丨潍坊餐饮业强势复苏，年夜饭预订“一厢难求”",
        "docid": "7329771369309176383",
        "url": ""
    },
    {
        "title": "甄选“好物”｜买就送！贵州烟熏腊肉、上官佛跳墙在三亚年货节热卖",
        "docid": "7329777384163852852",
        "url": ""
    },
    {
        "title": "一半市井，一半腔调，静安“巨富长”到底有多嗲？",
        "docid": "7329753519300002358",
        "url": ""
    },
    {
        "title": "“鳝”行天下！仙桃人的年夜饭，必须得有它",
        "docid": "7329852952356078092",
        "url": ""
    },
    {
        "title": "龙腾新禧 贺岁宝丰|宝丰酒业杞县客户答谢会圆满落幕！",
        "docid": "7329790507821974025",
        "url": ""
    },
    {
        "title": "湖湘自然历｜如此多“椒”④湖南最会做生意的人，爱吃什么辣椒？",
        "docid": "7312631236386832931",
        "url": ""
    },
    {
        "title": "甘肃地产白酒的争夺战，金徽、九粮液、红川酒上演“三国演义”",
        "docid": "7300963245236716043",
        "url": ""
    },
    {
        "title": "价值几万的甜点方子！酥到掉渣，记得偷偷学！",
        "docid": "7329341765096997402",
        "url": ""
    },
    {
        "title": "大凉山餐桌上的争议：为何不换个干净些的桌子",
        "docid": "7329827642592002612",
        "url": ""
    },
    {
        "title": "炸肉丸子，谨记“2不放、加3样”，丸子外酥里软，放凉也不硬",
        "docid": "7308608637906928167",
        "url": ""
    },
    {
        "title": "你觉得最难吃的水果是什么？我努力的想咽下去，结果竟然吐了",
        "docid": "7297622933810283045",
        "url": ""
    },
    {
        "title": "这个配方绝了！！",
        "docid": "7304985082379600403",
        "url": ""
    },
    {
        "title": "抽一口要两万元，一支能卖782万元！高端雪茄到底凭什么这么贵？",
        "docid": "7306089868231328295",
        "url": ""
    },
    {
        "title": "五粮液系列酒那么多，常见的高端酒却只有3种，买酒可要擦亮眼睛",
        "docid": "7309293547462230555",
        "url": ""
    },
    {
        "title": "全国哪里的“烧鸡”好吃？经过评比，这5只鸡上榜，有你家乡吗",
        "docid": "7311996630306570802",
        "url": ""
    },
    {
        "title": "六个人去广州白天鹅喝茶，结账时不敢相信价格，差点吃霸王餐！",
        "docid": "7318176096967541287",
        "url": ""
    },
    {
        "title": "超市里很“脏”的5种特价食品，无论再怎么打折，也不要轻易购买",
        "docid": "7302335244466962955",
        "url": ""
    },
    {
        "title": "卤货店里的卤货越来越贵，已经不是普通百姓能消费的起的了",
        "docid": "7302705406827184675",
        "url": ""
    },
    {
        "title": "陪酒女为了赚小费，直接吹下一整瓶洋酒，现实！为了挣钱不容易！",
        "docid": "7329103611235992101",
        "url": ""
    },
    {
        "title": "鱼冻，穷人家的美食",
        "docid": "7298255759216312842",
        "url": ""
    },
    {
        "title": "不建议购买的四种海鲜，满满的“科技与狠活”，个个都非常坑钱",
        "docid": "7307824823110156850",
        "url": ""
    },
    {
        "title": "一分钟看完中国六大茶系",
        "docid": "7296993030396019263",
        "url": ""
    },
    {
        "title": "以前2毛一个，如今却成为厨余垃圾，为什么啤酒厂不回收啤酒瓶了?",
        "docid": "7302284811274715659",
        "url": ""
    },
    {
        "title": "高端食材的价格，被这群浙江人打下来了",
        "docid": "7325986780887417355",
        "url": ""
    },
    {
        "title": "几十年的辣椒油配方！拜托…传下去！",
        "docid": "7325008510230938166",
        "url": ""
    },
    {
        "title": "海南省著名的十大小吃",
        "docid": "7315607402731160098",
        "url": ""
    },
    {
        "title": "买排骨，“前排”“中排”“后排”差别很大，弄懂了，少花冤枉钱",
        "docid": "7314163957592523299",
        "url": ""
    },
    {
        "title": "老北京喝酒“怪象”：高不喝茅台，低不喝牛栏山，唯爱这4款酒！",
        "docid": "7319758006755836479",
        "url": ""
    },
    {
        "title": "日本人开始流行白开水，咖啡厅应景“究极工匠白开水”，3杯500",
        "docid": "7329179519641109031",
        "url": ""
    },
    {
        "title": "以后鱼就这么做！巨好吃！",
        "docid": "7293785573418877475",
        "url": ""
    },
    {
        "title": "藏红花虽小，作用却大，关于藏红花的食用禁忌，喝之前或提前了解",
        "docid": "7310197056474661439",
        "url": ""
    },
    {
        "title": "一年卖80亿，都知道13元一瓶老村长是酒精酒，为啥还这么受欢迎？",
        "docid": "7322418029341147674",
        "url": ""
    },
    {
        "title": "我妈做了几十年的辣椒油！拜托…传下去！",
        "docid": "7305696760184488488",
        "url": ""
    },
    {
        "title": "顾客称少吃一只蛙，餐厅老板将骨头拼凑证清白，对方看完哑口无言",
        "docid": "7328249788867330598",
        "url": ""
    },
    {
        "title": "超市热销的6款啤酒，全是麦芽酒花精酿，每款都是老酒客的心头宝",
        "docid": "7322865457554424357",
        "url": ""
    },
    {
        "title": "5000单90秒售罄，身价倍涨！董宇辉到底说了什么，网友为情怀买单",
        "docid": "7329382527221711396",
        "url": ""
    },
    {
        "title": "上海的咖啡已经进化成这样了吗 ​",
        "docid": "7327597255786119743",
        "url": ""
    },
    {
        "title": "饺子馅能不能放蚝油？牢记“4放3不放”，饺子香嫩多汁，好吃不腻",
        "docid": "7304497047020159542",
        "url": ""
    },
    {
        "title": "被齐齐哈尔烤肉震惊到了！台湾网友：吃这一桌，我要先去办贷款",
        "docid": "7327689370436698651",
        "url": ""
    },
    {
        "title": "第一次在广州白天鹅喝茶，一根油条价格你绝对想象不到。",
        "docid": "7319388692777452073",
        "url": ""
    },
    {
        "title": "尔滨飘了？冰淇淋40一个，被媒体怒批后依然不愿下调价格",
        "docid": "7329773715665748516",
        "url": ""
    },
    {
        "title": "知名水饺被曝“造假”，已售出140万包！快检查下你家冰箱",
        "docid": "7329793792314458678",
        "url": ""
    },
    {
        "title": "霸王茶姬，劲儿太大了",
        "docid": "7328245800969044519",
        "url": ""
    },
    {
        "title": "远嫁江西女子晒“婆家晚餐”火了，妈妈喊话：回来吧，这可怎么吃",
        "docid": "7324585497844826687",
        "url": ""
    },
    {
        "title": "上海人最爱的油墩子“超级进化”了？辣肉馅、大肠馅、虾仁馅…网友直呼受不了！",
        "docid": "7329500981602877993",
        "url": ""
    },
    {
        "title": "曾经风靡的乌苏啤酒，为啥现在不火了？饭店老板：4个原因很现实",
        "docid": "7302739701646279203",
        "url": ""
    },
    {
        "title": "白人饭到底多难吃？让回国的留学生饥不择食，看完评论区菜单悟了",
        "docid": "7326460119166927369",
        "url": ""
    },
    {
        "title": "常见食品添加剂",
        "docid": "7316269127491043851",
        "url": ""
    },
    {
        "title": "董宇辉年夜饭后吐真言，几度哽咽，透露为人处世的原则",
        "docid": "7329449291775705663",
        "url": ""
    },
    {
        "title": "一润肺，二养心，三排毒，四通肠胃，遇到买20斤，晒干后随吃随拿",
        "docid": "7292632316579430964",
        "url": ""
    },
    {
        "title": "掌握了这些酱汁配方，让你做菜不再困难",
        "docid": "7325639756312969755",
        "url": ""
    },
    {
        "title": "河南周口最出名的六大名菜",
        "docid": "7297449577622454784",
        "url": ""
    },
    {
        "title": "为啥会有人相信冰糖雪梨能止咳？",
        "docid": "7314982469521441320",
        "url": ""
    },
    {
        "title": "建议老年人：不要太节俭，少吃南瓜多吃这5样，高蛋白低脂又美味",
        "docid": "7307438668229427763",
        "url": ""
    },
    {
        "title": "真以为上海人泡饭都能吃出腔调？那只是香港人对上海人的胡思乱想",
        "docid": "7323166430458511872",
        "url": ""
    },
    {
        "title": "产于1954：现存最早一瓶茅台酒的前生今世",
        "docid": "7329371307609670159",
        "url": ""
    },
    {
        "title": "6款百元内的优质白酒，便宜好喝不上头，可以“闭眼入”",
        "docid": "7314516486515671606",
        "url": ""
    },
    {
        "title": "80年代最怀旧的零食，吃过五种的都老了，最后一个你知道名字吗？",
        "docid": "7302711315179667980",
        "url": ""
    },
    {
        "title": "她是一个32岁的女人， 坐地铁下班，在地铁上全程观看家中的摄像头",
        "docid": "7297366619167441423",
        "url": ""
    },
    {
        "title": "央视已曝光，警惕黑作坊红薯粉条，如何分辨好的红薯粉条呢？",
        "docid": "7302309607782433290",
        "url": ""
    },
    {
        "title": "做水蒸蛋时，别傻傻只会加水，多加“这一勺”，又滑又嫩还不腥",
        "docid": "7326103210401088040",
        "url": ""
    },
    {
        "title": "被丈夫抛弃，卖水饺谋生，这个山东女人年入60亿，比肩“老干妈”",
        "docid": "7309090571518329398",
        "url": ""
    },
    {
        "title": "买牛腱子肉妙招：据肉店老板说 前腱和后腱肉口感差很多 早懂早受益",
        "docid": "7317444142311817739",
        "url": ""
    },
    {
        "title": "到底谁发现的喝法",
        "docid": "7304481026561131045",
        "url": ""
    },
    {
        "title": "一辈子记住的卤肉技巧",
        "docid": "7297151154264392244",
        "url": ""
    },
    {
        "title": "心脏决定寿命！建议中老年人：别太节俭，多吃这8样，越吃越年轻",
        "docid": "7309413710362329652",
        "url": ""
    },
    {
        "title": "陈皮茶的经典搭配",
        "docid": "7303690703685665291",
        "url": ""
    },
    {
        "title": "洋葱加白醋泡一泡，没想到这么厉害，吃了3天管用，就服老辈做法",
        "docid": "7319887902858068491",
        "url": ""
    },
    {
        "title": "广西男子到河南，同学请客吃饭，菜品上桌后，男子疑惑：这咋吃",
        "docid": "7315716093564731967",
        "url": ""
    },
    {
        "title": "“锅和勺就是我的命 停不下来了”",
        "docid": "7330064384154960424",
        "url": ""
    },
    {
        "title": "现用的高压锅已经20多年了，炖肉、熬粥、烙饼样样行，真是杠杠滴",
        "docid": "7317107980833915407",
        "url": ""
    },
    {
        "title": "襄阳人1天喝掉50吨！这家人做了百年！",
        "docid": "7329439661184025123",
        "url": ""
    },
    {
        "title": "它是鱼腥味的死对头！炖鱼时放1勺，鱼肉更加鲜嫩，鱼腥味全无",
        "docid": "7301638256687465010",
        "url": ""
    },
    {
        "title": "气血不足，建议多吃这4种补血又不上火的食物，增免疫补足气血",
        "docid": "7316863552055411241",
        "url": ""
    },
    {
        "title": "90后理工男卖牛肉，5年开店超100家，获得近亿元融资",
        "docid": "7329119017053979146",
        "url": ""
    },
    {
        "title": "下一周的晚餐我已安排妥当，你说这标准可以不？",
        "docid": "7311244527543517759",
        "url": ""
    },
    {
        "title": "记忆中的年味",
        "docid": "7329028640820576794",
        "url": ""
    },
    {
        "title": "不管炖啥鱼，只放葱姜蒜就错了，多放2味调料，鱼肉不腥入味好吃",
        "docid": "7318679070529782299",
        "url": ""
    },
    {
        "title": "全部检出致癌物！很多人常喝……",
        "docid": "7310060074582491688",
        "url": ""
    },
    {
        "title": "七大“最脏”外卖，外卖小哥都看不下去，最后一种年轻人最爱！",
        "docid": "7323471113047458315",
        "url": ""
    },
    {
        "title": "南方人第一次逛云南菜市场，打开新世界，一个菜也不认识，很好奇",
        "docid": "7314679921342349887",
        "url": ""
    },
    {
        "title": "这4大“健康杀手”，致癌又伤身！就藏在你家的......",
        "docid": "7329540851372753449",
        "url": ""
    },
    {
        "title": "爱吃鱼的看过来，让你一周都不重复，看了都流口水！",
        "docid": "7303880014343193127",
        "url": ""
    },
    {
        "title": "古时候，普通人每天吃什么？放到现代，你可能一口都咽不下去",
        "docid": "7312412512291553827",
        "url": ""
    },
    {
        "title": "怎样挑选甜蜜好吃的柚子？",
        "docid": "7297034585693815348",
        "url": ""
    },
    {
        "title": "它是“穷人的阿胶”，每天吃3颗胜过1只老母鸡，滋补气血又养颜",
        "docid": "7325267552379552310",
        "url": ""
    },
    {
        "title": "五个女子晒早餐，同样是男友做的，网友：没有对比就没有伤害",
        "docid": "7310428068802232832",
        "url": ""
    },
    {
        "title": "承包你一个月的午餐！家常快手，营养美味，10分钟搞定，赶紧收藏",
        "docid": "7320231808199836198",
        "url": ""
    },
    {
        "title": "中国牛肉面的天花板，不在西北在湖北",
        "docid": "7322647652213031451",
        "url": ""
    },
    {
        "title": "被称为“垃圾食品”，方便面又不是军粮，为何救灾食品中总有它？",
        "docid": "7314555496135180800",
        "url": ""
    },
    {
        "title": "我国哪里的包子最好吃？经对比，6个地方榜上有名，你知道几个？",
        "docid": "7323480423467369012",
        "url": ""
    },
    {
        "title": "陕西人喝酒必上的五道“硬菜”，本地人离不开，外地人尝过都说好",
        "docid": "7301905383562428968",
        "url": ""
    },
    {
        "title": "女子喝了一杯外卖奶茶后头晕心慌，竟是店主添加了……",
        "docid": "7300766460643770906",
        "url": ""
    },
    {
        "title": "两个北方人来广州出差，在当地吃个饭，结账时大眼瞪小眼，高消费",
        "docid": "7327548021477130806",
        "url": ""
    },
    {
        "title": "超市临期的牛奶都去哪了？多亏超市朋友告知，别一直蒙在鼓里了！",
        "docid": "7299360541104816666",
        "url": ""
    },
    {
        "title": "哈尔滨，你的底线呢",
        "docid": "7318924444255257129",
        "url": ""
    },
    {
        "title": "一护眼，二通便，三养颜，四强免疫，买35斤晒干，凉拌炒菜都好吃",
        "docid": "7321950647962616359",
        "url": ""
    },
    {
        "title": "世界上排名前十的洋酒品牌，你喝过几种？",
        "docid": "7303831437235765811",
        "url": ""
    },
    {
        "title": "上海一家六口的晚餐，在朋友圈火了，网友：求蹭饭",
        "docid": "7328330528082477608",
        "url": ""
    },
    {
        "title": "过年不用忙，这5道菜提前准备好，来客人切一切，上桌就是大菜",
        "docid": "7327622964386808335",
        "url": ""
    },
    {
        "title": "被称为“通便王”的4种食物，建议隔天食用，润肠排毒，一身轻松",
        "docid": "7316468168984199732",
        "url": ""
    },
    {
        "title": "野战部队都不能例外，为什么只有中国人，这么执著于炒糖色？",
        "docid": "7310532566024405514",
        "url": ""
    },
    {
        "title": "四川农村的宴席，600元一桌能吃16荤6素。",
        "docid": "7300807641310282250",
        "url": ""
    },
    {
        "title": "山西百家醋企，竟然比不过镇江一个恒顺？（紫林、水塔、东湖）",
        "docid": "7317576393515205120",
        "url": ""
    },
    {
        "title": "内地网红店“横扫”香港：本地3万家餐饮店，快被打懵了！",
        "docid": "7328729984506790452",
        "url": ""
    },
    {
        "title": "一个肠粉店一天能挣多少钱？",
        "docid": "7297800018654970395",
        "url": ""
    },
    {
        "title": "常见牛肉的区别及特点",
        "docid": "7317119580059615784",
        "url": ""
    },
    {
        "title": "北方“最尴尬”的五种饺子，当地人的心头爱，离开本地混不下去",
        "docid": "7301529939025936896",
        "url": ""
    },
    {
        "title": "原来每个省都有自己逃不掉的过年“噩梦”！网友：宁愿挨饿也不吃",
        "docid": "7329741863437926964",
        "url": ""
    },
    {
        "title": "它是“天然钙片”，比牛奶便宜，每周三次，强健骨骼，利肺豁痰！",
        "docid": "7321700964539302410",
        "url": ""
    },
    {
        "title": "跟风点了一杯，真的好喝。",
        "docid": "7329292337791025702",
        "url": ""
    },
    {
        "title": "剩菜盲盒，俘获打工人",
        "docid": "7330054954331210266",
        "url": ""
    },
    {
        "title": "春日尝鲜图鉴！春天常见野菜合集",
        "docid": "7330083413234287156",
        "url": ""
    },
    {
        "title": "饭店里不卫生的3道菜，很多人必点！但是饭店员工一般不吃",
        "docid": "7301624090668925490",
        "url": ""
    },
    {
        "title": "一个人喝茶，喝的是什么？",
        "docid": "7297853051451376180",
        "url": ""
    },
    {
        "title": "千层戗面馒头，会做的人越来越少了，整理了详细做法，家庭做实用",
        "docid": "7298269867302961699",
        "url": ""
    },
    {
        "title": "木耳在家放久了还能继续吃吗？干木耳有保质期吗？医生说出答案",
        "docid": "7322978930141528616",
        "url": ""
    },
    {
        "title": "这4种蔬菜比牛奶补钙，年纪越大越要吃，腿脚更有力，别舍不得吃",
        "docid": "7309659824608870975",
        "url": ""
    },
    {
        "title": "四川人怒了：“要把你吊起来打三天三夜吗？”我却笑死在评论区里",
        "docid": "7322623521673642547",
        "url": ""
    },
    {
        "title": "香晕了！已经连续吃了三晚 ​～太太好吃",
        "docid": "7328374207552733705",
        "url": ""
    },
    {
        "title": "“解毒王”找到啦，记得使劲吃，一祛燥热，二清肝火，三消炎抗菌",
        "docid": "7297933895491060258",
        "url": ""
    },
    {
        "title": "曾是公认“干果刺客”，结果期长达千年，现在80元1斤却无人问津",
        "docid": "7309050382666383899",
        "url": ""
    },
    {
        "title": "喝茶别再只会夸“好喝”了，学会这5个专业词汇，让你小白变高手",
        "docid": "7300839838734189106",
        "url": ""
    },
    {
        "title": "谁说百元以下无好酒？这三款光瓶好酒便宜还好喝，可惜少有人知",
        "docid": "7314624583519928843",
        "url": ""
    },
    {
        "title": "广州！靠本地人带路才吃到的一家宝藏。。。哈哈哈好像香焦汤",
        "docid": "7298490940002533903",
        "url": ""
    },
    {
        "title": "九道精致小腌菜",
        "docid": "7319656595426738723",
        "url": ""
    },
    {
        "title": "大鱼大肉都不如这些菜，比骨头汤还补钙，含钙量很高，增免疫",
        "docid": "7322752539769274891",
        "url": ""
    },
    {
        "title": "合肥最好吃的饭店",
        "docid": "7305384797747413556",
        "url": ""
    },
    {
        "title": "牛肉的各个部位叫啥咋吃大全来啦",
        "docid": "7309862298032931328",
        "url": ""
    },
    {
        "title": "水煮虾，用冷水还是开水？方法用错了，难怪虾肉又老又柴，还很腥",
        "docid": "7312322343115129396",
        "url": ""
    },
    {
        "title": "救命找不到比它们还好吃的泡面了…封神！香迷糊了",
        "docid": "7311901197814989321",
        "url": ""
    },
    {
        "title": "承包你一个月的晚餐，再也不用为晚上吃什么发愁了，赶紧收藏？",
        "docid": "7317236347734131250",
        "url": ""
    },
    {
        "title": "我分享一下我最爱的这63道家常菜！你看看是不是你们最爱的！",
        "docid": "7321378453423587876",
        "url": ""
    },
    {
        "title": "同样是香菇，“平滑”和“有裂口”哪个好！区别很大，别再乱买了",
        "docid": "7297836599583359540",
        "url": ""
    },
    {
        "title": "当北方人第一次来广州吃烧鹅，看到这场面真的眼睛都大了！",
        "docid": "7320571287184228918",
        "url": ""
    },
    {
        "title": "米汤是孩子的人参汤，妈妈们一定要会熬！",
        "docid": "7320631613015327266",
        "url": ""
    },
    {
        "title": "七十年代去“下馆子”，2块钱在饭店都能吃些啥？满满都是回忆！",
        "docid": "7317919250235064866",
        "url": ""
    },
    {
        "title": "中老年人多吃4道“补铁菜”，气血足，精力旺，身体更健康",
        "docid": "7329076850951897611",
        "url": ""
    },
    {
        "title": "清洗草莓，有人用盐有人用面粉！老果农：都不对，这样洗会更干净",
        "docid": "7325343114469310976",
        "url": ""
    },
    {
        "title": "一日本饮料每年在中国捞金65亿，却被误认是国产品牌，你可能喝过",
        "docid": "7328616350463787559",
        "url": ""
    },
    {
        "title": "年纪大了要舍得吃！这3种肉比牛肉强，越吃越健康",
        "docid": "7297954063474524708",
        "url": ""
    },
    {
        "title": "胃好三分治七分养，多吃几种“养胃之宝”，健脾养胃，提高免疫力",
        "docid": "7314299620946657819",
        "url": ""
    },
    {
        "title": "炒菜时，不能放葱姜蒜的4种菜，很多人都不知道，看完涨知识了",
        "docid": "7317118854843810345",
        "url": ""
    },
    {
        "title": "河北邯郸六大名菜排行，你尝过几道？",
        "docid": "7298976081741185570",
        "url": ""
    },
    {
        "title": "逛菜市场时，这几样东西最好别买，基本都是假的，买了就上当",
        "docid": "7309666002198020623",
        "url": ""
    },
    {
        "title": "付费19000元学来的炸串技术，酱料是一绝，配方精准到克",
        "docid": "7319702073866912275",
        "url": ""
    },
    {
        "title": "宁波最经典的家常菜",
        "docid": "7316330002625348136",
        "url": ""
    },
    {
        "title": "广西最怪三道菜，外地人看了直摇头，本地人表示吃不够",
        "docid": "7321581131554423305",
        "url": ""
    },
    {
        "title": "贪官受贿上亿 出镜忏悔 我却笑死在一茅五的评论区",
        "docid": "7329727239720600101",
        "url": ""
    },
    {
        "title": "脂肪最害怕的“碱性菜”，一周吃2次，小肚子偷偷的没了，身材棒",
        "docid": "7307054055988347403",
        "url": ""
    },
    {
        "title": "来湖北下馆子就点这6道菜，是“鄂菜之魂”，老板：一看就是行家",
        "docid": "7304863632091906598",
        "url": ""
    },
    {
        "title": "原来老祖宗才是最靠谱的带货主播！祖宗严选没带回的东西真不好吃",
        "docid": "7330074706151997988",
        "url": ""
    },
    {
        "title": "等我退休了…一定拿这个方子去摆摊卖卤味！",
        "docid": "7326752981297431055",
        "url": ""
    },
    {
        "title": "姐妹们，我懒出新高度了，却意外好吃。",
        "docid": "7312246161342022153",
        "url": ""
    },
    {
        "title": "腌酸菜时，别只知道加盐，学会3个技巧，不发霉不起沫，越放越香",
        "docid": "7306501341487333929",
        "url": ""
    },
    {
        "title": "适合新手做的16道家常菜，下班了安排上，建议收藏",
        "docid": "7297480510639555107",
        "url": ""
    },
    {
        "title": "同样是粗粮，一个叫大黄米，一个叫小米，有啥区别？涨知识了！",
        "docid": "7316434521262654015",
        "url": ""
    },
    {
        "title": "为什么车厘子听起来就比樱桃贵",
        "docid": "7330062066914656804",
        "url": ""
    },
    {
        "title": "奶奶传给我一道菜，顿顿饭都离不开。",
        "docid": "7309723663921267250",
        "url": ""
    },
    {
        "title": "爷爷的下酒菜。",
        "docid": "7300914704967500323",
        "url": ""
    },
    {
        "title": "红茶适合什么人喝？这4类人群最应该多喝，看看你是不是？",
        "docid": "7310138582524740159",
        "url": ""
    },
    {
        "title": "直言:武汉肉圆子排第二，全国就没有第一了",
        "docid": "7298622099227279887",
        "url": ""
    },
    {
        "title": "茶具知识",
        "docid": "7323830868491895322",
        "url": ""
    },
    {
        "title": "湖南省各市的特产大全",
        "docid": "7301746668221776424",
        "url": ""
    },
    {
        "title": "哇！太全了，茅台家族全系列变迁史，带你看懂茅台，果断收藏",
        "docid": "7329769252100293157",
        "url": ""
    },
    {
        "title": "18种手写配方，精准到克，牛杂的配方绝了，先收藏起来备用",
        "docid": "7312433158861881894",
        "url": ""
    },
    {
        "title": "中国最好吃的5种咸菜，3个在南方，2个在北方，有你吃过的吗？",
        "docid": "7322779197259514377",
        "url": ""
    },
    {
        "title": "真不愧是广东老板，服了。",
        "docid": "7328340576200458802",
        "url": ""
    },
    {
        "title": "终于有人把“喝酒划拳顺口溜”整理好了，赶紧收藏起来看看吧。",
        "docid": "7329531830041215540",
        "url": ""
    },
    {
        "title": "体脂率从38%-18%，让脂肪消失的好习惯",
        "docid": "7321991175626818089",
        "url": ""
    },
    {
        "title": "虾虾你就像我这样做，嘎嘎好吃嘎嘎香，朋友吃了都叫我原地开店~",
        "docid": "7329789023689245236",
        "url": ""
    },
    {
        "title": "太香了，分享6道让人流口水的炒面，营养又美味，全家都点赞",
        "docid": "7312270145005765132",
        "url": ""
    },
    {
        "title": "中国压缩饼干吃一块顶一天，它是用什么做成的，为什么这么抗饿？",
        "docid": "7302754385933632012",
        "url": ""
    },
    {
        "title": "165岁的“狗不理”包子，如今为何卖不动了？食客：你去看看价格",
        "docid": "7314196729635717686",
        "url": ""
    },
    {
        "title": "卖茶叶利润究竟有多大？280块钱一斤的茶叶，直接70块钱半斤搞定",
        "docid": "7308381337289818650",
        "url": ""
    },
    {
        "title": "腊月吃它胜过牛羊肉，一年也就吃一次，再贵也要舍得，营养又解馋",
        "docid": "7329341513643672103",
        "url": ""
    },
    {
        "title": "港媒：喝茅台还是白兰地？中国消费者口味正在变化，尤其是年轻人",
        "docid": "7324688724569129484",
        "url": ""
    },
    {
        "title": "买香油时，只要将香油瓶子倒过来，真假香油一晃便知，别买错了",
        "docid": "7323197211624636937",
        "url": ""
    },
    {
        "title": "同样是开心果，“黄壳”和“白壳”的区别很大！知道后别再乱买了",
        "docid": "7328211917590266422",
        "url": ""
    },
    {
        "title": "年初一，不管多缺钱也要摆的8种吉祥果，寓意财源广进，红红火火",
        "docid": "7327638943028576808",
        "url": ""
    },
    {
        "title": "它是蔬菜中的“黑马”，一补钙，二润肠，三抗老化，中老年要常吃",
        "docid": "7320436128761250323",
        "url": ""
    },
    {
        "title": "太搞笑了，外省人持有效证件可以在尔滨免费吃帝王蟹，评论区火了",
        "docid": "7329568740889100800",
        "url": ""
    },
    {
        "title": "我家吃了五十年的茄子咸菜，现在依然是难得的美味哦",
        "docid": "7327280463486157348",
        "url": ""
    },
    {
        "title": "来黑龙江下馆子就点这8道菜，有一道很少见，你吃过几道",
        "docid": "7315414995121439273",
        "url": ""
    },
    {
        "title": "我家的家常菜！就是这么简单！这九天的饭菜可以参考一下！",
        "docid": "7316457690250428964",
        "url": ""
    },
    {
        "title": "山东生活18年，洋女婿“雷哥”很地道",
        "docid": "7329348588457640499",
        "url": ""
    },
    {
        "title": "无论炖什么肉，只要锅里多加这“3味”料，肉越炖越香，特管用！",
        "docid": "7325815664194093605",
        "url": ""
    },
    {
        "title": "看到一茅五，以为是一毛五，原来是自己浅薄了。",
        "docid": "7329689442875359783",
        "url": ""
    },
    {
        "title": "吃自助餐，聪明人选择“3吃4不吃”，服务员：不是同行就是内行",
        "docid": "7301640727640015423",
        "url": ""
    },
    {
        "title": "这菜浑身是宝，才3元一斤，家家户户吃得起，增强免疫身体强壮！",
        "docid": "7316551848666759743",
        "url": ""
    },
    {
        "title": "一顿饭居然要198元，太贵了？！",
        "docid": "7320967980601492008",
        "url": ""
    },
    {
        "title": "4种“天然富钾”食物，建议中老年人多吃，精神足才能身体好",
        "docid": "7301321035654332947",
        "url": ""
    },
    {
        "title": "打卡深圳早茶的天花板——蘩楼，带娃体验岭南的早茶文化",
        "docid": "7329100332012290587",
        "url": ""
    },
    {
        "title": "9种防辐射食物，建议多吃，提高免疫力，身体倍儿棒",
        "docid": "7320512186899579401",
        "url": ""
    },
    {
        "title": "蔬菜“甲醛大户”被揪出？辨别蔬菜有技巧，这3点早知早受益！",
        "docid": "7319384036223287843",
        "url": ""
    },
    {
        "title": "《西游记》里的美食",
        "docid": "7299559473763320355",
        "url": ""
    },
    {
        "title": "宁可不吃肉，也要吃这5道“刮油菜”，营养饱腹，润肠通便",
        "docid": "7298518000964289043",
        "url": ""
    },
    {
        "title": "它比红薯通便，比山芋更养人，一周3次，改善消化不良，延缓衰老",
        "docid": "7325437311032836644",
        "url": ""
    },
    {
        "title": "自热米饭的米不是真大米",
        "docid": "7330134294578430473",
        "url": ""
    },
    {
        "title": "中国10种最好吃的早餐，最后一种没200块钱吃不到",
        "docid": "7309717848832754217",
        "url": ""
    },
    {
        "title": "建议大家都试试这几道甜品，真的巨巨巨…巨好吃",
        "docid": "7307562486276850176",
        "url": ""
    },
    {
        "title": "苍耳用过烤一烤，老祖宗留下来的土方法，解决很多人的问题，收藏",
        "docid": "7329759221384987171",
        "url": ""
    },
    {
        "title": "长得像葱，吃起来像韭，这种能让羊肉鲜而不膻的菜，好多人没吃过！",
        "docid": "7306377408553468456",
        "url": ""
    },
    {
        "title": "捞汁花甲，好吃到舔壳！这配方学会直接出去摆摊！",
        "docid": "7297198343858455049",
        "url": ""
    },
    {
        "title": "6道凉拌菜来了，凉拌菜这样做，真的是好吃到停不下来！",
        "docid": "7314264849679286825",
        "url": ""
    },
    {
        "title": "它是天然的“清肠食材”，富含氨基酸，每天坚持吃，补气又养颜",
        "docid": "7303942972393996811",
        "url": ""
    },
    {
        "title": "十大奢华巧克力品牌",
        "docid": "7322858089336783396",
        "url": ""
    },
    {
        "title": "吃葡萄干时，要不要洗一下？这次终于有答案了，听听新疆人怎么说",
        "docid": "7329918484413383222",
        "url": ""
    },
    {
        "title": "终于有人把喝酒的境界整理出来了，收藏看看你在哪一重？",
        "docid": "7329369711560081974",
        "url": ""
    },
    {
        "title": "中国最好吃的米粉，经评选，这5个地方较出名，其中有你家乡吗？",
        "docid": "7316717625223004713",
        "url": ""
    },
    {
        "title": "一张图秒懂：茅台品类和等级划分",
        "docid": "7329473967025275444",
        "url": ""
    },
    {
        "title": "我，在深圳打工被嫌弃，为了赚钱摆地摊卖米酒，今年1年赚了30万",
        "docid": "7314574784883409434",
        "url": ""
    },
    {
        "title": "同样是吃小麦，为何西方人烤成了面包，东方人却蒸成了馒头？",
        "docid": "7317497437558850060",
        "url": ""
    },
    {
        "title": "过年不想去饭店，6道蒸菜提前做好，来客人时蒸一蒸，省钱又好吃",
        "docid": "7327824847823077924",
        "url": ""
    },
    {
        "title": "各种拌料配方，收藏起来慢慢学",
        "docid": "7317957107889111562",
        "url": ""
    },
    {
        "title": "中国零食的“扛把子”，到底是如何炼成的？",
        "docid": "7296841963612914216",
        "url": ""
    },
    {
        "title": "浙江六大怪菜，外地人见了吓得三摇头，尝过之后连呼：哇塞好好吃",
        "docid": "7304180932024680975",
        "url": ""
    },
    {
        "title": "一个人也要好好吃饭哦，这些菜谱简单家常，新手也能轻松学会",
        "docid": "7300156938053141044",
        "url": ""
    },
    {
        "title": "东北人第一次“不迁就”南方小金豆，因为，这次触碰到他们底线了",
        "docid": "7330118489829130752",
        "url": ""
    },
    {
        "title": "中国最爱芋头的省份，能把芋头吃出多少花来？",
        "docid": "7328225339678065186",
        "url": ""
    },
    {
        "title": "听说这道菜是东北的命门？网友笑言：自信点儿，是整个北方",
        "docid": "7329563440119628322",
        "url": ""
    },
    {
        "title": "终于有人把“炖肉小妙招”整理好了，收藏看看，学会了你也是大厨",
        "docid": "7329793328973726208",
        "url": ""
    },
    {
        "title": "中国食用油标准！大家收藏备用，千万别买错咯",
        "docid": "7324901658364969506",
        "url": ""
    },
    {
        "title": "营养是猪肉的好几倍！没皮没骨头，口口都是肉，不懂吃可惜了",
        "docid": "7329715714569617920",
        "url": ""
    },
    {
        "title": "切记不能只求口感，面包店里4种面包不能买，面点师：内行人不吃",
        "docid": "7301193593145131532",
        "url": ""
    },
    {
        "title": "有什么是你在童年吃过的东西，令你念念不忘的？",
        "docid": "7297240238311850515",
        "url": ""
    },
    {
        "title": "舅舅靠这3个餐饮配方，两年时间还清50万，配方公开了",
        "docid": "7323425336971346441",
        "url": ""
    },
    {
        "title": "东北的表姐给的配方！一口下去直接被惊艳到了！",
        "docid": "7324512141225214516",
        "url": ""
    },
    {
        "title": "山东烟台最出名的六道名菜",
        "docid": "7297212423550026255",
        "url": ""
    },
    {
        "title": "喜茶联名热门剧集《繁花》 同名饮品已上线",
        "docid": "7330103597688504872",
        "url": ""
    },
    {
        "title": "昆明不可错过的十大小吃！快收藏，挨个去吃~",
        "docid": "7304188257191887412",
        "url": ""
    },
    {
        "title": "叶酸是山药4倍，还是身体“清道夫”，将它做早餐，润燥清肺",
        "docid": "7310603559991919167",
        "url": ""
    },
    {
        "title": "两人餐 | 晚饭这样吃简单干净",
        "docid": "7305680516563354152",
        "url": ""
    },
    {
        "title": "韭黄怎么炒好吃，一起看一看这些菜谱，巨巨巨下饭",
        "docid": "7310911159492854272",
        "url": ""
    },
    {
        "title": "俄罗斯美食“大列巴”为何在中国不受待见？和普通面包有啥区别？",
        "docid": "7326826288205922857",
        "url": ""
    },
    {
        "title": "怕上火，多吃这3种蔬菜，一滋阴润燥，二疏肝养血，三清热解毒",
        "docid": "7306416623202779699",
        "url": ""
    },
    {
        "title": "全国哪的“烧鸡”最好吃？经过评比，这6个地方不错，有你家乡吗",
        "docid": "7308719078917603894",
        "url": ""
    },
    {
        "title": "感谢老祖宗发明了它！鲜到离谱、暖过秋裤，冬日进补天花板！",
        "docid": "7311974636911198746",
        "url": ""
    },
    {
        "title": "我们中国人司空见惯的几件小事，外国人却“惊掉”下巴！",
        "docid": "7330162175434670642",
        "url": ""
    },
    {
        "title": "冬天吃鱼，提醒大家:远离鲈鱼和鲫鱼，发现三种肥美又经济的鱼类宝藏！",
        "docid": "7329917002523591231",
        "url": ""
    },
    {
        "title": "公认7大下酒菜，全是老酒鬼最爱，喝酒够劲儿，看看你吃过哪几种",
        "docid": "7311538504323416616",
        "url": ""
    },
    {
        "title": "40元都吃不饱的麻辣烫“刺客”，究竟贵在哪儿？",
        "docid": "7303498048289456677",
        "url": ""
    },
    {
        "title": "被东北人的脑洞惊到了！这一根上百斤的火腿肠比腿都粗",
        "docid": "7325213663038603788",
        "url": ""
    },
    {
        "title": "宝总泡饭配6个小菜，包邮区网友：这个我熟",
        "docid": "7323459067329659432",
        "url": ""
    },
    {
        "title": "凉拌菜中，也有让人耳目一新，吃了就忍不住赞叹的“食材搭子”",
        "docid": "7328354560920257075",
        "url": ""
    },
    {
        "title": "不知道吃什么了，这54道家常菜，简单方便，每天三道吃不腻！",
        "docid": "7298250719617139211",
        "url": ""
    },
    {
        "title": "适合过年过节的10道菜谱，替自己收下来",
        "docid": "7330020413369778707",
        "url": ""
    },
    {
        "title": "跟倪大师学的甘蔗水，真的润爆了。",
        "docid": "7315997281541489162",
        "url": ""
    },
    {
        "title": "山西农村婚宴的十大菜品",
        "docid": "7297658275372499519",
        "url": ""
    },
    {
        "title": "马上过年了，这3样年货不要碰，都是“科技与狠活”，看看都是啥",
        "docid": "7329478382725775891",
        "url": ""
    },
    {
        "title": "曾经开遍地铁口的包子店，现在却倒闭完了，是包子不好吃了吗？",
        "docid": "7315040144448520740",
        "url": ""
    },
    {
        "title": "十三香到底是什么香？",
        "docid": "7327185642167829029",
        "url": ""
    },
    {
        "title": "7道压箱底的菜谱，可以让你一周都不重复的享受美食！",
        "docid": "7300743906969387572",
        "url": ""
    },
    {
        "title": "快锁死这个腌鸡蛋配方！个个流油！太好吃了！",
        "docid": "7327575807327814184",
        "url": ""
    },
    {
        "title": "教你做百吃不厌的五香茶叶蛋，可以直接摆摊了",
        "docid": "7298582964034814479",
        "url": ""
    },
    {
        "title": "我国哪里的裸瓶酒最好喝？经评比，这5种酒榜上有名，有你家乡吗",
        "docid": "7325428010365256228",
        "url": ""
    },
    {
        "title": "河南田间地头的小野果，你吃过几种？",
        "docid": "7299647166828986915",
        "url": ""
    },
    {
        "title": "有4种美食，以前穷的时候天天吃，都吃腻了，现在却已高攀不起了",
        "docid": "7319817458612093490",
        "url": ""
    },
    {
        "title": "大连一家三口来上海点了3碗面，结账时傻眼了：这是现在的物价？",
        "docid": "7327682812902031908",
        "url": ""
    },
    {
        "title": "这菜比肉贵，却很少人嫌弃，见到就买，简单一煮，特别好吃",
        "docid": "7324332554075750946",
        "url": ""
    },
    {
        "title": "比鸡鸭肉滋补，比牛羊肉便宜，冬天使劲吃，营养滋补，增强免疫力",
        "docid": "7329892061321134626",
        "url": ""
    },
    {
        "title": "我妈一辈子吃不胖的秘诀，原来都在这6道蒸菜身上！",
        "docid": "7318267414670688779",
        "url": ""
    },
    {
        "title": "枸杞搭配生姜，作用太厉害了，老公才吃5天直说好，赶快收藏",
        "docid": "7301530436935729683",
        "url": ""
    },
    {
        "title": "10万烘焙店倒下，5元的“国企风”面包席卷年轻人",
        "docid": "7326492515451470370",
        "url": ""
    },
    {
        "title": "喜茶联名热门剧集《繁花》，以“至真至喜”致敬上海城市记忆",
        "docid": "7330177287797113384",
        "url": ""
    },
    {
        "title": "去山西必点这5道菜，每个都是“晋菜之魂”，老板以为你是本地人",
        "docid": "7327999554388116003",
        "url": ""
    },
    {
        "title": "香港百年老铺：一家123年的蛇店",
        "docid": "7311586873745965577",
        "url": ""
    },
    {
        "title": "三次卖身，关店清盘，史上最“惨”老字号，彻底败给了喜茶们",
        "docid": "7302417887183405587",
        "url": ""
    },
    {
        "title": "外卖全国第一！年入15亿，餐饮界的隐形冠军靠拿捏“穷鬼”逆袭",
        "docid": "7328320422507282956",
        "url": ""
    },
    {
        "title": "发现了没有，外边的小吃都吃不起了",
        "docid": "7322038043240874536",
        "url": ""
    },
    {
        "title": "全国哪的醋最好吃？经评比，这5个地方位居前列，有你常喝的吗？",
        "docid": "7312255114688315938",
        "url": ""
    },
    {
        "title": "八爪鱼，煮熟嚼不动？渔民指出错误，分享2个技巧，鲜香爽脆不老",
        "docid": "7316438456261935628",
        "url": ""
    },
    {
        "title": "我婆婆又来给我做饭了，这七天晚餐吃的都胖了，哪一天是你喜欢的",
        "docid": "7306815659726422567",
        "url": ""
    },
    {
        "title": "它维C是苹果的60倍，多吃能补中益气，养血安神，还能延缓衰老？",
        "docid": "7329087512470061580",
        "url": ""
    },
    {
        "title": "这小凉拌菜，朋友吃了都叫我原地开店，真的巨巨好吃！",
        "docid": "7303453380847092239",
        "url": ""
    },
    {
        "title": "哈尔滨的烧烤到底有多好吃？看完网友们的分享，才知道用料有多足",
        "docid": "7330126196635796007",
        "url": ""
    },
    {
        "title": "兰州拉面得罪了谁？一个接着一个关门，今年面馆没法做了吗？",
        "docid": "7330102930424627722",
        "url": ""
    },
    {
        "title": "火锅食材清单大全",
        "docid": "7319228424579531298",
        "url": ""
    },
    {
        "title": "炸馒头片，不要裹蛋液，巧用一个料，馒头片更酥脆，吃着不油腻",
        "docid": "7316486089001271823",
        "url": ""
    },
    {
        "title": "苹果和它煮一锅，等于天然“安神方”，养心安神，提升睡眠质量！",
        "docid": "7310570644452786697",
        "url": ""
    },
    {
        "title": "嘴馋了就来看看这些美食，简单易做，真美味",
        "docid": "7305700170384359970",
        "url": ""
    },
    {
        "title": "女人养气血必吃酒酿！！超全酒酿合集，喝出好气色",
        "docid": "7316536224146129435",
        "url": ""
    },
    {
        "title": "炒了30几年的菜，这8道是我家没换过的做法，太香了",
        "docid": "7308714577477288498",
        "url": ""
    },
    {
        "title": "《一九四二》里的豫菜经典——鲤鱼焙面，到底是个什么玩意？",
        "docid": "7299363269511316019",
        "url": ""
    },
    {
        "title": "藏在身边的6道“排毒菜”，三天吃一次，排出毒素身松，营养健康",
        "docid": "7325241321688416804",
        "url": ""
    },
    {
        "title": "从小喝到大的南方黑芝麻糊怎么没人买了？",
        "docid": "7313869995111793178",
        "url": ""
    },
    {
        "title": "几个酒鬼论酒，把喝酒的“好处”说得淋漓尽致",
        "docid": "7303915885646430759",
        "url": ""
    },
    {
        "title": "13种早餐技术+16种粥技术，做一辈子的早餐，配方都拿出来了",
        "docid": "7308357164278874661",
        "url": ""
    },
    {
        "title": "什么都能辜负，唯有美食不可辜负！馋哭隔壁老王了！",
        "docid": "7304260931859841548",
        "url": ""
    },
    {
        "title": "最全的茶礼仪",
        "docid": "7318979881893757490",
        "url": ""
    },
    {
        "title": "西梅干的骗局，你知道吗？",
        "docid": "7309735199514903059",
        "url": ""
    },
    {
        "title": "全国唯一一家蓝色麦当劳！在上海",
        "docid": "7319411849806561801",
        "url": ""
    },
    {
        "title": "常见的18种中式香料的正确使用方法，别再盲目放香料了",
        "docid": "7300263187214123574",
        "url": ""
    },
    {
        "title": "我国哪的面粉无添加？经对比，有这行字就是零添加，可以放心买",
        "docid": "7307163557395710502",
        "url": ""
    },
    {
        "title": "农村几块钱一斤的散酒能喝吗？其实能喝，不过有几个风险要明白",
        "docid": "7307460545303872034",
        "url": ""
    },
    {
        "title": "人民大会堂落成后的第一次“国宴”，4600多人出席，安排近500桌",
        "docid": "7311311462151553546",
        "url": ""
    },
    {
        "title": "安徽各地区特产大盘点，你知道哪些？很多安徽本地人都不一定知道",
        "docid": "7298200035974676992",
        "url": ""
    },
    {
        "title": "一个馒头15元，比普通馒头贵几十倍的安徽馒头，到底有什么猫腻",
        "docid": "7309796952953160255",
        "url": ""
    },
    {
        "title": "气血不足，建议多吃这4种补血又不上火的食物，增免疫补足气血",
        "docid": "7326157786462061110",
        "url": ""
    },
    {
        "title": "肠道垃圾的“天敌”，不是芹菜而是它，随手一炒，排便也通畅了",
        "docid": "7314644272111026707",
        "url": ""
    },
    {
        "title": "我妈做的蒜泥白肉真的是太下饭了！",
        "docid": "7307475075882861107",
        "url": ""
    },
    {
        "title": "不管多有钱，春节这三种食物千万别买回家，内行人：白给都不要",
        "docid": "7330154269372596776",
        "url": ""
    },
    {
        "title": "吃一次就爱上，五款下饭菜的配方绝了，赶快安排",
        "docid": "7306158801416225343",
        "url": ""
    },
    {
        "title": "莲子这样吃，睡眠好，梦也少了，身体舒服，老年朋友多吃对身体好",
        "docid": "7322343898331021864",
        "url": ""
    },
    {
        "title": "巨巨巨下饭的肉沫菜合集，是妈妈的味道！太好吃了，赶紧收藏？",
        "docid": "7322448795714175526",
        "url": ""
    },
    {
        "title": "这是谁发明的啊，也太好吃了吧。",
        "docid": "7329864809925820938",
        "url": ""
    },
    {
        "title": "星巴克加速下沉，2025年门店有望突破9000家",
        "docid": "7330219522597061158",
        "url": ""
    },
    {
        "title": "胃病三分治七分养，多吃养胃食物，健脾又养胃",
        "docid": "7314929498275889699",
        "url": ""
    },
    {
        "title": "调节睡眠，常吃高蛋白食物，安神养神睡得好，一觉睡到天亮",
        "docid": "7311344523731780130",
        "url": ""
    },
    {
        "title": "萝卜“三剑客”：白皮、绿皮、红皮，告诉你不知道的养生秘籍！",
        "docid": "7328929576388903462",
        "url": ""
    },
    {
        "title": "买饼干时，遇见这5款饼干别错过，几乎零差评，量大好吃又便宜",
        "docid": "7315663665389355555",
        "url": ""
    },
    {
        "title": "咳嗽就吃这个“小水果”！很多人没见过，清热化痰，止痛消炎",
        "docid": "7316883895486513718",
        "url": ""
    },
    {
        "title": "广东女子去江西男友家，发现米酒甜的没度数，1杯下肚想连夜回家",
        "docid": "7329319730601706024",
        "url": ""
    },
    {
        "title": "枸杞的各种搭配类型，你真的知道吗？",
        "docid": "7314543715412935168",
        "url": ""
    },
    {
        "title": "蚌埠最受欢迎的8家老字号面馆！",
        "docid": "7322840144896311844",
        "url": ""
    },
    {
        "title": "除夕年夜饭，3道菜要多备点，留着半夜“守岁”吃，解馋又下酒",
        "docid": "7329494795817058852",
        "url": ""
    },
    {
        "title": "用酵母粉蒸馒头时，有人放食用碱，有人加小苏打，内行人：都错了",
        "docid": "7305770291631161919",
        "url": ""
    },
    {
        "title": "腌雪里蕻，只放盐腌就错了，教你一招，翠绿鲜香，不变味不长毛",
        "docid": "7308689386043097636",
        "url": ""
    }
]