[
    {
        "title": "立春后，莲藕苦瓜靠边站，最该吃的是它，香甜软糯降春燥，别不懂",
        "docid": "7331929541104960010",
        "url": ""
    },
    {
        "title": "只要一张图，让你学会挑猪肉，选购食用油",
        "docid": "7328923700080804404",
        "url": ""
    },
    {
        "title": "家里有孩子的多做这几道菜，补充营养，健康成长",
        "docid": "7311259113815212583",
        "url": ""
    },
    {
        "title": "家常小菜之溜肉段，做法简单，嫩鲜味美，家人吃了都说棒",
        "docid": "7331342519001072168",
        "url": ""
    },
    {
        "title": "仁厚街的“杰森小馆”",
        "docid": "7332087807500370469",
        "url": ""
    },
    {
        "title": "正在消失的三合泥",
        "docid": "7329547165179658790",
        "url": ""
    },
    {
        "title": "天津人炖肉特讲究！这些事也得抓紧办",
        "docid": "7331904598745268787",
        "url": ""
    },
    {
        "title": "高加索人长寿饮食秘诀：原来他们都在吃这些美食！",
        "docid": "7331177510790693426",
        "url": ""
    },
    {
        "title": "有人问我买那么多小鲫鱼怎么吃呢？我今天就说下我自己的做法。",
        "docid": "7309058756858692133",
        "url": ""
    },
    {
        "title": "连喝两周，都觉得自己红光满面，气血好了，赶紧收藏起来",
        "docid": "7307224527455404555",
        "url": ""
    },
    {
        "title": "中国最“难吃”的三大城市，号称“美食荒漠”，待一年暴瘦30斤！",
        "docid": "7312766075094762011",
        "url": ""
    },
    {
        "title": "两亲家吃饭的规矩",
        "docid": "7331886477515178523",
        "url": ""
    },
    {
        "title": "包韭菜馅饺子，记住“2放3不放”，教您正确方法，韭菜翠绿不出水",
        "docid": "7299407336521728539",
        "url": ""
    },
    {
        "title": "端出拿手菜，共享年味百家宴",
        "docid": "7332071173729567251",
        "url": ""
    },
    {
        "title": "萧山最火的路边摊，很多人深夜排队等四小时！为了拍照还是真好吃",
        "docid": "7332126553528468007",
        "url": ""
    },
    {
        "title": "宁波老太腌蟹酱，味道杠杠的，早上腌，晚上吃",
        "docid": "7298528572137472562",
        "url": ""
    },
    {
        "title": "为什么车厘子听起来就比樱桃贵？",
        "docid": "7330082790123291175",
        "url": ""
    },
    {
        "title": "这4种不起眼食物，比黄芪补气，比当归补血，建议中老年人要常吃",
        "docid": "7324934951013450291",
        "url": ""
    },
    {
        "title": "吃得苦中苦，方能烹制出人间美味",
        "docid": "7331935280033301044",
        "url": ""
    },
    {
        "title": "龙行龘（ｄá）龘，茶暖四季！这些“龙”茶，你喝过几种？",
        "docid": "7331974281369158179",
        "url": ""
    },
    {
        "title": "三代传承，非遗栏杆，卤香醇厚，切一切上桌",
        "docid": "7332124336951788066",
        "url": ""
    },
    {
        "title": "一种拥有强大抗炎力量的成分，就藏在这种“黄金佐料”里！",
        "docid": "7331995532228903460",
        "url": ""
    },
    {
        "title": "“剩菜盲盒”在济悄然兴起，你吃过吗？",
        "docid": "7332067631966552628",
        "url": ""
    },
    {
        "title": "冬季养生果汁：新鲜美味，喝出健康！",
        "docid": "7331797013178827291",
        "url": ""
    },
    {
        "title": "每天认识一款茶——普洱茶",
        "docid": "7331771619305931298",
        "url": ""
    },
    {
        "title": "这一奶茶品牌门店数已超肯德基，头部茶饮还要开多少店？",
        "docid": "7331136723923829283",
        "url": ""
    },
    {
        "title": "来山东济南，一定要品尝的6道小吃，都是当地特色，吃过不留遗憾",
        "docid": "7302984368996532771",
        "url": ""
    },
    {
        "title": "名厨味道第202401400期雅苑聊吧探索广西美食文化之旅",
        "docid": "7331570372279566888",
        "url": ""
    },
    {
        "title": "年前最后一周，这3家社区食堂菜单来啦（内附放假通知）",
        "docid": "7331937505157300773",
        "url": ""
    },
    {
        "title": "Hold住年夜饭！闵行这2家社区食堂春节不打烊！",
        "docid": "7332049616080306740",
        "url": ""
    },
    {
        "title": "老妈最拿手的凉拌面，不香算我输！香到直接手抓这吃的凉拌面！",
        "docid": "7326178191977972236",
        "url": ""
    },
    {
        "title": "平顶山最受欢迎的8家老字号面馆！",
        "docid": "7328761314094924299",
        "url": ""
    },
    {
        "title": "补气血不只是红枣，多吃这几种食物，皮肤红润，补气养血！",
        "docid": "7305382196523860532",
        "url": ""
    },
    {
        "title": "炖酸菜牢记“3放3不放”，出锅又酸又脆，香的不得了！别再放错了",
        "docid": "7315259447268508194",
        "url": ""
    },
    {
        "title": "燕窝果、海参果、老虎果......水果“新味道”你最爱哪一款？",
        "docid": "7332101914156728871",
        "url": ""
    },
    {
        "title": "大厨教你做“龙菜” 龙年餐桌添“龙味”",
        "docid": "7332040555058184704",
        "url": ""
    },
    {
        "title": "书与奶茶浪漫“牵手” 五一商圈网红街多了浓浓书香味",
        "docid": "7331893833322365494",
        "url": ""
    },
    {
        "title": "烙饼，用冷水还是开水？厨娘教你2招，柔软多层，凉了也不硬",
        "docid": "7299325282778038836",
        "url": ""
    },
    {
        "title": "福今何广森:班章第一人,白菜孔雀茶之父,2012年因分歧与弟弟分家",
        "docid": "7299115100747858447",
        "url": ""
    },
    {
        "title": "45种香辣可口的腌菜，拌面拌饭配馒头都好吃",
        "docid": "7313165527328162323",
        "url": ""
    },
    {
        "title": "炒了30几年的菜，这8道是我家没换过的做法，太香了",
        "docid": "7308714577477288498",
        "url": ""
    },
    {
        "title": "火遍大江南北的“红豆”烟，怎么就输给了难抽的“白沙”！",
        "docid": "7311728106115695119",
        "url": ""
    },
    {
        "title": "年入20亿！肯德基山东失宠，都怪这个中餐“地头蛇”",
        "docid": "7311154078158193204",
        "url": ""
    },
    {
        "title": "到底谁在撒谎？贵州茅台、山西汾酒，究竟谁才是真正的“国酒”？",
        "docid": "7301199779982262796",
        "url": ""
    },
    {
        "title": "在家做烤肉，腌肉腌到位了，怎么做都好吃！",
        "docid": "7316754340466082345",
        "url": ""
    },
    {
        "title": "它是“身体的保护神”，每天吃一点，滋补抗衰老，女性记得要多吃",
        "docid": "7322823005066396201",
        "url": ""
    },
    {
        "title": "20年经验老厨师退休，31种手写餐饮笔记，先收藏起来备用",
        "docid": "7310183617727070774",
        "url": ""
    },
    {
        "title": "新东方大厨教我的嫩肉秘笈！比滑滑梯还滑，可惜90%人不知道！",
        "docid": "7299340371132514816",
        "url": ""
    },
    {
        "title": "5种食物“不怕过期”，放的越久越有价值，你家有吗?",
        "docid": "7315397892083270178",
        "url": ""
    },
    {
        "title": "来碳水之都，总有一款适合你",
        "docid": "7329431648876134931",
        "url": ""
    },
    {
        "title": "远嫁江西女子晒“婆家晚餐”火了，妈妈喊话：回来吧，这可怎么吃",
        "docid": "7324585497844826687",
        "url": ""
    },
    {
        "title": "跟风做的，没想到这么好吃，越吃越停不下来，一定要试试",
        "docid": "7315606045513187840",
        "url": ""
    },
    {
        "title": "答应我，有番茄的都去把它冻起来。",
        "docid": "7314257661346857498",
        "url": ""
    },
    {
        "title": "几年前风靡全国的驴肉火烧，为何被打入“冷宫”了？是变难吃了吗",
        "docid": "7320879552098697763",
        "url": ""
    },
    {
        "title": "万能糖醋汁，牢记黄金比例“54321”，做任何糖醋菜，一次成功",
        "docid": "7303919440516284939",
        "url": ""
    },
    {
        "title": "神秘组织天津大麻花，没人买却走遍全国，是人贩子还是间谍？",
        "docid": "7311631956059226634",
        "url": ""
    },
    {
        "title": "小年夜给你凑了一桌菜，颜值高味道好，这14道上桌就被抢光了！",
        "docid": "7330993270274851363",
        "url": ""
    },
    {
        "title": "家庭版酱牛肉自用5年的方子真的太香了！",
        "docid": "7326710258079629860",
        "url": ""
    },
    {
        "title": "10个人9个补，养肝续命！多吃这些菜，越吃越年轻，给肉都不换！",
        "docid": "7300777127698448959",
        "url": ""
    },
    {
        "title": "感谢江西的朋友，这也太好吃了。",
        "docid": "7317903446848782898",
        "url": ""
    },
    {
        "title": "诡计多端的旺旺仙贝,难怪总觉得旺旺仙贝一片好吃一片不好吃呢",
        "docid": "7330126458360365603",
        "url": ""
    },
    {
        "title": "中国人到底有多能吃？留学能把外国人吃懵，中国饮食文化博大精深",
        "docid": "7317159796837220875",
        "url": ""
    },
    {
        "title": "你被家长喂过最敷衍的食物是什么？",
        "docid": "7324890580574896667",
        "url": ""
    },
    {
        "title": "中国人到底有多喜欢吃？名声都已经传到国外去了！网友分享太精辟",
        "docid": "7330059586369618473",
        "url": ""
    },
    {
        "title": "湖北“6大怪菜”，都是当地人的心头爱，外地人：真下不去嘴！",
        "docid": "7300090494925718026",
        "url": ""
    },
    {
        "title": "市值蒸发148亿，关店190家，忽悠国人27年的日本网红店，真要凉了",
        "docid": "7330182337835516443",
        "url": ""
    },
    {
        "title": "老话说“三天不吃青，两眼冒金星”，青菜怎么做好吃？6道青菜！",
        "docid": "7326733893179425315",
        "url": ""
    },
    {
        "title": "新的“福字”饺子又出现了，评论区里又疯了！",
        "docid": "7331896909168149042",
        "url": ""
    },
    {
        "title": "各国不吃的食物：韩国人不吃香菜，俄罗斯人不吃海参，中国人呢？",
        "docid": "7310497093330682378",
        "url": ""
    },
    {
        "title": "谁才是中国茶王？地方茶叶排名揭晓：武夷岩茶第9，龙井茶排第3",
        "docid": "7314327753396929043",
        "url": ""
    },
    {
        "title": "为什么国宴要以淮扬菜为主？看完网友的分享，才知淮扬菜有多牛",
        "docid": "7307536416622592512",
        "url": ""
    },
    {
        "title": "贵州剃头老狗下崽都摆酒？9个小菜收16万礼金，怪不得贵州酒席多",
        "docid": "7331139086511604262",
        "url": ""
    },
    {
        "title": "河北人去东北吃饭，菜上桌后尴尬了，才明白，东北菜不能乱点",
        "docid": "7331955646042538511",
        "url": ""
    },
    {
        "title": "无论炖什么肉，只要锅里多加这“3味”料，肉越炖越香，特管用！",
        "docid": "7299735441400463872",
        "url": ""
    },
    {
        "title": "卤菜的卤制时间",
        "docid": "7330069430464397863",
        "url": ""
    },
    {
        "title": "曾估值近百亿，如今却无人问津！这个品类正渐渐“消失”",
        "docid": "7331019465821700642",
        "url": ""
    },
    {
        "title": "做冻豆腐，直接放户外或冰箱就错了，教2种方法，蜂窝大弹性十足",
        "docid": "7316524457248457251",
        "url": ""
    },
    {
        "title": "全国哪里的“烧鸡”好吃？经过评比，这5只鸡上榜，有你家乡吗",
        "docid": "7311996630306570802",
        "url": ""
    },
    {
        "title": "五道超下饭的炖菜，有菜有肉又有汤，暖心暖胃，大人小孩都爱吃！",
        "docid": "7313519949127926322",
        "url": ""
    },
    {
        "title": "水煮蛋，最忌讳冷水下锅，教你正确做法，鸡蛋鲜嫩，壳一碰就掉！",
        "docid": "7299221291763040768",
        "url": ""
    },
    {
        "title": "院士番茄、茶博士软糖、300天土猪，这家川菜小馆成了浙大农产品推广中心",
        "docid": "7332079638530966057",
        "url": ""
    },
    {
        "title": "立春日，品老北京申时“茶”",
        "docid": "7332102817605665291",
        "url": ""
    },
    {
        "title": "“2024欢乐春节——行走的年夜饭”中国春节美食推广活动在首尔举行",
        "docid": "7332072461943144975",
        "url": ""
    },
    {
        "title": "深圳选手在国际奥林匹克烹饪大赛夺冠，作品彰显中华传统美学",
        "docid": "7332116373201666596",
        "url": ""
    },
    {
        "title": "仙桃年货“两蛋一鸡”节前热销",
        "docid": "7331186213732696586",
        "url": ""
    },
    {
        "title": "鱼丸的制作方法和配方，鲜嫩口感！揭秘制作鲜美鱼丸的配方！",
        "docid": "7328967643791901210",
        "url": ""
    },
    {
        "title": "坝上美食山药鱼做法全流程",
        "docid": "7331982869219017216",
        "url": ""
    },
    {
        "title": "过年就想这口上海味道！这些老字号年味香飘海外",
        "docid": "7331955485337272886",
        "url": ""
    },
    {
        "title": "客家摇篮拍客家·民生｜大余烫皮客家味",
        "docid": "7332060549779292722",
        "url": ""
    },
    {
        "title": "倒数春节③ | 二十五，做豆腐",
        "docid": "7331537744721609250",
        "url": ""
    },
    {
        "title": "吃晚饭时，长期喝二三两白酒的人，最后身体都怎样了？告诉你真相",
        "docid": "7327974679346496000",
        "url": ""
    },
    {
        "title": "有哪些以前昂贵现在变得平民化的食物？吃货扎起",
        "docid": "7310039460203414068",
        "url": ""
    },
    {
        "title": "已经消失的10种小零食，吃过2种还是小仙女，全吃过的是大妈",
        "docid": "7314189838494777867",
        "url": ""
    },
    {
        "title": "炸素丸子别只放面粉，教你正确做法，外酥里嫩，香脆可口停不下来",
        "docid": "7327974007331308032",
        "url": ""
    },
    {
        "title": "吃饭就一个锅！广东一女子去贵州男友家第4天就离开：我真受不了",
        "docid": "7332193991695286847",
        "url": ""
    },
    {
        "title": "祝酒词简短精辟句子，祝酒顺口溜，幽默风趣文案",
        "docid": "7318371919547056659",
        "url": ""
    },
    {
        "title": "韩国人不睡觉，是不是因为效率低啊，＂紫菜包饭＂五点起来准备",
        "docid": "7320193110632940032",
        "url": ""
    },
    {
        "title": "陕西“六大怪菜”，都是当地人的心头爱，外地人看了直摇头！",
        "docid": "7307448288666632704",
        "url": ""
    },
    {
        "title": "秋冬不重样润肺汤，家里的小朋友也能喝！",
        "docid": "7302984968329019923",
        "url": ""
    },
    {
        "title": "不喝逆来顺受的酒，90后无法整顿的酒局，00后能吗？",
        "docid": "7331947989315158580",
        "url": ""
    },
    {
        "title": "咳嗽就吃这个“小水果”！很多人没见过，清热化痰，止痛消炎",
        "docid": "7316883895486513718",
        "url": ""
    },
    {
        "title": "年纪大了要舍得吃！这3种肉比牛肉强，高蛋白易消化，越吃越健康",
        "docid": "7322378993498423846",
        "url": ""
    },
    {
        "title": "常见的18种中式香料的正确使用方法，别再盲目放香料了",
        "docid": "7300263187214123574",
        "url": ""
    },
    {
        "title": "6款好喝不酸的速溶黑咖啡",
        "docid": "7322676875183456822",
        "url": ""
    },
    {
        "title": "从传统走向现代，草本饮品成“脆皮年轻人”新宠",
        "docid": "7332100260095017513",
        "url": ""
    },
    {
        "title": "研发多元产品搭乘网络快车   德城食品企业备战“春节档”",
        "docid": "7332061717247771170",
        "url": ""
    },
    {
        "title": "寻扒鸡制作工艺，知非遗文化精彩",
        "docid": "7331965270099247628",
        "url": ""
    },
    {
        "title": "广州人吃饭风俗禁忌大全：点解忌讳请客点七道菜？",
        "docid": "7304891108658790923",
        "url": ""
    },
    {
        "title": "向世界传播中国年味，洽洽食品出海背后的“硬实力”",
        "docid": "7332033417183789609",
        "url": ""
    },
    {
        "title": "怎么会有人喜欢吃这个？杭州网友不明白，家里每年都吃不完！",
        "docid": "7306291787914560019",
        "url": ""
    },
    {
        "title": "老话说“春吃3豆，胜过吃肉”！多吃能预防三高，3豆指啥？",
        "docid": "7331978327022502415",
        "url": ""
    },
    {
        "title": "众多网友评价兰州拉面:面馆开了三年，牛只受了轻伤！",
        "docid": "7325707294367613490",
        "url": ""
    },
    {
        "title": "烧光1亿，关店欠薪，20元一杯的网红柠檬茶，卖不动了？",
        "docid": "7331368732238823945",
        "url": ""
    },
    {
        "title": "我的“极简早餐”：轻食，少油盐，吃得少更精致！",
        "docid": "7331989272964219426",
        "url": ""
    },
    {
        "title": "海参泡发，最忌直接加水泡，正确做法和要点详解，新手一次就成功",
        "docid": "7306753749639578151",
        "url": ""
    },
    {
        "title": "家里有糯米粉就能做成的美食，糯叽叽的超好吃，新手一次就能成功",
        "docid": "7314577866295951906",
        "url": ""
    },
    {
        "title": "猪肉最经典的6种做法，你会几个？赶快学起来。",
        "docid": "7324951398809174564",
        "url": ""
    },
    {
        "title": "中国哪个地方的醋最好吃？经对比，这6种榜上有名，有你家乡的吗",
        "docid": "7319797553397285386",
        "url": ""
    },
    {
        "title": "酱香型酒和浓香型酒哪个好喝？差别不止一点，看完长知识了！",
        "docid": "7324729150537974313",
        "url": ""
    },
    {
        "title": "新春走基层·凡人繁年|“茶担”师傅：今年的喜宴包席已排到了10月",
        "docid": "7332073630039835136",
        "url": ""
    },
    {
        "title": "苹果豆浆连喝6天，感觉脾胃太舒服了！皮肤都变好了！",
        "docid": "7331335715613327907",
        "url": ""
    },
    {
        "title": "过年韭菜要怎样保存？教你3招，半个月不黄不烂，天天吃新鲜韭菜",
        "docid": "7329423095805166107",
        "url": ""
    },
    {
        "title": "上海市的特产大全",
        "docid": "7303608289169015330",
        "url": ""
    },
    {
        "title": "自酿酒还能喝吗？在中国喝了千年的自酿酒，为何被专家口诛笔伐？",
        "docid": "7313823402496803368",
        "url": ""
    },
    {
        "title": "广西人用一次性碗筷招待客人，就是不尊重人吗？一次性碗筷干净！",
        "docid": "7304478284421644826",
        "url": ""
    },
    {
        "title": "吃过这些老广的新年限定，才算过年！",
        "docid": "7331187786898473513",
        "url": ""
    },
    {
        "title": "年夜饭必备，虾这样做才美味！",
        "docid": "7331193746438275647",
        "url": ""
    },
    {
        "title": "请山东朋友吃天津菜，4道菜270元，朋友却说不值，大家看看咋样？",
        "docid": "7298980187310506511",
        "url": ""
    },
    {
        "title": "限时登陆！这家“老字号”宾馆在白云机场“卖年味”",
        "docid": "7332057417880306227",
        "url": ""
    },
    {
        "title": "炖骨头汤时，牢记“2不放”诀窍，汤白肉香不油腻，营养全保留！",
        "docid": "7319362856590344754",
        "url": ""
    },
    {
        "title": "订单排满！腐乳变“东方奶酪”？在海外卖爆了！",
        "docid": "7332156502532538906",
        "url": ""
    },
    {
        "title": "买香油时，只要将香油瓶子倒过来，真假香油一晃便知，别买错了",
        "docid": "7323197211624636937",
        "url": ""
    },
    {
        "title": "2023年的烟民与酒鬼：烟慢慢变贵，酒越来越便宜，社交属性在降低",
        "docid": "7318017799668892223",
        "url": ""
    },
    {
        "title": "除夕年夜饭菜单，4-5口人家8菜1汤，菜式丰富又吉祥，年味十足",
        "docid": "7331684877978370586",
        "url": ""
    },
    {
        "title": "《一九四二》里的豫菜经典——鲤鱼焙面，到底是个什么玩意？",
        "docid": "7299363269511316019",
        "url": ""
    },
    {
        "title": "巨巨巨好吃，闺蜜吃了直接让我原地开店！",
        "docid": "7317626453288387109",
        "url": ""
    },
    {
        "title": "揭秘厨房毒害，八角致癌真相曝光？快看看你家里有没有",
        "docid": "7327505344752747044",
        "url": ""
    },
    {
        "title": "安徽从不参与南北之争，因为他们融合的好啥都吃，面条汤圆一锅出",
        "docid": "7331258749501702691",
        "url": ""
    },
    {
        "title": "茶叶，比产能过剩更可怕的是：价格虚高，老百姓消费不起茶！",
        "docid": "7329504657519542819",
        "url": ""
    },
    {
        "title": "打豆浆，黄豆泡好不能直接打，再多做1步，豆浆又香又浓，无残渣",
        "docid": "7311621695994004020",
        "url": ""
    },
    {
        "title": "年夜饭已上桌",
        "docid": "7331573353028911667",
        "url": ""
    },
    {
        "title": "全国人到重庆吃，重庆人到万州吃！",
        "docid": "7310520956056633867",
        "url": ""
    },
    {
        "title": "春节下饭必备菜品，简单营养又好吃，让你的新年被美食包围！",
        "docid": "7330989737601810959",
        "url": ""
    },
    {
        "title": "辽宁省各市的特产大全",
        "docid": "7299061631651332608",
        "url": ""
    },
    {
        "title": "浙江六大怪菜，外地人见了吓得三摇头，尝过之后连呼：哇塞好好吃",
        "docid": "7304180932024680975",
        "url": ""
    },
    {
        "title": "中老年人要懂得忌嘴，少吃白菜萝卜，多吃4类，增强体质顺利迎春",
        "docid": "7329526523466105407",
        "url": ""
    },
    {
        "title": "有4种美食，以前穷的时候天天吃，都吃腻了，现在却已高攀不起了",
        "docid": "7319817458612093490",
        "url": ""
    },
    {
        "title": "作为厨师，最珍贵的就是美食配方，用了30年的老配方，公开了",
        "docid": "7308274319535407628",
        "url": ""
    },
    {
        "title": "非遗碰撞中国年 必胜客“小小传承人”欢乐迎新年",
        "docid": "7331935156158644788",
        "url": ""
    },
    {
        "title": "德芙巧克力的12种口味测评，亲测不踩雷！",
        "docid": "7321559045096522276",
        "url": ""
    },
    {
        "title": "年底囤菜，这5种“激素菜”尽量少买，价格贵还难吃，快看看吧！",
        "docid": "7329777540082876965",
        "url": ""
    },
    {
        "title": "炖鸡肉时，2种调料不要放，否则越多越柴，难怪你总做不好吃",
        "docid": "7316795687117865512",
        "url": ""
    },
    {
        "title": "吃得下？印度人觉得中国人很穷：在印度小吃摊只是拍照不买饭。",
        "docid": "7328639445728330291",
        "url": ""
    },
    {
        "title": "50岁后，吃10斤黑豆不如1斤它，硒很高，常吃手脚麻利、腿脚有力",
        "docid": "7313866210553266724",
        "url": ""
    },
    {
        "title": "脂肪最害怕的“碱性菜”，一周吃2次，小肚子偷偷的没了，身材棒",
        "docid": "7307054055988347403",
        "url": ""
    },
    {
        "title": "河北邯郸六大名菜排行，你尝过几道？",
        "docid": "7298976081741185570",
        "url": ""
    },
    {
        "title": "武汉砂锅婆婆，25年不挂牌，一窝砂锅1000起，从不招待民工和学生",
        "docid": "7306068863479775778",
        "url": ""
    },
    {
        "title": "凉拌瓜子是什么梗，想看看网友是如何吐槽这道美食。",
        "docid": "7314890369056490021",
        "url": ""
    },
    {
        "title": "不愧是“陕南美食天堂”！安康这几家当地馆子，一想到就馋了！",
        "docid": "7331950973876863551",
        "url": ""
    },
    {
        "title": "清洗草莓，有人用盐有人用面粉！老果农：都不对，这样洗会更干净",
        "docid": "7325343114469310976",
        "url": ""
    },
    {
        "title": "哈哈哈，山西人在面馆吃到挂面后，气到报警",
        "docid": "7328423514258653735",
        "url": ""
    },
    {
        "title": "为啥去外国看不懂菜单不用翻译？当看完网友机翻后的菜单，我懵了",
        "docid": "7329782520164762151",
        "url": ""
    },
    {
        "title": "春节敬酒，别站着当“哑巴”，记住30句高情商祝酒词，惊艳众人",
        "docid": "7330108240762012199",
        "url": ""
    },
    {
        "title": "备战2024年夜饭，用时2个小时，准备10个菜",
        "docid": "7330095025252549156",
        "url": ""
    },
    {
        "title": "体脂率从38%-18%，让脂肪消失的好习惯",
        "docid": "7321991175626818089",
        "url": ""
    },
    {
        "title": "鱼冻，穷人家的美食",
        "docid": "7298255759216312842",
        "url": ""
    },
    {
        "title": "车厘子的区别和口感及存放",
        "docid": "7331320143467184650",
        "url": ""
    },
    {
        "title": "一家三口在武汉，一个月600元的生活费，别不信我们吃的很丰盛",
        "docid": "7320516467953271311",
        "url": ""
    },
    {
        "title": "买大虾，选“直虾”还是“弯虾”？区别很大，建议弄明白再买",
        "docid": "7322734829735494156",
        "url": ""
    },
    {
        "title": "我妈做的蒜泥白肉真的是太下饭了！",
        "docid": "7307475075882861107",
        "url": ""
    },
    {
        "title": "大凉山餐桌上的争议：为何不换个干净些的桌子",
        "docid": "7330080888451088947",
        "url": ""
    },
    {
        "title": "七大“最脏”外卖，外卖小哥都看不下去，最后一种年轻人最爱！",
        "docid": "7323471113047458315",
        "url": ""
    },
    {
        "title": "爱吃鱼的看过来，让你一周都不重复，看了都流口水！",
        "docid": "7303880014343193127",
        "url": ""
    },
    {
        "title": "大年三十年夜饭摆盘图案请收藏大年三十年夜饭摆盘图案，超有料",
        "docid": "7330026228499431999",
        "url": ""
    },
    {
        "title": "超市热销的6款啤酒，全是麦芽酒花精酿，每款都是老酒客的心头宝",
        "docid": "7322865457554424357",
        "url": ""
    },
    {
        "title": "165岁的“狗不理”包子，如今为何卖不动了？食客：你去看看价格",
        "docid": "7311183507626836521",
        "url": ""
    },
    {
        "title": "我分享一下我最爱的这63道家常菜！你看看是不是你们最爱的！",
        "docid": "7321378453423587876",
        "url": ""
    },
    {
        "title": "6道凉拌菜来了，凉拌菜这样做，真的是好吃到停不下来！",
        "docid": "7317172987592065555",
        "url": ""
    },
    {
        "title": "老班章居然垫底了！权威发布｜让我们2023年价格最贵的十大普洱茶",
        "docid": "7331177916552266278",
        "url": ""
    },
    {
        "title": "每天一筐砂糖橘，身体会发生这种变化！（不只是变黄）",
        "docid": "7328674015005786636",
        "url": ""
    },
    {
        "title": "它是“天然钙片”，比牛奶便宜，每周三次，强健骨骼，利肺豁痰！",
        "docid": "7321700964539302410",
        "url": ""
    },
    {
        "title": "终于吃上了网友推荐的菜谱，一共7道，太香了",
        "docid": "7313176065365901865",
        "url": ""
    },
    {
        "title": "西府臊子面的两大流派，你更认可哪一派？",
        "docid": "7313724526997553699",
        "url": ""
    },
    {
        "title": "真是万万没想到，鸡内金用火烤一烤，吃了3天管用，就服老辈做法",
        "docid": "7331305262240285210",
        "url": ""
    },
    {
        "title": "如果你还在为年夜饭发愁，就来看看这份菜单吧",
        "docid": "7331732445420749322",
        "url": ""
    },
    {
        "title": "最大补的鱼汤是什么，不知道太可惜了，多喝健胃养脾，建议了解",
        "docid": "7322284152684986930",
        "url": ""
    },
    {
        "title": "后悔只点了中杯，好喝到无语。",
        "docid": "7330460565150204466",
        "url": ""
    },
    {
        "title": "新华书店“翻书阅岭”在太平街遇上茶颜悦色",
        "docid": "7331654671725068839",
        "url": ""
    },
    {
        "title": "气血不足，建议多吃这4种补血又不上火的食物，增免疫补足气血",
        "docid": "7316863552055411241",
        "url": ""
    },
    {
        "title": "古井贡酒终于破价，古5、古8、古16大促，价格太香了！",
        "docid": "7331051983475851802",
        "url": ""
    },
    {
        "title": "冬季五种水果煮着吃，越吃气色越好！",
        "docid": "7331752350371217954",
        "url": ""
    },
    {
        "title": "春节不忙乱，6道菜提前准备好，简单一热就上桌，省事好吃寓意好",
        "docid": "7330238311371538980",
        "url": ""
    },
    {
        "title": "看了印度每年茶叶总产量，再看中国茶叶产量，这差距不好追啊",
        "docid": "7312098304639173174",
        "url": ""
    },
    {
        "title": "西梅干的骗局，你知道吗？",
        "docid": "7309735199514903059",
        "url": ""
    },
    {
        "title": "藏红花虽小，作用却大，关于藏红花的食用禁忌，喝之前或提前了解",
        "docid": "7310197056474661439",
        "url": ""
    },
    {
        "title": "6种早该列入“煮茶黑名单”的茶叶，泡茶好喝，但煮茶真的不行",
        "docid": "7316702672994976275",
        "url": ""
    },
    {
        "title": "广西男子到河南，同学请客吃饭，菜品上桌后，男子疑惑：这咋吃",
        "docid": "7315716093564731967",
        "url": ""
    },
    {
        "title": "松江人，泗泾这几家美食真的很好吃！看看你吃过几家→",
        "docid": "7302670544980951592",
        "url": ""
    },
    {
        "title": "晒干的香肠，“直接冻”还是“蒸熟冻”？区别非常大，做错不好吃",
        "docid": "7331654130924454435",
        "url": ""
    },
    {
        "title": "我婆婆又来给我做饭了，这七天晚餐吃的都胖了，哪一天是你喜欢的",
        "docid": "7306815659726422567",
        "url": ""
    },
    {
        "title": "盘点大理最好吃的6家早餐店，排队也要吃，你吃过几家？",
        "docid": "7303104350698799657",
        "url": ""
    },
    {
        "title": "建议老年人：不要太节俭，少吃南瓜多吃这5样，高蛋白低脂又美味",
        "docid": "7307438668229427763",
        "url": ""
    },
    {
        "title": "这5种茶不要再买了，品质一个不如一个，全都是垃圾！",
        "docid": "7313834831145124367",
        "url": ""
    },
    {
        "title": "苏州有什么特产值得带回家？这6样最具代表性，档次高，送礼有面",
        "docid": "7309785324572377637",
        "url": ""
    },
    {
        "title": "同样是粗粮，一个叫大黄米，一个叫小米，有啥区别？涨知识了！",
        "docid": "7316434521262654015",
        "url": ""
    },
    {
        "title": "陕西人喝酒必上的五道“硬菜”，本地人离不开，外地人尝过都说好",
        "docid": "7301905383562428968",
        "url": ""
    },
    {
        "title": "厨师都不愿告诉你的炖牛羊肉配方，收藏起来备用！",
        "docid": "7318686868021969445",
        "url": ""
    },
    {
        "title": "爷爷的下酒菜。",
        "docid": "7300914704967500323",
        "url": ""
    },
    {
        "title": "全国哪的烧鸡最好吃？盘点名气最大的5种烧鸡，你吃过几种？",
        "docid": "7313862535189938703",
        "url": ""
    },
    {
        "title": "等我退休了…一定拿这个方子去摆摊卖卤味！",
        "docid": "7326752981297431055",
        "url": ""
    },
    {
        "title": "“睡眠不好，多是肝火旺”，建议多吃这菜！清肝火睡眠好！",
        "docid": "7316323673907380772",
        "url": ""
    },
    {
        "title": "除了贵州茅台，湖北省也有好酒，这四款湖北省名酒你都喝过吗？",
        "docid": "7312393231718187539",
        "url": ""
    },
    {
        "title": "中式早餐，真的太爱啦！ ​​​",
        "docid": "7306030305004061195",
        "url": ""
    },
    {
        "title": "一日本饮料每年在中国捞金65亿，却被误认是国产品牌，你可能喝过",
        "docid": "7328616350463787559",
        "url": ""
    },
    {
        "title": "假粉条的危害到底有多大，工业粉条是怎么做的？我们该如何辨别？",
        "docid": "7302327521998586419",
        "url": ""
    },
    {
        "title": "过年买鱼有讲究，这3种不要，尊重传统，来年事事如意，年年有余",
        "docid": "7330918047739642387",
        "url": ""
    },
    {
        "title": "来黑龙江下馆子就点这8道菜，有一道很少见，你吃过几道",
        "docid": "7315414995121439273",
        "url": ""
    },
    {
        "title": "买牛腱子肉妙招：据肉店老板说 前腱和后腱肉口感差很多 早懂早受益",
        "docid": "7317444142311817739",
        "url": ""
    },
    {
        "title": "为何四特酒全国推广没有成功？",
        "docid": "7322473519894397480",
        "url": ""
    },
    {
        "title": "周末聚餐怎么吃？6道下饭菜别错过，色香味俱全，5碗米饭不够吃！",
        "docid": "7304827845736399423",
        "url": ""
    },
    {
        "title": "这个菜是“降脂霸”，隔三岔五吃一点，帮你清理血管，身体更健康",
        "docid": "7323028224504955431",
        "url": ""
    },
    {
        "title": "春节的5道硬菜，营养美味年味足，老人小孩都爱吃，赶紧安排上",
        "docid": "7331350503345488399",
        "url": ""
    },
    {
        "title": "这4种蔬菜比牛奶补钙，年纪越大越要吃，腿脚更有力，别舍不得吃",
        "docid": "7309659824608870975",
        "url": ""
    },
    {
        "title": "年夜饭的素菜准备了吗？我妈说这12道一定要安排！清爽可口！",
        "docid": "7331387793039704639",
        "url": ""
    },
    {
        "title": "懒人菜就喜欢这几道，肉香十足，家人经常点名要吃",
        "docid": "7302823302039650853",
        "url": ""
    },
    {
        "title": "每天喝二两白酒与滴酒不沾的人，哪个更健康？爱喝酒的你知道吗？",
        "docid": "7300394718830133786",
        "url": ""
    },
    {
        "title": "让体重快速下降的12个好方法！",
        "docid": "7322765702229115433",
        "url": ""
    },
    {
        "title": "产于1954：现存最早一瓶茅台酒的前生今世",
        "docid": "7329371307609670159",
        "url": ""
    },
    {
        "title": "来河南一定要吃的六碗面，你最喜欢哪一碗？",
        "docid": "7300757636478239243",
        "url": ""
    },
    {
        "title": "胃病三分治七分养，多吃养胃食物，健脾又养胃",
        "docid": "7314929498275889699",
        "url": ""
    },
    {
        "title": "做水蒸蛋时，别傻傻只会加水，多加“这一勺”，又滑又嫩还不腥",
        "docid": "7326103210401088040",
        "url": ""
    },
    {
        "title": "芥末到底是什么制作的、为什么叫“芥末”？吃了20多年总算明白了",
        "docid": "7320779952721265179",
        "url": ""
    },
    {
        "title": "藏在身边的“推粪猛将”！每天来一杯，肠道干净，全身都通畅",
        "docid": "7304894080390431295",
        "url": ""
    },
    {
        "title": "凉拌藕片，一焯水就发黑？牢记1个诀窍，莲藕白净脆爽，入味好吃",
        "docid": "7327660078503821834",
        "url": ""
    },
    {
        "title": "坐火车吃什么东西最馋人，网友:都快把俺馋哭了",
        "docid": "7332098135604331043",
        "url": ""
    },
    {
        "title": "下一周的晚餐我已安排妥当，你说这标准可以不？",
        "docid": "7311244527543517759",
        "url": ""
    },
    {
        "title": "没想到贵州办酒席的理由能这么离谱！吃席吃到怀疑人生，太奇葩了",
        "docid": "7330822664246034963",
        "url": ""
    },
    {
        "title": "白切鸡直接用水煮又老又腥？想要皮脆肉嫩，这4个步骤是“关键”",
        "docid": "7304659453369287178",
        "url": ""
    },
    {
        "title": "八爪鱼，煮熟嚼不动？渔民指出错误，分享2个技巧，鲜香爽脆不老",
        "docid": "7316438456261935628",
        "url": ""
    },
    {
        "title": "福建七大怪菜，外地人见了吓得三哆嗦，尝后连呼：哇塞味道好极了",
        "docid": "7310174575290352138",
        "url": ""
    },
    {
        "title": "中国牛肉面的天花板，不在西北在湖北",
        "docid": "7322647652213031451",
        "url": ""
    },
    {
        "title": "“姑娘，这是火车卧铺啊，咱能穿上衣服睡觉吗？”这谁受得了啊！",
        "docid": "7331369592830427684",
        "url": ""
    },
    {
        "title": "福建三大“悲剧啤酒”！曾经家喻户晓，如今却成为时代的眼泪！",
        "docid": "7326804076891521555",
        "url": ""
    },
    {
        "title": "“老字号”漂洋过海，常熟炒浇面在罗马火了",
        "docid": "7329852743064093195",
        "url": ""
    },
    {
        "title": "中国压缩饼干吃一块顶一天，它是用什么做成的，为什么这么抗饿？",
        "docid": "7302754385933632012",
        "url": ""
    },
    {
        "title": "海鲜买回家不会做怎么办？教你这6款海鲜做法，一看就会。",
        "docid": "7321629755445510697",
        "url": ""
    },
    {
        "title": "自热米饭的米不是真大米",
        "docid": "7330134294578430473",
        "url": ""
    },
    {
        "title": "别再丢掉了！这5种食物没有保质期，尤其第4种，放越久越值钱",
        "docid": "7332051750901268992",
        "url": ""
    },
    {
        "title": "云南省各市的土特产总汇",
        "docid": "7313366948287676979",
        "url": ""
    },
    {
        "title": "中国食用油标准！大家收藏备用，千万别买错咯",
        "docid": "7324901658364969506",
        "url": ""
    },
    {
        "title": "小年夜的5道硬菜，营养美味年味足，老人小孩都爱吃，赶紧安排上",
        "docid": "7330814600348271141",
        "url": ""
    },
    {
        "title": "13万人排队抢，堪比春运！与山姆同行，是如何掏空广东人钱包的？",
        "docid": "7331297917112173091",
        "url": ""
    },
    {
        "title": "十个兄弟聚一起，一天一家吃不过来了，但是真开心！",
        "docid": "7332088669039657472",
        "url": ""
    },
    {
        "title": "6款百元内的优质白酒，便宜好喝不上头，可以“闭眼入”",
        "docid": "7314516486515671606",
        "url": ""
    },
    {
        "title": "曾红极一时的“伊拉克蜜枣”，还被当糖果吃，如今为何销声匿迹？",
        "docid": "7320842787333685811",
        "url": ""
    },
    {
        "title": "为什么广东菜上不了国宴？国宴十大名菜你吃过哪几道呢？",
        "docid": "7325681325854163468",
        "url": ""
    },
    {
        "title": "我在超市上班发现，穷人只买肉，有钱人才买得起果蔬",
        "docid": "7320057445592629795",
        "url": ""
    },
    {
        "title": "蔬菜“甲醛大户”被揪出？辨别蔬菜有技巧，这3点早知早受益！",
        "docid": "7319384036223287843",
        "url": ""
    },
    {
        "title": "将二锅头冒充茅台酒出售既不构成销售伪劣产品罪也不构成诈骗罪",
        "docid": "7298959470833697314",
        "url": ""
    },
    {
        "title": "两个北方人来广州出差，在当地吃个饭，结账时大眼瞪小眼，高消费",
        "docid": "7327548021477130806",
        "url": ""
    },
    {
        "title": "中国人公认的下饭神器，你最喜欢哪道？",
        "docid": "7315011075953443379",
        "url": ""
    },
    {
        "title": "知名水饺被曝“造假”，已售出140万包！快检查下你家冰箱",
        "docid": "7329793792314458678",
        "url": ""
    },
    {
        "title": "第一次在广州白天鹅喝茶，一根油条价格你绝对想象不到。",
        "docid": "7319388692777452073",
        "url": ""
    },
    {
        "title": "我妈做的一周的晚餐！按照这个标准，你觉得哪天最好",
        "docid": "7313913578841555468",
        "url": ""
    },
    {
        "title": "古时候，普通人每天吃什么？放到现代，你可能一口都咽不下去",
        "docid": "7312412512291553827",
        "url": ""
    },
    {
        "title": "四川农村的宴席，600元一桌能吃16荤6素。",
        "docid": "7300807641310282250",
        "url": ""
    },
    {
        "title": "承包你一个月的晚餐，再也不用为晚上吃什么发愁了，赶紧收藏？",
        "docid": "7317236347734131250",
        "url": ""
    },
    {
        "title": "调芝麻酱时，用水用油，全都错了！老北京火锅店大厨教您正确做法",
        "docid": "7326055365341151778",
        "url": ""
    },
    {
        "title": "北方“最尴尬”的五种饺子，当地人的心头爱，离开本地混不下去",
        "docid": "7301529939025936896",
        "url": ""
    },
    {
        "title": "承包你一个月的午餐！家常快手，营养美味，10分钟搞定，赶紧收藏",
        "docid": "7320231808199836198",
        "url": ""
    },
    {
        "title": "终于有人把“酒桌顺口溜”整理出来了，太精辟了，值得收藏",
        "docid": "7332340485388124672",
        "url": ""
    },
    {
        "title": "中国最爱芋头的省份，能把芋头吃出多少花来？",
        "docid": "7328225339678065186",
        "url": ""
    },
    {
        "title": "这菜比肉贵，却很少人嫌弃，见到就买，简单一煮，特别好吃",
        "docid": "7324332554075750946",
        "url": ""
    },
    {
        "title": "全国哪的茶叶最好喝？经过评比，这4个地方比较有名，有你家乡吗",
        "docid": "7329724623384445455",
        "url": ""
    },
    {
        "title": "没想到吧？让刀削面成为当地一绝的，不是山西！",
        "docid": "7327937841911136768",
        "url": ""
    },
    {
        "title": "央视已曝光，警惕黑作坊红薯粉条，如何分辨好的红薯粉条呢？",
        "docid": "7302309607782433290",
        "url": ""
    },
    {
        "title": "长得帅气的男人，都有什么好处",
        "docid": "7321671547582956058",
        "url": ""
    },
    {
        "title": "终于理解东北人对冻梨摆盘的无力感，切成薄片的甘蔗是无声的嘲讽",
        "docid": "7320521094409519657",
        "url": ""
    },
    {
        "title": "广西最怪三道菜，外地人看了直摇头，本地人表示吃不够",
        "docid": "7321581131554423305",
        "url": ""
    },
    {
        "title": "怕上火，多吃这3种蔬菜，一滋阴润燥，二疏肝养血，三清热解毒",
        "docid": "7306416623202779699",
        "url": ""
    },
    {
        "title": "外国人真的喜欢中国美食么？网友：老外吃了碗馄饨，感觉要升天了",
        "docid": "7322728823928177203",
        "url": ""
    },
    {
        "title": "贵不一定就代表好，这五款各省代表裸瓶酒经济实惠，你喝过几个？",
        "docid": "7329545651807863346",
        "url": ""
    },
    {
        "title": "终于有人把“喝酒划拳顺口溜”整理好了，赶紧收藏起来看看吧。",
        "docid": "7328306516136641076",
        "url": ""
    },
    {
        "title": "80年代最怀旧的零食，吃过五种的都老了，最后一个你知道名字吗？",
        "docid": "7302711315179667980",
        "url": ""
    },
    {
        "title": "笑麻了，山西文旅宣传山西菜，评论区网友回答太有意思了",
        "docid": "7331641444333322806",
        "url": ""
    },
    {
        "title": "半个月不重样的早餐做法来了，跟着我一起吃，营养简单又美味！",
        "docid": "7302422736893116968",
        "url": ""
    },
    {
        "title": "姐妹们，我懒出新高度了，却意外好吃。",
        "docid": "7312246161342022153",
        "url": ""
    },
    {
        "title": "陈皮茶的经典搭配",
        "docid": "7303690703685665291",
        "url": ""
    },
    {
        "title": "6道炸物灵魂小吃，外酥里嫩，简直不要太好吃",
        "docid": "7305764350189453862",
        "url": ""
    },
    {
        "title": "不管炖啥鱼，只放葱姜蒜就错了，多放2味调料，鱼肉不腥入味好吃",
        "docid": "7318679070529782299",
        "url": ""
    },
    {
        "title": "吃自助餐，聪明人选择“3吃4不吃”，服务员：不是同行就是内行",
        "docid": "7301640727640015423",
        "url": ""
    },
    {
        "title": "吃葡萄干时，要不要洗一下？听听新疆人怎么说,告诉你正确吃法，",
        "docid": "7329784581233148435",
        "url": ""
    },
    {
        "title": "东北的表姐给的配方！一口下去直接被惊艳到了！",
        "docid": "7324512141225214516",
        "url": ""
    },
    {
        "title": "饭馆最暴利的9道菜，成本“贼”低，价格却挺贵，有你常吃的吗？",
        "docid": "7309747940015686181",
        "url": ""
    },
    {
        "title": "被丈夫抛弃，卖水饺谋生，这个山东女人年入60亿，比肩“老干妈”",
        "docid": "7309090571518329398",
        "url": ""
    },
    {
        "title": "这种蔬菜晒干后，比新鲜的更好吃！放一年都不坏，随手和肉一蒸，入味又下饭！",
        "docid": "7308281406575198729",
        "url": ""
    },
    {
        "title": "炒菜时，不能放葱姜蒜的4种菜，很多人都不知道，看完涨知识了",
        "docid": "7317118854843810345",
        "url": ""
    },
    {
        "title": "山东最被忽略的美食之城，如何重新定义了鲁菜？",
        "docid": "7305959858493637170",
        "url": ""
    },
    {
        "title": "昆明不可错过的十大小吃！快收藏，挨个去吃~",
        "docid": "7304188257191887412",
        "url": ""
    },
    {
        "title": "腌酸菜时，别只知道加盐，学会3个技巧，不发霉不起沫，越放越香",
        "docid": "7306501341487333929",
        "url": ""
    },
    {
        "title": "太牛！美国41岁女华人爆火：用饺子征服波士顿，年收入450万美元",
        "docid": "7331967231012078132",
        "url": ""
    },
    {
        "title": "女婿给老丈人送酒，选大气不失面子的32款好酒",
        "docid": "7331164652136972834",
        "url": ""
    },
    {
        "title": "“一茅五”这个梗怕是过不去了",
        "docid": "7331247040942572068",
        "url": ""
    },
    {
        "title": "五个女子晒早餐，同样是男友做的，网友：没有对比就没有伤害",
        "docid": "7310428068802232832",
        "url": ""
    },
    {
        "title": "切记不能只求口感，面包店里4种面包不能买，面点师：内行人不吃",
        "docid": "7301193593145131532",
        "url": ""
    },
    {
        "title": "牛肉的各个部位叫啥咋吃大全来啦",
        "docid": "7309862298032931328",
        "url": ""
    },
    {
        "title": "一张图秒懂：茅台品类和等级划分",
        "docid": "7329473967025275444",
        "url": ""
    },
    {
        "title": "老北京喝酒“怪象”：高不喝茅台，低不喝牛栏山，唯爱这4款酒！",
        "docid": "7319758006755836479",
        "url": ""
    },
    {
        "title": "七十年代去“下馆子”，2块钱在饭店都能吃些啥？满满都是回忆！",
        "docid": "7317919250235064866",
        "url": ""
    },
    {
        "title": "世界上排名前十的洋酒品牌，你喝过几种？",
        "docid": "7303831437235765811",
        "url": ""
    },
    {
        "title": "可惜你不是广西的孩子你不懂“我吃饱了，大家慢慢吃”的压迫感！",
        "docid": "7329059116033344010",
        "url": ""
    },
    {
        "title": "上海一家六口的晚餐，在朋友圈火了，网友：求蹭饭",
        "docid": "7328330528082477608",
        "url": ""
    },
    {
        "title": "野战部队都不能例外，为什么只有中国人，这么执著于炒糖色？",
        "docid": "7310532566024405514",
        "url": ""
    },
    {
        "title": "6种“最难吃”的蔬菜，争议很大，全爱吃的才是“牛人”!",
        "docid": "7307556451747365412",
        "url": ""
    },
    {
        "title": "被东北人的脑洞惊到了！这一根上百斤的火腿肠比腿都粗",
        "docid": "7325213663038603788",
        "url": ""
    },
    {
        "title": "胃好三分治七分养，多吃几种“养胃之宝”，健脾养胃，提高免疫力",
        "docid": "7314299620946657819",
        "url": ""
    },
    {
        "title": "冬天吃肉怕长胖，试试这样吃，又香又美味，吃再多也不怕胖",
        "docid": "7332010696051327527",
        "url": ""
    },
    {
        "title": "太香了，分享6道让人流口水的炒面，营养又美味，全家都点赞",
        "docid": "7312270145005765132",
        "url": ""
    },
    {
        "title": "在厦门，这家海鲜大排档真的没有一天不排队！！！",
        "docid": "7302524990870585865",
        "url": ""
    },
    {
        "title": "涨知识了：为什么不建议吃太多瓜子？",
        "docid": "7299640519099974183",
        "url": ""
    },
    {
        "title": "现用的高压锅已经20多年了，炖肉、熬粥、烙饼样样行，真是杠杠滴",
        "docid": "7317107980833915407",
        "url": ""
    },
    {
        "title": "没利润都不长久，曾经火爆的仙庙烧鸡，不是转让就是关门了",
        "docid": "7306042160514925092",
        "url": ""
    },
    {
        "title": "一天最多吃6场酒！贵州女子吐槽当地乱办酒：小孩剃头发都摆酒",
        "docid": "7330786955602428428",
        "url": ""
    },
    {
        "title": "苍耳用过烤一烤，老祖宗留下来的土方法，解决很多人的问题，收藏",
        "docid": "7329759221384987171",
        "url": ""
    },
    {
        "title": "奶奶传给我一道菜，顿顿饭都离不开。",
        "docid": "7309723663921267250",
        "url": ""
    },
    {
        "title": "这个低调的西北小城，却藏着中国羊肉的“天花板”",
        "docid": "7305964396537430554",
        "url": ""
    },
    {
        "title": "春节期间3个待客诀窍：午饭千万别吃早了，家里不要太整洁。",
        "docid": "7332014253714965026",
        "url": ""
    },
    {
        "title": "这三种食材堪称“天然造血库”，建议气血不足的人，每周吃3次",
        "docid": "7324193519231386131",
        "url": ""
    },
    {
        "title": "过年，就是回家的味道",
        "docid": "7331924363337630271",
        "url": ""
    },
    {
        "title": "腊肠灌好后，“风干”还是 “晒干”？不要搞错了，不然发霉变臭",
        "docid": "7309427526127288847",
        "url": ""
    },
    {
        "title": "担心的事还是发生了！中国糖葫芦被“偷”，改名换姓“韩国蜜饯”",
        "docid": "7332107953745183284",
        "url": ""
    },
    {
        "title": "“十人九腰痛”，建议这4菜一周吃2次，腰不酸腿有力，越吃越健康",
        "docid": "7330587108920345115",
        "url": ""
    },
    {
        "title": "盘点完我家的过年物资后，发现自己居然是土豪",
        "docid": "7332037006886978063",
        "url": ""
    },
    {
        "title": "订单排满！腐乳变“东方奶酪”？在海外卖爆了！",
        "docid": "7332372106329965108",
        "url": ""
    },
    {
        "title": "心脏决定寿命！建议中老年人：别太节俭，多吃这8样，越吃越年轻",
        "docid": "7309413710362329652",
        "url": ""
    },
    {
        "title": "救命找不到比它们还好吃的泡面了…封神！香迷糊了",
        "docid": "7311901197814989321",
        "url": ""
    },
    {
        "title": "中国最好吃的5种咸菜，3个在南方，2个在北方，有你吃过的吗？",
        "docid": "7322779197259514377",
        "url": ""
    },
    {
        "title": "付费19000元学来的炸串技术，酱料是一绝，配方精准到克",
        "docid": "7319702073866912275",
        "url": ""
    },
    {
        "title": "穷还想精致，我买的最没用的东西就是围炉煮茶的家伙事，没有之一",
        "docid": "7323784323843375650",
        "url": ""
    },
    {
        "title": "养胃高手不只是小米，也可以是它！1周吃2次，健脾养胃身体棒",
        "docid": "7317606887313637951",
        "url": ""
    },
    {
        "title": "“通便大王”不是香蕉，而是它！排毒养颜，身心健康",
        "docid": "7307099891807814156",
        "url": ""
    },
    {
        "title": "这菜浑身是宝，才3元一斤，家家户户吃得起，增强免疫身体强壮！",
        "docid": "7316551848666759743",
        "url": ""
    },
    {
        "title": "被称为“垃圾食品”，方便面又不是军粮，为何救灾食品中总有它？",
        "docid": "7314555496135180800",
        "url": ""
    },
    {
        "title": "抽一口要两万元，一支能卖782万元！高端雪茄到底凭什么这么贵？",
        "docid": "7306089868231328295",
        "url": ""
    },
    {
        "title": "我妈做的这九种肉丸汤，太好喝了，每一款都深受欢迎！",
        "docid": "7309105854224024103",
        "url": ""
    },
    {
        "title": "价值3000的上海生煎包商用做法配方免费分享给大家适合摆摊做早餐",
        "docid": "7308656252459188773",
        "url": ""
    },
    {
        "title": "鸡蛋有这么多种花样做法，太好吃了，不能只有我知道",
        "docid": "7309060073262203426",
        "url": ""
    },
    {
        "title": "炒菜其实并不难，学会了你就是大厨",
        "docid": "7303736160738705939",
        "url": ""
    },
    {
        "title": "这个吃法实在太好吃了，我怎么没早点发现，真的好吃到想哭",
        "docid": "7318242418707612201",
        "url": ""
    },
    {
        "title": "春节快到了，推荐几道“福气菜”！寓意年年有余，福气满满当当",
        "docid": "7332085321162687016",
        "url": ""
    },
    {
        "title": "湖南女婿吐槽“陕西人大冬天吃凉菜”。老陕回复：这个真的改不了",
        "docid": "7332297835088085531",
        "url": ""
    },
    {
        "title": "南方小金豆吃北方血肠，给东北“大冻梨”干沉默了，评论区炸了",
        "docid": "7325619958434955803",
        "url": ""
    },
    {
        "title": "它是“天然青霉素”，建议一周吃2次，杀菌抗炎，增强免疫力",
        "docid": "7325265132165071401",
        "url": ""
    },
    {
        "title": "买排骨，“前排”“中排”“后排”差别很大，弄懂了，少花冤枉钱",
        "docid": "7314163957592523299",
        "url": ""
    },
    {
        "title": "海鲜市场的螃蟹你都分得清吗？",
        "docid": "7329074603468014132",
        "url": ""
    },
    {
        "title": "7道压箱底的菜谱，可以让你一周都不重复的享受美食！",
        "docid": "7300743906969387572",
        "url": ""
    },
    {
        "title": "去河北下馆子就点这6道菜，本地人吃不腻，你吃过几道？",
        "docid": "7320494840976966144",
        "url": ""
    },
    {
        "title": "跟倪大师学的甘蔗水，真的润爆了。",
        "docid": "7315997281541489162",
        "url": ""
    },
    {
        "title": "山东5大怪菜，本地人当成宝，外地人受不了，你又能接受几个呢？",
        "docid": "7318294210318090804",
        "url": ""
    },
    {
        "title": "虾虾你就像我这样做，嘎嘎好吃嘎嘎香，朋友吃了都叫我原地开店~",
        "docid": "7329789023689245236",
        "url": ""
    },
    {
        "title": "龙虾太好吃马骞抢下单，董宇辉笑骂：这娃挣钱一分也别想带回家",
        "docid": "7331992574904992306",
        "url": ""
    },
    {
        "title": "中国热辣第一大省，凭什么靠零食征服了全国？",
        "docid": "7301138131858883106",
        "url": ""
    },
    {
        "title": "曾经开遍地铁口的包子店，现在却倒闭完了，是包子不好吃了吗？",
        "docid": "7315040144448520740",
        "url": ""
    },
    {
        "title": "云南老同学寄来的特产，上海女子直接扔垃圾桶了：闻到味儿就想跑",
        "docid": "7300735544668602934",
        "url": ""
    },
    {
        "title": "宝总泡饭配6个小菜，包邮区网友：这个我熟",
        "docid": "7323459067329659432",
        "url": ""
    },
    {
        "title": "能增加河南人年味儿的不止有餐桌的扣碗，还有……",
        "docid": "7331994722447573544",
        "url": ""
    },
    {
        "title": "在外面餐厅吃过一回，真的被炫到了。",
        "docid": "7316359374170210842",
        "url": ""
    },
    {
        "title": "揭秘茶圈十大垃圾茶：看有没有你的口粮茶！",
        "docid": "7321706817939194387",
        "url": ""
    },
    {
        "title": "以前2毛一个，如今却成为厨余垃圾，为什么啤酒厂不回收啤酒瓶了?",
        "docid": "7302284811274715659",
        "url": ""
    },
    {
        "title": "我家吃了五十年的茄子咸菜，现在依然是难得的美味哦",
        "docid": "7327280463486157348",
        "url": ""
    },
    {
        "title": "茶叶在人体里到底在干嘛，有人给你画出来了！",
        "docid": "7313017847402627599",
        "url": ""
    },
    {
        "title": "售价不到20元的牛栏山，大家明知是酒精酒，为何它还能年销百亿？",
        "docid": "7321610349172752948",
        "url": ""
    },
    {
        "title": "广东人的味觉居然这么灵敏 ?食物死了几天吃一口就知道了，震惊了",
        "docid": "7325999668784185890",
        "url": ""
    },
    {
        "title": "饭店里“最脏”的5道菜，很多人下馆子必点！饭店员工一口都不吃",
        "docid": "7303470267173749263",
        "url": ""
    },
    {
        "title": "大鱼大肉都不如这些菜，比骨头汤还补钙，含钙量很高，增免疫",
        "docid": "7322752539769274891",
        "url": ""
    },
    {
        "title": "“礼有三不随”，别管好不好意思，这三种礼不要去，没有任何意义",
        "docid": "7312358263792681509",
        "url": ""
    },
    {
        "title": "饺子馅能不能放蚝油？牢记“4放3不放”，饺子香嫩多汁，好吃不腻",
        "docid": "7304497047020159542",
        "url": ""
    },
    {
        "title": "我家的家常菜！就是这么简单！这九天的饭菜可以参考一下！",
        "docid": "7316457690250428964",
        "url": ""
    },
    {
        "title": "一个人也要好好吃饭哦，这些菜谱简单家常，新手也能轻松学会",
        "docid": "7300156938053141044",
        "url": ""
    },
    {
        "title": "公认7大下酒菜，全是老酒鬼最爱，喝酒够劲儿，看看你吃过哪几种",
        "docid": "7311538504323416616",
        "url": ""
    },
    {
        "title": "它是蔬菜中的“黑马”，一补钙，二润肠，三抗老化，中老年要常吃",
        "docid": "7320436128761250323",
        "url": ""
    },
    {
        "title": "买来的白菜别总放着，来看看这几个家常做法超好吃！",
        "docid": "7307215085028737576",
        "url": ""
    },
    {
        "title": "“廿六吃5菜，来年无祸事”，今日腊月廿六，吃5样是指啥？",
        "docid": "7332319175601635879",
        "url": ""
    },
    {
        "title": "感谢老祖宗发明了它！鲜到离谱、暖过秋裤，冬日进补天花板！",
        "docid": "7311974636911198746",
        "url": ""
    },
    {
        "title": "一种水果等于五味药 春节安排上",
        "docid": "7332404604858794546",
        "url": ""
    },
    {
        "title": "春节临近，5道年夜饭压轴菜，寓意满满，味道鲜美，赶紧学起来",
        "docid": "7331713146328990247",
        "url": ""
    },
    {
        "title": "洋葱加白醋泡一泡，没想到这么厉害，吃了3天管用，就服老辈做法",
        "docid": "7319887902858068491",
        "url": ""
    },
    {
        "title": "18种手写配方，精准到克，牛杂的配方绝了，先收藏起来备用",
        "docid": "7312433158861881894",
        "url": ""
    },
    {
        "title": "一顿饭居然要198元，太贵了？！",
        "docid": "7320967980601492008",
        "url": ""
    },
    {
        "title": "它是“粮食之母”，蛋白比牛肉高，中老年常吃，降胆固醇，稳血糖",
        "docid": "7320866275453174313",
        "url": ""
    },
    {
        "title": "中国10种最好吃的早餐，最后一种没200块钱吃不到",
        "docid": "7309717848832754217",
        "url": ""
    },
    {
        "title": "香晕了！已经连续吃了三晚 ​～太太好吃",
        "docid": "7328374207552733705",
        "url": ""
    },
    {
        "title": "我妈做了几十年的辣椒油！拜托…传下去！",
        "docid": "7305696760184488488",
        "url": ""
    },
    {
        "title": "海南省著名的十大小吃",
        "docid": "7315607402731160098",
        "url": ""
    },
    {
        "title": "连吃了两周核桃煮鸡蛋，人都舒服了。",
        "docid": "7331230065890001435",
        "url": ""
    },
    {
        "title": "我妈一辈子吃不胖的秘诀，原来都在这6道蒸菜身上！",
        "docid": "7318267414670688779",
        "url": ""
    },
    {
        "title": "当北方人第一次来广州吃烧鹅，看到这场面真的眼睛都大了！",
        "docid": "7320571287184228918",
        "url": ""
    },
    {
        "title": "中老年人多吃4道“补铁菜”，气血足，精力旺，身体更健康",
        "docid": "7329076850951897611",
        "url": ""
    },
    {
        "title": "同样是吃小麦，为何西方人烤成了面包，东方人却蒸成了馒头？",
        "docid": "7317497437558850060",
        "url": ""
    },
    {
        "title": "求你们～有空气炸锅的都去做！巨巨…巨好吃！",
        "docid": "7326369345809859112",
        "url": ""
    },
    {
        "title": "“除夕三不摆，龙年祸不兴”，除夕夜3种水果别上桌，当心犯忌讳",
        "docid": "7332434598934331938",
        "url": ""
    },
    {
        "title": "年夜饭桌上，分享六道美味菜肴，营养丰富，开开心心过大年！",
        "docid": "7331393887086707254",
        "url": ""
    },
    {
        "title": "正大量上市！吃 5 颗就会中毒？专家提醒……",
        "docid": "7332447146815636002",
        "url": ""
    },
    {
        "title": "吃素菜的朋友过年有口福了，这16款绿色美食做法来了！",
        "docid": "7331969673564881442",
        "url": ""
    },
    {
        "title": "农村几块钱一斤的散酒能喝吗？其实能喝，不过有几个风险要明白",
        "docid": "7307460545303872034",
        "url": ""
    },
    {
        "title": "20道养生晋菜",
        "docid": "7332288763621655078",
        "url": ""
    },
    {
        "title": "美食记：烧卖、烧麦、稍美、稍麦……各地烧卖有什么不同？",
        "docid": "7317857824381141530",
        "url": ""
    },
    {
        "title": "贵州省各市的特产大全",
        "docid": "7303596552873083407",
        "url": ""
    },
    {
        "title": "各种养生蔬菜沙拉：清爽可口的瘦身美食",
        "docid": "7332362786833580594",
        "url": ""
    },
    {
        "title": "苏州人的这锅汤，鲜得眉毛都要掉下来",
        "docid": "7321885691116274216",
        "url": ""
    },
    {
        "title": "做这个网站的是天才，他让我在家疯狂做菜",
        "docid": "7330101674104947209",
        "url": ""
    },
    {
        "title": "发现了没有，外边的小吃都吃不起了",
        "docid": "7322038043240874536",
        "url": ""
    },
    {
        "title": "中国哪里的花椒最好吃？经过对比，有5个地方上榜，你知道几种呢",
        "docid": "7319844229440750131",
        "url": ""
    },
    {
        "title": "长得像葱，吃起来像韭，这种能让羊肉鲜而不膻的菜，好多人没吃过！",
        "docid": "7306377408553468456",
        "url": ""
    },
    {
        "title": "这小凉拌菜，朋友吃了都叫我原地开店，真的巨巨好吃！",
        "docid": "7303453380847092239",
        "url": ""
    },
    {
        "title": "为什么祖宗优选从不骗人？中国餐桌上的奇怪食材，藏着哪些苦难史",
        "docid": "7327508776909996544",
        "url": ""
    },
    {
        "title": "山东生活18年，洋女婿“雷哥”很地道",
        "docid": "7329348588457640499",
        "url": ""
    },
    {
        "title": "它是“穷人的阿胶”，每天吃3颗胜过1只老母鸡，滋补气血又养颜",
        "docid": "7325267552379552310",
        "url": ""
    },
    {
        "title": "有没有什么量足便宜好吃耐吃的零食？",
        "docid": "7273310297950782008",
        "url": ""
    },
    {
        "title": "我国哪里的包子最好吃？经对比，6个地方榜上有名，你知道几个？",
        "docid": "7323480423467369012",
        "url": ""
    },
    {
        "title": "除夕夜可以准备这几道甜点，每一道都很好吃，建议收藏",
        "docid": "7332147186232443426",
        "url": ""
    },
    {
        "title": "黄瓜也要做成一朵花来",
        "docid": "7332323530384278042",
        "url": ""
    },
    {
        "title": "豆腐乳的堕落？三百年名牌货只剩一层皮，一块腐乳下不去半拉馍",
        "docid": "7327600058386580022",
        "url": ""
    },
    {
        "title": "用酵母粉蒸馒头时，有人放食用碱，有人加小苏打，内行人：都错了",
        "docid": "7305770291631161919",
        "url": ""
    },
    {
        "title": "嘉兴最受欢迎的10家老字号面馆",
        "docid": "7307253685435007526",
        "url": ""
    },
    {
        "title": "泰酷辣！她把当代年轻人的精神状态做成了小饼干~",
        "docid": "7311164165295931941",
        "url": ""
    },
    {
        "title": "眼睛是看这世界的窗户，这5种护眼食物多吃，缓解疲劳保护眼睛！",
        "docid": "7302316724010107444",
        "url": ""
    },
    {
        "title": "一个女人有没有福气，从吃饭就能看出来，一清二楚",
        "docid": "7332414282107240999",
        "url": ""
    },
    {
        "title": "喜欢吃土豆的宝子，一定要去试试这个孜然鸡翅土豆条呀！",
        "docid": "7321312309891564068",
        "url": ""
    },
    {
        "title": "山西昔阳的特色美食！",
        "docid": "7305589141910585890",
        "url": ""
    },
    {
        "title": "年夜饭餐桌一定要有凉拌菜，这几款凉拌菜好做好吃，爽口解腻",
        "docid": "7331751012356096521",
        "url": ""
    },
    {
        "title": "老朱的快餐店：人均15元管饱，坚持给老幼免费供餐",
        "docid": "7332450312785412642",
        "url": ""
    },
    {
        "title": "腌雪里蕻，只放盐腌就错了，教你一招，翠绿鲜香，不变味不长毛",
        "docid": "7308689386043097636",
        "url": ""
    },
    {
        "title": "苹果别在直接吃了，用苹果搭配这些“食材”煮水喝，脾胃太舒服了",
        "docid": "7308588715725898274",
        "url": ""
    },
    {
        "title": "巨巨巨下饭的肉沫菜合集，是妈妈的味道！太好吃了，赶紧收藏？",
        "docid": "7322448795714175526",
        "url": ""
    },
    {
        "title": "家庭自制糕点合集来喽，附详细教程，好吃又好看！",
        "docid": "7331764353345929740",
        "url": ""
    },
    {
        "title": "听一句劝，这种饮料真的不要给孩子喝，不仅会变笨，还影响发育",
        "docid": "7330828127033131535",
        "url": ""
    },
    {
        "title": "“养生不排寒，一切都白谈”，这4碗汤每周安排1次，排寒身体好",
        "docid": "7307540424309096998",
        "url": ""
    },
    {
        "title": "茶颜悦色工商信息发生变更，股东新增一家香港公司",
        "docid": "7332346589068984858",
        "url": ""
    },
    {
        "title": "买饼干时，遇见这5款饼干别错过，几乎零差评，量大好吃又便宜",
        "docid": "7315663665389355555",
        "url": ""
    },
    {
        "title": "成龙正式代言泸州老窖了",
        "docid": "7326913940376814099",
        "url": ""
    },
    {
        "title": "大年三十，别老吃饺子，这几道菜也要做，寓意美好团圆又美味",
        "docid": "7332323985914626597",
        "url": ""
    },
    {
        "title": "除夕夜当天，无论有钱没钱，记得摆5种“吉祥果”，你家里买了吗",
        "docid": "7332447878931481099",
        "url": ""
    },
    {
        "title": "今年不少香港人将北上吃年夜饭，港媒：深圳的餐厅出现一桌难求情况",
        "docid": "7332258410819240488",
        "url": ""
    },
    {
        "title": "挑选柚子有诀窍，牢记这五点，一挑一个准，皮薄又多汁",
        "docid": "7299748114675089946",
        "url": ""
    },
    {
        "title": "高铁1h直达！江南最被低估的“美食福地”，遍地鱼鲜，无所不蒸",
        "docid": "7332445958350930472",
        "url": ""
    },
    {
        "title": "这杯真的抗老！养发固肾+卵巢保养喝它就够了！",
        "docid": "7300785165126124067",
        "url": ""
    },
    {
        "title": "全国哪的香油最好吃？经过评比，这5个地方比较出名，有你家乡吗",
        "docid": "7304187483313537548",
        "url": ""
    },
    {
        "title": "韭菜炒香干的家常做法，步骤简单，鲜香入味，营养健康又好吃",
        "docid": "7332016418789917221",
        "url": ""
    },
    {
        "title": "炖大白菜，直接炖就大错特错了，教您饭店不外传的小窍门，太香了",
        "docid": "7315376898451259919",
        "url": ""
    },
    {
        "title": "学会这九种小甜品，就不用再买奶茶喝了哦！赶紧收藏！",
        "docid": "7301954524711862836",
        "url": ""
    },
    {
        "title": "说一说除贵州茅台以外，贵州省的其他20款名酒",
        "docid": "7281658671791751699",
        "url": ""
    },
    {
        "title": "炸馒头片，不要裹蛋液，巧用一个料，馒头片更酥脆，吃着不油腻",
        "docid": "7316486089001271823",
        "url": ""
    },
    {
        "title": "冬季进补别小气，喝4道“补阳”汤，滋补润燥，升阳驱寒少生病",
        "docid": "7332401834901897782",
        "url": ""
    },
    {
        "title": "8090后小时候的美味",
        "docid": "7326381895858815522",
        "url": ""
    },
    {
        "title": "胡麻油和亚麻籽油的区别，别搞混了！",
        "docid": "7305362789911527987",
        "url": ""
    },
    {
        "title": "美食背后的难题",
        "docid": "7332403679138054690",
        "url": ""
    },
    {
        "title": "我国哪款面粉最好吃？这10种面粉值得一试",
        "docid": "7304510349397934629",
        "url": ""
    },
    {
        "title": "美食的诱惑有多大？这些美食，让你垂涎三尺、流口水、馋得不行！",
        "docid": "7331654326248817161",
        "url": ""
    },
    {
        "title": "开水烫碗筷，广东人的餐前“仪式感”到底有必要吗？告诉你答案！",
        "docid": "7306086067340853810",
        "url": ""
    }
]