[
    {
        "title": "赵露思的冬日高级感穿搭",
        "docid": "7311667944545763874",
        "url": ""
    },
    {
        "title": "服装制版 - 插肩袖、双排扣、经典大衣",
        "docid": "7312030335150211610",
        "url": ""
    },
    {
        "title": "江苏一美女挑战剃寸头，颜值不仅没下降反倒更帅气：颜值太抗打",
        "docid": "7288907229586162211",
        "url": "https://www.ixigua.com/7288907229586162211"
    },
    {
        "title": "大哥从广州过来东莞找美女理发师修面，全过程太舒服还解压",
        "docid": "7310077581477609996",
        "url": "https://www.ixigua.com/7310077581477609996"
    },
    {
        "title": "【KANSAI】那个，关西时尚盛典的女孩有没有更符合你的审美呢？",
        "docid": "7280905656952062500",
        "url": "https://www.ixigua.com/7280905656952062500"
    },
    {
        "title": "笑死！没想到这是2023年时装剧女主的穿搭！真是老天爷赏土吃！",
        "docid": "7299424915315393058",
        "url": "https://www.ixigua.com/7299424915315393058"
    },
    {
        "title": "【混剪】一分多钟就可以看完12位樱花妹的走秀，三大秀场的集锦。",
        "docid": "7287955232183714343",
        "url": "https://www.ixigua.com/7287955232183714343"
    },
    {
        "title": "女子不满意化妆师化的妆，自己上手化出新娘妆太惊艳：有效化妆",
        "docid": "7293320772565762610",
        "url": "https://www.ixigua.com/7293320772565762610"
    },
    {
        "title": "最全解析！2024年度流行色新鲜出炉，怎么搭最好看？",
        "docid": "7311358600205566505",
        "url": ""
    },
    {
        "title": "实话实说洗发水真的会越用越秃吗",
        "docid": "7311726605402505791",
        "url": ""
    },
    {
        "title": "买一件真皮皮衣究竟花多少钱才合理，听听皮衣生产商的建议",
        "docid": "7282717726282351162",
        "url": "https://www.ixigua.com/7282717726282351162"
    },
    {
        "title": "盘点2000年代的超模走秀名场面-经典回顾",
        "docid": "7311981006687470080",
        "url": "https://www.ixigua.com/7311981006687470080"
    },
    {
        "title": "【金砖+时尚峰会】阿根廷品牌 Sadals 2024年春夏女装",
        "docid": "7311405100696601098",
        "url": "https://www.ixigua.com/7311405100696601098"
    },
    {
        "title": "可以丑但不能低俗擦边",
        "docid": "7287922852584817204",
        "url": "https://www.ixigua.com/7287922852584817204"
    },
    {
        "title": "皮毛之都“桑坡村”，满大街奢侈品，连续八年探访，今年真不一样",
        "docid": "7283191180572131881",
        "url": "https://www.ixigua.com/7283191180572131881"
    },
    {
        "title": "女生卖掉前男友送的包发现是假货，狗子反应店员乐了：狗都嫌弃",
        "docid": "7283776623839707685",
        "url": "https://www.ixigua.com/7283776623839707685"
    },
    {
        "title": "董卿回老家喝喜酒被围观！穿灰T黑裤与妇女无异，但气质却不普通",
        "docid": "7310203734984901131",
        "url": ""
    },
    {
        "title": "半个娱乐圈都来到了GQ时尚人物盛典，杨紫美出新高度，千玺长大了",
        "docid": "7309386143999492660",
        "url": ""
    },
    {
        "title": "英国影星 Sienna Miller 怀孕了，41岁怀二胎",
        "docid": "7312124628095222307",
        "url": ""
    },
    {
        "title": "这才是中年女人该有的打扮：膝下裙+中跟鞋，谁见都夸年轻",
        "docid": "7297124625891820068",
        "url": ""
    },
    {
        "title": "2023年度最佳鞋款！adidas终于做出爆款了！",
        "docid": "7312029073147445770",
        "url": ""
    },
    {
        "title": "初秋风衣怎么穿？这4步搭配思路，穿搭示范，让你时髦又减龄",
        "docid": "7280063456827507215",
        "url": ""
    },
    {
        "title": "你没见过的杨幂写真集@头条号",
        "docid": "7301975836452880950",
        "url": "https://www.ixigua.com/7301975836452880950"
    },
    {
        "title": "韩国最应该这申遗的就是妆造，18年前的绝美女二有戴不完的耳饰",
        "docid": "7302395460382261800",
        "url": "https://www.ixigua.com/7302395460382261800"
    },
    {
        "title": "穿衣保守才是红毯必杀技，迪丽热巴知性优雅，周冬雨尽显青春可人",
        "docid": "7288233491848921611",
        "url": "https://www.ixigua.com/7288233491848921611"
    },
    {
        "title": "小时候就觉得她好像有戴不完的耳环，就连盘发放到现在也不过时！",
        "docid": "7279685559969448505",
        "url": "https://www.ixigua.com/7279685559969448505"
    },
    {
        "title": "温碧霞的早期穿搭，时尚果然是一个轮回，那时候的穿搭真的好绝",
        "docid": "7286085386819142203",
        "url": "https://www.ixigua.com/7286085386819142203"
    },
    {
        "title": "这就是开金店赚钱的秘密",
        "docid": "7311319591576633867",
        "url": "https://www.ixigua.com/7311319591576633867"
    },
    {
        "title": "还是日本的走秀养眼，每一秒钟都舍不得眨眼，欧美国家弱爆了",
        "docid": "7300227902769988132",
        "url": "https://www.ixigua.com/7300227902769988132"
    },
    {
        "title": "雯丽那丫头想破了头也不知道自己输在哪…",
        "docid": "7311286068639334921",
        "url": "https://www.ixigua.com/7311286068639334921"
    },
    {
        "title": "do you like it欧美暗黑",
        "docid": "7281835639266673192",
        "url": "https://www.ixigua.com/7281835639266673192"
    },
    {
        "title": "实拍杭州万象城现状，究竟是不是最高档商场？懂的人自然明白",
        "docid": "7290869708818285095",
        "url": "https://www.ixigua.com/7290869708818285095"
    },
    {
        "title": "#日常vlog #甜妹 #奶凶 你们觉得哪个好看",
        "docid": "7285380970352476712",
        "url": "https://www.ixigua.com/7285380970352476712"
    },
    {
        "title": "女星为防走光最后的倔强，周冬雨严防死守。",
        "docid": "7305365269084865064",
        "url": "https://www.ixigua.com/7305365269084865064"
    },
    {
        "title": "挑战穿御姐风和学院风，简直是两个极限，一个太性感一个太乖巧",
        "docid": "7283448458852172303",
        "url": "https://www.ixigua.com/7283448458852172303"
    },
    {
        "title": "#未成年禁止纹身 #纹身手稿 #广南墨客刺青",
        "docid": "7308985816368448051",
        "url": "https://www.ixigua.com/7308985816368448051"
    },
    {
        "title": "不去理发店剃头的人越来越多，行内人说出其中套路，真让人服了",
        "docid": "7254427350257893945",
        "url": "https://www.ixigua.com/7254427350257893945"
    },
    {
        "title": "在家无聊翻腾衣柜，抱出4款经典大衣试穿，可女神可休闲真是爱了",
        "docid": "7311159171628892672",
        "url": "https://www.ixigua.com/7311159171628892672"
    },
    {
        "title": "第一集｜【奚梦瑶】维密走秀盘点，亚洲模特你喜欢哪一个",
        "docid": "7300909875242992165",
        "url": "https://www.ixigua.com/7300909875242992165"
    },
    {
        "title": "时尚妖精江喜的衣橱，要是小三长这样。那我可以理解了……",
        "docid": "7281684639385649699",
        "url": "https://www.ixigua.com/7281684639385649699"
    },
    {
        "title": "媳妇给品牌方试服装，一件比一件好看，老公心慌了：幸亏只试不买",
        "docid": "7299364135937147419",
        "url": "https://www.ixigua.com/7299364135937147419"
    },
    {
        "title": "小姐姐的紫色油亮袜太吸睛了；集温柔与浪漫一身，简直不要太美！",
        "docid": "7310008820620034595",
        "url": "https://www.ixigua.com/7310008820620034595"
    },
    {
        "title": "从画里走出来的美人，不得不说旗袍是真的很考验身材。",
        "docid": "7292358099972096523",
        "url": "https://www.ixigua.com/7292358099972096523"
    },
    {
        "title": "泰国版的维密秀",
        "docid": "7309392536983274010",
        "url": "https://www.ixigua.com/7309392536983274010"
    },
    {
        "title": "中国Z世代兴起“城市漫步”",
        "docid": "7311841783359586850",
        "url": ""
    },
    {
        "title": "2023年云南省珠宝玉石和贵金属饰品产品质量监督抽查情况通报",
        "docid": "7311637412487414310",
        "url": ""
    },
    {
        "title": "美女剃光头全过程",
        "docid": "7279804335435809315",
        "url": "https://www.ixigua.com/7279804335435809315"
    },
    {
        "title": "化妆师还没有停手之前，你永远猜不到自己的脸会被化成什么样子",
        "docid": "7282288101240766987",
        "url": "https://www.ixigua.com/7282288101240766987"
    },
    {
        "title": "这男人昨天疯了一天，包括我🤩🤩#檀健次 #檀健次gq盛典造型",
        "docid": "7309917046316696083",
        "url": "https://www.ixigua.com/7309917046316696083"
    },
    {
        "title": "胖东来怎么卖皮衣？#胖东来 #胖东来的一些小细节 #超市购物",
        "docid": "7299637506293793320",
        "url": "https://www.ixigua.com/7299637506293793320"
    },
    {
        "title": "女性朋友送了根LV腰带，帅哥想拿来变现，结果让帅哥伤透了心",
        "docid": "7285918517542126132",
        "url": "https://www.ixigua.com/7285918517542126132"
    },
    {
        "title": "男孩花39.9元贴心买防过敏耳饰送妈妈，获妈妈超惊喜回应",
        "docid": "7311976822886171148",
        "url": "https://www.ixigua.com/7311976822886171148"
    },
    {
        "title": "欧美时尚走秀 15",
        "docid": "7312068414137336358",
        "url": "https://www.ixigua.com/7312068414137336358"
    },
    {
        "title": "当年她顶着奇奇怪怪的造型，也美得明艳动人，牛魔王不知好歹了",
        "docid": "7283341302115074572",
        "url": "https://www.ixigua.com/7283341302115074572"
    },
    {
        "title": "女人的标准体重 ，我的是 163，94.4 斤，你们的呢🤭🤭",
        "docid": "7279395241570861568",
        "url": "https://www.ixigua.com/7279395241570861568"
    },
    {
        "title": "来看看景甜的百万衣橱，每一套都绝绝子，你最想拥有哪一套？",
        "docid": "7291614954850157093",
        "url": "https://www.ixigua.com/7291614954850157093"
    },
    {
        "title": "上海外来媳妇烫完头，被下班刚进门的老公又骂又吐槽，真的很丑吗",
        "docid": "7288999415690297911",
        "url": "https://www.ixigua.com/7288999415690297911"
    },
    {
        "title": "过年的衣服我都准备好了，659的黑金羽绒服，打开感觉太值了",
        "docid": "7306766154906501658",
        "url": "https://www.ixigua.com/7306766154906501658"
    },
    {
        "title": "如果判断一条牛仔裤的档次？根据很多细节就能体现出来，美银货啊",
        "docid": "7311778229646262825",
        "url": "https://www.ixigua.com/7311778229646262825"
    },
    {
        "title": "优衣库超保暖的轻薄羽绒服大降价低至百元任何年龄都适合太太值了",
        "docid": "7310542490702971444",
        "url": "https://www.ixigua.com/7310542490702971444"
    },
    {
        "title": "非洲男友又又赞助了2套汉服，这下好了，一起爱臭美了！",
        "docid": "7290026195570459192",
        "url": "https://www.ixigua.com/7290026195570459192"
    },
    {
        "title": "这才是真正的奢侈品，一块玉镯经过层层剥离",
        "docid": "7302049027729261106",
        "url": "https://www.ixigua.com/7302049027729261106"
    },
    {
        "title": "在朋友家捡到大漏，一千块变成一千万！还说靠自己聪明发家致富",
        "docid": "7294948103261454888",
        "url": "https://www.ixigua.com/7294948103261454888"
    },
    {
        "title": "老奶奶卖宝贝，小哥不以为然，不料看后小哥当时就迈不动腿了！",
        "docid": "7297460001596310016",
        "url": "https://www.ixigua.com/7297460001596310016"
    },
    {
        "title": "微喇裤的引入给我们带来了一种新的审美体验。",
        "docid": "7311892766697701903",
        "url": ""
    },
    {
        "title": "全员超模RobertoCavaⅡiFi||/Wihter2007#t台走秀",
        "docid": "7312167772190933504",
        "url": "https://www.ixigua.com/7312167772190933504"
    },
    {
        "title": "送德国婆婆定制旗袍，美得像画报中的人儿！ #旗袍",
        "docid": "7290113534787387967",
        "url": "https://www.ixigua.com/7290113534787387967"
    },
    {
        "title": "近期vera wang 王薇薇，70+除了地吸引力感觉真的只是个数字",
        "docid": "7283391549441114680",
        "url": "https://www.ixigua.com/7283391549441114680"
    },
    {
        "title": "戴了10多年眼镜，第一次尝试天花板级别镜架，果然没让我失望",
        "docid": "7297923324846440971",
        "url": "https://www.ixigua.com/7297923324846440971"
    },
    {
        "title": "30多天环球打工的故事#陆仙人",
        "docid": "7294107123661668873",
        "url": "https://www.ixigua.com/7294107123661668873"
    },
    {
        "title": "美女剃光头",
        "docid": "7300889316191011380",
        "url": "https://www.ixigua.com/7300889316191011380"
    },
    {
        "title": "郭晶晶蕾丝内衣外搭黑收腰大衣，尽显名媛范儿",
        "docid": "7292592272326165033",
        "url": "https://www.ixigua.com/7292592272326165033"
    },
    {
        "title": "走秀最多观看集合30",
        "docid": "7312073260848382490",
        "url": "https://www.ixigua.com/7312073260848382490"
    },
    {
        "title": "中国和西方女性有哪里不一样？美国女性一语道破，真让人意想不到",
        "docid": "7280444215048766015",
        "url": "https://www.ixigua.com/7280444215048766015"
    },
    {
        "title": "内娱明星的伪精致，杨幂秘密藏不住，鞠婧祎没有就硬凹",
        "docid": "7311975283882787369",
        "url": "https://www.ixigua.com/7311975283882787369"
    },
    {
        "title": "家传的黄金白菜，女子要价三十万，金店表示三十可以吗",
        "docid": "7294573530929496630",
        "url": "https://www.ixigua.com/7294573530929496630"
    },
    {
        "title": "五孩宝妈带两个女儿去买羽绒服，同款衣服穿出来不同的感觉",
        "docid": "7308583660427412002",
        "url": "https://www.ixigua.com/7308583660427412002"
    },
    {
        "title": "国际超模走秀哪家强？刘雯遇上赌王儿媳奚梦瑶，专业差距一目了然",
        "docid": "7308626313790063141",
        "url": "https://www.ixigua.com/7308626313790063141"
    },
    {
        "title": "不同国家的万国小姐，各国佳丽身着华丽礼服，惊艳登场",
        "docid": "7296777612147065344",
        "url": "https://www.ixigua.com/7296777612147065344"
    },
    {
        "title": "婆婆专业户，年轻的时候太美了吧，满头珠钗造型古典雅致",
        "docid": "7275245922278507045",
        "url": "https://www.ixigua.com/7275245922278507045"
    },
    {
        "title": "杭州四季青被抢爆的高端国风羽绒服上新，难怪，大家都说好看",
        "docid": "7289488808234451512",
        "url": "https://www.ixigua.com/7289488808234451512"
    },
    {
        "title": "千万别追德云社同款，容易“倾家荡产”，老秦九熙出行穿搭十几万",
        "docid": "7281952279769547325",
        "url": "https://www.ixigua.com/7281952279769547325"
    },
    {
        "title": "住帆船酒店退房，带走卫生间全套的爱马仕。记住不卑不亢自信从容",
        "docid": "7301255154601460250",
        "url": "https://www.ixigua.com/7301255154601460250"
    },
    {
        "title": "摇曳时尚：牛仔裤+长筒靴的今冬狂潮",
        "docid": "7311894180660593192",
        "url": ""
    },
    {
        "title": "西班牙女王最新照片！旧衣清新养眼，坐在台下补妆看起来太少女了",
        "docid": "7312065014461137449",
        "url": ""
    },
    {
        "title": "时尚之旅：40岁女性通勤穿搭的完美密码",
        "docid": "7311889088817594930",
        "url": ""
    },
    {
        "title": "别再说羽绒服烂大街了！学习博主这样搭，每天都能美得不重样",
        "docid": "7312067932123611711",
        "url": ""
    },
    {
        "title": "韩国夫人访问荷兰第一天放大招！松石绿大衣惊艳了，赢了荷兰王后",
        "docid": "7312069376768098879",
        "url": ""
    },
    {
        "title": "北方限定版烫发？女生就地取材用暖气片烫卷发，一秒解锁新发式！",
        "docid": "7311621614469120546",
        "url": "https://www.ixigua.com/7311621614469120546"
    },
    {
        "title": "揭秘:足疗店的工装区分",
        "docid": "7285763048730526220",
        "url": "https://www.ixigua.com/7285763048730526220"
    },
    {
        "title": "十大丢人的手串，你中招了吗？",
        "docid": "7280934268677653003",
        "url": "https://www.ixigua.com/7280934268677653003"
    },
    {
        "title": "用课本人物练习画眼线，看来真不是所有眼型都适合上扬眼线…",
        "docid": "7280725285564383802",
        "url": "https://www.ixigua.com/7280725285564383802"
    },
    {
        "title": "刘恺威的女友李晓峰，换了个发型，像换个人，很女人！",
        "docid": "7311747289599509031",
        "url": ""
    },
    {
        "title": "孟晚舟、李富真穿搭惊艳！裙不上膝，不穿丝袜，色不过三，好高级",
        "docid": "7312066479544009235",
        "url": ""
    },
    {
        "title": "张天爱、胡杏儿罕见同框，一个穿露脐装秀身材、一个穿红裙显贵气",
        "docid": "7312052474985546279",
        "url": ""
    },
    {
        "title": "被上海街拍惊艳到了！戴围巾、衣不紧身、色不过三，个个洋气好看",
        "docid": "7312110339213148683",
        "url": ""
    },
    {
        "title": "冬天半裙配色别乱选！久穿不过时的只有这三类，经典又百搭",
        "docid": "7312067099655291411",
        "url": ""
    },
    {
        "title": "冬天最耐穿还是“直筒裤”，搭这几种上衣利落保暖、还很时髦！",
        "docid": "7312056464502243876",
        "url": ""
    },
    {
        "title": "这是我见过最优雅的妈妈，出门不是戴帽子就是“裹围巾”，特洋气",
        "docid": "7312127131671233033",
        "url": ""
    },
    {
        "title": "超模刘雯的帅气秋冬私服穿搭推荐",
        "docid": "7312217564359410216",
        "url": ""
    },
    {
        "title": "寒冬临近，时尚护足有妙招！",
        "docid": "7311887298679996968",
        "url": ""
    },
    {
        "title": "冬季太适合穿“外套”！不差钱的中年女人穿这3种，显瘦好看",
        "docid": "7312053142131278390",
        "url": ""
    },
    {
        "title": "在冬季的穿搭中，毛领是一款不可或缺的时尚配饰。",
        "docid": "7311904241286169088",
        "url": ""
    },
    {
        "title": "平胸、矮个、虎背能腰，这5位女星红毯造型，全方位暴露身材缺陷",
        "docid": "7308677085927981580",
        "url": ""
    },
    {
        "title": "惊艳还是尴尬？邓紫棋演唱会服装的设计让人不解",
        "docid": "7311276641165246991",
        "url": ""
    },
    {
        "title": "42岁金莎亮相上海车展，礼裙廉价、发型非主流，离开滤镜一言难尽",
        "docid": "7311662373709169204",
        "url": ""
    },
    {
        "title": "皮相美人和骨相美人的区别，看36岁景甜和43岁的董洁就知道了",
        "docid": "7310897007026553353",
        "url": ""
    },
    {
        "title": "没想到，优衣库还可以这样玩！",
        "docid": "7308764189361930786",
        "url": ""
    },
    {
        "title": "合照没输过，上镜却没赢过，这8位不上镜的女明星，太可惜了",
        "docid": "7280781267568706083",
        "url": ""
    },
    {
        "title": "北京这夜，被坐在张若昀旁边的唐艺昕惊艳，真情侣大方撒糖最好嗑",
        "docid": "7309832642764096009",
        "url": ""
    },
    {
        "title": "男士发型推荐，男生必看！",
        "docid": "7298669411370959412",
        "url": ""
    },
    {
        "title": "被骂了11年的古力娜扎最终还是走上了‘红毯女星’这条路！",
        "docid": "7311918324143653426",
        "url": ""
    },
    {
        "title": "什么叫真正的“名媛气质”？看完郭晶晶和巩俐的同框图，我悟了！",
        "docid": "7312030751695077926",
        "url": ""
    },
    {
        "title": "孟子义的裤子好看不贵，腿长真的靠穿搭呀",
        "docid": "7283675082776445474",
        "url": ""
    },
    {
        "title": "李小冉：不愧内地神级宅男女神，皮肤白里透红，身形完美呈现！",
        "docid": "7311341039800435235",
        "url": ""
    },
    {
        "title": "别以为扎个双马尾就是少女了，10位中年女星扮嫩，一个比一个辣目",
        "docid": "7293783174206013963",
        "url": ""
    },
    {
        "title": "47岁舒淇和27岁虞书欣相差20岁，非诚3发布会上实际状态却正相反",
        "docid": "7311304360892711436",
        "url": ""
    },
    {
        "title": "李富真是我见过最得体的名媛：裙不上膝，裤不紧身，更优雅知性",
        "docid": "7293792458154967592",
        "url": ""
    },
    {
        "title": "真的会被一些香水测评笑晕，怎么会有这么大白话贴切的形容",
        "docid": "7288587914949476898",
        "url": ""
    },
    {
        "title": "一般人养不起的5位女星，个个壕无人性花钱如流水，来看看都有谁",
        "docid": "7309423538434261555",
        "url": ""
    },
    {
        "title": "拜托，男明星驾驭不了小啾啾就别强撑了，这几位才是啾啾界天花板",
        "docid": "7301702248135098889",
        "url": ""
    },
    {
        "title": "尖嘴猴腮别硬吹神颜，7位女星告诉你，古典美人从来都是温婉端庄",
        "docid": "7301973415068500516",
        "url": ""
    },
    {
        "title": "爱马仕柜哥月入6万，LV柜姐3万？内行人：夸张！入职条件更夸张",
        "docid": "7301276434906710543",
        "url": ""
    },
    {
        "title": "脸上有这6种特征的人，即便老了也很显年轻，看张柏芝就懂了",
        "docid": "7296366008481284662",
        "url": ""
    },
    {
        "title": "理发店的消失谁之错？剪个头发几十元，做个发型几百元，消费不起",
        "docid": "7282308370386944547",
        "url": ""
    },
    {
        "title": "都买得起！令人心动的offer5职场穿搭15则！",
        "docid": "7287812355109454394",
        "url": ""
    },
    {
        "title": "男生穿搭前后对比，长相“一般”穿搭不能“一般”",
        "docid": "7297429438487790114",
        "url": ""
    },
    {
        "title": "世界顶级名媛舞会：躲过了甄子丹女儿，我却被山东首富女儿惊艳了",
        "docid": "7307176813514703414",
        "url": ""
    },
    {
        "title": "张译穿上马面裙，我突然梦回年初被何立大人蛊惑的那段时间",
        "docid": "7300548917077525027",
        "url": ""
    },
    {
        "title": "这就是别人叠穿比你好看的原因 ​​​",
        "docid": "7309307604059537930",
        "url": ""
    },
    {
        "title": "周韵的穿搭风格，内娱独一份",
        "docid": "7289297520697016847",
        "url": ""
    },
    {
        "title": "看看法国街头路人的时髦秋冬，法国人真的是与生俱来的松弛感",
        "docid": "7286278610339054137",
        "url": ""
    },
    {
        "title": "一张照片卖出745w天价，这就是比刘雯热巴更会拍硬照的脸吗？",
        "docid": "7280063821157351977",
        "url": ""
    },
    {
        "title": "窦靖童快把妈妈王菲愁死了！26岁剃头秒变“三毛”，还能找对象不",
        "docid": "7310441412753883663",
        "url": ""
    },
    {
        "title": "为什么袁泉一直都是“短发”？看完她的长发造型，你就知道答案",
        "docid": "7282957874664571448",
        "url": ""
    },
    {
        "title": "看了重庆街拍才发现：没人穿阔腿裤，满街都是“工装裙”，真时髦",
        "docid": "7285363384496308791",
        "url": ""
    },
    {
        "title": "去年冬天的穿搭还是好好看",
        "docid": "7292189378439627314",
        "url": ""
    },
    {
        "title": "刘德华父亲出殡！儿媳朱丽倩又换装，一袭黑色旗袍裙尽显风姿卓绝",
        "docid": "7309724258211611175",
        "url": ""
    },
    {
        "title": "没钱请停止做这5件事",
        "docid": "7282706461128573440",
        "url": ""
    },
    {
        "title": "杨紫近期穿搭合集|换造型团队后真的次次惊艳！",
        "docid": "7309785979722908198",
        "url": ""
    },
    {
        "title": "干瘪却硬吹性感？曾黎的腰，闫妮的腿，这些中年女星才是顶级身材",
        "docid": "7310937810537087514",
        "url": ""
    },
    {
        "title": "被叶倩文的老年状态惊艳了！62岁头发花白，却打扮优雅得体不显老",
        "docid": "7301967124107411995",
        "url": ""
    },
    {
        "title": "为何以前的古装是现代“滤镜ps”都比不上的，这组造型告诉你",
        "docid": "7290392647494189625",
        "url": ""
    },
    {
        "title": "事实证明：会穿比长得好看更重要！",
        "docid": "7301305882674741787",
        "url": ""
    },
    {
        "title": "7档机械表：最佳选择一览",
        "docid": "7294587372912591399",
        "url": ""
    },
    {
        "title": "被上海奶奶圈粉了：白发不染、穿衣简单却高级，60岁依旧优雅体面",
        "docid": "7308026681825002021",
        "url": ""
    },
    {
        "title": "大型露肉现场显风韵！刘诗诗赵露思张天爱白鹿一个比一个穿的少",
        "docid": "7310474835530891787",
        "url": ""
    },
    {
        "title": "她力压凯特，是欧洲王室颜值天花板！穿衣是老钱典范，事业也好猛",
        "docid": "7303527240405533238",
        "url": ""
    },
    {
        "title": "终于知道为啥现在没人画这种妆了 ​",
        "docid": "7304660146100699700",
        "url": ""
    },
    {
        "title": "吴宣仪",
        "docid": "7311540046065467945",
        "url": ""
    },
    {
        "title": "不过万，“打工人”必看的3只平价表款！",
        "docid": "7296424194609824290",
        "url": ""
    },
    {
        "title": "当网红衣服穿在普通人身上会是什么样子呢",
        "docid": "7281849424778265145",
        "url": ""
    },
    {
        "title": "你从哪一刻才真正意识到贫富差距无法跨越？",
        "docid": "7304727982776730146",
        "url": ""
    },
    {
        "title": "“最美反派”杨雪带女儿拍古装照片，看到成品被她的女儿惊艳到了",
        "docid": "7308553752867734016",
        "url": ""
    },
    {
        "title": "秦岚《花儿与少年》17套穿搭 朵拉性格超好私服也好会穿",
        "docid": "7310566210318713354",
        "url": ""
    },
    {
        "title": "“硫磺皂”还可以洗头？上海一女子坚持使用半月，竟出现了神奇的效果",
        "docid": "7311886659266822691",
        "url": ""
    },
    {
        "title": "白百何，离“土”最远的女人！",
        "docid": "7301174610949636645",
        "url": ""
    },
    {
        "title": "这还让金店怎么割韭菜啊？备婚买金！三金五金预算到底怎么分配",
        "docid": "7306773341296362020",
        "url": ""
    },
    {
        "title": "真正的富家千金！贝克汉姆女儿小七新照，瘦身成功后气场无敌",
        "docid": "7310202889581871656",
        "url": ""
    },
    {
        "title": "GQ后台才是“名利场”，谁是交际花，谁是塑料姐妹，全暴露了",
        "docid": "7311636086428729907",
        "url": ""
    },
    {
        "title": "把54岁陈红和56岁徐帆放在一起看，我才彻底明白，什么叫顶级皮相",
        "docid": "7278884166031196707",
        "url": ""
    },
    {
        "title": "看了70岁的朱琳，才明白认清现实优雅老去，才是对岁月最好的尊重",
        "docid": "7281459004826993204",
        "url": ""
    },
    {
        "title": "一眼精致的女生五个特征",
        "docid": "7299962933566603787",
        "url": ""
    },
    {
        "title": "职业妇女的13套穿搭告诉你，“会打扮”与“不会打扮”太重要了",
        "docid": "7290192242952634895",
        "url": ""
    },
    {
        "title": "不同年龄段的女孩子喜欢什么样的包包",
        "docid": "7298291142951895615",
        "url": ""
    },
    {
        "title": "63款大品牌高颜值腕表合集",
        "docid": "7291979814003589671",
        "url": ""
    },
    {
        "title": "白百何离开滤镜好真实，不整容不打针美得自然，穿搭随意却很高级",
        "docid": "7310819394836333097",
        "url": ""
    },
    {
        "title": "家人们，大黄靴也太好穿了吧!",
        "docid": "7308204593131979301",
        "url": ""
    },
    {
        "title": "公价7万7，顶级名表的“守门员”，就是这只宝珀",
        "docid": "7281211375060681216",
        "url": ""
    },
    {
        "title": "世界顶级羽绒服十大品牌排行榜单？什么级别穿什么品牌",
        "docid": "7287483422111531556",
        "url": ""
    },
    {
        "title": "为什么王漫妮可以钓到身家上亿的梁正贤，而樊胜美却不行？",
        "docid": "7286387988576289337",
        "url": ""
    },
    {
        "title": "李健白衬衣上的蝴蝶袖扣",
        "docid": "7306718012785148435",
        "url": ""
    },
    {
        "title": "穿搭小技巧，提高衣品",
        "docid": "7290376684145148456",
        "url": ""
    },
    {
        "title": "真佩服老祖宗的审美！雍容大气，一般气场压不住这衣服",
        "docid": "7302295086233289257",
        "url": ""
    },
    {
        "title": "看了周涛的打扮，我悟了：大衣不配打底裤、运动鞋，更优雅高级",
        "docid": "7305350795807949312",
        "url": ""
    },
    {
        "title": "7位娱乐圈的“半老徐娘”，蜂腰翘臀、长腿美背，越老越有韵味",
        "docid": "7312253222977143311",
        "url": ""
    },
    {
        "title": "无痕裤彻底过时了！满街都是“液体裤”，高级时髦，还意外的显瘦",
        "docid": "7294917991144129062",
        "url": ""
    },
    {
        "title": "看了咏梅、董卿的打扮，我悟了：真正优雅的女人，不穿金戴银也美",
        "docid": "7299649541844959807",
        "url": ""
    },
    {
        "title": "一些属于小短甲的美貌 ​​​",
        "docid": "7307096385814397466",
        "url": ""
    },
    {
        "title": "为什么现在很多女生不化妆只涂口红？看了她们化的妆，我懂了",
        "docid": "7288960769234928189",
        "url": ""
    },
    {
        "title": "女生必须要知道买衣服的定律，冬天不建议买的衣服",
        "docid": "7305307741734666771",
        "url": ""
    },
    {
        "title": "被上海街拍圈粉了！满街都在穿“阔腿裤+低跟鞋”，个个洋气好看",
        "docid": "7290471151540011531",
        "url": ""
    },
    {
        "title": "看了邓丽君80年代的打扮，才明白：什么叫现代高定都比不上的审美",
        "docid": "7298604925775938100",
        "url": ""
    },
    {
        "title": "剪刘海是什么“整容术”？人一下年轻了10岁，对比图就像换一个人",
        "docid": "7296691481518113334",
        "url": ""
    },
    {
        "title": "劝你“羽绒服”少配紧身裤，看完上海杭州女生打扮就知道，太高级",
        "docid": "7306329101722550836",
        "url": ""
    },
    {
        "title": "中国二手衣服被非洲人哄抢，一天卖掉20万！女式内衣最受他们欢迎",
        "docid": "7292379951318467099",
        "url": ""
    },
    {
        "title": "不愧是张曼玉，拎“爱马仕平替”都那么自如",
        "docid": "7281426881340097083",
        "url": ""
    },
    {
        "title": "马君妍法国行穿搭盘点",
        "docid": "7303453670128239156",
        "url": ""
    },
    {
        "title": "唐嫣的初秋穿搭，美拉德无敌了",
        "docid": "7282552978265915939",
        "url": ""
    },
    {
        "title": "哪些手表买了就后悔？内心脆弱一定要避开这几款表！",
        "docid": "7306130440354939402",
        "url": ""
    },
    {
        "title": "被杭州街拍惊艳了：满大街都是“靴中裤”的打扮，却个个洋气好看",
        "docid": "7289404645527716404",
        "url": ""
    },
    {
        "title": "300块和3000块的眼镜，到底有啥区别啊？",
        "docid": "7291514591443288616",
        "url": ""
    },
    {
        "title": "低调的强者 欧米茄海洋宇宙600米腕表Summer Blue表款",
        "docid": "7283807293366714934",
        "url": ""
    },
    {
        "title": "胡乱穿衣会穿衣如此简单一定记住这点",
        "docid": "7280298837280129593",
        "url": ""
    },
    {
        "title": "若你脸上有这3种特征，就是天生的“抗老脸”，年纪越大越吃香！",
        "docid": "7292976267790533147",
        "url": ""
    },
    {
        "title": "小个子女生必须牢记的穿搭公式，上短下长",
        "docid": "7303166290993758758",
        "url": ""
    },
    {
        "title": "秋冬不建议买的6种衣服",
        "docid": "7291899334264996371",
        "url": ""
    },
    {
        "title": "短，中，长款羽绒服的实用价值",
        "docid": "7307888855452058148",
        "url": ""
    },
    {
        "title": "揭露捞女7个不为人知的秘密，背得起爱马仕，却还不上500块",
        "docid": "7295687094687728162",
        "url": ""
    },
    {
        "title": "8瓶被公认好闻的必入“香水排行榜”,哪款属于你的天作之合！ ​​​",
        "docid": "7290812371814433316",
        "url": ""
    },
    {
        "title": "年轻人最爱的10个运动服装品牌",
        "docid": "7287111052243731004",
        "url": ""
    },
    {
        "title": "男士品牌衣服十大排名",
        "docid": "7282597169558209080",
        "url": ""
    },
    {
        "title": "再强调一次：打底裤不要配运动鞋，太土！今年这样穿更时尚显高级",
        "docid": "7279288618575954495",
        "url": ""
    },
    {
        "title": "42岁左小青身材有多好？当她穿泳衣下水时，网友：这不煤气罐吗",
        "docid": "7312120173064978956",
        "url": ""
    },
    {
        "title": "看到武汉素人街拍，我发现：“简约而不简单”才是真正的高级感！",
        "docid": "7290839662686585404",
        "url": ""
    },
    {
        "title": "看了60岁叶童的真实状态，才明白：自然、不装嫩是女人最好的医美",
        "docid": "7280357543099417147",
        "url": ""
    },
    {
        "title": "短短两年，这款表是怎样成为市场新宠的？",
        "docid": "7298539421974970920",
        "url": ""
    },
    {
        "title": "什么脸型就戴什么款式的帽子，合适自己的既好看又保暖",
        "docid": "7310854738038506023",
        "url": ""
    },
    {
        "title": "这才是最适合中年女人的发型：“齐耳卷发”！瞧陈数就知道有多美",
        "docid": "7296689077967946292",
        "url": ""
    },
    {
        "title": "白鹿的秋冬私服穿搭，富家千金呀",
        "docid": "7295160561837539855",
        "url": ""
    },
    {
        "title": "怎样把皮肤养的好好的？女生如何越来越精致",
        "docid": "7288512141584712247",
        "url": ""
    },
    {
        "title": "能背一辈子的大牌包！",
        "docid": "7306119916720112166",
        "url": ""
    },
    {
        "title": "令人心动的offer5中通勤包包推荐",
        "docid": "7290018889818276386",
        "url": ""
    },
    {
        "title": "当代抠门女孩",
        "docid": "7299450107395736127",
        "url": ""
    },
    {
        "title": "被这位51岁“少女”惊艳到，才发现：多穿亮色、款式个性，真时髦",
        "docid": "7311561525511864832",
        "url": ""
    },
    {
        "title": "秋冬通勤搭配",
        "docid": "7309286043956642341",
        "url": ""
    },
    {
        "title": "王晶女儿发育过快，与老爸合照像情侣，蕾丝裙更显女性成熟魅力！",
        "docid": "7311969035258757644",
        "url": ""
    },
    {
        "title": "左小青“国剧盛典”赢麻了！鎏金沙裙美艳又高级，46岁堪比逆生长",
        "docid": "7311262140785164854",
        "url": ""
    },
    {
        "title": "嘉兴这一夜，女星越疯越美！杨幂反差，景甜水嫩，文咏珊猛虎下山",
        "docid": "7309819602409325056",
        "url": ""
    },
    {
        "title": "见过大世面的中年女人，穿裙子都不会高于膝盖，看李富真就知道了",
        "docid": "7302801532737815040",
        "url": ""
    },
    {
        "title": "好惨的对比！这才是女明星真实的“腿型”……",
        "docid": "7299695818259481088",
        "url": ""
    },
    {
        "title": "宋轶",
        "docid": "7311542123722031652",
        "url": ""
    },
    {
        "title": "高鼻梁已经失宠了！现在的“低山根”反而更吃香，减龄又有氛围感",
        "docid": "7304182825744450085",
        "url": ""
    },
    {
        "title": "东北人都穿貂？以前上万一件的裘皮大衣，为何越来越不值钱了？",
        "docid": "7293892444885025343",
        "url": ""
    },
    {
        "title": "江疏影",
        "docid": "7311534249143108115",
        "url": ""
    },
    {
        "title": "不建议买的4个羽绒服品牌，听着上档次，实际都是智商税！太坑人",
        "docid": "7312013946771423780",
        "url": ""
    },
    {
        "title": "看了周海媚的穿搭：她真是当之无愧的时髦王者，“教科书”级别了",
        "docid": "7312060706944270860",
        "url": ""
    },
    {
        "title": "看了60岁章小蕙的打扮，我发现：中年女人反油腻比扮嫩更显气质",
        "docid": "7295270002880479744",
        "url": ""
    },
    {
        "title": "配色美学，一周穿搭不重样",
        "docid": "7299609599596823050",
        "url": ""
    },
    {
        "title": "美国亿万富翁为重返18岁，花千万保养，拿17岁儿子血浆全身换血",
        "docid": "7292393797098209803",
        "url": ""
    },
    {
        "title": "会穿搭和不会穿搭的区别，女生必看！",
        "docid": "7296675745831977507",
        "url": ""
    },
    {
        "title": "这才是最省心的穿搭公式，“牛仔裤+长筒靴”时髦帅气，真好看！",
        "docid": "7312275220537049663",
        "url": ""
    },
    {
        "title": "LV包包大全，2023年热门款式全在这儿",
        "docid": "7307252297237807616",
        "url": ""
    },
    {
        "title": "全球十大知名色彩，中国占两席",
        "docid": "7303741771731894793",
        "url": ""
    },
    {
        "title": "古代十大定情物，你知道几个 ​​​",
        "docid": "7292187789767213595",
        "url": ""
    },
    {
        "title": "紧身裤和阔腿裤差别究竟有多大？看完这几组搭配，你就知道了",
        "docid": "7291484006326682127",
        "url": ""
    },
    {
        "title": "中年男人：不管差不差钱，都要少穿这3种“廉价鞋”，看着很油腻",
        "docid": "7294459031622681127",
        "url": ""
    },
    {
        "title": "秋冬这样搭也太好看了叭~ ​​​",
        "docid": "7288549581409813052",
        "url": ""
    },
    {
        "title": "脸上有这3种标志的女人，属于天生的“富贵相”，还特抗老、耐看",
        "docid": "7283341801879175740",
        "url": ""
    },
    {
        "title": "花少5|第6期同款真的把传统文化穿出去了",
        "docid": "7306828140541116938",
        "url": ""
    },
    {
        "title": "值得我反复推荐的洗发水们｜油扁塌逆风翻盘 ​​​",
        "docid": "7285568022662939173",
        "url": ""
    },
    {
        "title": "万能穿搭公式：教你如何穿搭不同！",
        "docid": "7296381029961597479",
        "url": ""
    },
    {
        "title": "国产冲锋衣排名：凯乐石拓路者诺诗兰探路者伯希和骆驼哪个更专业",
        "docid": "7283807197937713676",
        "url": ""
    },
    {
        "title": "在中国备受欢迎的十大名表品牌，有你了解的吗？",
        "docid": "7283106503899464207",
        "url": ""
    },
    {
        "title": "冲上热搜“不建议轻易尝试小香风”，一条高赞评论道出实情",
        "docid": "7300845873523786292",
        "url": ""
    },
    {
        "title": "你用的是哪个品牌的拉杆箱？",
        "docid": "7294243321114001972",
        "url": ""
    },
    {
        "title": "同一件衣服如何穿出不同感觉⁉️一定记住这点",
        "docid": "7303362059218108938",
        "url": ""
    },
    {
        "title": "中国“胶鞋”在国外掀狂潮？风靡海外时尚圈，老外：有钱都买不到",
        "docid": "7292375847489896979",
        "url": ""
    },
    {
        "title": "瑞士十大名表的最新排名，这些品牌你都知道吗？",
        "docid": "7280514755758932495",
        "url": ""
    },
    {
        "title": "六位“翠羽黄衫”霍青桐装束妆容对比，谁就是她，谁在充数？",
        "docid": "7287563053061751350",
        "url": ""
    },
    {
        "title": "“衣中茅台”比音勒芬，四千元一件的POLO衫，究竟有什么魔力？",
        "docid": "7280027867323613757",
        "url": ""
    },
    {
        "title": "百达翡丽鄙视理查德吗？劳力士鄙视万国吗？看看表圈等级划分",
        "docid": "7301232571822834191",
        "url": ""
    },
    {
        "title": "GQ盛典男明星生图：王一博造型土气，李诞发福明显，许光汉显老",
        "docid": "7309881337115116086",
        "url": ""
    },
    {
        "title": "婚前的凯特王妃，就长相身材而言，她已经算是很出众的了。",
        "docid": "7309083213027901992",
        "url": ""
    },
    {
        "title": "万能凡士林：20种让你惊叹的实用用途",
        "docid": "7286300607357452840",
        "url": ""
    },
    {
        "title": "精简衣柜！不再购买的21类衣服！",
        "docid": "7297236447986975272",
        "url": ""
    },
    {
        "title": "冲锋衣“风靡一时”，到底要不要买？穿了一个月，这些话不吐不快",
        "docid": "7305968592388915762",
        "url": ""
    },
    {
        "title": "秋冬的衣服真的靠搭配，好喜欢粉色系",
        "docid": "7284811489603584547",
        "url": ""
    },
    {
        "title": "这才是今冬最有气质的打扮：“大衣+裙子”，优雅高级又有女人味",
        "docid": "7304158310390022692",
        "url": ""
    },
    {
        "title": "显瘦！显身材 ！大微胖女孩的穿搭技巧 ​ ​​​",
        "docid": "7286641245878026809",
        "url": ""
    },
    {
        "title": "看了42岁郭晶晶才知道，什么叫“贵妇气质”！衣着简约却优雅大气",
        "docid": "7297444858959036928",
        "url": ""
    },
    {
        "title": "简简单单就很好看",
        "docid": "7289745088748618299",
        "url": ""
    },
    {
        "title": "真正有品位的女人，很少穿牛仔裤配高跟鞋！这样穿更优雅、显气质",
        "docid": "7279986148943069752",
        "url": ""
    },
    {
        "title": "买表，劳力士是“完美”的选择，但我们并不是总需要“完美”",
        "docid": "7295310980110729763",
        "url": ""
    },
    {
        "title": "不得不说，周迅才是中年小个子穿搭典范，时髦大气，看着就高级",
        "docid": "7292035645432758836",
        "url": ""
    },
    {
        "title": "打底裤+短靴=入冬王炸显瘦CP，照着穿稳赢",
        "docid": "7299958662997623333",
        "url": ""
    },
    {
        "title": "天梭表靠复古运动风翻盘了",
        "docid": "7311492213014675994",
        "url": ""
    },
    {
        "title": "张小斐的秋冬私服穿搭，休闲时尚",
        "docid": "7283039110355665423",
        "url": ""
    },
    {
        "title": "近期爱用配饰合集分享一些近期购入的精致小饰品",
        "docid": "7290370666157752889",
        "url": ""
    },
    {
        "title": "杨幂、倪妮、景甜、李沁、杨紫、白鹿等众明星打卡，濮院时尚古镇到底多美！",
        "docid": "7311704781419119156",
        "url": ""
    },
    {
        "title": "女人有没有“贵妇相”，50岁后就看这4个特征，和钱多钱少没关系",
        "docid": "7296744735036555803",
        "url": ""
    },
    {
        "title": "秋冬大衣别瞎买！掌握9大要素就能买对 ​​​",
        "docid": "7296682018123907635",
        "url": ""
    },
    {
        "title": "78岁李谷一和85岁吴彦姝同走机场输太多！一个像贵妇，一个像奶奶",
        "docid": "7309693494040576549",
        "url": ""
    },
    {
        "title": "笑拥了！对比惨烈的卖家秀和买家秀，山雕大衣和黑熊裤真是绝了！",
        "docid": "7307917768895038004",
        "url": ""
    },
    {
        "title": "球鞋巨头官宣回归！可惜，再也回不来了",
        "docid": "7312098573871727145",
        "url": ""
    },
    {
        "title": "这只瑞士表“全球流行”，3、5千就能入手",
        "docid": "7294569629287023144",
        "url": ""
    },
    {
        "title": "被上海地铁奶奶惊艳到！出门不是“戴帽子”就是“裹围巾”，时髦",
        "docid": "7310222197258748442",
        "url": ""
    },
    {
        "title": "男人，比“发福”更可怕的是这4种特征！不仅显老，还很油腻邋遢",
        "docid": "7292219323966439946",
        "url": ""
    },
    {
        "title": "自己看完买衣服和衣品会很牛 ​​​",
        "docid": "7281037101796311609",
        "url": ""
    },
    {
        "title": "当你有件黑色羽绒服不知道怎么搭配时，12套穿搭公式供参考",
        "docid": "7302704777954148875",
        "url": ""
    },
    {
        "title": "好物分享｜中国冲锋衣市场满意度排位：7家达70分以上，洋品牌手握大份额",
        "docid": "7302005711372927529",
        "url": ""
    },
    {
        "title": "超实用的个秋冬裙鞋，搭配技巧！ ​​​",
        "docid": "7297810764843762186",
        "url": ""
    },
    {
        "title": "万用叠穿技巧：搭配篇+配色篇 ​ ​​​",
        "docid": "7287091616840450614",
        "url": ""
    },
    {
        "title": "断舍离后，我不再购买这8类秋冬衣服",
        "docid": "7283893647899345448",
        "url": ""
    },
    {
        "title": "到老都没有“大妈感”的女人，通常有这3个“特征”，你占几个？",
        "docid": "7298630670169965119",
        "url": ""
    },
    {
        "title": "穿搭分享：冬装搭配小技巧",
        "docid": "7297406145264927283",
        "url": ""
    },
    {
        "title": "答应我，身高不足175cm的男人尽量别穿“风衣”，不是显矮就是土",
        "docid": "7302252728145773106",
        "url": ""
    },
    {
        "title": "Knwls 2024春夏时装秀",
        "docid": "7279957983835193891",
        "url": ""
    },
    {
        "title": "看了50岁朱迅的穿衣打扮，我发现：中年女人反油腻比扮嫩更显气质",
        "docid": "7280103094313501241",
        "url": ""
    },
    {
        "title": "32岁的陈凯琳出席活动生图！好靓啊！ 生了两个孩子还这么漂亮！",
        "docid": "7311963892241203721",
        "url": ""
    },
    {
        "title": "长相有这几种特征的，其实是“高知精英脸”，看看你占几条",
        "docid": "7280178762854924858",
        "url": ""
    },
    {
        "title": "我们这群中年人穿上了儿女的衣服，活成了青春又节俭的样子！",
        "docid": "7307403052833669666",
        "url": ""
    },
    {
        "title": "白百何女士剧里穿搭真是秋冬穿衣范本秋冬叠搭只服白姐! ​​",
        "docid": "7279905926918849081",
        "url": ""
    },
    {
        "title": "美拉德与黑色系的碰撞——满满的高级感🔥",
        "docid": "7289632671549227520",
        "url": ""
    },
    {
        "title": "警察要做到什么级别才能穿白衬衫？",
        "docid": "7281490967205904948",
        "url": ""
    },
    {
        "title": "教师的大气温柔穿搭分享 ​​​",
        "docid": "7283681538867741239",
        "url": ""
    },
    {
        "title": "秋冬美拉德│一开始我也理解不了灯芯绒裤子",
        "docid": "7303059870813520395",
        "url": ""
    },
    {
        "title": "8家适合早八人通勤的高质感店铺",
        "docid": "7292591995611103754",
        "url": ""
    },
    {
        "title": "再也不愁怎么搭配鞋子了 ​​​",
        "docid": "7285573697933869628",
        "url": ""
    },
    {
        "title": "一周穿搭合集｜秋冬的每一套都好好看",
        "docid": "7308205810302075430",
        "url": ""
    },
    {
        "title": "一天后，ZARA道歉了",
        "docid": "7312110584429068852",
        "url": ""
    },
    {
        "title": "这一刻对漂亮产生执念",
        "docid": "7311479244243141146",
        "url": ""
    },
    {
        "title": "被上海女生惊艳了！满街都是“冲锋衣+鲨鱼裤”，保暖时髦还显瘦",
        "docid": "7303366052602626572",
        "url": ""
    },
    {
        "title": "\"何穗：国际超模的风采，34岁魔鬼身材散发着不可抗拒的诱人魅力\"",
        "docid": "7312283393759117859",
        "url": ""
    },
    {
        "title": "脸上有这3种“特征”的女人，就剪掉长发吧！短发会更时尚显年轻",
        "docid": "7307819278168949285",
        "url": ""
    },
    {
        "title": "短款搭配VS长款搭配",
        "docid": "7306018000329900581",
        "url": ""
    },
    {
        "title": "女生发量暴增的7个方法，学起来！挑洗发水一定要看配方",
        "docid": "7306419181598147098",
        "url": ""
    },
    {
        "title": "上了年纪的女人，尽量别留长发、少烫发！试试这3种发型，更洋气",
        "docid": "7283436275213287997",
        "url": ""
    },
    {
        "title": "广告图被指影射巴以冲突，ZARA遭到抵制后表态：对误会表示遗憾",
        "docid": "7312219981172130341",
        "url": ""
    },
    {
        "title": "犹太男子头顶小圆帽的前生今世，为什么小帽子从来都不掉？",
        "docid": "7288997551654306339",
        "url": ""
    },
    {
        "title": "不管再怎么喜欢穿卫衣，这几类卫衣都千万不要买，显胖还难看",
        "docid": "7286342324937032192",
        "url": ""
    },
    {
        "title": "浅回忆一下秋冬🍂",
        "docid": "7285636568482660864",
        "url": ""
    },
    {
        "title": "曾是Gucci御用男模，却被艾滋病打入地狱，他如何在生死边缘挣扎",
        "docid": "7300453014434136616",
        "url": ""
    },
    {
        "title": "今天整理了6套穿搭公式供大家参考",
        "docid": "7302986720076546586",
        "url": ""
    },
    {
        "title": "看了何超琼、郭晶晶的打扮，才明白什么叫“真名媛”！太优雅高级",
        "docid": "7307433555230032434",
        "url": ""
    },
    {
        "title": "当年卖小2000元还要连夜排队抢购，如今99元包邮含泪甩卖！又一网红黯然退场",
        "docid": "7312272199069712911",
        "url": ""
    },
    {
        "title": "踢不烂的大黄靴，被自己的情怀回旋踢",
        "docid": "7290857338292945443",
        "url": ""
    },
    {
        "title": "200-2000元男士通勤双肩包选购攻略，从材质到做工都很能打",
        "docid": "7299005558642786831",
        "url": ""
    },
    {
        "title": "看了60岁叶童的打扮我悟了：女人上了年纪，自然老去比扮嫩更气质",
        "docid": "7287877520769352249",
        "url": ""
    },
    {
        "title": "穿衣打扮，为什么说这7类行为“最掉档次”？看完这篇你就知道了",
        "docid": "7285617355848253992",
        "url": ""
    },
    {
        "title": "Levi’s李维斯到底有什么可牛的？",
        "docid": "7288159768299143743",
        "url": ""
    },
    {
        "title": "染发致癌是真的吗？哈佛大学调查11万人长达36年，结论终于出来了",
        "docid": "7287512854742221368",
        "url": ""
    },
    {
        "title": "7个无效护肤行为，看看你是不是也在做。",
        "docid": "7299165988472553995",
        "url": ""
    },
    {
        "title": "男人不管差不差钱，50岁以后建议“不染发、不戴金”，才更有格调",
        "docid": "7300107086057308691",
        "url": ""
    },
    {
        "title": "70岁胡因梦亲身示范：不留长发、不穿老年装，到老都没“大妈感”",
        "docid": "7290827815677673995",
        "url": ""
    },
    {
        "title": "论一百块买了多少，工资突然够用了",
        "docid": "7286238517833826851",
        "url": ""
    },
    {
        "title": "七八十年代流行全国的“的确良”，为何突然消失了？其实它改了名",
        "docid": "7293855762370036262",
        "url": ""
    },
    {
        "title": "160~1600元男士通勤软壳裤推荐，告别臃肿大秋裤做一个美男子！",
        "docid": "7288158952267940371",
        "url": ""
    },
    {
        "title": "这个颜色我服了….没人买还年年出！",
        "docid": "7308656343895327283",
        "url": ""
    },
    {
        "title": "这是我见过最优雅的“日本主妇”：50+打扮素雅简约，高级显年轻",
        "docid": "7283345708101894713",
        "url": ""
    },
    {
        "title": "96套冬季穿搭整理好了，收藏起来照着穿，秒变时尚达人",
        "docid": "7311281290525852186",
        "url": ""
    },
    {
        "title": "男人上了年纪，帽子尽量别戴鸭舌帽、短檐帽，换成这些更绅士减龄",
        "docid": "7298933814876062223",
        "url": ""
    },
    {
        "title": "你的“身高”适合什么长度的连衣裙？看这篇指南就够了！",
        "docid": "7286357649795416612",
        "url": ""
    },
    {
        "title": "张淼怡真的很懂女大学生穿搭 18套都很平价",
        "docid": "7288899221179269669",
        "url": ""
    },
    {
        "title": "赫本亲身示范：女人不管30岁还是50岁，“体态”都比“颜值”重要",
        "docid": "7310599958749971007",
        "url": ""
    },
    {
        "title": "北京街拍的独特魅力，穿搭风格十分时髦和舒适，普通人可以hold住",
        "docid": "7312341211774878242",
        "url": ""
    },
    {
        "title": "被年轻人抛弃的“鞋王品牌”们走向没落",
        "docid": "7311279192501649983",
        "url": ""
    },
    {
        "title": "被周涛惊艳了：不披头散发、仪态端庄、打扮得体，美得自然不做作",
        "docid": "7281912656578478604",
        "url": ""
    },
    {
        "title": "是西班牙王室太穷吗？王后莱蒂齐亚旧衣重穿的次数太高了！",
        "docid": "7279868189457007123",
        "url": ""
    },
    {
        "title": "女人透着廉价感的“5”个特征，不止于穿搭，看看你身边有吗？",
        "docid": "7294990446626030143",
        "url": ""
    },
    {
        "title": "保安行业乱不乱，看看保安穿的服装就知道了？五花八门",
        "docid": "7301980662809068067",
        "url": ""
    },
    {
        "title": "黄金戒指不知道怎么选？看看各种款式都有什么含义再选吧",
        "docid": "7284469921206436386",
        "url": ""
    },
    {
        "title": "悦看|那么多明星造型，除了张韶涵，我不佩服任何人！",
        "docid": "7312336307215467048",
        "url": ""
    },
    {
        "title": "眼睛好似狐狸眼的3位女星，灵动撩人，个个都绝美！",
        "docid": "7311631764127334952",
        "url": ""
    },
    {
        "title": "47岁马伊琍走红毯，“中年尴尬”暴露无遗，想扮年轻却弄巧成拙？",
        "docid": "7311602676976894501",
        "url": ""
    },
    {
        "title": "Sportmax2024春夏系列：探索与自然的边界",
        "docid": "7290824060974629437",
        "url": ""
    },
    {
        "title": "周杰伦Dior霸屏的那一夜，只有Prada满眼是泪",
        "docid": "7312342866255757850",
        "url": ""
    },
    {
        "title": "63岁“时髦奶奶”：人老心不老，白发不染，心态好得让人羡慕！",
        "docid": "7283618962506613306",
        "url": ""
    },
    {
        "title": "小个子女生显高的6种穿搭技巧！",
        "docid": "7306377301057684003",
        "url": ""
    },
    {
        "title": "我发现，现在的人都不染头发了。为什么呢？",
        "docid": "7285704160052609570",
        "url": ""
    },
    {
        "title": "4️⃣8️⃣套合集，简单大方精致时髦精",
        "docid": "7300333449028715058",
        "url": ""
    },
    {
        "title": "00后整顿羽绒服：男大学生穿军大衣，女大学生穿花袄，主打性价比",
        "docid": "7301342569102311945",
        "url": ""
    },
    {
        "title": "合集56套降温咯 开始过冬天了～",
        "docid": "7302615903496110643",
        "url": ""
    },
    {
        "title": "碧湾54型 VS 领潜型39，帝舵小尺寸潜水表的较量",
        "docid": "7282322973799793188",
        "url": ""
    },
    {
        "title": "6.9万元LV新款跟杭州校服“撞衫”？！家长：才100多块，很耐穿",
        "docid": "7310051104916881920",
        "url": ""
    },
    {
        "title": "中年女人适合“扎发”还是“披发”？主要由这5个前提判断，特准",
        "docid": "7280432676547461647",
        "url": ""
    },
    {
        "title": "北京街拍太接地气了，这些穿搭时髦又保暖，普通人直接照搬就挺美",
        "docid": "7311561168324526632",
        "url": ""
    },
    {
        "title": "小黑裤彻底失宠了，今年流行“豆腐裤”，秋冬季节穿上很洋气",
        "docid": "7306706634494116386",
        "url": ""
    },
    {
        "title": "中秋的美拉德穿搭，女明星也爱",
        "docid": "7284114449529979407",
        "url": ""
    },
    {
        "title": "穿羽绒服，到底配“棒球帽”还是“针织帽”？看上海街拍就知道了",
        "docid": "7301634736492118568",
        "url": ""
    },
    {
        "title": "越老越漂亮的女人，一般有这6个特点！",
        "docid": "7289454103204332066",
        "url": ""
    },
    {
        "title": "新年大衣如何搭配，看这一篇就够了",
        "docid": "7311280204948554267",
        "url": ""
    },
    {
        "title": "被66岁“方舒”惊艳到了：色不过三、衣着素雅，美得高级又优雅",
        "docid": "7289404570840072756",
        "url": ""
    },
    {
        "title": "45岁以后不装嫩：记住5穿5不穿，到老都没“土味感”",
        "docid": "7286738870983541288",
        "url": ""
    },
    {
        "title": "“最美律师”Amal Clooney：看了她的连衣裙穿搭，才知道有多优雅",
        "docid": "7286526505637642771",
        "url": ""
    },
    {
        "title": "陈晓东：时尚风暴中的风格秘籍，娱乐界不可忽视的璀璨明珠！",
        "docid": "7311640237011714560",
        "url": ""
    },
    {
        "title": "靴跟选“粗还是细”？选“高还是矮”？下面街拍告诉你答案",
        "docid": "7311241789019603508",
        "url": ""
    },
    {
        "title": "白百何《骄阳伴我》里穿的22件秋冬外套！ ​​​",
        "docid": "7281390073415762492",
        "url": ""
    },
    {
        "title": "“低饱和度色系”搭配，温柔沉稳，秋冬就要这样穿才好看",
        "docid": "7304847712489439759",
        "url": ""
    },
    {
        "title": "六七十岁女人，为什么劝你别把白发染黑？看叶倩文、丛珊就明白了",
        "docid": "7298928709066310144",
        "url": ""
    },
    {
        "title": "“羽绒服叠穿”轰动网络，这种穿法何以让冬天高冷变热辣？",
        "docid": "7312347640342315570",
        "url": ""
    },
    {
        "title": "荣耀牵手保时捷设计 经典传奇永不落幕",
        "docid": "7312383926306325003",
        "url": ""
    },
    {
        "title": "超高回头率穿搭分享!",
        "docid": "7311657203382469158",
        "url": ""
    },
    {
        "title": "LV请建筑大师Frank Gehry改造包包，橘朵新品主打温暖拥抱｜是日美好事物",
        "docid": "7311576902467535399",
        "url": ""
    },
    {
        "title": "建议中年女人，穿裙子少戴手镯、项链！学“名媛”这样打扮真优雅",
        "docid": "7297138311016104463",
        "url": ""
    },
    {
        "title": "“超感”时代，理所当“燃”| 2023搜狐时尚盛典将于12月22日启幕！",
        "docid": "7312369889128251944",
        "url": ""
    },
    {
        "title": "会穿衣和不会穿衣的女人，看这组“对比”就知道，差别不是一般大",
        "docid": "7288925132100223488",
        "url": ""
    },
    {
        "title": "秋冬“棕色大衣”火了：配这5个颜色内搭最好看，显白不老气！",
        "docid": "7311691453963747840",
        "url": ""
    },
    {
        "title": "你好卡西欧 再见卡西欧",
        "docid": "7289273581823984191",
        "url": ""
    },
    {
        "title": "今年火了一种穿法：叫“大衣+小脚裤”，温暖时髦，小个子都爱",
        "docid": "7312298566767116809",
        "url": ""
    },
    {
        "title": "海报直击丨“地大珠宝热”背后：是“真实惠”还是“假便宜”？",
        "docid": "7312068018594218536",
        "url": ""
    },
    {
        "title": "真正优雅的女人，冬天都爱穿“大衣”，选款和搭配看这一篇就够了",
        "docid": "7312363174312133170",
        "url": ""
    },
    {
        "title": "金手镯与俗人的心声",
        "docid": "7283120712347632191",
        "url": ""
    },
    {
        "title": "上海街拍~秋冬穿搭上海街拍，你就是下一个时尚icon！",
        "docid": "7311687084954157602",
        "url": ""
    },
    {
        "title": "原来她才是央视“人间尤物”，46岁穿包臀裙丰腴有致，气质胜董卿",
        "docid": "7312300442778747404",
        "url": ""
    },
    {
        "title": "吴千语在爱的修学旅行中穿搭，富家千金既视感",
        "docid": "7311235326318740020",
        "url": ""
    },
    {
        "title": "被上海街拍惊艳了：满大街都是“一身泥”打扮，却意外的洋气好看",
        "docid": "7297576277703016994",
        "url": ""
    },
    {
        "title": "这么多月相表，谁是正统？",
        "docid": "7292342277979079209",
        "url": ""
    },
    {
        "title": "TikTok开始流行【洗澡前化妆】，“谁说这是白化了？”",
        "docid": "7312316283142652457",
        "url": ""
    },
    {
        "title": "45岁自然老去的玉兰油女孩，穿衣极简却气质高级，越老反而越优雅",
        "docid": "7291191084137316925",
        "url": ""
    },
    {
        "title": "朱珠大美女的私服穿搭，快来参考吧",
        "docid": "7281442298376815138",
        "url": ""
    },
    {
        "title": "木质香水让你轻松拿捏冬日氛围",
        "docid": "7312370691666395702",
        "url": ""
    },
    {
        "title": "上海女生的大衣穿搭，简直是教科书式的！",
        "docid": "7308220139731599872",
        "url": ""
    },
    {
        "title": "三木妈妈的气质“惊艳了时光”，这个冬天照着穿，减龄还优雅",
        "docid": "7312381081675268658",
        "url": ""
    },
    {
        "title": "北京三里屯今冬火了一种穿法，叫“靴子裹丝袜”，洋气显腿细！",
        "docid": "7312373604342710834",
        "url": ""
    },
    {
        "title": "冬天不建议大家买的8件毛衣，90斤穿出120斤效果，看看你有没有？",
        "docid": "7300832256342573580",
        "url": ""
    },
    {
        "title": "裤子与鞋子的穿搭口诀|闭眼入不会错！ ​​​",
        "docid": "7291125312614761019",
        "url": ""
    },
    {
        "title": "秋冬40套简单干净就吼吼看！",
        "docid": "7304098305520189989",
        "url": ""
    },
    {
        "title": "江疏影的最美泳装",
        "docid": "7280727331105260072",
        "url": ""
    },
    {
        "title": "35届金鸡红毯：毛晓彤美背倪妮惊艳透视装",
        "docid": "7311505029444420159",
        "url": ""
    },
    {
        "title": "秋冬还是要走韩系氛围感穿搭",
        "docid": "7283635413728739900",
        "url": ""
    },
    {
        "title": "那些被美甲毁掉的女孩们",
        "docid": "7312367430322799114",
        "url": ""
    },
    {
        "title": "不会出错的“高级感配色公式”，只要搭配到位，穿什么都是顶配",
        "docid": "7303032451000025615",
        "url": ""
    },
    {
        "title": "杨幂花少9组穿搭同款，幂姐好美！ ​ ​​​",
        "docid": "7286252899028681277",
        "url": ""
    },
    {
        "title": "编制风气质，不是想演就能演出来的！",
        "docid": "7287610691987718717",
        "url": ""
    },
    {
        "title": "这才是50+女性的穿搭，配色简单款式大方，优雅知性年轻10岁",
        "docid": "7312378298573767206",
        "url": ""
    },
    {
        "title": "秋天简单的搭配也很好看",
        "docid": "7288155872722256445",
        "url": ""
    },
    {
        "title": "冬天不建议大家穿的3件内搭：看着时髦洋气，实际臃肿显土气",
        "docid": "7312293976756175387",
        "url": ""
    },
    {
        "title": "周杰伦跨足时尚圈，担任Dior全球品牌代言",
        "docid": "7311604651894522403",
        "url": ""
    },
    {
        "title": "冬天的衣服真的好好看！这个季节，时尚不仅是一种装扮",
        "docid": "7311885903860056613",
        "url": ""
    },
    {
        "title": "张瑶穿搭看起来很舒服，看起来也很保暖",
        "docid": "7311666928479699497",
        "url": ""
    },
    {
        "title": "30岁精简后发现的10个小众又精致的鞋子品牌",
        "docid": "7284953483546395199",
        "url": ""
    },
    {
        "title": "47岁林心如杂志写真，上半身两根肩带遮不住，“春光乍泄”！",
        "docid": "7312097754627686927",
        "url": ""
    },
    {
        "title": "“羽绒服”下面一定不要穿裤子，瞧上海、杭州女生这样穿是有多美",
        "docid": "7310903844765336079",
        "url": ""
    },
    {
        "title": "纯欲性感！新生代小花旦孟子义的极品身材",
        "docid": "7312160184695013914",
        "url": ""
    },
    {
        "title": "古驰这个包，三十岁的男人都拿它没办法",
        "docid": "7311493490469323314",
        "url": ""
    },
    {
        "title": "中年女人放任老态的体现：穿打底裤、老年装，显老不说还很廉价",
        "docid": "7294886909804118569",
        "url": ""
    },
    {
        "title": "40+女人穿衣打扮别用力过猛，衣不买多、裤不穿紧，从容又大方！",
        "docid": "7303418897162879515",
        "url": ""
    },
    {
        "title": "华语明星时尚穿搭一览~潮流街拍风范",
        "docid": "7312344388704059939",
        "url": ""
    },
    {
        "title": "盘点36个虚假宣传的商家，让人哭笑不得！",
        "docid": "7287847582192337465",
        "url": ""
    },
    {
        "title": "这届年轻人让资本家发愁，军大衣潮流引人间清醒回归，你能不爱吗",
        "docid": "7300540398940946978",
        "url": ""
    },
    {
        "title": "坚持这些习惯，28天变漂亮！",
        "docid": "7293540227485008436",
        "url": ""
    },
    {
        "title": "秋天喜欢她们的穿搭，简简单单的休闲风，轻松打造无龄感",
        "docid": "7281485224386036285",
        "url": ""
    },
    {
        "title": "洗完头后，自然风干好，还是吹干好？大部分人都做错了！",
        "docid": "7298906882407072290",
        "url": ""
    },
    {
        "title": "精简 | 6类衣物，秋冬不要再买了，一起避坑",
        "docid": "7299818504927511055",
        "url": ""
    },
    {
        "title": "大衣的8个错误穿法!",
        "docid": "7295656728010686988",
        "url": ""
    },
    {
        "title": "这一夜，欧美女星风情万种，透视装、真空裙，一个比一个还敢穿",
        "docid": "7310071111683932687",
        "url": ""
    },
    {
        "title": "全身涂白、排骨胸、竹竿腿、透视装…娱乐圈的病态审美，该停停了",
        "docid": "7281874533705925154",
        "url": ""
    },
    {
        "title": "何超莲在蒂芙尼晚宴上优雅亮相，孕味浓郁引发热议",
        "docid": "7310274988341936680",
        "url": ""
    },
    {
        "title": "39岁芬兰前总理好美：穿短裤配“丝袜”，还穿比基尼彻底放飞自我",
        "docid": "7311919092695319067",
        "url": ""
    },
    {
        "title": "最近火了一种裤子叫“遮踝裤”，回头率高还显瘦，意外的洋气好看",
        "docid": "7311532111809348137",
        "url": ""
    },
    {
        "title": "这才是中年女人“反油腻”的秘诀：裙不上膝、鞋带低跟，优雅显瘦",
        "docid": "7287539211618599436",
        "url": ""
    },
    {
        "title": "等你到了四五十岁，要少穿驼色、灰色，换成这些“年轻色”更减龄",
        "docid": "7308551517811081768",
        "url": ""
    },
    {
        "title": "荷兰王后接待韩国夫人！一身藏蓝色彰显贵气，小一岁金建希也惊艳",
        "docid": "7312041384226259519",
        "url": ""
    },
    {
        "title": "今年不兴靴子了，满大街都穿“裙子+运动鞋”，杨幂、杨紫都上头",
        "docid": "7284204094133715515",
        "url": ""
    },
    {
        "title": "中年之后让自己“贵”起来的好习惯：",
        "docid": "7280541880696340992",
        "url": ""
    },
    {
        "title": "穿搭分享：短羽绒配阔腿裤，穿出你的冬日惬意与潇洒",
        "docid": "7308825094577586698",
        "url": ""
    },
    {
        "title": "价格跳水90%！美第二大巨头宣告破产，又一“天价神话”落瓣！",
        "docid": "7295668747832967715",
        "url": ""
    },
    {
        "title": "年过40岁+的你：放弃“毛衣+紧身裤”吧！这样穿：很美，很自然！",
        "docid": "7312287026240504357",
        "url": ""
    },
    {
        "title": "生活中必不可少的尺寸参考对照图 ​​​！必收藏！每一个你都用得到！",
        "docid": "7295715821186269722",
        "url": ""
    },
    {
        "title": "周涛50多岁的人，气质依然这么好！穿西装、新中式都很有东方韵味",
        "docid": "7311518913618575906",
        "url": ""
    },
    {
        "title": "62岁叶倩文告诉你：女人上了年纪，发不过肩、衣不艳，才足够优雅",
        "docid": "7309675794631868966",
        "url": ""
    },
    {
        "title": "“低跟短靴”在冬天又火了！建议40岁女人可以多穿，简约时髦",
        "docid": "7311561871679914531",
        "url": ""
    },
    {
        "title": "不得不说，这是最适合中年女人的打扮：西装+百褶裙，优雅又知性",
        "docid": "7288571107408527924",
        "url": ""
    },
    {
        "title": "简化极简后，化妆只需 5min",
        "docid": "7291131640472977976",
        "url": ""
    },
    {
        "title": "秋冬系列明星们喜欢将复古元素融入现代时尚打破了季节的单一表达",
        "docid": "7311568809708765696",
        "url": ""
    },
    {
        "title": "今天给大家整理了一波优衣库的秋冬毛衣穿搭合集！",
        "docid": "7294591349947630119",
        "url": ""
    },
    {
        "title": "北京街拍，还有很多小姐姐穿羽绒服，微胖女生也可以放心去穿",
        "docid": "7311308776949694995",
        "url": ""
    },
    {
        "title": "金建希与马克西玛王后的时尚对决：荷兰欢迎仪式上的魅力展现",
        "docid": "7311975560602059304",
        "url": ""
    },
    {
        "title": "千万别选这五种针织衫",
        "docid": "7302241681913741861",
        "url": ""
    },
    {
        "title": "不洗脸真的会让皮肤变好吗？",
        "docid": "7298287896094835239",
        "url": ""
    },
    {
        "title": "秋冬深色系穿搭~",
        "docid": "7300456270518501942",
        "url": ""
    },
    {
        "title": "56岁周海媚告诉你：女人上了年纪，衣要长、发要短，美得优雅端庄",
        "docid": "7304494735874654755",
        "url": ""
    },
    {
        "title": "穿搭分享：冬季一组简约风的穿搭",
        "docid": "7311517554420564490",
        "url": ""
    },
    {
        "title": "宋佳成熟漂亮",
        "docid": "7312306020980818483",
        "url": ""
    },
    {
        "title": "张予曦机场穿搭来了！",
        "docid": "7312370937935348236",
        "url": ""
    },
    {
        "title": "陈冲罕晒全家福！老公绅士儒雅，俩女儿貌美如花，同框温馨又幸福",
        "docid": "7312115174859670035",
        "url": ""
    },
    {
        "title": "到了广州才知道：乐福鞋不兴了！满大街“高帮鞋和靴子”太潮流！",
        "docid": "7284814408776335932",
        "url": ""
    },
    {
        "title": "真的要被虎扑洗发水评分笑死，用什么洗头的神人都有",
        "docid": "7311394661686493696",
        "url": ""
    },
    {
        "title": "蒙口or加拿大鹅大牌过冬羽绒服如何选？",
        "docid": "7310520278592012835",
        "url": ""
    },
    {
        "title": "冬天过一半才发现：小白鞋不兴了！满大街都是“瘦瘦靴”，好洋气",
        "docid": "7312270909874995751",
        "url": ""
    },
    {
        "title": "跌落神坛的“裘皮大衣”，为什么正在淘汰？对比羽绒服，你就懂了",
        "docid": "7306023669501919794",
        "url": ""
    },
    {
        "title": "《很想很想你》热播 周也同款笔记本火了，你种草了吗？",
        "docid": "7312409711339373090",
        "url": ""
    },
    {
        "title": "人体上身前后长-童年到成人的变化及前后衣身平衡的问题",
        "docid": "7312328834102346303",
        "url": ""
    },
    {
        "title": "27套入冬穿搭示范：“羽绒服+牛仔裤”，冬天不露腿，保暖又舒适",
        "docid": "7288539312206037544",
        "url": ""
    },
    {
        "title": "忘掉小香风吧，今年秋冬流行的是千金玛德琳风！新的老钱穿搭！",
        "docid": "7291174506247324160",
        "url": ""
    },
    {
        "title": "世界化妆品女王：自己不化妆，却狠赚爱美人士的钱，身家达5400亿",
        "docid": "7306792822395601443",
        "url": ""
    },
    {
        "title": "建议底子好的女人，中年不留刘海、穿衣简单少打扮，更优雅好看",
        "docid": "7277582383598305828",
        "url": ""
    },
    {
        "title": "被“上海妈妈”惊艳了！裙不上膝、鞋不穿平底，美得优雅还很高级",
        "docid": "7292687803882848768",
        "url": ""
    },
    {
        "title": "大家发现没？穷人大多喜欢买这三样东西，快来看看你有没有买？",
        "docid": "7312359674047693338",
        "url": ""
    },
    {
        "title": "泰王次子真成“白马王子”了！穿白色西服帅翻，妹妹出席晚宴惊艳",
        "docid": "7311615339811340819",
        "url": ""
    },
    {
        "title": "没想到：今年流行的“奶奶棉衣”，比大衣还洋气好看，回头率超高",
        "docid": "7302799951665349160",
        "url": ""
    },
    {
        "title": "国剧盛典造型",
        "docid": "7312400005296603663",
        "url": ""
    },
    {
        "title": "冬天羽绒服配色千万别乱选！直接码住这五种，不挑人也不容易过时",
        "docid": "7312242326687089152",
        "url": ""
    },
    {
        "title": "冷门运动表，却是瑞士钟表界“黑马”！",
        "docid": "7296424231292682793",
        "url": ""
    },
    {
        "title": "杭州女生不愧是配色高手，不管是一身白、一身黑，都时髦高级",
        "docid": "7311692123332444711",
        "url": ""
    },
    {
        "title": "带你了解以动物名称命名，全球知名的十大户外品牌",
        "docid": "7287463414077981242",
        "url": ""
    },
    {
        "title": "用过无数款面霜，还是觉得这7款面霜，能让肌肤变得嫩滑、有弹性",
        "docid": "7309057196284215820",
        "url": ""
    },
    {
        "title": "青浦小囡看过来→冬日护肤这些美妆店好逛～",
        "docid": "7312333228147393058",
        "url": ""
    },
    {
        "title": "我60周岁，头发白一多半，现在开始不染发，做一个自然美小老太太",
        "docid": "7308676248321032745",
        "url": ""
    },
    {
        "title": "西班牙大公主18岁家庭礼！一身白西装真霸气，妹妹斗篷蓝裙更惊艳",
        "docid": "7311652707323118143",
        "url": ""
    },
    {
        "title": "这是我见过最得体的妈妈，她挑战了传统大胆地选择了羽绒服搭配。",
        "docid": "7311191857059381811",
        "url": ""
    },
    {
        "title": "过冬神器：金标P棉/P绒/拒水羽绒，小众品牌堆料狂魔",
        "docid": "7312278917837079079",
        "url": ""
    },
    {
        "title": "唐代奢侈品金鱼袋：最上档次的\"包\"，不仅仅是“入宫用的”",
        "docid": "7309371147626807858",
        "url": ""
    },
    {
        "title": "30+女孩们对穿衣的要求，已经不是以前的花哨，是追求个性潮流",
        "docid": "7312370457423331850",
        "url": ""
    },
    {
        "title": "冬日街头，一位女生身披棕色羽绒服，静静站在墙边，微笑看着镜头",
        "docid": "7312349760155845170",
        "url": ""
    },
    {
        "title": "为什么劝中老年男人：冬天戴帽、衣不暗沉？看完这些素人穿搭就懂",
        "docid": "7301558450599821860",
        "url": ""
    },
    {
        "title": "英国王室戴一辈子的金戒指！237年手工定制独一无二，能当传家宝",
        "docid": "7310914601049408000",
        "url": ""
    },
    {
        "title": "2024流行色彩！",
        "docid": "7310796353897251362",
        "url": ""
    },
    {
        "title": "衣袖像鸡毛掸子，头上别二斤卡子",
        "docid": "7304592274514510370",
        "url": ""
    },
    {
        "title": "带你了解徒步鞋和登山鞋的区别，6大顶级品牌徒步鞋推荐",
        "docid": "7288991089858462243",
        "url": ""
    },
    {
        "title": "年销售额近3000万元！吴江这家箱包企业，已跻身行业前列",
        "docid": "7311958408218247715",
        "url": ""
    },
    {
        "title": "一位退休阿姨的穿戴，适合自己就好。",
        "docid": "7290437393583473211",
        "url": ""
    },
    {
        "title": "被向梅的老年状态惊艳到：86岁头发花白，衣装素雅却高级有气质",
        "docid": "7293063442939200034",
        "url": ""
    },
    {
        "title": "茅台们跨界化妆品，始于试水止于“玩票”？",
        "docid": "7312266113210810919",
        "url": ""
    },
    {
        "title": "你必须要懂的翡翠行话之“老坑”和“新坑”",
        "docid": "7300833623711236659",
        "url": ""
    },
    {
        "title": "Valentino 高定配色 太养眼了 ​​​",
        "docid": "7311905164275843594",
        "url": ""
    },
    {
        "title": "海清冬日美拉德穿搭 大花的气质拿捏了",
        "docid": "7312028021123498522",
        "url": ""
    },
    {
        "title": "冬季穿衣“越简单越高级”，四个实用的穿搭思路，时髦又显气质！",
        "docid": "7311528899752821302",
        "url": ""
    },
    {
        "title": "穿搭分享：优雅的法式穿搭",
        "docid": "7299966024961589786",
        "url": ""
    },
    {
        "title": "女人不管差不差钱，最好“不穿金戴银、发不烫染”，才能优雅年轻",
        "docid": "7310484556568838665",
        "url": ""
    },
    {
        "title": "永恒的光辉——普林斯·格亚西的艺术世界",
        "docid": "7312399592274788879",
        "url": ""
    },
    {
        "title": "400亿财产给男仆，爱马仕继承人怎么了？",
        "docid": "7311582159683912230",
        "url": ""
    },
    {
        "title": "一个人的头发，暴露了他的人生层次",
        "docid": "7219834371350774327",
        "url": ""
    },
    {
        "title": "天冷后火了一种穿搭，叫作“黑色大衣+长裤”，时髦保暖还显高！",
        "docid": "7311660272388342308",
        "url": ""
    },
    {
        "title": "穿来穿去，还是“黑色外套”最高级，这样搭配又酷又美很洋气！",
        "docid": "7311685801937764899",
        "url": ""
    },
    {
        "title": "头层牛皮和二层牛皮的区别,原来是这些!买皮具必看",
        "docid": "7295994074228589066",
        "url": ""
    },
    {
        "title": "韩妆“重探”中国市场新需求",
        "docid": "7312243414945595913",
        "url": ""
    },
    {
        "title": "积家推出全新超薄大师系列月相玫瑰金渐变蓝腕表",
        "docid": "7288260342147498535",
        "url": ""
    },
    {
        "title": "这个冬天，多穿这5个颜色吧",
        "docid": "7312302189996098098",
        "url": ""
    },
    {
        "title": "这一晚，男明星集体“娘化”，上半身看着挺帅，下半身却不忍直视",
        "docid": "7311625585670079016",
        "url": ""
    },
    {
        "title": "被北京街拍“暖到了”，大衣、羽绒服齐上阵，果然她们最懂冬天！",
        "docid": "7312442624857129482",
        "url": ""
    },
    {
        "title": "万茜现身上海机场，羽绒服墨镜休闲低调",
        "docid": "7311985813087289893",
        "url": ""
    },
    {
        "title": "被上海街拍惊艳了！满大街“下身失踪装”，却个个洋气时髦不撞衫",
        "docid": "7302245283882156570",
        "url": ""
    },
    {
        "title": "降温后才发现：露脚踝不兴了！满大街都是“九分裤+短靴”，真美",
        "docid": "7312452473258672677",
        "url": ""
    },
    {
        "title": "如果你有一件红色毛衣就这样搭配吧",
        "docid": "7310495855046672936",
        "url": ""
    },
    {
        "title": "白皮书盛典成“照妖镜”，黄晓明肿了，成毅显矮了，魏大勋赢麻了",
        "docid": "7312438609171219007",
        "url": ""
    },
    {
        "title": "50岁左右的女人，毛衣多穿4种“减龄色”，搭配半身裙优雅显年轻",
        "docid": "7312435624806515226",
        "url": ""
    },
    {
        "title": "秋冬裤子怎么搭，万能穿搭公式来啦",
        "docid": "7298644923405058575",
        "url": ""
    },
    {
        "title": "气凝胶防寒服，到底是保暖“黑科技”还是“智商税”？",
        "docid": "7312389134646428179",
        "url": ""
    },
    {
        "title": "董洁冬日穿搭，极简高级也不缺亮点！搭配思路也可以学起来",
        "docid": "7312449543587824154",
        "url": ""
    },
    {
        "title": "为什么劝你别戴“贝雷帽”？看这4组对比图就知道了，戴错了真土",
        "docid": "7312047287239852555",
        "url": ""
    },
    {
        "title": "分享优雅的女性时尚杂志《美人百花》24年1月号",
        "docid": "7312419001823576613",
        "url": ""
    },
    {
        "title": "BOF：2024年时尚现状分析报告pdf",
        "docid": "7312326107343634984",
        "url": ""
    }
]