[
    {
        "title": "女明星的美，你懂吗？😍🎭|✨",
        "docid": "7337873804355584523",
        "url": ""
    },
    {
        "title": "肖战：走进米兰机场的时装秀宴！",
        "docid": "7338794835610206783",
        "url": ""
    },
    {
        "title": "超模贝拉Bella Hadid新写真：健康与美的完美融合",
        "docid": "7338702526063378979",
        "url": ""
    },
    {
        "title": "独特魅力：深色红棕的时尚冒险",
        "docid": "7338381430734504474",
        "url": ""
    },
    {
        "title": "千万别这样穿，因为太好看了，梨形身材气质穿搭！",
        "docid": "7338452902379815474",
        "url": ""
    },
    {
        "title": "71岁陈婉珍亲身示范：发不过肩、衣不穿松，老了都没有“大妈感”",
        "docid": "7320579487090409994",
        "url": ""
    },
    {
        "title": "终于知道这些鞋该怎么搭配了！",
        "docid": "7320771951784821263",
        "url": ""
    },
    {
        "title": "惊到了！不同衣领之间的搭配还有这么多学问，这样穿果真更好看！",
        "docid": "7320050569094562358",
        "url": ""
    },
    {
        "title": "香奈儿死对头“复活”，奇葩礼服吓坏网友：这是人类能穿的衣服？",
        "docid": "7338652882223038986",
        "url": ""
    },
    {
        "title": "去了北京才发现：满大街都是“大衣+奶奶靴”，意外地洋气显高",
        "docid": "7338415476097303081",
        "url": ""
    },
    {
        "title": "宋雨琦穿露肩红裙热辣似火 秀长腿细腰妩媚多娇",
        "docid": "7338632218514113050",
        "url": ""
    },
    {
        "title": "时尚造型师优雅慵懒的法式穿搭日常参考合集，巴黎女人真的太会穿",
        "docid": "7312657043603718665",
        "url": ""
    },
    {
        "title": "61岁前超模姐姐：单身，住236㎡的家，还在努力工作",
        "docid": "7325063710501503514",
        "url": ""
    },
    {
        "title": "近半服饰企业亏损，打工人不买衣服了？",
        "docid": "7337908301756006966",
        "url": ""
    },
    {
        "title": "乔欣",
        "docid": "7337890756419600915",
        "url": ""
    },
    {
        "title": "被胡杏儿米兰的穿搭惊艳了：满街都是“黑风衣+阔腿裤”，真时髦",
        "docid": "7338292789724119586",
        "url": ""
    },
    {
        "title": "为什么劝中老年人“头不烫染，衣不穿短”？看完这些对比，就懂了",
        "docid": "7338413350759809562",
        "url": ""
    },
    {
        "title": "看懂黄金，会买黄金",
        "docid": "7335363193730236991",
        "url": ""
    },
    {
        "title": "送走美拉德迎来格雷系，时尚与精致并存",
        "docid": "7325396533137326601",
        "url": ""
    },
    {
        "title": "宋智雅夏日穿搭明星私服，高级又气质十足，审美在线",
        "docid": "7338078966726558258",
        "url": ""
    },
    {
        "title": "秦岚和杨丞琳同款香芋紫毛衣，谁穿更好看？",
        "docid": "7333916454762758675",
        "url": ""
    },
    {
        "title": "在39岁的时候剪了短发，一点也不后悔，怎么穿都好看！",
        "docid": "7338225496548770313",
        "url": ""
    },
    {
        "title": "富商老婆章泽天终于不穿裙子，穿银色外套+牛仔裤，筷子腿好惊艳",
        "docid": "7337666226506252812",
        "url": ""
    },
    {
        "title": "成瑶的穿搭魅力：平价小西装与小香风外套",
        "docid": "7337471378972574271",
        "url": ""
    },
    {
        "title": "戚薇穿露背裙文艺感十足 窈窕多姿美如紫罗兰",
        "docid": "7338600970202792486",
        "url": ""
    },
    {
        "title": "男人越来越帅气的6个细节，你能做到几个？",
        "docid": "7334120089933038131",
        "url": ""
    },
    {
        "title": "真·户外人的2023年度装备",
        "docid": "7320993269079966248",
        "url": ""
    },
    {
        "title": "寒潮又临，古力娜扎告诉你怎么穿：叫“短外套+高腰裤”，显高",
        "docid": "7338041915151680019",
        "url": ""
    },
    {
        "title": "内娱想要用她替代Anglebaby，才是真的审美降级吧？",
        "docid": "7327103369405809206",
        "url": ""
    },
    {
        "title": "刘亦菲穿上旗袍宛如一幅水墨画 身姿曼妙灼灼芳华！高贵典雅",
        "docid": "7325608792505516596",
        "url": ""
    },
    {
        "title": "45岁周杰伦对比42岁林俊杰，骨相老去和皮相老去的差距一目了然",
        "docid": "7326490734561952297",
        "url": ""
    },
    {
        "title": "空有美貌的娜扎，也只有秀三件套才能让她不扑街了吧？",
        "docid": "7338364242616009231",
        "url": ""
    },
    {
        "title": "一般人养不起的5位女星，个个壕无人性花钱如流水，来看看都有谁",
        "docid": "7309423538434261555",
        "url": ""
    },
    {
        "title": "是造型不行还是颜值不行？任敏新古装开播，网友：又要怪造型师了",
        "docid": "7338280110426538515",
        "url": ""
    },
    {
        "title": "“光腿神器”被嘲“现代刑具”？医生这样说",
        "docid": "7312378676337918473",
        "url": ""
    },
    {
        "title": "孙俪新杂志封面震撼发布，网友热议：眼中藏着故事的美人",
        "docid": "7337875437202637351",
        "url": ""
    },
    {
        "title": "初春这样穿，回头率满满",
        "docid": "7338251697091609139",
        "url": ""
    },
    {
        "title": "赵露思最新穿搭造型，一袭新中式清新温婉，美丽动人！",
        "docid": "7337677112411800116",
        "url": ""
    },
    {
        "title": "林小宅粉色缎面抹胸连衣短裙亮相，甜美性感双重魅力点亮全场",
        "docid": "7337945636979245605",
        "url": ""
    },
    {
        "title": "鹿晗关晓彤聚餐被拍，男方打扮低调，女方背十几万包包",
        "docid": "7338661431363420711",
        "url": ""
    },
    {
        "title": "为什么说“五官比脸型更重要”？看了这3组对比，你就明白了",
        "docid": "7338320363845239305",
        "url": ""
    },
    {
        "title": "原来美甲界还有这么多门道 网友：原来美甲界的复杂难度比考研都难",
        "docid": "7323417032144454184",
        "url": ""
    },
    {
        "title": "钟楚曦穿挂脖裙晒泰国plog 海边摆拍身姿性感妙曼",
        "docid": "7338632651768857098",
        "url": ""
    },
    {
        "title": "田曦薇的瘦身秘诀！一年间，她如何从“胖妹”变身“曲线女神”？",
        "docid": "7313732963702555162",
        "url": ""
    },
    {
        "title": "同样是穿“裘皮”大衣，将任嘉伦许凯邓为放在一起，差距一目了然",
        "docid": "7321314962205655593",
        "url": ""
    },
    {
        "title": "无效护肤行为，看看你是不是也在做",
        "docid": "7328544969827238419",
        "url": ""
    },
    {
        "title": "孙俪新杂志封面惊艳亮相，网友热议：美人眼中的故事",
        "docid": "7338609863758578228",
        "url": ""
    },
    {
        "title": "是造型不行还是颜值不行？任敏新古装开播，网友：又要怪造型师了",
        "docid": "7338656136989983251",
        "url": ""
    },
    {
        "title": "沦为笑柄！黑道陈冠希被老大逐出庙街！惹来无尽耻笑！",
        "docid": "7338810537340027430",
        "url": ""
    },
    {
        "title": "邢菲，有多少人认识这个女孩。",
        "docid": "7337855569338548748",
        "url": ""
    },
    {
        "title": "穿搭分享：中年女性的优雅和洒脱",
        "docid": "7309381493271872010",
        "url": ""
    },
    {
        "title": "周芯竹的小龙女妆，是不是很精致？",
        "docid": "7338413152277283368",
        "url": ""
    },
    {
        "title": "盘点全球40多个知名手表品牌，谁才是真正的排行榜最佳前十名？",
        "docid": "7311697574464619043",
        "url": ""
    },
    {
        "title": "45岁刘涛和44岁胡杏儿米兰时装周同框，两位御姐状态都超好！",
        "docid": "7338425258250355235",
        "url": ""
    },
    {
        "title": "男友眼中的春天穿搭是五颜六色的,因为这个季节女生们五彩斑斓",
        "docid": "7337601798775587369",
        "url": ""
    },
    {
        "title": "央视主持人马凡舒，青春靓丽才貌双全，优雅气质！",
        "docid": "7338037711992980022",
        "url": ""
    },
    {
        "title": "再强调一次：卫衣下不兴运动裤了，今春流行“新穿法”，洋气显瘦",
        "docid": "7336443615394628148",
        "url": ""
    },
    {
        "title": "热度最高的5个手表品牌，盘点它们的必买款和避坑款",
        "docid": "7315042090507862563",
        "url": ""
    },
    {
        "title": "曾经最贵的裙子，只穿了两次，早已成了摆设",
        "docid": "7329485755482079782",
        "url": ""
    },
    {
        "title": "新年刚过，连裤袜竟成了“抢手货”？",
        "docid": "7337714396237529641",
        "url": ""
    },
    {
        "title": "刘涛米兰时装周生图流出，脸部僵硬，法令纹深，与精修图差别好大",
        "docid": "7338634951203652146",
        "url": ""
    },
    {
        "title": "女孩子一定要学会穿搭呀",
        "docid": "7322214588588655113",
        "url": ""
    },
    {
        "title": "穿对“无痕裤”能有多好看？瞧杭州素人街拍这样穿，既洋气又显瘦",
        "docid": "7338368185961579008",
        "url": ""
    },
    {
        "title": "“大衣”下面建议别搭裙子，瞧陈数、袁泉这样穿，多高级显气质",
        "docid": "7338014103791551010",
        "url": ""
    },
    {
        "title": "这位女演员在崇明拍的时尚大片，美翻了！",
        "docid": "7338727498731405861",
        "url": ""
    },
    {
        "title": "可可爱爱针织开衫穿搭舒适感满满，真的很耐看捏!",
        "docid": "7338352719469724194",
        "url": ""
    },
    {
        "title": "为什么中年女人越到中年越爱穿粉色，普通人如何穿好粉色！",
        "docid": "7338223281100948019",
        "url": ""
    },
    {
        "title": "七种打领带的方法，有备无患！",
        "docid": "7327285707402412580",
        "url": ""
    },
    {
        "title": "世界上最昂贵的十件礼服",
        "docid": "7321362469417976383",
        "url": ""
    },
    {
        "title": "马丁靴+工装裤：又酷又撩，个性十足！",
        "docid": "7338456052985758249",
        "url": ""
    },
    {
        "title": "张小斐这身材称得上喜剧界第一人了，可惜火了后没人捧",
        "docid": "7338697232595730963",
        "url": ""
    },
    {
        "title": "刘浩存看起来很聪明，她要是演古装剧肯定是最聪明的那个娘娘了！",
        "docid": "7337662754611855907",
        "url": ""
    },
    {
        "title": "马凡舒尽显绝美气质 穿梭SUSUCOUTURE礼服如仙子般飘逸",
        "docid": "7338256292211229193",
        "url": ""
    },
    {
        "title": "迪丽热巴大片出炉，白发异世精灵装扮出圈",
        "docid": "7338330982841664027",
        "url": ""
    },
    {
        "title": "帅炸！53岁胡兵伦敦爆火：外国女子疯狂围观，唯一被邀请中国明星",
        "docid": "7337974099568378387",
        "url": ""
    },
    {
        "title": "如果你化妆技术很差，请疯狂学起来",
        "docid": "7320113710675509770",
        "url": ""
    },
    {
        "title": "时尚穿搭新看点！有人说姜妍的身材比志玲姐好，这回我信了！",
        "docid": "7338413588924908044",
        "url": ""
    },
    {
        "title": "理一次发35元，但我的店快关门了，理发这个行业怎么这么难啊！",
        "docid": "7306721612819792436",
        "url": ""
    },
    {
        "title": "44岁童蕾带火了一种贵妇穿搭：针织裙+小白鞋+短发，高级又显贵",
        "docid": "7338274777380946472",
        "url": ""
    },
    {
        "title": "被任嘉伦米兰之行穿搭惊艳了：满街是“西服套装”，个个时髦帅气",
        "docid": "7338435821886030346",
        "url": ""
    },
    {
        "title": "黑色短款羽绒服怎么搭配呢",
        "docid": "7321872224980566555",
        "url": ""
    },
    {
        "title": "看了潘虹和刘雪华的穿搭，我才发现：比起颜值，仪态＋打扮更重要",
        "docid": "7337979190094545442",
        "url": ""
    },
    {
        "title": "2024年欧米茄腕表怎么选？3-6万范围，这几款性能出众，颜值高",
        "docid": "7328603863420813851",
        "url": ""
    },
    {
        "title": "被西班牙大公主美到了！18岁莱昂诺尔卡其风衣+长裙，比妈妈还美",
        "docid": "7336933885014524443",
        "url": ""
    },
    {
        "title": "古力娜扎带火了一种新穿法：透视装+背心+小黑裤，31岁美出新高度",
        "docid": "7336731572139557413",
        "url": ""
    },
    {
        "title": "被袁姗姗的穿搭惊艳了，满街都是“牛仔裤+风衣”，却个个好时髦",
        "docid": "7337673817378357795",
        "url": ""
    },
    {
        "title": "董洁北京街拍，没有修图的状态，有点90年代那种未经雕琢自然的美",
        "docid": "7322930103347266075",
        "url": ""
    },
    {
        "title": "王灿成都过年，杜淳陪老婆逛街吃辣火锅，座驾曝光是百万级迈巴赫",
        "docid": "7336374187147330089",
        "url": ""
    },
    {
        "title": "同样是50岁，为什么你看着比“同龄人”显老？关键在于这3个方面",
        "docid": "7336794474888135180",
        "url": ""
    },
    {
        "title": "徐璐蓝色镂空玫瑰针织蛮特别",
        "docid": "7338416318514856482",
        "url": ""
    },
    {
        "title": "宝子们羽绒服都学会咋鉴别了吗？",
        "docid": "7326729260324143650",
        "url": ""
    },
    {
        "title": "普通女孩的穿搭灵感，简简单单就很美！",
        "docid": "7325246397077881359",
        "url": ""
    },
    {
        "title": "穿衣决定命运？并非迷信，别不当回事！深究衣着对人生的真实影响",
        "docid": "7337185839200174604",
        "url": ""
    },
    {
        "title": "春日彩色系平价衬衫内搭叠穿合集||用彩色开启美美春日！",
        "docid": "7338252163992404489",
        "url": ""
    },
    {
        "title": "\"变身街头潮人：牛仔裤与这几款鞋子的完美组合技巧\"",
        "docid": "7338439380082737691",
        "url": ""
    },
    {
        "title": "不再为春夏如何穿衬衣而发愁，解锁法式天花板高级感！",
        "docid": "7338420930727166501",
        "url": ""
    },
    {
        "title": "女生一生建议入的8款口红，各大品牌断货王",
        "docid": "7317919885173031451",
        "url": ""
    },
    {
        "title": "古人没有化工染发剂，如何使自己变白的头发重新变得乌黑亮丽呢？",
        "docid": "7338336862107025955",
        "url": ""
    },
    {
        "title": "被刘涛米兰街头拍摄惊艳了，她带火一种穿法西服+长裙，时髦好看",
        "docid": "7338395314720604712",
        "url": ""
    },
    {
        "title": "刘浩存这几张路透清纯小白花秒变末世文女主，真的很绝！",
        "docid": "7338421273011159587",
        "url": ""
    },
    {
        "title": "王楚然，就像只飞入凡间的美丽精灵",
        "docid": "7338383211196416562",
        "url": ""
    },
    {
        "title": "戚薇亮相米兰时装周：妆造老气，脸发福下垂，网友：老太太既视感",
        "docid": "7338717664342835752",
        "url": ""
    },
    {
        "title": "40岁佟丽娅晒最新美照，换了新发型的丫丫姐活力四射呀！",
        "docid": "7338428583968424488",
        "url": ""
    },
    {
        "title": "迪丽热巴",
        "docid": "7338724191358812683",
        "url": ""
    },
    {
        "title": "《时尚芭莎》三月刊，贾玲时装照来了！",
        "docid": "7338414260760052259",
        "url": ""
    },
    {
        "title": "60+郑裕玲亲自示范，不烫发、不穿老年装，到老都没有大妈感",
        "docid": "7338407031114121743",
        "url": ""
    },
    {
        "title": "（外代二线）米兰时装周——Roberto Cavalli品牌时装秀(2)",
        "docid": "7338343180620005922",
        "url": ""
    },
    {
        "title": "你适合披头发还是扎头发，主要取决于这3个特点，脸大更要注意",
        "docid": "7338005317308072486",
        "url": ""
    },
    {
        "title": "剃光头，能改善发质、发量吗？",
        "docid": "7338229181727556148",
        "url": ""
    },
    {
        "title": "赵昭仪私服，活泼灵动的妹宝！",
        "docid": "7338416959308202530",
        "url": ""
    },
    {
        "title": "董卿又带火了一种名媛穿法：大衣+微卷短发，时髦显瘦又高级",
        "docid": "7338276161774010907",
        "url": ""
    },
    {
        "title": "女人就要活得漂亮！多穿“大衣+阔腿裤”，把日子过成生活",
        "docid": "7338359501114098185",
        "url": ""
    },
    {
        "title": "有人在巴黎香榭丽大街LV总部偶遇刘亦菲，这抓拍太有氛围感了",
        "docid": "7338028741660181007",
        "url": ""
    },
    {
        "title": "贝索斯和未婚妻在迈阿密出街！桑切斯露腰扮嫩，皱巴巴肚皮暴露了",
        "docid": "7337856758977331747",
        "url": ""
    },
    {
        "title": "张馨予穿黑色连衣裙搭毛绒短外套 身材姣好超美艳",
        "docid": "7338613352493040154",
        "url": ""
    },
    {
        "title": "秦海璐是真的有好多只爱马仕啊！",
        "docid": "7327919819461034508",
        "url": ""
    },
    {
        "title": "身材保持完美！王薇薇74岁生日照曝光，面容略显苍老",
        "docid": "7338675616520503860",
        "url": ""
    },
    {
        "title": "世界化妆品女王：自己不化妆，却狠赚爱美人士的钱，身家达5400亿",
        "docid": "7306792822395601443",
        "url": ""
    },
    {
        "title": "阿迪达斯与陈冠希首款联名鞋，Burberry冬季系列户外优雅风｜是日美好事物",
        "docid": "7338194775071326772",
        "url": ""
    },
    {
        "title": "早春穿搭还是要看“韩系女孩”，时髦又醒目的搭配模板，真显高！",
        "docid": "7338037497748193811",
        "url": ""
    },
    {
        "title": "这是我见过最时髦的妈妈，剪短发，穿衣洋气，没有一点大妈感",
        "docid": "7321557646702838312",
        "url": ""
    },
    {
        "title": "你要穿得像自己，生活得像自己，与年龄没有半毛钱关系……",
        "docid": "7307788448629490214",
        "url": ""
    },
    {
        "title": "年纪轻轻白了头？别急着染发，这些方法更靠谱",
        "docid": "7323151867805483559",
        "url": ""
    },
    {
        "title": "暖系多巴胺春夏治愈穿搭，让美丽生活充满色彩",
        "docid": "7337928120433623593",
        "url": ""
    },
    {
        "title": "脸上有这3处“特征”的女人，天生就有一股高级感！你有几个？",
        "docid": "7311254501103665714",
        "url": ""
    },
    {
        "title": "十款被世界公认最好闻的女士香水",
        "docid": "7313974509625983529",
        "url": ""
    },
    {
        "title": "金晨",
        "docid": "7335995153087267363",
        "url": ""
    },
    {
        "title": "宋佳真的太女人了，她的脸有国泰民安的感觉",
        "docid": "7338031245907313186",
        "url": ""
    },
    {
        "title": "这3种打扮女生自认为很时髦，实际是“精致土”！快看你中了吗",
        "docid": "7323469296666165811",
        "url": ""
    },
    {
        "title": "戚薇穿露背裙文艺感十足 窈窕多姿美如紫罗兰",
        "docid": "7338596996497981990",
        "url": ""
    },
    {
        "title": "刘涛",
        "docid": "7337809827697033769",
        "url": ""
    },
    {
        "title": "47岁舒淇登ELLE开季封，在威尼斯杀疯了，6套穿搭惊艳全场",
        "docid": "7338422548259947071",
        "url": ""
    },
    {
        "title": "东北人爱穿貂皮大衣，是为暖和，还是为装？",
        "docid": "7315690942462329385",
        "url": ""
    },
    {
        "title": "山口百惠亲身示范：裙不配运动鞋、发不过肩，年过60都没大妈感",
        "docid": "7338414522312770060",
        "url": ""
    },
    {
        "title": "莫文蔚53了还是这么洋气：黑色羽绒服搭牛仔裤，身材不输小年轻",
        "docid": "7338040253007610409",
        "url": ""
    },
    {
        "title": "夏日多巴胺：普吉岛穿搭花样",
        "docid": "7338390948936221235",
        "url": ""
    },
    {
        "title": "潮汕父子卖珠宝，一年进账50亿",
        "docid": "7337999995935228450",
        "url": ""
    },
    {
        "title": "不建议大家穿的10件衣服，看着很贵，实际却又土又没档次！",
        "docid": "7337661218951315977",
        "url": ""
    },
    {
        "title": "周雨彤穿米白色上衣搭配红裙 温柔唯美油画感满满",
        "docid": "7338598501321851443",
        "url": ""
    },
    {
        "title": "早点学起来：今年春夏必定会火的 “ 绿色穿搭 ”，这几套也太美了吧",
        "docid": "7338053920134300196",
        "url": ""
    },
    {
        "title": "狐狸幂的多巴胺夏天，每一套都美在我心巴上",
        "docid": "7337669221205393974",
        "url": ""
    },
    {
        "title": "虞书欣和易梦玲同框照，两位都是辣妹呀",
        "docid": "7337671555378741775",
        "url": ""
    },
    {
        "title": "59岁刘嘉玲晒新年照惹争议！穿艳桃红被指俗不可耐，与年龄不协调",
        "docid": "7338265216666616371",
        "url": ""
    },
    {
        "title": "张雨绮飒爽女主大片释出 穿西装姿态优雅不失态度",
        "docid": "7338608747281416754",
        "url": ""
    },
    {
        "title": "伦敦式淡然与罗马式自由的完美结合，FENDI做到了！",
        "docid": "7338660832102220300",
        "url": ""
    },
    {
        "title": "女子在美发店拉直头发，回家后头顶竟然大量脱发",
        "docid": "7338411478313337359",
        "url": ""
    },
    {
        "title": "羽绒服里穿薄点才暖和！一个超简单的穿搭技巧，快收藏",
        "docid": "7322254792363950618",
        "url": ""
    },
    {
        "title": "记录我的退休生活246：断舍离后的这20件毛衣，是再留还是处理呢",
        "docid": "7314187203452961295",
        "url": ""
    },
    {
        "title": "化妆：爱的双刃剑，还是美丽的艺术？",
        "docid": "7338667832529682954",
        "url": ""
    },
    {
        "title": "把春天的颜色穿在身上啦",
        "docid": "7338213663763251738",
        "url": ""
    },
    {
        "title": "都是60多岁，为什么你比同龄人显老？这3点真的太毁颜值、气质了",
        "docid": "7316130028201247259",
        "url": ""
    },
    {
        "title": "冲锋衣，一定要记住“3买3不买”原则！花钱买的教训，别被割韭菜",
        "docid": "7314504869766136320",
        "url": ""
    },
    {
        "title": "“一百来块”的大衣与“几千上万”的大衣差在哪里？内行人告诉你",
        "docid": "7317167300606951945",
        "url": ""
    },
    {
        "title": "上了40岁的女人，多穿这几款鞋，提升气质。",
        "docid": "7338421006568751635",
        "url": ""
    },
    {
        "title": "戒指戴在不同手指上有着不同的含义，涨见识了。快来学一下",
        "docid": "7337958095979184640",
        "url": ""
    },
    {
        "title": "张嘉倪红装惊艳米兰秀场，这朦胧美谁能扛得住！",
        "docid": "7338420709800247823",
        "url": ""
    },
    {
        "title": "倪妮新造型：黑裙与粉裙，魅力碰撞的视觉盛宴",
        "docid": "7338629067975033396",
        "url": ""
    },
    {
        "title": "冯小刚17岁养女晒近照，徐小朵妆发精致穿修身裙，高挑纤瘦好漂亮",
        "docid": "7338772121818464787",
        "url": ""
    },
    {
        "title": "淡斑你学会了吗",
        "docid": "7318741053589586441",
        "url": ""
    },
    {
        "title": "到老都没有“大妈感”的穿搭，实在太酷了！",
        "docid": "7327170714908705315",
        "url": ""
    },
    {
        "title": "\"颠覆传统审美，黑白配已过时？揭秘全新高级气质搭配法则！\"",
        "docid": "7338434754083062281",
        "url": ""
    },
    {
        "title": "200用出2000的效果，2023年度非烂大街小众护肤爱用品分享",
        "docid": "7336843648296632895",
        "url": ""
    },
    {
        "title": "奢侈品巨头业绩报告相继出炉 谁是真“顶流”？",
        "docid": "7338209363414483468",
        "url": ""
    },
    {
        "title": "“人若贵气，一看便知”：真正高贵的女人，往往都有这些特质",
        "docid": "7310415696029319716",
        "url": ""
    },
    {
        "title": "韦世豪抵达成都时穿的是LV毛衣，官方售价为13500元",
        "docid": "7337256771021603355",
        "url": ""
    },
    {
        "title": "女人不管差不差钱，最好“不穿金戴银、发不烫染”，才能优雅年轻",
        "docid": "7310484556568838665",
        "url": ""
    },
    {
        "title": "穿搭分享：红黑配色，时髦又别致",
        "docid": "7311567264233521701",
        "url": ""
    },
    {
        "title": "传Yeezy将于3月恢复发售",
        "docid": "7337856672930628159",
        "url": ""
    },
    {
        "title": "王鸥美腿写真精选",
        "docid": "7338614418688705039",
        "url": ""
    },
    {
        "title": "六万元买的香奈儿外套被洗缩水，本以为悲伤故事，评论区太搞笑了",
        "docid": "7309701842076729891",
        "url": ""
    },
    {
        "title": "衣品对一个女生的重要性，逼自己看完你的衣品会很牛！",
        "docid": "7307601867662492160",
        "url": ""
    },
    {
        "title": "看了71岁陈婉珍和65岁向太，才发现：真正的贵妇，从不穿大妈装",
        "docid": "7338410592082444819",
        "url": ""
    },
    {
        "title": "被李沁的西装穿搭圈粉了，清新又显气质，春天跟着这么穿绝了！",
        "docid": "7338255463614497314",
        "url": ""
    },
    {
        "title": "有效发型VS无效发型：时尚的较量",
        "docid": "7333144302241317385",
        "url": ""
    },
    {
        "title": "等你老了，尽量别戴老年帽、穿花衣服！看张瑜和黄梅莹这样穿多美",
        "docid": "7325680509454090790",
        "url": ""
    },
    {
        "title": "女明星图片， 陈都灵美的太出众了🥹",
        "docid": "7338834476920914471",
        "url": ""
    },
    {
        "title": "优雅与气场同时在线的春季通勤风穿搭，太适合职场中的姐妹了！",
        "docid": "7338394881356218914",
        "url": ""
    },
    {
        "title": "为什么你穿“风衣”显土没气质？这3个穿搭雷区，快看你中了没！",
        "docid": "7338419341093880335",
        "url": ""
    },
    {
        "title": "无论什么黄金，只要用到一根针，真假黄金立马“现原形”，真实用",
        "docid": "7307190091976426020",
        "url": ""
    },
    {
        "title": "同样是中老年，为什么有人看上去精致+贵气，有人邋遢？原因在这",
        "docid": "7338417769987359259",
        "url": ""
    },
    {
        "title": "女性左手佩戴“金手镯”，或会带来5个变化，你了解多少？",
        "docid": "7319798564757225999",
        "url": ""
    },
    {
        "title": "中老年女人放任老态的体现：小卷发、羽绒服配紧身裤，俗气显老",
        "docid": "7338385345672675891",
        "url": ""
    },
    {
        "title": "戚薇出席时装周状态不佳引热议！网友：一脸苦相，像老年刘雪华",
        "docid": "7338615162544767528",
        "url": ""
    },
    {
        "title": "炫富20年，身价41亿，最贵“小狼狗”彻底翻车！网友：真不是人",
        "docid": "7337961814292480531",
        "url": ""
    },
    {
        "title": "被天津美女“张萌”惊艳到！穿抹胸裙变\"大号水蜜桃\"，性感又迷人",
        "docid": "7338814828305678886",
        "url": ""
    },
    {
        "title": "你永远可以相信白百何的眼光‼",
        "docid": "7321354976167756298",
        "url": ""
    },
    {
        "title": "中国大妈称霸北美嘻哈圈！开店35年成“教母”，劫匪都不敢零元购",
        "docid": "7313375406844559887",
        "url": ""
    },
    {
        "title": "前港姐梁超怡出海晒美照，好身材吸睛",
        "docid": "7338743192692621861",
        "url": ""
    },
    {
        "title": "周冬雨现在越来越大腕范儿了，她看起来好不接地气啊！",
        "docid": "7338786812577710628",
        "url": ""
    },
    {
        "title": "张天爱身穿白色背心搭配鱼尾裙身材曼妙，优雅高贵，好养眼 ！",
        "docid": "7338376223342576128",
        "url": ""
    },
    {
        "title": "看了刘涛和胡杏儿的穿搭:发现今春流行的是“长西装”，洋气时髦",
        "docid": "7338219411260162575",
        "url": ""
    },
    {
        "title": "帅炸！53岁胡兵伦敦爆火：外国女子疯狂围观，唯一被邀请中国明星",
        "docid": "7338293158054462004",
        "url": ""
    },
    {
        "title": "61岁关之琳剪了短发减龄20岁，穿绿外套配牛仔裤，完全没有大妈味",
        "docid": "7338808895327977999",
        "url": ""
    },
    {
        "title": "看到53岁李英爱，我发现：穿衣端庄秀丽，长发温婉，短发帅气潇洒",
        "docid": "7338803794271044136",
        "url": ""
    },
    {
        "title": "虞书欣舞台直拍，高马尾造型瞬间变包子脸，《青你2》伙食太好了",
        "docid": "7338286758948094505",
        "url": ""
    },
    {
        "title": "奚梦瑶的穿搭又简单又时尚，不愧是行走的衣架",
        "docid": "7338784500598211106",
        "url": ""
    },
    {
        "title": "关晓彤的时尚变革：从公主风格到镂空西装的大胆突破",
        "docid": "7338231327650578981",
        "url": ""
    },
    {
        "title": "陈乔恩烫“羊毛卷”也太美了吧！新中式+羊毛卷，44岁像25岁",
        "docid": "7337323202542567975",
        "url": ""
    },
    {
        "title": "骨相美人更耐老，这是真的吗？",
        "docid": "7311719583395086848",
        "url": ""
    },
    {
        "title": "被这位62岁浙江阿姨惊艳到：穿衣优雅高级，发烫卷到老都没大妈感",
        "docid": "7322045079567745572",
        "url": ""
    },
    {
        "title": "陈赫老婆不愧是“网店老板娘”，外套配纱裙，随手一拍都是大片",
        "docid": "7338229010603983386",
        "url": ""
    },
    {
        "title": "孙千烟火人家首饰盘点，黄金玉石叠戴很好看",
        "docid": "7337511570614420031",
        "url": ""
    },
    {
        "title": "女大学生回村前后对比：都市丽人变“大姨”，比卸妆更狠的进村",
        "docid": "7333105449421750793",
        "url": ""
    },
    {
        "title": "40岁最美配色，格雷系6组常用配色",
        "docid": "7320740538519699977",
        "url": ""
    },
    {
        "title": "世界上最贵的包排行榜",
        "docid": "7335266432706593314",
        "url": ""
    },
    {
        "title": "老照片：高圆圆穿这身是很性感，可看起来感觉有点怪！",
        "docid": "7337997219406201363",
        "url": ""
    },
    {
        "title": "以前不懂古人衣裳的贵重，看了这个以后才明白！",
        "docid": "7295577411776102931",
        "url": ""
    },
    {
        "title": "9套不费力穿搭合集",
        "docid": "7314501963310318130",
        "url": ""
    },
    {
        "title": "你知道有哪些全球知名户外品牌被国内公司收购或者自主运营了吗？",
        "docid": "7334918628452483634",
        "url": ""
    },
    {
        "title": "王阳陪3岁爱女户外玩雪，小公主系6000元围巾，精灵可爱神似高斯",
        "docid": "7338254694491996712",
        "url": ""
    },
    {
        "title": "47岁舒淇登ELLE开季封面，一朵桃花挡住半身，穿吊带抹胸娇嫩欲滴",
        "docid": "7337603358934647359",
        "url": ""
    },
    {
        "title": "被天津美女“张萌”惊艳到！穿抹胸裙变\"大号水蜜桃\"，性感又迷人",
        "docid": "7338799460082401819",
        "url": ""
    },
    {
        "title": "世界顶级名媛舞会：躲过了甄子丹女儿，我却被山东首富女儿惊艳了",
        "docid": "7307176813514703414",
        "url": ""
    },
    {
        "title": "钟楚曦穿挂脖裙晒泰国plog 海边摆拍身姿性感妙曼",
        "docid": "7338224948844233225",
        "url": ""
    },
    {
        "title": "香水别再只喷在手腕上了",
        "docid": "7326756488834253350",
        "url": ""
    },
    {
        "title": "经常化妆和长期素颜的女人对比，区别不是一般大，哪个皮肤更好？",
        "docid": "7331376268082168339",
        "url": ""
    },
    {
        "title": "链甲礼服颠覆传统：杜阿·利帕2024格莱美红毯摇滚风范",
        "docid": "7337700935504085515",
        "url": ""
    },
    {
        "title": "邓恩熙粉紫色亮片裙亮相活动，尽显清甜元气少女感，令人眼前一亮",
        "docid": "7338132211427869210",
        "url": ""
    },
    {
        "title": "帅炸！53岁胡兵伦敦爆火：外国女子疯狂围观，唯一被邀请中国明星",
        "docid": "7338344621061243411",
        "url": ""
    },
    {
        "title": "时尚梦幻 Arava Polak“La Foret White”新娘系列解析",
        "docid": "7338067898579583540",
        "url": ""
    },
    {
        "title": "论体态对气质的重要性，看完赫本，再看山口百惠，你就知道区别了",
        "docid": "7337973083078607412",
        "url": ""
    },
    {
        "title": "看了71岁陈婉珍和65岁向太，才发现：真正的贵妇，从不穿大妈装",
        "docid": "7337269349063131658",
        "url": ""
    },
    {
        "title": "（漫画）以前流行的发型 VS 现在流行的发型，太真实了",
        "docid": "7328029705419162138",
        "url": ""
    },
    {
        "title": "为什么有的人一看就很有气质？",
        "docid": "7319364697583665705",
        "url": ""
    },
    {
        "title": "早春唐嫣又带火了一种穿搭：毛衣+牛仔裙+小白靴，高级洋气又减龄",
        "docid": "7338797381041832498",
        "url": ""
    },
    {
        "title": "土到极致就是潮！当明星穿上“东北大花”，宋轶尴尬，杨幂俏皮！",
        "docid": "7327684676871864869",
        "url": ""
    },
    {
        "title": "上海52岁退休大妈的精致穿搭真的惊艳到我了！时尚与年龄无关！",
        "docid": "7338233470474322458",
        "url": ""
    },
    {
        "title": "55岁许晴身材真丰腴！穿打底衫+牛仔裤差点“撑变形”，时髦性感",
        "docid": "7338290946079457826",
        "url": ""
    },
    {
        "title": "52岁瞿颖穿贾玲同款走秀，压轴登场又美又飒，网友却说：贾玲好看",
        "docid": "7338777130622403111",
        "url": ""
    },
    {
        "title": "从唇色看脾胃的重要性",
        "docid": "7320548304936092199",
        "url": ""
    },
    {
        "title": "三十岁后，过不烧钱的精致生活",
        "docid": "7320937232872407588",
        "url": ""
    },
    {
        "title": "被37岁辛芷蕾惊艳到了！波浪卷、紧身裤、三配色，美到了骨子里",
        "docid": "7338773746922127883",
        "url": ""
    },
    {
        "title": "肖战米兰时装周造型出炉，身披大衣雨中打伞，摩登少年来袭",
        "docid": "7338768875591320101",
        "url": ""
    },
    {
        "title": "虞书欣夏日私服穿搭真的太酷了，阳光辣妹风穿搭",
        "docid": "7338096742015255077",
        "url": ""
    },
    {
        "title": "原来这才是真正的“搭配”，同一件衣服换一种穿法，时髦又显贵！",
        "docid": "7320580627747717643",
        "url": ""
    },
    {
        "title": "2024印第安纳全明星NIKE球星鞋款一览 哪一双是你的挚爱？",
        "docid": "7335258840201527843",
        "url": ""
    },
    {
        "title": "74岁不老的Vera Wang，无美颜无滤镜素颜走红毯！",
        "docid": "7338226742022505011",
        "url": ""
    },
    {
        "title": "她是超时髦的女博士，白皮长腿还被称为东北全智贤，OOTD也很绝！",
        "docid": "7338781595703198247",
        "url": ""
    },
    {
        "title": "美图欣赏丨杨幂-春天的气息，朝气蓬勃",
        "docid": "7338589023075926591",
        "url": ""
    },
    {
        "title": "这6只国产表证明中国制表不容忽视，国表正在崛起，外媒好评",
        "docid": "7338261778348229171",
        "url": ""
    },
    {
        "title": "61岁张凯丽和26岁女儿张可盈同框，女儿高颜值气质不输妈妈！",
        "docid": "7338775027560596018",
        "url": ""
    },
    {
        "title": "梅根加拿大行8套着装·简约舒适的冬日穿搭",
        "docid": "7338034612457013798",
        "url": ""
    },
    {
        "title": "大波浪，晚礼服，贾玲燃爆热搜，她也能像张小斐一样露肩秀长腿了",
        "docid": "7338772937664774667",
        "url": ""
    },
    {
        "title": "贝索斯订婚宴：55岁邓文迪和比尔盖茨热聊，一袭吊带长裙光彩照人",
        "docid": "7338275893036810791",
        "url": ""
    },
    {
        "title": "为什么说“脸型比五官更重要”？看了这3组对比，你就明白了",
        "docid": "7334621425048846859",
        "url": ""
    },
    {
        "title": "非洲穷人贷款20万买名牌，饿得吃树叶，也要买4万的鞋子出门显摆",
        "docid": "7315352168729444914",
        "url": ""
    },
    {
        "title": "养头发最忌的7个行为",
        "docid": "7334252063058543116",
        "url": ""
    },
    {
        "title": "任敏，艳姿秀",
        "docid": "7338934301066625590",
        "url": ""
    },
    {
        "title": "春季穿搭想像她们一样时髦又高级，宝子们快收藏起来吧！",
        "docid": "7338214990388003366",
        "url": ""
    },
    {
        "title": "作为一个梨形身材的女人，如何在穿搭上展现出自己的魅力呢？",
        "docid": "7338716049266704931",
        "url": ""
    },
    {
        "title": "户外品牌：一篇文章看懂攀山鼠、 始祖鸟已烂大街众神黄昏才是未来",
        "docid": "7330834222624277033",
        "url": ""
    },
    {
        "title": "“最美外交官”傅莹：71岁头发花白、穿衣大方得体，尽显东方之美",
        "docid": "7324942457123602984",
        "url": ""
    },
    {
        "title": "佳片欣赏——旗袍",
        "docid": "7338216688108192307",
        "url": ""
    },
    {
        "title": "当86斤唐嫣撞上104斤柳岩, 同样的“裂缝裙”, 果然还是黑色显瘦",
        "docid": "7337490645386510882",
        "url": ""
    },
    {
        "title": "胡兵，伦敦时装周压轴出场，霸气十足，回头率百分百惊呆外国友人",
        "docid": "7336952305679368758",
        "url": ""
    },
    {
        "title": "羽绒服，除了烂大街的“北面、骆驼”，还有哪些牌子值得入手？",
        "docid": "7307447567510471177",
        "url": ""
    },
    {
        "title": "贾玲“减肥”太成功了！穿短风衣+西装裤好显气质，被惊艳了！",
        "docid": "7338785516080792083",
        "url": ""
    },
    {
        "title": "56岁英拉龙年春节用中文拜年！中国风超美，诗琳通公主也穿中国红",
        "docid": "7337890495966495267",
        "url": ""
    },
    {
        "title": "入春后才发现：不兴卫衣了！满大街都在穿“奶奶衫”，意外的洋气",
        "docid": "7338623138369995290",
        "url": ""
    },
    {
        "title": "男装品牌十大排行榜",
        "docid": "7319875789787283995",
        "url": ""
    },
    {
        "title": "去了杭州才发现：牛仔裤不兴了！满大街都是“奶奶裤”，时髦显瘦",
        "docid": "7338779317981348393",
        "url": ""
    },
    {
        "title": "张馨予穿黑色连衣裙搭毛绒短外套 身材姣好超美艳",
        "docid": "7338335045339742758",
        "url": ""
    },
    {
        "title": "羽绒服，我把“波司登”换成“北面”后，来说说感受，太真实了",
        "docid": "7338270261541667337",
        "url": ""
    },
    {
        "title": "中老年女人：为什么劝你们少穿暗沉色、多剪短发？看肖雄就明白了",
        "docid": "7312700431921234468",
        "url": ""
    },
    {
        "title": "早春经典穿搭，依然是“风衣+裙子”，高级又浪漫、谁穿谁好看！",
        "docid": "7338793001944449590",
        "url": ""
    },
    {
        "title": "50岁孟晚舟告诉你：发要卷、衣简约、不戴帽，美得端庄又贵气",
        "docid": "7305972396417548838",
        "url": ""
    },
    {
        "title": "贾玲路演几套衣服什么来头？赞助级别到几级？",
        "docid": "7336573525861499428",
        "url": ""
    },
    {
        "title": "虞书欣春日慵懒大片释出 化身油画少女灵动明媚",
        "docid": "7338679737960940082",
        "url": ""
    },
    {
        "title": "宋慧乔又带火了一种高级穿法：短外套+牛仔裤+波波头，时髦又洋气",
        "docid": "7337534133763228179",
        "url": ""
    },
    {
        "title": "为什么60多岁的铃木保奈一点也不显老，关键在于这3点！",
        "docid": "7338785139977732659",
        "url": ""
    },
    {
        "title": "中国校服100年以来的变化，80年代最好看，90年代太呆板",
        "docid": "7323859467173659171",
        "url": ""
    },
    {
        "title": "刘雯从业以来最短发型！寸头配柒光红唇大背心，比男友井柏然还帅",
        "docid": "7337871470787904035",
        "url": ""
    },
    {
        "title": "这才是早春值得照搬的穿衣技巧，简约又高级，奔四女人穿出气质美",
        "docid": "7338049768960606731",
        "url": ""
    },
    {
        "title": "姐妹们出门要注意防晒呀，穿上修身防晒衣，真的很显瘦",
        "docid": "7338719080473461248",
        "url": ""
    },
    {
        "title": "优衣库好大牌，纪梵希前设计师又一力作优衣库C系列也太好看了！",
        "docid": "7336566728987771433",
        "url": ""
    },
    {
        "title": "官方介入后，洗掉金手镯钢印店员无法自圆其说，猫腻太多网友怒了",
        "docid": "7337695677360767551",
        "url": ""
    },
    {
        "title": "穿来穿去，还是“温柔少女风”最耐看，早春这样穿、大方又减龄！",
        "docid": "7338001916640756224",
        "url": ""
    },
    {
        "title": "一线女士品牌衣服十大排名",
        "docid": "7309645367308517915",
        "url": ""
    },
    {
        "title": "这才是穿搭的意义，明明是同一件衣服，换种穿法反而更显“贵”！",
        "docid": "7338305409046118938",
        "url": ""
    },
    {
        "title": "穿搭分享：一组咖色裤子的穿搭模板",
        "docid": "7309965547934941705",
        "url": ""
    },
    {
        "title": "香港时尚：白皙皮肤下的穿搭之道",
        "docid": "7338246251135517221",
        "url": ""
    },
    {
        "title": "比白幼瘦更吃香的是“国泰民安”审美，年纪越大越明显，看完秒懂",
        "docid": "7337257263868838452",
        "url": ""
    },
    {
        "title": "风靡全国的“的确良”消失了？其实是换了名字，如今很多人还在穿",
        "docid": "7333786592312115738",
        "url": ""
    },
    {
        "title": "徐璐亮相coach秀场：身着皮衣搭配紫色裙装，点亮整个秀场",
        "docid": "7337929731067347456",
        "url": ""
    },
    {
        "title": "为什么同样是“大妈”，有的美如少女，而有人怎么打扮都显老？",
        "docid": "7307634954974822952",
        "url": ""
    },
    {
        "title": "建议中年女性，尽量少穿这4种“假洋气真显黑”颜色， 不耐看土气",
        "docid": "7338790919623934476",
        "url": ""
    },
    {
        "title": "全球十大知名牛仔裤品牌，你最喜欢哪一个？",
        "docid": "7313239241604071972",
        "url": ""
    },
    {
        "title": "全智贤的时尚概念，不愧是引领时尚优雅这块的，颜值气质随时在线",
        "docid": "7338019795516932660",
        "url": ""
    },
    {
        "title": "为什么我劝六七十岁女人：别烫小卷发？看完3组对比图，就懂了",
        "docid": "7338259281978589722",
        "url": ""
    },
    {
        "title": "15套中国红时尚搭配，好看显气质！",
        "docid": "7319724997910561306",
        "url": ""
    },
    {
        "title": "她实在是太会穿，简约风搭配示范，每一套都时髦高级",
        "docid": "7335896140556304907",
        "url": ""
    },
    {
        "title": "同样头饰繁琐，把赵露思和杨紫等人放一起看，女星审美差距出来了",
        "docid": "7318337528506122791",
        "url": ""
    },
    {
        "title": "不买立省！丧心病狂存钱大法来啦！",
        "docid": "7338701364337951267",
        "url": ""
    },
    {
        "title": "65岁肖雄告诉你：女人上了年纪，衣要长、发要短，美得优雅又端庄",
        "docid": "7338401357009191443",
        "url": ""
    },
    {
        "title": "朱珠分享海岛泳装随拍 笑容明媚身材好优越",
        "docid": "7338210267433681443",
        "url": ""
    },
    {
        "title": "马思纯孙千直播穿新中式，虽然身高差2厘米，却被孙千碾压了",
        "docid": "7336598670446150183",
        "url": ""
    },
    {
        "title": "女人是不是“富贵相”，看这3个特征就知道，年过40后就很明显",
        "docid": "7334593010061935145",
        "url": ""
    },
    {
        "title": "广东人是如何打破什么身份就用什么档次的物品的？",
        "docid": "7335816184476074533",
        "url": ""
    },
    {
        "title": "我可以高调的说，辛芷蕾的穿搭根本就没输过！",
        "docid": "7325684901931074059",
        "url": ""
    },
    {
        "title": "马思纯半年减掉50斤后美回来了，卡色西装+粉色裙，太惊艳了",
        "docid": "7338794855966409235",
        "url": ""
    },
    {
        "title": "跟着博主学穿搭｜10组高级同色系穿搭，出街回头率超高",
        "docid": "7311316714019717632",
        "url": ""
    },
    {
        "title": "贾玲穿抹胸礼服秀香肩美腿 腰肢纤细事业线好吸睛",
        "docid": "7338264322201682432",
        "url": ""
    },
    {
        "title": "李沁，刘诗诗，关晓彤和刘涛四美同台，你最喜欢谁的造型呢？",
        "docid": "7333646425618661888",
        "url": ""
    },
    {
        "title": "就在今天小五官的女生，如何用妆容调整面部的寡淡感，看看章泽天",
        "docid": "7338813967051817524",
        "url": ""
    },
    {
        "title": "李沁穿拖地大衣气场拉满 眼神锐利神态超A",
        "docid": "7338810921592340992",
        "url": ""
    },
    {
        "title": "好莱坞顶流小花身穿银色盔甲走红毯，半裸曼妙身材，炸翻全场。",
        "docid": "7338671821409632806",
        "url": ""
    },
    {
        "title": "“会打扮”和“不会打扮”差距能有多大？4组素人对比图给你答案",
        "docid": "7322003936712540709",
        "url": ""
    },
    {
        "title": "59岁刘嘉玲晒新年照惹争议！穿艳桃红被指俗不可耐，与年龄不协调",
        "docid": "7338062846880973323",
        "url": ""
    },
    {
        "title": "当董洁遇上景甜，相差8岁的区别在气质，风度上被对比的淋漓尽致",
        "docid": "7315449242984694283",
        "url": ""
    },
    {
        "title": "活久见！终于有女星在红毯上穿羽绒服了，这才是正常人的操作啊！",
        "docid": "7338057360927752723",
        "url": ""
    },
    {
        "title": "陈瑶在《水龙吟》里面的造型，这个手势是行礼的吗？太优雅了 ​",
        "docid": "7336144440220009000",
        "url": ""
    },
    {
        "title": "魅力无法挡！\"坏女人\"温峥嵘，太迷人了！",
        "docid": "7338964072307868201",
        "url": ""
    },
    {
        "title": "时尚老佛爷：77岁爱上一只猫，留给它2亿美元遗产，后来怎样了？",
        "docid": "7311652739124544039",
        "url": ""
    },
    {
        "title": "18套五颜六色穿搭合集",
        "docid": "7332094437332025907",
        "url": ""
    },
    {
        "title": "什么行业不可以做美甲，看完网友分享我惊呆了",
        "docid": "7338365509873893942",
        "url": ""
    },
    {
        "title": "帅翻天！53岁胡兵伦敦爆火 外国女子疯狂追捧 唯一被邀中国明星！",
        "docid": "7338318409408528896",
        "url": ""
    },
    {
        "title": "长的普通算什么，“体态差”才可怕！明明打扮精致，看着却更土了",
        "docid": "7332792328870052390",
        "url": ""
    },
    {
        "title": "老凤祥事件，和解了",
        "docid": "7337617788045787702",
        "url": ""
    },
    {
        "title": "金标P棉服都很贵？2件低价自制金标P棉服对比",
        "docid": "7326801889150943796",
        "url": ""
    },
    {
        "title": "《繁花》中爆火，当年堪比LV？网友：曾为它花几个月工资",
        "docid": "7322399777973682726",
        "url": ""
    },
    {
        "title": "47岁马伊琍最新米兰时装周造型，短发干净利落美丽依旧！",
        "docid": "7338770870950773287",
        "url": ""
    },
    {
        "title": "10秒自测冷暖皮！了解自己的肤色，才能更合适的搭配",
        "docid": "7313393355436671529",
        "url": ""
    },
    {
        "title": "天呐只有我发现了吗…",
        "docid": "7321898411937071666",
        "url": ""
    },
    {
        "title": "讲真！王李丹妮这身材，谁顶得住啊！",
        "docid": "7338999102467899919",
        "url": ""
    },
    {
        "title": "赵丽颖这个高马尾真是扎到我的视觉爽点上去了",
        "docid": "7336165912640225855",
        "url": ""
    },
    {
        "title": "不同婚纱适合的不同类型",
        "docid": "7331419703803527707",
        "url": ""
    },
    {
        "title": "刘亦菲新年美照曝光：白裙卷发惊艳，长腿配高筒靴引目",
        "docid": "7337896944289792552",
        "url": ""
    },
    {
        "title": "朱珠晒度假美照，罕见穿比基尼秀身材，全身零赘肉又辣又性感",
        "docid": "7338656719775875624",
        "url": ""
    },
    {
        "title": "曾经风靡一个时代的美邦 班尼路 真维斯 以纯这些服装品牌都去了哪里",
        "docid": "7317597187918332468",
        "url": ""
    },
    {
        "title": "吴越晒照好真实，头发稀疏不掩饰老，脸上皱纹分明，却越看越优雅",
        "docid": "7338787347624575499",
        "url": ""
    },
    {
        "title": "始祖鸟背后的男人不能输",
        "docid": "7269378888818491958",
        "url": ""
    },
    {
        "title": "高跟鞋遇冷是何原因？",
        "docid": "7311224183382622756",
        "url": ""
    },
    {
        "title": "刘学义 狼尾卷发",
        "docid": "7313145632796082740",
        "url": ""
    },
    {
        "title": "难怪不是所有人穿大衣都好看的 ​​​",
        "docid": "7326029634334835209",
        "url": ""
    },
    {
        "title": "我们这群中年人穿上了儿女的衣服，活成了青春又节俭的样子！",
        "docid": "7307403052833669666",
        "url": ""
    },
    {
        "title": "朱珠分享海岛泳装随拍 笑容明媚身材好优越",
        "docid": "7338286112558842419",
        "url": ""
    },
    {
        "title": "杨紫现在的造型/状态都非常的好看、就连怼脸也很漂亮",
        "docid": "7314256312441864739",
        "url": ""
    },
    {
        "title": "伊能静和儿子吃日料，故意展示哈利露肩装，发长文满满赞赏！",
        "docid": "7338278830269973032",
        "url": ""
    },
    {
        "title": "看了何超琼、郭晶晶的打扮，才明白什么叫“真名媛”！太优雅高级",
        "docid": "7307433555230032434",
        "url": ""
    },
    {
        "title": "王菊打卡《繁花》上海街道，黑皮裙皮草大衣是上海时髦女郎无疑了",
        "docid": "7322128495986229786",
        "url": ""
    },
    {
        "title": "我真服了！躲过理发店，没想到被美甲店背刺！丑的要死，贵的要命",
        "docid": "7331623387297006099",
        "url": ""
    },
    {
        "title": "刘涛晒新年美照，45岁美丽依旧！",
        "docid": "7338035657237037618",
        "url": ""
    },
    {
        "title": "初高中女生流行扎低马尾，别问为什么，问就是心疼",
        "docid": "7323529629363749416",
        "url": ""
    },
    {
        "title": "细心的网友发现杨紫琼这脚是怎么回事？",
        "docid": "7316171826169004580",
        "url": ""
    },
    {
        "title": "直接抄作业！！让男生秒懂的大牌包包排行榜",
        "docid": "7324258342132728372",
        "url": ""
    },
    {
        "title": "新中式穿搭又火了，国风上衣配下装，尽显东方婉约美！",
        "docid": "7337970300992733711",
        "url": ""
    },
    {
        "title": "米兰时装周来了：无滤镜暴露内娱明星真实状态，袁姗姗的脸怎么了",
        "docid": "7338987591561167397",
        "url": ""
    },
    {
        "title": "宋雨琦丸子头造型半露香肩 红衣明媚俏皮感十足",
        "docid": "7338302554134053427",
        "url": ""
    },
    {
        "title": "看了这位上海奶奶的打扮，才发现岁月从不败美人，62岁反而更美了",
        "docid": "7338690539657052707",
        "url": ""
    },
    {
        "title": "全智贤又美上热搜，除了简约时尚的百搭穿搭外，还有2点很重要",
        "docid": "7338775502552990247",
        "url": ""
    },
    {
        "title": "8090后小时候穿过的鞋子",
        "docid": "7335706726957679115",
        "url": ""
    },
    {
        "title": "62岁刘德华告诉你：发型一丝不苟，裤子短一截，到老也不油腻",
        "docid": "7330086470910394918",
        "url": ""
    },
    {
        "title": "刘诗诗：唤起千年华章，华丽登场全球！",
        "docid": "7338740625770480163",
        "url": ""
    },
    {
        "title": "时尚秘籍：大波浪的卷发之美",
        "docid": "7338243918327595547",
        "url": ""
    },
    {
        "title": "唐嫣意气风发走机场！同款黑大衣爆火快卖断货，出国看秀有巨星范",
        "docid": "7339004276297089547",
        "url": ""
    },
    {
        "title": "长的普通算什么，“精致土”才可怕！妆发很精致，看着却更土了",
        "docid": "7338278999057793586",
        "url": ""
    },
    {
        "title": "春天的穿搭精致感",
        "docid": "7337179849423045158",
        "url": ""
    },
    {
        "title": "被刘雯时尚走秀惊艳了，她的“黑色穿搭”当属第一，美得成风景了",
        "docid": "7338784128906805812",
        "url": ""
    },
    {
        "title": "被重庆观音桥女生惊艳了！满街都是“黑衣+黑靴”，显瘦又时尚",
        "docid": "7338995623045399103",
        "url": ""
    },
    {
        "title": "看完这个视频才知道，这才是正确的剪指甲方法，方便太多",
        "docid": "7339001826467054095",
        "url": ""
    },
    {
        "title": "87岁的向梅为啥比20岁时更美？越活越漂亮的女人，都做到了这几点",
        "docid": "7338314293638726179",
        "url": ""
    },
    {
        "title": "如何区分真皮和人造皮革，只需要一滴水，就可以直接“现原形”！",
        "docid": "7319805399316578857",
        "url": ""
    },
    {
        "title": "2024“春夏流行色”来了！这3个颜色，时髦高级，谁穿谁美！",
        "docid": "7338798275044098601",
        "url": ""
    },
    {
        "title": "今年“锁骨发”又火了！4、50 岁的你不剪一次都不知道多洋气减龄",
        "docid": "7338302477806649867",
        "url": ""
    },
    {
        "title": "倪妮微醺芭莎杂志大片博眼球出位，动作扭成花！杂志擦边，无下限",
        "docid": "7338290295681090102",
        "url": ""
    },
    {
        "title": "宋雨琦的独特穿搭魅力",
        "docid": "7338252972256264754",
        "url": ""
    },
    {
        "title": "长的普通算什么，“精致土”才可怕！妆发很精致，看着却更土了",
        "docid": "7331769441207763491",
        "url": ""
    },
    {
        "title": "配色美学看完你的衣品会很牛",
        "docid": "7315674767108244019",
        "url": ""
    },
    {
        "title": "戒掉这6个烧钱习惯，一年多存5万",
        "docid": "7313574853796299274",
        "url": ""
    },
    {
        "title": "中老年女人：为什么劝你们多穿艳丽色、少披发？看朱玲玲就明白了",
        "docid": "7326820326191530550",
        "url": ""
    },
    {
        "title": "59岁刘嘉玲晒新年照惹争议！穿嫩粉别扭不自然，遭批“土的掉渣",
        "docid": "7338022477576913408",
        "url": ""
    },
    {
        "title": "被62岁“奕姐”圈粉了，不穿老年装也不爱戴帽子，却美得优雅得体",
        "docid": "7338424165785813516",
        "url": ""
    },
    {
        "title": "有效发型VS无效发型",
        "docid": "7322604489645802018",
        "url": ""
    },
    {
        "title": "一眼惊艳的九款饱满发型教程",
        "docid": "7326507133779657228",
        "url": ""
    },
    {
        "title": "江苏男生做穿戴甲生意，春节推动销量高峰，最高一单就有10万元",
        "docid": "7337139307905352211",
        "url": ""
    },
    {
        "title": "论仪态对气质的重要性，看完赫本，再看山口百惠，你就知道区别了",
        "docid": "7338632067875734068",
        "url": ""
    },
    {
        "title": "闪耀的夏日时尚",
        "docid": "7337967471988785691",
        "url": ""
    },
    {
        "title": "40以上的中年女性，建议少穿5种“假洋气真显黑”颜色，",
        "docid": "7338700256676741668",
        "url": ""
    },
    {
        "title": "46岁左小青身材真丰腴！穿深V蕾丝裙差点“撑爆”，性感又迷人",
        "docid": "7338229752043586088",
        "url": ""
    },
    {
        "title": "佟丽娅短发炸毛 自信又松弛 丫丫整个人气质都变了",
        "docid": "7338365439997100578",
        "url": ""
    },
    {
        "title": "果然，女明星与素人之间真的有壁",
        "docid": "7326138755369189942",
        "url": ""
    },
    {
        "title": "伟龙老板把名牌穿出工装风，巴宝莉和爱马仕哭晕，评论区笑死我了",
        "docid": "7337902673372676671",
        "url": ""
    },
    {
        "title": "全智贤真牛！一年一度的亮相就爆火，走机场把Burberry直接卖断货",
        "docid": "7337230911316017699",
        "url": ""
    },
    {
        "title": "田曦薇，性感写真集",
        "docid": "7338960030122902027",
        "url": ""
    },
    {
        "title": "44岁秦岚不算丰腴但很敢穿，深V裙领口开到腰，好身材一览无余",
        "docid": "7338347299791585826",
        "url": ""
    },
    {
        "title": "这谁顶得住啊！“坏女人”温峥嵘，太有韵味了！",
        "docid": "7339017069243253263",
        "url": ""
    },
    {
        "title": "好莱坞女星西德妮·斯威尼以华丽装扮诠释时尚新月形领口设计",
        "docid": "7335464268805980735",
        "url": ""
    },
    {
        "title": "乖乖笑死我了，正纠结要不要去烫发，看了网友们的烫发照片省钱了",
        "docid": "7330219085886259753",
        "url": ""
    },
    {
        "title": "墨西哥美容院给顾客化美妆，总是丑出天际？网友：化得跟活人似的",
        "docid": "7338735177038889507",
        "url": ""
    },
    {
        "title": "赵丽颖穿酒红连衣裙手捧鲜花！大气温婉笑颜如花！",
        "docid": "7337950673588388389",
        "url": ""
    },
    {
        "title": "为什么说“脸型比五官更重要”？看了这3组对比，你就明白了",
        "docid": "7334356411654193690",
        "url": ""
    },
    {
        "title": "精选30套日常简单气质就很好看",
        "docid": "7318587457728004617",
        "url": ""
    },
    {
        "title": "肖战的腿，娜扎的腰，任嘉伦的腹，都不及戚薇垮掉的脸抢镜",
        "docid": "7338765622362669594",
        "url": ""
    },
    {
        "title": "杨采钰 气质撩人 不愧是大佬的女人",
        "docid": "7338050522417136191",
        "url": ""
    },
    {
        "title": "洪金宝儿媳疑怀三胎！穿瑜伽裤出街下身勒痕明显，网友直呼好尴尬",
        "docid": "7338804903203406345",
        "url": ""
    },
    {
        "title": "能背一辈子的大牌包！",
        "docid": "7306119916720112166",
        "url": ""
    },
    {
        "title": "张小斐太适合普通人借鉴了‼️",
        "docid": "7332875319243817484",
        "url": ""
    },
    {
        "title": "陆小曼，一个被爱情耽误的时尚博主，她的穿衣打扮都太美太高级了",
        "docid": "7336863527074021942",
        "url": ""
    },
    {
        "title": "41岁贾玲太励志，瘦身后秒变“小姑娘”，休闲穿搭时髦有范！",
        "docid": "7336525795839623743",
        "url": ""
    },
    {
        "title": "张元英夏日穿搭，大长腿让人移不开眼睛，姐妹们快快学起来！",
        "docid": "7338075702081929737",
        "url": ""
    },
    {
        "title": "冷烫和热烫有啥区别？哪种烫发效果好？一篇文章给你讲清楚！",
        "docid": "7326526739251954187",
        "url": ""
    },
    {
        "title": "山口百惠亲身示范：大衣不配打底裤、发不过肩，年过60都没大妈感",
        "docid": "7333419301862670899",
        "url": ""
    },
    {
        "title": "那些年过60却没有“大妈感”的女人，究竟做对了什么？快看你有吗",
        "docid": "7338440356922671668",
        "url": ""
    },
    {
        "title": "马丁靴+裙子，又酷又撩，个性十足！",
        "docid": "7338442805070840359",
        "url": ""
    },
    {
        "title": "又有了一些超好看的美甲烟花美甲码住 ​​​",
        "docid": "7311899932229878322",
        "url": ""
    },
    {
        "title": "50岁左右的女人，靴子尽量不要穿马丁靴和无痕靴，其实这些更优雅",
        "docid": "7312346348593578522",
        "url": ""
    },
    {
        "title": "陈数和18岁儿子手牵手走机场，她打扮年轻靓丽，不像母子像姐弟",
        "docid": "7338775739304788520",
        "url": ""
    },
    {
        "title": "宋佳 御姐归来",
        "docid": "7338994900169769472",
        "url": ""
    },
    {
        "title": "金手镯被老凤祥洗掉钢印后续：双方达成和解，老凤祥两个方案被拒",
        "docid": "7338740444517368335",
        "url": ""
    },
    {
        "title": "米兰时装周这一天，内娱女星的“真实颜值”，治好了我的容貌焦虑",
        "docid": "7339045546654532111",
        "url": ""
    },
    {
        "title": "配色分享，世界上最高级的颜色",
        "docid": "7323829698168914469",
        "url": ""
    },
    {
        "title": "赞达亚化身粉红皮衣女郎 香肩半露大修锁骨超美艳",
        "docid": "7339025175704994319",
        "url": ""
    },
    {
        "title": "TVB小花晒逾5万爱马仕摆件！成功嫁富豪住半山豪宅，狂秀奢侈",
        "docid": "7338824440404279843",
        "url": ""
    },
    {
        "title": "佟丽娅分享友人随拍旅行照，黄色短发青春活力，沐浴阳光心情大好",
        "docid": "7338795631735030306",
        "url": ""
    },
    {
        "title": "米兰时装周来了：无滤镜暴露内娱明星真实状态，袁姗姗的脸怎么了",
        "docid": "7339052635796013620",
        "url": ""
    },
    {
        "title": "不建议买的3种首饰品牌，听着洋气，实际廉价不上档次！太烂大街",
        "docid": "7338793015689413160",
        "url": ""
    },
    {
        "title": "“新中式”的春节档：从没人要到爆单，你的“新年战袍”是它吗",
        "docid": "7339060790102180364",
        "url": ""
    },
    {
        "title": "蔡文静穿搭风：休闲、个性、辣妹风，学生和打工人也能轻松get！",
        "docid": "7338460869581652530",
        "url": ""
    },
    {
        "title": "“一百来块”的大衣与“几千上万”的大衣差在哪里？内行人告诉你",
        "docid": "7338778461797990921",
        "url": ""
    },
    {
        "title": "上班路上捡到价值百万的名表后，他做了这样的决定！",
        "docid": "7339054461811622436",
        "url": ""
    },
    {
        "title": "男明星簪花造型，成毅檀健次探花郎，侯明昊娇俏，王一博漂亮",
        "docid": "7328221966304019007",
        "url": ""
    },
    {
        "title": "46岁左小青身材真丰腴穿深V蕾丝裙差点“撑爆”，性感又迷人",
        "docid": "7338744922302087719",
        "url": ""
    },
    {
        "title": "吴宣仪绝美身材惊艳众人，摄影师争相为她打造镂空短裙高跟鞋造型",
        "docid": "7338846712187879987",
        "url": ""
    },
    {
        "title": "90年代工资300敢买上千一件的梦特娇T恤，现在200都嫌贵",
        "docid": "7321201309020373504",
        "url": ""
    },
    {
        "title": "时尚穿搭：冬日街头的美与帅",
        "docid": "7338258323169116699",
        "url": ""
    },
    {
        "title": "多个大牌突然宣布：涨价！网友：又来？",
        "docid": "7338948394364322340",
        "url": ""
    },
    {
        "title": "女人过了40岁，短发试试推边头发型，利落时尚有个性",
        "docid": "7324682512063382079",
        "url": ""
    },
    {
        "title": "喜欢戴黄金首饰的都要看看，现在清楚还不晚，尽快叮嘱身边的人",
        "docid": "7339057350030492223",
        "url": ""
    },
    {
        "title": "这个春天：少买衣服、多学搭配，才是快速变美又省钱的关键！",
        "docid": "7339048902999474729",
        "url": ""
    },
    {
        "title": "哪些手表买了就后悔？内心脆弱一定要避开这几款表！",
        "docid": "7306130440354939402",
        "url": ""
    },
    {
        "title": "王丽坤",
        "docid": "7335797169007657535",
        "url": ""
    },
    {
        "title": "法式慵懒风真耐看！初春外出直接照搬照抄，再也不用为搭配发愁了",
        "docid": "7338794993798562331",
        "url": ""
    },
    {
        "title": "我好像发现了女生穿衣服好看的秘诀",
        "docid": "7322681146897498662",
        "url": ""
    },
    {
        "title": "央视主持人马凡舒的美照分享，一袭新中式旗袍穿搭温婉知性！",
        "docid": "7338041749396554292",
        "url": ""
    },
    {
        "title": "“血洗”国人钱包，当年狂揽17.3亿的羽绒服，年轻人已不吃这一套",
        "docid": "7308630750294196772",
        "url": ""
    },
    {
        "title": "快看宝藏日本时尚穿搭博主，开春日系清冷穿搭真好看!",
        "docid": "7338238285187236402",
        "url": ""
    },
    {
        "title": "这就是别人叠穿比你好看的原因 ​​​",
        "docid": "7309307604059537930",
        "url": ""
    },
    {
        "title": "被69岁林青霞的打扮惊艳了！发烫卷、衣成套穿，优雅迷人有气质",
        "docid": "7338256904256553499",
        "url": ""
    },
    {
        "title": "董璇告诉你降温怎么穿：“皮毛大衣+牛仔裤”，保暖显贵不臃肿 ！",
        "docid": "7338039010340012583",
        "url": ""
    },
    {
        "title": "王楚然上元节提灯古风写真，美得太绝了！",
        "docid": "7339058958415692300",
        "url": ""
    },
    {
        "title": "欧米茄推出全新超霸系列“月之暗面” 阿波罗8号腕表",
        "docid": "7324958962414191156",
        "url": ""
    },
    {
        "title": "穿搭技巧：大衣搭配半裙或长裙，时尚韵味各异，展现你的独特魅力",
        "docid": "7338786129128276521",
        "url": ""
    },
    {
        "title": "30岁|能戴一辈子的经典首饰分享",
        "docid": "7330631737460261427",
        "url": ""
    },
    {
        "title": "女人过了40岁，这3款烫发，减龄不老气",
        "docid": "7338782502196396598",
        "url": ""
    },
    {
        "title": "看了85岁吴彦姝和65岁肖雄，才发现：女人自然老去的样子有多美",
        "docid": "7306864800498565632",
        "url": ""
    },
    {
        "title": "黄金项链吸铁石困局：一场笑中带泪的购物奇遇",
        "docid": "7338752576743162419",
        "url": ""
    },
    {
        "title": "中年妇女买衣服，别看品牌和价格！认准这5点，商家想割你韭菜难",
        "docid": "7338376072603910666",
        "url": ""
    },
    {
        "title": "朝鲜人民军陆军常服",
        "docid": "7306383418567262760",
        "url": ""
    },
    {
        "title": "马丽早期写真照好青涩，不愧是沈腾在话剧舞台上一眼就相中的人！",
        "docid": "7336476019731530266",
        "url": ""
    },
    {
        "title": "辛芷蕾无处安放的高级感！她的裙子、皮衣、首饰通通都想要",
        "docid": "7338049363798917671",
        "url": ""
    },
    {
        "title": "“一百来块”的大衣与“几千上万”的大衣差在哪里？内行人告诉你",
        "docid": "7337131048129790479",
        "url": ""
    },
    {
        "title": "董宇辉卖童装，一个举动令他直呼：厂家对不起！我忘了这是童装！",
        "docid": "7338064153359303222",
        "url": ""
    },
    {
        "title": "比“蒜头鼻”更可怕的是“嘴凸”，既显老又显凶，太拉低颜值了！",
        "docid": "7331373274007798307",
        "url": ""
    },
    {
        "title": "一个人的人品好不好，从穿衣可以看出来",
        "docid": "7332776459964531235",
        "url": ""
    },
    {
        "title": "被刘涛米兰的穿搭惊艳了！这样干练的套装永不过时，优雅又时髦",
        "docid": "7338763074276852258",
        "url": ""
    },
    {
        "title": "真正见过世面的女人，很少戴手镯、金项链！看孟晚舟就知道了",
        "docid": "7336398338494972466",
        "url": ""
    },
    {
        "title": "不同身材如何买裤子不会买裤子的姐妹一篇看懂 ​​​",
        "docid": "7310410591787991579",
        "url": ""
    },
    {
        "title": "“四十而不惑”的伦敦时装周",
        "docid": "7338831347282477620",
        "url": ""
    },
    {
        "title": "沈月减龄穿搭，元气少女基本都是休闲、学院风，性价比很高！",
        "docid": "7338472462507622938",
        "url": ""
    },
    {
        "title": "春日花语：红色碎花与可爱发夹的搭配魅力",
        "docid": "7338586784504611365",
        "url": ""
    },
    {
        "title": "坚持这15个习惯，30天后让你漂亮得妥妥当当",
        "docid": "7322103805397959205",
        "url": ""
    },
    {
        "title": "梅花表 | 快问快答：把全村的牛都卖了，也换不到一块梅花？",
        "docid": "7309663053384090148",
        "url": ""
    },
    {
        "title": "秦岚晒金发自拍 穿着保暖软糯可爱",
        "docid": "7339058855550353929",
        "url": ""
    },
    {
        "title": "香奈儿死对头“复活”，奇葩礼服吓坏网友：这是人类能穿的衣服？",
        "docid": "7337963602735235603",
        "url": ""
    },
    {
        "title": "杨幂珍藏写真，独特姿态勾勒曼妙身材，美艳动人惹人遐思",
        "docid": "7339044061196010036",
        "url": ""
    },
    {
        "title": "戚薇亮相米兰时装周：妆造老气，脸垮发腮，网友：像老太太一样",
        "docid": "7339052815169487400",
        "url": ""
    },
    {
        "title": "​程潇晒豪宅内景，装修简约又低调，原来明星私下也是宅女",
        "docid": "7338825281467384359",
        "url": ""
    },
    {
        "title": "梨型身材的姐妹来看 ！怎样穿才好看系列！ ​ ​​​",
        "docid": "7339065349167481378",
        "url": ""
    },
    {
        "title": "冰蓝色鱼尾纱的魅力",
        "docid": "7338252595330433586",
        "url": ""
    },
    {
        "title": "男性50岁以后，眉毛突然变长，说明了啥？多数人可能还被蒙在鼓里",
        "docid": "7324505528787370533",
        "url": ""
    },
    {
        "title": "恍然大悟，今春衬衫不用塞裤腰了！瞧上海女人这样打扮，不美都难",
        "docid": "7339082325390901760",
        "url": ""
    },
    {
        "title": "钟楚曦侯雯元旅游对比！她容光焕发，他精神涣散，网友：正常操作",
        "docid": "7339080896223412751",
        "url": ""
    },
    {
        "title": "貂皮大衣、皮毛一体、羽绒服、派克服那个更暖和？",
        "docid": "7316400704993133067",
        "url": ""
    },
    {
        "title": "等你老了，头发建议留短点，试试这3种“酒窝发”，洋气且减龄",
        "docid": "7338403915593826852",
        "url": ""
    },
    {
        "title": "钟丽缇人美就是任性，年过半百身材发福，挑战多姿势拍照赚足眼球",
        "docid": "7338274786235531828",
        "url": ""
    },
    {
        "title": "蝴蝶和花——这些“花”样配饰，让你的时尚感瞬间爆棚！",
        "docid": "7338649864966423050",
        "url": ""
    },
    {
        "title": "黄渤对李宇春这一挡，彻底暴露了他的人品，张凯丽的话，有人信了",
        "docid": "7324250534524125737",
        "url": ""
    },
    {
        "title": "米兰这一天，刘涛曾黎戚薇妆造全毁，腿短脸僵、身材臃肿不堪",
        "docid": "7339045090167783974",
        "url": ""
    },
    {
        "title": "农村再掀“睡衣风”，穿睡衣上街串门，既丑又土，为何都喜欢穿？",
        "docid": "7314573102225605158",
        "url": ""
    },
    {
        "title": "52岁瞿颖穿贾玲同款走秀，压轴登场又美又飒，网友却说：贾玲好看",
        "docid": "7337869699545989667",
        "url": ""
    },
    {
        "title": "戚薇出席时装周状态不佳引热议！网友：一脸苦相，像老年刘雪华",
        "docid": "7339057701727502898",
        "url": ""
    },
    {
        "title": "\"白敬亭入组《难哄》，世纪大饼定局，网友心疼章若楠。\"",
        "docid": "7336097366594077195",
        "url": ""
    },
    {
        "title": "“会穿衣、懂搭配”，是变美的开始，这些小技巧、太适合普通女人",
        "docid": "7337980136279081509",
        "url": ""
    },
    {
        "title": "贾玲大波浪",
        "docid": "7336804276524483112",
        "url": ""
    },
    {
        "title": "归亚蕾真是美了一辈子，79岁穿衣花哨却时髦高级，到老都没大妈感",
        "docid": "7338745756867838473",
        "url": ""
    },
    {
        "title": "法式春秋简约高级的时髦出街穿搭，简单的单品穿出高级感",
        "docid": "7338231425898037810",
        "url": ""
    },
    {
        "title": "金瑞瑞：让绣娘唱着歌、绣着花，背着娃、养着家",
        "docid": "7338685185480802868",
        "url": ""
    },
    {
        "title": "网友炸了！热巴亮相《时装》三月封面，白发异世界精灵闪亮登场！",
        "docid": "7338305429472985600",
        "url": ""
    },
    {
        "title": "被80岁赵淑珍老年状态惊艳：脸得圆、衣要艳、发烫卷，老了才贵气",
        "docid": "7325055179752292899",
        "url": ""
    },
    {
        "title": "司马南：登上奢侈品消费第一大国，这下全世界都看中国目瞪口呆了",
        "docid": "7337265771296801343",
        "url": ""
    },
    {
        "title": "钟楚曦：时尚女海王的魅力",
        "docid": "7338249660227928626",
        "url": ""
    },
    {
        "title": "网友国外偶遇金晨，路人合照：这吊带也就她敢穿！",
        "docid": "7338965067050451493",
        "url": ""
    },
    {
        "title": "蒋依依好多好看又不贵的裙子！大型种草现场 ​​​，跟着明星学穿搭",
        "docid": "7338287007975785010",
        "url": ""
    },
    {
        "title": "冯琳：正月十三打卡深圳桔钓沙，戴着变色墨镜穿瑜伽裤拍写真大片",
        "docid": "7338994784897450515",
        "url": ""
    },
    {
        "title": "杨幂写真穿搭，饱满的身材，性感又妩媚，让人赏心悦目",
        "docid": "7338034654164976128",
        "url": ""
    },
    {
        "title": "薛凯琪晒与朱茵秀场合照 女神同框造型优雅迷人",
        "docid": "7339033041425629730",
        "url": ""
    },
    {
        "title": "粉色之恋：重新演绎中华娘",
        "docid": "7338599007079957019",
        "url": ""
    },
    {
        "title": "冬日里的简约时尚，米色驼色棕色大衣成主角！40+女性不容错过！",
        "docid": "7338386627846865442",
        "url": ""
    },
    {
        "title": "用过无数款面霜，还是觉得这7款面霜，能让肌肤变得嫩滑、有弹性",
        "docid": "7309057196284215820",
        "url": ""
    },
    {
        "title": "𝗶𝗻𝘀氛围感美甲 太爱啦​​​",
        "docid": "7324678598445597225",
        "url": ""
    },
    {
        "title": "被80岁赵淑珍老年状态惊艳：脸得圆、衣要艳、发烫卷，老了才贵气",
        "docid": "7338332135683883529",
        "url": ""
    },
    {
        "title": "为什么现在铂金不值钱了？是什么原因呢？",
        "docid": "7321599156375208448",
        "url": ""
    },
    {
        "title": "关于我能用一辈子的化妆品",
        "docid": "7327189320300184083",
        "url": ""
    },
    {
        "title": "大都会艺术博物馆服装学院MetGala活动回顾",
        "docid": "7336801459218367027",
        "url": ""
    },
    {
        "title": "郭晶晶和吴敏霞时隔20年再同聚首，一个圆润富态一个干瘪消瘦，",
        "docid": "7338801410702393868",
        "url": ""
    },
    {
        "title": "林志玲 十五年前的电影剧照",
        "docid": "7338573448735638053",
        "url": ""
    },
    {
        "title": "米兰这一天，刘涛曾黎戚薇妆造全毁，腿短脸僵、身材臃肿不堪",
        "docid": "7339041716856898074",
        "url": ""
    },
    {
        "title": "刘敏涛太酷了，穿素衣剃光头上节目，完全不在乎他人眼光",
        "docid": "7339075432102429225",
        "url": ""
    },
    {
        "title": "讲真，这10套出街回头率超高",
        "docid": "7307948138160538149",
        "url": ""
    },
    {
        "title": "2024年首款裙子就选“齐踝裙”，配短靴连气质变高级了，真漂亮",
        "docid": "7338052100875829823",
        "url": ""
    },
    {
        "title": "亲兄弟创立世界一流品牌，为何最终却反目成仇要弄死对方？",
        "docid": "7328633805463011840",
        "url": ""
    },
    {
        "title": "今春被一种裙子惊艳了，叫“剪刀裙”！优雅显瘦，30、40岁穿好美",
        "docid": "7338366123274355254",
        "url": ""
    },
    {
        "title": "GIADA 廓形解构和撞色设计",
        "docid": "7339108262534742528",
        "url": ""
    },
    {
        "title": "“闷声发财”的美国运动品牌：年入576亿，在中国狂开3500多家店",
        "docid": "7337562111851692553",
        "url": ""
    },
    {
        "title": "用质感和反叛堆砌而成的真 · 复古",
        "docid": "7339092041156297270",
        "url": ""
    },
    {
        "title": "深圳福田时尚品牌克劳西亮相米兰",
        "docid": "7339114756902650383",
        "url": ""
    },
    {
        "title": "小心脱发越来越严重！这几个导致脱发的梳头方法你知道吗",
        "docid": "7339121740842680872",
        "url": ""
    },
    {
        "title": "有品位的女性都爱这样打扮，衣服买精不买多，高级又有风度",
        "docid": "7338791914525295116",
        "url": ""
    },
    {
        "title": "何穗",
        "docid": "7339118894285931042",
        "url": ""
    },
    {
        "title": "被马伊琍米兰之行的穿搭惊艳了：蓝色纱裙穿出新高度，洋气又好看",
        "docid": "7338569717122138664",
        "url": ""
    },
    {
        "title": "新加坡偶遇金晨，路人合照，这吊带也就她敢穿！",
        "docid": "7339115997263233587",
        "url": ""
    },
    {
        "title": "许杨玉琢《Look Out》丝袜美腿视频扫图 ​​​",
        "docid": "7339084562275861011",
        "url": ""
    },
    {
        "title": "身高不足158的女生，尽量少穿这3种显矮裤！多穿这3种更显高显瘦",
        "docid": "7336865631100682802",
        "url": ""
    },
    {
        "title": "米兰时装周来了：无滤镜暴露内娱明星真实状态，袁姗姗的脸怎么了",
        "docid": "7339126273324892691",
        "url": ""
    },
    {
        "title": "一个品牌年赚上千亿！我国土豪省份品牌称霸全球，民企能有多牛？",
        "docid": "7330545864060060175",
        "url": ""
    },
    {
        "title": "简简单单就很好看",
        "docid": "7325642508464456242",
        "url": ""
    },
    {
        "title": "逆龄神话：超模Linda Rodin的不老秘诀，宛如青春小姐姐",
        "docid": "7338810756139778571",
        "url": ""
    },
    {
        "title": "大良造物2023年度设计分享",
        "docid": "7338971093082292751",
        "url": ""
    },
    {
        "title": "为什么有人显老，有人显年轻？原因终于找到了",
        "docid": "7329327386116833827",
        "url": ""
    },
    {
        "title": "53岁，特别想说说对金镯子的理解",
        "docid": "7327981596505260553",
        "url": ""
    },
    {
        "title": "（外代二线）米兰时装周——Tom Ford品牌时装秀(2)",
        "docid": "7338690532530602559",
        "url": ""
    },
    {
        "title": "通宵排队、一柜难求，深圳水贝掀起“淘金热”，谁赚翻了？",
        "docid": "7319447743343280680",
        "url": ""
    },
    {
        "title": "央视主持退休，李修平连素颜都还这么漂亮，李瑞英化浓妆却是大妈",
        "docid": "7325067931673805346",
        "url": ""
    },
    {
        "title": "《VOGUE》中国版主编章凝在争议中离场，继任人选引猜测",
        "docid": "7339129763342369307",
        "url": ""
    },
    {
        "title": "早春复古港风穿搭：风华绝代的时尚之选，唤醒你的优雅魅力！",
        "docid": "7338438198567420467",
        "url": ""
    },
    {
        "title": "运动鞋品牌排行榜前十名，你都知道吗？",
        "docid": "7327962339334996492",
        "url": ""
    },
    {
        "title": "新中产女性驱动折扣店增长",
        "docid": "7338629442698347008",
        "url": ""
    },
    {
        "title": "老年人再穷也要戴“银手镯”？真的有保健作用吗？真相是这样的",
        "docid": "7308614433431994890",
        "url": ""
    },
    {
        "title": "国内交智商税的产品，商家对人性的拿捏，支配我们一步步走向陷阱",
        "docid": "7324901879489085967",
        "url": ""
    },
    {
        "title": "我用散沫花叶染白发，改变加黑咖啡的顺序，染的发色更漂亮了",
        "docid": "7311348331153097250",
        "url": ""
    },
    {
        "title": "中国年轻人爱上国潮金饰",
        "docid": "7338616783017935360",
        "url": ""
    },
    {
        "title": "LOEWE｜罗意威红黑榜攻略",
        "docid": "7315739712759677455",
        "url": ""
    },
    {
        "title": "用好的吹风机有必要吗？四大误区陷阱注意防范！",
        "docid": "7338810410655253032",
        "url": ""
    },
    {
        "title": "重焕活力：氧气妆新潮流",
        "docid": "7338591799990452745",
        "url": ""
    },
    {
        "title": "Bon nouvel an chinois！请接收来自法国的新春祝福",
        "docid": "7337946749103505935",
        "url": ""
    },
    {
        "title": "10双300元起，满足日常需求的Gore-Tex鞋款推荐",
        "docid": "7327922917826970152",
        "url": ""
    },
    {
        "title": "胡兵受邀出席伦敦时装周 未来主义感穿搭神秘而时尚",
        "docid": "7339131105180402191",
        "url": ""
    },
    {
        "title": "扔掉你的马丁靴吧，太捂脚！今年推荐这双“春季鞋”，舒适又显高",
        "docid": "7338810727271088694",
        "url": ""
    },
    {
        "title": "被“泰国名媛”英拉惊艳到了！裙不上膝，衣不紧身，美得优雅得体",
        "docid": "7337925811170837046",
        "url": ""
    },
    {
        "title": "（外代二线）米兰时装周——普拉达品牌时装秀(2)",
        "docid": "7338690525291479567",
        "url": ""
    },
    {
        "title": "夏可叔叔扒产品——23年度美白淡斑产品（推）",
        "docid": "7338729935994962451",
        "url": ""
    },
    {
        "title": "制造“东方香”：国际巨头入局，国产品牌大爆发",
        "docid": "7338841699487138343",
        "url": ""
    },
    {
        "title": "我60周岁，头发白一多半，现在开始不染发，做一个自然美小老太太",
        "docid": "7308676248321032745",
        "url": ""
    },
    {
        "title": "东海水晶市场现状阐述",
        "docid": "7317139050111123968",
        "url": ""
    },
    {
        "title": "走向人生顶峰的成功人士标配腕表（万年历篇）",
        "docid": "7312716692462289462",
        "url": ""
    },
    {
        "title": "“守护未来生命，从防蚊开始”，碧柔官方账号开启集赞公益活动",
        "docid": "7338451357319332403",
        "url": ""
    },
    {
        "title": "神奇，贾玲女汉子变成了女神，唱歌视频看哭网友，网友评论区热议",
        "docid": "7336787030548283915",
        "url": ""
    },
    {
        "title": "肖战米兰看秀世趋第一，来自东方巨星的排面！太牛了！",
        "docid": "7338751785395569178",
        "url": ""
    },
    {
        "title": "57岁妈妈二十年如一日坚持盘发 女儿：很佩服妈妈的专一",
        "docid": "7309739259039072778",
        "url": ""
    },
    {
        "title": "（外代二线）米兰时装周——安普里奥·阿玛尼品牌时装秀",
        "docid": "7338690521764151808",
        "url": ""
    },
    {
        "title": "坎爷和老婆又去“霍霍”米兰时装周！娇妻用两块皮革遮体，又火了",
        "docid": "7339056085405286931",
        "url": ""
    },
    {
        "title": "杨超越｜水柔美图｜分享【14】",
        "docid": "7338300113326375475",
        "url": ""
    },
    {
        "title": "PRADA“老网红”杀手包重出江湖了！",
        "docid": "7339131419975123490",
        "url": ""
    },
    {
        "title": "董洁北京街拍，没有修图的状态，有点90年代那种未经雕琢自然的美",
        "docid": "7337601290362438181",
        "url": ""
    },
    {
        "title": "闹大了，搞不好这次事件对老凤祥来说是致命的",
        "docid": "7337681319327105572",
        "url": ""
    },
    {
        "title": "到老都没有大妈感的女人，都懂得“衣不穿花、发不过肩”",
        "docid": "7338791808158270004",
        "url": ""
    },
    {
        "title": "米兰时装周这一天，内娱女星的“真实颜值”，治好了我的容貌焦虑",
        "docid": "7338998637101466147",
        "url": ""
    },
    {
        "title": "首饰佩戴六大禁忌，那些首饰做什么不能带",
        "docid": "7321672029785719347",
        "url": ""
    },
    {
        "title": "“Z世代”消费新风潮：让“传统”成为另一种“时尚”",
        "docid": "7339129354620322319",
        "url": ""
    },
    {
        "title": "“最美主持人”徐俐：不烫老年头、不穿老年装，62岁都没大妈感",
        "docid": "7338782637231997503",
        "url": ""
    },
    {
        "title": "买黄金项链九点避坑！",
        "docid": "7336106759427850767",
        "url": ""
    },
    {
        "title": "（外代二线）米兰时装周——Antonio Marras品牌时装秀(3)",
        "docid": "7338690523009614387",
        "url": ""
    },
    {
        "title": "宋轶的旗袍A4腰：“宋轶的腰，夺命的刀；宋轶的臀，夺人的魂”",
        "docid": "7332462756279452175",
        "url": ""
    },
    {
        "title": "笑不活了，俄罗斯模特队已到达哈尔滨，评论区笑死人了",
        "docid": "7322024886627500584",
        "url": ""
    },
    {
        "title": "我对“无痕裤”的偏见，在看完素人街拍后变了！这样搭好洋气减龄",
        "docid": "7311527520787251721",
        "url": ""
    },
    {
        "title": "任达华老婆晒和女儿的写真大片，19岁颜值爆表甚至比妈妈还漂亮！",
        "docid": "7338390867961020968",
        "url": ""
    },
    {
        "title": "一百美元供不应求，中国军大衣风靡海外，老外抢着买“东方战袍”",
        "docid": "7310937699015033395",
        "url": ""
    },
    {
        "title": "笑不活了！杨迪爆改鼠系帅哥，我却笑晕在网友们评论区里了",
        "docid": "7337614685824975371",
        "url": ""
    },
    {
        "title": "天啊 戚薇真的老了 米兰时装脸垮 皮肤松弛 39岁的她状态没45岁刘涛好",
        "docid": "7338967452774220303",
        "url": ""
    },
    {
        "title": "金晨：吊带下的自信与魅力",
        "docid": "7338795075457860115",
        "url": ""
    },
    {
        "title": "古力娜扎蓝色深V流苏长裙绝色佳人",
        "docid": "7323457449053585961",
        "url": ""
    },
    {
        "title": "8K高清，2024法国世界级超级模特泳装比赛！带你亲临现场！",
        "docid": "7338259417982632475",
        "url": ""
    },
    {
        "title": "美出高级感！",
        "docid": "7338193809005609507",
        "url": ""
    },
    {
        "title": "#可甜可酷可温柔 #少女感 #穿出高级感 #穿搭",
        "docid": "7338448268734497317",
        "url": ""
    },
    {
        "title": "拉昆-史密斯 _ 2024_2025 年秋冬季 _ 完整演出",
        "docid": "7338341578219782692",
        "url": ""
    },
    {
        "title": "眼角粉刺拨除解压",
        "docid": "7329829404039709218",
        "url": ""
    },
    {
        "title": "阿娇钟欣潼沙漠旅行，兜帽长裙造型异域神女",
        "docid": "7338449001304212020",
        "url": ""
    },
    {
        "title": "长沙街拍｜JK女孩",
        "docid": "7338246154746380837",
        "url": ""
    },
    {
        "title": "45岁的刘涛出席米兰时装周，这状态太意外了，脸部比精修图差好远",
        "docid": "7339024515798434339",
        "url": ""
    },
    {
        "title": "千万别再这样穿，又土又胖 ​​​",
        "docid": "7338619572561625627",
        "url": ""
    },
    {
        "title": "外卖员三年挣百万、95后干美甲月入8千，当蓝领到底能有多赚钱",
        "docid": "7338954462477713946",
        "url": ""
    },
    {
        "title": "每日一宝丨项链和吊坠",
        "docid": "7336753401700975138",
        "url": ""
    },
    {
        "title": "黑龙江省服装服饰设计师协会成立",
        "docid": "7339078760773976611",
        "url": ""
    },
    {
        "title": "朱珠分享泳装，典雅大方，淋漓尽致展现完美身材",
        "docid": "7338238983204045352",
        "url": ""
    },
    {
        "title": "宁夏两大网红：钮钴禄·春香VS牧飒，谁能走的更远？",
        "docid": "7338050800436363786",
        "url": ""
    },
    {
        "title": "重庆一男子送妻子的金项链竟被磁铁吸起？商家回应：内有弹簧丝",
        "docid": "7338861253579899444",
        "url": ""
    },
    {
        "title": "老凤祥洗手镯被蹭掉钢印后续：法院立案，市监局介入，老凤祥回应",
        "docid": "7338523378891948555",
        "url": ""
    },
    {
        "title": "【腰间魅惑 】： 美女性感露腰的穿搭秘密 ， 塑造黄金比例身姿",
        "docid": "7338849023702336050",
        "url": ""
    },
    {
        "title": "全球店王SKP落地武汉 街区独栋Lululemon，GUCCI，Tory Burch",
        "docid": "7322086223936553508",
        "url": ""
    },
    {
        "title": "佟丽娅短发炸毛，好有活力的姐姐",
        "docid": "7338384458234511907",
        "url": ""
    },
    {
        "title": "春季买衣雷区！这几款衣服别急着买，聪明人都在等这个时候入手",
        "docid": "7339138785956905498",
        "url": ""
    },
    {
        "title": "分析了辛芷蕾、张婧仪的造型，我发现这种风格更容易出美女氛围",
        "docid": "7339152787429425683",
        "url": ""
    },
    {
        "title": "每天一点小知识——Barbie",
        "docid": "7339064190462263820",
        "url": ""
    },
    {
        "title": "这才是真正微胖穿搭，搭配极简不花哨，美得时髦大气",
        "docid": "7322071187797312052",
        "url": ""
    },
    {
        "title": "看过最好看的时装周，服装设计的力量和野性完美融合在一起",
        "docid": "7338467345339580964",
        "url": ""
    },
    {
        "title": "4K 2023廣州車展 車模抖音網紅隨拍 79",
        "docid": "7338798697322381865",
        "url": ""
    },
    {
        "title": "隔着屏幕似乎什么话都不用付出代价#鞋控日常 #高跟鞋",
        "docid": "7312743626294723087",
        "url": ""
    },
    {
        "title": "云南第一甩头哥穿绿色毒刺耍帅，今天花100元把发尾染绿色开直播",
        "docid": "7313466384963830284",
        "url": ""
    },
    {
        "title": "走廊里的哒哒声",
        "docid": "7338417883489731107",
        "url": ""
    },
    {
        "title": "百年钻石骗局终结在了2018年，背后高手竟是中国人",
        "docid": "7324878344774910474",
        "url": ""
    },
    {
        "title": "陈丽君演老板娘也是百媚千娇",
        "docid": "7305972729306415651",
        "url": ""
    },
    {
        "title": "时尚走秀，视觉盛宴",
        "docid": "7338995679651430962",
        "url": ""
    },
    {
        "title": "喜欢丝袜吗？送你一双",
        "docid": "7324376076430344731",
        "url": ""
    }
]