[
    {
        "title": "2.7新鲜事：肖战、赵露思、关晓彤、杨幂、龚俊、宋轶、曾舜晞",
        "docid": "7332788861082436136",
        "url": ""
    },
    {
        "title": "为什么劝中老年：尽量少留寸头、长发？看完这些素人穿搭就明白了",
        "docid": "7331712895815959091",
        "url": ""
    },
    {
        "title": "“留长发”和“剪短发”的中年女人对比，哪个更好看？答案就在这",
        "docid": "7332833653296906752",
        "url": ""
    },
    {
        "title": "等你老了，尽量别烫小卷、留长发！建议多选这4种发型，洋气减龄",
        "docid": "7332475119799534091",
        "url": ""
    },
    {
        "title": "不建议中老年女人留的3种发型，听着洋气，实际老气，大妈味十足",
        "docid": "7332104960371048975",
        "url": ""
    },
    {
        "title": "小沈阳演唱会惊艳亮相：马面裙造型引领潮流，网友大呼‘绝配’！",
        "docid": "7331976154708165174",
        "url": ""
    },
    {
        "title": "看了70岁胡因梦的打扮，我发现：中老年女人反油腻比扮嫩更显气质",
        "docid": "7314159204359963163",
        "url": ""
    },
    {
        "title": "龙行龘龘，前程朤朤！年关将至，一篇文章带你挑选新春珠宝！",
        "docid": "7326887102136910355",
        "url": ""
    },
    {
        "title": "被潘虹的老年状态惊艳到：69岁头发花白，穿衣极简却高级有气质",
        "docid": "7320419803355726377",
        "url": ""
    },
    {
        "title": "金标P棉服都很贵？2件低价自制金标P棉服对比",
        "docid": "7326801889150943796",
        "url": ""
    },
    {
        "title": "“时尚奶奶”",
        "docid": "7301681486892122634",
        "url": ""
    },
    {
        "title": "配色分享，搭配到位，穿什么都是顶配✓",
        "docid": "7302024616376418853",
        "url": ""
    },
    {
        "title": "这几类卫衣千万不要买，显胖还难看",
        "docid": "7318028477675340340",
        "url": ""
    },
    {
        "title": "看了66岁方舒的穿搭，我发现：穿衣“不扮嫩”，从容老去才是真美",
        "docid": "7332117714015814159",
        "url": ""
    },
    {
        "title": "这才是教科书级别的通勤穿搭，随便穿就透着优雅知性，爱惨了",
        "docid": "7331632362188997172",
        "url": ""
    },
    {
        "title": "这才是“中老年女人”该有的打扮：大衣+瘦瘦靴，显瘦不说还洋气",
        "docid": "7332044889980748326",
        "url": ""
    },
    {
        "title": "Selina产后归来，杂志大片展现辣妈新风尚！",
        "docid": "7332852541971579407",
        "url": ""
    },
    {
        "title": "西装下面不一定要配西装裤，瞧上海女生这样穿，优雅知性，很耐看",
        "docid": "7332478260976321087",
        "url": ""
    },
    {
        "title": "过年怎么穿才好看？试试“毛衣+裙子”，温柔淑女，讨喜又时髦。",
        "docid": "7332080601363120679",
        "url": ""
    },
    {
        "title": "别说过年不知道怎么打扮了！“打底衫+阔腿裤”时髦洋气，真显高",
        "docid": "7332473669841060363",
        "url": ""
    },
    {
        "title": "过年走亲访友这样穿，简约雅致落落大方，每一套都好好看",
        "docid": "7332133923071738402",
        "url": ""
    },
    {
        "title": "\"刘涛自拍美照曝光：肤白如雪，贵妇范儿全开！\"",
        "docid": "7332856470784213540",
        "url": ""
    },
    {
        "title": "等你到了五六十岁，尽量剪短发、衣穿长、鞋带跟，美得优雅又时尚",
        "docid": "7332508854535701042",
        "url": ""
    },
    {
        "title": "这才是60+普通女性最实用的造型：衣穿简约、发型得体，美得脱俗",
        "docid": "7332480990126391862",
        "url": ""
    },
    {
        "title": "适合新年的魅力穿搭，色彩非常有过年的氛围感",
        "docid": "7331652023605690880",
        "url": ""
    },
    {
        "title": "比阔腿裤显瘦、比小黑裤时髦，2024流行的“下装”，个个洋气百搭",
        "docid": "7332753533206397455",
        "url": ""
    },
    {
        "title": "秋冬不露腿：优衣库的时尚救赎",
        "docid": "7332814772729233947",
        "url": ""
    },
    {
        "title": "40岁＋穿搭|粉色让你的年龄变成秘密",
        "docid": "7332638300416508468",
        "url": ""
    },
    {
        "title": "看了何超琼、郭晶晶的打扮，才明白什么叫“真名媛”！太优雅高级",
        "docid": "7307433555230032434",
        "url": ""
    },
    {
        "title": "“会打扮”和“不会打扮”差距能有多大？4组素人对比图给你答案",
        "docid": "7322003936712540709",
        "url": ""
    },
    {
        "title": "陈伟霆换了新发型，留背头的他突然发现不帅了，颜值下降",
        "docid": "7332671295127454243",
        "url": ""
    },
    {
        "title": "同一件衣服，化妆前后穿差别能有多大？对比图看完我惊呆了",
        "docid": "7307135622957777448",
        "url": ""
    },
    {
        "title": "白百何，离“土”最远的女人！",
        "docid": "7301174610949636645",
        "url": ""
    },
    {
        "title": "被刘涛的时尚惊艳了，龙头帽子与高跟短靴搭配，美的喜庆又俏皮",
        "docid": "7332454071829381672",
        "url": ""
    },
    {
        "title": "聊聊那些年你在美甲上踩过的坑，网友：人傻钱多就是我。",
        "docid": "7332847990112027174",
        "url": ""
    },
    {
        "title": "看了76岁的汪明荃，才真的明白了，有富贵相的女人有多耐老",
        "docid": "7332477432760533556",
        "url": ""
    },
    {
        "title": "惊到了！不同衣领之间的搭配还有这么多学问，这样穿果真更好看！",
        "docid": "7320050569094562358",
        "url": ""
    },
    {
        "title": "1961年，青年时期的蒋孝武，戴着劳力士，注定是扶不起的阿斗",
        "docid": "7300145615864889895",
        "url": ""
    },
    {
        "title": "知势003 | 亚麻金已经被誉为2024年最大的发型潮流之一",
        "docid": "7332488090596606476",
        "url": ""
    },
    {
        "title": "被80岁赵淑珍老年状态惊艳：脸得圆、衣要艳、发烫卷，老了才贵气",
        "docid": "7325055179752292899",
        "url": ""
    },
    {
        "title": "秋冬气质大衣穿搭，舒适保暖又好看！",
        "docid": "7300009599997002291",
        "url": ""
    },
    {
        "title": "配色美学看完你的衣品会很牛",
        "docid": "7315674767108244019",
        "url": ""
    },
    {
        "title": "王菊打卡《繁花》上海街道，黑皮裙皮草大衣是上海时髦女郎无疑了",
        "docid": "7322128495986229786",
        "url": ""
    },
    {
        "title": "长的普通算什么，“体态差”才可怕！明明打扮精致，看着却更土了",
        "docid": "7332792328870052390",
        "url": ""
    },
    {
        "title": "等你到了四五十岁，要少穿驼色、灰色，换成这些“年轻色”更减龄",
        "docid": "7308551517811081768",
        "url": ""
    },
    {
        "title": "这才是铃木保奈美“老得慢”的原因：不穿老年装、也不烫老年头！",
        "docid": "7303816101434049039",
        "url": ""
    },
    {
        "title": "比变老更可怕的是“乱穿衣”！60岁女人多穿这3种外套，洋气好看",
        "docid": "7332793063993377314",
        "url": ""
    },
    {
        "title": "被这组大衣穿搭惊艳了，长款除蹲上蹲下不方便，更能体现优雅气质",
        "docid": "7309626322328781352",
        "url": ""
    },
    {
        "title": "56岁英拉，穿针织开衫显年轻，吃美食也不忘拍照，气质依旧在线",
        "docid": "7332829729282441728",
        "url": ""
    },
    {
        "title": "中老年女人，过年别穿这3种羽绒服！容易暴露年龄，看着还很廉价",
        "docid": "7332103109382095375",
        "url": ""
    },
    {
        "title": "日本皇室的王冠，真的很像义乌小商品批发的，小家子气",
        "docid": "7318026735960883712",
        "url": ""
    },
    {
        "title": "衣品对一个女生的重要性，逼自己看完你的衣品会很牛！",
        "docid": "7307601867662492160",
        "url": ""
    },
    {
        "title": "替你们都试过了，都按这个去搭配",
        "docid": "7312213158209258022",
        "url": ""
    },
    {
        "title": "等你到了50、60岁，建议多穿“彩色”，搭对了既高级显白又减龄",
        "docid": "7332864480948322856",
        "url": ""
    },
    {
        "title": "为什么我劝六七十岁女人：别把白发染黑？看完这几组对比你就懂了",
        "docid": "7332505168355246629",
        "url": ""
    },
    {
        "title": "事实证明：会穿比长得好看更重要！",
        "docid": "7301305882674741787",
        "url": ""
    },
    {
        "title": "春节必备穿搭：红毛衣+黑半裙穿出高级感，让你红红火火过大年！",
        "docid": "7332113017997902336",
        "url": ""
    },
    {
        "title": "西游记一直走在时尚的前沿",
        "docid": "7330558423353803301",
        "url": ""
    },
    {
        "title": "李亚鹏小年晒全家福！二婚妻子穿东北花棉袄好似村妞儿，李嫣缺席",
        "docid": "7331019870882644499",
        "url": ""
    },
    {
        "title": "那些看起来年轻的精致女人，只因会穿，瞬间55岁变28岁",
        "docid": "7311931136363332111",
        "url": ""
    },
    {
        "title": "比变老更可怕的是“乱穿衣”！60岁女人多穿这3种外套，洋气好看",
        "docid": "7332476508294267446",
        "url": ""
    },
    {
        "title": "有效发型VS无效发型",
        "docid": "7322604489645802018",
        "url": ""
    },
    {
        "title": "世界首富换人",
        "docid": "7329018076672983564",
        "url": ""
    },
    {
        "title": "90年代工资300敢买上千一件的梦特娇T恤，现在200都嫌贵",
        "docid": "7321201309020373504",
        "url": ""
    },
    {
        "title": "看了66岁方舒的穿搭，我发现：穿衣“不扮嫩”，从容老去才是真美",
        "docid": "7329808721142972967",
        "url": ""
    },
    {
        "title": "近期42套穿搭合集",
        "docid": "7331963816579875366",
        "url": ""
    },
    {
        "title": "中年女人穿大衣配“裤子”！这样三种方式来打扮，时尚又高级",
        "docid": "7332097836790121010",
        "url": ""
    },
    {
        "title": "不同身材如何买裤子不会买裤子的姐妹一篇看懂 ​​​",
        "docid": "7310410591787991579",
        "url": ""
    },
    {
        "title": "收藏了一百多双球鞋，偏偏最贵的一双出了问题",
        "docid": "7331902023979729462",
        "url": ""
    },
    {
        "title": "​​解决了我90%的穿搭难题 ​​​",
        "docid": "7326028532185088521",
        "url": ""
    },
    {
        "title": "丫丫佟丽娅写真 无敌御姐，尽现女人本色",
        "docid": "7331989597540401718",
        "url": ""
    },
    {
        "title": "张雨绮穿丝袜跟别人不一样！搭配西装、短裤、大波浪卷发，好惊艳",
        "docid": "7331912813885145611",
        "url": ""
    },
    {
        "title": "\"Selina辣妈回归！产后大片展现丰腴魅力！\"",
        "docid": "7332840623437627945",
        "url": ""
    },
    {
        "title": "杨紫现在的造型/状态都非常的好看、就连怼脸也很漂亮",
        "docid": "7314256312441864739",
        "url": ""
    },
    {
        "title": "杨幂解锁古风造型超惊艳，网友直呼：从此君王不早朝",
        "docid": "7332913996372525631",
        "url": ""
    },
    {
        "title": "引人入胜：9套轻松穿搭合集",
        "docid": "7332693426586288666",
        "url": ""
    },
    {
        "title": "看了上海女生打扮，我悟了：大衣+围巾，今冬这样穿才更时尚洋气",
        "docid": "7332061516110398006",
        "url": ""
    },
    {
        "title": "建议中老年女人，多穿这4种“富贵色”，显白显年轻，还很有格调",
        "docid": "7332658717496672778",
        "url": ""
    },
    {
        "title": "我好像发现了女生穿衣服好看的秘诀",
        "docid": "7322681146897498662",
        "url": ""
    },
    {
        "title": "黑色羽绒服太好穿了！长裤、长裙都能搭，温柔百搭又极具包容性",
        "docid": "7332902513891000872",
        "url": ""
    },
    {
        "title": "一代神鞋！雪藏多年！「MVP战靴」要回归？",
        "docid": "7332532480370770472",
        "url": ""
    },
    {
        "title": "小个子女生必须牢记的穿搭公式，上短下长",
        "docid": "7303166290993758758",
        "url": ""
    },
    {
        "title": "被日本奶奶打扮惊艳了：大衣配围巾、羽绒服穿薄不穿厚，时尚洋气",
        "docid": "7332118627061203471",
        "url": ""
    },
    {
        "title": "引人入胜：告别棕色，迎接2024年的流行色",
        "docid": "7332691463328940581",
        "url": ""
    },
    {
        "title": "53岁俞飞鸿带火了“新年穿搭”，红大衣+围巾+长筒靴，洋气又显贵",
        "docid": "7332869048608260642",
        "url": ""
    },
    {
        "title": "红遍全国的“小芈月”翻新形象！她的酷酷脸引发网友热议！",
        "docid": "7332879308563694091",
        "url": ""
    },
    {
        "title": "戚薇又带火了“极简”穿搭：白毛衣+半身裙+羊毛卷，时髦又洋气",
        "docid": "7332818801039966755",
        "url": ""
    },
    {
        "title": "惊艳了！满大街都是“大衣+平头靴”，洋气显高还保暖",
        "docid": "7332139674674151976",
        "url": ""
    },
    {
        "title": "“短羽绒+阔腿裤”真的好好看！遮肉保暖又显瘦，韩系风拿捏了！",
        "docid": "7332103479554589238",
        "url": ""
    },
    {
        "title": "四五十岁女性：追求真正的优雅",
        "docid": "7332815411308069413",
        "url": ""
    },
    {
        "title": "61岁前超模姐姐：单身，住236㎡的家，还在努力工作",
        "docid": "7325063710501503514",
        "url": ""
    },
    {
        "title": "穿黑色大衣，感觉自己走路都在带风！又酷又飒，谁能不爱！",
        "docid": "7331625015374447119",
        "url": ""
    },
    {
        "title": "引人入胜：50岁女性的优雅靴装",
        "docid": "7332692371639550501",
        "url": ""
    },
    {
        "title": "衣服穿出门要好看才行！色不过三、款式简单，让你美得恰到好处",
        "docid": "7332474307299344959",
        "url": ""
    },
    {
        "title": "短视频时代，时尚品牌为何仍选用纪录片开展叙事？",
        "docid": "7332825510420791859",
        "url": ""
    },
    {
        "title": "刘学义 狼尾卷发",
        "docid": "7313145632796082740",
        "url": ""
    },
    {
        "title": "精简 | 6类衣物，秋冬不要再买了，一起避坑",
        "docid": "7299818504927511055",
        "url": ""
    },
    {
        "title": "唯美早春穿搭：一周无重样",
        "docid": "7331923849354887715",
        "url": ""
    },
    {
        "title": "干净自在的穿衣风格远胜累人的精致，开春优雅休闲风搞起来",
        "docid": "7332136812875710986",
        "url": ""
    },
    {
        "title": "70后女人，建议你冬季穿“裙子”要过膝，显瘦还优雅",
        "docid": "7332482401044234793",
        "url": ""
    },
    {
        "title": "引人入胜：时尚九套日常穿搭",
        "docid": "7332684353530495498",
        "url": ""
    },
    {
        "title": "松弛感穿搭给人呈现的是一种舒适简单且毫不费力造型，随性又自在",
        "docid": "7332489360652812841",
        "url": ""
    },
    {
        "title": "又被三木博主的穿搭惊艳了！穿衣高级显气质，想不时髦都很难",
        "docid": "7332911394498675240",
        "url": ""
    },
    {
        "title": "甜美妆容大揭秘！让你瞬间变身甜心教主！",
        "docid": "7332924225788871202",
        "url": ""
    },
    {
        "title": "一个可以把花衣穿出素雅清冷感的男人～成毅",
        "docid": "7305743465978872360",
        "url": ""
    },
    {
        "title": "培育钻石只能做首饰？对不起，是我肤浅了 ｜ 科技圆桌派",
        "docid": "7332385105018798632",
        "url": ""
    },
    {
        "title": "适合40岁+的“国货精华”：不是大牌买不起，而是它们更有性价比",
        "docid": "7299689110397485608",
        "url": ""
    },
    {
        "title": "女人过了60岁，多试着穿这4个“高级色”大方得体，关键显气质！",
        "docid": "7332119663088009728",
        "url": ""
    },
    {
        "title": "71岁陈婉珍亲身示范：发不过肩、衣不穿松，老了都没有“大妈感”",
        "docid": "7320579487090409994",
        "url": ""
    },
    {
        "title": "等你到了五六十岁，建议少穿羽绒服，换成这3件“外套”更洋气",
        "docid": "7331766712540430882",
        "url": ""
    },
    {
        "title": "盘点那些十大“伪国货”，在中国疯狂赚国人的钱，你都用过哪些？",
        "docid": "7315018799483208244",
        "url": ""
    },
    {
        "title": "东日街拍日常通勤穿搭借鉴，快来看看有没有适合你的穿搭风格！",
        "docid": "7332483869197320740",
        "url": ""
    },
    {
        "title": "巩俐嫁给老外后真幸福！57岁穿红色毛衣裙嫩得像少女，老公像爸爸",
        "docid": "7331916925355835967",
        "url": ""
    },
    {
        "title": "为什么建议中年女人穿“长一点”的裙子？专业解答来了，特实用",
        "docid": "7332013292506399284",
        "url": ""
    },
    {
        "title": "我妈都嫌丑的足力健，怎么就成了萌妹必备？",
        "docid": "7300066893681951268",
        "url": ""
    },
    {
        "title": "当你有件黑色长款羽绒服不知道怎么搭配时 ​​​",
        "docid": "7303728054579380763",
        "url": ""
    },
    {
        "title": "阔腿裤流行趋势，冬天最实用的保暖单品，散发时尚魅力遮肉又显瘦",
        "docid": "7332483218060870198",
        "url": ""
    },
    {
        "title": "窥探花少穿搭：赵昭仪的平价风格",
        "docid": "7331925874075386383",
        "url": ""
    },
    {
        "title": "早春穿搭合集|高级感西装搭配灵感，穿出你的高级感",
        "docid": "7332634194910216719",
        "url": ""
    },
    {
        "title": "理发店不会告诉你，染发到最后都会变黄！",
        "docid": "7332709194199630390",
        "url": ""
    },
    {
        "title": "穿貂皮大衣刺痛了谁的心",
        "docid": "7329697697949205032",
        "url": ""
    },
    {
        "title": "40岁时尚之道：基础色简单大气显气质",
        "docid": "7332813597322166811",
        "url": ""
    },
    {
        "title": "张家口阳原毛皮会“说话” 讲述中国好故事",
        "docid": "7332664195370353189",
        "url": ""
    },
    {
        "title": "春节相亲潮：男性化妆需求激增",
        "docid": "7332686982260195855",
        "url": ""
    },
    {
        "title": "腕表5不买，这几种手表，谁买谁是大怨种！",
        "docid": "7299652961310245413",
        "url": ""
    },
    {
        "title": "日本时尚杂志《SPRING》—春季时尚 单品",
        "docid": "7332818930451366415",
        "url": ""
    },
    {
        "title": "化妆师兔子爆改张大大，这也太帅了吧，感觉可以出演大男主了！",
        "docid": "7332754814088102410",
        "url": ""
    },
    {
        "title": "衬衫、卫衣…还能这样搭？这4个开春叠穿法，让你时髦又高级！",
        "docid": "7332896054176105012",
        "url": ""
    },
    {
        "title": "闻献飞天龙须香瓶，日默瓦铝镁合金化妆箱｜是日美好事物",
        "docid": "7332628134690701865",
        "url": ""
    },
    {
        "title": "新年穿什么？过年这么穿，你可太会了。",
        "docid": "7332620826116080128",
        "url": ""
    },
    {
        "title": "不建议中国大妈穿的3种冬装，看着时尚，实际上身显胖，油腻老气",
        "docid": "7332110083809165851",
        "url": ""
    },
    {
        "title": "4️⃣8️⃣套合集，简单大方精致时髦精",
        "docid": "7300333449028715058",
        "url": ""
    },
    {
        "title": "CBD北京正大中心：古典主义美学与现代制表技艺的完美呈现",
        "docid": "7332691153042752019",
        "url": ""
    },
    {
        "title": "白鹿2024网络视听盛典每一套造型都很美",
        "docid": "7331686511018312203",
        "url": ""
    },
    {
        "title": "神奇的警服内胆",
        "docid": "7313012469558313512",
        "url": ""
    },
    {
        "title": "LOEWE｜罗意威红黑榜攻略",
        "docid": "7315739712759677455",
        "url": ""
    },
    {
        "title": "笑晕了，小沈阳合肥演唱会竟然带火了马面裙，我要笑死在评论区",
        "docid": "7332034582268822066",
        "url": ""
    },
    {
        "title": "黑色羽绒服太好穿了！长裤、长裙都能搭，温柔百搭又极具包容性",
        "docid": "7332130182700532243",
        "url": ""
    },
    {
        "title": "户外品牌最强供应商：嘉麟杰，自主品牌盘点",
        "docid": "7329719439266791990",
        "url": ""
    },
    {
        "title": "老庙X麦玲玲“大师系列”敬颂新辰，MIKIMOTO演绎龙形图腾｜是日美好事物龙年珠宝特辑③",
        "docid": "7331886342479462924",
        "url": ""
    },
    {
        "title": "没想到，“奶奶帽”竟被戴火了！洋气好看显年轻，明星潮人都爱了",
        "docid": "7332844712610873894",
        "url": ""
    },
    {
        "title": "百达翡丽全线产品涨价约7％",
        "docid": "7332665029247894055",
        "url": ""
    },
    {
        "title": "这才是春节最美穿搭，“短羽绒服＋牛仔裤”，时髦显瘦不易撞衫！",
        "docid": "7332778103263150632",
        "url": ""
    },
    {
        "title": "纵览秋冬通勤：唯美大方搭配的时尚之道",
        "docid": "7332062294954213897",
        "url": ""
    },
    {
        "title": "简约单品轻松打造高级氛围感穿搭简洁、舒适，张弛有度且不花时间",
        "docid": "7332488631464264228",
        "url": ""
    },
    {
        "title": "新消费观察｜春节市场，深耕文化元素是重头戏",
        "docid": "7332751621941838399",
        "url": ""
    },
    {
        "title": "威富的增长“独苗”北面也卖不动了",
        "docid": "7332762310060180031",
        "url": ""
    },
    {
        "title": "我的退休生活，收拾衣柜里的衣服，有些还是不能“断舍离”",
        "docid": "7325712184968020543",
        "url": ""
    },
    {
        "title": "2024春夏上演奇物之“家”",
        "docid": "7332811821956563508",
        "url": ""
    },
    {
        "title": "一个人的头发，暴露了他的人生层次",
        "docid": "7219834371350774327",
        "url": ""
    },
    {
        "title": "4种脱发类型，生发果+固发操，双管齐下，还你靓丽秀发",
        "docid": "7332725405390045715",
        "url": ""
    },
    {
        "title": "11篇sci、72项专利，这样的溪木源“活该”一年狂卖15亿",
        "docid": "7332801548223267379",
        "url": ""
    },
    {
        "title": "神秘的印度河珠宝：古代文明的失落之宝|矩形刻花贝壳板珠",
        "docid": "7332081395998900786",
        "url": ""
    },
    {
        "title": "（外代二线）迪拜时装周——Rizman Ruzaini品牌时装秀",
        "docid": "7332018651035730432",
        "url": ""
    },
    {
        "title": "欧阳娜娜，不再是当初清纯的女孩",
        "docid": "7332718210476704267",
        "url": ""
    },
    {
        "title": "劝你，过年穿大衣下面别配“运动鞋”！今年流行这样穿，显高洋气",
        "docid": "7332725250184741387",
        "url": ""
    },
    {
        "title": "等你老了，尽量别戴老年帽、穿花衣服！看张瑜和黄梅莹这样穿多美",
        "docid": "7325680509454090790",
        "url": ""
    },
    {
        "title": "太原：金银珠宝成“团宠” 消费者购买热情高涨",
        "docid": "7332628694588113458",
        "url": ""
    },
    {
        "title": "时尚媒体|拉夫劳伦小熊：传递好运的使者|广州时尚媒体 集团 传媒",
        "docid": "7332756283642249769",
        "url": ""
    },
    {
        "title": "LVMH收购巴黎一酒店 将用来接待超级客户",
        "docid": "7331912534532145698",
        "url": ""
    },
    {
        "title": "晚报推荐丨理发店不会告诉你，染发到最后都会变黄",
        "docid": "7332793160667595275",
        "url": ""
    },
    {
        "title": "明星自创品牌要流量更要质量",
        "docid": "7332680039592722944",
        "url": ""
    },
    {
        "title": "“对标”百达翡丽，萧邦L.U.C XPS 1860 究竟有什么魅力？",
        "docid": "7332049957932843583",
        "url": ""
    },
    {
        "title": "为提高相亲成功率，男生过年相亲妆需求增加，我笑死在评论区",
        "docid": "7332766659289678347",
        "url": ""
    },
    {
        "title": "冬季首饰养护有讲究 珠宝也应“放寒假”",
        "docid": "7332734397751411235",
        "url": ""
    },
    {
        "title": "杨幂春晚再现古装女神：唐宋明三套妆造惊艳",
        "docid": "7332906876264350247",
        "url": ""
    },
    {
        "title": "平价美妆需求高涨 e.I.f Beauty第三财季收入上涨85%",
        "docid": "7332740550992740883",
        "url": ""
    },
    {
        "title": "将一整条龙绕在手腕上是种什么体验？",
        "docid": "7332790584849154600",
        "url": ""
    },
    {
        "title": "43岁霍思燕太顶了，胸怀大志面带婴儿肥，副乳更是实力抢镜！",
        "docid": "7332834875738898953",
        "url": ""
    },
    {
        "title": "75岁甄珍携子出席聚会，穿粉色外套显气质，合照坐中间被视为贵客",
        "docid": "7332974539602756108",
        "url": ""
    },
    {
        "title": "没想到有生之年能等到它回归！",
        "docid": "7332794514240995855",
        "url": ""
    },
    {
        "title": "模特秀",
        "docid": "7331946212129505855",
        "url": "https://www.ixigua.com/7331946212129505855"
    },
    {
        "title": "东北人曾经最爱的貂皮现在多少钱了，给我妈安排一件，老开心了！",
        "docid": "7316098850056307240",
        "url": "https://www.ixigua.com/7316098850056307240"
    },
    {
        "title": "一万多新买的LV牛仔裤，到底能改几个包？",
        "docid": "7303385082511753743",
        "url": "https://www.ixigua.com/7303385082511753743"
    },
    {
        "title": "羽绒服天花板？500元，高性价比羽绒服推荐 #羽绒服 #羽绒服推荐",
        "docid": "7320465176858198580",
        "url": "https://www.ixigua.com/7320465176858198580"
    },
    {
        "title": "说她没有辨识度是认真的吗？#赵美延#gidle#kpop#时尚#颜值",
        "docid": "7332442047511134732",
        "url": "https://www.ixigua.com/7332442047511134732"
    },
    {
        "title": "盘点东京时装秀，这才是符合国人审美的时装秀，池田依来沙",
        "docid": "7332811564334416436",
        "url": "https://www.ixigua.com/7332811564334416436"
    },
    {
        "title": "累了就休息一下吧",
        "docid": "7323140476893463040",
        "url": "https://www.ixigua.com/7323140476893463040"
    },
    {
        "title": "模特秀",
        "docid": "7331984675516187172",
        "url": "https://www.ixigua.com/7331984675516187172"
    },
    {
        "title": "模特秀",
        "docid": "7332276180596457996",
        "url": "https://www.ixigua.com/7332276180596457996"
    },
    {
        "title": "这是我见过最反油腻的60岁女人：衣不穿花、发不过肩，美得真优雅",
        "docid": "7332723806924096027",
        "url": ""
    },
    {
        "title": "大姨烫发翻车秒变“步惊云”，理发师一句话惹爆笑：洗完还这样？",
        "docid": "7332409465125208626",
        "url": "https://www.ixigua.com/7332409465125208626"
    },
    {
        "title": "#运动泳装洛杉矶时装秀 #泳装秀",
        "docid": "7332668842168189459",
        "url": "https://www.ixigua.com/7332668842168189459"
    },
    {
        "title": "MIU MIU(缪缪) 1998春季意大利米兰时装秀-经典回顾",
        "docid": "7330628371069862415",
        "url": "https://www.ixigua.com/7330628371069862415"
    },
    {
        "title": "不挑脸型的一刀切短发｜不翻车教程！",
        "docid": "7311802760544911922",
        "url": "https://www.ixigua.com/7311802760544911922"
    },
    {
        "title": "女孩生日当天 男友竟送299包邮的假lv睡裙 #戚薇 #北漂",
        "docid": "7320928437488026175",
        "url": "https://www.ixigua.com/7320928437488026175"
    },
    {
        "title": "不是…弄成这都行？！",
        "docid": "7323087399968309760",
        "url": "https://www.ixigua.com/7323087399968309760"
    },
    {
        "title": "超模",
        "docid": "7332672763615773193",
        "url": "https://www.ixigua.com/7332672763615773193"
    },
    {
        "title": "春节假期，穿衣别太刻板，“松弛感”穿搭舒适自在、还很显年轻！",
        "docid": "7332733589286879780",
        "url": ""
    },
    {
        "title": "摸裙杀",
        "docid": "7332576766873535039",
        "url": "https://www.ixigua.com/7332576766873535039"
    },
    {
        "title": "杨幂",
        "docid": "7332855029675590159",
        "url": "https://www.ixigua.com/7332855029675590159"
    },
    {
        "title": "为什么有些中老年女人，明明衣服很贵，穿着却十分土气？关键在这",
        "docid": "7332849838154990090",
        "url": ""
    },
    {
        "title": "被“上海地铁奶奶”惊艳了！发不过肩、衣不紧身，却个个优雅端庄",
        "docid": "7332835907043099147",
        "url": ""
    },
    {
        "title": "被萨日娜惊艳了，穿民族风长裙高贵大气，虽发福满身却是优雅气质",
        "docid": "7332859880489058852",
        "url": ""
    },
    {
        "title": "50+的女人，裤子记好“3穿3不穿”，时髦减龄又显气质！",
        "docid": "7332831138362589707",
        "url": ""
    },
    {
        "title": "Luisa Beccaria2018春夏系列美得梦幻像极了春天扑面而来！",
        "docid": "7332845637501469247",
        "url": ""
    },
    {
        "title": "冬日穿衣不再愁！苹果型身材的搭配小技巧，让你时尚又保暖！",
        "docid": "7332837273417171467",
        "url": ""
    },
    {
        "title": "入冬季成套穿王炸穿搭这6套照着穿巨时髦巨显瘦",
        "docid": "7332729468656108069",
        "url": ""
    },
    {
        "title": "50岁早春穿搭偏爱得体简约大方的穿搭，赶快学起来让别人也夸夸你",
        "docid": "7332843363954049599",
        "url": ""
    },
    {
        "title": "为什么劝你老了后放弃“大妈卷”？看完这些对比后，你就明白了",
        "docid": "7332864849879941668",
        "url": ""
    },
    {
        "title": "女人过了50岁，尽量少穿3件“显老气”的外套，拉低气质还土气！",
        "docid": "7332831679658656268",
        "url": ""
    },
    {
        "title": "冬日百搭神器黑色羽绒服太好穿了！长裤、长裙都能搭，时尚又温暖",
        "docid": "7332832758337061387",
        "url": ""
    },
    {
        "title": "韩系小姐姐怎么过春节？时髦显高的穿搭示范，直接“复制”就对了",
        "docid": "7332832466187076132",
        "url": ""
    },
    {
        "title": "2月6日安妮公主访问诺丁汉郡，这件紫色外套是不是很眼熟？",
        "docid": "7332846860186452499",
        "url": ""
    },
    {
        "title": "三四十岁的女人，春节试试“清冷文艺范”穿搭，温婉大方又耐看！",
        "docid": "7332830472286192167",
        "url": ""
    },
    {
        "title": "男人过了50岁，换发型就选这一款，哪怕头发花白依然很有型",
        "docid": "7332855171460055561",
        "url": ""
    },
    {
        "title": "就让我们和她一起在50岁的年华也能绽放无尽优雅魅力",
        "docid": "7332840810855514665",
        "url": ""
    },
    {
        "title": "冬天穿衣越简单越有型！8套素人轻松驾驭，随便搭配不会感觉腻！",
        "docid": "7332837866454204982",
        "url": ""
    },
    {
        "title": "公价19万，江诗丹顿入门表，竟也有“帝王”待遇",
        "docid": "7332419549599531574",
        "url": ""
    },
    {
        "title": "40+初春可以这样穿，优雅大方又显气质美的很出众",
        "docid": "7332730391880581670",
        "url": ""
    },
    {
        "title": "摆脱小黑裤子！这3条裤子才是微胖女孩的救星",
        "docid": "7332731519854887461",
        "url": ""
    },
    {
        "title": "开云集团：产品融入可持续理念，消费者会买单吗？",
        "docid": "7331999186663047680",
        "url": ""
    },
    {
        "title": "男生为了让女友安心主动剃头，剃完后颜值却让网友直呼：更危险了",
        "docid": "7329313275739701775",
        "url": "https://www.ixigua.com/7329313275739701775"
    },
    {
        "title": "芦荟擦脸 第27天 一边擦脸一边做脸部操。芦荟汁打底脸操才是重点",
        "docid": "7321512463248294450",
        "url": "https://www.ixigua.com/7321512463248294450"
    },
    {
        "title": "莎朗阿姨的绿色套裙搭配白色丝袜穿搭",
        "docid": "7332795174147981876",
        "url": "https://www.ixigua.com/7332795174147981876"
    },
    {
        "title": "另外就是要学会用配饰修饰，毕竟中年女人的日常搭配总是比较简单",
        "docid": "7332841750413148691",
        "url": ""
    },
    {
        "title": "别再一身黑了小个子今春这样穿时髦又显白美爆了",
        "docid": "7332728425083601460",
        "url": ""
    },
    {
        "title": "又被倪妮的穿搭惊艳了！为什么普通的绒面衫，竟然能穿的那么时髦",
        "docid": "7332070635538006568",
        "url": ""
    },
    {
        "title": "王子文不愧是“行走的Dior”，翻领毛衣配微喇裤，穿出冬日精致感",
        "docid": "7331652457741484598",
        "url": ""
    },
    {
        "title": "被14岁王诗龄惊艳了，初恋脸拍写真不输女明星，一双漫画腿太抢镜",
        "docid": "7331661985865761321",
        "url": ""
    },
    {
        "title": "金球奖一夜，女明星又给内娱上了一课！礼服薄如蝉翼，造型神扎堆",
        "docid": "7332330518828401203",
        "url": ""
    },
    {
        "title": "40岁郁可唯一袭绿色亮片长裙惊艳亮相央视经典之夜，美艳动人！",
        "docid": "7332051649764934196",
        "url": ""
    },
    {
        "title": "孟晚舟是我见过最得体的名媛：裙不上膝，大衣不配丝袜，优雅贵气",
        "docid": "7332175781679907363",
        "url": ""
    },
    {
        "title": "高圆圆赵又廷回家过年！穿红大衣配阔腿裤真时髦，全程笑脸好幸福",
        "docid": "7332322176261308955",
        "url": ""
    },
    {
        "title": "论冻龄只服秦岚！穿小黑裙露锁骨和直角肩，身材比年轻姑娘还好",
        "docid": "7332429104291103269",
        "url": ""
    },
    {
        "title": "董卿老到认不出！49岁素颜和中年大妈无异，沧桑却越看越有气质！",
        "docid": "7332457173132182026",
        "url": ""
    },
    {
        "title": "央视主持退休，李修平连素颜都还这么漂亮，李瑞英化浓妆却是大妈",
        "docid": "7325067931673805346",
        "url": ""
    },
    {
        "title": "中国校服100年以来的变化，80年代最好看，90年代太呆板",
        "docid": "7323859467173659171",
        "url": ""
    },
    {
        "title": "白鹿《白月梵星》新造型曝光！彩色头发引热议，网友在线惊艳！",
        "docid": "7332497378093728267",
        "url": ""
    },
    {
        "title": "唐艺昕｜水柔美图｜分享【22】",
        "docid": "7329891362399797769",
        "url": ""
    },
    {
        "title": "被长沙女生“冬季穿搭”惊艳到：衣要宽、裤拖地、靴上膝，好时尚",
        "docid": "7332387170298429991",
        "url": ""
    },
    {
        "title": "被这位62岁浙江阿姨惊艳到：穿衣优雅高级，发烫卷到老都没大妈感",
        "docid": "7322045079567745572",
        "url": ""
    },
    {
        "title": "不同婚纱适合的不同类型",
        "docid": "7331419703803527707",
        "url": ""
    },
    {
        "title": "43岁柳岩身着粉红相间长裙喜庆又美丽",
        "docid": "7332467687626965543",
        "url": ""
    },
    {
        "title": "53岁俞飞鸿带火了“新年穿搭”，红大衣+围巾+长筒靴，洋气又显贵",
        "docid": "7330964581684331058",
        "url": ""
    },
    {
        "title": "又被上海地铁奶奶惊艳了！裙不配丝袜，戴帽子配丝巾，时尚又洋气",
        "docid": "7332340642175205914",
        "url": ""
    },
    {
        "title": "郭晓东程莉莎腊月二十六回农村老家过年，二人一身大红色太喜庆",
        "docid": "7332829769454092839",
        "url": ""
    },
    {
        "title": "66万一双的“踢不烂”，到底谁在买？",
        "docid": "7331530208681411087",
        "url": ""
    },
    {
        "title": "三十岁后，过不烧钱的精致生活",
        "docid": "7320937232872407588",
        "url": ""
    },
    {
        "title": "真佩服老祖宗的审美！雍容大气，一般气场压不住这衣服",
        "docid": "7302295086233289257",
        "url": ""
    },
    {
        "title": "当你60,70岁的时候，还能保持这样的身材和精致时髦的打扮吗",
        "docid": "7332876628714291751",
        "url": ""
    },
    {
        "title": "春节假期，穿衣别太刻板，“松弛感”穿搭舒适自在、还很显年轻！",
        "docid": "7332795068228583987",
        "url": ""
    },
    {
        "title": "为什么有的人一看就很有气质？",
        "docid": "7319364697583665705",
        "url": ""
    },
    {
        "title": "白鹿晒《白月梵星》最新剧照头戴星辰，造型华丽但又清冷出尘！",
        "docid": "7332824216988992041",
        "url": ""
    },
    {
        "title": "陈凯歌前妻才是真时髦精！穿2万块风衣，未施粉黛美得优雅又贵气",
        "docid": "7332861651705823756",
        "url": ""
    },
    {
        "title": "李嫣嘴唇恢复得也太好了！时尚气质太像妈妈王菲",
        "docid": "7322031034445840908",
        "url": ""
    },
    {
        "title": "蔡依林穿“酒杯裤”，上衣随意搭件小羽绒服，时髦显高又洋气！",
        "docid": "7331348801124614668",
        "url": ""
    },
    {
        "title": "格莱美这一夜，霉霉变大号水蜜桃前凸后翘，麦莉真空上阵放飞自我",
        "docid": "7332767200635257384",
        "url": ""
    },
    {
        "title": "郭美美两次入狱，出狱后就疯玩！干爹：她是我一辈子的噩梦！",
        "docid": "7332660635634860570",
        "url": ""
    },
    {
        "title": "乖乖笑死我了，正纠结要不要去烫发，看了网友们的烫发照片省钱了",
        "docid": "7330219085886259753",
        "url": ""
    },
    {
        "title": "讲真啊！刘亦菲才是内娱第一女神！不接受反驳",
        "docid": "7332359015726334499",
        "url": ""
    },
    {
        "title": "陈小纭戴钻石发箍超亮眼 翠绿色抹胸裙显雪白肌肤",
        "docid": "7332387290175554067",
        "url": ""
    },
    {
        "title": "明星回村过年图,砍树那个要笑死了,网友:看到他们这么土,我放心了",
        "docid": "7332414953943204386",
        "url": ""
    },
    {
        "title": "我可以高调的说，辛芷蕾的穿搭根本就没输过！",
        "docid": "7325684901931074059",
        "url": ""
    },
    {
        "title": "都说40岁的成熟女人最有魅力，以前不信，直到看到王子文我相信了",
        "docid": "7332289260688556585",
        "url": ""
    },
    {
        "title": "直接抄作业！！让男生秒懂的大牌包包排行榜",
        "docid": "7324258342132728372",
        "url": ""
    },
    {
        "title": "被宋佳的时尚惊艳了，简直就是西装界的天花板，太有魅力了",
        "docid": "7332302524554854946",
        "url": ""
    },
    {
        "title": "舒淇",
        "docid": "7317987846169739814",
        "url": ""
    },
    {
        "title": "还记得吴柏松的饰演者高至霆吗？带着锅碗瓢盆杀回来了？",
        "docid": "7332841311088755234",
        "url": ""
    },
    {
        "title": "48岁梅婷带火了一种新穿法：黑色羽绒服+打底裤+雪地靴，时髦洋气",
        "docid": "7332087212957516325",
        "url": ""
    },
    {
        "title": "“殡葬风”LV曝光被群嘲，网友：吸血鬼聚会！",
        "docid": "7332390944551027236",
        "url": ""
    },
    {
        "title": "一看就很高级的女人，生活中都有这4个“习惯”，想装都装不出来",
        "docid": "7332449517214335538",
        "url": ""
    },
    {
        "title": "白鹿一袭婚纱大气温柔 倚靠拉杆展示精致锁骨",
        "docid": "7332297912493310500",
        "url": ""
    },
    {
        "title": "全球奢侈品公司新排名：中国仅1家挤进前十，第一名年吸金4306亿",
        "docid": "7326556502700229161",
        "url": ""
    },
    {
        "title": "“最美外交官”傅莹：71岁头发花白、穿衣大方得体，尽显东方之美",
        "docid": "7324942457123602984",
        "url": ""
    },
    {
        "title": "蒋梦婕 婀娜多姿 体态轻盈 美得不可方物",
        "docid": "7332300470281044519",
        "url": ""
    },
    {
        "title": "9套不费力穿搭合集",
        "docid": "7314501963310318130",
        "url": ""
    },
    {
        "title": "搭配对了，才更显贵！4个实用的穿搭公式，打造不费力的优雅感",
        "docid": "7328664299071619596",
        "url": ""
    },
    {
        "title": "春天的衣服真好看呀，春天少女感穿搭，让你焕发青春活力",
        "docid": "7332826985188065811",
        "url": ""
    },
    {
        "title": "看了陈数的穿搭发现，满街都是“红、黑羽绒服”，却个个时髦保暖",
        "docid": "7332352775642677800",
        "url": ""
    },
    {
        "title": "被“上海奶奶”惊艳了！衣穿短、裤穿松、发剪短，气质不输年轻人",
        "docid": "7332044730199622195",
        "url": ""
    },
    {
        "title": "杨紫又带火了“甜美”穿搭，针织衫+工装连衣裙+马丁靴，太美了",
        "docid": "7332508127192941091",
        "url": ""
    },
    {
        "title": "亲兄弟创立世界一流品牌，为何最终却反目成仇要弄死对方？",
        "docid": "7328633805463011840",
        "url": ""
    },
    {
        "title": "来自文咏珊女神的春天穿搭洋溢着明媚与活力，穿搭风格真的好爱！",
        "docid": "7332844787080823315",
        "url": ""
    },
    {
        "title": "小个子才更要穿长款：掌握三大技巧，150穿出165的气场！",
        "docid": "7332883786822795811",
        "url": ""
    },
    {
        "title": "4个“中产收割机”羽绒服品牌，背后资本竟是安踏，你想的到？",
        "docid": "7332872825403277876",
        "url": ""
    },
    {
        "title": "徐静蕾农场里摘石榴！穿T恤身材臃肿，快49岁的素颜还像少女",
        "docid": "7333044802327642678",
        "url": ""
    },
    {
        "title": "长期穿高跟鞋和平底鞋的女生，20年后身体变化惊人！",
        "docid": "7332832443617657359",
        "url": ""
    },
    {
        "title": "突然火了一种混搭穿法：“毛衣+半身裙”，优雅时髦不说，还保暖",
        "docid": "7332085609068528166",
        "url": ""
    },
    {
        "title": "裙子下面不一定要配高跟鞋，瞧潮人这样搭多美，优雅知性有女人味",
        "docid": "7332871894066020903",
        "url": ""
    },
    {
        "title": "被深圳街拍惊艳到了！穿衣不紧身、鞋子不带跟，却个个高级时髦",
        "docid": "7332862637736362522",
        "url": ""
    },
    {
        "title": "被毛晓彤“经典之夜”惊艳到了，喜庆的红色礼服裙，好看又时髦",
        "docid": "7332111034758545972",
        "url": ""
    },
    {
        "title": "90后的白鹿真会穿，穿着打扮既淑女又温柔，真是美的优雅得体",
        "docid": "7332367924973437480",
        "url": ""
    },
    {
        "title": "韩雪一身白色刺绣连衣裙现身CCTV-1美美与共舞台，美如画",
        "docid": "7332827880046461494",
        "url": ""
    },
    {
        "title": "杨紫的时尚魅力：怼脸也能很美",
        "docid": "7333035570584633882",
        "url": ""
    },
    {
        "title": "为什么国内人手一件的“冲锋衣”，国外却少有人穿？来听听大实话",
        "docid": "7332864265684206114",
        "url": ""
    },
    {
        "title": "来到北京才发现，满街都在穿大衣、羽绒服，高级保暖、真耐看！",
        "docid": "7332825474601255475",
        "url": ""
    },
    {
        "title": "白鹿得奖照，原来她是真的好看啊！",
        "docid": "7332302369075528233",
        "url": ""
    },
    {
        "title": "各地省服出战。湖南省服，凭什么频占据舆论“C位”",
        "docid": "7332449529993642546",
        "url": ""
    },
    {
        "title": "被赵雅芝穿“大衣+长靴”的样子美到了，优雅知性，50+女人都适合",
        "docid": "7332874099985089060",
        "url": ""
    },
    {
        "title": "英拉都56岁了，吃美食也不忘拍照，针织开衫显年轻，气质依旧在线",
        "docid": "7331685379051995659",
        "url": ""
    },
    {
        "title": "41岁韩雪新年露背红装优雅迷人，岁数在她眼里根本不存在！",
        "docid": "7332827101734814220",
        "url": ""
    },
    {
        "title": "世界10大牛仔裤品牌，你更喜欢哪个？",
        "docid": "7307517649137828363",
        "url": ""
    },
    {
        "title": "运动鞋品牌排行榜前十名，你都知道吗？",
        "docid": "7327962339334996492",
        "url": ""
    },
    {
        "title": "谭松韵",
        "docid": "7331331976978596404",
        "url": ""
    },
    {
        "title": "章泽天终于逆袭成功，穿小香风跟“何超琼”同框，贵气一点不输",
        "docid": "7332515864337531407",
        "url": ""
    },
    {
        "title": "男装品牌十大排行榜",
        "docid": "7319875789787283995",
        "url": ""
    },
    {
        "title": "人到中年穿搭是否优雅得体，主要看这几点，照着学更显形象优越",
        "docid": "7332506728167031348",
        "url": ""
    },
    {
        "title": "选裤子有讲究，白裤子穿搭禁忌提前了解，避免出错变时髦",
        "docid": "7332882779183415845",
        "url": ""
    },
    {
        "title": "62岁何超琼也追星！穿梅西同款粉色卫衣仍有少女感，李嘉欣也来了",
        "docid": "7332106100952760872",
        "url": ""
    },
    {
        "title": "阔腿裤到底是配“高跟鞋”还是“老爹鞋”？上海街拍告诉你答案",
        "docid": "7332872685515063858",
        "url": ""
    },
    {
        "title": "绝色！6位娱乐圈的“人间尤物”，蜂腰翘臀、长腿美背，太顶了！",
        "docid": "7332854104814961215",
        "url": ""
    },
    {
        "title": "路人镜头下的女明星才是真的瘦出了“排骨胸” ​​​",
        "docid": "7316910979944596002",
        "url": ""
    },
    {
        "title": "马伊琍鲁豫罕见同框！相差仅6岁，但一个像大婶一个却还像少女",
        "docid": "7333048946782126646",
        "url": ""
    },
    {
        "title": "论妆造对演员的影响有多大？看看这些对比图就懂了",
        "docid": "7330592062804984360",
        "url": ""
    },
    {
        "title": "布丽吉特闪耀瑞典国宴，一袭钻石礼服仙气飘飘，总统丈夫移不开眼",
        "docid": "7331677216629080576",
        "url": ""
    },
    {
        "title": "温柔大方：女孩子时尚穿搭的精髓",
        "docid": "7333030321027449381",
        "url": ""
    },
    {
        "title": "Lululemon的男装，需要灰裤子拯救",
        "docid": "7330591400331280905",
        "url": ""
    },
    {
        "title": "钟丽缇14岁女儿穿露背装，小S16岁女儿秀抹胸裙，品味领先同龄人",
        "docid": "7332680644037984779",
        "url": ""
    },
    {
        "title": "今年又火了一种穿搭，叫“大衣叠穿”，照着搭配，显瘦时髦还精致",
        "docid": "7332452209772970547",
        "url": ""
    },
    {
        "title": "清爽的穿搭才能让人眼前一亮！有效穿搭真的很重要！",
        "docid": "7332865650265948706",
        "url": ""
    },
    {
        "title": "“人若贵气，一看便知”：真正高贵的女人，往往都有这些特质",
        "docid": "7310415696029319716",
        "url": ""
    },
    {
        "title": "迎春盛宴：MAXRIENY宫廷飞鸽系列，精致穿搭指南",
        "docid": "7332837851307967028",
        "url": ""
    },
    {
        "title": "从“普通”到“精致土”：妆发之间的微妙平衡",
        "docid": "7333040090819723802",
        "url": ""
    },
    {
        "title": "羽绒服怎么选才是最好？",
        "docid": "7318178002456691235",
        "url": ""
    },
    {
        "title": "明星美图第43期~唱跳女王宋茜",
        "docid": "7332034112347570699",
        "url": ""
    },
    {
        "title": "被穿旗袍的巩俐惊艳了！圆脸、微胖、前凸后翘，我看100遍都不厌",
        "docid": "7332321980802204169",
        "url": ""
    },
    {
        "title": "魏大勋三登春晚引关注，穿千元羽绒服现身彩排，走红后气场全开",
        "docid": "7332757311628247606",
        "url": ""
    },
    {
        "title": "看了网友的美甲翻车现场，瞬间觉得这指甲不做也罢！进来避避坑。",
        "docid": "7330248201650176527",
        "url": ""
    },
    {
        "title": "被日本奶奶惊艳了！满大街都是“戴围巾又裹脚踝”打扮，保暖洋气",
        "docid": "7332171707731575336",
        "url": ""
    },
    {
        "title": "阔腿裤到底是配“高跟鞋”还是“平底鞋”？上海街拍告诉你答案",
        "docid": "7332835131733901865",
        "url": ""
    },
    {
        "title": "怪不得都不穿黑色大衣了！今年流行的“泥色”，高级、复古又显白",
        "docid": "7332459747662840347",
        "url": ""
    },
    {
        "title": "黑色短款羽绒服怎么搭配呢",
        "docid": "7321872224980566555",
        "url": ""
    },
    {
        "title": "邓文迪20亿富养大的女儿，怎么被骂得这么惨？",
        "docid": "7332657659424309794",
        "url": ""
    },
    {
        "title": "不会穿搭没关系，照着穿绝对错不了",
        "docid": "7332880205201228303",
        "url": ""
    },
    {
        "title": "78款世界顶级珠宝欣赏",
        "docid": "7304249984667402790",
        "url": ""
    },
    {
        "title": "优衣库新年礼盒设计过于阴间，被网友吐槽像纸扎的",
        "docid": "7332414538287481378",
        "url": ""
    },
    {
        "title": "过年建议避开这6种穿衣搭配，看着很精致，实际上显土又没档次",
        "docid": "7332438557766107698",
        "url": ""
    },
    {
        "title": "裘皮大衣“跌下神坛”，渐渐被淘汰了！内行人透露：原因在这4点",
        "docid": "7332881208315544104",
        "url": ""
    },
    {
        "title": "文章大女儿晒美照贺新年，爱马笑容甜美好漂亮，和爸爸似复制粘贴",
        "docid": "7333071866669646370",
        "url": ""
    },
    {
        "title": "法式穿搭真的好高级，一些被夸了很多次的法式轻复古穿搭。",
        "docid": "7333060671954960911",
        "url": ""
    },
    {
        "title": "“半裙+靴子”搭配，才是冬季显气质神器，时髦舒适还显身材挺拔",
        "docid": "7332435906915664393",
        "url": ""
    },
    {
        "title": "不得不说娇兰真的很会选代言人，张予曦就是我心目中的娇兰",
        "docid": "7332502757729288745",
        "url": ""
    },
    {
        "title": "建议大家：羽绒服下面尽量少穿裙子，过年穿这4种裤子，温暖显瘦",
        "docid": "7332100012316803595",
        "url": ""
    },
    {
        "title": "Nike成当下打折最多球鞋品牌",
        "docid": "7333026343057097268",
        "url": ""
    },
    {
        "title": "冬末初春，还是穿“老爹鞋”更高级，配裤子裙子舒适高级",
        "docid": "7333067472062415401",
        "url": ""
    },
    {
        "title": "这是我见过最“优雅”的妈妈，穿衣简约却很高级，白发不染更知性",
        "docid": "7302661231247508002",
        "url": ""
    },
    {
        "title": "穿衣打扮这件事，一定要有态度！",
        "docid": "7331566736883433984",
        "url": ""
    },
    {
        "title": "被杭州妈妈惊艳到了！穿裙不上膝盖、鞋不穿平底，美得优雅又显高",
        "docid": "7332511159762960948",
        "url": ""
    },
    {
        "title": "新年穿搭！日常高级感配色、简简单单就好看、黑+红是绝配！",
        "docid": "7332421121021936138",
        "url": ""
    },
    {
        "title": "早春穿搭，衬衫长裤配西装，叠叠穿就这么简单。",
        "docid": "7332887523376742912",
        "url": ""
    },
    {
        "title": "上海街头新潮潮流！满大街的“大衣+垮裤”，却个个时髦又洋气",
        "docid": "7332361478302892594",
        "url": ""
    },
    {
        "title": "当你有一件驼色大衣却不知道怎么搭配时",
        "docid": "7303362471333577225",
        "url": ""
    },
    {
        "title": "王珞丹太凡尔赛了！再次登上百花迎春春晚，居然穿12年前的礼服",
        "docid": "7333047974278316596",
        "url": ""
    },
    {
        "title": "王志飞太抗老！57岁无皱纹，穿西装同框小15岁娇妻不像父女像初恋",
        "docid": "7333046761545646655",
        "url": ""
    },
    {
        "title": "搭配对了，才更显贵！4个实用的穿搭公式，打造不费力的优雅感",
        "docid": "7332765603868852746",
        "url": ""
    },
    {
        "title": "女人老了，尽量别戴运动帽、贝雷帽，装嫩假洋气，戴这3款才减龄",
        "docid": "7324276745199223348",
        "url": ""
    },
    {
        "title": "杨幂再登杂志封面，爆炸发型挡不住盛世美颜！大秀长腿超迷人！",
        "docid": "7332313905605231116",
        "url": ""
    },
    {
        "title": "五颜六色的大衣搭配合集来了，大衣这样穿最高级",
        "docid": "7332847033315312162",
        "url": ""
    },
    {
        "title": "时髦大妈：高级时尚的新标杆",
        "docid": "7333042464020103689",
        "url": ""
    },
    {
        "title": "画龙点睛｜甲辰龙",
        "docid": "7332405772938674700",
        "url": ""
    },
    {
        "title": "穿衣越低调、气质越高级，过年回家这样打扮，温柔乖巧又讨喜！",
        "docid": "7332138383428731443",
        "url": ""
    },
    {
        "title": "我用散沫花叶染白发，改变加黑咖啡的顺序，染的发色更漂亮了",
        "docid": "7311348331153097250",
        "url": ""
    },
    {
        "title": "千万别选这五种针织衫",
        "docid": "7302241681913741861",
        "url": ""
    },
    {
        "title": "同样头饰繁琐，把赵露思和杨紫等人放一起看，女星审美差距出来了",
        "docid": "7318337528506122791",
        "url": ""
    },
    {
        "title": "去了杭州才发现：满大街都是“齐踝大衣+低跟鞋”，显高又洋气。",
        "docid": "7332450357429305868",
        "url": ""
    },
    {
        "title": "四五十岁的女人也穿得漂亮，记住4个穿衣技巧、舒适又显高！",
        "docid": "7332752431996830258",
        "url": ""
    },
    {
        "title": "解清帅大学期间穿这身衣服，看得出生活很清苦。",
        "docid": "7331393418876355082",
        "url": ""
    },
    {
        "title": "王珞丹的这件礼服好像花臂一样，好有设计感，越看越好看！",
        "docid": "7333086799079932427",
        "url": ""
    },
    {
        "title": "南方的冬天，满大街都是“丝袜+长靴”，时髦显腿长，回头率满满",
        "docid": "7332369253112939043",
        "url": ""
    },
    {
        "title": "如何区分真皮和人造皮革，只需要一滴水，就可以直接“现原形”！",
        "docid": "7319805399316578857",
        "url": ""
    },
    {
        "title": "被北京三里屯女生们惊艳到！穿毛绒外套、踩靴子，个个显瘦又洋气",
        "docid": "7332030719503991322",
        "url": ""
    },
    {
        "title": "被北京街拍圈粉了，满眼都是“短羽绒、长大衣”，保暖又显气质！",
        "docid": "7332358685467017778",
        "url": ""
    },
    {
        "title": "一脸土气别硬留民国罗马卷，看来看去就这10位撑住，刘亦菲太惊艳",
        "docid": "7330523077405131315",
        "url": ""
    },
    {
        "title": "搭配长羽绒和阔腿裤！展现高贵轻熟风采的10套标模板，时尚又优雅",
        "docid": "7332409562823393843",
        "url": ""
    },
    {
        "title": "杨超越日常穿搭，黑色风衣太酷了",
        "docid": "7332301392935731766",
        "url": ""
    },
    {
        "title": "看了70岁胡因梦的打扮，我悟了：女人直面衰老，比刻意扮嫩更优雅",
        "docid": "7332513313320485411",
        "url": ""
    },
    {
        "title": "过年穿大衣，应该配裙子还是配裤子？快让“日杂穿搭”告诉你！",
        "docid": "7332791021539181093",
        "url": ""
    },
    {
        "title": "9个“国产平替”羽绒服品牌，比加拿大鹅、北面性价比高，不坑人",
        "docid": "7332159230717329972",
        "url": ""
    },
    {
        "title": "气质天籁，好看的美衣用来取悦就行了",
        "docid": "7332150601948103220",
        "url": ""
    },
    {
        "title": "这是我见过最“优雅”的妈妈：脖系围巾、耳戴珍珠，美得高级优雅",
        "docid": "7332395387946451465",
        "url": ""
    },
    {
        "title": "王珞丹太凡尔赛了！再次登上百花迎春春晚，居然穿12年前的礼服",
        "docid": "7333094205839245863",
        "url": ""
    },
    {
        "title": "杜淳和妻子王灿拍写真大片，杜淳说的没错，王灿确实漂亮",
        "docid": "7333086160661447179",
        "url": ""
    },
    {
        "title": "CA BRIDA｜巴黎腔调，闪耀璀璨新春",
        "docid": "7332755935183733275",
        "url": ""
    },
    {
        "title": "64岁倪萍瘦下来太惊艳了，穿国潮风端庄优雅，被美到了",
        "docid": "7333053071771451914",
        "url": ""
    },
    {
        "title": "43岁的宋佳怎么会越来越美，西装衬衫就能美得惊艳，如红酒般迷人",
        "docid": "7333043059518734859",
        "url": ""
    },
    {
        "title": "又被倪妮的穿搭惊艳了！为什么普通的绒面衫，竟然能穿的那么时髦",
        "docid": "7333098888057979442",
        "url": ""
    },
    {
        "title": "这是把短发最时髦的中年女性，虽都是基础款，但透着帅气与优雅",
        "docid": "7333095854607499827",
        "url": ""
    },
    {
        "title": "上了年纪的女人，尽量少穿这3个“大妈色”，多穿这5个颜色更高级",
        "docid": "7332836317396566569",
        "url": ""
    },
    {
        "title": "成都街拍不得不感叹成都女人太会穿了，穿搭充满了浪漫和期待！",
        "docid": "7333093055270011431",
        "url": ""
    },
    {
        "title": "早春别总穿阔腿裤，太邋遢！“直筒裤”时髦显瘦，随便穿就很惊艳",
        "docid": "7333089925166105129",
        "url": ""
    },
    {
        "title": "阿sa的眉毛是纹了吗？看起来好别扭啊，不过整体看起来还是美美的",
        "docid": "7333083131522482724",
        "url": ""
    },
    {
        "title": "被潘虹的老年状态惊艳到：69岁头发花白，穿衣极简却高级有气质",
        "docid": "7333094119076037129",
        "url": ""
    },
    {
        "title": "女人不管奔四还是奔六，都建议试试这些穿搭模板，实用高级耐看",
        "docid": "7333097331594166821",
        "url": ""
    },
    {
        "title": "中年人低调稳重和高级感的特点，能够让我们轻松穿出高智感和魅力",
        "docid": "7333092388363436556",
        "url": ""
    },
    {
        "title": "被辛芷蕾的穿搭惊艳到了，黑色皮大衣+阔腿裤，百搭又时髦",
        "docid": "7332848847867822607",
        "url": ""
    },
    {
        "title": "风靡全国的“的确良”消失了？其实是换了名字，如今很多人还在穿",
        "docid": "7333092950735782409",
        "url": ""
    },
    {
        "title": "去了成都才发现：满街女生都在穿“呢子衫”，保暖又时尚",
        "docid": "7333076446614962724",
        "url": ""
    },
    {
        "title": "看到冬天的成都街拍才发现：满大街的“慵懒风”外套穿搭，太飒了",
        "docid": "7332463940443996723",
        "url": ""
    },
    {
        "title": "这届年轻人让资本家发愁，军大衣潮流引人间清醒回归，你能不爱吗",
        "docid": "7300540398940946978",
        "url": ""
    },
    {
        "title": "东北人爱穿貂皮大衣，是为暖和，还是为装？",
        "docid": "7315690942462329385",
        "url": ""
    },
    {
        "title": "看了上海退休奶奶的打扮，我发现：衣穿长，头发微卷，更优雅气质",
        "docid": "7332394328553947698",
        "url": ""
    },
    {
        "title": "洗头发时常犯的9个错",
        "docid": "7300926618749469220",
        "url": ""
    },
    {
        "title": "女人过了65岁，务必远离这3件“老年装”！试试这3件，时髦又减龄",
        "docid": "7308380257860567567",
        "url": ""
    },
    {
        "title": "雅戈尔，会是又一个“安踏”吗？",
        "docid": "7333015008338199040",
        "url": ""
    },
    {
        "title": "2024开春新穿搭，一脚迈进进春天里",
        "docid": "7333067371382604303",
        "url": ""
    },
    {
        "title": "奢侈品行业踩下刹车的一年，有钱人也买不动了？",
        "docid": "7332405001077555724",
        "url": ""
    },
    {
        "title": "碎花裙潮穿搭！这3组搭配太出彩了，时髦得毫不费力",
        "docid": "7333083274396353043",
        "url": ""
    },
    {
        "title": "穿羽绒服，配“平底鞋”还是“高跟鞋”？看素人街拍就懂，新搭配",
        "docid": "7333071102576443958",
        "url": ""
    },
    {
        "title": "《詹妮弗的身体》女演员梅根·福克斯全新纹身袖惊艳亮相",
        "docid": "7333066551467180559",
        "url": ""
    },
    {
        "title": "王珞丹太凡尔赛了！再次登上百花迎春春晚，居然穿12年前的礼服",
        "docid": "7333112855841899017",
        "url": ""
    },
    {
        "title": "穿搭分享：原来大衣搭配球鞋，才是最舒服、最自由",
        "docid": "7304954654948049435",
        "url": ""
    },
    {
        "title": "不老女神钟丽缇晒14岁女儿考拉照，穿抹胸裙扮成熟，露美背超漂亮",
        "docid": "7332751404366758438",
        "url": ""
    },
    {
        "title": "无儿无女，没婚姻没爱情，遗体捐献，89岁罗兰活成了谁的归宿？",
        "docid": "7333107127482876443",
        "url": ""
    },
    {
        "title": "等你老了，尽量别烫小卷、留长发！建议多选这4种发型，洋气减龄",
        "docid": "7333090047035589157",
        "url": ""
    },
    {
        "title": "冬季50岁以后女人穿裙子，记住3个穿不得，暴露身材问题又俗气",
        "docid": "7333094949955011098",
        "url": ""
    },
    {
        "title": "温柔气质美甲：小香风的魅力",
        "docid": "7333043913000895014",
        "url": ""
    },
    {
        "title": "听说洛阳这个龙年艺术展，带你看看新生代设计力量的神奇脑洞",
        "docid": "7332792753011048975",
        "url": ""
    },
    {
        "title": "小S许雅钧带女儿出游，许韶恩穿搭似辣妹，11岁许老三颜值逆袭",
        "docid": "7332368208848028197",
        "url": ""
    },
    {
        "title": "春天就应该是五颜六色的，时尚穿搭，和我一起走进春天。",
        "docid": "7332868677928534543",
        "url": ""
    },
    {
        "title": "李沁新年戴龙帽超可爱，表情可爱俏皮让人又爱又疼啊",
        "docid": "7332825565034234404",
        "url": ""
    },
    {
        "title": "情侣装|挪威的森林，像喜欢春天的熊一样喜欢你",
        "docid": "7332840866807611904",
        "url": ""
    },
    {
        "title": "40+女人拥抱活力青春，摆脱沉闷老气，端庄活力才是应该有的状态",
        "docid": "7332839542342287935",
        "url": ""
    },
    {
        "title": "鞠婧祎把纪梵希穿出了仙女级少女感，这波操作六到飞起啊！",
        "docid": "7333087459859350052",
        "url": ""
    },
    {
        "title": "张雨绮全球华语IP盛典获年度品质IP演员，挂脖旗袍展现丰满好身材",
        "docid": "7332824982814868004",
        "url": ""
    },
    {
        "title": "天呐只有我发现了吗…",
        "docid": "7321898411937071666",
        "url": ""
    },
    {
        "title": "哈尔滨街头火了一种穿法，叫作“面包服+瑜伽裤”，时尚又显瘦",
        "docid": "7332380490592223744",
        "url": ""
    },
    {
        "title": "会搭配就是不一样，只要一点改变完全不一样，看这些对比就明白了",
        "docid": "7333102630467944969",
        "url": ""
    },
    {
        "title": "当49岁董卿和55岁周涛站在一起，终于明白什么叫做\"顶级骨相\"",
        "docid": "7307830053235180084",
        "url": ""
    },
    {
        "title": "18套五颜六色穿搭合集",
        "docid": "7332094437332025907",
        "url": ""
    },
    {
        "title": "被经典之夜惊艳到了，见王雷、六小龄童与李雪健的风采，刷新了",
        "docid": "7332098697968648719",
        "url": ""
    },
    {
        "title": "研究穿搭10年以上的人告诉你，穿衣的底层逻辑就3点",
        "docid": "7332185793324335642",
        "url": ""
    },
    {
        "title": "不管男性女性，理发时不要讲这“三句话”，我也才了解，别不听",
        "docid": "7331661617098555945",
        "url": ""
    },
    {
        "title": "钟丽缇小女儿庆14岁生日，考拉化浓妆穿抹胸裙，成熟漂亮不输妈妈",
        "docid": "7333104533050032667",
        "url": ""
    },
    {
        "title": "吴磊赵今麦在暴雪时分1-5集穿搭，好多便宜好看的卫衣羽绒服",
        "docid": "7331007078460981795",
        "url": ""
    },
    {
        "title": "《繁花》中爆火，当年堪比LV？网友：曾为它花几个月工资",
        "docid": "7322399777973682726",
        "url": ""
    },
    {
        "title": "古力娜扎ELLE风尚大典：珍珠挂脖礼裙，优雅高贵，美得令人惊叹",
        "docid": "7333109028786373157",
        "url": ""
    },
    {
        "title": "陈伟霆换了新发型，留背头的他突然发现不帅了，颜值下降！",
        "docid": "7332785426811486760",
        "url": ""
    },
    {
        "title": "\"杨幂唐装亮相，美艳不可方物，魅力四射！\"",
        "docid": "7333128773585502729",
        "url": ""
    },
    {
        "title": "黄渤对李宇春这一挡，彻底暴露了他的人品，张凯丽的话，有人信了",
        "docid": "7324250534524125737",
        "url": ""
    },
    {
        "title": "看了赵丽颖的侧脸，才知道这种“鼻子”有多完美！",
        "docid": "7302229047843979786",
        "url": ""
    },
    {
        "title": "明明是同一张脸，造型师可以让男演员一眼万年，也可以让他成丑男",
        "docid": "7303849699071590950",
        "url": ""
    },
    {
        "title": "女大学生回村前后对比：都市丽人变“大姨”，比卸妆更狠的进村",
        "docid": "7333105449421750793",
        "url": ""
    },
    {
        "title": "50岁以后女人穿裤子，记住3个“穿不得”，不然显土气又老气",
        "docid": "7333103174284395027",
        "url": ""
    },
    {
        "title": "62岁刘德华告诉你：发型一丝不苟，裤子短一截，到老也不油腻",
        "docid": "7330086470910394918",
        "url": ""
    },
    {
        "title": "上了年纪后，别再死磕少女感了，像57岁李颖这样从容老去，真美！",
        "docid": "7332020298776363570",
        "url": ""
    },
    {
        "title": "女人上了年纪，要剪就剪这3种“减龄短发”，瞧宋慧乔、陈数多美",
        "docid": "7333098087994425867",
        "url": ""
    },
    {
        "title": "女人四十岁以后，如何穿搭出“高级感”，让你时髦又好看",
        "docid": "7333123106338554379",
        "url": ""
    },
    {
        "title": "真·户外人的2023年度装备",
        "docid": "7320993269079966248",
        "url": ""
    },
    {
        "title": "比变老更可怕的是“乱穿衣”！60岁女人多穿这3种外套，洋气好看",
        "docid": "7333098046328635913",
        "url": ""
    },
    {
        "title": "小个子穿搭显高显瘦模板：不管裤子，穿裙装！美出一片天！",
        "docid": "7333104982885253668",
        "url": ""
    },
    {
        "title": "杨幂秀窈窕身材，大秀美背长腿性感撩人！令人瞩目的高叉长裙",
        "docid": "7332316206185824780",
        "url": ""
    },
    {
        "title": "张小斐太适合普通人借鉴了‼️",
        "docid": "7332875319243817484",
        "url": ""
    },
    {
        "title": "陈都灵一袭墨蓝色长袍小露香肩 露白皙长腿有妖气",
        "docid": "7332293326873297427",
        "url": ""
    },
    {
        "title": "王珞丹大型凡尔赛现场！再次登上百花春晚，居然穿12年前的礼服",
        "docid": "7333111842891399699",
        "url": ""
    },
    {
        "title": "古力娜扎分享时尚大片，凌乱秀发挡不住盛世美颜，窈窕身材超撩人",
        "docid": "7332380049477419574",
        "url": ""
    },
    {
        "title": "“阔腿裤”下面一定不要搭高跟鞋，瞧下面潮人这样搭，多时髦高级",
        "docid": "7325621447727022604",
        "url": ""
    },
    {
        "title": "户外品牌：一篇文章看懂攀山鼠、 始祖鸟已烂大街众神黄昏才是未来",
        "docid": "7330834222624277033",
        "url": ""
    },
    {
        "title": "送大牌新年礼物啦，每个都想黑幕我自己",
        "docid": "7332778801807917579",
        "url": ""
    },
    {
        "title": "马丁靴联名Rick Owens，小奥汀“爱豆”卧蚕盘｜是日美好事物",
        "docid": "7332999613223289354",
        "url": ""
    },
    {
        "title": "彩妆大推荐",
        "docid": "7332817988745544192",
        "url": ""
    },
    {
        "title": "适合中年女人的气质穿搭，高级时尚耐看，照着搭配很显好气质",
        "docid": "7333072684433244722",
        "url": ""
    },
    {
        "title": "女人会穿才越老越有气质，瞧60岁玫姨，不管裙还是裤都穿得时尚",
        "docid": "7333119277136085558",
        "url": ""
    },
    {
        "title": "中老年女人：为什么劝你们少穿暗沉色、多剪短发？看肖雄就明白了",
        "docid": "7312700431921234468",
        "url": ""
    },
    {
        "title": "最近火了一种穿搭叫：羽绒服+裸靴，过年回家这么穿，讨喜又时髦",
        "docid": "7333107712806666761",
        "url": ""
    },
    {
        "title": "张雨绮最新大片身材",
        "docid": "7331349817572229670",
        "url": ""
    },
    {
        "title": "邓文迪和巩俐同框，3岁之差却似两代人，一个温柔姐姐，一个犀利",
        "docid": "7332423851382505996",
        "url": ""
    },
    {
        "title": "笑翻天！李沁火辣超短裙大秀好身材，颜值抗打成焦点",
        "docid": "7332622140048507432",
        "url": ""
    },
    {
        "title": "程潇华彩传承晚会：琉璃龙女妆惊艳全场，舞蹈技艺令人叹为观止",
        "docid": "7332207335047348786",
        "url": ""
    },
    {
        "title": "春晚第四次彩排成明星秀场：唐嫣背3万5的包，宋轶7千元大衣抢眼",
        "docid": "7332053329847435802",
        "url": ""
    },
    {
        "title": "王珞丹太凡尔赛了！再次登上百花迎春春晚，居然穿12年前的礼服",
        "docid": "7333085499848147490",
        "url": ""
    },
    {
        "title": "笑晕了，小沈阳合肥演唱会竟然带火了马面裙，我要笑死在评论区",
        "docid": "7332403002030162468",
        "url": ""
    },
    {
        "title": "程潇华彩传承晚会：琉璃龙女妆惊艳全场，台上跳舞婀娜多姿",
        "docid": "7332399833531286055",
        "url": ""
    },
    {
        "title": "62岁叶倩文亲身示范：不染发，不穿老年装，到老都没有“大妈感”",
        "docid": "7305636601865126412",
        "url": ""
    },
    {
        "title": "韩裔插画家拿中国元素宣传韩国记忆，加拿大品牌翻车，遭华人抵制",
        "docid": "7332432874400498191",
        "url": ""
    },
    {
        "title": "毛晓彤｜古风清冷造型，温文莞尔，倾国倾城",
        "docid": "7332499372321866281",
        "url": ""
    },
    {
        "title": "春晚最后一次彩排私服：杨幂7万大衣，唐嫣5万，董洁小腹惹争议",
        "docid": "7333117964227117619",
        "url": ""
    },
    {
        "title": "为什么潮流理发店的理发师要戴耳麦交流？",
        "docid": "7332059560028865059",
        "url": ""
    },
    {
        "title": "比“蒜头鼻”更可怕的是“嘴凸”，既显老又显凶，太拉低颜值了！",
        "docid": "7331373274007798307",
        "url": ""
    },
    {
        "title": "范丞丞爸妈近照曝光引热议！老两口年近70似40，气质颜值双双在线",
        "docid": "7333146170618954255",
        "url": ""
    },
    {
        "title": "中老年女人劝你： “冬戴帽子、多穿羽绒服”，看这些对比温暖时髦",
        "docid": "7332817564910928394",
        "url": ""
    },
    {
        "title": "40岁女人穿衣显年轻的秘密：4个实用穿搭小妙招，照着穿轻松减龄",
        "docid": "7333128751812755987",
        "url": ""
    },
    {
        "title": "真正有品味的女人，从不穿小黑裤，这“3条”裤子，时髦又显气质",
        "docid": "7332268658254873114",
        "url": ""
    },
    {
        "title": "\"赵今麦雪中漫步，黑发飘逸展现青春大气！\"",
        "docid": "7333131298652881446",
        "url": ""
    },
    {
        "title": "张小斐：时尚界的鲜花",
        "docid": "7333140588952601126",
        "url": ""
    },
    {
        "title": "辛芷蕾真的好会穿搭，她的每一套衣服拎出来都是时尚单品",
        "docid": "7332506955540021771",
        "url": ""
    },
    {
        "title": "高梵鹅绒服的奢品标准：基于飞天鹅绒的三大价值",
        "docid": "7333140512511492643",
        "url": ""
    },
    {
        "title": "被“上海奶奶”地铁穿搭惊艳到：白发不染、打扮时尚，老了也优雅",
        "docid": "7333105920484557375",
        "url": ""
    },
    {
        "title": "当复古运动遇上奥运倒计时，我们需要这件「毕业单品」",
        "docid": "7333108198326796809",
        "url": ""
    },
    {
        "title": "羽绒服奢侈品十大名牌有哪些",
        "docid": "7316921480196162058",
        "url": ""
    },
    {
        "title": "初春后外穿外套别跟风选，这几款上身，才是正儿八经的时尚款",
        "docid": "7333133693219537462",
        "url": ""
    },
    {
        "title": "过年必备：神级潮搭红黑白，清新亮眼颜值满分！",
        "docid": "7333140465074160140",
        "url": ""
    },
    {
        "title": "被哈尔滨街拍圈粉了！羽绒服不配打底裤、色不过三，时尚又保暖",
        "docid": "7333129361203921444",
        "url": ""
    },
    {
        "title": "43岁霍思燕太顶了，胸怀大志面带婴儿肥，副乳更是实力抢镜！",
        "docid": "7333116803369353755",
        "url": ""
    },
    {
        "title": "董卿老到认不出！49岁素颜和中年大妈无异，沧桑却越看越有气质！",
        "docid": "7333088274728288794",
        "url": ""
    },
    {
        "title": "五六十岁的女人，这3种外套不能少，显年轻有气质，太高级了",
        "docid": "7333102517917647379",
        "url": ""
    },
    {
        "title": "32岁140斤，胖没事！甜酷到位！",
        "docid": "7332851426424881698",
        "url": ""
    },
    {
        "title": "冬季必备穿搭！长羽绒服+3裤1裙，让你温暖又迷人，时尚又好看",
        "docid": "7332401616198648330",
        "url": ""
    },
    {
        "title": "过年怎么穿时髦又显白？尝试这“4个”高级感配色，谁穿谁好看！",
        "docid": "7333075472592470579",
        "url": ""
    },
    {
        "title": "中国1块钱打火机征服全球烟民，欧美阻拦无效！美国为啥做不到？",
        "docid": "7330168215093772835",
        "url": ""
    },
    {
        "title": "外套有很多，但想提醒你：这4件才是真正的“贵气款”，要看准了",
        "docid": "7332431711588041226",
        "url": ""
    },
    {
        "title": "水贝买金到底坑不坑？水贝买金攻略！",
        "docid": "7332322412811469322",
        "url": ""
    },
    {
        "title": "不得不说，“毛衣+大衣叠穿”优雅高级的穿搭法，谁见谁夸好看",
        "docid": "7332371543982539273",
        "url": ""
    },
    {
        "title": "开春就要把彩色穿在身上呀",
        "docid": "7331937566314234394",
        "url": ""
    },
    {
        "title": "春季怎么“叠穿”才好看？试试这四个搭配思路，美得知性又气质",
        "docid": "7333065769733095972",
        "url": ""
    },
    {
        "title": "有效发型VS无效发型：时尚的较量",
        "docid": "7333144302241317385",
        "url": ""
    },
    {
        "title": "新视野丨国货“潮品”风力正劲",
        "docid": "7332690776679563817",
        "url": ""
    },
    {
        "title": "43岁霍思燕太顶了，胸怀大志面带婴儿肥，副乳更是实力抢镜！",
        "docid": "7333119536369254921",
        "url": ""
    },
    {
        "title": "被杨幂的汉服穿搭种草了！春节氛围感OOTD这不就来了",
        "docid": "7333158007263969844",
        "url": ""
    },
    {
        "title": "阔腿裤到底是配“高跟鞋”还是“平底鞋”？上海街拍告诉你答案",
        "docid": "7333157762656485899",
        "url": ""
    },
    {
        "title": "土到极致就是潮！当明星穿上“东北大花”，宋轶尴尬，杨幂俏皮！",
        "docid": "7330484524364710415",
        "url": ""
    },
    {
        "title": "我们对格莱美 2024 服装进行了排名，从最简单到最优雅",
        "docid": "7333168358411862537",
        "url": ""
    },
    {
        "title": "终于明白：“懂穿衣、会搭配”，才是变美的关键！这些技巧真实用",
        "docid": "7332444929484735039",
        "url": ""
    },
    {
        "title": "肖战：私服魅力的缩影",
        "docid": "7333141685931082250",
        "url": ""
    },
    {
        "title": "冬天不建议大家买的7款单品，不实用又显邋遢，看看你有的吗？",
        "docid": "7332451894385836571",
        "url": ""
    },
    {
        "title": "一个品牌年赚上千亿！我国土豪省份品牌称霸全球，民企能有多牛？",
        "docid": "7330545864060060175",
        "url": ""
    },
    {
        "title": "绝了你永远可以相信中国红",
        "docid": "7310415319082877490",
        "url": ""
    },
    {
        "title": "大衣过时了，今冬潮人都在穿“小香风+长裙”，气质高级还好看",
        "docid": "7333089772334318130",
        "url": ""
    },
    {
        "title": "𝗶𝗻𝘀氛围感美甲 太爱啦​​​",
        "docid": "7324678598445597225",
        "url": ""
    },
    {
        "title": "稳固女性基本盘后，Lululemon决定加码“他经济”",
        "docid": "7332463772956770856",
        "url": ""
    },
    {
        "title": "女生迷惑大赏：过年就想烫头，烫完就过不好年",
        "docid": "7332807361389920806",
        "url": ""
    },
    {
        "title": "从“千元入门”到“一步到位”，趁这22块表还没被炒起来，闭眼入",
        "docid": "7329818405819990543",
        "url": ""
    },
    {
        "title": "全球第一亚裔女模特的儿子，好帅啊！",
        "docid": "7332325262241186358",
        "url": ""
    },
    {
        "title": "这是短发最时髦的中年女性，虽然都是基础款，但透着帅气与优雅",
        "docid": "7332100221566059018",
        "url": ""
    },
    {
        "title": "颜值高不一定能驾驭民国双麻花辫，让人眼前一亮的，只服以下5位",
        "docid": "7309732663303537162",
        "url": ""
    },
    {
        "title": "春晚最后一次彩排私服：杨幂7万大衣，唐嫣5万，董洁小腹惹争议",
        "docid": "7333118181415961097",
        "url": ""
    },
    {
        "title": "被“上海地铁奶奶”惊艳了！发不过肩、衣不紧身，却个个优雅端庄",
        "docid": "7333162090381427263",
        "url": ""
    },
    {
        "title": "快过年了才发现：羽绒服不兴了！满街都是“大衣裹围巾”，特洋气",
        "docid": "7332043780981670450",
        "url": ""
    },
    {
        "title": "等我老了，坚决不穿黑白灰！多穿这3种“富贵色”，显白又显气质",
        "docid": "7332442640917152282",
        "url": ""
    },
    {
        "title": "归亚蕾真是美了一辈子，79岁穿衣花哨却时髦高级，到老都没大妈感",
        "docid": "7322308993027179060",
        "url": ""
    },
    {
        "title": "为什么优雅女人都爱长大衣？看了这些搭配就明白，气质是大衣给的",
        "docid": "7333167452584870412",
        "url": ""
    },
    {
        "title": "10秒自测冷暖皮！了解自己的肤色，才能更合适的搭配",
        "docid": "7313393355436671529",
        "url": ""
    },
    {
        "title": "一眼惊艳的九款饱满发型教程",
        "docid": "7326507133779657228",
        "url": ""
    },
    {
        "title": "复古慵懒感气质穿搭，把普通色系衣服搭配在一块撞出不一样的风格",
        "docid": "7332856546256667136",
        "url": ""
    },
    {
        "title": "春季怎么“叠穿”才好看？试试这几个搭配思路，美得知性又气质",
        "docid": "7333108796228895295",
        "url": ""
    },
    {
        "title": "被穿旗袍的巩俐惊艳了！圆脸、微胖、前凸后翘，我看100遍都不厌",
        "docid": "7332383659934499367",
        "url": ""
    },
    {
        "title": "钟丽缇女儿考拉14岁生日，穿紫色抹胸礼服，身材曼妙颜值改变太大",
        "docid": "7333130045550084617",
        "url": ""
    },
    {
        "title": "朱珠带火了“假上班”穿搭，真空穿西装+半身裙+乐福鞋，性感高级",
        "docid": "7332035763654279719",
        "url": ""
    },
    {
        "title": "王珞丹太凡尔赛了！再次登上百花迎春春晚，居然穿12年前的礼服",
        "docid": "7333122550828139048",
        "url": ""
    },
    {
        "title": "范丞丞爸妈近照曝光引热议！老两口年近70似40，气质颜值双双在线",
        "docid": "7333118151557022245",
        "url": ""
    },
    {
        "title": "胡歌又火了，高领衫配风衣带火体制内穿搭，帅成中年男人的楷模",
        "docid": "7332413072822911515",
        "url": ""
    },
    {
        "title": "周涛主持山东春晚，一袭中国红修身长裙，尽显优雅端庄气质又迷人",
        "docid": "7332844461443367464",
        "url": ""
    },
    {
        "title": "陈伟霆换了新发型，留背头的他突然发现不帅了，颜值下降",
        "docid": "7333137442595324456",
        "url": ""
    },
    {
        "title": "笑晕了，小沈阳合肥演唱会竟然带火了马面裙，我要笑死在评论区",
        "docid": "7332423931817296435",
        "url": ""
    },
    {
        "title": "看了刘涛的穿搭，发现2024年最流行的大衣是黑大衣，优雅又时髦",
        "docid": "7333052238643970560",
        "url": ""
    },
    {
        "title": "“大衣”下面建议别搭裙子，瞧陈数、袁泉这样穿，多高级显气质",
        "docid": "7333178750840095243",
        "url": ""
    },
    {
        "title": "女人过了40岁，衣服别买太贵，多穿“基础款”，简约耐看还不过时",
        "docid": "7332800907052630537",
        "url": ""
    },
    {
        "title": "为什么优雅女人都爱长大衣？看了这些搭配就明白，气质是大衣给的",
        "docid": "7333178854498304523",
        "url": ""
    },
    {
        "title": "你好香港名媛庆生会：郭晶晶朴素穿搭，徐子淇造型抢眼",
        "docid": "7332832340341228032",
        "url": ""
    },
    {
        "title": "这一夜，满身赘肉的张雨绮，把她的“中年尴尬”展现得淋漓尽致",
        "docid": "7333153645288735259",
        "url": ""
    },
    {
        "title": "王珞丹太凡尔赛了！再次登上百花迎春春晚，居然穿12年前的礼服",
        "docid": "7333114098010014235",
        "url": ""
    },
    {
        "title": "64岁山口百惠微胖也很气质：穿衣简约又显瘦，自然老去的样子真美",
        "docid": "7302366109456548387",
        "url": ""
    },
    {
        "title": "冬日风华：如何搭配保暖温柔又别具魅力的时尚",
        "docid": "7332402181678645810",
        "url": ""
    },
    {
        "title": "红极一时的皮草为何“跌下神坛”？看完这几个个缺点，恍然大悟",
        "docid": "7332395791976251930",
        "url": ""
    },
    {
        "title": "新年穿衣没思路？“毛衣+半身裙”拯救你！温柔减龄、优雅显气质",
        "docid": "7332785064658387494",
        "url": ""
    },
    {
        "title": "欧米茄推出全新超霸系列“月之暗面” 阿波罗8号腕表",
        "docid": "7324958962414191156",
        "url": ""
    },
    {
        "title": "个子矮的女生就这样穿：大衣+毛衣，让你显高显瘦又好看",
        "docid": "7333145933741933068",
        "url": ""
    },
    {
        "title": "50岁左右的女人：裙要长、发要盘、鞋带跟，会更优雅端庄有气质",
        "docid": "7333173250207269439",
        "url": ""
    },
    {
        "title": "这就是别人叠穿比你好看的原因 ​​​",
        "docid": "7309307604059537930",
        "url": ""
    },
    {
        "title": "30岁|能戴一辈子的经典首饰分享",
        "docid": "7330631737460261427",
        "url": ""
    },
    {
        "title": "英国完美男模脸垮了，全脸下垂",
        "docid": "7331956367625929225",
        "url": ""
    },
    {
        "title": "这才是值得气质女人借鉴的穿搭！优雅大气，过了40岁也很好看",
        "docid": "7333181193535832615",
        "url": ""
    },
    {
        "title": "从“宠儿”到“弃子”，这些美妆品牌正被“爸爸”抛弃",
        "docid": "7333163194342654500",
        "url": ""
    },
    {
        "title": "笑趴了，女子花129元剪头发结果被自己丑哭了，要笑疯在评论区里",
        "docid": "7333164228813029922",
        "url": ""
    },
    {
        "title": "被古巨基的鲜亮穿搭惊艳了，时尚穿搭不输年轻小鲜肉，魅力依旧",
        "docid": "7333144218564559375",
        "url": ""
    },
    {
        "title": "上了年纪的女人，尽量少穿这2种外套，看着廉价又显老，谁穿谁丑",
        "docid": "7332503476402405903",
        "url": ""
    },
    {
        "title": "开春后怎么穿？真正有品味的女人，准备这几件外套，时髦又显高！",
        "docid": "7332833674767434259",
        "url": ""
    },
    {
        "title": "预计拍卖近百万？大陆唯一一套宇航员手提箱就在北京SKP！",
        "docid": "7332421847134388788",
        "url": ""
    },
    {
        "title": "杨采钰 高级脸 不愧是大佬的女人",
        "docid": "7332315248273211958",
        "url": ""
    },
    {
        "title": "春晚四次彩排成明星秀场：唐嫣背3万5的包，宋轶7千大衣引人瞩目",
        "docid": "7333209541384962570",
        "url": ""
    },
    {
        "title": "女人到了五六十岁，尽量剪短发，穿衣洋气，大方时髦，甩掉大妈感",
        "docid": "7330840693038252598",
        "url": ""
    },
    {
        "title": "比黑白灰洋气，比鲜艳色高级，火爆2024的“流行色”，原来是它！",
        "docid": "7332512122888618511",
        "url": ""
    },
    {
        "title": "\"新年最美的几套穿搭，这样穿人见人夸！\"",
        "docid": "7332378606620787209",
        "url": ""
    },
    {
        "title": "看了北京奶奶的打扮，我悟了：衣不穿花、裤不紧身，才更时髦高级",
        "docid": "7319873331371704843",
        "url": ""
    },
    {
        "title": "全世界的时髦女人都穿了这双鞋，和衣柜里90%的衣服都能搭！",
        "docid": "7333163560736211493",
        "url": ""
    },
    {
        "title": "50岁左右的女人，尽量不要穿黑羽绒服，黑大衣，其实这样打扮更美",
        "docid": "7329138177443775011",
        "url": ""
    },
    {
        "title": "新年超火的穿搭，“羽绒服+半裙”，小个子照着穿，美极了",
        "docid": "7333191841694761511",
        "url": ""
    },
    {
        "title": "日本的老太太们真是优雅到老了！穿衣简单，体态优雅，审美在线",
        "docid": "7242544341217051136",
        "url": ""
    },
    {
        "title": "这才是真正微胖穿搭，搭配极简不花哨，美得时髦大气",
        "docid": "7322071187797312052",
        "url": ""
    },
    {
        "title": "上了年纪：这4种“贵妇色”要多穿，雅致不说，看着还年轻10岁",
        "docid": "7303118754618081792",
        "url": ""
    },
    {
        "title": "50+女人剪短发，为什么有的高级洋气，而有的却土气？关键在这",
        "docid": "7333076145464377907",
        "url": ""
    },
    {
        "title": "50+的女人，裤子记好“3穿3不穿”，时髦减龄又显气质！",
        "docid": "7333100168159871498",
        "url": ""
    },
    {
        "title": "春晚最后一次彩排私服：杨幂7万大衣，唐嫣5万，董洁小腹惹争议",
        "docid": "7333116781080789519",
        "url": ""
    },
    {
        "title": "马面裙，怎么搭上衣？看素人街拍就知道，这4种搭配好养眼",
        "docid": "7333088516173955625",
        "url": ""
    },
    {
        "title": "钟丽缇女儿考拉14岁生日，穿紫色抹胸礼服，身材曼妙颜值改变太大",
        "docid": "7333142133819507215",
        "url": ""
    },
    {
        "title": "戴吴千语同款23万的名表，和老公林峰坐地铁，张馨月内心是自卑",
        "docid": "7332758158756315700",
        "url": ""
    },
    {
        "title": "刘涛带火了“贵妇穿搭”，白色大衣+驼色长筒靴，高级显贵又洋气",
        "docid": "7332361358190658085",
        "url": ""
    },
    {
        "title": "这才是中年男人“反油腻”的秘诀：衣不穿紧，色简、这样打扮更帅",
        "docid": "7333184889371574820",
        "url": ""
    },
    {
        "title": "去了杭州才知道：今年流行“一点白”穿法，既保暖回头率又高",
        "docid": "7332417890924642843",
        "url": ""
    },
    {
        "title": "看了56岁的英拉和61岁的何超琼，才明白：有富贵相的女人有多耐老",
        "docid": "7332416844441535003",
        "url": ""
    },
    {
        "title": "冬天不建议大家买的“3件大衣”，不好搭又显土气，看看你有没有",
        "docid": "7332448357644173850",
        "url": ""
    },
    {
        "title": "优衣库好大牌 | 纪梵希前设计师又一力作",
        "docid": "7333131427057418752",
        "url": ""
    },
    {
        "title": "优雅女人必备穿搭模板：百褶裙配这“4种”上衣，温柔减龄显气质",
        "docid": "7333157272685822527",
        "url": ""
    },
    {
        "title": "回家过年怎么穿？“4个”实用的搭配思路，让你每天不重样！",
        "docid": "7332091528510423563",
        "url": ""
    },
    {
        "title": "宋轶的旗袍A4腰：“宋轶的腰，夺命的刀；宋轶的臀，夺人的魂”",
        "docid": "7332462756279452175",
        "url": ""
    },
    {
        "title": "被日本奶奶打扮惊艳了：大衣配围巾、羽绒服穿薄不穿厚，时尚洋气",
        "docid": "7332377756137144858",
        "url": ""
    },
    {
        "title": "60岁陈瑾罕见拍时尚大片，中式黑褂配大红坎肩，比46岁刘敏涛还美",
        "docid": "7331331102227284519",
        "url": ""
    },
    {
        "title": "中年男人放任老态的表现：毛衣配衬衫、塞裤腰，看着油腻还没品位",
        "docid": "7332877166193394191",
        "url": ""
    },
    {
        "title": "一周穿搭不重样，大年初一到初八穿搭合集",
        "docid": "7331989612375851546",
        "url": ""
    },
    {
        "title": "李一桐｜水柔美图｜分享【09】",
        "docid": "7333143926939107850",
        "url": ""
    },
    {
        "title": "四五十岁女人，不扮嫩、也别穿太老气，学会几个搭配思路，真优雅",
        "docid": "7310834349098729999",
        "url": ""
    },
    {
        "title": "时尚单品：点亮衣橱的明星",
        "docid": "7333143429822480922",
        "url": ""
    },
    {
        "title": "大衣除了黑白灰，原来还有这些“高级色系”，气质百搭还不挑人",
        "docid": "7333095133962912297",
        "url": ""
    },
    {
        "title": "穿搭分享：焦糖色的温暖穿搭",
        "docid": "7304559023662416394",
        "url": ""
    },
    {
        "title": "优雅到骨子里的中年女人，都是“反油腻”体质，看完这些图你就懂",
        "docid": "7301161652954333730",
        "url": ""
    },
    {
        "title": "穿白衬衣的肖战：时尚气质的典范",
        "docid": "7333041565352739378",
        "url": ""
    },
    {
        "title": "大方知性大衣更为贵气、随性兼顾女性的温婉与飒爽在冬日传递质感",
        "docid": "7333093858765259276",
        "url": ""
    },
    {
        "title": "超模GiGi的穿搭 秋冬高级感拉满",
        "docid": "7304266973834625588",
        "url": ""
    },
    {
        "title": "冬日时尚穿搭：别样魅力展现",
        "docid": "7333032234339041801",
        "url": ""
    },
    {
        "title": "时尚达人分享：教你穿出别样风采",
        "docid": "7333032879926280730",
        "url": ""
    },
    {
        "title": "绯红女巫-伊丽莎白·奥尔森",
        "docid": "7333207360842351119",
        "url": ""
    },
    {
        "title": "春晚最后一次彩排，85花三大辣妈比美，刘涛颜值回春，双晓彤合体",
        "docid": "7333230011618869779",
        "url": ""
    },
    {
        "title": "中年男人：鞋子尽量少穿“皮鞋”和“帆布鞋”，看着油腻还很廉价",
        "docid": "7332868575289999887",
        "url": ""
    },
    {
        "title": "年底火了一种穿搭，“短上衣+阔腿裤”遮胯显瘦，太适合过年穿了",
        "docid": "7332389118867505673",
        "url": ""
    },
    {
        "title": "浅浅期待下春天，普通最实用的18套穿搭合集。",
        "docid": "7332144050889540148",
        "url": ""
    },
    {
        "title": "看了65岁肖雄的打扮，我悟了：女人直面衰老，比刻意扮嫩更优雅",
        "docid": "7300467771345764901",
        "url": ""
    },
    {
        "title": "肖战：初现青涩的时尚之路",
        "docid": "7333142485646672421",
        "url": ""
    },
    {
        "title": "看了55岁萨日娜的穿搭，我发现：穿衣花哨、头发烫卷，更优雅高级",
        "docid": "7302332630547055138",
        "url": ""
    },
    {
        "title": "藏族同胞为什么经常只穿一只袖子？",
        "docid": "7331185923256353321",
        "url": ""
    },
    {
        "title": "朝鲜人民军陆军常服",
        "docid": "7306383418567262760",
        "url": ""
    },
    {
        "title": "穿搭分享：一组咖色裤子的穿搭模板",
        "docid": "7309965547934941705",
        "url": ""
    },
    {
        "title": "谁的衣橱里还没有件短款羽绒服，冬季短款羽绒服的搭配来啦",
        "docid": "7315384156744483365",
        "url": ""
    },
    {
        "title": "六七十岁男人，身上有这3点容易加重老态与油腻感，看看有你的吗",
        "docid": "7331209117006184972",
        "url": ""
    },
    {
        "title": "饰品分享|珍珠的魅力与时尚穿搭的奥秘",
        "docid": "7332873431580525108",
        "url": ""
    },
    {
        "title": "古力娜扎带火了一种新穿法：土味打底衫+小黑裤，31岁美出新高度",
        "docid": "7333188678741148171",
        "url": ""
    },
    {
        "title": "43岁霍思燕太顶了，面带婴儿肥，颜值在线十分抗打！",
        "docid": "7333134625461649956",
        "url": ""
    },
    {
        "title": "何超莲",
        "docid": "7333180623966159394",
        "url": ""
    },
    {
        "title": "今日明星【于文文】",
        "docid": "7332810177852899875",
        "url": ""
    },
    {
        "title": "世界上最惊艳的这几种配色，你知道了吗？",
        "docid": "7331971436762530313",
        "url": ""
    },
    {
        "title": "世界上最高级的配色穿搭，学会穿搭配色，遇见更好的自己",
        "docid": "7332135869094691328",
        "url": ""
    },
    {
        "title": "电吹风的副作用是什么？四大禁忌陷阱切勿踩坑",
        "docid": "7333209966960804403",
        "url": ""
    },
    {
        "title": "登山鞋LOWA，CRISPI，SCARPA，Zamberlan，Millet，HOKA 经验分享",
        "docid": "7329724299575869993",
        "url": ""
    },
    {
        "title": "貂皮大衣、皮毛一体、羽绒服、派克服那个更暖和？",
        "docid": "7316400704993133067",
        "url": ""
    },
    {
        "title": "68岁姜黎黎告诉你：女人上了年纪，衣要长、发要盘，美得优雅端庄",
        "docid": "7312702207664570931",
        "url": ""
    },
    {
        "title": "【在拉萨过大年】藏装店里的藏族服饰你知多少？",
        "docid": "7332291326505861672",
        "url": ""
    },
    {
        "title": "53岁，特别想说说对金镯子的理解",
        "docid": "7327981596505260553",
        "url": ""
    },
    {
        "title": "乘“封”而上过龙年｜新年换新妆 元气过年美妆单品推荐",
        "docid": "7332496440549704243",
        "url": ""
    },
    {
        "title": "都是60多岁，为什么你比同龄人显老？这3点真的太毁颜值、气质了",
        "docid": "7316130028201247259",
        "url": ""
    }
]