[
    {
        "title": "等你老了，头发建议剪短点，今年流行这3种“酒窝发”，洋气减龄",
        "docid": "7326187495514292736",
        "url": ""
    },
    {
        "title": "化妆秘籍大公开：让你秒变自信女神的神奇魔法",
        "docid": "7326178234746978857",
        "url": ""
    },
    {
        "title": "配色美学，黑色衣服怎么穿搭才简单又高级",
        "docid": "7323367650221081139",
        "url": ""
    },
    {
        "title": "cdf海口日月广场免税店、琼海博鳌免税店迎来开业五周年",
        "docid": "7325989082935460379",
        "url": ""
    },
    {
        "title": "泳装预赛2023 年地球小姐！视觉盛宴！",
        "docid": "7325377054122508852",
        "url": "https://www.ixigua.com/7325377054122508852"
    },
    {
        "title": "爆火三年成为大路货？始祖鸟正在面临品牌危机",
        "docid": "7320890362451624459",
        "url": "https://www.ixigua.com/7320890362451624459"
    },
    {
        "title": "孩子捡的皮鞋，宝妈怀疑有黄金，过火验验看",
        "docid": "7307553137639096844",
        "url": "https://www.ixigua.com/7307553137639096844"
    },
    {
        "title": "非洲女网红到中国杭州买旗袍，最后的变装太惊艳了",
        "docid": "7320790917035196979",
        "url": "https://www.ixigua.com/7320790917035196979"
    },
    {
        "title": "女星穿“高开叉”如何自保，黄圣依伸手拽，江疏影心思写脸上",
        "docid": "7325710898684035599",
        "url": "https://www.ixigua.com/7325710898684035599"
    },
    {
        "title": "照着图片剪同款头发真的能成功吗！？#发型 #理发",
        "docid": "7305353449791554088",
        "url": "https://www.ixigua.com/7305353449791554088"
    },
    {
        "title": "刘涛烈焰红玫瑰花裙一幅的美丽画卷",
        "docid": "7326023880773665289",
        "url": ""
    },
    {
        "title": "沙俄时期皇室蜘蛛胸针，在当铺能卖多少钱，当铺老板良心发现",
        "docid": "7323476244002472458",
        "url": "https://www.ixigua.com/7323476244002472458"
    },
    {
        "title": "发财了！15万翡翠赌石制作一箩筐手镯！",
        "docid": "7309727484461711912",
        "url": "https://www.ixigua.com/7309727484461711912"
    },
    {
        "title": "她真的能驾驭所有衣服颜色。",
        "docid": "7305010276083401252",
        "url": "https://www.ixigua.com/7305010276083401252"
    },
    {
        "title": "汪小姐最爱的就是她一头的卷发了！在单位上班都是披着头发",
        "docid": "7319522190548795955",
        "url": "https://www.ixigua.com/7319522190548795955"
    },
    {
        "title": "韩国最应该这申遗的就是妆造，18年前的绝美女二有戴不完的耳饰",
        "docid": "7302395460382261800",
        "url": "https://www.ixigua.com/7302395460382261800"
    },
    {
        "title": "谁说中国没有高端手表，结合传统掐丝珐琅工艺，每一分都是艺术品",
        "docid": "7307287043812688435",
        "url": "https://www.ixigua.com/7307287043812688435"
    },
    {
        "title": "开箱网红液态玻璃，据说遇强则强，遇弱则弱",
        "docid": "7315690526349787683",
        "url": "https://www.ixigua.com/7315690526349787683"
    },
    {
        "title": "一万多新买的LV牛仔裤，到底能改几个包？",
        "docid": "7303385082511753743",
        "url": "https://www.ixigua.com/7303385082511753743"
    },
    {
        "title": "假名媛的真实生活和套路，太多人被骗了",
        "docid": "7322504279938794018",
        "url": "https://www.ixigua.com/7322504279938794018"
    },
    {
        "title": "帅哥银行买50克金条打手镯，看到底损耗多少，打过一杯水验，干货",
        "docid": "7301128584394080768",
        "url": "https://www.ixigua.com/7301128584394080768"
    },
    {
        "title": "东方女孩之黄玉瑶！甜妹穿搭！#ogs时尚秀 #清纯甜美 #美出高级感",
        "docid": "7306033114957447732",
        "url": "https://www.ixigua.com/7306033114957447732"
    },
    {
        "title": "当年杨幂的一身白纱惊艳了多少人",
        "docid": "7315652555885773323",
        "url": "https://www.ixigua.com/7315652555885773323"
    },
    {
        "title": "国外抖音看国内特效化妆博主，评论:该死，这是禁忌魔法",
        "docid": "7317888398067401216",
        "url": "https://www.ixigua.com/7317888398067401216"
    },
    {
        "title": "媳妇给品牌方试服装，一件比一件好看，老公心慌了：幸亏只试不买",
        "docid": "7299364135937147419",
        "url": "https://www.ixigua.com/7299364135937147419"
    },
    {
        "title": "年轻人不穿皮鞋了",
        "docid": "7300829208782045737",
        "url": "https://www.ixigua.com/7300829208782045737"
    },
    {
        "title": "你是什么“脸型”就留什么发型！选对了洋气减龄，选错很“致命”",
        "docid": "7326115395516039715",
        "url": ""
    },
    {
        "title": "女人老了，尽量别戴运动帽、贝雷帽，装嫩假洋气，戴这3款才减龄",
        "docid": "7326218758341657140",
        "url": ""
    },
    {
        "title": "穿皮草配长靴，每一厘米高度的精心设计都是为了时尚高雅",
        "docid": "7326212193555710479",
        "url": ""
    },
    {
        "title": "同样头饰繁琐，把赵露思和杨紫等人放一起看，女星审美差距出来了",
        "docid": "7318337528506122791",
        "url": ""
    },
    {
        "title": "HelloKitty50周年联名款，哪个最抢手",
        "docid": "7326041074932236852",
        "url": ""
    },
    {
        "title": "撞衫不可怕，谁丑谁尴尬，当女星扮上同款造型，颜值差距一目了然",
        "docid": "7326153175504290340",
        "url": ""
    },
    {
        "title": "最推荐的篮球鞋！200~800+价位，2023版",
        "docid": "7296847243406443062",
        "url": "https://www.ixigua.com/7296847243406443062"
    },
    {
        "title": "花600块买了三种不同盲盒，猜猜是亏是赚！",
        "docid": "7294846776673206821",
        "url": "https://www.ixigua.com/7294846776673206821"
    },
    {
        "title": "【TGC混剪】三秒内艾特你兄弟来看，有没有人知道第一个是谁",
        "docid": "7322798549341897227",
        "url": "https://www.ixigua.com/7322798549341897227"
    },
    {
        "title": "国外美女表演换装秀，镜头记录整过程",
        "docid": "7316862065791435327",
        "url": "https://www.ixigua.com/7316862065791435327"
    },
    {
        "title": "【TGC混剪】这把四川上分，德艺双馨我选麻油子#河北麻友子",
        "docid": "7319471470458077748",
        "url": "https://www.ixigua.com/7319471470458077748"
    },
    {
        "title": "求求国产剧多学学韩剧穿搭吧",
        "docid": "7304995647097471524",
        "url": "https://www.ixigua.com/7304995647097471524"
    },
    {
        "title": "开箱两个鸿星尔克盲盒，这两双都是个啥啊？？",
        "docid": "7316088420886020619",
        "url": "https://www.ixigua.com/7316088420886020619"
    },
    {
        "title": "女星为防走光最后的倔强，周冬雨严防死守。",
        "docid": "7305365269084865064",
        "url": "https://www.ixigua.com/7305365269084865064"
    },
    {
        "title": "揭秘润唇膏测评都是假的？#润唇膏",
        "docid": "7315016942094385675",
        "url": "https://www.ixigua.com/7315016942094385675"
    },
    {
        "title": "99年花6万多买个劳力士，24年后二手还能值多少？劳力士保值吗？",
        "docid": "7302830155301552675",
        "url": "https://www.ixigua.com/7302830155301552675"
    },
    {
        "title": "新手理发师第一次剪发，险些将女孩头发剪毁",
        "docid": "7293071929660375590",
        "url": "https://www.ixigua.com/7293071929660375590"
    },
    {
        "title": "以爱为营女二的二十套穿搭造型盘点，看来不是衣服土",
        "docid": "7298905234519097908",
        "url": "https://www.ixigua.com/7298905234519097908"
    },
    {
        "title": "高跟鞋上的黑色汗渍：成因与应对之道",
        "docid": "7326037140184252938",
        "url": ""
    },
    {
        "title": "我卖黄金十年了，告诉你黄金首饰里的五个猫腻。",
        "docid": "7322002318810284578",
        "url": ""
    },
    {
        "title": "“龙年战袍”马面裙又出圈啦 00后设计师曾用婚服让奶奶上热搜",
        "docid": "7324976709600625163",
        "url": ""
    },
    {
        "title": "抵御零下60度极寒 阻挡高强度水压力 潜江户外服装火爆出圈",
        "docid": "7325622849161511461",
        "url": ""
    },
    {
        "title": "头发两染五漂变花 大庆 D9造型拒绝调解 出口成“脏”",
        "docid": "7325716421974000162",
        "url": ""
    },
    {
        "title": "漂亮小姐姐换装秀",
        "docid": "7326129127688241699",
        "url": "https://www.ixigua.com/7326129127688241699"
    },
    {
        "title": "现在的造型师连簪花造型都做不出来了吗，像盖房子一样硬往头上堆",
        "docid": "7293825500026241576",
        "url": "https://www.ixigua.com/7293825500026241576"
    },
    {
        "title": "土到极致就是潮，羽绒服买不起，那我就选军大衣#大学生 #军大衣",
        "docid": "7305729854974984730",
        "url": "https://www.ixigua.com/7305729854974984730"
    },
    {
        "title": "妈妈让清纯女儿穿成熟点，紧身裙一穿身材曲线看呆网友：人靠衣装",
        "docid": "7293408239709291043",
        "url": "https://www.ixigua.com/7293408239709291043"
    },
    {
        "title": "【TGC混剪】这局有鸟有沙，所以我选戴眼镜的铃木爱理#斋藤飞鸟",
        "docid": "7316126923145511476",
        "url": "https://www.ixigua.com/7316126923145511476"
    },
    {
        "title": "1992年周海媚雅确手表广告，藏在手表广告背后的真实爱情故事",
        "docid": "7311755013376705033",
        "url": "https://www.ixigua.com/7311755013376705033"
    },
    {
        "title": "以前\"空气刘海\"真挺美的，不知怎么的后来变成了\"锅盖压顶\"",
        "docid": "7319322919900086836",
        "url": "https://www.ixigua.com/7319322919900086836"
    },
    {
        "title": "倪海杉免费送的羽绒服到了，给大家开箱看看怎么样",
        "docid": "7321959077926568484",
        "url": "https://www.ixigua.com/7321959077926568484"
    },
    {
        "title": "29岁秃头油腻大叔。脱发9年，生发110天。",
        "docid": "7301722199772103231",
        "url": "https://www.ixigua.com/7301722199772103231"
    },
    {
        "title": "胖东来的碎银子项链，卖的太🔥，美女等了差不多一个月才买到。",
        "docid": "7325768969700016667",
        "url": "https://www.ixigua.com/7325768969700016667"
    },
    {
        "title": "女大学生在宿舍试穿小黑裙，肤白貌美大长腿太吸睛：初恋的感觉",
        "docid": "7296339896397431334",
        "url": "https://www.ixigua.com/7296339896397431334"
    },
    {
        "title": "符合东西方审美的神颜，俄罗斯模特Angelina Danilova",
        "docid": "7301145902058570303",
        "url": "https://www.ixigua.com/7301145902058570303"
    },
    {
        "title": "凤仪万千的华妃，一生也不过5款旗头，每款再多一个簪子都插不上",
        "docid": "7324626669921927714",
        "url": "https://www.ixigua.com/7324626669921927714"
    },
    {
        "title": "小姐姐偶然拍下冒痘的过程，原来只在一瞬间？",
        "docid": "7317533962317136424",
        "url": "https://www.ixigua.com/7317533962317136424"
    },
    {
        "title": "Kylie Jenner 这身材真的绝了 这腰臀比是真的吗？",
        "docid": "7311577599635882536",
        "url": "https://www.ixigua.com/7311577599635882536"
    },
    {
        "title": "09年维密秀",
        "docid": "7325771150791967267",
        "url": "https://www.ixigua.com/7325771150791967267"
    },
    {
        "title": "越来越喜欢穿牛仔裤了，网友说我穿紧身牛仔裤显腿长，我也觉得",
        "docid": "7297534356674445833",
        "url": "https://www.ixigua.com/7297534356674445833"
    },
    {
        "title": "黑色是我最后的倔强",
        "docid": "7325427563529634341",
        "url": "https://www.ixigua.com/7325427563529634341"
    },
    {
        "title": "澹台烬很会养媳妇！把叶冰裳打扮的那么精致是因为爱屋及乌",
        "docid": "7294294263423861288",
        "url": "https://www.ixigua.com/7294294263423861288"
    },
    {
        "title": "致敬倪师，自制玉肌散使用三天后的感受",
        "docid": "7323169510972719655",
        "url": "https://www.ixigua.com/7323169510972719655"
    },
    {
        "title": "女子挑战地铁极速化妆，警察：是的 到地铁站就跟丢了",
        "docid": "7316737271779197452",
        "url": "https://www.ixigua.com/7316737271779197452"
    },
    {
        "title": "“千万别买假包”不然很容易出现尴尬的一幕，路人一眼就看出来了",
        "docid": "7311290696927969826",
        "url": "https://www.ixigua.com/7311290696927969826"
    },
    {
        "title": "以前的女二一个发簪，一个发带就有古代的感觉",
        "docid": "7323813631303680521",
        "url": "https://www.ixigua.com/7323813631303680521"
    },
    {
        "title": "虽然不是很美，但是越看越耐看，越看越有韵味。#万绮雯",
        "docid": "7297830662243877410",
        "url": "https://www.ixigua.com/7297830662243877410"
    },
    {
        "title": "胖东来怎么卖皮衣？#胖东来 #胖东来的一些小细节 #超市购物",
        "docid": "7299637506293793320",
        "url": "https://www.ixigua.com/7299637506293793320"
    },
    {
        "title": "迈阿密泳装秀03012024",
        "docid": "7325986176224428553",
        "url": "https://www.ixigua.com/7325986176224428553"
    },
    {
        "title": "球花说话是有底气的呀😭#刘亦菲",
        "docid": "7302385698043396658",
        "url": "https://www.ixigua.com/7302385698043396658"
    },
    {
        "title": "媳妇被大家群嘲发型太丑，一怒之下买三个假发片，看看效果怎么样",
        "docid": "7326024922575307279",
        "url": "https://www.ixigua.com/7326024922575307279"
    },
    {
        "title": "时尚真是一个轮回，三十年前的港剧穿搭放到现在依然时髦",
        "docid": "7294197706812359209",
        "url": "https://www.ixigua.com/7294197706812359209"
    },
    {
        "title": "试穿新买的衣服，看看上身效果好看吗？老公说最后一套显年轻",
        "docid": "7315076871543063103",
        "url": "https://www.ixigua.com/7315076871543063103"
    },
    {
        "title": "1米5的小个子羽绒服要这样穿：长不过膝、色不过三，保暖又显高！",
        "docid": "7326087331093053952",
        "url": ""
    },
    {
        "title": "“大衣配靴”腿长一米八，时髦又保暖，太适合小个子了！",
        "docid": "7326085729258701331",
        "url": ""
    },
    {
        "title": "深圳女模达达，欢迎来询#模特经纪人 #t台走秀 #超模",
        "docid": "7308733270563226124",
        "url": "https://www.ixigua.com/7308733270563226124"
    },
    {
        "title": "国际超模走秀哪家强？刘雯遇上赌王儿媳奚梦瑶，专业差距一目了然",
        "docid": "7308626313790063141",
        "url": "https://www.ixigua.com/7308626313790063141"
    },
    {
        "title": "Sia盛世美颜纯享：这套黑色系古风造型太美了！",
        "docid": "7296853601774010932",
        "url": "https://www.ixigua.com/7296853601774010932"
    },
    {
        "title": "现场的尖叫声欢呼声，双冠王 安东尼娅·波西尔德",
        "docid": "7296681433060344355",
        "url": "https://www.ixigua.com/7296681433060344355"
    },
    {
        "title": "在东莞有一家老式理发店，专给男士修面理发太舒服了",
        "docid": "7298547530197893682",
        "url": "https://www.ixigua.com/7298547530197893682"
    },
    {
        "title": "好物分享｜女子内衣模特走秀。下方小黄车的红包。过年给小孩太合适了吧",
        "docid": "7326201482787684890",
        "url": "https://www.ixigua.com/7326201482787684890"
    },
    {
        "title": "“短羽绒+阔腿裤”真的好好看！遮肉保暖又显瘦，冬日小甜甜拿捏",
        "docid": "7326088948667908647",
        "url": ""
    },
    {
        "title": "冬季简约气质穿搭",
        "docid": "7325954356829028890",
        "url": ""
    },
    {
        "title": "看上海街拍才发现：满大街都是“基础款”，却个个美得高级醒目",
        "docid": "7326083871744033292",
        "url": ""
    },
    {
        "title": "胖东来压轴手镯，带大家一起见世面，有么有懂得宝子们，",
        "docid": "7320058737819910691",
        "url": "https://www.ixigua.com/7320058737819910691"
    },
    {
        "title": "给小老外安排天津盘头，盘完之后太接地气了，回头率爆表！",
        "docid": "7305450625439892006",
        "url": "https://www.ixigua.com/7305450625439892006"
    },
    {
        "title": "一百至三百挡！通勤鞋之王！宽鞋楦+支撑好+脚感超强！",
        "docid": "7302417235447022090",
        "url": "https://www.ixigua.com/7302417235447022090"
    },
    {
        "title": "颜狗盛宴之东方女孩儿！有让你心动的瞬间吗？#ogs时尚秀",
        "docid": "7305182547632521754",
        "url": "https://www.ixigua.com/7305182547632521754"
    },
    {
        "title": "谢危很会养媳妇！给姜雪宁穿狐裘戴绒花和珍珠配饰穿绫罗绸缎",
        "docid": "7306309289399255578",
        "url": "https://www.ixigua.com/7306309289399255578"
    },
    {
        "title": "天使面孔魔鬼身材，阿精真的绝了，这部剧穿搭放现在也不过时",
        "docid": "7305239872262898211",
        "url": "https://www.ixigua.com/7305239872262898211"
    },
    {
        "title": "冬天“围巾配大衣，穿搭美出新天际”优雅贵气的氛围感被拿捏到位",
        "docid": "7326160223419433512",
        "url": ""
    },
    {
        "title": "女人到了中年，少穿瘦腿裤搭大衣，多穿卫衣+裙装，很减龄​",
        "docid": "7326152414699700771",
        "url": ""
    },
    {
        "title": "冬天穿什么“裤子”休闲？选打底裤、运动裤、牛仔裤，准没错",
        "docid": "7326149080651547151",
        "url": ""
    },
    {
        "title": "冬日里的泳装秀0001",
        "docid": "7326201859499098643",
        "url": "https://www.ixigua.com/7326201859499098643"
    },
    {
        "title": "一分钟免费带你看东京时装秀上的盛世美颜。#美出高级感",
        "docid": "7293509008051307043",
        "url": "https://www.ixigua.com/7293509008051307043"
    },
    {
        "title": "第一集｜【奚梦瑶】维密走秀盘点，亚洲模特你喜欢哪一个",
        "docid": "7300909875242992165",
        "url": "https://www.ixigua.com/7300909875242992165"
    },
    {
        "title": "被上海街拍惊艳了，今年流行穿“羽绒服+马蹄裤”，时髦显腿长",
        "docid": "7326163971076620852",
        "url": ""
    },
    {
        "title": "新的一年，新的开始，越来越好#童锦程2024星辰之夜 #陈奕诺yino",
        "docid": "7324652590937932326",
        "url": "https://www.ixigua.com/7324652590937932326"
    },
    {
        "title": "被北京街拍美到了！穿大衣不配打底裤、运动鞋，美得洋气显高",
        "docid": "7326184263786889763",
        "url": ""
    },
    {
        "title": "去了杭州才发现：运动鞋不流行了！满大街都是“矮跟鞋”，很显高",
        "docid": "7326203248049357366",
        "url": ""
    },
    {
        "title": "60岁也优雅！西班牙博主气质出众，高水准穿搭太迷人！",
        "docid": "7326155439291400744",
        "url": ""
    },
    {
        "title": "女人上了年纪，千万别戴老年帽毛线帽，换成这些更洋气",
        "docid": "7326170881649328674",
        "url": ""
    },
    {
        "title": "被街拍博主惊艳到了！裙不过膝、裤不紧身，美得优雅又高级时髦",
        "docid": "7326153225961472512",
        "url": ""
    },
    {
        "title": "花了299在网上抢的帝王绿翡翠手链，去鉴定机构复检证书出来了！",
        "docid": "7322123949784072719",
        "url": "https://www.ixigua.com/7322123949784072719"
    },
    {
        "title": "地摊上发现块世界名表，给老板150块想捡个漏，老板还急眼了",
        "docid": "7304971883077141027",
        "url": "https://www.ixigua.com/7304971883077141027"
    },
    {
        "title": "中国的军大衣，走出国门，走向世界，连寒冷的欧洲也都喜欢",
        "docid": "7312392857418269238",
        "url": "https://www.ixigua.com/7312392857418269238"
    },
    {
        "title": "今年火了一种穿法，叫“上半身羽绒服、下半身穿靴子”，保暖洋气",
        "docid": "7326199421035807232",
        "url": ""
    },
    {
        "title": "长大了才知道帅哥都在包厢，何时才能成为富婆",
        "docid": "7325805274336494131",
        "url": "https://www.ixigua.com/7325805274336494131"
    },
    {
        "title": "听我一句劝：中年男人最好少戴围巾、帽子，不是显老就是装嫩！",
        "docid": "7324892909957104182",
        "url": ""
    },
    {
        "title": "还是北京街拍最高级，时髦又大方的羽绒服穿搭模板，照搬就对了！",
        "docid": "7326131808440074786",
        "url": ""
    },
    {
        "title": "奔四奔五女人不显老的秘密，一看发型，二看穿搭，老了也优雅",
        "docid": "7326148211252101632",
        "url": ""
    },
    {
        "title": "马上要过年了！赶紧给大家分享一波新年穿搭啦！赶紧收藏起来！",
        "docid": "7326156488572649984",
        "url": ""
    },
    {
        "title": "这才是最适合60后的“无龄感”穿搭！简约大方又舒适，看着真得体",
        "docid": "7326196243556794915",
        "url": ""
    },
    {
        "title": "时髦的中年女人冬天喜欢这么打扮！简单不失高级感，越看越美",
        "docid": "7326150799040594447",
        "url": ""
    },
    {
        "title": "比起艳丽的造型，低饱和度大衣，才适合中年女人，显高时髦又减龄",
        "docid": "7326178377130361344",
        "url": ""
    },
    {
        "title": "中年女人冬季就该这么穿：“宽腿裤+运动鞋”，显瘦时髦又温暖",
        "docid": "7326167707890663999",
        "url": ""
    },
    {
        "title": "东北人爱穿貂皮大衣，是为暖和，还是为装？",
        "docid": "7315690942462329385",
        "url": ""
    },
    {
        "title": "明星们穿过的新中式服装，一件比一件好看，果然好看的东西都贵",
        "docid": "7325683900326478372",
        "url": ""
    },
    {
        "title": "这才是亚洲审美！颜值盛宴之东方女孩！盘点10位高颜值美女！",
        "docid": "7304209319594525220",
        "url": "https://www.ixigua.com/7304209319594525220"
    },
    {
        "title": "奉劝中年女性形象塑造：注意这两个细节，避免老态与土气加重！",
        "docid": "7326181181639262735",
        "url": ""
    },
    {
        "title": "19年前，她靠着给李咏砸金蛋为生，如今摇身一变成了国际超模",
        "docid": "7324619888956375552",
        "url": ""
    },
    {
        "title": "被上海地铁奶奶惊艳到了！白发不染、裙不上膝，却个个优雅又洋气",
        "docid": "7324957400279384586",
        "url": ""
    },
    {
        "title": "答应我，身高不足175cm的男人尽量别穿“风衣”，不是显矮就是土",
        "docid": "7302252728145773106",
        "url": ""
    },
    {
        "title": "张若昀米兰看秀黑衣黑裤赢麻了，和李敏镐同框也丝毫不输气场！",
        "docid": "7324615231165858331",
        "url": ""
    },
    {
        "title": "男士发型推荐，男生必看！",
        "docid": "7298669411370959412",
        "url": ""
    },
    {
        "title": "有没有人告诉你，“羽绒服+半身裙”原来这么好看，温柔又显气质",
        "docid": "7315372215334339111",
        "url": ""
    },
    {
        "title": "刘晓庆终于想通不装嫩！后台合影连素颜都不修图，生图跟奶奶无异",
        "docid": "7325672574246109706",
        "url": ""
    },
    {
        "title": "同样是穿“裘皮”大衣，将任嘉伦许凯邓为放在一起，差距一目了然",
        "docid": "7321314962205655593",
        "url": ""
    },
    {
        "title": "被这位62岁浙江阿姨惊艳到：穿衣优雅高级，发烫卷到老都没大妈感",
        "docid": "7322045079567745572",
        "url": ""
    },
    {
        "title": "终于明白：少买衣服、多学搭配，才是普通人低成本变美的关键！",
        "docid": "7324699422720836130",
        "url": ""
    },
    {
        "title": "能背一辈子的大牌包！",
        "docid": "7306119916720112166",
        "url": ""
    },
    {
        "title": "62岁叶倩文亲身示范：不染发，不穿老年装，到老都没有“大妈感”",
        "docid": "7305636601865126412",
        "url": ""
    },
    {
        "title": "“会打扮”和“不会打扮”差距能有多大？4组素人对比图给你答案",
        "docid": "7322003936712540709",
        "url": ""
    },
    {
        "title": "微博之夜，高叶的水桶腰，马丽的大饼脸，是对内娱畸形审美的反击",
        "docid": "7324151518373085696",
        "url": ""
    },
    {
        "title": "没想到，优衣库还可以这样玩！",
        "docid": "7308764189361930786",
        "url": ""
    },
    {
        "title": "中国校服100年以来的变化，80年代最好看，90年代太呆板",
        "docid": "7323859467173659171",
        "url": ""
    },
    {
        "title": "羽绒服不香了！满大街都在穿“奶奶棉衣”，钟楚曦、倪妮都上头",
        "docid": "7325704844554404415",
        "url": ""
    },
    {
        "title": "1米95高意穿黑色长靴亮相，很漂亮！她来自山东，在上海再次起飞",
        "docid": "7324006770152735247",
        "url": ""
    },
    {
        "title": "女士发型不论长短，最美还是波波头，百变减龄美美哒",
        "docid": "7311881830079283752",
        "url": ""
    },
    {
        "title": "这才是最适合中年女人的发型：“齐耳卷发”！瞧陈数就知道有多美",
        "docid": "7296689077967946292",
        "url": ""
    },
    {
        "title": "这样的穿搭匹配公式，你认同吗？我挺认同的，我自己就是这样",
        "docid": "7317316155948073499",
        "url": ""
    },
    {
        "title": "除了满大街的“北面”，还能买什么羽绒服？",
        "docid": "7305009855524422195",
        "url": ""
    },
    {
        "title": "同一件衣服，为什么有的人穿显高级，有的就很土气？原因在这3点",
        "docid": "7310115911028163107",
        "url": ""
    },
    {
        "title": "62岁陈冲又带火了一种新穿法：白衬衫+半身裙+长筒靴，时髦又优雅",
        "docid": "7325811102955815451",
        "url": ""
    },
    {
        "title": "不建议中年男人穿的3条裤子，看着时髦，其实俗气又油腻，很掉价",
        "docid": "7302348234486743567",
        "url": ""
    },
    {
        "title": "如果你化妆技术很差，请疯狂学起来",
        "docid": "7320113710675509770",
        "url": ""
    },
    {
        "title": "鬼冢虎和亚瑟士的区别",
        "docid": "7308676606359405068",
        "url": ""
    },
    {
        "title": "婚前的凯特王妃，就长相身材而言，她已经算是很出众的了。",
        "docid": "7309083213027901992",
        "url": ""
    },
    {
        "title": "男人上了年纪，帽子尽量别戴鸭舌帽、短檐帽，换成这些更绅士减龄",
        "docid": "7298933814876062223",
        "url": ""
    },
    {
        "title": "剪刘海是什么“整容术”？人一下年轻了10岁，对比图就像换一个人",
        "docid": "7296691481518113334",
        "url": ""
    },
    {
        "title": "\"新年最美的几套穿搭，这样穿人见人夸！\"",
        "docid": "7325383433503588902",
        "url": ""
    },
    {
        "title": "秋冬气质大衣穿搭，舒适保暖又好看！",
        "docid": "7300009599997002291",
        "url": ""
    },
    {
        "title": "染发致癌是真的吗？哈佛大学调查11万人长达36年，结论终于出来了",
        "docid": "7318321912873583115",
        "url": ""
    },
    {
        "title": "奔五奔六的女人，尽量少戴手镯、项链，换成这3种配饰更显气质",
        "docid": "7317544174201389608",
        "url": ""
    },
    {
        "title": "一直有少女感的10个方法 ​​​",
        "docid": "7325278171505541642",
        "url": ""
    },
    {
        "title": "戒掉这6个烧钱习惯，一年多存5万",
        "docid": "7313574853796299274",
        "url": ""
    },
    {
        "title": "孟晚舟，一个被事业耽误的时尚博主，她的穿衣打扮都太美太高级了",
        "docid": "7302664590582612515",
        "url": ""
    },
    {
        "title": "去掉土里土气变高级的“微习惯”！公主请收藏",
        "docid": "7318745061251613193",
        "url": ""
    },
    {
        "title": "非洲穷人贷款20万买名牌，饿得吃树叶，也要买4万的鞋子出门显摆",
        "docid": "7315352168729444914",
        "url": ""
    },
    {
        "title": "从容优雅的郭晶晶：简约衣着也能穿出高雅大气的魅力",
        "docid": "7325448407672308276",
        "url": ""
    },
    {
        "title": "去了上海才发现：满大街都是“齐踝裤+低跟鞋”，意外的洋气好看",
        "docid": "7293446352376283711",
        "url": ""
    },
    {
        "title": "头发到底多久洗一次好？早上洗好，还是晚上洗好？答案来了",
        "docid": "7301524545545208372",
        "url": ""
    },
    {
        "title": "你的身高适合穿什么长度的羽绒服？ ​​​",
        "docid": "7315606169412747802",
        "url": ""
    },
    {
        "title": "被“泰国名媛”英拉惊艳到了！裙不上膝，衣不紧身，美得优雅得体",
        "docid": "7320065713312465418",
        "url": ""
    },
    {
        "title": "朱家三个女儿都一脸贵气，朱玲玲长相普通，二婚仍被老公宠成公主",
        "docid": "7325748707562553907",
        "url": ""
    },
    {
        "title": "“阔腿裤”下面一定不要搭高跟鞋，瞧下面潮人这样搭，多时髦高级",
        "docid": "7325621447727022604",
        "url": ""
    },
    {
        "title": "来到杭州才发现：阔腿裤看不到了，穿“无痕裤”，才是潮流真时髦",
        "docid": "7325810204636021260",
        "url": ""
    },
    {
        "title": "1961年，青年时期的蒋孝武，戴着劳力士，注定是扶不起的阿斗",
        "docid": "7300145615864889895",
        "url": ""
    },
    {
        "title": "女性到了40岁的阶段，把握好“三要”原则，气质温柔又很有魅力",
        "docid": "7325682486376448522",
        "url": ""
    },
    {
        "title": "你用的是哪个品牌的拉杆箱？",
        "docid": "7294243321114001972",
        "url": ""
    },
    {
        "title": "劳力士“完美”吗？为啥这么多人选？分析优缺点，适合什么人",
        "docid": "7299715081326248487",
        "url": ""
    },
    {
        "title": "烟火气里的成都街拍，辣妹子太会穿，玩转各种风格，时髦养眼",
        "docid": "7326145312563708431",
        "url": ""
    },
    {
        "title": "当你有件黑色长款羽绒服不知道怎么搭配时 ​​​",
        "docid": "7303728054579380763",
        "url": ""
    },
    {
        "title": "“最美外交官”傅莹：71岁头发花白、穿衣大方得体，尽显东方之美",
        "docid": "7324942457123602984",
        "url": ""
    },
    {
        "title": "记录我的退休生活246：断舍离后的这20件毛衣，是再留还是处理呢",
        "docid": "7314187203452961295",
        "url": ""
    },
    {
        "title": "看了邓丽君80年代的打扮，才明白：什么叫现代高定都比不上的审美",
        "docid": "7298604925775938100",
        "url": ""
    },
    {
        "title": "74岁王薇薇的新年造型太放飞！钻石胸衣外穿头上戴蝴蝶结，超火辣",
        "docid": "7323866148112466471",
        "url": ""
    },
    {
        "title": "宋轶背上了微博之夜文咏珊送的包！送包的人上心，得到包的人感恩",
        "docid": "7325279429910331919",
        "url": ""
    },
    {
        "title": "拜托，男明星驾驭不了小啾啾就别强撑了，这几位才是啾啾界天花板",
        "docid": "7301702248135098889",
        "url": ""
    },
    {
        "title": "刘亦菲穿上旗袍宛如一幅水墨画 身姿曼妙灼灼芳华！高贵典雅",
        "docid": "7326073270515040778",
        "url": ""
    },
    {
        "title": "张韶涵的百万造型师，真的没有瓶颈期，这钱花的太值了",
        "docid": "7308943951082553875",
        "url": ""
    },
    {
        "title": "女人上了年纪，这3种“阿姨发型”尽量别留！显老还丢气质！",
        "docid": "7325695843297051186",
        "url": ""
    },
    {
        "title": "尖嘴猴腮别硬吹神颜，7位女星告诉你，古典美人从来都是温婉端庄",
        "docid": "7301973415068500516",
        "url": ""
    },
    {
        "title": "终于知道这些鞋该怎么搭配了！",
        "docid": "7320771951784821263",
        "url": ""
    },
    {
        "title": "AMI 2024秋冬系列时装秀",
        "docid": "7325672570018595343",
        "url": ""
    },
    {
        "title": "女生一定要知道的穿搭技巧~ ​ ​​​",
        "docid": "7326030403570549285",
        "url": ""
    },
    {
        "title": "LV新手袋引争议 售价3.55万长得跟购物袋一样",
        "docid": "7324239118706426409",
        "url": ""
    },
    {
        "title": "衣服再多，不会穿也是白搭！看这位博主的有效VS无效穿搭就明白了",
        "docid": "7300508683815895586",
        "url": ""
    },
    {
        "title": "替你们都试过了，都按这个去搭配",
        "docid": "7312213158209258022",
        "url": ""
    },
    {
        "title": "原来美甲界还有这么多门道 网友：原来美甲界的复杂难度比考研都难",
        "docid": "7323417032144454184",
        "url": ""
    },
    {
        "title": "眯眯眼+清朝小辫子！国外品牌的歧视，又死灰复燃了",
        "docid": "7326127028527727131",
        "url": ""
    },
    {
        "title": "高跟鞋遇冷是何原因？",
        "docid": "7311224183382622756",
        "url": ""
    },
    {
        "title": "看了43岁的董洁，明白了：中年女人，穿搭要简约大方，才优雅",
        "docid": "7325788910062551604",
        "url": ""
    },
    {
        "title": "等你到了五六十岁，切忌留黑长直、羊毛卷！换成这些发型更显年轻",
        "docid": "7304188066838348325",
        "url": ""
    },
    {
        "title": "这是抠门抠到家了啊？",
        "docid": "7326089662236197395",
        "url": ""
    },
    {
        "title": "不同脸型怎么挑选帽子？3步教你选对帽子，修饰脸型不是问题",
        "docid": "7326198589175480847",
        "url": ""
    },
    {
        "title": "小个子女生显高的6种穿搭技巧！",
        "docid": "7306377301057684003",
        "url": ""
    },
    {
        "title": "分享几双一年四季都百搭好穿的运动鞋每一双都能成为衣橱搭配之王",
        "docid": "7318360721971446284",
        "url": ""
    },
    {
        "title": "当你有双黑色长靴，却不知道如何搭配时",
        "docid": "7312257346682880522",
        "url": ""
    },
    {
        "title": "赫本亲身示范：女人不管30岁还是50岁，“体态”都比“颜值”重要",
        "docid": "7310599958749971007",
        "url": ""
    },
    {
        "title": "近期内搭系列，最爱还是经典穿搭",
        "docid": "7326044990382064138",
        "url": ""
    },
    {
        "title": "那些看起来年轻的精致女人，只因会穿，瞬间55岁变28岁",
        "docid": "7311931136363332111",
        "url": ""
    },
    {
        "title": "被这位“51岁银发阿姨”圈粉了：白发不染，穿衣简约却优雅从容！",
        "docid": "7325784896541180450",
        "url": ""
    },
    {
        "title": "今年火了一种裙装叫：马面裙！搭配现代上衣，越穿越显气质",
        "docid": "7325787253387854336",
        "url": ""
    },
    {
        "title": "影后红毯秀腋毛，全网目瞪口呆：她好癫，我好爱",
        "docid": "7325323939835314727",
        "url": ""
    },
    {
        "title": "杨紫现在的造型/状态都非常的好看、就连怼脸也很漂亮",
        "docid": "7314256312441864739",
        "url": ""
    },
    {
        "title": "不过万，“打工人”必看的3只平价表款！",
        "docid": "7296424194609824290",
        "url": ""
    },
    {
        "title": "回顾一下2023年的夏天，穿不完的漂亮裙子",
        "docid": "7325641623676027402",
        "url": ""
    },
    {
        "title": "看了日本杂志才发现：“卫衣+半裙”这么洋气减龄，40+女人也适合",
        "docid": "7298628710927352361",
        "url": ""
    },
    {
        "title": "被上海街拍惊艳了：满大街都是“一身泥”打扮，却意外的洋气好看",
        "docid": "7297576277703016994",
        "url": ""
    },
    {
        "title": "羽绒服上没有这几个字，再便宜也别买！",
        "docid": "7306904741848842803",
        "url": ""
    },
    {
        "title": "小个子可“照搬”的新年穿搭，温柔减龄又显贵，也太好看了吧！",
        "docid": "7326132322456404532",
        "url": ""
    },
    {
        "title": "这些演员穿“裘皮”大衣，你觉得谁的气质更胜一筹",
        "docid": "7325617082996015667",
        "url": ""
    },
    {
        "title": "周涛真是“反油腻”第一人，穿衣简约却气质高级，到老都是体面人",
        "docid": "7325728815379890698",
        "url": ""
    },
    {
        "title": "为什么有些中老年女人，明明衣服很贵，穿着却十分土气？关键在这",
        "docid": "7324276396187107892",
        "url": ""
    },
    {
        "title": "等你老了，尽量别戴老年帽、穿花衣服！看张瑜和黄梅莹这样穿多美",
        "docid": "7325680509454090790",
        "url": ""
    },
    {
        "title": "73岁黄梅莹亲身示范：发不染黑、衣不穿松，到老都没有“大妈感”",
        "docid": "7310617517797130767",
        "url": ""
    },
    {
        "title": "不同高跟鞋👠的名称及分类",
        "docid": "7312001800293384731",
        "url": ""
    },
    {
        "title": "看了60岁章小蕙的打扮，我发现：中年女人反油腻比扮嫩更显气质",
        "docid": "7295270002880479744",
        "url": ""
    },
    {
        "title": "四五十岁的女人，新年就穿“毛衣+百褶裙”，高级减龄又洋气！",
        "docid": "7326133208641503779",
        "url": ""
    },
    {
        "title": "黑色短款羽绒服怎么搭配呢",
        "docid": "7321872224980566555",
        "url": ""
    },
    {
        "title": "71岁“最美外交官”傅莹：衣着大方得体，气质温雅尽显东方之美",
        "docid": "7325740651717640741",
        "url": ""
    },
    {
        "title": "今天给大家整理了一波优衣库的秋冬毛衣穿搭合集！",
        "docid": "7294591349947630119",
        "url": ""
    },
    {
        "title": "揭露捞女7个不为人知的秘密，背得起爱马仕，却还不上500块",
        "docid": "7295687094687728162",
        "url": ""
    },
    {
        "title": "大衣、羽绒服都不兴了，今年更流行“奶奶棉服”，洋气百搭又保暖",
        "docid": "7298905345240957476",
        "url": ""
    },
    {
        "title": "2024年时尚趋势是“九分裤+矮跟鞋”，既时髦又增高效果明显",
        "docid": "7325794542912143911",
        "url": ""
    },
    {
        "title": "超模奚梦瑶：高奢日常穿搭揭秘！",
        "docid": "7325626612128170547",
        "url": ""
    },
    {
        "title": "上班这样穿 , 休闲舒适还时髦",
        "docid": "7325057277949215284",
        "url": ""
    },
    {
        "title": "50岁左右的女人，靴子尽量不要穿马丁靴和无痕靴，其实这些更优雅",
        "docid": "7312346348593578522",
        "url": ""
    },
    {
        "title": "“一百来块”的大衣与“几千上万”的大衣差在哪里？内行人告诉你",
        "docid": "7317167300606951945",
        "url": ""
    },
    {
        "title": "女人过了50岁，尽量少穿“打底裤”和“阔腿裤”，换成这些更时尚",
        "docid": "7325786056627601974",
        "url": ""
    },
    {
        "title": "看了70岁胡因梦的打扮，我发现：中老年女人反油腻比扮嫩更显气质",
        "docid": "7314159204359963163",
        "url": ""
    },
    {
        "title": "拜托，男明星驾驭不了小辫就别强撑了，这几位才是啾啾界天花板",
        "docid": "7325696991953207834",
        "url": ""
    },
    {
        "title": "配色美学，利用好颜色穿出彩",
        "docid": "7321692637575676466",
        "url": ""
    },
    {
        "title": "“会打扮”和“不会打扮”的女人，差别就在于这3点，改掉就时髦",
        "docid": "7320485781351432714",
        "url": ""
    },
    {
        "title": "上了年纪的大妈，这4种羽绒服“能别穿就别穿”！掉档次又显土气",
        "docid": "7325700815417786931",
        "url": ""
    },
    {
        "title": "200-2000元男士通勤双肩包选购攻略，从材质到做工都很能打",
        "docid": "7299005558642786831",
        "url": ""
    },
    {
        "title": "杨紫身穿微博之夜露肩紫色礼服分享折纸，上面写着“要久久爱”！",
        "docid": "7326133825623687680",
        "url": ""
    },
    {
        "title": "看了这位50岁妈妈，才发现：裙不配丝袜、美得像18岁少女般",
        "docid": "7325735501066273289",
        "url": ""
    },
    {
        "title": "女人面部不显老，坚持这几点：",
        "docid": "7316168671481578021",
        "url": ""
    },
    {
        "title": "中国正在消亡的4个老行当，见过3种以上，说明你已经老了",
        "docid": "7303736496350593574",
        "url": ""
    },
    {
        "title": "千万别选这五种针织衫",
        "docid": "7302241681913741861",
        "url": ""
    },
    {
        "title": "神奇的警服内胆",
        "docid": "7313012469558313512",
        "url": ""
    },
    {
        "title": "女孩子一定要学会化淡妆，新手万能教程！",
        "docid": "7317476562146902547",
        "url": ""
    },
    {
        "title": "今年流行穿牛仔裤，那么鞋子怎么搭？这几种公式，照穿超洋气！",
        "docid": "7325716598969549352",
        "url": ""
    },
    {
        "title": "女生发型不对，衣服穿得再好看也没用，手把手教你搭配完美发型！",
        "docid": "7325708523579621929",
        "url": ""
    },
    {
        "title": "吴尊一家阿布扎比度假，林丽吟异域风造型似王妃，NeiNei撞脸杨紫",
        "docid": "7323871796993032731",
        "url": ""
    },
    {
        "title": "跟着博主学穿搭｜10组高级同色系穿搭，出街回头率超高",
        "docid": "7311316714019717632",
        "url": ""
    },
    {
        "title": "周涛亲身示范：衣穿长、裙过膝、发不披肩，55岁都没有“大妈感”",
        "docid": "7326136479628132899",
        "url": ""
    },
    {
        "title": "哈尔滨火出圈的小土豆，羽绒服搭配惊艳全网！时尚保暖两不误！",
        "docid": "7326141060953473551",
        "url": ""
    },
    {
        "title": "周涛真是“反油腻”第一人，穿衣简约却气质高级，到老都是体面人",
        "docid": "7325716226796159499",
        "url": ""
    },
    {
        "title": "时尚造型师优雅慵懒的法式穿搭日常参考合集，巴黎女人真的太会穿",
        "docid": "7312657043603718665",
        "url": ""
    },
    {
        "title": "女人有没有“贵妇相”，50岁后就看这4个特征，和钱多钱少没关系",
        "docid": "7296744735036555803",
        "url": ""
    },
    {
        "title": "穿搭分享：微胖女生的穿搭",
        "docid": "7297367325785801225",
        "url": ""
    },
    {
        "title": "归亚蕾真是美了一辈子，79岁穿衣花哨却时髦高级，到老都没大妈感",
        "docid": "7322308993027179060",
        "url": ""
    },
    {
        "title": "七八十年代流行全国的“的确良”，为何突然消失了？其实它改了名",
        "docid": "7293855762370036262",
        "url": ""
    },
    {
        "title": "短羽绒+阔腿裤真的太美了！遮肉显瘦又修饰身材，尽显欧美风特色",
        "docid": "7300379281010475555",
        "url": ""
    },
    {
        "title": "比起艳丽的造型，“低饱和度”穿搭才适合中年女人，高级又减龄",
        "docid": "7325738607719891519",
        "url": ""
    },
    {
        "title": "去了上海才发现：满大街的“基础色穿搭”时髦保暖，显瘦还高级！",
        "docid": "7325705684133036581",
        "url": ""
    },
    {
        "title": "穿搭分享：原来大衣搭配球鞋，才是最舒服、最自由",
        "docid": "7304954654948049435",
        "url": ""
    },
    {
        "title": "中年男人：不管差不差钱，都要少穿这3种“廉价鞋”，看着很油腻",
        "docid": "7294459031622681127",
        "url": ""
    },
    {
        "title": "你永远可以相信白百何的眼光‼",
        "docid": "7321354976167756298",
        "url": ""
    },
    {
        "title": "“光腿神器”被嘲“现代刑具”？医生这样说",
        "docid": "7312378676337918473",
        "url": ""
    },
    {
        "title": "同一件衣服，化妆前后穿差别能有多大？对比图看完我惊呆了",
        "docid": "7307135622957777448",
        "url": ""
    },
    {
        "title": "浙江“最憋屈富婆”买包事件：有钱人的世界，多的是你不知道的事",
        "docid": "7324869332926759439",
        "url": ""
    },
    {
        "title": "7档机械表：最佳选择一览",
        "docid": "7294587372912591399",
        "url": ""
    },
    {
        "title": "“最美反派”杨雪带女儿拍古装照片，看到成品被她的女儿惊艳到了",
        "docid": "7308553752867734016",
        "url": ""
    },
    {
        "title": "白百何，离“土”最远的女人！",
        "docid": "7301174610949636645",
        "url": ""
    },
    {
        "title": "无痕裤彻底过时了！满街都是“液体裤”，高级时髦，还意外的显瘦",
        "docid": "7294917991144129062",
        "url": ""
    },
    {
        "title": "看了74岁王馥荔与吴玉芳同框才明白,有富贵相的女人老了反而吃香",
        "docid": "7309852024756355624",
        "url": ""
    },
    {
        "title": "男生穿搭前后对比，长相“一般”穿搭不能“一般”",
        "docid": "7297429438487790114",
        "url": ""
    },
    {
        "title": "别以为扎个双马尾就是少女了，10位中年女星扮嫩，一个比一个辣目",
        "docid": "7293783174206013963",
        "url": ""
    },
    {
        "title": "几乎全是假货，利润高达650%，为何消费者还争相购买",
        "docid": "7307582724196581924",
        "url": ""
    },
    {
        "title": "冲锋衣是怎么成为“打工战服”的？",
        "docid": "7293511037565927973",
        "url": ""
    },
    {
        "title": "爱马仕柜哥月入6万，LV柜姐3万？内行人：夸张！入职条件更夸张",
        "docid": "7301276434906710543",
        "url": ""
    },
    {
        "title": "高鼻梁已经失宠了！现在的“低山根”反而更吃香，减龄又有氛围感",
        "docid": "7304182825744450085",
        "url": ""
    },
    {
        "title": "50+女人，比变老更可怕的是留“黑长直”！看这3组对比就明白了",
        "docid": "7315711285008564799",
        "url": ""
    },
    {
        "title": "配色分享，世界上最高级的颜色",
        "docid": "7323829698168914469",
        "url": ""
    },
    {
        "title": "真正见过世面的中年女人，穿靴子都不会高于膝盖，看袁泉就知道",
        "docid": "7310415524834460170",
        "url": ""
    },
    {
        "title": "那些被美甲毁掉的女孩们",
        "docid": "7312367430322799114",
        "url": ""
    },
    {
        "title": "什么脸型就戴什么款式的帽子，合适自己的既好看又保暖",
        "docid": "7310854738038506023",
        "url": ""
    },
    {
        "title": "去了成都才发现：满大街都是“大衣裹靴子又配裙子”，却个个洋气",
        "docid": "7325718160417079848",
        "url": ""
    },
    {
        "title": "“会打扮”和“不会打扮”的女人，看完这些对比就知道，差别太大",
        "docid": "7325674987682120203",
        "url": ""
    },
    {
        "title": "去了日本才发现：东京银座都是“大衣+裙子”穿搭，洋气又保暖！",
        "docid": "7326403400437301810",
        "url": ""
    },
    {
        "title": "女生提升穿搭衣品小妙招！",
        "docid": "7323158777518162486",
        "url": ""
    },
    {
        "title": "国产羽绒服卖到7000元，中产都不够用了？",
        "docid": "7304062481683644928",
        "url": ""
    },
    {
        "title": "秋冬大衣别瞎买！掌握9大要素就能买对 ​​​",
        "docid": "7296682018123907635",
        "url": ""
    },
    {
        "title": "不建议买的3个冲锋衣品牌，听着洋气，实际都是智商税！烂大街了",
        "docid": "7326395590785466895",
        "url": ""
    },
    {
        "title": "《繁花》收官，唐嫣又带火了一种新穿法：毛衣+香蕉裤，太时尚了",
        "docid": "7325803791440675364",
        "url": ""
    },
    {
        "title": "“老娘最美，但老娘不在乎”大骨架圆身分析 ​​​",
        "docid": "7303364255368200730",
        "url": ""
    },
    {
        "title": "看了何超琼、郭晶晶的打扮，才明白什么叫“真名媛”！太优雅高级",
        "docid": "7307433555230032434",
        "url": ""
    },
    {
        "title": "拒绝整容，神似刘诗诗，体态如花季少女，她的自然美着实惊艳了",
        "docid": "7325686378653286951",
        "url": ""
    },
    {
        "title": "微博之夜，35岁的景甜用肚子上“赘肉”治好了我的身材焦虑",
        "docid": "7324681980187197989",
        "url": ""
    },
    {
        "title": "一般人养不起的5位女星，个个壕无人性花钱如流水，来看看都有谁",
        "docid": "7309423538434261555",
        "url": ""
    },
    {
        "title": "张小斐上班穿搭合集，主打日常休闲风",
        "docid": "7324698966288318995",
        "url": ""
    },
    {
        "title": "新一代复古风小花周也轻松驾驭绿色眼影，奇怪又好看",
        "docid": "7319735039116624447",
        "url": ""
    },
    {
        "title": "曾经风靡一个时代的美邦 班尼路 真维斯 以纯这些服装品牌都去了哪里",
        "docid": "7317597187918332468",
        "url": ""
    },
    {
        "title": "配色美学看完你的衣品会很牛",
        "docid": "7315674767108244019",
        "url": ""
    },
    {
        "title": "看了“顶级名媛”的造型，我发现：有富贵相的女人老了反而更吃香",
        "docid": "7314645776951919155",
        "url": ""
    },
    {
        "title": "杨幂、娜扎、彭小苒、辛芷蕾穿出美到骨子里的造型，看出美的真谛",
        "docid": "7325669110388965927",
        "url": ""
    },
    {
        "title": "会穿搭和不会穿搭的区别，女生必看！",
        "docid": "7296675745831977507",
        "url": ""
    },
    {
        "title": "脸上这3处长“痣”的女人，千万别去点掉！看着气质高级还精致",
        "docid": "7302732254479155763",
        "url": ""
    },
    {
        "title": "姨味的朱一龙，土气的周杰伦，巴黎时装周，男明星审美差距出来了",
        "docid": "7326113949480600102",
        "url": ""
    },
    {
        "title": "等你老了，头发建议剪短点，今年流行这3种“酒窝发”，洋气减龄",
        "docid": "7325721122266677771",
        "url": ""
    },
    {
        "title": "这才是铃木保奈美“老得慢”的原因：不穿老年装、也不烫老年头！",
        "docid": "7303816101434049039",
        "url": ""
    },
    {
        "title": "今年流行“羽绒服叠穿”，关键是回头率超高，难怪博主们都爱穿！",
        "docid": "7325710785652228635",
        "url": ""
    },
    {
        "title": "看了北京奶奶的打扮，我悟了：衣不穿花、裤不紧身，才更时髦高级",
        "docid": "7319873331371704843",
        "url": ""
    },
    {
        "title": "看了79岁归亚蕾的打扮，才发现：女人直面衰老，比刻意扮嫩更耐看",
        "docid": "7326408147084624422",
        "url": ""
    },
    {
        "title": "终于发现：还是“新中式”穿搭高级又耐看，不管多大年纪都能穿！",
        "docid": "7325769808136946202",
        "url": ""
    },
    {
        "title": "女生发量暴增的7个方法，学起来！挑洗发水一定要看配方",
        "docid": "7306419181598147098",
        "url": ""
    },
    {
        "title": "百达翡丽Nautilus鹦鹉螺依旧是溢价“王者”，分析表王行情",
        "docid": "7324697317730468403",
        "url": ""
    },
    {
        "title": "毛衣+膝下裙才是秋冬优雅的打开方式。温暖又时尚，尤适合小个子",
        "docid": "7325424355071951375",
        "url": ""
    },
    {
        "title": "等你老了，一定要杜绝：发烫卷、裙上膝、色过三，这样打扮才时尚",
        "docid": "7295659119296905766",
        "url": ""
    },
    {
        "title": "七匹狼与咏归川发起秦岭羽绒夹克体验之旅，探寻自然与环保和谐共生",
        "docid": "7325724630403416595",
        "url": ""
    },
    {
        "title": "这是我见过最“优雅”的妈妈，穿衣简约却很高级，白发不染更知性",
        "docid": "7302661231247508002",
        "url": ""
    },
    {
        "title": "中老年女人：为什么劝你们少穿暗沉色、多剪短发？看肖雄就明白了",
        "docid": "7312700431921234468",
        "url": ""
    },
    {
        "title": "好惨的对比！这才是女明星真实的“腿型”……",
        "docid": "7299695818259481088",
        "url": ""
    },
    {
        "title": "艾玛-布鲁克斯亮相，她就是这么自信",
        "docid": "7324494619524481588",
        "url": ""
    },
    {
        "title": "梨形身材的姐妹尝试挖空设计，微胖的姐妹也能展现魅力",
        "docid": "7325418001694851584",
        "url": ""
    },
    {
        "title": "被上海街头的爷爷惊艳了！白发不染，不穿老年装，却个个绅士高级",
        "docid": "7326429025382171199",
        "url": ""
    },
    {
        "title": "嫁入豪门的超模奚梦瑶，穿搭来了，每一件都很高奢",
        "docid": "7317517312528253503",
        "url": ""
    },
    {
        "title": "53岁刘奕君杭州被偶遇，这身材和打扮年轻得像30多岁小伙子",
        "docid": "7326006835894010402",
        "url": ""
    },
    {
        "title": "伍佰过生日穿得像个老嫂子，网友：衣服有链接吗？想买件给外婆",
        "docid": "7326378551832871451",
        "url": ""
    },
    {
        "title": "百达翡丽鄙视理查德吗？劳力士鄙视万国吗？看看表圈等级划分",
        "docid": "7301232571822834191",
        "url": ""
    },
    {
        "title": "颜值高不一定能驾驭民国双麻花辫，让人眼前一亮的，只服以下5位",
        "docid": "7309732663303537162",
        "url": ""
    },
    {
        "title": "《繁花》里两位老板娘的首饰太嗲了～",
        "docid": "7319866435151823386",
        "url": ""
    },
    {
        "title": "世界化妆品女王：自己不化妆，却狠赚爱美人士的钱，身家达5400亿",
        "docid": "7306792822395601443",
        "url": ""
    },
    {
        "title": "哪些手表买了就后悔？内心脆弱一定要避开这几款表！",
        "docid": "7306130440354939402",
        "url": ""
    },
    {
        "title": "冲锋衣，不建议买这3个网红品牌！听着洋气，实则智商税，太坑人",
        "docid": "7314597956391567924",
        "url": ""
    },
    {
        "title": "港女怀疑山姆卖假货，网友吐槽：“如果真是假货，你就发达啦”！",
        "docid": "7324901842960761394",
        "url": ""
    },
    {
        "title": "见过大世面的中年女人，穿裙子都不会高于膝盖，看李富真就知道了",
        "docid": "7302801532737815040",
        "url": ""
    },
    {
        "title": "女人过了30岁，穿衣别太随意，简约优雅风穿搭分享，太美了！",
        "docid": "7326360938138026536",
        "url": ""
    },
    {
        "title": "裤衩套头，花洒软管做头饰，小时候爱看的古装剧，妆造真的很离谱",
        "docid": "7315003285697020426",
        "url": ""
    },
    {
        "title": "脸上有这6种特征的人，即便老了也很显年轻，看张柏芝就懂了",
        "docid": "7296366008481284662",
        "url": ""
    },
    {
        "title": "细心的网友发现杨紫琼这脚是怎么回事？",
        "docid": "7316171826169004580",
        "url": ""
    },
    {
        "title": "终于发现：“法式风”才更适合中年女人，精致、矜贵还很显高！",
        "docid": "7326437611185586727",
        "url": ""
    },
    {
        "title": "LV必买包包|保值攻略",
        "docid": "7326098254481850915",
        "url": ""
    },
    {
        "title": "如何区分真皮和人造皮革，只需要一滴水，就可以直接“现原形”！",
        "docid": "7319805399316578857",
        "url": ""
    },
    {
        "title": "要想连衣裙优雅得体，选择搭配“长款外套”，会直接事半功倍",
        "docid": "7326144542590140943",
        "url": ""
    },
    {
        "title": "40岁左右的女人，发不烫卷、妆不画浓、鞋不穿高，低调大方就挺美",
        "docid": "7325750225787044389",
        "url": ""
    },
    {
        "title": "贝索斯未婚妻又去走红毯！抹胸黑裙尽显绝美身材，还盛赞哈里王子",
        "docid": "7326419219468698124",
        "url": ""
    },
    {
        "title": "有效发型VS无效发型",
        "docid": "7322604489645802018",
        "url": ""
    },
    {
        "title": "穿大衣配裤子，究竟该选“小脚”还是“阔腿”？看杭州街拍就知道",
        "docid": "7326427191703732748",
        "url": ""
    },
    {
        "title": "女人到了50、60岁打扮一下气质更好，冬天备好这四件单品，好高级",
        "docid": "7326432741388501543",
        "url": ""
    },
    {
        "title": "小个子也要美丽过新年，时髦又显高的穿搭，直接“照抄”就对了！",
        "docid": "7326409820360147519",
        "url": ""
    },
    {
        "title": "深冬了才发现：九分裤不兴了！满大街都在穿“齐踝裤”时尚又优雅",
        "docid": "7325762387368362535",
        "url": ""
    },
    {
        "title": "2024年羽绒服+牛仔裤又火了，轻松穿出时尚感，百搭不挑人还保暖",
        "docid": "7326139592481112616",
        "url": ""
    },
    {
        "title": "百褶裙彻底过时了，今年流行“烟管裙”，不仅显气质，还时髦优雅",
        "docid": "7325780825797919266",
        "url": ""
    },
    {
        "title": "今年火了一种穿法，叫“上半身羽绒服、下半身穿靴子”，保暖洋气",
        "docid": "7325721601897562661",
        "url": ""
    },
    {
        "title": "当你有一件驼色大衣却不知道怎么搭配时",
        "docid": "7303362471333577225",
        "url": ""
    },
    {
        "title": "“简约”才是40+女人的正确穿衣思路，时尚又上档次，还提气质",
        "docid": "7326438894638465577",
        "url": ""
    },
    {
        "title": "别再乱穿衣了！跟着时尚博主的穿搭秘籍，让你冬天美得高级又优雅",
        "docid": "7325822239407456768",
        "url": ""
    },
    {
        "title": "50+的女人要活得从容穿得漂亮，记住这些穿衣技巧，舒适又耐看！",
        "docid": "7326430669486506507",
        "url": ""
    },
    {
        "title": "《繁花》爆火后，这件“梦特娇男孩”爆款Polo衫开启“超级品牌日”",
        "docid": "7325734835182387731",
        "url": ""
    },
    {
        "title": "过年不知道穿什么，试试这几个流行色，时髦高级又温暖减龄",
        "docid": "7324886702118781478",
        "url": ""
    },
    {
        "title": "这才是50岁女性的时尚指南：“半身裙搭配矮跟鞋”，展现优雅身姿",
        "docid": "7325782463165809164",
        "url": ""
    },
    {
        "title": "快过年了才发现：满大街都是羽绒服不配打底裤，色不过三，真洋气",
        "docid": "7325807487637242408",
        "url": ""
    },
    {
        "title": "女人到了四五十岁一定要试试“大衣+长裙”！优雅又时髦，还洋气",
        "docid": "7325771627881333288",
        "url": ""
    },
    {
        "title": "天啊！吴昕现在怎么变成这样了",
        "docid": "7326096627872104960",
        "url": ""
    },
    {
        "title": "看了上海女生穿搭，我悟了：棉服+鲨鱼裤，才是今冬的时尚新潮流",
        "docid": "7316191289538593316",
        "url": ""
    },
    {
        "title": "直接抄作业！！让男生秒懂的大牌包包排行榜",
        "docid": "7324258342132728372",
        "url": ""
    },
    {
        "title": "被叶倩文惊艳到了！白发不染，裙不配打底裤，到老都没“大妈感”",
        "docid": "7325396240958013986",
        "url": ""
    },
    {
        "title": "44岁高圆圆和49岁贾静雯化身时尚灵感！终于见识了真正高级感",
        "docid": "7325635912812102163",
        "url": ""
    },
    {
        "title": "农村再掀“睡衣风”，穿睡衣上街串门，既丑又土，为何都喜欢穿？",
        "docid": "7314573102225605158",
        "url": ""
    },
    {
        "title": "百褶裙彻底过时了，今年流行“烟管裙”，不仅显气质，还时髦优雅",
        "docid": "7326431609338233382",
        "url": ""
    },
    {
        "title": "孙俪看儿子打篮球，12岁等等烫了羊毛卷，又高又瘦像日系美少年",
        "docid": "7326441570415903269",
        "url": ""
    },
    {
        "title": "今年过年一定要试试“毛衣+百褶裙”，优雅显气质，谁见都夸好看",
        "docid": "7326438793920184867",
        "url": ""
    },
    {
        "title": "原来驼色+绿色穿搭，看似极简却非常高级，出门这样穿，谁穿谁美",
        "docid": "7326433351861600822",
        "url": ""
    },
    {
        "title": "女人到了中年的阶段，穿裙子会比穿裤子更有气质，优雅又显瘦",
        "docid": "7326431578795082281",
        "url": ""
    },
    {
        "title": "37批次不合格化妆品停售！涉及多款面膜、防晒霜、粉底液、隔离霜",
        "docid": "7326375079129350682",
        "url": ""
    },
    {
        "title": "新年红穿出高级感，掌握4个搭配公式，让你轻松穿出女神范儿！",
        "docid": "7325400487942291968",
        "url": ""
    },
    {
        "title": "选择完美的冬季围巾：精致唯美、抗风御寒的标准！",
        "docid": "7326393094046253604",
        "url": ""
    },
    {
        "title": "姨味的朱一龙，土气的周杰伦，巴黎时装周，男明星审美差距出来了",
        "docid": "7326457751108960803",
        "url": ""
    },
    {
        "title": "被重庆女生折服了！不管是“一身黑”还是“一身白”，都时髦高级",
        "docid": "7326460582503612938",
        "url": ""
    },
    {
        "title": "去了南方才发现：不兴羽绒服了！满街都在穿“齐踝大衣”，真洋气",
        "docid": "7325723208735769151",
        "url": ""
    },
    {
        "title": "被北京街拍刷屏了！今冬流行穿“羽绒服+鲨鱼裤”，显瘦又时髦",
        "docid": "7326443909746278922",
        "url": ""
    },
    {
        "title": "羽绒服和棉服哪个更“抗冷”？别再被忽悠，决战寒冷前先搞清楚！",
        "docid": "7326431205401149993",
        "url": ""
    },
    {
        "title": "一个可以把花衣穿出素雅清冷感的男人～成毅",
        "docid": "7305743465978872360",
        "url": ""
    },
    {
        "title": "看上海街拍才发现：衣穿短、裤穿长，时髦又显高、真适合小个子！",
        "docid": "7325392111199748660",
        "url": ""
    },
    {
        "title": "为什么40岁女人爱穿“长大衣”？遮肉又时髦，难怪这么受欢迎",
        "docid": "7326149780236157474",
        "url": ""
    },
    {
        "title": "冬天衣物别乱选！美丽不如保暖，按照这些逻辑选不会踩雷",
        "docid": "7326430086567100969",
        "url": ""
    },
    {
        "title": "被80岁赵淑珍老年状态惊艳：脸得圆、衣要艳、发烫卷，老了才贵气",
        "docid": "7325055179752292899",
        "url": ""
    },
    {
        "title": "别再用“大衣”搭配打底裤了！大衣用这3种下装搭配，优雅又高级",
        "docid": "7326446220137382400",
        "url": ""
    },
    {
        "title": "秦岚的时尚创新：巧穿大衣+短裙+长筒靴，完美展现苗条身材和优雅",
        "docid": "7326460562366382611",
        "url": ""
    },
    {
        "title": "我悟了！今年“裤腿越长、裤管越松”就越时髦，瞧潮人这样穿多美",
        "docid": "7296042900528579072",
        "url": ""
    },
    {
        "title": "看到三木我才明白：羽绒服+靴子，才是今冬新时代女人的时髦",
        "docid": "7325823284808024614",
        "url": ""
    },
    {
        "title": "《繁花》收官，辛芷蕾带火了一种新穿法：大西装+阔腿裤，好时髦",
        "docid": "7324317300910244379",
        "url": ""
    },
    {
        "title": "不同年龄段的女孩子喜欢什么样的包包",
        "docid": "7298291142951895615",
        "url": ""
    },
    {
        "title": "辛芷蕾花少带火的11家设计师店铺❗️太爆了",
        "docid": "7323926377491841555",
        "url": ""
    },
    {
        "title": "等你到了四五十岁，要少穿驼色、灰色，换成这些“年轻色”更减龄",
        "docid": "7308551517811081768",
        "url": ""
    },
    {
        "title": "这些女神年轻时的黑长直发型，无一不令人惊艳！",
        "docid": "7325712510114595354",
        "url": ""
    },
    {
        "title": "奔五奔六的女人，少穿棉服、羽绒服！换成这3种外套，气质更优雅",
        "docid": "7325694634209182245",
        "url": ""
    },
    {
        "title": "\"羽绒服搭配阔腿裤和小脚裤，哪个更好看？\"",
        "docid": "7325406986336846371",
        "url": ""
    },
    {
        "title": "50+的女人，穿衣别太刻板，学“欧美街拍”舒适大方、时髦又显高",
        "docid": "7325805191079739904",
        "url": ""
    },
    {
        "title": "四五十岁的女人想穿得漂亮，请拒绝一身黑，这些搭配高级又减龄！",
        "docid": "7325673541964218916",
        "url": ""
    },
    {
        "title": "六七十岁男人，帽子尽量不要戴“军帽”和“雷锋帽”，这些更洋气",
        "docid": "7316094203108065826",
        "url": ""
    },
    {
        "title": "50+的女人要活得从容穿得漂亮，记住这些穿衣技巧，舒适又耐看",
        "docid": "7326461219999646247",
        "url": ""
    },
    {
        "title": "对我的眼睛很好！2023女明星年度神图，一篇看够",
        "docid": "7325846369234059816",
        "url": ""
    },
    {
        "title": "豪门富太面相，看看你中了几条吧!",
        "docid": "7325443452681699875",
        "url": ""
    },
    {
        "title": "建议中老年女人，尽量多穿这3种颜色，洋气显白，谁看了都夸年轻",
        "docid": "7326138525815390755",
        "url": ""
    },
    {
        "title": "中国超模吕燕在社交媒体上发表的一段言论引发了广泛争议",
        "docid": "7326128481908621834",
        "url": ""
    },
    {
        "title": "30岁章泽天宣布喜讯！她又有了新归宿",
        "docid": "7326436045451821608",
        "url": ""
    },
    {
        "title": "被穿旗袍的巩俐惊艳了！圆脸、微胖、前凸后翘，我看100遍都不厌",
        "docid": "7326412233771123226",
        "url": ""
    },
    {
        "title": "被“哈尔滨街拍”惊艳了！满大街都是“羽绒服+鲨鱼裤”，真洋气",
        "docid": "7326431736647270939",
        "url": ""
    },
    {
        "title": "新年就要“一抹红”，大年初一到初八，照搬这些搭配、好看又喜庆",
        "docid": "7326411653564744233",
        "url": ""
    },
    {
        "title": "别再为过年选衣烦恼了，直接上毛衣+半裙，时髦又省心！",
        "docid": "7325746302136975935",
        "url": ""
    },
    {
        "title": "过年衣服别乱买，“大衣+膝下裙”温柔又大方，真适合中年女人！",
        "docid": "7326135022057406991",
        "url": ""
    },
    {
        "title": "这种“轻熟风穿搭”真的绝了！看博主亲身示范就被惊艳，谁穿谁美",
        "docid": "7326441850390348351",
        "url": ""
    },
    {
        "title": "看了上海女生打扮，我悟了：大衣+围巾，今冬这样穿才更时髦洋气",
        "docid": "7326463773790093862",
        "url": ""
    },
    {
        "title": "今天整理了6套穿搭公式供大家参考",
        "docid": "7302986720076546586",
        "url": ""
    },
    {
        "title": "被上海街拍刷屏了，今年流行穿“羽绒服+香蕉裤”，显瘦又时髦",
        "docid": "7326467303909048858",
        "url": ""
    },
    {
        "title": "年货节才发现：不兴羽绒服了！满大街都在穿“奶奶棉衣”，真洋气",
        "docid": "7325396953599427107",
        "url": ""
    },
    {
        "title": "日系搭配需要做减法，得体的穿搭不一定要叠加特别多的元素！",
        "docid": "7326366572393005568",
        "url": ""
    },
    {
        "title": "过年走亲访友这样穿，简约雅致落落大方，每一套都好好看",
        "docid": "7326401751031054874",
        "url": ""
    },
    {
        "title": "同款衣服，娜扎美如妲己，周冬雨东施效颦一目了然。",
        "docid": "7324684929277903370",
        "url": ""
    },
    {
        "title": "“血洗”国人钱包，当年狂揽17.3亿的羽绒服，年轻人已不吃这一套",
        "docid": "7308630750294196772",
        "url": ""
    },
    {
        "title": "去了上海才发现，满街都是“黑丝+长靴”！时髦显瘦，回头率还高",
        "docid": "7326479482943111699",
        "url": ""
    },
    {
        "title": "高圆圆44岁新穿搭惊艳！蜂腰宽臀，堪比女团身材，美貌达到新巅峰",
        "docid": "7326467015815070249",
        "url": ""
    },
    {
        "title": "伊万卡和老公外出约会！穿挂脖白裙很惊艳，鲜肉老公胡子拉碴老了",
        "docid": "7326357014110650915",
        "url": ""
    },
    {
        "title": "佟丽娅回到家乡新疆伊宁，穿上锡伯族的传统服饰，真的太惊艳了！",
        "docid": "7326069559034200616",
        "url": ""
    },
    {
        "title": "63岁惠英红亲身示范：不烫老年头，不穿老年装，到老都没有大妈感",
        "docid": "7325815437307576884",
        "url": ""
    },
    {
        "title": "这才是赫本避免阿姨味的秘诀：永远得体的打扮，才能优雅到老",
        "docid": "7326477499222311461",
        "url": ""
    },
    {
        "title": "被杭州阿姨惊艳了！杭州阿姨如何用“上宽下宽”穿出年轻感！",
        "docid": "7326428675140944434",
        "url": ""
    },
    {
        "title": "鞋裙搭不对， 整套都白费，最佳公式看这里",
        "docid": "7299447916492735027",
        "url": ""
    },
    {
        "title": "蔡依林新发型大揭秘：走红毯变成灾难？网友集体失望哀叹！\"",
        "docid": "7325760246872834623",
        "url": ""
    },
    {
        "title": "阔腿裤过时了，这个冬天“直管裤”却火起来了，不仅显瘦还很优雅",
        "docid": "7325786492767994383",
        "url": ""
    },
    {
        "title": "冬天还是实用最重要，选择适合自己风格的时尚穿搭，让别人说去吧",
        "docid": "7325423047186432512",
        "url": ""
    },
    {
        "title": "白色打底衫才是真正的“万金油”！冬天备件它，一季造型不用愁",
        "docid": "7326440067822649865",
        "url": ""
    },
    {
        "title": "胡静新写真引发热议！灵动身姿展现女神魅力？美到令人惊叹！",
        "docid": "7326483478122758692",
        "url": ""
    },
    {
        "title": "骨相美人更耐老，这是真的吗？",
        "docid": "7311719583395086848",
        "url": ""
    },
    {
        "title": "冬天穿“短款”羽绒服，记住这四个搭配公式，轻松变时髦又显腿长",
        "docid": "7325715402792354315",
        "url": ""
    },
    {
        "title": "53岁咏梅真是优雅到骨子里，穿衣简单却很高级，她是如何做到的？",
        "docid": "7326481695023153691",
        "url": ""
    },
    {
        "title": "过年不知道穿什么？红色外套+半身裙，既优雅时髦，又洋气喜庆",
        "docid": "7325814609892491811",
        "url": ""
    },
    {
        "title": "衣品对一个女生的重要性，逼自己看完你的衣品会很牛！",
        "docid": "7307601867662492160",
        "url": ""
    },
    {
        "title": "\"刘涛惊艳亮相！红裙尽显曼妙身姿，现场照片大曝光！\"",
        "docid": "7326441299765346842",
        "url": ""
    },
    {
        "title": "lululemon都出“旗袍”了？“980元穿上像迎宾服务员”",
        "docid": "7325675318893625883",
        "url": ""
    },
    {
        "title": "任性穿Miu Miu谢幕、让男生穿芭蕾鞋…还得是Kim Jones！",
        "docid": "7326483841991164470",
        "url": ""
    },
    {
        "title": "女人不管差不差钱，50岁以后建议“发不染、不戴金”，才更有气质",
        "docid": "7297448273273569832",
        "url": ""
    },
    {
        "title": "大衣的8个错误穿法!",
        "docid": "7295656728010686988",
        "url": ""
    },
    {
        "title": "看了74岁的王馥荔和鲍起静，才发现：女人直面衰老，比扮嫩更耐看",
        "docid": "7325648568344887843",
        "url": ""
    },
    {
        "title": "才发现：美拉德色不兴了！满大街都穿“车厘子红”，高级又显白",
        "docid": "7326152471629054464",
        "url": ""
    },
    {
        "title": "过年不知道穿什么，试试这几个流行色，时髦高级又温暖减龄",
        "docid": "7326436009804366386",
        "url": ""
    },
    {
        "title": "原来陈坤妈妈这么漂亮！70岁发福不减肥，气质高级不输明星儿子！",
        "docid": "7326436688556474889",
        "url": ""
    },
    {
        "title": "秦海璐：中年女人的体面就是穿有质感的衣服 ​",
        "docid": "7326390465656553984",
        "url": ""
    },
    {
        "title": "我好像发现了女生穿衣服好看的秘诀",
        "docid": "7322681146897498662",
        "url": ""
    },
    {
        "title": "一眼精致的女生五个特征",
        "docid": "7299962933566603787",
        "url": ""
    },
    {
        "title": "为什么有的女人，越老越气质？这2点是关键：一少烫发、二不穿花",
        "docid": "7305951053558792742",
        "url": ""
    },
    {
        "title": "世界上最昂贵的十件礼服",
        "docid": "7321362469417976383",
        "url": ""
    },
    {
        "title": "高圆圆香港逛街被偶遇 休闲穿搭随性优雅",
        "docid": "7324891410560762383",
        "url": ""
    },
    {
        "title": "78款世界顶级珠宝欣赏",
        "docid": "7304249984667402790",
        "url": ""
    },
    {
        "title": "看到这位40+福建姐姐，我发现：穿搭优雅贵气，精致高级通勤风！",
        "docid": "7326443498008478249",
        "url": ""
    },
    {
        "title": "冬天不建议大家买的“3件大衣”，不好搭又土气，看看你有没有？",
        "docid": "7326448564685849125",
        "url": ""
    },
    {
        "title": "四五十岁女人，头发剪短、妆容清爽、穿衣舒适，才是最高级的体面",
        "docid": "7293331119200813622",
        "url": ""
    },
    {
        "title": "被潘虹的老年状态惊艳到：69岁头发花白，穿衣极简却高级有气质",
        "docid": "7320419803355726377",
        "url": ""
    },
    {
        "title": "​​解决了我90%的穿搭难题 ​​​",
        "docid": "7326028532185088521",
        "url": ""
    },
    {
        "title": "看了74岁的王馥荔和鲍起静，才发现：女人直面衰老，比扮嫩更耐看",
        "docid": "7325718945942569483",
        "url": ""
    },
    {
        "title": "高叶的旗袍，马伊琍的西装裙，红毯上包裹严实也能风情万种",
        "docid": "7324637772060082707",
        "url": ""
    },
    {
        "title": "中国女明星穿包臀裙VS韩国女明星穿包臀裙",
        "docid": "7326432152475238964",
        "url": ""
    },
    {
        "title": "240118 东方神颜成毅古装造型再掀粉丝狂潮！",
        "docid": "7325694991459205659",
        "url": ""
    },
    {
        "title": "巴黎时装周偶遇周杰伦，本人憔悴眼袋很重，走路外八，穿搭太迷惑",
        "docid": "7326467183142732314",
        "url": ""
    },
    {
        "title": "61岁港圈“冻龄富婆”顾纪筠：比起爱马仕，这张脸才是“奢侈品”",
        "docid": "7299359555853943332",
        "url": ""
    },
    {
        "title": "穿衣打扮时髦又高级，她才是《繁花》的最大惊喜，气质秒赢马伊琍",
        "docid": "7325733330706661897",
        "url": ""
    },
    {
        "title": "精简 | 6类衣物，秋冬不要再买了，一起避坑",
        "docid": "7299818504927511055",
        "url": ""
    },
    {
        "title": "每克超860元，杭州姑娘金店排队一小时，花费5万多，网友：值得吗？",
        "docid": "7324257690388005417",
        "url": ""
    },
    {
        "title": "别再吹捧“白幼瘦”了！6位老牌女星告诉你，珠圆玉润究竟有多美",
        "docid": "7325362285445677608",
        "url": ""
    },
    {
        "title": "\"秦岚机场时尚新风范：廓形风衣搭配完美遮掩\"",
        "docid": "7326497004644336143",
        "url": ""
    },
    {
        "title": "腊月“脱发危机”来袭！女人秃起来，比男人厉害多了！",
        "docid": "7325770365639459338",
        "url": ""
    },
    {
        "title": "终于发现：“法式风”才更适合中年女人，精致、矜贵还很显高！",
        "docid": "7325687941769380379",
        "url": ""
    },
    {
        "title": "4️⃣8️⃣套合集，简单大方精致时髦精",
        "docid": "7300333449028715058",
        "url": ""
    },
    {
        "title": "7个无效护肤行为，看看你是不是也在做。",
        "docid": "7299165988472553995",
        "url": ""
    },
    {
        "title": "去了杭州才发现：运动鞋不流行了！满大街都是“矮跟鞋”，很显高",
        "docid": "7309562477057049128",
        "url": ""
    },
    {
        "title": "张佳宁",
        "docid": "7299417070121288232",
        "url": ""
    },
    {
        "title": "为什么广东人都不爱化妆打扮，网友的搞笑经历说明了一切",
        "docid": "7306526483441353250",
        "url": ""
    },
    {
        "title": "才发现，原来驼色+绿色穿搭，看似极简却非常高级时髦，谁穿都美",
        "docid": "7326415342749139519",
        "url": ""
    },
    {
        "title": "黄金首饰避坑大全整理出来了，不同的黄金首饰寓意不同，别再买错",
        "docid": "7323277465768673831",
        "url": ""
    },
    {
        "title": "巴黎这一场，陈飞宇发福，王俊凯长开，周杰伦大眼袋九分裤被调侃",
        "docid": "7326472845889487375",
        "url": ""
    },
    {
        "title": "果然「黑武士」才是鞋圈顶流！这 10 双现在买真值！Yeezy 神鞋都这个价了……",
        "docid": "7326026164219265571",
        "url": ""
    },
    {
        "title": "“红极一时”的皮草为何“跌下神坛”？看完4个缺点，恍然大悟",
        "docid": "7320148996989764147",
        "url": ""
    },
    {
        "title": "10秒自测冷暖皮！了解自己的肤色，才能更合适的搭配",
        "docid": "7313393355436671529",
        "url": ""
    },
    {
        "title": "今冬的时尚“流行色”，为什么又是它？又绝又美，难怪人人追捧",
        "docid": "7326452171883561499",
        "url": ""
    },
    {
        "title": "泰国王后诗丽吉，这泼天的富贵命啊…",
        "docid": "7296826962717803023",
        "url": ""
    },
    {
        "title": "刘涛美图～",
        "docid": "7293390657119633920",
        "url": ""
    },
    {
        "title": "冷门运动表，却是瑞士钟表界“黑马”！",
        "docid": "7296424231292682793",
        "url": ""
    },
    {
        "title": "难怪不是所有人穿大衣都好看的 ​​​",
        "docid": "7326029634334835209",
        "url": ""
    },
    {
        "title": "容祖儿：年龄不是美丽的障碍，自信才是关键",
        "docid": "7326443712257868315",
        "url": ""
    },
    {
        "title": "唐嫣《繁花》后焕发新风，穿抹胸裙性感又彰显高级感，令人惊艳！",
        "docid": "7326464575753290251",
        "url": ""
    },
    {
        "title": "又被中式穿搭惊艳到，搭配简单不复杂，太适合中年女性借鉴了",
        "docid": "7325403908116234787",
        "url": ""
    },
    {
        "title": "𝙉𝙖𝙞𝙡 𝙨𝙝𝙖𝙧𝙚 简约气质秋冬美甲",
        "docid": "7305219667399115314",
        "url": ""
    },
    {
        "title": "这只瑞士表“全球流行”，3、5千就能入手",
        "docid": "7294569629287023144",
        "url": ""
    },
    {
        "title": "又火一个始祖鸟，这些沾上中产就火的牌子真高攀不起了",
        "docid": "7324229923987292724",
        "url": ""
    },
    {
        "title": "20块和200块的内衣，到底有什么区别？",
        "docid": "7295012675149529640",
        "url": ""
    },
    {
        "title": "被80岁赵淑珍老年状态惊艳：脸得圆、衣要艳、发烫卷，老了才贵气",
        "docid": "7325620084251509258",
        "url": ""
    },
    {
        "title": "40岁女人建议：少买衣服、包包、化妆品，从这9个方面，提升自己",
        "docid": "7303057118079435283",
        "url": ""
    },
    {
        "title": "“胖剑”之后，“越王勾践剑联名腕表”来啦！",
        "docid": "7326504796544893466",
        "url": ""
    },
    {
        "title": "矮个子女生注意啦，这个冬天穿这3种裤子，不仅显高，还时髦惊艳",
        "docid": "7326386799121957416",
        "url": ""
    },
    {
        "title": "羽绒服和棉服哪个更“抗冷”？别听导购忽悠，了解清楚再买不被坑",
        "docid": "7326413473431519778",
        "url": ""
    },
    {
        "title": "才40岁先别急着变老，开春尝试“无龄感”穿搭，减龄时髦还高级",
        "docid": "7326147404934513204",
        "url": ""
    },
    {
        "title": "这才是中年女人穿衣法则：身高决定衣长，身材左右版型，颜色随肤",
        "docid": "7294523188351042088",
        "url": ""
    },
    {
        "title": "看了周迅和汤唯的穿搭，就知道小个子女生短外套搭阔腿裤有多好看",
        "docid": "7323055573346583103",
        "url": ""
    },
    {
        "title": "真正见过世面的女人，冬天爱穿“大衣+半身裙”，优雅大方又减龄",
        "docid": "7325805854296572451",
        "url": ""
    },
    {
        "title": "花少同款帆布包 | 百元时髦松弛",
        "docid": "7322829980109914661",
        "url": ""
    },
    {
        "title": "时尚老佛爷：77岁爱上一只猫，留给它2亿美元遗产，后来怎样了？",
        "docid": "7311652739124544039",
        "url": ""
    },
    {
        "title": "用过无数款面霜，还是觉得这7款面霜，能让肌肤变得嫩滑、有弹性",
        "docid": "7309057196284215820",
        "url": ""
    },
    {
        "title": "小个子这么搭：韩系冬日保暖穿搭 ，更显高更好看，时尚洋气有气质",
        "docid": "7325654647316906505",
        "url": ""
    },
    {
        "title": "“灰色系”穿搭的四种配色思路，照着打扮，不仅时髦还高级、大气",
        "docid": "7325736616041906742",
        "url": ""
    },
    {
        "title": "穿“阔腿裤”原来有这么多讲究！记住这3种搭配法则，美出天际！",
        "docid": "7325753490607735330",
        "url": ""
    },
    {
        "title": "不会出错的“高级感配色公式”，只要搭配到位，穿什么都是顶配",
        "docid": "7303032451000025615",
        "url": ""
    },
    {
        "title": "女人到了50岁，这个冬天一定要试试这3件时尚单品，时髦又显高级",
        "docid": "7326513528784355840",
        "url": ""
    },
    {
        "title": "新年不知道怎么穿？借鉴“韩里韩气”风格，让你更显高！",
        "docid": "7326447709093675561",
        "url": ""
    },
    {
        "title": "卢昱晓《五福临门》定妆照，浅色系服装，淡雅的妆容，舒服大气！",
        "docid": "7326439214781235721",
        "url": ""
    },
    {
        "title": "\"时尚与保暖完美结合！中年女性冬季穿搭指南，每套都高级\"",
        "docid": "7326142451013026344",
        "url": ""
    },
    {
        "title": "貂皮大衣、皮毛一体、羽绒服、派克服那个更暖和？",
        "docid": "7316400704993133067",
        "url": ""
    },
    {
        "title": "13位欧美女明星怀孕了也不能阻止她走红毯",
        "docid": "7326441044781089320",
        "url": ""
    },
    {
        "title": "看了上海女生穿搭我悟了：短羽绒+阔腿裤，才是今冬时尚的新潮流",
        "docid": "7324970982362563107",
        "url": ""
    },
    {
        "title": "这一夜，女明星红毯翻车！孙俪松垮，海清疲惫，马伊琍打回原形",
        "docid": "7326425736062386715",
        "url": ""
    },
    {
        "title": "上海街拍启示：短衣搭配长裤，时尚显高，小个子的绝佳选择！",
        "docid": "7326474446251639359",
        "url": ""
    },
    {
        "title": "\"王楚然25岁生日写真：彩色吊带裙展现青春活力\"",
        "docid": "7326503957411807744",
        "url": ""
    },
    {
        "title": "“阔腿裤”下面一定不要搭高跟鞋，瞧下面潮人这样搭，多时髦高级",
        "docid": "7326472846698709531",
        "url": ""
    },
    {
        "title": "“最美外交官”傅莹：71岁头发花白、穿衣大方得体，尽显东方之美",
        "docid": "7325683552329155123",
        "url": ""
    },
    {
        "title": "四五十岁的女人想穿得漂亮，请拒绝一身黑，这些搭配高级又减龄！",
        "docid": "7325731091493650983",
        "url": ""
    },
    {
        "title": "过年战衣还得选“红大衣”，掌握这4种搭配，时髦出圈回头率贼高",
        "docid": "7325824192015925812",
        "url": ""
    },
    {
        "title": "男装与空间叙事｜回到“优雅”的诞生地并将它交给男士们",
        "docid": "7326412898060747291",
        "url": ""
    },
    {
        "title": "不丹国王去文莱吃酒席！穿高定西服彰显男人品味，佩玛少女感满满",
        "docid": "7325044279608394292",
        "url": ""
    },
    {
        "title": "看了74岁的王馥荔和鲍起静，才发现：女人直面衰老，比扮嫩更耐看",
        "docid": "7325731044886708746",
        "url": ""
    },
    {
        "title": "BLCG、BV、GUCCI，开云集团「静奢铁三角」形成？",
        "docid": "7325844213143175699",
        "url": ""
    },
    {
        "title": "精简衣柜！不再购买的21类衣服！",
        "docid": "7297236447986975272",
        "url": ""
    },
    {
        "title": "笑不活了！拼夕夕拼衣服还得看自己的身材和气质呀？",
        "docid": "7326365544495186482",
        "url": ""
    },
    {
        "title": "这些又流行回来了，时尚果然是个圈",
        "docid": "7326397469128933938",
        "url": ""
    },
    {
        "title": "终于发现：还是“新中式”穿搭高级又耐看，穿在街上满满回头率",
        "docid": "7326451206342296127",
        "url": ""
    },
    {
        "title": "巴黎时装周生图：周杰伦肿了，朱一龙脸垮了，陈飞宇这是穿了啥",
        "docid": "7326508940932547107",
        "url": ""
    },
    {
        "title": "新年新气象，你的战袍准备好了吗？红色大衣魅力搭配让你美得惊艳",
        "docid": "7325402946798551552",
        "url": ""
    },
    {
        "title": "王馥荔74岁，皱纹自然真实，穿花穿素都优雅，比装嫩强太多！",
        "docid": "7326392929147240998",
        "url": ""
    },
    {
        "title": "五六十岁的女人身上有这2点，容易加重老态与土气，看看你有吗？",
        "docid": "7326434011155825178",
        "url": ""
    },
    {
        "title": "不讲究吃穿，也不喜欢化妆打扮的，往往是这三种女人",
        "docid": "7295649067894309411",
        "url": ""
    },
    {
        "title": "穿搭分享：冬装搭配小技巧",
        "docid": "7297406145264927283",
        "url": ""
    },
    {
        "title": "古驰正减少产品数量，这背后是何打算？",
        "docid": "7325762333065314828",
        "url": ""
    },
    {
        "title": "穿搭技巧：下装与鞋子同色，轻松打造干净利索长腿效果！",
        "docid": "7326397257157886518",
        "url": ""
    },
    {
        "title": "冬天单品别乱选！10套公认的实用减龄模板，直接照抄都不会出错",
        "docid": "7325398305914438178",
        "url": ""
    },
    {
        "title": "泰王夫妇出席开幕式！45岁苏提达佩戴蓝宝石胸针与耳坠，抢足风头",
        "docid": "7325726550614458932",
        "url": ""
    },
    {
        "title": "\"过年不知道穿什么？试试这几个流行色，时髦高级又温暖减龄！\"",
        "docid": "7325406089993798178",
        "url": ""
    },
    {
        "title": "《繁花》完结，唐嫣再次引领时尚潮流：毛衣搭配香蕉裤，时髦十足",
        "docid": "7326530858658300470",
        "url": ""
    },
    {
        "title": "那一年的志玲姐姐 真的好美",
        "docid": "7325890747226931762",
        "url": ""
    },
    {
        "title": "看了上海妈妈的穿搭才知道！发不过肩、穿衣简约素雅，优雅有气质",
        "docid": "7326532932880417315",
        "url": ""
    },
    {
        "title": "中年小个子女士穿衣有福了！6套标准模板，让你一个月成功逆袭",
        "docid": "7326143586411299343",
        "url": ""
    },
    {
        "title": "欧米茄推出全新超霸系列“月之暗面” 阿波罗8号腕表",
        "docid": "7324958962414191156",
        "url": ""
    },
    {
        "title": "冬天不要穿花花绿绿了！快来试试这些低饱和度搭配，简约又高级！",
        "docid": "7326140337184358946",
        "url": ""
    },
    {
        "title": "冬天出行前，记得看看这份雪地靴抽查报告！",
        "docid": "7326527909949538854",
        "url": ""
    },
    {
        "title": "女人到了五六十岁打扮一下气质更好，冬天备好这四件单品，好高级",
        "docid": "7326418536866578995",
        "url": ""
    },
    {
        "title": "迪桑特开了童装店，安踏集团在下大棋",
        "docid": "7325768108893798975",
        "url": ""
    },
    {
        "title": "去了上海才发现：满大街都是“短羽绒服”，时髦又保暖，还洋气！",
        "docid": "7326379720122827298",
        "url": ""
    },
    {
        "title": "粉色单品大合集来喽！清雅百搭又有氛围感，穿上像18岁少女般",
        "docid": "7326434792860303891",
        "url": ""
    },
    {
        "title": "你适合披头发还是扎头发，主要取决于这3个特点，脸宽更要注意",
        "docid": "7325769138482201122",
        "url": ""
    },
    {
        "title": "提升中年女性气质的穿搭技巧，优雅时髦耐看，让你在冬季大放异彩",
        "docid": "7326141804771312143",
        "url": ""
    },
    {
        "title": "冬季裙装彻底过时了，这个冬季穿这3种“高级裤”，时髦又显气质",
        "docid": "7326433924111286824",
        "url": ""
    }
]