[
    {
        "title": "全球第一亚裔女模特的儿子，好帅啊！",
        "docid": "7332325262241186358",
        "url": ""
    },
    {
        "title": "古力娜扎分享时尚大片，凌乱秀发挡不住盛世美颜，窈窕身材超撩人",
        "docid": "7332380049477419574",
        "url": ""
    },
    {
        "title": "陈都灵墨蓝长袍魅力绽放，香肩白皙长腿惊艳登场！",
        "docid": "7332428117006500388",
        "url": ""
    },
    {
        "title": "银衣玉体美，华服照人眼",
        "docid": "7331713238055256630",
        "url": ""
    },
    {
        "title": "衣越素，人越美，终于明白简约即高级，照着穿告别“土味时尚”",
        "docid": "7331297855560319500",
        "url": ""
    },
    {
        "title": "外套有很多，但想提醒你：这4件才是真正的“贵气款”，要看准了",
        "docid": "7332431711588041226",
        "url": ""
    },
    {
        "title": "日本的老太太们真是优雅到老了！穿衣简单，体态优雅，审美在线",
        "docid": "7242544341217051136",
        "url": ""
    },
    {
        "title": "从关晓彤的开年红运装，看出氛围感穿搭四个优点",
        "docid": "7332131608730042915",
        "url": ""
    },
    {
        "title": "GAP押宝曾为刘雯设计过礼服的高定设计师",
        "docid": "7332438854559482407",
        "url": ""
    },
    {
        "title": "初春“奶奶开衫”又火了，温柔减龄显气质，长得一般也能穿！",
        "docid": "7332088790556639798",
        "url": ""
    },
    {
        "title": "审美积累，法式清冷文艺电影氛围感穿搭",
        "docid": "7331982218748903974",
        "url": ""
    },
    {
        "title": "国潮品牌升级，御纯金如何用喜文化拉动消费者情绪价值？",
        "docid": "7332451360501383715",
        "url": ""
    },
    {
        "title": "终于不是丑东西了？今年大牌们的限定长这样",
        "docid": "7331705144218468891",
        "url": ""
    },
    {
        "title": "坚持这15个习惯，30天后让你漂亮得妥妥当当",
        "docid": "7322103805397959205",
        "url": ""
    },
    {
        "title": "毛晓彤｜古风清冷造型，温文莞尔，倾国倾城",
        "docid": "7332499372321866281",
        "url": ""
    },
    {
        "title": "听我一句劝：中年男人最好少戴围巾、帽子，不是显老就是装嫩！",
        "docid": "7330974318396752393",
        "url": ""
    },
    {
        "title": "冬日风华：如何搭配保暖温柔又别具魅力的时尚",
        "docid": "7332402181678645810",
        "url": ""
    },
    {
        "title": "40、50岁的女人，为什么要放弃“大妈装”？看这些搭配就明白了",
        "docid": "7331688170792534564",
        "url": ""
    },
    {
        "title": "又见识了！穿衣好看，原来有捷径！2个“时尚绝招”，小白变高手",
        "docid": "7332501681882219060",
        "url": ""
    },
    {
        "title": "冬天穿衣不再烦恼！实用选款+搭配技巧，让你轻松变身时尚达人！",
        "docid": "7332281708806554131",
        "url": ""
    },
    {
        "title": "为什么劝中老年男人：冬天戴帽、衣不暗沉？看完这些素人穿搭就懂",
        "docid": "7331270728077738496",
        "url": ""
    },
    {
        "title": "等你到了六七十岁，一定要：头戴帽、脖系围巾，美得优雅又时髦",
        "docid": "7306784825132728882",
        "url": ""
    },
    {
        "title": "今年穿大衣，流行搭这3双“鞋”！时尚减龄，穿着舒适，谁穿谁美",
        "docid": "7331431428288234003",
        "url": ""
    },
    {
        "title": "穿搭分享：一组咖色裤子的穿搭模板",
        "docid": "7309965547934941705",
        "url": ""
    },
    {
        "title": "莆田鞋“上高速”行天下 今年计划在省内开设100家",
        "docid": "7332320082590237235",
        "url": ""
    },
    {
        "title": "之前是街边小店，现在95%的中国独立设计师从蕾虎出发走向世界！",
        "docid": "7332389267412484649",
        "url": ""
    },
    {
        "title": "中老年女人，过年别穿这3种羽绒服！容易暴露年龄，看着还很廉价",
        "docid": "7330589920606274083",
        "url": ""
    },
    {
        "title": "上了年纪的女人，尽量少穿这2种外套，看着廉价又显老，谁穿谁丑",
        "docid": "7332503476402405903",
        "url": ""
    },
    {
        "title": "谁说尤物只存在于梦中？万茜的美腿证明了现实中的魅力！",
        "docid": "7332503528604369458",
        "url": ""
    },
    {
        "title": "杨紫又带火了“甜美”穿搭，针织衫+工装连衣裙+马丁靴，太美了",
        "docid": "7332508127192941091",
        "url": ""
    },
    {
        "title": "女人过了50岁如何变美？穿衣高级、配色协调，简约又显气质",
        "docid": "7332510565165826612",
        "url": ""
    },
    {
        "title": "看了70岁胡因梦的打扮，我悟了：女人直面衰老，比刻意扮嫩更优雅",
        "docid": "7332513313320485411",
        "url": ""
    },
    {
        "title": "白鹿《白月梵星》新造型曝光！彩色头发引热议，网友在线惊艳！",
        "docid": "7332497378093728267",
        "url": ""
    },
    {
        "title": "金莎早期写真大片：那段璀璨而动人的时光！",
        "docid": "7332526085143347722",
        "url": ""
    },
    {
        "title": "71岁朴槿惠出书了！亮相发布会好年轻，小香风西装配珍珠项链好嫩",
        "docid": "7332502654079402496",
        "url": ""
    },
    {
        "title": "还在穿奶奶衫？现在流行“爷爷马甲”，减龄又百搭，追随潮流！",
        "docid": "7332419914550067721",
        "url": ""
    },
    {
        "title": "头发屑多、瘙痒难耐？电吹风四大危害风险务必当心！",
        "docid": "7332420246768239138",
        "url": ""
    },
    {
        "title": "人到中年穿搭是否优雅得体，主要看这几点，照着学更显形象优越",
        "docid": "7332506728167031348",
        "url": ""
    },
    {
        "title": "今冬最受欢迎的时尚穿法，优雅减龄又提气质，40岁或50岁都可照搬",
        "docid": "7332508904334819855",
        "url": ""
    },
    {
        "title": "被杭州妈妈惊艳到了！穿裙不上膝盖、鞋不穿平底，美得优雅又显高",
        "docid": "7332511159762960948",
        "url": ""
    },
    {
        "title": "章泽天终于逆袭成功，穿小香风跟“何超琼”同框，贵气一点不输",
        "docid": "7332515864337531407",
        "url": ""
    },
    {
        "title": "日常穿衣不需要太复杂，看看这些基础穿搭，不管多大年纪都能驾驭",
        "docid": "7332509893754470947",
        "url": ""
    },
    {
        "title": "辛芷蕾真的好会穿搭，她的每一套衣服拎出来都是时尚单品",
        "docid": "7331577893556257334",
        "url": ""
    },
    {
        "title": "女人过了40岁要穿“新年红”，显白又时髦，姐妹们都赞不绝口",
        "docid": "7332514952672182836",
        "url": ""
    },
    {
        "title": "一脸土气别硬留民国罗马卷，看来看去就这10位撑住，刘亦菲太惊艳",
        "docid": "7330523077405131315",
        "url": ""
    },
    {
        "title": "为什么潮流理发店的理发师要戴耳麦交流？",
        "docid": "7332059560028865059",
        "url": ""
    },
    {
        "title": "比黑白灰洋气，比鲜艳色高级，火爆2024的“流行色”，原来是它！",
        "docid": "7332512122888618511",
        "url": ""
    },
    {
        "title": "过年不建议大家穿的5件衣服，看着很贵，实际却又土又没档次！",
        "docid": "7331360936965472787",
        "url": ""
    },
    {
        "title": "真该学学这些50+女性的打扮，简单又舒适，优雅气质更显年轻",
        "docid": "7303905893911986688",
        "url": ""
    },
    {
        "title": "为提高过年相亲成功率 男生开始化妆了？丨账单里的“年味儿”",
        "docid": "7332506949458248255",
        "url": ""
    },
    {
        "title": "九套日常穿搭，照着做，你的衣品一定会很牛！",
        "docid": "7331248312852611636",
        "url": ""
    },
    {
        "title": "上海女生喜欢穿“大衣”，北方姑娘却更爱“羽绒服”，这是为何？",
        "docid": "7331755486443766335",
        "url": ""
    },
    {
        "title": "冬季选衣在对不在贵，40+女人备好羽绒服、大衣、阔腿裤，很耐穿",
        "docid": "7332507453219930676",
        "url": ""
    },
    {
        "title": "人到中年都偏爱有质感的穿搭，冬季收下这些搭配技巧，时尚又实用",
        "docid": "7332514060472484387",
        "url": ""
    },
    {
        "title": "普通人穿衣不需要追求回头率，从下面这些造型收获灵感，舒适高级",
        "docid": "7332504260464329251",
        "url": ""
    },
    {
        "title": "冬季必备：时尚舒适的羽绒服，让你在寒冷天气中更加舒适自在",
        "docid": "7331333193960161804",
        "url": ""
    },
    {
        "title": "长羽绒+半身裙，真的太炸裂了！学会搭配技巧，气质满分必须get！",
        "docid": "7331603849197339172",
        "url": ""
    },
    {
        "title": "被50+西班牙莱蒂齐亚王后的穿搭惊艳到了，优雅得体，大气又时髦",
        "docid": "7331388993780990498",
        "url": ""
    },
    {
        "title": "50岁妈妈如何避免穿衣油腻？看这位达人教你搭配！时尚又有气质！",
        "docid": "7331754069763031589",
        "url": ""
    },
    {
        "title": "短款羽绒服的穿搭搭配示范",
        "docid": "7316068830848451081",
        "url": ""
    },
    {
        "title": "我发现女人真正变老年龄不是50岁，65岁到70岁的身体明显变化很大",
        "docid": "7317034229844656680",
        "url": ""
    },
    {
        "title": "72岁宋春丽亲身示范：不染白发、衣穿长、裤选宽，越老反而越优雅",
        "docid": "7307922186826678811",
        "url": ""
    },
    {
        "title": "羽绒服+阔腿裤才是休闲典范！新年外出就穿它，保暖又有气质！",
        "docid": "7331598338011234828",
        "url": ""
    },
    {
        "title": "𝗶𝗻𝘀氛围感美甲 太爱啦​​​",
        "docid": "7324678598445597225",
        "url": ""
    },
    {
        "title": "老年人再穷也要戴“银手镯”？真的有保健作用吗？真相是这样的",
        "docid": "7308614433431994890",
        "url": ""
    },
    {
        "title": "50岁的微胖妈妈冬天怎 么穿？内搭修身、外套短些，显高又有气质",
        "docid": "7331735119512060426",
        "url": ""
    },
    {
        "title": "5个万能穿搭公式|男生必看|高效提高衣品",
        "docid": "7331244911854912040",
        "url": ""
    },
    {
        "title": "“英国lululemon”开始从“大厂”挖人，或为发力中国市场",
        "docid": "7331644373199159817",
        "url": ""
    },
    {
        "title": "68岁姜黎黎告诉你：女人上了年纪，衣要长、发要盘，美得优雅端庄",
        "docid": "7312702207664570931",
        "url": ""
    },
    {
        "title": "谁的衣橱里还没有件短款羽绒服，冬季短款羽绒服的搭配来啦",
        "docid": "7315384156744483365",
        "url": ""
    },
    {
        "title": "为什么国内人手一件的“冲锋衣”，国外却少有人穿？",
        "docid": "7332389433796756006",
        "url": ""
    },
    {
        "title": "蓝色+灰色，早春最有高级感的穿搭！",
        "docid": "7332051579979760139",
        "url": ""
    },
    {
        "title": "藏族同胞为什么经常只穿一只袖子？",
        "docid": "7331185923256353321",
        "url": ""
    },
    {
        "title": "18套春节搭配合集，喜欢的照着穿不出错",
        "docid": "7331238096794665472",
        "url": ""
    },
    {
        "title": "都是60多岁，为什么你比同龄人显老？这3点真的太毁颜值、气质了",
        "docid": "7316130028201247259",
        "url": ""
    },
    {
        "title": "玩转“龙”元素 国内外化妆品齐披“中国红”",
        "docid": "7331627539033293375",
        "url": ""
    },
    {
        "title": "英国潮牌Superdry深陷困境，因为“天太热”？",
        "docid": "7332446079775998518",
        "url": ""
    },
    {
        "title": "Hollister想在中国卷土重来，可它缺少新故事",
        "docid": "7331706440602206739",
        "url": ""
    },
    {
        "title": "洗完头后，自然风干好，还是吹干好？大部分人都做错了！",
        "docid": "7299305464721015334",
        "url": ""
    },
    {
        "title": "“轰轰龙龙”新春登场，兴业太古汇开启潮奢年味庆典",
        "docid": "7332431373456441908",
        "url": ""
    },
    {
        "title": "如何在家 DIY 你的专属香水？",
        "docid": "7331630040884953626",
        "url": ""
    },
    {
        "title": "Jennifer Lopez 获得Valentino 2024春夏高定全球首穿造型舒展鞋子！",
        "docid": "7331339055042757131",
        "url": ""
    },
    {
        "title": "浪琴表名匠系列限量推出GMT金表",
        "docid": "7332432845648036387",
        "url": ""
    },
    {
        "title": "【在拉萨过大年】藏装店里的藏族服饰你知多少？",
        "docid": "7332291326505861672",
        "url": ""
    },
    {
        "title": "为什么有些中老年男人，穿得很贵却依旧土气？看完3组对比图就懂",
        "docid": "7331020693296955931",
        "url": ""
    },
    {
        "title": "年纪大的男人，冬天少穿这4种外套！不是显老就是装嫩，还油腻",
        "docid": "7331611782975029787",
        "url": ""
    },
    {
        "title": "厚外套+直筒裤 厚毛衣+半裙小个子照着穿显瘦又高级",
        "docid": "7331749489760027173",
        "url": ""
    },
    {
        "title": "宋慧乔又带火了一种高级穿法：黑大衣+围巾+阔腿裤，时髦又洋气",
        "docid": "7331681784352834099",
        "url": ""
    },
    {
        "title": "女人到了50岁穿得漂亮很重要，单品不用太贵，但得合身得体",
        "docid": "7331742450090115622",
        "url": ""
    },
    {
        "title": "羽绒服：时尚界的不朽经典",
        "docid": "7331674543804645922",
        "url": ""
    },
    {
        "title": "乘“封”而上过龙年｜新年换新妆 元气过年美妆单品推荐",
        "docid": "7332496440549704243",
        "url": ""
    },
    {
        "title": "记录我的退休生活170：2样护肤品，坚持15年，一年也就100元左右",
        "docid": "7301199864485052968",
        "url": ""
    },
    {
        "title": "洗头不洗头皮等于白洗",
        "docid": "7332304042373382691",
        "url": ""
    },
    {
        "title": "我60周岁，头发白一多半，现在开始不染发，做一个自然美小老太太",
        "docid": "7308676248321032745",
        "url": ""
    },
    {
        "title": "小短甲巨巨巨巨巨可爱的美甲分享",
        "docid": "7301129194741121562",
        "url": ""
    },
    {
        "title": "东海水晶市场现状阐述",
        "docid": "7317139050111123968",
        "url": ""
    },
    {
        "title": "盘点世界各国的警察大檐帽，德国的依旧端庄大气",
        "docid": "7321590227263570470",
        "url": ""
    },
    {
        "title": "新消费观察",
        "docid": "7332396274412798490",
        "url": ""
    },
    {
        "title": "初春“奶奶开衫”，很适合四五十岁的女人，时髦减龄有气质！",
        "docid": "7332019634805178891",
        "url": ""
    },
    {
        "title": "今年大衣配打底衫过时了，现流行这样穿，比你想象中还时尚有气质",
        "docid": "7331292305573593600",
        "url": ""
    },
    {
        "title": "魅力纯色：唯美大衣外套穿搭合集",
        "docid": "7331919388230468096",
        "url": ""
    },
    {
        "title": "新年新形象，“烦恼丝”烫染不烦恼｜上海市消保委日用化妆品专业办",
        "docid": "7332326316877857307",
        "url": ""
    },
    {
        "title": "买金条打手镯 这届年轻人淘金“上头”",
        "docid": "7332382904888181260",
        "url": ""
    },
    {
        "title": "女人无论多大年纪，洗脸后要懂得“3不要”，否则护肤品等于白用",
        "docid": "7300856049635508787",
        "url": ""
    },
    {
        "title": "雅诗兰黛计划裁员3%至5%",
        "docid": "7332295053290947110",
        "url": ""
    },
    {
        "title": "“平替”缘何收到年轻人的追捧？",
        "docid": "7331925037051904575",
        "url": ""
    },
    {
        "title": "成毅拍戏有多认真，生活中就有多迷糊，剧里剧外变差感拉满！",
        "docid": "7332397238523740723",
        "url": ""
    },
    {
        "title": "雅诗兰黛集团二季度营收近43亿美元，多个品牌中国市场表现强劲",
        "docid": "7332465757085368872",
        "url": ""
    },
    {
        "title": "这才是春节最美穿搭，“短羽绒服＋牛仔裤”，时髦显瘦不易撞衫！",
        "docid": "7332043902872240651",
        "url": ""
    },
    {
        "title": "走向人生顶峰的成功人士标配腕表（万年历篇）",
        "docid": "7312716692462289462",
        "url": ""
    },
    {
        "title": "林允衣着清凉大秀香肩小蛮腰！肤白貌美大长腿性感撩人",
        "docid": "7332386000322511387",
        "url": ""
    },
    {
        "title": "57岁妈妈二十年如一日坚持盘发 女儿：很佩服妈妈的专一",
        "docid": "7309739259039072778",
        "url": ""
    },
    {
        "title": "春节必备穿搭：红毛衣+黑半裙穿出高级感，让你红红火火过大年！",
        "docid": "7331253484983697935",
        "url": ""
    },
    {
        "title": "为什么劝中老年男人：立春多穿休闲装混搭？减龄时尚还没油腻感！",
        "docid": "7332128952380654120",
        "url": ""
    },
    {
        "title": "50+女性，过年就该“这样”打扮，大方又减龄、照着穿真体面！",
        "docid": "7332117747637633573",
        "url": ""
    },
    {
        "title": "冬天保暖最重要！穿“长羽绒服”不会错，浅色温柔，深色显瘦",
        "docid": "7331736987961737737",
        "url": ""
    },
    {
        "title": "今年火了一种穿法：羽绒服+牛仔裤简约大方气质尽显！",
        "docid": "7332050606095368743",
        "url": ""
    },
    {
        "title": "40+女人正确的穿衣方式：“衣不穿花、裤不紧身”，舒适又高级！",
        "docid": "7331738989205914123",
        "url": ""
    },
    {
        "title": "建议中老年女人：羽绒服要买就买这4个耐看色，既显白减龄又高级",
        "docid": "7331685969362174527",
        "url": ""
    },
    {
        "title": "降温了，“这几种穿搭”赶紧安排起来，气质时髦还显瘦！",
        "docid": "7331630240886440482",
        "url": ""
    },
    {
        "title": "适合中年女人的气质穿搭，高级时尚耐看，照着搭配很显好气质",
        "docid": "7331732813320389147",
        "url": ""
    },
    {
        "title": "这几组茶色系羽绒服搭配，时尚又实用！怎么穿都好看",
        "docid": "7331734727713915432",
        "url": ""
    },
    {
        "title": "朴素之美：简单大方的时尚",
        "docid": "7332403970868494858",
        "url": ""
    },
    {
        "title": "这一次破例，欧米茄为了光明！",
        "docid": "7331922071515480585",
        "url": ""
    },
    {
        "title": "越闹越大！女子花129元理发回家崩溃大哭，网友评论区笑死了",
        "docid": "7332514834166186530",
        "url": ""
    },
    {
        "title": "时尚盛宴：40岁最美配色",
        "docid": "7331918037500887587",
        "url": ""
    },
    {
        "title": "男人到了60岁，穿大衣尽量别配衬衫、卫衣，换成这3种更气质减龄",
        "docid": "7331783280531898915",
        "url": ""
    },
    {
        "title": "新年穿红色毛衣更有氛围感！掌握这些搭配思路，让你时髦减龄显白",
        "docid": "7331698327002022441",
        "url": ""
    },
    {
        "title": "掌握同色系搭配，才发现穿衣高级这么简单，7套搭配赶快学起来",
        "docid": "7331268618049454627",
        "url": ""
    },
    {
        "title": "跟着Alexandra Lapp学穿搭：解锁法式风穿搭",
        "docid": "7331678150390366760",
        "url": ""
    },
    {
        "title": "40+一定要学她这样穿，优雅简约却不失精致，同龄的姐姐们学起来",
        "docid": "7331657450321510975",
        "url": ""
    },
    {
        "title": "跟着博主们学穿搭|西装领黑大衣一周搭",
        "docid": "7331635354753876532",
        "url": ""
    },
    {
        "title": "春节商业观察丨济南商场客流销量双增长，龙年限定、黄金珠宝升温",
        "docid": "7332390619161100800",
        "url": ""
    },
    {
        "title": "闹大了！烫发前后对比，进去是姑娘，出来是大妈，评论区太搞笑了",
        "docid": "7332391466125525542",
        "url": ""
    },
    {
        "title": "高定的奢侈品怎么戴？| 十六节龙凤玉挂饰",
        "docid": "7332526182384206363",
        "url": ""
    },
    {
        "title": "从奢侈品来看一旦拿到“艺术定义权”效用有多大？",
        "docid": "7332334449382294068",
        "url": ""
    },
    {
        "title": "宇联复古限量款，腕上“古董车”？",
        "docid": "7332419583057986059",
        "url": ""
    },
    {
        "title": "秀我中国｜挽面篇：30秒看挽面全过程",
        "docid": "7301584828049392162",
        "url": ""
    },
    {
        "title": "预计拍卖近百万？大陆唯一一套宇航员手提箱就在北京SKP！",
        "docid": "7332421847134388788",
        "url": ""
    },
    {
        "title": "劳力士日志“平替”？实拍天梭风度系列绿盘！",
        "docid": "7332420288829850163",
        "url": ""
    },
    {
        "title": "爱马仕将扩建香港利园门店 或重新押注香港市场",
        "docid": "7331914320768565794",
        "url": ""
    },
    {
        "title": "谁能顶得住",
        "docid": "7331492988679356978",
        "url": "https://www.ixigua.com/7331492988679356978"
    },
    {
        "title": "“首店”探店丨探寻新锐品牌，点燃无限可能！",
        "docid": "7332477830833685055",
        "url": ""
    },
    {
        "title": "公价三万元起，这个系列是名表中的新一代“钢王”！",
        "docid": "7332419556096557602",
        "url": ""
    },
    {
        "title": "长袖灯笼袖走红，看阿玛施时尚如何引领春夏穿搭潮流！",
        "docid": "7330461706432365110",
        "url": ""
    },
    {
        "title": "让更多钻石从柘城走向世界——中国柘城培育钻石交易中心盛大启幕",
        "docid": "7332281024086475273",
        "url": ""
    },
    {
        "title": "遇见丨中国“低碳”丝绸出圈法国时尚界——莨绸时尚设计师梁子",
        "docid": "7330500032585564699",
        "url": ""
    },
    {
        "title": "她真的能驾驭所有衣服颜色。",
        "docid": "7305010276083401252",
        "url": "https://www.ixigua.com/7305010276083401252"
    },
    {
        "title": "Vintage in Pills LAURA BIAGIOTTI Spring 2001",
        "docid": "7332017202276598283",
        "url": "https://www.ixigua.com/7332017202276598283"
    },
    {
        "title": "她明明微胖，却还能誉为“太古扛把子”。你肯定不知道为什么！",
        "docid": "7332054290678317620",
        "url": "https://www.ixigua.com/7332054290678317620"
    },
    {
        "title": "全球店王SKP落地武汉 街区独栋Lululemon，GUCCI，Tory Burch",
        "docid": "7322086223936553508",
        "url": "https://www.ixigua.com/7322086223936553508"
    },
    {
        "title": "模特秀",
        "docid": "7332005667102065163",
        "url": "https://www.ixigua.com/7332005667102065163"
    },
    {
        "title": "T台秀",
        "docid": "7331499268718625280",
        "url": "https://www.ixigua.com/7331499268718625280"
    },
    {
        "title": "腾龙添运 挑龙表，为什么不挑一款更适戴的？",
        "docid": "7315349842224579126",
        "url": ""
    },
    {
        "title": "为啥全球认可的国产羽绒服没人知道，说句大实话，不会营销做网红",
        "docid": "7321343227959870002",
        "url": "https://www.ixigua.com/7321343227959870002"
    },
    {
        "title": "卖不动的波司登，竟然还要涨到3000？羽绒服自由，为何难实现？",
        "docid": "7328337241389040143",
        "url": "https://www.ixigua.com/7328337241389040143"
    },
    {
        "title": "他发明了奇葩的护肤方式，每天往脸上涂抹酱油，坚持了10几年",
        "docid": "7327586695677903423",
        "url": "https://www.ixigua.com/7327586695677903423"
    },
    {
        "title": "Louis Vuitton路易威登全球代言人Jackson Wang（王嘉尔）。#时尚",
        "docid": "7322747682315993626",
        "url": "https://www.ixigua.com/7322747682315993626"
    },
    {
        "title": "土到极致就是潮，羽绒服买不起，那我就选军大衣#大学生 #军大衣",
        "docid": "7305729854974984730",
        "url": "https://www.ixigua.com/7305729854974984730"
    },
    {
        "title": "挑战同一张脸画欧美妆和中国妆！你更喜欢哪一个？#欧美妆",
        "docid": "7318340737160970787",
        "url": "https://www.ixigua.com/7318340737160970787"
    },
    {
        "title": "找天津大姨盘头，上街回头率200%",
        "docid": "7311960967292650019",
        "url": "https://www.ixigua.com/7311960967292650019"
    },
    {
        "title": "Enigma - Sadeness Part I 1990 迷 - 悲伤（第一部分）维密版",
        "docid": "7331871517707665983",
        "url": "https://www.ixigua.com/7331871517707665983"
    },
    {
        "title": "T台秀",
        "docid": "7332240141991445044",
        "url": "https://www.ixigua.com/7332240141991445044"
    },
    {
        "title": "气质、曲线、颜质尽有的黄金身材",
        "docid": "7299239251806421530",
        "url": "https://www.ixigua.com/7299239251806421530"
    },
    {
        "title": "55555555",
        "docid": "7332366038312747555",
        "url": "https://www.ixigua.com/7332366038312747555"
    },
    {
        "title": "模特秀",
        "docid": "7332275538188304950",
        "url": "https://www.ixigua.com/7332275538188304950"
    },
    {
        "title": "被赵雅芝的时尚惊艳到了，真美红色连衣裙，复古与时尚的完美结合",
        "docid": "7331374694605521443",
        "url": ""
    },
    {
        "title": "全球最高蓬松度等级，带你了解5款顶级品牌1000蓬羽绒服",
        "docid": "7303936980486717989",
        "url": "https://www.ixigua.com/7303936980486717989"
    },
    {
        "title": "上海水疗揭秘合集",
        "docid": "7331659566197211675",
        "url": "https://www.ixigua.com/7331659566197211675"
    },
    {
        "title": "致敬倪师，自制玉肌散使用三天后的感受",
        "docid": "7323169510972719655",
        "url": "https://www.ixigua.com/7323169510972719655"
    },
    {
        "title": "老公晒老婆的高跟鞋鞋子多，而且有些颜色几乎相近",
        "docid": "7306680832142344730",
        "url": "https://www.ixigua.com/7306680832142344730"
    },
    {
        "title": "99年花6万多买个劳力士，24年后二手还能值多少？劳力士保值吗？",
        "docid": "7302830155301552675",
        "url": "https://www.ixigua.com/7302830155301552675"
    },
    {
        "title": "49岁的峰不二子的保养方法",
        "docid": "7332490728083456551",
        "url": "https://www.ixigua.com/7332490728083456551"
    },
    {
        "title": "莎朗阿姨长靴搭配3D丝袜",
        "docid": "7332038280873476623",
        "url": "https://www.ixigua.com/7332038280873476623"
    },
    {
        "title": "美女带老妈来剪头发",
        "docid": "7332394845045096972",
        "url": "https://www.ixigua.com/7332394845045096972"
    },
    {
        "title": "深得喜欢 致命扼腕#鞠婧祎",
        "docid": "7332438883713581580",
        "url": "https://www.ixigua.com/7332438883713581580"
    },
    {
        "title": "妃佰丽战痘！给到你区别于市面上的感受！从根源解决问题！",
        "docid": "7332322207386993189",
        "url": "https://www.ixigua.com/7332322207386993189"
    },
    {
        "title": "新年穿衣没思路？“毛衣+半身裙”拯救你！温柔减龄、优雅显气质",
        "docid": "7331329737056567871",
        "url": ""
    },
    {
        "title": "闹大了！烫发前后对比，进去是姑娘，出来是大妈，评论区太搞笑了",
        "docid": "7332486743574905359",
        "url": ""
    },
    {
        "title": "\"奢华泳池别墅VLOG-2：模特연화展示迷人比基尼与成熟风格泳装",
        "docid": "7332592422666371619",
        "url": "https://www.ixigua.com/7332592422666371619"
    },
    {
        "title": "田曦薇女生女生都好喜欢这一款，天使面孔魔鬼身材",
        "docid": "7310759879642350099",
        "url": "https://www.ixigua.com/7310759879642350099"
    },
    {
        "title": "三上开道！谁与争锋！#东京时装秀 #东京女孩 #走秀现场",
        "docid": "7303903228691743270",
        "url": "https://www.ixigua.com/7303903228691743270"
    },
    {
        "title": "OL套装 展示 👗",
        "docid": "7332347271050166784",
        "url": "https://www.ixigua.com/7332347271050166784"
    },
    {
        "title": "Luli Fama 2022 迈阿密游泳周 比基尼泳装秀 4K",
        "docid": "7332576617341911579",
        "url": "https://www.ixigua.com/7332576617341911579"
    },
    {
        "title": "女明星走红毯有多敢穿，杨幂大露事业线，周冬雨放飞自我",
        "docid": "7332041550198735371",
        "url": "https://www.ixigua.com/7332041550198735371"
    },
    {
        "title": "百年钻石骗局终结在了2018年，背后高手竟是中国人",
        "docid": "7324878344774910474",
        "url": "https://www.ixigua.com/7324878344774910474"
    },
    {
        "title": "笑翻天！李沁火辣超短裙大秀好身材，颜值抗打成焦点",
        "docid": "7332622140048507432",
        "url": ""
    },
    {
        "title": "辛芷蕾真的好会穿搭，她的每一套衣服拎出来都是时尚单品",
        "docid": "7332506955540021771",
        "url": ""
    },
    {
        "title": "红极一时的皮草为何“跌下神坛”？看完这几个个缺点，恍然大悟",
        "docid": "7332395791976251930",
        "url": ""
    },
    {
        "title": "43岁柳岩身着粉红相间长裙喜庆又美丽",
        "docid": "7332467687626965543",
        "url": ""
    },
    {
        "title": "不得不说娇兰真的很会选代言人，张予曦就是我心目中的娇兰",
        "docid": "7332502757729288745",
        "url": ""
    },
    {
        "title": "松弛的那种浓浓的书卷气让人觉得很治愈，简约廓形且不易过时！",
        "docid": "7332488126755160588",
        "url": ""
    },
    {
        "title": "A维密秀当中你最喜欢的是哪一个？看到最后你会分享给谁",
        "docid": "7302437344492945929",
        "url": "https://www.ixigua.com/7302437344492945929"
    },
    {
        "title": "笑容逐渐消失！男子跟老婆剪刘海，老婆表情从期待到生无可恋",
        "docid": "7308188461826212402",
        "url": "https://www.ixigua.com/7308188461826212402"
    },
    {
        "title": "又丑又贵？国潮李宁从巅峰到衰落真相",
        "docid": "7328309139724370444",
        "url": "https://www.ixigua.com/7328309139724370444"
    },
    {
        "title": "模特秀",
        "docid": "7332275952287744523",
        "url": "https://www.ixigua.com/7332275952287744523"
    },
    {
        "title": "ASMR 越南蓝色连衣裙女理发师的全套服务",
        "docid": "7330922427742224937",
        "url": "https://www.ixigua.com/7330922427742224937"
    },
    {
        "title": "TVB女神陈自瑶一袭黑色吊带蕾丝裙妖娆妩媚，高开叉秀性感美腿",
        "docid": "7331691981272105509",
        "url": ""
    },
    {
        "title": "脸上有这3种“特征”的女人，就剪掉长发吧！短发会更时尚显年轻",
        "docid": "7307819278168949285",
        "url": ""
    },
    {
        "title": "王珞丹再穿12年前的衣服！半臂高开叉盘龙裙好惊艳！",
        "docid": "7332152858328695306",
        "url": ""
    },
    {
        "title": "王玉雯着粉红裙摆，令人无法抗拒，星光璀璨的鬼马精灵，未来可期",
        "docid": "7331806054554026534",
        "url": ""
    },
    {
        "title": "杨幂可以算是新中式的大户了，不过她穿确实很好看！",
        "docid": "7331712037162402358",
        "url": ""
    },
    {
        "title": "殷桃暮色大片，十分清雅之姿，倩影摇曳",
        "docid": "7331717585526800937",
        "url": ""
    },
    {
        "title": "唐嫣参加春晚第四次联排！穿17000西服挎35500包，真是高级又奢侈",
        "docid": "7331955261298541093",
        "url": ""
    },
    {
        "title": "南方的冬天，满大街都是“丝袜+长靴”，时髦显腿长，回头率超高",
        "docid": "7331992714239738409",
        "url": ""
    },
    {
        "title": "几乎全是假货，利润高达650%，为何消费者还争相购买",
        "docid": "7307582724196581924",
        "url": ""
    },
    {
        "title": "今年流行一种发型叫“锁骨发”，洋气减龄显脸小，效果堪比整容",
        "docid": "7332049584552493619",
        "url": ""
    },
    {
        "title": "你永远可以相信白百何的眼光‼",
        "docid": "7321354976167756298",
        "url": ""
    },
    {
        "title": "满头白发，体脂18，我60岁时的理想生活模板，都找好了！",
        "docid": "7326828859289190966",
        "url": ""
    },
    {
        "title": "这是我见过最会打扮的夫妻，老公高大帅气，老婆时髦又洋气",
        "docid": "7313561434024509961",
        "url": ""
    },
    {
        "title": "上了年纪后，别再死磕少女感了，像57岁李颖这样从容老去，真美！",
        "docid": "7331691469122322998",
        "url": ""
    },
    {
        "title": "柳岩穿苗族风抹胸卡点劲舞，上围曲线傲人，随节拍律动勾魂夺魄。",
        "docid": "7332382591389401635",
        "url": ""
    },
    {
        "title": "佟丽娅似乎穿个胸贴也比这个效果好太多吧？",
        "docid": "7331724183141155391",
        "url": ""
    },
    {
        "title": "没想到，优衣库还可以这样玩！",
        "docid": "7308764189361930786",
        "url": ""
    },
    {
        "title": "36岁刘诗诗和大17岁吴奇隆走机场，又瘦又会穿，把他熬成微胖大叔",
        "docid": "7331307027199066643",
        "url": ""
    },
    {
        "title": "那些黄金不建议买？对照看看，你买对了吗？",
        "docid": "7332516438466495030",
        "url": ""
    },
    {
        "title": "婚前的凯特王妃，就长相身材而言，她已经算是很出众的了。",
        "docid": "7309083213027901992",
        "url": ""
    },
    {
        "title": "“笑到胃疼”的拼多多买家秀，店主直呼钱不要了，你删了评论就好",
        "docid": "7316792539053294091",
        "url": ""
    },
    {
        "title": "宋轶一出场就是铁石心肠，也要把你的心给融化了，这可不是吹的！",
        "docid": "7331713669611045395",
        "url": ""
    },
    {
        "title": "要烫发的看过来！",
        "docid": "7309363409521459722",
        "url": ""
    },
    {
        "title": "合适的tony改行有多让人崩溃！网友分享自身经历，引起无数共鸣！",
        "docid": "7329135782948520489",
        "url": ""
    },
    {
        "title": "除了满大街的“北面”，还能买什么羽绒服？",
        "docid": "7305009855524422195",
        "url": ""
    },
    {
        "title": "55岁黄绮珊亲身示范：不烫老年头、不穿老年装，到老都没大妈感",
        "docid": "7303519266320433701",
        "url": ""
    },
    {
        "title": "71岁王石携小30岁娇妻游日本，田朴珺穿格纹衫像少女，两人像父女",
        "docid": "7331935940526604811",
        "url": ""
    },
    {
        "title": "36岁名模刘雯终于拥有了自己的新家，果然当模特的人身材管理好好",
        "docid": "7331715318584459839",
        "url": ""
    },
    {
        "title": "张韶涵的百万造型师，真的没有瓶颈期，这钱花的太值了",
        "docid": "7308943951082553875",
        "url": ""
    },
    {
        "title": "好惨的对比！这才是女明星真实的“腿型”……",
        "docid": "7299695818259481088",
        "url": ""
    },
    {
        "title": "55岁许晴带火了一种减龄穿搭：衬衫+阔腿裤+松糕鞋，时髦又洋气",
        "docid": "7332067563708564019",
        "url": ""
    },
    {
        "title": "赵丽颖新年“换头”彻底惊艳到大家！新的公主切也太美了，好美啊",
        "docid": "7331963523637101065",
        "url": ""
    },
    {
        "title": "陈都灵夜游随拍，手握仙女棒轻盈灵动",
        "docid": "7332013594021790247",
        "url": ""
    },
    {
        "title": "不建议中年男人穿的3条裤子，看着时髦，其实俗气又油腻，很掉价",
        "docid": "7302348234486743567",
        "url": ""
    },
    {
        "title": "小个子女生的穿衣方式更漂亮",
        "docid": "7326340649005892159",
        "url": ""
    },
    {
        "title": "贵州36岁女子用树叶一年赚900万，一片可卖7000元，远销美国日本",
        "docid": "7329718257483596299",
        "url": ""
    },
    {
        "title": "中老年女人：为什么劝你们多穿艳丽色、少披发？看朱玲玲就明白了",
        "docid": "7326820326191530550",
        "url": ""
    },
    {
        "title": "看了咏梅、董卿的打扮，我悟了：真正优雅的女人，不穿金戴银也美",
        "docid": "7299649541844959807",
        "url": ""
    },
    {
        "title": "为什么我劝中老年女人少穿“黑色”？看了这4组对比就懂了",
        "docid": "7312838145891090981",
        "url": ""
    },
    {
        "title": "春晚第四次联排！唐嫣穿17000西服挎35500包，彰显高级又奢侈",
        "docid": "7331980881151885864",
        "url": ""
    },
    {
        "title": "棕色已经过时了！2024年“流行色”在这，照着穿紧跟潮流，美翻了",
        "docid": "7332098281142878758",
        "url": ""
    },
    {
        "title": "“鲨鱼裤”穿出门不显尴尬？要懂得“收腰、遮胯”，显腿长又洋气",
        "docid": "7332105654209085989",
        "url": ""
    },
    {
        "title": "邓文迪又把野心穿在身上！紫色西装+烟管裤像茄子，却美出国际范",
        "docid": "7331926368634470948",
        "url": ""
    },
    {
        "title": "杨蓉虽然不常见，但是一出场就是女神级别的，十分美艳",
        "docid": "7331714273128809014",
        "url": ""
    },
    {
        "title": "“老娘最美，但老娘不在乎”大骨架圆身分析 ​​​",
        "docid": "7303364255368200730",
        "url": ""
    },
    {
        "title": "郑恺苗苗合体拍大片，真夫妻就是不一样，眼神拉丝了",
        "docid": "7332470629746098729",
        "url": ""
    },
    {
        "title": "“血洗”国人钱包，当年狂揽17.3亿的羽绒服，年轻人已不吃这一套",
        "docid": "7308630750294196772",
        "url": ""
    },
    {
        "title": "这样的穿搭匹配公式，你认同吗？我挺认同的，我自己就是这样",
        "docid": "7317316155948073499",
        "url": ""
    },
    {
        "title": "夏琳王妃：比戴安娜通透多了，丈夫风流她不离，买买买等着做太后",
        "docid": "7307593216407159305",
        "url": ""
    },
    {
        "title": "唐嫣带火了一种时髦穿搭：长羽绒服+毛衣+牛仔裤，高级洋气又保暖",
        "docid": "7331683732492960265",
        "url": ""
    },
    {
        "title": "24格莱美，超乎想象！格莱美最佳着装，泰勒与麦莉引爆视觉盛宴",
        "docid": "7332135764983595520",
        "url": ""
    },
    {
        "title": "刘浩存的这几张图看到我心都要融化，太可爱了！",
        "docid": "7331710787356262931",
        "url": ""
    },
    {
        "title": "被“泰国名媛”英拉惊艳到了！裙不上膝，衣不紧身，美得优雅得体",
        "docid": "7320065713312465418",
        "url": ""
    },
    {
        "title": "五官越来越耐看的九个技巧",
        "docid": "7315721329880367670",
        "url": ""
    },
    {
        "title": "“网红妆容”带毁了多少普通女孩？不仅显脏没气质，还容易伤皮肤",
        "docid": "7325633028318233142",
        "url": ""
    },
    {
        "title": "曾被吹上天，如今却“沦为笑柄”的4个羽绒服，看谁还在乱跟风？",
        "docid": "7330088254588420646",
        "url": ""
    },
    {
        "title": "笑不活了！回村烤火把新做的“美甲”烤了，评论区一问一个不吱声",
        "docid": "7331179393340998170",
        "url": ""
    },
    {
        "title": "能背一辈子的大牌包！",
        "docid": "7306119916720112166",
        "url": ""
    },
    {
        "title": "王思聪1.88万元顶级奢华发型引热议：网友：预约几个月才排上",
        "docid": "7325990934121873920",
        "url": ""
    },
    {
        "title": "去了杭州才发现！满街都是“羽绒服 + 裙子”穿搭，既洋气又保暖",
        "docid": "7332074226062557732",
        "url": ""
    },
    {
        "title": "李沁的剧组照太美了，感觉奶呼呼的非常可爱",
        "docid": "7332510549877883446",
        "url": ""
    },
    {
        "title": "被14岁王诗龄惊艳了，初恋脸拍写真不输女明星，一双漫画腿太抢镜",
        "docid": "7332037087183553050",
        "url": ""
    },
    {
        "title": "各种脸型的化妆技巧",
        "docid": "7331217543120241152",
        "url": ""
    },
    {
        "title": "邢菲 身姿曼妙 婀娜动人",
        "docid": "7331965052444623401",
        "url": ""
    },
    {
        "title": "去了杭州才发现，今年最火的打扮是：上半身奶奶衣、下半身奶奶裙",
        "docid": "7331731082759127579",
        "url": ""
    },
    {
        "title": "老得慢的6个好习惯，让你保持年轻漂亮！",
        "docid": "7320210385414636059",
        "url": ""
    },
    {
        "title": "冲锋衣，我把“始祖鸟”换成“凯乐石”后，来说说感受，太真实了",
        "docid": "7331915056869065253",
        "url": ""
    },
    {
        "title": "毛晓彤央视经典之夜红裙卷发演绎港台风情",
        "docid": "7332469127179239990",
        "url": ""
    },
    {
        "title": "去掉土里土气变高级的“微习惯”！公主请收藏",
        "docid": "7318745061251613193",
        "url": ""
    },
    {
        "title": "看北京退休奶奶的打扮才发现：发不染、裙及踝、裤穿宽，优雅得体",
        "docid": "7331967923617726986",
        "url": ""
    },
    {
        "title": "真正见过世面的中年女人，穿靴子都不会高于膝盖，看袁泉就知道",
        "docid": "7310415524834460170",
        "url": ""
    },
    {
        "title": "裤衩套头，花洒软管做头饰，小时候爱看的古装剧，妆造真的很离谱",
        "docid": "7315003285697020426",
        "url": ""
    },
    {
        "title": "49岁的贾静雯为台版ELLE杂志拍摄了一组大片",
        "docid": "7332495911509082643",
        "url": ""
    },
    {
        "title": "女人老了，穿大衣尽量少配打底裤、运动鞋，这样穿更气质显高",
        "docid": "7332470837276443186",
        "url": ""
    },
    {
        "title": "入冬了才发现：洞洞鞋过时了！现在流行“勃肯鞋”，保暖又时尚",
        "docid": "7332090383788622363",
        "url": ""
    },
    {
        "title": "87《红楼梦》首饰有多美？连杨树云随手做的，都成黛玉的生命之光",
        "docid": "7321998281930801664",
        "url": ""
    },
    {
        "title": "凯特王妃终于不穿连衣裙！穿西装+阔腿裤像“红枣”，气质胜超模",
        "docid": "7331920519580746279",
        "url": ""
    },
    {
        "title": "被62岁“萍姨”圈粉了，不穿老年装也不爱戴帽子，却美得优雅得体",
        "docid": "7310097724849095220",
        "url": ""
    },
    {
        "title": "最受欢迎的5个手表品牌，各自的款式哪些必买哪些避坑？",
        "docid": "7320586190556922368",
        "url": ""
    },
    {
        "title": "伊能静现身机场，黑色开叉裙搭配黑色西装，优雅又显气场！",
        "docid": "7332323372396970506",
        "url": ""
    },
    {
        "title": "非洲穷人贷款20万买名牌，饿得吃树叶，也要买4万的鞋子出门显摆",
        "docid": "7315352168729444914",
        "url": ""
    },
    {
        "title": "“毛衣+裙子”春天就这么穿，优雅又知性，让你遇见最美的自己！",
        "docid": "7332084041355624979",
        "url": ""
    },
    {
        "title": "配色分享，世界上最高级的颜色",
        "docid": "7323829698168914469",
        "url": ""
    },
    {
        "title": "秦海璐是真的有好多只爱马仕啊！",
        "docid": "7327919819461034508",
        "url": ""
    },
    {
        "title": "年轻人为啥爱去中老年理发店？看完网友分享狠狠共情！顶不住啊",
        "docid": "7331951743778963987",
        "url": ""
    },
    {
        "title": "又被巩俐惊艳到！穿一袭挂脖连衣裙+羊毛卷发型，58岁美出新高度",
        "docid": "7331946826418946572",
        "url": ""
    },
    {
        "title": "谢霆锋妈妈才是真“不老传说”！穿一身粉染红发时髦又减龄",
        "docid": "7330480192668205603",
        "url": ""
    },
    {
        "title": "看了马伊琍的穿搭才明白，有品位的女人不穿金戴银，也高级的美",
        "docid": "7331616748829016610",
        "url": ""
    },
    {
        "title": "刘诗诗简直竹韵美人啊！这月刊封面大片，是别人永远都学不来的美",
        "docid": "7331718013303538195",
        "url": ""
    },
    {
        "title": "这才是最适合4、50岁女人的发型：酒窝发！瞧宋慧乔这样有多美",
        "docid": "7304469811135136283",
        "url": ""
    },
    {
        "title": "看了66岁张瑜的打扮，我发现：中老年女人反油腻比扮嫩更显气质",
        "docid": "7332482919631847986",
        "url": ""
    },
    {
        "title": "87岁的向梅为啥比20岁时更美？越活越漂亮的女人，都做到了这5点",
        "docid": "7329327876858331675",
        "url": ""
    },
    {
        "title": "61岁港圈“冻龄富婆”顾纪筠：比起爱马仕，这张脸才是“奢侈品”",
        "docid": "7299359555853943332",
        "url": ""
    },
    {
        "title": "跟着博主学穿搭｜10组高级同色系穿搭，出街回头率超高",
        "docid": "7311316714019717632",
        "url": ""
    },
    {
        "title": "刘诗诗的穿搭，说实话真的很适合普通人模仿，既保暖好看又时髦",
        "docid": "7331720387338174991",
        "url": ""
    },
    {
        "title": "戒掉这6个烧钱习惯，一年多存5万",
        "docid": "7313574853796299274",
        "url": ""
    },
    {
        "title": "七种打领带的方法，有备无患！",
        "docid": "7327285707402412580",
        "url": ""
    },
    {
        "title": "衣服再多，不会穿也是白搭！看这位博主的有效VS无效穿搭就明白了",
        "docid": "7300508683815895586",
        "url": ""
    },
    {
        "title": "内娱想要用她替代Anglebaby，才是真的审美降级吧？",
        "docid": "7327103369405809206",
        "url": ""
    },
    {
        "title": "当董洁遇上景甜，相差8岁的区别在气质，风度上被对比的淋漓尽致",
        "docid": "7315449242984694283",
        "url": ""
    },
    {
        "title": "60岁何赛飞换了羊毛卷发型年轻20岁，穿印花裙，美得像换了个人",
        "docid": "7331906010581320211",
        "url": ""
    },
    {
        "title": "爱马仕柜哥月入6万，LV柜姐3万？内行人：夸张！入职条件更夸张",
        "docid": "7301276434906710543",
        "url": ""
    },
    {
        "title": "高鼻梁已经失宠了！现在的“低山根”反而更吃香，减龄又有氛围感",
        "docid": "7304182825744450085",
        "url": ""
    },
    {
        "title": "被刘涛的街头穿搭惊艳了，出街这样穿美翻了，不但保暖还时髦",
        "docid": "7331642773911274019",
        "url": ""
    },
    {
        "title": "最美主持人冯琳",
        "docid": "7331688315756053002",
        "url": ""
    },
    {
        "title": "男性50岁之后，眉毛突然变长，说明了什么？多数人或许还蒙在鼓里",
        "docid": "7300081957630099983",
        "url": ""
    },
    {
        "title": "男发别乱剪，最帅还是两侧铲短，就连白发大叔剪完也很有型",
        "docid": "7324872736239813160",
        "url": ""
    },
    {
        "title": "虞书欣网球风写真，活力满满啊！在穿搭这方面真的好会啊",
        "docid": "7332505509356241427",
        "url": ""
    },
    {
        "title": "女人老了，真是“穿搭”和“体态”决定了一切，看55岁江珊就知道",
        "docid": "7332075571264422451",
        "url": ""
    },
    {
        "title": "尖嘴猴腮别硬吹神颜，7位女星告诉你，古典美人从来都是温婉端庄",
        "docid": "7301973415068500516",
        "url": ""
    },
    {
        "title": "61岁何超琼早就该穿短裙了，与刘嘉玲、林青霞同框，漫画腿赢麻了",
        "docid": "7332394310891586082",
        "url": ""
    },
    {
        "title": "为什么广东人都不爱化妆打扮，网友的搞笑经历说明了一切",
        "docid": "7306526483441353250",
        "url": ""
    },
    {
        "title": "刘亦菲最“性感”的一次，一袭镂空礼服又纯又欲，尽显妩媚韵味",
        "docid": "7332108542868111935",
        "url": ""
    },
    {
        "title": "这样看起来杨幂更适合暗黑系的裙子，蓝色的在她身上过于小清新了",
        "docid": "7332507584752386623",
        "url": ""
    },
    {
        "title": "45岁周杰伦对比42岁林俊杰，骨相老去和皮相老去的差距一目了然",
        "docid": "7326490734561952297",
        "url": ""
    },
    {
        "title": "田曦薇的瘦身秘诀！一年间，她如何从“胖妹”变身“曲线女神”？",
        "docid": "7313732963702555162",
        "url": ""
    },
    {
        "title": "为什么盘活虞书欣美貌度的爆改妆，却能把金靖毁了？",
        "docid": "7332500754089099786",
        "url": ""
    },
    {
        "title": "孟晚舟是我见过最得体的名媛：裙不上膝，大衣不配丝袜，优雅贵气",
        "docid": "7303725232794288680",
        "url": ""
    },
    {
        "title": "长的普通算什么，“精致土”才可怕！妆发很精致，看着却更土了",
        "docid": "7331769441207763491",
        "url": ""
    },
    {
        "title": "难怪现在的剧很少簪花戴冠了，原来是小脸撑不起这泼天的富贵",
        "docid": "7332505212940468763",
        "url": ""
    },
    {
        "title": "羽绒服，把“波司登”换成“鸭鸭”后，有些话不吐不快，太真实",
        "docid": "7332397445177655845",
        "url": ""
    },
    {
        "title": "杨紫穿马面裙手提毛笔，化国风新年妆大气明艳",
        "docid": "7331933498477265471",
        "url": ""
    },
    {
        "title": "曾经最贵的裙子，只穿了两次，早已成了摆设",
        "docid": "7329485755482079782",
        "url": ""
    },
    {
        "title": "方媛的一副耳钉都要十几万，感觉还挺适合她的不愧是天王嫂啊！",
        "docid": "7332506218239754788",
        "url": ""
    },
    {
        "title": "没想到宋佳的私服这么酷，一直以为她是淑女范呢",
        "docid": "7332663164594700811",
        "url": ""
    },
    {
        "title": "为什么有些中老年男人，明明穿得很贵，却依旧土气？原因在这3点",
        "docid": "7302635222212854283",
        "url": ""
    },
    {
        "title": "一般人养不起的5位女星，个个壕无人性花钱如流水，来看看都有谁",
        "docid": "7309423538434261555",
        "url": ""
    },
    {
        "title": "上海这一夜，被童瑶的马面裙惊艳，中国美人最适合果然还是中式风",
        "docid": "7332694136090493466",
        "url": ""
    },
    {
        "title": "中年男人：鞋子尽量少穿“皮鞋”和“帆布鞋”，看着油腻还很廉价",
        "docid": "7332484568513184282",
        "url": ""
    },
    {
        "title": "风靡全国的“的确良”消失了？其实是换了名字，如今很多人还在穿",
        "docid": "7332368030502011411",
        "url": ""
    },
    {
        "title": "被“不老女神”杨钰莹的时尚惊艳到了：黑色T恤+阔腿裤，时髦好看",
        "docid": "7332146482537202202",
        "url": ""
    },
    {
        "title": "看了上海妈妈的打扮，我悟了：衣短裤宽、头发烫卷，会更优雅贵气",
        "docid": "7332478146173927962",
        "url": ""
    },
    {
        "title": "被61岁丛珊惊艳到了！不染白发、穿衣极简却高级，到老都没大妈感",
        "docid": "7322700976627171874",
        "url": ""
    },
    {
        "title": "看到70岁的胡因梦才发现：原来“齐耳发”这么洋气，年轻十岁不止",
        "docid": "7332474139908899365",
        "url": ""
    },
    {
        "title": "不是劳力士水鬼玩不起，而是日志更具性价比，读懂日志现状",
        "docid": "7320452928518636058",
        "url": ""
    },
    {
        "title": "去了日本才发现：东京银座都是“大衣+裙子”穿搭，洋气又保暖！",
        "docid": "7332485625947767331",
        "url": ""
    },
    {
        "title": "终于知道这些鞋该怎么搭配了！",
        "docid": "7320771951784821263",
        "url": ""
    },
    {
        "title": "脸上这3处长“痣”的女人，千万别去点掉！看着气质高级还精致",
        "docid": "7302732254479155763",
        "url": ""
    },
    {
        "title": "一眼精致的女生五个特征",
        "docid": "7299962933566603787",
        "url": ""
    },
    {
        "title": "为什么朗格在表圈地位越来越高？4点原因让朗格充满竞争力",
        "docid": "7331763458222031398",
        "url": ""
    },
    {
        "title": "去了上海、成都才发现：运动鞋不流行了！满大街都是“矮跟鞋”",
        "docid": "7312071265886454306",
        "url": ""
    },
    {
        "title": "又是“捂胸”背了锅？热巴的扭捏，让娜扎、倪妮白捡了便宜",
        "docid": "7304975114713137664",
        "url": ""
    },
    {
        "title": "注意！大批多伦多华人入境遭严查：看到爱马仕眼睛都放光",
        "docid": "7332613968428679680",
        "url": ""
    },
    {
        "title": "建议40岁女人：裤子穿宽、鞋不带跟、色不过三，美得优雅又得体",
        "docid": "7332094731704566326",
        "url": ""
    },
    {
        "title": "明星穿搭示范：奥利维亚·罗德里戈格莱美颁奖典礼造型解析",
        "docid": "7332109809602380322",
        "url": ""
    },
    {
        "title": "奔五奔六的女人，尽量少戴手镯、项链，换成这3种配饰更显气质",
        "docid": "7317544174201389608",
        "url": ""
    },
    {
        "title": "钟丽缇小女儿庆14岁生日，考拉打扮成熟，美得让人挪不开眼睛",
        "docid": "7332661018420036132",
        "url": ""
    },
    {
        "title": "英国超模劳拉·穆伦，节日派对时尚摄影",
        "docid": "7302746583492641280",
        "url": ""
    },
    {
        "title": "你的身高适合穿什么长度的羽绒服？ ​​​",
        "docid": "7315606169412747802",
        "url": ""
    },
    {
        "title": "这是我见过最反油腻的60岁女人：衣不穿花、发不过肩，美得真优雅",
        "docid": "7328691884044829222",
        "url": ""
    },
    {
        "title": "送走美拉德迎来格雷系，时尚与精致并存",
        "docid": "7325396533137326601",
        "url": ""
    },
    {
        "title": "卡地亚，蓝气球戴的人太多？公价5万5，可以入手“白气球”",
        "docid": "7301248373838119464",
        "url": ""
    },
    {
        "title": "50岁左右的女人，靴子尽量不要穿马丁靴和无痕靴，其实这些更优雅",
        "docid": "7312346348593578522",
        "url": ""
    },
    {
        "title": "不同高跟鞋👠的名称及分类",
        "docid": "7312001800293384731",
        "url": ""
    },
    {
        "title": "见过大世面的中年女人，穿裙子都不会高于膝盖，看李富真就知道了",
        "docid": "7302801532737815040",
        "url": ""
    },
    {
        "title": "被杭州街拍惊艳到了！穿衣不紧身、鞋子不带跟，却个个高级时髦",
        "docid": "7332716152508088832",
        "url": ""
    },
    {
        "title": "上海这一夜，被童瑶的马面裙惊艳，中国美人最适合果然还是中式风",
        "docid": "7332719946679878144",
        "url": ""
    },
    {
        "title": "李一桐的每一件外套都好会选呀！每一套都是为她量身定做一般！",
        "docid": "7332508326838780452",
        "url": ""
    },
    {
        "title": "赵今麦的这组照片造型，感觉不太适合她这个年龄段，我真的很难评",
        "docid": "7332501279505433142",
        "url": ""
    },
    {
        "title": "虞书欣闪耀米兰时装周，黑色纱裙诠释现代浪漫！",
        "docid": "7332497471362400780",
        "url": ""
    },
    {
        "title": "“精致穷：月薪5千买5万的香奈儿”，无数年轻女孩陷入消费陷阱",
        "docid": "7330202729791095346",
        "url": ""
    },
    {
        "title": "这是大S最意气风发最红的时候吧？每一套造型服装都好美呀",
        "docid": "7332509811197641270",
        "url": ""
    },
    {
        "title": "700元~1500元男士通勤羽绒服推荐，让那些高价货呆着去吧！",
        "docid": "7332386907441807906",
        "url": ""
    },
    {
        "title": "染发致癌是真的吗？哈佛大学调查11万人长达36年，结论终于出来了",
        "docid": "7318321912873583115",
        "url": ""
    },
    {
        "title": "立冬后才发现：不兴毛呢大衣了！满街都在穿“泰迪大衣”，真洋气",
        "docid": "7332126999438377491",
        "url": ""
    },
    {
        "title": "看似妆造毁剧，实则能力不匹配，这5位“顶流”真该醒醒了！",
        "docid": "7332500423011762698",
        "url": ""
    },
    {
        "title": "别说过年不知道怎么打扮了！“打底衫+阔腿裤”时髦洋气，真显高",
        "docid": "7332710810936656424",
        "url": ""
    },
    {
        "title": "“杨幂同款我穿像老妈子”，多少打工人被这件新中式棉服PUA了？",
        "docid": "7332107343737618978",
        "url": ""
    },
    {
        "title": "去了上海才发现：满大街都在穿“无痕靴”，洋气又显高，太美了",
        "docid": "7332697072648716854",
        "url": ""
    },
    {
        "title": "一直觉得郭晶晶长得很普通，直到她与章子怡同框，才发现她有多美",
        "docid": "7332720753139499555",
        "url": ""
    },
    {
        "title": "看了唐嫣的穿搭，才发现高领衫+黑色绒面外套真美，既洋气又时髦",
        "docid": "7332673388240208424",
        "url": ""
    },
    {
        "title": "中年女人，过年回家尽量放弃黑裤子和紧身裤，其实这些更时髦减龄",
        "docid": "7331692064020627987",
        "url": ""
    },
    {
        "title": "\"中年女人变优雅的“秘密”：剪短发，不穿老年服装，快学一下！\"",
        "docid": "7322224309148320307",
        "url": ""
    },
    {
        "title": "看了马龙的穿搭才发现，满街都是黑T恤黑短裤，却个个舒适又好看",
        "docid": "7331994840379179572",
        "url": ""
    },
    {
        "title": "性感女神 秦岚：青山灼灼 星光杳杳 秋雨渐渐 晚风慢慢.",
        "docid": "7332319152629285376",
        "url": ""
    },
    {
        "title": "你真的会穿羽绒服吗",
        "docid": "7327627043708224051",
        "url": ""
    },
    {
        "title": "普通女孩的穿搭灵感，简简单单就很美！",
        "docid": "7325246397077881359",
        "url": ""
    },
    {
        "title": "难怪不是所有人穿大衣都好看的 ​​​",
        "docid": "7326029634334835209",
        "url": ""
    },
    {
        "title": "被“51岁白发阿姨”惊艳了！妆发精简、穿衣简约，却优雅又高级",
        "docid": "7332692266433266187",
        "url": ""
    },
    {
        "title": "裤子要精不要多，准备好这“4条”就够了，配大衣、羽绒服都好看",
        "docid": "7332104250971734563",
        "url": ""
    },
    {
        "title": "为什么过年就劝你穿“红色”，看这个博主的搭配就知道了，太时髦",
        "docid": "7332478942621811211",
        "url": ""
    },
    {
        "title": "今天整理了6套穿搭公式供大家参考",
        "docid": "7302986720076546586",
        "url": ""
    },
    {
        "title": "新加坡这晚：宋轶水蛇腰惊艳，张雨绮身材抢镜，陈小纭咋长这样了",
        "docid": "7332702678923117093",
        "url": ""
    },
    {
        "title": "上海女生：大冬天玩“下身失踪”，不怕冷炫时尚！",
        "docid": "7332729403590001206",
        "url": ""
    },
    {
        "title": "黄晓明新女友曝光，包包比Baby还壕！",
        "docid": "7332717495293510154",
        "url": ""
    },
    {
        "title": "答应我，男人别再随便“塞裤腰”！瞧上海爷爷这样穿时尚又洋气",
        "docid": "7331639003071906367",
        "url": ""
    },
    {
        "title": "棕色已经过时了！2024年“流行色”在这，照着穿紧跟潮流，美翻了",
        "docid": "7331196572891398671",
        "url": ""
    },
    {
        "title": "短羽绒+阔腿裤真的太美了！遮肉显瘦又修饰身材，尽显欧美风特色",
        "docid": "7300379281010475555",
        "url": ""
    },
    {
        "title": "今年“大毛领”棉服过时了！上海女生都在穿这4件，时尚又洋气",
        "docid": "7332066465513734695",
        "url": ""
    },
    {
        "title": "男人不管差不差钱，50岁以后建议“不染发、不戴金”，才更有格调",
        "docid": "7300107086057308691",
        "url": ""
    },
    {
        "title": "施伯雄向吴千语表真心 豪门也爱DR钻戒",
        "docid": "7332021233192878604",
        "url": ""
    },
    {
        "title": "穿搭分享：优雅的法式穿搭",
        "docid": "7299966024961589786",
        "url": ""
    },
    {
        "title": "看了85岁吴彦姝和65岁肖雄，才发现：女人自然老去的样子有多美",
        "docid": "7306864800498565632",
        "url": ""
    },
    {
        "title": "林志颖耀眼帅气，谢娜身形瘦到令人惊艳，白鹿赢得一夜注目",
        "docid": "7332017145939411508",
        "url": ""
    },
    {
        "title": "指甲上有竖纹，就是不健康？错！这几个真相，一定要知道！",
        "docid": "7308912867401613863",
        "url": ""
    },
    {
        "title": "中老年女人：鞋子尽量少穿“高跟鞋”和“帆布鞋”，看着油腻廉价",
        "docid": "7331749566875910706",
        "url": ""
    },
    {
        "title": "多好的一个演员，却让这件衣服给整尴尬了！有认识的吗？哈哈哈",
        "docid": "7330512673806991872",
        "url": ""
    },
    {
        "title": "张萌再也不似神话时期妖娆了，更添了几分韵味",
        "docid": "7332696606854234643",
        "url": ""
    },
    {
        "title": "51岁的许晴越老越喜欢暴露，这样合适吗?",
        "docid": "7331941343423562259",
        "url": ""
    },
    {
        "title": "格莱美这一夜，霉霉变大号水蜜桃前凸后翘，麦莉真空上阵放飞自我",
        "docid": "7332515178505830964",
        "url": ""
    },
    {
        "title": "被170高的车晓惊艳！41岁穿白色连衣裙配短发像阔太，锁骨杀好绝",
        "docid": "7332108447913673255",
        "url": ""
    },
    {
        "title": "钟楚曦衣服肚子上的漏洞是为了看腹肌了吗？",
        "docid": "7331725205645427211",
        "url": ""
    },
    {
        "title": "68岁梁丹妮扮嫩翻车！穿粉色娃娃裙走红毯，和小8岁老公像母子",
        "docid": "7332721636090724899",
        "url": ""
    },
    {
        "title": "郭富城才是“反油腻”第一人！不穿大叔装，裤子短一截，帅气不凡",
        "docid": "7332726578931122707",
        "url": ""
    },
    {
        "title": "世界顶级名媛舞会：躲过了甄子丹女儿，我却被山东首富女儿惊艳了",
        "docid": "7307176813514703414",
        "url": ""
    },
    {
        "title": "纽约时尚博主lefevrediary 深肤色的姑娘也能穿出自己的风格",
        "docid": "7330084211527008779",
        "url": ""
    },
    {
        "title": "戚薇又带火了“极简”穿搭：白毛衣+半身裙+羊毛卷，时髦又洋气",
        "docid": "7332711808509444643",
        "url": ""
    },
    {
        "title": "奔四奔五的女人，想要远离老气，注意这4个“细节穿搭”",
        "docid": "7332745936143254067",
        "url": ""
    },
    {
        "title": "女人老了，穿大衣尽量少配打底裤、运动鞋，这样穿更气质显高",
        "docid": "7332464225660486171",
        "url": ""
    },
    {
        "title": "无儿无女，没婚姻没爱情，遗体捐献，89岁罗兰活成了谁的归宿？",
        "docid": "7332731052424872486",
        "url": ""
    },
    {
        "title": "宋轶壁纸",
        "docid": "7332272948461453834",
        "url": ""
    },
    {
        "title": "果然，女明星与素人之间真的有壁",
        "docid": "7326138755369189942",
        "url": ""
    },
    {
        "title": "\"春日焦点：王楚然柠檬黄长裙惊艳亮相！\"",
        "docid": "7332078796037866011",
        "url": ""
    },
    {
        "title": "王鸥的红裙子太美了，她真的好适合红色啊！",
        "docid": "7331717160307737151",
        "url": ""
    },
    {
        "title": "蒋勤勤带火了“国际范”穿搭：同色西装+打底衫+阔腿裤，高级显贵",
        "docid": "7332716912637870632",
        "url": ""
    },
    {
        "title": "曾经风靡一个时代的美邦 班尼路 真维斯 以纯这些服装品牌都去了哪里",
        "docid": "7317597187918332468",
        "url": ""
    },
    {
        "title": "上海女生真不怕冷，大冬天穿羽绒服玩“下身失踪”，为赶时髦真拼",
        "docid": "7331761261900038665",
        "url": ""
    },
    {
        "title": "普通人学穿搭，小个子实用穿搭分享",
        "docid": "7325153277497131547",
        "url": ""
    },
    {
        "title": "什么脸型就戴什么款式的帽子，合适自己的既好看又保暖",
        "docid": "7310854738038506023",
        "url": ""
    },
    {
        "title": "羽绒服里穿薄点才暖和！一个超简单的穿搭技巧，快收藏",
        "docid": "7322254792363950618",
        "url": ""
    },
    {
        "title": "43岁董洁龙年新春直播造型，一袭红色新中式穿搭非常喜庆年味十足",
        "docid": "7332427737245680143",
        "url": ""
    },
    {
        "title": "基础款和基础色融入个性与时尚感中的重要性",
        "docid": "7332666569279537715",
        "url": ""
    },
    {
        "title": "北京之夜林志颖英俊依旧，谢娜身形纤瘦惊人，白鹿尽展风采",
        "docid": "7331994478280802856",
        "url": ""
    },
    {
        "title": "十款被世界公认最好闻的女士香水",
        "docid": "7313974509625983529",
        "url": ""
    },
    {
        "title": "董洁北京街拍，没有修图的状态，有点90年代那种未经雕琢自然的美",
        "docid": "7322930103347266075",
        "url": ""
    },
    {
        "title": "新加坡这晚：宋轶水蛇腰惊艳，张雨绮身材抢镜，陈小纭咋长这样了",
        "docid": "7332738636762399272",
        "url": ""
    },
    {
        "title": "孟晚舟又带火了一种穿法：大衣+高跟鞋，优雅时髦不说，还很高级",
        "docid": "7332496612687970826",
        "url": ""
    },
    {
        "title": "初高中女生流行扎低马尾，别问为什么，问就是心疼",
        "docid": "7323529629363749416",
        "url": ""
    },
    {
        "title": "曾被吹上天，如今却“沦为笑柄”的4个羽绒服，看谁还在乱跟风？",
        "docid": "7330480887492805120",
        "url": ""
    },
    {
        "title": "被北京阿姨打扮惊艳了：冬天穿大衣从不配打底裤、丝袜，时髦优雅",
        "docid": "7332012007010452031",
        "url": ""
    },
    {
        "title": "引人入胜：女生必知的购衣法则",
        "docid": "7332690635339809318",
        "url": ""
    },
    {
        "title": "“留长发”和“剪短发”的中年女人对比，哪个更好看？答案就在这",
        "docid": "7332728569036063247",
        "url": ""
    },
    {
        "title": "中年人穿搭休闲松弛一个稳定内核的人有自己精神立足点，乐观开朗",
        "docid": "7332490319714206271",
        "url": ""
    },
    {
        "title": "哪些手表买了就后悔？内心脆弱一定要避开这几款表！",
        "docid": "7306130440354939402",
        "url": ""
    },
    {
        "title": "唐嫣参加春晚第四次联排！穿17000西服挎35500包，彰显高级又奢侈",
        "docid": "7332027197462725155",
        "url": ""
    },
    {
        "title": "韩国羽绒服，别老盯着可隆！这7个宝藏小众品牌，告别烂街坑人",
        "docid": "7331988486834733607",
        "url": ""
    },
    {
        "title": "透过鞋子，洞察你的人生，《看鞋识人生：真相就在脚下》",
        "docid": "7332484015779463690",
        "url": ""
    },
    {
        "title": "这是我见过最时髦的奶奶，留白发，打扮时尚洋气，没有一点大妈感",
        "docid": "7332741600700809740",
        "url": ""
    },
    {
        "title": "会搭配就是不一样，只要一点改变完全不一样，看这些对比就明白了",
        "docid": "7332483870526308903",
        "url": ""
    },
    {
        "title": "孟晚舟，一个被事业耽误的时尚博主，她的穿衣打扮都太美太高级了",
        "docid": "7302664590582612515",
        "url": ""
    },
    {
        "title": "中年男人：不管差不差钱，你都要少穿这3种“廉价鞋”看着很油腻",
        "docid": "7332715396996448831",
        "url": ""
    },
    {
        "title": "被杭州街拍惊艳到了！穿衣不紧身、鞋子不带跟，却个个高级时髦！",
        "docid": "7331769471193530943",
        "url": ""
    },
    {
        "title": "赫本亲身示范：女人不管30岁还是50岁，“体态”都比“颜值”重要",
        "docid": "7310599958749971007",
        "url": ""
    },
    {
        "title": "看北京退休奶奶打扮才发现：发不染、裙及踝、裤穿宽，优雅又得体",
        "docid": "7331960817262330405",
        "url": ""
    },
    {
        "title": "为什么有的女人，越老越气质？这2点是关键：一少烫发、二不穿花",
        "docid": "7305951053558792742",
        "url": ""
    },
    {
        "title": "冬天色彩的魔法，一些让冬天不沉闷的美丽色彩。",
        "docid": "7332641334882238976",
        "url": ""
    },
    {
        "title": "穿搭分享：中年女性的优雅和洒脱",
        "docid": "7309381493271872010",
        "url": ""
    },
    {
        "title": "高个子女生可以照抄孙千的慵懒风穿搭，简直太漂亮了",
        "docid": "7330449824669712937",
        "url": ""
    },
    {
        "title": "40岁的时尚秘籍：秋冬最美的6组配色",
        "docid": "7332153720240603683",
        "url": ""
    },
    {
        "title": "女生发量暴增的7个方法，学起来！挑洗发水一定要看配方",
        "docid": "7306419181598147098",
        "url": ""
    },
    {
        "title": "极简生活：极简后不再买的15种鞋子",
        "docid": "7332044865972765193",
        "url": ""
    },
    {
        "title": "ins博主人手一件的羽绒服5套穿搭指南",
        "docid": "7305055002962362915",
        "url": ""
    },
    {
        "title": "上海这一夜，被童瑶的马面裙惊艳，中国美人最适合果然还是中式风",
        "docid": "7332770103358177792",
        "url": ""
    },
    {
        "title": "168的“江疏影”又带火了极简穿搭：牛仔衬衫+牛仔裤，高级还洋气",
        "docid": "7332757162982244916",
        "url": ""
    },
    {
        "title": "男士相亲妆收费200元供不应求 化妆师：过年7天都约满了",
        "docid": "7332693195836572195",
        "url": ""
    },
    {
        "title": "85花旦微博之夜比美，事业各有千秋，唐嫣性感、刘诗诗大气！",
        "docid": "7332741757588767244",
        "url": ""
    },
    {
        "title": "当你不年轻了，请切记离开这5件“廉价感”外套，土气又显老气",
        "docid": "7332773956002677289",
        "url": ""
    },
    {
        "title": "江疏影的粉色毛呢格子吊带裙，似乎只有她能驾驭吧？",
        "docid": "7332511097330713127",
        "url": ""
    },
    {
        "title": "等你老了，头发建议剪短点，今年流行这3种“酒窝发”，洋气减龄",
        "docid": "7325310147599794703",
        "url": ""
    },
    {
        "title": "世界上最昂贵的十件礼服",
        "docid": "7321362469417976383",
        "url": ""
    },
    {
        "title": "蒋勤勤带火了“国际范”穿搭：同色西装+打底衫+阔腿裤，高级显贵",
        "docid": "7332738861082509864",
        "url": ""
    },
    {
        "title": "“羽绒服+裙子”，才是开春最时髦的穿法，保暖又好看！",
        "docid": "7332078220357534271",
        "url": ""
    },
    {
        "title": "女孩子一定要学会穿搭呀",
        "docid": "7322214588588655113",
        "url": ""
    },
    {
        "title": "冷烫和热烫有啥区别？哪种烫发效果好？一篇文章给你讲清楚！",
        "docid": "7326526739251954187",
        "url": ""
    },
    {
        "title": "宝子们羽绒服都学会咋鉴别了吗？",
        "docid": "7326729260324143650",
        "url": ""
    },
    {
        "title": "这才是63岁奕姐优雅老去的秘诀：坚决不穿老年装，妆发时髦又得体",
        "docid": "7314885344921584168",
        "url": ""
    },
    {
        "title": "任何时尚在大红塑料袋前都不值一提",
        "docid": "7332510694224986676",
        "url": ""
    },
    {
        "title": "57岁谢广坤化妆后爆改小鲜肉，一下年轻30岁，连“媳妇”都没认出",
        "docid": "7332754694777192994",
        "url": ""
    },
    {
        "title": "钟丽缇小女儿庆14岁生日，考拉打扮成熟，美得让人挪不开眼睛",
        "docid": "7332759095352787496",
        "url": ""
    },
    {
        "title": "镜头前貌美如花，私下走路却歪七扭八，这几位女星前后反差太明显",
        "docid": "7332019877265588751",
        "url": ""
    },
    {
        "title": "当47岁舒淇与27岁虞书欣站在一起，我才知道什么叫顶级骨相",
        "docid": "7332756085511832074",
        "url": ""
    },
    {
        "title": "张雪迎分享健身美照，妆容精致对镜凹造型，身姿挺拔惹人羡",
        "docid": "7332723788515590691",
        "url": ""
    },
    {
        "title": "60岁陈瑾罕见拍时尚大片，中式黑褂配大红坎肩，比46岁刘敏涛还美",
        "docid": "7332039190131130915",
        "url": ""
    },
    {
        "title": "初春“奶奶开衫”，很适合四五十岁的女人，时髦减龄有气质！",
        "docid": "7332778010178863668",
        "url": ""
    },
    {
        "title": "讲真，羽绒服有这“3个”特征，真的很有“廉价感”，谁穿谁丑！",
        "docid": "7331692487204962852",
        "url": ""
    },
    {
        "title": "李维斯的溃败，预示着双标没有好结果！",
        "docid": "7332657631934562816",
        "url": ""
    },
    {
        "title": "中年男士最爱穿的3种“裤子”，不油腻更有型，潮流又不失风度",
        "docid": "7332702671860056617",
        "url": ""
    },
    {
        "title": "被潘虹的老年状态惊艳到：69岁头发花白，穿衣极简却高级有气质",
        "docid": "7332764224743014946",
        "url": ""
    },
    {
        "title": "女生一生建议入的8款口红，各大品牌断货王",
        "docid": "7317919885173031451",
        "url": ""
    },
    {
        "title": "女人不差钱的话，首饰买这“4款”就够了，精致、优雅还上档次",
        "docid": "7331646726434062888",
        "url": ""
    },
    {
        "title": "梁洛施生3娃身材没缩水，穿吊带裙差点“撑爆”，让人直呼受不了",
        "docid": "7331186977141850674",
        "url": ""
    },
    {
        "title": "拜托，男明星驾驭不了小啾啾就别强撑了，这几位才是啾啾界天花板",
        "docid": "7301702248135098889",
        "url": ""
    },
    {
        "title": "陈伟霆换了新发型，留背头的他突然发现不帅了，颜值下降",
        "docid": "7332755111778877986",
        "url": ""
    },
    {
        "title": "刘亦菲穿上旗袍宛如一幅水墨画 身姿曼妙灼灼芳华！高贵典雅",
        "docid": "7325608792505516596",
        "url": ""
    },
    {
        "title": "中国大妈称霸北美嘻哈圈！开店35年成“教母”，劫匪都不敢零元购",
        "docid": "7313375406844559887",
        "url": ""
    },
    {
        "title": "为什么劝你别戴“贝雷帽”？看这4组对比图就知道了，戴错了真土",
        "docid": "7311738671886074383",
        "url": ""
    },
    {
        "title": "看了70岁胡因梦的打扮，我悟了：女人直面衰老，比刻意扮嫩更优雅",
        "docid": "7332786502160220672",
        "url": ""
    },
    {
        "title": "被上海地铁奶奶惊艳！不穿老年装、头戴帽系围巾，洋气时尚又保暖",
        "docid": "7332751273747284520",
        "url": ""
    },
    {
        "title": "九套日常穿搭，照着做，你的衣品一定会很牛！",
        "docid": "7300382052417864203",
        "url": ""
    },
    {
        "title": "杨采钰带火了“新年穿搭”：红大衣+衬衫+半身裙，显贵高级又洋气",
        "docid": "7331674531503407666",
        "url": ""
    },
    {
        "title": "蒋勤勤带火了“国际范”穿搭：同色西装+打底衫+阔腿裤，高级显贵",
        "docid": "7331909496257741324",
        "url": ""
    },
    {
        "title": "上海女生最新穿搭来袭！霸气棉服+鲨鱼裤掀起时尚新风潮",
        "docid": "7332017323706696204",
        "url": ""
    },
    {
        "title": "百达翡丽鄙视理查德吗？劳力士鄙视万国吗？看看表圈等级划分",
        "docid": "7301232571822834191",
        "url": ""
    },
    {
        "title": "今年春节就穿“羽绒服+半裙”，时髦百搭又暖和！从2023美到2024",
        "docid": "7332762218708140584",
        "url": ""
    },
    {
        "title": "上海这一夜，被童瑶的马面裙惊艳，中国美人最适合果然还是中式风",
        "docid": "7332018194372346431",
        "url": ""
    },
    {
        "title": "俞飞鸿亲身示范：羽绒服不配打底裤、不穿老年装，53岁都没大妈感",
        "docid": "7332714738432213538",
        "url": ""
    },
    {
        "title": "不建议买的5个羽绒服品牌，听着上档次，实际都是“智商税”！",
        "docid": "7315350235637875254",
        "url": ""
    },
    {
        "title": "入秋了才发现：不兴小白鞋了！满大街都在穿“骑士靴”洋气又时尚",
        "docid": "7332782890042098215",
        "url": ""
    },
    {
        "title": "农村再掀“睡衣风”，穿睡衣上街串门，既丑又土，为何都喜欢穿？",
        "docid": "7314573102225605158",
        "url": ""
    },
    {
        "title": "唐嫣小羊毛卷也太美了！一身黑内搭复古高领毛衣牛仔裤，好甜蜜啊",
        "docid": "7332766176856867328",
        "url": ""
    },
    {
        "title": "四五十岁女人戴丝巾，记住：3戴3不戴，优雅时尚，关键还很显气质",
        "docid": "7332802051056960019",
        "url": ""
    },
    {
        "title": "全网姑娘炸锅！看似漂亮，却被嘲“现代刑具”",
        "docid": "7301696131698999842",
        "url": ""
    },
    {
        "title": "世界化妆品女王：自己不化妆，却狠赚爱美人士的钱，身家达5400亿",
        "docid": "7306792822395601443",
        "url": ""
    },
    {
        "title": "“毛衣+裙子”春天就这么穿，优雅又知性，让你遇见最美的自己！",
        "docid": "7332786972148286004",
        "url": ""
    },
    {
        "title": "原来美甲界还有这么多门道 网友：原来美甲界的复杂难度比考研都难",
        "docid": "7323417032144454184",
        "url": ""
    },
    {
        "title": "新年超火的穿搭，“羽绒服+半裙”，小个子照着穿，美爆了！",
        "docid": "7332762308109976076",
        "url": ""
    },
    {
        "title": "73岁黄梅莹亲身示范：发不染黑、衣不穿松，到老都没有“大妈感”",
        "docid": "7310617517797130767",
        "url": ""
    },
    {
        "title": "看了“顶级名媛”的造型，我发现：有富贵相的女人老了反而更吃香",
        "docid": "7314645776951919155",
        "url": ""
    },
    {
        "title": "被上海街头的爷爷惊艳了！白发不染，不穿老年装，却个个绅士高级",
        "docid": "7327862040876384794",
        "url": ""
    },
    {
        "title": "“短羽绒+阔腿裤”真的好好看！遮肉保暖又显瘦，韩系风拿捏了！",
        "docid": "7332804348369863183",
        "url": ""
    },
    {
        "title": "同样是穿“裘皮”大衣，将任嘉伦许凯邓为放在一起，差距一目了然",
        "docid": "7321314962205655593",
        "url": ""
    },
    {
        "title": "“最美反派”杨雪带女儿拍古装照片，看到成品被她的女儿惊艳到了",
        "docid": "7308553752867734016",
        "url": ""
    },
    {
        "title": "55岁许晴带火了一种减龄穿搭：衬衫+阔腿裤+松糕鞋，时髦又洋气",
        "docid": "7332115825412997667",
        "url": ""
    },
    {
        "title": "看了林高远的穿搭，发现休闲运动衣这样穿太酷了，个个舒适又好看",
        "docid": "7332743003934687759",
        "url": ""
    },
    {
        "title": "上海女生真会打扮！满大街的“大衣+运动鞋”，还个个时髦又显高",
        "docid": "7332092272663855670",
        "url": ""
    },
    {
        "title": "上年纪的女人别再披头散发了，这样打扮时髦洋气，一点不油腻",
        "docid": "7332775105984315939",
        "url": ""
    },
    {
        "title": "一口气两双！Dunk SB「情人节」国区登场！",
        "docid": "7332730909663593012",
        "url": ""
    },
    {
        "title": "杨幂是内娱界穿中式穿搭最多的女明星之一吧！每一套都美极了",
        "docid": "7331710289668883007",
        "url": ""
    },
    {
        "title": "九套好看的初春穿搭，哪套戳中了你的心巴呢？",
        "docid": "7332624896943587875",
        "url": ""
    },
    {
        "title": "又有男星因这事“翻车”，紧急道歉！",
        "docid": "7332000857913049635",
        "url": ""
    },
    {
        "title": "做自己的女王，颜值暴涨的方法",
        "docid": "7313192255626969626",
        "url": ""
    },
    {
        "title": "不去理发店剃头的人越来越多？行内人说出其中套路，真让人服了",
        "docid": "7319402869902918153",
        "url": ""
    },
    {
        "title": "没气质的女人，建议少穿“小香风”！看白鹿就知道，穿错有多显土",
        "docid": "7304189951623676425",
        "url": ""
    },
    {
        "title": "为什么我劝六七十岁女人：别把白发染黑？看完这几组对比你就懂了",
        "docid": "7332099976883782154",
        "url": ""
    },
    {
        "title": "杭州女生真不愧是穿衣高手，不管是长裤还是长裙，都穿得时尚高级",
        "docid": "7332786895552889355",
        "url": ""
    },
    {
        "title": "脑子一抽 买了两条在广东可能一辈子都穿不到的羽绒裤和呢子加绒裤",
        "docid": "7331680837416632867",
        "url": ""
    },
    {
        "title": "去了杭州才发现！满街都是“羽绒服 + 裙子”穿搭，既洋气又保暖",
        "docid": "7332759890290885160",
        "url": ""
    },
    {
        "title": "被上海女生的街拍美呆了：大衣+围巾穿搭，既时髦又女神！",
        "docid": "7332105705052750355",
        "url": ""
    },
    {
        "title": "今年春节就穿“羽绒服+半裙”，时髦百搭又暖和！",
        "docid": "7332795114651468342",
        "url": ""
    },
    {
        "title": "瞬间变年轻！四五十岁女性必知的“富贵色”时尚搭配！",
        "docid": "7332723581884039699",
        "url": ""
    },
    {
        "title": "有品位的女人，都在穿“奶奶靴”，搭配风衣、西服都好惊艳！",
        "docid": "7332712315378336292",
        "url": ""
    },
    {
        "title": "精致优雅，气质出众，身姿曼妙的景甜，魅力无限的写真照",
        "docid": "7331989390631158311",
        "url": ""
    },
    {
        "title": "“疯狂”的彩色宝石：价格翻倍上涨 年轻人争相购买丨账单里的“年味儿”",
        "docid": "7332406734088307236",
        "url": ""
    },
    {
        "title": "等你老了，尽量别烫小卷、留长发！建议多选这4种发型，洋气减龄",
        "docid": "7332790924684624418",
        "url": ""
    },
    {
        "title": "过年穿大衣，应该配裙子还是配裤子？快让“日杂穿搭”告诉你！",
        "docid": "7332718527767757352",
        "url": ""
    },
    {
        "title": "15套中国红时尚搭配，好看显气质！",
        "docid": "7319724997910561306",
        "url": ""
    },
    {
        "title": "春节理发店困境：涨价却坑了自己",
        "docid": "7332651466672357898",
        "url": ""
    },
    {
        "title": "同一件衣服，为什么有的人穿显高级，有的就很土气？原因在这3点",
        "docid": "7310115911028163107",
        "url": ""
    },
    {
        "title": "细心的网友发现杨紫琼这脚是怎么回事？",
        "docid": "7316171826169004580",
        "url": ""
    },
    {
        "title": "杨超越 公主肤白",
        "docid": "7332668219628716578",
        "url": ""
    },
    {
        "title": "上海女生的大衣穿搭，简直是教科书式的！",
        "docid": "7308220139731599872",
        "url": ""
    },
    {
        "title": "澳门一夜，女明星美到爆炸！杨幂纯美，刘诗诗清丽，秦岚最性感",
        "docid": "7332092536355422770",
        "url": ""
    },
    {
        "title": "张雨绮",
        "docid": "7315070809947865627",
        "url": ""
    },
    {
        "title": "颂莎瓦丽：我嫁给谁，谁才是太子，那顶王冠只有我配拥有！",
        "docid": "7328181326761296421",
        "url": ""
    },
    {
        "title": "北京这一夜，林志颖依旧帅气，谢娜瘦到脱相，白鹿赢麻了",
        "docid": "7332044759361520167",
        "url": ""
    },
    {
        "title": "39岁钟嘉欣和老公海边合照，三孩妈这少女感绝了",
        "docid": "7332140166934544934",
        "url": ""
    },
    {
        "title": "记录我的退休生活246：断舍离后的这20件毛衣，是再留还是处理呢",
        "docid": "7314187203452961295",
        "url": ""
    },
    {
        "title": "时尚老佛爷：77岁爱上一只猫，留给它2亿美元遗产，后来怎样了？",
        "docid": "7311652739124544039",
        "url": ""
    },
    {
        "title": "嫁入豪门的超模奚梦瑶，穿搭来了，每一件都很高奢",
        "docid": "7317517312528253503",
        "url": ""
    },
    {
        "title": "看了74岁王馥荔与吴玉芳同框才明白,有富贵相的女人老了反而吃香",
        "docid": "7309852024756355624",
        "url": ""
    },
    {
        "title": "57岁谢广坤化妆后爆改小鲜肉，一下年轻30岁，连“媳妇”都没认出",
        "docid": "7332776285917479439",
        "url": ""
    },
    {
        "title": "终于发现搭配的意义：“同一件衣服”换一种穿法、就会更显贵！",
        "docid": "7332060140084118043",
        "url": ""
    },
    {
        "title": "被佘诗曼的时尚惊艳了，跟着《新闻女王》学穿搭，让你既美又时髦",
        "docid": "7332378874636010018",
        "url": ""
    },
    {
        "title": "春天的新装：18图让你越来越期待春天啦",
        "docid": "7332648633055658530",
        "url": ""
    },
    {
        "title": "上海奶奶的状态真惊艳！白发不染、穿衣简单，却个个优雅得体",
        "docid": "7332716001458733577",
        "url": ""
    },
    {
        "title": "春晚第四次彩排成明星秀场：唐嫣背3万5的包，宋轶7千元大衣抢眼",
        "docid": "7332789108483342899",
        "url": ""
    },
    {
        "title": "\"赵露思广告花絮曝光！优雅仪态引无数赞叹！\"",
        "docid": "7332833317836341796",
        "url": ""
    },
    {
        "title": "被肖雄老年状态惊艳到了！不穿艳色、不烫大妈头，65岁都没大妈感",
        "docid": "7332831937008419362",
        "url": ""
    },
    {
        "title": "杨紫神仙造型曝光：惊艳唐妆封神了，网友大赞雍容华贵，绝色芳华",
        "docid": "7332722490525286927",
        "url": ""
    },
    {
        "title": "国风崛起，簪花和马面裙也太配了吧！",
        "docid": "7332816787790512676",
        "url": ""
    },
    {
        "title": "六七十岁男人，帽子尽量不要戴“军帽”和“雷锋帽”，这些更洋气",
        "docid": "7316094203108065826",
        "url": ""
    },
    {
        "title": "40岁女人建议：少买衣服、包包、化妆品，从这9个方面，提升自己",
        "docid": "7303057118079435283",
        "url": ""
    },
    {
        "title": "看了74岁的王馥荔和鲍起静，才发现：女人直面衰老，比扮嫩更耐看",
        "docid": "7325648568344887843",
        "url": ""
    },
    {
        "title": "这才是40＋女性该有的穿搭，简约大方超高级",
        "docid": "7332652459392942607",
        "url": ""
    },
    {
        "title": "四五十岁男人，帽子尽量别戴针织帽、短檐帽，换成这些更绅士减龄",
        "docid": "7299268956803220018",
        "url": ""
    },
    {
        "title": "宋慧乔的新穿搭又火了：工装外套+二分裙+乐福鞋，时髦洋气又减龄",
        "docid": "7332725997063864847",
        "url": ""
    },
    {
        "title": "妮可拉·佩尔茨：白色罗纹紧身胸衣，演绎红毯极简魅力",
        "docid": "7332792737693499939",
        "url": ""
    },
    {
        "title": "为什么劝中老年男人：冬天戴帽、衣不暗沉？看完这些素人穿搭就懂",
        "docid": "7332492298884432424",
        "url": ""
    },
    {
        "title": "被刘嘉玲的“锁骨发”圈粉了，优雅高级显气质，适合4、50岁女人",
        "docid": "7332106005339652660",
        "url": ""
    },
    {
        "title": "看了66岁张瑜的打扮，我发现：中老年女人反油腻比扮嫩更显气质",
        "docid": "7330848689537368628",
        "url": ""
    },
    {
        "title": "西装下面不一定要配西装裤，瞧上海女生这样穿，优雅知性，很耐看",
        "docid": "7332783172583080483",
        "url": ""
    },
    {
        "title": "冬季时尚：探索格雷调的穿搭分享",
        "docid": "7332811297941373450",
        "url": ""
    },
    {
        "title": "记录我的退休生活375：还有14条冬裙，找一条春节穿，再断舍5条",
        "docid": "7330827177597878836",
        "url": ""
    },
    {
        "title": "年纪越大越“气质”的女人，通常都有这3个特征！快看你中了几个",
        "docid": "7305274168957026825",
        "url": ""
    },
    {
        "title": "冲锋衣，一定要记住“3买3不买”原则！花钱买的教训，别被割韭菜",
        "docid": "7314504869766136320",
        "url": ""
    },
    {
        "title": "韩系小姐姐怎么过春节？时髦显高的穿搭示范，直接“复制”就对了",
        "docid": "7332796963458613772",
        "url": ""
    },
    {
        "title": "徐璐的早春穿搭：简约又百搭的时尚魅力",
        "docid": "7332812727116956211",
        "url": ""
    },
    {
        "title": "62岁刘德华告诉你：发型一丝不苟，裤子短一截，到老也不油腻",
        "docid": "7331791446896378408",
        "url": ""
    },
    {
        "title": "裙子配短靴是冬季流行穿法，气质可甜可飒，不同年龄女性都能穿",
        "docid": "7332713096366703156",
        "url": ""
    },
    {
        "title": "为什么有些中老年男人，明明穿得很贵，却依旧土气？原因在这3点",
        "docid": "7332489890053046818",
        "url": ""
    },
    {
        "title": "等你老了，尽量别穿灰色、驼色！多穿这3种年轻色，会更时尚减龄",
        "docid": "7332798959381119522",
        "url": ""
    },
    {
        "title": "听我一句劝：别穿这些颜色羽绒服，太土！多穿这5个颜色，时尚",
        "docid": "7332076072924496420",
        "url": ""
    },
    {
        "title": "百年灵与“贝嫂”同名品牌合作卖表",
        "docid": "7332018295580656191",
        "url": ""
    },
    {
        "title": "姜珮瑶浪漫白裙，浓郁春天的气息，美的清新脱俗！",
        "docid": "7332663542757212708",
        "url": ""
    },
    {
        "title": "GRACE CHEN“风雅永恒”品牌之旅登陆北美",
        "docid": "7332789351027540514",
        "url": ""
    },
    {
        "title": "为什么劝你少穿“风衣”出门？看完素人街拍图，4个原因，就秒懂",
        "docid": "7332807327382258215",
        "url": ""
    },
    {
        "title": "女人过了50岁，尽量少穿3件“显老气”的外套，拉低气质还显土气",
        "docid": "7332732436658831891",
        "url": ""
    },
    {
        "title": "何超琼参加亚非妇促会，穿唐装年轻似40岁，不愧是赌王最美千金！",
        "docid": "7332102435995566627",
        "url": ""
    },
    {
        "title": "2024奢品趋势白皮书&人群灵感图鉴（附下载）",
        "docid": "7332692330442850866",
        "url": ""
    },
    {
        "title": "过年穿这5种颜色最好看，百搭温暖又时髦高级，亲戚都夸太美了",
        "docid": "7332801558079980084",
        "url": ""
    },
    {
        "title": "50到70岁女性，发型这样剪，好看时尚显年轻",
        "docid": "7332826677904556544",
        "url": ""
    },
    {
        "title": "林心如最新杂志大片，状态很好，气质优雅，依旧很美！",
        "docid": "7331723693619741220",
        "url": ""
    },
    {
        "title": "这才是158女生该有的穿搭：九分裤＋短靴，新年就穿它，美爆了 ！",
        "docid": "7332086003831865892",
        "url": ""
    },
    {
        "title": "这才是中年女性穿衣典范，不穿高跟鞋和紧身裤，美得优雅又大方！",
        "docid": "7332065352748352038",
        "url": ""
    },
    {
        "title": "中老年女人，过年穿裙子要谨记“3要3不要”法则，会更优雅有气质",
        "docid": "7331692976156213771",
        "url": ""
    },
    {
        "title": "“会穿”与“不会穿”的女人，看她的大衣和鞋子就知道：差别太大",
        "docid": "7332477420912329270",
        "url": ""
    },
    {
        "title": "冬天女生短款羽绒服穿搭示范：上短下长，保暖显瘦！时髦又洋气",
        "docid": "7332132436635976231",
        "url": ""
    },
    {
        "title": "上海女生真会打扮！满大街的“大衣+运动鞋”，还个个时髦又显高",
        "docid": "7332785369324470818",
        "url": ""
    },
    {
        "title": "40+的女人别扮嫩，知性温柔才是适合你的风格，大方又显气质",
        "docid": "7332473057623310867",
        "url": ""
    },
    {
        "title": "这才是真正微胖穿搭，搭配极简不花哨，美得时髦大气",
        "docid": "7331663009443725859",
        "url": ""
    },
    {
        "title": "女人不管差不差钱，最好“不穿金戴银、发不烫染”，才能优雅年轻",
        "docid": "7310484556568838665",
        "url": ""
    },
    {
        "title": "瞩目登场：时尚之巅的法式魅力",
        "docid": "7332683384554422822",
        "url": ""
    },
    {
        "title": "快过年了，逛了逛优衣库",
        "docid": "7332099817184936500",
        "url": ""
    },
    {
        "title": "喜欢帅气高级的日常装，就试试黑、白、灰配色吧！也是超吸睛",
        "docid": "7332778181038555688",
        "url": ""
    },
    {
        "title": "看了70岁胡因梦的打扮，我悟了：女人直面衰老，比刻意扮嫩更优雅",
        "docid": "7332475722029744681",
        "url": ""
    },
    {
        "title": "等你到了五六十岁，务必远离这3种“老年装”，换成这些更优雅",
        "docid": "7331689223046988351",
        "url": ""
    },
    {
        "title": "陈伟霆换了新发型，留背头的他突然发现不帅了，颜值下降",
        "docid": "7332777133917487642",
        "url": ""
    },
    {
        "title": "冬天内搭别买太多，准备“4件”毛衣就够了，配裙子、裤子都好看",
        "docid": "7331626901473985024",
        "url": ""
    },
    {
        "title": "配色决定你的穿搭风格选对配色，穿搭成功一大半",
        "docid": "7332644737138147892",
        "url": ""
    },
    {
        "title": "年底火了一种穿搭，“短上衣+阔腿裤”遮胯显瘦，太适合过年穿了",
        "docid": "7332068597408023103",
        "url": ""
    },
    {
        "title": "早春穿衣不费力，温柔甜美的“韩系穿搭”，照着穿时髦又显高！",
        "docid": "7332471908078010934",
        "url": ""
    },
    {
        "title": "建议中老年男人：发要短、衣要简、鞋运动，帅气又保暖，不油腻",
        "docid": "7332496035363865123",
        "url": ""
    },
    {
        "title": "大小S孩子同游巴厘岛，小玥儿穿着被嘲太土，lily造型再惹争议！",
        "docid": "7332453777368351241",
        "url": ""
    },
    {
        "title": "冬季50岁以后女人穿裙子，记住3个穿不得，暴露身材问题又俗气",
        "docid": "7332480369662837289",
        "url": ""
    },
    {
        "title": "韩系魅力：探寻通勤穿搭的新境界",
        "docid": "7332812129952760330",
        "url": ""
    },
    {
        "title": "熊黛林骨子里透着高级感，穿粉色小香风配丝巾，挡不住阔太气质",
        "docid": "7332717869623050804",
        "url": ""
    },
    {
        "title": "这才是教科书级别的开春通勤穿搭，随便穿透着优雅知性，大方得体",
        "docid": "7332727687825736232",
        "url": ""
    },
    {
        "title": "2024年度流行色来了！时髦高级，谁穿谁美！",
        "docid": "7331620934921191951",
        "url": ""
    },
    {
        "title": "一个女人性格好不好，从她的穿着可以看出来",
        "docid": "7330644977648861708",
        "url": ""
    },
    {
        "title": "三木妈妈亲身示范：穿羽绒服时，头戴帽、系围巾，保暖洋气又减龄",
        "docid": "7332473999848964623",
        "url": ""
    }
]