[
    {
        "title": "小品：两个怕老婆的男人在一起吹牛，吹到最后都露馅了，真有意思",
        "docid": "7312933887477285388",
        "url": "https://www.ixigua.com/7312933887477285388"
    },
    {
        "title": "逼疯父母的熊孩子",
        "docid": "7295241280731218441",
        "url": "https://www.ixigua.com/7295241280731218441"
    },
    {
        "title": "R星出品  必属精品！这是真的自学成才啊\n       长按点赞有烟花",
        "docid": "7289490853108974095",
        "url": "https://www.ixigua.com/7289490853108974095"
    },
    {
        "title": "盘点只有婚后才懂的那些事，夫妻间的极限拉扯，这才是生活的本质",
        "docid": "7285313783936287289",
        "url": "https://www.ixigua.com/7285313783936287289"
    },
    {
        "title": "萌娃趴地上不肯起，一句“老师来了”瞬间抬头，满脸惊慌萌化网友",
        "docid": "7288154662963216948",
        "url": "https://www.ixigua.com/7288154662963216948"
    },
    {
        "title": "盘点网友奔现翻车名场面，当奔现时，小伙都快崩溃了",
        "docid": "7313119927060628003",
        "url": "https://www.ixigua.com/7313119927060628003"
    },
    {
        "title": "网络搞笑神评：导演可能不懂历史，但是真的懂男人。",
        "docid": "7284541560828461625",
        "url": "https://www.ixigua.com/7284541560828461625"
    },
    {
        "title": "没有中国粉丝不敢取的id，念的时候真憋不住了，网友你们开心就好",
        "docid": "7298688160123486754",
        "url": "https://www.ixigua.com/7298688160123486754"
    },
    {
        "title": "主人想救狗子，也被袋鼠胖揍",
        "docid": "7303455951556706868",
        "url": "https://www.ixigua.com/7303455951556706868"
    },
    {
        "title": "你们打我三天三夜，光问我说不说，你倒是问啊！盘点魏翔爆笑现场",
        "docid": "7298603250746556928",
        "url": "https://www.ixigua.com/7298603250746556928"
    },
    {
        "title": "盘点光速打脸的解气时刻，恢复一下，我还是喜欢你桀骜不驯的样子",
        "docid": "7289756084556792320",
        "url": "https://www.ixigua.com/7289756084556792320"
    },
    {
        "title": "女记者采访王大爷这段，承包了我一年的笑点，笑抽！爆笑采访系列",
        "docid": "7294854163777880627",
        "url": "https://www.ixigua.com/7294854163777880627"
    },
    {
        "title": "视频剪辑的有点乱，但是我相信你们肯定能看的懂的，哈哈哈",
        "docid": "7290009279380390456",
        "url": "https://www.ixigua.com/7290009279380390456"
    },
    {
        "title": "笑死！这下谁还分的清富家千金和贫民女孩啊！",
        "docid": "7310785723748057634",
        "url": "https://www.ixigua.com/7310785723748057634"
    },
    {
        "title": "儿子下雨天接女友，女孩紧揪衣服害羞求抱画面太甜，父母全程围观",
        "docid": "7295200762932822565",
        "url": "https://www.ixigua.com/7295200762932822565"
    },
    {
        "title": "遇到喜欢女孩你撒腿就跑，见到宿管阿姨你抬手就撩#搞笑",
        "docid": "7302013956112646666",
        "url": "https://www.ixigua.com/7302013956112646666"
    },
    {
        "title": "网约司机态度欠佳、乘客一招降服？#艺能人金广发 #网约车",
        "docid": "7307116046274855461",
        "url": "https://www.ixigua.com/7307116046274855461"
    },
    {
        "title": "白瞎这么漂亮的美女了",
        "docid": "7309812157317644819",
        "url": "https://www.ixigua.com/7309812157317644819"
    },
    {
        "title": "当南方小土豆去哈尔滨被认成小孩，满满无奈，我却笑死在评论区",
        "docid": "7316766370681602572",
        "url": ""
    },
    {
        "title": "哈哈哈，颤抖吧！上了三年网课的超声科医生毕业了！",
        "docid": "7316929636292837940",
        "url": ""
    },
    {
        "title": "1.我在医院照顾他妈，他却忙着陪白月光，我撂挑子不干了，他急了",
        "docid": "7315725156964975119",
        "url": ""
    },
    {
        "title": "真这么灵？还有没想到这个民宿老板娘也是个有故事的人？",
        "docid": "7291607599512814131",
        "url": "https://www.ixigua.com/7291607599512814131"
    },
    {
        "title": "男生乘地铁踩掉小姐姐的鞋，谁料原地等候等来了爱情，网友羡慕了",
        "docid": "7296322147025158708",
        "url": "https://www.ixigua.com/7296322147025158708"
    },
    {
        "title": "笑死在小鹏的评论区了",
        "docid": "7299293151477694991",
        "url": "https://www.ixigua.com/7299293151477694991"
    },
    {
        "title": "男子模仿“三刀流”刀客，引游客争相拍照，网友：男人都觉得帅",
        "docid": "7296041760521159202",
        "url": "https://www.ixigua.com/7296041760521159202"
    },
    {
        "title": "老鼠雪天过街突然一动不动，路人以为在休息凑近观察，下秒笑不出",
        "docid": "7316453943301964342",
        "url": "https://www.ixigua.com/7316453943301964342"
    },
    {
        "title": "PDD看豫西小丁建厂以来最恶性事件，当场开庭笑得停不下来！",
        "docid": "7303443110288163343",
        "url": "https://www.ixigua.com/7303443110288163343"
    },
    {
        "title": "这个女孩太难找了，看看今天这个男孩怎样样吧#农村相亲现场",
        "docid": "7315736483850748431",
        "url": "https://www.ixigua.com/7315736483850748431"
    },
    {
        "title": "宝妈晒出宝爸给宝宝脱裤子，你家的爸爸也是这样给孩子脱裤子的吗",
        "docid": "7285268538674283019",
        "url": "https://www.ixigua.com/7285268538674283019"
    },
    {
        "title": "男子偷看美女视频被发现，女友一气之下当面拍跳舞视频：礼尚往来",
        "docid": "7313426175924601396",
        "url": "https://www.ixigua.com/7313426175924601396"
    },
    {
        "title": "98斤媳妇和298斤丈夫对比，小腿没胳膊粗脸没巴掌大：都不敢使劲",
        "docid": "7289620898926035512",
        "url": "https://www.ixigua.com/7289620898926035512"
    },
    {
        "title": "盘点技师与客人的搞笑对话，这都些什么奇葩理由#技师",
        "docid": "7315355214767194635",
        "url": "https://www.ixigua.com/7315355214767194635"
    },
    {
        "title": "孕妇科目三上路嘴骂八方，教练低声下气不敢说话：我要给你退钱吗",
        "docid": "7286755514766066230",
        "url": "https://www.ixigua.com/7286755514766066230"
    },
    {
        "title": "本以为是一场顶级搭讪，没想到竟是一场顶级科幻大片！ #情侣",
        "docid": "7308435976206942758",
        "url": "https://www.ixigua.com/7308435976206942758"
    },
    {
        "title": "两男子ktv想整活，模仿mv动作，网友笑喷：让你模仿没让你超越！",
        "docid": "7295263479878353446",
        "url": "https://www.ixigua.com/7295263479878353446"
    },
    {
        "title": "网友神评论：有一种林黛玉倒拔垂杨柳的感觉#网友神评论",
        "docid": "7295971793599201842",
        "url": "https://www.ixigua.com/7295971793599201842"
    },
    {
        "title": "卧底首描大战四空白，平民吓傻乐开怀。",
        "docid": "7313021424560833039",
        "url": "https://www.ixigua.com/7313021424560833039"
    },
    {
        "title": "盘点那些卧龙凤搞笑迷惑行为：一个比一个狠，奈何桥都要塌了！",
        "docid": "7287105574234227254",
        "url": "https://www.ixigua.com/7287105574234227254"
    },
    {
        "title": "广东甜妹引发江湖纷争，甜的老夫少女心都犯了#迷惑行为大赏",
        "docid": "7314969223988675126",
        "url": "https://www.ixigua.com/7314969223988675126"
    },
    {
        "title": "女子到东北玩泼水成冰，下一秒尴尬到极点笑肚子疼：看到冰了吗？",
        "docid": "7297060242410439194",
        "url": "https://www.ixigua.com/7297060242410439194"
    },
    {
        "title": "儿子向妈妈要发卡给喜欢的女生！妈妈气愤不已，随后一幕爆笑了",
        "docid": "7287783877953880631",
        "url": "https://www.ixigua.com/7287783877953880631"
    },
    {
        "title": "笑哭！内蒙一男子半夜见妻子厕所里冒金光，灵魂发问在“焊腿”",
        "docid": "7304072851869729292",
        "url": "https://www.ixigua.com/7304072851869729292"
    },
    {
        "title": "沙雕系列之，日常",
        "docid": "7285449447104840247",
        "url": "https://www.ixigua.com/7285449447104840247"
    },
    {
        "title": "媳妇唱歌张嘴就跑调，老公受不了直接抢麦唱，听的媳妇眼里都是爱",
        "docid": "7312778297320931859",
        "url": "https://www.ixigua.com/7312778297320931859"
    },
    {
        "title": "当人不小心踩到180斤捕兽夹会怎么样？小伙用牛骨来测试！太狠了",
        "docid": "7295704502194471435",
        "url": "https://www.ixigua.com/7295704502194471435"
    },
    {
        "title": "台网友崩溃：文化上已经统一 《一句话证明你有玩抖音》",
        "docid": "7305953287768179237",
        "url": "https://www.ixigua.com/7305953287768179237"
    },
    {
        "title": "大娘逐渐意识到不对劲，前一秒热情指路，后一秒一问三不知！",
        "docid": "7288616052378993212",
        "url": "https://www.ixigua.com/7288616052378993212"
    },
    {
        "title": "他逃，他追，违法插翅难飞（2013）",
        "docid": "7287431646826267177",
        "url": "https://www.ixigua.com/7287431646826267177"
    },
    {
        "title": "广东甜妹的杀伤力有多强 #万万没想到  #离谱  #整活  #搞笑",
        "docid": "7313016197371396645",
        "url": "https://www.ixigua.com/7313016197371396645"
    },
    {
        "title": "果然刷抖音能学到东西  男子用笔尖套来挤痘痘别说效果挺好",
        "docid": "7312313043835650612",
        "url": "https://www.ixigua.com/7312313043835650612"
    },
    {
        "title": "当你把筷子用到极致",
        "docid": "7283721603391685176",
        "url": "https://www.ixigua.com/7283721603391685176"
    },
    {
        "title": "相亲男仅见一面就托人订亲，女子甚至消息都没收到：只赞我朋友圈",
        "docid": "7290381766093701667",
        "url": "https://www.ixigua.com/7290381766093701667"
    },
    {
        "title": "刺身不是想吃就能吃，盘点主播吃刺身翻车名场面",
        "docid": "7303498254203912719",
        "url": "https://www.ixigua.com/7303498254203912719"
    },
    {
        "title": "男子被兄弟嘲讽是单身狗，下秒女孩开车来接他，重重打兄弟脸太爽",
        "docid": "7302001927737639433",
        "url": "https://www.ixigua.com/7302001927737639433"
    },
    {
        "title": "女子网恋失败扭头坐上陌生人奔驰，车主当场傻眼一脸懵，对话笑喷",
        "docid": "7287799188157366818",
        "url": "https://www.ixigua.com/7287799188157366818"
    },
    {
        "title": "笑死人不偿命：倒霉日常，小姐姐飞来横祸，祸不单行",
        "docid": "7299450360626676276",
        "url": "https://www.ixigua.com/7299450360626676276"
    },
    {
        "title": "当你有一个越长越年轻的妈妈 24岁小伙晒出自己的亲妈合影似姐弟",
        "docid": "7310485021930979880",
        "url": "https://www.ixigua.com/7310485021930979880"
    },
    {
        "title": "医生一起看《问心》，结果心内和心外当场掐起来！",
        "docid": "7294532845949846031",
        "url": "https://www.ixigua.com/7294532845949846031"
    },
    {
        "title": "父子俩猜拳谁赢就和妈妈睡，儿子连赢63天老婆愁坏，网友道出真相",
        "docid": "7309305124374250021",
        "url": "https://www.ixigua.com/7309305124374250021"
    },
    {
        "title": "孙子用道具鸡蛋整蛊奶奶，网友：奶奶疑惑的表情看一遍笑一遍",
        "docid": "7314103410666504756",
        "url": "https://www.ixigua.com/7314103410666504756"
    },
    {
        "title": "我是万万没想到啊。到我这个年龄了，还能碰上这事恶心了我一把。",
        "docid": "7294281635980608026",
        "url": "https://www.ixigua.com/7294281635980608026"
    },
    {
        "title": "天上的仙女不在天上，原来在包间，有钱人的快乐根本想象不到",
        "docid": "7316071175979794981",
        "url": "https://www.ixigua.com/7316071175979794981"
    },
    {
        "title": "女婿在老丈人家睡火炕，炕太热让媳妇找东西来解解渴， 结果...",
        "docid": "7312264798383800882",
        "url": "https://www.ixigua.com/7312264798383800882"
    },
    {
        "title": "盘点那些嚣张惯了的小仙女，还以为自己有多漂亮",
        "docid": "7284980508806218279",
        "url": "https://www.ixigua.com/7284980508806218279"
    },
    {
        "title": "那些情侣分手，无法呼吸的疼！#如果不爱请别伤害",
        "docid": "7290910629588632076",
        "url": "https://www.ixigua.com/7290910629588632076"
    },
    {
        "title": "这才是观众想看的喜剧，春晚要是可以这么整，那我可就爱看了",
        "docid": "7283783114672112143",
        "url": "https://www.ixigua.com/7283783114672112143"
    },
    {
        "title": "迈开步子大胆追 搭讪真的很简单",
        "docid": "7316473577300361739",
        "url": "https://www.ixigua.com/7316473577300361739"
    },
    {
        "title": "今天这个女孩看起来挺单纯的，以后领回家肯定也有面子",
        "docid": "7304201271060365835",
        "url": "https://www.ixigua.com/7304201271060365835"
    },
    {
        "title": "【沫子】证明一下脚够不到地……",
        "docid": "7296100417502052874",
        "url": "https://www.ixigua.com/7296100417502052874"
    },
    {
        "title": "装老外整蛊重庆小姐姐#看一遍笑一遍 #搞笑 #专治不开心",
        "docid": "7294593062662210099",
        "url": "https://www.ixigua.com/7294593062662210099"
    },
    {
        "title": "喝酒不可怕，可怕的是第二天有人给你回忆。#看一遍笑一遍",
        "docid": "7313065348348150324",
        "url": "https://www.ixigua.com/7313065348348150324"
    },
    {
        "title": "盘点生活中的社交悍匪，现实中这样的人一定很快乐吧",
        "docid": "7306480037355029029",
        "url": "https://www.ixigua.com/7306480037355029029"
    },
    {
        "title": "街头挑战看女生的浏览器记录",
        "docid": "7291536998307889675",
        "url": "https://www.ixigua.com/7291536998307889675"
    },
    {
        "title": "挣1万只需要100秒？#艺能人金广发 #采访 #打工人 #社会百态",
        "docid": "7287102030508884492",
        "url": "https://www.ixigua.com/7287102030508884492"
    },
    {
        "title": "丈夫讨好媳妇帮忙挠痒痒，人前背后两张面孔疯狂切换，女儿被逗乐",
        "docid": "7305586509598425637",
        "url": "https://www.ixigua.com/7305586509598425637"
    },
    {
        "title": "老外猜冻龄女神，谁的真实年龄最大？",
        "docid": "7290748699410760227",
        "url": "https://www.ixigua.com/7290748699410760227"
    },
    {
        "title": "小女孩过安检检查口袋，不情不愿掏出全部身家，最后神情令人爆笑",
        "docid": "7284465104387736118",
        "url": "https://www.ixigua.com/7284465104387736118"
    },
    {
        "title": "男生用力亲了一口女友额头，下秒转头瞬间“病入膏肓”，网友笑喷",
        "docid": "7287405489808540179",
        "url": "https://www.ixigua.com/7287405489808540179"
    },
    {
        "title": "乱室佳人！美女房间一地烟头极致脏乱差，看到枕头：螨虫都要跑路",
        "docid": "7291539981145735743",
        "url": "https://www.ixigua.com/7291539981145735743"
    },
    {
        "title": "我玩个蹦床你让我看见太奶了，你多冒昧啊#搞笑配音",
        "docid": "7312279426069496320",
        "url": "https://www.ixigua.com/7312279426069496320"
    },
    {
        "title": "用20斤棉花做出的雷云灯，真的有进入雷雨之中的感觉吗",
        "docid": "7289815416808047164",
        "url": "https://www.ixigua.com/7289815416808047164"
    },
    {
        "title": "男子和隔壁老太太吵架直接坐地敲盆，媳妇拉不住又尴尬又好笑",
        "docid": "7287452296240661052",
        "url": "https://www.ixigua.com/7287452296240661052"
    },
    {
        "title": "足疗店的女人:聊男人",
        "docid": "7291647697700782604",
        "url": "https://www.ixigua.com/7291647697700782604"
    },
    {
        "title": "爸爸洗澡出来看到女儿睁着眼，走近一看瞬间惊呆：还有这种操作？",
        "docid": "7301511928072012299",
        "url": "https://www.ixigua.com/7301511928072012299"
    },
    {
        "title": "盘点那些捧杀爆笑名场面，在一声声夸赞中彻底迷失了自我。",
        "docid": "7289719553024590348",
        "url": "https://www.ixigua.com/7289719553024590348"
    },
    {
        "title": "这可能会震碎你三观，这张照片已经在社交媒体上传爆了！",
        "docid": "7315367906438251027",
        "url": ""
    },
    {
        "title": "‬爆笑神评：如果把你的一生拍成一部电影，你会取什么名字？",
        "docid": "7316783308480823834",
        "url": ""
    },
    {
        "title": "学生吃完西瓜上厕所没冲水，暑假结束，回来后厕所变成了西瓜地",
        "docid": "7316790334317576716",
        "url": ""
    },
    {
        "title": "半路上压垮骆驼的稻草叫程咬娟#看一遍笑一遍 #名场面 #搞笑#配音",
        "docid": "7287787509025931837",
        "url": "https://www.ixigua.com/7287787509025931837"
    },
    {
        "title": "哥哥拍身份证着装不达标，临时扒妹妹婴儿服借用，镜头一转笑喷",
        "docid": "7298153710369112588",
        "url": "https://www.ixigua.com/7298153710369112588"
    },
    {
        "title": "《真假难辨》#搞笑视频 #轩崽红眼 #无不良引导 @头条热点",
        "docid": "7316441696437436962",
        "url": "https://www.ixigua.com/7316441696437436962"
    },
    {
        "title": "女子收到男友送的车钥匙，竟误以为是打火机，点亮屏幕后网友沸腾",
        "docid": "7292246939964277275",
        "url": "https://www.ixigua.com/7292246939964277275"
    },
    {
        "title": "当纹身“老了”会变成什么样？看完估计肠子都悔青了！还敢纹不？",
        "docid": "7315983778320024074",
        "url": ""
    },
    {
        "title": "妹子，现在买这东西都这么明目张胆了？你不怕别人看到尴尬吗？",
        "docid": "7316001707673125427",
        "url": ""
    },
    {
        "title": "太好奇了！扁头是山东人的省头? ！评论区笑出鹅叫声，哈哈哈",
        "docid": "7314932062178247202",
        "url": ""
    },
    {
        "title": "朋友娶了俄罗斯美女，产前娜塔莎，产后娜大妈！这谁顶得住啊哈哈",
        "docid": "7315749142557606400",
        "url": ""
    },
    {
        "title": "日本天皇19岁的独生女照片流出，网友评论神了，哈哈，笑的肚子疼",
        "docid": "7310876483575415323",
        "url": ""
    },
    {
        "title": "男人隐姓埋名描述自己女朋友，发言一个比一个激动！全是老六啊",
        "docid": "7304820415699042868",
        "url": ""
    },
    {
        "title": "“聊了一个月的网友奔现了，现在该怎么办？她在喝水我不敢跑”！",
        "docid": "7314589815134241334",
        "url": ""
    },
    {
        "title": "搞笑世界名车车标",
        "docid": "7299780528905929243",
        "url": ""
    },
    {
        "title": "五年没回国了，怎么装才显得自己不土？",
        "docid": "7314871069490676287",
        "url": ""
    },
    {
        "title": "中国人有多爱看热闹？爱听八卦不分年龄，一个被窝睡不出两种人",
        "docid": "7307137309638410806",
        "url": ""
    },
    {
        "title": "现在爸妈聊天的尺度都这么大了吗？看完网友的分享，我三观崩了",
        "docid": "7314590251153457701",
        "url": ""
    },
    {
        "title": "“姑娘，不是什么照片都能随便发的！”哈哈哈亮点都看到了！",
        "docid": "7315322415545221682",
        "url": ""
    },
    {
        "title": "图一，局长被举报了，你看懂了吗？幽默内涵的段子，有品有味！",
        "docid": "7312888296013595190",
        "url": ""
    },
    {
        "title": "开房，看懂了吗？高段位妻子",
        "docid": "7315677348672586290",
        "url": ""
    },
    {
        "title": "千万不要一个人在被窝里看！那些舍不得删的搞笑聊天记录截图",
        "docid": "7307829011789972018",
        "url": ""
    },
    {
        "title": "“打扫老房子的时候掉下来的，不知道能不能换一套房？”哈哈哈",
        "docid": "7281919919208383012",
        "url": ""
    },
    {
        "title": "宝，今天我要给你一个惊喜⋯那些让人忍俊不禁的对话！",
        "docid": "7306515905239499290",
        "url": ""
    },
    {
        "title": "无敌的聊天记录，让人不知道该笑还是该哭",
        "docid": "7295039228126642688",
        "url": ""
    },
    {
        "title": "【快乐神回复】这该怎么接啊？",
        "docid": "7316666513296179727",
        "url": ""
    },
    {
        "title": "笑不活了，哈尔滨冰雕今年含鱼量极高，我却笑死在网友的评论区里",
        "docid": "7316408568398512691",
        "url": ""
    },
    {
        "title": "反正人长得漂亮，穿衣服就是很任性，走在大街上也不用怕尴尬！",
        "docid": "7316420363846861348",
        "url": ""
    },
    {
        "title": "笑不活了，为什么自助餐吃两口就饱？我笑疯在了评论区",
        "docid": "7316371818627990042",
        "url": ""
    },
    {
        "title": "笑死！某高校居然偷偷趁下雪天把名字爆改成985，保安：请住手！",
        "docid": "7314665869047808538",
        "url": ""
    },
    {
        "title": "神回复：室友睡了两天了，我该不该叫她起床啊？神评亮了",
        "docid": "7316726685569696282",
        "url": ""
    },
    {
        "title": "结婚了你会家暴我吗？如果你需要的话，我可以学",
        "docid": "7287494085500502563",
        "url": ""
    },
    {
        "title": "爸，你旁边的叔叔好帅，爸爸：这是你妈，网友当场笑喷了，哈哈哈",
        "docid": "7315968533081834003",
        "url": ""
    },
    {
        "title": "“为什么现在年轻人都想回家种田？”评论区笑不活了",
        "docid": "7316871795981009417",
        "url": ""
    },
    {
        "title": "夏天的神回复：唐僧为什么不找个地方躲几年写几本经书糊弄皇帝。",
        "docid": "7290575090557665803",
        "url": ""
    },
    {
        "title": "当你和前任之间的事被现任知晓后会怎样？评论区精彩纷呈！",
        "docid": "7309744236767953459",
        "url": ""
    },
    {
        "title": "盘点那些笑死人的神评：《难以抉择，孩子和老公都不交作业了？》",
        "docid": "7316444580814307850",
        "url": ""
    },
    {
        "title": "现在的WiFi起名都这么s吗？哈哈哈一个比一个离谱…",
        "docid": "7300540893642179112",
        "url": ""
    },
    {
        "title": "神回复：高铁上遇到一位40岁的阿姨，一直用脚碰我，该咋办啊？",
        "docid": "7315309381556388402",
        "url": ""
    },
    {
        "title": "论聊天头像的重要性，网友：我妈说不要半夜给她发短信",
        "docid": "7316201427142115855",
        "url": ""
    },
    {
        "title": "去开家长会的尴尬瞬间你有过吗？",
        "docid": "7311222946528461352",
        "url": ""
    },
    {
        "title": "【爆笑段子】这家伙占了我三天的车位了，怎么办？",
        "docid": "7317041296148218383",
        "url": ""
    },
    {
        "title": "你最长一次睡了多久？评论区：就佩服那个睡了三天掉了15斤的！",
        "docid": "7300400043876500008",
        "url": ""
    },
    {
        "title": "知道隔代亲，可你们也太亲了！网友：在我奶家，鸡鸭鹅我指谁谁死",
        "docid": "7314675373357466162",
        "url": ""
    },
    {
        "title": "笑晕了，92年31岁男子竟然当上老丈人，笑死在网友评论区里了",
        "docid": "7314970072307499561",
        "url": ""
    },
    {
        "title": "现在的父女关系",
        "docid": "7316021323078386215",
        "url": ""
    },
    {
        "title": "这才是收到男票红包时正确的反应",
        "docid": "7312212747767349795",
        "url": ""
    },
    {
        "title": "笑不活了！女子相亲被气到住院，男方下头操作让网友笑死在评论区",
        "docid": "7316024851663045155",
        "url": ""
    },
    {
        "title": "边界感缺失？熟人之间的过分要求让人反感！评论区让人眼界大开",
        "docid": "7315976683943756288",
        "url": ""
    },
    {
        "title": "大老板:我身价上亿岂能捡纸皮？大妈:利索点！好嘞",
        "docid": "7313894023365214760",
        "url": ""
    },
    {
        "title": "原来父母那辈的爱情也没那么单纯！网友分享太传奇，套路比我还深",
        "docid": "7316392076995183154",
        "url": ""
    },
    {
        "title": "说说那些无耻的双标，谁看谁不呼一声绝了！",
        "docid": "7298588149830320667",
        "url": ""
    },
    {
        "title": "当有些事多年以后才恍然大悟！网友：细思极恐！",
        "docid": "7316331935368856104",
        "url": ""
    },
    {
        "title": "第一次带女朋友回家有多搞笑？评论区蚌埠住了，开启逆天神评论",
        "docid": "7292981535433671204",
        "url": ""
    },
    {
        "title": "《墓志铭》这个段子太搞笑了，太有才了，幽默又有趣，你细品。",
        "docid": "7314557219004547618",
        "url": ""
    },
    {
        "title": "哪位大神写出的段子？“五百年后”太精彩绝对是人才，不服都不行",
        "docid": "7302365290661282339",
        "url": ""
    },
    {
        "title": "当自家的好白菜被猪拱了，连起个外号 都能听出来父母的阴阳怪气！",
        "docid": "7296544012297585187",
        "url": ""
    },
    {
        "title": "《借钱》这个段子真有趣，越看越精彩，越看越有味，有意思的段子",
        "docid": "7285194255931310652",
        "url": ""
    },
    {
        "title": "小时候比谁尿的远，每次都是我输，这些让人捧笑的段子，百看不厌",
        "docid": "7307147363309863436",
        "url": ""
    },
    {
        "title": "中国最牛的情报组织，看完消息我小脑都萎缩了，网友的评论太离谱",
        "docid": "7309772135302545954",
        "url": ""
    },
    {
        "title": "当你在医院上班，亲戚都能提出什么无理的要求",
        "docid": "7308917940249264680",
        "url": ""
    },
    {
        "title": "为什么我们总是怀念以前？看到网友的评论破防了⋯",
        "docid": "7316421756637004338",
        "url": ""
    },
    {
        "title": "亲戚能提多离谱的要求？网友：亲戚让我家100多平的房子5万卖给他",
        "docid": "7316860145244586511",
        "url": ""
    },
    {
        "title": "是不是南方人都以为东北天天下雪啊，哈尔滨是个市，不是张万森",
        "docid": "7309832802147533348",
        "url": ""
    },
    {
        "title": "给老婆发短信，误发给了女房东，女房东秒回：这个月房租不要了",
        "docid": "7316354070057370150",
        "url": ""
    },
    {
        "title": "你听到领导讲过最没水平的一句话是什么？一个神回答笑呆上万读者",
        "docid": "7307943124360331795",
        "url": ""
    },
    {
        "title": "人到中年：为啥胖成球？",
        "docid": "7301204970651583014",
        "url": ""
    },
    {
        "title": "原来生活中有些暗示已经这么明显！看完网友评论，觉得自己蠢如狗",
        "docid": "7316869557837578762",
        "url": ""
    },
    {
        "title": "最丢人的看病经历是啥？网友：硬着头皮让旁边大哥帮我把裤子穿上",
        "docid": "7316895584244318755",
        "url": ""
    },
    {
        "title": "什么是“血浓于水”，涨知识了。",
        "docid": "7317077228150653450",
        "url": ""
    },
    {
        "title": "“散装”江苏果然是名不虚传，看完网友的评论，真是要笑死人了",
        "docid": "7316844490936074763",
        "url": ""
    },
    {
        "title": "不要以为家庭主妇很轻松，要是不干家务，家里都糟贼了一样",
        "docid": "7315665199896216100",
        "url": ""
    },
    {
        "title": "终于知道为什么老师不在课间上厕所了",
        "docid": "7315611746625045001",
        "url": ""
    },
    {
        "title": "“爸爸生病住院，两女儿这样在医院照顾他”，网友：孝死我了",
        "docid": "7314294424568562188",
        "url": ""
    },
    {
        "title": "女汉子就是女汉子，穿上裙子也不像淑女，还是做回自己吧。哈哈",
        "docid": "7316815226068877843",
        "url": ""
    },
    {
        "title": "这一瞬间的沉默让人震耳欲聋",
        "docid": "7295612933034263074",
        "url": ""
    },
    {
        "title": "00后这\"开天辟地\"式聊天，看的我脸憋红了，他们的语言你懂多少？",
        "docid": "7299828947364561444",
        "url": ""
    },
    {
        "title": "“马赛克”确实是不能随便打，特别是女孩子，长相果然是硬伤哈哈",
        "docid": "7314216006862258723",
        "url": ""
    },
    {
        "title": "现在的人上班都上癫了",
        "docid": "7306863956486849058",
        "url": ""
    },
    {
        "title": "果然前任还没有完全放下来你，试图用这种手段引起你的注意",
        "docid": "7311283399912981031",
        "url": ""
    },
    {
        "title": "哪句“网络梗”让你很反感？",
        "docid": "7308409921232568884",
        "url": ""
    },
    {
        "title": "原配老婆与二婚老婆，生动形象，受益良多，总结得太到位了，细品",
        "docid": "7308340261745590799",
        "url": ""
    },
    {
        "title": "30张活久未见的照片，国外的狗有多大？老虎看到也得躲开吧",
        "docid": "7316509703109247538",
        "url": ""
    },
    {
        "title": "是什么原因让你从此不再吃某种食品",
        "docid": "7306463180530827812",
        "url": ""
    },
    {
        "title": "南方人第一次进北方澡堂：那一夜，我的身体彻底放飞了！",
        "docid": "7292737850137707035",
        "url": ""
    },
    {
        "title": "东北雪天路面有多滑！网友分享我呆住，直接笑死在评论区了！",
        "docid": "7313818055258473001",
        "url": ""
    },
    {
        "title": "大姐你这破洞裤的洞位置有点不对吧？看着有点想笑，网友：真别致",
        "docid": "7316782219975033363",
        "url": ""
    },
    {
        "title": "“坐地铁时碰到最美阿姨，偷瞄她时被发现，该怎么办？”哈哈哈",
        "docid": "7307074563593470501",
        "url": ""
    },
    {
        "title": "老板娘今天穿着紧身瑜伽裤就来上班了，说句实话，我都不太敢看她",
        "docid": "7316807442262688308",
        "url": ""
    },
    {
        "title": "高手在民间！实在是牛啊！有照片为证，啊哈哈哈哈哈哈哈~",
        "docid": "7288542352350855719",
        "url": ""
    },
    {
        "title": "【爆笑段子】这小子一看就是能成大器之人！",
        "docid": "7316667296766771747",
        "url": ""
    },
    {
        "title": "尴尬瞬间！30张尴尬家庭照片让你捧腹大笑",
        "docid": "7308286152480571944",
        "url": ""
    },
    {
        "title": "亲戚都提过什么过分的要求?电视剧还是保守了…",
        "docid": "7300857665142719015",
        "url": ""
    },
    {
        "title": "“温馨提示标语能多有硬核？？”主打一个直来直往！",
        "docid": "7292860805412815379",
        "url": ""
    },
    {
        "title": "“单身”，这些让人捧腹笑的段子，看一遍笑一遍！",
        "docid": "7295321125054448143",
        "url": ""
    },
    {
        "title": "同事当众说你男友是她喜欢的类型！你该如何回应？网友评论超神了",
        "docid": "7300114528854213172",
        "url": ""
    },
    {
        "title": "姓项，帮忙取一个霸气的名字，在线等，有趣的段子",
        "docid": "7285712113191256636",
        "url": ""
    },
    {
        "title": "有老公和没老公的区别，你看懂了吗？幽默漫画段子，太真实了",
        "docid": "7316839794351292969",
        "url": ""
    },
    {
        "title": "\"真的无力抵抗这种烂梗！！哈哈哈主打一个答非所问。\"",
        "docid": "7295298503872381451",
        "url": ""
    },
    {
        "title": "“刚租的房子，打扫柜子发现的，我是不是发财了？”急需鉴定啊！",
        "docid": "7290165956825891343",
        "url": ""
    },
    {
        "title": "说说你最接近死神的一次经历？网友们的回答让我破防了！心有余悸",
        "docid": "7300114969499501108",
        "url": ""
    },
    {
        "title": "“讨债”这个段子太搞笑了，抵债方式刷新了我的认知，太牛了。",
        "docid": "7315777592320442920",
        "url": ""
    },
    {
        "title": "笑不活了！为什么感觉广东很少扶弟魔呢？我却笑死在网友评论区里",
        "docid": "7314602819494363682",
        "url": ""
    },
    {
        "title": "对人别太好，喂狗别太饱！看评论区分享我呆住，网友: 匪夷所思",
        "docid": "7308559889163584040",
        "url": ""
    },
    {
        "title": "天呐，一边哭一边骂，直接笑喷了，童言无忌，笑点十足，值得细品",
        "docid": "7316578540999328319",
        "url": ""
    },
    {
        "title": "东北的女儿也太幸福了吧！来个东北人告诉我是真的吗？",
        "docid": "7286830704522953228",
        "url": ""
    },
    {
        "title": "中国人都是“天山童姥”？网友分享太震惊，直接被老外笑掉了假牙",
        "docid": "7314197833027469875",
        "url": ""
    },
    {
        "title": "“老板娘你穿成这样，生意不好是不可能的！”有那味了，哈哈哈哈",
        "docid": "7314706369419067930",
        "url": ""
    },
    {
        "title": "“男朋友送我的马赛克浴巾？哈哈哈哈哈这谁顶得住啊.....",
        "docid": "7317110060952568347",
        "url": ""
    },
    {
        "title": "“妹子衣服都脏成这样了没有发现吗？”哈哈哈哈后面的人乐坏了",
        "docid": "7310463102124917298",
        "url": ""
    },
    {
        "title": "独一无二的同桌，学校“选人大代表”幽默搞笑段子，笑得停不下来",
        "docid": "7316572460894175779",
        "url": ""
    },
    {
        "title": "翻开弟弟的浏览器记录，我当时就傻了，网友们我该怎么办？哈哈",
        "docid": "7311265259074241051",
        "url": ""
    },
    {
        "title": "你知道医院的实习生摇人能力有多强吗？",
        "docid": "7315331259075494434",
        "url": ""
    },
    {
        "title": "搞笑神回复：病人都向医生提过什么搞笑的要求？",
        "docid": "7316580889633227316",
        "url": ""
    },
    {
        "title": "你无意间发现过别人的什么秘密？评论区的奇妙经历惊呆上万网友",
        "docid": "7317104927162188299",
        "url": ""
    },
    {
        "title": "“上班被领导占小便宜怎么办？”哈哈哈哈哈你是懂报复的！",
        "docid": "7317128455962051110",
        "url": ""
    },
    {
        "title": "小姐姐胆子真肥，当着全车人的面一点都不避讳，实在太尴尬了",
        "docid": "7315982277606179339",
        "url": ""
    },
    {
        "title": "“犯低血糖的时候有多社死？”哈哈哈哈哈哈被网友评论笑吐！",
        "docid": "7317130832429384229",
        "url": ""
    },
    {
        "title": "90后年轻人，到底可以“懒”到什么程度？网友表示：太真实了",
        "docid": "7317096574423777819",
        "url": ""
    },
    {
        "title": "这才是应有的夫妻生活：中年的我，看了竟然好向往！",
        "docid": "7300829547031937546",
        "url": ""
    },
    {
        "title": "人类大型嘴瓢现场，评论区让人笑傻了，都是人才啊",
        "docid": "7317104760031592996",
        "url": ""
    },
    {
        "title": "有哪些你想发明的东西却已经被人发明了？评论区都是大聪明！",
        "docid": "7296400196378919433",
        "url": ""
    },
    {
        "title": "做的这种梦难道是前世今生？网友：是以前的革命先烈又回来了",
        "docid": "7301637696936821263",
        "url": ""
    },
    {
        "title": "00后这\"王昭君\"式聊天，看的我浮想翩翩，他们的语言你懂多少？",
        "docid": "7302691378847842855",
        "url": ""
    },
    {
        "title": "-那些被爱的细节 第一张就开始落泪😭",
        "docid": "7299355893085717004",
        "url": ""
    },
    {
        "title": "大爷你在公共场合，摆出这样的姿势是认真的吗？网友评论笑翻了",
        "docid": "7314198717186392627",
        "url": ""
    },
    {
        "title": "童年时期能做出多狠的事？网友的分享看得我目瞪口呆！全是老六啊",
        "docid": "7303389609944285722",
        "url": ""
    },
    {
        "title": "情侣之间经历过最尴尬的事情是什么？单身狗表示看的津津有味！",
        "docid": "7316942674182193690",
        "url": ""
    },
    {
        "title": "“辞职”这个段子太幽默了，老板套中套，太厉害了，你细品！",
        "docid": "7316492460250022410",
        "url": ""
    },
    {
        "title": "亲妈给我起的名字，相亲3回被女方打了7回！到现在还是光棍",
        "docid": "7310508700580577831",
        "url": ""
    },
    {
        "title": "不行了，要笑s在果郡王的评论区了，甄嬛传的售后服务期真长！ ​",
        "docid": "7303331524567515688",
        "url": ""
    },
    {
        "title": "原来浴池搓完澡真的换了一个人!看完网友的评论，我小脑都萎缩了",
        "docid": "7316810188840190483",
        "url": ""
    },
    {
        "title": "段子二，姐姐的行为刷新我的三观，太精彩了，值一看",
        "docid": "7317026110926324258",
        "url": ""
    },
    {
        "title": "神回复：晚上不要认错，毕竟狗可能会在床上， 人可能会滚下床",
        "docid": "7316016043145839141",
        "url": ""
    },
    {
        "title": "什么是英雄：我的爸爸是最可怜的人，捧腹大笑幽默段子",
        "docid": "7303511868755460658",
        "url": ""
    },
    {
        "title": "出生六年了才知道，这个世界上还有一顿饭叫早饭，幽默段子笑趴了",
        "docid": "7312607741086843432",
        "url": ""
    },
    {
        "title": "买三斤排骨刚走几步大妈追上，拽住我袖子不撒手：你，还要脸不？",
        "docid": "7312334565593416230",
        "url": ""
    },
    {
        "title": "今天和老公一起午睡，我醒了但没睁开眼，老公以为我还在睡觉",
        "docid": "7317133607784448548",
        "url": ""
    },
    {
        "title": "你最辉煌的时候卡里有多少钱？网友的分享让我破防！人各有命啊",
        "docid": "7317139126955622962",
        "url": ""
    },
    {
        "title": "有趣段子：第一次结婚叫开封，第四次叫四川，第七次叫什么？",
        "docid": "7315234394674561576",
        "url": ""
    },
    {
        "title": "有钱人的生活你根本想象不到，跑车烤鸡翅，太壕了",
        "docid": "7316522721205568036",
        "url": ""
    },
    {
        "title": "你“狠心”奢侈一把买的东西现在怎么样了？网友：抽屉里躺着",
        "docid": "7317101937688969769",
        "url": ""
    },
    {
        "title": "搞笑动图：婚礼现场千万不要看着闺蜜！",
        "docid": "7317133528453169690",
        "url": ""
    },
    {
        "title": "笑不活了，成都嬢嬢英语卖水果火了，我却笑死在网友评论区里",
        "docid": "7316711685530993191",
        "url": ""
    },
    {
        "title": "这些文学作品真的不能带脑子看！网友分享看的我口吐芬芳，人才啊",
        "docid": "7316845168995762699",
        "url": ""
    },
    {
        "title": "大姐你能不能换个地方睡觉啊，屁股后面的那双眼睛太吓人了",
        "docid": "7293497311400051226",
        "url": ""
    },
    {
        "title": "这才是真正的演技派吧！看第一眼的时候，居然一点破绽都没看出来",
        "docid": "7310522158621622819",
        "url": ""
    },
    {
        "title": "当代年轻人的语言艺术|曾经的我不屑一顾，现在的我全文背诵 ​​​",
        "docid": "7291125020066071101",
        "url": ""
    },
    {
        "title": "订婚的“五金”是哪“五金”？有谁知道吗？",
        "docid": "7297845756231647755",
        "url": ""
    },
    {
        "title": "“学霸父母学渣娃是什么体验？”哈哈哈祖坟不会一直冒青烟！",
        "docid": "7316849707140121098",
        "url": ""
    },
    {
        "title": "这些奇奇怪怪的“身体反应”，你自己看看，中招了多少？",
        "docid": "7285684989352641078",
        "url": ""
    },
    {
        "title": "丈夫和妻子的对话非常有趣，神童写的段子，看了真的让人哭笑不得",
        "docid": "7293194296898208271",
        "url": ""
    },
    {
        "title": "女生路遇色狼，把色狼都吓跑了，幽默有趣的段子，搞笑极了！",
        "docid": "7290012311618814499",
        "url": ""
    },
    {
        "title": "几则笑话（哈哈一笑•烦恼忘掉！）",
        "docid": "7316665408139067958",
        "url": ""
    },
    {
        "title": "无论在哪个年代，养猫人的行为都是一样。",
        "docid": "7313741114862125618",
        "url": ""
    },
    {
        "title": "天呐，太有才了，真没那么简单，地球仪都不知道怎么回事，你细品",
        "docid": "7305642762748248617",
        "url": ""
    },
    {
        "title": "非常经典的段子，真的高手，有人看懂了吗？有点歧义，明白了吗？",
        "docid": "7298619699511001663",
        "url": ""
    },
    {
        "title": "因为干干鱼和理发女的事情，三太子他妈和他爸吵起来了",
        "docid": "7316393581374603803",
        "url": ""
    },
    {
        "title": "这几个“胆大包天”的想法，真的做了会有什么后果？",
        "docid": "7315297038315307559",
        "url": ""
    },
    {
        "title": "可爱的表情包：茫茫人海中，我一眼就认出了你",
        "docid": "7290066410956227087",
        "url": ""
    },
    {
        "title": "大脸的一百分居然是抄的？当脸衰互换，都会有不一样的体验！🤣",
        "docid": "7306899536914989583",
        "url": ""
    },
    {
        "title": "61岁老知青招保姆，前两个都不满意，第三个竟是插队时的初恋女友",
        "docid": "7302356848500277795",
        "url": ""
    },
    {
        "title": "敢在村里这样穿！美女打扮成“少妇”模样在村里走，大爷大妈看痴",
        "docid": "7301511941686559247",
        "url": "https://www.ixigua.com/7301511941686559247"
    },
    {
        "title": "女子玩游戏输了被迫亲吻老公，全程鬼鬼祟祟下不去嘴，下一秒笑喷",
        "docid": "7287492536472601147",
        "url": "https://www.ixigua.com/7287492536472601147"
    },
    {
        "title": "男子趁妻子不在将后座挪至烈日下暴晒，不料对方已目睹，结局社死",
        "docid": "7295568581826183720",
        "url": "https://www.ixigua.com/7295568581826183720"
    },
    {
        "title": "哈哈！现在聊天尺度现在都这么大了吗？",
        "docid": "7317156290042823168",
        "url": ""
    },
    {
        "title": "第一天当保安，我锁了一辆违停的奥迪车，网友：建议你辞职",
        "docid": "7316710450094326284",
        "url": ""
    },
    {
        "title": "又菜又爱玩！妈妈和女儿打赌1000块，输了后的倔强逗笑网友",
        "docid": "7286033288806957622",
        "url": "https://www.ixigua.com/7286033288806957622"
    },
    {
        "title": "今天这个女生挺漂亮的，一见面我就喜欢上了，希望后续有所发展…",
        "docid": "7312743055436546614",
        "url": "https://www.ixigua.com/7312743055436546614"
    },
    {
        "title": "男生乘地铁遇前女友，两人对视弥补曾经的遗憾！网友：爱情科幻片",
        "docid": "7295628039663616563",
        "url": "https://www.ixigua.com/7295628039663616563"
    },
    {
        "title": "就为了一碗面条，母子俩差点翻脸，当妈的一点都不像妈，太气人了",
        "docid": "7301631347955761727",
        "url": "https://www.ixigua.com/7301631347955761727"
    },
    {
        "title": "男子骑车陪哥哥相亲自己被女方看中，结婚后感慨万分：差点成嫂子",
        "docid": "7298547734645375498",
        "url": "https://www.ixigua.com/7298547734645375498"
    },
    {
        "title": "小伙骗41岁漂亮阿姨前来约会，网友：你千万不能伤害他！哈哈哈",
        "docid": "7317187706268795429",
        "url": ""
    },
    {
        "title": "太有才了，几百年后才叫扫墓，哈哈，太逗了",
        "docid": "7317187295113839140",
        "url": ""
    },
    {
        "title": "爆笑神评：给你一个亿，让你做一天地球上最倒霉的人，你愿意吗？",
        "docid": "7317160452315071002",
        "url": ""
    },
    {
        "title": "你能想起来的小时候最远古的记忆是什么？网友的记忆点真是想不到",
        "docid": "7317167901885547018",
        "url": ""
    },
    {
        "title": "挤地铁是种什么体验？网友:十几年的驼背，从地铁出来后背都直了",
        "docid": "7316905759852544524",
        "url": ""
    },
    {
        "title": "我最近我发现了一件事情，我竟然能听见我家狗子说话了",
        "docid": "7317170919993033250",
        "url": ""
    },
    {
        "title": "女子和丈夫打架互不相让，家里一地狼藉打进医院骨科，回家后亮了",
        "docid": "7289234206683562511",
        "url": "https://www.ixigua.com/7289234206683562511"
    },
    {
        "title": "男子记录送女友回宿舍的画面，女友每次都回应画面甜蜜，穿搭太绝",
        "docid": "7288187748752720420",
        "url": "https://www.ixigua.com/7288187748752720420"
    },
    {
        "title": "当德华在邓紫棋面前唱你的大眼睛，邓紫棋：有时候真的很想报警！",
        "docid": "7296833846241788450",
        "url": "https://www.ixigua.com/7296833846241788450"
    },
    {
        "title": "#酒后百态 #酒后迷惑行为 看完这个视频，还敢喝酒吗",
        "docid": "7312299997293183507",
        "url": "https://www.ixigua.com/7312299997293183507"
    },
    {
        "title": "女孩子的倒霉瞬间！#这谁顶得住啊 #看一遍笑一遍 #倒霉瞬间",
        "docid": "7303547774804361766",
        "url": "https://www.ixigua.com/7303547774804361766"
    },
    {
        "title": "小姐姐假期回家，正打算走出门看看时的一幕，既好笑又心疼",
        "docid": "7284631518012834339",
        "url": "https://www.ixigua.com/7284631518012834339"
    },
    {
        "title": "女子把老公打扮成女生拍照，老公疯狂吐槽惹爆笑：婚姻快要破裂了",
        "docid": "7283777870253130259",
        "url": "https://www.ixigua.com/7283777870253130259"
    },
    {
        "title": "假如用“夹子音”唱歌有段位，最后一位我是真的服了！",
        "docid": "7314639001648890422",
        "url": "https://www.ixigua.com/7314639001648890422"
    },
    {
        "title": "笑死！一次校花评选，竟让无数小仙女破防",
        "docid": "7299718862818411027",
        "url": "https://www.ixigua.com/7299718862818411027"
    },
    {
        "title": "这个门牌真浪漫，没点文化看不出来！网友：咋读咋断句？",
        "docid": "7296415952789635623",
        "url": "https://www.ixigua.com/7296415952789635623"
    },
    {
        "title": "兄弟吓的想回家找妈妈了",
        "docid": "7310490256749855247",
        "url": "https://www.ixigua.com/7310490256749855247"
    },
    {
        "title": "女生接刚认识的相亲对象下班，见面瞬间惊喜嘴角上扬，忍不住撒娇",
        "docid": "7286283832590860835",
        "url": "https://www.ixigua.com/7286283832590860835"
    },
    {
        "title": "男生举起女生拿管道上的篮球，用力过猛滚到另一边，网友炸锅了",
        "docid": "7297113381050253862",
        "url": "https://www.ixigua.com/7297113381050253862"
    },
    {
        "title": "小伙拿礼品穿着棉拖去相亲，见面立马掏兜拿烟开始散，老人被逗乐",
        "docid": "7295590442953867816",
        "url": "https://www.ixigua.com/7295590442953867816"
    },
    {
        "title": "Boss应聘时的聊天尺度都这么大了！网友的评论太离谱，我学到了",
        "docid": "7317148209376608780",
        "url": ""
    },
    {
        "title": "超搞笑！当南方人分享北方搓澡经历。我差点笑死在评论区。",
        "docid": "7316825748776731188",
        "url": ""
    },
    {
        "title": "你最辉煌的时候一天挣过多少钱？网友分享的数字，让我目瞪口呆！",
        "docid": "7317197508957291018",
        "url": ""
    },
    {
        "title": "乍一看！还以为是一群姑娘在洗澡！仔细一看我差点笑死了，哈哈哈",
        "docid": "7317197223501726248",
        "url": ""
    },
    {
        "title": "男子偷向姥姥打听妈妈小名，得逞后蠢蠢欲动当面大喊，结局亮了！",
        "docid": "7291871239067402767",
        "url": "https://www.ixigua.com/7291871239067402767"
    },
    {
        "title": "盘点那些猝不及防的神回复，深夜不睡觉，一般人真招架不住",
        "docid": "7299785696288604724",
        "url": "https://www.ixigua.com/7299785696288604724"
    },
    {
        "title": "盘点那些不干人事的人类，宁愿自损八百，也要拉上垫背的一起！",
        "docid": "7296327562098278963",
        "url": "https://www.ixigua.com/7296327562098278963"
    },
    {
        "title": "父亲撞见儿子邀异性回家，秒识趣主动让位睡酒店，一句话戳破心思",
        "docid": "7306379803224080935",
        "url": "https://www.ixigua.com/7306379803224080935"
    },
    {
        "title": "搞笑GIF动图：敢怒不敢言，打个哈欠掩饰尴尬！",
        "docid": "7317219106020213286",
        "url": ""
    },
    {
        "title": "搞笑神评论：什么样的孩子在社会上最难立足？网友：太真实了！",
        "docid": "7316742933489697332",
        "url": ""
    },
    {
        "title": "盘点吃羊尾油翻车合集，看到后面，能给你笑出八块腹肌",
        "docid": "7314237773865714214",
        "url": "https://www.ixigua.com/7314237773865714214"
    },
    {
        "title": "给老外看古代各国军团，哪个军团实力最强！最后音乐一出太震撼了",
        "docid": "7288272736135315979",
        "url": "https://www.ixigua.com/7288272736135315979"
    },
    {
        "title": "卖菜大爷的拖拉机，竟然比迈巴赫还贵，盘点不起眼的街边富豪",
        "docid": "7285712971333173820",
        "url": "https://www.ixigua.com/7285712971333173820"
    },
    {
        "title": "盘点谭谈交通十大封神名场面，谁才是你心目中的搞笑之王！",
        "docid": "7314160130378400266",
        "url": "https://www.ixigua.com/7314160130378400266"
    },
    {
        "title": "当我以后再来观看马桶人视频：",
        "docid": "7295241194265969178",
        "url": "https://www.ixigua.com/7295241194265969178"
    },
    {
        "title": "小伙招惹斗牛后跳水中，斗牛的举动让人惊讶，下水就不追你了？",
        "docid": "7288631921439932968",
        "url": "https://www.ixigua.com/7288631921439932968"
    },
    {
        "title": "开播情景喜剧：简直和我共脑了！小沈阳是懂穿越后该做什么的",
        "docid": "7292415961792643620",
        "url": "https://www.ixigua.com/7292415961792643620"
    },
    {
        "title": "女同学把车开股沟里，男子“英雄救美“大秀车技”",
        "docid": "7300474472945943076",
        "url": "https://www.ixigua.com/7300474472945943076"
    },
    {
        "title": "女子见身旁有根线头好奇拽起，转眼一看当场爆笑：千里姻缘一线牵",
        "docid": "7288163403485413928",
        "url": "https://www.ixigua.com/7288163403485413928"
    },
    {
        "title": "我们是受过专业训练的 无论多好笑都不会笑！",
        "docid": "7313939612236743218",
        "url": "https://www.ixigua.com/7313939612236743218"
    },
    {
        "title": "盘点监控下不可置信的瞬间，要不是有监控记录了，我还真不相信",
        "docid": "7304174272979993107",
        "url": "https://www.ixigua.com/7304174272979993107"
    },
    {
        "title": "高铁上女生太饿碰巧邻座有吃的，下意识就伸手要，大哥瞬间懵了",
        "docid": "7296409736658977316",
        "url": "https://www.ixigua.com/7296409736658977316"
    },
    {
        "title": "女生和男友吵架后气到哭红眼，男友往她嘴边塞零食，下秒奇迹发生",
        "docid": "7285533011859374647",
        "url": "https://www.ixigua.com/7285533011859374647"
    },
    {
        "title": "女子得知老公花9000看跳舞，将其堵屋内当面一通扭，老公表情亮了",
        "docid": "7291476616906179091",
        "url": "https://www.ixigua.com/7291476616906179091"
    },
    {
        "title": "媳妇叫仨闺蜜来做客，丈夫开门听声音以为进盘丝洞：吓得直哆嗦！",
        "docid": "7304835649327071754",
        "url": "https://www.ixigua.com/7304835649327071754"
    },
    {
        "title": "女生玩大转盘直接摔进小伙怀里，逐渐放下矜持越抱越紧，小伙狂喜",
        "docid": "7285988096842301993",
        "url": "https://www.ixigua.com/7285988096842301993"
    },
    {
        "title": "孕妻朝男子放“毒气弹”得意洋洋，对比孕前照网友惊呆：气质女神",
        "docid": "7289662540655624761",
        "url": "https://www.ixigua.com/7289662540655624761"
    },
    {
        "title": "半大小子，吃穷老子是真的吗？一起来看看青春期孩子多能吃",
        "docid": "7316722780505047602",
        "url": ""
    },
    {
        "title": "哈哈，原来爸妈是一伙的，幽默的段子笑不停。",
        "docid": "7317241862061244940",
        "url": ""
    },
    {
        "title": "你有没有无心插柳的经历？朋友说要不咱俩试试，孩子现在两岁了",
        "docid": "7317228359048675859",
        "url": ""
    },
    {
        "title": "美女，这衣服穿的真是不给别人活路啊！妹子嫉妒的眼神能把你吃了",
        "docid": "7317168097880916516",
        "url": ""
    },
    {
        "title": "老外对中国的误解有多深？哈哈哈都是什么奇葩问题啊！",
        "docid": "7317232466018861583",
        "url": ""
    },
    {
        "title": "盘点堆雪人创意大赏，北方人独有的快乐#看看谁堆的雪人最逼真",
        "docid": "7314954044361933312",
        "url": "https://www.ixigua.com/7314954044361933312"
    },
    {
        "title": "离谱！长得好看要被吐槽丑，长得一般却要尬吹神颜！#盛世美颜",
        "docid": "7313234135068344858",
        "url": "https://www.ixigua.com/7313234135068344858"
    },
    {
        "title": "盘点人类幼崽的倒霉瞬间，真的是又好笑又心疼#人类幼崽",
        "docid": "7308340794321338907",
        "url": "https://www.ixigua.com/7308340794321338907"
    },
    {
        "title": "要一万贵吗？这些大尺度聊天，让人哭笑不得的对话，哈哈！",
        "docid": "7316536459517887026",
        "url": ""
    },
    {
        "title": "昨天相完亲，今天发位置，叫我去她家吃饭！",
        "docid": "7316277326801535500",
        "url": "https://www.ixigua.com/7316277326801535500"
    },
    {
        "title": "为了省钱把传单印成了黑白的，笑不活了！#网剧猎罪者开播",
        "docid": "7304860010075554340",
        "url": "https://www.ixigua.com/7304860010075554340"
    },
    {
        "title": "女儿奇葩走姿四肢各走各的，同行老妈捂脸吐槽：可丢不起这人",
        "docid": "7297034972618031656",
        "url": "https://www.ixigua.com/7297034972618031656"
    },
    {
        "title": "如果硬接武器有段位，其中一位用眼睛接子弹",
        "docid": "7295385913570853376",
        "url": "https://www.ixigua.com/7295385913570853376"
    },
    {
        "title": "究竟看到了什么，小姐姐笑的赘肉都不顾了",
        "docid": "7298153523345916456",
        "url": "https://www.ixigua.com/7298153523345916456"
    },
    {
        "title": "最强关系户爆笑合集：经理要开除小伙，没想到连保安都是关系户",
        "docid": "7291126117799297570",
        "url": "https://www.ixigua.com/7291126117799297570"
    },
    {
        "title": "“九个姿势，你更喜欢哪一个？”哈哈哈哈我都试过啊！",
        "docid": "7317248513111802422",
        "url": ""
    },
    {
        "title": "睡过和睡过头有区别吗？科长和小伙子的对话，周围人都笑喷了",
        "docid": "7313956637088334362",
        "url": ""
    },
    {
        "title": "男人vs女人，太真实了，形容的一模一样！",
        "docid": "7317265536965509670",
        "url": ""
    },
    {
        "title": "高铁上厕所你经历过什么？网友：尬哭了，能用脚抠出三室一厅",
        "docid": "7317215382329328162",
        "url": ""
    },
    {
        "title": "一男子要跳楼自杀，老婆让他别跳，结局大反转，幽默风趣好搞笑。",
        "docid": "7310021705051718144",
        "url": ""
    },
    {
        "title": "盘点技师与顾客的搞笑对话，“每天上一当，当当不一样”#技师",
        "docid": "7310822142974067215",
        "url": "https://www.ixigua.com/7310822142974067215"
    },
    {
        "title": "老婆我必须向你坦白，咱家除了包子铺还有几个亿！爆笑装穷场面",
        "docid": "7294113528909136418",
        "url": "https://www.ixigua.com/7294113528909136418"
    },
    {
        "title": "盘点闺蜜看上弟弟系列，肥水不流外人田 兔子不吃窝边草#见色起意",
        "docid": "7316873099129913868",
        "url": "https://www.ixigua.com/7316873099129913868"
    },
    {
        "title": "当我打扮成快递等媳妇回家，没想到她的反应简直绝了！",
        "docid": "7312424563076235811",
        "url": "https://www.ixigua.com/7312424563076235811"
    },
    {
        "title": "女子乘坐飞机前往老公工地宿舍，开门瞬间老公又惊又喜，画面温馨",
        "docid": "7286303342630797860",
        "url": "https://www.ixigua.com/7286303342630797860"
    },
    {
        "title": "猫咪和母鸡打架，打斗的过程花样百出，不爱笑的人都出来看看吧！",
        "docid": "7298282862477115945",
        "url": "https://www.ixigua.com/7298282862477115945"
    },
    {
        "title": "妹妹死活要跟哥哥去相亲，到地对嫂子摸手又抱抱，神操作惊呆哥哥",
        "docid": "7305593758232674850",
        "url": "https://www.ixigua.com/7305593758232674850"
    },
    {
        "title": "情侣异地再见面空气凝固，男友强行尬聊被女友堵死话题，场面爆笑",
        "docid": "7287073371748205110",
        "url": "https://www.ixigua.com/7287073371748205110"
    },
    {
        "title": "妈妈正在教育弟弟，姐姐在一旁“神补刀”",
        "docid": "7297836044513182244",
        "url": "https://www.ixigua.com/7297836044513182244"
    },
    {
        "title": "半夜睡不着 想把闺蜜摇过来陪我喝酒 没想到错发消息给她哥",
        "docid": "7317172407301964288",
        "url": ""
    },
    {
        "title": "男孩带女朋友回老家，得知男孩条件后，不愿意进门，最后惨遭打脸",
        "docid": "7294827246492549641",
        "url": "https://www.ixigua.com/7294827246492549641"
    },
    {
        "title": "宝哥连麦遇到宝藏级主播，那拖拉机外表下竟隐藏着法拉利的引擎",
        "docid": "7285377660073706019",
        "url": "https://www.ixigua.com/7285377660073706019"
    },
    {
        "title": "萌二确定不是人扮的，动作真得像极了两脚兽，真是太搞笑了",
        "docid": "7309428738318402087",
        "url": "https://www.ixigua.com/7309428738318402087"
    },
    {
        "title": "盘点那些倒反天罡的男人行为，就像是一只蚂蚁在和大象斗智斗勇",
        "docid": "7294206488673780265",
        "url": "https://www.ixigua.com/7294206488673780265"
    },
    {
        "title": "女子抓兔子，被另一只兔子暴打，兔子：师承叶问",
        "docid": "7286011817577579008",
        "url": "https://www.ixigua.com/7286011817577579008"
    },
    {
        "title": "少侠留步！原来是少东家！（2015）",
        "docid": "7289079549634675235",
        "url": "https://www.ixigua.com/7289079549634675235"
    },
    {
        "title": "路过一名女子看到河里有个小孩，不怕寒冷跳河救小孩好人一生平安",
        "docid": "7315795615542313483",
        "url": "https://www.ixigua.com/7315795615542313483"
    },
    {
        "title": "最怕遇上这种女生！随便一开口惊艳全场，网友：这歌又直又白",
        "docid": "7297884684963283483",
        "url": "https://www.ixigua.com/7297884684963283483"
    },
    {
        "title": "我拿你当兄弟，你竟然想当我妹夫！#剧情#遇见她#缘分#爱情",
        "docid": "7288569176099127849",
        "url": "https://www.ixigua.com/7288569176099127849"
    },
    {
        "title": "盘点少走三十年弯路的年轻人#走捷径的人 #软饭硬吃 #吾辈楷模",
        "docid": "7289002711314334263",
        "url": "https://www.ixigua.com/7289002711314334263"
    },
    {
        "title": "南方女婿在内蒙古做菜，牧民看见分量后一脸懵圈：明天再杀一头猪",
        "docid": "7284428862744691211",
        "url": "https://www.ixigua.com/7284428862744691211"
    },
    {
        "title": "喜欢了很久的女教练，她今天骑机车来驾校，那身材也太哇塞了吧！",
        "docid": "7316713020837757492",
        "url": "https://www.ixigua.com/7316713020837757492"
    }
]