[
    {
        "title": "盘点那些调皮的人类#调皮 #调皮捣蛋的小家伙",
        "docid": "7313048038577013283",
        "url": "https://www.ixigua.com/7313048038577013283"
    },
    {
        "title": "男子光明正大给老婆两耳光，老婆不恼反笑嘻嘻，故技重施不要太爽",
        "docid": "7305341888159351348",
        "url": "https://www.ixigua.com/7305341888159351348"
    },
    {
        "title": "网络搞笑神评：导演可能不懂历史，但是真的懂男人。",
        "docid": "7284541560828461625",
        "url": "https://www.ixigua.com/7284541560828461625"
    },
    {
        "title": "男子拍下这样一幕，本以为女子是残疾人，结果下一秒男子傻眼了",
        "docid": "7314572629896069673",
        "url": "https://www.ixigua.com/7314572629896069673"
    },
    {
        "title": "没有中国粉丝不敢取的id，念的时候真憋不住了，网友你们开心就好",
        "docid": "7298688160123486754",
        "url": "https://www.ixigua.com/7298688160123486754"
    },
    {
        "title": "女子吃饭逐渐“解除封印”，肚腩一览无余丈夫努力憋笑，下秒高能",
        "docid": "7289260750810546700",
        "url": "https://www.ixigua.com/7289260750810546700"
    },
    {
        "title": "搞笑GIF动图：妹子，逢场作戏都不会吗，为啥要真踹我？",
        "docid": "7315406308470129179",
        "url": ""
    },
    {
        "title": "大哥，喝多了这地方也不能钻啊，你起来先洗把脸清醒一下",
        "docid": "7314911805514990116",
        "url": ""
    },
    {
        "title": "唐僧不再死板，太招笑了，肚子都被笑痛了",
        "docid": "7291453365161050643",
        "url": ""
    },
    {
        "title": "40张罕见世界图片，德国医院精神病患者，生不如死！",
        "docid": "7314846951123059227",
        "url": ""
    },
    {
        "title": "这是人类发出的声音？本以为电脑合成的，原声出来那一刻人都傻了",
        "docid": "7295658727741325858",
        "url": "https://www.ixigua.com/7295658727741325858"
    },
    {
        "title": "刚满18岁是个啥玩意？满级夹子音，引得宅男沦陷！",
        "docid": "7302360914932695579",
        "url": "https://www.ixigua.com/7302360914932695579"
    },
    {
        "title": "女记者采访王大爷这段，承包了我一年的笑点，笑抽！爆笑采访系列",
        "docid": "7294854163777880627",
        "url": "https://www.ixigua.com/7294854163777880627"
    },
    {
        "title": "天呐，这样的颜值，她还觉得自己不漂亮！",
        "docid": "7312270250366468660",
        "url": "https://www.ixigua.com/7312270250366468660"
    },
    {
        "title": "女团假跳？观众上门讨说法？#艺能人金广发 #假唱 #社会百态",
        "docid": "7309336612377690663",
        "url": "https://www.ixigua.com/7309336612377690663"
    },
    {
        "title": "女子到东北玩泼水成冰，下一秒尴尬到极点笑肚子疼：看到冰了吗？",
        "docid": "7297060242410439194",
        "url": "https://www.ixigua.com/7297060242410439194"
    },
    {
        "title": "盘点那些哭着走出理发店的人类。我一般都不笑 除非忍不住",
        "docid": "7289804765180101160",
        "url": "https://www.ixigua.com/7289804765180101160"
    },
    {
        "title": "短剧：张浩给赌局放风，结果错把董叔接进了屋，结局那叫一个惨",
        "docid": "7315348982355558947",
        "url": "https://www.ixigua.com/7315348982355558947"
    },
    {
        "title": "辩论赛搞笑名场面#辩论赛名场面 #国际华语辩论邀请赛",
        "docid": "7296803940321100303",
        "url": "https://www.ixigua.com/7296803940321100303"
    },
    {
        "title": "盘点酒后的神级翻唱，少一杯唱不出那种感觉，多一杯唱出了心声",
        "docid": "7293098728481948160",
        "url": "https://www.ixigua.com/7293098728481948160"
    },
    {
        "title": "“保洁阿姨的侧颜，太惊艳了，是富婆体验生活吧？”哈哈哈",
        "docid": "7313092081365877286",
        "url": ""
    },
    {
        "title": "歪打正着（笑话）",
        "docid": "7315425352594145844",
        "url": ""
    },
    {
        "title": "盘点那些人间活阎王系列，给老鼠设计各种刑具，它们都犯天条了？",
        "docid": "7291486662062932536",
        "url": "https://www.ixigua.com/7291486662062932536"
    },
    {
        "title": "盘点女生生气时的统一表现,生气比年猪都难抓 ,十头牛都拉不住",
        "docid": "7301252940310938147",
        "url": "https://www.ixigua.com/7301252940310938147"
    },
    {
        "title": "盘点美食伤人事件，看一遍笑一天，看到后面，嘎嘎好笑",
        "docid": "7306810895458370060",
        "url": "https://www.ixigua.com/7306810895458370060"
    },
    {
        "title": "喝酒不可怕，可怕的是第二天有人给你回忆。#看一遍笑一遍",
        "docid": "7313065348348150324",
        "url": "https://www.ixigua.com/7313065348348150324"
    },
    {
        "title": "网友们神器大比拼！儿时若有此神器，方圆十里将无人可与本座一战",
        "docid": "7286690742699983395",
        "url": "https://www.ixigua.com/7286690742699983395"
    },
    {
        "title": "以前古灵精怪奶萌音，现在古灵精怪奶屁音，夹着说话不累吗",
        "docid": "7314113697134150156",
        "url": "https://www.ixigua.com/7314113697134150156"
    },
    {
        "title": "盘点那些老公买的奇葩物品，她老公到底从哪买的这些奇葩玩意！",
        "docid": "7293555376358687295",
        "url": "https://www.ixigua.com/7293555376358687295"
    },
    {
        "title": "女儿疯狂练肌肉，对着老妈一顿挑衅，结果老妈一招让她跪地求饶",
        "docid": "7310902703125692980",
        "url": "https://www.ixigua.com/7310902703125692980"
    },
    {
        "title": "笑死！这下谁还分的清富家千金和贫民女孩啊！",
        "docid": "7310785723748057634",
        "url": "https://www.ixigua.com/7310785723748057634"
    },
    {
        "title": "盘点那些炸街的奇葩发型，相当的炸裂啊#奇葩发型 #发型",
        "docid": "7288642344877425207",
        "url": "https://www.ixigua.com/7288642344877425207"
    },
    {
        "title": "不知道南方朋友想不想玩，东北人的快乐是雪给的",
        "docid": "7307963621571559987",
        "url": "https://www.ixigua.com/7307963621571559987"
    },
    {
        "title": "你家亲戚的八卦，你吃了多少瓜？一起来看看",
        "docid": "7315467460960879114",
        "url": ""
    },
    {
        "title": "天呐，太绝了，听君一席话，胜读十年书，师娘的话真对，精彩演绎",
        "docid": "7315472546470855180",
        "url": ""
    },
    {
        "title": "笑死！一次校花评选，竟让无数小仙女破防",
        "docid": "7299718862818411027",
        "url": "https://www.ixigua.com/7299718862818411027"
    },
    {
        "title": "爸爸冲娃感慨你永远是我儿子，不料儿子提出第二种可能，妈妈笑喷",
        "docid": "7314617725303980553",
        "url": "https://www.ixigua.com/7314617725303980553"
    },
    {
        "title": "心疼大兄弟吓得鞋都跑飞了😂😂#恶作剧 #恶灵骑士",
        "docid": "7287881096434614803",
        "url": "https://www.ixigua.com/7287881096434614803"
    },
    {
        "title": "锻刀大师自锤钛合金钢刀横扫于利刃争霸！这玩意儿也忒牛皮了吧！",
        "docid": "7283499601385456183",
        "url": "https://www.ixigua.com/7283499601385456183"
    },
    {
        "title": "躲在树后面真的可以防弹吗，那么它又能防哪些子弹呢？硬核测试。",
        "docid": "7290569165587350031",
        "url": "https://www.ixigua.com/7290569165587350031"
    },
    {
        "title": "用20斤棉花做出的雷云灯，真的有进入雷雨之中的感觉吗",
        "docid": "7289815416808047164",
        "url": "https://www.ixigua.com/7289815416808047164"
    },
    {
        "title": "在直播的世界我就是神，我回来了",
        "docid": "7297755996309422618",
        "url": "https://www.ixigua.com/7297755996309422618"
    },
    {
        "title": "顶级音综竟然干不过游戏圈歌友会，用着全损音质的设备",
        "docid": "7291227758125679143",
        "url": "https://www.ixigua.com/7291227758125679143"
    },
    {
        "title": "父子俩访谈花絮#老苏总的退休时光 #欢乐时刻 #老友记花絮",
        "docid": "7314832175629599271",
        "url": "https://www.ixigua.com/7314832175629599271"
    },
    {
        "title": "男子被兄弟嘲讽是单身狗，下秒女孩开车来接他，重重打兄弟脸太爽",
        "docid": "7302001927737639433",
        "url": "https://www.ixigua.com/7302001927737639433"
    },
    {
        "title": "广东人请回答！腊肠成本多少？利润多少？8毛的能吃吗？",
        "docid": "7282727480447009315",
        "url": "https://www.ixigua.com/7282727480447009315"
    },
    {
        "title": "大雪天那些倒霉瞬间",
        "docid": "7311246041477546537",
        "url": "https://www.ixigua.com/7311246041477546537"
    },
    {
        "title": "那些娶回家贼有趣的女人#万万没想到 #看一遍笑一遍 #每日一笑",
        "docid": "7299343260248605235",
        "url": "https://www.ixigua.com/7299343260248605235"
    },
    {
        "title": "女儿坐车里见骑电动的小姐姐，对她大喊能嫁给我爸爸吗，对话笑喷",
        "docid": "7283347975852851712",
        "url": "https://www.ixigua.com/7283347975852851712"
    },
    {
        "title": "医生一起看《问心》，结果心内和心外当场掐起来！",
        "docid": "7294532845949846031",
        "url": "https://www.ixigua.com/7294532845949846031"
    },
    {
        "title": "网约司机态度欠佳、乘客一招降服？#艺能人金广发 #网约车",
        "docid": "7307116046274855461",
        "url": "https://www.ixigua.com/7307116046274855461"
    },
    {
        "title": "以后再也不说电视拍的假了，生活中只有更离谱没有最离谱",
        "docid": "7282712755600261669",
        "url": "https://www.ixigua.com/7282712755600261669"
    },
    {
        "title": "兄弟聚会时，你听到哪句话的时候会意识到兄弟已经喝多了",
        "docid": "7314937310003495436",
        "url": ""
    },
    {
        "title": "盘点满级大孝子的神操作，简直孝出强大#满级大孝子 #人类幼崽",
        "docid": "7307574398129865279",
        "url": "https://www.ixigua.com/7307574398129865279"
    },
    {
        "title": "他只是穿错了一件衣服",
        "docid": "7287867140864999951",
        "url": "https://www.ixigua.com/7287867140864999951"
    },
    {
        "title": "斗腕冠军假扮成老奶奶，与各路壮汉掰手腕PK，会发生什么呢",
        "docid": "7287523161069847103",
        "url": "https://www.ixigua.com/7287523161069847103"
    },
    {
        "title": "搞笑剧：两美女单身久了，想找个安稳老实人，条件一降再降，搞笑",
        "docid": "7303860928351896104",
        "url": "https://www.ixigua.com/7303860928351896104"
    },
    {
        "title": "我老铁心里的那些小九九",
        "docid": "7302308495536489001",
        "url": "https://www.ixigua.com/7302308495536489001"
    },
    {
        "title": "低头族的倒霉瞬间，走路千万不要玩手机",
        "docid": "7304963500349391401",
        "url": "https://www.ixigua.com/7304963500349391401"
    },
    {
        "title": "女儿奴的爸爸们，拿住了爸爸的弱点，稳稳的#女儿控 #宝爸带娃",
        "docid": "7305306762201170466",
        "url": "https://www.ixigua.com/7305306762201170466"
    },
    {
        "title": "女子自称是个很节省的人，但就是攒不住钱，一谈原因把众人逗乐了",
        "docid": "7308290256946758198",
        "url": "https://www.ixigua.com/7308290256946758198"
    },
    {
        "title": "盘点女司机的迷之操作，遇事不要慌，先拿手机出来拍照发个圈",
        "docid": "7298293681495376399",
        "url": "https://www.ixigua.com/7298293681495376399"
    },
    {
        "title": "盘点手下不留情的名场面，玩的就是真实",
        "docid": "7282935740735226428",
        "url": "https://www.ixigua.com/7282935740735226428"
    },
    {
        "title": "那些不干人事的人类：连二次元的萌妹都耍，太不是人了！",
        "docid": "7299411993323110927",
        "url": "https://www.ixigua.com/7299411993323110927"
    },
    {
        "title": "网友质疑倪海杉根本不是富豪，就是一个小丑乞丐",
        "docid": "7291940620443386402",
        "url": "https://www.ixigua.com/7291940620443386402"
    },
    {
        "title": "盘点反应速度超快的人类，就这反应速度，不是一般人能比的",
        "docid": "7282415915831525900",
        "url": "https://www.ixigua.com/7282415915831525900"
    },
    {
        "title": "盘点在东北喊大哥有多好使，没有一个东北人能拒绝得了一声大哥。",
        "docid": "7311594316999328267",
        "url": "https://www.ixigua.com/7311594316999328267"
    },
    {
        "title": "外国人看中国短视频，刚说不爱看美女，就惨遭大数据打脸",
        "docid": "7303125864290615843",
        "url": "https://www.ixigua.com/7303125864290615843"
    },
    {
        "title": "这不是我家狗，我家狗没有这么硬",
        "docid": "7307908607641813543",
        "url": "https://www.ixigua.com/7307908607641813543"
    },
    {
        "title": "媳妇唱歌张嘴就跑调，老公受不了直接抢麦唱，听的媳妇眼里都是爱",
        "docid": "7312778297320931859",
        "url": "https://www.ixigua.com/7312778297320931859"
    },
    {
        "title": "儿子下雨天接女友，女孩紧揪衣服害羞求抱画面太甜，父母全程围观",
        "docid": "7295200762932822565",
        "url": "https://www.ixigua.com/7295200762932822565"
    },
    {
        "title": "给NBA传奇球星麦迪做@嘉之派 的家宴…为了找流浪大爷的女儿…",
        "docid": "7315030023839482402",
        "url": "https://www.ixigua.com/7315030023839482402"
    },
    {
        "title": "老公酒吧和美女拍照被发现，回家装睡老婆猛扇巴掌，结局爆笑",
        "docid": "7302257405595746831",
        "url": "https://www.ixigua.com/7302257405595746831"
    },
    {
        "title": "盘点闻会军和儿子的爆笑日常，儿子科目三连挂三次，闻神出手了",
        "docid": "7314238971041874458",
        "url": "https://www.ixigua.com/7314238971041874458"
    },
    {
        "title": "音综干不过pdd歌友会：本想水时长变神仙打架，除评委都是专业的",
        "docid": "7290863677534634515",
        "url": "https://www.ixigua.com/7290863677534634515"
    },
    {
        "title": "开始你觉得最坏的朋友，最后却是最单纯的",
        "docid": "7281966004446757395",
        "url": "https://www.ixigua.com/7281966004446757395"
    },
    {
        "title": "‬爆笑神评：如果给你一千万，让你朝好朋友腿上打一枪，你愿意吗",
        "docid": "7315339880211808819",
        "url": ""
    },
    {
        "title": "这植入角度是碳基生物能想出来的？",
        "docid": "7293840129578238464",
        "url": "https://www.ixigua.com/7293840129578238464"
    },
    {
        "title": "道士小姐姐做了个饭，差点引发宗门浩劫#搞笑 #迷惑行为大赏",
        "docid": "7298656207173386790",
        "url": "https://www.ixigua.com/7298656207173386790"
    },
    {
        "title": "广东女生是萌妹甜度天花板？开战！势必把这细糠抢过来尝尝。",
        "docid": "7313512385648525860",
        "url": "https://www.ixigua.com/7313512385648525860"
    },
    {
        "title": "究竟看到了什么，小姐姐笑的赘肉都不顾了",
        "docid": "7298153523345916456",
        "url": "https://www.ixigua.com/7298153523345916456"
    },
    {
        "title": "假装跟小姐姐拥抱，她们的反应太离谱了",
        "docid": "7300755943678018083",
        "url": "https://www.ixigua.com/7300755943678018083"
    },
    {
        "title": "太拼了！闺蜜酸女子找了个帅气对象，随后画面让其后槽牙都要咬碎",
        "docid": "7296295958705668627",
        "url": "https://www.ixigua.com/7296295958705668627"
    },
    {
        "title": "乘客让司机推荐好吃的？司机自作主张带乘客进入平行宇宙？",
        "docid": "7315277316802740772",
        "url": "https://www.ixigua.com/7315277316802740772"
    },
    {
        "title": "男生带女友聚会被兄弟孤立，女友挥手叫来两闺蜜，俩兄弟看到直眼",
        "docid": "7303350639671640610",
        "url": "https://www.ixigua.com/7303350639671640610"
    },
    {
        "title": "离谱！长得好看要被吐槽丑，长得一般却要尬吹神颜！#盛世美颜",
        "docid": "7313234135068344858",
        "url": "https://www.ixigua.com/7313234135068344858"
    },
    {
        "title": "乱室佳人！美女房间一地烟头极致脏乱差，看到枕头：螨虫都要跑路",
        "docid": "7291539981145735743",
        "url": "https://www.ixigua.com/7291539981145735743"
    },
    {
        "title": "四大眼神 #四大系列 #眼神 #搞笑",
        "docid": "7304130601278407231",
        "url": "https://www.ixigua.com/7304130601278407231"
    },
    {
        "title": "和日本闺蜜看鹿鼎记（二）这真的是我能看的吗？",
        "docid": "7284271935700075060",
        "url": "https://www.ixigua.com/7284271935700075060"
    },
    {
        "title": "当德华在邓紫棋面前唱你的大眼睛，邓紫棋：有时候真的很想报警！",
        "docid": "7296833846241788450",
        "url": "https://www.ixigua.com/7296833846241788450"
    },
    {
        "title": "男生和女生在海边玩耍，结果一个大浪后两人撞在一起：缘分来了？",
        "docid": "7304835174263587391",
        "url": "https://www.ixigua.com/7304835174263587391"
    },
    {
        "title": "监考当中无预兆出现 爆缸 给考生吓坏了",
        "docid": "7292334160666952231",
        "url": "https://www.ixigua.com/7292334160666952231"
    },
    {
        "title": "女子见男友家长装淑女，亲爸妈听谎话憋笑帮其圆谎：快点嫁了吧！",
        "docid": "7299699576074994228",
        "url": "https://www.ixigua.com/7299699576074994228"
    },
    {
        "title": "女孩偶遇心动帅哥勇敢搭讪，加微信扭头激动到起飞：长得帅就是好",
        "docid": "7283034200167580223",
        "url": "https://www.ixigua.com/7283034200167580223"
    },
    {
        "title": "10个月大萌娃看到大高个舅舅，当场呆住太可爱：她连大气都不敢出",
        "docid": "7284878592062947881",
        "url": "https://www.ixigua.com/7284878592062947881"
    },
    {
        "title": "现在的WiFi起名都这么s吗？哈哈哈一个比一个离谱…",
        "docid": "7300540893642179112",
        "url": ""
    },
    {
        "title": "大家和异性发生过最社死的事是什么？网友：大型社死现场",
        "docid": "7315327950114013696",
        "url": ""
    },
    {
        "title": "那现在分手，他们不白死了吗？那些让人忍俊不禁的对话！",
        "docid": "7313820854285386266",
        "url": ""
    },
    {
        "title": "前女友的报复性不大，侮辱性极强，幽默有趣！肚子都笑疼了，搞笑",
        "docid": "7313015922799772211",
        "url": ""
    },
    {
        "title": "你做过什么超级冷门的工作？网友：去南极扶企鹅1月3万，震惊住了",
        "docid": "7314923573448213007",
        "url": ""
    },
    {
        "title": "笑不活了！女子去相亲被男方气到住院，我却笑死在网友评论区里",
        "docid": "7313167207403274787",
        "url": ""
    },
    {
        "title": "结婚了你会家暴我吗？如果你需要的话，我可以学",
        "docid": "7287494085500502563",
        "url": ""
    },
    {
        "title": "娶同学为妻是一种什么体验？网友神评：被拿捏了！",
        "docid": "7282796842167943717",
        "url": ""
    },
    {
        "title": "你最长一次睡了多久？评论区：就佩服那个睡了三天掉了15斤的！",
        "docid": "7300400043876500008",
        "url": ""
    },
    {
        "title": "宝，今天我要给你一个惊喜⋯那些让人忍俊不禁的对话！",
        "docid": "7306515905239499290",
        "url": ""
    },
    {
        "title": "生米都已经煮成了熟饭，这些忍俊不禁的段子，让人捧腹大笑，精彩",
        "docid": "7313228374779052563",
        "url": ""
    },
    {
        "title": "原来南方人是这样看待北方饮食的！网友的评论一个比一个离谱",
        "docid": "7314499409201431077",
        "url": ""
    },
    {
        "title": "当代年轻人主打的就是一个不理解但尊重，他这么做一定有他的道理",
        "docid": "7293433960107966991",
        "url": ""
    },
    {
        "title": "千万不要一个人在被窝里看！那些舍不得删的搞笑聊天记录截图",
        "docid": "7307829011789972018",
        "url": ""
    },
    {
        "title": "中国人有多爱看热闹？爱听八卦不分年龄，一个被窝睡不出两种人",
        "docid": "7307137309638410806",
        "url": ""
    },
    {
        "title": "笑不活了！扬州大学爆改985，保安大叔打断施法！",
        "docid": "7314609641328198184",
        "url": ""
    },
    {
        "title": "知道隔代亲，可你们也太亲了！网友：在我奶家，鸡鸭鹅我指谁谁死",
        "docid": "7314675373357466162",
        "url": ""
    },
    {
        "title": "是不是南方人都以为东北天天下雪啊，哈尔滨是个市，不是张万森",
        "docid": "7309832802147533348",
        "url": ""
    },
    {
        "title": "图一，局长被举报了，你看懂了吗？幽默内涵的段子，有品有味！",
        "docid": "7312888296013595190",
        "url": ""
    },
    {
        "title": "中国最牛的情报组织，看完消息我小脑都萎缩了，网友的评论太离谱",
        "docid": "7309772135302545954",
        "url": ""
    },
    {
        "title": "“聊了一个月的网友奔现了，现在该怎么办？她在喝水我不敢跑”！",
        "docid": "7314589815134241334",
        "url": ""
    },
    {
        "title": "亲戚敢提多过分的要求？看完网友分享我惊呆，有的那是相当炸裂",
        "docid": "7312266115898655232",
        "url": ""
    },
    {
        "title": "笑晕了，92年31岁男子竟然当上老丈人，笑死在网友评论区里了",
        "docid": "7314970072307499561",
        "url": ""
    },
    {
        "title": "当自家的好白菜被猪拱了，连起个外号 都能听出来父母的阴阳怪气！",
        "docid": "7296544012297585187",
        "url": ""
    },
    {
        "title": "无敌的聊天记录，让人不知道该笑还是该哭",
        "docid": "7295039228126642688",
        "url": ""
    },
    {
        "title": "当你和前任之间的事被现任知晓后会怎样？评论区精彩纷呈！",
        "docid": "7309744236767953459",
        "url": ""
    },
    {
        "title": "杭州姑娘晒出一张聊天截图，火了！网友都说：这对肯定成了",
        "docid": "7313481798892519962",
        "url": ""
    },
    {
        "title": "老板娘迷之操作，看傻眼了，精彩有趣的段子，幽默又搞笑。",
        "docid": "7314566857133228580",
        "url": ""
    },
    {
        "title": "开心一刻搞笑gif动图:新郎别跳了吧再跳新娘要悔婚了",
        "docid": "7314883657808888355",
        "url": ""
    },
    {
        "title": "你有在无意间撞见过别人的秘密吗？看见网友回答，瞬间三观被毁！",
        "docid": "7314981366390047271",
        "url": ""
    },
    {
        "title": "“一女子脱了球衣打篮球遭吐槽，男生：我们没法安心比赛了”哈哈",
        "docid": "7313852915658605056",
        "url": ""
    },
    {
        "title": "原来生命是这么的脆弱，网友：只是上个厕所，结果人就没了！",
        "docid": "7312019332526096959",
        "url": ""
    },
    {
        "title": "现在和爸妈聊天的尺度都这么大了吗？网友：哦豁！孙悟空来了！",
        "docid": "7314927151650800169",
        "url": ""
    },
    {
        "title": "第一次带女朋友回家有多搞笑？评论区蚌埠住了，开启逆天神评论",
        "docid": "7292981535433671204",
        "url": ""
    },
    {
        "title": "网友奇葩避寒，咱就是说好不容易钻进去，突然想上厕所怎么办？",
        "docid": "7314868825278136866",
        "url": ""
    },
    {
        "title": "《墓志铭》这个段子太搞笑了，太有才了，幽默又有趣，你细品。",
        "docid": "7314557219004547618",
        "url": ""
    },
    {
        "title": "夏天的神回复：唐僧为什么不找个地方躲几年写几本经书糊弄皇帝。",
        "docid": "7290575090557665803",
        "url": ""
    },
    {
        "title": "五年没回国了，怎么装才显得自己不土？",
        "docid": "7314871069490676287",
        "url": ""
    },
    {
        "title": "你见过的有钱人有多低调？网友：公司刷碗阿姨开A8来办离职",
        "docid": "7314912029855285775",
        "url": ""
    },
    {
        "title": "哪位大神写出的段子？“五百年后”太精彩绝对是人才，不服都不行",
        "docid": "7302365290661282339",
        "url": ""
    },
    {
        "title": "说一说你死里逃生的经历，网友：做七重梦境，出不来！",
        "docid": "7314721475930407439",
        "url": ""
    },
    {
        "title": "大老板:我身价上亿岂能捡纸皮？大妈:利索点！好嘞",
        "docid": "7313894023365214760",
        "url": ""
    },
    {
        "title": "当你在医院上班，亲戚都能提出什么无理的要求",
        "docid": "7308917940249264680",
        "url": ""
    },
    {
        "title": "这才是收到男票红包时正确的反应",
        "docid": "7312212747767349795",
        "url": ""
    },
    {
        "title": "你听到领导讲过最没水平的一句话是什么？一个神回答笑呆上万读者",
        "docid": "7307943124360331795",
        "url": ""
    },
    {
        "title": "说说那些无耻的双标，谁看谁不呼一声绝了！",
        "docid": "7298588149830320667",
        "url": ""
    },
    {
        "title": "哈哈，太绝了，爸妈的吵架，出乎意料，原来有计划的，值得细品",
        "docid": "7314724386332836391",
        "url": ""
    },
    {
        "title": "00后这\"开天辟地\"式聊天，看的我脸憋红了，他们的语言你懂多少？",
        "docid": "7299828947364561444",
        "url": ""
    },
    {
        "title": "小孩子乱说话让人有多尴尬？有些是童言无忌，有些是家长教子不善",
        "docid": "7284019199268241955",
        "url": ""
    },
    {
        "title": "南方人第一次进北方澡堂：那一夜，我的身体彻底放飞了！",
        "docid": "7292737850137707035",
        "url": ""
    },
    {
        "title": "爸，你旁边的叔叔好帅，爸爸：这是你妈，网友当场笑喷了，哈哈哈",
        "docid": "7315331263697584659",
        "url": ""
    },
    {
        "title": "出远门你媳妇坐在副驾驶上在干嘛？评论区让人笑傻了，都是人才啊",
        "docid": "7315415176382218761",
        "url": ""
    },
    {
        "title": "“女生不要穿肉色的衣服啊，我还以为眼花了”哈哈哈看着好尴尬",
        "docid": "7315092532352877091",
        "url": ""
    },
    {
        "title": "去开家长会的尴尬瞬间你有过吗？",
        "docid": "7311222946528461352",
        "url": ""
    },
    {
        "title": "泪奔！心酸的童年怎样都没法治愈吧，哪怕一丝的爱都会铭记一辈子",
        "docid": "7315399637547385359",
        "url": ""
    },
    {
        "title": "广东人是都不爱买奢侈品吗？大家笑死在评论区里",
        "docid": "7315383729919246848",
        "url": ""
    },
    {
        "title": "搞怪微信背景图",
        "docid": "7314640604628025865",
        "url": ""
    },
    {
        "title": "在路上的时候你都捡到了什么？网友：真的太戏剧性了。",
        "docid": "7315241671531872807",
        "url": ""
    },
    {
        "title": "原配老婆与二婚老婆，生动形象，受益良多，总结得太到位了，细品",
        "docid": "7308340261745590799",
        "url": ""
    },
    {
        "title": "有哪些你想发明的东西却已经被人发明了？评论区都是大聪明！",
        "docid": "7296400196378919433",
        "url": ""
    },
    {
        "title": "“参加表哥的婚礼，看到嫂子那刻被惊艳到了！”网友神评太有趣了",
        "docid": "7315592848328737292",
        "url": ""
    },
    {
        "title": "小时候比谁尿的远，每次都是我输，这些让人捧笑的段子，百看不厌",
        "docid": "7307147363309863436",
        "url": ""
    },
    {
        "title": "82岁的老头说他媳妇怀孕了，医生的对话瞬间明白",
        "docid": "7314496861296329228",
        "url": ""
    },
    {
        "title": "无意发现我妈有个群，群名尺度真的让我汗颜…老爸知道你就完了！",
        "docid": "7314868156894282276",
        "url": ""
    },
    {
        "title": "“买个壁虎，却没想到越长越大！”这是养着就进化了吗？",
        "docid": "7315570345031860747",
        "url": ""
    },
    {
        "title": "东北雪天路面有多滑！网友分享我呆住，直接笑死在评论区了！",
        "docid": "7313818055258473001",
        "url": ""
    },
    {
        "title": "“合租女室友天天不关门是几个意思！”网友：你说啥意思就啥意思",
        "docid": "7315597214976574015",
        "url": ""
    },
    {
        "title": "瑟瑟发抖吧宿管！宿舍220的电流是电不死250的大学生的！",
        "docid": "7315335841814069811",
        "url": ""
    },
    {
        "title": "天呐！笑喷了，高手在监狱，专业的不如专心的，很有才，墙都不服",
        "docid": "7314682693688607259",
        "url": ""
    },
    {
        "title": "两广人冬天的坚持",
        "docid": "7315221411646390810",
        "url": ""
    },
    {
        "title": "“姑娘，不是什么照片都能随便发的！”哈哈哈亮点都看到了！",
        "docid": "7315322415545221682",
        "url": ""
    },
    {
        "title": "“新娘是真的漂亮啊，谁敢娶回家去？”真有点担心！哈哈哈哈哈",
        "docid": "7312694898304778779",
        "url": ""
    },
    {
        "title": "真的有不扫兴的父母？网友：家人们谁懂啊，我一男的被骂水性杨花",
        "docid": "7314968888528306739",
        "url": ""
    },
    {
        "title": "消费降级后原来可以这么爽！我要笑死在评论区了，一个比一个逆天",
        "docid": "7315236384342770186",
        "url": ""
    },
    {
        "title": "日本天皇19岁的独生女照片流出，网友评论神了，哈哈，笑的肚子疼",
        "docid": "7310876483575415323",
        "url": ""
    },
    {
        "title": "《借钱》这个段子真有趣，越看越精彩，越看越有味，有意思的段子",
        "docid": "7285194255931310652",
        "url": ""
    },
    {
        "title": "比谐音梗更好笑的是断句梗 ​",
        "docid": "7292736802459320847",
        "url": ""
    },
    {
        "title": "“刚租的房子，打扫柜子发现的，我是不是发财了？”急需鉴定啊！",
        "docid": "7290165956825891343",
        "url": ""
    },
    {
        "title": "笑到停不下来！网友的相亲聊天记录爆笑来袭，内容一个比一个炸裂",
        "docid": "7314931985460265472",
        "url": ""
    },
    {
        "title": "大爷你在公共场合，摆出这样的姿势是认真的吗？网友评论笑翻了",
        "docid": "7314198717186392627",
        "url": ""
    },
    {
        "title": "“和女孩子约会一定要去爬山，路越差越好，都是套路啊”哈哈哈",
        "docid": "7287128598010708538",
        "url": ""
    },
    {
        "title": "“坐地铁时碰到最美阿姨，偷瞄她时被发现，该怎么办？”哈哈哈",
        "docid": "7307074563593470501",
        "url": ""
    },
    {
        "title": "果然人的尊严有时比性命还重要! 网友:要留清白在人间",
        "docid": "7314887303825474100",
        "url": ""
    },
    {
        "title": "笑不活了！为什么感觉广东很少扶弟魔呢？我却笑死在网友评论区里",
        "docid": "7314602819494363682",
        "url": ""
    },
    {
        "title": "人到中年：为啥胖成球？",
        "docid": "7301204970651583014",
        "url": ""
    },
    {
        "title": "\"真的无力抵抗这种烂梗！！哈哈哈主打一个答非所问。\"",
        "docid": "7295298503872381451",
        "url": ""
    },
    {
        "title": "火车上的那些吃货行为？",
        "docid": "7314936234349150760",
        "url": ""
    },
    {
        "title": "东北的女儿也太幸福了吧！来个东北人告诉我是真的吗？",
        "docid": "7286830704522953228",
        "url": ""
    },
    {
        "title": "“马赛克”确实是不能随便打，特别是女孩子，长相果然是硬伤哈哈",
        "docid": "7314216006862258723",
        "url": ""
    },
    {
        "title": "“打扫老房子的时候掉下来的，不知道能不能换一套房？”哈哈哈",
        "docid": "7281919919208383012",
        "url": ""
    },
    {
        "title": "男人隐姓埋名描述自己女朋友，发言一个比一个激动！全是老六啊",
        "docid": "7304820415699042868",
        "url": ""
    },
    {
        "title": "原来中国在外国人眼里是这样的！看完网友的评论，我出乎意料",
        "docid": "7315350000811278848",
        "url": ""
    },
    {
        "title": "果然有趣的灵魂万里挑一啊，连老奶奶多年的面瘫，都给治愈了哈哈",
        "docid": "7314963287358358052",
        "url": ""
    },
    {
        "title": "不行了，要笑s在果郡王的评论区了，甄嬛传的售后服务期真长！ ​",
        "docid": "7303331524567515688",
        "url": ""
    },
    {
        "title": "中国人都是“天山童姥”？网友分享太震惊，直接被老外笑掉了假牙",
        "docid": "7314197833027469875",
        "url": ""
    },
    {
        "title": "“瞬间破防”这个段子太让人感动了，精彩富有内涵，太有趣了！",
        "docid": "7313468645328552463",
        "url": ""
    },
    {
        "title": "对人别太好，喂狗别太饱！看评论区分享我呆住，网友: 匪夷所思",
        "docid": "7308559889163584040",
        "url": ""
    },
    {
        "title": "90后年轻人，到底可以“懒”到什么程度？网友表示：太真实了",
        "docid": "7307946914140406322",
        "url": ""
    },
    {
        "title": "同事当众说你男友是她喜欢的类型！你该如何回应？网友评论超神了",
        "docid": "7300114528854213172",
        "url": ""
    },
    {
        "title": "说说你最接近死神的一次经历？网友们的回答让我破防了！心有余悸",
        "docid": "7300114969499501108",
        "url": ""
    },
    {
        "title": "被查房时，怎么证明是情侣关系？看完网友的评论，简直不要太离谱",
        "docid": "7313800634480787987",
        "url": ""
    },
    {
        "title": "太好奇了！扁头是山东人的省头? ！评论区笑出鹅叫声，哈哈哈",
        "docid": "7314932062178247202",
        "url": ""
    },
    {
        "title": "哈哈哈，给妻子发信息，手一滑发给了老板娘，她回道：改天吧",
        "docid": "7315626654326555175",
        "url": ""
    },
    {
        "title": "搞笑：今天遇上局部大暴雪，大学生爆改学校，打车小姐姐吓坏司机",
        "docid": "7315626017513931301",
        "url": ""
    },
    {
        "title": "哪句“网络梗”让你很反感？",
        "docid": "7308409921232568884",
        "url": ""
    },
    {
        "title": "当代年轻人的语言艺术|曾经的我不屑一顾，现在的我全文背诵 ​​​",
        "docid": "7291125020066071101",
        "url": ""
    },
    {
        "title": "第一次去岳父家，拿点什么比较排面？网友们评论一个比一个炸裂！",
        "docid": "7315628422842106395",
        "url": ""
    },
    {
        "title": "做的这种梦难道是前世今生？网友：是以前的革命先烈又回来了",
        "docid": "7301637696936821263",
        "url": ""
    },
    {
        "title": "“实不相瞒，这是我第一次零距离地接触妹子！”画面有点心酸啊~",
        "docid": "7310579910576357928",
        "url": ""
    },
    {
        "title": "哈哈，判断两个人是不是夫妻，太经典了，让人佩服，太有才了",
        "docid": "7311338609079353891",
        "url": ""
    },
    {
        "title": "这才是应有的夫妻生活：中年的我，看了竟然好向往！",
        "docid": "7300829547031937546",
        "url": ""
    },
    {
        "title": "女子花1.8万买衣服，一年不发货也不退款？客服回应",
        "docid": "7315575077150622208",
        "url": ""
    },
    {
        "title": "这就是结婚和不结婚的差别，突然感觉结婚有啥意思啊？扎心了老铁",
        "docid": "7314986824609759783",
        "url": ""
    },
    {
        "title": "这些奇奇怪怪的“身体反应”，你自己看看，中招了多少？",
        "docid": "7285684989352641078",
        "url": ""
    },
    {
        "title": "小孩子虽然小，但是是大嘴巴呀！",
        "docid": "7314968045867729408",
        "url": ""
    },
    {
        "title": "一图“床前明月光”，太有才了！经典有趣的段子！别有一番风味！",
        "docid": "7286377878085124660",
        "url": ""
    },
    {
        "title": "“单身”，这些让人捧腹笑的段子，看一遍笑一遍！",
        "docid": "7295321125054448143",
        "url": ""
    },
    {
        "title": "-那些被爱的细节 第一张就开始落泪😭",
        "docid": "7299355893085717004",
        "url": ""
    },
    {
        "title": "司机对着领导夫人这动作，差点被误会，看完笑到肚子疼，你细品。",
        "docid": "7314526087780893236",
        "url": ""
    },
    {
        "title": "高手在民间！实在是牛啊！有照片为证，啊哈哈哈哈哈哈哈~",
        "docid": "7288542352350855719",
        "url": ""
    },
    {
        "title": "当纹身“老了”会变成什么样？ 看完估计肠子都悔青了！哇哈哈哈哈",
        "docid": "7314883892241351207",
        "url": ""
    },
    {
        "title": "翻开弟弟的浏览器记录，我当时就傻了，网友们我该怎么办？哈哈",
        "docid": "7311265259074241051",
        "url": ""
    },
    {
        "title": "大哥在这种环境居然能睡着，真的不是一般人啊真的闻不到吗",
        "docid": "7315597129278784019",
        "url": ""
    },
    {
        "title": "\"名字就是个笑话？网友晒出的社交死标配，哈哈哈哈哈哈",
        "docid": "7314795217079517734",
        "url": ""
    },
    {
        "title": "尴尬瞬间！30张尴尬家庭照片让你捧腹大笑",
        "docid": "7308286152480571944",
        "url": ""
    },
    {
        "title": "发现生活中的奇葩事",
        "docid": "7314847607069770251",
        "url": ""
    },
    {
        "title": "段子一，无聊的最高境界！太搞笑了，笑出表情包，有才",
        "docid": "7282578263157916223",
        "url": ""
    },
    {
        "title": "搞笑：宽窄巷子，中国人自己的omakase",
        "docid": "7315610913661551155",
        "url": ""
    },
    {
        "title": "“网恋女友发来照片，看到镜子里的人分手了”哈哈哈照妖镜",
        "docid": "7315090299846722063",
        "url": ""
    },
    {
        "title": "订婚的“五金”是哪“五金”？有谁知道吗？",
        "docid": "7297845756231647755",
        "url": ""
    },
    {
        "title": "为了多看姑娘一眼，我追了整整7条街！才发现我看错了，好尴尬",
        "docid": "7314909022917378595",
        "url": ""
    },
    {
        "title": "原来家里太穷这么窒息，网友的真实经历一个比一个炸裂，太戳心了",
        "docid": "7315664951887036968",
        "url": ""
    },
    {
        "title": "“妹子衣服都脏成这样了没有发现吗？”哈哈哈哈后面的人乐坏了",
        "docid": "7310463102124917298",
        "url": ""
    },
    {
        "title": "房东与租客的对话，看完笑到肚子疼，太精彩了，幽默又搞笑。",
        "docid": "7311873317353521679",
        "url": ""
    },
    {
        "title": "“我姐穿短裙不喜欢穿安全裤，经常走光，要怎么劝她呢？”哈哈哈",
        "docid": "7315108664270946856",
        "url": ""
    },
    {
        "title": "现在的人上班都上癫了",
        "docid": "7306863956486849058",
        "url": ""
    },
    {
        "title": "吵架吵到一半，突然发现男朋友对的，怎么办？女网友们评论笑死了",
        "docid": "7315620965915116083",
        "url": ""
    },
    {
        "title": "搞笑世界名车车标",
        "docid": "7299780528905929243",
        "url": ""
    },
    {
        "title": "住了几天才发现床底下有这东西，现在退房房东应该不会扣押金吧",
        "docid": "7314928230811845159",
        "url": ""
    },
    {
        "title": "搞笑推送：我那爱吃火龙果的舍友，我真是服了她了！",
        "docid": "7315397367015817764",
        "url": ""
    },
    {
        "title": "妹子，现在敢穿这衣服上街的人太少了，你真没感到尴尬吗",
        "docid": "7312255672643486260",
        "url": ""
    },
    {
        "title": "大姐有点自知之明吧，你这算是生得漂亮天生丽质啊，别出来丢人了",
        "docid": "7315338563372024374",
        "url": ""
    },
    {
        "title": "“姑娘，长得好看也不能这样穿啊，裤子上的拉链好尴尬！”哇哈哈",
        "docid": "7314209470551736867",
        "url": ""
    },
    {
        "title": "媳妇和领导出差回来，给我看了看她的腿，瞬间心疼了",
        "docid": "7315106332137374248",
        "url": ""
    },
    {
        "title": "穿成这样去健身房，能拿下私教帅哥吗？",
        "docid": "7315102076013560335",
        "url": ""
    },
    {
        "title": "“温馨提示标语能多有硬核？？”主打一个直来直往！",
        "docid": "7292860805412815379",
        "url": ""
    },
    {
        "title": "00后这\"王昭君\"式聊天，看的我浮想翩翩，他们的语言你懂多少？",
        "docid": "7302691378847842855",
        "url": ""
    },
    {
        "title": "姓项，帮忙取一个霸气的名字，在线等，有趣的段子",
        "docid": "7285712113191256636",
        "url": ""
    },
    {
        "title": "笑不活了，92年男子当老丈人，公安局：是继父",
        "docid": "7315006637633339967",
        "url": ""
    },
    {
        "title": "亲妈给我起的名字，相亲3回被女方打了7回！到现在还是光棍",
        "docid": "7310508700580577831",
        "url": ""
    },
    {
        "title": "广东“猪八戒”上房，知情人称宰猪被它看到了，笑死在网友评论区",
        "docid": "7314989504757219866",
        "url": ""
    },
    {
        "title": "天呐，笑喷了，明天我不来上班了，人生哲理，徒弟的话耐人寻味呀",
        "docid": "7314676662740714022",
        "url": ""
    },
    {
        "title": "这一瞬间的沉默让人震耳欲聋",
        "docid": "7295612933034263074",
        "url": ""
    },
    {
        "title": "吃碗牛肉面，老板弄尴尬了，众人都佩服，百看不厌段子，回味无穷",
        "docid": "7314611181858636297",
        "url": ""
    },
    {
        "title": "一家人的名字引起的笑话，警察都笑懵了，有趣的段子，太精彩了！",
        "docid": "7313238226108678671",
        "url": ""
    },
    {
        "title": "买三斤排骨刚走几步大妈追上，拽住我袖子不撒手：你，还要脸不？",
        "docid": "7312334565593416230",
        "url": ""
    },
    {
        "title": "搞笑趣图:两个狗打着打着画风突变，变成交谊舞了！",
        "docid": "7315101331885408802",
        "url": ""
    },
    {
        "title": "出生六年了才知道，这个世界上还有一顿饭叫早饭，幽默段子笑趴了",
        "docid": "7312607741086843432",
        "url": ""
    },
    {
        "title": "这才是真正的演技派吧！看第一眼的时候，居然一点破绽都没看出来",
        "docid": "7310522158621622819",
        "url": ""
    },
    {
        "title": "这对夫妻太识大体了，叫姑娘放手和婆婆干仗，太搞笑了，值得一看",
        "docid": "7314611923344163362",
        "url": ""
    },
    {
        "title": "果然前任还没有完全放下来你，试图用这种手段引起你的注意",
        "docid": "7311283399912981031",
        "url": ""
    },
    {
        "title": "美女，在公共场所里还是注意点形象吧，隔着屏幕都感觉能闻到味了",
        "docid": "7315318839041245734",
        "url": ""
    },
    {
        "title": "无论在哪个年代，养猫人的行为都是一样。",
        "docid": "7313741114862125618",
        "url": ""
    },
    {
        "title": "大姐你能不能换个地方睡觉啊，屁股后面的那双眼睛太吓人了",
        "docid": "7293497311400051226",
        "url": ""
    },
    {
        "title": "什么是英雄：我的爸爸是最可怜的人，捧腹大笑幽默段子",
        "docid": "7303511868755460658",
        "url": ""
    },
    {
        "title": "天呐，太有才了，真没那么简单，地球仪都不知道怎么回事，你细品",
        "docid": "7305642762748248617",
        "url": ""
    },
    {
        "title": "冷笑话：一句招呼拯救一个人一辈子，充盈智慧的段子，值得一看！",
        "docid": "7314724938592567848",
        "url": ""
    },
    {
        "title": "老王调戏美女的高招，看一次笑一次，幽默又搞笑的段子，你细品。",
        "docid": "7312319699214402063",
        "url": ""
    },
    {
        "title": "搞笑段子:老鹰巢里的蛋换成了鸡蛋，老鹰蒙圈了，毁于一蛋",
        "docid": "7314668932500128275",
        "url": ""
    },
    {
        "title": "和婆婆吵架，套路让人哭笑不得，很有意思的小短文，不笑算我输",
        "docid": "7283041323962204687",
        "url": ""
    },
    {
        "title": "开房，看懂了吗？高段位妻子",
        "docid": "7315677348672586290",
        "url": ""
    },
    {
        "title": "伴娘下车之后，大家的视线突然不对劲了，新娘的内心得多尴尬啊!",
        "docid": "7315695858723340815",
        "url": ""
    },
    {
        "title": "“帮老婆拿快递，打开瞬间就懵圈了，这是啥玩意啊？”哈哈哈哈～",
        "docid": "7315372803845554688",
        "url": ""
    },
    {
        "title": "“老婆洗完澡刚发现的，请问这是什么啊？”她是不是有事瞒着我？",
        "docid": "7315098315727602228",
        "url": ""
    },
    {
        "title": "女生脚冷是怎么做到全国统一的？网友:把脚放老公肚上后他窜稀了",
        "docid": "7315686397430710803",
        "url": ""
    },
    {
        "title": "四川人都这么喜欢说叠词的吗？四川网友：我以为全国都叫挖挖机",
        "docid": "7315673587547914806",
        "url": ""
    },
    {
        "title": "哈哈哈，好搞笑的医患关系啊！",
        "docid": "7315672199887585826",
        "url": ""
    },
    {
        "title": "童年时期能做出多狠的事？网友的分享看得我目瞪口呆！全是老六啊",
        "docid": "7303389609944285722",
        "url": ""
    },
    {
        "title": "丈夫和妻子的对话非常有趣，神童写的段子，看了真的让人哭笑不得",
        "docid": "7293194296898208271",
        "url": ""
    },
    {
        "title": "“爸爸生病住院，两女儿这样在医院照顾他”，网友：孝死我了",
        "docid": "7315095402758275618",
        "url": ""
    },
    {
        "title": "大脸的一百分居然是抄的？当脸衰互换，都会有不一样的体验！🤣",
        "docid": "7306899536914989583",
        "url": ""
    },
    {
        "title": "搞笑：朋友过生日打算泼他一脸蛋糕，网购买的瑜伽裤真不错啊",
        "docid": "7315639916036129330",
        "url": ""
    },
    {
        "title": "当别人问你退休金多少时，你会怎么回答？",
        "docid": "7303770699582407208",
        "url": ""
    },
    {
        "title": "61岁老知青招保姆，前两个都不满意，第三个竟是插队时的初恋女友",
        "docid": "7302356848500277795",
        "url": ""
    },
    {
        "title": "可爱的表情包：茫茫人海中，我一眼就认出了你",
        "docid": "7290066410956227087",
        "url": ""
    },
    {
        "title": "女生路遇色狼，把色狼都吓跑了，幽默有趣的段子，搞笑极了！",
        "docid": "7290012311618814499",
        "url": ""
    },
    {
        "title": "非常经典的段子，真的高手，有人看懂了吗？有点歧义，明白了吗？",
        "docid": "7298619699511001663",
        "url": ""
    },
    {
        "title": "精选动图：看似拼钓技，实则拼火力！",
        "docid": "7314593250630173219",
        "url": ""
    },
    {
        "title": "衰半仙居然还有后续～大家居然要给著名好学生大脸拍电影！🤗",
        "docid": "7315521772151915060",
        "url": ""
    },
    {
        "title": "经典有才！图一“复杂的名字”有趣，幽默，搞笑！直接佩服！",
        "docid": "7282569914462896675",
        "url": ""
    },
    {
        "title": "大学老师和他的懒笨老婆：老公是麻将世家，在我娘家从来没赢过钱",
        "docid": "7299646376026309130",
        "url": ""
    },
    {
        "title": "笑不活了，朋友圈闻会军是什么梗？最近你的朋友圈有没有被霸占？",
        "docid": "7313552303339258409",
        "url": ""
    },
    {
        "title": "盘点堆雪人创意大赏，北方人独有的快乐#看看谁堆的雪人最逼真",
        "docid": "7314954044361933312",
        "url": "https://www.ixigua.com/7314954044361933312"
    },
    {
        "title": "女子玩游戏输了被迫亲吻老公，全程鬼鬼祟祟下不去嘴，下一秒笑喷",
        "docid": "7287492536472601147",
        "url": "https://www.ixigua.com/7287492536472601147"
    },
    {
        "title": "女生和男友吵架后气到哭红眼，男友往她嘴边塞零食，下秒奇迹发生",
        "docid": "7285533011859374647",
        "url": "https://www.ixigua.com/7285533011859374647"
    },
    {
        "title": "“车外喊话”竟然还能做这种事？",
        "docid": "7295694404860755977",
        "url": "https://www.ixigua.com/7295694404860755977"
    },
    {
        "title": "男生和女友视频室友意外入镜，浑身肌肉女友眼神看痴迷，结局爆笑",
        "docid": "7284826762779820600",
        "url": "https://www.ixigua.com/7284826762779820600"
    },
    {
        "title": "搞笑段子:公牛和母牛，在草原上的精彩对话，笑死我了。",
        "docid": "7314497942575268371",
        "url": ""
    },
    {
        "title": "盘点搞笑事件：冻在半路的鼠，在门口冰面刷了两万步的大叔",
        "docid": "7315721630973018633",
        "url": ""
    },
    {
        "title": "幽默笑话十则：妙语连珠乐无边！",
        "docid": "7315716644922245672",
        "url": ""
    },
    {
        "title": "人人皆知我是影帝江景御的舔狗。他家暴时我毫不手软",
        "docid": "7315734376262779404",
        "url": ""
    },
    {
        "title": "盘点美女关掉美颜的模样，一般我不笑，除非没忍住#素颜",
        "docid": "7304249034644914729",
        "url": "https://www.ixigua.com/7304249034644914729"
    },
    {
        "title": "宝爸不慎将遥控器碰到地上，一把抓起女儿神配合，女儿秒懂笑喷人",
        "docid": "7282959744896401975",
        "url": "https://www.ixigua.com/7282959744896401975"
    },
    {
        "title": "爆笑家庭笑话：这一家人逗得我再也忍不住这即将爆发的笑声！",
        "docid": "7315707904131596800",
        "url": ""
    },
    {
        "title": "男友当伴郎和美女同台憋不住笑，女友看着眼带杀意：“你死定了”",
        "docid": "7283312749638386212",
        "url": "https://www.ixigua.com/7283312749638386212"
    },
    {
        "title": "高铁上女生太饿碰巧邻座有吃的，下意识就伸手要，大哥瞬间懵了",
        "docid": "7296409736658977316",
        "url": "https://www.ixigua.com/7296409736658977316"
    },
    {
        "title": "国外整蛊6：带比老妈大2岁的对象见家长，会发生什么样的名场面？",
        "docid": "7299803103690719744",
        "url": "https://www.ixigua.com/7299803103690719744"
    },
    {
        "title": "大爷相亲漂亮大姐，当场就表示自己配不上，生怕娶了养不住",
        "docid": "7289762837873263140",
        "url": "https://www.ixigua.com/7289762837873263140"
    },
    {
        "title": "小伙拿礼品穿着棉拖去相亲，见面立马掏兜拿烟开始散，老人被逗乐",
        "docid": "7295590442953867816",
        "url": "https://www.ixigua.com/7295590442953867816"
    },
    {
        "title": "男生用力亲了一口女友额头，下秒转头瞬间“病入膏肓”，网友笑喷",
        "docid": "7287405489808540179",
        "url": "https://www.ixigua.com/7287405489808540179"
    },
    {
        "title": "东北小伙第1次吃咸粽，满脸嫌弃到真香现场：感觉咸粽比甜粽好吃",
        "docid": "7300031877778244147",
        "url": "https://www.ixigua.com/7300031877778244147"
    },
    {
        "title": "男子偷向姥姥打听妈妈小名，得逞后蠢蠢欲动当面大喊，结局亮了！",
        "docid": "7291871239067402767",
        "url": "https://www.ixigua.com/7291871239067402767"
    },
    {
        "title": "中国山东小伙搞笑模仿美女介绍汽车火到国外！外友:模仿超越原版",
        "docid": "7315723413358969355",
        "url": "https://www.ixigua.com/7315723413358969355"
    },
    {
        "title": "盘点带货翻车现场，杨嫂穿睡衣上阵，网友不淡定了：嫂子包邮吗？",
        "docid": "7313538312165229108",
        "url": "https://www.ixigua.com/7313538312165229108"
    },
    {
        "title": "宝哥连麦遇到宝藏级主播，那拖拉机外表下竟隐藏着法拉利的引擎",
        "docid": "7285377660073706019",
        "url": "https://www.ixigua.com/7285377660073706019"
    },
    {
        "title": "卖菜大爷的拖拉机，竟然比迈巴赫还贵，盘点不起眼的街边富豪",
        "docid": "7285712971333173820",
        "url": "https://www.ixigua.com/7285712971333173820"
    },
    {
        "title": "熊孩子拿学费请舅舅吃大餐，淡定吃完告诉舅舅真相：蹭饭的慌了",
        "docid": "7290400031327453707",
        "url": "https://www.ixigua.com/7290400031327453707"
    },
    {
        "title": "妻子在丈夫面前秀身材，丈夫称赞不胖引她不满，违心话一说秒开心",
        "docid": "7283698616378589732",
        "url": "https://www.ixigua.com/7283698616378589732"
    },
    {
        "title": "“动物冬日玩雪行为大赏，真的太搞笑了！”",
        "docid": "7312612507930231308",
        "url": "https://www.ixigua.com/7312612507930231308"
    },
    {
        "title": "父亲撞见儿子邀异性回家，秒识趣主动让位睡酒店，一句话戳破心思",
        "docid": "7306379803224080935",
        "url": "https://www.ixigua.com/7306379803224080935"
    },
    {
        "title": "女子开车过收费站偶遇闺蜜，见面后整车人瞬间笑喷：拉了车猴子吗",
        "docid": "7286286200384520704",
        "url": "https://www.ixigua.com/7286286200384520704"
    },
    {
        "title": "乌龙事件！妈妈误以为女儿给男生买衣服，知道真相后瞬间变脸",
        "docid": "7303792723901973044",
        "url": "https://www.ixigua.com/7303792723901973044"
    },
    {
        "title": "司机看别人漂亮媳妇跟车羡慕不已，一看自己媳妇满脸忧愁：输在哪",
        "docid": "7304206700578669097",
        "url": "https://www.ixigua.com/7304206700578669097"
    },
    {
        "title": "“睡过头了”这个段子太幽默了，两人迟到，只针对一人，太搞笑了",
        "docid": "7315645913492898339",
        "url": ""
    },
    {
        "title": "“陪女友去医院，医生从她体内取出来的，”女友说是鱼钩？哈哈哈",
        "docid": "7315604394078618162",
        "url": ""
    },
    {
        "title": "你为什么单身的原因找到了！被网友们的留言笑疯了",
        "docid": "7315649315727589922",
        "url": ""
    },
    {
        "title": "笑不活了，还是幼儿园的男人靠谱又真诚，出手就是“200g金条”",
        "docid": "7315743859853083199",
        "url": ""
    },
    {
        "title": "女子和丈夫打架互不相让，家里一地狼藉打进医院骨科，回家后亮了",
        "docid": "7289234206683562511",
        "url": "https://www.ixigua.com/7289234206683562511"
    },
    {
        "title": "又菜又爱玩！妈妈和女儿打赌1000块，输了后的倔强逗笑网友",
        "docid": "7286033288806957622",
        "url": "https://www.ixigua.com/7286033288806957622"
    },
    {
        "title": "男子记录送女友回宿舍的画面，女友每次都回应画面甜蜜，穿搭太绝",
        "docid": "7288187748752720420",
        "url": "https://www.ixigua.com/7288187748752720420"
    },
    {
        "title": "女子把老公打扮成女生拍照，老公疯狂吐槽惹爆笑：婚姻快要破裂了",
        "docid": "7283777870253130259",
        "url": "https://www.ixigua.com/7283777870253130259"
    },
    {
        "title": "爆笑神评系列：我家几代人的努力，凭什么输给你十年寒窗苦读？",
        "docid": "7315727154375819839",
        "url": ""
    },
    {
        "title": "有哪些北方人到南方发生的搞笑的事？万万没想到南方蟑螂这么大",
        "docid": "7315678847067013641",
        "url": ""
    },
    {
        "title": "盘点吃羊尾油翻车合集，看到后面，能给你笑出八块腹肌",
        "docid": "7314237773865714214",
        "url": "https://www.ixigua.com/7314237773865714214"
    },
    {
        "title": "盘点人类幼崽的倒霉瞬间，真的是又好笑又心疼#人类幼崽",
        "docid": "7308340794321338907",
        "url": "https://www.ixigua.com/7308340794321338907"
    },
    {
        "title": "儿子向妈妈要发卡给喜欢的女生！妈妈气愤不已，随后一幕爆笑了",
        "docid": "7287783877953880631",
        "url": "https://www.ixigua.com/7287783877953880631"
    },
    {
        "title": "情侣异地再见面空气凝固，男友强行尬聊被女友堵死话题，场面爆笑",
        "docid": "7287073371748205110",
        "url": "https://www.ixigua.com/7287073371748205110"
    },
    {
        "title": "盘点那些被老师抓包的社死现场，这反应太真实了#班主任",
        "docid": "7282742729937781260",
        "url": "https://www.ixigua.com/7282742729937781260"
    },
    {
        "title": "朋友娶了俄罗斯美女，产前娜塔莎，产后娜大妈！这谁顶得住啊哈哈",
        "docid": "7315749142557606400",
        "url": ""
    },
    {
        "title": "女子为老总庆生送“猪头叼花”，脚下一滑猪头落地，同事笑出鹅叫",
        "docid": "7283767983988539943",
        "url": "https://www.ixigua.com/7283767983988539943"
    },
    {
        "title": "小品：两个怕老婆的男人在一起吹牛，吹到最后都露馅了，真有意思",
        "docid": "7312933887477285388",
        "url": "https://www.ixigua.com/7312933887477285388"
    },
    {
        "title": "男子趁妻子不在将后座挪至烈日下暴晒，不料对方已目睹，结局社死",
        "docid": "7295568581826183720",
        "url": "https://www.ixigua.com/7295568581826183720"
    },
    {
        "title": "盘点谭谈交通十大封神名场面，谁才是你心目中的搞笑之王！",
        "docid": "7314160130378400266",
        "url": "https://www.ixigua.com/7314160130378400266"
    },
    {
        "title": "笑哭！内蒙一男子半夜见妻子厕所里冒金光，灵魂发问在“焊腿”",
        "docid": "7304072851869729292",
        "url": "https://www.ixigua.com/7304072851869729292"
    },
    {
        "title": "女儿湖南出生L和N不分，东北妈妈教发音秒崩溃，爸爸吃瓜捂脸爆笑",
        "docid": "7284816508532982307",
        "url": "https://www.ixigua.com/7284816508532982307"
    },
    {
        "title": "反正人长得漂亮，穿衣服就很任性，走在大街上也不用怕尴尬了",
        "docid": "7315784619142988288",
        "url": ""
    },
    {
        "title": "网文作者文化有限，无脑突破天际，一个比一个奇葩，笑不活了",
        "docid": "7315696664004575798",
        "url": ""
    },
    {
        "title": "接连打了三遍，无人接听",
        "docid": "7315318027409605130",
        "url": ""
    },
    {
        "title": "“狗粮塞嘴里了”让路人从牵手的情侣中间走过，他们的反应好精彩",
        "docid": "7299386999353147931",
        "url": "https://www.ixigua.com/7299386999353147931"
    },
    {
        "title": "盘点那些娶回家贼好玩的女生，跟这样的女孩在一起，每天都很快乐",
        "docid": "7292694713994314278",
        "url": "https://www.ixigua.com/7292694713994314278"
    },
    {
        "title": "盘点社牛小朋友的高能场面，社恐妈妈真想找个地缝钻进去",
        "docid": "7291442516824424995",
        "url": "https://www.ixigua.com/7291442516824424995"
    },
    {
        "title": "盘点那些幸福家庭的浪漫瞬间",
        "docid": "7304240138607297050",
        "url": "https://www.ixigua.com/7304240138607297050"
    },
    {
        "title": "女子乘坐飞机前往老公工地宿舍，开门瞬间老公又惊又喜，画面温馨",
        "docid": "7286303342630797860",
        "url": "https://www.ixigua.com/7286303342630797860"
    },
    {
        "title": "兄弟吓的想回家找妈妈了",
        "docid": "7310490256749855247",
        "url": "https://www.ixigua.com/7310490256749855247"
    },
    {
        "title": "开大车的丈夫5点打电话说想孩子，还突然表白，妻子察觉不对泪崩",
        "docid": "7283419755904500264",
        "url": "https://www.ixigua.com/7283419755904500264"
    },
    {
        "title": "情侣在街边吵架，女生上前给男生一巴掌，没想到男生反手爆扇女生",
        "docid": "7310426552179622441",
        "url": "https://www.ixigua.com/7310426552179622441"
    },
    {
        "title": "男子验收新房，发现墙里还有1个“附赠”的房间：白送的？",
        "docid": "7285581551155282490",
        "url": "https://www.ixigua.com/7285581551155282490"
    },
    {
        "title": "男生举起女生拿管道上的篮球，用力过猛滚到另一边，网友炸锅了",
        "docid": "7297113381050253862",
        "url": "https://www.ixigua.com/7297113381050253862"
    },
    {
        "title": "“出差提前回家，在楼下就看到老婆在窗边活动，真好！”哈哈哈",
        "docid": "7315584124134212135",
        "url": ""
    },
    {
        "title": "不同年代的嫁人标准！结婚前VS结婚后！差别一目了然！",
        "docid": "7315796268990300723",
        "url": ""
    },
    {
        "title": "天呐，为什么结婚后就不送我礼物了？精彩绝伦，文采不凡，细品",
        "docid": "7315800871395361318",
        "url": ""
    },
    {
        "title": "大学舍友反对我要二胎，如今她39岁高龄，再抢一胎",
        "docid": "7315773223457718803",
        "url": ""
    },
    {
        "title": "以前剑神打架对比现在：以前剑气纵横！现在除了慢动作就是挥挥手",
        "docid": "7289708290060059151",
        "url": "https://www.ixigua.com/7289708290060059151"
    },
    {
        "title": "够我闺蜜学一辈子！女孩坐姑父腿上提肩撩发气姑姑，过程引人爆笑",
        "docid": "7301215757986497076",
        "url": "https://www.ixigua.com/7301215757986497076"
    },
    {
        "title": "笑死人的神接话系列，任素汐：你能不能消停点，再敢接一句试试？",
        "docid": "7296680355107439139",
        "url": "https://www.ixigua.com/7296680355107439139"
    },
    {
        "title": "少侠留步！原来是少东家！（2015）",
        "docid": "7289079549634675235",
        "url": "https://www.ixigua.com/7289079549634675235"
    }
]