[
    {
        "title": "神回复：花果山白宫出售，总价120亿，便宜点我就买了",
        "docid": "7326892625133748774",
        "url": ""
    },
    {
        "title": "分手后怎么一句话让对方睡不着觉？”网友都太损了，哈哈哈",
        "docid": "7326651615509840394",
        "url": ""
    },
    {
        "title": "“头一次在南方接工程，弱弱地问一句这种情况怎么处理？”哈哈哈",
        "docid": "7326905623181148724",
        "url": ""
    },
    {
        "title": "女子在酒吧疯狂玩耍，甘愿被陌生男人灌酒，被拖走时已经人事不省",
        "docid": "7326932301533725236",
        "url": ""
    },
    {
        "title": "“健身房到底有多乱？”哈哈哈哈哈哈哈哈，神评太真实了～",
        "docid": "7326937476205904411",
        "url": ""
    },
    {
        "title": "原来南北方的酒也是有区别的，东北人挑战广西公文包，好搞笑",
        "docid": "7326890778788954639",
        "url": ""
    },
    {
        "title": "同学邀我看戏，没想到自己却成了“戏子”，看懂的都是高手",
        "docid": "7326885393939300873",
        "url": ""
    },
    {
        "title": "夫妻陌路：难道这就是我们说的‘真爱’？楼梯相遇都视而不见？",
        "docid": "7326942742960718351",
        "url": ""
    },
    {
        "title": "狂魔哥让粉丝向猪悠提亲，猪猪小悠当场破防化身猎魔人",
        "docid": "7315042756429251082",
        "url": "https://www.ixigua.com/7315042756429251082"
    },
    {
        "title": "实验室来了个漂亮的小师妹，八百年前是一家，很搞笑",
        "docid": "7326883923030966811",
        "url": ""
    },
    {
        "title": "男子买了新相机, 请丈母娘拍外景练技术, 网友, 你丈母娘单身吗",
        "docid": "7326932625322295846",
        "url": ""
    },
    {
        "title": "神回复：挑战全网！恕我直言，没人能驾驭这件衣服，但最后我输了",
        "docid": "7326925121749582386",
        "url": ""
    },
    {
        "title": "今日份搞笑:当有网友发现《红楼梦》尤二姐长得像刘备时……",
        "docid": "7325779092509426230",
        "url": ""
    },
    {
        "title": "笑死！一次校花评选，竟让无数小仙女破防",
        "docid": "7299718862818411027",
        "url": "https://www.ixigua.com/7299718862818411027"
    },
    {
        "title": "盘点体育运动中的美好有趣、搞笑尴尬瞬间，笑到肚子疼，太逗了！",
        "docid": "7325289837040173608",
        "url": "https://www.ixigua.com/7325289837040173608"
    },
    {
        "title": "为追求苗条身材，女子用绷带绑住自己4年，拆开后众人却都愣了！",
        "docid": "7323503974114558476",
        "url": "https://www.ixigua.com/7323503974114558476"
    },
    {
        "title": "网络搞笑神评论盘点！世界在变迁，嫦娥也擦边。",
        "docid": "7317591215112323603",
        "url": "https://www.ixigua.com/7317591215112323603"
    },
    {
        "title": "笑不活了！第一批要回家过年的狗被迫营业！被评论区的\"比划\"整乐",
        "docid": "7326914576980165160",
        "url": ""
    },
    {
        "title": "生物老师是个女的，讲到生理部分时，她向一男生提问",
        "docid": "7326774605232865818",
        "url": ""
    },
    {
        "title": "大哥啊，算我求求你了，自首吧，别再侮辱我的智商了",
        "docid": "7326916549359649315",
        "url": ""
    },
    {
        "title": "女朋友出差了，说去了上海出差，还给我发来了一张这样的照片",
        "docid": "7326663694706819624",
        "url": ""
    },
    {
        "title": "妹子这是穿了男朋友的裤子吧，腰围的位置好尴尬啊，男友眼神亮了",
        "docid": "7326674025902883328",
        "url": ""
    },
    {
        "title": "“花雇她来铲墙皮，我是不是赚大了，醉翁之意不在酒”，哈哈",
        "docid": "7326627474962399781",
        "url": ""
    },
    {
        "title": "“女同事请我吃烤肉，为何她只吃生菜？”网友：她不方便明说！",
        "docid": "7326605973588607488",
        "url": ""
    },
    {
        "title": "中间这位同志，成功吸引了边上大哥弟弟注意，所以他是女孩子吗",
        "docid": "7326635167030952457",
        "url": ""
    },
    {
        "title": "妈妈满心欢喜地做好饭后，看到了孩子的搜索记录，直接就破防了",
        "docid": "7326365271244161587",
        "url": ""
    },
    {
        "title": "贺强见了都得喊声哥 #r星出品必属精品 #全程高能 #反转",
        "docid": "7303922357624799781",
        "url": "https://www.ixigua.com/7303922357624799781"
    },
    {
        "title": "爸爸因居家办公，每天将妈妈抱怀里像连体婴儿，女儿气到崩溃",
        "docid": "7326403786556375591",
        "url": "https://www.ixigua.com/7326403786556375591"
    },
    {
        "title": "“新娘为结婚当天，保持好身材，跟男教练通宵训练被退婚！”哈哈",
        "docid": "7326945918459642368",
        "url": ""
    },
    {
        "title": "孩子是不是亲生的，对照一下血型就知道，看完涨知识了",
        "docid": "7326816836204413466",
        "url": ""
    },
    {
        "title": "给老师发错信息的尴尬瞬间，老师的沉默震耳欲聋。",
        "docid": "7326899595328651776",
        "url": ""
    },
    {
        "title": "“姑娘，穿着这样的裤子和男朋友出门，想上厕所怎么办？”哈哈哈",
        "docid": "7326840957557719563",
        "url": ""
    },
    {
        "title": "美女出门注意点，穿成这样，很容易被别人误会的”哈哈哈",
        "docid": "7326901617780032052",
        "url": ""
    },
    {
        "title": "有一个沙雕女朋友是一种什么体验？男友：那还能怎么办，宠着呗!",
        "docid": "7326743552644399643",
        "url": ""
    },
    {
        "title": "广东女生是萌妹甜度天花板？开战！势必把这细糠抢过来尝尝。",
        "docid": "7313512385648525860",
        "url": "https://www.ixigua.com/7313512385648525860"
    },
    {
        "title": "我玩个蹦床你让我看见太奶了，你多冒昧啊#搞笑配音",
        "docid": "7312279426069496320",
        "url": "https://www.ixigua.com/7312279426069496320"
    },
    {
        "title": "兄弟们，这位美女来和森弟，赴三年之约，等毕业了，过来找森弟",
        "docid": "7326668257446855183",
        "url": "https://www.ixigua.com/7326668257446855183"
    },
    {
        "title": "火车上妹子睡卧铺也不老实，这谁顶得住啊？哈哈哈上去就是一巴掌",
        "docid": "7326511515702411813",
        "url": ""
    },
    {
        "title": "我们已经分手了，就不要再联系了，笑喷了，让人笑掉假牙。webp",
        "docid": "7326832733232120331",
        "url": ""
    },
    {
        "title": "哈哈哈，这个喝多了还得挂儿科！现在孩子都这么社会了吗？",
        "docid": "7326664279497802290",
        "url": ""
    },
    {
        "title": "“只有将亮度调亮，才能看懂的梗！”哈哈哈哈哈，细节决定成败",
        "docid": "7326603173186191924",
        "url": ""
    },
    {
        "title": "有没有素质一看便知，公共场合这么多人，姑娘你这样真的好吗？",
        "docid": "7326759039440912947",
        "url": ""
    },
    {
        "title": "吃这两根香肠需要注意什么",
        "docid": "7326614817958412827",
        "url": ""
    },
    {
        "title": "哪个不经意瞬间使自己成为了行业里的笑料？评论区笑不活了哈哈哈",
        "docid": "7326658065804132927",
        "url": ""
    },
    {
        "title": "盘点校运会的高燃瞬间，这就是青春啊#校运会 #这操作都看傻了",
        "docid": "7326156793816875574",
        "url": "https://www.ixigua.com/7326156793816875574"
    },
    {
        "title": "女子抓娃娃扫10元游戏币，之后双手阻挡忍不住惊呼：肯定在做梦！",
        "docid": "7308568368234267172",
        "url": "https://www.ixigua.com/7308568368234267172"
    },
    {
        "title": "“这时候就使劲儿哭吧，以后就没机会了”网友：小朋友，真羡慕你",
        "docid": "7326731813177688602",
        "url": ""
    },
    {
        "title": "妈妈们被邀请在幼儿园扮演虎妈妈，网友回复是我要演武松",
        "docid": "7326855704580309514",
        "url": ""
    },
    {
        "title": "神回复：为什么有些人性格很好却总是独来独往？",
        "docid": "7326780098941305394",
        "url": ""
    },
    {
        "title": "兄弟别太嚣张，别以为在国外就可以为所欲为",
        "docid": "7326383865742918171",
        "url": "https://www.ixigua.com/7326383865742918171"
    },
    {
        "title": "盘点带货翻车搞笑场面，场面极度尴尬，商家光速撤离",
        "docid": "7303431098141245992",
        "url": "https://www.ixigua.com/7303431098141245992"
    },
    {
        "title": "南方小土豆把东北大哥夹蒙了，现在东北只有暖男没有猛男",
        "docid": "7321689429414937138",
        "url": "https://www.ixigua.com/7321689429414937138"
    },
    {
        "title": "外国主播看中国短视频：终于刷到了熊出没！",
        "docid": "7294233123913466405",
        "url": "https://www.ixigua.com/7294233123913466405"
    },
    {
        "title": "开局我在生存游戏中当大佬 小乖 陈默 短剧 合集一口气看完大结局",
        "docid": "7326889932348850698",
        "url": "https://www.ixigua.com/7326889932348850698"
    },
    {
        "title": "“女友包里掉出来的，这是用来干什么的？”哈哈哈不要想太多",
        "docid": "7326903150647132707",
        "url": ""
    },
    {
        "title": "媳妇辞职了，公司就是不删掉相片，网友：他们就是冲着你媳妇去的",
        "docid": "7326717039572566555",
        "url": ""
    },
    {
        "title": "游泳时的尴尬经历也太多了吧",
        "docid": "7326985774447100443",
        "url": ""
    },
    {
        "title": "翻车现场！湖北一女子厨房煎鱼，紧接着场面异常欢乐",
        "docid": "7321935240246034978",
        "url": "https://www.ixigua.com/7321935240246034978"
    },
    {
        "title": "盘点那些便衣警察摆摊，卧底十年无人晓，摆摊一朝天下知",
        "docid": "7317989691335442978",
        "url": "https://www.ixigua.com/7317989691335442978"
    },
    {
        "title": "盘点那些不干人事的人类，宁愿自损八百，也要拉上垫背的一起！",
        "docid": "7296327562098278963",
        "url": "https://www.ixigua.com/7296327562098278963"
    },
    {
        "title": "妈妈总是忍不住想亲亲儿子，妈妈欲擒故纵，儿子将计就计",
        "docid": "7324153457164845594",
        "url": "https://www.ixigua.com/7324153457164845594"
    },
    {
        "title": "神回复：如果景甜做你一天女朋友，你会让她干什么？被神评笑死了",
        "docid": "7327004563595461129",
        "url": ""
    },
    {
        "title": "我承认我有赌的成分",
        "docid": "7326997704612020763",
        "url": ""
    },
    {
        "title": "“幸亏发现及时，差一点就被熬成汤了！”哈哈哈我要笑疯了",
        "docid": "7326926634475422260",
        "url": ""
    },
    {
        "title": "“兄弟做错事跪下了，嫂子看着我，说她也要错一次”，哈哈哈哈！",
        "docid": "7326190856434909759",
        "url": ""
    },
    {
        "title": "1. 十根烤肠到底是什么梗？",
        "docid": "7326937987970023988",
        "url": ""
    },
    {
        "title": "这地铁要实在上不去咱就不上了好不好哈哈，网友评论的太搞笑了。",
        "docid": "7326988986025886245",
        "url": ""
    },
    {
        "title": "弟弟从五楼抱着姐姐出嫁， 弟弟：累死我了，赶紧给我进去",
        "docid": "7318665532981379593",
        "url": "https://www.ixigua.com/7318665532981379593"
    },
    {
        "title": "女生好奇把手插进酒瓶结果拔不出，网友：果然好奇心害死猫啊",
        "docid": "7303724135413350931",
        "url": "https://www.ixigua.com/7303724135413350931"
    },
    {
        "title": "就不能先匹配一下信号吗？大学生“鸡同鸭讲”聊天记录，笑喷了！",
        "docid": "7326921472340705807",
        "url": ""
    },
    {
        "title": "有个老哥发帖子，说找到了妈妈以前的照片，还特地发到了网上",
        "docid": "7326498138533020211",
        "url": ""
    },
    {
        "title": "“提前回家，发现老婆出轨！”含泪拍照留念！哈哈哈",
        "docid": "7327005198734426633",
        "url": ""
    },
    {
        "title": "碰到一个热爱打网球的妹子，要不要去加入她呀？",
        "docid": "7326987040921698825",
        "url": ""
    },
    {
        "title": "女子电梯内惨遭喷翔，对方一撅屁股瞬间清爽，苦不堪言不敢动",
        "docid": "7320539435416683027",
        "url": "https://www.ixigua.com/7320539435416683027"
    },
    {
        "title": "女子受伤骨折，借用外甥女电动扭扭车出行，车技娴熟逗乐众人！",
        "docid": "7304476249479610920",
        "url": "https://www.ixigua.com/7304476249479610920"
    },
    {
        "title": "妈妈正在教育弟弟，姐姐在一旁“神补刀”",
        "docid": "7297836044513182244",
        "url": "https://www.ixigua.com/7297836044513182244"
    },
    {
        "title": "笑哭！内蒙一男子半夜见妻子厕所里冒金光，灵魂发问在“焊腿”",
        "docid": "7304072851869729292",
        "url": "https://www.ixigua.com/7304072851869729292"
    },
    {
        "title": "“妹子你这裤子洞的位置有点不对吧？”穿上之后，我当场流鼻血",
        "docid": "7326925333113127424",
        "url": ""
    },
    {
        "title": "坐拥24家酒吧的阿姨，今年想结第10次婚，网友：哈哈哈我不敢接盘",
        "docid": "7326871014368346650",
        "url": ""
    },
    {
        "title": "“为了博取旁边妹子的好感，我出钱让护士又给她加了两瓶点滴”",
        "docid": "7326600153472254476",
        "url": ""
    },
    {
        "title": "倒霉到笑出声！个人经历了失败后，不忘拍照留念",
        "docid": "7326637493573403151",
        "url": ""
    },
    {
        "title": "男子问女友为何穿成这样，万万没想到.…哈哈哈哈笑死我了",
        "docid": "7297804911197848090",
        "url": "https://www.ixigua.com/7297804911197848090"
    },
    {
        "title": "男生趁女友不注意和她亲吻，女友害羞呲牙傻乐，身后爸妈反应亮了",
        "docid": "7311264078083818024",
        "url": "https://www.ixigua.com/7311264078083818024"
    },
    {
        "title": "爸妈给20岁女儿生下小弟弟，姐姐超兴奋大笑，弟弟瞪大眼睛疑惑",
        "docid": "7304450804969112064",
        "url": "https://www.ixigua.com/7304450804969112064"
    },
    {
        "title": "女子遛田园犬被大妈嘲笑土狗好丑，“没泰迪可爱”，下一秒被打脸",
        "docid": "7321564821890007604",
        "url": "https://www.ixigua.com/7321564821890007604"
    },
    {
        "title": "最火新娘！坐姿一看就是有故事的姐姐。网友：哈哈哈。太尴尬了！",
        "docid": "7327017689115918888",
        "url": ""
    },
    {
        "title": "鸡汤无用！网友看太多都免疫了哈哈哈～",
        "docid": "7327023321466389029",
        "url": ""
    },
    {
        "title": "情侣在街边吵架，女生上前给男生一巴掌，没想到男生反手爆扇女生",
        "docid": "7310426552179622441",
        "url": "https://www.ixigua.com/7310426552179622441"
    },
    {
        "title": "女生展示短短几秒变帅哥方法，镜头拉近后难辨雌雄",
        "docid": "7306394601601172018",
        "url": "https://www.ixigua.com/7306394601601172018"
    },
    {
        "title": "男子晒出老婆婚前婚后对比，笑称被颜值欺骗，网友：同款老婆",
        "docid": "7320076989019357731",
        "url": "https://www.ixigua.com/7320076989019357731"
    },
    {
        "title": "小姐姐坐公交车睡着了，“真的惊艳到我了”，这真是我的梦中情肚",
        "docid": "7300827382695494156",
        "url": "https://www.ixigua.com/7300827382695494156"
    },
    {
        "title": "女生放假后回家就坐老爸身边，喋喋不休疯狂吐槽半小时，表情笑喷",
        "docid": "7325306209928479267",
        "url": "https://www.ixigua.com/7325306209928479267"
    },
    {
        "title": "大爷别慌，挺直腰杆眼睛正视前方，她吃不了你的！",
        "docid": "7327030430119625254",
        "url": ""
    },
    {
        "title": "“裙子这么薄就别穿出来了，后边的大叔看半天了！”哈哈哈",
        "docid": "7327027750576079411",
        "url": ""
    },
    {
        "title": "相亲太快，两人结婚了都还不熟，看评论区笑疯了哈哈哈",
        "docid": "7325429649654219290",
        "url": ""
    },
    {
        "title": "爬这么高还怎么授课呢？都把字全挡住了啊",
        "docid": "7326753183466865190",
        "url": ""
    },
    {
        "title": "“女朋友在S店上班，兄弟劝我赶紧分手”，网友：心太细了",
        "docid": "7326202602281484811",
        "url": ""
    },
    {
        "title": "盘点网约车司机遇到的奇葩乘客#网约车 #奇葩女乘客",
        "docid": "7306091684083794441",
        "url": "https://www.ixigua.com/7306091684083794441"
    },
    {
        "title": "黑暗，太黑暗了，套路太深了！盘点车贩子的黑暗操作！！#剧情",
        "docid": "7301909158515868194",
        "url": "https://www.ixigua.com/7301909158515868194"
    },
    {
        "title": "盘点那些猝不及防的神回复，深夜不睡觉，一般人真招架不住",
        "docid": "7299785696288604724",
        "url": "https://www.ixigua.com/7299785696288604724"
    },
    {
        "title": "“旁边的女同事穿成这样，你有点过分了啊！”哈哈哈",
        "docid": "7327028095872188966",
        "url": ""
    },
    {
        "title": "太搞笑了，原来电影里的产妇生产是这么拍的，凌晨点笑得睡不着",
        "docid": "7326677015682220570",
        "url": ""
    },
    {
        "title": "一人说一件最尴尬的经历，网友的分享太炸裂了，笑死我了",
        "docid": "7326865765402280484",
        "url": ""
    },
    {
        "title": "男子约会表示不再惯着迟到的女友！开车就走不等女友，结果搞笑了",
        "docid": "7326411970876441142",
        "url": "https://www.ixigua.com/7326411970876441142"
    },
    {
        "title": "男生记录与女友见面每个瞬间，小短裙超靓害羞到捂脸，太漂亮了！",
        "docid": "7297489639676314112",
        "url": "https://www.ixigua.com/7297489639676314112"
    },
    {
        "title": "最怕遇上这种女生！随便一开口惊艳全场，网友：这歌又直又白",
        "docid": "7297884684963283483",
        "url": "https://www.ixigua.com/7297884684963283483"
    },
    {
        "title": "那些故意挑衅老婆的男人：在作死边缘疯狂试探，一顿胖揍后舒服了",
        "docid": "7293792958497849871",
        "url": "https://www.ixigua.com/7293792958497849871"
    },
    {
        "title": "姑娘你真没有感觉到背后凉嗖嗖的吗？",
        "docid": "7327010562355823155",
        "url": ""
    },
    {
        "title": "“大姐为了美观也是拼了，这么勒着不觉得闷吗？”哈哈哈哈",
        "docid": "7326796533691974183",
        "url": ""
    },
    {
        "title": "女子面对亲戚催婚舌战群儒，全程高能怼得亲戚哑口无言，场面高能",
        "docid": "7310434518245048870",
        "url": "https://www.ixigua.com/7310434518245048870"
    },
    {
        "title": "盘点辩论赛高能瞬间，痛击对手，emo队友，破防网友#辩论赛",
        "docid": "7317617058374648346",
        "url": "https://www.ixigua.com/7317617058374648346"
    },
    {
        "title": "南方小土豆们，一会排成“人”字，一会排成“一”字",
        "docid": "7314817423545532978",
        "url": "https://www.ixigua.com/7314817423545532978"
    },
    {
        "title": "女生嫌弃相亲对象开的不是跑车，还是打工的，看到结局真让人解气",
        "docid": "7316736054155805238",
        "url": "https://www.ixigua.com/7316736054155805238"
    },
    {
        "title": "女友扮丧尸太逼真吓坏男友，结果将其反杀 网友：人吓人吓死人",
        "docid": "7307454446592918035",
        "url": "https://www.ixigua.com/7307454446592918035"
    },
    {
        "title": "毁三观！评论区的瓜简直太炸裂了，直接将我的三观击碎！",
        "docid": "7326521118146167336",
        "url": ""
    },
    {
        "title": "杭州最美老板娘，网友连夜赶往现场，只为目睹佳人芳容，像仙女！",
        "docid": "7327048329202958898",
        "url": ""
    },
    {
        "title": "哥们，裤子不合身就别穿出来了，全车的人看了都想吐，不尴尬吗？",
        "docid": "7327059428182802984",
        "url": ""
    },
    {
        "title": "吃烤肉，服务员不停地问你“换纸不”，实际是在暗示你，不懂会笑",
        "docid": "7327055526116753947",
        "url": ""
    },
    {
        "title": "张钧甯这个头是真的高啊",
        "docid": "7327053607130399267",
        "url": ""
    },
    {
        "title": "缘分到了，挡都挡不住，你的媳妇是花盆砸来的，太搞笑，有趣段子",
        "docid": "7324150148736123404",
        "url": ""
    },
    {
        "title": "当你有一个越长越年轻的妈妈 24岁小伙晒出自己的亲妈合影似姐弟",
        "docid": "7310485021930979880",
        "url": "https://www.ixigua.com/7310485021930979880"
    },
    {
        "title": "男子跑外卖攒钱买下60平方房子，妻女在家开心奔跑，画面感动泪目",
        "docid": "7315257790950277669",
        "url": "https://www.ixigua.com/7315257790950277669"
    },
    {
        "title": "一家子一起作死……一家人就要整整齐齐……",
        "docid": "7323010510251753999",
        "url": ""
    },
    {
        "title": "“放锅里忘了，然后就开花了，仿佛看见了苏菲！”太逗了！哈哈哈",
        "docid": "7322297643035116059",
        "url": ""
    },
    {
        "title": "才办完婚礼，新娘就成这样了，丈母娘能退吗？”哈哈哈",
        "docid": "7326479899098071590",
        "url": ""
    },
    {
        "title": "突然发现：好多软件已经丧失了它们原来的作用了！",
        "docid": "7313606051507487258",
        "url": ""
    },
    {
        "title": "小姐姐光顾着弄头发了，衣服扣子都开了，我该怎么提醒她？",
        "docid": "7326854239916786202",
        "url": ""
    },
    {
        "title": "笑拥了，一家8口住酒店229天准备住一辈子。要笑死在网友评论区了",
        "docid": "7317851469477429797",
        "url": ""
    },
    {
        "title": "护士妹妹，你长得违规了！因为你太美艳了，医院才人满为患的！",
        "docid": "7326329857929904681",
        "url": ""
    },
    {
        "title": "天呐，太搞笑了，得罪女人的下场，真的太有手段了！值得细品",
        "docid": "7311610884668047935",
        "url": ""
    },
    {
        "title": "这绝对是亲爸，太精彩了，幽默段子百看不厌。",
        "docid": "7321596022797484559",
        "url": ""
    },
    {
        "title": "自曝一个很丢脸的秘密，网友的分享真的很炸裂，刷新我的三观了！",
        "docid": "7326819774565253683",
        "url": ""
    },
    {
        "title": "毁三观，上海地铁惊现不堪一幕，这位女子穿着实在太尴尬了",
        "docid": "7326858039057711654",
        "url": ""
    },
    {
        "title": "神回复：你在合欢宗干嘛我都不好意思戳破你！",
        "docid": "7323892639147819560",
        "url": ""
    },
    {
        "title": "你喝醉后有没有干过一些糗事，网友：信我，真不是故意亲的丈母娘",
        "docid": "7313546835850084904",
        "url": ""
    },
    {
        "title": "“女生洗澡的时候一般都在想什么？”引热议，评论区笑呆上万网友",
        "docid": "7294924206939357731",
        "url": ""
    },
    {
        "title": "西安地铁一号线叫尚震的兄弟，你朋友说他很想你媳妇，你戴帽子了",
        "docid": "7317519057987650100",
        "url": ""
    },
    {
        "title": "你无意间摸到过什么不该摸的?看完网友分享傻眼,有些真会留下阴影",
        "docid": "7326070540928729612",
        "url": ""
    },
    {
        "title": "伍佰：无意颠覆这个行业，网友又在评论区整活了，个个都是人才",
        "docid": "7300780439307649574",
        "url": ""
    },
    {
        "title": "笑麻了，为什么小说女主不能有正经的工作，差点笑死在网友评论里",
        "docid": "7322739209419555364",
        "url": ""
    },
    {
        "title": "网友：第一次去男朋友家，我是被认可了吗？评论区太炸裂笑死我了",
        "docid": "7326531421597139497",
        "url": ""
    },
    {
        "title": "街上为什么很少看见男生喝奶茶？网友的回答太真实了，笑不活了",
        "docid": "7306767026582848052",
        "url": ""
    },
    {
        "title": "看来这功夫已经到了出神入化的地步了，手已经感觉不到疼了。",
        "docid": "7323255587603726883",
        "url": ""
    },
    {
        "title": "神回复：对于没见过的东西，做梦是想象不出来的！",
        "docid": "7306084085947269667",
        "url": ""
    },
    {
        "title": "男人隐姓埋名描述自己女朋友，发言一个比一个激动！全是老六啊",
        "docid": "7304820415699042868",
        "url": ""
    },
    {
        "title": "“媳妇在澡堂柜子里捡到的，有谁知道这个是啥？”貌似很精致哈哈",
        "docid": "7297240656064561704",
        "url": ""
    },
    {
        "title": "你什么时候发现父母比想象有钱，网友：你们都是有钱人，我是真穷",
        "docid": "7303458780786819636",
        "url": ""
    },
    {
        "title": "当初爸爸是怎么追到妈妈的？评论区一个比一个炸裂！",
        "docid": "7296093508367696434",
        "url": ""
    },
    {
        "title": "初中生网恋的魅力，网友：真的把我给笑撅了",
        "docid": "7323072412785033762",
        "url": ""
    },
    {
        "title": "“孩子出生当天老公发的朋友圈，一个比一个离谱哈哈哈哈哈哈”",
        "docid": "7322487903937135167",
        "url": ""
    },
    {
        "title": "公公陪我儿子输液，医院主治医生给我发来的图片哈哈哈",
        "docid": "7326498007053697574",
        "url": ""
    },
    {
        "title": "你老公当初喜欢你的理由是啥? 要被这群逗比笑死，假牙都给我笑掉",
        "docid": "7303761937627218458",
        "url": ""
    },
    {
        "title": "“朋友说进传销里让我救他”，看完照片之后，到底救不救呢？哈哈",
        "docid": "7327070445637894706",
        "url": ""
    },
    {
        "title": "总有一张逗你笑，你坚持到第几张才笑？笑一笑十年少，人生没烦恼",
        "docid": "7326320150016410166",
        "url": ""
    },
    {
        "title": "你们都是因为什么原因没报清华？我真的要笑死在网友们的评论里！",
        "docid": "7302261222433374755",
        "url": ""
    },
    {
        "title": "笑不活了，东北人是如何哄小士豆的。我要笑死在网友评论区里了",
        "docid": "7316836056593433138",
        "url": ""
    },
    {
        "title": "“逛街时偶遇的心动妹子，我月薪千能追到她吗？”哈哈哈哈真敢想",
        "docid": "7326643952214409767",
        "url": ""
    },
    {
        "title": "花了300多块买的，准备洗个澡出来吃，结果被我妈炒了，欲哭无泪",
        "docid": "7320588516210278948",
        "url": ""
    },
    {
        "title": "天呐，还没看完，笑得我不要不要的，不愧是高手，佩服，真是人才",
        "docid": "7305785882894746122",
        "url": ""
    },
    {
        "title": "要不是亲眼所见，我真不敢相信！这种衣服也敢穿出门，太尴尬了",
        "docid": "7327064156220539419",
        "url": ""
    },
    {
        "title": "姑娘，你的素质真的太差了！一旁的大哥都看不下去了，不尴尬吗？",
        "docid": "7326716711888093750",
        "url": ""
    },
    {
        "title": "笑不活了，新疆早8点吃早餐发现没人 ，我却笑死在网友的评论区",
        "docid": "7301899901200400911",
        "url": ""
    },
    {
        "title": "绝了！谐音梗玩的恰到好处，一字之差，太有才了，看完笑喷了",
        "docid": "7326426045081731611",
        "url": ""
    },
    {
        "title": "妹子，现在买这东西都这么明目张胆了？你不怕别人看到尴尬吗？",
        "docid": "7327040427981701673",
        "url": ""
    },
    {
        "title": "神回复：以你和你老公的感情，如果他做了皇帝，他会封你做什么？",
        "docid": "7312690035793642022",
        "url": ""
    },
    {
        "title": "笑死在评论区！网友在“与辉同行”买了萝卜，萝卜都不是萝卜了",
        "docid": "7326155496364065292",
        "url": ""
    },
    {
        "title": "盘点大学生放假在家最害怕的场面，真是太刺激了！全是人才啊",
        "docid": "7325633529147474468",
        "url": ""
    },
    {
        "title": "这可能会震碎你三观，这张照片已经在社交媒体上传爆了！",
        "docid": "7322095467738022440",
        "url": ""
    },
    {
        "title": "以前穷和现在穷的区别，太现实了，幽默漫画值得一看",
        "docid": "7326739184873128487",
        "url": ""
    },
    {
        "title": "大哥，你穿着这么奇葩的衣服在公共场合是认真的嘛，也太尴尬了吧",
        "docid": "7311904047974351372",
        "url": ""
    },
    {
        "title": "小妹妹，列车上咱能有点礼貌吗，这么多人看着你真不觉得丢人吗？",
        "docid": "7326506198914564618",
        "url": ""
    },
    {
        "title": "90后爆料小时候的瓜能有多离谱？一个比一个搞笑！你们中招几个",
        "docid": "7297132794756301363",
        "url": ""
    },
    {
        "title": "爆笑神评：我姐长这样，要20万彩礼不过分吧，网友的评论笑死",
        "docid": "7320123129962316324",
        "url": ""
    },
    {
        "title": "这衣服怎么穿内衣呀？不穿内衣怎么挺起来啊？",
        "docid": "7326459633479762469",
        "url": ""
    },
    {
        "title": "爆笑神评：两个女生加起来50岁！还别说，中介还真没有说谎！",
        "docid": "7324580594283741747",
        "url": ""
    },
    {
        "title": "为什么男生很少发朋友圈，评论区笑不活了哈哈哈",
        "docid": "7308377572390289954",
        "url": ""
    },
    {
        "title": "买了个壁虎越养越大，我是不是上当受骗了？网友：你要发达了",
        "docid": "7327074391064429093",
        "url": ""
    },
    {
        "title": "当你开始消费降级，你会发现太爽了，网友的评论太真实",
        "docid": "7301611004369420800",
        "url": ""
    },
    {
        "title": "高考700分：究竟是何概念？网友的评论让人哭笑不得。",
        "docid": "7325747847708983835",
        "url": ""
    },
    {
        "title": "果然只有姐姐才懂弟弟的德行！网友：握草，我姐眼里我也这形象？",
        "docid": "7318732122804568627",
        "url": ""
    },
    {
        "title": "半夜不睡干的那些事，太惊人了，生命在于折腾，生命不息折腾不止",
        "docid": "7320939312298852905",
        "url": ""
    },
    {
        "title": "小时候没有一顿揍是白挨的!看完后我才相信，真是一个比一个逆天",
        "docid": "7295617536681411084",
        "url": ""
    },
    {
        "title": "说了别娶俄罗斯美女，你看产前娜塔莎，产后娜大妈，这下被坑了吧",
        "docid": "7326765639262093875",
        "url": ""
    },
    {
        "title": "女生眼中男diao丝示意图，你中了几条？",
        "docid": "7320591744243106316",
        "url": ""
    },
    {
        "title": "华山会制服每一个嘴硬的人！我就服00后，灭霸都灭不了你们的嘴",
        "docid": "7294893350996427298",
        "url": ""
    },
    {
        "title": "你就是个大骗子，离婚吧老娘不跟你过了⋯那些让人忍俊不禁的对话",
        "docid": "7321657774462501386",
        "url": ""
    },
    {
        "title": "成年之后一个人可以有多快乐？",
        "docid": "7294229322414604835",
        "url": ""
    },
    {
        "title": "美女，以后拍照的时候避点人吧，照片里的亮点都被人发现了",
        "docid": "7326780449664156197",
        "url": ""
    },
    {
        "title": "警察叔叔的笔录都这么搞笑的吗？网友：有些案件写得太生动被批评",
        "docid": "7314600376483840566",
        "url": ""
    },
    {
        "title": "“男朋友送我的马赛克浴巾？哈哈哈哈哈这谁顶得住啊”",
        "docid": "7326211941079597609",
        "url": ""
    },
    {
        "title": "当纹身“老了”会变成什么样？ 看完估计肠子都悔青了！哇哈哈哈哈",
        "docid": "7314850509759169078",
        "url": ""
    },
    {
        "title": "搞笑神评：用手指遮住中间，AB的颜色是一样的",
        "docid": "7318755024543498778",
        "url": ""
    },
    {
        "title": "当纹身“老了”会变成什么样？ 看完估计肠子都悔青了！哇哈哈哈哈",
        "docid": "7314883892241351207",
        "url": ""
    },
    {
        "title": "笑不活了！当放假大学生成为“礼部尚书”，场面瞬间变成听力测试",
        "docid": "7326172715839177250",
        "url": ""
    },
    {
        "title": "我手撕了朋友圈的“凡尔赛公主”，网友：太解气了！",
        "docid": "7306321972332478986",
        "url": ""
    },
    {
        "title": "“九个姿势，你更喜欢哪一个？”哈哈哈哈我都试过啊！",
        "docid": "7326193844243481115",
        "url": ""
    },
    {
        "title": "笑不活了，原来南方人不买东西不敢进店，笑疯在了评论区",
        "docid": "7325349680358457894",
        "url": ""
    },
    {
        "title": "真相了，合着北方人都是糙着养的。南方连这个都有开口器太气人了",
        "docid": "7321914372824449590",
        "url": ""
    },
    {
        "title": "姑娘在车上穿短裤要注意坐姿，被乘客看光了还不知道，真尴尬",
        "docid": "7326414088278786569",
        "url": ""
    },
    {
        "title": "20张让人感觉压迫感十足的图片，看了以后感觉巨物恐惧症都要犯了",
        "docid": "7320228995704832521",
        "url": ""
    },
    {
        "title": "高德这么多差评，咋有这么多人用?真是大开眼界，看完差点笑岔气",
        "docid": "7303446880011387430",
        "url": ""
    },
    {
        "title": "亲妈给我起的名字，相亲3回被女方打了7回！到现在还是光棍",
        "docid": "7310508700580577831",
        "url": ""
    },
    {
        "title": "刘涛为家乡江西文旅做宣传，我却笑死在福建文旅的评论区",
        "docid": "7325370709692678695",
        "url": ""
    },
    {
        "title": "毁三观，上海地铁一男子背着自己的灵魂伴侣，毫不顾忌周围的人。",
        "docid": "7326426050441806363",
        "url": ""
    },
    {
        "title": "神回复：路人：她这么穿一定有她的理由，我们还是不要多嘴！",
        "docid": "7312670542484652544",
        "url": ""
    },
    {
        "title": "妹子也太粗心了，就没有感到背后有一股热气吗？真的有点尴尬",
        "docid": "7326466312803893811",
        "url": ""
    },
    {
        "title": "“最美丈母娘火了，女婿表示也很无奈”哈哈，这丈母娘也太年轻了",
        "docid": "7326649525513486857",
        "url": ""
    },
    {
        "title": "上山碰到这一幕，我都替你俩觉得脸红。找个缝钻进去吧，哈哈哈",
        "docid": "7326431884891095579",
        "url": ""
    },
    {
        "title": "“姑娘，以后别起床就自拍，秘密都被大家知道了”哈哈哈太尴尬了",
        "docid": "7326431926951920162",
        "url": ""
    },
    {
        "title": "跟家人出门被误会的社死瞬间，也太尴尬了",
        "docid": "7318762313975759399",
        "url": ""
    },
    {
        "title": "笑掉大牙，抠抠嗖嗖地花了很多钱，网友：主打一个把钱花在刀背上",
        "docid": "7309495953684251177",
        "url": ""
    },
    {
        "title": "你是什么时候意识到自己真的没有见过什么世面评论区网友太真实了",
        "docid": "7306466004647936524",
        "url": ""
    },
    {
        "title": "姑娘，现在敢穿这衣服的人确实不多了，你就没觉得尴尬吗",
        "docid": "7317520467865207322",
        "url": ""
    },
    {
        "title": "你有什么秘密是打死不能让另一半知道的?网友隐姓埋名爆料！精彩",
        "docid": "7325237908951007778",
        "url": ""
    },
    {
        "title": "“这姑娘一看就服役过，腰间的痕迹已经说明一切了！”哈哈哈哈",
        "docid": "7320042013066854964",
        "url": ""
    },
    {
        "title": "去小区贵妇家收破烂，伤害性不大，侮辱性极强，精彩的段子，有趣",
        "docid": "7313783182615429673",
        "url": ""
    },
    {
        "title": "“能不能带个口罩，我怕亲戚认出我问我借钱”，神回复笑了一整天",
        "docid": "7321947431699431951",
        "url": ""
    },
    {
        "title": "你最长一次睡了多久？评论区：就佩服那个睡了三天掉了15斤的！",
        "docid": "7300400043876500008",
        "url": ""
    },
    {
        "title": "你有没有见过那种“反差”很大的女生？网友:眼镜一摘，火力全开",
        "docid": "7323508043138892328",
        "url": ""
    },
    {
        "title": "你在哪一刻体验到了真正的贫富差距？网友：阿姨住18万一晚的酒店",
        "docid": "7305268041863086603",
        "url": ""
    },
    {
        "title": "买房前VS买房后，这漫画太真实了吧！你品，你细品！",
        "docid": "7314073882444087818",
        "url": ""
    },
    {
        "title": "终于知道爸妈为什么能存住钱,而我们不能了！评论区整个真相现场",
        "docid": "7324896994445738536",
        "url": ""
    },
    {
        "title": "刚到缅北，老板请我吃烤全羊，怎么感觉有点不对呢，哈哈哈",
        "docid": "7323625390746944052",
        "url": ""
    },
    {
        "title": "初中做过最刺激的事是什么？90后整活专业户，各种搞笑逆天神操作",
        "docid": "7296320920598135337",
        "url": ""
    },
    {
        "title": "今天太阳这么大，美女穿的裤子都反光了，我都替她感到尴尬",
        "docid": "7326990137169150483",
        "url": ""
    },
    {
        "title": "你会为了8000万送你朋友去原始森林当野人吗？真是一个比一个逆天",
        "docid": "7307126403021947419",
        "url": ""
    },
    {
        "title": "要被这些错位图笑死了哈哈哈哈哈哈哈哈哈哈 ​​​",
        "docid": "7302076029122855463",
        "url": ""
    },
    {
        "title": "你见过最悠闲的工作是什么？水库图书管理员,简直就是梦中情岗啊",
        "docid": "7312660730451902976",
        "url": ""
    },
    {
        "title": "上班久了会有哪些口癖？哈哈妥妥的工伤现场",
        "docid": "7323119832047043110",
        "url": ""
    },
    {
        "title": "你见过最毁三观的事情有多离谱？网友：喝多了吐猪圈，把猪毒坏了",
        "docid": "7324734298727137792",
        "url": ""
    },
    {
        "title": "你无意中发现过哪些不应知道的秘密？网友：叫按摩来的是大学同学",
        "docid": "7325632464066871820",
        "url": ""
    },
    {
        "title": "大老板:我身价上亿岂能捡纸皮？大妈:利索点！好嘞",
        "docid": "7313894023365214760",
        "url": ""
    },
    {
        "title": "果不其然，长得美穿衣就是任性，走在大街我都替她感到尴尬了！",
        "docid": "7319433623483122211",
        "url": ""
    },
    {
        "title": "你在火车上遇到过哪些奇葩事？网友：认识不到5个小时就亲了起来",
        "docid": "7326844379342127654",
        "url": ""
    },
    {
        "title": "玉米熟了，这个顾客只买一根，这咋卖啊？",
        "docid": "7326768501304263178",
        "url": ""
    },
    {
        "title": "伴娘下车之后， 新娘的内心得多尴尬啊！",
        "docid": "7326644077141754419",
        "url": ""
    },
    {
        "title": "东北人都是随机NPC吧，一靠近就自动触发剧情",
        "docid": "7294424123454194226",
        "url": ""
    },
    {
        "title": "爆笑神评：为什么KTV没人喝白酒？哈哈哈，神评永远都是那么给力",
        "docid": "7327093780853555764",
        "url": ""
    },
    {
        "title": "新买的杯子，同事非要让我退了，上厕所后瞬间懂了！",
        "docid": "7327116465600037385",
        "url": ""
    },
    {
        "title": "好怀念啊！再也回不去了！那些让人捧腹大笑的段子！",
        "docid": "7327075403628413490",
        "url": ""
    },
    {
        "title": "网友亲身经历堪比段子，没有最离谱，只有更离谱。",
        "docid": "7326397720963465782",
        "url": ""
    },
    {
        "title": "终于知道为什么老师不在课间上厕所了",
        "docid": "7315611746625045001",
        "url": ""
    },
    {
        "title": "终于知道1200的洗浴和120的区别了，怪不得男人喜欢贵的！哈哈哈",
        "docid": "7307233158641795647",
        "url": ""
    },
    {
        "title": "“小姐姐，下次自拍别戴墨镜了，你的秘密都被曝光了”，哈哈哈",
        "docid": "7326889468530098697",
        "url": ""
    },
    {
        "title": "和女老板一起去爬山，她总是走在我前面，莫名的有点慌啊哈哈哈！",
        "docid": "7326669444523213322",
        "url": ""
    },
    {
        "title": "姑娘在地铁上睡觉也不注意点，亮点都被别人看到了，真尴尬！哈哈",
        "docid": "7326499817336160777",
        "url": ""
    },
    {
        "title": "“无意中在女同事车上发现的，这是用来干嘛的？”网友们内涵了！",
        "docid": "7327048683483169295",
        "url": ""
    },
    {
        "title": "安检时都遇到过哪些尴尬事件？网友的回复笑死人了！",
        "docid": "7299336149997568553",
        "url": ""
    },
    {
        "title": "小姐姐坐地铁能不能别穿这么大胆，旁边的人都看你大半天了",
        "docid": "7327059868085895706",
        "url": ""
    },
    {
        "title": "不行了，要笑s在果郡王的评论区了，甄嬛传的售后服务期真长！ ​",
        "docid": "7303331524567515688",
        "url": ""
    },
    {
        "title": "美女你穿的衣服真个性，挤公交地铁的神器啊，网友：谁敢碰我扎他",
        "docid": "7326947696873423410",
        "url": ""
    },
    {
        "title": "大爷你在公共场合，摆出这样的姿势是认真的吗？网友评论笑翻了",
        "docid": "7314198717186392627",
        "url": ""
    },
    {
        "title": "早晚有一天我要笑死在朋友圈里！盘点那些搞笑的朋友圈图片",
        "docid": "7326375168933216808",
        "url": ""
    },
    {
        "title": "师傅你忘记窗户是透明的了吗？快收敛一点吧，举动都被大家看到了",
        "docid": "7327163365091295781",
        "url": ""
    },
    {
        "title": "你脑子一热买过最没用的东西是什么？网友：广东的，买了床羽绒被",
        "docid": "7302272872645558824",
        "url": ""
    },
    {
        "title": "男人喝醉后有多可怕？网友：喝多了，劝93岁的奶奶去当兵！",
        "docid": "7307465038833435199",
        "url": ""
    },
    {
        "title": "原来大家结婚那天都吵了一架",
        "docid": "7320464410400244251",
        "url": ""
    },
    {
        "title": "“老婆坦白出轨，老公这硬核反问，差点把我笑出猪叫声！”哈哈哈",
        "docid": "7327127305866969650",
        "url": ""
    },
    {
        "title": "国人矛盾现象：1、相信科学；2、怕鬼！不敢看评论区了，全是老六",
        "docid": "7303442690539176483",
        "url": ""
    },
    {
        "title": "爸爸能有多宠女儿？网友：人均女儿奴！",
        "docid": "7323751789567443456",
        "url": ""
    },
    {
        "title": "中国人真的好像这个世界的npc",
        "docid": "7324959118954152487",
        "url": ""
    },
    {
        "title": "00后这\"挖祖坟\"式聊天，看的我头冒青烟，他们的语言你懂多少？",
        "docid": "7303746245204541963",
        "url": ""
    },
    {
        "title": "全麻手术后的胡言乱语，满满的黑历史！",
        "docid": "7304847409019290149",
        "url": ""
    },
    {
        "title": "女朋友说她不能穿比较紧的衣服，我瞬间就懂了，效果原来是这样的",
        "docid": "7326361368989811210",
        "url": ""
    },
    {
        "title": "“楼下新开的馒头店，我每天早上都去吃！”身体受得了吗？",
        "docid": "7326232636748284468",
        "url": ""
    },
    {
        "title": "笑不活了！女子高铁吃东西3个小时，引发大爷不满找列车长",
        "docid": "7327079098893926963",
        "url": ""
    },
    {
        "title": "谁听了血压不飙涨！幼儿园小朋友胡说八道的能力有多强",
        "docid": "7298778542807138816",
        "url": ""
    },
    {
        "title": "笑不活了，论当代网友有多馋：“做饭太好吃根本不舍得分手”",
        "docid": "7325975128532255282",
        "url": ""
    },
    {
        "title": "福建人是全球免签吗，怎么什么地方都有福建人真的快笑死了",
        "docid": "7300580654507786789",
        "url": ""
    },
    {
        "title": "如何制造一个高级的阳谋？看完网友的分享后，表示学到了",
        "docid": "7300800411714421263",
        "url": ""
    },
    {
        "title": "“学霸父母学渣娃是什么体验？”哈哈哈祖坟不会一直冒青烟！",
        "docid": "7316849707140121098",
        "url": ""
    },
    {
        "title": "说说那些无耻的双标，谁看谁不呼一声绝了！",
        "docid": "7298588149830320667",
        "url": ""
    },
    {
        "title": "弟弟的女同学才上初一，现在的小姑娘，难道都这么早熟了么？",
        "docid": "7322123501907788303",
        "url": ""
    },
    {
        "title": "妹子一定是出门太急吧？内衬没撩下来也太尴尬了，里面全看到了呀",
        "docid": "7327164155243954738",
        "url": ""
    },
    {
        "title": "妹子，现在敢穿这衣服上街的人太少了，你真没感到尴尬吗",
        "docid": "7312255672643486260",
        "url": ""
    },
    {
        "title": "“姑娘穿成这样，不觉得勒得慌吗？”看着都尴尬！哈哈哈",
        "docid": "7327177320757789221",
        "url": ""
    },
    {
        "title": "男友家的床有毒吧？睡了一觉就变成这样！”这是怎么回事？哈哈",
        "docid": "7326760915511607845",
        "url": ""
    },
    {
        "title": "【快乐神回复】坐别人的车应该坐在哪里？",
        "docid": "7326349620123255323",
        "url": ""
    },
    {
        "title": "哪句“网络梗”让你很反感？",
        "docid": "7308409921232568884",
        "url": ""
    },
    {
        "title": "“女老师上课期间忘记关投影仪，搜索记录被公开…”真尴尬",
        "docid": "7326706857471853107",
        "url": ""
    },
    {
        "title": "当代年轻人半夜发癫都在干什么？这个世界终于癫成我想要的样子",
        "docid": "7314194680886182440",
        "url": ""
    },
    {
        "title": "在法庭上遇到过哪些离谱的事？网友调侃:法官是怎么忍住不笑的！",
        "docid": "7309855910380372507",
        "url": ""
    },
    {
        "title": "哈士奇把老虎认错成金毛暴打！自古评论区出人才，脸都给我笑抽了",
        "docid": "7301875921450697242",
        "url": ""
    },
    {
        "title": "当你带孩子出门时，都发生过什么搞笑的社死瞬间！",
        "docid": "7302098950209913355",
        "url": ""
    },
    {
        "title": "00后这\"开天辟地\"式聊天，看的我脸憋红了，他们的语言你懂多少？",
        "docid": "7299828947364561444",
        "url": ""
    },
    {
        "title": "当两个很有梗的人谈恋爱是什么感觉？",
        "docid": "7304604993514963496",
        "url": ""
    },
    {
        "title": "虽然好像有点幸灾乐祸的嫌疑，可我还是忍不住笑出了猪叫般的笑声",
        "docid": "7325753373901652514",
        "url": ""
    },
    {
        "title": "00后这\"秦始皇\"式聊天，看的我面红耳赤，他们的语音你懂多少？",
        "docid": "7294972881443340811",
        "url": ""
    },
    {
        "title": "当你和对象年龄差六岁，可以是23和29，但不能是大一和六年级",
        "docid": "7300837158787678735",
        "url": ""
    },
    {
        "title": "外国人眼中的我们是什么样的，网友分享的都一副没见过世面的样子",
        "docid": "7318217423046918693",
        "url": ""
    },
    {
        "title": "王哥连他媳妇儿都不怕，真给咱爷们儿长脸",
        "docid": "7326206606621180456",
        "url": ""
    },
    {
        "title": "果然激化矛盾是解决矛盾的最好方式，无利时，把事情搅浑就对了",
        "docid": "7298881114733724210",
        "url": ""
    },
    {
        "title": "小姐姐你可长点心，这样的自拍照发出来，亮点全部都被大家发现了",
        "docid": "7325696155294220836",
        "url": ""
    },
    {
        "title": "绝了，婆婆和媳妇都是美人坯子，这小姑娘长大可不得了，美美美。",
        "docid": "7327190209761034762",
        "url": ""
    },
    {
        "title": "“我弟弟才13岁，今天在他床底下发现这个，还有救吗？”哈哈哈",
        "docid": "7327201941787001394",
        "url": ""
    },
    {
        "title": "原来马赛克真的不能乱打，尤其是对女孩子，网友：颜值真的很重要",
        "docid": "7327198602282058267",
        "url": ""
    },
    {
        "title": "人到中年：为啥胖成球？",
        "docid": "7301204970651583014",
        "url": ""
    },
    {
        "title": "00后这\"王昭君\"式聊天，看的我浮想翩翩，他们的语言你懂多少？",
        "docid": "7302691378847842855",
        "url": ""
    },
    {
        "title": "深圳文旅喊麦：我姓深！深圳交通：你闭嘴，赶紧删掉！评论区笑死",
        "docid": "7326382660262117940",
        "url": ""
    },
    {
        "title": "只有叫错的名字没有起错的外号？网友说一次嘴瓢能带来一生的外号",
        "docid": "7313473266402771495",
        "url": ""
    },
    {
        "title": "暑假在家我妈眼中的我",
        "docid": "7327156642502558259",
        "url": ""
    },
    {
        "title": "开心一刻精选高清gif动图:两个美女不看地上影子还以为是在照镜子",
        "docid": "7327125513443967540",
        "url": ""
    },
    {
        "title": "妹子，在火车上睡觉要盖被子，亮点全被对铺看到了哈哈哈哈",
        "docid": "7327210774470951434",
        "url": ""
    },
    {
        "title": "公司年会，被无语到了，抽到一等奖的奖品是与总经理共进晚餐",
        "docid": "7326150644006748698",
        "url": ""
    },
    {
        "title": "爆笑神评：人类大便要擦屁股，动物为什么不用？神评这是要笑死我",
        "docid": "7327169319170064906",
        "url": ""
    },
    {
        "title": "太形象了吧",
        "docid": "7326777681977328154",
        "url": ""
    },
    {
        "title": "从水里捞起来的，请问一下这是什么啊？”哇哈哈哈哈哈哈",
        "docid": "7326278666210886153",
        "url": ""
    },
    {
        "title": "大爷才是高手，想套路大爷，聪明反被聪明误，结局出乎意料，细品",
        "docid": "7318624098995995171",
        "url": ""
    },
    {
        "title": "女老板痔疮手术住院，男同事关心的一句幽默话，笑得停不下来了",
        "docid": "7321181092633903656",
        "url": ""
    },
    {
        "title": "姑娘地铁上就不知道有点素质吗？这行为也太尴尬了！",
        "docid": "7327198870160359946",
        "url": ""
    },
    {
        "title": "哈哈，天命不可违，想不成为有钱人都难，太搞笑了，你细品！",
        "docid": "7307649668970709504",
        "url": ""
    },
    {
        "title": "出门你媳妇坐在副驾驶上在干嘛？评论区让人笑到肚子痛，都是人才",
        "docid": "7309362869831942696",
        "url": ""
    },
    {
        "title": "妹子你下次出门前能不能检查一下衣服？”这也太尴尬了吧哈哈哈",
        "docid": "7326280111303819830",
        "url": ""
    },
    {
        "title": "怪不得一个镯子就能复宠，真的狠狠代入了。",
        "docid": "7300123802464764450",
        "url": ""
    },
    {
        "title": "翻开弟弟的浏览器记录，我当时就傻了，网友们我该怎么办？哈哈",
        "docid": "7311265259074241051",
        "url": ""
    },
    {
        "title": "点菜的水平，暴露了一个女孩的层次？",
        "docid": "7327086882289484329",
        "url": ""
    },
    {
        "title": "生米都煮成熟饭了，当然了解你家姑娘了。搞笑的段子笑岔气了。",
        "docid": "7313111530189718050",
        "url": ""
    },
    {
        "title": "搞笑来袭，一天不耍贱就浑身难受哇，贱兮兮又有趣的谁不爱！",
        "docid": "7324116261003166219",
        "url": ""
    },
    {
        "title": "当你在医院上班，亲戚都能提出什么无理的要求",
        "docid": "7308917940249264680",
        "url": ""
    },
    {
        "title": "你见过哪些奇怪的过敏体质？网友：我们经常利用舍友过敏来免单",
        "docid": "7311267199782535743",
        "url": ""
    },
    {
        "title": "12：警察：你接着说，这个版本还是第一次听说",
        "docid": "7327214462115562022",
        "url": ""
    },
    {
        "title": "哪位大神写出的段子？“五百年后”太精彩绝对是人才，不服都不行",
        "docid": "7302365290661282339",
        "url": ""
    },
    {
        "title": "小时候看到同学车很想要，回家跟爸妈说要交学杂费一百万",
        "docid": "7307039541636956683",
        "url": ""
    },
    {
        "title": "摄影师真的是太不容易了，现在什么都需要会",
        "docid": "7326838812033385001",
        "url": ""
    },
    {
        "title": "一男子要跳楼自杀，老婆让他别跳，结局大反转，幽默风趣好搞笑。",
        "docid": "7310021705051718144",
        "url": ""
    },
    {
        "title": "尔滨的警哥哥和南方小土豆合照出现最萌身高差，评论区笑疯……",
        "docid": "7326368474131923519",
        "url": ""
    },
    {
        "title": "你最意想不到的一笔钱是咋来的？真是一个比一个离谱！实名羡慕了",
        "docid": "7307126527978652211",
        "url": ""
    },
    {
        "title": "笑不活了！东北银是不是都被安装了幽默系统啊，笑死在评论区系列",
        "docid": "7321710156440715786",
        "url": ""
    },
    {
        "title": "神回复：还好是丸子头，这要是个地中海得讹到你倾家荡产！",
        "docid": "7325739290175586851",
        "url": ""
    },
    {
        "title": "坐火车吃什么东西最馋人，网友:大哥差点把我的碗盯个窟窿出来",
        "docid": "7325010340557980172",
        "url": ""
    },
    {
        "title": "有哪些你想发明的东西却已经被人发明了？评论区都是大聪明！",
        "docid": "7296400196378919433",
        "url": ""
    },
    {
        "title": "“在玉米地里面无意发现的，我现在很慌怎么办？”评论区沸腾了",
        "docid": "7327218277330272806",
        "url": ""
    },
    {
        "title": "妹子心真大啊，没感觉到后面有一股热气流吗？看着真尴尬啊！哈哈",
        "docid": "7326379378370216486",
        "url": ""
    },
    {
        "title": "儿子的浙大生活17：儿子终于放假了，我却和他吵了一架",
        "docid": "7325359184689512969",
        "url": ""
    },
    {
        "title": "你发过横财吗？网友：租房住，上家把钱落卧室，媳妇说我藏私房钱",
        "docid": "7323131955875906083",
        "url": ""
    },
    {
        "title": "神回复：老家祖坟怎么冒出一颗笋？有什么说法？神评这是要笑死我",
        "docid": "7327162539199676979",
        "url": ""
    },
    {
        "title": "网友分享小时候被暴揍的原因！真是一个比一个逆天，不要太离谱啦",
        "docid": "7295594877319479827",
        "url": ""
    },
    {
        "title": "我是那种差万把块钱的人吗？",
        "docid": "7312064235709055515",
        "url": ""
    },
    {
        "title": "和亲戚在同一个学校是什么体验？网友的分享太好笑了！",
        "docid": "7302024078888600075",
        "url": ""
    },
    {
        "title": "这才是应有的夫妻生活：中年的我，看了竟然好向往！",
        "docid": "7326332620794413631",
        "url": ""
    },
    {
        "title": "神回复：带这个过安检，保安为啥非要拦住我？电棍都拿出来了",
        "docid": "7327215209049997862",
        "url": ""
    },
    {
        "title": "太可怜了，当代大学生分享自己回家现状，我却笑死在网友的评论区",
        "docid": "7326472417889829413",
        "url": ""
    },
    {
        "title": "妹子在浴室大跳“科目三”，网友直呼这是最好看的版本",
        "docid": "7327235008492700197",
        "url": ""
    },
    {
        "title": "以后谁再说自己化的妆浓，把这张图让他看，这才是真正的浓妆！",
        "docid": "7309365080964645385",
        "url": ""
    },
    {
        "title": "年纪轻轻就需要挂尿袋出门，看着有点可怜！哈哈哈哈",
        "docid": "7326452719819194890",
        "url": ""
    },
    {
        "title": "大姐出来买东西也要注意形象阿，看的大叔都觉得不好意思了。",
        "docid": "7327111929225757224",
        "url": ""
    },
    {
        "title": "“半夜给老婆发信息，感觉头上绿油油啊！”哈哈哈",
        "docid": "7327232440009769499",
        "url": ""
    },
    {
        "title": "24张“拼尽全力”的照片：要不是生活所迫，谁愿意一身狼狈？",
        "docid": "7324867817155658275",
        "url": ""
    },
    {
        "title": "“下次自拍记得别开闪光灯，颜色都能看到了！”哈哈哈",
        "docid": "7327063972644012596",
        "url": ""
    },
    {
        "title": "带孩子外出的尴尬经历，真是太社死了，真想找个地缝钻进去",
        "docid": "7327195156787151400",
        "url": ""
    },
    {
        "title": "天呀，难倒全班一题，全班没一人做不出，儿子都被难哭了！动动脑",
        "docid": "7306942278633931303",
        "url": ""
    },
    {
        "title": "一年级的小朋友究竟可以多么可爱？",
        "docid": "7310514286395376162",
        "url": ""
    },
    {
        "title": "佛罗里达不养闲人，男子地铁搭讪美女，但每一步都令人震惊",
        "docid": "7326638240713179658",
        "url": ""
    },
    {
        "title": "隔辈亲，究竟能有多离谱？笑着笑着就哭了！",
        "docid": "7305934921896509991",
        "url": ""
    },
    {
        "title": "迟早被路边摊的标签笑死",
        "docid": "7326448522763895330",
        "url": ""
    },
    {
        "title": "陪着同事去相亲，一见面我们三个全都傻眼了，女方竟然是我媳妇！",
        "docid": "7307126256091464202",
        "url": ""
    },
    {
        "title": "老家，是中年人最治愈的地方，胜过所有风景！",
        "docid": "7320623781385617958",
        "url": ""
    },
    {
        "title": "孩子：让爸妈社死就像吃饭一样简单！ 哈哈就是有点废家长",
        "docid": "7320524552710046218",
        "url": ""
    },
    {
        "title": "果然女人不分年纪，生起气来都是一样的",
        "docid": "7311984644168958504",
        "url": ""
    },
    {
        "title": "尴尬瞬间！30张尴尬家庭照片让你捧腹大笑",
        "docid": "7308286152480571944",
        "url": ""
    },
    {
        "title": "太欢乐了！遵义“119”和“110”打起了雪仗，大家笑死在评论区。",
        "docid": "7327202793129968147",
        "url": ""
    },
    {
        "title": "你花过最冤的一笔钱是干啥？笑死在网友的评论区",
        "docid": "7327200262215778879",
        "url": ""
    },
    {
        "title": "浙江女子穿带“沟”衣服乘坐地铁，旁人不敢正视，网友：怕被打啊",
        "docid": "7327249132232851994",
        "url": ""
    },
    {
        "title": "最牛考生，最牛广告，最牛讨债，精彩而又有意思，太有内涵了",
        "docid": "7308222074617741878",
        "url": ""
    },
    {
        "title": "《错位》，想想守门阿姨，说话很有深度，太幽默了，回味无穷",
        "docid": "7298248198475268671",
        "url": ""
    },
    {
        "title": "我强忍着眼泪，但还是控制不住笑了出来，这思维真的让我意想不到",
        "docid": "7318964095557501481",
        "url": ""
    },
    {
        "title": "陪父母出门建议携带户口本，毕竟当代人的脑洞你不敢想象",
        "docid": "7326468365638664740",
        "url": ""
    },
    {
        "title": "说说你最接近死神的一次经历？网友们的回答让我破防了！心有余悸",
        "docid": "7300114969499501108",
        "url": ""
    },
    {
        "title": "俗话说，得胃者得天下！网友：靠，评论区快把我钓成翘嘴了！",
        "docid": "7327176048569975332",
        "url": ""
    },
    {
        "title": "果然前任还没有完全放下来你，试图用这种手段引起你的注意",
        "docid": "7311283399912981031",
        "url": ""
    },
    {
        "title": "他妻子提出离婚，并要求得到他一半的财产，但结局让人万万没想到",
        "docid": "7326354440629060105",
        "url": ""
    },
    {
        "title": "天呐，都是谐音惹的祸，买房子付款引起的误会，忍不住笑出声",
        "docid": "7314992906895802899",
        "url": ""
    },
    {
        "title": "“姑娘，以后别起床就自拍，秘密都被大家知道了”哈哈哈太尴尬了",
        "docid": "7326440537178112564",
        "url": ""
    },
    {
        "title": "90后童年干过的蠢事合集，家人们笑不活了，今天的功德又笑没了",
        "docid": "7296336958463279635",
        "url": ""
    },
    {
        "title": "同事当众说你男友是她喜欢的类型！你该如何回应？网友评论超神了",
        "docid": "7300114528854213172",
        "url": ""
    },
    {
        "title": "无论在哪个年代，养猫人的行为都是一样。",
        "docid": "7313741114862125618",
        "url": ""
    },
    {
        "title": "这一瞬间的沉默让人震耳欲聋",
        "docid": "7295612933034263074",
        "url": ""
    },
    {
        "title": "这样的女人是小坏坏，你家有同款吗？幽默搞笑漫画，太现实了",
        "docid": "7314503492297703988",
        "url": ""
    },
    {
        "title": "修勾:大年初一一大早出门散步，回来刚好赶上年三十的春晚",
        "docid": "7327110190535377408",
        "url": ""
    },
    {
        "title": "谭sir助力四川文旅，四川网友坐不住了，评论区炸锅笑死我了！",
        "docid": "7324944011062739495",
        "url": ""
    },
    {
        "title": "广西这回真是捅“娄子”捅到了国外！",
        "docid": "7326191725918405183",
        "url": ""
    },
    {
        "title": "果然人在年少时，不能遇到太惊艳的坟！看完网评论，我笑不活了",
        "docid": "7321942510622769703",
        "url": ""
    },
    {
        "title": "姑娘在地铁上还是注意一下姿态吧，隔着屏幕都替你脸红，太尴尬了",
        "docid": "7327266688541229619",
        "url": ""
    },
    {
        "title": "“相亲”，这条段子太精彩了",
        "docid": "7327273303986209343",
        "url": ""
    },
    {
        "title": "我怎么说东北人这么幽默，原来他们从小晚上躲被窝偷偷背梗！",
        "docid": "7326509022138941992",
        "url": ""
    },
    {
        "title": "安检是安检，正不正经就不知道了!说说你在安检时碰到过哪些趣事",
        "docid": "7297132691241042470",
        "url": ""
    },
    {
        "title": "老外对中国的误解有多深，哈哈哈这都是什么奇葩问题！",
        "docid": "7317690085301076521",
        "url": ""
    },
    {
        "title": "43张巧夺天工的图片，网友表示：每一张都让人忍不住拍案称奇",
        "docid": "7312062005505245748",
        "url": ""
    },
    {
        "title": "是什么原因让你从此不再吃某种食品",
        "docid": "7306463180530827812",
        "url": ""
    },
    {
        "title": "【爆笑段子】同事生气了好久没理我，我做错了吗？",
        "docid": "7327087974712181274",
        "url": ""
    },
    {
        "title": "如何拒绝同事让请吃饭？看看网友怎么说，幽默又有趣",
        "docid": "7327237944991859226",
        "url": ""
    },
    {
        "title": "原来真的有夫妻不熟的！网友：结婚十几年，开口永远是：你好老婆",
        "docid": "7327162218619879955",
        "url": ""
    },
    {
        "title": "妹子，你注意一点形象吧，公共场合这么多人看着不觉得尴尬吗？",
        "docid": "7327265826917696051",
        "url": ""
    },
    {
        "title": "妹子的男朋友刚刚来过吧，身后的痕迹也太明显了，拍照也不注意点",
        "docid": "7327030161487069732",
        "url": ""
    },
    {
        "title": "这届网友为了吃上小蛋糕，都用上了那些“借口”，评论区笑到我了",
        "docid": "7327223568780378663",
        "url": ""
    },
    {
        "title": "三月今天的相声，堪比春晚！笑死我了！哈哈哈！",
        "docid": "7326486157473333812",
        "url": ""
    },
    {
        "title": "说起网购，还是长辈们比较硬核！",
        "docid": "7326993172964590114",
        "url": ""
    },
    {
        "title": "笑麻了！被甘肃文旅“不走寻常路”的“美男计”笑到无法自拔！",
        "docid": "7324225115993784886",
        "url": ""
    },
    {
        "title": "小熊猫代表在东北雪地干架,两个老师都拉不起来!评论区快笑死我了",
        "docid": "7322663846659850787",
        "url": ""
    },
    {
        "title": "笑不活了，浙江文旅整活杭州，全面喊麦！评论区笑死人了",
        "docid": "7323513533168140834",
        "url": ""
    },
    {
        "title": "笑不活了，广西orange橘长又出新品，柳州黑甘蔗",
        "docid": "7326355469357056553",
        "url": ""
    },
    {
        "title": "笑不活了！安徽和江苏文旅这两个卧龙凤雏！散装上了！笑死我了",
        "docid": "7323525648599859747",
        "url": ""
    },
    {
        "title": "“公公陪我儿子输液，医生给我发的照片！”笑不活了家人们！",
        "docid": "7327282140767535667",
        "url": ""
    },
    {
        "title": "姑娘在热成像下，不小心被发现了秘密，哈哈哈实在是太尴尬了",
        "docid": "7327188922767933979",
        "url": ""
    },
    {
        "title": "姑娘，拜托你看一眼后面，都要快变成水泥挡板了！难道不尴尬吗？",
        "docid": "7326689720682250752",
        "url": ""
    },
    {
        "title": "赫本这么美，为什么那些整容的不照着她整？评论扎心了哈哈哈",
        "docid": "7327279879190594086",
        "url": ""
    },
    {
        "title": "“父母大战熊孩子！”评论区搞笑搞笑程度100％",
        "docid": "7327276308022133283",
        "url": ""
    },
    {
        "title": "什么电视剧是你看了一遍又一遍的",
        "docid": "7326643032542200329",
        "url": ""
    },
    {
        "title": "哈尔滨又出了一个显眼包，这真是个显眼包，人群中一眼就能看到",
        "docid": "7327196576621888036",
        "url": ""
    },
    {
        "title": "搞笑段子:公牛和母牛，在草原上的精彩对话，笑死我了。",
        "docid": "7314497942575268371",
        "url": ""
    },
    {
        "title": "男女洗澡前后对比，太搞笑了，你看懂了吗？幽默有趣的漫画",
        "docid": "7327275484708962831",
        "url": ""
    },
    {
        "title": "天呐，我实在憋不住了，可以称得上搞笑教科书，搞笑天花板",
        "docid": "7318364235573281291",
        "url": ""
    },
    {
        "title": "原来家里太穷这么窒息，网友的真实经历一个比一个炸裂，太戳心了",
        "docid": "7327299630088143386",
        "url": ""
    },
    {
        "title": "在医院拍CT时，没忍住打了个喷嚏，结果医生看着片子陷入了沉思",
        "docid": "7327192052343521855",
        "url": ""
    },
    {
        "title": "“女孩们以后穿裙子一定要注意点坐姿呀，这也太尴尬了！”哈哈哈",
        "docid": "7327254054592086579",
        "url": ""
    },
    {
        "title": "女朋友不给买包就不起来，那么多包了还要买，真是没办法",
        "docid": "7327295094225158683",
        "url": ""
    },
    {
        "title": "养女儿和儿子的差别在哪？网友：看看妈妈的表情就知道了！哈哈",
        "docid": "7327276837728764466",
        "url": ""
    },
    {
        "title": "“睡过头了”这个段子太搞笑了，一个上班迟到没被罚，你细品。",
        "docid": "7326408631006691866",
        "url": ""
    },
    {
        "title": "原来全世界都在假装大人，评论区真的要笑死了不过确实是这样！",
        "docid": "7327273801530671651",
        "url": ""
    },
    {
        "title": "自从发疯之后精神正常多了！哈哈这谁顶得住啊",
        "docid": "7327204525993951770",
        "url": ""
    },
    {
        "title": "爆笑聊天，怎么没早点碰到这样的大夫，除了收费有点贵",
        "docid": "7326560402681283098",
        "url": ""
    },
    {
        "title": "“女秘书的惊喜”这个段子有意思",
        "docid": "7327273542318506508",
        "url": ""
    },
    {
        "title": "雨躲云中笑日痴，",
        "docid": "7327129543066698267",
        "url": ""
    },
    {
        "title": "改试卷笑抽算工伤吗？要不说哪一行都不容易呢",
        "docid": "7326830954692772403",
        "url": ""
    },
    {
        "title": "幽默笑话（二十一）",
        "docid": "7327157677451690533",
        "url": ""
    },
    {
        "title": "见过最离谱的招聘要求：为公司完成一轮融资才能入职",
        "docid": "7327089325961839104",
        "url": ""
    },
    {
        "title": "搞笑动图：反正迟早都是下水的，只不过是下水的姿势不一样而已",
        "docid": "7317629028012343835",
        "url": ""
    },
    {
        "title": "开心日记：美女，这图就别发了，旁边的妹子已经暴露了！",
        "docid": "7326639311821013504",
        "url": ""
    },
    {
        "title": "存表情包啦宝贝们",
        "docid": "7327281081886540297",
        "url": ""
    },
    {
        "title": "这是你的消费观吗？抠抠搜搜的花了很多钱！",
        "docid": "7327174844594782772",
        "url": ""
    },
    {
        "title": "朋友晒老婆孩子，网友绝了：家有贤妻哥们财大气粗有福之人！",
        "docid": "7327105175389241867",
        "url": ""
    },
    {
        "title": "一个人在家时，脑洞到底有多大?",
        "docid": "7327292638993138211",
        "url": ""
    }
]