[
    {
        "title": "重庆一女子坐地铁的照片火了，惊艳路人， 网友：也太漂亮了吧！",
        "docid": "7352940398391607858",
        "url": ""
    },
    {
        "title": "爆笑聊天记录，“学医是自己带尸体还是学校发”，哈哈哈笑趴我了",
        "docid": "7359057577696657961",
        "url": ""
    },
    {
        "title": "肚子笑疼，女装退货率高是有原因的，商家你不要太离谱",
        "docid": "7361293379231154726",
        "url": ""
    },
    {
        "title": "终于明白男护士为啥受欢迎了，看了朋友取药图就懂了！",
        "docid": "7357623168393101834",
        "url": ""
    },
    {
        "title": "笑死，朋友被深圳地铁弄得怀疑人生，我们的友谊小船也差点翻了。",
        "docid": "7357501870241251850",
        "url": ""
    },
    {
        "title": "30张能让人嘴巴笑歪的图片，看完笑出了猪叫声，网友：笑不活了！",
        "docid": "7341610837519942171",
        "url": ""
    },
    {
        "title": "那些封神的照片",
        "docid": "7333240547136258610",
        "url": ""
    },
    {
        "title": "笑死了！和外卖小哥搞笑聊天记录：你外婆到了，挂门把手上了",
        "docid": "7359401686927966747",
        "url": ""
    },
    {
        "title": "突然发现妈妈好像也在装大人",
        "docid": "7333542935138419211",
        "url": ""
    },
    {
        "title": "那现在分手，他们不白死了吗？那些让人忍俊不禁的对话！",
        "docid": "7331374459464909338",
        "url": ""
    },
    {
        "title": "毁三观！郑州一女子的'双绳裤'照片火了，网友：两根绳也叫裤子？",
        "docid": "7360995819627414031",
        "url": ""
    },
    {
        "title": "开心一刻|动图合集：出来吃饭看到，有些尴尬了！",
        "docid": "7346419172622189075",
        "url": ""
    },
    {
        "title": "山东人情商高得离谱，从没输过！看完直呼厉害，我笑死在评论区！",
        "docid": "7330542212700488204",
        "url": ""
    },
    {
        "title": "这20张图片包你开心，看了要笑疯了，带走你所有的烦恼",
        "docid": "7343444896482673215",
        "url": ""
    },
    {
        "title": "颠覆认知了，一万块钱到底对你意味着什么?网友回答太震撼了！",
        "docid": "7334407452764406312",
        "url": ""
    },
    {
        "title": "难怪当老师的有时憋不住笑！真的不能怪老师，因为确实太好笑了！",
        "docid": "7349795592250098213",
        "url": ""
    },
    {
        "title": "为什么小说女主没有山东人？网友的回复笑死人了",
        "docid": "7346163437887799808",
        "url": ""
    },
    {
        "title": "小说作者是怎么暴露自己经济水平的？看完评论区笑不活了",
        "docid": "7348420427254923810",
        "url": ""
    },
    {
        "title": "老公们都是真傻还是装傻？网友分享一个比一个炸裂，我人笑麻了",
        "docid": "7358460824320819762",
        "url": ""
    },
    {
        "title": "社会的复杂都是从父母的套路开始体会的！确定亲生，实在忍不住笑",
        "docid": "7344895773178266146",
        "url": ""
    },
    {
        "title": "“妹子，风太大了就别穿裙子了，原形毕露了吧”哈哈哈哈哈",
        "docid": "7361089836075205170",
        "url": ""
    },
    {
        "title": "毁三观！女子穿个性的裤子逛街，网友：两个绳也叫裤子。",
        "docid": "7361130620887630373",
        "url": ""
    },
    {
        "title": "“妈，骂早了吧，这下尴尬不”，神回复，笑醒了",
        "docid": "7361281669897044532",
        "url": ""
    },
    {
        "title": "“分手两年后撞到前男友的裤裆？” 那些比小说还巧合的经历",
        "docid": "7352821177242370579",
        "url": ""
    },
    {
        "title": "男子接醉酒女友下班，引路人围观女朋友身材哇塞网友：放下让我来",
        "docid": "7360967242856546855",
        "url": ""
    },
    {
        "title": "笑不活！北方人问南方人为什么不用枕巾？南方人的回答，太逗了！",
        "docid": "7358636193233322533",
        "url": ""
    },
    {
        "title": "为什么销冠大多数是女生？网友：男销售跟听不懂话一样 还自以为是",
        "docid": "7357986406544769536",
        "url": ""
    },
    {
        "title": "盘点部队上发生的奇葩经历！看完网友的分享，一天的笑点都达标了",
        "docid": "7358638550817964553",
        "url": ""
    },
    {
        "title": "很久没看到这么清新脱俗的搞笑图片了，把人笑得肚子一抽一抽的疼",
        "docid": "7361776809052111395",
        "url": ""
    },
    {
        "title": "原来部队里也有那么多奇闻趣事！网友：当着全连战士给猪念道歉信",
        "docid": "7330259077664883227",
        "url": ""
    },
    {
        "title": "毁三观，重庆一地铁惊现不堪一幕，这位女子的穿着着实不敢恭维",
        "docid": "7346455658818191891",
        "url": ""
    },
    {
        "title": "几个女性才能打过一个男性？网友：你们对力量一无所知！",
        "docid": "7334674427608597026",
        "url": ""
    },
    {
        "title": "新造的人表情包",
        "docid": "7343208593770250779",
        "url": ""
    },
    {
        "title": "进山祭祖，状况百出！网友：这个祖咱是非祭不可呗？",
        "docid": "7353959955877216768",
        "url": ""
    },
    {
        "title": "怀孕生产时老公的离谱行为，网友分享真实经历，简直让人目瞪口呆",
        "docid": "7360509950139302440",
        "url": ""
    },
    {
        "title": "第一次带女朋友回家是一种什么体验？网友：真诚才是必杀技",
        "docid": "7329897463518724659",
        "url": ""
    },
    {
        "title": "33岁贵州小伙返场王婆说媒，意外爆出聊天记录，网友直呼：太可怕",
        "docid": "7361667783664452146",
        "url": ""
    },
    {
        "title": "中国人造梗的能力有多强？在评论区笑抽抽了！",
        "docid": "7361328393180234250",
        "url": ""
    },
    {
        "title": "网友们的那些奇奇怪怪的干爹干妈。评论区笑不活了",
        "docid": "7333889249189610011",
        "url": ""
    },
    {
        "title": "今日笑话：少年不知江湖险恶",
        "docid": "7361352944102474278",
        "url": ""
    }
]