[
    {
        "title": "30张越看越搞笑的图片，整个人都要笑不活了",
        "docid": "7375535664516891136",
        "url": ""
    },
    {
        "title": "开心一刻，搞笑图：上着厕所就把赛比完了",
        "docid": "7375166701941588499",
        "url": ""
    },
    {
        "title": "男子吃席用屁股顺走茅台，旁边顺烟的女子气得牙痒痒：这把高端局",
        "docid": "7349053350127600180",
        "url": ""
    },
    {
        "title": "半夜睡不着，你做过什么离谱的事？网友：起来爬了个山！",
        "docid": "7375545087100486144",
        "url": ""
    },
    {
        "title": "男生把兄弟的姐姐当女朋友对待，姐姐表面故作矜持之后反应亮了！",
        "docid": "7374754755903488564",
        "url": ""
    },
    {
        "title": "网友:这个我真喜欢，要是不骂人就更喜欢了！",
        "docid": "7358436169870213644",
        "url": ""
    },
    {
        "title": "爆笑动态图！哥斯拉现身了？",
        "docid": "7375539446617227812",
        "url": ""
    },
    {
        "title": "如果给你5厘米你会加到什么地方，外卖小哥的回答格局打开了！",
        "docid": "7373843802231931419",
        "url": ""
    },
    {
        "title": "你见过脚最臭的人能臭到什么地步？网友:原来漂亮女生也会脚臭！",
        "docid": "7375207970470150690",
        "url": ""
    },
    {
        "title": "他们不知道监控全程记录了这个社死现场，不然绝不会这么做",
        "docid": "7355999289748750902",
        "url": ""
    },
    {
        "title": "全网最离谱的鬼才摄影师，总能轻松找出你的弱点，简直杀人诛心！",
        "docid": "7347664413019537957",
        "url": ""
    },
    {
        "title": "“短短几句台词，后劲也太大了！以前的电影是真的封神！”",
        "docid": "7373625427404947983",
        "url": ""
    },
    {
        "title": "大城市真是不一样，大妈挎包真时尚，鸡蛋真的不会碎吗",
        "docid": "7356864385064649253",
        "url": ""
    },
    {
        "title": "搞笑段子，太精辟了，思维活跃，逻辑清晰，才华横溢。太有才了",
        "docid": "7375522685536829961",
        "url": ""
    },
    {
        "title": "【梗图共赏】我大学不读清华的原因！",
        "docid": "7374133359871574540",
        "url": ""
    },
    {
        "title": "老人看见美女跳舞，瞬间变身为十八岁小伙",
        "docid": "7366882932377682472",
        "url": ""
    },
    {
        "title": "服了！全网情商最高的情侣，PUA大师和他反PUA老婆，震碎网友三观",
        "docid": "7350522380172984886",
        "url": ""
    },
    {
        "title": "小护士被捏脸，直接威胁帅医生：再捏我就嫁给你！爆笑护士系列",
        "docid": "7358831217912840744",
        "url": ""
    },
    {
        "title": "盘点幼崽犯困的搞笑视频，看到最后，笑晕了😇",
        "docid": "7349904017436344882",
        "url": ""
    },
    {
        "title": "这样的“老式小孩”是真的皮实",
        "docid": "7343501730606383652",
        "url": ""
    },
    {
        "title": "6岁小男孩模仿林子祥，一开口粤语歌气势十足！后面爷爷表情亮了",
        "docid": "7346501097789489701",
        "url": ""
    },
    {
        "title": "使出吃奶劲，就是关不上",
        "docid": "7355498703242363418",
        "url": ""
    },
    {
        "title": "欢乐童年，快乐伐长",
        "docid": "7375355123507134991",
        "url": ""
    },
    {
        "title": "仰望U8下水跟龙舟助兴！",
        "docid": "7374018690142241318",
        "url": ""
    },
    {
        "title": "女生没忍住抱着宝宝一直亲，结果被宝宝嫌弃推开",
        "docid": "7375397977948422667",
        "url": ""
    },
    {
        "title": "川渝暴龙对东北男友说数到三，不料被一把拎起秒制服，结局笑不活",
        "docid": "7373866384867983912",
        "url": ""
    },
    {
        "title": "爆笑来袭！小伙实力模仿莫文蔚，一张嘴笑翻全场，真是太形象了",
        "docid": "7344239007041061414",
        "url": ""
    },
    {
        "title": "盘点婚礼上的活宝新娘，娶回去这样的女孩子肯定每天都很精彩吧！",
        "docid": "7367219339105632808",
        "url": ""
    },
    {
        "title": "笑点低的人结婚也会笑场，不要在最严肃的场合看向你最好的朋友",
        "docid": "7357154692423483915",
        "url": ""
    },
    {
        "title": "狗子回家见门关着，热身起跳从门锁孔进家，动作流畅 一气呵成",
        "docid": "7372361560464818738",
        "url": ""
    },
    {
        "title": "算完卦男子说没钱 气得大师直接口吐芬芳",
        "docid": "7365734602775724559",
        "url": ""
    },
    {
        "title": "老婆婚后发现老公身价过亿，半夜睡不着嘴都笑歪，智商上线后变脸",
        "docid": "7372463226577781287",
        "url": ""
    },
    {
        "title": "黄子韬云南泼水节被泼到抱头求饶 #云南泼水节 #离谱 #万万想不到",
        "docid": "7357958820921868810",
        "url": ""
    },
    {
        "title": "这些巧合发生的概率低的过于离谱了 #逆天 #离谱 #巧合",
        "docid": "7369594746836091431",
        "url": ""
    },
    {
        "title": "🎈六一儿童节🎈\n要不要出来约一下？\n#今天吃什么",
        "docid": "7375406944288244274",
        "url": ""
    },
    {
        "title": "男子晒自己宝贝女儿，投资了二十多年的项目",
        "docid": "7361633710838153762",
        "url": ""
    },
    {
        "title": "大聪明男子身上挂满鞭炮 结果失误被点燃",
        "docid": "7349502715933917696",
        "url": ""
    },
    {
        "title": "舒畅36年从未做过一顿饭，入住10年的家连煤气都没接通，简直绝了",
        "docid": "7368290705313432073",
        "url": ""
    },
    {
        "title": "网红在尼泊尔盛起恒河水就喝，结局也是意料之中了",
        "docid": "7374335855877423643",
        "url": ""
    },
    {
        "title": "全麻后的社死瞬间！女子虚空玩王者激烈团战：感谢赵云救我狗命",
        "docid": "7372009309082747427",
        "url": ""
    },
    {
        "title": "哪个男友经不起这样的考验",
        "docid": "7375116240609608228",
        "url": ""
    },
    {
        "title": "这教练是懂划龙舟的",
        "docid": "7375191853907313215",
        "url": ""
    },
    {
        "title": "爆笑认错人系列：错把丈母娘当老婆，还抱在怀里疯狂表白，笑喷了",
        "docid": "7349453003562975779",
        "url": ""
    },
    {
        "title": "“这只狗，害我笑了足足2分40秒！”",
        "docid": "7353423910223905306",
        "url": ""
    },
    {
        "title": "18张揭示现代生活的荒诞一面，你都看懂了吗？",
        "docid": "7375008579817882139",
        "url": ""
    },
    {
        "title": "女友被闺蜜怂恿闹分手，男生以退为进使出离间计，结局轻松拿捏！",
        "docid": "7367208810722624035",
        "url": ""
    },
    {
        "title": "“当年根本没看懂，现在看来这些台词真是封神般的存在！”",
        "docid": "7345324084940505651",
        "url": ""
    },
    {
        "title": "天上不能掉馅饼！ #搞笑配音",
        "docid": "7347284269452952116",
        "url": ""
    },
    {
        "title": "卧龙凤雏的双向奔赴#搞笑 #大学生 #卧龙凤雏",
        "docid": "7347274639015412264",
        "url": ""
    },
    {
        "title": "10个“酒肉朋友”现场镜头：上一秒把酒言欢 下一秒翻脸无情！",
        "docid": "7356214404930929152",
        "url": ""
    },
    {
        "title": "跳远把裤子扯开了，你说小姐姐有多尴尬",
        "docid": "7357176517808292406",
        "url": ""
    },
    {
        "title": "笑死！全员美人愣是没美过一个男人。男主以一己之力力压一众美人",
        "docid": "7357625587747258895",
        "url": ""
    },
    {
        "title": "老公坐电梯遇见老婆，打扮的太漂亮，都没认出来！爆笑电梯场面",
        "docid": "7365127818105881139",
        "url": ""
    },
    {
        "title": "这个家怕不是把卧龙凤雏都聚齐了：智慧的大眼 一看就知道不简单",
        "docid": "7345395777809678860",
        "url": ""
    },
    {
        "title": "妈妈偷拍女儿睡前唱歌，歌声如魔如幻，把老母亲笑岔气：真敢唱！",
        "docid": "7353511395159179776",
        "url": ""
    },
    {
        "title": "搞笑视频:相亲看中丈母娘，搂着就走，为一手机女孩啥也搭上了",
        "docid": "7351992935912571433",
        "url": ""
    },
    {
        "title": "女生带着闺蜜和男生约会，闺蜜全程送助攻女生默契配合：成功拿下",
        "docid": "7369776048096936484",
        "url": ""
    },
    {
        "title": "保安：别拦着她，让我看个笑话",
        "docid": "7363591784129102388",
        "url": ""
    },
    {
        "title": "@西瓜电视剧",
        "docid": "7375395779441066533",
        "url": ""
    },
    {
        "title": "女子吃饭逐渐“解除封印”，肚腩一览无余丈夫努力憋笑，下秒高能",
        "docid": "7358380970992468515",
        "url": ""
    },
    {
        "title": "黑熊精:你是不是翻我裤兜子了？",
        "docid": "7345341716838220299",
        "url": ""
    },
    {
        "title": "国外美女“上马”时，不料发生尴尬瞬间，镜头拍下搞笑全过程！",
        "docid": "7374337627178959401",
        "url": ""
    },
    {
        "title": "国宝“掉坑里”了，腿短又近视，爬上去后得意的样子萌化老外！",
        "docid": "7369982978690941466",
        "url": ""
    },
    {
        "title": "@（｡ò ∀ ó｡）",
        "docid": "7375472535640474138",
        "url": ""
    },
    {
        "title": "女生打开一把特别大的伞,网友：第一次见能原地开店的伞",
        "docid": "7375418220590662195",
        "url": ""
    },
    {
        "title": "爸爸：不管你是谁！立刻从我的女儿身上下来",
        "docid": "7342695121286398498",
        "url": ""
    },
    {
        "title": "男子问大师化缘 大师：你问我我问谁 我只管守店",
        "docid": "7365465170157502985",
        "url": ""
    },
    {
        "title": "一个敢开一个敢坐，童年的信任就是这么简单",
        "docid": "7374317212733014547",
        "url": ""
    },
    {
        "title": "女生相亲看上28岁男模，猛夸长相还放话我养你：跟了我别找别人",
        "docid": "7374323812919149119",
        "url": ""
    },
    {
        "title": "倒霉遇到倒灶…#看一遍笑一遍 #万万没想到 #这谁顶得住啊",
        "docid": "7352384769084097034",
        "url": ""
    },
    {
        "title": "女生为向同桌男生展示魅力，从女神变搞笑女整活，最后抛媚眼超绝",
        "docid": "7373558097807147583",
        "url": ""
    },
    {
        "title": "痛下黑手毫不留情的人类！多少存在私人恩怨，画面看着都吓人！",
        "docid": "7375343565548814898",
        "url": ""
    },
    {
        "title": "一女子分享了自己与老公的合照！你儿子挺乖，你老公怎么不入镜呀",
        "docid": "7344247573642904127",
        "url": ""
    },
    {
        "title": "我怎么就是骗子呢？",
        "docid": "7347949472971751948",
        "url": ""
    },
    {
        "title": "假如回到三十年前，条件艰苦，但父母年轻，你愿意吗？",
        "docid": "7375361647348613671",
        "url": ""
    },
    {
        "title": "笑不活！攀枝花动物园真的太会养了，网友：把动画世界搬进现实了",
        "docid": "7375337759461884479",
        "url": ""
    },
    {
        "title": "这社死来的太突然了，本来不该笑，但实在忍不住！",
        "docid": "7365281828640391743",
        "url": ""
    },
    {
        "title": "男子被色诱在饭局上识破女骗子，当场暴怒辱骂宣泄，看长相不理解",
        "docid": "7373899290998997504",
        "url": ""
    },
    {
        "title": "每日一笑",
        "docid": "7372794670797029903",
        "url": ""
    },
    {
        "title": "网友:给你机会你也不中用啊，啥也不是！",
        "docid": "7375448824578081291",
        "url": ""
    },
    {
        "title": "天津男子穿“群众”衣服撞衫交警，衣服跟相声一样好笑，评论笑死",
        "docid": "7347560283537228315",
        "url": ""
    },
    {
        "title": "“兄弟，这环境也能安然入睡，功底的确不一般啊！”哈哈哈哈",
        "docid": "7345261594022412852",
        "url": ""
    },
    {
        "title": "笑喷了！原来老外弱点是不会骂人！网友：舌战群雄真是毫无战斗力",
        "docid": "7374701931761812009",
        "url": ""
    },
    {
        "title": "酒店前台能见到多少精彩八卦？狗血电视剧拍的还是保守了",
        "docid": "7373965665939604018",
        "url": ""
    },
    {
        "title": "当你连续吃同一家店超过100次会发生什么？网友:这是吃成股东了吧",
        "docid": "7366082741399454235",
        "url": ""
    },
    {
        "title": "和太熟的人结婚是什么体验？网友：每次有想法就笑场，气氛都没了",
        "docid": "7343821173123564051",
        "url": ""
    },
    {
        "title": "不比不知道，一比吓一跳！33张对比图片，领略差异的魅力",
        "docid": "7366488817013948937",
        "url": ""
    },
    {
        "title": "终于明白为什么女装退货率这么高了？商家你不要太离谱!",
        "docid": "7360661528657461814",
        "url": ""
    },
    {
        "title": "学校的义卖买到过什么离谱的东西。网友：国窖1573被5块钱卖了",
        "docid": "7374732997678907914",
        "url": ""
    },
    {
        "title": "这家店，牛肉面真心不错，再让老板给我续碗汤，第三碗了。太尴尬",
        "docid": "7344558248340816399",
        "url": ""
    },
    {
        "title": "盘点萌娃开学名场面",
        "docid": "7344676859524678194",
        "url": ""
    },
    {
        "title": "盘点那些童声版万恶之源《被天使吻过的嗓音》，原来是他们唱的！",
        "docid": "7361359237609587241",
        "url": ""
    },
    {
        "title": "第一次见这么软的硬茬子，她的嘴什么时候能借我，这下碰到硬茬了",
        "docid": "7346584156312338981",
        "url": ""
    },
    {
        "title": "盘点东北的家庭版“相声”，大程子喝多了，嘉鹅轻松拿捏，笑死了",
        "docid": "7344284631304405530",
        "url": ""
    },
    {
        "title": "哭了！浦东机场要不要这么离谱啊，大的我怀疑人生，再也不拖延了",
        "docid": "7367203821585515059",
        "url": ""
    },
    {
        "title": "女小偷大白天撬门，没想却被光棍小伙套路，二人对话太逗了",
        "docid": "7352086773553594917",
        "url": ""
    },
    {
        "title": "原来学特长的目的是为装把大的？果然无形装x，最为致命！",
        "docid": "7366585280038404642",
        "url": ""
    },
    {
        "title": "盘点监控下的一幕，小姐姐一不小心就社死了。",
        "docid": "7365084182034252298",
        "url": ""
    },
    {
        "title": "老头打了大妈一耳光后就想走 大妈直接一招KO老头 网友：这是互殴",
        "docid": "7372868393960997426",
        "url": ""
    },
    {
        "title": "“冤有头债有主，不关我事”，把我笑疯了，幽默段子百看不厌。",
        "docid": "7352743771437646371",
        "url": ""
    },
    {
        "title": "当代年轻人打卡石窟新方式",
        "docid": "7358416670480466484",
        "url": ""
    },
    {
        "title": "笑不活了，看网友捕捉到宠物搞笑瞬间的照片，让我笑死了",
        "docid": "7368882856472609306",
        "url": ""
    },
    {
        "title": "成都安逸惨咯，商贩骑三轮车慢慢跑，城管在后面慢慢摇，评论笑死",
        "docid": "7346725670157812251",
        "url": ""
    },
    {
        "title": "笑不活了！张一山什么时候改名字了？笑死在评论区",
        "docid": "7375096159490064948",
        "url": ""
    },
    {
        "title": "为什么小说女主没有山东人？网友的回复笑死人了",
        "docid": "7346163437887799808",
        "url": ""
    },
    {
        "title": "好朋友不是可以替对方舔伤口的吗？那些让人忍俊不禁的对话！",
        "docid": "7354389881256362546",
        "url": ""
    },
    {
        "title": "怪不得有钱人都这么strong！网友分享太扎心，一看一个不吱声呀",
        "docid": "7372469827337748992",
        "url": ""
    },
    {
        "title": "对道士奇奇怪怪的刻板印象，道士：我们远居深山，不是死在深山",
        "docid": "7374723232613532170",
        "url": ""
    },
    {
        "title": "你喝多了都干过什么糗事？网友：喝多了吐女领导一身！",
        "docid": "7374367258937770550",
        "url": ""
    },
    {
        "title": "搞笑号开了个玩笑，没想到中核集团当真了，还拿出来了真实案例！",
        "docid": "7358724534666625536",
        "url": ""
    },
    {
        "title": "为什么说弟弟就是最好的旅游搭子？评论区笑死我了！",
        "docid": "7364662098829394484",
        "url": ""
    },
    {
        "title": "当爸爸带娃时！网友：我家狗的衣服出现在了宝宝身上！😂",
        "docid": "7367587380653523490",
        "url": ""
    },
    {
        "title": "塑料普通话到底能有多上头？看完网友分享，CUP都给我干冒烟了！",
        "docid": "7372540729652068874",
        "url": ""
    },
    {
        "title": "我妈嫁给我爸的理由能做多离谱？网友：没想到他们那阵结婚太潦草",
        "docid": "7360198221223985698",
        "url": ""
    },
    {
        "title": "论早年的婚纱照有多离谱？随便一张放到现在都是相当炸裂的存在",
        "docid": "7367650092834226688",
        "url": ""
    },
    {
        "title": "笑死！别相信父母爱情有多单纯了！我爸没羞没臊 赖在我妈家不肯走",
        "docid": "7372967036907766307",
        "url": ""
    },
    {
        "title": "难怪当老师的有时憋不住笑！真的不能怪老师，因为确实太好笑了！",
        "docid": "7349795592250098213",
        "url": ""
    },
    {
        "title": "你是怎么突然发现同事很有钱的？网友：这样的同事可以给我来一打",
        "docid": "7352136924817244722",
        "url": ""
    },
    {
        "title": "演员宋佳：我没结婚、不代表没伴侣，婚姻不是女人唯一的归宿",
        "docid": "7354247190740566582",
        "url": ""
    },
    {
        "title": "爸爸让儿子拍视频宣传饭馆，被熟人曝儿子童年往事，笑死在评论区",
        "docid": "7374260937114747429",
        "url": ""
    },
    {
        "title": "学校里的瓜有多离谱？网友毫无保留分享，一看一个不吱声，太炸裂",
        "docid": "7373233567691817522",
        "url": ""
    },
    {
        "title": "下次旅游就用这种剧照截图发朋友圈，出去玩没必要太正常！哈哈",
        "docid": "7364475523914809890",
        "url": ""
    },
    {
        "title": "毕业答辩时导师能做到什么地步？网友:我负责嘎嘎，老师负责乱杀",
        "docid": "7352786943723209270",
        "url": ""
    },
    {
        "title": "当自己有个亲哥哥是什么体验？网友的分享悲喜交加！压迫感太强了",
        "docid": "7346401093242470949",
        "url": ""
    },
    {
        "title": "原来在手术中只要一句话就能让麻醉师破防？盘点麻醉师最怕的事情",
        "docid": "7374326263969825320",
        "url": ""
    },
    {
        "title": "当你做手术时，如何让麻醉医生破防？网友：听的太投入接了一句茬",
        "docid": "7349789165824836130",
        "url": ""
    },
    {
        "title": "开心一笑，50张搞笑动图：大婶这个交通设备很先进啊，惊呆了！",
        "docid": "7374312785196499456",
        "url": ""
    },
    {
        "title": "笑疯了！好心疼这一届领导，员工裸辞看世界半路没钱被领导赎回来",
        "docid": "7350189282633777718",
        "url": ""
    },
    {
        "title": "笑不活了，小孩子的精神内核真的好稳定啊，要被评论区笑死了",
        "docid": "7355135222138044938",
        "url": ""
    },
    {
        "title": "笑到扶墙！网友：一个啥都问，一个啥都认真答",
        "docid": "7359130355217007144",
        "url": ""
    },
    {
        "title": "笑不活了，《庆余年》范闲林婉儿大婚，要被评论区笑死了",
        "docid": "7373923983026111003",
        "url": ""
    },
    {
        "title": "年轻人为什么不去菜市场买菜了？网友：45元一斤的虾卖我88元一斤",
        "docid": "7363945572824252964",
        "url": ""
    },
    {
        "title": "倒霉无处不在！30个人糟糕透顶的一天！",
        "docid": "7344575865126814234",
        "url": ""
    },
    {
        "title": "一个公司抠门能抠到什么程度？评论区令我大开眼界",
        "docid": "7375074907840938536",
        "url": ""
    },
    {
        "title": "20张图片告诉你什么才是极致的寒冷，隔着屏幕都觉得冷",
        "docid": "7363664744408007208",
        "url": ""
    },
    {
        "title": "原来无理取闹的人这么多！看完后,网友:你们猜他们为什么来医院?",
        "docid": "7348698176808813108",
        "url": ""
    },
    {
        "title": "真的笑不活了，看国外的餐桌能有多奇葩！这个样子还吃得下去饭吗",
        "docid": "7358712884987396618",
        "url": ""
    },
    {
        "title": "笑死在评论区，第一次带女朋友回家，父母的操作有多离谱",
        "docid": "7371759092819345972",
        "url": ""
    },
    {
        "title": "富人的周末和穷人的周末，你属于哪一种？",
        "docid": "7345647878800884251",
        "url": ""
    },
    {
        "title": "美团，你要不要看看你做了什么？这是请来了菜祖宗吗？哈哈哈哈",
        "docid": "7366555704313889291",
        "url": ""
    },
    {
        "title": "东北人有多爱管闲事？评论区整个真相现场！真的是既搞笑又感动",
        "docid": "7358335372365185586",
        "url": ""
    },
    {
        "title": "中国人到底有多爱八卦？评论区网友分享一针见血！不要太离谱哈哈",
        "docid": "7359763789191266870",
        "url": ""
    },
    {
        "title": "你在工作中捅过多大的篓子？网友:把飞机烧了，公司赔16亿美元",
        "docid": "7348687431635304999",
        "url": ""
    },
    {
        "title": "你家祖坟可以一直冒烟吗？网友：你见过一家子高质量男性女性吗？",
        "docid": "7371334961363714579",
        "url": ""
    },
    {
        "title": "拉屎拉到爽是一种什么体验？网友：直接拉了40厘米",
        "docid": "7360001177972507151",
        "url": ""
    },
    {
        "title": "你见过哪些因贪小便宜遭报应的人？网友：因为一包烟，工作没了",
        "docid": "7344978538896015883",
        "url": ""
    },
    {
        "title": "家里的熊孩子能创造什么惊喜，我侄女10元拍买的手镯，结果值31万",
        "docid": "7374297399697474089",
        "url": ""
    },
    {
        "title": "笑晕！医生的解码能力太牛了！他们到底经历过什么，即好笑又心疼",
        "docid": "7374629399364420131",
        "url": ""
    },
    {
        "title": "坏了，这老年痴呆是冲我来的啊！要被评论区笑死了",
        "docid": "7375549045231714826",
        "url": ""
    },
    {
        "title": "果然贫穷限制了我的想象!富人的生活让我大开眼界,网友:羡慕嫉妒",
        "docid": "7356533510037914152",
        "url": ""
    },
    {
        "title": "笑不活了！一代人有一代人的审美！20后的审美真的笑死我了！",
        "docid": "7361016139603821097",
        "url": ""
    },
    {
        "title": "你什么时候意识到自己没见过世面？网友：上了大学才知道鸡蛋有壳",
        "docid": "7352768702502142516",
        "url": ""
    },
    {
        "title": "淄博炒饼小哥火成景点，我要笑死在评论区！",
        "docid": "7364951496904966671",
        "url": ""
    },
    {
        "title": "这粽子还能吃吗？第一次包，大家帮忙看下！评论区笑死了！",
        "docid": "7372932397807075874",
        "url": ""
    },
    {
        "title": "原来实验室这么危险，网友：终于知道化学课为啥全靠想象死记硬背",
        "docid": "7375363691262313014",
        "url": ""
    },
    {
        "title": "好阿姨在市场的流通率比好男人还低！网友：抢男人都不能抢阿姨！",
        "docid": "7356892320279790117",
        "url": ""
    },
    {
        "title": "监控坏了，大爷习以为常，一个反间计，把我肚子都笑疼了，细品",
        "docid": "7353219669282751011",
        "url": ""
    },
    {
        "title": "“征女友”一文，太精彩了，搞笑的段子，让人百看不厌。",
        "docid": "7348781349324718607",
        "url": ""
    },
    {
        "title": "减肥为了控制食欲能有多拼？要笑死在评论区！哈哈哈",
        "docid": "7352100701742465562",
        "url": ""
    },
    {
        "title": "笑麻了！自己做饭咔咔猛放料，根本不亏待自己！恨不得放头牛进去",
        "docid": "7372098896874553896",
        "url": ""
    },
    {
        "title": "没想到民警工作日常比电视剧还抓马!看网友分享我笑麻,匪夷所思啊",
        "docid": "7361338844433744403",
        "url": ""
    },
    {
        "title": "你信不信有些事你做不成，只因老天在庇佑你！网友：天意难违",
        "docid": "7344985216186106409",
        "url": ""
    },
    {
        "title": "笑麻了！天津人都这么可爱吗？看完评论区，想去坐一次天津公交！",
        "docid": "7350505762092991012",
        "url": ""
    },
    {
        "title": "笑不活了！广西今年可以放烟花的原因是什么？我却笑死在了评论区",
        "docid": "7374337361682940451",
        "url": ""
    },
    {
        "title": "亲戚对你做的什么事，让你记了一辈子，网友：我是小，不是傻",
        "docid": "7362318528043450889",
        "url": ""
    },
    {
        "title": "奇葩亲戚的无理要求能有多无理？网友：真是啥都有，看完气笑了！",
        "docid": "7375695273462383156",
        "url": ""
    },
    {
        "title": "你做过最抽象的事情是什么？看了网友分享，一个比一个让人困惑",
        "docid": "7374698752356925992",
        "url": ""
    },
    {
        "title": "你无意中发现过父母的哪些小秘密？这届网友可真勇，啥都敢往外说",
        "docid": "7344746843114619446",
        "url": ""
    },
    {
        "title": "半个西红柿炒7个鸡蛋，年轻人做饭从不亏待自己，评论区笑死我了",
        "docid": "7373889471630148133",
        "url": ""
    },
    {
        "title": "终于理解留学生回国后的报复性行为!谁分得清这是留学还是流放啊",
        "docid": "7361339121685594665",
        "url": ""
    },
    {
        "title": "医生:患者，请不要偷偷送锦旗。网友:给医生送锦旗动静要搞大点",
        "docid": "7375397846004023846",
        "url": ""
    },
    {
        "title": "原来去富人区捡垃圾这么快乐啊！看完网友的收获，我太羡慕了",
        "docid": "7374762636363301428",
        "url": ""
    },
    {
        "title": "没想到还有这么小众的赛道，当代男女大学生都在对方领域风生水起",
        "docid": "7375728991589728802",
        "url": ""
    },
    {
        "title": "笑不活了！漠河到底有多冷？还不如住冰箱里，评论区网友太有才了",
        "docid": "7375519951219606016",
        "url": ""
    },
    {
        "title": "一直以为监狱里踩缝纫机是玩笑话，网友分享让我茅塞顿开，笑死了",
        "docid": "7374792006365413940",
        "url": ""
    },
    {
        "title": "你的老师都做过什么惊为天人的事情？网友：从此在学校名声赫赫！",
        "docid": "7348693419276960271",
        "url": ""
    },
    {
        "title": "这一刻真的为中国感到自豪！看完网友们的分享，我没忍住热泪盈眶",
        "docid": "7347906562939208201",
        "url": ""
    },
    {
        "title": "两个人在一起七次车祸，月老剪子都要抡冒烟了，才舍得分",
        "docid": "7367257906938593801",
        "url": ""
    },
    {
        "title": "网友间搞笑对话：都‘不怎么样’才更相配，看完笑喷了",
        "docid": "7347452401474880051",
        "url": ""
    },
    {
        "title": "男人就像食堂的菜⋯十八个生活冷笑话，带给你一天好心情！",
        "docid": "7375684365910671882",
        "url": ""
    },
    {
        "title": "有梗的女生真的让人好上头！",
        "docid": "7355535567339340299",
        "url": ""
    },
    {
        "title": "“让人笑得肚子痛的搞笑句子”",
        "docid": "7375646415936111156",
        "url": ""
    },
    {
        "title": "是时候秀出我们东方人的独特魅力了，让世界感受一下我们的震撼。",
        "docid": "7354208596492616226",
        "url": ""
    },
    {
        "title": "笑不活！我当年威逼小姑子喊嫂子，他目瞪口呆，长大后真成了夫妻",
        "docid": "7354269369021284864",
        "url": ""
    },
    {
        "title": "什么？熬夜竟然会让自己变臭！评论区太搞笑了哈哈",
        "docid": "7375440751443886642",
        "url": ""
    },
    {
        "title": "20个因为“忘了”而发生的悲惨事件，以后估计再也不敢了",
        "docid": "7368859333725127203",
        "url": ""
    },
    {
        "title": "16张图片告诉你，人性到底可以阴暗到什么地步！",
        "docid": "7373504798978556451",
        "url": ""
    },
    {
        "title": "怪不得中国人就是人均犟种呢！看完网友分享，原来不认输是祖传的",
        "docid": "7362368493612565055",
        "url": ""
    },
    {
        "title": "笑不活了，超市晚上忘关店，本以为会被零元购，没想到结局颠覆了",
        "docid": "7351327502273151522",
        "url": ""
    },
    {
        "title": "还以为零零后都成熟了！看完聊天，网友：原来零零后都在装大人！",
        "docid": "7332701157619663401",
        "url": ""
    },
    {
        "title": "小时候爸妈的经典骗术 ​",
        "docid": "7375700142936064550",
        "url": ""
    },
    {
        "title": "扎心！江苏31岁女子带娃去菜市场，被老板误认成奶奶 评论区笑不活",
        "docid": "7374336668460909097",
        "url": ""
    },
    {
        "title": "笑到断气的朋友圈",
        "docid": "7345298393008620066",
        "url": ""
    },
    {
        "title": "俄罗斯人占领东北黑河早市，云南人却坐不住了，评论区留言笑麻了",
        "docid": "7373473193392128549",
        "url": ""
    },
    {
        "title": "顾客不吃豆芽把豆芽吊死，而我却笑死在评论区",
        "docid": "7366053484808061492",
        "url": ""
    },
    {
        "title": "你人生中最意外的一笔收入是什么 网友：喝了瓶饮料店主赔我一万多",
        "docid": "7374646730274521651",
        "url": ""
    },
    {
        "title": "见过最挑食的人挑到什么程度？网友分享太离谱，这些都闻所未闻！",
        "docid": "7353532991731139123",
        "url": ""
    },
    {
        "title": "假如你老公掉粪坑里捞上来需要人工呼吸，你怎么办！评论区笑喷",
        "docid": "7347972703153848842",
        "url": ""
    },
    {
        "title": "盒马超市的奇怪设定，当网友们得知“2000信用度”后，脑回路绝了",
        "docid": "7365406293890548276",
        "url": ""
    },
    {
        "title": "笑不活了，女子点菜点多了，低价转卖给隔壁桌，网友：经商头脑",
        "docid": "7375710436831838771",
        "url": ""
    },
    {
        "title": "“祖宗你在哪里”广东大叔拜山祭祖为了找祖坟上了树，评论笑麻了",
        "docid": "7351164728170873353",
        "url": ""
    },
    {
        "title": "搞笑图片40张，你被哪张逗笑了？笑一笑十年少，快乐生活没烦恼",
        "docid": "7375708466935792168",
        "url": ""
    },
    {
        "title": "果然NPC的路线都是固定的，这世界就是一个巨大的楚门！",
        "docid": "7363438009062113832",
        "url": ""
    },
    {
        "title": "当下流行的男女关系，你遇到过吗",
        "docid": "7344301527496753716",
        "url": ""
    },
    {
        "title": "你曾经做过最疯狂的事情是什么？网友分享太炸裂，感觉自己白活了",
        "docid": "7375129670067290661",
        "url": ""
    },
    {
        "title": "20个疯狂的“作死”行为，这简直就是嫌自己活得太长了",
        "docid": "7375178114470658600",
        "url": ""
    },
    {
        "title": "你们和弟弟的聊天记录这么好笑吗？看完别提多炸裂了，CPU干烧了",
        "docid": "7358752550704775680",
        "url": ""
    },
    {
        "title": "笑死，女子为了不上班装瞎28年！网友：放在社恐界也是相当炸裂的",
        "docid": "7374761464290099712",
        "url": ""
    },
    {
        "title": "人能无知到什么地步？网友分享太可怕，看完真的既心塞又无奈！",
        "docid": "7374609690317029928",
        "url": ""
    },
    {
        "title": "笑死人，冥币店起火，一屋子冥币烧成灰，评论区个个是人才",
        "docid": "7354554534846317071",
        "url": ""
    },
    {
        "title": "“三个女婿”一文，太内涵了，你细品。",
        "docid": "7375108956085092915",
        "url": ""
    },
    {
        "title": "幽默发疯，每日一笑",
        "docid": "7375715683344351753",
        "url": ""
    },
    {
        "title": "国人到底有多喜欢吃瓜？网友：我爸去凑热闹，被抓进去蹲了半个月",
        "docid": "7370246176433521187",
        "url": ""
    },
    {
        "title": "太搞笑了，有网友分享了婴儿蹬腿视频引来热议，评论区坐不住了。",
        "docid": "7371392598197535273",
        "url": ""
    },
    {
        "title": "比父母还高的女儿生病，让父母抱着，看评论区笑麻了，腿都打不直",
        "docid": "7352781145236455947",
        "url": ""
    },
    {
        "title": "什么时候身高也有汇率了？评论区网友太离谱了，看完后CPU都烧了",
        "docid": "7363171112596849190",
        "url": ""
    },
    {
        "title": "笑麻了，成都男子用透明袋子装钱丢在地上，笑死在网友的评论区",
        "docid": "7348048864705888805",
        "url": ""
    },
    {
        "title": "全程笑疯！男子乘车拉稀遇红灯，一句“闯了吧，200块钱我掏！”",
        "docid": "7351641400049631794",
        "url": ""
    },
    {
        "title": "你遇到过最尴尬的事是什么？评论区让人笑到肚子痛，人才啊！",
        "docid": "7352809452254347813",
        "url": ""
    },
    {
        "title": "笑喷!医生的解码能力真的堪比顶级特工!了解病人还得是医生才厉害",
        "docid": "7375773821892100623",
        "url": ""
    },
    {
        "title": "学生宿舍抢食，舍友：咱妈给带的特产你藏哪了？",
        "docid": "7348318237324526121",
        "url": ""
    },
    {
        "title": "笑晕了！浙江一富豪爸爸送1岁女儿11套房子当嫁妆，评论区炸锅了",
        "docid": "7351305940005782066",
        "url": ""
    },
    {
        "title": "原来医学界也有自己的江湖门派！网友：怪不得那个医生轻蔑一笑",
        "docid": "7372974979408822810",
        "url": ""
    },
    {
        "title": "笑死，男子玩游戏输了竟被追着骂了4年！网友：果然恨比爱长久呀",
        "docid": "7364983703392879140",
        "url": ""
    },
    {
        "title": "天津人是生来就会捧哏吗？绝不让一句话掉在地上！",
        "docid": "7354726138062651939",
        "url": ""
    },
    {
        "title": "笑不活了！成都太古里真是饱了眼福长了见识，网友的评论笑死我了",
        "docid": "7372487048428552723",
        "url": ""
    },
    {
        "title": "笑不活了！你们重庆的广告都这么神戳戳的吗！",
        "docid": "7357000535901291062",
        "url": ""
    },
    {
        "title": "太搞笑啦，董宇辉：家居服就是骗你们多花钱！导播：真的不一样",
        "docid": "7353863956576010786",
        "url": ""
    },
    {
        "title": "周末开心一刻：一秒心情变好的搞笑句子",
        "docid": "7375779623503708711",
        "url": ""
    },
    {
        "title": "笑出猪叫声！排球好像在用一种很特别的方式劝退我…",
        "docid": "7375792421320049206",
        "url": ""
    },
    {
        "title": "攀枝花动物园的嘴有多硬？宁愿承认自己场地小，也不愿承认喂多了",
        "docid": "7345058230248735251",
        "url": ""
    },
    {
        "title": "不要带狗去徒步是有原因的，看完网友的分享，我要笑死在评论区了",
        "docid": "7373113607086801418",
        "url": ""
    },
    {
        "title": "笑疯了！四川文旅永不言败，换个花样，又来请战，评论区笑不活了",
        "docid": "7348309050947387955",
        "url": ""
    },
    {
        "title": "刹不住，根本刹不住失足成千古恨 网友：没一个动作是自愿的",
        "docid": "7374338762190357027",
        "url": ""
    },
    {
        "title": "西餐厅牛排点十分熟,隔壁桌说:农村来的吧,哪来十分熟?你怎么回?",
        "docid": "7371660471994204691",
        "url": ""
    },
    {
        "title": "母亲节给老妈发红包，你们都遇见过什么爆笑场面？评论区笑不活了",
        "docid": "7368304581622694435",
        "url": ""
    },
    {
        "title": "笑不活！广东回南天来了，广东老铁：可以把回南天送给隔壁广西吗",
        "docid": "7342515299423453737",
        "url": ""
    },
    {
        "title": "笑疯了！果然还是男人最懂男人啊！网友：这是真大师这个喷不了",
        "docid": "7354674024862990888",
        "url": ""
    },
    {
        "title": "终于笑了，天水麻辣烫大叔被约谈后，笑得像个憨憨，评论笑死我了",
        "docid": "7346852904701952546",
        "url": ""
    },
    {
        "title": "毁三观!上海一女子的双绳裤照片火了，网友：还有两根绳子？",
        "docid": "7375805441051197989",
        "url": ""
    },
    {
        "title": "老师为了避嫌能有多谨慎，评论区太炸裂了，原来当老师如此不容易",
        "docid": "7375344088494768703",
        "url": ""
    },
    {
        "title": "“以为自己毕业了，结果开出个生包”看完网友开的生包榴莲，笑死",
        "docid": "7369909889646346804",
        "url": ""
    },
    {
        "title": "各国老婆对待老公的态度，看完中国的我笑了，幽默有趣的漫画",
        "docid": "7375380900886118931",
        "url": ""
    },
    {
        "title": "理发店为什么都要用耳麦交流？我要笑死在评论区",
        "docid": "7342741120931643904",
        "url": ""
    },
    {
        "title": "太炸裂！重庆男子狂奔9小时逃出缅北，网友：重庆不大，创造神话",
        "docid": "7374797076879721012",
        "url": ""
    },
    {
        "title": "“一老一少”的故事，赤裸裸的现实，你看懂了吗？幽默搞笑的段子",
        "docid": "7375311454846599706",
        "url": ""
    },
    {
        "title": "讲真，南方人吃的这么少真的不饿吗？",
        "docid": "7353590659171762751",
        "url": ""
    },
    {
        "title": "原来每个省份都有自己的噩梦，吃不完，根本吃不完！",
        "docid": "7368056789402780194",
        "url": ""
    },
    {
        "title": "同学神操作让你敬佩？我躲在门房，大概5分钟，一群武警冲进银行",
        "docid": "7357254667165811241",
        "url": ""
    },
    {
        "title": "笑死了！爬泰山的人嘴有多硬？网友:夏天去爬了一次，全是小吊带",
        "docid": "7374023297526563343",
        "url": ""
    },
    {
        "title": "笑麻了！学霸和学渣在评论区对决，再一次直观感受到网友们的参差",
        "docid": "7361238796861440575",
        "url": ""
    },
    {
        "title": "网友发现怀孕了，但是在冷战中！请网友帮忙出主意，评论区笑疯了",
        "docid": "7353981185430766120",
        "url": ""
    },
    {
        "title": "山东人这么硬核 ？战胜云南稳居第一。山东网友：你们真的不吃吗？",
        "docid": "7354534470357205544",
        "url": ""
    },
    {
        "title": "一开始没懂他们为何捧着西瓜在路边吃，直到一辆车经过",
        "docid": "7372767294897783336",
        "url": ""
    },
    {
        "title": "“装B”太成功了是种什么体验？这哥们，装得老天爷都看不下去了",
        "docid": "7363204124265038347",
        "url": ""
    },
    {
        "title": "全国的老公是怎么做到统一的?忙的跟打仗一样!看评论区吐槽笑麻了",
        "docid": "7357932644568728074",
        "url": ""
    },
    {
        "title": "社牛男孩吃饭时和邻桌聊天，爸爸都快坐不住了",
        "docid": "7374364622721942056",
        "url": ""
    },
    {
        "title": "能做夫妻真的有点玄学存在！评论区整个真相现场，既离谱又真实",
        "docid": "7358033173428617763",
        "url": ""
    },
    {
        "title": "被小女孩扔出的树枝砸到，小男孩姿势都摆好了，却潇洒转身离开",
        "docid": "7345187311501443635",
        "url": ""
    },
    {
        "title": "让你笑出鼻涕泡的搞笑小皮句",
        "docid": "7375086566642860554",
        "url": ""
    },
    {
        "title": "听说过带资进组！第一次见带资投胎！网友：这是财神爷送金币来了",
        "docid": "7368305252552163880",
        "url": ""
    },
    {
        "title": "为啥说儿子和女儿是完全不同的物种，网友评论太精辟，给我笑趴了",
        "docid": "7375355360707674674",
        "url": ""
    },
    {
        "title": "妈妈偶遇儿子和女友逛街，将视频发网上被女孩妈妈看到，结局爆笑",
        "docid": "7369152779585880586",
        "url": ""
    },
    {
        "title": "女乘客将身体探出汽车天窗, 大跳热舞，结果惨了",
        "docid": "7373939664652075555",
        "url": ""
    },
    {
        "title": "你帮好朋友圆过什么谎？女生之间圆的谎太炸裂，闺蜜永远是背锅侠",
        "docid": "7375525578080666139",
        "url": ""
    },
    {
        "title": "果然真诚才是人类的必杀技！看了网友分享，在评论区笑麻了",
        "docid": "7363544973624525327",
        "url": ""
    },
    {
        "title": "那些让人笑到不行的搞笑图片，整整承包了我一个月的笑点",
        "docid": "7375804597639660068",
        "url": ""
    },
    {
        "title": "震惊了！贪图安逸的四川居然是历史上造反最多的省份",
        "docid": "7347973926787547667",
        "url": ""
    },
    {
        "title": "男子求婚时领导突然打来电话，接通后一番话女友笑喷：永生难忘了",
        "docid": "7367195078605701667",
        "url": ""
    },
    {
        "title": "盘点当代人的手机现状，评论区笑癫，网友：夕贵妃需要有一个名分",
        "docid": "7375359304028766739",
        "url": ""
    },
    {
        "title": "笑麻了，广西拜山“翻车”，我笑死在评论区",
        "docid": "7351072567900176915",
        "url": ""
    },
    {
        "title": "对自己孩子没有清晰认知的家长有多离谱？难怪这么多普信人！",
        "docid": "7365127046487491106",
        "url": ""
    },
    {
        "title": "小女孩练习空翻 狗狗强行加入 网友：干什么事情都有扯后腿的",
        "docid": "7367561665992360460",
        "url": ""
    },
    {
        "title": "搞笑GIF趣图——灯下黑干一票，正所谓富贵险中求",
        "docid": "7375087160975835699",
        "url": ""
    },
    {
        "title": "把送餐机器人惹生气，结果它头也不回的走了，打开评论区太好笑了",
        "docid": "7363521152293159458",
        "url": ""
    },
    {
        "title": "侄子带着洋媳妇回家见家长，家人热情迎接笑到合不拢嘴：太满意了",
        "docid": "7362822432509723171",
        "url": ""
    },
    {
        "title": "笑不活了，韩国妹子第一次吃西湖醋鱼，吃第一口就变脸，评论笑死",
        "docid": "7354744271141995046",
        "url": ""
    },
    {
        "title": "姐姐想跳到弟弟背上 妈妈：一时间分不清哪个比较蠢",
        "docid": "7374310495412716070",
        "url": ""
    },
    {
        "title": "“有趣又好笑的日常解压搞笑句子”",
        "docid": "7375798815808373283",
        "url": ""
    },
    {
        "title": "这种相亲方式，确实让人眼前一亮！充分说明才华比外表重要！",
        "docid": "7352804992085918223",
        "url": ""
    },
    {
        "title": "歪打正着（笑话）",
        "docid": "7350659216199303695",
        "url": ""
    },
    {
        "title": "相差6岁的亲兄弟每天干架，哥哥血脉压制，弟弟也不服输",
        "docid": "7349438203629306383",
        "url": ""
    },
    {
        "title": "笑嘛了，“爸爸晚上下班回家，发现女儿比我还累”评论区炸锅了",
        "docid": "7374825220877681193",
        "url": ""
    },
    {
        "title": "“种猪”的一生：太悲惨了！",
        "docid": "7344662862436385331",
        "url": ""
    },
    {
        "title": "笑拥了，10个韩国人却只点了两个菜，把老板整无语了，评论笑死",
        "docid": "7360078937386451465",
        "url": ""
    },
    {
        "title": "活了好几十年，头一次见到这么懒的人，这真是小刀拉屁股开了眼了",
        "docid": "7375157184537035264",
        "url": ""
    },
    {
        "title": "公司同事们的胃消化能力有多强？网友:冻了两年的饺子吃的嘎嘎香",
        "docid": "7375793809780736522",
        "url": ""
    },
    {
        "title": "上户口时写错名字能有多炸裂？网友分享让我大开眼界，笑死我了",
        "docid": "7369850045258088994",
        "url": ""
    },
    {
        "title": "\"熊猫头表情包\"公众号爆火，浪漫文艺风席卷网络",
        "docid": "7375801722406486569",
        "url": ""
    },
    {
        "title": "论小学生的作业有多离谱 网友：笑得我睡不着",
        "docid": "7375452097518535179",
        "url": ""
    },
    {
        "title": "四个姑爷拜寿（笑话）",
        "docid": "7350965212587098624",
        "url": ""
    },
    {
        "title": "大象用鼻子偷偷拿女孩手上的食物，网友：它还知道轻轻的去拿",
        "docid": "7370975313964040755",
        "url": ""
    },
    {
        "title": "妈妈给小姨500让帮带儿子，小姨转手将活外包给侄女，报酬太离谱",
        "docid": "7373146631190872587",
        "url": ""
    },
    {
        "title": "调戏（笑话）",
        "docid": "7360300403709624866",
        "url": ""
    },
    {
        "title": "哈哈一笑，44组搞笑动图，家有美厨一名，会做饭会跳舞，真是媳妇",
        "docid": "7375745110467740175",
        "url": ""
    },
    {
        "title": "宝宝再见一个月未见的爸爸，反复细看摸脸确认，认出后埋肩大哭",
        "docid": "7364983215062581771",
        "url": ""
    },
    {
        "title": "裤兜子里暖热了再给他爹吃，才一岁半就能看出孝顺",
        "docid": "7374686330783826467",
        "url": ""
    },
    {
        "title": "万荣笑话|副局长正局级",
        "docid": "7351768986775749120",
        "url": ""
    },
    {
        "title": "笑麻了，当外卖小哥遇上了当保安的发小，网友评论笑真的会传染",
        "docid": "7375412982513140263",
        "url": ""
    },
    {
        "title": "爸爸偷给女儿准备惊喜，女儿接过钥匙链吐槽小题大做，下秒傻眼了",
        "docid": "7350211887780332059",
        "url": ""
    },
    {
        "title": "女生带着男朋友一起去拍情侣写真，男生抓狂问自己这是什么装扮",
        "docid": "7359418006948184610",
        "url": ""
    },
    {
        "title": "男子在聚会上被朋友锁上U型锁 其他人纷纷笑出声 还有人拍视频",
        "docid": "7371273268931592740",
        "url": ""
    },
    {
        "title": "美国老人以一敌五成功击退劫匪",
        "docid": "7343648093990355456",
        "url": ""
    },
    {
        "title": "爆料！网友分享最爽经历，爽感爆棚！",
        "docid": "7375822255810445851",
        "url": ""
    },
    {
        "title": "小树苗起大作用！网友：下次把小树移走，让外卖小哥摇旁边的大树",
        "docid": "7369398091105075731",
        "url": ""
    },
    {
        "title": "笑麻了，已读乱回到底有什么魅力，我却笑死在网友评论区",
        "docid": "7375770616604934666",
        "url": ""
    },
    {
        "title": "敢信吗？这些妈妈们嫁给爸爸的理由，连编剧都不敢这么写！",
        "docid": "7375853793008681498",
        "url": ""
    },
    {
        "title": "女子玩漂流遇到新手船夫，全程状况百出，惊险又搞笑",
        "docid": "7346106303627919912",
        "url": ""
    },
    {
        "title": "木偶男穿越横道被撞飞，新车疑似测试失败",
        "docid": "7350564191041749513",
        "url": ""
    },
    {
        "title": "笑死，老外被中国同化是什么体验？网友：当街和老外对骂，没骂过",
        "docid": "7364287172050059812",
        "url": ""
    },
    {
        "title": "两孩子玩溜溜车下坡，大人坐在一旁，结果悲剧了",
        "docid": "7363825778594677275",
        "url": ""
    },
    {
        "title": "女生拍视频分享自己的妈妈 是怎么做到又成熟又青涩的",
        "docid": "7374666874484687398",
        "url": ""
    },
    {
        "title": "别人玩水的地方有人非要开车，结果下一秒遭了殃",
        "docid": "7359490789505761801",
        "url": ""
    },
    {
        "title": "相亲遇上的奇葩言行能有多离谱?看网友分享亚麻呆住!简直怀疑人生",
        "docid": "7375788716407456308",
        "url": ""
    },
    {
        "title": "18禁的表情包搞得人心黄黄",
        "docid": "7375875174199050771",
        "url": ""
    },
    {
        "title": "最成功的一次装B经历，我弟大吼我有辆劳斯莱斯，我腰杆瞬间直了",
        "docid": "7375827634062426678",
        "url": ""
    },
    {
        "title": "这位小伙是真出力啊，全网穿开裆裤还被夸的仔",
        "docid": "7352064871279624704",
        "url": ""
    },
    {
        "title": "这就叫做压迫感 只需要一个动作___",
        "docid": "7367248957833118234",
        "url": ""
    },
    {
        "title": "萌娃坐高铁搭讪漂亮小姐姐，一个小动作家长不淡定了：咋还上手了",
        "docid": "7345219344932176435",
        "url": ""
    },
    {
        "title": "男生伸筷狂夹女友碗里肉，女友没阻止眼神想砸桌，下秒反转笑开花",
        "docid": "7374609434934247970",
        "url": ""
    },
    {
        "title": "八辈子没联系的朋友来借钱，网友的回复，可以写成教科书了！",
        "docid": "7375861249000620570",
        "url": ""
    },
    {
        "title": "小衰吃药困难户，喝了几十桶水药也没吃下去",
        "docid": "7350278260859027979",
        "url": ""
    },
    {
        "title": "卑微爸爸撒娇让女儿抱着睡，女儿一把搂进怀里吐槽：你都多大了？",
        "docid": "7353832168449278464",
        "url": ""
    },
    {
        "title": "男子在门口晒太阳，没注意女娃拿着棍子过来，一闷棍，直接懵了",
        "docid": "7373876074280813096",
        "url": ""
    },
    {
        "title": "阿衰：小衰的灭蝉神功",
        "docid": "7375731071951897099",
        "url": ""
    },
    {
        "title": "山东小伙到重庆跟当地人坐电梯，环视一周忍不住笑出声：降维打击",
        "docid": "7361254092045287988",
        "url": ""
    },
    {
        "title": "外甥不信舅舅认识自己班主任，接过拨通的电话一听，下秒直接变怂",
        "docid": "7348266161895899659",
        "url": ""
    },
    {
        "title": "医院实习生闯过什么祸?评论区“血淋淋”的教训，全是卧龙凤雏！",
        "docid": "7362099016873640486",
        "url": ""
    },
    {
        "title": "女子选车牌号，一个号码英文和数字都太高调，网友喊话：别后悔",
        "docid": "7375375087240741403",
        "url": ""
    },
    {
        "title": "男子开车来参加聚会，表示不喝酒，结果桌上的人不满意了",
        "docid": "7370146734795653683",
        "url": ""
    },
    {
        "title": "精彩的GIF图：爸妈才是真爱，孩子只是意外",
        "docid": "7375896949758804521",
        "url": ""
    },
    {
        "title": "近期最火的10个幽默段子",
        "docid": "7375877738487398931",
        "url": ""
    },
    {
        "title": "女生手动“复制”同学指纹，竟然打开了同学的手机",
        "docid": "7360191084128895523",
        "url": ""
    },
    {
        "title": "小男孩看到舅公经过，主动喊舅公到家里坐坐，舅公车胎刹冒烟",
        "docid": "7372102680841290275",
        "url": ""
    },
    {
        "title": "丈夫每月妻子给4000生活费，妻子吐槽4000不够花，看到俩孩子悟了",
        "docid": "7373556714215473683",
        "url": ""
    },
    {
        "title": "男子夜间想邀请女子上车，随后被无声的嘲笑了",
        "docid": "7355427531803230732",
        "url": ""
    },
    {
        "title": "美女真是不按常理出牌，这样能过桥吗？网友：池塘里的爷们真绅士",
        "docid": "7375785787494924838",
        "url": ""
    },
    {
        "title": "男子想出轨却被灵魂吐槽，妻子捂嘴嘲讽就你那两下，瞬间破防了！",
        "docid": "7356047359429575219",
        "url": ""
    },
    {
        "title": "工作人员对宝宝屁股爱不释手，QQ弹弹的样子，网友：好想捏一把",
        "docid": "7349066886321013275",
        "url": ""
    },
    {
        "title": "犹豫一秒都是对大婶得不尊重，销冠深谙人性之道，大爷被拿捏",
        "docid": "7373951955489522203",
        "url": ""
    }
]