[
    {
        "title": "存款利率飙至6%，商业银行为了决战“开门红”真是下血本了",
        "docid": "7314567733725970954",
        "url": ""
    },
    {
        "title": "医生手术台拳击患者头部？爱尔眼科回应",
        "docid": "7314818662119080463",
        "url": ""
    },
    {
        "title": "千万别让亲戚知道你有存款",
        "docid": "7304660910139327012",
        "url": ""
    },
    {
        "title": "解爸说自己仅为千万身家，但网友算出，解爸很可能身家高达70亿！",
        "docid": "7311653683438191145",
        "url": ""
    },
    {
        "title": "李国庆又来蹭流量，评论区笑不活了！",
        "docid": "7314162259654263330",
        "url": ""
    },
    {
        "title": "为什么父辈收入低，却能存到钱，而我们却不行？看完我悟了！",
        "docid": "7308610178885861927",
        "url": ""
    },
    {
        "title": "奇了怪？便宜香烟越来越少？烟贩老板：不是不卖，有“几大原因”",
        "docid": "7312732812120195618",
        "url": ""
    },
    {
        "title": "专家又开始“胡说”！经济学家谈生育现状：养娃难可暂时求助亲戚",
        "docid": "7313848774172934706",
        "url": ""
    },
    {
        "title": "存下二十万后，我与存钱和解了",
        "docid": "7297426698122035751",
        "url": ""
    },
    {
        "title": "靠卤味年赚65万，很多人卖卤味也发财了 行内人：真的很赚",
        "docid": "7312395484285501963",
        "url": ""
    },
    {
        "title": "中年大叔摆摊卖袜子，利用赠品模式一个月赚3万，真牛！",
        "docid": "7288981727689605672",
        "url": ""
    },
    {
        "title": "去了一趟江苏，我发现江苏人普遍存在超乎认知的奇怪特点",
        "docid": "7314700617912615474",
        "url": ""
    },
    {
        "title": "解清帅太牛了！一出手签约两套房！17800多名好友，解爸爆猛料！",
        "docid": "7313090535428801024",
        "url": ""
    },
    {
        "title": "著名经济学家任泽平再出大招：先立后破，全力拼经济！",
        "docid": "7313828390833193510",
        "url": ""
    },
    {
        "title": "存到50万后我的消费观",
        "docid": "7308889898881253924",
        "url": ""
    },
    {
        "title": "消费者报告：2023年汽车品牌可靠度排名！丰田集团承包一二名！",
        "docid": "7313833975372464690",
        "url": ""
    },
    {
        "title": "2023年中国捐款最多的11位企业家，雷军并非第一，他们都是谁呢？",
        "docid": "7313851212607062554",
        "url": ""
    },
    {
        "title": "一盏灯10万？原来路边的基础设施这么贵！网友评论看的我瑟瑟发抖",
        "docid": "7313895806359290403",
        "url": ""
    },
    {
        "title": "官宣！第一个5万亿国家级都市圈，终于来了",
        "docid": "7314545061461541416",
        "url": ""
    },
    {
        "title": "中小银行宣布上调存款利率！2024年还在看空经济的估计又要打脸了",
        "docid": "7314124848836559370",
        "url": ""
    },
    {
        "title": "俄罗斯远东开发的困局：步子太大迈不开；但不开发又保不住",
        "docid": "7287621705588179490",
        "url": ""
    },
    {
        "title": "适合30-50岁做的三个生意，门槛比较低，每月赚3-4万很轻松！",
        "docid": "7287127149176406589",
        "url": ""
    },
    {
        "title": "重要提醒：个人所得税专项附加扣除信息确认即将截止！记得及时确认",
        "docid": "7314629155432825395",
        "url": ""
    },
    {
        "title": "“天权是敌是友”成全网疑惑？一个视频直接见分晓",
        "docid": "7313139830367240730",
        "url": ""
    },
    {
        "title": "42岁男子投保后被诊出癌症，阳光人寿拒绝赔偿：3年前你有脂肪肝",
        "docid": "7311209095007158838",
        "url": ""
    },
    {
        "title": "三年只赚6.3亿却分红8.4亿，掏空公司后欲上市圈钱！深交所:不准",
        "docid": "7314458350920483379",
        "url": ""
    },
    {
        "title": "不出意外的话！未来我国50%的人口，都将聚集到这6个城市群！",
        "docid": "7313415370277618226",
        "url": ""
    },
    {
        "title": "咸阳公租房小区内豪车林立，公职人员辩解牵强，遭质问后痛骂记者",
        "docid": "7314233975298605606",
        "url": ""
    },
    {
        "title": "我千里飞回西安卖房，差点被买房人气晕，中介还劝我别贪心",
        "docid": "7314603875821503028",
        "url": ""
    },
    {
        "title": "甘肃地震捐款：第一批捐款明星和企业又是他们！安踏捐4000万物资",
        "docid": "7314603047353877055",
        "url": ""
    },
    {
        "title": "中国股市进入牛市还要等多久？十年老股民的肺腑之言，很短很深刻",
        "docid": "7314632467313410594",
        "url": ""
    },
    {
        "title": "“真没法住了！”沪上高端河景房，24小时遭“船震”！市民求助，被多部门“退单”",
        "docid": "7314533576370897462",
        "url": ""
    },
    {
        "title": "甘肃地震捐款名单出炉，联想、华为、农夫山泉惹争议！",
        "docid": "7314855221681734183",
        "url": ""
    },
    {
        "title": "一年开2000家，茶颜悦色没赚到的钱，霸王茶姬赚了",
        "docid": "7314857164554699279",
        "url": ""
    },
    {
        "title": "看完冯唐老师，对董宇辉新签名的解释，才明白了董老师的真实想法",
        "docid": "7313753916913582646",
        "url": ""
    },
    {
        "title": "家里有多少钱才算是中产？银行职员：这几个条件，满足一个即可！",
        "docid": "7311617293476397631",
        "url": ""
    },
    {
        "title": "稻盛和夫：赚钱最快的四条路，从未改变",
        "docid": "7304932100761944616",
        "url": ""
    },
    {
        "title": "单亲妈妈的真实微信支付账单告诉你：为什么大家不敢花钱！",
        "docid": "7305564722676597300",
        "url": ""
    },
    {
        "title": "国家队出手买入ETF，释放了什么信号？",
        "docid": "7314126460040888883",
        "url": ""
    },
    {
        "title": "大量中产返贫！海银问题又会让14.6万高净值人士资产遭受大量损失",
        "docid": "7314457032932131391",
        "url": ""
    },
    {
        "title": "军转干部何处长，退休后投资虚拟货币，千万富翁之梦一夜之间破灭",
        "docid": "7314590761259926027",
        "url": ""
    },
    {
        "title": "男子每月仅用电40度，电力公司怀疑偷电，竟强拆他家电表",
        "docid": "7314220322793374246",
        "url": ""
    },
    {
        "title": "中国第二批计划单列市：襄阳接棒深圳设置计划单列市的研究与提议",
        "docid": "7314194479815295522",
        "url": ""
    },
    {
        "title": "刘纪鹏:最不公平的市场就是中国资本市场",
        "docid": "7314006620239823400",
        "url": ""
    },
    {
        "title": "中国“血钻”故事：降价、套证，戒托都比钻石值钱",
        "docid": "7314870233620365839",
        "url": ""
    },
    {
        "title": "他29岁财务自由37岁脑干出血，被妻子绑着，骑摩托车被救了回来",
        "docid": "7314608479837520403",
        "url": ""
    },
    {
        "title": "俞敏洪不愧为搞教育的，培养了很多“CEO”，可惜他们都离职了。",
        "docid": "7313349762118910483",
        "url": ""
    },
    {
        "title": "山东蓝翔已注销，董事长夫妇互相送对方进监狱，一家8口宛如仇人",
        "docid": "7313863882790257215",
        "url": ""
    },
    {
        "title": "突遭冻结！涉知名艺人",
        "docid": "7313866727232864806",
        "url": ""
    },
    {
        "title": "亚洲赌王一夜狂赚600万，出老千被剁双腿，多年后在出租屋中去世",
        "docid": "7282015191619928637",
        "url": ""
    },
    {
        "title": "定期存款到期后，要不要把钱取出来？银行经理提醒大家：别做错了",
        "docid": "7296743454867030537",
        "url": ""
    },
    {
        "title": "万达惊险上岸！但是像孙宏斌一样，王建林这一次付出了惨烈的代价",
        "docid": "7314550554007749159",
        "url": ""
    },
    {
        "title": "“我一直觉得电视安全可靠，里面怎么会有色情赌博内容？”",
        "docid": "7313954127678358066",
        "url": ""
    },
    {
        "title": "干货｜辞职后别断缴社保，自己1分钟搞定缴费 ​​​",
        "docid": "7291127280347284024",
        "url": ""
    },
    {
        "title": "相亲市场新现象：父母有无退休金决定子女相亲成败，独生子受欢迎",
        "docid": "7296700271848260111",
        "url": ""
    },
    {
        "title": "要求员工“自愿”加班、假扮猎头“钓鱼执法”……企业“忠诚度测试”花样多引关注",
        "docid": "7314816806764970511",
        "url": ""
    },
    {
        "title": "你不知道的事情，东方小孙有多厉害",
        "docid": "7314017634503230006",
        "url": ""
    },
    {
        "title": "农夫山泉向灾区捐24000瓶水，被网友群嘲，这并非道德绑架",
        "docid": "7314848446753030668",
        "url": ""
    },
    {
        "title": "“存款100万意味着什么？”看完这些网友的真实回答，扎心又现实",
        "docid": "7302692970396975616",
        "url": ""
    },
    {
        "title": "“我们不稀罕你的238亿遗产”！邵逸夫离世，4个子女不继承不送终",
        "docid": "7300107319571005978",
        "url": ""
    },
    {
        "title": "头顶一块布，即将进场大A，网友戏称：来时顶块布，离时剩块布",
        "docid": "7314673733841617434",
        "url": ""
    },
    {
        "title": "果真贫穷限制了我的想象！来北京逛一圈才知道什么叫人上人的生活",
        "docid": "7311990329895338530",
        "url": ""
    },
    {
        "title": "看完董宇辉的文案，我明白了俞敏洪为什么让他去做文旅副总",
        "docid": "7314602409056174632",
        "url": ""
    },
    {
        "title": "上海一身价35亿总裁假扮农民工，到工地上班第一天，差点就被开除",
        "docid": "7314204704991707663",
        "url": ""
    },
    {
        "title": "终于有人把“医保”说清楚了，你的380交了吗？",
        "docid": "7297870280394850843",
        "url": ""
    },
    {
        "title": "当地震发生后:如果房子倒了，国家会赔偿吗?",
        "docid": "7314646828891734528",
        "url": ""
    },
    {
        "title": "49岁王艳复出拍戏带货，富豪老公欠下巨债，近50重出江湖！",
        "docid": "7314222268027093523",
        "url": ""
    },
    {
        "title": "你们听过领导最没水平的一句话是什么？",
        "docid": "7311122919911096859",
        "url": ""
    },
    {
        "title": "14年，王健林遇上“狮子大开口”的80后县长，后来仕途怎么样？",
        "docid": "7314636554860102195",
        "url": ""
    },
    {
        "title": "比亚迪完全可以吃掉“理想L8L9”的市场，为什么不推出类似车型？",
        "docid": "7314351546815332875",
        "url": ""
    },
    {
        "title": "万万没想到！董宇辉和他的几千万支持者，全都输了",
        "docid": "7314855161325814323",
        "url": ""
    },
    {
        "title": "“我被毁了，以泪洗面！” 杭州一女主播提出索赔",
        "docid": "7313006694848856586",
        "url": ""
    },
    {
        "title": "从湖南电视台离职，她花光积蓄买100㎡房子独居：无社交、很快乐",
        "docid": "7289253733756879414",
        "url": ""
    },
    {
        "title": "2015年，河南女孩发朋友圈借钱，300个陌生人转账，5小时到账30万",
        "docid": "7314545780680180265",
        "url": ""
    },
    {
        "title": "向佑：大闹太子酒店，高喊“我爸是向华强”，他究竟为何不受待见",
        "docid": "7314177850389873188",
        "url": ""
    },
    {
        "title": "内蒙古一货车司机在雪天里淋成雪人，冻得发抖崩溃大哭，画面破防",
        "docid": "7313062179920691712",
        "url": ""
    },
    {
        "title": "事关工资！重要提醒：即将截止！",
        "docid": "7314852615207289359",
        "url": ""
    },
    {
        "title": "6天涨粉百万，日带货超1000万，东方甄选“内讧”捧红了这家公司",
        "docid": "7314572554432283190",
        "url": ""
    },
    {
        "title": "一场天灾，暴露了企业家张兰的“格局”，她让所有人刮目相看",
        "docid": "7314666410708615714",
        "url": ""
    },
    {
        "title": "移居乌鲁木齐的人越来越多，6个现实的原因，很现实的选择",
        "docid": "7312488250646626855",
        "url": ""
    },
    {
        "title": "“网约房”乱象频频 不能成为“治安洼地”",
        "docid": "7310190126775468554",
        "url": ""
    },
    {
        "title": "没生意还全国乱窜，遭大众抵制的“天价切糕”，究竟有啥猫腻？",
        "docid": "7314561197670498831",
        "url": ""
    },
    {
        "title": "\"以卡养卡\"的时代要结束了？套现已被明令禁止！多家银行出手整治",
        "docid": "7314135560908816931",
        "url": ""
    },
    {
        "title": "王小卤创始人王雄，靠卖凤爪年入10亿，7年将品牌做到行业龙头！",
        "docid": "7281921011355222563",
        "url": ""
    },
    {
        "title": "把“带动后富”的重任交给“先富”们，靠谱吗？依据是什么？",
        "docid": "7290893946094518819",
        "url": ""
    },
    {
        "title": "这笔钱，抓紧退！即将截止",
        "docid": "7314665501681402387",
        "url": ""
    },
    {
        "title": "朋友着急卖房子，听了我的建议，一周就卖出去了，还多卖了20万",
        "docid": "7312442339044360715",
        "url": ""
    },
    {
        "title": "联通、移动、电信三大运营商真让人大开眼界，评论区都是泪啊！",
        "docid": "7303936996458840610",
        "url": ""
    },
    {
        "title": "袖珍总裁李创利：身高80厘米坐婴儿车赚上亿身家，连娶两任美娇娘",
        "docid": "7311132056653447720",
        "url": ""
    },
    {
        "title": "吴晓求：IPO不妨停一停，让市场喘口气，查一查有没有欺诈上市的企业",
        "docid": "7314598055641137700",
        "url": ""
    },
    {
        "title": "独家：投资256亿！拆迁面积9930亩！长江新区最大规模拆迁来了！",
        "docid": "7314239484777366043",
        "url": ""
    },
    {
        "title": "我，01年在上海经营蔬菜生意，以90万买下旧楼，如今价值2000多万",
        "docid": "7287770974404706877",
        "url": ""
    },
    {
        "title": "原始资本成功套现离场后的内部新老之争——东方甄选洗牌之战",
        "docid": "7312457252705698358",
        "url": ""
    },
    {
        "title": "马斯克名下有多少家公司，你都不敢想？",
        "docid": "7303184766671864360",
        "url": ""
    },
    {
        "title": "从政府内部看中国，才能真正读懂中国",
        "docid": "7308342813907943999",
        "url": ""
    },
    {
        "title": "张磊的智慧：我阅人无数，经常做这3件事的人，大多都成功了",
        "docid": "7289664414490313256",
        "url": ""
    },
    {
        "title": "上海隐形富豪，坐拥380亿布局15家上市公司，却在街头站着吃盒饭",
        "docid": "7283420897824883237",
        "url": ""
    },
    {
        "title": "中国急需攻克5项顶尖技术，一旦突破，将不惧任何国家垄断！",
        "docid": "7314123520093520435",
        "url": ""
    },
    {
        "title": "浙江的人好，浙江的官好。",
        "docid": "7294222362419970595",
        "url": ""
    },
    {
        "title": "管清友：A股维持3000点相当牛了，上市公司太多了",
        "docid": "7313766652007465513",
        "url": ""
    },
    {
        "title": "专家们不要再数落许家印了",
        "docid": "7286856681424994851",
        "url": ""
    },
    {
        "title": "1991中国十强县，今夕何在？",
        "docid": "7299268754469601826",
        "url": ""
    },
    {
        "title": "在你身边哪些“闷声发大财的人”都是从事哪些行业的",
        "docid": "7314798187003560487",
        "url": ""
    },
    {
        "title": "管理者要避免四个误区，如何看出一个人有没有管理能力",
        "docid": "7307437098989650447",
        "url": ""
    },
    {
        "title": "云南白药：因处置小米集团股票等，公司三季度末交易性金融资产余额较年初下降88.13%",
        "docid": "7313496552457519643",
        "url": ""
    },
    {
        "title": "气的我肝疼！明明一年能挣几十万，但这2个生意还会被人瞧不上！",
        "docid": "7297139276024660543",
        "url": ""
    },
    {
        "title": "合肥富豪唐彬森：26亿卖掉游戏公司，转行做饮料，40岁身家350亿",
        "docid": "7292700947921388070",
        "url": ""
    },
    {
        "title": "楼市这步大棋，很多人没看懂？内行：建议普通人要提前做两个准备",
        "docid": "7314113548509184531",
        "url": ""
    },
    {
        "title": "2023年底，我终于卖掉了丁字沽的老楼，从此人生没有了来路",
        "docid": "7311600982633349632",
        "url": ""
    },
    {
        "title": "冯仑的财富经：穷人在埋头努力中变穷，富人靠“3个不要”变富",
        "docid": "7284167737562268212",
        "url": ""
    },
    {
        "title": "热搜第一！偷税漏税1000万，彻底凉凉？",
        "docid": "7313388464039526922",
        "url": ""
    },
    {
        "title": "近几年，老百姓的怨气越来越大了，为什么？",
        "docid": "7300758429730161164",
        "url": ""
    },
    {
        "title": "现在年轻人的消费观：省吃俭用的花了一大笔钱。",
        "docid": "7302693107135644199",
        "url": ""
    },
    {
        "title": "全国31省平均工资出炉！你拖后腿了吗？快来围观～",
        "docid": "7314522310399279650",
        "url": ""
    },
    {
        "title": "深圳“包租婆”：坐拥1200套房，每月收租160万，发家史令人敬佩",
        "docid": "7296664933209833993",
        "url": ""
    },
    {
        "title": "洗碗工出身的她，如今身家百亿，亲家资产千亿，儿媳貌美不输景甜",
        "docid": "7306579403121623571",
        "url": ""
    },
    {
        "title": "博主炒股亏了被老婆喊话去打工",
        "docid": "7314640343524508199",
        "url": ""
    },
    {
        "title": "今明两年如果不买房，三年后究竟是“买不起”，还是“随便买”?",
        "docid": "7313027722421617171",
        "url": ""
    },
    {
        "title": "楼市风险，要解除了",
        "docid": "7314599050765173274",
        "url": ""
    },
    {
        "title": "除了“四大行”外，还有两家银行，存钱也很安全，永远不会倒闭！",
        "docid": "7283645136251290175",
        "url": ""
    },
    {
        "title": "A股，最后的大招",
        "docid": "7314608094271603240",
        "url": ""
    },
    {
        "title": "“啥？钱被牦牛吃了？”银行人震惊！",
        "docid": "7314659441738056226",
        "url": ""
    },
    {
        "title": "当之无愧的电车之王，特斯拉！",
        "docid": "7312280079239873058",
        "url": ""
    },
    {
        "title": "乘客打车后误机,向网约车司机及平台索赔,司机懵了：你咋不去找机场麻烦，说飞机没等你？且看法院如何宣判!",
        "docid": "7288585083206795776",
        "url": ""
    },
    {
        "title": "一年能挣20万左右的加工生意，一家人干正合适，投资小、销路好！",
        "docid": "7286465262923121215",
        "url": ""
    },
    {
        "title": "字节跳动2023年销售额达到1100亿美元，超过腾讯",
        "docid": "7314614835663405619",
        "url": ""
    },
    {
        "title": "三大指数全线翻红，上涨个股近1100只",
        "docid": "7314859510437397042",
        "url": ""
    },
    {
        "title": "徕芬狂飙，中国倒闭了两百个吹风机品牌｜营销观察",
        "docid": "7314860248387355174",
        "url": ""
    },
    {
        "title": "126个副业赚钱平台全公开！",
        "docid": "7291227691159208509",
        "url": ""
    },
    {
        "title": "一个好信号，历史会重演！A股，周四行情预判",
        "docid": "7314699646352441871",
        "url": ""
    },
    {
        "title": "三大指数触底反弹，光伏板块王者归来！",
        "docid": "7314948161347322394",
        "url": ""
    },
    {
        "title": "在农业银行投资十年后，赚到了五十年的“高工资”！",
        "docid": "7313871174227247651",
        "url": ""
    },
    {
        "title": "目前甘肃捐款近5亿元，来看看，受灾群众每人能拿到多少钱?",
        "docid": "7314929430793749044",
        "url": ""
    },
    {
        "title": "12.19炒股养家:字少，事大！！",
        "docid": "7314086465800290853",
        "url": ""
    },
    {
        "title": "隆基绿能涨近5%，成交额超34亿元",
        "docid": "7314874770989204031",
        "url": ""
    },
    {
        "title": "公交车没人坐了，公交公司开始“花式整活”：当婚车、开顺风车，还送快递……",
        "docid": "7314507656046477824",
        "url": ""
    },
    {
        "title": "为什么很多人买了电车会后悔",
        "docid": "7287148375513055796",
        "url": ""
    },
    {
        "title": "降息当日大肆抓人 脚盆鸡颜面扫地 何时酝酿第二次“珍珠港袭击”？",
        "docid": "7314896258257486388",
        "url": ""
    },
    {
        "title": "在美国生活一段时间，不得不承认，跟我们之间的差距确实不小",
        "docid": "7306067436074582568",
        "url": ""
    },
    {
        "title": "2024年必然是股市熊牛转换的见底之年！",
        "docid": "7314202315257676303",
        "url": ""
    },
    {
        "title": "全家一米八也能轻松出行！轴距2.93米，不愧是舒享大平层！",
        "docid": "7281905200703816255",
        "url": ""
    },
    {
        "title": "花7000元解决了四五十万元的事，这样的物业给我来一打！",
        "docid": "7314491125371290149",
        "url": ""
    },
    {
        "title": "华为“天才少年”再获超6亿元投资",
        "docid": "7314444268226216463",
        "url": ""
    },
    {
        "title": "胡锡进：我的基金全赔了 基金经理的收入应该和我一起往下降",
        "docid": "7314891315027083785",
        "url": ""
    },
    {
        "title": "A股：稳准狠，国家队终究出手了，这下有底了！12月22日大盘预判",
        "docid": "7314939432078606888",
        "url": ""
    },
    {
        "title": "我不允许还有人搞不懂医保报销",
        "docid": "7314254755797303858",
        "url": ""
    },
    {
        "title": "网易市值超美团，今年前三季度利润超220亿，丁磊身家涨至2500亿",
        "docid": "7313489391149072932",
        "url": ""
    },
    {
        "title": "不出意外，散户做好准备，A股，明日（12月22日）的行情很关键了",
        "docid": "7314935923408732712",
        "url": ""
    },
    {
        "title": "金价经常跳水，买黄金还能保值增值吗？评论区点醒上万读者",
        "docid": "7296160567025304079",
        "url": ""
    },
    {
        "title": "湖北潜江首富发家秘史，32年前下海赊账做生意，如今身价90亿",
        "docid": "7291134828353962554",
        "url": ""
    },
    {
        "title": "不卖隔夜肉、不售隔夜瓜，全是童年的味道，三句话三个智商税",
        "docid": "7311313885561405967",
        "url": ""
    },
    {
        "title": "2019年海南最贪心钉子户，拒政府1.2亿的天价赔偿，张口要2.6亿",
        "docid": "7290522218235953719",
        "url": ""
    },
    {
        "title": "比保时捷的轮胎还贵，新能源车轮胎，开始割韭菜？",
        "docid": "7314602253405946387",
        "url": ""
    },
    {
        "title": "今日，香港创业板指数再次刷新低点，下跌33.13点...",
        "docid": "7314887712891257378",
        "url": ""
    },
    {
        "title": "李笑来拥有10万枚比特币，套现135亿后，为何却称比特币是骗局？",
        "docid": "7314936669650666038",
        "url": ""
    },
    {
        "title": "人才，只会流向被尊重的地方",
        "docid": "7304982232404902451",
        "url": ""
    },
    {
        "title": "中国在发电基地放了几只羊，世界性的难题，就这样被羊解决了",
        "docid": "7296476939567530548",
        "url": ""
    },
    {
        "title": "全球股市普涨，唯我A股独跌！股民的心都碎了！",
        "docid": "7314194461373121024",
        "url": ""
    },
    {
        "title": "唯一存活1441年的公司：从隋朝到21世纪，只做一活，依旧强大",
        "docid": "7311149834382148106",
        "url": ""
    },
    {
        "title": "印钞机锚定物切换，决定了A股这轮大牛市",
        "docid": "7314852773269783081",
        "url": ""
    },
    {
        "title": "又一知名火锅品牌关店收缩，目前仅剩2家店",
        "docid": "7312636408156635700",
        "url": ""
    },
    {
        "title": "2024年，要做好“潮水退去”后的准备？房地产或将出现一个大趋势",
        "docid": "7312340444573172263",
        "url": ""
    },
    {
        "title": "绍兴女子13万“捡漏”大排屋，出完价后她整个人不好了",
        "docid": "7313861829082857999",
        "url": ""
    },
    {
        "title": "孟买有多厉害，让印度把上海称为“小孟买”，30个情况讲清楚",
        "docid": "7307105438569497142",
        "url": ""
    },
    {
        "title": "中国未来最吃香的3座城市，前景可观，紧追北上广深！",
        "docid": "7308541939450774050",
        "url": ""
    },
    {
        "title": "看完评论终于知道为什么没人黑国家电网了！",
        "docid": "7300425631517737512",
        "url": ""
    },
    {
        "title": "胡闹！上亿粉丝干这种哄骗粉丝，卖假货的事情！央媒都坐不住了！",
        "docid": "7313889397731295778",
        "url": ""
    },
    {
        "title": "吴晓求：很多人都是在赌上市，赌对了就减持成了百亿富翁",
        "docid": "7314668380055847433",
        "url": ""
    },
    {
        "title": "惨了！1300万元买房，孩子的入学资格竟然“已占用”！上海娃爸，欲哭无泪→",
        "docid": "7313885244967780927",
        "url": ""
    },
    {
        "title": "当你存到第一个100万的时候才明白的事",
        "docid": "7314562206648271396",
        "url": ""
    },
    {
        "title": "美元收割为什么在我们这里行不通了，因为是我们玩儿剩下的！",
        "docid": "7314648453173232162",
        "url": ""
    },
    {
        "title": "一天吃透一条产业链：No.9 预制菜",
        "docid": "7311964609404011059",
        "url": ""
    },
    {
        "title": "废掉一个公司最快的方式：组织内耗",
        "docid": "7300774966172074523",
        "url": ""
    },
    {
        "title": "中国最令人遗憾的城市之一：大庆",
        "docid": "7314186789798150690",
        "url": ""
    },
    {
        "title": "A股：绝地反击，主力大幅抄底！接下来，打算这样干",
        "docid": "7314900244456702505",
        "url": ""
    },
    {
        "title": "十大工业强省最新出炉：福建第5，河北远超湖北，湖南无缘",
        "docid": "7304879220768457266",
        "url": ""
    },
    {
        "title": "A股：再次预判全对，再这样下去，明天周五必将迎来历史性的变盘",
        "docid": "7314954045066953266",
        "url": ""
    },
    {
        "title": "骆玉珠原型浙江女首富到老赖！800亿资产一夜归零，钱花哪了？",
        "docid": "7312658624340574756",
        "url": ""
    },
    {
        "title": "陈进：骗国家11亿经费，让中国芯片停滞13年，出逃美国仍逍遥法外",
        "docid": "7314188488159756840",
        "url": ""
    },
    {
        "title": "中国十大强省开始稳定！浙江依旧第四，湖北领先福建",
        "docid": "7296330510194983435",
        "url": ""
    },
    {
        "title": "东北一夫妻，仅靠卖大米年入45亿，如今公司上市，身价高达百亿！",
        "docid": "7296330529199718912",
        "url": ""
    },
    {
        "title": "99岁富豪的提醒：变富的关键并非埋头努力，而要靠3个认知",
        "docid": "7286743623796965903",
        "url": ""
    },
    {
        "title": "世界十大城市都有哪些城市呢？",
        "docid": "7314129611021124133",
        "url": ""
    },
    {
        "title": "香港传奇风水师：在中国最信风水的城市，靠风水赚了32亿",
        "docid": "7300605107757105691",
        "url": ""
    },
    {
        "title": "一个家庭富不起来的真相，不是缺钱，而是缺以下三种“远见”",
        "docid": "7210999889226891837",
        "url": ""
    },
    {
        "title": "才知道，为什么雅迪、爱玛宁愿用72V38AH石墨烯电池，不用锂电池",
        "docid": "7310757014828089890",
        "url": ""
    },
    {
        "title": "垄断全国石油的文莱国王，身价2500亿，豪车7000辆，深受国民爱戴",
        "docid": "7314220152281760291",
        "url": ""
    },
    {
        "title": "好物分享｜“以后中国人不得参与竞拍！”股神巴菲特与中国富豪孙宇晨共进午餐后，气愤地说出了这句话",
        "docid": "7314632089801310760",
        "url": ""
    },
    {
        "title": "亿万“富婆”李宝华：打60万美容针，燕窝当水喝，后来怎么样了？",
        "docid": "7312684109338804771",
        "url": ""
    },
    {
        "title": "买了会员还有“儿童不宜”广告，用户吐槽！平台回应",
        "docid": "7314819969961820722",
        "url": ""
    },
    {
        "title": "心酸的事实，广州很多中产连牛肉自由都达不到",
        "docid": "7313388925727605275",
        "url": ""
    },
    {
        "title": "刚刚！1800亿巨头被贱卖：仅售36亿",
        "docid": "7314515993433424384",
        "url": ""
    },
    {
        "title": "最牛上市公司创业团体，华为艾默生系，有潜力在工业领域PK西门子",
        "docid": "7301081883411169818",
        "url": ""
    },
    {
        "title": "深圳神秘富豪，资产超100亿，为儿子举办结婚就花费12亿！",
        "docid": "7314564708768580148",
        "url": ""
    },
    {
        "title": "九州通创始人退出管理后 为何不让儿子刘登攀接任而引入刘长云？",
        "docid": "7312637884253667850",
        "url": ""
    },
    {
        "title": "今年媒体圈的生意太惨了，快揭不开锅了",
        "docid": "7312969922060026409",
        "url": ""
    },
    {
        "title": "99岁富豪：当我被穷和自卑折磨时，是3个认知，让我“重生”",
        "docid": "7312401270609117733",
        "url": ""
    },
    {
        "title": "中日韩汽车出口大涨，中国和韩国更是创出历史新高，发生了什么？",
        "docid": "7313572814865531443",
        "url": ""
    },
    {
        "title": "老龄化的日本出现住房新趋势：跨代共居",
        "docid": "7286631433144271417",
        "url": ""
    },
    {
        "title": "盒马会员费涨价对标山姆？花多少钱才能买“不亏本儿”",
        "docid": "7314980951275553307",
        "url": ""
    },
    {
        "title": "几个亿卖掉几百台出租车，然后到上海买下一栋大楼后，赚到近百亿",
        "docid": "7305382405916590603",
        "url": ""
    },
    {
        "title": "人老了要有多少存款才够呢，如果以下几点都做到了，那三五万就行",
        "docid": "7299102363690730011",
        "url": ""
    },
    {
        "title": "餐饮越艰难，“收尸人”越富！揭秘二手设备回收生意的赚钱逻辑",
        "docid": "7306693663156060723",
        "url": ""
    },
    {
        "title": "长三角首家“万亿企业”诞生：甩开阿里、上汽，年入10877亿元",
        "docid": "7313423213072466486",
        "url": ""
    },
    {
        "title": "关于辞职、自动离职、辞退、除名工龄计算答案的依据都在这里",
        "docid": "7282678662166610432",
        "url": ""
    },
    {
        "title": "“万能润滑油”WD-40，演绎消费市场大单品的辉煌与困境",
        "docid": "7314965276636971554",
        "url": ""
    },
    {
        "title": "一天吃透一条产业链： 黄金",
        "docid": "7314248495081341492",
        "url": ""
    },
    {
        "title": "后悔贷款30年买房了，每月省吃俭用还房贷，如今娶妻也是颇感艰难",
        "docid": "7314842879661326885",
        "url": ""
    },
    {
        "title": "浙江皮革大亨王敏，身价高达22亿，但却被家人用计谋送进精神病院",
        "docid": "7294433981582623241",
        "url": ""
    },
    {
        "title": "董宇辉：个人工作室由东方甄选100%控股",
        "docid": "7315037824238469643",
        "url": ""
    },
    {
        "title": "我，广西桂林某乡镇教师告诉你收入有多少",
        "docid": "7286270587276984832",
        "url": ""
    },
    {
        "title": "靠一个洋老头收割全国人民12年，居然上市成功，开始收割股民了！",
        "docid": "7314561471311004172",
        "url": ""
    },
    {
        "title": "曾有创业经历的人，深谙以下经验： 1. 早餐和夜宵...",
        "docid": "7314893595671183926",
        "url": ""
    },
    {
        "title": "2024年A股2800点见",
        "docid": "7313373527011246631",
        "url": ""
    },
    {
        "title": "中国最令人失望的城市之一：七台河市",
        "docid": "7314186765005537832",
        "url": ""
    },
    {
        "title": "股票、地产和加密货币无一幸免！大空头：明年所有泡沫都将破裂",
        "docid": "7314861791798886950",
        "url": ""
    },
    {
        "title": "民生银行的近况",
        "docid": "7289060558991589942",
        "url": ""
    },
    {
        "title": "马云最新！“一米八”公司来了：蚂蚁集团前CEO任董事长",
        "docid": "7314172316584542735",
        "url": ""
    },
    {
        "title": "今天终于明白，养老金个人账户139个月是什么意思了？",
        "docid": "7312325576189280808",
        "url": ""
    },
    {
        "title": "浙江丽水人，做肥皂与外资斗30年，现年入300亿，女儿成隐形富豪",
        "docid": "7284910480014049827",
        "url": ""
    },
    {
        "title": "恒大汽车飙涨31%",
        "docid": "7314947401561932340",
        "url": ""
    },
    {
        "title": "中央经济工作会议重磅定调！美股新高，A股重回3000点今天怎么走",
        "docid": "7314883413746418230",
        "url": ""
    },
    {
        "title": "我，28辞职创业赚取人生第一桶金1000万，如今开了家不卖书的书店",
        "docid": "7311098643589825075",
        "url": ""
    },
    {
        "title": "大A分水岭",
        "docid": "7314831130752991794",
        "url": ""
    },
    {
        "title": "天津一女子开店倒闭后，看着自家的条件感慨：如果时间能重来就好",
        "docid": "7314288545043300864",
        "url": ""
    },
    {
        "title": "新消息！卢旺达烂牌打成王炸，曾经的欧美弃子走上巅峰",
        "docid": "7314917494727361063",
        "url": ""
    },
    {
        "title": "2023民营企业500强：魏桥第七，美的第15，通威第28，伊利第73",
        "docid": "7287934968595972645",
        "url": ""
    },
    {
        "title": "当年开拖拉机的少女陈爱莲：如今千亿身家，曾买100辆宝马送员工",
        "docid": "7314228863691801098",
        "url": ""
    },
    {
        "title": "每天了解一家新公司，No.100:锦江酒店",
        "docid": "7282309005102891539",
        "url": ""
    },
    {
        "title": "市场波动背后的智慧：投资者关切的10大问题深度解析",
        "docid": "7315021687971136000",
        "url": ""
    },
    {
        "title": "给儿子买了套房，欠下400万债务，回头发现女儿偷偷帮还了100万",
        "docid": "7298683037798971528",
        "url": ""
    },
    {
        "title": "叶檀：战胜癌症因科学的治疗，也得益于顽强的意志和从容的心态",
        "docid": "7314540428286624293",
        "url": ""
    },
    {
        "title": "丰田汉兰达2024版：动感升级、科技领先，消费者关切问题一一解析",
        "docid": "7314748999171490343",
        "url": ""
    },
    {
        "title": "明天A股怎么走？我做了一个大胆的预判。具体请看我的手绘预测图",
        "docid": "7315000865121829403",
        "url": ""
    },
    {
        "title": "10年一遇！很像2013年~2014年牛市前夕！散户做好心理预期了",
        "docid": "7314878277775098387",
        "url": ""
    },
    {
        "title": "医保二次报销是什么意思？",
        "docid": "7293132124499378699",
        "url": ""
    },
    {
        "title": "曾经的首富陈天桥：全家移居新加坡，请现役乒乓球国手陪自己打球",
        "docid": "7303899801371312675",
        "url": ""
    },
    {
        "title": "唱衰房地产的人，快醒醒吧，房地产不会大幅度下跌，更没有泡沫！",
        "docid": "7301994095554085386",
        "url": ""
    },
    {
        "title": "不出意外，系好安全带，A股，下周的行情很关键了！",
        "docid": "7314550929922507275",
        "url": ""
    },
    {
        "title": "办低保需要什么条件？每月能领多少钱？这份政策解读请查收",
        "docid": "7294573610332209673",
        "url": ""
    },
    {
        "title": "一个优秀的管理者，必须经历5次蜕变",
        "docid": "7304982622537564723",
        "url": ""
    },
    {
        "title": "A股12月21日午评：2882点再破纪录！快快快，抄底时刻已到！",
        "docid": "7314882887080411683",
        "url": ""
    },
    {
        "title": "一个人觉醒的最好方式：赚钱",
        "docid": "7313547059095781914",
        "url": ""
    },
    {
        "title": "美国停止加息对我国房地产有什么影响",
        "docid": "7307091735639867923",
        "url": ""
    },
    {
        "title": "2024年经济，房车族别傻了：3大信息错过就是送钱！",
        "docid": "7314601484811764263",
        "url": ""
    },
    {
        "title": "河南将打造第二个“郑州”，晋升省域副中心，目标3年GDP破6000亿",
        "docid": "7312642691324854819",
        "url": ""
    },
    {
        "title": "这家锂电企业：放假！每月2320元",
        "docid": "7314561919053103643",
        "url": ""
    },
    {
        "title": "浙江绍兴第一大企业：年收入超过2000亿元，比2-5名总和还要多",
        "docid": "7312784883876512282",
        "url": ""
    },
    {
        "title": "名创优品集团董事会主席兼首席执行官叶国富荣膺界面新闻2023年度超级CEO",
        "docid": "7314522507372364303",
        "url": ""
    },
    {
        "title": "两年一度的行业盛典 : 建设工程最高荣誉的鲁班奖隆重揭晓！",
        "docid": "7312628762918257202",
        "url": ""
    },
    {
        "title": "房产中介，还赚得到钱吗？",
        "docid": "7314505029656789555",
        "url": ""
    },
    {
        "title": "投资不到10万的暴利生意，加工一吨能挣400多，2个人一天能干4吨",
        "docid": "7311867758944420403",
        "url": ""
    },
    {
        "title": "四川长虹VS常山北明~别被忽悠了，看完数据就心里有数了！",
        "docid": "7291271943134020155",
        "url": ""
    },
    {
        "title": "汪小菲遗忘式炒股：2009年的股票放到了2020年拿出来开了麻六记",
        "docid": "7314925089773158927",
        "url": ""
    },
    {
        "title": "工银印度市场基金将暂停申购，申购限额已降至100元/日，基民：猝不及防！",
        "docid": "7314994845611967015",
        "url": ""
    },
    {
        "title": "东京圈新房均价约人民币412万/套，创单月新高",
        "docid": "7314902972599796276",
        "url": ""
    },
    {
        "title": "广东未来发展猜想：打造第二个“深圳”，双核心城市，佛山落选",
        "docid": "7281961202144854584",
        "url": ""
    },
    {
        "title": "天津：对不起，成都武汉广州杭州重庆深圳，京津沪仍是同一梯队",
        "docid": "7295978974134403636",
        "url": ""
    },
    {
        "title": "佛山首富之子的“另类”人生：放弃接班家族企业，出走成金融大亨",
        "docid": "7315006381386760731",
        "url": ""
    },
    {
        "title": "内蒙古一百姓氏排行榜",
        "docid": "7301276149425078847",
        "url": ""
    },
    {
        "title": "未来5年，这四类资产越来越贵，普通老百姓逆袭机会！要把握住！",
        "docid": "7299757684067189302",
        "url": ""
    },
    {
        "title": "武汉一楼盘大幅降价引前期业主不满。每平米突降超4000元！",
        "docid": "7309860718168769063",
        "url": ""
    },
    {
        "title": "“一统四界”，华为鸿蒙智行78城招商，或全盘掌控汽车销售前后端",
        "docid": "7315038774462333451",
        "url": ""
    },
    {
        "title": "大盘回踩颈线后，将迎来更猛烈的下跌",
        "docid": "7314943090815746611",
        "url": ""
    }
]