[
    {
        "title": "“成人用品”销量大涨，女性成为消费“主力军”？背后原因很现实",
        "docid": "7292226848115851813",
        "url": ""
    },
    {
        "title": "立讯精密终止定增持续发酵，立讯精密称，公司拟向不超过35名特定对象发行不超过21.23亿股，募资不超135亿",
        "docid": "7310866280775795235",
        "url": ""
    },
    {
        "title": "专家直言女性面临的长寿风险比男性高火了，大家却要笑死在评论区",
        "docid": "7310854589731865138",
        "url": ""
    },
    {
        "title": "好日子要来了？高人预测：还有两个月，社会上或将出现这4个变化",
        "docid": "7309680824406884914",
        "url": ""
    },
    {
        "title": "我国区划奇观：县级市管理市辖区，全国仅此一例",
        "docid": "7278264405161329189",
        "url": ""
    },
    {
        "title": "广州房价七连跌，广州楼市以价换量，广州炒房客想开了",
        "docid": "7310528627064832538",
        "url": ""
    },
    {
        "title": "重卡企业中到底谁在闷声发大财？",
        "docid": "7310141727032410674",
        "url": ""
    },
    {
        "title": "购买大连这些小区的人要哭了！大连12月跌幅最大的30个小区！",
        "docid": "7310515169342636594",
        "url": ""
    },
    {
        "title": "我认为未来重庆房价铁定上涨！",
        "docid": "7310057481856991782",
        "url": ""
    },
    {
        "title": "税控设备退出历史舞台，税控盘一定要注销吗？",
        "docid": "7297107287817175561",
        "url": ""
    },
    {
        "title": "2.24亿罚单翻出贪腐旧案，中信银行历史包袱逐渐出清",
        "docid": "7310577139198640640",
        "url": ""
    },
    {
        "title": "黑龙江小县城现状。 真的是这样吗？",
        "docid": "7310779680779813430",
        "url": ""
    },
    {
        "title": "你的同龄人有多少？对照一下！你是几年后？",
        "docid": "7310509436664496694",
        "url": ""
    },
    {
        "title": "风向变了，越来越多的人活明白过来，国外就是我们的一面镜子",
        "docid": "7308587333472502298",
        "url": ""
    },
    {
        "title": "周末大消息，下周股市要新低？",
        "docid": "7310961403278393892",
        "url": ""
    },
    {
        "title": "成都楼市：没有人口的新城，修的再漂亮，也不过是郊区！",
        "docid": "7303903082545709603",
        "url": ""
    },
    {
        "title": "芳村金融茶市崩盘：实名登记维护投资者权益",
        "docid": "7310912734999904804",
        "url": ""
    },
    {
        "title": "周末投资舆情热点",
        "docid": "7310906397368533555",
        "url": ""
    },
    {
        "title": "警惕！大量孩子上瘾，家长蒙受巨大损失",
        "docid": "7310928080619930153",
        "url": ""
    },
    {
        "title": "最有价值的：全球第一，科技龙头，汽车细分，华为全产业，央企",
        "docid": "7309807884421038626",
        "url": ""
    },
    {
        "title": "龙头系列之一，中国神华——闭眼最低都能赚30%的股票？",
        "docid": "7309270675275973160",
        "url": ""
    },
    {
        "title": "美元强势加息，豪赌中国450万亿楼市，为什么说注定赢不了？",
        "docid": "7303005334464381474",
        "url": ""
    },
    {
        "title": "梧州与贺州--终于活成了广西区内的一对难兄难弟",
        "docid": "7278498495454167613",
        "url": ""
    },
    {
        "title": "10公里小河建了7座水电站！基建乱象触目惊心，河流受阻无人担责",
        "docid": "7310781630061232640",
        "url": ""
    },
    {
        "title": "2024年宏观经济定调了",
        "docid": "7310725896636269075",
        "url": ""
    },
    {
        "title": "可惜！无锡这几个地块拆迁失败！",
        "docid": "7309379930150863414",
        "url": ""
    },
    {
        "title": "五大车企合计负债14150亿元：比亚迪 上汽 广汽 长安 长城",
        "docid": "7295995564172263990",
        "url": ""
    },
    {
        "title": "我国一边进口原油，一边却低价出口大量石油，到底为什么？",
        "docid": "7294219414138896931",
        "url": ""
    },
    {
        "title": "万字长文丨小鹏汽车：剑锋十年，荆棘之下觅荼蘼（下）",
        "docid": "7310168841806840370",
        "url": ""
    },
    {
        "title": "幸运的中石油（2）阴差阳错的大气田",
        "docid": "7310556018252448296",
        "url": ""
    },
    {
        "title": "国家电网负债2.71万亿，净利590亿，营收3.56万亿全国第一",
        "docid": "7303303151087059456",
        "url": ""
    },
    {
        "title": "通缩下的八大人生建议",
        "docid": "7310790790886916634",
        "url": ""
    },
    {
        "title": "中信证券：我国当前房地产市场相比日本九十年代初有很多积极因素，但确实也需要政策积极干预，避免落入负循环的陷阱",
        "docid": "7310780472265638410",
        "url": ""
    },
    {
        "title": "明天大盘不跌，我跟你姓，可以了吧",
        "docid": "7310901910696149558",
        "url": ""
    },
    {
        "title": "“80后”女生创业14年，一年销售7000万，卖爆欧美、东南亚",
        "docid": "7309462499534586380",
        "url": ""
    },
    {
        "title": "新能源车时代，逼死了多少燃油“神车”？",
        "docid": "7310498159179268617",
        "url": ""
    },
    {
        "title": "中年大叔摆摊卖袜子，利用赠品模式一个月赚3万，真牛！",
        "docid": "7288981727689605672",
        "url": ""
    },
    {
        "title": "捧杀许家印的人",
        "docid": "7292219117741146675",
        "url": ""
    },
    {
        "title": "悬而未决的“新冠险”：太平财险拒绝理赔遭两记者起诉，网上有不少投诉纠纷",
        "docid": "7310032551500890635",
        "url": ""
    },
    {
        "title": "穆迪看空中国，摩根做多中国，这很美国，你不知道该信谁的",
        "docid": "7310752378616054281",
        "url": ""
    },
    {
        "title": "豪掷40亿“抄底”百合佳缘，复星郭广昌回本遥遥无期？",
        "docid": "7310117117959979560",
        "url": ""
    },
    {
        "title": "危机升级！中国打响金融保卫战！严防资金空转？中国如何破局？",
        "docid": "7310828946550194727",
        "url": ""
    },
    {
        "title": "“量化一姐”放宽限购！公司独家回应",
        "docid": "7310093858539799074",
        "url": ""
    },
    {
        "title": "阿根廷首都物价飞涨！“这仅仅是个开始”",
        "docid": "7310885782846816777",
        "url": ""
    },
    {
        "title": "楼市风向转变：新房降价销售不设限，这个最强地级市开了个好头？",
        "docid": "7310876885842461193",
        "url": ""
    },
    {
        "title": "一个家庭富不起来的真相，不是缺钱，而是缺以下三种“远见”",
        "docid": "7210999889226891837",
        "url": ""
    },
    {
        "title": "咸宁市的区划调整，湖北省的第10大城市，为何有6个区县？",
        "docid": "7281185787922727465",
        "url": ""
    },
    {
        "title": "一天能挣1500，这2个小生意投资不大，但销路好，只要不懒就能做",
        "docid": "7309673780576584243",
        "url": ""
    },
    {
        "title": "周末重点速递丨AI将开启第六轮康波，券商聚焦六大主线",
        "docid": "7310866415249080883",
        "url": ""
    },
    {
        "title": "三株口服液覆灭史：年销售80亿的“巨无霸”，却被湖南老汉扳倒？",
        "docid": "7310517730158281254",
        "url": ""
    },
    {
        "title": "未来5年，这四类资产越来越贵，普通老百姓逆袭机会！要把握住！",
        "docid": "7299757684067189302",
        "url": ""
    },
    {
        "title": "算力产业链核心龙头股票盘点",
        "docid": "7310005829078499875",
        "url": ""
    },
    {
        "title": "中年人最有远见的金钱观",
        "docid": "7282376643929211403",
        "url": ""
    },
    {
        "title": "新能源血流成河，中产返贫必备",
        "docid": "7307514640894919168",
        "url": ""
    },
    {
        "title": "三年净利润增长近8倍，特变电工其实并没有这么好！",
        "docid": "7310468293171790348",
        "url": ""
    },
    {
        "title": "打95598热线真的管用吗？打了三次，结果电业局副局长到家来工作",
        "docid": "7310466056358511131",
        "url": ""
    },
    {
        "title": "日本政府未对韩“慰安妇”索赔案判决上诉，韩国朝野回应对比强烈",
        "docid": "7310836824657003034",
        "url": ""
    },
    {
        "title": "超万元买五星级酒店自助餐年卡限消龙虾海参？酒店：明年起执行",
        "docid": "7310790751653626368",
        "url": ""
    },
    {
        "title": "中国老字号东阿阿胶，在“作死”的路上一路狂奔，如今没人买了？",
        "docid": "7310882718584291894",
        "url": ""
    },
    {
        "title": "上海全力发展保障性租赁住房， “一张床、一间房、一套房”让新市民、青年人“住有宜居”",
        "docid": "7310022039916806710",
        "url": ""
    },
    {
        "title": "中国未来最吃香的3座城市，前景可观，紧追北上广深！",
        "docid": "7308541939450774050",
        "url": ""
    },
    {
        "title": "加快关停中小民营企业，转移产能到东南亚，确保环境达标",
        "docid": "7310820677886870042",
        "url": ""
    },
    {
        "title": "Costco火力全开，山姆会员店收割大作战!",
        "docid": "7310525472314720820",
        "url": ""
    },
    {
        "title": "周一策略，2935附近买。关注光模块、人工智能、数据、半导体芯片",
        "docid": "7310907394094629385",
        "url": ""
    },
    {
        "title": "电价调整！潍坊1月1日起执行！",
        "docid": "7308666307569435174",
        "url": ""
    },
    {
        "title": "湖北10大城市人口大洗牌：武汉、宜昌负增长，鄂州暴增8万",
        "docid": "7310522706926486068",
        "url": ""
    },
    {
        "title": "为何河北省大城县如此疯狂造城，激进狂奔的大城县城市发展格局",
        "docid": "7308536759464329779",
        "url": ""
    },
    {
        "title": "中央为发展陕西选定1个国际、3个全国交通枢纽，汉中商洛都落选",
        "docid": "7283059904787857978",
        "url": ""
    },
    {
        "title": "祝贺！武汉这5项工程斩获鲁班奖",
        "docid": "7310909322643522099",
        "url": ""
    },
    {
        "title": "实现财富自由的十二字箴言：不送礼，无格局；不投资，无财富！",
        "docid": "7310140089634718218",
        "url": ""
    },
    {
        "title": "谁说小买卖利润低？这2个行业投资不大，一年照样能收入20万以上",
        "docid": "7286111870262706727",
        "url": ""
    },
    {
        "title": "襄阳GDP超过洛阳，但为何襄阳财政收入只有洛阳一半？",
        "docid": "7291504621221184036",
        "url": ""
    },
    {
        "title": "触目惊心！10公里建7座小水电？",
        "docid": "7310908603156677159",
        "url": ""
    },
    {
        "title": "全球第一大叉车制造商：年收入超过1200亿元，相当于8个安徽合力",
        "docid": "7307472928550011411",
        "url": ""
    },
    {
        "title": "下一个风口最可能是什么！必须好好研究一下！",
        "docid": "7310781372669772322",
        "url": ""
    },
    {
        "title": "炒股，就是游走于天堂与地狱之间的游戏！是魔鬼与天使的博弈！",
        "docid": "7309984571276198427",
        "url": ""
    },
    {
        "title": "一篇文章看懂化工产业，建议收藏！",
        "docid": "7295756305053205026",
        "url": ""
    },
    {
        "title": "万万没想到，比买不起房更可怕的3件事，已经在很多城市蔓延",
        "docid": "7306843723705614882",
        "url": ""
    },
    {
        "title": "上海富豪郭广昌：花45亿买“酒”，4个月豪赚60亿，今身价8064亿",
        "docid": "7301898454891610664",
        "url": ""
    },
    {
        "title": "风向真的变了！临近过年，房地产却出现了三个新动向？来看看",
        "docid": "7309353394622300681",
        "url": ""
    },
    {
        "title": "印度股市又创新高，超69800点，制度优势一览无余",
        "docid": "7310878851423633956",
        "url": ""
    },
    {
        "title": "我为什么选择现在加仓？",
        "docid": "7310869733522604580",
        "url": ""
    },
    {
        "title": "年轻群体焦虑情绪的背后：我们需要保持冷静和理性！面临重大危机",
        "docid": "7310757392713663030",
        "url": ""
    },
    {
        "title": "中国第六强县，凭什么吸引450家德企？",
        "docid": "7280761101535527424",
        "url": ""
    },
    {
        "title": "IDC报告：中国关系型数据库同比增长13%，阿里云继续领跑",
        "docid": "7310087268776133171",
        "url": ""
    },
    {
        "title": "333存钱法，越存越有钱",
        "docid": "7293091853011370505",
        "url": ""
    },
    {
        "title": "四个字，主导明年！",
        "docid": "7310982550153921058",
        "url": ""
    },
    {
        "title": "四川女子在银行痛哭称30万存款变理财？农行：不会擅自变更客户存款",
        "docid": "7309402931537658404",
        "url": ""
    },
    {
        "title": "省小钱花大钱？节俭陷阱让网友笑到腹痛",
        "docid": "7310907042976285194",
        "url": ""
    },
    {
        "title": "事关手机支付！注意新型骗局！",
        "docid": "7310098126399177267",
        "url": ""
    },
    {
        "title": "南充2.5亿元项目中标候选人信用核查两次结果不一，市国资委建议保留核查权利",
        "docid": "7310103312253239845",
        "url": ""
    },
    {
        "title": "明日周一大盘观点，明确观点",
        "docid": "7310931890901729855",
        "url": ""
    },
    {
        "title": "没落的“胶卷大王”：从310亿市值跌倒1.06亿，今跨界“卖情怀”",
        "docid": "7310116138459939339",
        "url": ""
    },
    {
        "title": "1787亿水利水电项目中标：中建三局联合体斩获最大标",
        "docid": "7309057563897954828",
        "url": ""
    },
    {
        "title": "商界大拿：搞出两家世界500强，儿子新疆首富，女儿上海女首富",
        "docid": "7296100132217553423",
        "url": ""
    },
    {
        "title": "11月CPI 再次下降，通缩真的来了吗？",
        "docid": "7310790561861501450",
        "url": ""
    },
    {
        "title": "黄金涨疯了，金店盯上县城？",
        "docid": "7310824558251557387",
        "url": ""
    },
    {
        "title": "云南曲靖3人闯荡广东，登上富豪榜，1人来自神奇公司，1人遇贵人",
        "docid": "7288126910863802920",
        "url": ""
    },
    {
        "title": "电池的耐用度可分为三档！铅酸电池排最后，第一名寿命超过10年！",
        "docid": "7290921302007792168",
        "url": ""
    },
    {
        "title": "“印度支付宝”为何不灵",
        "docid": "7311034139032060427",
        "url": ""
    },
    {
        "title": "揭秘“网约房”乱象：保障租客权益，构建安全共享居住环境",
        "docid": "7310115789888193024",
        "url": ""
    },
    {
        "title": "重大突破！首个使用数字人民币的国家诞生，释放什么信号？",
        "docid": "7310412874042638863",
        "url": ""
    },
    {
        "title": "高瓴资本投资布局版图",
        "docid": "7288513847911318052",
        "url": ""
    },
    {
        "title": "沈万三告诉你做生意的三个秘密你知道吗？",
        "docid": "7310207186541052454",
        "url": ""
    },
    {
        "title": "“购房冷静期来了”！武汉8个在售楼盘宣布可以30天无理由退房",
        "docid": "7309258529037222415",
        "url": ""
    },
    {
        "title": "万达电影有可能又是一次对赌失败的案例",
        "docid": "7310256620884296226",
        "url": ""
    },
    {
        "title": "安置房办房产证需要多少税？",
        "docid": "7265525664764445199",
        "url": ""
    },
    {
        "title": "奇瑞汽车产业链大揭秘",
        "docid": "7295898438892274210",
        "url": ""
    },
    {
        "title": "襄阳主要大镇，最大的镇超过其下辖的保康县城",
        "docid": "7252220310760718905",
        "url": ""
    },
    {
        "title": "惊人的案例：225倍市盈率557元发行，超募50亿，24个月下跌76%？",
        "docid": "7309674173071376932",
        "url": ""
    },
    {
        "title": "日本女生的一人居：小房子里也有自己的生活",
        "docid": "7285574904034918946",
        "url": ""
    },
    {
        "title": "通胀要来了？提前做准备，内行人不建议买房，而是“这样”处理",
        "docid": "7310323113311453748",
        "url": ""
    },
    {
        "title": "中国路灯每晚都“免费”开，谁来承担高额电费？你可能猜不到",
        "docid": "7287142764633834036",
        "url": ""
    },
    {
        "title": "恐怖真相来袭：不少美国人喝到的自来水，竟然是由含铅水管送来的",
        "docid": "7310466543237136935",
        "url": ""
    },
    {
        "title": "坐拥全球规模最大的铁矿，玻利维亚想要卖给中国，我国为何拒绝？",
        "docid": "7293477296164717119",
        "url": ""
    },
    {
        "title": "京沪高铁仅仅负债769亿元，前三季度净利润高达89亿元",
        "docid": "7308610540535071232",
        "url": ""
    },
    {
        "title": "2024中国会出现大通胀么？",
        "docid": "7310020938781721103",
        "url": ""
    },
    {
        "title": "牧之野：许家留下的印",
        "docid": "7284279654804947497",
        "url": ""
    },
    {
        "title": "郎咸平教授解析中美金融大战，外资做空万科",
        "docid": "7309899899175305767",
        "url": ""
    },
    {
        "title": "戳穿犹太诡计，突破中国危机",
        "docid": "7310742840932385295",
        "url": ""
    },
    {
        "title": "牟林：美国GDP逆势增长说明了啥？这个问题中国人一定要清晰",
        "docid": "7309845343029330482",
        "url": ""
    },
    {
        "title": "2023年，还有把钱存“农村信用社和邮政银行”吗？内行人：都看看",
        "docid": "7309703973676761663",
        "url": ""
    },
    {
        "title": "陕西侯为贵：44岁白手创业，与华为分庭抗礼20年，如今身价1088亿",
        "docid": "7281956966925435411",
        "url": ""
    },
    {
        "title": "楼市情况已经明了，懂行人让普通人尽早做三个决定，不然就晚了",
        "docid": "7304842964789117477",
        "url": ""
    },
    {
        "title": "成都市下辖23区县财力排名：武侯区第3，成华区第7，金牛区负增长",
        "docid": "7280082935439426082",
        "url": ""
    },
    {
        "title": "AI算力产业合集总览",
        "docid": "7293137453236716086",
        "url": ""
    },
    {
        "title": "一年赚5000万的付费社群，生财、群响、飞象你知道哪个",
        "docid": "7296661662801936923",
        "url": ""
    },
    {
        "title": "花旗集团大中华区首席经济学家余向荣：明年全球经济将“归于平庸”预计美联储7月开始降息",
        "docid": "7310972098754363941",
        "url": ""
    },
    {
        "title": "黑龙江未来富的流油的6个县，发展潜力巨大，有你的家乡吗？",
        "docid": "7298898800474227227",
        "url": ""
    },
    {
        "title": "猫抓老鼠？性能暴降+价格攀高的“中国特供”芯片，为何还有人买",
        "docid": "7310097341443473974",
        "url": ""
    },
    {
        "title": "投资人涌进官厅讨债 引爆千亿“万向系”地产危局",
        "docid": "7310058443908596243",
        "url": ""
    },
    {
        "title": "A股牛市暂时看不到，反弹行情可以期待！",
        "docid": "7310821649929585204",
        "url": ""
    },
    {
        "title": "危机升级！日本央行偷袭全球？珍珠港事件上演？负利率时代结束？",
        "docid": "7310876499048841743",
        "url": ""
    },
    {
        "title": "蛋蛋怒斥前CEO管倩，管倩曾希望蛋蛋“活成自己喜欢的样子”",
        "docid": "7310892779948048932",
        "url": ""
    },
    {
        "title": "看懂中国股市的4次牛市了吗？",
        "docid": "7309842788849189385",
        "url": ""
    },
    {
        "title": "更新：已经发放过退赔资金的116家问题网贷平台名单汇总",
        "docid": "7310005992149058083",
        "url": ""
    },
    {
        "title": "国产芯片 VS 国外芯片公司",
        "docid": "7310132704132039219",
        "url": ""
    },
    {
        "title": "永春系超市的衰退和莆田系便利店的崛起",
        "docid": "7281550918061998592",
        "url": ""
    },
    {
        "title": "很多企业不知道，商业秘密远比专利重要一百倍",
        "docid": "7277756685992116797",
        "url": ""
    },
    {
        "title": "天元建设集团有限公司（天元建设）介绍",
        "docid": "7288528273125327400",
        "url": ""
    },
    {
        "title": "\"12月9日：证券板块分析，是机会的曙光还是风险的警示？\"",
        "docid": "7310813557158019619",
        "url": ""
    },
    {
        "title": "为何说一旦开通尼加拉瓜运河，将改变全球贸易格局？",
        "docid": "7310241106870960651",
        "url": ""
    },
    {
        "title": "80年代顶替父母进银行的那些人现在过得怎样了？",
        "docid": "7286209000905949730",
        "url": ""
    },
    {
        "title": "洗碗工出身的她，如今身家百亿，亲家资产千亿，儿媳貌美不输景甜",
        "docid": "7306579403121623571",
        "url": ""
    },
    {
        "title": "零食竟然“学历造假”？高校回应→",
        "docid": "7310771362245722658",
        "url": ""
    },
    {
        "title": "我61岁，退休后卖掉北京西城800万房产，花98万在威海买房养老",
        "docid": "7298913342767573158",
        "url": ""
    },
    {
        "title": "侯耀华花18万拜师常宝华，拜师最晚却成大师兄，气得牛群爆粗口",
        "docid": "7310107299656286732",
        "url": ""
    },
    {
        "title": "人老了，哪怕你再有钱有闲，我建议也尽量不要频繁地做以下事情：",
        "docid": "7284105079601398287",
        "url": ""
    },
    {
        "title": "网上这10件商品简直“坏良心”，专坑国人！大家千万不要被骗了",
        "docid": "7309125250103558656",
        "url": ""
    },
    {
        "title": "最新！成渝地区双城经济圈晒出成绩单",
        "docid": "7310950089441690147",
        "url": ""
    },
    {
        "title": "烟酒店将迎来“退场”大势？从稳赚到关店考验，到底出啥问题了？",
        "docid": "7310090432120275507",
        "url": ""
    },
    {
        "title": "假如苏锡常都市圈三市合并，只给副省级不给直辖市难匹配其地位？",
        "docid": "7309871966045913600",
        "url": ""
    },
    {
        "title": "西湖益联保公布2022年成绩单，结果惊人！",
        "docid": "7310064023587357220",
        "url": ""
    },
    {
        "title": "比特币价格持续下跌，但专业BTC交易者如何定位？",
        "docid": "7310027128022974987",
        "url": ""
    },
    {
        "title": "华为向世俗妥协了？华为接受外界资本投资！",
        "docid": "7310088987480457739",
        "url": ""
    },
    {
        "title": "一觉醒来，大蒜上了热搜",
        "docid": "7310495257861587482",
        "url": ""
    },
    {
        "title": "国务院：允许上海自贸试验区金融机构向境外传输日常经营所需数据",
        "docid": "7309773455631696423",
        "url": ""
    },
    {
        "title": "人老了要有多少存款才够呢，如果以下几点都做到了，那三五万就行",
        "docid": "7299102363690730011",
        "url": ""
    },
    {
        "title": "写给40岁后的女士7点经验：多存钱，少买衣服和口红，精致消费！",
        "docid": "7285967413772829219",
        "url": ""
    },
    {
        "title": "海博早读丨福建拟新增100家省重点上市后备企业",
        "docid": "7310767178687578659",
        "url": ""
    },
    {
        "title": "三年缩水近3KW，钟山高尔夫也顶不住！这套凶宅房价却翻番？",
        "docid": "7310143884272353818",
        "url": ""
    },
    {
        "title": "YOYO PARK与物业持有方和平分手，由万达系接手",
        "docid": "7310583291035517479",
        "url": ""
    },
    {
        "title": "四川正在建设的高铁站，看看你的家乡有没有",
        "docid": "7284550946062271010",
        "url": ""
    },
    {
        "title": "江浙沪皖四省市1到8月财政收入，安徽全省竟不到上海市的一半",
        "docid": "7297892863029838362",
        "url": ""
    },
    {
        "title": "河南18市财政收入排名：郑州接近千亿，安阳领先许昌，5市负增长",
        "docid": "7308291144616935975",
        "url": ""
    },
    {
        "title": "多地新能源公交车换回燃油车，背后的深层原因",
        "docid": "7310564893718741558",
        "url": ""
    },
    {
        "title": "上海城隍庙宣布破产、10亿流拍？发生了什么？",
        "docid": "7310934663966130740",
        "url": ""
    },
    {
        "title": "“我们不稀罕你的238亿遗产”！邵逸夫离世，4个子女不继承不送终",
        "docid": "7300107319571005978",
        "url": ""
    },
    {
        "title": "万达电影一夜“改姓”，王健林痛失控制权，新东家靠谱",
        "docid": "7309674744507564556",
        "url": ""
    },
    {
        "title": "存到50万后我的消费观",
        "docid": "7308889898881253924",
        "url": ""
    },
    {
        "title": "“存款100万意味着什么？”看完这些网友的真实回答，扎心又现实",
        "docid": "7302692970396975616",
        "url": ""
    },
    {
        "title": "公投吞并邻国2/3国土！委内瑞拉疯了吗？130亿桶石油，南美大战？",
        "docid": "7309844786398708274",
        "url": ""
    },
    {
        "title": "好尴尬啊！8筐橘子货主怒怼官方，检测站进退两难，官方整不会了",
        "docid": "7310527600395649546",
        "url": ""
    },
    {
        "title": "存下二十万后，我与存钱和解了",
        "docid": "7297426698122035751",
        "url": ""
    },
    {
        "title": "解清帅带动原公司股价！三天贡献两个亿，网友喊话让其做代言人",
        "docid": "7310100271428813312",
        "url": ""
    },
    {
        "title": "印度的金融中心孟买，设计的摩天大楼堪比世界上任何一个城市",
        "docid": "7280552366544650810",
        "url": ""
    },
    {
        "title": "盘前必读丨政治局会议释放重要信号；A股又迎来一波增持回购潮",
        "docid": "7311110842538361398",
        "url": ""
    },
    {
        "title": "杀疯了！15家新能源车企官宣降价，最高降8万元",
        "docid": "7310210485969502731",
        "url": ""
    },
    {
        "title": "南京房市震荡：业主哀叹亏损 未来或有反弹希望",
        "docid": "7310394012039512612",
        "url": ""
    },
    {
        "title": "你可以瞧不上现代汽车，但歪曲它就是你的无知了！",
        "docid": "7297438589750067753",
        "url": ""
    },
    {
        "title": "度小满小贷：周世平判无期徒刑震动互联网金融",
        "docid": "7310075143940751891",
        "url": ""
    },
    {
        "title": "华润集团曝光四家“假央企”",
        "docid": "7310848320644481547",
        "url": ""
    },
    {
        "title": "看不清这些，买房就是不幸的开始",
        "docid": "7281583998457954873",
        "url": ""
    },
    {
        "title": "广汽本田：不在店内保养，就不给质保！百余条投诉0回复0处理",
        "docid": "7310161953043857972",
        "url": ""
    },
    {
        "title": "TCL的芯片，玩砸了……",
        "docid": "7309159216550265383",
        "url": ""
    },
    {
        "title": "河南的落寞，净高5300多万人口，却即将被江西后来居上",
        "docid": "7282258454713188899",
        "url": ""
    },
    {
        "title": "在美国生活一段时间，不得不承认，跟我们之间的差距确实不小",
        "docid": "7306067436074582568",
        "url": ""
    },
    {
        "title": "我恰恰以为解清帅在没名没钱的时候找到真爱是上天最好的安排。",
        "docid": "7308192381487022633",
        "url": ""
    },
    {
        "title": "重庆前首富尹明善被金融监管总局警告",
        "docid": "7310772359831765542",
        "url": ""
    },
    {
        "title": "法院判了，烂尾楼可以不还房贷，可是却有人跳出来反对，是何居心",
        "docid": "7309436363995234827",
        "url": ""
    },
    {
        "title": "在支行工作的时候，每年都会导出存款余额靠前的",
        "docid": "7308423287565025833",
        "url": ""
    },
    {
        "title": "个人转账超5万，银行会向税务机关传递数据？",
        "docid": "7280453164703531556",
        "url": ""
    },
    {
        "title": "68元锅底成“天价”？顾客不服，商家叫苦",
        "docid": "7309284320307413541",
        "url": ""
    },
    {
        "title": "中国邮政居然把营业厅开成这样，三大运营商也可以照搬！",
        "docid": "7282195446238544443",
        "url": ""
    },
    {
        "title": "医保二次报销是什么意思？",
        "docid": "7293132124499378699",
        "url": ""
    },
    {
        "title": "适合30-50岁做的三个生意，门槛比较低，每月赚3-4万很轻松！",
        "docid": "7287127149176406589",
        "url": ""
    },
    {
        "title": "马斯克称特斯拉最新低价车型生产技术前所未有",
        "docid": "7309446777265504831",
        "url": ""
    },
    {
        "title": "一年能挣20万左右的加工生意，一家人干正合适，投资小、销路好！",
        "docid": "7286465262923121215",
        "url": ""
    },
    {
        "title": "为什么父辈收入低，却能存到钱，而我们却不行？看完我悟了！",
        "docid": "7308610178885861927",
        "url": ""
    },
    {
        "title": "看完评论终于知道为什么没人黑国家电网了！",
        "docid": "7300425631517737512",
        "url": ""
    },
    {
        "title": "湖南的两副中心布局昏招，弃常德留岳阳",
        "docid": "7310551250356158988",
        "url": ""
    },
    {
        "title": "笑不活了~足金首饰金价狂飙达625元/克，我却笑死在网友评论区",
        "docid": "7309444333290422784",
        "url": ""
    },
    {
        "title": "油车逆袭？丰田利润击败多家国产新能源车企！高额利润咋来的？",
        "docid": "7310934542934704666",
        "url": ""
    },
    {
        "title": "7项个税专项附加扣除，一图看懂！",
        "docid": "7310147034814710291",
        "url": ""
    },
    {
        "title": "我国这4座城市“留不住”人了：人均工资三四千，房价却是一两万",
        "docid": "7305955627811996186",
        "url": ""
    },
    {
        "title": "乘客打车后误机,向网约车司机及平台索赔,司机懵了：你咋不去找机场麻烦，说飞机没等你？且看法院如何宣判!",
        "docid": "7288585083206795776",
        "url": ""
    },
    {
        "title": "郭宏才:高考只考了300分，傍上马斯克的中国骗子，5年骗走上百亿",
        "docid": "7278848235198841380",
        "url": ""
    },
    {
        "title": "非要和中国拼内卷，韩国造船业这下舒服了，终于把自己活活卷死了",
        "docid": "7308985672923218473",
        "url": ""
    },
    {
        "title": "写字楼空置率高已是事实，深圳接下来的操作才更吓人",
        "docid": "7309304685838811700",
        "url": ""
    },
    {
        "title": "现在年轻人的消费观：省吃俭用的花了一大笔钱。",
        "docid": "7302693107135644199",
        "url": ""
    },
    {
        "title": "你们听过领导最没水平的一句话是什么？",
        "docid": "7311122919911096859",
        "url": ""
    },
    {
        "title": "2023年中国工业百强县（市）榜单揭晓 湖北6市上榜 居中部第一",
        "docid": "7311112507845100032",
        "url": ""
    },
    {
        "title": "银泰创始人沈国军：浙江顶级富豪，娶小21岁女星，如今身价570亿",
        "docid": "7310399799583441442",
        "url": ""
    },
    {
        "title": "没有人能倒逼资本转型，但这届年轻人做到了",
        "docid": "7310950326583312948",
        "url": ""
    },
    {
        "title": "王小卤创始人王雄，靠卖凤爪年入10亿，7年将品牌做到行业龙头！",
        "docid": "7281921011355222563",
        "url": ""
    },
    {
        "title": "著名经济学家任泽平再出大招：先立后破，全力拼经济！",
        "docid": "7311135352415076891",
        "url": ""
    },
    {
        "title": "贫富悬殊有多大？一份内部报告揭示了真相",
        "docid": "7309630958288880191",
        "url": ""
    },
    {
        "title": "现在A股很便宜，为什么很多人却不敢买？",
        "docid": "7291280691630621239",
        "url": ""
    },
    {
        "title": "国产资产被贱卖？美国3.75亿美元收购徐工，后来怎么样了？",
        "docid": "7287888316035367483",
        "url": ""
    },
    {
        "title": "谁还傻傻开通银行卡短信通知？教你方法，不花钱也能免费收到提醒",
        "docid": "7277860473041715773",
        "url": ""
    },
    {
        "title": "蔚来试着挑战国人审美，ET5推出旅行版能否获得年轻人喜欢？",
        "docid": "7281288330099638843",
        "url": ""
    },
    {
        "title": "燃油泵模块事件持续发酵 君威遭集中投诉",
        "docid": "7310771188052132352",
        "url": ""
    },
    {
        "title": "男子花520元拍下一套房被悔拍 拍卖公司：退款并赔5%违约金 律师：违约金多少 不是拍卖公司说了算",
        "docid": "7308571330621260298",
        "url": ""
    },
    {
        "title": "小夫妻辞去编制卖杂货，“财富自由是种心态”",
        "docid": "7308576624042443305",
        "url": ""
    },
    {
        "title": "王来春：车间女工创上市公司，抢师傅郭台铭饭碗，她靠什么发家？",
        "docid": "7306786028658999847",
        "url": ""
    },
    {
        "title": "废掉一个公司最快的方式：组织内耗",
        "docid": "7300774966172074523",
        "url": ""
    },
    {
        "title": "胆儿太大！北京一房东把2居室改成7居室出租给10个人",
        "docid": "7310896542381195791",
        "url": ""
    },
    {
        "title": "每天了解一家新公司，No.100:锦江酒店",
        "docid": "7282309005102891539",
        "url": ""
    },
    {
        "title": "美国消费者报告评出10款最不可靠的汽车 美系6款 日系1款 德系两款",
        "docid": "7310792537701302847",
        "url": ""
    },
    {
        "title": "女房东28天被租客骗走407万：永远不要低估人性的贪婪",
        "docid": "7307097469630988809",
        "url": ""
    },
    {
        "title": "2023中国制造业企业500强名单发布",
        "docid": "7280810279666041402",
        "url": ""
    },
    {
        "title": "羡慕炸了！字节跳动启动员工期权回收：每股160美元",
        "docid": "7310920656437117480",
        "url": ""
    },
    {
        "title": "我45岁，深圳当财务员，抓住2次机遇后，我选择躺平，过悠闲生活",
        "docid": "7310190913320780340",
        "url": ""
    },
    {
        "title": "A股：周一继续开盘，不必再猜涨跌了，直接给出明确预判",
        "docid": "7310995820139053604",
        "url": ""
    },
    {
        "title": "别人的剩饭，必须舍弃",
        "docid": "7310926409282503204",
        "url": ""
    },
    {
        "title": "耐克扛不住了？市值蒸发8000亿，裁员预警发出“离不开中国市场”",
        "docid": "7310163213751337498",
        "url": ""
    },
    {
        "title": "政府不仅会将股市稳定住，还会采取措施来扶持股市上涨！",
        "docid": "7310769369641124390",
        "url": ""
    },
    {
        "title": "快狗打车从23.15跌到0.5，我却笑死在评论区，狗是司机还是用户？",
        "docid": "7308767546201653760",
        "url": ""
    },
    {
        "title": "电动车市场开启“清仓模式”！搭载6块大电池，长续航车型1999起",
        "docid": "7310145394176082469",
        "url": ""
    },
    {
        "title": "香港传奇风水师：在中国最信风水的城市，靠风水赚了32亿",
        "docid": "7300605107757105691",
        "url": ""
    },
    {
        "title": "马来西亚人均GDP1.2万美元，与中国相当，马来西亚是穷国还是富国",
        "docid": "7309694747075969570",
        "url": ""
    },
    {
        "title": "买了保险要不要退？听听来自一位从业14年资深总监的建议。",
        "docid": "7287604065637696000",
        "url": ""
    },
    {
        "title": "美股终于赶上了A股",
        "docid": "7310791818461938176",
        "url": ""
    },
    {
        "title": "“网约房”乱象频频 不能成为“治安洼地”",
        "docid": "7310190126775468554",
        "url": ""
    },
    {
        "title": "分散存款很有必要",
        "docid": "7306620694782116352",
        "url": ""
    },
    {
        "title": "老龄化的日本出现住房新趋势：跨代共居",
        "docid": "7286631433144271417",
        "url": ""
    },
    {
        "title": "三季度，中国GDP明明是上涨4.9%，美国媒体为何报道的是5.2%呢？",
        "docid": "7308622404262134323",
        "url": ""
    },
    {
        "title": "码住！当开票和收款不能一起时，要先开票还是先收款？官方这么说",
        "docid": "7281153308495053371",
        "url": ""
    },
    {
        "title": "津巴布韦：“穷”到只剩下钱的国家，花钱论斤称，坐公交3万元",
        "docid": "7298589365368914467",
        "url": ""
    },
    {
        "title": "“成人用品”，正在成为不法分子牟取暴利的天堂",
        "docid": "7310063081387000320",
        "url": ""
    },
    {
        "title": "电车要变“电动爹”？充电开始涨价司机叫苦！专家：以前电费太低",
        "docid": "7309434184110866959",
        "url": ""
    },
    {
        "title": "北京朝阳区买房3个不推荐的区域，仅供参考",
        "docid": "7287778005605777980",
        "url": ""
    },
    {
        "title": "3年注销40000家企业，安全套卖不动，“小蓝片”的后浪却来了",
        "docid": "7310560008629142070",
        "url": ""
    },
    {
        "title": "14年，80后县长让王健林把利润全留在丹寨县，后来他的仕途如何？",
        "docid": "7309411707296793139",
        "url": ""
    },
    {
        "title": "上海卖房，卷到哭",
        "docid": "7309658547775128075",
        "url": ""
    },
    {
        "title": "欧美股市集体上涨，为何A股却跌跌不休？",
        "docid": "7311159689272951331",
        "url": ""
    },
    {
        "title": "利好突袭！多路资金力挺A股",
        "docid": "7311158435763028534",
        "url": ""
    },
    {
        "title": "浙江丽水人，做肥皂与外资斗30年，现年入300亿，女儿成隐形富豪",
        "docid": "7284910480014049827",
        "url": ""
    },
    {
        "title": "撤离中国市场时头也不回，后遇困难想要回来？太把自己当回事了",
        "docid": "7304942010656555574",
        "url": ""
    },
    {
        "title": "美国的底气究竟是啥？人口比我们少10亿，消费市场却全球最大？",
        "docid": "7298648332887638578",
        "url": ""
    },
    {
        "title": "捷达VS5 ，售价9.79万，搭载1.4T+6AT，双独立悬挂，适合家用",
        "docid": "7279341267060949523",
        "url": ""
    },
    {
        "title": "广州船企收获“泼天富贵”！29艘汽车船全球第一，接到比亚迪订单",
        "docid": "7310196247427121676",
        "url": ""
    },
    {
        "title": "美国第一州加利福尼亚有多发达？30个情况跟你讲清楚",
        "docid": "7303010697255191076",
        "url": ""
    },
    {
        "title": "三大指数均跌逾1% 下跌个股近4100只",
        "docid": "7311143928588468748",
        "url": ""
    },
    {
        "title": "江苏一个县造的船，比日本还多：怎么做到的？",
        "docid": "7295585083891909161",
        "url": ""
    },
    {
        "title": "共封装光学+多模态AI+MR+光刻机概念核心股一览",
        "docid": "7310218755211379234",
        "url": ""
    },
    {
        "title": "攻克幕墙施工难关  绿地428米超高层建设再提速",
        "docid": "7310132515640197671",
        "url": ""
    },
    {
        "title": "仅凭1根铁丝，他横扫全美赌场，20年间骗了1亿美金！",
        "docid": "7278928408498127415",
        "url": ""
    },
    {
        "title": "2023年四川省成都市最新十大富豪揭晓",
        "docid": "7309441995998069299",
        "url": ""
    },
    {
        "title": "印度完成对vivo洗钱调查，指控其非法向境外转移75亿美元",
        "docid": "7310203127523738164",
        "url": ""
    },
    {
        "title": "少年巴菲特经典一战：告诉你什么是安全边际",
        "docid": "7310222951457587766",
        "url": ""
    },
    {
        "title": "保利集团是从军队中走来的央企，为我国军事装备进出口立下了大功",
        "docid": "7306746913137787426",
        "url": ""
    },
    {
        "title": "曾经的“印钞机”如今的“老破小”，汽车客运站真的被抛弃了吗？",
        "docid": "7299355122704892427",
        "url": ""
    },
    {
        "title": "巨额线损：长距离拉线安装家用充电桩划算么？",
        "docid": "7288961861813387834",
        "url": ""
    },
    {
        "title": "湖南常德人，到浙江台州打工，娶老板女儿，后创办药厂登上富豪榜",
        "docid": "7306704348431139354",
        "url": ""
    },
    {
        "title": "张颂文吐槽：什么都要会员，真是的！",
        "docid": "7310833334937256482",
        "url": ""
    },
    {
        "title": "4680 的艰难诞生，只有特斯拉才敢这样造电池丨TECH TUESDAY",
        "docid": "7309093095999144486",
        "url": ""
    },
    {
        "title": "专家再现雷人之语：一定要工作到健康寿命终结，等彻底瘫了再说",
        "docid": "7310533489479303680",
        "url": ""
    },
    {
        "title": "在南昌元通奥迪4S店买辆奥迪A8L 才开一个多月发动机就漏机油",
        "docid": "7310136272146907685",
        "url": ""
    },
    {
        "title": "买房时“一次性付清”和“还贷20年”，区别有多大？幸亏知道得早",
        "docid": "7300142293288403519",
        "url": ""
    },
    {
        "title": "政策失灵，股市下行，怎么办？",
        "docid": "7310545847073194559",
        "url": ""
    },
    {
        "title": "普京突访阿联酋，劝它一起减产石油，石油大战不能让美国赢",
        "docid": "7309564442298155560",
        "url": ""
    },
    {
        "title": "退休后，不管在谁面前，都不要亮出这3张“底牌”",
        "docid": "7296496405084946980",
        "url": ""
    },
    {
        "title": "今小赚1866，汉王又卖飞了，二选一又买错了啊",
        "docid": "7311148994804105743",
        "url": ""
    },
    {
        "title": "细思极恐：我们可能陷入了原油和光伏的阴谋之中",
        "docid": "7310441689176097315",
        "url": ""
    },
    {
        "title": "印度股市再创新高 两只QDII基金大赚",
        "docid": "7311092259208839718",
        "url": ""
    },
    {
        "title": "短视频“大清洗”",
        "docid": "7310097092704469516",
        "url": ""
    },
    {
        "title": "中专小护士逆袭成百亿富豪，每年赚走苹果100多亿，她凭啥这么牛",
        "docid": "7310393540100670006",
        "url": ""
    },
    {
        "title": "保安公司上市，发行价19.1元，募集5.13亿，股民：这也能上市？",
        "docid": "7311121104595403276",
        "url": ""
    },
    {
        "title": "印度反对中国建雅鲁藏布江水电站，如今才彻底明白，真不是一般精",
        "docid": "7282270983271055911",
        "url": ""
    },
    {
        "title": "蔚来汽车部分关键零部件供应商一览",
        "docid": "7298929492829979146",
        "url": ""
    },
    {
        "title": "十大工业强省最新出炉：福建第5，河北远超湖北，湖南无缘",
        "docid": "7304879220768457266",
        "url": ""
    },
    {
        "title": "儿子在杭州买了房，本打算收房后回河北，可她走不了，根本走不了",
        "docid": "7310514370394866239",
        "url": ""
    },
    {
        "title": "江苏富豪榜前五名揭晓，看看谁是江苏最有钱的人",
        "docid": "7309407675044299303",
        "url": ""
    },
    {
        "title": "“网贷教父”的崛起与退场",
        "docid": "7310975640747475465",
        "url": ""
    },
    {
        "title": "372亿！80后千亿富三代郭基辉太低调，网友：奶奶是中国女首富",
        "docid": "7310625671460422179",
        "url": ""
    },
    {
        "title": "火电项目47个，投资额1501亿元",
        "docid": "7301233375178932772",
        "url": ""
    },
    {
        "title": "河南彩民花100块买彩票，中8662万捐5300万！现场领奖：钱太多，在当地花不完……",
        "docid": "7311205720286970387",
        "url": ""
    },
    {
        "title": "中汽协：11月新能源汽车销量102.6万辆 同比增长30%",
        "docid": "7311214567991099967",
        "url": ""
    },
    {
        "title": "娃哈哈掌门人“宗馥莉”发福变胖像妇女！集团门口聚齐“癞蛤蟆”",
        "docid": "7310825965263995430",
        "url": ""
    },
    {
        "title": "为什么陕北煤老板，没山西煤老板名气大？",
        "docid": "7311150575541092899",
        "url": ""
    },
    {
        "title": "是谁在恶意炒作央视与日本企业合作？原来是这些人！",
        "docid": "7311130259104055848",
        "url": ""
    },
    {
        "title": "1991中国十强县，今夕何在？",
        "docid": "7299268754469601826",
        "url": ""
    },
    {
        "title": "太滑稽搞笑！保安公司也要上市了，意义到底在哪？A股还有底线吗",
        "docid": "7311154966633267747",
        "url": ""
    },
    {
        "title": "我17年花160万在海南买海景房，如今住不了卖不掉，肠子都悔青了",
        "docid": "7310629801495167499",
        "url": ""
    },
    {
        "title": "11月小米市占率排名国产手机品牌第一",
        "docid": "7311165190396805669",
        "url": ""
    },
    {
        "title": "涉及500余人！请互相转告，这些沉默账户，湖州公积金喊你速办理",
        "docid": "7311206485424996891",
        "url": ""
    },
    {
        "title": "佛山60后爷爷打造大胆住宅：360°全屋透明，屋顶造浴缸",
        "docid": "7287965497369870848",
        "url": ""
    },
    {
        "title": "央视总台副台长邢博与日本企业签署战略合作伙伴引起网民不满！",
        "docid": "7310895986715492874",
        "url": ""
    },
    {
        "title": "中字头！中字头！中字头！重要事情说三遍！",
        "docid": "7311196968582136359",
        "url": ""
    },
    {
        "title": "广东未来发展猜想：打造第二个“深圳”，双核心城市，佛山落选",
        "docid": "7281961202144854584",
        "url": ""
    },
    {
        "title": "他炒股20年，只买卖两次，赚的盆满钵满，经验就是：守株待兔",
        "docid": "7307948122762773004",
        "url": ""
    },
    {
        "title": "核心高管出走、不良率持续走高，新网银行怎么了？",
        "docid": "7311158537969779251",
        "url": ""
    },
    {
        "title": "中国首个GDP破千亿的镇，已超越部分地级市，综合实力全国第二",
        "docid": "7301002277458821651",
        "url": ""
    },
    {
        "title": "对美出口下降13.8%！我国已跌为美国第三大进口国，前两名是谁？",
        "docid": "7311185148538946100",
        "url": ""
    },
    {
        "title": "上午回收，下午做拆解，一年能挣25万，这2个小生意都很暴利！",
        "docid": "7296699940762403364",
        "url": ""
    },
    {
        "title": "12月11日金价暴跌！今日黄金下跌！今日金价！各大金店黄金价格！",
        "docid": "7311168341383873024",
        "url": ""
    },
    {
        "title": "比特币日内一度跌超8%",
        "docid": "7311168893370909219",
        "url": ""
    },
    {
        "title": "广东镇街：小榄镇，中山第一强镇，78万人口，年GDP近500亿元！",
        "docid": "7280768317244572196",
        "url": ""
    },
    {
        "title": "收评：A股探底回升创业板指涨超1%，文化传媒板块爆发，券商板块午后走强",
        "docid": "7311229211707523621",
        "url": ""
    },
    {
        "title": "突发跳水！近6万人爆仓",
        "docid": "7311198897005855241",
        "url": ""
    },
    {
        "title": "网友问球球：你俩谁有钱？球球说：你给我刷条金龙我就告诉你！",
        "docid": "7310842334973968935",
        "url": ""
    },
    {
        "title": "“现在的物价到底怎么了？”网友不理解:工资不涨，物价翻倍",
        "docid": "7310180546909438491",
        "url": ""
    },
    {
        "title": "不出意外，跨年行情稳了！A股，行情在重演2018年行情",
        "docid": "7311174223370994216",
        "url": ""
    },
    {
        "title": "他是蓝翔挖掘机创始人，从穷小子白手起家，靠岳父妻子成亿万富豪",
        "docid": "7290484694784000552",
        "url": ""
    },
    {
        "title": "光谷“一块面包”：连续3年销售破亿，立志做“面包界的农夫山泉”",
        "docid": "7310775026952225317",
        "url": ""
    },
    {
        "title": "国家拼命喊话但为何民企依然信心不足？",
        "docid": "7310101670703383074",
        "url": ""
    },
    {
        "title": "外媒终于感觉到不对：欧美推行供应链多样化 中国出口量却越来越大",
        "docid": "7310490089732735523",
        "url": ""
    },
    {
        "title": "最新宁波企业100强：奥克斯第六，海天塑机第22，狮丹努第67",
        "docid": "7292314503276970548",
        "url": ""
    },
    {
        "title": "养老金个人账户139个月是什么意思？",
        "docid": "7279365211168195108",
        "url": ""
    },
    {
        "title": "人才，只会流向被尊重的地方",
        "docid": "7304982232404902451",
        "url": ""
    },
    {
        "title": "他继承其父上海133套房产，现每套估值超2亿？仅21岁就身价百亿",
        "docid": "7281210930598445583",
        "url": ""
    },
    {
        "title": "小县城里的客运站，还能活多久",
        "docid": "7292031956353696293",
        "url": ""
    },
    {
        "title": "“家留三钱，家中无忧”，一个家庭提前准备3笔钱，有望顺利度日",
        "docid": "7287931359996215823",
        "url": ""
    },
    {
        "title": "德国经济加速衰退，希腊建议：卖两座岛吧",
        "docid": "7309315086777385506",
        "url": ""
    },
    {
        "title": "支付宝的“网商贷”不是“随意贷”",
        "docid": "7309008311691706920",
        "url": ""
    },
    {
        "title": "2024中美斗争大决战 我国股市楼市大利空！美元打响抄底战",
        "docid": "7311000315934736946",
        "url": ""
    },
    {
        "title": "五年之内，中国GDP万亿城市有望增至30个！",
        "docid": "7294079331351986707",
        "url": ""
    },
    {
        "title": "几个亿卖掉几百台出租车，然后到上海买下一栋大楼后，赚到近百亿",
        "docid": "7305382405916590603",
        "url": ""
    },
    {
        "title": "合肥富豪唐彬森：26亿卖掉游戏公司，转行做饮料，40岁身家350亿",
        "docid": "7292700947921388070",
        "url": ""
    },
    {
        "title": "京东出售半球电饭煲用第一次就坏了，时隔一年，钱没退，货也退不见了",
        "docid": "7310456036405150258",
        "url": ""
    },
    {
        "title": "你发现没？一种“新型穷人”正在崛起，有3个表现，你中招了吗？",
        "docid": "7310472692917535269",
        "url": ""
    },
    {
        "title": "恭喜这12城进入全球100强：北京第3，天津领先杭州，武汉第12",
        "docid": "7310502226026365478",
        "url": ""
    },
    {
        "title": "罗永浩：每年公司淘汰15%人是好事",
        "docid": "7311223339396383244",
        "url": ""
    },
    {
        "title": "亨利集团:作恶多端的“女魔头”魏榕必将付出代价",
        "docid": "7300988329062023721",
        "url": ""
    },
    {
        "title": "经济下行压力大：今年大家都穷到了什么地步？",
        "docid": "7310939982372913703",
        "url": ""
    },
    {
        "title": "中国股市必须大幅上涨",
        "docid": "7311225830875873803",
        "url": ""
    },
    {
        "title": "A股：上午种种迹象表明，主力这次玩大了，历史正式进入新的篇章",
        "docid": "7311178439095075347",
        "url": ""
    },
    {
        "title": "今天的A股，让我高兴的原地翻了一个跟斗，你们知道是为什么吗",
        "docid": "7311218339244720676",
        "url": ""
    },
    {
        "title": "2024快到了，我却还在补缴2021年的个税！",
        "docid": "7308638717039084072",
        "url": ""
    },
    {
        "title": "我，01年在上海经营蔬菜生意，以90万买下旧楼，如今价值2000多万",
        "docid": "7287770974404706877",
        "url": ""
    },
    {
        "title": "收评： A股单日大反转！是否短线用力过猛？老手今天打了85分！",
        "docid": "7311231793489904154",
        "url": ""
    },
    {
        "title": "泸州老窖回应核心产品降价：结算价未改变，系利润分配前置",
        "docid": "7311238073239765543",
        "url": ""
    },
    {
        "title": "苹果Vision Pro头显开启量产！首批备货40万台左右",
        "docid": "7311128872244757018",
        "url": ""
    },
    {
        "title": "明年开始，在银行拥有定期存款的家庭，需要提前做好两手准备",
        "docid": "7310979270049006120",
        "url": ""
    },
    {
        "title": "购买昆明市盘龙区这些小区的人要哭了！12月跌幅最大的30个小区！",
        "docid": "7310515866989576755",
        "url": ""
    },
    {
        "title": "浙江丽水女孩，和男友私奔广东中山，卖节能灯起家30年后身家百亿",
        "docid": "7284446750121673251",
        "url": ""
    },
    {
        "title": "市区，没有比这个区“降价”更狠的了！",
        "docid": "7310184562914427429",
        "url": ""
    },
    {
        "title": "北向资金流出近百亿 大盘继续寻底？丨市场聚焦",
        "docid": "7311225440021692965",
        "url": ""
    },
    {
        "title": "20死19伤！重大事故调查报告公布！",
        "docid": "7310586554719027739",
        "url": ""
    },
    {
        "title": "上海保险业务员被“客户”下套误食毒品，还赌博“输”掉2万多元",
        "docid": "7310201155450356265",
        "url": ""
    },
    {
        "title": "安徽将打造第二个“合肥”？2027年GDP超8000亿，与南京三足鼎立",
        "docid": "7310841904806445580",
        "url": ""
    },
    {
        "title": "监管鼓励下首单券业并购案出炉，浙商证券直线封板，券商ETF（512000）迅速攀升涨近2%！",
        "docid": "7311223501359317515",
        "url": ""
    },
    {
        "title": "一线城市房租跳水：年轻人躺了，房东急了",
        "docid": "7311183874452029990",
        "url": ""
    },
    {
        "title": "撑起近15000家瑞幸的背后：咖啡师的“烂手”之痛",
        "docid": "7311210733461930496",
        "url": ""
    },
    {
        "title": "近12万人爆仓！比特币短线重挫7.5%致30亿资金“灰飞烟灭”，业内称三大预期并无太大变化，市场整体情绪依旧向上",
        "docid": "7311249268634059316",
        "url": ""
    },
    {
        "title": "辽宁几场大雪，撕下了电动车最后一块“遮羞布”！车主：苦不堪言",
        "docid": "7310222520891458098",
        "url": ""
    },
    {
        "title": "刚刚！杭州公积金政策调整！",
        "docid": "7311214017777762851",
        "url": ""
    },
    {
        "title": "我，18年被人忽悠，花102万惠州买房，如今过了5年，足足亏了52万",
        "docid": "7311149019068252699",
        "url": ""
    },
    {
        "title": "行情没有意外！“史诗级反弹”来了，A股，行情有悬念了",
        "docid": "7311226374528729615",
        "url": ""
    },
    {
        "title": "杭州公积金新政：无房的新市民、青年人可按月全额提取付房租",
        "docid": "7311188714892558882",
        "url": ""
    },
    {
        "title": "杭州新房中签率最低仅1.98%的申花红盘，有房东“血亏”51万离场",
        "docid": "7311236821919973939",
        "url": ""
    },
    {
        "title": "东北土豪甲继海：二婚娶20岁俄罗斯美女，结婚13年后，现状如何？",
        "docid": "7310468785998201407",
        "url": ""
    },
    {
        "title": "1年5倍计划：100到500W之路，第 148天",
        "docid": "7310955168290783782",
        "url": ""
    },
    {
        "title": "金融茶诈骗案：潮汕少年陈世鸿承诺高价回购，泡沫破灭损失十亿元",
        "docid": "7311144203869078055",
        "url": ""
    },
    {
        "title": "他身家百亿，却只开20万车，8亿人用他的产品，但没几个人认识他",
        "docid": "7310952474201014823",
        "url": ""
    },
    {
        "title": "我国最有可能合并的两座城市，一旦合并将超越上海，成为新焦点！",
        "docid": "7309315363446587944",
        "url": ""
    },
    {
        "title": "奇了怪？便宜香烟越来越少？烟贩老板：不是不想卖，有\"几大原因\"",
        "docid": "7311150048941851162",
        "url": ""
    },
    {
        "title": "半夏李蓓再看好A股：现在股市为20年一遇机会",
        "docid": "7311190589423518258",
        "url": ""
    },
    {
        "title": "目标深圳，管窥资本的邪性",
        "docid": "7311207780533682707",
        "url": ""
    },
    {
        "title": "陈进：骗国家11亿经费，让中国芯片停滞13年，出逃美国仍逍遥法外",
        "docid": "7311235028271792678",
        "url": ""
    },
    {
        "title": "A股：金针探底非常漂亮的反击，明天（12月12日）市场会这样走！",
        "docid": "7311252416551354880",
        "url": ""
    },
    {
        "title": "2023年度25位影响力企业领袖名单公布",
        "docid": "7311247477317829157",
        "url": ""
    },
    {
        "title": "A股：12月12号（周二）具有爆发力的四个板块，建议收藏！",
        "docid": "7311256287835177508",
        "url": ""
    },
    {
        "title": "一天挣八九百，适合夫妻两人干，这2个行业投资风险小，利润稳定",
        "docid": "7306839092850426419",
        "url": ""
    },
    {
        "title": "“已辞职”！“亿万富豪”之子最新透露",
        "docid": "7311233197512606249",
        "url": ""
    },
    {
        "title": "我是月薪8万的飞行员，在北京买房，疫情时，穷得连汉堡都吃不起",
        "docid": "7298101618521317561",
        "url": ""
    },
    {
        "title": "中国城市发展潜力排名：2023",
        "docid": "7283541123392766504",
        "url": ""
    },
    {
        "title": "三星集团最顺心的二公主李叙显，听父母言，事业爱情家庭双丰收",
        "docid": "7307611490553856563",
        "url": ""
    },
    {
        "title": "联通、移动、电信三大运营商真让人大开眼界，评论区都是泪啊！",
        "docid": "7303936996458840610",
        "url": ""
    },
    {
        "title": "人口过亿的河南只有4个民航机场，湖北8个，湖南9个，差距太大",
        "docid": "7278332828146926141",
        "url": ""
    },
    {
        "title": "北方十大城市最新出炉：青岛第3，西安第6，唐山第9",
        "docid": "7310543091205882394",
        "url": ""
    },
    {
        "title": "售楼员卖一套房能挣多少钱？教你识别销售套路，买房不踩坑！",
        "docid": "7308203133539320329",
        "url": ""
    },
    {
        "title": "快来看一下你社保卡，有没有这“两个字”？再忙也要留意一下！",
        "docid": "7291486191370437159",
        "url": ""
    },
    {
        "title": "俄罗斯为何腰杆这么硬？90%的芯片靠进口，不害怕美国芯片制裁",
        "docid": "7278484176662250024",
        "url": ""
    },
    {
        "title": "杀疯了！一个小县城，抢了全国90%的领带生意！",
        "docid": "7278968691730022953",
        "url": ""
    },
    {
        "title": "赚取第一个 100 万的 11 种现实方法",
        "docid": "7311181797218353727",
        "url": ""
    },
    {
        "title": "不要再被网络上一些片面信息洗脑了，中国股市并没有那么差！",
        "docid": "7311188728121508392",
        "url": ""
    },
    {
        "title": "天津一小区业主欠水费高达800余万元？自来水公司：小区至今总水费才470余万元",
        "docid": "7311231126570664458",
        "url": ""
    },
    {
        "title": "退休后，我不顾儿女反对，500万卖掉北京房子，到昆明买房养老",
        "docid": "7298405849144439920",
        "url": ""
    },
    {
        "title": "气的我肝疼！明明一年能挣几十万，但这2个生意还会被人瞧不上！",
        "docid": "7297139276024660543",
        "url": ""
    },
    {
        "title": "斯凯奇屡遭投诉，消费者不满鞋子开胶、皮革面开裂",
        "docid": "7309103922357568063",
        "url": ""
    },
    {
        "title": "李嘉诚“欧洲大撤退”！损失惨重，中国民族企业成为赢家？",
        "docid": "7310955079270613516",
        "url": ""
    },
    {
        "title": "76岁老人这样保管存款，子女开心自己省心，看完的人直呼：太聪明",
        "docid": "7306904899575349769",
        "url": ""
    },
    {
        "title": "上海最有钱的六个福建人，总身价超1200亿，神秘资本大鳄闯进前五",
        "docid": "7278289248464618039",
        "url": ""
    },
    {
        "title": "河南筹建一座大型机场，投资16.24亿元，场址已经确定",
        "docid": "7309144006770950694",
        "url": ""
    },
    {
        "title": "人口相差7700万，第一户籍人口河南却被北京轻松拿捏",
        "docid": "7287454394852016680",
        "url": ""
    },
    {
        "title": "黄河加盖项目忽悠到了美国？",
        "docid": "7310384120062935563",
        "url": ""
    },
    {
        "title": "今明两年，买房牢记7字真言“买小、买旧、不买三”，还别不信",
        "docid": "7303207168793199158",
        "url": ""
    },
    {
        "title": "或许你不信，成都主城竟有如此多单价三四千的楼盘！",
        "docid": "7310518020185932307",
        "url": ""
    },
    {
        "title": "中国移动：惊叹！45万员工只为8万股民争创造“睡后”收入！",
        "docid": "7311149060491248163",
        "url": ""
    },
    {
        "title": "炒股10年以上，有些人财富自由，而你却始终挣扎的原因？",
        "docid": "7310890569012691519",
        "url": ""
    },
    {
        "title": "河南信阳十位大富豪排行榜,坐拥身价583亿,两位创二代纷纷上榜",
        "docid": "7290089051003290166",
        "url": ""
    },
    {
        "title": "记录一下我的中签股票——中信金属",
        "docid": "7311163500116886055",
        "url": ""
    },
    {
        "title": "金价狂飙后又暴跌，到底是什么原因？皆因美联储？",
        "docid": "7310127030086189583",
        "url": ""
    },
    {
        "title": "隆基股份：横空出世，不负国望，致胜全球！",
        "docid": "7310846649344229922",
        "url": ""
    },
    {
        "title": "2023年江苏省苏州市最新十大富豪揭晓",
        "docid": "7308704308315341321",
        "url": ""
    },
    {
        "title": "不吹不黑 20w实盘 第75天 现63w",
        "docid": "7311229589261877779",
        "url": ""
    },
    {
        "title": "阅文集团：将以人民币6亿元代价收购腾讯动漫旗下包含腾讯动漫App平台等业务及资产",
        "docid": "7311306534116786729",
        "url": ""
    },
    {
        "title": "中移动凶猛，闷声投出1900亿",
        "docid": "7310175615502844456",
        "url": ""
    },
    {
        "title": "他在美国狂赚27年美金，拒绝加入美籍后，转身将864家公司搬回国",
        "docid": "7283706293096137252",
        "url": ""
    },
    {
        "title": "美国停止加息对我国房地产有什么影响",
        "docid": "7307091735639867923",
        "url": ""
    },
    {
        "title": "公安职业“提前退休”已成常态，创业经商之路走得通吗？",
        "docid": "7287095712633160228",
        "url": ""
    },
    {
        "title": "泸州老窖降价 白酒板块下挫 大消费怎么走？丨市场聚焦",
        "docid": "7311225449563046454",
        "url": ""
    },
    {
        "title": "您的银行卡是借记卡还是储蓄卡？两者的区别是什么？增加知识。",
        "docid": "7286338876799566396",
        "url": ""
    },
    {
        "title": "格力帝国的新成员：8个月签下11个基地，投资800亿元",
        "docid": "7286709713998283316",
        "url": ""
    },
    {
        "title": "股市风云！证监会大动作，50多犯罪分子被擒，市值超90亿元",
        "docid": "7310509515982815744",
        "url": ""
    },
    {
        "title": "宁德时代、电装、摩比斯、麦格纳、法雷奥、大陆等26家汽车零部件企业2023第三季度财报汇总",
        "docid": "7311113369254150656",
        "url": ""
    },
    {
        "title": "极简生活：多存钱，少消费 ​​​",
        "docid": "7303724119646831142",
        "url": ""
    },
    {
        "title": "今天A股有惊无险、集体收涨，是谁在拉涨？明天大盘还能涨吗？",
        "docid": "7311228676002251299",
        "url": ""
    },
    {
        "title": "女子因羽绒服口袋发现布料质疑存瑕疵，加拿大鹅：换货并致歉",
        "docid": "7311261165814923776",
        "url": ""
    },
    {
        "title": "收评：做好准备吧，明天不出意外的话，市场迎来关键性的大变盘!",
        "docid": "7311227245366968841",
        "url": ""
    },
    {
        "title": "那个为汶川捐款1亿的超级富豪，因身体透支，45岁因病去世了",
        "docid": "7311260250177569299",
        "url": ""
    },
    {
        "title": "苏州：“不得低于备案价格的85%”正被突破｜深圳楼市早7条",
        "docid": "7311122028298240527",
        "url": ""
    },
    {
        "title": "闵行梅陇：罗阳四村 一年跌幅之大 让人欲哭无泪",
        "docid": "7309090902365454899",
        "url": ""
    },
    {
        "title": "股市二次探底，熊市转牛市？",
        "docid": "7310965311506186815",
        "url": ""
    },
    {
        "title": "洛阳房价七连跌，洛阳楼市从神坛跌落，洛阳楼市12月最新分析",
        "docid": "7309451472989749814",
        "url": ""
    },
    {
        "title": "还在涨！12月11日铜价大涨！",
        "docid": "7311151258004554281",
        "url": ""
    },
    {
        "title": "跌了不要怕！大牛市重点关注以下币种！很有可能出现百倍币！",
        "docid": "7311237233204642314",
        "url": ""
    },
    {
        "title": "难以置信：一个500强企业，其创始人竟然在25年前就已经遇害",
        "docid": "7310755246463287862",
        "url": ""
    },
    {
        "title": "晚点独家丨微信视频号电商 GMV 超千亿元，微信支付团队将参与建设",
        "docid": "7311318392840110602",
        "url": ""
    },
    {
        "title": "小心“双十二”！网购翻车名场面，商家你睡着了吗？反正我睡不着",
        "docid": "7309734119720649228",
        "url": ""
    },
    {
        "title": "单亲妈妈的真实微信支付账单告诉你：为什么大家不敢花钱！",
        "docid": "7305564722676597300",
        "url": ""
    },
    {
        "title": "曾经的首富陈天桥：全家移居新加坡，请现役乒乓球国手陪自己打球",
        "docid": "7303899801371312675",
        "url": ""
    },
    {
        "title": "浪潮 205 亿、联想 96 亿、新华三 77 亿、超聚变 57 亿、宁畅 47 亿",
        "docid": "7310973814015083018",
        "url": ""
    },
    {
        "title": "唱衰房地产的人，快醒醒吧，房地产不会大幅度下跌，更没有泡沫！",
        "docid": "7301994095554085386",
        "url": ""
    },
    {
        "title": "99岁富豪的提醒：变富的关键并非埋头努力，而要靠3个认知",
        "docid": "7286743623796965903",
        "url": ""
    },
    {
        "title": "没有现金储备的家庭需注意，建议准备几万元，三大原因很棘手！",
        "docid": "7310097826237645322",
        "url": ""
    },
    {
        "title": "三大利好来袭！先立后破大盘下周重上三千大关，关注新能源+医药",
        "docid": "7310915662980530688",
        "url": ""
    },
    {
        "title": "来海南过冬有人提醒我，要小心个别人设局",
        "docid": "7309237946723353140",
        "url": ""
    },
    {
        "title": "三峡大坝已经运行了20年，当初投入的2500多亿元，如今回本了吗？",
        "docid": "7281267633042817592",
        "url": ""
    },
    {
        "title": "“拿下”烟草证，就可年入上万？烟酒店老板道出答案，让人意外！",
        "docid": "7311149283200254490",
        "url": ""
    },
    {
        "title": "三个人，Klook又融资15亿",
        "docid": "7311166789139153447",
        "url": ""
    },
    {
        "title": "天天吃肉：连续37个涨停仍没结束，还有180万封单等待买入？",
        "docid": "7311239702466970123",
        "url": ""
    },
    {
        "title": "82万股东失声！12块的三一重工连热榜都上不去了",
        "docid": "7311167993990988299",
        "url": ""
    },
    {
        "title": "港股持续下跌，已经跌回97年回归前的指数了",
        "docid": "7311245812049347111",
        "url": ""
    },
    {
        "title": "终于有人精确算出了实现美国梦的成本",
        "docid": "7310755584645857804",
        "url": ""
    },
    {
        "title": "A股：（周二）即将迎来爆发的三大板块，值得重点研究收藏！",
        "docid": "7311294603276206626",
        "url": ""
    },
    {
        "title": "算力，华为鸿蒙，6G,半导体等名单梳理",
        "docid": "7299427327971328547",
        "url": ""
    },
    {
        "title": "刚批复！总投资113亿！郑州市这三个地方计划拆迁",
        "docid": "7311226924528419382",
        "url": ""
    },
    {
        "title": "酸臭焦臭粪臭，猛烈来袭！沪上新建小区交房一年，700多户业主“恶心到吐”",
        "docid": "7311258006841246247",
        "url": ""
    },
    {
        "title": "A股：上午全线跳水，盘面出现一个重要信号，反弹马上就要开始了",
        "docid": "7311195417000051241",
        "url": ""
    },
    {
        "title": "一线城市房租跳水！只因房子不好卖只能转为出租，同时更多人因经济压力增大而选择“逃离北上广”",
        "docid": "7311255234066579978",
        "url": ""
    },
    {
        "title": "2007年以来真正意义上的牛市本周拉开帷幕",
        "docid": "7311162336969474600",
        "url": ""
    },
    {
        "title": "香港辉煌不再？曾经GDP是上海的6倍，新加坡的2倍，如今呢？",
        "docid": "7311206762512728613",
        "url": ""
    },
    {
        "title": "一年挣十几万没问题，还不用拼人脉，这个行业不起眼，但利润不小",
        "docid": "7304631239447839232",
        "url": ""
    },
    {
        "title": "2030年GDP10强预测：重庆第5，武汉第8，成都战胜苏州，长沙落榜",
        "docid": "7310523213065388559",
        "url": ""
    },
    {
        "title": "武汉22个企业获奖励！湖北省2023年工业重大增长点奖励名单出炉",
        "docid": "7311276845822083595",
        "url": ""
    },
    {
        "title": "电力!电力!电力!如同一道霓虹闪亮的箭矢，贯穿着我创富的征途。",
        "docid": "7311305988697735718",
        "url": ""
    },
    {
        "title": "退休后，能做到下面8条，你就是人生赢家了！",
        "docid": "7284597836455641637",
        "url": ""
    },
    {
        "title": "是谁在设计消费陷阱？",
        "docid": "7311208646166479369",
        "url": ""
    },
    {
        "title": "资产重组：4大公司晚间发布筹划重大资产重组等消息！",
        "docid": "7310968996861100571",
        "url": ""
    },
    {
        "title": "A股收评：探底回升是必然的，变盘已经开始，明天周二行情这么走",
        "docid": "7311230266062733836",
        "url": ""
    },
    {
        "title": "A股：预判全对，再这样下去，周二将继续迎来历史性的变盘！",
        "docid": "7311289937738252834",
        "url": ""
    },
    {
        "title": "“现世报”！捐给美国7000万，叫嚣中国穷与我无关，回国就破产",
        "docid": "7293837160019427859",
        "url": ""
    },
    {
        "title": "1-10月地方财政收入20强城市出炉：天津超广州、成都超南京",
        "docid": "7310499685457035776",
        "url": ""
    },
    {
        "title": "美国商务部长示警黄仁勋“芯片不准卖中国”，英伟达将如何延续？",
        "docid": "7310269080345379354",
        "url": ""
    },
    {
        "title": "未来牛市十大龙头板块猜想",
        "docid": "7310193677748830731",
        "url": ""
    },
    {
        "title": "格力再次“出招”打造取暖电器，围观！2023最受欢迎的4款取暖器",
        "docid": "7303912182335881769",
        "url": ""
    },
    {
        "title": "山东省78个县上半年GDP：邹城市第3，齐河县第35，3县不到百亿",
        "docid": "7302238835311395366",
        "url": ""
    },
    {
        "title": "永泰能源：管理15座优质焦煤煤矿和4座火电厂，拥有2150万吨/年码头吞吐能力的油品码头和油库",
        "docid": "7311137657558778368",
        "url": ""
    },
    {
        "title": "320轮，从上午拍到天黑！杭州一江景豪宅12.62万元/㎡成交",
        "docid": "7310579498322575907",
        "url": ""
    },
    {
        "title": "中国生产了全世界30%的产品，却只消费了13%，一...",
        "docid": "7310472214514500148",
        "url": ""
    },
    {
        "title": "黑龙江佳木斯三大富豪，坐拥身价81亿，首富靠承包食堂发家",
        "docid": "7289373900654461459",
        "url": ""
    },
    {
        "title": "各种支付通道的优缺点",
        "docid": "7311149779256525324",
        "url": ""
    },
    {
        "title": "中国花2400亿买下破烂油田，多年后成为世界第二大油田",
        "docid": "7290519736004641337",
        "url": ""
    },
    {
        "title": "王小川：中国大模型第一梯队不超过5家，我们会是其中之一",
        "docid": "7291296953114116662",
        "url": ""
    },
    {
        "title": "五家国有银行的信用评级被下调，是怎么回事？影响大吗",
        "docid": "7311253217885618740",
        "url": ""
    },
    {
        "title": "中国电视市场月报：海信领跑 TCL、小米位列二三",
        "docid": "7311255151980266019",
        "url": ""
    },
    {
        "title": "4500元退休金在辽宁沈阳是什么水平，牛大爷说句大实话",
        "docid": "7309419111430242825",
        "url": ""
    },
    {
        "title": "A股三大股指探底回升飘红，逾3900股收涨",
        "docid": "7311232279035101736",
        "url": ""
    },
    {
        "title": "我在美国做飞行员，买1550㎡房，群租月入十几万，卖房净赚700万",
        "docid": "7290083720374141492",
        "url": ""
    },
    {
        "title": "简单有效的强制存钱法，帮我攒下人生第一个60w",
        "docid": "7278128558013186599",
        "url": ""
    },
    {
        "title": "撤销！海螺水泥多个新建熟料线项目何去何从",
        "docid": "7311285308669067826",
        "url": ""
    },
    {
        "title": "今日油价12月11日95号汽油、92号最新油价",
        "docid": "7311143728591749644",
        "url": ""
    }
]