[
    {
        "title": "连续4年亏损95亿，经过7次腰斩，股价从229跌到2.2，这",
        "docid": "7300908251137966592",
        "url": ""
    },
    {
        "title": "中国最大的乌龙事件，本想在荒漠建造电厂，却意外收获了一个牧场",
        "docid": "7270356227975643685",
        "url": ""
    },
    {
        "title": "张捷教授：南方某新能源是外资投资起家的买办！有何深意！",
        "docid": "7301141338232701474",
        "url": ""
    },
    {
        "title": "4平米小屋住母子二人，2平米住美女教练，香港人的蚁居一言难尽",
        "docid": "7300894946884846115",
        "url": ""
    },
    {
        "title": "一万人中有多少人活到退休年龄？退休后戒掉3样东西，晚年更幸福",
        "docid": "7280745276741173775",
        "url": ""
    },
    {
        "title": "中国在发电基地放了几只羊，世界性的难题，就这样被羊解决了",
        "docid": "7296476939567530548",
        "url": ""
    },
    {
        "title": "中央确定全国十大城市：重庆第4，天津第7，杭州、南京皆无缘",
        "docid": "7297884316564996627",
        "url": ""
    },
    {
        "title": "从湖南电视台离职，她花光积蓄买100㎡房子独居：无社交、很快乐",
        "docid": "7289253733756879414",
        "url": ""
    },
    {
        "title": "贾跃亭套现200亿，收割完中国大佬和股民后，开始收割美国富豪了",
        "docid": "7301312560433857059",
        "url": ""
    },
    {
        "title": "人口数据显示：逃离北上广深，正从“笑谈”变成“现实”",
        "docid": "7269902830700347919",
        "url": ""
    },
    {
        "title": "同样是垄断，电网和烟草总被肯定和赞扬，而两桶油却为何总被吐槽",
        "docid": "7301284915864797750",
        "url": ""
    },
    {
        "title": "曾5天赚280万出门有6名保镖保护，破产后一夜白头，今卖包子暴富",
        "docid": "7296662311413072434",
        "url": ""
    },
    {
        "title": "不出意外的话！未来中国50%的人口，都将聚集到这6大城市群！",
        "docid": "7300885335389504038",
        "url": ""
    },
    {
        "title": "俄罗斯远东开发的困局：步子太大迈不开；但不开发又保不住",
        "docid": "7287621705588179490",
        "url": ""
    },
    {
        "title": "医保卡里的余额用光了，会影响报销吗？搞清这两个账户就知道了！",
        "docid": "7291603940633068095",
        "url": ""
    },
    {
        "title": "俞敏洪问余秀华：你一定在想怎么写诗吧？余回答：我在想怎么睡他",
        "docid": "7301230125910344242",
        "url": ""
    },
    {
        "title": "屈辱性砍价背后的仇富心态，断送的不止是中产",
        "docid": "7300451389090628159",
        "url": ""
    },
    {
        "title": "最新统计，各大公司公积金缴纳比例。",
        "docid": "7300468234564698651",
        "url": ""
    },
    {
        "title": "人民币暴涨700点！今年最意外数据出现，美联储正式投降",
        "docid": "7301659375331050023",
        "url": ""
    },
    {
        "title": "世界上穷的“只有钱”的国家：依靠卖钱生活，路上掉一亿没人愿捡",
        "docid": "7299409518516175395",
        "url": ""
    },
    {
        "title": "存了二十万是什么感受？多少存款是穷人？",
        "docid": "7297797433348686355",
        "url": ""
    },
    {
        "title": "【深度】房地产红利不再，学土建的状元们陷入职业困局",
        "docid": "7301131207344226857",
        "url": ""
    },
    {
        "title": "福岛核电站事故发生后，日本扩大木屑颗粒进口，今年还将继续！",
        "docid": "7271097162237264418",
        "url": ""
    },
    {
        "title": "医护人员被投诉的奇葩理由，怪不得他们是病人",
        "docid": "7269618668072337956",
        "url": ""
    },
    {
        "title": "眼下比2008年更糟糕！华尔街大鳄：实际情况比新闻头条更悲观，应该购买黄金和白银",
        "docid": "7301206520069833227",
        "url": ""
    },
    {
        "title": "表哥从工商银行退休了，说说他的退休金",
        "docid": "7297460754046009892",
        "url": ""
    },
    {
        "title": "津巴布韦：“穷”到只剩下钱的国家，花钱论斤称，造世界最大币值",
        "docid": "7299040905905373715",
        "url": ""
    },
    {
        "title": "亲历日本支付江湖：一切像极了中国互联网的十年前",
        "docid": "7288217894700237364",
        "url": ""
    },
    {
        "title": "如果你不小心掉进钢水中，是先感受到疼痛，还是不会痛直接化了？",
        "docid": "7281837249829143055",
        "url": ""
    },
    {
        "title": "为复仇败光125亿家产的山西首富李兆会，携款潜逃还是生死未卜？",
        "docid": "7242483930270958083",
        "url": ""
    },
    {
        "title": "财产超百万的老人们，正躺在垃圾屋里等死？",
        "docid": "7289261407340724788",
        "url": ""
    },
    {
        "title": "工龄42年，上月刚办退休，今天看到养老金，真是让人羡慕",
        "docid": "7269612191303991871",
        "url": ""
    },
    {
        "title": "埃及、以色列等国都想要的7万平方公里“大盆”，装有石油2亿吨？",
        "docid": "7290380423509672484",
        "url": ""
    },
    {
        "title": "蔡崇信，刚投了一个独角兽",
        "docid": "7299385326706082358",
        "url": ""
    },
    {
        "title": "胡锡进:联想的全球化中国第一，销量全球第一，最伟大的中国企业",
        "docid": "7301474849015202315",
        "url": ""
    },
    {
        "title": "珠海教育局李翔：我不认识陈总，让亿万富翁亲自开车接送的不是我",
        "docid": "7301136925367599653",
        "url": ""
    },
    {
        "title": "老年人大规模去世，虽不用发养老金了，但造成的社会问题难以估量",
        "docid": "7301142812173582887",
        "url": ""
    },
    {
        "title": "降低入籍门槛，大量引进亚非籍人口，可行吗？",
        "docid": "7299764518534873634",
        "url": ""
    },
    {
        "title": "广州的“黑色未来”：中黑混血儿数飙升，社会将面临怎样的挑战？",
        "docid": "7301614422454272552",
        "url": ""
    },
    {
        "title": "长江中唯一的沙洲城市，城在江中，四面被江水环绕",
        "docid": "7270822121734029885",
        "url": ""
    },
    {
        "title": "“便利店生意从来没有像今年这样难做过”",
        "docid": "7301598787284550182",
        "url": ""
    },
    {
        "title": "为什么说中国全面开放制造业准入 是踩踏在美国的痛点上！",
        "docid": "7301624902011011638",
        "url": ""
    },
    {
        "title": "太震惊了！原来香港大街上的都是菲佣！收入还不如一个洗碗工！",
        "docid": "7285544034209153590",
        "url": ""
    },
    {
        "title": "为什么主卧带卫生间的房子，越来越不受欢迎？5个弊端无法接受！",
        "docid": "7298975123300860455",
        "url": ""
    },
    {
        "title": "基金经理老鼠仓，获利530多万被查，你还敢买基金吗？",
        "docid": "7301097027868377615",
        "url": ""
    },
    {
        "title": "印度反对中国建雅鲁藏布江水电站，如今才彻底明白，真不是一般精",
        "docid": "7282270983271055911",
        "url": ""
    },
    {
        "title": "中国最出名的4位“败家子”，有人欠债百亿人间蒸发，有人被逮捕",
        "docid": "7301569341425074740",
        "url": ""
    },
    {
        "title": "三峡大坝已经运行了20年，当初投入的2500多亿元，如今回本了吗？",
        "docid": "7281267633042817592",
        "url": ""
    },
    {
        "title": "“刘格菘们”，全军覆没",
        "docid": "7301123256243814953",
        "url": ""
    },
    {
        "title": "不得不说以色列人确实聪明厉害，把常年战乱的地区都能发展成国家",
        "docid": "7298719690179494435",
        "url": ""
    },
    {
        "title": "耶伦指责中国“没资格”，这次世行没按美方的剧本走，拜登失算了",
        "docid": "7300450751548211749",
        "url": ""
    },
    {
        "title": "鬼秤？大连市场监督局摊上事了，有钱没地方花，要把秤送去无锡测",
        "docid": "7300840019327992354",
        "url": ""
    },
    {
        "title": "2023中部县域经济百强榜",
        "docid": "7301588848851763739",
        "url": ""
    },
    {
        "title": "她60岁，退休金10300，退休第10天去世，儿子狂扇耳光：都是我错",
        "docid": "7298218611683999995",
        "url": ""
    },
    {
        "title": "中美俄煤矿储备对比，美国储量超3000亿吨，俄超2000亿吨，中国呢",
        "docid": "7299031569153638966",
        "url": ""
    },
    {
        "title": "招商银行股价跌至冰点",
        "docid": "7300962421236154899",
        "url": ""
    },
    {
        "title": "一篇文章带你看完世界最有价值的钱都长什么样，世界货币排行榜",
        "docid": "7299676662336176655",
        "url": ""
    },
    {
        "title": "鼓动阶级斗争的人到底想做什么？？",
        "docid": "7299356649167684115",
        "url": ""
    },
    {
        "title": "Facebook、Instagram 增速首次反超 TikTok，做对了什么？",
        "docid": "7301301781168964136",
        "url": ""
    },
    {
        "title": "你有没有什么\"烧钱\"，却戒不掉的爱好？",
        "docid": "7300867814439977484",
        "url": ""
    },
    {
        "title": "退休人员去世，遗属别忘记领这7笔钱，错过真的太可惜",
        "docid": "7269593430870000186",
        "url": ""
    },
    {
        "title": "适合30-50岁做的三个生意，门槛比较低，每月赚3-4万很轻松！",
        "docid": "7287127149176406589",
        "url": ""
    },
    {
        "title": "我的三个劝告：工作、股票和减肥",
        "docid": "7287561717423292963",
        "url": ""
    },
    {
        "title": "桂林一个水电站拍卖，被10个合伙人以起拍价2800万拿下",
        "docid": "7300924911340716607",
        "url": ""
    },
    {
        "title": "一年赚5亿，参哥商业模式和阿米巴玩法揭秘",
        "docid": "7300028329598910985",
        "url": ""
    },
    {
        "title": "日入过万，8个月倒闭，开零食店好比坐过山车",
        "docid": "7292430221653869096",
        "url": ""
    },
    {
        "title": "国家发改委：改善居民消费能力和预期 落实落细就业优先政策",
        "docid": "7301884400777036323",
        "url": ""
    },
    {
        "title": "真要“穷疯”了？这些原本都是免费的东西，为何开始收费了？",
        "docid": "7300120149548958227",
        "url": ""
    },
    {
        "title": "四位专家的建议没被采纳？反而还遭到老百姓骂声一片？怎么回事？",
        "docid": "7294516205212353074",
        "url": ""
    },
    {
        "title": "深圳楼市的艰难，已超预期",
        "docid": "7299488742564643368",
        "url": ""
    },
    {
        "title": "首揭中国科创力榜前十：哪些企业在行内独占鳌头？",
        "docid": "7282697701690180111",
        "url": ""
    },
    {
        "title": "中国在发电站放了几千只羊，一个世界性难题，就这样轻易给解决了",
        "docid": "7300894975133614603",
        "url": ""
    },
    {
        "title": "月薪两万逛不起服装店 为什么实体店的衣服这么贵？",
        "docid": "7290445179088388662",
        "url": ""
    },
    {
        "title": "杭州30亿量化跑路事件冲击扩大：投资者惊慌失措，监管漏洞现原形",
        "docid": "7301701213920346635",
        "url": ""
    },
    {
        "title": "中国女首富她哪来这么多钱，以7800亿超越华为成为国内最大民企！",
        "docid": "7301148566238560822",
        "url": ""
    },
    {
        "title": "中美GDP差距越来越大，很多人润出去了，到底是怎么回事？",
        "docid": "7275915642501333504",
        "url": ""
    },
    {
        "title": "宇文泰的创业经历才是历史的常态",
        "docid": "7273098983420658237",
        "url": ""
    },
    {
        "title": "看完评论终于知道为什么没人黑国家电网了！",
        "docid": "7300425631517737512",
        "url": ""
    },
    {
        "title": "23年10月份失业率出炉，网友回复太逗了",
        "docid": "7301696307888947712",
        "url": ""
    },
    {
        "title": "有300万存款算有钱人吗？放在银行 可以不上班 实现财富自由吗？",
        "docid": "7288380032026788387",
        "url": ""
    },
    {
        "title": "当今社会，有100万还能称百万富翁吗？银行人：肯定算富翁了！",
        "docid": "7274576458289332793",
        "url": ""
    },
    {
        "title": "“得B级车者得天下”，最新B级车质量排名:H5第2，雅阁、迈腾达标",
        "docid": "7281158883865887268",
        "url": ""
    },
    {
        "title": "连续多日上热搜，被董明珠看重的王自如在格力到底做了什么？",
        "docid": "7301550562812625417",
        "url": ""
    },
    {
        "title": "原价2899直播间卖449，有店铺同款只要200多？贾乃亮和商家回应……",
        "docid": "7301630136862900776",
        "url": ""
    },
    {
        "title": "后生可畏，年轻人将房价彻底打下来，炒房客发财梦破碎",
        "docid": "7298938779623014939",
        "url": ""
    },
    {
        "title": "回县城千万不能做的8个生意",
        "docid": "7281078718192484919",
        "url": ""
    },
    {
        "title": "网上订酒店一定要跟酒店确认价格，网友的回答令人深思",
        "docid": "7284191503655043620",
        "url": ""
    },
    {
        "title": "北方真实实力前十：青岛第3，郑州远超西安，石家庄第9",
        "docid": "7301147415598367242",
        "url": ""
    },
    {
        "title": "滑稽！男子与家人在庭院内聚餐，女执法员竟要求办理聚餐相关证件",
        "docid": "7300782460957360677",
        "url": ""
    },
    {
        "title": "广东未来发展猜想：打造第二个“深圳”，双核心城市，佛山落选",
        "docid": "7281961202144854584",
        "url": ""
    },
    {
        "title": "中美之间的差距在哪？专家：中国从14亿中选人才，而美国则是77亿",
        "docid": "7275592939253678651",
        "url": ""
    },
    {
        "title": "房价下跌是错觉，千万不要被表象迷惑了。最近各大城市二手房挂",
        "docid": "7301165050344407552",
        "url": ""
    },
    {
        "title": "首先纠正一个误区刷了医保卡医保报销终于有人把医保报销讲清楚了",
        "docid": "7301543253630108200",
        "url": ""
    },
    {
        "title": "以前2毛一个，如今却当成垃圾扔掉，为啥啤酒厂不回收啤酒瓶了？",
        "docid": "7291605600033702419",
        "url": ""
    },
    {
        "title": "民政部：今年前三季度全国569万对新人登记结婚",
        "docid": "7300020058527384105",
        "url": ""
    },
    {
        "title": "光大集团如何成为银行“阎王”：许老板揭开生死簿的神秘面纱！",
        "docid": "7287870840941969932",
        "url": ""
    },
    {
        "title": "清醒点吧！中国股市已经变了不可能在3000点走出以前那种大牛市！",
        "docid": "7300569241102090771",
        "url": ""
    },
    {
        "title": "意尔康老板为母亲庆90大寿！员工桌喝茅台吃澳龙帝王蟹，捐1100万",
        "docid": "7300754327814521398",
        "url": ""
    },
    {
        "title": "退休后，不管在谁面前，都不要亮出这3张“底牌”",
        "docid": "7296496405084946980",
        "url": ""
    },
    {
        "title": "不要再争了，电动车最新排行榜已发布！前五名都在这了",
        "docid": "7298341685913109030",
        "url": ""
    },
    {
        "title": "买房时“一次性付清”和“还贷20年”，区别有多大？幸亏知道得早",
        "docid": "7300142293288403519",
        "url": ""
    },
    {
        "title": "【紧急召回！退款！】知名牛奶检出兽药！网友疯狂转发！",
        "docid": "7301564515592815114",
        "url": ""
    },
    {
        "title": "只要不怕没面子，月入3万不难实现，这3个实体行业，干好真暴利！",
        "docid": "7294820582393315892",
        "url": ""
    },
    {
        "title": "按规定询问客户存取款用途，客户狂怒，终究是柜员扛下了所有。",
        "docid": "7289822289795744313",
        "url": ""
    },
    {
        "title": "当前的工抵房比例已经到达疯狂的程度了",
        "docid": "7301642530981708325",
        "url": ""
    },
    {
        "title": "通过一次高速长途用车，看新能源纯电动汽车的用车成本",
        "docid": "7268635103436898827",
        "url": ""
    },
    {
        "title": "通缩是什么：“当瓜农卖不出西瓜的时候，来年可能不再种植”。",
        "docid": "7299748674681864745",
        "url": ""
    },
    {
        "title": "警惕！撤资我大A市场！犹太资本财团在打什么算盘？",
        "docid": "7300939839699092004",
        "url": ""
    },
    {
        "title": "世上再无印度？印度要改名“巴拉特”，到底有啥目的？",
        "docid": "7281145622445507072",
        "url": ""
    },
    {
        "title": "买完房后，这几张纸一定妥善保管！比房产证更重要，你的还在吗？",
        "docid": "7277935906827289144",
        "url": ""
    },
    {
        "title": "我开了五年燃油车，又买了新能源，一算账，发现各方面差距明显",
        "docid": "7282019748236427839",
        "url": ""
    },
    {
        "title": "马云又金口预言，把存款换成这几样东西，未来几十年都不会贬值！",
        "docid": "7300867025843814949",
        "url": ""
    },
    {
        "title": "理想汽车把消费主义忽悠瘸了",
        "docid": "7277865659512635959",
        "url": ""
    },
    {
        "title": "退款1亿！退货率99%，网红被割韭菜",
        "docid": "7300578623587631642",
        "url": ""
    },
    {
        "title": "关闭监控、抢走手机、扎破车胎，开始动手打人！\"烂尾楼夫妇\"被打",
        "docid": "7301712145820123684",
        "url": ""
    },
    {
        "title": "马光远所言非虚！未来中国40%以上家庭，将不得不面对“4大难题”",
        "docid": "7301267409829216820",
        "url": ""
    },
    {
        "title": "上海急了！也要抢人自救了！",
        "docid": "7300732073659138571",
        "url": ""
    },
    {
        "title": "备受争议的“法系车”，到底适合什么样的消费者？",
        "docid": "7270447135534580278",
        "url": ""
    },
    {
        "title": "为什么越来越多人选择住酒店，而不是宾馆呢？内行人说出原因",
        "docid": "7298651895659266599",
        "url": ""
    },
    {
        "title": "“马云黄晓明们”损失惨重：巨资买入的法国酒庄，烂尾了",
        "docid": "7301235554593587712",
        "url": ""
    },
    {
        "title": "畸形的轮胎市场：外国人热爱用的中国轮胎，国人为何就是不买账？",
        "docid": "7294561854922162739",
        "url": ""
    },
    {
        "title": "上海楼市跌落神坛，上海房价九连跌，上海新房数量太多了",
        "docid": "7300499085436666407",
        "url": ""
    },
    {
        "title": "我发誓，再买房子一定不买高楼层了，不是瞎说，是真受够了",
        "docid": "7282574853956207162",
        "url": ""
    },
    {
        "title": "社会“又一怪象”：很多商铺倒闭，唯有这几个行业越来越多？",
        "docid": "7299758857382478371",
        "url": ""
    },
    {
        "title": "一套30万买进的“海景房”，如今只能8万卖出，困住了一家人！",
        "docid": "7300567370702586431",
        "url": ""
    },
    {
        "title": "卤味为什么卖不动了？50一斤的鸭脖网友直呼不敢买！",
        "docid": "7291833914442875432",
        "url": ""
    },
    {
        "title": "慎撸！小心喜提银手镯！",
        "docid": "7300775124825833999",
        "url": ""
    },
    {
        "title": "去掉部分头骨，植入芯片，数千人愿当志愿者！马斯克脑机接口计划有新进展",
        "docid": "7299966767219147327",
        "url": ""
    },
    {
        "title": "成都楼市的神话结束了，成都房价四连跌，成都楼市11月分析",
        "docid": "7299711476141556264",
        "url": ""
    },
    {
        "title": "退休老人平均能活到75岁吗？看一看退休老人能领多少年养老金？",
        "docid": "7270901342615716371",
        "url": ""
    },
    {
        "title": "国企副总被实名举报！最新进展来了",
        "docid": "7301605480831697418",
        "url": ""
    },
    {
        "title": "俄罗斯发展到什么程度了？18个事实告诉你",
        "docid": "7301826317774094857",
        "url": ""
    },
    {
        "title": "独家|还原“30亿私募跑路”：幕后操盘人被控制，杭州瑜瑶2.9亿违约引爆连环雷",
        "docid": "7301913294531576331",
        "url": ""
    },
    {
        "title": "等等，别着急卖房，转机来了！",
        "docid": "7301587387442889228",
        "url": ""
    },
    {
        "title": "不听劝，买了“一楼带院子”的房子，入住5年，有些话不吐不快",
        "docid": "7298381453061521961",
        "url": ""
    },
    {
        "title": "世界大骗局：正威集团囤积良田万亩，1亿工程款都无力偿付",
        "docid": "7299773347800891958",
        "url": ""
    },
    {
        "title": "再聊聊大家推荐的，我喜欢的10个优质自媒体",
        "docid": "7275492687170601472",
        "url": ""
    },
    {
        "title": "167平米网红户型：卧室区域设计合理！",
        "docid": "7290012442564805172",
        "url": ""
    },
    {
        "title": "近一个月，为何京沪楼市的砸盘现象会逐步失控",
        "docid": "7301485533245669942",
        "url": ""
    },
    {
        "title": "今明两年买房，请牢记7字真言：“买新、买中、不买三”，很关键",
        "docid": "7281942152672772666",
        "url": ""
    },
    {
        "title": "摊牌了！耶伦表态：33万亿美债无需担忧，那只是“一串数字”",
        "docid": "7301592843666194959",
        "url": ""
    },
    {
        "title": "中央确定西南地区九大城市：重庆远超成都，贵阳第4，拉萨无缘",
        "docid": "7268947772093792808",
        "url": ""
    },
    {
        "title": "为什么有大量的业主不交物业费？",
        "docid": "7285362884299833913",
        "url": ""
    },
    {
        "title": "211万户！中国千万资产家庭数量激增，财富格局再次改写",
        "docid": "7300843334216647202",
        "url": ""
    },
    {
        "title": "电动车市场发展最快的3个品牌，不是雅迪、也不是爱玛，答案来了",
        "docid": "7268919414198714914",
        "url": ""
    },
    {
        "title": "\"马云的预言再现神准！11月带你见证全球经济巨变的时刻！\"",
        "docid": "7301658776833327670",
        "url": ""
    },
    {
        "title": "11月16日午评：缩量下跌，下午不出意外，市场只会这样走！",
        "docid": "7301876141625737782",
        "url": ""
    },
    {
        "title": "“烟草大王”褚时健墓，造价超百万，豪华气派，引发争议",
        "docid": "7300186463868633652",
        "url": ""
    },
    {
        "title": "福建将诞生第二个“泉州”，2035年GDP破万亿，成为省域副中心",
        "docid": "7279255838756389391",
        "url": ""
    },
    {
        "title": "广东省各市最牛企业",
        "docid": "7299142644335411764",
        "url": ""
    },
    {
        "title": "香港顶级风水师蔡伯励：为霍英东选墓，用一句话让李嘉诚掏200万",
        "docid": "7301233469143679540",
        "url": ""
    },
    {
        "title": "公积金取是不取？一分钟教你网上如何提取，符合条件一小时就到账",
        "docid": "7272171520523420201",
        "url": ""
    },
    {
        "title": "浙江义乌一房东免费送租客30斤青菜：是自家种的，跟他们就像朋友",
        "docid": "7301170091096375847",
        "url": ""
    },
    {
        "title": "07年，我在深圳建了一栋12层的出租房，每年收租30万，如今却后悔",
        "docid": "7269316679195198007",
        "url": ""
    },
    {
        "title": "被双11套路劝退的年轻人，该怎么买东西？",
        "docid": "7301921735346094646",
        "url": ""
    },
    {
        "title": "李大霄劝散户离场，股市不是普通的投资市场，我们都是受害者",
        "docid": "7301866804727530011",
        "url": ""
    },
    {
        "title": "步梯房再便宜也不要买，我现在很后悔，巴不得立刻把房子卖了！",
        "docid": "7296659494308971042",
        "url": ""
    },
    {
        "title": "河南小伙李帅：身高1.1米，靠投资当老板，还娶了美娇妻！",
        "docid": "7276622237615129088",
        "url": ""
    },
    {
        "title": "您的银行卡是借记卡还是储蓄卡？两者的区别是什么？增加知识。",
        "docid": "7286338876799566396",
        "url": ""
    },
    {
        "title": "夫妻各存50万银行倒闭赔多少",
        "docid": "7274917241278480911",
        "url": ""
    },
    {
        "title": "2023年“双11”消费洞察报告（看今年消费的七大趋势）",
        "docid": "7300936560147464745",
        "url": ""
    },
    {
        "title": "房子降价，中心城区也无法避免！业主：没想过房价会跌",
        "docid": "7301632884572471835",
        "url": ""
    },
    {
        "title": "美元崩盘！全球市场狂欢，经济大衰退已经迫在眉睫",
        "docid": "7301829963232313867",
        "url": ""
    },
    {
        "title": "2023年中国企业500强，前十全部是国企，华为第32位，京东第15位",
        "docid": "7281185603260465725",
        "url": ""
    },
    {
        "title": "中国股市最赚钱的只有一种人：从亏损到盈利全靠这一补仓法，牢记",
        "docid": "7301558567163937314",
        "url": ""
    },
    {
        "title": "站起来了，男人消费能力首次超过狗",
        "docid": "7299846205113401896",
        "url": ""
    },
    {
        "title": "为什么一梯一户搬走的人越来越多？过来人说出4大缺点，确实糟心",
        "docid": "7301632033699611186",
        "url": ""
    },
    {
        "title": "青岛又多了家“千亿级”企业：年收入1068亿元，仅次于海尔、海信",
        "docid": "7299642546064785960",
        "url": ""
    },
    {
        "title": "黄埔区的二手房跌的已经没眼看了！",
        "docid": "7301874641792942632",
        "url": ""
    },
    {
        "title": "美国人修公路时，预埋的一层轮胎有什么用？中国为何不效仿？",
        "docid": "7276827891151798840",
        "url": ""
    },
    {
        "title": "油价“大幅”下调！加油站调价后汽油价格创下新低！",
        "docid": "7300077233627234868",
        "url": ""
    },
    {
        "title": "全球50%的铜都供应中国，我们自己产量也很大，为何还那么缺铜？",
        "docid": "7272327670371779113",
        "url": ""
    },
    {
        "title": "今年“双11”为什么突然就冷清了？",
        "docid": "7301154794683613735",
        "url": ""
    },
    {
        "title": "电动车品质好坏可分5档，雅迪、爱玛属第二档，第一档有哪些品牌",
        "docid": "7285591135274517007",
        "url": ""
    },
    {
        "title": "行情出意外了？再这样下去，A股变盘的历史会重演",
        "docid": "7301894459020165667",
        "url": ""
    },
    {
        "title": "失业保险金最长可领3年，最高达2478元，领了是否会影响养老金？",
        "docid": "7270149653834760758",
        "url": ""
    },
    {
        "title": "螃蟹价格跳水！网友：再便宜再大也不敢吃， 怕命不够硬",
        "docid": "7301874981724520997",
        "url": ""
    },
    {
        "title": "只要不怕脏，一月能挣上三五万，这3个商机很挣钱，在农村干正好",
        "docid": "7293059710020928012",
        "url": ""
    },
    {
        "title": "“买房”和“不买房”有何区别？内行人：10年后，生活就会不一样",
        "docid": "7300145953019806218",
        "url": ""
    },
    {
        "title": "蚂蚁吞大象？生产歼20的成飞集团仅174亿就被收购，用意耐人寻味",
        "docid": "7301562831189869110",
        "url": ""
    },
    {
        "title": "午评：坐稳扶好！下午(11月16日)不出意外，A股不会有黑色星期四",
        "docid": "7301868903397851711",
        "url": ""
    },
    {
        "title": "买房的和卖房的僵持住了！到最后看谁先认输。有的炒房客另辟蹊径",
        "docid": "7301880074327163455",
        "url": ""
    },
    {
        "title": "中国首次！宁德时代曾毓群荣获2023年诺贝尔可持续发展特别贡献奖",
        "docid": "7301875768827691559",
        "url": ""
    },
    {
        "title": "吓到腿软：量化私募年度亏损95%，拍屁股走人？",
        "docid": "7301522450670518796",
        "url": ""
    },
    {
        "title": "青白江的楼市危机，为什么青白江的房价如此低",
        "docid": "7281914533739086373",
        "url": ""
    },
    {
        "title": "196平米的华丽户型，室内行走路径很流畅！",
        "docid": "7268955057494983220",
        "url": ""
    },
    {
        "title": "买二手房的血泪教训",
        "docid": "7275384493580616233",
        "url": ""
    },
    {
        "title": "独家｜黑石集团有意出售11个物流园：总价超百亿元，已有意向买家",
        "docid": "7301976267719557632",
        "url": ""
    },
    {
        "title": "谁说小买卖利润低？这2个行业投资不大，一年照样能收入20万以上",
        "docid": "7286111870262706727",
        "url": ""
    },
    {
        "title": "全国最新地级市30强大排名：泉州领先东莞，榆林第18，淮安入围",
        "docid": "7271465252133569079",
        "url": ""
    },
    {
        "title": "河南的落寞，净高5300多万人口，却即将被江西后来居上",
        "docid": "7282258454713188899",
        "url": ""
    },
    {
        "title": "带连廊的中间户住起来什么感觉？师傅说出实话，谈谈真实入住体验",
        "docid": "7277205614768570880",
        "url": ""
    },
    {
        "title": "郑州房价七连跌，郑州楼市跌落神坛，郑州楼市11月分析",
        "docid": "7300529812790608393",
        "url": ""
    },
    {
        "title": "为什么很多有钱人，都销声匿迹了？原因其实很简单",
        "docid": "7268551743921750583",
        "url": ""
    },
    {
        "title": "电动车价格高低分为5档，小牛、九号能算第2档，第1档品牌有哪些",
        "docid": "7286065302855582243",
        "url": ""
    },
    {
        "title": "人口过亿的河南只有4个民航机场，湖北8个，湖南9个，差距太大",
        "docid": "7278332828146926141",
        "url": ""
    },
    {
        "title": "高瓴资本张磊：判断一个人是否靠谱，关键看4个维度",
        "docid": "7274570703960031784",
        "url": ""
    },
    {
        "title": "存下二十万后，我与存钱和解了",
        "docid": "7297426698122035751",
        "url": ""
    },
    {
        "title": "网易2023年Q3财报：净收入273亿元，净利润86亿元",
        "docid": "7301976851344343586",
        "url": ""
    },
    {
        "title": "朱同学直播账号被封了，千万粉丝梦想破灭，财务自由计划也落空了",
        "docid": "7301195702217114153",
        "url": ""
    },
    {
        "title": "1963年出生，37年工龄，拿到退休金的那一刻，我沉默了",
        "docid": "7268596097487045139",
        "url": ""
    },
    {
        "title": "弯道超车失败，三个坏消息传来，外媒：暴露了真实水平",
        "docid": "7301177570715271720",
        "url": ""
    },
    {
        "title": "谁让他发言的？杨元庆谈突破卡脖子难题！被人质疑组装厂谈创新",
        "docid": "7299828702739710473",
        "url": ""
    },
    {
        "title": "美国赚钱中国花？从美国卷走126亿可判465年，这才是最牛企业家",
        "docid": "7291970624644694565",
        "url": ""
    },
    {
        "title": "中国“最牛”的地级市，GDP2.4万亿碾压直辖市，如今升为特大城市",
        "docid": "7281249734935708175",
        "url": ""
    },
    {
        "title": "陈金陵：从亿万富豪到乞丐，你知道我经历了什么吗？",
        "docid": "7298196229232804352",
        "url": ""
    },
    {
        "title": "天才少年茅侃侃：高中辍学创业，23岁身家6000万，35岁却自杀身亡",
        "docid": "7297149690813432360",
        "url": ""
    },
    {
        "title": "从“劳模”到“最美奋斗者”——许家印与叶有芝的荒诞人生",
        "docid": "7300870114910487074",
        "url": ""
    },
    {
        "title": "钱为何不能在银行过夜，而要每天来回押运现金？存的钱送哪去了？",
        "docid": "7297178671260320310",
        "url": ""
    },
    {
        "title": "国家金融监管总局印发《信托公司监管评级与分级分类监管暂行办法》",
        "docid": "7301986636630360587",
        "url": ""
    },
    {
        "title": "大伙要做好准备，不出意外的话：2024年起，将发生3个重要转变",
        "docid": "7277925300606894629",
        "url": ""
    },
    {
        "title": "A股：今天下跌，下午或明天有望红盘，因为资金可能赌周末消息！",
        "docid": "7301900278411051561",
        "url": ""
    },
    {
        "title": "云南电池首富，减持套现数十亿，一家五口移民美国",
        "docid": "7301625719124279842",
        "url": ""
    },
    {
        "title": "五十岁后才醒悟：存款，对于未来“养老”，有多么重要？",
        "docid": "7281116292185457187",
        "url": ""
    },
    {
        "title": "遭绑架性情大变，为争产送弟进监狱，中国女首富背后的豪门太狗血",
        "docid": "7301942212689052179",
        "url": ""
    },
    {
        "title": "银行退休，养老金每月7800，退休两个月后，不得已去做了保姆",
        "docid": "7301282887654392371",
        "url": ""
    },
    {
        "title": "存款被通胀稀释很可能是普通人一个极大的福报",
        "docid": "7277062232091918882",
        "url": ""
    },
    {
        "title": "我妈每月养老金2675元，我爸铁公鸡一毛不拨，每月只能领137元!",
        "docid": "7269646502602162743",
        "url": ""
    },
    {
        "title": "准备一年！可以弯腰用麻袋捡筹码了，A股，周四行情预判",
        "docid": "7293813293725319706",
        "url": ""
    },
    {
        "title": "朝鲜越南的纸币，竟然是中国制造，如果缺钱能多印他们的货币吗？",
        "docid": "7269217445964022284",
        "url": ""
    },
    {
        "title": "几乎全是假货，利润高达650%，为何消费者还争相购买？",
        "docid": "7301954423528473129",
        "url": ""
    },
    {
        "title": "湖北前首富，杀回来了！",
        "docid": "7301507292409643560",
        "url": ""
    },
    {
        "title": "这一轮救市，很多人的钱要被抢走了？",
        "docid": "7300780369132323340",
        "url": ""
    },
    {
        "title": "天津：对不起，成都武汉广州杭州重庆深圳，京津沪仍是同一梯队",
        "docid": "7295978974134403636",
        "url": ""
    },
    {
        "title": "一年卖7亿副的姚记扑克，中国扑克界龙头，2019年为何突然改名？",
        "docid": "7277402172831416832",
        "url": ""
    },
    {
        "title": "中年人最有远见的金钱观",
        "docid": "7282376643929211403",
        "url": ""
    },
    {
        "title": "政府没钱，企业没钱、老百姓没钱，那钱都哪去了？",
        "docid": "7301677768893727241",
        "url": ""
    },
    {
        "title": "兜兜转转，实缴制，认缴制，又要回到实缴制",
        "docid": "7272533598769512960",
        "url": ""
    },
    {
        "title": "事实证明，退休后拉开人与人距离的不是养老金，是这三件事，很准",
        "docid": "7277330927951725071",
        "url": ""
    },
    {
        "title": "印度粮食产量不到中国一半，为何大量出口，而我国却满世界买粮？",
        "docid": "7290843907724706315",
        "url": ""
    },
    {
        "title": "2023年胡润广东籍全球富豪榜",
        "docid": "7269967190261678628",
        "url": ""
    },
    {
        "title": "辽宁富二代刘思琦，吃饭靠人喂，曾一天消费11万，今蜕变让人惊讶",
        "docid": "7301965549662208548",
        "url": ""
    },
    {
        "title": "小米汽车SU7图片曝光，公告中能洞察何种信息？",
        "docid": "7301655150748516898",
        "url": ""
    },
    {
        "title": "合肥富豪唐彬森：26亿卖掉游戏公司，转行做饮料，40岁身家350亿",
        "docid": "7292700947921388070",
        "url": ""
    },
    {
        "title": "一篇“我决定要教会子女炒股”大火后，看看各股友的观点",
        "docid": "7300916025380307496",
        "url": ""
    },
    {
        "title": "两个浙江人做矿泉水，一个公司上市成首富，一个却30年坚持不上市",
        "docid": "7273739846601015820",
        "url": ""
    },
    {
        "title": "李东生说魏雪在他人生最低谷的时候嫁给他，恩情需要一辈子报答",
        "docid": "7273631425528906294",
        "url": ""
    },
    {
        "title": "集体冲高回落，究竟是在玩什么把戏！",
        "docid": "7301129992681964067",
        "url": ""
    },
    {
        "title": "中美日石油储备量对比：日8000万吨，美9100万吨，中国是多少呢？",
        "docid": "7301672335830974987",
        "url": ""
    },
    {
        "title": "火爆全球！这一“神药”多地缺货，已有国家限制使用！相关股票起飞，这些A股公司有布局…",
        "docid": "7301686513069556243",
        "url": ""
    },
    {
        "title": "不靠融资年赚5亿，还成功上市：小小魔芋有何“魔力”？",
        "docid": "7274103679920325160",
        "url": ""
    },
    {
        "title": "人民币大涨539点！美元撑不住了，外资或大举抛售美债，买入中债",
        "docid": "7301220274312118796",
        "url": ""
    },
    {
        "title": "机构今日买入这5股，抛售至正股份1.33亿元丨龙虎榜",
        "docid": "7302012739201876515",
        "url": ""
    },
    {
        "title": "餐饮“收尸人”，几十万设备几万块收，见证600万店铺生死",
        "docid": "7269951929801884215",
        "url": ""
    },
    {
        "title": "生活费靠理财、提前退休？日本年轻人纷纷迷上“FIRE”投资术",
        "docid": "7300889801073639977",
        "url": ""
    },
    {
        "title": "中国可能是最后一个完成工业化的国家，越南印度已经搭不上末班车",
        "docid": "7294803345103962676",
        "url": ""
    },
    {
        "title": "证监会给予海通证券顶格处罚，问题是顶格处罚是60万还是几百万？",
        "docid": "7301598175138628130",
        "url": ""
    },
    {
        "title": "最可怕的“穷人陷阱”：拿铁效应",
        "docid": "7281461627264746038",
        "url": ""
    },
    {
        "title": "马斯克：美国现在缺芯片，一年后就缺变压器，两年后缺电",
        "docid": "7300750498587066880",
        "url": ""
    },
    {
        "title": "他花7年造出最极致小户型：3人住19m²就够了",
        "docid": "7273140796206203447",
        "url": ""
    },
    {
        "title": "格力电器负债2690亿元，美的2968亿元，海尔海信长虹呢？",
        "docid": "7294494821857673768",
        "url": ""
    },
    {
        "title": "法国，一个鳏夫的生活",
        "docid": "7274555589060231739",
        "url": ""
    },
    {
        "title": "分享武钢累计缴费40年职工退休金，真高，真羡慕",
        "docid": "7298004022424846902",
        "url": ""
    },
    {
        "title": "阿里巴巴发布2024财年第二财季财报",
        "docid": "7302024237559267840",
        "url": ""
    },
    {
        "title": "周四收评：预判全对，明天没有任何意外，市场即将迎来一出大戏！",
        "docid": "7301952685845496370",
        "url": ""
    },
    {
        "title": "90后女友带着全部身家，帮高中辍学男友创业，8年营收回报6个亿！",
        "docid": "7272678131570475560",
        "url": ""
    },
    {
        "title": "“存款40万是个坎！”评论区网友的扎心经历触动上万读者",
        "docid": "7298605979409695242",
        "url": ""
    },
    {
        "title": "中产返贫的6件套：",
        "docid": "7300905440392020491",
        "url": ""
    },
    {
        "title": "券商即将迎来合并潮，以后大批金融民工该往哪里走？说说我的看法",
        "docid": "7300766095328805386",
        "url": ""
    },
    {
        "title": "什么都不做，每天返利55元，你信不",
        "docid": "7271556747352048189",
        "url": ""
    },
    {
        "title": "只有11名员工的温州“小企业”，拥有遍布全球的“大客户”",
        "docid": "7301884473543967270",
        "url": ""
    },
    {
        "title": "企业年金及其发放方式(附:真实企业年金信息确认表)",
        "docid": "7276748850222613051",
        "url": ""
    },
    {
        "title": "周四重磅消息解读，关注超跌反弹，逆变器、锂电，肺炎、CRO",
        "docid": "7301822257012425279",
        "url": ""
    },
    {
        "title": "有粉丝私信表示跟不上老林的操作，这这这…我都没操作啊",
        "docid": "7301631381992669748",
        "url": ""
    },
    {
        "title": "11月16日收评：缩量调整，反弹结束呢？明天周五A股将迎来大变盘",
        "docid": "7301955930487407116",
        "url": ""
    },
    {
        "title": "下周，真正考验来了，股市尾声将至？",
        "docid": "7301587046370853376",
        "url": ""
    },
    {
        "title": "退休金终于到账，73年牛交16年养老保险，企退人员月工资多少？",
        "docid": "7300919882701685299",
        "url": ""
    },
    {
        "title": "中国最强十大城市排名！",
        "docid": "7282017560005132811",
        "url": ""
    },
    {
        "title": "1万存银行，不同方法收益相差13倍！钱越少越需要理财",
        "docid": "7293797947723055667",
        "url": ""
    },
    {
        "title": "又创历史新低！股价从18元跌至1.03元 这是要挖韭菜根吗？",
        "docid": "7301587883264082484",
        "url": ""
    },
    {
        "title": "巨额线损：长距离拉线安装家用充电桩划算么？",
        "docid": "7288961861813387834",
        "url": ""
    },
    {
        "title": "融创集团新任营销总，是一位87年女将！",
        "docid": "7301245261018563082",
        "url": ""
    },
    {
        "title": "蓝月亮用惨痛教训告诉世人，朝三暮四真不是啥好习惯",
        "docid": "7273050528396034623",
        "url": ""
    },
    {
        "title": "3大不能停的机器，为什么玻璃厂机器停一天，或损失上百万？",
        "docid": "7282361694297719333",
        "url": ""
    },
    {
        "title": "哪些行业慢慢不见了",
        "docid": "7271379410954011173",
        "url": ""
    },
    {
        "title": "A股午评：坐稳扶好，倒车接人了！接下来不会有任何意外！",
        "docid": "7301902159229010467",
        "url": ""
    },
    {
        "title": "十年交了十二万保费，退保能退多少",
        "docid": "7271912844940214803",
        "url": ""
    },
    {
        "title": "北大才子休学卖衣服，如今转行做网红：这是1个亿买来的教训",
        "docid": "7301887171986915867",
        "url": ""
    },
    {
        "title": "当年买了泰坦尼克号船票的7位顶级富豪，为何开船前，都没上船？",
        "docid": "7300919473932878390",
        "url": ""
    },
    {
        "title": "我在美国做飞行员，买1550㎡房，群租月入十几万，卖房净赚700万",
        "docid": "7290083720374141492",
        "url": ""
    },
    {
        "title": "全球第一大造船厂：亏了8年终于要赚钱，订单多到要中国帮忙赶造",
        "docid": "7293470096205906472",
        "url": ""
    },
    {
        "title": "7次申请破产，负债累累，床垫界“鼻祖”，却被山寨货斗垮了？",
        "docid": "7276395170588000808",
        "url": ""
    },
    {
        "title": "70年代，李嘉诚和母亲，一张罕见留影，看大耳垂就知道是有福之人",
        "docid": "7269066895905964585",
        "url": ""
    },
    {
        "title": "总部在湘第1大央企1700亿体量，从贵州迁入湖南，为湘带来了什么",
        "docid": "7300765738007200268",
        "url": ""
    },
    {
        "title": "便利店加盟商，熬不下去了",
        "docid": "7301167033058673178",
        "url": ""
    },
    {
        "title": "126个副业赚钱平台全公开！",
        "docid": "7291227691159208509",
        "url": ""
    },
    {
        "title": "人民币暴跌4天！谁先崩盘，谁就会失去主动权",
        "docid": "7299802642874974747",
        "url": ""
    },
    {
        "title": "克拉玛依，会成为第二个玉门吗？",
        "docid": "7301597854580539931",
        "url": ""
    },
    {
        "title": "美国的十大一线城市",
        "docid": "7271975967487214138",
        "url": ""
    },
    {
        "title": "最近东方雨虹骚操作不断，先是董秘，因股票连续下跌，...",
        "docid": "7301112259978265139",
        "url": ""
    },
    {
        "title": "山东玻纤：择机出售100千克老粉，一查价格3.4亿元，比黄金还贵？",
        "docid": "7300788369494573595",
        "url": ""
    },
    {
        "title": "老龄化的日本出现住房新趋势：跨代共居",
        "docid": "7286631433144271417",
        "url": ""
    },
    {
        "title": "耗资2200亿，泄洪6分钟即可填满西湖，白鹤滩水电站到底有多牛？",
        "docid": "7301683079666811429",
        "url": ""
    },
    {
        "title": "8万亿不到的体量交税与江苏同一级别引争议：浙江的GDP被低估了？",
        "docid": "7300430552384061967",
        "url": ""
    },
    {
        "title": "最牛上市公司创业团体，华为艾默生系，有潜力在工业领域PK西门子",
        "docid": "7301081883411169818",
        "url": ""
    },
    {
        "title": "五大车企合计负债14150亿元：比亚迪 上汽 广汽 长安 长城",
        "docid": "7295995564172263990",
        "url": ""
    },
    {
        "title": "张瑞敏，越过万重山",
        "docid": "7300462641804231203",
        "url": ""
    },
    {
        "title": "抽空简单聊几句，所有兄弟们务必认真看完。 第一：太...",
        "docid": "7301706121512288804",
        "url": ""
    },
    {
        "title": "女友觉得不对劲，男友最后查到了真相",
        "docid": "7299754206649451017",
        "url": ""
    },
    {
        "title": "中国首个GDP破千亿的镇，已超越部分地级市，综合实力全国第二",
        "docid": "7301002277458821651",
        "url": ""
    },
    {
        "title": "全球最穷的10个国家，人均年收入只有0.1美元，靠吃“土饼”充饥",
        "docid": "7301676995996582452",
        "url": ""
    },
    {
        "title": "矛盾中的探索：为何我国越来越强大，老百姓却越来越累越来越穷？",
        "docid": "7301660230516032019",
        "url": ""
    },
    {
        "title": "全球货运“冠军”换人了：年收入8580亿元，相当于2.8个顺丰",
        "docid": "7301138887521698343",
        "url": ""
    },
    {
        "title": "中小商家的“双11”战事：低价之下，“蹭名牌”死灰复燃，白牌闯出生路",
        "docid": "7301830122867360265",
        "url": ""
    },
    {
        "title": "新华书店从不向外界展示的秘密：顾客“只看不买”，仍营收上千亿",
        "docid": "7277894859926258231",
        "url": ""
    },
    {
        "title": "亚洲快餐“大王”：祖籍福建晋江，在全球开出超过6400家门店",
        "docid": "7298540349008921151",
        "url": ""
    },
    {
        "title": "阿里巴巴美股盘前下跌近8%",
        "docid": "7302030495360074277",
        "url": ""
    },
    {
        "title": "前三季度GDP50强城市：青岛远超郑州，温州第30，哈尔滨无缘",
        "docid": "7301203924093108799",
        "url": ""
    },
    {
        "title": "沸腾了！今晚，无眠！",
        "docid": "7301672165659640320",
        "url": ""
    },
    {
        "title": "现在的物价有多离谱？网友分享生活用品涨幅，一个比一个过分！",
        "docid": "7301940378058768937",
        "url": ""
    },
    {
        "title": "银行大额存款即将“上锁”，存进去容易取出来难！好事还是坏事？",
        "docid": "7301962838464070180",
        "url": ""
    },
    {
        "title": "为什么广东江苏山东浙江四个经济大省，从来都不敢小瞧福建？",
        "docid": "7288895143648985656",
        "url": ""
    },
    {
        "title": "世人犯过最贵的14个错误",
        "docid": "7299135317699887642",
        "url": ""
    },
    {
        "title": "暴涨1850%！来自ASML的光刻机超过1400台，美媒：终究不是自己人",
        "docid": "7301592889593889334",
        "url": ""
    },
    {
        "title": "出国人数暴涨，当前经济形势有些微妙",
        "docid": "7301987385397821962",
        "url": ""
    },
    {
        "title": "年入 70 亿！胖东来被封神，于东来被神化，其实是一种悲哀",
        "docid": "7300157180974760499",
        "url": ""
    },
    {
        "title": "百姓为什么不愿花钱？是什么降低了国人的欲望，专家: 缺少安全感",
        "docid": "7277853041234264612",
        "url": ""
    },
    {
        "title": "双十一战报来啦！数字人直播成“显眼包”？！",
        "docid": "7301939756362089011",
        "url": ""
    },
    {
        "title": "大博弈！中美欧三足鼎立局面已成，全球经济局面为何会发展至此？",
        "docid": "7277747382727475766",
        "url": ""
    },
    {
        "title": "内地女曝光香港吃海鲜被宰过万后，香港网友担忧：都跑深圳消费了",
        "docid": "7301543331182510611",
        "url": ""
    },
    {
        "title": "商场餐饮激烈厮杀，但年轻人只去楼下？",
        "docid": "7300535011080536612",
        "url": ""
    },
    {
        "title": "“中部第一镇”易主：来自湖南省，领先河南龙湖镇、江西昌东镇",
        "docid": "7287456116114784802",
        "url": ""
    },
    {
        "title": "想存钱 ，一定要对钱有概念",
        "docid": "7270732673990132258",
        "url": ""
    },
    {
        "title": "医保二次报销是什么意思？",
        "docid": "7293132124499378699",
        "url": ""
    },
    {
        "title": "苏钢强硬反击陆家嘴",
        "docid": "7300007709863215656",
        "url": ""
    },
    {
        "title": "毛利率vs利润率‼️",
        "docid": "7296303274351788578",
        "url": ""
    },
    {
        "title": "转存！中美缓和概念股汇总",
        "docid": "7301078157103235593",
        "url": ""
    },
    {
        "title": "他仅用50美元，就横扫美国赌场，三年赚了5.7亿，这是怎么做到的",
        "docid": "7269661798897304123",
        "url": ""
    },
    {
        "title": "基金收评丨白酒、半导体下跌，要跑吗？",
        "docid": "7302003627814634011",
        "url": ""
    },
    {
        "title": "我办理独生子女补贴的经历",
        "docid": "7268824568847188499",
        "url": ""
    },
    {
        "title": "一个月存两千，一年才二万四啊！评论区真实境况触动上万读者",
        "docid": "7286709994354147874",
        "url": ""
    },
    {
        "title": "这届消费者太秀，老板都傻了哈哈哈",
        "docid": "7301329653233828392",
        "url": ""
    },
    {
        "title": "张磊的智慧：我阅人无数，经常做这3件事的人，大多都成功了",
        "docid": "7289664414490313256",
        "url": ""
    },
    {
        "title": "钢铁行业巨变！多家钢厂停产，员工狂欢收到福利大放送！",
        "docid": "7301907580614476328",
        "url": ""
    },
    {
        "title": "“贷款上班”成现实？181人贷超2600万，监管部门回应",
        "docid": "7300714286748369449",
        "url": ""
    },
    {
        "title": "企业职工怎样补缴过去的养老保险？就这么办，非常简单（二）",
        "docid": "7268857903094710842",
        "url": ""
    },
    {
        "title": "退休5年，我单位发2000过节费，女儿发两箱水果，老公发一张贺卡",
        "docid": "7283296561067541047",
        "url": ""
    },
    {
        "title": "个人办理退休和单位办理退休，有什么区别吗？",
        "docid": "7288106370249933349",
        "url": ""
    },
    {
        "title": "证券异军突起!啥信号?春江水暖鸭先知！",
        "docid": "7301156580601578021",
        "url": ""
    },
    {
        "title": "买了保险要不要退？听听来自一位从业14年资深总监的建议。",
        "docid": "7287604065637696000",
        "url": ""
    },
    {
        "title": "暴涨93%，634亿元！关键数据出炉，难怪ASML着急了",
        "docid": "7301214269486416403",
        "url": ""
    }
]