[
    {
        "title": "1988年，上海GDP比纽约低3620亿，经过几十年发展，上海逆袭了么",
        "docid": "7326091149058540059",
        "url": ""
    },
    {
        "title": "经营了30年的企业倒闭了，谁人之过？",
        "docid": "7326013723742257691",
        "url": ""
    },
    {
        "title": "购车不到一个月理想汽车突然降价 车主集体投诉：这是销售欺诈！",
        "docid": "7325725718862807571",
        "url": ""
    },
    {
        "title": "北上广杭，楼市有些反常……",
        "docid": "7325082931763233306",
        "url": ""
    },
    {
        "title": "你的定期存款有本子吗？原来有没有本子区别巨大",
        "docid": "7302433062343000586",
        "url": ""
    },
    {
        "title": "海南省城市规划布局 未来将会形成两大省级中心城市",
        "docid": "7323214120836465204",
        "url": ""
    },
    {
        "title": "2024年春运——神奇的铁路客运车次，广州襄阳绿皮一站直达？",
        "docid": "7324623573203960335",
        "url": ""
    },
    {
        "title": "闹大了！女子买到假牛肉后，店家拒绝赔偿恶意投诉，女子愤怒发声",
        "docid": "7324181464852775424",
        "url": ""
    },
    {
        "title": "长安汽车董事长朱华荣在大会上的一番言论，引发了业界内外热议！",
        "docid": "7325279509236761107",
        "url": ""
    },
    {
        "title": "镇江一价值2234万的工厂拍卖，被13人疯狂加价447次拍出4210万",
        "docid": "7309758657711931942",
        "url": ""
    },
    {
        "title": "九州通创始人退出管理后 为何不让儿子刘登攀接任而引入刘长云？",
        "docid": "7312637884253667850",
        "url": ""
    },
    {
        "title": "三爱奶奶的勇气可嘉，不断加钱，豪赌一把！",
        "docid": "7325253126654247464",
        "url": ""
    },
    {
        "title": "本周最牛股票涨近70% TCL中环吸金超4亿元！",
        "docid": "7326050597999149606",
        "url": ""
    },
    {
        "title": "《写给广大股民的一封信》：胡锡进绝对不会告诉你的故事",
        "docid": "7326080451289580044",
        "url": ""
    },
    {
        "title": "深圳一家公司破产，在北京的四合院豪宅被拍卖，1.2992亿元起",
        "docid": "7324903711703253530",
        "url": ""
    },
    {
        "title": "现实版富得流油，新疆克拉玛依与众不同，戈壁滩上建起的年轻城市",
        "docid": "7304967099342930432",
        "url": ""
    },
    {
        "title": "2760大概率不是最终大底",
        "docid": "7325969519955018240",
        "url": ""
    },
    {
        "title": "中国零食大王：放弃30万年薪、卖掉广东两套房，一年卖100亿零食",
        "docid": "7304451187414237759",
        "url": ""
    },
    {
        "title": "“打工人”上位特斯拉供应商“实控人”，投资43万收获69亿身家！",
        "docid": "7325315796258030117",
        "url": ""
    },
    {
        "title": "最具价值：唯一性，半导体，机器人，服务器，粮食，证券等",
        "docid": "7324243453905846847",
        "url": ""
    },
    {
        "title": "终于知道，一辆5000元电动三轮车，出厂成本多少？报废后能值多少",
        "docid": "7312405259560026639",
        "url": ""
    },
    {
        "title": "GDP达126万亿！经历中美关系4个阶段后，中国再上台阶",
        "docid": "7325990069947908635",
        "url": ""
    },
    {
        "title": "成都一家餐馆推出999元全年免费吃火锅活动，为何引来“圈钱跑路”的质疑",
        "docid": "7325756032842891816",
        "url": ""
    },
    {
        "title": "企业总部外迁现象分析：蓝思科技、欧菲光、德昌电机、大富科技",
        "docid": "7325621613612286498",
        "url": ""
    },
    {
        "title": "快递无休、快运放假，2024年春节模式已正式开启！",
        "docid": "7323930302303896064",
        "url": ""
    },
    {
        "title": "2024.1.18一根线告诉你A股每次大底位置！",
        "docid": "7325466997394211363",
        "url": ""
    },
    {
        "title": "你想象不到，90年代初，那时的银行利息高的有多离谱",
        "docid": "7323497070714012194",
        "url": ""
    },
    {
        "title": "毕节是怎样一步步走向散装的？",
        "docid": "7294101577403859475",
        "url": ""
    },
    {
        "title": "如果2024年美元进入降息周期，对中国房地产有什么影响",
        "docid": "7324901127248708115",
        "url": ""
    },
    {
        "title": "什么是央企？什么是国企？央企和国企有什么区别？央国企有哪些？",
        "docid": "7317147452551758351",
        "url": ""
    },
    {
        "title": "中国最富的5个省份，江苏只能排第二，看看有你的家乡吗？",
        "docid": "7317510067685851683",
        "url": ""
    },
    {
        "title": "上海为什么在青浦奉贤放松限购",
        "docid": "7323786058603397641",
        "url": ""
    },
    {
        "title": "马斯克名下有多少家公司，你都不敢想？",
        "docid": "7303184766671864360",
        "url": ""
    },
    {
        "title": "极目新闻抹黑河南惹众怒！网友扒出其黑历史惊呼：原来是惯犯！",
        "docid": "7326122727138673192",
        "url": ""
    },
    {
        "title": "为什么说中国正在批量生成全球化品牌？",
        "docid": "7325767750788940324",
        "url": ""
    },
    {
        "title": "社保交15、20、25年的区别，自己交和公司交的区别，涨知识了",
        "docid": "7304122488580325897",
        "url": ""
    },
    {
        "title": "3块钱的饮料正在集体消失！网友：我又被饮料背刺了",
        "docid": "7317447181907149352",
        "url": ""
    },
    {
        "title": "中国的善意，阿根廷选择漠视，印度用2400万美元，米莱就跟着走？",
        "docid": "7325353085541597750",
        "url": ""
    },
    {
        "title": "美国加息结束？中国持续放水！中国进入低利率时代？有何影响？",
        "docid": "7325693860729569828",
        "url": ""
    },
    {
        "title": "被合作方实名举报！万科回应：不存在偷税漏税问题",
        "docid": "7326086796075434530",
        "url": ""
    },
    {
        "title": "总投资超27000亿元！2023年下半年全国重大基建项目开工情况一览（附明细）",
        "docid": "7324212594246959668",
        "url": ""
    },
    {
        "title": "河南焦作：黄河特大桥建设“加速度”",
        "docid": "7325593932425904681",
        "url": ""
    },
    {
        "title": "最有价值的31只低市值、低估值、高股息优质股，赶紧收好！",
        "docid": "7325640259331785255",
        "url": ""
    },
    {
        "title": "国企或央企高度控盘的上市企业龙头股一览",
        "docid": "7325749613674660392",
        "url": ""
    },
    {
        "title": "Vans卖不动？我的滑板鞋，摩擦摩擦…",
        "docid": "7296686366329831988",
        "url": ""
    },
    {
        "title": "当今社会，很多人不满，这又是什么原因造成的呢？",
        "docid": "7308182746835583525",
        "url": ""
    },
    {
        "title": "从湖北荆州走出的3位女老板，都是从打工起家，如今坐拥身价73亿",
        "docid": "7317612156407857683",
        "url": ""
    },
    {
        "title": "如果大A跌到负数，会发生什么？",
        "docid": "7325266179336077851",
        "url": ""
    },
    {
        "title": "董宇辉与辉同行商标被抢注，自己原创的品牌名字怎样防止被抢注？",
        "docid": "7326074202224902719",
        "url": ""
    },
    {
        "title": "绍兴老板，重整240亿游戏亏损户",
        "docid": "7325793262151664162",
        "url": ""
    },
    {
        "title": "证监会出手，整个市场将迎来大洗牌",
        "docid": "7325834719860474402",
        "url": ""
    },
    {
        "title": "中亚考察有感：穷国要翻身，只剩一条路！",
        "docid": "7309458338243707432",
        "url": ""
    },
    {
        "title": "没有单位的证明，能领失业保险金吗？",
        "docid": "7311887667825017381",
        "url": ""
    },
    {
        "title": "印度美国修改GDP统计方式，造成现今的GDP数据已经没有任何意义。",
        "docid": "7309581693898261019",
        "url": ""
    },
    {
        "title": "西藏药业，一家迷你型药业企业，主打心脑血管药品，中长期可关注",
        "docid": "7299664628895466020",
        "url": ""
    },
    {
        "title": "是不是真恩爱不知道，但细看章泽天资产，有被这个女人惊讶到",
        "docid": "7322032829318480418",
        "url": ""
    },
    {
        "title": "李富贵玩大了，看来主动辞职是最好的选择！",
        "docid": "7326108138686399012",
        "url": ""
    },
    {
        "title": "传统KTV“失声”，如今谁还在唱？",
        "docid": "7315973936058057254",
        "url": ""
    },
    {
        "title": "成立以来大跌30%！周应波奔私大溃败？",
        "docid": "7325799822999700020",
        "url": ""
    },
    {
        "title": "这3个行业虽然不起眼，但是一天挣1500也不难，两个人就能去干！",
        "docid": "7326077069866058240",
        "url": ""
    },
    {
        "title": "比起去年大跌2.5万元/㎡！奥邸国际大平层4.73万元/㎡成交",
        "docid": "7325786594534392360",
        "url": ""
    },
    {
        "title": "说起社保，我真想打我家老头一顿，是他，让我不见了十万元左右",
        "docid": "7310577562432963084",
        "url": ""
    },
    {
        "title": "外媒称中企“避开英伟达转向华为购买芯片” 商务部回应",
        "docid": "7325358018135179810",
        "url": ""
    },
    {
        "title": "大陆经济还行不行? 台教授: 很多人低估一个重大前提｜文化纵横",
        "docid": "7325697358355186202",
        "url": ""
    },
    {
        "title": "走进中国最大钼企业：从县城山沟起家，到手握千亿级海外资产",
        "docid": "7301905055329124900",
        "url": ""
    },
    {
        "title": "商界大拿：搞出两家世界500强，儿子新疆首富，女儿上海女首富",
        "docid": "7296100132217553423",
        "url": ""
    },
    {
        "title": "王健林卖资产求生存，万达能否再度走出困境",
        "docid": "7326065084915122751",
        "url": ""
    },
    {
        "title": "惊呆！沪上三层别墅，竟被改成12间“群租套房”！小区业主们，炸锅了",
        "docid": "7295597474918564387",
        "url": ""
    },
    {
        "title": "从“移山”到“打牛”，盒马开启“小份量低价战”",
        "docid": "7325629542087918143",
        "url": ""
    },
    {
        "title": "丑闻曝光！日本松下集团旗下子公司，承认造假！",
        "docid": "7323868069116297755",
        "url": ""
    },
    {
        "title": "中国客车出口王易主：海外销售10165辆，厦门金龙无缘“13连冠”",
        "docid": "7325656622334853673",
        "url": ""
    },
    {
        "title": "公认的超级大白马，立讯精密，苹果离不开的代工之王，国家队重仓",
        "docid": "7325777108364788287",
        "url": ""
    },
    {
        "title": "广州首家Costco，从荔湾改去黄埔了？",
        "docid": "7324594534086640180",
        "url": ""
    },
    {
        "title": "南京416.6米超高层建筑项目主体结构全面封顶",
        "docid": "7324646084964647436",
        "url": ""
    },
    {
        "title": "春运未至客运已然升温，贴心服务温暖回家路",
        "docid": "7325235769419907625",
        "url": ""
    },
    {
        "title": "一篇文章看懂化工产业，建议收藏！",
        "docid": "7295756305053205026",
        "url": ""
    },
    {
        "title": "中国崛起，犹太财团遭受最大挫折！",
        "docid": "7326093817919734272",
        "url": ""
    },
    {
        "title": "福建80后夫妻：在非洲闯荡15年，只赚钱不花钱，如今想回国却很难",
        "docid": "7325738400932512297",
        "url": ""
    },
    {
        "title": "月入三四万！不少年轻人入行：面子不值钱，生活更重要！",
        "docid": "7325705188470424101",
        "url": ""
    },
    {
        "title": "普宁隐形富豪赖海民：承包工程起家，掘金深圳，身家500亿",
        "docid": "7294499081861759525",
        "url": ""
    },
    {
        "title": "茅台与瑞幸，新春新品再登场",
        "docid": "7326064628155793972",
        "url": ""
    },
    {
        "title": "世界五百强企业国内城市总量，北京53家，上海12家，深圳10家",
        "docid": "7326020228373824038",
        "url": ""
    },
    {
        "title": "“卖了两套房，全部囤黄金了！”80后金店老板与金价大涨的一年",
        "docid": "7315317160509915688",
        "url": ""
    },
    {
        "title": "2023胡润百富新鲜出炉，大佬们都还好吗？",
        "docid": "7325373370034979355",
        "url": ""
    },
    {
        "title": "10年一遇！很像2013年~2014年牛市前夕！散户做好心理预期了",
        "docid": "7312615119757607458",
        "url": ""
    },
    {
        "title": "美国经济总量长期全球第一，靠什么撑起的？",
        "docid": "7326060353018774068",
        "url": ""
    },
    {
        "title": "金价势创六周以来最大周跌幅",
        "docid": "7325936177910055462",
        "url": ""
    },
    {
        "title": "开发商承诺用新房抵工程款！他付200多万首付后没下文了",
        "docid": "7325750830542471721",
        "url": ""
    },
    {
        "title": "20年过去了，那个曾在街头卖肉的“北大屠夫”陆步轩，如今怎样了",
        "docid": "7320523030969762358",
        "url": ""
    },
    {
        "title": "业内人透露：最近2年，最好不要随便拿钱买新房，原因很现实！",
        "docid": "7325724562711429669",
        "url": ""
    },
    {
        "title": "山西运城走出的十位大富豪，2人身价超百亿，个个都是白手起家",
        "docid": "7325192420843471412",
        "url": ""
    },
    {
        "title": "警惕！这些“夺命”取暖神器，几乎家家都有！",
        "docid": "7323754294581887507",
        "url": ""
    },
    {
        "title": "天士力：预计2023年净利润同比增加539%到613%",
        "docid": "7325349219676865062",
        "url": ""
    },
    {
        "title": "鼎益丰的投资者有赚到钱的吗？",
        "docid": "7325808673539457586",
        "url": ""
    },
    {
        "title": "周末密集维稳，涉及暂未发现做空、违规减持等，下周A股撑的住不",
        "docid": "7325818161205903913",
        "url": ""
    },
    {
        "title": "浙江区域规划调整猜想：绍兴宁波合并，湖嘉入杭州，撤销丽水市",
        "docid": "7295603112608875048",
        "url": ""
    },
    {
        "title": "各地大超市纷纷关门，地标家乐福都撑不下去，超市被什么取代了？",
        "docid": "7303457005660865060",
        "url": ""
    },
    {
        "title": "储蓄搬家，历史会否重演",
        "docid": "7316700923613561384",
        "url": ""
    },
    {
        "title": "李迅雷：跨入不了高收入门槛是否就要跌入中等收入陷阱",
        "docid": "7326030296704008744",
        "url": ""
    },
    {
        "title": "广西14市财政收入最新出炉：百色接近桂林，梧州第7，贺州垫底",
        "docid": "7325454920042316325",
        "url": ""
    },
    {
        "title": "一个月花完千万融资到涉赌被捕，斗鱼掌门陈少杰的冒险人生",
        "docid": "7304887378152292875",
        "url": ""
    },
    {
        "title": "香港金融保卫战：中国动用1400亿对轰，犹太资本从没有输这么惨",
        "docid": "7325706511404057100",
        "url": ""
    },
    {
        "title": "太夸张了！利率一降再降！宁波的银行“内卷”到手续费都不要了？",
        "docid": "7325360709792399923",
        "url": ""
    },
    {
        "title": "手术后，总医疗费用60455.53元，全部报销完后，个人就出了1万多",
        "docid": "7298511428569285130",
        "url": ""
    },
    {
        "title": "372亿！80后千亿富三代郭基辉太低调，网友：奶奶是中国女首富",
        "docid": "7310625671460422179",
        "url": ""
    },
    {
        "title": "财政部官方回复！这4类项目，可不执行政府采购方式",
        "docid": "7306704962820817420",
        "url": ""
    },
    {
        "title": "九死一生！餐饮创业，不再欢迎穷人",
        "docid": "7324870577066771007",
        "url": ""
    },
    {
        "title": "分明是IPO**！上交所披露荣盛生物过会后终止真相",
        "docid": "7325273902173995559",
        "url": ""
    },
    {
        "title": "券商板块已经调整到位了，下周随时有望启动一波主升浪大行情！",
        "docid": "7326072942491370022",
        "url": ""
    },
    {
        "title": "靠\"赚女人钱\"发家的男人，打造600亿龙头，父亲生日豪捐9999万",
        "docid": "7325336728581964342",
        "url": ""
    },
    {
        "title": "国产新能源汽车与特斯拉之间的差距有多大？听听内行人怎么说",
        "docid": "7323565332059619878",
        "url": ""
    },
    {
        "title": "44万亿“宇宙行”新掌门人官宣！",
        "docid": "7326115011611755019",
        "url": ""
    },
    {
        "title": "规划多次调整后，西安城北“五大片区”今年将迎来巨变！",
        "docid": "7325601511739507238",
        "url": ""
    },
    {
        "title": "负债潮来势汹汹，有房和没房谁能撑到最后？",
        "docid": "7324904540200239667",
        "url": ""
    },
    {
        "title": "才上市6年，已经从53跌到了1元，跌幅98%，是不是最惨的股票？",
        "docid": "7325980397467107859",
        "url": ""
    },
    {
        "title": "日常用品偷偷涨价，注意到了吗？网友：什么都在涨就是工资没涨！",
        "docid": "7326076827557495359",
        "url": ""
    },
    {
        "title": "最贵的天然金属，全球储量仅为3000吨，王水都拿它没办法",
        "docid": "7290436626856378938",
        "url": ""
    },
    {
        "title": "退休千万别去玩股票，忠言逆耳。",
        "docid": "7326125380602364467",
        "url": ""
    },
    {
        "title": "赶紧自查！你家的液化气罐减压阀，安全吗？",
        "docid": "7304097314547778075",
        "url": ""
    },
    {
        "title": "管理的本质，就这一句话",
        "docid": "7324513067709055528",
        "url": ""
    },
    {
        "title": "AI算力产业合集总览",
        "docid": "7293137453236716086",
        "url": ""
    },
    {
        "title": "北大硕士张老三，事业正红从华为辞职，跑国外不当工程师当水管工",
        "docid": "7322768107636949515",
        "url": ""
    },
    {
        "title": "湖北省：2024年要开工建设13个50亿元以上城建项目",
        "docid": "7325802523268465179",
        "url": ""
    },
    {
        "title": "“退休金等级表”出炉，共十级，1到6级衣食无忧，你处于哪一级",
        "docid": "7325055467158831655",
        "url": ""
    },
    {
        "title": "湖北6市GDP更新：武汉破2万亿，黄冈、孝感决战3千亿，潜江失速",
        "docid": "7272210636359664180",
        "url": ""
    },
    {
        "title": "上市以来，孙宏斌一共从融创中国分得多少钱？",
        "docid": "7325618532887298596",
        "url": ""
    },
    {
        "title": "管理者一定要学会“3管5带7抓”，让管理难度下降一倍！",
        "docid": "7312401282105901568",
        "url": ""
    },
    {
        "title": "为什么香港富豪都喜欢把价值连城的豪宅建在半山上？",
        "docid": "7317797437425599015",
        "url": ""
    },
    {
        "title": "保利发展：去年净利润约120亿元，2023-2025年分红比例不低于40%",
        "docid": "7326030289762157095",
        "url": ""
    },
    {
        "title": "重工业发展有多重要？全球8大重工业国家，我国上榜了吗？",
        "docid": "7325057616516956710",
        "url": ""
    },
    {
        "title": "山西未来富得流油的四个城市，这些地方呼声最高",
        "docid": "7299738957439435300",
        "url": ""
    },
    {
        "title": "相亲市场新现象：父母有无退休金决定子女相亲成败，独生子受欢迎",
        "docid": "7296700271848260111",
        "url": ""
    },
    {
        "title": "伪装成小国的“大国”，200多万平方公里国土，却不愿对外承认？",
        "docid": "7318619613028418084",
        "url": ""
    },
    {
        "title": "江苏已经出现第五个万亿城市，广东却遥遥无期，这就是差距",
        "docid": "7325979274719248905",
        "url": ""
    },
    {
        "title": "明确！988个老旧小区，今年改造！",
        "docid": "7325623259142275584",
        "url": ""
    },
    {
        "title": "2023年广东“财政小虾米”仍有28个，惠来县一飞冲天进全省十强",
        "docid": "7325968888389272075",
        "url": ""
    },
    {
        "title": "周口客运总站因“旅客极其稀少”停运，当初设计日发送旅客2万人次",
        "docid": "7305381215254184502",
        "url": ""
    },
    {
        "title": "电动车电池，都能用几年？答案来了，排名第1的理论上可以用20年",
        "docid": "7292934932425376265",
        "url": ""
    },
    {
        "title": "装100箱货等了4个小时，司机不干了，把货卸下来就走加钱也不要",
        "docid": "7322696660449067572",
        "url": ""
    },
    {
        "title": "细节满满！这个国家级奖章上藏着大国重器、芯片、杂交水稻…",
        "docid": "7325729982926455322",
        "url": ""
    },
    {
        "title": "一套70平方米的房子售价仅2000元，每平方米只有28元？",
        "docid": "7317885456035922443",
        "url": ""
    },
    {
        "title": "牧之野：下马威",
        "docid": "7325093231619015231",
        "url": ""
    },
    {
        "title": "年度“风云浙商”揭榜：3位“浙商二代”当选，人数超过往年",
        "docid": "7325811011947381263",
        "url": ""
    },
    {
        "title": "海尔集团员工自爆年终奖+工资收入，网友说：太低了，惨不忍睹",
        "docid": "7326113019769995791",
        "url": ""
    },
    {
        "title": "家庭共济，可让家人共享使用医保卡余额！并可代交家人医保或农保",
        "docid": "7296706248068891176",
        "url": ""
    },
    {
        "title": "十年前的金价，我也是个大冤种",
        "docid": "7325440999243874831",
        "url": ""
    },
    {
        "title": "烟草大王褚时健：为国创造上千亿利税，死后打造百万豪华墓地",
        "docid": "7320512980041351734",
        "url": ""
    },
    {
        "title": "蔚为壮观的财富转移——少子化的后果之一",
        "docid": "7295772429190922767",
        "url": ""
    },
    {
        "title": "30万现金被水泡了5天！银行人遭遇前所未有的挑战",
        "docid": "7314892545992196619",
        "url": ""
    },
    {
        "title": "江苏常州首富：57岁身家610亿元，把挖掘机油缸做到全国第一",
        "docid": "7324618754653487670",
        "url": ""
    },
    {
        "title": "全球最富家族能有多少钱？五倍于李嘉诚，控制全球最大“摇钱树”",
        "docid": "7302733371518648867",
        "url": ""
    },
    {
        "title": "真正聪明的人，是那些“轻奢”的人",
        "docid": "7299306403255943706",
        "url": ""
    },
    {
        "title": "作为曾经的常州招牌，其实“死”得并不冤枉",
        "docid": "7297668545440170511",
        "url": ""
    },
    {
        "title": "2024年，机关事退人员职业年金为什么要除以139？每月领多少？",
        "docid": "7315740914947949119",
        "url": ""
    },
    {
        "title": "万达集团董事长王健林妻子林宁个人简介（欧兰特俱乐部掌控者）",
        "docid": "7326138310261867043",
        "url": ""
    },
    {
        "title": "为何福建仙游疯狂造城，低廉的仙游房价，仙游县城镇化为抢人留人",
        "docid": "7323407285811003954",
        "url": ""
    },
    {
        "title": "电动车品牌前10名来了，小牛排在第10，九号没上榜，你怎么看",
        "docid": "7320820888865112611",
        "url": ""
    },
    {
        "title": "高通上演华为Mate60式魔术：芯片制程不变，性能却拔地而起",
        "docid": "7294085661769024011",
        "url": ""
    },
    {
        "title": "崛起中的四川：2023年GDP预测出炉，城市经济大PK！",
        "docid": "7324981288853848611",
        "url": ""
    },
    {
        "title": "童话大王之子的逆袭人生：小学毕业辍学，如今却成为亿万富翁！",
        "docid": "7325673552668099084",
        "url": ""
    },
    {
        "title": "胆大心细：迁都海南，会不会变身城市新宠？",
        "docid": "7317994786961752617",
        "url": ""
    },
    {
        "title": "2023年武汉GDP预计增长6%左右",
        "docid": "7325307139428237865",
        "url": ""
    },
    {
        "title": "职业年金是什么？退休时能一次性领取吗？",
        "docid": "7315226981665178123",
        "url": ""
    },
    {
        "title": "想要经济复苏，先把通胀干到6%？2024年会迎来“人造通胀”吗？",
        "docid": "7325697273999376906",
        "url": ""
    },
    {
        "title": "中国最大！拥有7600个车位！这艘13层楼高的远洋巨轮今日首航欧洲：搭载近5000辆国产车，约一半是这类车",
        "docid": "7324908577507492388",
        "url": ""
    },
    {
        "title": "笑不活了，因业绩惨淡，基金经理纷纷道歉，我却呆在网友评论区里",
        "docid": "7325837691642413603",
        "url": ""
    },
    {
        "title": "暂停开户，全面整改！",
        "docid": "7325012638478467619",
        "url": ""
    },
    {
        "title": "前两年买房的都怎么样了？网友：晚买一年房，少打十年工",
        "docid": "7325215662652326411",
        "url": ""
    },
    {
        "title": "天呐！社保卡一定要激活，里面都是钱，原来傻傻不知道，别错过了",
        "docid": "7325238386418614819",
        "url": ""
    },
    {
        "title": "周末证监会重磅发声！让2亿股民感慨万分！到底发生什么？",
        "docid": "7326040576132989477",
        "url": ""
    },
    {
        "title": "胆子太大了，为了客厅做落地窗，居然切断大梁",
        "docid": "7324536370792382995",
        "url": ""
    },
    {
        "title": "如今才明白，“三星公主”李富真下嫁穷保安，这步棋有多正确",
        "docid": "7325312156344615459",
        "url": ""
    },
    {
        "title": "2023年云南16市GDP：曲靖突破0.42万亿，昆明0.82万亿却不如玉溪",
        "docid": "7323894277150016011",
        "url": ""
    },
    {
        "title": "A股：真是愚蠢至极的操作，弄得里外不是人，任由收割散户血汗钱",
        "docid": "7325647307281039907",
        "url": ""
    },
    {
        "title": "只要不懒，两三万的月收入不难实现，这2个加工业，投资小又好干",
        "docid": "7294550078386373161",
        "url": ""
    },
    {
        "title": "上海一身价35亿总裁假扮农民工，到工地上班第一天，差点就被开除",
        "docid": "7321918129176412681",
        "url": ""
    },
    {
        "title": "富人、中产、穷人的区别",
        "docid": "7316323915880481317",
        "url": ""
    },
    {
        "title": "央行上海总部公告：暂停兑换！不少人通宵排队，抢到就是赚到？",
        "docid": "7325771698971165218",
        "url": ""
    },
    {
        "title": "现在年轻人的消费观：省吃俭用的花了一大笔钱。",
        "docid": "7302693107135644199",
        "url": ""
    },
    {
        "title": "5万元买入，5千元出手都没人要！它为什么“不香了”？",
        "docid": "7325246698043769383",
        "url": ""
    },
    {
        "title": "不是说经济不好吗？为啥客单价1000元的山姆还是人山人海？",
        "docid": "7324587788593234447",
        "url": ""
    },
    {
        "title": "4市GDP取得大突破，武汉与成都再次同框，重庆、广州决战新战场",
        "docid": "7325366660217995810",
        "url": ""
    },
    {
        "title": "华为申请黑磷电池专利！材料论克卖，或将成为手机汽车一大杀器",
        "docid": "7324581728969015835",
        "url": ""
    },
    {
        "title": "各省矿产资源储量排名！来看看都谁家里有矿？",
        "docid": "7315001442707227188",
        "url": ""
    },
    {
        "title": "68个人，一年营收3个亿",
        "docid": "7317178670131806758",
        "url": ""
    },
    {
        "title": "台州雄起：“尔滨”有多火？直接把这家台州企业的淡季干没了→",
        "docid": "7325371309406536204",
        "url": ""
    },
    {
        "title": "中国在发电基地放了几只羊，世界性的难题，就这样被羊解决了",
        "docid": "7296476939567530548",
        "url": ""
    },
    {
        "title": "渐冻人蔡磊妻子北大才女段睿个人简介（必读收藏）",
        "docid": "7325688462143898112",
        "url": ""
    },
    {
        "title": "董宇辉一夜双杀，两战封神，树立了名人访谈和带货直播的标杆",
        "docid": "7325620070716162610",
        "url": ""
    },
    {
        "title": "闹大了！女子取去世父亲存款，银行要求提供4份证明，评论一边倒",
        "docid": "7324684500301070874",
        "url": ""
    },
    {
        "title": "2008年，一场大雪曾瘫痪半个中国，但也成就了今天的“基建狂魔”",
        "docid": "7325717726852317759",
        "url": ""
    },
    {
        "title": "对标酸辣土豆丝，你就知道新疆人为啥吐槽声一片了",
        "docid": "7323237625979290153",
        "url": ""
    },
    {
        "title": "唯一存活1441年的公司：从隋朝到21世纪，只做一活，依旧强大",
        "docid": "7311149834382148106",
        "url": ""
    },
    {
        "title": "广州希音：无总部大楼，却成为全球独角兽第四名4500亿元估值！",
        "docid": "7323997342581948978",
        "url": ""
    },
    {
        "title": "知名财经博主薛松爆仓自杀？本人账号发布视频辟谣，公司回应",
        "docid": "7326025663033754166",
        "url": ""
    },
    {
        "title": "天津城市发展的重心，大掉头！",
        "docid": "7325620334244184616",
        "url": ""
    },
    {
        "title": "想拿展厅里近两百来万的东西，房东：我又不认识你",
        "docid": "7323488754495652363",
        "url": ""
    },
    {
        "title": "打工人从上海回来了，告诉你一个真实的上海，别相信网上的了",
        "docid": "7312642990823195148",
        "url": ""
    },
    {
        "title": "南疆城市大比拼：四大天王哪家强？",
        "docid": "7290532727558980159",
        "url": ""
    },
    {
        "title": "为何很多饭店都开始抵制探店主播？商家直言，这三个原因太现实了",
        "docid": "7303856434939625999",
        "url": ""
    },
    {
        "title": "年轻人，再不生孩子就来不及了！",
        "docid": "7322127762201068047",
        "url": ""
    },
    {
        "title": "2023深圳500强：腾讯第4，顺丰第10，惠科第62，秋叶原第113",
        "docid": "7324212759946723891",
        "url": ""
    },
    {
        "title": "“存款100万意味着什么？”看完这些网友的真实回答，扎心又现实",
        "docid": "7302692970396975616",
        "url": ""
    },
    {
        "title": "把合资车打的抱头鼠窜的新能源车，为什么在B级车市场寸步难行？",
        "docid": "7302051756735922724",
        "url": ""
    },
    {
        "title": "美国第三大城市芝加哥GDP超5500亿美元，放在中国什么水平？",
        "docid": "7325460114251465270",
        "url": ""
    },
    {
        "title": "保温杯变“夺命杯”，只因为泡了它",
        "docid": "7319314228018463270",
        "url": ""
    },
    {
        "title": "美的集团公子：逃离接班、另起炉灶，如今专注“扫大街”赚了百亿",
        "docid": "7320901561025315379",
        "url": ""
    },
    {
        "title": "你睡前经常做的这些事，等于慢性“自杀”",
        "docid": "7304483762694291994",
        "url": ""
    },
    {
        "title": "畸形的轮胎市场：外国人热爱用的中国轮胎，国人为何就是不买账？",
        "docid": "7294561854922162739",
        "url": ""
    },
    {
        "title": "证券会：一天9个重磅消息，这次真的出手了，看谁还敢做空股市？",
        "docid": "7326103195019756032",
        "url": ""
    },
    {
        "title": "两大“毒瘤”不除，老百姓怎么敢消费？原来老百姓的钱都被吸走了",
        "docid": "7320167367681212980",
        "url": ""
    },
    {
        "title": "靠山寨韩国人赚200亿的“零食大王”，小时候经常吃，如今已退市",
        "docid": "7319687694110687796",
        "url": ""
    },
    {
        "title": "为什么北欧那么高的福利，国家和政府都不会破产，其他国家却会？",
        "docid": "7319685428439695913",
        "url": ""
    },
    {
        "title": "废掉一个公司最快的方式：组织内耗",
        "docid": "7300774966172074523",
        "url": ""
    },
    {
        "title": "美国粮食产量全球第一的背后：60万流浪汉和极其严重的土地兼并",
        "docid": "7324306685198369334",
        "url": ""
    },
    {
        "title": "荷兰人口1800万，却创造了上万亿美元GDP，放在中国是什么水平？",
        "docid": "7314256866312192527",
        "url": ""
    },
    {
        "title": "卢伟冰：全球逐步形成苹果三星小米的头部品牌格局",
        "docid": "7324588670890312244",
        "url": ""
    },
    {
        "title": "韩多次请求下，中方恢复对韩关键原料出口，韩方转身对华发起调查",
        "docid": "7323896786412765750",
        "url": ""
    },
    {
        "title": "异地就医报销，一次性讲清，别再傻傻的自费了",
        "docid": "7316394914999517723",
        "url": ""
    },
    {
        "title": "杀疯了！广州豪宅成交量又创纪录",
        "docid": "7324732135661978146",
        "url": ""
    },
    {
        "title": "繁花：宝总用陶陶全部家当赚到第一桶金，为啥不带陶陶炒股赚钱？",
        "docid": "7324254340515119656",
        "url": ""
    },
    {
        "title": "一半钢琴厂倒闭，几万的钢琴5000块都卖不出！中产阶级们怎么了？",
        "docid": "7325631504774857216",
        "url": ""
    },
    {
        "title": "“超级牛散”钟格：从400块到20亿的“宝总”，2800点，我不慌！",
        "docid": "7326045663798542898",
        "url": ""
    },
    {
        "title": "衣服全是“假货”？继“南极人”之后，这4家品牌也靠卖吊牌赚钱",
        "docid": "7296395002228245026",
        "url": ""
    },
    {
        "title": "一栋楼不管多少层，这4层都属于“黄金楼层”，建议了解，很实用",
        "docid": "7301243663026864674",
        "url": ""
    },
    {
        "title": "即使再过一千年，石油都不会枯竭！终于明白为什么石油会涨价了！",
        "docid": "7323054402624225803",
        "url": ""
    },
    {
        "title": "曾经的首富陈天桥：全家移居新加坡，请现役乒乓球国手陪自己打球",
        "docid": "7303899801371312675",
        "url": ""
    },
    {
        "title": "人民日报关注：旧手机，如何物尽其用",
        "docid": "7320397595472708115",
        "url": ""
    },
    {
        "title": "中国国产车已经形成了一超、五强、二小霸、大六绝的局面了",
        "docid": "7298522811885355535",
        "url": ""
    },
    {
        "title": "浙江省13市财政最新出炉；杭州远超宁波，金华第6，丽水屈居末位",
        "docid": "7323774131223495204",
        "url": ""
    },
    {
        "title": "六大银行 大额存单最新利率：2024年1月，25万存一年利息有多少？",
        "docid": "7325327664662217242",
        "url": ""
    },
    {
        "title": "《繁花》大结局：阿宝就是爷叔，一生辗转，回首已惘然",
        "docid": "7320888390264865289",
        "url": ""
    },
    {
        "title": "原来大家今年不敢乱花钱是因为这样！看完网友评论，既真实又无奈",
        "docid": "7316817934817673780",
        "url": ""
    },
    {
        "title": "湖南人都去哪发展了，各省的湖南人数量统计",
        "docid": "7300872512722895371",
        "url": ""
    },
    {
        "title": "人才，只会流向被尊重的地方",
        "docid": "7304982232404902451",
        "url": ""
    },
    {
        "title": "“泥瓦工一家三口半月收入4万”引热议 业内公司：属于正常现象，但一年最多干九个月",
        "docid": "7324993921141359119",
        "url": ""
    },
    {
        "title": "关店超800家！自比LV、只线上销售，网友：以前买不起，现在不买",
        "docid": "7325494199397138978",
        "url": ""
    },
    {
        "title": "刷屏！知名女演员，被冻结1485万元！全球250名超级富豪，紧急发出联名信，啥情况？",
        "docid": "7325590688236798499",
        "url": ""
    },
    {
        "title": "大江大河3：身价1000万，分出60%股权的杨巡，为何挪用29000块?",
        "docid": "7324124618120495651",
        "url": ""
    },
    {
        "title": "便宜烟进不来货，高价烟卖不出！店老板：要一张“烟草证”有何用",
        "docid": "7311899002780860943",
        "url": ""
    },
    {
        "title": "为什么建议大家尽量使用现金支付？原因很现实，银行人告诉你答案",
        "docid": "7317919556301799976",
        "url": ""
    },
    {
        "title": "2023年胡润富豪榜，马云第10，李嘉诚第7，第一名连续蝉联3年",
        "docid": "7325817100546589199",
        "url": ""
    },
    {
        "title": "“我们不稀罕你的238亿遗产”！邵逸夫离世，4个子女不继承不送终",
        "docid": "7300107319571005978",
        "url": ""
    },
    {
        "title": "上海首富郭广昌，二婚娶新闻主播，女儿纽约卖旗袍，嫌国内太卷！",
        "docid": "7325679169147978255",
        "url": ""
    },
    {
        "title": "英特尔CEO：中国芯片将比美国先进技术差10年，十年后50%的芯片将在美国制造｜硅基世界",
        "docid": "7326031458308096531",
        "url": ""
    },
    {
        "title": "奉劝只有一个女儿的老人，50岁后要做好三个准备，稳稳当当的养老",
        "docid": "7325408526510686772",
        "url": ""
    },
    {
        "title": "“两百多万”的佣金，拿不到？",
        "docid": "7316884786432672282",
        "url": ""
    },
    {
        "title": "稻盛和夫：人的成长，始于三次觉醒",
        "docid": "7307997987337142823",
        "url": ""
    },
    {
        "title": "给甘肃捐款2000万还要被骂？这是为何？",
        "docid": "7314580815420162586",
        "url": ""
    },
    {
        "title": "2024，朴朴进入生死竞速",
        "docid": "7323521161093218857",
        "url": ""
    },
    {
        "title": "有人说：人口减少了房价就会下跌，我告诉你：这是胡说八道呢",
        "docid": "7317918799876178467",
        "url": ""
    },
    {
        "title": "2024自律清单，完成它，让40+的自己越来越哇塞",
        "docid": "7322322661433000457",
        "url": ""
    },
    {
        "title": "上海百态：被房子拖垮的上海人",
        "docid": "7325276731034698280",
        "url": ""
    },
    {
        "title": "监狱中服刑的狠人，初中学历的詹恩贵，是如何骗走企业1900万的？",
        "docid": "7304866013294903844",
        "url": ""
    },
    {
        "title": "山东省16市财政最新出炉：青岛远超济南，济宁第5，枣庄屈居末位",
        "docid": "7325660536379654675",
        "url": ""
    },
    {
        "title": "被人嘲笑人傻钱多的他，以160高价买入宁德时代，一年后爆赚228亿",
        "docid": "7325520372957233699",
        "url": ""
    },
    {
        "title": "有戏了！老旧小区改造新模式：原地重建，楼梯变电梯，每家多20平",
        "docid": "7323883771651097099",
        "url": ""
    },
    {
        "title": "身份证上1950年到1979年出生的人，需要做好面对“现实”的准备！",
        "docid": "7294134989325746739",
        "url": ""
    },
    {
        "title": "网上传广东最令人失望的城市梅州，绝对不是空穴来风？",
        "docid": "7324534121043247642",
        "url": ""
    },
    {
        "title": "北方真实实力前十：青岛第3，郑州远超西安，石家庄第9",
        "docid": "7301147415598367242",
        "url": ""
    },
    {
        "title": "新加坡排名第一的企业：年营收达到2万亿，超越了三星电子、丰田",
        "docid": "7324519928411980329",
        "url": ""
    },
    {
        "title": "第一批开咖啡店的富二代，已经赔惨了",
        "docid": "7293081509861605898",
        "url": ""
    },
    {
        "title": "千万别小瞧小区里面这几个生意，说不赚钱都是骗人的，比打工强！",
        "docid": "7299015926538945065",
        "url": ""
    },
    {
        "title": "极简生活：经济下行，请立刻停止做这16件事",
        "docid": "7315017609132130853",
        "url": ""
    },
    {
        "title": "家庭总资产100万处于什么阶层？",
        "docid": "7323011618844213760",
        "url": ""
    },
    {
        "title": "金融监管总局批复：同意！",
        "docid": "7326114901633581620",
        "url": ""
    },
    {
        "title": "商务部正式将2024年定为“消费促进年”。大胆消费，生活更精彩！",
        "docid": "7324640030084432384",
        "url": ""
    },
    {
        "title": "存下二十万后，我与存钱和解了",
        "docid": "7297426698122035751",
        "url": ""
    },
    {
        "title": "各行各业的内幕都有什么，看看行业精英怎么说",
        "docid": "7293516292005921332",
        "url": ""
    },
    {
        "title": "2024年我还是决定买房了，也不知道这个决定是对是错",
        "docid": "7323717144276140559",
        "url": ""
    },
    {
        "title": "“不到买票的时候都不敢点”！“大数据杀熟”为何屡禁不止？！",
        "docid": "7326037246807802379",
        "url": ""
    },
    {
        "title": "年销20亿！金丝猴奶糖30亿卖给美企，倒腾三年2.7亿被买回",
        "docid": "7318744917361558068",
        "url": ""
    },
    {
        "title": "我很知足！北京有这样的房子不多了，一间屋解决所有它不香吗？",
        "docid": "7315979226648347163",
        "url": ""
    },
    {
        "title": "无臂女孩杨佩：9岁没了双臂，自己创业当老板，成就精彩人生",
        "docid": "7302738183320961572",
        "url": ""
    },
    {
        "title": "你察觉没？今年春节前真不一般，这5个“现象”，和往年差别大",
        "docid": "7325451830459122202",
        "url": ""
    },
    {
        "title": "央媒发文曝光：一升油才6块钱，为什么非法加油站无法清除？",
        "docid": "7324166134486876672",
        "url": ""
    },
    {
        "title": "就是他！华人移民二代成为2024年加拿大首富",
        "docid": "7323940188068086313",
        "url": ""
    },
    {
        "title": "央行宣布！1月22日起，调整",
        "docid": "7326047411129647667",
        "url": ""
    },
    {
        "title": "同一箱牛奶为何实体店卖50元，网上只卖25元？内行人说出了实话",
        "docid": "7325350769619173924",
        "url": ""
    },
    {
        "title": "市场上的\"冰冻猪蹄\"从哪来的？冷藏柜老板说漏嘴，你听完再吃",
        "docid": "7321667249298047539",
        "url": ""
    },
    {
        "title": "单亲妈妈的真实微信支付账单告诉你：为什么大家不敢花钱！",
        "docid": "7305564722676597300",
        "url": ""
    },
    {
        "title": "不要来加拿大了！从一碗米线看加拿大疯涨的物价！",
        "docid": "7325638235869200950",
        "url": ""
    },
    {
        "title": "湖北启动春节返乡安居活动，全省24万多套房供返乡游子选购",
        "docid": "7324507861235974683",
        "url": ""
    },
    {
        "title": "A股遭遇金融战和舆论战！伤亡惨重",
        "docid": "7325983811744006691",
        "url": ""
    },
    {
        "title": "曾仕强：你的家庭最好的聚财方式，要满足这五个条件",
        "docid": "7325364719848636938",
        "url": ""
    },
    {
        "title": "信韩红不信红十？若经红十捐100万到灾区，你觉得群众到手有多少",
        "docid": "7317673307011138063",
        "url": ""
    },
    {
        "title": "59公里收费420元？司机：上海打车就这么贵…女子投诉后更傻眼，网友心痛：曾经的城市名片成啥样了",
        "docid": "7322735356435137074",
        "url": ""
    },
    {
        "title": "不卖隔夜肉、不售隔夜瓜，全是童年的味道，三句话三个智商税",
        "docid": "7311313885561405967",
        "url": ""
    },
    {
        "title": "看完网友评论，终于明白为何中国邮政被称为第二陆军了！",
        "docid": "7301934421488747058",
        "url": ""
    },
    {
        "title": "株式会社是什么意思？为何很多日本企业，都带有这四个字？",
        "docid": "7304572202354590218",
        "url": ""
    },
    {
        "title": "全球250名超级富豪发联名信：“向我们征更高的税”",
        "docid": "7325601049664848434",
        "url": ""
    },
    {
        "title": "全球挖掘机新排位揭晓：徐工第6，三一第4，行业一哥年销947亿",
        "docid": "7321365559277535785",
        "url": ""
    },
    {
        "title": "风力发电危害有多大？欧美疯狂拆除，为何中国海上都建风电场了！",
        "docid": "7301993131527111205",
        "url": ""
    },
    {
        "title": "抄袭美国桥梁技术？中国斥10亿建第一高桥，却遭百万美国民众声讨",
        "docid": "7294199563622154791",
        "url": ""
    },
    {
        "title": "从吃不起到没人吃！鲍鱼经历了什么？",
        "docid": "7319255121924325915",
        "url": ""
    },
    {
        "title": "中国唯一富过十五代的家族，凭什么兴盛五百年？",
        "docid": "7312698865784750633",
        "url": ""
    },
    {
        "title": "不听劝，买了“一楼带院子”的房子，入住5年，有些话不吐不快",
        "docid": "7298381453061521961",
        "url": ""
    },
    {
        "title": "1991中国十强县，今夕何在？",
        "docid": "7299268754469601826",
        "url": ""
    },
    {
        "title": "实话实说：90%的消费者，都养不起2.0L以上排量的发动机！",
        "docid": "7326182146342027827",
        "url": ""
    },
    {
        "title": "出车祸时应该先报警还是报保险？顺序可不能错，要不然吃亏的是自己",
        "docid": "7306320711805682227",
        "url": ""
    },
    {
        "title": "奈雪用了九年时间，从最贵变成最惨奶茶店，放下姿态后能拯救吗？",
        "docid": "7325333612231066123",
        "url": ""
    },
    {
        "title": "全球十大知名色彩，中国占两席",
        "docid": "7303741771731894793",
        "url": ""
    },
    {
        "title": "未到退休年龄，社保已缴满15年社保，还要缴吗？这份提示请收好→",
        "docid": "7305275556332306970",
        "url": ""
    },
    {
        "title": "深圳Costco开业两日，吸引数万港人！这14款商品被疯抢",
        "docid": "7324149935086354953",
        "url": ""
    },
    {
        "title": "广东经济：肇庆这么“偏远”，为什么能被列入粤港澳大湾区？",
        "docid": "7294981766820069929",
        "url": ""
    },
    {
        "title": "值得不断加仓和持有的五只高分红银行股",
        "docid": "7325435567906112026",
        "url": ""
    },
    {
        "title": "看完日本消费贷款发展史，我知道了为什么大家活得这么累。",
        "docid": "7317704803591668276",
        "url": ""
    },
    {
        "title": "24连一字跌停，股价从53.93元至0.96元，惨不忍睹！",
        "docid": "7324677430302786060",
        "url": ""
    },
    {
        "title": "有一种深圳速度，叫龙岗",
        "docid": "7304155739843658249",
        "url": ""
    },
    {
        "title": "投资5100亿建雄安，打造中国科技城，约三个纽约大，如今怎样了？",
        "docid": "7326004894706631168",
        "url": ""
    },
    {
        "title": "明确了！发放3倍工资！",
        "docid": "7317467200519832073",
        "url": ""
    },
    {
        "title": "2023全省GDP出炉！湖南发展惨淡GDP增速低于全国，将被安徽超越？",
        "docid": "7325983498357998131",
        "url": ""
    },
    {
        "title": "上海某设计院全员停工,暂定三个月!",
        "docid": "7325784853352743459",
        "url": ""
    },
    {
        "title": "收到这类短信请删除，不然年底可能会变穷",
        "docid": "7322384145131815465",
        "url": ""
    },
    {
        "title": "四川：资阳市因何成为幸运儿，成为川内第一座拥有地铁的地级市？",
        "docid": "7307522600857535014",
        "url": ""
    },
    {
        "title": "一天吃透一条产业链： 黄金",
        "docid": "7314248495081341492",
        "url": ""
    },
    {
        "title": "我从“电梯房”搬回“楼梯房”后！有些话不吐不快，太真实了",
        "docid": "7325714771481952819",
        "url": ""
    },
    {
        "title": "百万医疗险或将成为行业鸡肋。",
        "docid": "7295586990702559785",
        "url": ""
    },
    {
        "title": "为啥德国没有伦敦、巴黎这样的大城市？看看真实的德国城市什么样",
        "docid": "7320465174098838026",
        "url": ""
    },
    {
        "title": "沪一女子每天崩溃拖地!女儿高烧一句话彻底压垮",
        "docid": "7317472920354374154",
        "url": ""
    },
    {
        "title": "新股发行价163.56元，大股东一路减持，现在跌到28，这还怎么玩？",
        "docid": "7326068510197776936",
        "url": ""
    },
    {
        "title": "上午回收，下午做拆解，一年能挣25万，这2个小生意都很暴利！",
        "docid": "7296699940762403364",
        "url": ""
    },
    {
        "title": "唱衰房地产的人，快醒醒吧，房地产不会大幅度下跌，更没有泡沫！",
        "docid": "7301994095554085386",
        "url": ""
    },
    {
        "title": "克而瑞预测：中国房地产市场有望在2026年前后达成短期探底",
        "docid": "7325020682419995172",
        "url": ""
    },
    {
        "title": "中年返贫，七步预防法！",
        "docid": "7326101557166342671",
        "url": ""
    },
    {
        "title": "中山为什么不能跟珠海合并？这三个理由大家认不认可？",
        "docid": "7295389815095165459",
        "url": ""
    },
    {
        "title": "真“免费送房”？佛山一业主：帮我还房贷就行！",
        "docid": "7325466189944193570",
        "url": ""
    },
    {
        "title": "高层成了热锅上的蚂蚁，比散户更头疼，出路到底在哪里？",
        "docid": "7326123026574049818",
        "url": ""
    },
    {
        "title": "探索31省份居民人均可支配收入：你的收入是否达到平均水平？",
        "docid": "7326242361531515427",
        "url": ""
    },
    {
        "title": "洗个澡差点丢了性命，水电工：是图财是害命？全在一“线”间啊！",
        "docid": "7316379287584965171",
        "url": ""
    },
    {
        "title": "你敢相信吗？一个县级市就敢规划一条城际铁路！结果可想而知了！",
        "docid": "7296308132886626857",
        "url": ""
    },
    {
        "title": "吴晓波再回击程苓峰：如果觉得我写书差，自己去写一本",
        "docid": "7325746595201778191",
        "url": ""
    },
    {
        "title": "交通运输部：春节小客车高速免费9天，正月初八为返程高峰",
        "docid": "7324606327685497395",
        "url": ""
    },
    {
        "title": "中小企业生意经调研报告：  “90后”做生意发现了“酒桌平替”",
        "docid": "7325651641322226230",
        "url": ""
    },
    {
        "title": "人老了要有多少存款才够呢，如果以下几点都做到了，那三五万就行",
        "docid": "7299102363690730011",
        "url": ""
    },
    {
        "title": "2023年甘肃省14市财政收入：酒泉第3，定西力压武威，嘉峪关第12",
        "docid": "7324346789375722022",
        "url": ""
    },
    {
        "title": "全球最大！仪征这个大项目即将投产......",
        "docid": "7325354132750320168",
        "url": ""
    },
    {
        "title": "先买还是先卖？走错一步就是损失百万！",
        "docid": "7325418407904641563",
        "url": ""
    },
    {
        "title": "深圳各区二手房成交数据汇总（ 2023年12月 共1259条）",
        "docid": "7326145297896423986",
        "url": ""
    },
    {
        "title": "纸币！靠纸币能维持一个帝国的强大的，除了他们自己，谁信呢？",
        "docid": "7319427232785973812",
        "url": ""
    },
    {
        "title": "我，19岁大学肄业，到韩国当刷碗工，15年后成为韩国知名女CEO",
        "docid": "7295377157856854543",
        "url": ""
    },
    {
        "title": "千万粉丝网红“陆仙人”摊上事了！已停播超20天",
        "docid": "7326373368104583734",
        "url": ""
    },
    {
        "title": "创业，绝对不是赚钱的最佳方式！",
        "docid": "7317508608818758178",
        "url": ""
    },
    {
        "title": "收费30年，为啥中国高速公路还没有回本？民众：别再延长收费了！",
        "docid": "7323935430120964658",
        "url": ""
    },
    {
        "title": "深圳“包租婆”：坐拥1200套房，每月收租160万，发家史令人敬佩",
        "docid": "7296664933209833993",
        "url": ""
    },
    {
        "title": "这5个城市，最依赖富士康",
        "docid": "7293412740427891200",
        "url": ""
    },
    {
        "title": "一定要存钱啊，这次准备回老家，初步预算超过了6万，没钱太难了",
        "docid": "7307456107596612115",
        "url": ""
    },
    {
        "title": "当下，你为什么要着急“恐慌性卖房”？",
        "docid": "7306065605814288948",
        "url": ""
    },
    {
        "title": "印度塔塔集团，真的是强大到没朋友！",
        "docid": "7314643978056696332",
        "url": ""
    },
    {
        "title": "只要不怕脏，一月能挣上三五万，这3个商机很挣钱，在农村干正好",
        "docid": "7293059710020928012",
        "url": ""
    },
    {
        "title": "十个人创业九个失败的原因",
        "docid": "7323589651892093494",
        "url": ""
    },
    {
        "title": "雷军回应“小米造车造晚了”：晚有晚的好处，有后发优势",
        "docid": "7326194005476442639",
        "url": ""
    },
    {
        "title": "终于有人把“个人所得税是怎么扣”整理出来了！赶紧收藏起来看吧",
        "docid": "7325653932482544155",
        "url": ""
    },
    {
        "title": "吸管大王楼仲平：被央视6次点名，靠0.0008元利润，干到全球第一",
        "docid": "7306801363915293210",
        "url": ""
    },
    {
        "title": "2023年经济太萧条了，朋友开店不到一个月倒闭，直接亏损二十万",
        "docid": "7310114397379510799",
        "url": ""
    },
    {
        "title": "最牛打工妹王来春：专“抢”富士康生意赚1800亿，大方分二哥一半",
        "docid": "7301624913063084570",
        "url": ""
    },
    {
        "title": "征迁2579亩！涉6个村！市政建设、安置房、医院、码头、冷链中心",
        "docid": "7325706543964635698",
        "url": ""
    },
    {
        "title": "张小泉，胆子太大了",
        "docid": "7304989714661212699",
        "url": ""
    },
    {
        "title": "清华亲兄弟、师兄弟，双双弃高薪回国！",
        "docid": "7324529352169800203",
        "url": ""
    },
    {
        "title": "一个投资60亿的度假酒店，却荒废烂尾十几年，是谁这么大手笔",
        "docid": "7321536472774771210",
        "url": ""
    },
    {
        "title": "全球十大造船集团：日本1家，江苏企业占2席，榜首手持订单639艘",
        "docid": "7325036068892394023",
        "url": ""
    },
    {
        "title": "美锦能源最新公告：拟将“氢燃料电池动力系统及氢燃料商用车零部件生产项目（一期一阶段）”延期至2025年12月",
        "docid": "7325421051444658688",
        "url": ""
    },
    {
        "title": "53岁坐牢，71岁出狱后再创业，82岁身家千万，她是最牛创业者",
        "docid": "7312741401589236235",
        "url": ""
    },
    {
        "title": "业绩飙升达1286%，外资热衷中国科技股！2023年GDP增长预期超5%，资本市场迎来春天",
        "docid": "7324871954723308072",
        "url": ""
    },
    {
        "title": "吴晓求教授又一次发声：曝光第三方机构的丑恶嘴脸！",
        "docid": "7326388122852606491",
        "url": ""
    },
    {
        "title": "北京大学严正声明",
        "docid": "7326166561478230555",
        "url": ""
    },
    {
        "title": "中产阶级涌入三亚，疯抢房源现象出现，“冲动消费”背后真相曝光",
        "docid": "7326419011627909667",
        "url": ""
    },
    {
        "title": "“团贷网”登记倒计时1天，等待开奖！",
        "docid": "7326343322002358799",
        "url": ""
    },
    {
        "title": "首份股份行业绩快报：招行总资产突破 11万亿元",
        "docid": "7325785837940769343",
        "url": ""
    },
    {
        "title": "一天吃透一条产业链：No.10储能",
        "docid": "7312022660832068147",
        "url": ""
    },
    {
        "title": "房产证不管写谁的名字，已经不重要了？以下四条“规定”你要知道",
        "docid": "7298253305036947995",
        "url": ""
    },
    {
        "title": "第一次面对人口负增长，我们经济发展如何调整？看卢克文给大家聊",
        "docid": "7325387930636370432",
        "url": ""
    },
    {
        "title": "全球最牛公司，注册资金高达153万亿！堪比美国一年GDP，为何注销",
        "docid": "7320510728820687410",
        "url": ""
    },
    {
        "title": "房子退租，她们说请了保洁打扫了四个小时，可押金还是“押”住了",
        "docid": "7325708502796829238",
        "url": ""
    },
    {
        "title": "老爸去银行存了10000元，银行送他两袋20斤的米，这米能拿吗？",
        "docid": "7302047922513216015",
        "url": ""
    },
    {
        "title": "竟然有人认为股票上涨是风险？天下之滑稽！",
        "docid": "7326369285465981474",
        "url": ""
    },
    {
        "title": "中听 | 演唱会买票被“调剂”，是变相“挂羊头卖狗肉”",
        "docid": "7325363450685768203",
        "url": ""
    },
    {
        "title": "每天吃透一条产业链：氢能",
        "docid": "7314244631682925056",
        "url": ""
    },
    {
        "title": "统计局人口数据出炉了，照这样下去不是一件好事",
        "docid": "7325024079562588709",
        "url": ""
    },
    {
        "title": "中国老百姓银行存款多，不是因为有钱，那是因为什么？",
        "docid": "7325694102593716771",
        "url": ""
    },
    {
        "title": "为什么越来越多人选择住酒店，而不是宾馆呢？内行人说出原因",
        "docid": "7298651895659266599",
        "url": ""
    },
    {
        "title": "年入50亿，排队爆火！东北“胖东来”，凭什么能赢拼多多?",
        "docid": "7325370543593488933",
        "url": ""
    },
    {
        "title": "买黄金需要注意哪些问题？三张图详细了解",
        "docid": "7310961632753025551",
        "url": ""
    },
    {
        "title": "您的银行卡是借记卡还是储蓄卡？两者的区别是什么？",
        "docid": "7307530640562520613",
        "url": ""
    },
    {
        "title": "黄智贤：白眼狼日本大赚中国游客消费 ，还觊觎我国养老医疗资源",
        "docid": "7325648047240102439",
        "url": ""
    },
    {
        "title": "大疆科技狂人汪滔：公司多次崩盘，如今千亿身价",
        "docid": "7319421410840166923",
        "url": ""
    },
    {
        "title": "我49岁，活成了一个笑话！在深圳工作20多年，付出青春却一无所有",
        "docid": "7314587061741748763",
        "url": ""
    },
    {
        "title": "寒潮将至！王健林已卖10座万达广场；特斯拉赛博皮卡只秀不卖；成都至北京票价只卖47元？12306回应……",
        "docid": "7326356419375022643",
        "url": ""
    },
    {
        "title": "年轻人为何“抛弃”信用卡？",
        "docid": "7325585278322917924",
        "url": ""
    },
    {
        "title": "2023年度中国房地产十大人物",
        "docid": "7317968917169816116",
        "url": ""
    },
    {
        "title": "欧美高科技为何不敢给中国？荷兰70万的平衡车，中国1000块造出来",
        "docid": "7316422997164720640",
        "url": ""
    },
    {
        "title": "2023年发动机最不靠谱自主车企排行：强制启动投诉霸榜",
        "docid": "7325984153190826550",
        "url": ""
    },
    {
        "title": "2024年更重要的：不要买房、不要买房",
        "docid": "7325691277482279459",
        "url": ""
    },
    {
        "title": "金融战局已展开，美国早已全面布局。当前美、日等股市持续疯涨！",
        "docid": "7326424227605660199",
        "url": ""
    },
    {
        "title": "2023年，绵阳GDP 首破 4000亿，2026 年爆发，2 个 5000 亿，4 个 4000 亿",
        "docid": "7325370229616968201",
        "url": ""
    },
    {
        "title": "北大教授姚洋预测未来中国楼市走势，若无意外，或大概率是对的",
        "docid": "7321569849242141219",
        "url": ""
    },
    {
        "title": "网友自曝买房经历：21 年西安买房还贷 3 年如今降到 140 万亏本 30 万",
        "docid": "7324609899042734631",
        "url": ""
    },
    {
        "title": "越来越多的五星级酒店徒有虚名竟然被亚朵全季开始吊打了",
        "docid": "7317796081658544655",
        "url": ""
    },
    {
        "title": "重庆“合川首富”：20岁白手起家，生意帮他一年赚23.4亿",
        "docid": "7307590393192268303",
        "url": ""
    },
    {
        "title": "股市，正在进入最残酷时刻！",
        "docid": "7325649730527429130",
        "url": ""
    },
    {
        "title": "电商与直播都将跌下神坛，新的零售模式兴起：未来10年都是趋势！",
        "docid": "7298662383583724068",
        "url": ""
    },
    {
        "title": "看我如何提前还款，将按揭从2386降为1346",
        "docid": "7298698859906335295",
        "url": ""
    },
    {
        "title": "包头煤老板“自爆式”举报财务总监虚开发票2.82亿 多个乡镇政府工作人员涉案",
        "docid": "7324278559143559718",
        "url": ""
    },
    {
        "title": "最有价值：国资云，大飞机，数字货币，人工智能，半导体，芯片等",
        "docid": "7325015576567415330",
        "url": ""
    },
    {
        "title": "全球第一大叉车制造商：年收入超过1200亿元，相当于8个安徽合力",
        "docid": "7307472928550011411",
        "url": ""
    },
    {
        "title": "长江以南最大的军工制造城市，竟然是湖南这个小城！",
        "docid": "7312419727622832674",
        "url": ""
    },
    {
        "title": "10年改为11年，职工医保退休最低实缴年限改啦",
        "docid": "7310517715876659731",
        "url": ""
    },
    {
        "title": "但斌：曾经为了节约两块钱走十几里路，我们走过的岁月跟国家走过的岁月一样，非常难",
        "docid": "7324603451634958902",
        "url": ""
    },
    {
        "title": "从政府内部看中国，才能真正读懂中国",
        "docid": "7308342813907943999",
        "url": ""
    },
    {
        "title": "在银行存多少钱，才能成为“黑卡客户”？大小银行差别很大？",
        "docid": "7312749757393437224",
        "url": ""
    },
    {
        "title": "“汇川技术”的突围之道！即将走向全球！",
        "docid": "7322829708381536795",
        "url": ""
    },
    {
        "title": "中国的工业化，从始至终都是在为下一场战争做准备。",
        "docid": "7319084314140951081",
        "url": ""
    },
    {
        "title": "中兴通讯正进行小规模人员优化",
        "docid": "7324281250976547365",
        "url": ""
    },
    {
        "title": "一则IPO透露出的外卖“内卷”：骑手一天花9元租电池跑百公里",
        "docid": "7324144383073387020",
        "url": ""
    },
    {
        "title": "400亿工程没有国家敢接，中国接手遭到重重阻碍，竣工后惊艳世界",
        "docid": "7325013050640368164",
        "url": ""
    },
    {
        "title": "三条有趣的概率问题，每一条都值得投资者反思",
        "docid": "7308344178675925554",
        "url": ""
    },
    {
        "title": "一张图表告诉你，你购买的地下停车位，是不是花了冤枉钱",
        "docid": "7322234488019223103",
        "url": ""
    },
    {
        "title": "天津最强烂尾楼：曾耗资700亿成全国第一高楼，如今结局令人唏嘘",
        "docid": "7315005466172539444",
        "url": ""
    },
    {
        "title": "笑不活了，大雪撕下了新能源汽车的遮羞布，我笑死在网友的评论区",
        "docid": "7315062733022528034",
        "url": ""
    },
    {
        "title": "下周这只股票解禁46亿元！",
        "docid": "7326360150103786018",
        "url": ""
    },
    {
        "title": "简阳、彭州、金堂、都江堰、崇州、邛崃、大邑，上榜！",
        "docid": "7301518986423616040",
        "url": ""
    },
    {
        "title": "我家从5楼换成25楼后，不得不承认越住越舒服，太真实了！",
        "docid": "7321245737977987624",
        "url": ""
    },
    {
        "title": "明天A股怎么走？我做了一个大胆的预判。具体请看我的手绘预测图",
        "docid": "7326361298692882954",
        "url": ""
    },
    {
        "title": "香港穷人住的“棺材屋”有多挤：一间房不到十平米，房子每平20万",
        "docid": "7324953369276137984",
        "url": ""
    },
    {
        "title": "深圳costco超市如此火爆打了谁的脸？",
        "docid": "7325979355962720768",
        "url": ""
    },
    {
        "title": "中国商务部：刺激消费！鼓励更新换代！",
        "docid": "7326416929835762195",
        "url": ""
    },
    {
        "title": "她每天坐在商场里敲锣，快一个月了，周边商户一天营业额只有99块",
        "docid": "7324226967790993939",
        "url": ""
    },
    {
        "title": "吉利控股 49亿，出售沃尔沃集团股份！",
        "docid": "7325994706071568936",
        "url": ""
    },
    {
        "title": "我河北农村人，40岁清零闯荡德国，然而现实并没有想象中那么美好",
        "docid": "7300538153156231680",
        "url": ""
    },
    {
        "title": "为何湖北大冶疯狂造城，低廉的大冶房价，大冶市城镇化为抢人留人",
        "docid": "7326157884360851994",
        "url": ""
    },
    {
        "title": "退伍军人优先只是幌子？事大了，网友评论一面倒，银行出面解释！",
        "docid": "7325063525746295296",
        "url": ""
    },
    {
        "title": "“电费刺客”！上海一女子家中一个月电费缴纳3481元！",
        "docid": "7324875456744866339",
        "url": ""
    },
    {
        "title": "突然因为一场关于假冒五常大米的争议登上了热搜",
        "docid": "7326042327301194275",
        "url": ""
    },
    {
        "title": "过冬圣地！中产涌入三亚扎堆买房子，网友:确实是个养老好去处！",
        "docid": "7326418193298702848",
        "url": ""
    },
    {
        "title": "光大银行员工自爆年终奖＋工资收入明细，网友说：高，确实是高",
        "docid": "7326451739199291913",
        "url": ""
    },
    {
        "title": "上海夫妻买房2年后发现房子“秘密”，竟出过这种事……",
        "docid": "7308278836633223707",
        "url": ""
    },
    {
        "title": "房地产开发商到底建了多少假麦当劳？",
        "docid": "7295590869955134015",
        "url": ""
    },
    {
        "title": "如果中国不再依赖房地产，那么我们将依靠什么去推动经济发展？",
        "docid": "7317545682548834825",
        "url": ""
    },
    {
        "title": "广州四大片区旧改首个拆迁补偿方案出炉，最高6600元/平",
        "docid": "7325628928700432908",
        "url": ""
    },
    {
        "title": "从改革开放起，房价一降再降，为何大家总说房价在涨？",
        "docid": "7326145538255225384",
        "url": ""
    },
    {
        "title": "存到50万后我的消费观",
        "docid": "7308889898881253924",
        "url": ""
    },
    {
        "title": "超一线垃圾袋网红停播20天，肿了吗？\"网红经济\"还要持续多久？",
        "docid": "7326455818029842996",
        "url": ""
    },
    {
        "title": "奇了怪?便宜香烟越来越少? 烟贩老板:不是不卖，有“几大原因”",
        "docid": "7319448313726566927",
        "url": ""
    },
    {
        "title": "南京富豪榜前五名揭晓，看看谁是南京最有钱的人",
        "docid": "7319143688649802252",
        "url": ""
    },
    {
        "title": "2024年这三个板块或将迎来报复性上涨",
        "docid": "7325991868762718754",
        "url": ""
    },
    {
        "title": "五年后，电梯房和步梯房谁更受欢迎，答案已经很明显了",
        "docid": "7303085050315489826",
        "url": ""
    },
    {
        "title": "出人意料，成都女老板套现5.5亿，把30年的家业交给了国资",
        "docid": "7315274176519078415",
        "url": ""
    },
    {
        "title": "有没有比公开谴责更严厉的制裁，A股不能跌了，大家急，村里也急",
        "docid": "7326418268607005184",
        "url": ""
    },
    {
        "title": "低调地赚1000w不让任何人知道",
        "docid": "7326072674986639881",
        "url": ""
    },
    {
        "title": "你可以瞧不上现代汽车，但歪曲它就是你的无知了！",
        "docid": "7297438589750067753",
        "url": ""
    },
    {
        "title": "你发现了吗？原住民大量搬离市中心，新市民却在市中心购房定居",
        "docid": "7325616967967162889",
        "url": ""
    },
    {
        "title": "2023年已出省市区GDP",
        "docid": "7326204448680935970",
        "url": ""
    },
    {
        "title": "中国首个GDP破千亿的镇，已超越部分地级市，综合实力全国第二",
        "docid": "7301002277458821651",
        "url": ""
    },
    {
        "title": "丰田第九代凯美瑞来袭，外观内饰大改，升级8155芯片，带劲不？",
        "docid": "7320171557979161115",
        "url": ""
    },
    {
        "title": "下周及春节前后股市行情之我见",
        "docid": "7326382314480321033",
        "url": ""
    },
    {
        "title": "时富力强！这家公司三季度才赚1.65亿，却豪掷年终奖1.3亿。",
        "docid": "7326383094867886642",
        "url": ""
    },
    {
        "title": "从“去中国化”到“去中国”，德国为何决定把化工产业搬到中国？",
        "docid": "7298300191567069759",
        "url": ""
    },
    {
        "title": "麦肯锡：全球银行业年度报告（银行业大变局）",
        "docid": "7325814058597794339",
        "url": ""
    },
    {
        "title": "濮阳富豪胡葆森：曾身家190亿，地产项目覆盖河南，能否走出危机",
        "docid": "7309329440415154714",
        "url": ""
    },
    {
        "title": "“买你们的基金亏了20个点！” 思源电气董秘电话会戏谑基金反遭心理按摩：“你要相信”",
        "docid": "7325695827015287306",
        "url": ""
    },
    {
        "title": "退休后，不管在谁面前，都不要亮出这3张“底牌”",
        "docid": "7296496405084946980",
        "url": ""
    },
    {
        "title": "走上管理岗位，要学会布置工作",
        "docid": "7316348919930225167",
        "url": ""
    },
    {
        "title": "刚刚嘲笑黑龙江的蔓越莓，结果遭到了自家背刺",
        "docid": "7321888455322092044",
        "url": ""
    },
    {
        "title": "专家建议股民，如果实在受不了股市的波动！可以跑路可以锻炼身体",
        "docid": "7326046861616431631",
        "url": ""
    },
    {
        "title": "巨惨！1个月亏50万，倒闭、空铺、转让…成都太难了！",
        "docid": "7326365156018324031",
        "url": ""
    },
    {
        "title": "30万买了一套二手房，步梯五楼，我后悔了",
        "docid": "7296100677037212210",
        "url": ""
    },
    {
        "title": "女子被1厘米台阶绊倒骨折，向商场索赔5万余元，获赔1.5万",
        "docid": "7324136429922664970",
        "url": ""
    },
    {
        "title": "为什么有钱人搬离别墅重回大平层？不是矫情，而是六个血泪教训！",
        "docid": "7296795644138832394",
        "url": ""
    },
    {
        "title": "梁建章建议给有孩家庭每月1千至6千，三孩家庭个人所得税和社保全免除",
        "docid": "7324953501808050724",
        "url": ""
    },
    {
        "title": "但斌：有人认为美股估值高了，我认为才刚刚开始",
        "docid": "7324611939639018003",
        "url": ""
    },
    {
        "title": "宁可买4楼和14楼，也不要买这“4个楼层”，它们都是标准的穷人房",
        "docid": "7319384306244551183",
        "url": ""
    },
    {
        "title": "津巴布韦：“穷”到只剩下钱的国家，花钱论斤称，造世界最大币值",
        "docid": "7299040905905373715",
        "url": ""
    },
    {
        "title": "一年赚5000万的付费社群，生财、群响、飞象你知道哪个",
        "docid": "7296661662801936923",
        "url": ""
    },
    {
        "title": "王健林的第一大租客，一年入账近900亿，比房东还有钱",
        "docid": "7293542155648729627",
        "url": ""
    },
    {
        "title": "抖音卖房，把我卷焦虑了",
        "docid": "7299634179367666239",
        "url": ""
    },
    {
        "title": "各省发电厂龙头 - 中部篇",
        "docid": "7297952681053356594",
        "url": ""
    },
    {
        "title": "市值蒸发3635亿！靠薅羊毛打开名声，海底捞也忍不住收费了?",
        "docid": "7325750349594460722",
        "url": ""
    },
    {
        "title": "2023年全国31省GDP发布：湖南突破5万亿，山东第3，河北领先北京",
        "docid": "7326448363988206099",
        "url": ""
    },
    {
        "title": "王诗龄也开二奢店？万亿级二奢市场加速崛起，广东带头买买买",
        "docid": "7325782365471932991",
        "url": ""
    },
    {
        "title": "三亚一摊主卖水果三斤变两斤。执法部门：反映属实，该流动摊贩已找到，依法启动对其行政处罚30000元的程序",
        "docid": "7326429027902882339",
        "url": ""
    },
    {
        "title": "被三个子女轮流养老后才发现：人老了，退休金和存款比什么都重要",
        "docid": "7293349010557927973",
        "url": ""
    },
    {
        "title": "不搞笑：麦当劳买回中国麦当劳！看看星巴克和蜜雪冰城就知道原因",
        "docid": "7305576520662401586",
        "url": ""
    },
    {
        "title": "任泽平，凌晨回应",
        "docid": "7326369298631770634",
        "url": ""
    },
    {
        "title": "曹德旺说中国经济：不要自己骗自己，说明天会更好",
        "docid": "7321772479242912296",
        "url": ""
    },
    {
        "title": "华晨中国或将退出华晨宝马，仅剩的25%股份也将保不住",
        "docid": "7324990251624399379",
        "url": ""
    },
    {
        "title": "我发现一个现象，现在的商场是越来越荒凉了",
        "docid": "7323045989030609442",
        "url": ""
    },
    {
        "title": "知名茶饮，宣布关停！",
        "docid": "7326474142566613530",
        "url": ""
    },
    {
        "title": "上海隐形富豪，坐拥380亿布局15家上市公司，却在街头站着吃盒饭",
        "docid": "7313079852901892648",
        "url": ""
    },
    {
        "title": "国税总局：去年社会保险费收入 8.2万亿元，缴费服务人数超13亿",
        "docid": "7325615241621504553",
        "url": ""
    },
    {
        "title": "吉林一银行工作人员告知客户退役军人不能优先！银行回应：新来的",
        "docid": "7325020575897125412",
        "url": ""
    },
    {
        "title": "罕见，华为在成都发起了组团收购",
        "docid": "7326097104043278902",
        "url": ""
    },
    {
        "title": "2024年个税专项附加扣除，瞎填可就麻烦了",
        "docid": "7326118947139977763",
        "url": ""
    },
    {
        "title": "鹏华基金，也亏麻了",
        "docid": "7325450408728724018",
        "url": ""
    },
    {
        "title": "温哥华人口260万，创造了1870亿美元GDP，放在中国什么水平？",
        "docid": "7319515647560401448",
        "url": ""
    },
    {
        "title": "第一批！70个央企在京老旧小区综合整治项目公布",
        "docid": "7324562828436701736",
        "url": ""
    },
    {
        "title": "未来10年，这3个行业或将面临“下岗潮”：懂行的人，已开始转型",
        "docid": "7326501811240763954",
        "url": ""
    },
    {
        "title": "超越时代的苏联住宅：圆形设计可住5000人，建成后却没人买",
        "docid": "7309014908749005327",
        "url": ""
    },
    {
        "title": "方新侠：1.22日周一策略：下周关注点在这里！",
        "docid": "7326459836794176010",
        "url": ""
    },
    {
        "title": "江苏8城进入发达国家水平：无锡远超苏州，南京、常州入围",
        "docid": "7326167316642005523",
        "url": ""
    },
    {
        "title": "强省会崛起！第八个2万亿城市，它来了！",
        "docid": "7325706508329599528",
        "url": ""
    },
    {
        "title": "许小年：政府怎么可能比民间有更多的信息，比民间更高瞻远瞩？",
        "docid": "7325759297664680485",
        "url": ""
    },
    {
        "title": "算算账，一个月1000元能不能花完",
        "docid": "7325591954316689958",
        "url": ""
    },
    {
        "title": "房产证持有人去世后，你知道怎么“更换户主”吗？建议收藏！",
        "docid": "7305629605484839464",
        "url": ""
    },
    {
        "title": "湖北倒数前十名穷县，看看有你家乡吗？",
        "docid": "7297377533396369959",
        "url": ""
    },
    {
        "title": "2023年惊人数据揭示：中国超过一半省份居民收入破3万元大关",
        "docid": "7326446318803796507",
        "url": ""
    },
    {
        "title": "越来越多的客运站被“关停”，这意味着什么？客运站要消失了吗？",
        "docid": "7311964209376428556",
        "url": ""
    }
]