[
    {
        "title": "两大“毒瘤”不除，老百姓怎么敢消费？原来老百姓的钱都被吸走了",
        "docid": "7320167367681212980",
        "url": ""
    },
    {
        "title": "离谱！预算96万的采购项目，投标报价仅8万。评标专家：有效！",
        "docid": "7343492206147650084",
        "url": ""
    },
    {
        "title": "\"伪国货\"蒸发300亿！\"炊具大王\"被消费者狠狠上了一课，如何破局?",
        "docid": "7337608249178456627",
        "url": ""
    },
    {
        "title": "微信、支付宝这些功能赶紧关闭！",
        "docid": "7319021294958330419",
        "url": ""
    },
    {
        "title": "李想最新发声：存在有组织违法犯罪！",
        "docid": "7344959168098796042",
        "url": ""
    },
    {
        "title": "大惑不解，上海没有大公司，为什么会有那么高的GDP呢？",
        "docid": "7330047108780933666",
        "url": ""
    },
    {
        "title": "湖北黄冈一化工企业爆炸火光冲天疑有厂房被炸毁，应急局回应：已经到场处置",
        "docid": "7345127812871553551",
        "url": ""
    },
    {
        "title": "因鹅太贵，四川女子大闹东北饭店称被宰，如此维权是太荒唐",
        "docid": "7345080561620484635",
        "url": ""
    },
    {
        "title": "人间清醒的年轻人，当代年轻人的思想与觉悟，活得太通透了",
        "docid": "7323070238935908890",
        "url": ""
    },
    {
        "title": "只因替顾客说话，他被扣工资后开除，小伙反手举报：店里都是假货",
        "docid": "7315623012374577701",
        "url": ""
    },
    {
        "title": "越闹越大，从日本进口食品检测出放射物，网友评论区却不当回事",
        "docid": "7344690031401304591",
        "url": ""
    },
    {
        "title": "高压合闸的恐怖瞬间，雷公见了都害怕，电力人员注意安全",
        "docid": "7320089527430119971",
        "url": ""
    },
    {
        "title": "吃华莱士那么多人拉稀，为什么不投诉举报？评论区让我当场泪崩",
        "docid": "7326530704181821964",
        "url": ""
    },
    {
        "title": "牛屎芯片游戏卡诞生记",
        "docid": "7329468696916918811",
        "url": ""
    },
    {
        "title": "比亚迪海豹进入英国市场，看英国网友如何评价！",
        "docid": "7344559080549122596",
        "url": ""
    },
    {
        "title": "听我一句劝：想买新能源车再等等，倒闭潮要来了",
        "docid": "7344936996584325651",
        "url": ""
    },
    {
        "title": "联合国五常国防预算排行榜",
        "docid": "7343521722278248960",
        "url": ""
    },
    {
        "title": "走进CEO的一天：他曾经身价过亿却被一夜清零，众叛亲离一夜白头",
        "docid": "7329157520931586572",
        "url": ""
    },
    {
        "title": "笑不活了，男子修改银行卡密码被要求出示房产证，冲上热搜",
        "docid": "7342837928659354138",
        "url": ""
    },
    {
        "title": "一年时间从席卷全中国到倒闭破产，土家掉渣饼为啥那么快消失",
        "docid": "7313736976069296674",
        "url": ""
    },
    {
        "title": "强强联合的顶配夫妻，到底什么样？",
        "docid": "7311915698518196774",
        "url": ""
    },
    {
        "title": "呷哺呷哺称：去年净亏损超1.8亿，网友：物美价廉到专坑穷人！",
        "docid": "7345103688496890395",
        "url": ""
    },
    {
        "title": "黄金价格持续上涨说明什么：所有行业都陷入了泥泞，投啥啥破产！",
        "docid": "7344988021814854184",
        "url": ""
    },
    {
        "title": "上半年花17万多在沈阳买的房，14万卖给河南小妹，带大家瞧瞧！",
        "docid": "7311992316737258003",
        "url": ""
    },
    {
        "title": "比特币突破70000美元再创新高,香港日成交千亿争全球加密货币中心",
        "docid": "7344943784435810842",
        "url": ""
    },
    {
        "title": "为啥外国人来中国，看到大城市这么吃惊？实拍德国城市长什么样？",
        "docid": "7333832103480132108",
        "url": ""
    },
    {
        "title": "走进城市中的睡城，探访武汉超高层住宅，这是城市化发展的答案吗",
        "docid": "7340552672354763318",
        "url": ""
    },
    {
        "title": "泪目！雷军出席政府报告接受采访，整个人断崖式衰老，看着很心疼",
        "docid": "7343894546399101466",
        "url": ""
    },
    {
        "title": "你住的房子，决定了你的层次",
        "docid": "7340963430322405925",
        "url": ""
    },
    {
        "title": "马云9000万买一幅少女人体画，画家却不卖！网友看出玄机",
        "docid": "7341403605649654309",
        "url": ""
    },
    {
        "title": "笑麻了！人大代表胡小青建议：不孕不育治疗纳入医保，引网友调侃",
        "docid": "7342705808969040424",
        "url": ""
    },
    {
        "title": "400万头骆驼的工厂，超现代化的屠宰技术，沙特土豪可真会享受！",
        "docid": "7332033702572065316",
        "url": ""
    },
    {
        "title": "2024年微短剧买量投流报告：消耗超400亿，三大题材最吸金",
        "docid": "7344624170149659174",
        "url": ""
    },
    {
        "title": "冷门生意，一晚进账 1800，低调赚钱。",
        "docid": "7340549997764870706",
        "url": ""
    },
    {
        "title": "玩真的！中山公司50个空瓶换500元，企业曝光，网友炸锅",
        "docid": "7345061411657105935",
        "url": ""
    },
    {
        "title": "仅退款，不退货，并非只是为了消费者好，背后还有不可告人的目的",
        "docid": "7318004911512732194",
        "url": ""
    },
    {
        "title": "攒股记：股票分红多少，才能财务自由？",
        "docid": "7344571728020161035",
        "url": ""
    },
    {
        "title": "理想汽车CEO李想朋友圈发声：“我们决定开始反击”",
        "docid": "7345111915154276898",
        "url": ""
    },
    {
        "title": "恒大再出大消息！许家印前妻把亲儿子告了，索赔超10亿港元",
        "docid": "7344918831053341203",
        "url": ""
    },
    {
        "title": "“退役”潮即将到来，百万吨风电设备何去何从？",
        "docid": "7316388828431254051",
        "url": ""
    },
    {
        "title": "马云被问身上衣服值多少钱，他的回答尽显高情商！#马云",
        "docid": "7337575028210762278",
        "url": ""
    },
    {
        "title": "曾经风靡全国的“骗局”，推上神坛炒到数千万，如今白菜价没人要",
        "docid": "7330903653450072610",
        "url": ""
    },
    {
        "title": "曹德旺：目前企业确实碰到很大麻烦，企业家要直面现实去检讨",
        "docid": "7344991754535305740",
        "url": ""
    },
    {
        "title": "近十年天津各区常住人口增减变化@DOU+小助手",
        "docid": "7312371015437419020",
        "url": ""
    },
    {
        "title": "我国各省的帮扶对象，沿海帮内陆",
        "docid": "7328277635539304986",
        "url": ""
    },
    {
        "title": "南京大姐5千一平在乳山银滩买的房，体验了一冬，明冬不想再来",
        "docid": "7343398912780141056",
        "url": ""
    },
    {
        "title": "村里搞的拆迁并居新村，看看这建的新村，以后不可能再建了吧。",
        "docid": "7343995407225061903",
        "url": ""
    },
    {
        "title": "朱宁：为什么人们强烈相信房价会永远上涨？",
        "docid": "7340528847223423500",
        "url": ""
    },
    {
        "title": "“反降价联盟”土崩瓦解，一天10家车企降价，“狙击者”吉利最狠",
        "docid": "7343934643378815529",
        "url": ""
    },
    {
        "title": "闹大了！网约车260公里收费320元，乘客嫌贵投诉司机，评论区炸了",
        "docid": "7345086125310198282",
        "url": ""
    },
    {
        "title": "大国竞争，小国就别跟着瞎掺和了。不信咱们以史为鉴一下？",
        "docid": "7343853715109003795",
        "url": ""
    },
    {
        "title": "我们小区楼下的铺面都快空完了，一铺养三代的时代过去了",
        "docid": "7319708431013708338",
        "url": ""
    },
    {
        "title": "4年暴涨35倍，你拿得住吗？",
        "docid": "7314483008831652378",
        "url": ""
    },
    {
        "title": "爆满、售罄！有武汉人一次买了10万元",
        "docid": "7345035017321595401",
        "url": ""
    },
    {
        "title": "西安钟楼，耐克阿迪店被打假后直接关门躲避，却被爆是“惯犯”",
        "docid": "7344994839429169704",
        "url": ""
    },
    {
        "title": "任正非：父母生病了也不回家，你不爱父母，怎么能爱华为呢",
        "docid": "7342677577167733257",
        "url": ""
    },
    {
        "title": "上海去年980万的房子，今年卖多少？太难计算了！",
        "docid": "7343832687276360203",
        "url": ""
    },
    {
        "title": "郑州比亚迪超级工厂，占地16000亩，厂房宿舍140栋，已超越富士康",
        "docid": "7340937519418049064",
        "url": ""
    },
    {
        "title": "都说30年以后高层是贫民区大杂院！ 不用等30年，现在已经是了！",
        "docid": "7330252971697799692",
        "url": ""
    },
    {
        "title": "女子就因买了一只烤鸭，支付宝每天收到莫名转账，女子：我心里慌",
        "docid": "7334669686388621862",
        "url": ""
    },
    {
        "title": "闹大了！女子投诉火车吸烟区有人吸烟，网友评论一边倒！",
        "docid": "7344723213085770277",
        "url": ""
    },
    {
        "title": "成都现巨无霸小区，占地相当4个北京故宫，普通人很难住进来！",
        "docid": "7330962613691974194",
        "url": ""
    },
    {
        "title": "一位伊朗小伙丢失护照，被困在机场18年，不料却意外成为大富翁",
        "docid": "7327561861195612710",
        "url": ""
    },
    {
        "title": "深圳水贝“套路”有多深，准备去买黄金的一定看完？先收藏！",
        "docid": "7313462000439427636",
        "url": ""
    },
    {
        "title": "关于南京天鹅堡“砸盘”事件，我的六点想法",
        "docid": "7342867042653471269",
        "url": ""
    },
    {
        "title": "农夫山泉开始降价“反击”娃哈哈！并对竞争对手施压！",
        "docid": "7344937774006796852",
        "url": ""
    },
    {
        "title": "40岁开始努力，还来得及吗？看完网友的评论，我着实感慨万千",
        "docid": "7345049399430939151",
        "url": ""
    },
    {
        "title": "再过两个月，中国房地产或将迎来4大转变，建议大家做好这2个准备",
        "docid": "7344333856059179559",
        "url": ""
    },
    {
        "title": "银行卡别再开通短信通知了，不少人没当回事，多亏有银行员工提醒",
        "docid": "7343172487351616051",
        "url": ""
    },
    {
        "title": "哇哈哈早期广告欣赏。创业维艰，守成不易。缅怀企业界前辈",
        "docid": "7339517522184602121",
        "url": ""
    },
    {
        "title": "闹大了！浙江官媒力挺农夫山泉，对于网友质问，官媒回答很直接！",
        "docid": "7344972439719281178",
        "url": ""
    },
    {
        "title": "理想浇灭理想",
        "docid": "7345049847613571610",
        "url": ""
    },
    {
        "title": "2024年银行存款利息，看看存多少可以躺平",
        "docid": "7341652939704222271",
        "url": ""
    },
    {
        "title": "亏了100万，终于知道比特币是干什么的了",
        "docid": "7313868747813421631",
        "url": ""
    },
    {
        "title": "“躺枪”的农夫山泉和“缺位”的资产离境税",
        "docid": "7344910088119058994",
        "url": ""
    },
    {
        "title": "雷军：华为是中国和这个世界最强的企业，但小米也不差",
        "docid": "7322249027326738953",
        "url": ""
    },
    {
        "title": "意想不到的骗局又增加了，出门在外请你一定要收起自己的同情心",
        "docid": "7316840272531292724",
        "url": ""
    },
    {
        "title": "路透预测中国房价，民意调查结论出炉，不知道准不准",
        "docid": "7343528255091442239",
        "url": ""
    },
    {
        "title": "黄金飙涨创新高！每克655元的黄金还能入手吗？",
        "docid": "7344906506552984116",
        "url": ""
    },
    {
        "title": "加拿大博主讲解牛郎织女故事，却遭韩国人投诉警告，作者硬刚到底",
        "docid": "7315339952844177955",
        "url": ""
    },
    {
        "title": "引进国外女性难民给中国男性光棍做老婆刻不容缓",
        "docid": "7322423223139303962",
        "url": ""
    },
    {
        "title": "从赌场到股市，他用一个公式战胜了所有市场",
        "docid": "7320123224950374923",
        "url": ""
    },
    {
        "title": "大佬的子女什么样？看到百度李彦宏的女儿，才知道啥叫举止优雅！",
        "docid": "7344279492347003419",
        "url": ""
    },
    {
        "title": "江苏711回应两门店停售农夫山泉：此举系两门店员工个人行为，不代表公司总部立场",
        "docid": "7344942786170814995",
        "url": ""
    },
    {
        "title": "江苏不服全国，浙江不服江苏#江苏十三太保 #搞笑动画 #江苏",
        "docid": "7331300985115312675",
        "url": ""
    },
    {
        "title": "一夜之间，长城汽车的口碑变了",
        "docid": "7324181393935139368",
        "url": ""
    },
    {
        "title": "包子里吃出一只老鼠 老板怒斥敲诈 老板：这么大我是怎么包进去的",
        "docid": "7341297479134282251",
        "url": ""
    },
    {
        "title": "美国预测2049年，世界将诞生三个新超级大国，第三令人意外",
        "docid": "7332705028123132435",
        "url": ""
    },
    {
        "title": "上海年薪80万到底有多少人，根本不是你想象的那样",
        "docid": "7316005248097583651",
        "url": ""
    },
    {
        "title": "日本人住到泡沫建的房子？一套价值50万，大地震来了都不怕",
        "docid": "7314583676531475007",
        "url": ""
    },
    {
        "title": "运送挖掘机和豪华汽车的货船沉没，损失高达 6 万亿印尼盾",
        "docid": "7331906693359632911",
        "url": ""
    },
    {
        "title": "【1818黄金眼】别墅江景房被邻居遮挡，“平和”女士不再平和",
        "docid": "7339840091491140130",
        "url": ""
    },
    {
        "title": "小罐茶董事长谈农夫山泉危机：公众情绪跟你老婆发作时一模一样，要哄不要讲道理",
        "docid": "7344999083888607794",
        "url": ""
    },
    {
        "title": "网友喊话生产啤酒，娃哈哈直播间回应了！此前多次试水白酒",
        "docid": "7345117973167931919",
        "url": ""
    },
    {
        "title": "笑麻了！农夫山泉市值大跌320亿港元冲上热搜，笑死在评论区",
        "docid": "7344638634336829961",
        "url": ""
    },
    {
        "title": "龙年茅台酒，无声地暴跌",
        "docid": "7345125681149985317",
        "url": ""
    },
    {
        "title": "赚麻了！当年被嘲笑200元买黄金的大妈，如今变现成人生赢家！",
        "docid": "7344923275786699327",
        "url": ""
    },
    {
        "title": "是继续？还是收手？农夫山泉退败了吗？",
        "docid": "7345100707365929524",
        "url": ""
    },
    {
        "title": "女子吃完烤肠试衣服弄上油渍，被老板要求必须买下：7天出现3次了",
        "docid": "7344668630019375653",
        "url": ""
    },
    {
        "title": "笑喷，一公司推出娃哈哈福利火了，50个空瓶换500块，评论区炸了",
        "docid": "7345095019407835683",
        "url": ""
    },
    {
        "title": "“一夜暴涨，我们傻眼了！”黄金价格飙升，有老板前一天晚上卖了30多万元，第二天一早直呼卖亏了",
        "docid": "7342743124970488358",
        "url": ""
    },
    {
        "title": "上海人真的有自己的沪币，就这个物价，财神爷来了也得光着腚回去",
        "docid": "7322758681848709641",
        "url": ""
    },
    {
        "title": "年轻人不减负 中国将没有未来",
        "docid": "7337311803267482175",
        "url": ""
    },
    {
        "title": "事业单位副高2025年4月退休，按五档和六档退休，养老金差多少？",
        "docid": "7329543923398066700",
        "url": ""
    },
    {
        "title": "10年一遇！很像2013年~2014年牛市前夕！散户做好心理预期了",
        "docid": "7312615119757607458",
        "url": ""
    },
    {
        "title": "洗浴中心迎来“关门潮”？多家洗浴中心关门，老板来告诉你原因",
        "docid": "7330175706087899682",
        "url": ""
    },
    {
        "title": "中国家庭总资产500万，属于什么阶层？",
        "docid": "7320535619250356799",
        "url": ""
    },
    {
        "title": "湖北“第二个武汉”正在崛起？襄阳十堰无缘，3座城市呼声最高",
        "docid": "7342025501898359331",
        "url": ""
    },
    {
        "title": "一篇农夫山泉热点文，让我看到了某条与某音群体学历的巨大差距",
        "docid": "7344361018900005427",
        "url": ""
    },
    {
        "title": "一年怒挣64亿，县城里的商业巨头，他暴利的秘密到底是什么？",
        "docid": "7327206956941443636",
        "url": ""
    },
    {
        "title": "中国第一个被撤销的直辖市，如今发展迅速，未来能再次直辖市吗？",
        "docid": "7342355126407119372",
        "url": ""
    },
    {
        "title": "20多吨洋垃圾悄悄运往中国！腐臭发霉流出脓液，为何屡禁不止？",
        "docid": "7331179944669643301",
        "url": ""
    },
    {
        "title": "俞敏洪履行承诺，把董宇辉商标权转让给与辉同行，评论区彻底沦陷",
        "docid": "7343921161698296320",
        "url": ""
    },
    {
        "title": "突发讣告！联想原董事长逝世",
        "docid": "7343226845787226659",
        "url": ""
    },
    {
        "title": "上海一模具公司破产，名下1547万应收款债权拍卖，被人3550元拿下",
        "docid": "7320433590398124563",
        "url": ""
    },
    {
        "title": "吸管大王楼仲平：被央视6次点名，靠0.0008元利润，干到全球第一",
        "docid": "7316846298181681702",
        "url": ""
    },
    {
        "title": "人到中年，存钱的顺序，千万别搞反了",
        "docid": "7331267893193130496",
        "url": ""
    },
    {
        "title": "为啥有人专门收购“老旧小区顶楼”？知情人：背后商机你可能还不知道",
        "docid": "7330487775383781903",
        "url": ""
    },
    {
        "title": "终于有人把“住房公积金”说清楚了",
        "docid": "7335231640769937939",
        "url": ""
    },
    {
        "title": "比亚迪完全可以吃掉“理想L8L9”的市场，为什么不推出类似车型？",
        "docid": "7314351546815332875",
        "url": ""
    },
    {
        "title": "现在还有人送这个老古董？全家都不要吃！评论区炸锅",
        "docid": "7337476041327657513",
        "url": ""
    },
    {
        "title": "土豪网友出2000万欲购周海媚豪宅！网友疯狂围观！",
        "docid": "7320214518758408744",
        "url": ""
    },
    {
        "title": "傻了吧！江苏小哥买一楼带院的房子，如今苦不堪言，网友：没毛病",
        "docid": "7338550699699257894",
        "url": ""
    },
    {
        "title": "男子因征信出问题不能贷款买房 两次将银行告上法庭 索赔3.5万元 律师：银行应当承担不能举证的后果！",
        "docid": "7337599692597789219",
        "url": ""
    },
    {
        "title": "42岁宗馥莉正式接管娃哈哈！活动穿搭比孟晚舟时髦，至今未婚超飒",
        "docid": "7344521473165623844",
        "url": ""
    },
    {
        "title": "你以为有钱人到香港买的是房？他们买的是随时可以变现的资产",
        "docid": "7342663724903645711",
        "url": ""
    },
    {
        "title": "彻底没办法了，创始人钟睒睒退位，农夫山泉迎来元老级接班人！",
        "docid": "7345249943659561509",
        "url": ""
    },
    {
        "title": "女继承人时代来了，目前4个知名企业二代女接班人",
        "docid": "7339407895848976931",
        "url": ""
    },
    {
        "title": "福建女人34岁离异带娃，3年变成超级网红，负债几十万到身价千万",
        "docid": "7340224006882345535",
        "url": ""
    },
    {
        "title": "实话实说，20多万的奔驰GLB 200，到底能给到你什么？",
        "docid": "7336934054187090447",
        "url": ""
    },
    {
        "title": "雷军现在进退两难，17家车企集体疯狂降价，比亚迪把桌子都掀了！",
        "docid": "7344280534991782410",
        "url": ""
    },
    {
        "title": "取件不收费的“菜鸟驿站”，到底靠什么盈利？内行人道出背后原因",
        "docid": "7321661136268198437",
        "url": ""
    },
    {
        "title": "笑麻了，大学生把娃哈哈拍成国窖风，网友：娃哈哈广告部要失业了",
        "docid": "7345035578913866274",
        "url": ""
    },
    {
        "title": "贫困父母饿垮身体，养出了4个亿万富翁，其中2人是中国首富",
        "docid": "7325261785945408009",
        "url": ""
    },
    {
        "title": "离职后第一件事自己交社保，断缴血亏",
        "docid": "7339335953821631027",
        "url": ""
    },
    {
        "title": "一辆2899元电瓶车，出厂价多少？卖一辆商家能赚500吗？答案来了",
        "docid": "7319826128297509427",
        "url": ""
    },
    {
        "title": "奇了怪?便宜香烟越来越少? 烟贩老板:不是不卖，有“几大原因”",
        "docid": "7319448313726566927",
        "url": ""
    },
    {
        "title": "社保交满了15年，没有到退休年龄，但是没有工作该怎么办？",
        "docid": "7324917493334639154",
        "url": ""
    },
    {
        "title": "售楼部工作12年，总结出来的12个买房建议！看完真是涨知识了",
        "docid": "7336380662406529546",
        "url": ""
    },
    {
        "title": "今天下了一天的雨，我家投9万安装的光伏屋顶电站，发电12度",
        "docid": "7342486136926913039",
        "url": ""
    },
    {
        "title": "买1得3的车位，真香",
        "docid": "7311911011215213075",
        "url": ""
    },
    {
        "title": "开棋牌室不能只做棋牌室生意，还需要从这几点突破",
        "docid": "7328350552877154868",
        "url": ""
    },
    {
        "title": "雄安新区建设快六年了，现在啥模样？我春节先去看了看（一）",
        "docid": "7336148291144729100",
        "url": ""
    },
    {
        "title": "每天熟知一条产业链：光伏",
        "docid": "7329312729548980771",
        "url": ""
    },
    {
        "title": "做生意应该“薄利多销”还是“厚利适销”？犹太人告诉你答案",
        "docid": "7315216262387270178",
        "url": ""
    },
    {
        "title": "母亲投资“期货”，7万元本金两天暴涨至400多万？女儿报警",
        "docid": "7344970388495450633",
        "url": ""
    },
    {
        "title": "一个日本经济学家的深度疑惑：中国人究竟哪来这么多的钱？",
        "docid": "7330620609250279988",
        "url": ""
    },
    {
        "title": "42岁创业，71岁出山，只为给儿子收拾烂摊子，“老干妈”陶华碧后来怎么样了…",
        "docid": "7324126468492050983",
        "url": ""
    },
    {
        "title": "闹大了!娃哈哈把国旗印在瓶身上，反观农夫，网友：文化渗透严重",
        "docid": "7344196991729009152",
        "url": ""
    },
    {
        "title": "捐款5.7亿的越南华人女首富，为何突然被捕？还惊动了李嘉诚？",
        "docid": "7331677809653629474",
        "url": ""
    },
    {
        "title": "本以为是房子的隔音好，没想到是邻居不爱说话，看完脸都笑红了！",
        "docid": "7344972946387304999",
        "url": ""
    },
    {
        "title": "注意了，买房子千万避开这些烂户型！",
        "docid": "7337170330722550283",
        "url": ""
    },
    {
        "title": "笑麻！司机晒他的氢能源卡车，称免高速费，网友却搜氢气爆炸威力",
        "docid": "7344138132537098764",
        "url": ""
    },
    {
        "title": "我从3楼换成25楼后，入住两年，有些话不吐不快，太真实了！",
        "docid": "7317534897743462938",
        "url": ""
    },
    {
        "title": "武汉市江夏区的奥特莱斯，为何不如黄陂的奥特莱斯？",
        "docid": "7315586565949260288",
        "url": ""
    },
    {
        "title": "深圳湾1号老板娘，也爱贪小便宜，8亿白菜价买香港折扣豪宅",
        "docid": "7337871458741371433",
        "url": ""
    },
    {
        "title": "7年过去了，马云砸下400多亿买下的大润发，如今发展如何了?",
        "docid": "7343500228508992010",
        "url": ""
    },
    {
        "title": "理想汽车CEO李想朋友圈发声：“我们决定开始反击”",
        "docid": "7345022481785061915",
        "url": ""
    },
    {
        "title": "男子乘扶梯转身玻璃炸裂，超市要求索赔8300元，这下闹大了",
        "docid": "7321247029207384591",
        "url": ""
    },
    {
        "title": "北京大妈花280万捡漏，买到价值500万房子，被邻居一句话吓到退房",
        "docid": "7328345730513470002",
        "url": ""
    },
    {
        "title": "门头设计成这样，不愁生意",
        "docid": "7329130911009161739",
        "url": ""
    },
    {
        "title": "不出意外！未来中国50%的人口，都将聚集到这6大城市群！",
        "docid": "7325783146673734155",
        "url": ""
    },
    {
        "title": "港星王俊棠定居内地县城，新房比香港住宅又豪华又大，还刚买新车",
        "docid": "7344755136772293146",
        "url": ""
    },
    {
        "title": "是不是真恩爱不知道，但细看章泽天资产，有被这个女人惊讶到",
        "docid": "7322032829318480418",
        "url": ""
    },
    {
        "title": "穷人乍富能挥霍到什么程度？网友：有些人发不了财是命中注定的！",
        "docid": "7342693306410861067",
        "url": ""
    },
    {
        "title": "都说她美得充满铜臭味儿，还不是被王家卫与郭敬明疯狂买单？",
        "docid": "7324507769845842458",
        "url": ""
    },
    {
        "title": "湖北知名国企重组减员后薪酬大涨，员工平均工资18.78万元",
        "docid": "7344631161131696679",
        "url": ""
    },
    {
        "title": "我来教你如何选车位，才不踩坑！这些车位最好不要买",
        "docid": "7328329797141578274",
        "url": ""
    },
    {
        "title": "突发！红海4条海底电缆被切断",
        "docid": "7343555852907102755",
        "url": ""
    },
    {
        "title": "辞职9个月，孟羽童感谢董明珠，首提博主收入：拿卡给妈妈随便刷",
        "docid": "7344236255405769251",
        "url": ""
    },
    {
        "title": "一年收租94亿，这栋全球租金最高的大厦，就在中国最富裕城市",
        "docid": "7331331382348071459",
        "url": ""
    },
    {
        "title": "意大利南北差异有多大？北方经济不输德国，南方却是西欧最穷区域",
        "docid": "7319438029608206875",
        "url": ""
    },
    {
        "title": "你见过房价跌的最惨的地方是哪里？网友：固安孔雀城，那还用说？",
        "docid": "7340907186320818724",
        "url": ""
    },
    {
        "title": "发现会存钱的朋友嘴巴真的严！",
        "docid": "7342307293029630476",
        "url": ""
    },
    {
        "title": "绍兴女子13万“捡漏”大排屋，出完价后她整个人不好了",
        "docid": "7313861829082857999",
        "url": ""
    },
    {
        "title": "28万全款小鹏P7撞报废，全损保额23万，保险全损才赔偿15.3万？",
        "docid": "7343834037146075688",
        "url": ""
    },
    {
        "title": "谁要搞垮农夫山泉？",
        "docid": "7345086567293272630",
        "url": ""
    },
    {
        "title": "宗馥莉是富二代花瓶?她的宏胜饮料集团已经成长为行业巨头。",
        "docid": "7343161002835739173",
        "url": ""
    },
    {
        "title": "拆迁大潮真的要来？你准备好了吗？",
        "docid": "7343443494289670665",
        "url": ""
    },
    {
        "title": "拼多多创始人黄峥：放弃首富做“首善”，41岁无偿捐出1000亿",
        "docid": "7318303027264537097",
        "url": ""
    },
    {
        "title": "入汉三载，恒隆的阵痛还要多久",
        "docid": "7343067565260440064",
        "url": ""
    },
    {
        "title": "香港巨富邓永祥，临终前要求儿子：一定要做败家子，使劲地花钱！",
        "docid": "7343620418823488052",
        "url": ""
    },
    {
        "title": "2024自律清单，完成它，让40+的自己越来越哇塞",
        "docid": "7322322661433000457",
        "url": ""
    },
    {
        "title": "长城汽车员工大批离职 公司董事长、总裁曾自罚年薪7位数，已连续三年未能完成销量目标",
        "docid": "7345296815854043683",
        "url": ""
    },
    {
        "title": "闹大了！阿姨晒发票证明没吃霸王餐，店家信息被扒，评论区沦陷！",
        "docid": "7344972807958413862",
        "url": ""
    },
    {
        "title": "钟睒睒，卸任！",
        "docid": "7345079512469799476",
        "url": ""
    },
    {
        "title": "原来这就才叫“征信”好？太经典了。",
        "docid": "7345027955535462966",
        "url": ""
    },
    {
        "title": "明天起，调整！",
        "docid": "7326545480341914162",
        "url": ""
    },
    {
        "title": "未来两年，等苏州房价的泡沫挤完了，贫富差距一目了然",
        "docid": "7343483760518005299",
        "url": ""
    },
    {
        "title": "银行定期存款，“有本子”和“无本子”的差距在哪？储户们要知晓",
        "docid": "7330468913958224410",
        "url": ""
    },
    {
        "title": "个税专项附加扣除，看这一篇就够了，收藏起来看看吧",
        "docid": "7344197915994669608",
        "url": ""
    },
    {
        "title": "比“黄赌”还可怕？大量年轻人正在深陷这一“陷阱”，请尽快上岸",
        "docid": "7342811409283301903",
        "url": ""
    },
    {
        "title": "中国光伏发电世界第一，报废光伏板却被大量浪费？没人愿意回收？",
        "docid": "7323087800717591052",
        "url": ""
    },
    {
        "title": "盒马勒紧裤腰带：员工被转为临时工，有人含泪签协议",
        "docid": "7343174237131620915",
        "url": ""
    },
    {
        "title": "全国各省人口排行，数据来源：第七次全国人口普查",
        "docid": "7344238587430601243",
        "url": ""
    },
    {
        "title": "上海一身价35亿总裁假扮农民工，到工地上班第一天，差点就被开除",
        "docid": "7321918129176412681",
        "url": ""
    },
    {
        "title": "太恶劣！已卖出140多万包……这牌子很多人吃过，网友炸锅了",
        "docid": "7322444011543872038",
        "url": ""
    },
    {
        "title": "小米汽车：价格战打响，汽车大降价 网友：他卷任他卷，大家慢慢选",
        "docid": "7344911345071997475",
        "url": ""
    },
    {
        "title": "瑞银拆了一台比亚迪，震惊后，发现了国产新能源越来越贵的真相",
        "docid": "7322713084395553315",
        "url": ""
    },
    {
        "title": "风波中的钟薛高：曾抄爱马仕玩配货，如今2块5卖不掉",
        "docid": "7345311263222530572",
        "url": ""
    },
    {
        "title": "大反转！大润发支持农夫山泉后续：顶不住网友压力，换上了娃哈哈",
        "docid": "7344925852029059636",
        "url": ""
    },
    {
        "title": "存款放存折好，还是银行卡好？原来区别这么大，尽早清楚不吃亏",
        "docid": "7319331398886818316",
        "url": ""
    },
    {
        "title": "爆炒英伟达的人，已经财富自由了",
        "docid": "7343460974609056308",
        "url": ""
    },
    {
        "title": "63年出生，社保交17年，个人账户5.5万，退休金发下来他直接傻眼",
        "docid": "7340995379078578700",
        "url": ""
    },
    {
        "title": "奉劝已退休的老人，哪怕你养老金再高日子再闲，也不要做这6件事",
        "docid": "7342111702588916262",
        "url": ""
    },
    {
        "title": "退税变补税，这6点别再乱填啦",
        "docid": "7342791275512496692",
        "url": ""
    },
    {
        "title": "荒唐！荒唐！荒唐！四川社保系统窝案事件戳中国人心中的痛！",
        "docid": "7344540149910880779",
        "url": ""
    },
    {
        "title": "“做短剧每月进账4亿多”，这对夫妇什么来头？",
        "docid": "7345025390525825536",
        "url": ""
    },
    {
        "title": "三个卷烟厂一个也没保住，难怪邵阳勉强混了个省内第二梯队",
        "docid": "7329470484050231820",
        "url": ""
    },
    {
        "title": "山西一碗刀削面被游客指天价，老板怒怼：想吃便宜面就去贫民区！",
        "docid": "7337519233766867491",
        "url": ""
    },
    {
        "title": "家庭越来越穷的特点，缺心眼的10个表现！对照一下，你有没有？",
        "docid": "7344230791485899316",
        "url": ""
    },
    {
        "title": "01年武汉女子花110万买房，政府拆迁赔1500万，女子：我要三千万",
        "docid": "7323510239024874023",
        "url": ""
    },
    {
        "title": "“一菜难求”？4.9元的生菜被炒到300元，还有人坐高铁去抢",
        "docid": "7342847245777191435",
        "url": ""
    },
    {
        "title": "如今每个月5000元的工资，等于80年代时的多少钱？答案来了",
        "docid": "7315007158755000884",
        "url": ""
    },
    {
        "title": "出差去了一趟荆州市和荆门市，不得不提，两地的差距天壤之别",
        "docid": "7344021597239706124",
        "url": ""
    },
    {
        "title": "天津一家破产公司2.7亿应收款债权拍卖，被人不到85万就拿下了",
        "docid": "7327490316285428243",
        "url": ""
    },
    {
        "title": "宗馥莉，一个能和孟晚舟媲美的女人，她的穿衣打扮也太美太飒了吧",
        "docid": "7343825305800999443",
        "url": ""
    },
    {
        "title": "中国百强县出炉：慈溪退居第七，义乌无缘前十，浙江共16席入围",
        "docid": "7343953896379400758",
        "url": ""
    },
    {
        "title": "退市股55个涨停，从1.09元到8.47元，股民：拦不住啊！",
        "docid": "7345258594281407030",
        "url": ""
    },
    {
        "title": "闹大了，雅诗兰黛在美国检出高浓度致癌物，网友：幸亏我是穷人",
        "docid": "7344269381825757707",
        "url": ""
    },
    {
        "title": "何小鹏称雷军压力太大了，下面都是拆台的，网友：小鹏都危机重重",
        "docid": "7344535283242631691",
        "url": ""
    },
    {
        "title": "全球轮胎新排名：倍耐力第6，固特异排第3，中国2家挤进前十",
        "docid": "7329150684551643688",
        "url": ""
    },
    {
        "title": "上海物价有多离谱，花的是沪币，常人吃不起！一盘生菜都百元起！",
        "docid": "7329824798308712970",
        "url": ""
    },
    {
        "title": "全国30地社保缴15年退休金盘点，看看你省是多少？",
        "docid": "7344561500192899620",
        "url": ""
    },
    {
        "title": "刘益谦讲述真实的《繁花》：隐藏不一样情节的故事",
        "docid": "7322338672446095926",
        "url": ""
    },
    {
        "title": "外网看中国：看完中国改变世界的基建，俄罗斯人受到震撼教育",
        "docid": "7327937048856396327",
        "url": ""
    },
    {
        "title": "为什么普通人一年存3-5万都非常难？",
        "docid": "7340915052109152783",
        "url": ""
    },
    {
        "title": "娃哈哈女孩火了，全网都在找她，颜值漂亮长相可爱，身份被曝光",
        "docid": "7344216508769600051",
        "url": ""
    },
    {
        "title": "千万别质疑快递包装能多脏!看完网友分享,不洗手的朋友汗流浃背了",
        "docid": "7345286516077543947",
        "url": ""
    },
    {
        "title": "为什么我买房的时候没刷到这篇",
        "docid": "7343806008721965577",
        "url": ""
    },
    {
        "title": "这下好了！快递新规实施后，都知道电商要加钱，没想到加这么多？",
        "docid": "7345127446721233420",
        "url": ""
    },
    {
        "title": "宇辉联手华为！开播即榜首，30分钟断货，58w人见证历史！",
        "docid": "7344720863524635148",
        "url": ""
    },
    {
        "title": "太奇葩，护士拒绝给患者当儿媳被投诉，本人最新回应，评论区笑死",
        "docid": "7343242551715889700",
        "url": ""
    },
    {
        "title": "被围在中间的老挝，GDP逆势飙红，靠中国一条铁路逆天改命！",
        "docid": "7311948082462360099",
        "url": ""
    },
    {
        "title": "暴亏39亿，关店400家！昔日超市“巨无霸”，被谁拖垮了？",
        "docid": "7338313407219647013",
        "url": ""
    },
    {
        "title": "4750亿美元！中国跌至第三，不再是美国第一大进口国，谁上位了？",
        "docid": "7343168974496301580",
        "url": ""
    },
    {
        "title": "农夫山泉“换帅”，钟睒睒退出任职，新任掌门饶明红，网友服气了",
        "docid": "7345251658483450383",
        "url": ""
    },
    {
        "title": "反击了！多家官媒声援农夫山泉，面对网友质疑，官媒回应的很直接",
        "docid": "7345068973857800715",
        "url": ""
    },
    {
        "title": "看忙碌的儿子和从不干活的儿媳，我意识到该带着5000养老金退出了",
        "docid": "7344994849533329959",
        "url": ""
    },
    {
        "title": "最著名的10大金融传销骗局，你踩过几个坑？",
        "docid": "7317928227794977307",
        "url": ""
    },
    {
        "title": "她是40岁广西妇女，从月薪3000到年入千万，开公司还上央视，为啥",
        "docid": "7332076112195093046",
        "url": ""
    },
    {
        "title": "闹大了！茅台公开董事长，总经理薪酬，网友炸锅：我会信？",
        "docid": "7343870737302618650",
        "url": ""
    },
    {
        "title": "涉及武汉！国务院批复：同意",
        "docid": "7345296084547322419",
        "url": ""
    },
    {
        "title": "惠州威海等地海景房大跌价：有的145平25万成交，大量二手房待售",
        "docid": "7343029292932153856",
        "url": ""
    },
    {
        "title": "笑麻了！宗馥莉用行动告诉网友：娃哈哈啤酒上市，宣传片已备好！",
        "docid": "7344627839637471753",
        "url": ""
    },
    {
        "title": "一张定期存单，最好不要超过多少钱？很多人不幸中招",
        "docid": "7338121649030087220",
        "url": ""
    },
    {
        "title": "男友在阿里，炒股亏了6.7万，没想到他的支付宝竟然还有100多万​",
        "docid": "7344754834551423500",
        "url": ""
    },
    {
        "title": "西方整体退出电动车，真不怕把市场交给中国？看看东南亚就知道了",
        "docid": "7344397036227592743",
        "url": ""
    },
    {
        "title": "真来了！宗馥莉用行动告诉网友：娃哈哈啤酒上市，宣传片已备好！",
        "docid": "7344674886469698067",
        "url": ""
    },
    {
        "title": "终于有人把医保怎么报销一次性说清楚了，看完知识大增，收藏吧",
        "docid": "7323220229474107956",
        "url": ""
    },
    {
        "title": "2024年3月，建设银行大额存单利率表来了：30万存1年，利息多少？",
        "docid": "7342805296051847689",
        "url": ""
    },
    {
        "title": "物业为防止电瓶车上楼，居然在电梯内装钢管，导致电梯内空间狭窄",
        "docid": "7343530713759515172",
        "url": ""
    },
    {
        "title": "同一栋楼，为何西户早卖光，东户却无人问津？内行人总结4点原因",
        "docid": "7325381334145532455",
        "url": ""
    },
    {
        "title": "今天终于明白，养老金个人账户139个月是什么意思了？",
        "docid": "7312325576189280808",
        "url": ""
    },
    {
        "title": "国家电网员工自爆退休金明细，网友说：相当高，根本不可能",
        "docid": "7333374272075072051",
        "url": ""
    },
    {
        "title": "打脸了！钟薛高雪糕售价从60元降到2.5元，网友直呼不满：被骗了",
        "docid": "7343452152716902966",
        "url": ""
    },
    {
        "title": "我回族人，为娶汉族妻子，跟父母抗争5年，现全家到马来西亚陪读",
        "docid": "7342094019155477028",
        "url": ""
    },
    {
        "title": "“金价杀疯了”！价格每天一变，有人一周“亏了”14万！也有人买到拉面师傅做的金手镯",
        "docid": "7344277347971072575",
        "url": ""
    },
    {
        "title": "有钱人正在“逃离别墅”，搬回高层？内行人：3大硬伤难以忽视",
        "docid": "7344234106965836315",
        "url": ""
    },
    {
        "title": "父母有退休金，儿女有多省心！你有没有交社保？",
        "docid": "7342706351329542666",
        "url": ""
    },
    {
        "title": "西方集体“弃电改氢”？马斯克扒了“氢能源”老底：愚蠢的技术",
        "docid": "7345030901752988175",
        "url": ""
    },
    {
        "title": "香港澳门做梦都会笑醒！若非当年回归，哪有这等好事？",
        "docid": "7341581729993409058",
        "url": ""
    },
    {
        "title": "“圆谎”一文，太内涵了，你细品。",
        "docid": "7344738808980046377",
        "url": ""
    },
    {
        "title": "油价跌幅“风头无两”，2024年3月12日，全国调整92、95号汽油价",
        "docid": "7345157268486357516",
        "url": ""
    },
    {
        "title": "耗时三年半，基建狂魔马上要打通天山了！天山胜利隧道有多重要？",
        "docid": "7318784474357957170",
        "url": ""
    },
    {
        "title": "上万人投票选择“未来5年最值钱的资产”，投票结果给我干沉默了",
        "docid": "7345095698227642930",
        "url": ""
    },
    {
        "title": "别炒股票了，不如把收入换做3个东西，未来5年稳赚不赔",
        "docid": "7341398912152519187",
        "url": ""
    },
    {
        "title": "西方联手给中国做的高端局，把英国玩废了，彻底沦为“五常之耻”",
        "docid": "7344295229812228635",
        "url": ""
    },
    {
        "title": "离谱言论！专家：老百姓不是没钱买房，而是把买房的钱存起来了！",
        "docid": "7342096003484746240",
        "url": ""
    },
    {
        "title": "宁可买4楼和14楼，也不要买这“4个楼层”，它们都是标准的穷人房",
        "docid": "7319384306244551183",
        "url": ""
    },
    {
        "title": "尧建云：花150拜师，一晚上赢600万，双腿被砍才想起师傅一句话",
        "docid": "7330795163260043816",
        "url": ""
    },
    {
        "title": "江苏有个市“县比市强，镇比县牛”，有点平起平坐、互不买账",
        "docid": "7344747478203908648",
        "url": ""
    },
    {
        "title": "商家抱怨开店10年不见娃哈哈业务员 应解散市场部 业务回应让人泪崩",
        "docid": "7343638408646279699",
        "url": ""
    },
    {
        "title": "股票留底仓100股的好处是什么？",
        "docid": "7339059161277415975",
        "url": ""
    },
    {
        "title": "笑麻了！广东打败尔滨成为23年第一旅游大省，我却笑死在评论区里",
        "docid": "7338204093808280115",
        "url": ""
    },
    {
        "title": "消费者不买电视，中国电视老大真急了",
        "docid": "7345151144827748875",
        "url": ""
    },
    {
        "title": "宗馥莉的第一把火，娃哈哈冰柜全国上线，娃哈哈的时代正式开启",
        "docid": "7343568357280875034",
        "url": ""
    },
    {
        "title": "男子花700多元网购羽绒服竟藏有丧葬胸花，并有佩戴。商家退赔300元，未见平台处罚",
        "docid": "7314483451988541988",
        "url": ""
    },
    {
        "title": "高端制造：科技百强，国央企，人工智能，算力，军工，央企国资",
        "docid": "7344481277141123618",
        "url": ""
    },
    {
        "title": "2024年贬值最快的是什么？可能你根本想象不到！",
        "docid": "7337355612252094986",
        "url": ""
    },
    {
        "title": "日本发起金融“珍珠港”，日元加息，偷袭的是美元还是人民币？",
        "docid": "7342878006509322815",
        "url": ""
    },
    {
        "title": "印度人：我每月工资2万卢比，在中国算得上土豪了吧？笑麻了！",
        "docid": "7345050072134058522",
        "url": ""
    },
    {
        "title": "中国有史以来最低的存款利率，对于普通人意味着什么？",
        "docid": "7337706572413813248",
        "url": ""
    },
    {
        "title": "娃哈哈总裁宗馥莉发紧急动员令：全体销售人员全力以赴铺货自救！",
        "docid": "7345286659250291215",
        "url": ""
    },
    {
        "title": "“全球店王”落户江城！武汉SKP今年五一开业！营业面积20万平米",
        "docid": "7345364606342300210",
        "url": ""
    },
    {
        "title": "上海百态：被房子拖垮的上海人",
        "docid": "7325276731034698280",
        "url": ""
    },
    {
        "title": "痛心！深夜通报：已致7人遇难，2人失联",
        "docid": "7345289049172656666",
        "url": ""
    },
    {
        "title": "中国人口大迁移：3000县全景呈现",
        "docid": "7317310475723932171",
        "url": ""
    },
    {
        "title": "中国为什么能够崛起？德国专家一语道破：中国没覆盖全民族的宗教",
        "docid": "7316807741258154506",
        "url": ""
    },
    {
        "title": "2024年，10万人中有多少人能活到退休？又有多少人又能活到80岁？",
        "docid": "7321633341206790695",
        "url": ""
    },
    {
        "title": "城乡居民养老，多少年可以回本？收藏起来看看吧",
        "docid": "7344528865831698959",
        "url": ""
    },
    {
        "title": "她宣布：辞职",
        "docid": "7331223293208625715",
        "url": ""
    },
    {
        "title": "东风汽车奖励猛士 917 核心团队 1600 万元，人均 15 万元",
        "docid": "7345282397362995748",
        "url": ""
    },
    {
        "title": "中国旅游省份新霸主：游客数高达5715万人，或将成广东最大劲敌",
        "docid": "7341960901614420534",
        "url": ""
    },
    {
        "title": "突然暴涨！有人大赚200多万？杭州不少人火速变现！",
        "docid": "7343136044105744934",
        "url": ""
    },
    {
        "title": "同一栋楼，为何西户早卖光了，东户却无人问津？内行人总结4点原因",
        "docid": "7318723444823081482",
        "url": ""
    },
    {
        "title": "一股民13元抄底华泽钴镍，停牌两年，复牌后连吃46个跌停",
        "docid": "7345320629879226921",
        "url": ""
    },
    {
        "title": "1984年的物价与2024年的物价对比，你会发现什么问题和规律？",
        "docid": "7339826460104016422",
        "url": ""
    },
    {
        "title": "从吃不起到没人吃！鲍鱼经历了什么？",
        "docid": "7319255121924325915",
        "url": ""
    },
    {
        "title": "开了3年新能源车，一算账，发现和燃油车的差距十分明显！",
        "docid": "7344189674006921763",
        "url": ""
    },
    {
        "title": "“敌人的敌人就是朋友”怡宝出手力挺娃哈哈，网友：怡宝是懂营销",
        "docid": "7345128815205171747",
        "url": ""
    },
    {
        "title": "号称越打越有钱，却又找中国借钱，俄罗斯经济到底怎么样了？",
        "docid": "7342887863371072052",
        "url": ""
    },
    {
        "title": "现在的物价给人一种人人月入过万的感觉，只有我觉得贵的离谱吗？",
        "docid": "7328371187804357157",
        "url": ""
    },
    {
        "title": "买车别乱买，2023年SUV投诉榜TOP20，唐第2，汉兰达第10，CRV第17",
        "docid": "7343002231454827008",
        "url": ""
    },
    {
        "title": "暴跌8000个亿，仓库堆积如山！爆火的耐克，被国内消费者抛弃",
        "docid": "7344400890247316022",
        "url": ""
    },
    {
        "title": "母亲投资“期货”，7万元本金两天暴涨至400多万？女儿报警",
        "docid": "7344997871484371466",
        "url": ""
    },
    {
        "title": "女子晒出在香港宾馆的一幕，寸土寸金，百闻不如一见",
        "docid": "7323506509202227724",
        "url": ""
    },
    {
        "title": "1600亿！80万人口的中国最牛县城，涌入450家德企，人均GDP超上海",
        "docid": "7326066370272395787",
        "url": ""
    },
    {
        "title": "听听台媒是怎么介绍马云的，满满的自豪感！",
        "docid": "7342488652364120615",
        "url": ""
    },
    {
        "title": "浙江钉子户 4年堵在火车站门口 不满26万的补偿 换得618平方米的房",
        "docid": "7344722084252058131",
        "url": ""
    },
    {
        "title": "北京的平均月工资是多少？网友：北京三万是基本工资 生存的底线",
        "docid": "7341256471621501481",
        "url": ""
    },
    {
        "title": "“畸形”轮胎市场：外国人爱用的中国轮胎，为啥国人自己却不买账",
        "docid": "7343927068193440319",
        "url": ""
    },
    {
        "title": "宗馥莉傻眼了！啤酒还在研究中，网友已经把包装和宣传片都做好了",
        "docid": "7345317910933996047",
        "url": ""
    },
    {
        "title": "价值约黄金10倍！储量仅3000吨的全球最贵金属，王水也拿它没办法",
        "docid": "7334321311596265996",
        "url": ""
    },
    {
        "title": "这个行业太火爆，订单暴涨超300%！“早上一开门，客人就冲进来”",
        "docid": "7345284284778906162",
        "url": ""
    },
    {
        "title": "网友买到宝藏车位。“两室一厅”的车位",
        "docid": "7342176275919962678",
        "url": ""
    },
    {
        "title": "越来越多的外国人开始离开中国，这是怎么了？",
        "docid": "7344974690257551907",
        "url": ""
    },
    {
        "title": "悲惨！贵人鸟最高67如今只剩0.67退市，多少人的发财梦就此破灭",
        "docid": "7345295893542732340",
        "url": ""
    },
    {
        "title": "经营38年的王守义，把“十三香”卖到全国，现在怎么不“香”了？",
        "docid": "7312380645559403017",
        "url": ""
    },
    {
        "title": "是个狠人！租客租房半年后退租不要押金，房东一进门傻眼了",
        "docid": "7317477731443311116",
        "url": ""
    },
    {
        "title": "一把大火，烧掉德国超10亿，在不经意间，美国人正帮中国探了路",
        "docid": "7345312667315339814",
        "url": ""
    },
    {
        "title": "2018年，上甘岭女兵要汇款300万，银行报警后：我一共要汇1000万",
        "docid": "7339777976944574991",
        "url": ""
    },
    {
        "title": "中企败走已成定局！莫迪下达通杀令，勒令中企交出“全部身家”",
        "docid": "7345387996256076351",
        "url": ""
    },
    {
        "title": "中国稀土太子爷的奢侈生活，一顿饭90万人民币，父子联手败光百亿",
        "docid": "7345312866506900022",
        "url": ""
    },
    {
        "title": "男子批发9.5吨洋葱，到货一看果断报警！网友：现实版暗度陈仓",
        "docid": "7315974850521317898",
        "url": ""
    },
    {
        "title": "男子花100元买卤牛肉疑被注水，2次挤出清水气不过：一直吃他家的",
        "docid": "7344889827902521891",
        "url": ""
    },
    {
        "title": "女子斥巨资买古城别墅，交房后与父母一起参观，网友看后不淡定了",
        "docid": "7315607759519482402",
        "url": ""
    },
    {
        "title": "中国盾构机帮印度开通了藏南色拉隧道，这是存心给自己添堵？",
        "docid": "7344978775916380684",
        "url": ""
    },
    {
        "title": "华为的工程师出来一下，这么会哄人的小艺是哪一位设计的？",
        "docid": "7319393308428468763",
        "url": ""
    },
    {
        "title": "宗庆后骑三轮车推销商品的老照片，每个成功人身后都有看不到艰辛",
        "docid": "7339517203736101414",
        "url": ""
    },
    {
        "title": "任正非反腐有多绝？连儿子、妹妹都要逮，从内部尤其从高层开始",
        "docid": "7326015543578722816",
        "url": ""
    },
    {
        "title": "2024全国两会胜利闭幕，现在呼声最高的5类提案，能顺利实现吗？",
        "docid": "7345325737308471845",
        "url": ""
    },
    {
        "title": "河南将打造第二个“郑州”，晋升省域副中心，目标3年GDP破6000亿",
        "docid": "7312642691324854819",
        "url": ""
    },
    {
        "title": "冲上热搜！中国首富农夫山泉CEO钟睒睒公开卸任，网友:我们不上当",
        "docid": "7345045390531904041",
        "url": ""
    },
    {
        "title": "中美黄金年产量比较：美国一年开采170吨黄金，中国是多少？",
        "docid": "7324714920564916790",
        "url": ""
    },
    {
        "title": "笑晕！娃哈哈订单暴涨23000%，宗馥莉喊话理性消费！网友：你别管",
        "docid": "7345347653829509683",
        "url": ""
    },
    {
        "title": "9岁因意外失去双臂，24岁成为总裁，“无臂女孩”杨佩的逆袭之路",
        "docid": "7317490581666955776",
        "url": ""
    },
    {
        "title": "100个退休人员当中，超过5000元养老金的，多半有这三类人",
        "docid": "7331623630352531968",
        "url": ""
    },
    {
        "title": "退休后重启人生的女性：留学、创业、骑行12国，超酷！",
        "docid": "7337126190219641355",
        "url": ""
    },
    {
        "title": "市场上的\"冰冻猪蹄\"从哪来的？冷藏柜老板说漏嘴，你听完再吃",
        "docid": "7321667249298047539",
        "url": ""
    },
    {
        "title": "在老家建一栋房子，让你的家成为别人羡慕的对象#家的样子",
        "docid": "7318559673140347455",
        "url": ""
    },
    {
        "title": "核电占比将达20%，“中国广核”要发财了？",
        "docid": "7336556457627828751",
        "url": ""
    },
    {
        "title": "实时人口达1.5亿！中国人口第一大省，定了",
        "docid": "7337594997044625930",
        "url": ""
    },
    {
        "title": "一次性让你看懂金融与资本市场",
        "docid": "7329317085992550947",
        "url": ""
    },
    {
        "title": "闹大了！开始有百万粉丝博主声援农夫山泉，娃哈哈的困境来了",
        "docid": "7345391216307110436",
        "url": ""
    },
    {
        "title": "闹大了！女子投诉火车吸烟区有人抽烟让自己不舒服 网友评论一边倒",
        "docid": "7345309104732111379",
        "url": ""
    },
    {
        "title": "一套70平方米的房子售价仅2000元，每平方米只有28元？",
        "docid": "7317885456035922443",
        "url": ""
    },
    {
        "title": "一辆3000元左右电动车，出厂价多少？商家卖一台赚多少？答案来了",
        "docid": "7343076031156257295",
        "url": ""
    },
    {
        "title": "下一个宁德时代！固态电池的世界龙头，20多家机构扎堆调研",
        "docid": "7345149254480036361",
        "url": ""
    },
    {
        "title": "为何不建议存“3年定期”？银行内部员工说出真相，储户要注意了",
        "docid": "7332531524178461238",
        "url": ""
    },
    {
        "title": "香港！香港！楼市逆袭，影响内地市场走向",
        "docid": "7345362383822717476",
        "url": ""
    },
    {
        "title": "西方不服气，为何中国没发动任何战争，却成为世界一流经济强国",
        "docid": "7342808174850294335",
        "url": ""
    },
    {
        "title": "200箱牛肉礼盒全是假货，厂家承认造假，假牛肉泛滥是谁的错？",
        "docid": "7337119585596195337",
        "url": ""
    },
    {
        "title": "中国最“惹不起”的一个省：河南半个中国都离不开它 “富”得流油",
        "docid": "7344359201604846099",
        "url": ""
    },
    {
        "title": "“财经女侠”叶檀：婚后坚持丁克到如今的现状，扎痛了父母的心",
        "docid": "7344915304323547663",
        "url": ""
    },
    {
        "title": "“醋费”惊现东北菜馆！网友怒了：吃顿饺子，还要收醋钱！",
        "docid": "7326946731818484259",
        "url": ""
    },
    {
        "title": "闹大了！金价一夜大涨，国内价格突破645元每克，笑死在评论区",
        "docid": "7344979392294715967",
        "url": ""
    },
    {
        "title": "大反转！大润发力挺农夫山泉后续：顶不住压力，连夜换上娃哈哈！",
        "docid": "7344557312905871872",
        "url": ""
    },
    {
        "title": "突发重磅，暴涨！",
        "docid": "7345385083496432163",
        "url": ""
    },
    {
        "title": "房东眼红租客生意好，把房租从26万涨到50万，租客：小姑娘太狠了",
        "docid": "7341383531538416169",
        "url": ""
    },
    {
        "title": "撞坏1节护栏要赔2000块，真的假的",
        "docid": "7337245239340220965",
        "url": ""
    },
    {
        "title": "雷军官宣小米汽车发布时间，还回应了“价格战”！一群股民已经大赚",
        "docid": "7345367628443451930",
        "url": ""
    },
    {
        "title": "金价狂飙涨疯普通人还能再买吗，听听过来人的建议，受益匪浅！",
        "docid": "7345312654728741439",
        "url": ""
    },
    {
        "title": "创业新方向！北京夫妻拍微短剧月入4亿、网友：明星要跌下神坛了",
        "docid": "7345302095664284187",
        "url": ""
    },
    {
        "title": "笑翻！娃哈哈订单暴涨23000%，宗馥莉喊话理性消费，网友：你别管",
        "docid": "7345387200098386458",
        "url": ""
    },
    {
        "title": "最新中国公司市值TOP20，涨见识了",
        "docid": "7345419039205753378",
        "url": ""
    },
    {
        "title": "路走明白了！中芯国际正式宣布，中企订单占比突破80%",
        "docid": "7344638267888927269",
        "url": ""
    },
    {
        "title": "AI最大受益者，光模块世界第一，比华为更遥遥领先！",
        "docid": "7340499523258630675",
        "url": ""
    },
    {
        "title": "“都跑了！”武汉一快递站点快递员大量辞职，快递滞留十多天无人送......",
        "docid": "7345384176357229056",
        "url": ""
    },
    {
        "title": "搬了3次家才发现，这“2个楼层”就是智商税，住着不舒服还难转手",
        "docid": "7335652949202928143",
        "url": ""
    },
    {
        "title": "三年之约！雷军官宣：小米汽车3月28日正式发布，评论区彻底炸锅",
        "docid": "7345299729460724287",
        "url": ""
    },
    {
        "title": "闹大了 ! 董宇辉直播小作文惊艳华为，华为下令全员学习话术。",
        "docid": "7345301358666416659",
        "url": ""
    },
    {
        "title": "北京上海开始出现洗房，很多父母都慌了，给不少家庭带来致命打击",
        "docid": "7345066981026152986",
        "url": ""
    },
    {
        "title": "直观感受黄冈四线小县城的物价，回到家乡三年的我已躺平",
        "docid": "7344249371032076800",
        "url": ""
    },
    {
        "title": "贵到离谱！乱到极致！暗访知名平台“快修店”，记者惊呆了",
        "docid": "7345089711185396243",
        "url": ""
    },
    {
        "title": "退休后如果能达到以下十条，就是人生赢家。",
        "docid": "7333934152775762447",
        "url": ""
    },
    {
        "title": "笑麻了，大学生把娃哈哈拍成国窖风，网友：娃哈哈广告部要失业了",
        "docid": "7345360037688312332",
        "url": ""
    },
    {
        "title": "银行办公一层就够了，为什么还要盖个大楼？楼上都是干嘛的？",
        "docid": "7317217591393845769",
        "url": ""
    },
    {
        "title": "马云问周星驰：你觉得我长得怎么样？周星驰高情商回应全场哄笑",
        "docid": "7332033773813301787",
        "url": ""
    },
    {
        "title": "法媒：中国继续蝉联榜首，美国位居第二，印度增长最快",
        "docid": "7345310551578739240",
        "url": ""
    },
    {
        "title": "放屁，有钱谁不敢花，南京居民回怼专家，话糙理不糙，听着痛快",
        "docid": "7330091618026193434",
        "url": ""
    },
    {
        "title": "美国一对夫妻耗时20年，在悬崖上凿出一栋豪宅，现在却已转手卖掉",
        "docid": "7341300785373774375",
        "url": ""
    },
    {
        "title": "专家分析资本为何离开欧元区",
        "docid": "7345403022623851027",
        "url": ""
    },
    {
        "title": "德国的铲雪机械有多牛？看完我大吃一惊！#铲雪车 #除雪神器",
        "docid": "7319504965787976201",
        "url": ""
    },
    {
        "title": "胡富国：谁要敢吃我引黄工程，统统给你除掉",
        "docid": "7327189230022001215",
        "url": ""
    },
    {
        "title": "日夜不停运行50万公里，维修上百次，俄罗斯资深司机谈中国卡车",
        "docid": "7322033152808256012",
        "url": ""
    },
    {
        "title": "98万拍下摊位卖馍半月回本？摊主辟谣：今年租金18万不是98万",
        "docid": "7345385711584936483",
        "url": ""
    },
    {
        "title": "半挂卡车重载上坡，弯道太急遇到困难，司机操作让人无语",
        "docid": "7327259149816103424",
        "url": ""
    },
    {
        "title": "美国再次改变世界，人工智能不合理进化，以后的世界只有中美？",
        "docid": "7336079531268768283",
        "url": ""
    },
    {
        "title": "谁是中国制造的“隐形冠军”？",
        "docid": "7317164338363040308",
        "url": ""
    },
    {
        "title": "钟睒睒反击打价格战，农夫山泉销量回升，宗馥莉措手不及！",
        "docid": "7343038747833287177",
        "url": ""
    },
    {
        "title": "钱越来越难赚，为什么旅游人数还爆表？是经济复苏了吗？",
        "docid": "7337969806584873522",
        "url": ""
    },
    {
        "title": "老祖宗留下的生意经:炉火不旺不出钢，不懂行情别经商，你细品。",
        "docid": "7345256659834880562",
        "url": ""
    },
    {
        "title": "光伏板要雪崩了",
        "docid": "7338295240694399523",
        "url": ""
    },
    {
        "title": "厚达6层楼的冰面，破冰船是如何破冰的 #工程机械 #纪录片",
        "docid": "7312380823989289522",
        "url": ""
    },
    {
        "title": "打算卖房才发现，难以接受的，不是房价下降了，而是根本卖不出去",
        "docid": "7314963579760181801",
        "url": ""
    },
    {
        "title": "李嘉诚神预言？中国45%城镇家庭的房子，将迎来3大严峻难题！",
        "docid": "7345389173798568502",
        "url": ""
    },
    {
        "title": "靠“打工”成为亿万富豪，身家超过8600亿元，是苹果CEO库克57倍",
        "docid": "7342803145250046501",
        "url": ""
    },
    {
        "title": "骗走董明珠26亿，还将刘强东、王健林拉下水，魏银仓怎么做到的？",
        "docid": "7333165424366076426",
        "url": ""
    },
    {
        "title": "“户户享受私家花园，层层拥有公共院落”—— 南阳首个“第四代住宅”，会为我们带来怎样的惊喜？",
        "docid": "7344693469891478050",
        "url": ""
    },
    {
        "title": "两会答案！比GDP增长更难的目标来了，中国汽车干了件坏事？",
        "docid": "7345069143437165071",
        "url": ""
    },
    {
        "title": "要是早知道现在这样，打死我也不会买房！",
        "docid": "7344076608229081626",
        "url": ""
    },
    {
        "title": "男友高考690，爸爸银行行长，顶级白富美对线张雪峰！",
        "docid": "7323451864124097036",
        "url": ""
    },
    {
        "title": "93年，浙江女子给乞丐一碗饭，20年后乞丐成亿万富豪，送百万报恩",
        "docid": "7330814552474649099",
        "url": ""
    },
    {
        "title": "湖北未来最“有钱”的城市，这4个地方脱颖而出，在当地呼声最高",
        "docid": "7317841841285104139",
        "url": ""
    },
    {
        "title": "新加坡前副总理回怼蛮横主持人：“中国原本就是自由国家！”泄愤",
        "docid": "7316565670089622052",
        "url": ""
    },
    {
        "title": "踢到金库了！男子借银行卫生间被拒 ，银行却获网友力挺。",
        "docid": "7344678122366943779",
        "url": ""
    },
    {
        "title": "创业新方向！北京夫妻拍微短剧月入4亿。网友：明星要跌下神坛了",
        "docid": "7345412292718543395",
        "url": ""
    },
    {
        "title": "近万名职工的百年锰矿，竟是这样一个下场",
        "docid": "7313910187781784104",
        "url": ""
    },
    {
        "title": "注册资本过万亿，员工超过两百万，总部武警站岗，了解正部级央企",
        "docid": "7343554855027966504",
        "url": ""
    },
    {
        "title": "见光死！龙虎榜现身2天之后，今天上演天地板，10亿资金出逃",
        "docid": "7345344122418512423",
        "url": ""
    },
    {
        "title": "4500元退休金在湖南株洲是啥水平，吴大伯说说大实话",
        "docid": "7330897712788980264",
        "url": ""
    },
    {
        "title": "我已经5年没回城里的房子看看了",
        "docid": "7336129510335676928",
        "url": ""
    },
    {
        "title": "现在看刘强东讽刺马云吹牛的这段采访，才发现都是真的#刘强东",
        "docid": "7338642683537621531",
        "url": ""
    },
    {
        "title": "吉利控股2月销售18.4万辆，新能源渗透率35%，沃尔沃全球卖5万辆",
        "docid": "7345231095614456332",
        "url": ""
    },
    {
        "title": "长城汽车高管集体辞职！股权激励的“生存游戏”究竟谁之过？",
        "docid": "7345328640810304010",
        "url": ""
    },
    {
        "title": "农夫山泉事件愈演愈烈，钟睒睒扛不住了已卸任，胡锡进又被骂惨了",
        "docid": "7345462819976790579",
        "url": ""
    },
    {
        "title": "为什么有退休金的人一般都不参加聚会？看完你就明白了",
        "docid": "7337137491315786291",
        "url": ""
    },
    {
        "title": "小伙带父母三亚避寒，父母偷偷批发2千斤芒果摆摊，小伙气到冒烟",
        "docid": "7318179471201468937",
        "url": ""
    },
    {
        "title": "英国人：中国不可怕，可怕的是世界级难题，竟然如此简单的解决了",
        "docid": "7316560135785185833",
        "url": ""
    },
    {
        "title": "越南盘点2024中国十大城市。越南网友：一座城市可以抵整个越南！",
        "docid": "7337105254682952246",
        "url": ""
    },
    {
        "title": "南朝鲜不锈钢部队火锅制造工艺，网友：这线速接了不够发工资",
        "docid": "7317635693423886874",
        "url": ""
    },
    {
        "title": "几乎全是假货，利润高达650%，为何消费者还甘愿被‘割韭菜’？",
        "docid": "7338877490142331418",
        "url": ""
    },
    {
        "title": "连续两年，未分红派现的方大特钢投资逻辑分析",
        "docid": "7345325546743775783",
        "url": ""
    },
    {
        "title": "多方面优势助力 郑州或超越武汉 成为中部“老大”！",
        "docid": "7345429561015927336",
        "url": ""
    }
]