[
    {
        "title": "揭露食品过期真相！男子举报获巨额罚款，奖励却只有“纸酱油”？",
        "docid": "7334260506917700130",
        "url": ""
    },
    {
        "title": "春节“最狠”年货：贵得离谱，照样老少通杀！",
        "docid": "7334173413752242714",
        "url": ""
    },
    {
        "title": "1年败光320亿，江西首富倒在2023",
        "docid": "7325368534115418664",
        "url": ""
    },
    {
        "title": "太奇葩了，女孩为讹钱伸进裤子拔毛扔到锅里，网友的评论非常一致",
        "docid": "7321015439058960931",
        "url": ""
    },
    {
        "title": "濮阳富豪胡葆森：曾身家190亿，地产项目覆盖河南，能否走出危机",
        "docid": "7309329440415154714",
        "url": ""
    },
    {
        "title": "都说上海比杭州好，上海和杭州都去过，实话实说，差距真的很大！",
        "docid": "7332513979212202511",
        "url": ""
    },
    {
        "title": "42岁创业，71岁出山，只为给儿子收拾烂摊子，“老干妈”陶华碧后来怎么样了…",
        "docid": "7324126468492050983",
        "url": ""
    },
    {
        "title": "又一大佬“透支”，无钱偿还1.1亿利息，也姓许，也上过城楼",
        "docid": "7307817172787528231",
        "url": ""
    },
    {
        "title": "第一次有人把劳务派遣和劳务外包的区别，讲的这么清楚！真的太好懂了！",
        "docid": "7310032785048388130",
        "url": ""
    },
    {
        "title": "花710万买了房子，两年半后发生了什么？老洪肠子都悔青了",
        "docid": "7326118319349940755",
        "url": ""
    },
    {
        "title": "女子吐槽网购500克开心果，干燥剂占191克：投诉后被怼别太无知！律师：缺斤少两这是欺诈消费者！",
        "docid": "7332427176610087464",
        "url": ""
    },
    {
        "title": "存到50万后我的消费观",
        "docid": "7308889898881253924",
        "url": ""
    },
    {
        "title": "天呐，万万没想到富人、中产、穷人的底层区别居然这么大！",
        "docid": "7306517080327979572",
        "url": ""
    },
    {
        "title": "消费摆烂？春节北京民宿惨不忍睹！越到过年越没钱？",
        "docid": "7334344899355705875",
        "url": ""
    },
    {
        "title": "稻盛和夫：人的成长，始于三次觉醒",
        "docid": "7307997987337142823",
        "url": ""
    },
    {
        "title": "🍒成为强者的三个步骤——马斯克",
        "docid": "7333901579990581812",
        "url": ""
    },
    {
        "title": "太恶心了，刚卖出亏了56个点的票，第二天开始，你就连续拉30个点",
        "docid": "7333943194742260236",
        "url": ""
    },
    {
        "title": "极简生活：经济下行，请立刻停止做这16件事",
        "docid": "7315017609132130853",
        "url": ""
    },
    {
        "title": "失业的90后，卷向义乌",
        "docid": "7332656312251056691",
        "url": ""
    },
    {
        "title": "揭秘广西最穷的五个城市：生活艰辛，经济滞后",
        "docid": "7332732614715933194",
        "url": ""
    },
    {
        "title": "“取款如登天！”男子急需用钱，想在银行取30万，却遭告知需预约",
        "docid": "7329270316444713498",
        "url": ""
    },
    {
        "title": "长江以南最大的军工制造城市，竟然是湖南这个小城！",
        "docid": "7312419727622832674",
        "url": ""
    },
    {
        "title": "25—35岁黄金十年狠狠搞钱，早日实现财务自由",
        "docid": "7330582870660579849",
        "url": ""
    },
    {
        "title": "退休证有“红、绿、蓝”三种颜色，分别代表啥？哪种养老金更高？",
        "docid": "7327583027213976104",
        "url": ""
    },
    {
        "title": "为什么这次的熊市，国家队救的这么费劲，还救不起来呢...",
        "docid": "7334141036643484210",
        "url": ""
    },
    {
        "title": "胸闷！沪上居民楼加装电梯，竟遭“烂尾”！28万元䃼贴，一年多无法申领",
        "docid": "7332376973739639296",
        "url": ""
    },
    {
        "title": "江苏常州一公司年会聚餐被收7500元电费？酒店回应",
        "docid": "7332667648272286242",
        "url": ""
    },
    {
        "title": "广东饶平楼市的危机，饶平县房价很低，但饶平年轻人仍觉得房价贵",
        "docid": "7333437316134306340",
        "url": ""
    },
    {
        "title": "在自己经济允许的情况下，想买的东西要趁早买",
        "docid": "7332811483174486555",
        "url": ""
    },
    {
        "title": "中国市场为啥让人“离不开”“舍不得”?",
        "docid": "7334249431996580367",
        "url": ""
    },
    {
        "title": "铝矿挖完后，百色会成为下一个合山吗？",
        "docid": "7328048908901384731",
        "url": ""
    },
    {
        "title": "10年后，国内二三十层的高层住宅，将不得不面临3大难题，很真实",
        "docid": "7311314666092429858",
        "url": ""
    },
    {
        "title": "原来ST左江的保荐机构是中信证券，我到现在才知道！",
        "docid": "7334115333147542057",
        "url": ""
    },
    {
        "title": "医生的工资有人归纳出来了，不看真的不知道，一看确实好羡慕",
        "docid": "7334368593805279753",
        "url": ""
    },
    {
        "title": "上海一身价35亿总裁假扮农民工，到工地上班第一天，差点就被开除",
        "docid": "7321918129176412681",
        "url": ""
    },
    {
        "title": "这回闹大了！社保窗口分多次索要证件，结果惹怒暴躁大姐拍桌质问",
        "docid": "7305364896819102227",
        "url": ""
    },
    {
        "title": "人口流失全国第一！10年流失近700万人，黑龙江到底发生了什么？",
        "docid": "7332050172802990644",
        "url": ""
    },
    {
        "title": "河南将打造第二个“郑州”，晋升省域副中心，目标3年GDP破6000亿",
        "docid": "7312642691324854819",
        "url": ""
    },
    {
        "title": "基金亏损50%，补仓还是赎回？",
        "docid": "7325684469468906025",
        "url": ""
    },
    {
        "title": "“童话大王”郑渊洁长子：小学毕业就辍学在家，如今已是亿万富翁",
        "docid": "7332075702508192256",
        "url": ""
    },
    {
        "title": "浙江杭州上城区，他很懊悔：交完5万才发现，房龄已经51年",
        "docid": "7333980074355589651",
        "url": ""
    },
    {
        "title": "大儿子沉迷美色无心家业，二儿子败光400亿，一世英名被后代毁掉",
        "docid": "7326866803396018728",
        "url": ""
    },
    {
        "title": "“两百多万”的佣金，拿不到？",
        "docid": "7316884786432672282",
        "url": ""
    },
    {
        "title": "世界首富换人",
        "docid": "7329018076672983564",
        "url": ""
    },
    {
        "title": "男子ATM机取1500元，回家发现6张练功券，民警：银行没问题",
        "docid": "7317184969099887154",
        "url": ""
    },
    {
        "title": "中国家庭总资产500万，属于什么阶层？",
        "docid": "7320535619250356799",
        "url": ""
    },
    {
        "title": "是不是真恩爱不知道，但细看章泽天资产，有被这个女人惊讶到",
        "docid": "7322032829318480418",
        "url": ""
    },
    {
        "title": "福建80后夫妻:在非洲闯荡15年，只赚钱不花钱，如今想回国却很难",
        "docid": "7332331649591427620",
        "url": ""
    },
    {
        "title": "余干彭国禄为何能够取得事业上的成功？",
        "docid": "7303199823044330038",
        "url": ""
    },
    {
        "title": "为什么我国只有15个副省级城市？而很多省会却不在其中？",
        "docid": "7318681258631365156",
        "url": ""
    },
    {
        "title": "8年狂撒80亿广告费，捧不出第二个东鹏特饮",
        "docid": "7332519859424936511",
        "url": ""
    },
    {
        "title": "“这样的‘豆腐渣工程’竟然通过了竣工验收”",
        "docid": "7309402038230958643",
        "url": ""
    },
    {
        "title": "消费券又来了！湖北全省2亿元！发放“惠购湖北”新春消费券。",
        "docid": "7334161666852291084",
        "url": ""
    },
    {
        "title": "上海姑娘卖预制菜，年营收2亿，拿下细分类目第一",
        "docid": "7321532043568939558",
        "url": ""
    },
    {
        "title": "上海夫妻买房2年后发现房子“秘密”，竟出过这种事……",
        "docid": "7308278836633223707",
        "url": ""
    },
    {
        "title": "一年挣十几万没问题，还不用拼人脉，这个行业不起眼，但利润不小",
        "docid": "7304631239447839232",
        "url": ""
    },
    {
        "title": "为何江西泰和疯狂造城，低廉的泰和房价，泰和县城镇化为抢人留人",
        "docid": "7322342641189536265",
        "url": ""
    },
    {
        "title": "揭秘普通人真实收入情况——深圳！",
        "docid": "7301221729899217434",
        "url": ""
    },
    {
        "title": "孙建波：深度解读14号文；恢复房子商品属性，才是激活经济的关键",
        "docid": "7328646680264393243",
        "url": ""
    },
    {
        "title": "人家这才叫“年度经营计划与执行管理 ”，你那顶多算“东拼西凑”",
        "docid": "7334278404755456552",
        "url": ""
    },
    {
        "title": "今年武汉公交的一个变化…",
        "docid": "7301154611241763354",
        "url": ""
    },
    {
        "title": "重磅:证监会大年三十再亮剑，重罚知名会计事务所！",
        "docid": "7334113836921979444",
        "url": ""
    },
    {
        "title": "储蓄之道：紧握“钱途”，才能走向未来",
        "docid": "7334260881720869403",
        "url": ""
    },
    {
        "title": "挂靠单位交社保时社保局能否审核出来",
        "docid": "7315290709798650404",
        "url": ""
    },
    {
        "title": "王亚伟失联说明了什么",
        "docid": "7334061856706937363",
        "url": ""
    },
    {
        "title": "【理财日记007】今天撸羊毛26元",
        "docid": "7334210984422687286",
        "url": ""
    },
    {
        "title": "1600亿！80万人口的中国最牛县城，涌入450家德企，人均GDP超上海",
        "docid": "7324625087289704975",
        "url": ""
    },
    {
        "title": "小米在印度发声：鉴于印政府对中企严格审查，零部件供应商对在印建立业务持忧虑态度",
        "docid": "7334353159400292891",
        "url": ""
    },
    {
        "title": "男子每月仅用电40度，电力公司怀疑偷电，竟强拆他家电表",
        "docid": "7314220322793374246",
        "url": ""
    },
    {
        "title": "85后钢铁老板，14亿抄底上海20栋别墅",
        "docid": "7323143885335839271",
        "url": ""
    },
    {
        "title": "近万元羽绒服口袋发现一块布料，加拿大鹅致歉",
        "docid": "7311475542300099109",
        "url": ""
    },
    {
        "title": "张朝阳建议年轻人要早起 6点起床比9点起床强 你比别人多3个小时思考这辈子干嘛 你早起了 晚上就睡得很好",
        "docid": "7310067132539142665",
        "url": ""
    },
    {
        "title": "极氪X：车小动力强，电池不虚标！",
        "docid": "7314664833239564863",
        "url": ""
    },
    {
        "title": "伴有强烈腐臭气味",
        "docid": "7328333269420950057",
        "url": ""
    },
    {
        "title": "我，三流大学毕业，和朋友创办游戏公司，拿到大投资，却没赚到钱",
        "docid": "7326023579877786138",
        "url": ""
    },
    {
        "title": "顶级豪宅深圳湾1号，背后的男人有多牛？",
        "docid": "7319171142789612067",
        "url": ""
    },
    {
        "title": "花呗借呗原运营主体均已去除贷款业务",
        "docid": "7311598902631776831",
        "url": ""
    },
    {
        "title": "“IPO申请即担责”，这才是A股真正的利好，可解决上市圈钱乱象",
        "docid": "7334364810198876722",
        "url": ""
    },
    {
        "title": "SKP确定入驻广州",
        "docid": "7331914898567545379",
        "url": ""
    },
    {
        "title": "万事达公司进入我国市场，会带来哪些影响",
        "docid": "7303188665390596648",
        "url": ""
    },
    {
        "title": "中国首位“女首富”：用“不起眼的生意”发家，身价达420亿元",
        "docid": "7328658946451898889",
        "url": ""
    },
    {
        "title": "经济普查请你知｜第五次全国经济普查要点梳理",
        "docid": "7317176351080202803",
        "url": ""
    },
    {
        "title": "2024年普通人要想赚大钱，一定要死磕互联网",
        "docid": "7334289390208074278",
        "url": ""
    },
    {
        "title": "盘点广东省国资委控股的十大国有企业",
        "docid": "7300833647588819471",
        "url": ""
    },
    {
        "title": "2月6日公告清盘，2月7日证监会换帅！这家私募倒在黎明前最黑暗时",
        "docid": "7333921003514642959",
        "url": ""
    },
    {
        "title": "给所有退休老人的忠告：管住你的退休金，千万别做这4件糊涂事",
        "docid": "7311618198192161290",
        "url": ""
    },
    {
        "title": "增长25.7%！高端领域再传喜报：中国装备走向高端谁也没办法阻挡",
        "docid": "7334279254823420425",
        "url": ""
    },
    {
        "title": "生意人必读：中间商转型已成必然，但中间商依然是最赚钱的。",
        "docid": "7321548583973650955",
        "url": ""
    },
    {
        "title": "你的存款有多少？对号入座，你的经济是哪个级别？",
        "docid": "7334355101735518720",
        "url": ""
    },
    {
        "title": "襄阳市的区划变迁，湖北省的第二大城市，为何有9个区县？",
        "docid": "7309030182042747426",
        "url": ""
    },
    {
        "title": "湖南衡阳：开发商6年不交房，房贷还要还，业主请求解除合同 判了！",
        "docid": "7308623067402781218",
        "url": ""
    },
    {
        "title": "南航拒载残疾人引发热议：投诉者身份曝光，年轻貌美曾被央视报道",
        "docid": "7334300166499156532",
        "url": ""
    },
    {
        "title": "他是新疆商界的二号人物，身价上亿，拥有503个孩子",
        "docid": "7301579012487397923",
        "url": ""
    },
    {
        "title": "税务局明确了！企业和个人出租房屋，要缴这些税！",
        "docid": "7333476774908527115",
        "url": ""
    },
    {
        "title": "中国一拖出口订单引爆海外市场，世界瞩目！",
        "docid": "7332781006619460130",
        "url": ""
    },
    {
        "title": "富豪们的财富自由之路",
        "docid": "7332320162911584808",
        "url": ""
    },
    {
        "title": "股票委托撤单要手续费吗？",
        "docid": "7333792729383928339",
        "url": ""
    },
    {
        "title": "2024年GDP最高的10个国家名单",
        "docid": "7333719812960502282",
        "url": ""
    },
    {
        "title": "新加坡总统：中国经济基本盘实力毋庸置疑",
        "docid": "7334176573425386035",
        "url": ""
    },
    {
        "title": "不出意外！未来中国50%的人口，都将聚集到这6大城市群！",
        "docid": "7325783146673734155",
        "url": ""
    },
    {
        "title": "上海一模具公司破产，名下1547万应收款债权拍卖，被人3550元拿下",
        "docid": "7320433590398124563",
        "url": ""
    },
    {
        "title": "A股：大家做好心理准备，节后，股市很可能会重演历史？",
        "docid": "7334211191973986852",
        "url": ""
    },
    {
        "title": "百平米仅售 0.002元，整座海岛仅售 4300 元，你会买吗?",
        "docid": "7328296584960197135",
        "url": ""
    },
    {
        "title": "广东惠州贬值较快的100个小区房价公布了，你能买得起哪一个？",
        "docid": "7333579258553975335",
        "url": ""
    },
    {
        "title": "警惕“网约房”变成滋生违法犯罪的温床",
        "docid": "7310407332482089487",
        "url": ""
    },
    {
        "title": "假如有10万，放在余额宝好，还是存银行存定期好？",
        "docid": "7302369602313847336",
        "url": ""
    },
    {
        "title": "一套70平方米的房子售价仅2000元，每平方米只有28元？",
        "docid": "7317885456035922443",
        "url": ""
    },
    {
        "title": "从赌场到股市，他用一个公式战胜了所有市场",
        "docid": "7320123224950374923",
        "url": ""
    },
    {
        "title": "城市老小区规模化改造样本：杭州市中心13幢危旧房原地重建",
        "docid": "7317523233631306291",
        "url": ""
    },
    {
        "title": "2024年，将成为中国经济领域两个存在了很多年的传统的转折之年？",
        "docid": "7332750538205725234",
        "url": ""
    },
    {
        "title": "王健林最恐惧的事情还是发生了",
        "docid": "7334420029238149632",
        "url": ""
    },
    {
        "title": "未来不会倒闭的十二种行业，终于有人整理出来，对照一下",
        "docid": "7333490878134108698",
        "url": ""
    },
    {
        "title": "对钱要有概念，每年多存两三万",
        "docid": "7314846365975347739",
        "url": ""
    },
    {
        "title": "面朝大海，春暖花开！这些中式梦幻海景房，就是我的梦寐以求！",
        "docid": "7328749453190365722",
        "url": ""
    },
    {
        "title": "越闹越大！岳阳女乘客怒怼干部， 没动作你说的全是空话套话官话",
        "docid": "7332404889421185588",
        "url": ""
    },
    {
        "title": "全球轮胎品牌汇总！（最新）",
        "docid": "7323162182340969010",
        "url": ""
    },
    {
        "title": "刘强东农村豪宅！正对大广场，非常霸气，鹤立鸡群",
        "docid": "7331254165697724943",
        "url": ""
    },
    {
        "title": "我国从朝鲜进口了什么？你可能想不到，假发占比超一半！",
        "docid": "7332659464623047194",
        "url": ""
    },
    {
        "title": "退休人员离世能拿到40个月养老金？这两类退休人员可以！",
        "docid": "7309304381101376000",
        "url": ""
    },
    {
        "title": "2024年A股股息率超5%的276只股票",
        "docid": "7333491268221436425",
        "url": ""
    },
    {
        "title": "岁末年初，新的风口在哪里？",
        "docid": "7334301948147778099",
        "url": ""
    },
    {
        "title": "关于资阳撤市设区并入成都的研究",
        "docid": "7321630077509353999",
        "url": ""
    },
    {
        "title": "社保白交直男弟弟相亲记，这操作真是没谁了，太精辟了",
        "docid": "7334321934739620386",
        "url": ""
    },
    {
        "title": "“风投女王”、“今日资本” 创始人---徐新",
        "docid": "7334057368461820426",
        "url": ""
    },
    {
        "title": "我国的省域经济发展为何两河不如两湖，而两湖又不如两江呢",
        "docid": "7333828637295018523",
        "url": ""
    },
    {
        "title": "四川省巴中市5县(区)概况",
        "docid": "7301681074030215680",
        "url": ""
    },
    {
        "title": "普通人想成为亿万富豪，有3条路可走！走对了暴富，走错了蹲监狱",
        "docid": "7334370035353387556",
        "url": ""
    },
    {
        "title": "我们是否应该抛弃小事而成就大事？",
        "docid": "7334280440150639142",
        "url": ""
    },
    {
        "title": "甲辰龙年武汉阳逻港首艘汉亚号直航入境",
        "docid": "7334298116734190090",
        "url": ""
    },
    {
        "title": "超级省钱术！2024年终极存钱指南，让你的储蓄翻倍增长！",
        "docid": "7334334080899187235",
        "url": ""
    },
    {
        "title": "宁波，宁波！这项技术，解决超百万家庭的洗碗烦恼！",
        "docid": "7319514396181414436",
        "url": ""
    },
    {
        "title": "国务院国资委主任张玉卓：大力发展新质生产力 加快建设具有产业特点的一流国有资本投资公司",
        "docid": "7334361353199157775",
        "url": ""
    },
    {
        "title": "美的集团公子：逃离接班、另起炉灶，如今专注“扫大街”赚了百亿",
        "docid": "7320901561025315379",
        "url": ""
    },
    {
        "title": "陕西、河南都不是有钱的主，有了西武高铁，西合高铁没多大希望",
        "docid": "7306902027035558415",
        "url": ""
    },
    {
        "title": "我想说，在临沂，最富的应该是罗庄张氏家族吧。",
        "docid": "7325722902702473743",
        "url": ""
    },
    {
        "title": "为何河南省滑县疯狂造城，低廉的滑县房价，滑县城镇化为抢人留人",
        "docid": "7321965387393368602",
        "url": ""
    },
    {
        "title": "2023年中国电力版图",
        "docid": "7333402843241890345",
        "url": ""
    },
    {
        "title": "梁建章大胆预测：养老金将减半？退休年龄或推迟到七八十岁！",
        "docid": "7334358640055108122",
        "url": ""
    },
    {
        "title": "危机升级！中国再度面临通缩困境？经济回升！中国应该如何应对？",
        "docid": "7334176282978566690",
        "url": ""
    },
    {
        "title": "江苏养老金调整后，退休人员到银行大排长龙？咋回事？注意四件事",
        "docid": "7325379530662003252",
        "url": ""
    },
    {
        "title": "阿里巴巴暴跌超千亿，马云的这个年不好过了",
        "docid": "7333387879562904073",
        "url": ""
    },
    {
        "title": "个体户注册资金我填10万和1万有什么区别？需要注意哪些事项？",
        "docid": "7309370303396708898",
        "url": ""
    },
    {
        "title": "贫穷真相｜通胀到底可怕在哪里？普通人能战胜通胀吗？",
        "docid": "7334234534671860278",
        "url": ""
    },
    {
        "title": "四川中江县楼市的危机，低廉的中江县房价，中江县发展格局与未来",
        "docid": "7333876766907499019",
        "url": ""
    },
    {
        "title": "坚守岗位也得干饭啊！来看看银行人过年期间吃啥→",
        "docid": "7334138307871310374",
        "url": ""
    },
    {
        "title": "A股：春节期间外围疯涨 节后A股能否跟上节奏？",
        "docid": "7334344279525212726",
        "url": ""
    },
    {
        "title": "去乘火车要注意：这些限制随身携带！",
        "docid": "7306815082708025919",
        "url": ""
    },
    {
        "title": "四川省阿坝藏族羌族自治州13县(市)概况",
        "docid": "7302081916289679926",
        "url": ""
    },
    {
        "title": "辽宁盖州汪振东",
        "docid": "7320959736323981824",
        "url": ""
    },
    {
        "title": "中信建投武超则龙年新春寄语：预计A股有望呈现小牛市，看好三条主线",
        "docid": "7333518442051830323",
        "url": ""
    },
    {
        "title": "没有退休金，没有收入，一名60多岁的人怎么养老？",
        "docid": "7303402836187398682",
        "url": ""
    },
    {
        "title": "大股东减持，不能用道德约束，而是要用严刑峻法",
        "docid": "7333831007341052456",
        "url": ""
    },
    {
        "title": "办退休时，独生子女补助办理需要什么手续？看完文章不白跑",
        "docid": "7312826801687200256",
        "url": ""
    },
    {
        "title": "2023年我国实物商品网零占社零比重创新高",
        "docid": "7334203150229946915",
        "url": ""
    },
    {
        "title": "“穷得只剩美女”？委内瑞拉石油储量全球第一，好牌却打得稀烂",
        "docid": "7302360463080210984",
        "url": ""
    },
    {
        "title": "从欠债不敢回家到年入过亿，山东小伙在拼多多做对了这件事",
        "docid": "7332031787453809190",
        "url": ""
    },
    {
        "title": "今天终于明白，养老金个人账户139个月是什么意思了？",
        "docid": "7312325576189280808",
        "url": ""
    },
    {
        "title": "我80后东北小伙，定居日本16年，从留学到创业，干农活，开拖拉机",
        "docid": "7322110596273766952",
        "url": ""
    },
    {
        "title": "世界上穷的“只有钱”的国家：依靠卖钱生活，路上掉一亿没人愿捡",
        "docid": "7328608844081742374",
        "url": ""
    },
    {
        "title": "国家发改委：支持京津冀等城际铁路项目",
        "docid": "7334255780658446883",
        "url": ""
    },
    {
        "title": "浙江“皮革大亨”王敏，身价高达22亿，却被家人算计送进精神病院",
        "docid": "7319423735235723812",
        "url": ""
    },
    {
        "title": "中国经济的真实面目：一松，就火爆！一紧，就萧条？",
        "docid": "7322365813619851839",
        "url": ""
    },
    {
        "title": "天津十大首富：看看你认识哪几个",
        "docid": "7331026858584097307",
        "url": ""
    },
    {
        "title": "经销商今年不用太焦虑，因为明年生意会更难",
        "docid": "7310426822318621199",
        "url": ""
    },
    {
        "title": "2024年的中国楼市，比房价承压更值得重视两个市场信号，怎么看？",
        "docid": "7323554692041671205",
        "url": ""
    },
    {
        "title": "湖北十市 GDP 核定，第四季度暴跌，襄阳未破 6000 亿，早有神预测",
        "docid": "7333474951879901705",
        "url": ""
    },
    {
        "title": "中规院公布中国城市活力排行榜：武汉第1，宁波超深圳，天津第25",
        "docid": "7321264395433509386",
        "url": ""
    },
    {
        "title": "第二个“深圳”出现了！人均比上海还高，2023年GDP已达2.47万亿",
        "docid": "7333841461504721435",
        "url": ""
    },
    {
        "title": "史上最牛催收员成长记：30岁手握捷信170亿个贷不良处置权",
        "docid": "7329353488104882729",
        "url": ""
    },
    {
        "title": "82.2%迁出的高新技术企业，去了江苏",
        "docid": "7316337728671547944",
        "url": ""
    },
    {
        "title": "为何银行存款会赠送礼品？内部人员不小心透露秘密，恍然大悟！",
        "docid": "7307467591302464000",
        "url": ""
    },
    {
        "title": "买房记好7个字：“买中、买边、不买三”，基本不会买到“坏”房",
        "docid": "7311993107682591273",
        "url": ""
    },
    {
        "title": "4楼和18楼我都住过，没人比我更有发言权，真实的感受才有说服力",
        "docid": "7330820184028496395",
        "url": ""
    },
    {
        "title": "我很知足！北京有这样的房子不多了，一间屋解决所有它不香吗？",
        "docid": "7315979226648347163",
        "url": ""
    },
    {
        "title": "博主开游艇回家过年，居然遇上“堵船”了",
        "docid": "7333568385726743051",
        "url": ""
    },
    {
        "title": "通信龙头，净利润大增150%，在手订单170亿，全产业链优势明确！",
        "docid": "7331685672224342579",
        "url": ""
    },
    {
        "title": "湖北13地市州人均GDP含金量排名",
        "docid": "7333957154904556070",
        "url": ""
    },
    {
        "title": "工资到账就“转移”到微信或支付宝，有什么后果？银行人道出实情",
        "docid": "7334240719084978742",
        "url": ""
    },
    {
        "title": "年薪4亿！美国芯片专家是华人，她是最会搞钱的“芯片女王”",
        "docid": "7332686611341427263",
        "url": ""
    },
    {
        "title": "“县城孔乙己”的痛，一线中产们不懂",
        "docid": "7304303336214610451",
        "url": ""
    },
    {
        "title": "14亿中国人带不动的消费，中国庞大人口优势，在这个领域失效了",
        "docid": "7304915155245433395",
        "url": ""
    },
    {
        "title": "专业人士：如果你的房子满足以下几个条件，那就表示买到了好房子",
        "docid": "7332532582569165338",
        "url": ""
    },
    {
        "title": "北京平八爷为什么总和董宇辉过不去？",
        "docid": "7317573876413448719",
        "url": ""
    },
    {
        "title": "上海39岁富豪被同事下毒，骇人细节流出：永远不要低估人性的恶",
        "docid": "7321978032233808425",
        "url": ""
    },
    {
        "title": "工商银行员工，自爆内心真实评价！网友说：不可能，绝对不可能",
        "docid": "7333901542330548747",
        "url": ""
    },
    {
        "title": "当一个北京中产家庭“逃离”京郊别墅区",
        "docid": "7330940213621015094",
        "url": ""
    },
    {
        "title": "国务院批复云南省建设：“1圈2群1带”，昭通委以重任，蒙自起飞",
        "docid": "7332766281634398770",
        "url": ""
    },
    {
        "title": "日本人预测，未来20年亚洲发达的“8座城市”，我国上榜几座？",
        "docid": "7322449224241562149",
        "url": ""
    },
    {
        "title": "香港退休夫妇定居内地！379万买海景房，装修使用多款国产黑科技",
        "docid": "7325344413751214643",
        "url": ""
    },
    {
        "title": "原来最适合养老和定居的城市是这里，太有说服力了",
        "docid": "7333480175046541860",
        "url": ""
    },
    {
        "title": "铅酸电池使用一两年而锂电池使用八年以上。看看网友的真实体验",
        "docid": "7322135132108800564",
        "url": ""
    },
    {
        "title": "去了一趟日本，才知道的30个小知识…",
        "docid": "7317180628963983883",
        "url": ""
    },
    {
        "title": "胖东来处罚情况说明足够严厉，但是请顾客不要道德绑架",
        "docid": "7333439468923257394",
        "url": ""
    },
    {
        "title": "93年，浙江女子给乞丐一碗饭，20年后乞丐成亿万富豪，送百万报恩",
        "docid": "7330814552474649099",
        "url": ""
    },
    {
        "title": "每天熟知一条产业链：光伏",
        "docid": "7329312729548980771",
        "url": ""
    },
    {
        "title": "2024年最快的搞钱方法，就是复制一个有结果的人",
        "docid": "7317456994632942090",
        "url": ""
    },
    {
        "title": "AI风口下的创业者，人力缩减一半，靠AI开了几十家店",
        "docid": "7322302880789774848",
        "url": ""
    },
    {
        "title": "我，28辞职创业赚取人生第一桶金1000万，如今开了家不卖书的书店",
        "docid": "7311098643589825075",
        "url": ""
    },
    {
        "title": "\"四川人均收入最低的十大城市： 第1名、甘孜：23147元  \"",
        "docid": "7327252240341762601",
        "url": ""
    },
    {
        "title": "住了6年21楼，我果断换成了一楼，结果被亲戚夸爆了！",
        "docid": "7334199414603563546",
        "url": ""
    },
    {
        "title": "三个卷烟厂一个也没保住，难怪邵阳勉强混了个省内第二梯队",
        "docid": "7329470484050231820",
        "url": ""
    },
    {
        "title": "开棋牌室不能只做棋牌室生意，还需要从这几点突破",
        "docid": "7328350552877154868",
        "url": ""
    },
    {
        "title": "湖北大雪，新能源汽车冻成冰雕！车企还敢吹吗，怎么取代油车？",
        "docid": "7332519038582964776",
        "url": ""
    },
    {
        "title": "餐饮越艰难，“收尸人”越富！揭秘二手设备回收生意的赚钱逻辑",
        "docid": "7306693663156060723",
        "url": ""
    },
    {
        "title": "办公楼下的王世仁面馆倒闭了，房租一年8万，门上贴着旺铺转让。",
        "docid": "7301441648624517667",
        "url": ""
    },
    {
        "title": "制造巨头纷纷搬迁中国西部，却不选择印度，原因为何？",
        "docid": "7331959031608820236",
        "url": ""
    },
    {
        "title": "说起社保，我真想打我家老头一顿，是他，让我不见了十万元左右",
        "docid": "7310577562432963084",
        "url": ""
    },
    {
        "title": "专家预测：未来5年，4种资产会越来越值钱，一不小心能让你翻身！",
        "docid": "7334047483628225059",
        "url": ""
    },
    {
        "title": "有房有院子有阳光",
        "docid": "7331040659056722470",
        "url": ""
    },
    {
        "title": "闹大了！银联被罚1540万冲上热搜，银联竟不是国企，那是什么呢？",
        "docid": "7334140353160708646",
        "url": ""
    },
    {
        "title": "李想：不能只学华为的流程 而不学华为的利益分配",
        "docid": "7332030916795826688",
        "url": ""
    },
    {
        "title": "厉害了！这位霞浦人从会计到全球亿万富豪，成功经验启示→",
        "docid": "7321617423252816396",
        "url": ""
    },
    {
        "title": "东北穷吗?2023辽宁人均存款全国排名第5，8个城市人均存款14万元",
        "docid": "7332297845175075382",
        "url": ""
    },
    {
        "title": "“一楼带院子”的房到底值不值得买，看完这几点你就懂了",
        "docid": "7326047711780766260",
        "url": ""
    },
    {
        "title": "一个人觉醒的最好方式：赚钱",
        "docid": "7313547059095781914",
        "url": ""
    },
    {
        "title": "你的定期存款有本子吗？原来有没有本子区别巨大",
        "docid": "7302433062343000586",
        "url": ""
    },
    {
        "title": "上海天理私募股权创始合伙人曹欣离世",
        "docid": "7332823387158397480",
        "url": ""
    },
    {
        "title": "全球10个著名的投资机构，摩根高盛只能算小弟，总值10.5万亿美元",
        "docid": "7301575992290705956",
        "url": ""
    },
    {
        "title": "30万现金被水泡了5天！银行人遭遇前所未有的挑战",
        "docid": "7314892545992196619",
        "url": ""
    },
    {
        "title": "一天吃透一条产业链——新能源汽车",
        "docid": "7311625180152349194",
        "url": ""
    },
    {
        "title": "咱们要承认：黄冈和鄂州的差距越来越大了",
        "docid": "7333935576116544041",
        "url": ""
    },
    {
        "title": "北大教授姚洋预测未来中国楼市走势，若无意外，或大概率是对的",
        "docid": "7321569849242141219",
        "url": ""
    },
    {
        "title": "北京大妈花280万捡漏，买到价值500万房子，被邻居一句话吓到退房",
        "docid": "7328345730513470002",
        "url": ""
    },
    {
        "title": "新加坡排名第一的企业：年营收达到2万亿，超越了三星电子、丰田",
        "docid": "7324519928411980329",
        "url": ""
    },
    {
        "title": "当一个国家缺钱时，偷印外国钞票花会发生什么？两个国家这样做过",
        "docid": "7323150421802254863",
        "url": ""
    },
    {
        "title": "海南崛起：中国即将诞生第二个国际化大都市",
        "docid": "7306137832043610659",
        "url": ""
    },
    {
        "title": "为何贵州省凯里市如此疯狂造城，低廉的凯里房价与凯里市城市未来",
        "docid": "7321545401998344714",
        "url": ""
    },
    {
        "title": "1亿买18台日本挖机，3亿买28台德国挖机，中国给巴铁这煤矿花血本",
        "docid": "7320807872048005686",
        "url": ""
    },
    {
        "title": "她用100万创造了摩拜自行车，在三年发展成一家价值15亿美元企业",
        "docid": "7334298343897711154",
        "url": ""
    },
    {
        "title": "美国第一州加利福尼亚有多发达？30个情况跟你讲清楚",
        "docid": "7303010697255191076",
        "url": ""
    },
    {
        "title": "董宇辉称供应商过年送礼将永不合作：别在人情往来上花心思",
        "docid": "7333037377717436969",
        "url": ""
    },
    {
        "title": "湖北最穷的恩施州，到底有多穷？",
        "docid": "7304790642306105906",
        "url": ""
    },
    {
        "title": "又一个“奴性”品牌？国产知名童鞋出现“奴仆黄”，网友震怒",
        "docid": "7332492300167348772",
        "url": ""
    },
    {
        "title": "1998年，俞敏洪被绑细节：7人被注射大型动物麻醉剂，仅他1人幸存",
        "docid": "7314564420569858598",
        "url": ""
    },
    {
        "title": "房奴时代即将彻底结束了",
        "docid": "7331299223927292443",
        "url": ""
    },
    {
        "title": "“你觉得数电发票方便吗？”很多会计给出了答案！",
        "docid": "7321914805747532339",
        "url": ""
    },
    {
        "title": "A股：新帅就是牛逼，连烧三把火，散户感动至极，大牛市不会远了",
        "docid": "7334498442016047668",
        "url": ""
    },
    {
        "title": "这俩洋和尚，让整个中国零售业都傻眼了",
        "docid": "7332681949217161743",
        "url": ""
    },
    {
        "title": "用100度电抽水，再发电80度，赔本的买卖为什么还要花费几百亿？",
        "docid": "7330193973325120037",
        "url": ""
    },
    {
        "title": "简阳、彭州、金堂、都江堰、崇州、邛崃、大邑，上榜！",
        "docid": "7301518986423616040",
        "url": ""
    },
    {
        "title": "明天起，调整！",
        "docid": "7326545480341914162",
        "url": ""
    },
    {
        "title": "出车祸时应该先报警还是报保险？顺序可不能错，要不然吃亏的是自己",
        "docid": "7306320711805682227",
        "url": ""
    },
    {
        "title": "迈皋桥，再见！",
        "docid": "7314291551591612940",
        "url": ""
    },
    {
        "title": "一研究生名下突然多出四家公司！全部经营异常，虚开发票近450万",
        "docid": "7324663690517611020",
        "url": ""
    },
    {
        "title": "湖北省城市区划设想：二分黄冈，1市2县纳入武汉，组建2个地级市",
        "docid": "7306716612202381862",
        "url": ""
    },
    {
        "title": "10年只产4台！敲中国竹杠的下场，就是4000吨级起重机抢都抢不到",
        "docid": "7324506416859873844",
        "url": ""
    },
    {
        "title": "上海市松江区楼市危机，高房价的松江区，松江区高房价能维持多久",
        "docid": "7333919813938479635",
        "url": ""
    },
    {
        "title": "王洪春落网：证券市场敲响警钟，零容忍态度彰显监管决心",
        "docid": "7334303415147168265",
        "url": ""
    },
    {
        "title": "越来越多的客运站被“关停”，这意味着什么？客运站要消失了吗？",
        "docid": "7311964209376428556",
        "url": ""
    },
    {
        "title": "开盘五分钟，小伙亏掉4800万，差点爆仓——背后的惊心一幕曝光",
        "docid": "7334304145576444435",
        "url": ""
    },
    {
        "title": "三株口服液覆灭史：年销售80亿的“巨无霸”，却被湖南老汉扳倒？",
        "docid": "7325611946949395007",
        "url": ""
    },
    {
        "title": "大量中国游客遭拒签，澳洲旅游市场“失去”中国人遭重击",
        "docid": "7334218538103833127",
        "url": ""
    },
    {
        "title": "退休老人离世后，丧葬抚恤金能领40个月工资？人人有份吗？",
        "docid": "7310028652929090100",
        "url": ""
    },
    {
        "title": "潮玩｜有龙则灵🐲🔥🔥🔥",
        "docid": "7334325771279090202",
        "url": ""
    },
    {
        "title": "上海铁路局与南昌铁路局大盘点，谁才是南部第一铁路局呢？",
        "docid": "7333942403420406283",
        "url": ""
    },
    {
        "title": "前财务离职5年后，竟盗用公章给自己开出170万的巨额“年终奖”",
        "docid": "7332454866260394531",
        "url": ""
    },
    {
        "title": "港媒：喝茅台还是白兰地？中国消费者口味正在变化，尤其是年轻人",
        "docid": "7324688724569129484",
        "url": ""
    },
    {
        "title": "地下两万米，藏着可供人类用23亿年的无尽能源?美国已经在开发了",
        "docid": "7317210707433718282",
        "url": ""
    },
    {
        "title": "信韩红不信红十？若经红十捐100万到灾区，你觉得群众到手有多少",
        "docid": "7317673307011138063",
        "url": ""
    },
    {
        "title": "韩国钢铁大鳄浦项钢铁，营收664亿美元，中国宝武集团如何？",
        "docid": "7315451002474299919",
        "url": ""
    },
    {
        "title": "油田企业一直在改制进行中，职工心里七上八下的，一直惶恐不安",
        "docid": "7330278114976793139",
        "url": ""
    },
    {
        "title": "您的银行卡是借记卡还是储蓄卡？两者的区别是什么？",
        "docid": "7307530640562520613",
        "url": ""
    },
    {
        "title": "扎克伯格背后的女人：凭一己之力完成阶层跨越，谁知她经历的黑暗",
        "docid": "7334165578158375458",
        "url": ""
    },
    {
        "title": "唉，又被某些自媒体的解读气死了，这处罚真跟现任没啥关系",
        "docid": "7333616051551142440",
        "url": ""
    },
    {
        "title": "租房时那些房东打听你的“黑话”",
        "docid": "7333146489025643043",
        "url": ""
    },
    {
        "title": "新晋万亿城市，北方第一地级市到底有多强悍？",
        "docid": "7329715465973694991",
        "url": ""
    },
    {
        "title": "这些隐性支出在不经意间增加你的经济负担",
        "docid": "7329038258154029605",
        "url": ""
    },
    {
        "title": "单亲妈妈的真实微信支付账单告诉你：为什么大家不敢花钱！",
        "docid": "7305564722676597300",
        "url": ""
    },
    {
        "title": "01年武汉女子花110万买房，政府拆迁赔1500万，女子：我要三千万",
        "docid": "7323510239024874023",
        "url": ""
    },
    {
        "title": "还房贷的思路",
        "docid": "7307926577743086130",
        "url": ""
    },
    {
        "title": "去了一趟浙江，有些话不说出来憋的难受，带你看看最真实的浙江",
        "docid": "7328383047806747175",
        "url": ""
    },
    {
        "title": "退休人员去世，家人不要忘记领这四笔钱，不知道的收藏好。",
        "docid": "7334249535432458786",
        "url": ""
    },
    {
        "title": "市值蒸发近50亿，关店求生，“预制菜一哥”被消费者狠狠上了一课",
        "docid": "7332030115566174729",
        "url": ""
    },
    {
        "title": "全球十大知名色彩，中国占两席",
        "docid": "7303741771731894793",
        "url": ""
    },
    {
        "title": "专家建议发3万亿生育补贴：初步计算，大约需要1-3万亿左右的补贴",
        "docid": "7311619720103445055",
        "url": ""
    },
    {
        "title": "从湖北荆州走出的3位女老板，都是从打工起家，如今坐拥身价73亿",
        "docid": "7317612156407857683",
        "url": ""
    },
    {
        "title": "太恶劣！已卖出140多万包……这牌子很多人吃过，网友炸锅了",
        "docid": "7322444011543872038",
        "url": ""
    },
    {
        "title": "揭开职业背债人的暴利生意经：3个月躺赚200万，代价是“一辈子老赖”",
        "docid": "7330920883013321268",
        "url": ""
    },
    {
        "title": "袖珍总裁李创利：身高80厘米坐婴儿车赚上亿身家，连娶两任美娇娘",
        "docid": "7311132056653447720",
        "url": ""
    },
    {
        "title": "历史给过答案：经济情况不好的时候，普通人应该这么应对",
        "docid": "7311311135519670799",
        "url": ""
    },
    {
        "title": "一年收租94亿，这栋全球租金最高的大厦，就在中国最富裕城市",
        "docid": "7331331382348071459",
        "url": ""
    },
    {
        "title": "社保卡除了买药，竟然还有这些隐藏功能，不知道的人亏大了",
        "docid": "7322274484772356642",
        "url": ""
    },
    {
        "title": "夫妻两人就能干的2个小生意，花六万办个加工厂，一年也能挣20万",
        "docid": "7309001666471445002",
        "url": ""
    },
    {
        "title": "买房时，“全款买房”和“贷款30年”，差别有多大？幸亏早知道了",
        "docid": "7310889310130029094",
        "url": ""
    },
    {
        "title": "老破小加装电梯之后，所有住户都后悔了？真是花钱买了个教训！",
        "docid": "7328014663319388687",
        "url": ""
    },
    {
        "title": "全球第一大叉车制造商：年收入超过1200亿元，相当于8个安徽合力",
        "docid": "7307472928550011411",
        "url": ""
    },
    {
        "title": "男人婚前婚后的区别，太真实了",
        "docid": "7329439316534018611",
        "url": ""
    },
    {
        "title": "湖北黄梅楼市的危机，黄梅县房价很低，为何黄梅县年轻人仍觉得贵",
        "docid": "7330150853464719926",
        "url": ""
    },
    {
        "title": "农业银行员工自爆工资收入+内心真实评价！！",
        "docid": "7333745743528133171",
        "url": ""
    },
    {
        "title": "可惜！玉林容县价值1807万豪宅第三次拍卖，1012万还是没人要",
        "docid": "7332309014153363977",
        "url": ""
    },
    {
        "title": "中国未来最吃香的3座城市，前景可观，紧追北上广深！",
        "docid": "7308541939450774050",
        "url": ""
    },
    {
        "title": "重庆“合川首富”：20岁白手起家，生意帮他一年赚23.4亿",
        "docid": "7307590393192268303",
        "url": ""
    },
    {
        "title": "恒大又有新消息，深交所公开谴责恒大地产，许家印老朋友成背锅侠",
        "docid": "7333562165230486055",
        "url": ""
    },
    {
        "title": "你家小区什么档次，看立面就知道了",
        "docid": "7309307309686063657",
        "url": ""
    },
    {
        "title": "女子租房一个月发现天花板藏摄像头，“有蓝牙功能，范围仅几十米”，房东：不是我安装的，监控已被销毁",
        "docid": "7302733300119405056",
        "url": ""
    },
    {
        "title": "出人意料，成都女老板套现5.5亿，把30年的家业交给了国资",
        "docid": "7315274176519078415",
        "url": ""
    },
    {
        "title": "一个月花完千万融资到涉赌被捕，斗鱼掌门陈少杰的冒险人生",
        "docid": "7304887378152292875",
        "url": ""
    },
    {
        "title": "没点儿强迫症干不出这么“板正”的活儿！小区的雪清得有棱有角",
        "docid": "7307052975569044002",
        "url": ""
    },
    {
        "title": "我就这样被骗了15000，幸好银行卡当时限额了，不然会被骗更多",
        "docid": "7305265082022232628",
        "url": ""
    },
    {
        "title": "奔驰GLC属于什么档次？",
        "docid": "7331006732145508915",
        "url": ""
    },
    {
        "title": "英国人均月收入才2300英镑，是靠什么活下去的？",
        "docid": "7334486770526372389",
        "url": ""
    },
    {
        "title": "如果中国不再依赖房地产，那么我们将依靠什么去推动经济发展？",
        "docid": "7317545682548834825",
        "url": ""
    },
    {
        "title": "走错一步路，800亿身家一夜归零，浙江女首富为何沦为老赖？",
        "docid": "7311573063680868916",
        "url": ""
    },
    {
        "title": "山西煤老板邢利斌，7000万高调嫁女，最终负债320亿走到人生尽头",
        "docid": "7317885460196852264",
        "url": ""
    },
    {
        "title": "无臂女孩杨佩：9岁没了双臂，自己创业当老板，成就精彩人生",
        "docid": "7302738183320961572",
        "url": ""
    },
    {
        "title": "2023年甘肃省14市财政收入：酒泉第3，定西力压武威，嘉峪关第12",
        "docid": "7324346789375722022",
        "url": ""
    },
    {
        "title": "一个投资60亿的度假酒店，却荒废烂尾十几年，是谁这么大手笔",
        "docid": "7321536472774771210",
        "url": ""
    },
    {
        "title": "72V20Ah与72V32Ah电池，续航与价格相差多少？哪个性价比更高？",
        "docid": "7330832877233848883",
        "url": ""
    },
    {
        "title": "河南根本不能和山东相提并论",
        "docid": "7334332333698957824",
        "url": ""
    },
    {
        "title": "D194次列车由成都开往广州，全程2413千米，平均速度100.7km/h",
        "docid": "7333229575243891237",
        "url": ""
    },
    {
        "title": "为什么越来越多人都嫌弃“东户”？并非是迷信，有科学依据",
        "docid": "7330871790136476170",
        "url": ""
    },
    {
        "title": "英国网友问：如果中国产业升级成功了，欧洲是否会陷入贫困",
        "docid": "7331687834757186098",
        "url": ""
    },
    {
        "title": "温哥华人口260万，创造了1870亿美元GDP，放在中国什么水平？",
        "docid": "7319515647560401448",
        "url": ""
    },
    {
        "title": "大神预测：普通老百姓苦日子即将来临，三大难题一个比一个闹心！",
        "docid": "7331587694046429696",
        "url": ""
    },
    {
        "title": "日产市值一夜蒸发130亿，“全赖中国”",
        "docid": "7334225409749910028",
        "url": ""
    },
    {
        "title": "老人去世的房子再入住，要做好4件事，不是迷信，有科学依据",
        "docid": "7326825217123402266",
        "url": ""
    },
    {
        "title": "百姓是在“攒钱”而非“存钱”！刺激消费必须先“富民”！",
        "docid": "7333841828745691675",
        "url": ""
    },
    {
        "title": "终于知道，一辆5000元电动三轮车，出厂成本多少？报废后能值多少",
        "docid": "7312405259560026639",
        "url": ""
    },
    {
        "title": "15年前我笑同事交养老，如今同事有2500块养老金，我眼红捶胸了",
        "docid": "7313965505558921768",
        "url": ""
    },
    {
        "title": "一旦三战爆发，我国必须死守的10座城！竟然还包括一个三线城市",
        "docid": "7330684224237765131",
        "url": ""
    },
    {
        "title": "饭碗之争：千万不要去抢底层人民嘴里的那口饭！",
        "docid": "7333859226907607561",
        "url": ""
    },
    {
        "title": "为何福建仙游疯狂造城，低廉的仙游房价，仙游县城镇化为抢人留人",
        "docid": "7323407285811003954",
        "url": ""
    },
    {
        "title": "成也光谷，败也光谷！武汉江夏与东湖高新区能否实现区政合一？",
        "docid": "7332851309902791208",
        "url": ""
    },
    {
        "title": "99岁富豪：当我被穷和自卑折磨时，是3个认知，让我“重生”",
        "docid": "7312401270609117733",
        "url": ""
    },
    {
        "title": "笑侃开放最早14个沿海城市，谁是菜鸟？连云港逊 北海差 秦皇岛不中",
        "docid": "7329351613276144155",
        "url": ""
    },
    {
        "title": "分享|位于英格兰的小砖房住宅",
        "docid": "7331624420701684239",
        "url": ""
    },
    {
        "title": "全球超过一半的铜都供应中国，但还是不够，为何我国这么缺铜？",
        "docid": "7304586088255947275",
        "url": ""
    },
    {
        "title": "2024年劳务分包指导价格",
        "docid": "7331987135698010661",
        "url": ""
    },
    {
        "title": "国内“天价”国外却很廉价！日常刚需消耗品，为何价格差异巨大？",
        "docid": "7331223993971671602",
        "url": ""
    },
    {
        "title": "未来2年，新型穷人会越来越穷，看看你有没有在里面",
        "docid": "7307832178413732364",
        "url": ""
    },
    {
        "title": "我国十强城市排名：上海市位列第1，杭州第4，成都最后",
        "docid": "7333028846624768551",
        "url": ""
    },
    {
        "title": "笑不活了！存10亿在银行，可以让行长送早餐吗？评论区都是人才",
        "docid": "7334206457384632858",
        "url": ""
    },
    {
        "title": "20多吨洋垃圾悄悄运往中国！腐臭发霉流出脓液，为何屡禁不止？",
        "docid": "7331179944669643301",
        "url": ""
    },
    {
        "title": "我45岁，深圳当财务员，抓住2次机遇后，我选择躺平，过悠闲生活",
        "docid": "7310190913320780340",
        "url": ""
    },
    {
        "title": "全球挖掘机新排位揭晓：徐工第6，三一第4，行业一哥年销947亿",
        "docid": "7321365559277535785",
        "url": ""
    },
    {
        "title": "巴菲特的财富经：30岁以后别瞎忙，坚持做3件事，你会越来越有钱",
        "docid": "7324315053434585626",
        "url": ""
    },
    {
        "title": "上海百态：被房子拖垮的上海人",
        "docid": "7325276731034698280",
        "url": ""
    },
    {
        "title": "2008年，一场大雪曾瘫痪半个中国，但也成就了今天的“基建狂魔”",
        "docid": "7325717726852317759",
        "url": ""
    },
    {
        "title": "长期缺钱的中年女人，身上有8个明显的穷习惯，藏都藏不住",
        "docid": "7333622562847015450",
        "url": ""
    },
    {
        "title": "3张图看懂资本市场都怎么玩对赌协议的",
        "docid": "7304162048358220328",
        "url": ""
    },
    {
        "title": "一定要存钱啊，这次准备回老家，初步预算超过了6万，没钱太难了",
        "docid": "7307456107596612115",
        "url": ""
    },
    {
        "title": "山西将打造第二个成都？2027年GDP破万亿，晋升国家区域中心城市",
        "docid": "7327194884258038306",
        "url": ""
    },
    {
        "title": "搬了3次家才明白，这“2个楼层”就是智商税，住着不舒服还难转手",
        "docid": "7325700783855649332",
        "url": ""
    },
    {
        "title": "上海北部主城区，未来十年“最大的动作”。",
        "docid": "7332035587236725282",
        "url": ""
    },
    {
        "title": "买黄金三问三不问，千万不要这样问。涨知识了！",
        "docid": "7330902668628066826",
        "url": ""
    },
    {
        "title": "爱马仕今年至少涨价8%：去年净利增28%，爱马仕向每位员工发放4000欧元奖金",
        "docid": "7333961011894305280",
        "url": ""
    },
    {
        "title": "火爆全球！刷新纪录！它的订单已排到2027年！",
        "docid": "7333456467128812068",
        "url": ""
    },
    {
        "title": "上海的神级规划，这些地方要起飞！？",
        "docid": "7319707119316812288",
        "url": ""
    },
    {
        "title": "厉害了，南平竹！",
        "docid": "7313150053248533019",
        "url": ""
    },
    {
        "title": "北京人一天要花多少钱？你超越平均数了吗？",
        "docid": "7307234859259281920",
        "url": ""
    },
    {
        "title": "从月薪三百，到年薪千万，平安保险皇后叶云燕是如何做到的？",
        "docid": "7310942657327514121",
        "url": ""
    },
    {
        "title": "53岁坐牢，71岁出狱后再创业，82岁身家千万，她是最牛创业者",
        "docid": "7312741401589236235",
        "url": ""
    },
    {
        "title": "宁波银行员工自爆年终奖＋工资收入，网友说：高得厉害，抢着进去",
        "docid": "7334140103830307366",
        "url": ""
    },
    {
        "title": "消息称华为将推出Vision头显：自研芯片、350克，15000元区间",
        "docid": "7333569693065904678",
        "url": ""
    },
    {
        "title": "从政府内部看中国，才能真正读懂中国",
        "docid": "7308342813907943999",
        "url": ""
    },
    {
        "title": "李嘉诚：生意想做大做强做稳，死磕这5个理念",
        "docid": "7313934518715908646",
        "url": ""
    },
    {
        "title": "200亿灰飞烟灭！这是一场合谋两年的金融骗局",
        "docid": "7334498923119231542",
        "url": ""
    },
    {
        "title": "“金利来”创始人曾宪梓：85岁在家乡病逝，总共为国捐款12亿港元",
        "docid": "7323026027800723980",
        "url": ""
    },
    {
        "title": "65岁以上本市户籍都可以享受的综合津贴，5月起不用申请，社保卡也能领",
        "docid": "7333246516217250356",
        "url": ""
    },
    {
        "title": "攒钱真香！退休8年存了46W，我只用了这几招儿",
        "docid": "7305587065943720483",
        "url": ""
    },
    {
        "title": "好消息！经济普查已开始，中国2023年GDP可能会“接近130万亿元”",
        "docid": "7333794276474044967",
        "url": ""
    },
    {
        "title": "相当极致的144.9平米户型是什么格局?",
        "docid": "7331559134380163599",
        "url": ""
    },
    {
        "title": "一夜卖出上百万？“青春制品”正走俏：“时间生意，向来好赚”",
        "docid": "7334599512545133108",
        "url": ""
    },
    {
        "title": "厦门鼓浪屿知名百年别墅，金瓜楼被拍卖，起拍价7902万元起",
        "docid": "7332837931620778548",
        "url": ""
    },
    {
        "title": "有多少存款才能心不慌？中年、老年、年轻人不一样！你达标了吗",
        "docid": "7315319731848872485",
        "url": ""
    },
    {
        "title": "一年能挣20万，这4个小商机投资不大，但门槛低，只要不懒就能干",
        "docid": "7296320545682293267",
        "url": ""
    },
    {
        "title": "当年为了转户口，将年龄改小，如今到年龄不能退休",
        "docid": "7333884682247324200",
        "url": ""
    },
    {
        "title": "95后夫妻不听劝，在长沙买下21㎡公寓，他们说：房子再小也是家！",
        "docid": "7313217782546432546",
        "url": ""
    },
    {
        "title": "2024年陕西将推进5条高铁、70多个公路项目建设",
        "docid": "7325604755001147955",
        "url": ""
    },
    {
        "title": "10万以内入门纯电车！性价比之战谁更胜一筹！",
        "docid": "7333783485264806463",
        "url": ""
    },
    {
        "title": "如果你还有几年就退休了，聪明且有远见的人，会提前把好这3关",
        "docid": "7301217646786134582",
        "url": ""
    },
    {
        "title": "没有单位的证明，能领失业保险金吗？",
        "docid": "7311887667825017381",
        "url": ""
    },
    {
        "title": "上海在建最高楼——北外滩中心：45万㎡，480米，99层！最新进展",
        "docid": "7334341800896971300",
        "url": ""
    },
    {
        "title": "它堪称春节“气氛组”一员猛将，销量为证！",
        "docid": "7334613973767275020",
        "url": ""
    },
    {
        "title": "五年后，电梯房和步梯房谁更受欢迎，答案已经很明显了",
        "docid": "7303085050315489826",
        "url": ""
    },
    {
        "title": "孟买有多厉害，让印度把上海称为“小孟买”，30个情况讲清楚",
        "docid": "7307105438569497142",
        "url": ""
    },
    {
        "title": "曹德旺说中国经济：不要自己骗自己，说明天会更好",
        "docid": "7321772479242912296",
        "url": ""
    },
    {
        "title": "杭州临平的优与劣",
        "docid": "7304556401827775016",
        "url": ""
    },
    {
        "title": "烟草大王褚时健：为国创造上千亿利税，死后打造百万豪华墓地",
        "docid": "7320512980041351734",
        "url": ""
    },
    {
        "title": "成都一货车高速上换胎被收4500元，高速路救援公司：按标准收费！",
        "docid": "7333594047200461338",
        "url": ""
    },
    {
        "title": "2024全国GDP预测：重庆成为最大黑马，深圳超越北京！",
        "docid": "7333225456542499354",
        "url": ""
    },
    {
        "title": "10年一遇！很像2013年~2014年牛市前夕！散户做好心理预期了",
        "docid": "7312615119757607458",
        "url": ""
    },
    {
        "title": "余承东，一声惊雷",
        "docid": "7333471464580399668",
        "url": ""
    },
    {
        "title": "以色列掌握的四大尖端科技，比美国还先进，你知道哪几个？",
        "docid": "7328430214684901929",
        "url": ""
    },
    {
        "title": "为何说一旦开通尼加拉瓜运河，将改变全球贸易格局？",
        "docid": "7310241106870960651",
        "url": ""
    },
    {
        "title": "居民人均可支配收入，一次性讲清，收藏起来看看吧！",
        "docid": "7334548215955980815",
        "url": ""
    },
    {
        "title": "289元一根烧火棍，揭开了我们的遮羞布，物价正在一点点过滤穷人",
        "docid": "7332690056857518601",
        "url": ""
    },
    {
        "title": "幸运儿潘石屹",
        "docid": "7317238238480286220",
        "url": ""
    },
    {
        "title": "房产证持有人去世后，你知道怎么“更换户主”吗？建议收藏！",
        "docid": "7305629605484839464",
        "url": ""
    },
    {
        "title": "老板卖出5部手机，银行卡被异地公安冻结，网友不解：到底怎么防",
        "docid": "7333864644337369663",
        "url": ""
    },
    {
        "title": "上海隐形富豪，坐拥380亿布局15家上市公司，却在街头站着吃盒饭",
        "docid": "7313079852901892648",
        "url": ""
    },
    {
        "title": "她宣布：辞职",
        "docid": "7331223293208625715",
        "url": ""
    },
    {
        "title": "2024年，西安即将开业的10大商场，有你家附近吗？",
        "docid": "7316051722039099956",
        "url": ""
    },
    {
        "title": "这个浙江台州女子，丈夫去世后，独立接掌企业，20年后登上富豪榜",
        "docid": "7307221644727599656",
        "url": ""
    },
    {
        "title": "发行端拨乱反正！新村长严查IPO违规发行，终止对认养一头牛审核",
        "docid": "7334545288050278938",
        "url": ""
    },
    {
        "title": "周大福，火🔥了",
        "docid": "7334578793576841767",
        "url": ""
    },
    {
        "title": "立案调查！涉及“剑南春”、“五粮液”、“国窖1573”",
        "docid": "7332303721873048116",
        "url": ""
    },
    {
        "title": "为何国家越来越强大，老百姓却感觉越来越累，越来越穷？",
        "docid": "7334520515195060775",
        "url": ""
    },
    {
        "title": "商品房与拆迁安置房有什么区别？看完这篇文章，啥都懂了！",
        "docid": "7334143531210293795",
        "url": ""
    },
    {
        "title": "中标方案｜京东集团深圳总部，效果图与平面图！",
        "docid": "7326425195836047908",
        "url": ""
    },
    {
        "title": "可惜！湖南这家44年历史的国营老烟厂，被兼并不到半年就全面停产",
        "docid": "7319485389445235238",
        "url": ""
    },
    {
        "title": "分散存款很有必要",
        "docid": "7306620694782116352",
        "url": ""
    },
    {
        "title": "全面收购华晨集团股权，沈阳汽车能否挽救一路下滑的华晨汽车？",
        "docid": "7333606761641296395",
        "url": ""
    },
    {
        "title": "海南省区划猜想：文昌划入海口，琼海万宁组建地级市三亚扩容升级",
        "docid": "7305324883699827241",
        "url": ""
    },
    {
        "title": "远离垃圾股，记忆深刻的一次股票买卖海南航空",
        "docid": "7334502828360352308",
        "url": ""
    },
    {
        "title": "2024年GDP15强省份预测，四川河南差距扩大、河北反超安徽",
        "docid": "7333488343407723023",
        "url": ""
    },
    {
        "title": "国家急待各地上交废铁以维持炼钢厂正常生产（昔日旧影）",
        "docid": "7325555070341235210",
        "url": ""
    },
    {
        "title": "2013年杨大妈在银行存了1300万，一年后去取，却发现存折里钱没了",
        "docid": "7332361974799712818",
        "url": ""
    },
    {
        "title": "2024年，这5类房子将遭到哄抢，至少升值20%，建议早做一些打算",
        "docid": "7333549240624955958",
        "url": ""
    },
    {
        "title": "福建小伙没给别人打过工，创业10次，身价1400亿，员工遍布各地",
        "docid": "7308638156092834314",
        "url": ""
    },
    {
        "title": "西湖倒数第二，余杭大涨远超萧山！杭州各地2023财政收入排行出炉",
        "docid": "7332452265799975433",
        "url": ""
    },
    {
        "title": "恐怖真相来袭：不少美国人喝到的自来水，竟然是由含铅水管送来的",
        "docid": "7310466543237136935",
        "url": ""
    },
    {
        "title": "负债15亿之后，他卖掉了300多套房子，现在谷底求翻身！",
        "docid": "7320909501417488930",
        "url": ""
    },
    {
        "title": "中国唯一一家,掌握高档光刻胶研发技术,并拥有全国唯一ASML曝光机",
        "docid": "7306698661566890550",
        "url": ""
    },
    {
        "title": "弄坏洗衣机、被限高消费、烧焦电饭煲...  找的育儿嫂一个比一个...",
        "docid": "7333796766347493897",
        "url": ""
    },
    {
        "title": "伊春，一个低生育率下人口逐渐消逝的林城，振兴之路在何方？",
        "docid": "7301502724108567051",
        "url": ""
    },
    {
        "title": "专家:现在12万元收入才和70年代35元的收入购买力相当",
        "docid": "7334492852955398666",
        "url": ""
    },
    {
        "title": "央行公布！这一数据创历史新高！与你有关",
        "docid": "7333831079486669339",
        "url": ""
    },
    {
        "title": "我国最大的三个火车站，其中一个是世界第一，你能猜到是哪个吗？",
        "docid": "7302728949921038882",
        "url": ""
    },
    {
        "title": "未来10年，钱和房子都会贬值，拥有这三样东西才最重要",
        "docid": "7331938576915186217",
        "url": ""
    },
    {
        "title": "最近几年，准备买房时：无论差不差钱，千万别做这3件傻事！",
        "docid": "7327227153648042505",
        "url": ""
    },
    {
        "title": "5年前朋友变卖所有建筑设备，我不愿意卖，如今100台挖机全废了",
        "docid": "7334223727053668891",
        "url": ""
    },
    {
        "title": "“最美”CEO，23岁继承10亿资产，如今掌管8700亿金融",
        "docid": "7334338507534025227",
        "url": ""
    },
    {
        "title": "中产阶级十大标准，你达标了吗？",
        "docid": "7334242321921212978",
        "url": ""
    },
    {
        "title": "何鸿燊：78岁不需要借助试管，喜得小女儿，他到底是怎么做到的？",
        "docid": "7333034272972390912",
        "url": ""
    },
    {
        "title": "广州最大隐形富豪吕向阳，曾借表弟200万，如今表弟还他200亿",
        "docid": "7310067381651390976",
        "url": ""
    },
    {
        "title": "如果今年已经60岁了，存款有100万元，可以躺平了吗？",
        "docid": "7315347366096519680",
        "url": ""
    },
    {
        "title": "屋顶租赁装光伏太阳能板，要看清合同大胆签署，别傻傻的听人蛊惑",
        "docid": "7308322629470159375",
        "url": ""
    },
    {
        "title": "董宇辉表面上对供应商三令五申要求不得送礼，实则意在敲山震虎",
        "docid": "7333231697883939391",
        "url": ""
    },
    {
        "title": "国务院批复江苏：大力发展三圈两带 ，划定六城为核心，徐州腾飞",
        "docid": "7334380609659535882",
        "url": ""
    },
    {
        "title": "一次性学会55个基础金融知识！",
        "docid": "7334068667397095973",
        "url": ""
    },
    {
        "title": "一天吃透一条产业链：No.9 预制菜",
        "docid": "7311964609404011059",
        "url": ""
    },
    {
        "title": "清华教授李稻葵:最大短板是内需不足，发展思路是该转变了！",
        "docid": "7334553555434652175",
        "url": ""
    },
    {
        "title": "中国为什么能够崛起？德国专家一语道破：中国没覆盖全民族的宗教",
        "docid": "7316807741258154506",
        "url": ""
    },
    {
        "title": "夫妻二人各存50万到同一家银行，如果银行破产，会赔多少钱？",
        "docid": "7334189748485112383",
        "url": ""
    },
    {
        "title": "穿名牌开名车？NO！ 真正有钱人3特征",
        "docid": "7334353507170075148",
        "url": ""
    },
    {
        "title": "赶紧自查！你家的液化气罐减压阀，安全吗？",
        "docid": "7304097314547778075",
        "url": ""
    },
    {
        "title": "司马南：韩国把白菜做成了芯片价，我们能否将芯片做成白菜价？",
        "docid": "7334539592722907659",
        "url": ""
    },
    {
        "title": "深圳市宝安区楼市危机，高房价的宝安区，宝安区高房价能维持多久",
        "docid": "7334267024639902219",
        "url": ""
    },
    {
        "title": "07年一运煤船在江阴发生事故，船长竟直接被国安带走：你涉嫌恐袭",
        "docid": "7320801742986560041",
        "url": ""
    },
    {
        "title": "香港富豪榜前五名揭晓，看看谁是香港最有钱的人",
        "docid": "7329443901163733514",
        "url": ""
    },
    {
        "title": "2月12日为什么炒股的人喜欢跳楼",
        "docid": "7334581485208633893",
        "url": ""
    },
    {
        "title": "2024年看病买药一定要学会用统筹报销，用上统筹报销更省钱",
        "docid": "7331642614225060371",
        "url": ""
    },
    {
        "title": "房地产公司董事长八旬老母亲冬夜露宿街头？董事长本人回应：这是作秀",
        "docid": "7332783664076128780",
        "url": ""
    },
    {
        "title": "国资委放大招！A股这五大板块即将掀起创新浪潮",
        "docid": "7332988171912938018",
        "url": ""
    },
    {
        "title": "做生意应该“薄利多销”还是“厚利适销”？犹太人告诉你答案",
        "docid": "7315216262387270178",
        "url": ""
    },
    {
        "title": "职业年金是什么？退休时能一次性领取吗？",
        "docid": "7315226981665178123",
        "url": ""
    },
    {
        "title": "三星第三代掌门人李在镕，为达目的不择手段，如今又成韩国首富！",
        "docid": "7310115010829943305",
        "url": ""
    },
    {
        "title": "经营38年的王守义，把“十三香”卖到全国，现在怎么不“香”了？",
        "docid": "7312380645559403017",
        "url": ""
    },
    {
        "title": "1983年，山西老人致信央行：人民币上的“中国人民银行”是我写的",
        "docid": "7304220038943556134",
        "url": ""
    },
    {
        "title": "终于有人把华为“铁三角”如何搭建，讲清楚了！",
        "docid": "7301309945306366501",
        "url": ""
    },
    {
        "title": "骗傻子吗，男子趁超市活动买1.4万斤大米，结果第二天货都不见了",
        "docid": "7333258389478310400",
        "url": ""
    },
    {
        "title": "价值约黄金10倍！储量仅3000吨的全球最贵金属，王水也拿它没办法",
        "docid": "7334321311596265996",
        "url": ""
    },
    {
        "title": "除夕之日九大都市登上地铁客流百万榜单。",
        "docid": "7333944103056835107",
        "url": ""
    },
    {
        "title": "退休后，如果能达到以下10条，就不枉来人世一场，绝对是人生赢家",
        "docid": "7308650159021113896",
        "url": ""
    },
    {
        "title": "2024年，企业退休人员，养老金4200元，去世后丧葬费抚恤金多少？",
        "docid": "7327981434227032610",
        "url": ""
    },
    {
        "title": "很多人当废铁卖掉，有人3元/斤回收，年赚20-30万的废品生意！",
        "docid": "7312441309367861801",
        "url": ""
    },
    {
        "title": "春节期间，美财政部率团访华，释放强烈信号，耶伦之后也要来",
        "docid": "7333656001503035915",
        "url": ""
    },
    {
        "title": "全球250名超级富豪发联名信：“向我们征更高的税”",
        "docid": "7325601049664848434",
        "url": ""
    },
    {
        "title": "吴晓求：天亮之前最黑暗，跌破2900点不可怕，等下一个天亮",
        "docid": "7334169766069928485",
        "url": ""
    },
    {
        "title": "天津最强烂尾楼：曾耗资700亿成全国第一高楼，如今结局令人唏嘘",
        "docid": "7315005466172539444",
        "url": ""
    },
    {
        "title": "股市中明明技术分析就是没用的，还有那么多人愿意挤破头皮去研究",
        "docid": "7333636411193836044",
        "url": ""
    },
    {
        "title": "酒鬼酒连续2年下跌，股价从巅峰期274.29元跌了约80%，目前仅56元",
        "docid": "7334609554820678198",
        "url": ""
    },
    {
        "title": "在中国5000人民币的购买力能否超过在美国5000美元。",
        "docid": "7334203785780183586",
        "url": ""
    },
    {
        "title": "不出十年，三四线的城市的房子，或将变得一文不值了？这是真的吗",
        "docid": "7331932311812243977",
        "url": ""
    },
    {
        "title": "又有两家券商挨罚！",
        "docid": "7334661790083121704",
        "url": ""
    },
    {
        "title": "这哪是“总经理手册”啊，明明就是总经理管理宝典！佩服",
        "docid": "7334275690542105123",
        "url": ""
    },
    {
        "title": "买黄金需要注意哪些问题？三张图详细了解",
        "docid": "7310961632753025551",
        "url": ""
    },
    {
        "title": "今年大家真的不敢乱花钱，钱难赚了",
        "docid": "7334618412121293349",
        "url": ""
    },
    {
        "title": "2024年光伏竞争格局几何：强者依然恒强，老玩家重回牌桌",
        "docid": "7333785537330954762",
        "url": ""
    },
    {
        "title": "海口三港发布停航预警",
        "docid": "7334563384022581770",
        "url": ""
    },
    {
        "title": "沉浸式存钱，才是真正的赢家",
        "docid": "7303752783352906294",
        "url": ""
    },
    {
        "title": "有退休金真的太有底气了!",
        "docid": "7331285358778368564",
        "url": ""
    },
    {
        "title": "不出意外，年前收盘的时候散户的情况是这样的，年后需要明白一点",
        "docid": "7334597891547398671",
        "url": ""
    },
    {
        "title": "国内最穷的十个城市，人均GDP只在2万元上下，全在大西北大西南了",
        "docid": "7334253450215375387",
        "url": ""
    },
    {
        "title": "为何贵州仁怀疯狂造城， 昂贵的仁怀房价，仁怀市城镇化为抢人留人",
        "docid": "7326874512518185499",
        "url": ""
    },
    {
        "title": "打算卖房才发现，难以接受的，不是房价下降了，而是根本卖不出去",
        "docid": "7314963579760181801",
        "url": ""
    },
    {
        "title": "旅客托运释迦、莲雾等36公斤水果，海关发布：属禁止携带、邮寄进境物品",
        "docid": "7334652911974318601",
        "url": ""
    },
    {
        "title": "短短一年，家居行业首富陨落资产缩水130亿！另一位却稳坐钓鱼台",
        "docid": "7333963510059123252",
        "url": ""
    },
    {
        "title": "一张图表告诉你，你购买的地下停车位，是不是花了冤枉钱",
        "docid": "7322234488019223103",
        "url": ""
    },
    {
        "title": "调查显示由标准窗户损失的热量，占住宅能源消耗的 25%到30%",
        "docid": "7315727009588707859",
        "url": ""
    },
    {
        "title": "台湾芯片首夺世界第一！台积电超英特尔三星，成全球最大芯片公司",
        "docid": "7333794145510883876",
        "url": ""
    },
    {
        "title": "带你了解“电商平台的运作”",
        "docid": "7334454821627413046",
        "url": ""
    },
    {
        "title": "赚大钱者的独特魅力：简单直接，直击要害",
        "docid": "7332442053734859264",
        "url": ""
    },
    {
        "title": "2024年股市第一大预测：2635点不是大底，2024年上半年将会击穿！",
        "docid": "7334693935199584794",
        "url": ""
    },
    {
        "title": "为什么回迁房没人愿意买了？拆迁户称：有3个缺点无法忍受",
        "docid": "7334262794797580852",
        "url": ""
    },
    {
        "title": "巨资投入，大项目上马！湖北交投2024年规划总投资额高达5400亿元",
        "docid": "7323021460401062452",
        "url": ""
    },
    {
        "title": "广东五华楼市危机，低廉的五华县房价，五华县发展格局与楼市未来",
        "docid": "7332334575349334539",
        "url": ""
    },
    {
        "title": "在中国股市里面如果不会盯盘，那么再做十年也是枉然滴",
        "docid": "7332384119856923171",
        "url": ""
    },
    {
        "title": "刘润：关于2024，我想给你讲三个故事",
        "docid": "7316454055843398163",
        "url": ""
    },
    {
        "title": "10年改为11年，职工医保退休最低实缴年限改啦",
        "docid": "7310517715876659731",
        "url": ""
    },
    {
        "title": "2023年2-4月份创业板涨幅前十的股票",
        "docid": "7334587039125602826",
        "url": ""
    },
    {
        "title": "香港餐饮业略见回暖，港式饮茶吸中日游客！但最难的是请点心师傅",
        "docid": "7332724023119856164",
        "url": ""
    },
    {
        "title": "笑不活了，电车回家一趟充7次电，要笑死在网友的评论区",
        "docid": "7332823179284546100",
        "url": ""
    },
    {
        "title": "盘点四川省国资委控股的十大国有企业",
        "docid": "7301157161475326473",
        "url": ""
    },
    {
        "title": "投资40万开个药店，多久能回本？我来给你算笔账",
        "docid": "7322817165106119206",
        "url": ""
    },
    {
        "title": "1元打火机为何20年没涨价？",
        "docid": "7313838909547495990",
        "url": ""
    },
    {
        "title": "男子花700多元网购羽绒服竟藏有丧葬胸花，并有佩戴。商家退赔300元，未见平台处罚",
        "docid": "7314483451988541988",
        "url": ""
    },
    {
        "title": "保证工程款正常支付，才是促进经济发展的良方",
        "docid": "7311345389776077346",
        "url": ""
    },
    {
        "title": "从合理与正常的思考角度出发：2024年中国的楼市和房价，怎么看？",
        "docid": "7325682103616651812",
        "url": ""
    },
    {
        "title": "没有土地出让金的支持：地方财政从哪找补？",
        "docid": "7318312793085067812",
        "url": ""
    },
    {
        "title": "2024年，机关事退人员职业年金为什么要除以139？每月领多少？",
        "docid": "7315740914947949119",
        "url": ""
    },
    {
        "title": "吉林省文旅厅厅长回应：为啥吉林省2023旅游收入东三省居冠？",
        "docid": "7333219841870250547",
        "url": ""
    },
    {
        "title": "2024年中央预算内资金重点支持领域和方向！",
        "docid": "7312683760208675379",
        "url": ""
    },
    {
        "title": "我，70后南京人，自主创业，巅峰时年入千万，落魄时差点吃了牢饭",
        "docid": "7306138888874099239",
        "url": ""
    },
    {
        "title": "韩籍博士谈外国人在华旅游花钱难：支付宝微信的支付方式一定要改进，外国人在中国交易很难",
        "docid": "7332417917663068708",
        "url": ""
    }
]