[
    {
        "title": "为何银行存款会赠送礼品？内部人员不小心透露秘密，恍然大悟！",
        "docid": "7307467591302464000",
        "url": ""
    },
    {
        "title": "大涨之后的反思：这次大涨和上一次大涨有何不同？",
        "docid": "7332435958120202767",
        "url": ""
    },
    {
        "title": "2023年甘肃省14市财政收入：酒泉第3，定西力压武威，嘉峪关第12",
        "docid": "7324346789375722022",
        "url": ""
    },
    {
        "title": "三株口服液覆灭史：年销售80亿的“巨无霸”，却被湖南老汉扳倒？",
        "docid": "7325611946949395007",
        "url": ""
    },
    {
        "title": "北京人一天要花多少钱？你超越平均数了吗？",
        "docid": "7307234859259281920",
        "url": ""
    },
    {
        "title": "这个浙江台州女子，丈夫去世后，独立接掌企业，20年后登上富豪榜",
        "docid": "7307221644727599656",
        "url": ""
    },
    {
        "title": "2024年陕西将推进5条高铁、70多个公路项目建设",
        "docid": "7325604755001147955",
        "url": ""
    },
    {
        "title": "以色列掌握的四大尖端科技，比美国还先进，你知道哪几个？",
        "docid": "7328430214684901929",
        "url": ""
    },
    {
        "title": "为何说一旦开通尼加拉瓜运河，将改变全球贸易格局？",
        "docid": "7310241106870960651",
        "url": ""
    },
    {
        "title": "说起社保，我真想打我家老头一顿，是他，让我不见了十万元左右",
        "docid": "7310577562432963084",
        "url": ""
    },
    {
        "title": "离龙翔桥地铁站仅100米，西湖边一套历史建筑法拍房挂牌",
        "docid": "7332445452128191015",
        "url": ""
    },
    {
        "title": "沈阳铁路监督管理局：发生调车冲突致一人死亡，抚顺矿业集团被罚48万元",
        "docid": "7332376211945079306",
        "url": ""
    },
    {
        "title": "10年一遇！很像2013年~2014年牛市前夕！散户做好心理预期了",
        "docid": "7312615119757607458",
        "url": ""
    },
    {
        "title": "世界海拔最高乡，当地人平均寿命仅49.5岁，50岁就领养老保险",
        "docid": "7300403922936824329",
        "url": ""
    },
    {
        "title": "什么？债基竟然开始买股票！买债基还安全吗？",
        "docid": "7331917578916414006",
        "url": ""
    },
    {
        "title": "10年后，国内二三十层的高层住宅，将不得不面临3大难题，很真实",
        "docid": "7311314666092429858",
        "url": ""
    },
    {
        "title": "24年2月份最新世界首富排行",
        "docid": "7332098501612126771",
        "url": ""
    },
    {
        "title": "未来2年，新型穷人会越来越穷，看看你有没有在里面",
        "docid": "7307832178413732364",
        "url": ""
    },
    {
        "title": "中小盘放量上涨！中证500ETF易方达（510580）、中证1000指数ETF（159633）等中小盘风格产品受关注",
        "docid": "7332427593176318518",
        "url": ""
    },
    {
        "title": "沉浸式存钱，才是真正的赢家",
        "docid": "7303752783352906294",
        "url": ""
    },
    {
        "title": "一张图表告诉你，你购买的地下停车位，是不是花了冤枉钱",
        "docid": "7322234488019223103",
        "url": ""
    },
    {
        "title": "买黄金需要注意哪些问题？三张图详细了解",
        "docid": "7310961632753025551",
        "url": ""
    },
    {
        "title": "湖北区县传播指数12月榜：恩施、潜江和仙桃位居前三",
        "docid": "7332389629284499995",
        "url": ""
    },
    {
        "title": "全国各省市GDP公开：前十名次大变！上海拿下第十，山东闯进前三",
        "docid": "7330958924244156954",
        "url": ""
    },
    {
        "title": "为何A股大涨却依旧免不了被诟病？这是回光返照？还是日出东方？",
        "docid": "7332467571536462355",
        "url": ""
    },
    {
        "title": "我老公十来年没工作，一直在家炒股，结果被他亏的七七八八了",
        "docid": "7332460664235213366",
        "url": ""
    },
    {
        "title": "证监会、公安部，重拳出击！",
        "docid": "7332299269535236647",
        "url": ""
    },
    {
        "title": "名校硕士毕业卖房背后：经历过才发现，曾经的自己是多么理想",
        "docid": "7330243611265090058",
        "url": ""
    },
    {
        "title": "西安将来发展最好的区域，这3个地方呼声最高，在当地脱颖而出!",
        "docid": "7330919501254672922",
        "url": ""
    },
    {
        "title": "东北穷吗?2023辽宁人均存款全国排名第5，8个城市人均存款14万元",
        "docid": "7332297845175075382",
        "url": ""
    },
    {
        "title": "“钱就是这样没的”！消费观惨遭裹挟的老百姓，钱包一步步被掏空",
        "docid": "7329798601310585380",
        "url": ""
    },
    {
        "title": "华润置地开年组织架构大调整：7个大区变5个、28个地区公司变20个",
        "docid": "7332478749454123535",
        "url": ""
    },
    {
        "title": "洋河股份股价2月6日收盘创历史新高",
        "docid": "7332410153662546468",
        "url": ""
    },
    {
        "title": "大瓜！又有基金经理遭怒怼！“买的几只基金都是负数，今年有几个基金是挣钱的，我也没要求基金经理道歉”",
        "docid": "7330167979088773669",
        "url": ""
    },
    {
        "title": "你们听过领导最没水平的一句话是什么？",
        "docid": "7311122919911096859",
        "url": ""
    },
    {
        "title": "交通瘫痪！登岛难于上青天。海南为何这么难？",
        "docid": "7332107657828614666",
        "url": ""
    },
    {
        "title": "还在数板，st左江中信保荐，仅半年从300跌到了17，跌幅95%",
        "docid": "7332370145425539647",
        "url": ""
    },
    {
        "title": "租车返乡成潮流，预订量增超200%！“95后”订单占比超四成",
        "docid": "7332278219032855077",
        "url": ""
    },
    {
        "title": "我们小区楼下的铺面都快空完了，一铺养三代的时代过去了",
        "docid": "7322298548421313063",
        "url": ""
    },
    {
        "title": "全球250名超级富豪发联名信：“向我们征更高的税”",
        "docid": "7325601049664848434",
        "url": ""
    },
    {
        "title": "稻盛和夫：人的成长，始于三次觉醒",
        "docid": "7307997987337142823",
        "url": ""
    },
    {
        "title": "俄乌冲突近两年，烧了多少钱？算了下，吓人！",
        "docid": "7332039008480002614",
        "url": ""
    },
    {
        "title": "中国女首富，二个女儿惨死，三个儿子反目成仇，她的一生不简单！",
        "docid": "7330066759305495074",
        "url": ""
    },
    {
        "title": "五年后，电梯房和步梯房谁更受欢迎，答案已经很明显了",
        "docid": "7303085050315489826",
        "url": ""
    },
    {
        "title": "今天才知道，原来房贷这么可怕",
        "docid": "7330395409241915944",
        "url": ""
    },
    {
        "title": "大国博弈，已到了关键时刻",
        "docid": "7332399507831194149",
        "url": ""
    },
    {
        "title": "打赢金融战，让做空者“高位截瘫”！",
        "docid": "7331501017109987840",
        "url": ""
    },
    {
        "title": "未来几年，房子和现金可能都会贬值，而这几样东西却会悄悄升值",
        "docid": "7331830311422296614",
        "url": ""
    },
    {
        "title": "上交所公开谴责贵绳股份董事长，网友纷纷对处罚感到不解",
        "docid": "7332341536874889743",
        "url": ""
    },
    {
        "title": "李蓓承认自己“判断错误”，已战术性减仓止损",
        "docid": "7332409604577870370",
        "url": ""
    },
    {
        "title": "到达惠州罗浮山，因为千股跌停，郁闷，无话可说0205",
        "docid": "7332049482806641215",
        "url": ""
    },
    {
        "title": "爱谁谁！谁在抢夺我们的钱？就是我们的敌人！",
        "docid": "7331005038179074569",
        "url": ""
    },
    {
        "title": "53岁坐牢，71岁出狱后再创业，82岁身家千万，她是最牛创业者",
        "docid": "7312741401589236235",
        "url": ""
    },
    {
        "title": "韩国钢铁大鳄浦项钢铁，营收664亿美元，中国宝武集团如何？",
        "docid": "7315451002474299919",
        "url": ""
    },
    {
        "title": "2月7日起 海口等11市县调整购房商贷首付比例",
        "docid": "7332463824987308559",
        "url": ""
    },
    {
        "title": "高盛发布A股平准基金研报，专家称：只是过渡手段，务必速战速决",
        "docid": "7332455361309655567",
        "url": ""
    },
    {
        "title": "社保交15、20、25年的区别，自己交和公司交的区别，涨知识了",
        "docid": "7304122488580325897",
        "url": ""
    },
    {
        "title": "富士康老板娘曾馨莹：战胜刘嘉玲嫁郭台铭，仍想为七旬老公拼四胎",
        "docid": "7330473181419422219",
        "url": ""
    },
    {
        "title": "“我妈就是董明珠”节目惹争议，格力员工：王自如是活动策划总指挥",
        "docid": "7330879036702671410",
        "url": ""
    },
    {
        "title": "海南省区划猜想：文昌划入海口，琼海万宁组建地级市三亚扩容升级",
        "docid": "7305324883699827241",
        "url": ""
    },
    {
        "title": "万亿金融帝国彻底撑不住了！东北第一猛人的雷，炸了",
        "docid": "7306024331610522122",
        "url": ""
    },
    {
        "title": "曾经风靡全国的“骗局”，推上神坛炒到数千万，如今白菜价没人要",
        "docid": "7330903653450072610",
        "url": ""
    },
    {
        "title": "2023年辽宁14市GDP出炉：大连第1，鞍山突破2000亿，丹东很强势",
        "docid": "7331664873727754778",
        "url": ""
    },
    {
        "title": "为什么有现金流的是他们？",
        "docid": "7331394817399915018",
        "url": ""
    },
    {
        "title": "见证历史！460余家龙虎榜，量化平仓盘集体涌现！",
        "docid": "7332517200194142770",
        "url": ""
    },
    {
        "title": "最近股市下跌，散户哀鸿遍野，那么钱到底是被谁赚了呢？",
        "docid": "7332356240300851751",
        "url": ""
    },
    {
        "title": "30亿量化私募跑路幕后主角被抓！其名下关联11家企业，涉及投资、旅游等领域",
        "docid": "7330202108865692194",
        "url": ""
    },
    {
        "title": "抖音卖房，把我卷焦虑了",
        "docid": "7299634179367666239",
        "url": ""
    },
    {
        "title": "要预防上证指数像2015 国家队救市后继续大跌的历史",
        "docid": "7332476369123295779",
        "url": ""
    },
    {
        "title": "一个月花完千万融资到涉赌被捕，斗鱼掌门陈少杰的冒险人生",
        "docid": "7304887378152292875",
        "url": ""
    },
    {
        "title": "大地震！德国巨头裁员8000人，人类经济高歌猛进时代结束了",
        "docid": "7327630518739419682",
        "url": ""
    },
    {
        "title": "罚没200万！晋商银行因这项事由被“点名”",
        "docid": "7332449100627509795",
        "url": ""
    },
    {
        "title": "证监会与八大公募基金“暂停”之举，是股民权益的保障还是？",
        "docid": "7332463668422361609",
        "url": ""
    },
    {
        "title": "传闻成真，沙宣洗发水不好卖，网友吐槽：“用完头皮发痒”！宝洁转头卖给汉高",
        "docid": "7331770042159612456",
        "url": ""
    },
    {
        "title": "刚刚，武汉铁路发布2月6日停运车次信息",
        "docid": "7332323190297526824",
        "url": ""
    },
    {
        "title": "国家急待各地上交废铁以维持炼钢厂正常生产（昔日旧影）",
        "docid": "7325555070341235210",
        "url": ""
    },
    {
        "title": "走进中国最大钼企业：从县城山沟起家，到手握千亿级海外资产",
        "docid": "7301905055329124900",
        "url": ""
    },
    {
        "title": "亚洲四小龙提出至今，新加坡进步速度第一，韩国第二，港台倒数",
        "docid": "7328390676930953743",
        "url": ""
    },
    {
        "title": "揭开职业背债人的暴利生意经：3个月躺赚200万，代价是“一辈子老赖”",
        "docid": "7330920883013321268",
        "url": ""
    },
    {
        "title": "警报拉响！美国2.2万亿危机发酵，日本、欧洲银行被卷入",
        "docid": "7332047956621427254",
        "url": ""
    },
    {
        "title": "濮阳富豪胡葆森：曾身家190亿，地产项目覆盖河南，能否走出危机",
        "docid": "7309329440415154714",
        "url": ""
    },
    {
        "title": "杭州临平的优与劣",
        "docid": "7304556401827775016",
        "url": ""
    },
    {
        "title": "“账单将自动划扣”，很多人收到短信通知！紧急提醒！",
        "docid": "7303094520038834723",
        "url": ""
    },
    {
        "title": "出乎意料的好，股市就是幸福来的太突然",
        "docid": "7332384285019898403",
        "url": ""
    },
    {
        "title": "10年改为11年，职工医保退休最低实缴年限改啦",
        "docid": "7310517715876659731",
        "url": ""
    },
    {
        "title": "还有比我家更惨的吗？今年收入只有3万元支出竟然超过5万6000多元",
        "docid": "7332341883651605003",
        "url": ""
    },
    {
        "title": "全球最富家族能有多少钱？五倍于李嘉诚，控制全球最大“摇钱树”",
        "docid": "7302733371518648867",
        "url": ""
    },
    {
        "title": "优秀的管理者必须做员工年终面谈",
        "docid": "7331204767521210889",
        "url": ""
    },
    {
        "title": "东方小孙：极不靠谱的董宇辉，根本不适合管理职责",
        "docid": "7332426972419179058",
        "url": ""
    },
    {
        "title": "港媒：喝茅台还是白兰地？中国消费者口味正在变化，尤其是年轻人",
        "docid": "7324688724569129484",
        "url": ""
    },
    {
        "title": "“30亿量化私募跑路”幕后主角被抓",
        "docid": "7330087099946943013",
        "url": ""
    },
    {
        "title": "9个在网上卖得很火，却是骗人的商品，你被坑过几个？",
        "docid": "7306324665264603711",
        "url": ""
    },
    {
        "title": "469家！重庆2023年首店数量创新高",
        "docid": "7332317720064557583",
        "url": ""
    },
    {
        "title": "央视曝光：多款零食造假！4种被拉入黑名单的零食，很多人还爱吃",
        "docid": "7331315584942522916",
        "url": ""
    },
    {
        "title": "全球最“离谱”超市，贵到被骂“智商税”，却狂赚百亿美元，凭啥",
        "docid": "7323037029871125004",
        "url": ""
    },
    {
        "title": "销量暴跌、被判死缓！智能盒子将彻底消亡？",
        "docid": "7332366663793443355",
        "url": ""
    },
    {
        "title": "财政部官方回复！这4类项目，可不执行政府采购方式",
        "docid": "7306704962820817420",
        "url": ""
    },
    {
        "title": "2023宁波制造业100强：金田退居第二，公牛第27，宁海增至7家",
        "docid": "7325321667931095602",
        "url": ""
    },
    {
        "title": "人才公寓郑州样本：租金占市场价70%，计划每年投入两万套房源",
        "docid": "7332068855533126183",
        "url": ""
    },
    {
        "title": "一天吃透一条产业链：No.9 预制菜",
        "docid": "7311964609404011059",
        "url": ""
    },
    {
        "title": "单位接送职工上下班的通勤车是否构成非法客运？需办经营许可吗？",
        "docid": "7273008417013465635",
        "url": ""
    },
    {
        "title": "资深韭菜的骚操作，且看展示，心态炸裂的一天",
        "docid": "7332405352165638671",
        "url": ""
    },
    {
        "title": "有房有院子有阳光",
        "docid": "7331040659056722470",
        "url": ""
    },
    {
        "title": "“有列车到了，武汉站需要车！”一声令下，30名党员司机深夜集合",
        "docid": "7332422221777863207",
        "url": ""
    },
    {
        "title": "注意，中年人是离返贫最近的一群人",
        "docid": "7332445505366639115",
        "url": ""
    },
    {
        "title": "发工资就把余额“全转走”，会有什么影响？银行职员说出实情",
        "docid": "7332423512202019380",
        "url": ""
    },
    {
        "title": "好消息！本市对春节长假期间退休人员养老金提前发放",
        "docid": "7330115229315318307",
        "url": ""
    },
    {
        "title": "在极端的行情，国家救市，我们只赚指数，而赚不到钱。",
        "docid": "7332321744352510479",
        "url": ""
    },
    {
        "title": "“我妈就是董明珠”节目惹争议，格力员工：王自如是活动策划总指挥",
        "docid": "7330881473538818579",
        "url": ""
    },
    {
        "title": "退休老人离世后，丧葬抚恤金能领40个月工资？人人有份吗？",
        "docid": "7310028652929090100",
        "url": ""
    },
    {
        "title": "有人追赶AI风口卖想象力，有人10年沉迷冷门的“慢生意”，这些淘宝店为何火了？",
        "docid": "7331535758865695259",
        "url": ""
    },
    {
        "title": "海南崛起：中国即将诞生第二个国际化大都市",
        "docid": "7306137832043610659",
        "url": ""
    },
    {
        "title": "遂宁市撤市变区划入重庆的可行性研究之一",
        "docid": "7315990156660687414",
        "url": ""
    },
    {
        "title": "没有单位的证明，能领失业保险金吗？",
        "docid": "7311887667825017381",
        "url": ""
    },
    {
        "title": "河南安阳：靠煤炭起家，去年狂赚679亿，他的商业帝国如何建？",
        "docid": "7306785399815815720",
        "url": ""
    },
    {
        "title": "厉害了，南平竹！",
        "docid": "7313150053248533019",
        "url": ""
    },
    {
        "title": "陈东升之子接任泰康千亿基金掌门人，但谈接班为时尚早",
        "docid": "7331954244025336359",
        "url": ""
    },
    {
        "title": "上海的神级规划，这些地方要起飞！？",
        "docid": "7319707119316812288",
        "url": ""
    },
    {
        "title": "最新，A股毛利润最高的215强排名！",
        "docid": "7331663040989086217",
        "url": ""
    },
    {
        "title": "存款利率调降后，有人不同意了，拿储户利益补贴购房人吗？",
        "docid": "7315203280110731791",
        "url": ""
    },
    {
        "title": "能把事情做到极致的人，往往都很简单",
        "docid": "7332381569728332322",
        "url": ""
    },
    {
        "title": "2024年，西安即将开业的10大商场，有你家附近吗？",
        "docid": "7316051722039099956",
        "url": ""
    },
    {
        "title": "13万人排队抢，堪比春运线下版拼夕夕，正“掏空”广东人钱包",
        "docid": "7331667000684478995",
        "url": ""
    },
    {
        "title": "芯片为什么越来越贵，性能提升却越来越小了？这真不怨芯片厂商",
        "docid": "7332307079702512169",
        "url": ""
    },
    {
        "title": "中国当前最紧迫的不是提振经济，而是让人民重拾信心",
        "docid": "7332492320824345142",
        "url": ""
    },
    {
        "title": "便宜到令人发指，确定性极高，晶盛机电，下一个宁德时代？",
        "docid": "7331288371588792858",
        "url": ""
    },
    {
        "title": "美媒：“中国资本瞄准美国要害”",
        "docid": "7330159120144007716",
        "url": ""
    },
    {
        "title": "马化腾：海外扩张是最大希望",
        "docid": "7332374612770308649",
        "url": ""
    },
    {
        "title": "俄罗斯每年卖石油几万亿，为何却还不是发达国家？原因主要是三点",
        "docid": "7316402109287825954",
        "url": ""
    },
    {
        "title": "2024年，机关事退人员职业年金为什么要除以139？每月领多少？",
        "docid": "7315740914947949119",
        "url": ""
    },
    {
        "title": "电池厂的新年：停产、裁员和降价",
        "docid": "7332077802914677259",
        "url": ""
    },
    {
        "title": "走上管理岗位，要学会布置工作",
        "docid": "7316348919930225167",
        "url": ""
    },
    {
        "title": "新加坡排名第一的企业：年营收达到2万亿，超越了三星电子、丰田",
        "docid": "7324519928411980329",
        "url": ""
    },
    {
        "title": "破冰之旅！张兰做客蔡磊直播间义播，儿子捐款百万，网友：支持！",
        "docid": "7331647790654947876",
        "url": ""
    },
    {
        "title": "3张图看懂资本市场都怎么玩对赌协议的",
        "docid": "7304162048358220328",
        "url": ""
    },
    {
        "title": "当一个北京中产家庭“逃离”京郊别墅区",
        "docid": "7330940213621015094",
        "url": ""
    },
    {
        "title": "一觉醒来，世界发生了什么？2024.2.5",
        "docid": "7331908254101930532",
        "url": ""
    },
    {
        "title": "A股：放量大阳线反包果然来了，明天（周三）大盘这样走！",
        "docid": "7332454001064411683",
        "url": ""
    },
    {
        "title": "历经18年耗费700亿，浙江一小岛，如何逆袭成世界第一大港？",
        "docid": "7305321567255659042",
        "url": ""
    },
    {
        "title": "上涨9.55%！科创板创单日最大涨幅纪录",
        "docid": "7332480007941702159",
        "url": ""
    },
    {
        "title": "管理，其实就是干4件事",
        "docid": "7301875890051629602",
        "url": ""
    },
    {
        "title": "除雪保畅进行时｜保安全保畅通 湖北交通全力做好雨雪冰冻天气防范应对",
        "docid": "7332026470518784552",
        "url": ""
    },
    {
        "title": "没有土地出让金的支持：地方财政从哪找补？",
        "docid": "7318312793085067812",
        "url": ""
    },
    {
        "title": "底层穷人的唯一反抗：不生娃、不买房、不消费、不献血",
        "docid": "7332224332472828457",
        "url": ""
    },
    {
        "title": "整理完毕！刚刚，南京3167套二手房真实成交价曝光",
        "docid": "7332321044445233679",
        "url": ""
    },
    {
        "title": "越穷越好面子 越滑头越受欢迎 如今社会八大怪 你细品 现实又精辟",
        "docid": "7332488796300804623",
        "url": ""
    },
    {
        "title": "面朝大海，春暖花开！这些中式梦幻海景房，就是我的梦寐以求！",
        "docid": "7328749453190365722",
        "url": ""
    },
    {
        "title": "中国制造业隐形冠军大赏——拓邦股份",
        "docid": "7324950315898765851",
        "url": ""
    },
    {
        "title": "亚洲最穷困的9个国家，其中5个是我们邻国，他们究竟有多穷？",
        "docid": "7322727458205139468",
        "url": ""
    },
    {
        "title": "警惕“网约房”变成滋生违法犯罪的温床",
        "docid": "7310407332482089487",
        "url": ""
    },
    {
        "title": "我，70后南京人，自主创业，巅峰时年入千万，落魄时差点吃了牢饭",
        "docid": "7306138888874099239",
        "url": ""
    },
    {
        "title": "孙建波：深度解读14号文；恢复房子商品属性，才是激活经济的关键",
        "docid": "7328646680264393243",
        "url": ""
    },
    {
        "title": "​大家要留意：楼盘周围有这4种地方，最好别下手，小心后悔莫及",
        "docid": "7304890132459487783",
        "url": ""
    },
    {
        "title": "重庆2024年必将打脸广州成都，让质疑者跌破眼镜！",
        "docid": "7332495718643089957",
        "url": ""
    },
    {
        "title": "大科技+机器人+央企国资+新能源+房地产+物联网+算力+服务器+氢能",
        "docid": "7329116603008942607",
        "url": ""
    },
    {
        "title": "严重拥堵！紧急提醒→",
        "docid": "7331684812404654592",
        "url": ""
    },
    {
        "title": "你不知道吧？这些“纯”美国品牌实际上早已不归美国公司所有",
        "docid": "7314517639479968283",
        "url": ""
    },
    {
        "title": "春节连休8天！王老吉“超吉星期八”引爆全民消费",
        "docid": "7331633674918625842",
        "url": ""
    },
    {
        "title": "奉劝退休的老人：管好自己的退休金，不管多少存款别做5件糊涂事",
        "docid": "7315671725138592290",
        "url": ""
    },
    {
        "title": "郑州比亚迪：以“豹变”昂起中原龙头",
        "docid": "7331963026973049396",
        "url": ""
    },
    {
        "title": "盘点天津市国资委控股的十大国有企业",
        "docid": "7303343839786451468",
        "url": ""
    },
    {
        "title": "提醒！2月6日将停运32趟列车，广铁多措应对雨雪冰冻天气",
        "docid": "7332472780573360678",
        "url": ""
    },
    {
        "title": "药明康德暴跌背后，惊现巨大阴谋，究竟何人从中作梗谋利？",
        "docid": "7331654688707772980",
        "url": ""
    },
    {
        "title": "没落的“胶卷大王”：从310亿市值跌倒1.06亿，今跨界“卖情怀”",
        "docid": "7310116138459939339",
        "url": ""
    },
    {
        "title": "三条有趣的概率问题，每一条都值得投资者反思",
        "docid": "7308344178675925554",
        "url": ""
    },
    {
        "title": "写给2635点清仓的股友，若2024年有牛市，A股会给他们机会吗？",
        "docid": "7332497410860204579",
        "url": ""
    },
    {
        "title": "胡锡进先生的这篇短文 ，既是掩饰自己的错误又是嫁祸国家",
        "docid": "7332396042211672626",
        "url": ""
    },
    {
        "title": "湖南人都去哪发展了，各省的湖南人数量统计",
        "docid": "7300872512722895371",
        "url": ""
    },
    {
        "title": "都说兰州不如乌鲁木齐，两座城市都去过，差距确实很大，谈谈感受",
        "docid": "7329387098019054115",
        "url": ""
    },
    {
        "title": "河南交投集团湖北铲雪，网友称河南人真中，河南的铲雪车太牛",
        "docid": "7332488499691520549",
        "url": ""
    },
    {
        "title": "闹大了！女子网购500克开心果，干燥剂占191克，网店店主悔不当初",
        "docid": "7332350064771514914",
        "url": ""
    },
    {
        "title": "看上去就买不起！实际上也不能卖",
        "docid": "7329804416461586980",
        "url": ""
    },
    {
        "title": "这是A股当前最大的问题！但斌最新发声：美股才刚刚开始，但不是买了美股就能发财",
        "docid": "7330155144187527720",
        "url": ""
    },
    {
        "title": "中国家庭总资产500万，属于什么阶层？",
        "docid": "7320535619250356799",
        "url": ""
    },
    {
        "title": "别不信不出三五年河北要出两个万亿市一个在燕一个在赵",
        "docid": "7321169644981879350",
        "url": ""
    },
    {
        "title": "有一种深圳速度，叫龙岗",
        "docid": "7304155739843658249",
        "url": ""
    },
    {
        "title": "都说她美得充满铜臭味儿，还不是被王家卫与郭敬明疯狂买单？",
        "docid": "7324507769845842458",
        "url": ""
    },
    {
        "title": "保险公司一夜接4000多个高速事故报警，有人在火车上待了两天两夜……湖北这场雪，要下到什么时候？",
        "docid": "7332296951200809511",
        "url": ""
    },
    {
        "title": "春节A股休市10天！",
        "docid": "7330873296994550312",
        "url": ""
    },
    {
        "title": "一场冻雨加大雪，让我明白在城里买房的重要性",
        "docid": "7332083026408538661",
        "url": ""
    },
    {
        "title": "尧建云：花150拜江西赌王为师，赢600万，双腿被砍想起师傅一句话",
        "docid": "7327205415954301477",
        "url": ""
    },
    {
        "title": "我撞了科尼赛克，保险公司：喝醉装酒驾，我们给你五百万",
        "docid": "7303919532920652299",
        "url": ""
    },
    {
        "title": "中国人不来了，澳洲真急了！",
        "docid": "7331902138727137828",
        "url": ""
    },
    {
        "title": "首次世界五百强: 日本149家，美国151家，中国仅3家，那么现在呢？",
        "docid": "7332041420653658658",
        "url": ""
    },
    {
        "title": "为什么中国数千年没有解决的重男轻女问题，被房地产二十年解决了",
        "docid": "7331575271331578387",
        "url": ""
    },
    {
        "title": "“人工智能让董事长靠边站？”哈哈爱看一些人工智障...",
        "docid": "7317570600136999476",
        "url": ""
    },
    {
        "title": "第一批暴富的中国人，全靠买了这207万份股票“认购证”",
        "docid": "7323238990168408628",
        "url": ""
    },
    {
        "title": "《繁花》大结局：阿宝就是爷叔，一生辗转，回首已惘然",
        "docid": "7320888390264865289",
        "url": ""
    },
    {
        "title": "不出意外！未来中国50%的人口，都将聚集到这6大城市群！",
        "docid": "7325783146673734155",
        "url": ""
    },
    {
        "title": "张朝阳好幸运，54岁流浪博士身份确认，复旦毕业后留美，患有幻听",
        "docid": "7320925248491274806",
        "url": ""
    },
    {
        "title": "陕西女博士40万改造房屋，全年不花1分钱电费，荣获世界建筑大奖",
        "docid": "7330162568969404954",
        "url": ""
    },
    {
        "title": "为什么都选择阜宁县，而不是选择去经济体量接近邻近的射阳县",
        "docid": "7329029306507133491",
        "url": ""
    },
    {
        "title": "异地就医报销，一次性讲清，别再傻傻的自费了",
        "docid": "7316394914999517723",
        "url": ""
    },
    {
        "title": "打工人从上海回来了，告诉你一个真实的上海，别相信网上的了",
        "docid": "7312642990823195148",
        "url": ""
    },
    {
        "title": "成都野心真是大，在龙泉山以东打造3座新城，造城神话能持续多久",
        "docid": "7330267951637627427",
        "url": ""
    },
    {
        "title": "年底报复性关店来了！多地餐饮街出现“团灭”",
        "docid": "7330555819769856566",
        "url": ""
    },
    {
        "title": "建议大家买房不要买这种带横厅的，南北不通透，都是经验教训",
        "docid": "7297403450789757480",
        "url": ""
    },
    {
        "title": "男子批发9.5吨洋葱，到货一看果断报警！网友：现实版暗度陈仓",
        "docid": "7315974850521317898",
        "url": ""
    },
    {
        "title": "江门台山市一栋两层住宅楼拍卖，被人晚上十点多捡漏17万买下",
        "docid": "7332298922376872458",
        "url": ""
    },
    {
        "title": "中部仅2省GDP增速跑赢全国，全面崛起怎么做？",
        "docid": "7330632935433601536",
        "url": ""
    },
    {
        "title": "比亚迪完全可以吃掉“理想L8L9”的市场，为什么不推出类似车型？",
        "docid": "7314351546815332875",
        "url": ""
    },
    {
        "title": "女子花近万元闲鱼网上买85吋彩电，商家扣走货款却迟迟未发货，买家多方维权无果",
        "docid": "7332373586294915619",
        "url": ""
    },
    {
        "title": "河北省打造中国第二个“成都”？2027年GDP1.2万亿，晋升特大城市",
        "docid": "7320502099752763941",
        "url": ""
    },
    {
        "title": "被人嘲笑人傻钱多的他，以160高价买入宁德时代，一年后爆赚228亿",
        "docid": "7325520372957233699",
        "url": ""
    },
    {
        "title": "我父亲5年前买了500000元股票，一直没有去查看...",
        "docid": "7332449719698162187",
        "url": ""
    },
    {
        "title": "邮储银行存钱活动，每年存2万，利率3.6%，送米送油，靠谱吗？",
        "docid": "7300505741222986280",
        "url": ""
    },
    {
        "title": "宁德时代电动科技公司迁至浙江，更名为浙江时代",
        "docid": "7330149120323224116",
        "url": ""
    },
    {
        "title": "六家银行获批解散，对储户存款意味着什么？如何存钱才更安全？",
        "docid": "7331666344432337423",
        "url": ""
    },
    {
        "title": "五年前，我存了28万的定期，当时的利率是4.1%。...",
        "docid": "7332458002886165031",
        "url": ""
    },
    {
        "title": "看完评论终于知道为什么没人黑国家电网了！",
        "docid": "7300425631517737512",
        "url": ""
    },
    {
        "title": "实话实说：90%的消费者，都养不起2.0L以上排量的发动机！",
        "docid": "7326182146342027827",
        "url": ""
    },
    {
        "title": "普通人存够多少钱就可以不用工作了，答案来了",
        "docid": "7331395388597191231",
        "url": ""
    },
    {
        "title": "广州珠江畔一套死过人的一线江景房拍卖，被人捡漏181万拿下",
        "docid": "7331913104684941858",
        "url": ""
    },
    {
        "title": "我国这3座城市“留不住”人了：人均工资三四千，房价却是一两万",
        "docid": "7309390904555749899",
        "url": ""
    },
    {
        "title": "女子租房一个月发现天花板藏摄像头，“有蓝牙功能，范围仅几十米”，房东：不是我安装的，监控已被销毁",
        "docid": "7302733300119405056",
        "url": ""
    },
    {
        "title": "72亿又白花了！高通宣布签订协议，“独供”时代整整延长3年！",
        "docid": "7330904092530786854",
        "url": ""
    },
    {
        "title": "“本人房子免费送，已经供了5年”，多地再现免费送房，业内提示“购房者还需多方核实”",
        "docid": "7331376546063991322",
        "url": ""
    },
    {
        "title": "继“南极人”之后，这四个品牌也卖起了吊牌，你买的可能都是假货",
        "docid": "7307203497768960546",
        "url": ""
    },
    {
        "title": "曾经专门收割贵妇的国际大牌卖不动了，不止是因为中产不买单了",
        "docid": "7330214354673353268",
        "url": ""
    },
    {
        "title": "女子晒出回福建老家日常，网友：被自己穷笑了",
        "docid": "7332313539384525312",
        "url": ""
    },
    {
        "title": "越来越多的五星级酒店徒有虚名竟然被亚朵全季开始吊打了",
        "docid": "7317796081658544655",
        "url": ""
    },
    {
        "title": "国运结束了吗？",
        "docid": "7330935883108925967",
        "url": ""
    },
    {
        "title": "郴州一栋三层356㎡的私人住宅楼拍卖，被人捡漏32.8万竞得",
        "docid": "7331718991293170228",
        "url": ""
    },
    {
        "title": "捐款5.7亿的越南华人女首富，为何突然被捕？还惊动了李嘉诚？",
        "docid": "7325364014526038582",
        "url": ""
    },
    {
        "title": "韩籍博士称中国电子支付需改进！韩国买一瓶矿泉水都可以刷卡【附中国移动支付行业现状分析】",
        "docid": "7331671189351891482",
        "url": ""
    },
    {
        "title": "微信、支付宝出现这样的界面，警惕！这个选项，尽量勾选",
        "docid": "7317555867438580235",
        "url": ""
    },
    {
        "title": "为什么北欧那么高的福利，国家和政府都不会破产，其他国家却会？",
        "docid": "7319685428439695913",
        "url": ""
    },
    {
        "title": "从2023年GDP看，浙江追山东没希望，山东优势太大了！",
        "docid": "7330192484745642506",
        "url": ""
    },
    {
        "title": "广东中山一小区内建“祠堂”，业主纷纷要“卖房”?社区回应：正在拆除",
        "docid": "7330177745764860470",
        "url": ""
    },
    {
        "title": "欧美高科技为何不敢给中国？荷兰70万的平衡车，中国1000块造出来",
        "docid": "7322710938560397833",
        "url": ""
    },
    {
        "title": "天津一家破产公司2.7亿应收款债权拍卖，被人不到85万就拿下了",
        "docid": "7327490316285428243",
        "url": ""
    },
    {
        "title": "过年给红包要避开这3个数，得罪人，以下这3个万能数才是上上吉",
        "docid": "7330935127125721639",
        "url": ""
    },
    {
        "title": "英伟达中国特供AI芯片被曝起售价11万！黄仁勋：中国市场只有一个，哪怕性能缩水也不会放弃【附全球AI芯片行业市场发展分析】",
        "docid": "7330967707003503154",
        "url": ""
    },
    {
        "title": "在上海和北京都生活过，不得不承认，上海比起北京还是有不少差距",
        "docid": "7330553850665386535",
        "url": ""
    },
    {
        "title": "这个扭秧歌的华人大叔，干了家10万亿公司",
        "docid": "7327110995901334035",
        "url": ""
    },
    {
        "title": "大儿子沉迷美色无心家业，二儿子败光400亿，一世英名被后代毁掉",
        "docid": "7326866803396018728",
        "url": ""
    },
    {
        "title": "门头设计成这样，不愁生意",
        "docid": "7329130911009161739",
        "url": ""
    },
    {
        "title": "你的努力，正是别人的收割……",
        "docid": "7332039256799806002",
        "url": ""
    },
    {
        "title": "中国唯一富过十五代的家族，凭什么兴盛五百年？",
        "docid": "7312698865784750633",
        "url": ""
    },
    {
        "title": "我把房子从中间户换成“边户”后，发现两者差别太大了，并非胡说",
        "docid": "7302264746751918603",
        "url": ""
    },
    {
        "title": "女子变卖家产，砸千万开发沙漠，因地里宝贝，13年后年入2.7亿",
        "docid": "7328285769478013503",
        "url": ""
    },
    {
        "title": "单身母亲卖掉房，带着儿女从江西移居鹤岗，花7万买65平米毛坯房",
        "docid": "7330148306833687080",
        "url": ""
    },
    {
        "title": "原来大家今年不敢乱花钱是因为这样！看完网友评论，既真实又无奈",
        "docid": "7316817934817673780",
        "url": ""
    },
    {
        "title": "年轻人，再不生孩子就来不及了！",
        "docid": "7322127762201068047",
        "url": ""
    },
    {
        "title": "世界有两个富国，一个进不了发达国家，一个却不愿进",
        "docid": "7317559856141959719",
        "url": ""
    },
    {
        "title": "当代有些老年人来银行取钱现状，别说柜员了，隔着屏幕我都着急",
        "docid": "7302869347045786162",
        "url": ""
    },
    {
        "title": "胡锡进：我今天赔的钱，早晚有一天会回来",
        "docid": "7332042152748515867",
        "url": ""
    },
    {
        "title": "山姆、盒马鲜生、叮咚买菜等多家平台官宣：春节期间，运费上调！网友热议......",
        "docid": "7332686122260709900",
        "url": ""
    },
    {
        "title": "千军易得 一将难求！看完冯冯的访谈后更加理解俞敏洪的处境！",
        "docid": "7332041111965368844",
        "url": ""
    },
    {
        "title": "成都富豪榜前五名揭晓，看看谁是成都最有钱的人",
        "docid": "7332360900046897675",
        "url": ""
    },
    {
        "title": "张磊的智慧：判断一个人未来财富多少，主要看3个特征，十有八准",
        "docid": "7317947387384070690",
        "url": ""
    },
    {
        "title": "基金亏损50%，补仓还是赎回？",
        "docid": "7325684469468906025",
        "url": ""
    },
    {
        "title": "每天吃透一条产业链——充电桩",
        "docid": "7327957505282425353",
        "url": ""
    },
    {
        "title": "上海银行员工自爆年终奖＋工资收入明细，网友说：高得吓人，猛啊",
        "docid": "7332632023061905958",
        "url": ""
    },
    {
        "title": "湖北省省会城市调整建议：宜昌市升级省会城市可行性研究报告",
        "docid": "7317127874275099188",
        "url": ""
    },
    {
        "title": "浦发银行不发年终奖发家书？网友吐槽“家书抵万金”！曾人均年薪44万",
        "docid": "7332660018493571621",
        "url": ""
    },
    {
        "title": "终于有人把看病买药最省钱的方法整理清楚了，不知道的一定收藏！",
        "docid": "7331796209839112758",
        "url": ""
    },
    {
        "title": "总共卖出1700万元的迪士尼童装是假货？夫妻俩仅花4万元就买到“授权”",
        "docid": "7332112352244367912",
        "url": ""
    },
    {
        "title": "笑不活了，男子网购5斤3J车厘子，符合要求的不足10%，网友热议",
        "docid": "7331963352555553332",
        "url": ""
    },
    {
        "title": "当下，你为什么要着急“恐慌性卖房”？",
        "docid": "7306065605814288948",
        "url": ""
    },
    {
        "title": "小年，我的小面积房子终于卖了，20万左右价格，也在可接受范围内",
        "docid": "7331211712802505227",
        "url": ""
    },
    {
        "title": "我，28辞职创业赚取人生第一桶金1000万，如今开了家不卖书的书店",
        "docid": "7311098643589825075",
        "url": ""
    },
    {
        "title": "30个不建议购买的家电品牌！值得收藏！",
        "docid": "7318167715099755062",
        "url": ""
    },
    {
        "title": "未到退休年龄，社保已缴满15年社保，还要缴吗？这份提示请收好→",
        "docid": "7305275556332306970",
        "url": ""
    },
    {
        "title": "监狱中服刑的狠人，初中学历的詹恩贵，是如何骗走企业1900万的？",
        "docid": "7304866013294903844",
        "url": ""
    },
    {
        "title": "为什么越来越多的人不买“主卧带卫”？内行人一解释，才恍然大悟",
        "docid": "7300908769993638434",
        "url": ""
    },
    {
        "title": "刘孜第一次公开自己的家，住的豪宅里面还有图书馆",
        "docid": "7317450571198415399",
        "url": ""
    },
    {
        "title": "55米厚的煤层开采了118年，中国第一大露天煤矿，现在怎么样了？",
        "docid": "7301623598928675367",
        "url": ""
    },
    {
        "title": "总是收到“积分到期兑换”短信，这一乱象为何屡禁不止？",
        "docid": "7329880451709993507",
        "url": ""
    },
    {
        "title": "活明白的中国前首富，避世十年，身价暴涨，活成了富豪最羡慕的人",
        "docid": "7327670737908253184",
        "url": ""
    },
    {
        "title": "昔日“龙头”被拆，今日“龙身”被拍，且看北京盘古大观！",
        "docid": "7332042356667204130",
        "url": ""
    },
    {
        "title": "腐乳变身“东方奶酪”，在海外卖爆了",
        "docid": "7332329057285833268",
        "url": ""
    },
    {
        "title": "桃李春风中式合院2.48万元 /㎡成交，跌破新房售价！怎么回事？",
        "docid": "7332030685555065407",
        "url": ""
    },
    {
        "title": "拼多多创始人黄峥：放弃首富做“首善”，41岁无偿捐出1000亿",
        "docid": "7318303027264537097",
        "url": ""
    },
    {
        "title": "让人很意外！2023gdp广东第五城惠州市居然超广西第一城南宁市？",
        "docid": "7331675204462395916",
        "url": ""
    },
    {
        "title": "邓文迪女儿进高盛被质疑走后门？虎妈把俩女富养成顶级名媛有多拼",
        "docid": "7330179581464642088",
        "url": ""
    },
    {
        "title": "其实美元没那么强！卢克文:按购买力100美元=300-400人民币",
        "docid": "7331311985847730742",
        "url": ""
    },
    {
        "title": "星光大道多位冠军现状：大多已无人问津，有人负债累累当搬运工",
        "docid": "7332366888557249063",
        "url": ""
    },
    {
        "title": "买一楼送负一楼，出来就卖光。真正住过有发言权：就冲3个优点",
        "docid": "7322300438823371316",
        "url": ""
    },
    {
        "title": "湛江虽有703万常住人口，但是市区繁华程度远不如297万的海口",
        "docid": "7332354068323516965",
        "url": ""
    },
    {
        "title": "2024年会出现的10大社会现象！",
        "docid": "7325589929587933715",
        "url": ""
    },
    {
        "title": "中财大教授贺强：你相不相信3000点能拉回来？3000点以下越低越买",
        "docid": "7330243706937000448",
        "url": ""
    },
    {
        "title": "九州通创始人退出管理后 为何不让儿子刘登攀接任而引入刘长云？",
        "docid": "7312637884253667850",
        "url": ""
    },
    {
        "title": "我农村娃，如今在美国做房东，拥有当地商场学校的房产，年入千万",
        "docid": "7323972819237667362",
        "url": ""
    },
    {
        "title": "打算卖房才发现，难以接受的，不是房价下降了，而是根本卖不出去",
        "docid": "7314963579760181801",
        "url": ""
    },
    {
        "title": "中国急需建设3座跨海工程：一旦实现，那价值将超过港珠澳大桥",
        "docid": "7328402879600722482",
        "url": ""
    },
    {
        "title": "胡锡进:我投身在股炒市场之中6个月的感言",
        "docid": "7332689615474229798",
        "url": ""
    },
    {
        "title": "广东2023年21市GDP全部出炉：珠海第6，江门破4000亿，汕尾很强势",
        "docid": "7330651041035420186",
        "url": ""
    },
    {
        "title": "再现庞氏骗局深圳鼎益丰",
        "docid": "7322326577403068928",
        "url": ""
    },
    {
        "title": "利润超三星，美国电车销量排第二，“中国惨淡、全球崛起”的现代、起亚",
        "docid": "7330982623831081472",
        "url": ""
    },
    {
        "title": "江苏十三太保2023年GDP全公布，不及预期但很亮眼！继续紧追老广",
        "docid": "7331213057148469769",
        "url": ""
    },
    {
        "title": "湖南常德下大雪，有司机称国道附近防滑链都卖光！上坡要推车",
        "docid": "7331689850750108195",
        "url": ""
    },
    {
        "title": "还敢刀口舔血 ！*ST左江日内暴涨38%",
        "docid": "7332687263371084288",
        "url": ""
    },
    {
        "title": "电价新政出炉！3月1日起执行",
        "docid": "7330934476165628452",
        "url": ""
    },
    {
        "title": "曾经的“印钞机”如今的“老破小”，汽车客运站真的被抛弃了吗？",
        "docid": "7299355122704892427",
        "url": ""
    },
    {
        "title": "国家为什么要花重金打造太原，太原的未来即将腾飞！",
        "docid": "7329468371685327399",
        "url": ""
    },
    {
        "title": "管理者一定要学会“3管5带7抓”，让管理难度下降一倍！",
        "docid": "7312401282105901568",
        "url": ""
    },
    {
        "title": "福建将打造第二个“深圳”？2035年GDP突破2万亿，并晋升特大城市",
        "docid": "7303508815650374179",
        "url": ""
    },
    {
        "title": "北大硕士张老三，事业正红从华为辞职，跑国外不当工程师当水管工",
        "docid": "7322768107636949515",
        "url": ""
    },
    {
        "title": "补齐内河航运“短板”，郑州将变身“港口城市”",
        "docid": "7332451806213046795",
        "url": ""
    },
    {
        "title": "深圳各区县2023年GDP出炉：福田龙岗差距缩小、深汕增速爆炸",
        "docid": "7331196784498852404",
        "url": ""
    },
    {
        "title": "为什么上午高点是2826点？",
        "docid": "7332687238578913846",
        "url": ""
    },
    {
        "title": "张朝阳建议年轻人要早起 6点起床比9点起床强 你比别人多3个小时思考这辈子干嘛 你早起了 晚上就睡得很好",
        "docid": "7310067132539142665",
        "url": ""
    },
    {
        "title": "四川南充走出的5位女老板，总身价近400亿，个个气质不凡",
        "docid": "7329668947782173223",
        "url": ""
    },
    {
        "title": "四川女子定向捐物资给甘肃，后续查询不到物流信息，邮政回应了！",
        "docid": "7330580371010552335",
        "url": ""
    },
    {
        "title": "女子吐槽网购500克开心果，干燥剂占191克：投诉后被怼别太无知！律师：缺斤少两这是欺诈消费者！",
        "docid": "7332427176610087464",
        "url": ""
    },
    {
        "title": "南京富豪榜前五名揭晓，看看谁是南京最有钱的人",
        "docid": "7319143688649802252",
        "url": ""
    },
    {
        "title": "身家600亿富豪提议，给员工发现金红包：在职1人1万，总金额或超8000万！",
        "docid": "7325601869420823078",
        "url": ""
    },
    {
        "title": "公积金有变！各地再迎新调整！2024年3月1日起执行！",
        "docid": "7332039200881492543",
        "url": ""
    },
    {
        "title": "巴黎圣母院变中国制造？中国基建队赶工修复，基建狂魔不是白叫的",
        "docid": "7309344022961832485",
        "url": ""
    },
    {
        "title": "山东，全国第一！这一次真猛！",
        "docid": "7332435460679565859",
        "url": ""
    },
    {
        "title": "超标污水摇身一变，成为高端进口天然矿泉水，这种水，你喝过吗？",
        "docid": "7331319281404051978",
        "url": ""
    },
    {
        "title": "改造前VS改造后，两张图片引起五十多万网友纷纷留言“叫好”",
        "docid": "7299835297582318106",
        "url": ""
    },
    {
        "title": "每天吃透一条产业链：养老行业",
        "docid": "7328184890451673635",
        "url": ""
    },
    {
        "title": "在银行存多少钱，才能成为“黑卡客户”？大小银行差别很大？",
        "docid": "7312749757393437224",
        "url": ""
    },
    {
        "title": "胆大心细：迁都海南，会不会变身城市新宠？",
        "docid": "7317994786961752617",
        "url": ""
    },
    {
        "title": "退休后，如果能达到以下10条，就不枉来人世一场，绝对是人生赢家",
        "docid": "7308650159021113896",
        "url": ""
    },
    {
        "title": "安徽宣城楼市危机，宣城市房价很低，为何宣城年轻人仍觉得房价贵",
        "docid": "7330905801597125139",
        "url": ""
    },
    {
        "title": "72V20Ah与72V32Ah电池，续航与价格相差多少？哪个性价比更高？",
        "docid": "7330832877233848883",
        "url": ""
    },
    {
        "title": "350万是普通人实现财务自由的最低标准",
        "docid": "7321931691722211859",
        "url": ""
    },
    {
        "title": "房产证不管写谁的名字，已经不重要了？以下四条“规定”你要知道",
        "docid": "7305707410197463567",
        "url": ""
    },
    {
        "title": "名单公布！成渝经济圈2024年300个重大项目清单来了",
        "docid": "7331253263943270912",
        "url": ""
    },
    {
        "title": "“本人房子免费送，已经供了5年”，“免费送房”再现，有人首付亏没了！律师：看似免费，实则噱头",
        "docid": "7332019325945774632",
        "url": ""
    },
    {
        "title": "因拒与日本合作，42岁六必治创始人入狱，死前将1碗毒酒泼向日寇",
        "docid": "7332469195282301466",
        "url": ""
    },
    {
        "title": "京东金融App独家直播，胡锡进坦陈：60万本金基本是我的上限",
        "docid": "7332077645196591631",
        "url": ""
    },
    {
        "title": "美国第三大城市芝加哥GDP超5500亿美元，放在中国什么水平？",
        "docid": "7325460114251465270",
        "url": ""
    },
    {
        "title": "我家从5楼换成25楼后，不得不承认越住越舒服，太真实了！",
        "docid": "7321245737977987624",
        "url": ""
    },
    {
        "title": "市值蒸发超1600亿！是什么神仙药跌落神坛？片仔癀：洒洒水啦！",
        "docid": "7331273047120609804",
        "url": ""
    },
    {
        "title": "犹太资本集团对世界现在和未来的布局（猜想）",
        "docid": "7301995539866960420",
        "url": ""
    },
    {
        "title": "10条组织生活会上批评他人的意见供参考",
        "docid": "7318286380507939337",
        "url": ""
    },
    {
        "title": "油价调整时间定了，国内油价或大幅下调！2月7日92号汽油今日价格",
        "docid": "7332420351965659688",
        "url": ""
    },
    {
        "title": "中央确定中国工业百强县域:内蒙古第一县,河南第一县,江西第一县",
        "docid": "7331655627653530138",
        "url": ""
    },
    {
        "title": "中央确定中部10大城市：武汉超大城市，太原力压南昌，芜湖第8",
        "docid": "7330102678511305216",
        "url": ""
    },
    {
        "title": "工龄和工资的关系，工龄怎么算？养老金、工资等都和工龄密切相关！",
        "docid": "7327598915069592064",
        "url": ""
    },
    {
        "title": "老爸去银行存了10000元，银行送他两袋20斤的米，这米能拿吗？",
        "docid": "7302047922513216015",
        "url": ""
    },
    {
        "title": "拜登、特朗普反对！日媒：这是豪赌…",
        "docid": "7331904201036972607",
        "url": ""
    },
    {
        "title": "2666.33点肯定不是历史大底",
        "docid": "7331135933602988594",
        "url": ""
    },
    {
        "title": "沈阳将来最吃香的区域，这5个地方脱颖而出，在当地优势突出!",
        "docid": "7330929919856542258",
        "url": ""
    },
    {
        "title": "不经意间漏财的8个习惯，对照一下，你犯过几个？收藏慢慢看",
        "docid": "7332484048868327951",
        "url": ""
    },
    {
        "title": "冯仑的智慧：穷人在埋头努力中变穷，富人靠“3个不要”变富",
        "docid": "7326544218149913139",
        "url": ""
    },
    {
        "title": "A股崩盘对社会造成的危害",
        "docid": "7332299252879786532",
        "url": ""
    },
    {
        "title": "上海银行年终奖为零、过节费还要倒扣？去年前三季陷入增收不增利，年底高层走马换将",
        "docid": "7332770126481244710",
        "url": ""
    },
    {
        "title": "尘埃落定！马云终于退了，蚂蚁集团上市迈出关键一步！",
        "docid": "7330814982579618331",
        "url": ""
    },
    {
        "title": "2023年中药材涨价排行榜",
        "docid": "7327459858432246323",
        "url": ""
    },
    {
        "title": "快看，专家提议发钱：每人1000元，先补贴2万亿，经济复苏靠它！",
        "docid": "7332121364792558120",
        "url": ""
    },
    {
        "title": "各大平台“货币基金”大排名，2023年“京东小金库”综合收益遥遥领先",
        "docid": "7332692931813458483",
        "url": ""
    },
    {
        "title": "捷安特创始人刘金标：如何从一位“失意中年”成为全球自行车之王",
        "docid": "7305943853734052364",
        "url": ""
    },
    {
        "title": "月挣3万多很轻松，但依旧被人瞧不上，这2个行业没面子，但很暴利",
        "docid": "7313037670153323023",
        "url": ""
    },
    {
        "title": "海天跌倒，千禾吃饱",
        "docid": "7330197137030005275",
        "url": ""
    },
    {
        "title": "中美黄金年产量比较：美国一年开采170吨黄金，中国是多少？",
        "docid": "7324714920564916790",
        "url": ""
    },
    {
        "title": "天津市行政规划细则（二）",
        "docid": "7301320093600875062",
        "url": ""
    },
    {
        "title": "买房不走弯路，牢记：买边，买东，买低，远二近三，不碰小产权房",
        "docid": "7313522187950981672",
        "url": ""
    },
    {
        "title": "证监会连续重磅发声！终于开始抓人了！",
        "docid": "7332750522438599209",
        "url": ""
    },
    {
        "title": "保险公司：钱已经打了，当事人：我卡里没有，记者：我来看看",
        "docid": "7327187135386567204",
        "url": ""
    },
    {
        "title": "一年挣十几万没问题，还不用拼人脉，这个行业不起眼，但利润不小",
        "docid": "7304631239447839232",
        "url": ""
    },
    {
        "title": "通信龙头，净利润大增150%，在手订单170亿，全产业链优势明确！",
        "docid": "7331685672224342579",
        "url": ""
    },
    {
        "title": "1年败光320亿，江西首富倒在2023",
        "docid": "7325368534115418664",
        "url": ""
    },
    {
        "title": "中国进入1991年以后的日本…这种说法太悲观",
        "docid": "7331916724109509160",
        "url": ""
    },
    {
        "title": "“厂二代”为啥火了？",
        "docid": "7330433857080328755",
        "url": ""
    },
    {
        "title": "中国第一机床企业陨落：曾碾压德日企业，世界第一，今负债700亿",
        "docid": "7325325865642115593",
        "url": ""
    },
    {
        "title": "近万名职工的百年锰矿，竟是这样一个下场",
        "docid": "7313910187781784104",
        "url": ""
    },
    {
        "title": "总部在湘第1大央企1700亿体量，从贵州迁入湖南，为湘带来了什么",
        "docid": "7300765738007200268",
        "url": ""
    },
    {
        "title": "今天终于明白，养老金个人账户139个月是什么意思了？",
        "docid": "7312325576189280808",
        "url": ""
    },
    {
        "title": "首位华裔美国州长骆家辉：从政时疯狂打压中国，卸任后回中国捞金",
        "docid": "7331667753399501352",
        "url": ""
    },
    {
        "title": "英国人均月收入2300镑，想不明白他们怎么活",
        "docid": "7332352276499333642",
        "url": ""
    },
    {
        "title": "江苏常州一公司年会聚餐被收7500元电费？酒店回应",
        "docid": "7332667648272286242",
        "url": ""
    },
    {
        "title": "除了散户，机构都在卖自己？",
        "docid": "7331876147329991209",
        "url": ""
    },
    {
        "title": "吸管大王楼仲平：被央视6次点名，靠0.0008元利润，干到全球第一",
        "docid": "7306801363915293210",
        "url": ""
    },
    {
        "title": "两大“毒瘤”不除，经济该怎么复苏？原来老百姓的钱都被吸走了",
        "docid": "7332369029602394651",
        "url": ""
    },
    {
        "title": "我19岁开店创业，赚到人生第一个百万，如今在马来西亚读博开公司",
        "docid": "7318577651726156322",
        "url": ""
    },
    {
        "title": "当前经济低迷，2024年了，给35岁-45岁中年的你一些建议！",
        "docid": "7322738451815023130",
        "url": ""
    },
    {
        "title": "“以竹代塑”：好在哪？难在哪？",
        "docid": "7317095731427590682",
        "url": ""
    },
    {
        "title": "风力发电危害有多大？欧美进行大面积拆除，为何我国大力建造？",
        "docid": "7322800068053615145",
        "url": ""
    },
    {
        "title": "佛山首富之子：逃离接班，自立门户，靠“扫大街”赚来110亿",
        "docid": "7315006381386760731",
        "url": ""
    },
    {
        "title": "富二代继承了140亿，以为每年花1.4亿能花100年，后来发现算错了",
        "docid": "7331995820042207781",
        "url": ""
    },
    {
        "title": "住房公积金有多香，不要浪费了",
        "docid": "7320219606323905087",
        "url": ""
    },
    {
        "title": "查理·芒格：真正厉害的人，不是有多聪明，而是具备这两点",
        "docid": "7306898129621025280",
        "url": ""
    },
    {
        "title": "他是新疆商界的二号人物，身价上亿，拥有503个孩子",
        "docid": "7301579012487397923",
        "url": ""
    },
    {
        "title": "用不了20年，“高层”和“多层”住宅的差距就出来了，很真实",
        "docid": "7329810636379144704",
        "url": ""
    },
    {
        "title": "许世辉：中年痛失爱子，58岁成福建首富，公司为何上市又主动退市",
        "docid": "7322635664825057855",
        "url": ""
    },
    {
        "title": "财务共享中心，真的没前途吗？",
        "docid": "7301124150788325925",
        "url": ""
    },
    {
        "title": "5年后，70万存款与70万房产：哪个更有价值？",
        "docid": "7331670923273142838",
        "url": ""
    },
    {
        "title": "“骗”国人16年！蒸发300亿，“炊具大王”被消费者狠狠上了一课",
        "docid": "7329095132921397760",
        "url": ""
    },
    {
        "title": "比亚迪公关炮轰无底线竞争！",
        "docid": "7331881978091995700",
        "url": ""
    },
    {
        "title": "分享一建国初期从芬兰购买货物的“合同”，好多你想象不到的智慧",
        "docid": "7326793151770624527",
        "url": ""
    },
    {
        "title": "湖南衡阳：开发商6年不交房，房贷还要还，业主请求解除合同 判了！",
        "docid": "7308623067402781218",
        "url": ""
    },
    {
        "title": "对不起东哥，我要卸载京东了！京东已经不是以前的京东了！",
        "docid": "7332668428706759187",
        "url": ""
    },
    {
        "title": "银行推免费辅导作业：崩溃感爆棚！存5万元疯狂冲进银行！",
        "docid": "7332757791373197875",
        "url": ""
    },
    {
        "title": "北京通州区取消购房限制，通州新房成交量猛增近1.8倍，一线城市楼市限购放宽，春天来了！",
        "docid": "7332481692512469514",
        "url": ""
    },
    {
        "title": "沈阳富豪榜前五名揭晓，看看谁是沈阳最有钱的人",
        "docid": "7332371372133663283",
        "url": ""
    },
    {
        "title": "广州74所学校发布预警！家长好焦虑……",
        "docid": "7332674682769981961",
        "url": ""
    },
    {
        "title": "曾经的全国扶贫楷模蜕变为涉黑组织老大：前泸州首富的起伏人生",
        "docid": "7332467649227735563",
        "url": ""
    },
    {
        "title": "印度塔塔集团，真的是强大到没朋友！",
        "docid": "7314643978056696332",
        "url": ""
    },
    {
        "title": "2023年辽宁省成绩单：2市负增长，丹东接近抚顺，鞍山猛涨",
        "docid": "7331660663998005799",
        "url": ""
    },
    {
        "title": "湖北大雪保险理赔预估已超2亿 多家险企发布风险提示",
        "docid": "7331764399373369875",
        "url": ""
    },
    {
        "title": "中基健康午后直线跳水 上演天地板",
        "docid": "7332733016755667468",
        "url": ""
    },
    {
        "title": "闹大了！女子公开投诉南航！网友评论太真实了！",
        "docid": "7332775800376312332",
        "url": ""
    },
    {
        "title": "资本眼中的五大傻！",
        "docid": "7332551248912286234",
        "url": ""
    },
    {
        "title": "阿根廷经济：一地鸡毛还是凤凰涅槃的前奏？",
        "docid": "7332778430771216911",
        "url": ""
    },
    {
        "title": "美呆了，以后坐绿皮火车有福了",
        "docid": "7311716263145882123",
        "url": ""
    },
    {
        "title": "“2023安徽年度经济人物”，都有谁？",
        "docid": "7332672576633930278",
        "url": ""
    },
    {
        "title": "塔斯汀荣获2023 BOOM新消费“年度产品力奖” 获行业和消费者的双重肯定",
        "docid": "7332742611691848244",
        "url": ""
    },
    {
        "title": "中国进口光刻机暴涨1000%，美继续打压，中国把芯片打成白菜价",
        "docid": "7329151000076616243",
        "url": ""
    },
    {
        "title": "85后钢铁老板，14亿抄底上海20栋别墅",
        "docid": "7323143885335839271",
        "url": ""
    },
    {
        "title": "中国最富的5个省份，江苏只能排第二，看看有你的家乡吗？",
        "docid": "7317510067685851683",
        "url": ""
    },
    {
        "title": "广发证券卷入雪球“爆仓”风波",
        "docid": "7330453435105788425",
        "url": ""
    },
    {
        "title": "娃哈哈向全体员工发放6亿元左右年终奖",
        "docid": "7331579670242165248",
        "url": ""
    },
    {
        "title": "太嚣张！女孩吃粉因多说一遍加酸菜被老板骂“吃衣禄”，气到手抖",
        "docid": "7331783682594390562",
        "url": ""
    },
    {
        "title": "大疆科技狂人汪滔：公司多次崩盘，如今千亿身价",
        "docid": "7319421410840166923",
        "url": ""
    },
    {
        "title": "四川内江一个加油站拍卖，才1232万，竟没人要流拍了",
        "docid": "7321511397924569654",
        "url": ""
    },
    {
        "title": "小叔子股票跌了500万，跟我老公借120万补仓，他却不听劝告",
        "docid": "7332509845851030042",
        "url": ""
    },
    {
        "title": "#证监会主席换了，明天迎接新主席我们的股市要大涨了#",
        "docid": "7332699641378570778",
        "url": ""
    },
    {
        "title": "上海夫妻买房2年后发现房子“秘密”，竟出过这种事……",
        "docid": "7308278836633223707",
        "url": ""
    },
    {
        "title": "为何入住毛坯房的人越来越多？住过的人表示：主要原因有4个",
        "docid": "7331996962939781659",
        "url": ""
    },
    {
        "title": "我，四川人，3年前贪小便宜在丽江买下160多万的商铺，如今很后悔",
        "docid": "7326731292039709211",
        "url": ""
    },
    {
        "title": "2024年：搞钱必看的4部纪录片",
        "docid": "7324688381919674920",
        "url": ""
    },
    {
        "title": "最牛打工妹王来春：专“抢”富士康生意赚1800亿，大方分二哥一半",
        "docid": "7301624913063084570",
        "url": ""
    },
    {
        "title": "市场做空者被抓了，但社会信心做空者正准备随时出手",
        "docid": "7332697087698158091",
        "url": ""
    },
    {
        "title": "是不是真恩爱不知道，但细看章泽天资产，有被这个女人惊讶到",
        "docid": "7322032829318480418",
        "url": ""
    },
    {
        "title": "风向变了？英国背刺李嘉诚",
        "docid": "7332792649797157385",
        "url": ""
    },
    {
        "title": "A股成交量年内首次破万亿，证监会换帅，大牛市或将开启！",
        "docid": "7332751964570632730",
        "url": ""
    },
    {
        "title": "废掉一个公司最快的方式：组织内耗",
        "docid": "7300774966172074523",
        "url": ""
    },
    {
        "title": "宁波富豪榜前五名揭晓，看看谁是宁波最有钱的人",
        "docid": "7329414503454671412",
        "url": ""
    },
    {
        "title": "重磅！太原地铁3号线、太原西站在列 2024年省重点工程项目名单出炉",
        "docid": "7331983343070151220",
        "url": ""
    },
    {
        "title": "中国一拖出口订单引爆海外市场，世界瞩目！",
        "docid": "7332781006619460130",
        "url": ""
    },
    {
        "title": "股市是什么？本质上是电诈园，唯一不同的是不嘎你的腰子",
        "docid": "7332788594794381851",
        "url": ""
    },
    {
        "title": "一天吃透一条产业链: NO. 6 电商",
        "docid": "7322353918288871947",
        "url": ""
    },
    {
        "title": "全球最牛公司，注册资金高达153万亿！堪比美国一年GDP，为何注销",
        "docid": "7320510728820687410",
        "url": ""
    },
    {
        "title": "Snap美股盘前大跌近33%",
        "docid": "7332783490087748146",
        "url": ""
    },
    {
        "title": "存到50万后我的消费观",
        "docid": "7308889898881253924",
        "url": ""
    },
    {
        "title": "59公里收费420元？司机：上海打车就这么贵…女子投诉后更傻眼，网友心痛：曾经的城市名片成啥样了",
        "docid": "7322735356435137074",
        "url": ""
    },
    {
        "title": "漂亮女富豪强势崛起，年仅23岁“临危受命”，如今资产超8700亿",
        "docid": "7332012165509464613",
        "url": ""
    },
    {
        "title": "看到外网的真实评价，我才知道，中国的制造实力已经今非昔比了！",
        "docid": "7332736720946872882",
        "url": ""
    },
    {
        "title": "叶檀豪宅内宴请陈行甲，两位大咖谈笑风云！后者却被骂是伪君子！",
        "docid": "7327959386860028457",
        "url": ""
    },
    {
        "title": "明确了！发放3倍工资！",
        "docid": "7317467200519832073",
        "url": ""
    },
    {
        "title": "13年前，那个捐美国7千万并叫嚣“我乐意”的中国富豪，今已破产",
        "docid": "7327854023204635199",
        "url": ""
    },
    {
        "title": "房地产公司董事长八旬老母亲冬夜露宿街头？董事长本人回应：这是作秀",
        "docid": "7332783664076128780",
        "url": ""
    },
    {
        "title": "终于，中国股市稳了！但仙股也将出现！必须清仓过春节！",
        "docid": "7332145826778726966",
        "url": ""
    },
    {
        "title": "极简生活：经济下行，请立刻停止做这16件事",
        "docid": "7315017609132130853",
        "url": ""
    },
    {
        "title": "为何总要等到千股跌停？",
        "docid": "7332688022279946779",
        "url": ""
    },
    {
        "title": "证监会主要领导调整！吴清担任证监会主席，历史数据显示证监会换帅后A股这样走",
        "docid": "7332790428053520931",
        "url": ""
    },
    {
        "title": "杭州一“包租婆”被看上，对方竟然说……",
        "docid": "7331193417453781539",
        "url": ""
    },
    {
        "title": "这回闹大了！社保窗口分多次索要证件，结果惹怒暴躁大姐拍桌质问",
        "docid": "7305364896819102227",
        "url": ""
    },
    {
        "title": "上海一身价35亿总裁假扮农民工，到工地上班第一天，差点就被开除",
        "docid": "7321918129176412681",
        "url": ""
    },
    {
        "title": "5年前买的两只基金，今天一时兴起查了一下收益，太震撼了！",
        "docid": "7327513691292058153",
        "url": ""
    },
    {
        "title": "人才，只会流向被尊重的地方",
        "docid": "7304982232404902451",
        "url": ""
    },
    {
        "title": "天呐，万万没想到富人、中产、穷人的底层区别居然这么大！",
        "docid": "7306517080327979572",
        "url": ""
    },
    {
        "title": "上海一模具公司破产，名下1547万应收款债权拍卖，被人3550元拿下",
        "docid": "7320433590398124563",
        "url": ""
    },
    {
        "title": "终于知道，为什么各地要求老破小的多层安电梯了，目的非常明确",
        "docid": "7306070812137849371",
        "url": ""
    },
    {
        "title": "男子每月仅用电40度，电力公司怀疑偷电，竟强拆他家电表",
        "docid": "7314220322793374246",
        "url": ""
    },
    {
        "title": "高速拥堵近数百里，总经理却休假？起底湖北高速大拥堵背后的企业",
        "docid": "7332650407644168715",
        "url": ""
    },
    {
        "title": "万万没想到，比买不起房更可怕的3件事，已经在各大城市蔓延",
        "docid": "7332675249634361891",
        "url": ""
    },
    {
        "title": "传广联达全员年终绩效清零 员工群情激愤",
        "docid": "7321308852384612864",
        "url": ""
    },
    {
        "title": "驾新能源车返乡热：有人靠10度电撑到充电站，有人为省时间全程换7次电池",
        "docid": "7332695010150269481",
        "url": ""
    },
    {
        "title": "韩媒：在这一领域，中国首次超过美国成为第一！",
        "docid": "7332026241291158031",
        "url": ""
    },
    {
        "title": "美国证交会新规定：专业交易员如果经常以或接近最佳可得价格买卖同一证券，则需向美国证交会注册为交易商",
        "docid": "7332504939442733595",
        "url": ""
    },
    {
        "title": "天才少年放弃200万年薪：离职华为后，每天十多个投资人找我投钱",
        "docid": "7331311601074635318",
        "url": ""
    },
    {
        "title": "再拉大差距就要出大问题了！小心一根火柴刺啦一下就点爆了",
        "docid": "7332553522279891471",
        "url": ""
    },
    {
        "title": "疯狂减持！2月7日机构“大幅减持”个股名单一览",
        "docid": "7332745981702095386",
        "url": ""
    },
    {
        "title": "杭州赶超武汉，合肥跻身前20强！“万亿城市”版图迎来大变局",
        "docid": "7332698588037923365",
        "url": ""
    },
    {
        "title": "近万元羽绒服口袋发现一块布料，加拿大鹅致歉",
        "docid": "7311475542300099109",
        "url": ""
    },
    {
        "title": "基金公司回应“ETF帮助做空市场”：转融通证券出借市值仅占A股总市值0.11%，对市场影响极为有限",
        "docid": "7330936619278746112",
        "url": ""
    },
    {
        "title": "移居美国，开豪车住豪宅，48岁的乐嘉，已经被迫走上了另一条大路",
        "docid": "7332361065575350794",
        "url": ""
    },
    {
        "title": "胡润：理想价值3310亿、小米3910亿、华为5720亿、比亚迪6880亿",
        "docid": "7330635259307983396",
        "url": ""
    },
    {
        "title": "为什么说经济萧条的本质是权贵阶级不肯让利于民？",
        "docid": "7332024611364061708",
        "url": ""
    },
    {
        "title": "1600亿！80万人口的中国最牛县城，涌入450家德企，人均GDP超上海",
        "docid": "7324625087289704975",
        "url": ""
    },
    {
        "title": "单亲妈妈的真实微信支付账单告诉你：为什么大家不敢花钱！",
        "docid": "7305564722676597300",
        "url": ""
    },
    {
        "title": "把合资车打的抱头鼠窜的新能源车，为什么在B级车市场寸步难行？",
        "docid": "7302051756735922724",
        "url": ""
    },
    {
        "title": "胖东来一件羽绒服利润仅赚3毛钱，各地都坐不住了！",
        "docid": "7331023490876867113",
        "url": ""
    },
    {
        "title": "株式会社是什么意思？为何很多日本企业，都带有这四个字？",
        "docid": "7304572202354590218",
        "url": ""
    },
    {
        "title": "全球货币支付排名:美元升至47.54％，欧元跌到22.41％，人民币呢",
        "docid": "7330145584244277810",
        "url": ""
    },
    {
        "title": "阿里宣布将股份回购计划增加250亿美元，回购总规模增至650亿美元",
        "docid": "7332822867400639028",
        "url": ""
    },
    {
        "title": "耗时三年半，基建狂魔马上要打通天山了！天山胜利隧道有多重要？",
        "docid": "7318784474357957170",
        "url": ""
    },
    {
        "title": "我们家花2600万买150平北京四合院，花450万装修，6年巨亏1000万",
        "docid": "7304267391423578660",
        "url": ""
    },
    {
        "title": "高利润闷声发财的几个小生意，不体面但很赚钱的几个行业",
        "docid": "7332258327633871395",
        "url": ""
    },
    {
        "title": "江苏浙江广东，哪个更接近发达国家水平？说几句大实话",
        "docid": "7331754730986996224",
        "url": ""
    },
    {
        "title": "顶楼好不好？我闺蜜买了顶楼，入住有两年多，来听听她说的大实话",
        "docid": "7317106050413380130",
        "url": ""
    },
    {
        "title": "第一次有人把劳务派遣和劳务外包的区别，讲的这么清楚！真的太好懂了！",
        "docid": "7310032785048388130",
        "url": ""
    },
    {
        "title": "刚刚嘲笑黑龙江的蔓越莓，结果遭到了自家背刺",
        "docid": "7321888455322092044",
        "url": ""
    },
    {
        "title": "贫困父母饿垮身体，养出了4个亿万富翁，其中2人是中国首富",
        "docid": "7325261785945408009",
        "url": ""
    },
    {
        "title": "宁可买4楼和14楼，也不要买这“4个楼层”，它们都是标准的穷人房",
        "docid": "7319384306244551183",
        "url": ""
    },
    {
        "title": "中国自动驾驶公司发送24台GPU被美国紧急拦截：怎么解释都不会放行",
        "docid": "7332460030953996839",
        "url": ""
    },
    {
        "title": "我国从朝鲜进口了什么？你可能想不到，假发占比超一半！",
        "docid": "7332659464623047194",
        "url": ""
    },
    {
        "title": "司马同志在美国的投资，到底是赚150万美元还是15万美元？",
        "docid": "7331976134701630002",
        "url": ""
    },
    {
        "title": "2023年人均GDP全国第一，城市综合实力排名第一当之无愧",
        "docid": "7332419952173105727",
        "url": ""
    },
    {
        "title": "不动产继承登记，迎来重要突破！",
        "docid": "7330839125421146674",
        "url": ""
    },
    {
        "title": "今天股市继续反弹，明天（2月8日星期四）股市还能上涨吗",
        "docid": "7332752529107010063",
        "url": ""
    },
    {
        "title": "利好来了！",
        "docid": "7332836924799123983",
        "url": ""
    },
    {
        "title": "大盘4000点也要注意防范风险的上市公司一览",
        "docid": "7331761157374083584",
        "url": ""
    },
    {
        "title": "一万公里不到500块，开一天不到20块钱！这B级插混车真省钱！",
        "docid": "7332388473074696744",
        "url": ""
    },
    {
        "title": "今天我崩溃了！",
        "docid": "7332073154661057064",
        "url": ""
    },
    {
        "title": "2024年，该“抄底买房”还是“存到银行”？内行人提醒，明白了！",
        "docid": "7330938138057097769",
        "url": ""
    },
    {
        "title": "滁州各区县2023年GDP出炉：天长拉胯、来安破400亿",
        "docid": "7330458183154254371",
        "url": ""
    },
    {
        "title": "2024年最值得办的非刚性年费白金卡汇总！",
        "docid": "7327502148458021428",
        "url": ""
    },
    {
        "title": "最近股市这个熊样！想起了华为和任正非老爷子坚持不上市。",
        "docid": "7332220557955629594",
        "url": ""
    }
]