[
    {
        "title": "水房金主“百花蛇”，曾被老大执行家法，飞黄腾达后成社团大金主",
        "docid": "7317635287466066451",
        "url": ""
    },
    {
        "title": "民间故事：男子被县官看中，却在一次考试中，遇到了作弊的对手",
        "docid": "7317567323521630760",
        "url": ""
    },
    {
        "title": "民间故事：女子肚子疼，郎中拿出绳子，丈夫见状忍气吞声",
        "docid": "7317625539425845823",
        "url": ""
    },
    {
        "title": "我三本毕业后到新疆当了老师，娶了维族同事当老婆，感觉像做梦",
        "docid": "7317403394954691110",
        "url": ""
    },
    {
        "title": "多年不联系的老领导借住我家15天，临走前再三叮嘱我冰箱有东西",
        "docid": "7298188235508010582",
        "url": ""
    },
    {
        "title": "民间故事：剑士夜半舞剑，听见有人敲门打开门，门前三只白刺猬",
        "docid": "7317592679058047539",
        "url": ""
    },
    {
        "title": "和胜和“崩嘴崩”，因长相奇丑无比遭人歧视，一番奇遇成社团坐馆",
        "docid": "7317650202969145892",
        "url": ""
    },
    {
        "title": "我是兽人王族最出色的继承者 执意嫁与人族太子为妻 最后却被他杀死",
        "docid": "7317602823800193571",
        "url": ""
    },
    {
        "title": "姐姐说他居然肯为我煮白粥，这才是有家的感觉（已完结）",
        "docid": "7316542496531087923",
        "url": ""
    },
    {
        "title": "志怪故事：塾师遭戏侮",
        "docid": "7317644325473878540",
        "url": ""
    },
    {
        "title": "我是天生魔体 可万剑宗的人却强行把我带走 我被削去魔骨 万劫不复",
        "docid": "7317549971782664741",
        "url": ""
    },
    {
        "title": "他是千万富翁，被骗到比缅甸更可怕的地方，为逃离从三楼一跃而下",
        "docid": "7317659754397057599",
        "url": ""
    },
    {
        "title": "民间故事：误闯黑熊巢穴",
        "docid": "7317561782787523072",
        "url": ""
    },
    {
        "title": "深渊II（163）日本鬼子石原的真实身份，还有那段不为人知的秘密",
        "docid": "7287748670408589859",
        "url": ""
    },
    {
        "title": "新潮·每日一读｜生命中的灯光",
        "docid": "7317652931380118043",
        "url": ""
    },
    {
        "title": "赵马列",
        "docid": "7317440053431599670",
        "url": ""
    },
    {
        "title": "女儿为她买一个榴莲，她给儿媳送去，看到门口垃圾袋，她转身下楼",
        "docid": "7316675683110142503",
        "url": ""
    },
    {
        "title": "民间故事：女子为孝敬公婆，不惜卖掉头发，却被公婆嫌弃",
        "docid": "7317571341014614580",
        "url": ""
    },
    {
        "title": "文学｜冬天该有的样子",
        "docid": "7317577546692903458",
        "url": ""
    },
    {
        "title": "来果禅师的徒弟净参法师：19岁无疾而终，圆寂后离奇又有趣的故事",
        "docid": "7298690324934033972",
        "url": ""
    },
    {
        "title": "浅谈新义安屯门内讧：利益面前同门相残，掀起江湖腥风血雨",
        "docid": "7317664491008197139",
        "url": ""
    },
    {
        "title": "民间故事(真假状元)",
        "docid": "7308277342714102298",
        "url": ""
    },
    {
        "title": "三本穿越小说！廖停雁 一个刚入门的弟子竟然降服了大魔头师祖！",
        "docid": "7317662254416134656",
        "url": ""
    },
    {
        "title": "神秘的石头村",
        "docid": "7317293906276909605",
        "url": ""
    },
    {
        "title": "那年相遇在农村豆腐作坊，我12岁，她18岁，没想到多年后她嫁给我",
        "docid": "7287001503699649079",
        "url": ""
    },
    {
        "title": "未婚夫从战场上失踪 我接过帅印上了战场 得胜那天 他却揽着新欢出现",
        "docid": "7317609195552014900",
        "url": ""
    },
    {
        "title": "1周前，再婚老伴的女儿来看我，她离开后，我收到了银行的短信",
        "docid": "7291628257588347430",
        "url": ""
    },
    {
        "title": "民间故事：男子归家客栈老板出主意，十两鬼抬轿，佯醉壮胆大闹",
        "docid": "7317592089380831759",
        "url": ""
    },
    {
        "title": "她遭恶毒女设计，被迫沉沦，无助时遇到他，从此不在中枪",
        "docid": "7317479622978011689",
        "url": ""
    },
    {
        "title": "古风故事：一晚春（下）",
        "docid": "7316853622824878627",
        "url": ""
    },
    {
        "title": "《神隐》凤隐跟鸿奕大婚当天，元启到底做了什么，让三界哗然？",
        "docid": "7316112952325702184",
        "url": ""
    },
    {
        "title": "和胜和坐馆ETB，靠偷靠抢发家致富，因利益与同门师弟血溅街头",
        "docid": "7317663740433629759",
        "url": ""
    },
    {
        "title": "著名画家戴敦邦先生的聊斋题材连环画作品《胭脂》欣赏",
        "docid": "7317492447885460008",
        "url": ""
    },
    {
        "title": "《恕·过》",
        "docid": "7317673660037333543",
        "url": ""
    },
    {
        "title": "他人称草原狼王「和亲草原之后」认定要她做他的金丝雀",
        "docid": "7317665440951288354",
        "url": ""
    },
    {
        "title": "驸马在外头养了个非比寻常的妓子，这妓子会造火枪、炼细盐",
        "docid": "7317594380666782208",
        "url": ""
    },
    {
        "title": "生与死的边界",
        "docid": "7307562912913146402",
        "url": ""
    },
    {
        "title": "一位寺院住持和500多位癌症患者的“生死之交” | 真实故事",
        "docid": "7317274173485924915",
        "url": ""
    },
    {
        "title": "正在创作的恐怖故事",
        "docid": "7317105940669760019",
        "url": ""
    },
    {
        "title": "我带智力残障的妹妹逃婚",
        "docid": "7287422268349776423",
        "url": ""
    },
    {
        "title": "大王请郎中看病，不料他在药里下毒，郎中：别怪我，有人盼你早死",
        "docid": "7317440754748768820",
        "url": ""
    },
    {
        "title": "【夜读 · 散文】那年，高考成绩放榜后",
        "docid": "7317628102778454554",
        "url": ""
    },
    {
        "title": "民间故事：柴夫上山捡柴，遇母蛇挂树梢上三炷香，隔日门前堆黄金",
        "docid": "7317592015389245952",
        "url": ""
    },
    {
        "title": "女作家去做保姆——雇主又没走（904）",
        "docid": "7317550972250358282",
        "url": ""
    },
    {
        "title": "千帆过尽仍是你（全集）",
        "docid": "7317431454961664552",
        "url": "https://www.ixigua.com/7317431454961664552"
    },
    {
        "title": "《将夜》 人物志：莫山山3，莫山山大战观主。块垒大阵。#玄幻",
        "docid": "7307925349545968182",
        "url": "https://www.ixigua.com/7307925349545968182"
    },
    {
        "title": "乞丐好心安葬骨灰坛，小女鬼报恩，助他走上人生巅峰",
        "docid": "7309471197618995722",
        "url": "https://www.ixigua.com/7309471197618995722"
    },
    {
        "title": "《将夜》62：三师姐联合大师兄力战观主，依旧惨败幸亏皮皮救场",
        "docid": "7289790678861939240",
        "url": "https://www.ixigua.com/7289790678861939240"
    },
    {
        "title": "道士：很怕算出不该知道的事…",
        "docid": "7316863169438646820",
        "url": "https://www.ixigua.com/7316863169438646820"
    },
    {
        "title": "我攻略暴君三载 好感度才突破三十五 这丫自幼孤苦 疑心病极重",
        "docid": "7317595454751916594",
        "url": ""
    },
    {
        "title": "徐凤年再得呵呵姑娘相救，还得到了邓太阿的飞剑传承#雪中悍刀行",
        "docid": "7284569758932926987",
        "url": "https://www.ixigua.com/7284569758932926987"
    },
    {
        "title": "天庭的二十八星宿中，法力最强的五位星宿，就连孙悟空也畏惧三分",
        "docid": "7307430499511697983",
        "url": "https://www.ixigua.com/7307430499511697983"
    },
    {
        "title": "一桩绝命奇案，一段诡谲往事",
        "docid": "7317479375564505615",
        "url": "https://www.ixigua.com/7317479375564505615"
    },
    {
        "title": "隋唐人物志：盖苏文实力如何？三战薛仁贵，飞刀绝技难逢敌手！",
        "docid": "7290508775164183095",
        "url": "https://www.ixigua.com/7290508775164183095"
    },
    {
        "title": "老英雄李安甫，令日本鬼子闻风丧胆的最强刺客。",
        "docid": "7313513297297277475",
        "url": "https://www.ixigua.com/7313513297297277475"
    },
    {
        "title": "古典第一美女的魅力有多大？凭借其绝世容颜，毁掉两大顶级豪门！",
        "docid": "7303059438263337498",
        "url": "https://www.ixigua.com/7303059438263337498"
    },
    {
        "title": "陕西三原：三个恶魔，简直是罄竹难书#我的观影报告",
        "docid": "7303824266779329064",
        "url": "https://www.ixigua.com/7303824266779329064"
    },
    {
        "title": "大秦创业史（11）嬴政：“我这是命里犯爹吗？”",
        "docid": "7291949574338544164",
        "url": "https://www.ixigua.com/7291949574338544164"
    },
    {
        "title": "纣王的实力有多强？二郎神杨戬近不了身，力大无穷用石柱杀人",
        "docid": "7293808155102970409",
        "url": "https://www.ixigua.com/7293808155102970409"
    },
    {
        "title": "河北籍一老一少遭饿狼围困木棚多日，后倚仗功夫猎狼而食，以自救",
        "docid": "7317506345924624950",
        "url": ""
    },
    {
        "title": "山东47岁老汉，扫马路时捡回家一弃婴，18年后女儿报养父母恩",
        "docid": "7317051928565908006",
        "url": ""
    },
    {
        "title": "世相丨“三根葱”，爆炒出人生的悠香",
        "docid": "7293455940819436042",
        "url": ""
    },
    {
        "title": "（依依古村里）意译古村遇黄田",
        "docid": "7317639976240464396",
        "url": ""
    },
    {
        "title": "这才是恶魔撒旦的真正模样？！",
        "docid": "7290905426437079571",
        "url": "https://www.ixigua.com/7290905426437079571"
    },
    {
        "title": "曹操斩杀吕布后，貂蝉去了什么地方？她最终的结局又如何呢？",
        "docid": "7289027023560213033",
        "url": "https://www.ixigua.com/7289027023560213033"
    },
    {
        "title": "隋唐人物志：薛仁贵麾下的十大战将，八大总兵，你知道都有谁？",
        "docid": "7291998665038955019",
        "url": "https://www.ixigua.com/7291998665038955019"
    },
    {
        "title": "司机大叔沉迷白嫖无法自拔，站街小姐接连遇害悬疑重重！",
        "docid": "7317418210125414951",
        "url": "https://www.ixigua.com/7317418210125414951"
    },
    {
        "title": "【天涯神贴】扒一扒四十年未破的悬案！",
        "docid": "7312996103811990028",
        "url": "https://www.ixigua.com/7312996103811990028"
    },
    {
        "title": "封神中有3大天下无敌的凡人，大罗金仙见了都要退避三舍！",
        "docid": "7291592473846284863",
        "url": "https://www.ixigua.com/7291592473846284863"
    },
    {
        "title": "20年前，儿子想跟我睡，被我拒绝，谁知他当晚就失踪了，杳无音信",
        "docid": "7317196378021839375",
        "url": ""
    },
    {
        "title": "民间故事：长工夜里扫庭院，听见身后传来声音，回头见三盏红灯笼",
        "docid": "7317591170690187788",
        "url": ""
    },
    {
        "title": "民间故事：马师路边捡到小孩，谁知旁边有神骏守护，道：要留哪个",
        "docid": "7317564200363278874",
        "url": ""
    },
    {
        "title": "八仙中最神秘的蓝采和，到底是男是女？他自己一不小心说漏了嘴！",
        "docid": "7301223560566342182",
        "url": "https://www.ixigua.com/7301223560566342182"
    },
    {
        "title": "狮子张之维和老鼠“张”怀义~",
        "docid": "7313863265426244107",
        "url": "https://www.ixigua.com/7313863265426244107"
    },
    {
        "title": "和尚把头伸进了门缝里下一秒变成了青蛙",
        "docid": "7288993794010284605",
        "url": "https://www.ixigua.com/7288993794010284605"
    },
    {
        "title": "徐凤年的六个师傅，各个都是人中龙凤，#雪中悍刀行 #徐凤年",
        "docid": "7288314825095152169",
        "url": "https://www.ixigua.com/7288314825095152169"
    },
    {
        "title": "神秘山洞发现白衣女子，23天未进食，她是靠什么活下来的？",
        "docid": "7306812598085747200",
        "url": "https://www.ixigua.com/7306812598085747200"
    },
    {
        "title": "我用最后一口气，带你们了解遮天三部曲故事线 #辰东小说 #荒天帝",
        "docid": "7298674374993936908",
        "url": "https://www.ixigua.com/7298674374993936908"
    },
    {
        "title": "我的太奶佛缘极深#民间故事 #抖音故事 #悬疑",
        "docid": "7317467731073499658",
        "url": "https://www.ixigua.com/7317467731073499658"
    },
    {
        "title": "《福泽黑棺》下元节这天我为爷爷接生，一口黑棺却出现在家中",
        "docid": "7303223453555884571",
        "url": "https://www.ixigua.com/7303223453555884571"
    },
    {
        "title": "#武侠 童家的法术与龙神功相结合，就会一念成神，一念成魔！",
        "docid": "7285674761311650361",
        "url": "https://www.ixigua.com/7285674761311650361"
    },
    {
        "title": "专修“邪”术增强道义，狠辣程度远超茅山术，闾山派为何如此霸道",
        "docid": "7302001930438443547",
        "url": "https://www.ixigua.com/7302001930438443547"
    },
    {
        "title": "少年误吞火龙珠遇水化龙奔向大海，回首眺望母亲形成24个望娘滩",
        "docid": "7310510895401173519",
        "url": "https://www.ixigua.com/7310510895401173519"
    },
    {
        "title": "无天都看不透双塔寺舍利真相，为何孙悟空却能？你看他的前世是谁",
        "docid": "7301615492396286474",
        "url": "https://www.ixigua.com/7301615492396286474"
    },
    {
        "title": "大名鼎鼎的光武帝也不敢违背洛水之誓",
        "docid": "7290494032923820600",
        "url": "https://www.ixigua.com/7290494032923820600"
    },
    {
        "title": "1927年民国时期，上海私塾语文老师用方言讲课真实影像，令人回味",
        "docid": "7306692246697738806",
        "url": "https://www.ixigua.com/7306692246697738806"
    },
    {
        "title": "笑三笑为啥不出面收拾帝释天，还放任帝释天夺取龙元提升实力呢？",
        "docid": "7294174810685309490",
        "url": "https://www.ixigua.com/7294174810685309490"
    },
    {
        "title": "四大菩萨都有坐骑，那如来佛祖的坐骑是啥？为何从不见他乘坐出门",
        "docid": "7287032114271715874",
        "url": "https://www.ixigua.com/7287032114271715874"
    },
    {
        "title": "隋唐人物志：东辽第一绝色梅月英实力如何？蜈蚣阵曾咬伤薛仁贵！",
        "docid": "7290509329583899155",
        "url": "https://www.ixigua.com/7290509329583899155"
    },
    {
        "title": "男人抢走乞丐一文钱，岂料竟被妈祖施下诅咒，让他眼迷遭鬼火缠身",
        "docid": "7290833375139627556",
        "url": "https://www.ixigua.com/7290833375139627556"
    },
    {
        "title": "医院怪谈：第二集手冢中",
        "docid": "7317503134568284735",
        "url": "https://www.ixigua.com/7317503134568284735"
    },
    {
        "title": "洪荒八祖分别都是谁？一位是天道圣人鸿钧，另一位是魔界之祖罗睺",
        "docid": "7287759194902495763",
        "url": "https://www.ixigua.com/7287759194902495763"
    },
    {
        "title": "一株断肠草，隐藏着一桩曲折的农村奇案",
        "docid": "7287801448614756916",
        "url": "https://www.ixigua.com/7287801448614756916"
    },
    {
        "title": "全世界神秘组织揭秘—『共济会』",
        "docid": "7293534604747932187",
        "url": "https://www.ixigua.com/7293534604747932187"
    },
    {
        "title": "这个故事告诉我们",
        "docid": "7317678524394013222",
        "url": "https://www.ixigua.com/7317678524394013222"
    },
    {
        "title": "《万道龙皇》全集1-141集大结局抢先看一口气看完全集大结局",
        "docid": "7317548045627982373",
        "url": "https://www.ixigua.com/7317548045627982373"
    },
    {
        "title": "一个农村女人如何让全村人，不惜触犯法律，坚持四年保守一个秘密",
        "docid": "7309693615524348479",
        "url": "https://www.ixigua.com/7309693615524348479"
    },
    {
        "title": "透彻解说《盗墓笔记》全系列故事线01： 世界的终极来自天外！",
        "docid": "7295629198843249167",
        "url": "https://www.ixigua.com/7295629198843249167"
    },
    {
        "title": "荷塘月色",
        "docid": "7317660938658972212",
        "url": "https://www.ixigua.com/7317660938658972212"
    },
    {
        "title": "我组局儿给海归同学接风，席间9个同学撤了7个，同窗情已不再本真",
        "docid": "7298810572752251134",
        "url": ""
    },
    {
        "title": "农村弟弟来送红薯，嫂子嫌弃转送给邻居，打开袋子后邻居赶紧送回",
        "docid": "7298074886730157333",
        "url": ""
    },
    {
        "title": "女人抛夫弃子18年，老了回来发现丈夫娶新妻，儿子房产都成别人的",
        "docid": "7298053857438835388",
        "url": ""
    },
    {
        "title": "原来西方就只有一个神明！",
        "docid": "7317522560390791716",
        "url": "https://www.ixigua.com/7317522560390791716"
    },
    {
        "title": "第2集丨《冥婚》切勿封建迷信",
        "docid": "7317545991971078706",
        "url": "https://www.ixigua.com/7317545991971078706"
    },
    {
        "title": "沈姐说祖父沈梦莲曾是上海滩青帮大佬，是杜月笙和黄金荣的大哥",
        "docid": "7307882684079211062",
        "url": "https://www.ixigua.com/7307882684079211062"
    },
    {
        "title": "几百万东北人集体下岗，几代人最不愿回忆的经历，被真实搬上屏幕",
        "docid": "7291227309376619027",
        "url": "https://www.ixigua.com/7291227309376619027"
    },
    {
        "title": "总有一些事，超出我们的想象",
        "docid": "7286478472661336587",
        "url": "https://www.ixigua.com/7286478472661336587"
    },
    {
        "title": "男子被好哥们和妻子合谋骗了两年，杀害了哥们后，最终和妻子和解",
        "docid": "7314229038069842443",
        "url": "https://www.ixigua.com/7314229038069842443"
    },
    {
        "title": "连玉帝都不怕的无天，为何百般提防四海龙王？他在害怕什么？",
        "docid": "7302360580214653480",
        "url": "https://www.ixigua.com/7302360580214653480"
    },
    {
        "title": "报城东书",
        "docid": "7317746592881361435",
        "url": ""
    },
    {
        "title": "六十年代我经历:一把米一条命，为一包饼干上演螳螂捕蝉黄雀在后",
        "docid": "7316035900809593355",
        "url": ""
    },
    {
        "title": "民间故事：勤劳的农夫得到金锄头，却被邻居嫉妒，想方设法抢走",
        "docid": "7317574340030579234",
        "url": ""
    },
    {
        "title": "玛雅人的祭祀有多残暴",
        "docid": "7309692513022181938",
        "url": "https://www.ixigua.com/7309692513022181938"
    },
    {
        "title": "十里坡剑神（五）",
        "docid": "7317704810575168040",
        "url": "https://www.ixigua.com/7317704810575168040"
    },
    {
        "title": "平生不识奥德彪哪有资格吃香蕉#奥德彪#纪录片#非洲生活",
        "docid": "7301623090243437068",
        "url": "https://www.ixigua.com/7301623090243437068"
    },
    {
        "title": "洪荒故事，无尽世界，仙凡冥灵，一曲守护与大爱的辽阔历程！",
        "docid": "7317656845051658804",
        "url": "https://www.ixigua.com/7317656845051658804"
    },
    {
        "title": "反向成爹#小说推荐 #漫画界说 #二次元",
        "docid": "7284581712166650409",
        "url": "https://www.ixigua.com/7284581712166650409"
    },
    {
        "title": "东北诡异",
        "docid": "7317472647879590452",
        "url": "https://www.ixigua.com/7317472647879590452"
    },
    {
        "title": "《西游记后传》无天的灭世黑莲",
        "docid": "7290750932013449768",
        "url": "https://www.ixigua.com/7290750932013449768"
    },
    {
        "title": "爱在逃亡中",
        "docid": "7317553835369759259",
        "url": ""
    },
    {
        "title": "《黑神团子》",
        "docid": "7315308410331726355",
        "url": "https://www.ixigua.com/7315308410331726355"
    },
    {
        "title": "《星依耀存》“爱是自由意志的沉沦”呜呜呜 哭死了 #虐心",
        "docid": "7317475266337440271",
        "url": "https://www.ixigua.com/7317475266337440271"
    },
    {
        "title": "在丈夫身边被小偷占了便宜",
        "docid": "7317545700311433728",
        "url": "https://www.ixigua.com/7317545700311433728"
    },
    {
        "title": "女狠人录—哈尔滨狠人下",
        "docid": "7294626234234110515",
        "url": "https://www.ixigua.com/7294626234234110515"
    },
    {
        "title": "潮汕故事",
        "docid": "7317718927688073755",
        "url": "https://www.ixigua.com/7317718927688073755"
    },
    {
        "title": "奇迹女孩和甘蔗地里的小土堆，两个真实的黑暗故事。",
        "docid": "7316822469267063311",
        "url": "https://www.ixigua.com/7316822469267063311"
    },
    {
        "title": "神秘喇嘛来到村庄之后，村里孩子接连离奇身亡，只因被喇嘛摸过头",
        "docid": "7299070116615062025",
        "url": "https://www.ixigua.com/7299070116615062025"
    },
    {
        "title": "《百年孤独》文学片段",
        "docid": "7308996364728435212",
        "url": "https://www.ixigua.com/7308996364728435212"
    },
    {
        "title": "云南深山发现珍贵顽石，不但水火不侵，周围还有灵蛇守护？",
        "docid": "7311262625860911627",
        "url": "https://www.ixigua.com/7311262625860911627"
    },
    {
        "title": "夜半歌声，爱与恨的交织",
        "docid": "7317620523750883849",
        "url": "https://www.ixigua.com/7317620523750883849"
    },
    {
        "title": "左若童的死让无根生悟出逆生的核心，造出了有仙人之资的冯宝宝！",
        "docid": "7317124434748408372",
        "url": "https://www.ixigua.com/7317124434748408372"
    },
    {
        "title": "神尊看不起少年，不料下一秒被少年实力惊呆 #沧元图 #抖音热点",
        "docid": "7291494246928876071",
        "url": "https://www.ixigua.com/7291494246928876071"
    },
    {
        "title": "傀儡-4（完）",
        "docid": "7317538702379778579",
        "url": "https://www.ixigua.com/7317538702379778579"
    },
    {
        "title": "【#暗黑异能 】当神秘的十大元素降临世间",
        "docid": "7308308446992925222",
        "url": "https://www.ixigua.com/7308308446992925222"
    },
    {
        "title": "华夏随机互关朝代， 实现全球大一统！ #玄幻 #小说",
        "docid": "7307564428613190184",
        "url": "https://www.ixigua.com/7307564428613190184"
    },
    {
        "title": "母爱真是伟大，九尾白狐为了保护儿子自断尾巴",
        "docid": "7286793749785641487",
        "url": "https://www.ixigua.com/7286793749785641487"
    },
    {
        "title": "《算命师的鬼压床》第一章",
        "docid": "7317599600272114202",
        "url": "https://www.ixigua.com/7317599600272114202"
    },
    {
        "title": "被毁的童话书",
        "docid": "7317526142523540007",
        "url": "https://www.ixigua.com/7317526142523540007"
    },
    {
        "title": "《四娃降临》7分50秒续前章",
        "docid": "7317513545070707263",
        "url": "https://www.ixigua.com/7317513545070707263"
    },
    {
        "title": "避免激进主义。这次我支持老胡。",
        "docid": "7317171078089196067",
        "url": ""
    },
    {
        "title": "瞒着我妈给了奶奶1000元，可听了10岁侄子的话后，我立马折了回去",
        "docid": "7317772671595315746",
        "url": ""
    },
    {
        "title": "在出差的列车上，我和一名美丽的少妇，发生了一场幸福邂逅",
        "docid": "7298608329672199001",
        "url": ""
    },
    {
        "title": "王爷有读心术后，发现王妃想搞死他",
        "docid": "7317587956209418761",
        "url": ""
    },
    {
        "title": "亲戚一家在我家吃住1周，临走塞给我200，我摇摇头，让她留下西瓜",
        "docid": "7317770617271599651",
        "url": ""
    },
    {
        "title": "自从患病子女借口忙工作无人照顾后，他住进疗养院再也没有回过家",
        "docid": "7317775975536722466",
        "url": ""
    },
    {
        "title": "连环画：狄仁杰传奇故事之《黑狐狸》1986年贵州美版·横屏",
        "docid": "7317638978537767476",
        "url": ""
    },
    {
        "title": "民间故事：一个生活在重男轻女的家庭，她却美丽善良最终幸福美满",
        "docid": "7290231823597208075",
        "url": "https://www.ixigua.com/7290231823597208075"
    },
    {
        "title": "小伙一觉醒来，多了超前20多年的记忆，利用信息差发家致富.",
        "docid": "7317708010485187084",
        "url": "https://www.ixigua.com/7317708010485187084"
    },
    {
        "title": "我曾被同学排队扇耳光，我三叔当着欺凌者的面，几刀砍翻了他父亲",
        "docid": "7298580855027930173",
        "url": ""
    },
    {
        "title": "原来她早已离世，自己定墓园和寿衣，3200万遗产全给姐姐",
        "docid": "7291193012896694824",
        "url": ""
    },
    {
        "title": "一看就不是广东的，人情世故你看懂了吗？",
        "docid": "7317309613911704102",
        "url": ""
    },
    {
        "title": "表妹碎碎念：我干了一件蠢事，我真的承认自己脑子有病了",
        "docid": "7316387905189446159",
        "url": ""
    },
    {
        "title": "你知道医院的实习生摇人能力有多强吗？",
        "docid": "7315331259075494434",
        "url": ""
    },
    {
        "title": "什么是“血浓于水”，看完涨知识了。",
        "docid": "7317657166100496906",
        "url": ""
    },
    {
        "title": "骆驼祥子：祥子被引诱染病，想再寻小福子已人去楼空",
        "docid": "7311211561924968975",
        "url": ""
    },
    {
        "title": "刚刚从天津回来，被坑了两次，千万不要相信网上说的",
        "docid": "7315292918699524671",
        "url": ""
    },
    {
        "title": "我67岁，退休金6千，去看望生病的好友后，我果断拿回了工资卡",
        "docid": "7298748320086050211",
        "url": ""
    },
    {
        "title": "大学生买水果以为占便宜了，其实被卖水果的套路了，您看懂了吗",
        "docid": "7295603933358228022",
        "url": ""
    },
    {
        "title": "回家参加发小葬礼，遇到了另一个多年不见的发小，我做了个决定",
        "docid": "7310044511017927194",
        "url": ""
    },
    {
        "title": "我，35岁东北女孩，放弃北京户口到英国教中国舞，老外说我是仙女",
        "docid": "7311099182675395082",
        "url": ""
    },
    {
        "title": "民间故事：黑店",
        "docid": "7293748211310232104",
        "url": ""
    },
    {
        "title": "“先进”父亲打孩子没轻重，四个儿子打残仨，看他们如今过成啥样",
        "docid": "7298850126369249372",
        "url": ""
    },
    {
        "title": "陕西小伙11年前，为100万去伊拉克当雇佣兵，如今他回来了！",
        "docid": "7293853251810804265",
        "url": ""
    },
    {
        "title": "当了七年小三，我挺着肚子逼走原配的那一刻，我才明白输的人是我",
        "docid": "7298941082576233973",
        "url": ""
    },
    {
        "title": "《知否》刷了100遍淑兰和离，才明白为什么要分一半嫁妆给孙秀才",
        "docid": "7289724342680814132",
        "url": ""
    },
    {
        "title": "儿媳：喂完孩子只剩半碗凉饭，一生气点700块钱外卖吃一半扔一半",
        "docid": "7303466916667015716",
        "url": ""
    },
    {
        "title": "短小说：马局长的牙哪去了",
        "docid": "7313840828160885274",
        "url": ""
    },
    {
        "title": "长江捞尸人自述：尸臭一生洗不掉，三种尸体绝对不能打捞",
        "docid": "7288493962296394274",
        "url": ""
    },
    {
        "title": "弟弟“陪伴”姐姐6年，花了她60万",
        "docid": "7311574729029141018",
        "url": ""
    },
    {
        "title": "民间故事：村子大旱三十年，老道士路过，从枯井中钓出一条巨蟒",
        "docid": "7288260917358281235",
        "url": ""
    },
    {
        "title": "四川小伙扬言去巴西赚100万，出国后人间蒸发，再见时沦为乞丐？",
        "docid": "7315315896066097727",
        "url": ""
    },
    {
        "title": "我到富得流油的迪拜，当七星级酒店管家，被顾客甩一沓钱，吓哭了",
        "docid": "7316142256623534627",
        "url": ""
    },
    {
        "title": "阿肌苏丸到底有多脏？莲心被折磨的苦不堪言，渣龙一听当场暴怒",
        "docid": "7305198417234706996",
        "url": ""
    },
    {
        "title": "民间故事：肮脏的神仙",
        "docid": "7317121129594995241",
        "url": ""
    },
    {
        "title": "91年我考上大学，我姐中专毕业。30年后，我俩生活千差万别！",
        "docid": "7314224659879199268",
        "url": ""
    },
    {
        "title": "水房摄政王高佬发，摆平刘嘉玲录像事件，解决邓永祥遗产争夺战",
        "docid": "7317131475831276044",
        "url": ""
    },
    {
        "title": "我爸：你妈妈是我打架赢回来的 跟谁打架？你姥爷呗！",
        "docid": "7316817948142830099",
        "url": ""
    },
    {
        "title": "兰闺喜事：董小小一句话揭开春锦荣三十未嫁却从不自轻的真相！",
        "docid": "7285887635590038035",
        "url": ""
    },
    {
        "title": "驮唐僧完成取经后，白龙马第一时间跳了化龙池，如果不跳会怎样？",
        "docid": "7309421860058792458",
        "url": ""
    },
    {
        "title": "76岁男子相亲65岁女子，女子想要同居住江景房，跟男子散步江边",
        "docid": "7317786931641811508",
        "url": ""
    },
    {
        "title": "活了50岁，才知道辛苦为子女做的一切都是白费",
        "docid": "7301891536948970024",
        "url": ""
    },
    {
        "title": "《为有暗香来》番外7：新婚后，家主还过着欲求不满的日子！",
        "docid": "7299821533864755746",
        "url": ""
    },
    {
        "title": "“孙女，我手术欠30万，你拿钱买新车？”“别乱叫，我是野种”",
        "docid": "7298961664253136948",
        "url": ""
    },
    {
        "title": "大学老师和他的懒笨老婆：老公爱回我娘家，和他吵了22年，没用",
        "docid": "7299978991585362458",
        "url": ""
    },
    {
        "title": "老同事办完了交接手续，二话没说就冲着公司的微波炉走过去",
        "docid": "7317803528469168649",
        "url": ""
    },
    {
        "title": "小时候大舅接我放学，我天天给娘告状：大舅骑车慢老师都追上来了",
        "docid": "7310106888874607145",
        "url": ""
    },
    {
        "title": "时迁盗墓：拜师学艺",
        "docid": "7314855764362052134",
        "url": ""
    },
    {
        "title": "光棍门前的一副对联，上联：一人一屋一只鸡，下联不仅绝望还扎心",
        "docid": "7314647960850416169",
        "url": ""
    },
    {
        "title": "监狱中的女人需要怎么办？一位服刑多年的女人的真实自述",
        "docid": "7317177622352609846",
        "url": ""
    },
    {
        "title": "我见过活得最通透的人，大概就是我叔这样的：不作死也不追求长寿",
        "docid": "7309708115107299850",
        "url": ""
    },
    {
        "title": "万古神帝(张若尘)第4155章 伏击无形，天下震动",
        "docid": "7317683103366119972",
        "url": ""
    },
    {
        "title": "故事：23岁女大学生独闯无人区冒险，遭遇狼群攻击，最终命丧高原",
        "docid": "7309823694527037992",
        "url": ""
    },
    {
        "title": "我65岁存款80万，一次聚餐儿媳对我说滚出去！我向儿子揭露真相",
        "docid": "7316772949141422655",
        "url": ""
    },
    {
        "title": "1993年，浙江女孩救助3名小乞丐，20年后亿万富翁携100万报答恩人",
        "docid": "7287206884099326522",
        "url": ""
    },
    {
        "title": "俺要是输给你就嫁给你当老婆，你要是输给俺就嫁给俺当男人",
        "docid": "7309430785269318185",
        "url": ""
    },
    {
        "title": "民间故事：爷爷入土时，三岁孙子对着棺材撒尿，道士：这孙子命好",
        "docid": "7285121177176769039",
        "url": ""
    },
    {
        "title": "父母不到60患癌去世，我在3年没住人老屋住了一晚，梦里团圆欢笑",
        "docid": "7302747793201070632",
        "url": ""
    },
    {
        "title": "我51岁，丈夫走了，留下不少存款。女婿提议，他父亲来照顾我",
        "docid": "7298305345290179553",
        "url": ""
    },
    {
        "title": "河北“女懒虫”吴桂英，15岁因哥哥两巴掌瘫20年，外甥女：装的",
        "docid": "7317560892441723446",
        "url": ""
    },
    {
        "title": "过年之后才明白，兄弟姐妹关系再好，也要留一手",
        "docid": "7317034873351406095",
        "url": ""
    },
    {
        "title": "民间故事：老汉买下凶宅，立刻砍下院内七棵柳树，却因此得了善报",
        "docid": "7302361998820983306",
        "url": ""
    },
    {
        "title": "“3套房给孙子，50万给外孙”老伴宣布完财产分配，咱被女婿送走",
        "docid": "7298762839291707322",
        "url": ""
    },
    {
        "title": "父亲的葬礼来了一百多个战友，谁都没随礼就匆匆离开，很快我懂了",
        "docid": "7298128368932993290",
        "url": ""
    },
    {
        "title": "河南50岁光棍为养大弃婴，白天搬砖晚上捡破烂，女孩用千万元报恩",
        "docid": "7316827229202203188",
        "url": ""
    },
    {
        "title": "父亲病故前，见了当年的“情人”，在回来的路上，他说死而无憾了",
        "docid": "7314489600481837607",
        "url": ""
    },
    {
        "title": "射雕中东邪横空出世，他武功出处在哪？得从消失的慕容世家找原因",
        "docid": "7317566108251800098",
        "url": ""
    },
    {
        "title": "民间故事：木匠上梁吐了一口痰，财主看见脏东西，高人：心太脏了",
        "docid": "7309853345693696564",
        "url": ""
    },
    {
        "title": "20岁小伙劳改12年里，爱上女教官，女教官的做法让他改变了命运",
        "docid": "7290130205757588029",
        "url": ""
    },
    {
        "title": "臧天朔带女徒弟演出，得罪贼王张子强，何鸿燊出面你看咋解决的",
        "docid": "7317670314958471721",
        "url": ""
    },
    {
        "title": "瞅这架势！又是一位在网吧叱咤风云的大神，要遭受一顿皮肉之苦",
        "docid": "7316787003696677388",
        "url": ""
    },
    {
        "title": "非常经典，人才啊，太佩服了，算得好准，真的回味无穷，值得细品",
        "docid": "7297943795873104395",
        "url": ""
    },
    {
        "title": "同学聚会都是我买单，生病住院后他们却集体沉默，我解散了同学群",
        "docid": "7317801258600628788",
        "url": ""
    },
    {
        "title": "散文:红梅花开花映霞，流苏盛放盛流年。",
        "docid": "7317583087427666451",
        "url": ""
    },
    {
        "title": "同事59岁工资7千，差10天退休，昨晚突然去世了，儿子后悔莫及",
        "docid": "7317807855371911714",
        "url": ""
    },
    {
        "title": "相亲相到女魔头；我刚想逃走，她大喝一声：坐下",
        "docid": "7315182444846596634",
        "url": ""
    },
    {
        "title": "故事：老妇去世后，阎罗王让她投胎做大小姐，老妇:我想做一条狗",
        "docid": "6793858088337146380",
        "url": ""
    },
    {
        "title": "我，24岁到伊朗修机械，当地民众素质不高，50万的钻头一次丢5个",
        "docid": "7301317196163203599",
        "url": ""
    },
    {
        "title": "民国农村奇案：新郎结婚第四天突然跳河，作案者手段让人叹为观止",
        "docid": "7317806453027471906",
        "url": ""
    },
    {
        "title": "明代一商人破伞被偷，伞柄暗藏巨额银票，他用一招让小偷主动归还",
        "docid": "7317239767497261568",
        "url": ""
    },
    {
        "title": "母亲给她定亲，她说：我不做小妾！见到男子后，她却改了口：我嫁",
        "docid": "7317557849725616690",
        "url": ""
    },
    {
        "title": "人间长长短短，张三缝缝补补",
        "docid": "7290168074865574457",
        "url": ""
    },
    {
        "title": "房子租给房客15年，我200万卖掉房子，她索要20万，否则就去告我",
        "docid": "7317553435791147558",
        "url": ""
    },
    {
        "title": "故事连环画：《万年人参果》河北版西游记 经典精品缺本 乔庆余绘画",
        "docid": "7317285658865877544",
        "url": ""
    },
    {
        "title": "我直接跪了！听完泥瓦工民工兄弟的儒家文化课，感叹高手在民间",
        "docid": "7285945103938781752",
        "url": ""
    },
    {
        "title": "连环画 | 曹操与杨修",
        "docid": "7317081814630580772",
        "url": ""
    },
    {
        "title": "倾家荡产帮女儿在北京买房，5年后，我们回老家租房住，太心酸",
        "docid": "7298980884948086353",
        "url": ""
    },
    {
        "title": "我抛弃了不能生育的妻子，6年后再相见，前妻带着一对双胞胎",
        "docid": "7298934650998249408",
        "url": ""
    },
    {
        "title": "儿时对邻居姐姐的一句玩笑话，长大了我娶你，后来真的娶了她",
        "docid": "7316783488798802443",
        "url": ""
    },
    {
        "title": "发现没，现如今大部分退休的老人都陷入了以下状况",
        "docid": "7317174386144854564",
        "url": ""
    },
    {
        "title": "转业进了派出所，我累瘫在沙发上，当初为什么要主动转业？（一）",
        "docid": "7308925100668224010",
        "url": ""
    },
    {
        "title": "父母过世后，他每年都回村里几次，村里人都问他还回来干什么",
        "docid": "7293782490098500123",
        "url": ""
    },
    {
        "title": "元始的三位亲传弟子，一位被封佛，一位成为大帝，第三位去向成谜",
        "docid": "7317089109804106291",
        "url": ""
    },
    {
        "title": "女子抛下丈夫和6岁儿子远嫁他乡，18年后，又来认亲，这是为什么",
        "docid": "7298202447056694547",
        "url": ""
    },
    {
        "title": "1964年，两猎户遭遇狼群围攻，拼至弹尽粮绝，最终败给狼群",
        "docid": "7308709582967456291",
        "url": ""
    },
    {
        "title": "当年旧事：学徒时不忿师父的抠门对待，想要报复最后却娶了他闺女",
        "docid": "7304161179105411636",
        "url": ""
    },
    {
        "title": "她62岁，独自照顾97岁母亲半年后告诉儿女，余生不养老",
        "docid": "7316897336398021156",
        "url": ""
    },
    {
        "title": "表姐去世我将他儿子养大，如今他年薪80万，我生病后才懂谁靠得住",
        "docid": "7298291554182140129",
        "url": ""
    },
    {
        "title": "民间故事：货郎救下白兔，元宵节回家，白兔托梦：家中汤圆有问题",
        "docid": "7317464110910882344",
        "url": ""
    },
    {
        "title": "亲家问我退休金多少？我刚想说9000，儿媳冲我眨眼，我改口说3000",
        "docid": "7317844895178195519",
        "url": ""
    },
    {
        "title": "新婚夜妻子发烧，丈夫冒雪买药，忘拿钱包返回，才知妻子是畜生",
        "docid": "7317855484986704447",
        "url": ""
    },
    {
        "title": "民间故事:女子破庙躲雨，却听见狐狸谈话，狐狸说:回家千万别喝茶",
        "docid": "7286050658808447547",
        "url": ""
    },
    {
        "title": "我17岁到温州打工，娶了厂长女儿，陪嫁2万，生俩孩子幸福29年",
        "docid": "7317094624609665571",
        "url": ""
    },
    {
        "title": "故事：猎人遭狼群包围，猎狗冲回家，召来狗群与狼群大战救主人",
        "docid": "7302392015625634339",
        "url": ""
    },
    {
        "title": "民间故事：老汉骑水牛过河，发现牛身没湿，忙脱掉鞋躲过一劫",
        "docid": "7294427369316696614",
        "url": ""
    },
    {
        "title": "知足知不足，有为有不为。",
        "docid": "7317606603107287606",
        "url": ""
    },
    {
        "title": "母亲去世后，弟弟跟我不相往来多年，那天他突然出现在我家门口！",
        "docid": "7316748859869626907",
        "url": ""
    },
    {
        "title": "古代志怪传奇故事：鬼枕、义仆救女主、蚕女",
        "docid": "7313710702752186914",
        "url": ""
    },
    {
        "title": "民间故事:\"神童县令宋小虎：6岁为官大展身手\"",
        "docid": "7317283913184412195",
        "url": ""
    },
    {
        "title": "中国的男人娶了蒙古国的女人之后，直呼是受不了了，怎么回事呢",
        "docid": "7317839031138615843",
        "url": ""
    },
    {
        "title": "故事：狼群围困木厂窝棚半月，守窝棚的俩山东大汉，靠杀狼度日",
        "docid": "7316484469681357322",
        "url": ""
    },
    {
        "title": "大学校友到我市任副市长，我老婆从乡镇调到县直单位",
        "docid": "7298117214845121738",
        "url": ""
    },
    {
        "title": "弟妹到她家做客，她的金项链突然丢失，梗在心里12年，她去找弟妹",
        "docid": "7315712647805960740",
        "url": ""
    },
    {
        "title": "儿子来我家总是两手空空，认为不懂人情世故 ，去亲家一趟才明白了",
        "docid": "7298683438153916821",
        "url": ""
    },
    {
        "title": "那年岁月：带着人去我姐婆家给她出气，没想到一来二去聊了个媳妇",
        "docid": "7301968712071004726",
        "url": ""
    },
    {
        "title": "前世我被闺蜜下药，被他要了身子，坏了名声，恨他恨到了骨子里",
        "docid": "7317857800850375183",
        "url": ""
    },
    {
        "title": "永远不要去蹭别人的伞！（说的真好）",
        "docid": "7297129509546164745",
        "url": ""
    },
    {
        "title": "三姨父去世了，出殡那天大舅妈哭的撕心裂肺",
        "docid": "7299195913229075007",
        "url": ""
    },
    {
        "title": "姚橹：娶了大3岁的艾丽娅，婚后生一女，低调幸福多年",
        "docid": "7296060658897093170",
        "url": ""
    },
    {
        "title": "43岁男子要求大妈随叫随到，大妈不愿意，男子说我给你送了只母鸡",
        "docid": "7298462648746112667",
        "url": ""
    },
    {
        "title": "买三斤排骨刚走几步大妈追上，拽住我袖子不撒手：你，还要脸不？",
        "docid": "7312334565593416230",
        "url": ""
    },
    {
        "title": "民间故事：方腊起义",
        "docid": "7317818994919031331",
        "url": ""
    },
    {
        "title": "故事：接生婆深夜回家，遇到两个和尚，被两个和尚带进一座寺庙里",
        "docid": "7298276444591358562",
        "url": ""
    },
    {
        "title": "退休四年，五个同学去世，其中二人引发感叹：死亡来临如何应对？",
        "docid": "7290697508828070452",
        "url": ""
    },
    {
        "title": "新水浒故事（362）：栾廷玉阴谋红石寨",
        "docid": "7304086214624199218",
        "url": ""
    },
    {
        "title": "每次回乡我都要去堂兄家，遭到大哥的阻拦，我：笑的要拉一把哭的",
        "docid": "7306329993909764645",
        "url": ""
    },
    {
        "title": "民间故事:《傻子丈夫》",
        "docid": "7317823370773725730",
        "url": ""
    },
    {
        "title": "驴子和羊",
        "docid": "7284841684985299492",
        "url": ""
    },
    {
        "title": "深山打猎风云录——（十五）活捉野兔",
        "docid": "7308213644205130278",
        "url": ""
    },
    {
        "title": "三舅外出打工，20年无音讯，大家以为他离世了，半年前他突然回来",
        "docid": "7312724875431494198",
        "url": ""
    },
    {
        "title": "邻居老头刚从公安局退休，他儿媳妇就自作主张给他找了个保安工作",
        "docid": "7298610277664878972",
        "url": ""
    },
    {
        "title": "四十年前我跳入水库救出市长，儿子婚礼给他发了请帖，他竟然没来",
        "docid": "7298154428146753175",
        "url": ""
    },
    {
        "title": "（完）我有了许愿成真这等好事，谁还要区区一个皇后之位！",
        "docid": "7317183098284802579",
        "url": ""
    },
    {
        "title": "20几年前，光棍捡回一女婴抚养长大，20几年后，女孩是怎样报答的",
        "docid": "7305390639708078592",
        "url": ""
    },
    {
        "title": "传奇人物朱培立的风雨人生",
        "docid": "7317818265697649192",
        "url": ""
    },
    {
        "title": "跟着我妈住了一天后，我发现自己已经跟不上她的老年生活了",
        "docid": "7314585307918369343",
        "url": ""
    },
    {
        "title": "游侠",
        "docid": "7287799525371232805",
        "url": ""
    },
    {
        "title": "忍着伤痛，生活还得继续",
        "docid": "7317048383884345866",
        "url": ""
    },
    {
        "title": "命（写得真好）",
        "docid": "7302672294903333430",
        "url": ""
    },
    {
        "title": "有一种炫富，叫做广东人的酒席，他们舍得花6000千元办一桌酒席",
        "docid": "7317084063188566566",
        "url": ""
    },
    {
        "title": "带着八千退休金去深圳给儿子看孩子，住了七天宾馆回来了",
        "docid": "7317780701653451283",
        "url": ""
    },
    {
        "title": "东北一男子离婚不满月前妻就嫁人，自己再婚生子却发现悲剧了",
        "docid": "7298182931469077369",
        "url": ""
    },
    {
        "title": "难受啊！浑身有味，一个回族女人家，一个月不洗澡，羞于靠近别人",
        "docid": "7298670978703605388",
        "url": ""
    },
    {
        "title": "西游记 三",
        "docid": "7317842606329725455",
        "url": ""
    },
    {
        "title": "表弟蹭我车回老家，1000公里路程，吃个馒头。返程时，我直接拉黑",
        "docid": "7298945502908323159",
        "url": ""
    },
    {
        "title": "老同学聚会，我故意把工资13000说成3500，聚会结束发现被拉黑了",
        "docid": "7298232311659767302",
        "url": ""
    },
    {
        "title": "姬晓东长篇小说《大陕北》连载（35）走在回家路上的马伯雄，望着满眼苍凉思忖，同在一片阳光下，为何陕北会十年九旱？",
        "docid": "7317826082521170441",
        "url": ""
    },
    {
        "title": "老房子留下的记忆",
        "docid": "7317105853247865371",
        "url": ""
    },
    {
        "title": "侄女在我家住6年，高考后不辞而别，床底留三个袋子，打开我愣了",
        "docid": "7298203703940276042",
        "url": ""
    },
    {
        "title": "“提前回家，发现老婆出轨！”含泪拍照留念！哈哈哈",
        "docid": "7317328149845492287",
        "url": ""
    },
    {
        "title": "14K开山大佬“大鼻登”，号称九龙霸王，是教父“胡须勇”的老大",
        "docid": "7317664645894947382",
        "url": ""
    },
    {
        "title": "广西怪大叔“男扮女装”20多年，知道真相后网友泪目：他是真爷们",
        "docid": "7285302273151107642",
        "url": ""
    },
    {
        "title": "弟弟分四百万家产，哥哥只拿一片荒山，五年后弟弟疯了",
        "docid": "7317079991219831337",
        "url": ""
    },
    {
        "title": "老人不停地呻吟:“我今年八十六岁了，不治了吧，咱们回家吧。”",
        "docid": "7302055155330302464",
        "url": ""
    },
    {
        "title": "多亏我家老伴没去聚会，想想都后怕！",
        "docid": "7311262531526459956",
        "url": ""
    },
    {
        "title": "那年，同校的代课女老师帮我家插秧，没想到后来我娶了她",
        "docid": "7304523416412127795",
        "url": ""
    },
    {
        "title": "恩人救了我一命，几十年后找我借一千元，我却坚决拒绝了",
        "docid": "7317081264207462931",
        "url": ""
    },
    {
        "title": "纪实：姐姐回老家的村庄上坟，老屋近在咫尺，她却不愿再去看一眼",
        "docid": "7300193236511932968",
        "url": ""
    },
    {
        "title": "古代志怪传奇故事：奇妓三姑娘、郭璞、门卒金祥",
        "docid": "7316784780321096192",
        "url": ""
    },
    {
        "title": "小区有这样的老人吧",
        "docid": "7296340310148792871",
        "url": ""
    },
    {
        "title": "内蒙兵团六师52：赵连长擅抓沙半鸡，郑连长人称皮笊篱",
        "docid": "7298898599423787574",
        "url": ""
    },
    {
        "title": "那年下大雪，三爷在村口收留了一对父女，那个年轻女人嫁给了三爷",
        "docid": "7315190613379744266",
        "url": ""
    },
    {
        "title": "说个不孝的话，我妈82岁了，臭得我不敢靠近",
        "docid": "7298220203092243451",
        "url": ""
    },
    {
        "title": "我73岁,供出3个高学历孩子,每月给我两千就是不回来看我,我很寒心",
        "docid": "7317577679132705331",
        "url": ""
    },
    {
        "title": "绝代神主第3619章挑选天阁",
        "docid": "7317143815746421287",
        "url": ""
    },
    {
        "title": "发现一个奇怪的现象，有些人长寿是违反科学常理的，让人琢磨不透",
        "docid": "7302833720153997864",
        "url": ""
    },
    {
        "title": "一个上海老小囡的前世今生",
        "docid": "7317895249110663721",
        "url": ""
    },
    {
        "title": "小说帝后世无双中哪章情节最让你印象深刻呢？一起来讨论下吧",
        "docid": "7316950312642953791",
        "url": ""
    },
    {
        "title": "从医院回到家后，家里来了三波人：亲戚不像亲戚，邻居不像邻居！",
        "docid": "7296771164737684019",
        "url": ""
    },
    {
        "title": "独霸广东多年几个黑老大覆灭记，有没有你认识的",
        "docid": "7317906309620417060",
        "url": ""
    },
    {
        "title": "民间故事：老翁骑驴过河，发现驴身没湿，忙脱鞋逃过一劫",
        "docid": "7290401920043680296",
        "url": ""
    },
    {
        "title": "江苏男子追女同事5年无果后回老家结婚，女子得知大哭：饭票没了",
        "docid": "7317909718809182760",
        "url": ""
    },
    {
        "title": "原来玉林路是这么火起来的，看看成都漫画大师怎么讲的",
        "docid": "7317896227213967909",
        "url": ""
    },
    {
        "title": "栀子读书记7：偷得浮生半日闲，半是人间半是风！",
        "docid": "7317159731049742848",
        "url": ""
    },
    {
        "title": "和胜和“庙街志”，曾是“庙街话事人”，因视频泄露惨遭扫地出门",
        "docid": "7317910257160798739",
        "url": ""
    },
    {
        "title": "儿子和母亲睡一个被窝，半夜母亲突然吓醒，儿大几岁要避母？",
        "docid": "7317906276615488054",
        "url": ""
    },
    {
        "title": "讨扰女人何必讨扰这么明显",
        "docid": "7317660888616976905",
        "url": ""
    },
    {
        "title": "父亲走后，老家的房子锁了八年，出差路过老家在门口坐了半个小时",
        "docid": "7317657226406085172",
        "url": ""
    },
    {
        "title": "画眉：栽赃陷害杨德山，两处细节显示，钢丝绳插销黑手另有其人",
        "docid": "7317530436375413275",
        "url": ""
    },
    {
        "title": "人老了才发现，50年代60年代的女人，这一辈子活着都是为了一个字",
        "docid": "7317906786290336267",
        "url": ""
    },
    {
        "title": "老公一说晚点到家，保姆就悄悄出门，我决定给保姆涨工资",
        "docid": "7298945847654687581",
        "url": ""
    },
    {
        "title": "我把新房给大女儿住，4000退休金给小女儿，生了场病我看穿了她们",
        "docid": "7298647150684181398",
        "url": ""
    },
    {
        "title": "我48岁，儿子车祸去世，儿媳殡仪馆内一个动作，让我久久不能平静",
        "docid": "7298772957244623283",
        "url": ""
    },
    {
        "title": "家有独生女，惨遭有心人“吃绝户”。67岁大妈痛哭：女婿等我走呢",
        "docid": "7298835064420353491",
        "url": ""
    },
    {
        "title": "《岁岁平安》作者：笑佳人",
        "docid": "7313495201413612067",
        "url": ""
    },
    {
        "title": "父亲葬礼后，我目送弟弟妹妹们离开，叔叔的一句话让我忍不住泪奔",
        "docid": "7301302136506286618",
        "url": ""
    },
    {
        "title": "男子丧妻，日日到河边哭泣，老乌龟却说：你妻子还活着",
        "docid": "7317574140176040489",
        "url": ""
    },
    {
        "title": "父亲住院，我坐5小时飞机赶回，门口听到父亲谈话，我转身离开",
        "docid": "7316898291005342220",
        "url": ""
    },
    {
        "title": "山村情事：嫂子君梅（125）小叔子回家了",
        "docid": "7316900996008002086",
        "url": ""
    },
    {
        "title": "侄子在我家住了7年，高考665分，出分后哥哥嫂子要我赔偿1000块",
        "docid": "7290405488183837224",
        "url": ""
    },
    {
        "title": "三叔去新疆定居，18000把房子卖给我，如今想30000买回去果断拒绝",
        "docid": "7317922501349212706",
        "url": ""
    },
    {
        "title": "混在朝鲜（403）到朝鲜高档餐厅吃饭要多少钱？",
        "docid": "7316375828609319450",
        "url": ""
    },
    {
        "title": "十年前，我过年给穷邻居十斤肉。如今他富了，我连他的门都进不去",
        "docid": "7298394851488527192",
        "url": ""
    },
    {
        "title": "我，帮出差的女上司，送父母去医院看病，不料她回来后向我表白了",
        "docid": "7298356146465530032",
        "url": ""
    },
    {
        "title": "当年，他为了白月光净身出户！如今白月光卷钱跟人跑了，他要回来",
        "docid": "7298743668710474892",
        "url": ""
    },
    {
        "title": "嫡姐绑定了个系统 系统设定 我越丑 她就会越漂亮 她用剧毒毁了我脸",
        "docid": "7317577230547550757",
        "url": ""
    },
    {
        "title": "故乡祖屋完垛之日记",
        "docid": "7316841549785547301",
        "url": ""
    },
    {
        "title": "我见过情商最高的人，是楼下76岁的农村老太太",
        "docid": "7305663515405091343",
        "url": ""
    },
    {
        "title": "民间故事：父亲要把拉磨的驴卖了，儿子不让，老驴：让你发财",
        "docid": "7317223360114016778",
        "url": ""
    },
    {
        "title": "民间故事：男子夜宿破庙，半夜神像拍他肩膀：小子，躲进神桌下",
        "docid": "7303843261461266994",
        "url": ""
    },
    {
        "title": "饿狼探爪教室内，女老师竟敢一斧子剁掉一只狼爪子|山村旧事",
        "docid": "7305159021923746338",
        "url": ""
    },
    {
        "title": "父亲病重转移财产给小三，女儿在医院崩溃大哭：拔掉他的氧气管",
        "docid": "7317044872283111963",
        "url": ""
    },
    {
        "title": "姑姑去世，打电话给国外儿子不愿接电话，远嫁的女儿也不愿意回来",
        "docid": "7298529309872364794",
        "url": ""
    },
    {
        "title": "一个人是怎样成长起来的？",
        "docid": "7302812646774997544",
        "url": ""
    },
    {
        "title": "母亲的大方，却换来了一生的清贫",
        "docid": "7317248699619623461",
        "url": ""
    },
    {
        "title": "那年冬天，村里来了个补锅匠，父亲让他来家吃饭，结了一桩好姻缘",
        "docid": "7317504080791044646",
        "url": ""
    },
    {
        "title": "《阿凡提的故事》",
        "docid": "7317598735369077284",
        "url": ""
    },
    {
        "title": "雁北乡土小说：雁门草莽英雄传（29）",
        "docid": "7317241705323905574",
        "url": ""
    },
    {
        "title": "我在县里当科长，乡亲住院，我给他交费还陪护，回老家被他儿子骂",
        "docid": "7298356729563109881",
        "url": ""
    },
    {
        "title": "98年，我家收留一个广东女人，在我家吃住两个月，25年后找上门",
        "docid": "7317852641915454004",
        "url": ""
    },
    {
        "title": "为了治病吃沙20年，去医院检查后揭开真相：人没病，这是心病",
        "docid": "7317928449158414902",
        "url": ""
    },
    {
        "title": "有人说，人会吃哪碗饭是命中注定的，你认同吗",
        "docid": "7316941054102651433",
        "url": ""
    },
    {
        "title": "爬犁帮途中遭狼群拦截，老队长大吼：我和一头牛留下，你们走",
        "docid": "7290100449431372303",
        "url": ""
    },
    {
        "title": "爱您自己，是最大的行善积德",
        "docid": "7298775378353571076",
        "url": ""
    },
    {
        "title": "镇关西的另类发家史",
        "docid": "7317823849028977186",
        "url": ""
    },
    {
        "title": "民间故事：穷书生遇富家女想求婚，父母反对，一句话让他们改主意",
        "docid": "7317946324056769035",
        "url": ""
    },
    {
        "title": "民间故事：男子上山打猎，惹来杀身之祸，最后被老和尚救了",
        "docid": "7305308466913722880",
        "url": ""
    },
    {
        "title": "看守所经历：一次嘲笑，让男子永劫不复.....",
        "docid": "7316816317183738404",
        "url": ""
    },
    {
        "title": "民间故事：男子家贫娶不上老婆，上街遇老婆婆搭话：买花换妻",
        "docid": "7317953543024460339",
        "url": ""
    },
    {
        "title": "80年代末，发小走关系挤了我的工作名额，如今他在我单位当保安！",
        "docid": "7317243746964668962",
        "url": ""
    },
    {
        "title": "民间故事：贫穷的姐妹想嫁好人家，却被骗入深山，成了老虎的食物",
        "docid": "7317941473503560227",
        "url": ""
    },
    {
        "title": "五一回娘家，我谎称被裁员，两天没吃上顿热乎饭，我决定提前返程",
        "docid": "7317937929693938215",
        "url": ""
    },
    {
        "title": "民间故事：书生天生阴阳眼，夜半白脸妇人来敲门：随我去趟地府",
        "docid": "7317953470903452186",
        "url": ""
    },
    {
        "title": "民间故事：员外七个儿子相继去世，管家不小心踩塌门槛，真相大白",
        "docid": "7298639149702283813",
        "url": ""
    },
    {
        "title": "风流村干部去世，办丧事一个人都找不到，儿子只好花钱从外村雇人",
        "docid": "7298590976241775114",
        "url": ""
    },
    {
        "title": "“三姓家奴”马德，曾让向华胜脸面挂不住，为追债肢解同门大佬",
        "docid": "7317940905289187881",
        "url": ""
    },
    {
        "title": "小王在巴基斯坦过年，终于大方一回，却把佳音心疼坏了",
        "docid": "7317276446802788899",
        "url": ""
    },
    {
        "title": "山村情事：嫂子君梅（123）新娘美的很",
        "docid": "7316900953775538697",
        "url": ""
    },
    {
        "title": "民间故事：村民造路挖土，小童玩泥巴大喊有龙，当夜深山传来龙啸",
        "docid": "7317951212693865012",
        "url": ""
    },
    {
        "title": "我老婆失算了！十一月进了几百件羽绒服想大赚一笔，结果亏大发了",
        "docid": "7317232862858773027",
        "url": ""
    },
    {
        "title": "三分钟带你了解淮上的《吞海》",
        "docid": "7317950746761232935",
        "url": ""
    },
    {
        "title": "三国演义《刘皇叔三顾茅庐》（经典连环画版）022",
        "docid": "7314120839216349746",
        "url": ""
    },
    {
        "title": "民间故事：穷书生考中状元，娶了美貌妻子，不料妻子竟是妖精",
        "docid": "7317943514023625251",
        "url": ""
    },
    {
        "title": "（完结）后妈卷走我家100万，我用计拿回钱，并让她儿子失业！",
        "docid": "7317866264549098020",
        "url": ""
    },
    {
        "title": "36年前，父亲让一位女孩儿在我家住了3年，10年后她 找上门来",
        "docid": "7294773372884369958",
        "url": ""
    },
    {
        "title": "我妈是教师 我爸是医生 别人眼里的完美父母 却是让我跌入深渊的噩梦",
        "docid": "7316919153292771866",
        "url": ""
    },
    {
        "title": "当年母亲找舅舅借6万，哭着回来，今年外甥买房，舅舅送来30万",
        "docid": "7313490872723784211",
        "url": ""
    },
    {
        "title": "我52岁，从姐姐家回来后，终于明白她家的日子为啥越过越红火",
        "docid": "7300820772187243046",
        "url": ""
    },
    {
        "title": "民间故事：女子因为慈悲救了小鸟，小鸟：我可以帮你实现一个愿望",
        "docid": "7317940746282500608",
        "url": ""
    },
    {
        "title": "民国奇案-杨三姐告状。",
        "docid": "7317919888042033703",
        "url": ""
    },
    {
        "title": "我住院2个月，女儿伺候57天，儿子：把你8300退休金给我5000可好",
        "docid": "7317947192382587431",
        "url": ""
    },
    {
        "title": "一位士兵举起弓，想射死一和尚，他却笑着说：我已经等你很久了",
        "docid": "7317455051155423753",
        "url": ""
    },
    {
        "title": "阿娘死后 我入了顾府 我以为他买我来 是金屋藏娇 却不想他十分厌弃我",
        "docid": "7317915501270729256",
        "url": ""
    },
    {
        "title": "民间故事：新妇去世，丈夫日夜哭嚎邻居称情深，夜半妇人冤魂上门",
        "docid": "7317951779290006054",
        "url": ""
    },
    {
        "title": "竹马托我转交情书 没想到第二天却出现在班主任的桌上",
        "docid": "7317166393743606309",
        "url": ""
    },
    {
        "title": "民间故事：商人为了赚钱，欺骗老乞丐，却不知道他是天上的神仙",
        "docid": "7317947383252255232",
        "url": ""
    },
    {
        "title": "两只饿狼窜进山中别墅，瘸腿爷一招吓跑了要吃孩子的狼|传说",
        "docid": "7295304888513331775",
        "url": ""
    },
    {
        "title": "民间故事：屠夫使剔骨刀出神入化，夜半黑白无常入梦：随我们办差",
        "docid": "7317950698447258121",
        "url": ""
    },
    {
        "title": "彩版连环画《八仙的传说》之一《汉钟离落难成仙》中国和平出版社",
        "docid": "7317602097250222618",
        "url": ""
    },
    {
        "title": "鲁先圣散文：即便明天是世界末日，我今夜也要种满莲花",
        "docid": "7317952748740575744",
        "url": ""
    },
    {
        "title": "船到朝鲜（89）小美喝酒坏船长好事，五位女郎上船服务令船长生气",
        "docid": "7316917195459052069",
        "url": ""
    },
    {
        "title": "民间故事：深山奇遇",
        "docid": "7317785412666278452",
        "url": ""
    },
    {
        "title": "完结：影帝选择了真心话，他说前女友分手不讲武德",
        "docid": "7317108682989601291",
        "url": ""
    },
    {
        "title": "民间故事：美妇人病故埋深山，小童采药被搭话：替我上三炷香",
        "docid": "7317949998107771407",
        "url": ""
    },
    {
        "title": "民间故事：穷书生救老乞丐，得赠黄金乞丐开口：黄金放树下能当官",
        "docid": "7317594820359258639",
        "url": ""
    },
    {
        "title": "我们圈子可不是你这个土里土气的人能融入的（已完结）",
        "docid": "7317267064069177893",
        "url": ""
    },
    {
        "title": "《我废柴真千金，会亿点玄学怎么了》作 者：甜幽幽",
        "docid": "7317074698527867430",
        "url": ""
    },
    {
        "title": "我的“北漂”真实经历：在天津摆摊多年，看尽世间众生相！",
        "docid": "7297392924290122278",
        "url": ""
    },
    {
        "title": "完结：公主跳舞伤了腰，发皇榜广求名医，我揭了皇榜自荐入京",
        "docid": "7317802948766433826",
        "url": ""
    },
    {
        "title": "民间故事：女子上山采人参，撞见10丈白蛇讨封，蛇说：你看我像啥",
        "docid": "7317981687537762850",
        "url": ""
    },
    {
        "title": "你有没有叛逆的爷爷奶奶？我奶和她老姐妹开三轮去喝奶茶翻沟里了",
        "docid": "7317829996658229811",
        "url": ""
    },
    {
        "title": "民间故事：书生善良娶丑妻中状元。和尚：美女，你不用隐藏身份了",
        "docid": "7315479798384493083",
        "url": ""
    },
    {
        "title": "民间故事：男 宠",
        "docid": "7317548716804604479",
        "url": ""
    },
    {
        "title": "民间故事：夫妻赶路，见荒村有客栈没进门，夜里山神显灵：做得对",
        "docid": "7317949956244095488",
        "url": ""
    },
    {
        "title": "民间故事：酒鬼路上发现妻子尸体，回家掀开被窝，美妻迎他入怀",
        "docid": "7317906367951471114",
        "url": ""
    },
    {
        "title": "民间故事：商人为了赚钱，去海上寻宝，遇到了一条会说话的鲸鱼",
        "docid": "7317950330052821504",
        "url": ""
    },
    {
        "title": "故事：他出征3年，回来就让我退位让贤，我签下和离书转身回娘家",
        "docid": "7317596252840215049",
        "url": ""
    },
    {
        "title": "《问心》续写（两年后）：重回东立医院，收徒（姜一宁）",
        "docid": "7294193093442683432",
        "url": ""
    },
    {
        "title": "《问心》杨贵兰用死亡为代价，挽救了蔷薇和周筱风",
        "docid": "7290361795980689979",
        "url": ""
    },
    {
        "title": "民间故事：凉州二怪",
        "docid": "7317954007845798463",
        "url": ""
    },
    {
        "title": "童年记忆，如同昨天的事儿",
        "docid": "7317613059961487884",
        "url": ""
    },
    {
        "title": "民间故事：猎户救白狼，冬夜上山迷路，白狼现身引路吐人言",
        "docid": "7317954332388327970",
        "url": ""
    },
    {
        "title": "民间故事:女子与人私奔，多年后相遇未婚夫，她说:我肠子都悔青了",
        "docid": "7317891572237320767",
        "url": ""
    },
    {
        "title": "民间故事：傻千金出门踏青，编花环给菩萨像带上，菩萨显灵：开智",
        "docid": "7317953200034988553",
        "url": ""
    },
    {
        "title": "三本先婚后爱古言：《闺中绣》《高嫁》《世婚》",
        "docid": "7295400320144802316",
        "url": ""
    },
    {
        "title": "文学 | 冬天的思念",
        "docid": "7317824882576753163",
        "url": ""
    },
    {
        "title": "民间故事：木匠回家途中救落水姑娘，阿婆说：她有采阴补阳的功夫",
        "docid": "7317573316657693193",
        "url": ""
    },
    {
        "title": "民间故事：少女为救母嫁人，老裁缝送她孝衣纸人：新婚夜一定换上",
        "docid": "7317925379874996786",
        "url": ""
    },
    {
        "title": "5个小故事，故事很短，道理很深（建议收藏）",
        "docid": "7306468344868127272",
        "url": ""
    },
    {
        "title": "刚从浙江嘉兴回来，说说谢先生的亲身经历",
        "docid": "7317334626899427851",
        "url": ""
    },
    {
        "title": "民间故事：夫人求子，谁知当夜吓坏丈夫，还说：到底谁生的？",
        "docid": "7317934683927872038",
        "url": ""
    },
    {
        "title": "民间故事：员外给儿子算命，竟然是八败命，妻子：快找富贵命媳妇",
        "docid": "7286141675423449637",
        "url": ""
    },
    {
        "title": "说唐后传里的“三神五鬼”都是谁啊，他们最后都是怎么死的？",
        "docid": "7288932273905648180",
        "url": ""
    },
    {
        "title": "从小在家不受宠，被逼迫嫁给受伤老公，竟没想到我的生活直接上升",
        "docid": "7317249422197572159",
        "url": ""
    },
    {
        "title": "《长相思》番外26：小夭生了个男孩，长的像璟，璟被治愈！",
        "docid": "7287552113784128056",
        "url": ""
    },
    {
        "title": "民间故事：男人到舅舅家讨债的路上救白狐，白狐：千万别住在他家",
        "docid": "7317545794490614311",
        "url": ""
    },
    {
        "title": "瀚大黎众｜（大结局）连环画《水泊梁山》第六册下集｜陈丹旭绘画",
        "docid": "7317982421898232374",
        "url": ""
    },
    {
        "title": "《醉酒挑梁方》后汉演义之十一 黑龙江版 谈汉毅绘",
        "docid": "7317790789218894370",
        "url": ""
    },
    {
        "title": "民间故事：农妇除草挨雨淋，赶路不及躲石庙，石像开口：到家有喜",
        "docid": "7317951174718718516",
        "url": ""
    },
    {
        "title": "15年，安徽年轻女子街上５元一次，让人随便骑，背后原因让人泪下",
        "docid": "7317896150487400979",
        "url": ""
    },
    {
        "title": "微小说：这药我等了三年才等到，结果，你居然就给她的母亲用了？",
        "docid": "7317543923319226934",
        "url": ""
    },
    {
        "title": "儿子放假，竟带60岁女友回家，父亲刚想赶走，看清来人，瘫倒在地",
        "docid": "7298495588382875715",
        "url": ""
    },
    {
        "title": "《相敬如宾第六年》作者：芋孚",
        "docid": "7317122157400588834",
        "url": ""
    },
    {
        "title": "民间故事：女子给瞎眼公公搓背，看到背部三颗痣，原来是那采花贼",
        "docid": "7313249135631794703",
        "url": ""
    },
    {
        "title": "民间故事：男子卖身救母，做了冲喜新郎。老道士：你的福气在后头",
        "docid": "7317886686812799527",
        "url": ""
    },
    {
        "title": "大姐临终前不肯闭眼，我思考再三跟她说了句话，大姐流着眼泪走了",
        "docid": "7316425747856376347",
        "url": ""
    },
    {
        "title": "静安的围城——一言难尽（31）",
        "docid": "7317080710257951259",
        "url": ""
    },
    {
        "title": "舅舅央求我为表弟买房担保，赶去签字，听到的对话令我拔腿就跑",
        "docid": "7317622235182154303",
        "url": ""
    },
    {
        "title": "嫁给萧怀的第三年，我被典妻给了城南的糙汉，换了三百两白银",
        "docid": "7317921431801594420",
        "url": ""
    },
    {
        "title": "女生：看妇科时，偷听到医生聊天，脸蛋突然像个红苹果！",
        "docid": "7317663581410607651",
        "url": ""
    },
    {
        "title": "震惊一家8口住酒店200多天，每天1千块钱“打算一辈子住下去”",
        "docid": "7317973969028678170",
        "url": ""
    },
    {
        "title": "民间故事：猪奸",
        "docid": "7317236038538379816",
        "url": ""
    },
    {
        "title": "太上老君的坐骑，为何是一头青牛？其实这头牛的来历并不简单",
        "docid": "7290381317471371810",
        "url": ""
    },
    {
        "title": "我爱了林止十年，从我16岁第一次看见他开始……（完结）",
        "docid": "7317297422928167460",
        "url": ""
    },
    {
        "title": "推荐古风婚恋《低嫁庶子》作者：今先",
        "docid": "7316847458254963219",
        "url": ""
    },
    {
        "title": "亲家第一次见面，聪明的人都“深藏不露”",
        "docid": "7317927307564712459",
        "url": ""
    },
    {
        "title": "民间故事：女子路边喂白兔，临走兔子说：丈夫回家抱你别回应！",
        "docid": "7317989937582785060",
        "url": ""
    },
    {
        "title": "民间故事：丈夫阴间冒险，妻子执意跟随，双双陷入险境",
        "docid": "7317783850044686848",
        "url": ""
    },
    {
        "title": "她做保姆这些年－豪门生活之夜访老宅（881）",
        "docid": "7306818106411074084",
        "url": ""
    }
]