[
    {
        "title": "神仙为什么不能和凡人结婚？看神仙的长相，会吓到凡人的！",
        "docid": "7341664654357463603",
        "url": ""
    },
    {
        "title": "那年除夕妈妈给一流浪男孩一盘饺子，从那以后每年春节他都来我家",
        "docid": "7337480851850510874",
        "url": ""
    },
    {
        "title": "别不信！其实我们身边有很多隐藏的危险，忍一时真的可以保命",
        "docid": "7344269960346534434",
        "url": ""
    },
    {
        "title": "到儿子家过端午节，得知亲家有50万存款，我一下坐不住了",
        "docid": "7344117188292592163",
        "url": ""
    },
    {
        "title": "梦参长老入狱长达33年，收到的只有八个字，事出有因，查无实据",
        "docid": "7344166862248215075",
        "url": ""
    },
    {
        "title": "舅妈：我儿子四十好几了还没结婚呢，哪轮得到你，今天非搅黄不可",
        "docid": "7343535014191448626",
        "url": ""
    },
    {
        "title": "男子心善，娶老妇为妻，洞房夜老妇说：快用被子蒙住头",
        "docid": "7344277096543404595",
        "url": ""
    },
    {
        "title": "家政工范雨素：人生是颗菜籽命",
        "docid": "7343536809919382079",
        "url": ""
    },
    {
        "title": "完 我的阿娘，不再是我的阿娘，她的身体里住进来一个奇怪的女人",
        "docid": "7343942776441192997",
        "url": ""
    },
    {
        "title": "民间故事：少年得神箭，射日救苍生，成为民间英雄",
        "docid": "7344287932208972322",
        "url": ""
    },
    {
        "title": "安徽一家4个兄弟都是光棍！媒婆都不来登门！妈急了：白长这么帅",
        "docid": "7344337890953953801",
        "url": ""
    },
    {
        "title": "《大理寺少卿游》为母所弃，漂泊无依，一枝花亲手杀死了唯一的光",
        "docid": "7344236785280598528",
        "url": ""
    },
    {
        "title": "终是南宫动了情，世间再无十九停！#雪中悍刀行  #南宫仆射",
        "docid": "7314512729174180406",
        "url": ""
    },
    {
        "title": "偷情记01，老板娘勾搭俊俏伙计，结果老板突然进屋了",
        "docid": "7342821028017635840",
        "url": ""
    },
    {
        "title": "正月二十九民间故事传承民间故事正能量",
        "docid": "7344176586717200932",
        "url": ""
    },
    {
        "title": "上海老人去世，千万家产赠护工，63封家书却揭开了弟弟尘封的父爱",
        "docid": "7313446231584866852",
        "url": ""
    },
    {
        "title": "民间故事：男子寻妻儿，饿死在路旁，神仙说：半斋之人，还你性命",
        "docid": "7344310975970968101",
        "url": ""
    },
    {
        "title": "袁天罡从小就满门被灭，隐忍十五年只为最后那一刻",
        "docid": "7322790969974686248",
        "url": ""
    },
    {
        "title": "女儿公务员，年初二与同学儿子见面，我：开玩笑！我女儿不做保姆",
        "docid": "7336433717089141286",
        "url": ""
    },
    {
        "title": "新婚夜，丫鬟替小姐圆房，新郎喜出望外：真是三生有幸",
        "docid": "7343789284023370303",
        "url": ""
    },
    {
        "title": "一女孩买了老人一捆蒜苗，几天后，老人送给她一个明代金香盒",
        "docid": "7327063588198547995",
        "url": ""
    },
    {
        "title": "民间故事：蟒神参加花灯节，化作人形下山玩耍，城隍：到时间了",
        "docid": "7344302028660998667",
        "url": ""
    },
    {
        "title": "女子嫁五次，五任丈夫暴毙！男子不信邪，成亲当晚死亡",
        "docid": "7343507968379470399",
        "url": ""
    },
    {
        "title": "男子办满月宴好心招待道士，道士却说：你根本没有孩子",
        "docid": "7344176285163225654",
        "url": ""
    },
    {
        "title": "当自家好白菜被猪拱了，父母起的外号，是有点阴阳怪气在身上的",
        "docid": "7344248150594568719",
        "url": ""
    },
    {
        "title": "邻居说，你家那么干净我都不好意思来串门了！",
        "docid": "7343671518441177652",
        "url": ""
    },
    {
        "title": "民间故事：姐妹出嫁",
        "docid": "7344173658950091302",
        "url": ""
    },
    {
        "title": "一男子盖新房捡到玉佩卖了三十万，四个月后，在抽屉里又发现一个",
        "docid": "7341602190139998735",
        "url": ""
    },
    {
        "title": "民间故事：岳母百岁寿辰后，突然长出新牙，女婿：她在借子孙寿命",
        "docid": "7343978586459636235",
        "url": ""
    },
    {
        "title": "民间故事：和尚饿晕在路旁，老妇人喂饭送汤，临终梵音来迎接",
        "docid": "7344298238926930484",
        "url": ""
    },
    {
        "title": "儿媳刚进门，女儿就收走我的存折，起初我不懂，几天后我明白了",
        "docid": "7343850417400791589",
        "url": ""
    },
    {
        "title": "民间故事：樵夫山中见白蛇吐珠，趁其不备偷走其珠，事后后悔不已",
        "docid": "7344227069380919848",
        "url": ""
    },
    {
        "title": "仆人赶夜路，遇到大树挡路，怎么也绕不开，木匠救了他",
        "docid": "7344059591983890954",
        "url": ""
    },
    {
        "title": "富商夜赴丧宴，发现桌上全是凉菜，出门撒尿捡回一条命",
        "docid": "7344054416581984831",
        "url": ""
    },
    {
        "title": "深山传来婴儿啼哭，老汉走近，突然出现一条黑狗",
        "docid": "7343835618436727332",
        "url": ""
    },
    {
        "title": "女子接连三晚做噩梦，往枕头下放一把剪刀，竟救了自己一命",
        "docid": "7344054972919677481",
        "url": ""
    },
    {
        "title": "村长把妇女主任叫广播室，忘关喇叭，全村人放下农活:)",
        "docid": "7343823019821040165",
        "url": ""
    },
    {
        "title": "完 我被继母嫁进侯府，可侯府上下没一个活人，都死绝了",
        "docid": "7344249721672581669",
        "url": ""
    },
    {
        "title": "畅销月票，双榜第一！！这本书沙疯了！！！ #小说",
        "docid": "7344293910195372579",
        "url": ""
    },
    {
        "title": "民间故事：干枯河道女子做法，村人驱赶女子大喊：甘泉快来！",
        "docid": "7344296752318612009",
        "url": ""
    },
    {
        "title": "狄仁杰断案传奇之《莲花池》1",
        "docid": "7319673743201174067",
        "url": ""
    },
    {
        "title": "满城百姓夹道相迎后，睁开眼手脚却已戴上镣铐，被锁在自己寝宫。",
        "docid": "7344290867513360959",
        "url": ""
    },
    {
        "title": "世人只知蛟蛇化龙需要讨封，却不知道失败的蛟蛇下场有多惨",
        "docid": "7336458230341894665",
        "url": ""
    },
    {
        "title": "散文《命》深度好文   命是弱者的借口  运是强者的谦辞人活心态",
        "docid": "7319472696960975369",
        "url": ""
    },
    {
        "title": "那年下大雪，三爷在村口收留了一对父女，那个年轻女人嫁给了三爷",
        "docid": "7315190613379744266",
        "url": ""
    },
    {
        "title": "【天涯神贴】扒一扒四十年未破的悬案！",
        "docid": "7312996103811990028",
        "url": ""
    },
    {
        "title": "追捧劣迹网红，资本与流量背后：谁在挑起认知战争？",
        "docid": "7325417970069570048",
        "url": ""
    },
    {
        "title": "三婶和四婶10年不说话，年前终于和好，却打电话让我们不要回去",
        "docid": "7336915403207131648",
        "url": ""
    },
    {
        "title": "民间故事：男子卖柴，见妇人落难而相助，妇人说你晚上回家走后门",
        "docid": "7344281188880204297",
        "url": ""
    },
    {
        "title": "箭缘第三集，高飞爱情趣事",
        "docid": "7344197565275079178",
        "url": ""
    },
    {
        "title": "男子半夜偷看继母梳头，不料继母却说：我已等候你多时",
        "docid": "7344025842848350747",
        "url": ""
    },
    {
        "title": "民间故事：男子夜间回家，见盲嫂点灯有蹊跷，他从身上掏出了面羊",
        "docid": "7344309550364836403",
        "url": ""
    },
    {
        "title": "我45岁，她23岁，她妈妈44岁，我们三人之间不得不说的故事",
        "docid": "7344354680010752548",
        "url": ""
    },
    {
        "title": "“铁公鸡”请客（笑话）",
        "docid": "7321165878404858402",
        "url": ""
    },
    {
        "title": "民间故事：男子卖豆花，见阿婆可怜送她一碗。阿婆说回家后别喝酒",
        "docid": "7344281452769133082",
        "url": ""
    },
    {
        "title": "男子卸完10吨水泥，老板客气请吃晚饭，见男子吃了20盘蒸饺",
        "docid": "7344133722201227826",
        "url": ""
    },
    {
        "title": "母亲的葬礼收12万礼金，管事的三伯给我账本子时，我把侄子喊过来",
        "docid": "7321740957182100019",
        "url": ""
    },
    {
        "title": "30年前，我喜欢上一个女孩，她父亲不同意，将我狠狠打了一顿",
        "docid": "7312752787077923365",
        "url": ""
    },
    {
        "title": "聊斋志怪故事：遇鬼、鬼魂、吴圻梦",
        "docid": "7344357966579515919",
        "url": ""
    },
    {
        "title": "民间故事：老农得山神赐种，种地里三年没发芽，不料荒年长出花苞",
        "docid": "7344300958887936547",
        "url": ""
    },
    {
        "title": "民间故事：小孩捡到野果，带回家放在神桌供菩萨，夜半野果变黄金",
        "docid": "7344291648530563584",
        "url": ""
    },
    {
        "title": "民间故事：少年探险遇灵蛇，灵蛇传授奇技，助他成武林高手",
        "docid": "7344288607517213236",
        "url": ""
    },
    {
        "title": "男子去烧香，无意听到庙祝和香客对话，他因此高中状元",
        "docid": "7344194517014741540",
        "url": ""
    },
    {
        "title": "民间故事：男子卖鱼，看妇人面黄肌瘦有蹊跷，他用五个耳光救妇人",
        "docid": "7344282110427546149",
        "url": ""
    },
    {
        "title": "民间故事：男子外出三年归家，见妻子生下一子，乞丐说：你好福气",
        "docid": "7344307986019795495",
        "url": ""
    },
    {
        "title": "父母去世后，监控里看到伯父做的一切，我们打算回老家过年",
        "docid": "7344399448618926619",
        "url": ""
    },
    {
        "title": "男子钻进妇人卧房，妇人暗中跟踪，闻到异香发现端倪",
        "docid": "7344269349580849703",
        "url": ""
    },
    {
        "title": "12岁女孩饭店捡烂菜叶，说她养着奶奶和妈妈，为饭店老板做法点赞",
        "docid": "7344033873254171155",
        "url": ""
    },
    {
        "title": "男子看夜，听见女子喊娃，二爷说，你别出屋",
        "docid": "7344248439833854505",
        "url": ""
    },
    {
        "title": "幺叔（二）",
        "docid": "7344152065444299298",
        "url": ""
    },
    {
        "title": "男子舍命救下白兔，不久女子上门求亲：两年前你救过我",
        "docid": "7344252570909098508",
        "url": ""
    },
    {
        "title": "民间故事：奸妖淫妇",
        "docid": "7344312549200380467",
        "url": ""
    },
    {
        "title": "终有一天你会明白，原来还完这几种“债”,就离归去不远了,别不信",
        "docid": "7343784304452944419",
        "url": ""
    },
    {
        "title": "两个女人被囚禁地窖一千天遭受他非人折磨，靠一台破电视得以逃生",
        "docid": "7344199018391863858",
        "url": ""
    },
    {
        "title": "希腊神话3 潘多拉的魔盒",
        "docid": "7343684501836562996",
        "url": ""
    },
    {
        "title": "狐狸精爱上老实小贩，不但治好了他的瘸腿，还要嫁给他为妻",
        "docid": "7342975449749783078",
        "url": ""
    },
    {
        "title": "如梦令 I   代替新娘拜堂成亲，身份遭怀疑",
        "docid": "7344289995035378210",
        "url": ""
    },
    {
        "title": "校园故事听过吗？",
        "docid": "7343629062662947347",
        "url": ""
    },
    {
        "title": "【双男主】破产后被死对头们带回家，他们竟拿出了toy足足有30个",
        "docid": "7344339598497022501",
        "url": ""
    },
    {
        "title": "三岛由纪夫：雨中的喷水",
        "docid": "7343977614727856703",
        "url": ""
    },
    {
        "title": "《宋江日记》之三十七",
        "docid": "7343898600969339444",
        "url": ""
    },
    {
        "title": "《为有暗香来》番外104“家主，不就是睡过几次而已，你该不会”",
        "docid": "7344317465453199872",
        "url": ""
    },
    {
        "title": "弟弟买房差20万，我送钱过去，瞟见弟媳给我备注，我摔门离开",
        "docid": "7344074370325086756",
        "url": ""
    },
    {
        "title": "邻居蹭车坐一年多没给过钱，现在还带侄子一起，今天跟他开口了",
        "docid": "7343531971710468617",
        "url": ""
    },
    {
        "title": "好物分享｜静安的围城——唱歌惹了谁（103）",
        "docid": "7344181810924257803",
        "url": ""
    },
    {
        "title": "民间故事：妻子重病，丈夫上山寻药，山神：抓条蛇放床下（下）",
        "docid": "7344288903425720884",
        "url": ""
    },
    {
        "title": "民间故事：夫妻俩下地耕田，挖出宝箱带回家，妻子许愿黄金百两",
        "docid": "7344290285746881076",
        "url": ""
    },
    {
        "title": "95年我摆夜摊时好心收留一个陌生女子，关键时刻，她帮我挡下一掌",
        "docid": "7343913110753460771",
        "url": ""
    },
    {
        "title": "我爸和大伯8年不来往，大伯儿子结婚，没邀请我爸，我爸主动帮忙",
        "docid": "7344219695752905251",
        "url": ""
    },
    {
        "title": "我妈来养老，住半个月就被赶走，先花了4万，再不走就离了",
        "docid": "7344113341436084799",
        "url": ""
    },
    {
        "title": "那些花儿1：在春天想念兰儿，那个生命定格在26岁的姑娘！",
        "docid": "7344344070149489179",
        "url": ""
    },
    {
        "title": "西藏之行后，带回“嘎巴拉”引发的诡异离奇经历!#真实事件",
        "docid": "7331785163946820136",
        "url": ""
    },
    {
        "title": "民间故事：男子半夜醒来，发现娇妻脱衣磨石头，和尚：这是在蜕皮",
        "docid": "7344280207555543602",
        "url": ""
    },
    {
        "title": "民间故事：男子喜欢睡茅草，父母上庙烧香，山神爷：前世是野猪",
        "docid": "7344303632428368399",
        "url": ""
    },
    {
        "title": "宁安如梦番外，谢府只有一位夫人",
        "docid": "7312411307524112905",
        "url": ""
    },
    {
        "title": "衙门后院有荒坟，县令起坟天雷作响，道士：仙人坟",
        "docid": "7344108593869832741",
        "url": ""
    },
    {
        "title": "千里眼神像竟然流下眼泪，原来他母亲千年轮回，还是改变不了厄运",
        "docid": "7338613350877626906",
        "url": ""
    },
    {
        "title": "（完）都说他对我用情至深，一个阑尾炎手术，他紧张到脸色煞白",
        "docid": "7343555553891271208",
        "url": ""
    },
    {
        "title": "男子卖马，给老者结算茶水钱，老者说小心买马人",
        "docid": "7344182598140166719",
        "url": ""
    },
    {
        "title": "男子进山，见老头有难而相助，老头说你晚上要睡棺材里",
        "docid": "7344264091323957772",
        "url": ""
    },
    {
        "title": "一个天师后人的自述和感悟",
        "docid": "7327174376444494387",
        "url": ""
    },
    {
        "title": "“蝴蝶陷于夏日，鲸鱼殉于深海”#推文 #虐文推荐 #be美学",
        "docid": "7315381025889223187",
        "url": ""
    },
    {
        "title": "民间故事：老狗成精",
        "docid": "7344113252881678887",
        "url": ""
    },
    {
        "title": "铭（名书三国），在“qq阅读”APP看，搜出来最顶上那个就是了",
        "docid": "7344190575068840502",
        "url": ""
    },
    {
        "title": "男子迷路，见金蛇难产出手相助，他举手之劳救了自己",
        "docid": "7344264758000648723",
        "url": ""
    },
    {
        "title": "稳婆接生，见产妇白布蒙脸有蹊跷，孩子落地她跳窗而逃",
        "docid": "7344282732325192231",
        "url": ""
    },
    {
        "title": "狮子张之维和老鼠“张”怀义~",
        "docid": "7313863265426244107",
        "url": ""
    },
    {
        "title": "失忆后，我误把死对头当老公。还住进了他家里。",
        "docid": "7343526205930652200",
        "url": ""
    },
    {
        "title": "纪实一《中国古代算命术剖析》第一部（1-12集）",
        "docid": "7311741744431923753",
        "url": ""
    },
    {
        "title": "遇见更好的他",
        "docid": "7344164179315524105",
        "url": ""
    },
    {
        "title": "（完）同父异母庶妹用计与我互换婚事，看她一脸春风得意，我笑了",
        "docid": "7343883717221794314",
        "url": ""
    },
    {
        "title": "出自作者界玉，故事搬运工，创作不易留下关注看后续",
        "docid": "7344314930239767040",
        "url": ""
    },
    {
        "title": "民间故事：妇人在井里洗衣服，却听到了一个声音说：你是我的新娘",
        "docid": "7344281038245347874",
        "url": ""
    },
    {
        "title": "重生回到1984    1一40集",
        "docid": "7313540030017110528",
        "url": ""
    },
    {
        "title": "《末日重生》第一部分，网络小说 漫画",
        "docid": "7344138008586781199",
        "url": ""
    },
    {
        "title": "悍匪“竹叶青”，为何伏击国民党搜索队？|湘西赶尸帮（002）",
        "docid": "7343938339244343818",
        "url": ""
    },
    {
        "title": "万古神帝 第4198章 败局已定",
        "docid": "7343995661866189347",
        "url": ""
    },
    {
        "title": "史上最强赘婿  第9章",
        "docid": "7344175388379546164",
        "url": ""
    },
    {
        "title": "妻子一天洗三次澡，丈夫起疑窗边偷看，吓得两腿直哆嗦",
        "docid": "7343546348199035403",
        "url": ""
    },
    {
        "title": "非洲小五凌晨亲测保镖反应，意外！被辞内鬼证据确凿，可气！",
        "docid": "7321561214797234722",
        "url": ""
    },
    {
        "title": "张齐英杂文：只有最优秀的人，才懂纠正和调整自己的过错",
        "docid": "7344242356067697164",
        "url": ""
    },
    {
        "title": "女子家中喂鸡，发现邻居妻子奸情，一把大火烧后患",
        "docid": "7343508933375738404",
        "url": ""
    },
    {
        "title": "民间故事：男子回家，见家中老牛流泪不止，妻子说：把筷子插水里",
        "docid": "7344306670552351270",
        "url": ""
    },
    {
        "title": "深度好文《我为什么能活一百岁》 作者 陈立夫",
        "docid": "7315331401232941602",
        "url": ""
    },
    {
        "title": "《静静的一生》#抖音热门故事 #番茄小说 #好文分享 #小说推荐",
        "docid": "7323736254850597411",
        "url": ""
    },
    {
        "title": "史上最强赘婿  第10章",
        "docid": "7344298569346351668",
        "url": ""
    },
    {
        "title": "民间故事：少年在森林里迷路，遇到了老婆婆，老婆婆：你是我孙子",
        "docid": "7344288567272964648",
        "url": ""
    },
    {
        "title": "小说",
        "docid": "7344327400945582633",
        "url": ""
    },
    {
        "title": "黄河我的母亲河",
        "docid": "7344262828934562315",
        "url": ""
    },
    {
        "title": "我大伯和三叔10年不说话，我大伯被村霸父子殴打后，三叔立马怒了",
        "docid": "7339879567395602953",
        "url": ""
    },
    {
        "title": "原来古人早就讲了怎么实现阶级跨越",
        "docid": "7335236867266265635",
        "url": ""
    },
    {
        "title": "农村媒人介绍的对象有多可怕？网友热议",
        "docid": "7316858925474464294",
        "url": ""
    },
    {
        "title": "1997年，河南老汉捡女弃婴，如今女儿身价千万，带养父环游中国",
        "docid": "7319446628036182591",
        "url": ""
    },
    {
        "title": "为什么我长得很漂亮却一点用也没有？",
        "docid": "7326948443619263017",
        "url": ""
    },
    {
        "title": "为什么很多人“寄人篱下”明明是麻烦别人却还觉得自己委屈？",
        "docid": "7324987537843044903",
        "url": ""
    },
    {
        "title": "有哪些“有眼不识泰山”的经历？网友：提亲路上跟小舅子打了一架",
        "docid": "7341000510692655670",
        "url": ""
    },
    {
        "title": "无崖子布下珍珑棋局，其实只为等两个人，理想人选根本就不是虚竹",
        "docid": "7319104705504903691",
        "url": ""
    },
    {
        "title": "三舅外出打工，20年无音讯，大家以为他离世了，半年前他突然回来",
        "docid": "7312724875431494198",
        "url": ""
    },
    {
        "title": "突然发现晋江作者的身体都好差啊 ​​​",
        "docid": "7331421709117030946",
        "url": ""
    },
    {
        "title": "《繁花》：汪小姐永远不知，卢美玲打宝总一耳光，并不是为了面子",
        "docid": "7320497554247647782",
        "url": ""
    },
    {
        "title": "穿最差的衣服，做最累的活，为什么李公甫却能每天乐呵呵的？",
        "docid": "7323192594098750003",
        "url": ""
    },
    {
        "title": "程序员相亲全程被女方无视，介绍人问其原因：你心里没数？:)",
        "docid": "7343825292291211810",
        "url": ""
    },
    {
        "title": "当年你爹为了追俺给俺家挑了三年水！别听你娘瞎说，她坐井那等我",
        "docid": "7324518797707821583",
        "url": ""
    },
    {
        "title": "90后越南大学生，历经艰辛嫁到中国，坦言：8岁前我也是中国人！",
        "docid": "7315301086221435431",
        "url": ""
    },
    {
        "title": "《狗剩快跑》小翠到死都不懂，杀死她的不只是穆家俊，还有她自己",
        "docid": "7331645952698188323",
        "url": ""
    },
    {
        "title": "封神后，姜子牙见到天上各路神仙该怎么称呼，他们谁大谁小？",
        "docid": "7329912897654948363",
        "url": ""
    },
    {
        "title": "原来八仙并不是凡人修仙，每个人前世都不一般，怪不得能得道成仙",
        "docid": "7311917949391471114",
        "url": ""
    },
    {
        "title": "安徽4个兄弟都是光棍，媒婆也不愿意登门，妈妈急了：白长这么帅",
        "docid": "7328213103429386806",
        "url": ""
    },
    {
        "title": "吃百家饭长大的孤儿回村，给每家3000元红包，唯独给我爸妈20万",
        "docid": "7326747450541228598",
        "url": ""
    },
    {
        "title": "帝释天到底有没有睡过第二梦？",
        "docid": "7339895288310415872",
        "url": ""
    },
    {
        "title": "1996年，一名军装小伙来我摊上买衣服忘付款，我追出去竟收获爱情",
        "docid": "7325836914949407273",
        "url": ""
    },
    {
        "title": "首富亲孙女：丈夫出轨后离家，晚年公交上重逢，掏出俩肉包给对方",
        "docid": "7340563638685745703",
        "url": ""
    },
    {
        "title": "他是梁山天罡之耻，欺男霸女，却被地煞吊打，活到最后还成了仙",
        "docid": "7333424933014127130",
        "url": ""
    },
    {
        "title": "封神后，文殊、普贤、慈航三大士，为何要投靠西方教？",
        "docid": "7315070804948107786",
        "url": ""
    },
    {
        "title": "女人仗着镇长丈夫活成了乡里的土皇帝，最后终于自食恶果",
        "docid": "7332805308433220106",
        "url": ""
    },
    {
        "title": "继父去世，我出了50000，追悼会结束后，继父两个女儿把我喊进屋",
        "docid": "7329079553078051347",
        "url": ""
    },
    {
        "title": "笑死了，回老家在外别乱吵架，小心对方是亲戚。",
        "docid": "7339867555018064393",
        "url": ""
    },
    {
        "title": "不生儿子不收兵的老舅在一串葫芦娃长大后，成为全村人羡慕的对象",
        "docid": "7324914509083181620",
        "url": ""
    },
    {
        "title": "全村凑钱供他上大学，他当官后却20年不回来，老爹去世时无人抬棺",
        "docid": "7313711600391897663",
        "url": ""
    },
    {
        "title": "当兵那年向女同学提亲被拒，转业成为她上司后，她向我倾诉衷肠",
        "docid": "7340192888821400075",
        "url": ""
    },
    {
        "title": "1947我到香港一家餐厅帮工，突然一天老乡问我要不要做警察！",
        "docid": "7329036547754770944",
        "url": ""
    },
    {
        "title": "那年过春节，我家没买一两肉，大年三十傍晚有人提一大帆布包上门",
        "docid": "7331681092284023333",
        "url": ""
    },
    {
        "title": "我堂哥，40岁结识有夫之妇，对方老公坐过牢，没多久堂哥就失联了",
        "docid": "7326568944301752882",
        "url": ""
    },
    {
        "title": "1992年，我大学毕业，放弃了富家千金的追求，娶了老家农村的发小",
        "docid": "7316520079741633078",
        "url": ""
    },
    {
        "title": "我八岁帮助过的小男孩，二十年后娶了我，这是我一生最成功的投资",
        "docid": "7325341739349623311",
        "url": ""
    },
    {
        "title": "四川一男子整天痴迷练功，练就一双铁腿，母亲：练练练！媳妇都练跑了",
        "docid": "7329324287067259432",
        "url": ""
    },
    {
        "title": "懒出名的小姨，如今成了全村最幸福的人，多少能干女人都不如她",
        "docid": "7336462384271426057",
        "url": ""
    },
    {
        "title": "八只饿狼围攻七旬老人，生死时刻挂甲野猪以一敌八，将狼群击退",
        "docid": "7337273044921254454",
        "url": ""
    },
    {
        "title": "天呐，老局长一听立刻停了呼吸，文采不错，精彩绝伦",
        "docid": "7332466884983636492",
        "url": ""
    },
    {
        "title": "6年前，江苏小伙娶漂亮洋媳妇，连生3胎混血娃，各个都是中国国籍",
        "docid": "7327974915041477135",
        "url": ""
    },
    {
        "title": "悟空才1200岁，却称寿星为“老弟”，寿星不怒反喜，为什么？",
        "docid": "7322366736303686178",
        "url": ""
    },
    {
        "title": "光棍门前的一副对联，上联：一人一屋一只鸡，下联不仅绝望还扎心",
        "docid": "7314647960850416169",
        "url": ""
    },
    {
        "title": "60岁老汉捡回一个婴孩，孩子犯错让下跪，孩子：爹受不起我的一跪",
        "docid": "7320839611465712162",
        "url": ""
    },
    {
        "title": "儿子儿媳是护士，月薪12000。我带孙子5年，亲家说：生二胎我出钱",
        "docid": "7317195240610447882",
        "url": ""
    },
    {
        "title": "那年过年大伯悄悄塞给父亲10块钱，让我们过了个难忘的春节",
        "docid": "7332632983364551203",
        "url": ""
    },
    {
        "title": "有这么一个怪人，耗尽千万家财，把山海经中的神兽“复活”了...",
        "docid": "7323541382222905896",
        "url": ""
    },
    {
        "title": "知青被狼困在草垛上，草垛欲倒时高喊“灰儿”，狼王救了他 |传闻",
        "docid": "7341679684650222106",
        "url": ""
    },
    {
        "title": "养女回北京陪亲生爹娘过节，初一他出门拜年，回家后院里站满了人",
        "docid": "7338002094240645647",
        "url": ""
    },
    {
        "title": "70岁开始劝，80岁还在劝，现在90岁了他们都完全没有停下来的意思",
        "docid": "7342320399650439714",
        "url": ""
    },
    {
        "title": "年轻时的舅婆出了名的懒，懒人有懒福，现在是出了名的命好",
        "docid": "7337314413554844212",
        "url": ""
    },
    {
        "title": "年度最佳短篇《天意》，看完沉默",
        "docid": "7317179165466526249",
        "url": ""
    },
    {
        "title": "人能一辈子大富贵吗？我52岁，亲眼见证俺村80年代首富盛衰全过程",
        "docid": "7334933189963776539",
        "url": ""
    },
    {
        "title": "父母当年抱养的姐姐比我大10岁，如今我把她当妈一样孝顺",
        "docid": "7315592764757164595",
        "url": ""
    },
    {
        "title": "吸血鬼狼人群殴事件",
        "docid": "7333935528967930420",
        "url": ""
    },
    {
        "title": "我农村的3个光棍大爷先后离世，临终方式不同，可一个比一个悲惨",
        "docid": "7329078569551643175",
        "url": ""
    },
    {
        "title": "一个开便利店的陕西老板，被困在这个冬天",
        "docid": "7320084534400696883",
        "url": ""
    },
    {
        "title": "我到富得流油的迪拜，当七星级酒店管家，被顾客甩一沓钱，吓哭了",
        "docid": "7316142256623534627",
        "url": ""
    },
    {
        "title": "比日本神话还要离谱的绝对是希腊神话，总结出来就一个字：乱！",
        "docid": "7338425940202947110",
        "url": ""
    },
    {
        "title": "弟弟“陪伴”姐姐6年，花了她60万",
        "docid": "7311574729029141018",
        "url": ""
    },
    {
        "title": "当年四叔和四婶儿谈恋爱被发现，我们家被四婶儿她娘堵着骂了三天",
        "docid": "7330466885399659042",
        "url": ""
    },
    {
        "title": "上古神话中的九大散仙",
        "docid": "7321258138526253605",
        "url": ""
    },
    {
        "title": "儿子的价值",
        "docid": "7335229734043435535",
        "url": ""
    },
    {
        "title": "看懂燃灯的这句话，你才能明白，无天临死前的嘲笑有多不甘！",
        "docid": "7342813989300732416",
        "url": ""
    },
    {
        "title": "我今年57岁，去了一趟摆摊的同学家，才知道存钱与不存钱的差距",
        "docid": "7316923421370434063",
        "url": ""
    },
    {
        "title": "我60后，当过集团副总，经历生死后选择回村生活，生死之外无大事",
        "docid": "7332149144502714914",
        "url": ""
    },
    {
        "title": "我寿终正寝，一世平淡，可我死后才知，我这一辈子都是个笑话",
        "docid": "7334921040693199387",
        "url": ""
    },
    {
        "title": "那年春节，我去县城给表叔拜年，表叔说的话让我记了一辈子",
        "docid": "7326438909230350874",
        "url": ""
    },
    {
        "title": "借给战友8万，9年未还我从没提过，妻子住院突然多了一大笔住院费",
        "docid": "7318608813047808546",
        "url": ""
    },
    {
        "title": "你见过哪些因贪小便宜遭报应的人？网友：火葬场就修在她家门口",
        "docid": "7344190812395373108",
        "url": ""
    },
    {
        "title": "男人明明不会吹竽，却混进了皇宫乐队里#民间故事 #老剧回看",
        "docid": "7338006687347016233",
        "url": ""
    },
    {
        "title": "童年趣事：我闺女怎么就看上你了？当年你整我都给你记着账本呢",
        "docid": "7314532287255970358",
        "url": ""
    },
    {
        "title": "大山中，一个七岁的女孩独居生活了五年，她小小的身体要挑水拾柴",
        "docid": "7313075295002378752",
        "url": ""
    },
    {
        "title": "土行孙夫妇命丧张奎之手",
        "docid": "7328662417222271497",
        "url": ""
    },
    {
        "title": "异人之下",
        "docid": "7333162387463209487",
        "url": ""
    },
    {
        "title": "为了出一口恶气，堂叔带着8人屠杀3个侄子，两个家族11个家庭被毁",
        "docid": "7328407405241467403",
        "url": ""
    },
    {
        "title": "“喝酒”一文太经典了，精彩段子，值得细品",
        "docid": "7344291050762519051",
        "url": ""
    },
    {
        "title": "伏羲密码：神话般的史前事件，揭开华夏文明起源之谜",
        "docid": "7315700841501950490",
        "url": ""
    },
    {
        "title": "这小说泪点低慎入！和尚圆寂，来引渡他的，不是诸佛，竟是群妖！",
        "docid": "7343592816343745035",
        "url": ""
    },
    {
        "title": "当年问遍全村才借到5元钱过个年的穷人家翻身了，两兄弟衣锦还乡",
        "docid": "7330924919078961702",
        "url": ""
    },
    {
        "title": "戒掉身上的穷气（深度好文）",
        "docid": "7320816471850943028",
        "url": ""
    },
    {
        "title": "足足有42具尸体，散发出阵阵恶臭，这是当时现场法医的回忆",
        "docid": "7330223405629637157",
        "url": ""
    },
    {
        "title": "泪目！过年回家的火车上，看到这样一家子人，瞬间眼泪就掉了出来",
        "docid": "7344542005936570920",
        "url": ""
    },
    {
        "title": "帝释天当初不会武功就能屠杀凤凰，为何屠龙却要找七大高手？",
        "docid": "7326553286114099739",
        "url": ""
    },
    {
        "title": "1991年，东北黑社会老大乔四伏法，临刑前长叹：我这一辈子，值了",
        "docid": "7342371422486544935",
        "url": ""
    },
    {
        "title": "“算命先生”的话，到底该不该信？",
        "docid": "7316887769350734362",
        "url": ""
    },
    {
        "title": "天津小伙娶乌克兰美女，遇战火花光积蓄，也要带老丈人一家回中国",
        "docid": "7328243061258519080",
        "url": ""
    },
    {
        "title": "表叔嫁女儿，随礼1800，礼簿上却只落账800，我问：那1000去哪了",
        "docid": "7330962579659145769",
        "url": ""
    },
    {
        "title": "邻居过白事我记礼簿，交账时少了95元，陌生人解围改变我一生",
        "docid": "7323812569435701771",
        "url": ""
    },
    {
        "title": "20年前，儿子想跟我睡，被我拒绝，谁知他当晚就失踪了，杳无音信",
        "docid": "7317196378021839375",
        "url": ""
    },
    {
        "title": "四个祖师级别的女神仙，一个嫁给盘古，一个开天辟地！",
        "docid": "7319779018310697508",
        "url": ""
    },
    {
        "title": "缙云丨杨小霜：在古佛山，与一场桐子花相遇",
        "docid": "7343753672158970408",
        "url": ""
    },
    {
        "title": "他是洪荒界最苟的老六，可就算骗过了天道却逃不过太清圣人的法眼",
        "docid": "7340894658819523112",
        "url": ""
    },
    {
        "title": "曾经的人民路80号",
        "docid": "7344547363849208335",
        "url": ""
    },
    {
        "title": "神话般的传说",
        "docid": "7332134286784463399",
        "url": ""
    },
    {
        "title": "有哪些令人浑身发抖的故事？只要有人一提起这件事我就不能平静！",
        "docid": "7343566441893003830",
        "url": ""
    },
    {
        "title": "我从小被父母虐待，30岁靠自己买下澳门两套房，富裕的底气是读书",
        "docid": "7334315223367139877",
        "url": ""
    },
    {
        "title": "南京路往事",
        "docid": "7344421008541221428",
        "url": ""
    },
    {
        "title": "王林一人屠杀上千修士，但为啥见到个废老头，就像见鬼一样害怕呢",
        "docid": "7313726795746902538",
        "url": ""
    },
    {
        "title": "瞎子受邀去唱曲，可殊不知，听曲的却是一屋子客死他乡的孤魂野鬼",
        "docid": "7322646681294471707",
        "url": ""
    },
    {
        "title": "缙云丨舒焥：一闪一闪亮晶晶（短篇小说）",
        "docid": "7343753719537746467",
        "url": ""
    },
    {
        "title": "俩女孩，一个看琼瑶，一个看亦舒，看亦舒的女孩，48岁至今未嫁",
        "docid": "7332186627168567848",
        "url": ""
    },
    {
        "title": "我60岁在工地卖力，过年想坐高铁回家，没想到儿子竟说出这句话",
        "docid": "7336752233507275303",
        "url": ""
    },
    {
        "title": "民间故事：富商敲开穷汉门，出价万两买榕树，穷汉：这是我老祖宗",
        "docid": "7344295425296056871",
        "url": ""
    },
    {
        "title": "这是我在新疆被冻的最惨的一次，知道被冻死的人为何是笑脸模样！",
        "docid": "7329212274353209890",
        "url": ""
    },
    {
        "title": "战友当上了局长，上门求他办事时被拒绝，我回家之后直接把他拉黑",
        "docid": "7323086429663347254",
        "url": ""
    },
    {
        "title": "同学聚会，我从别人口中得知，高中时喜欢我的那女孩，已经离世了",
        "docid": "7314930182245188123",
        "url": ""
    },
    {
        "title": "父亲夺了我的三间大瓦房，断绝父子关系，最后我没给他送终",
        "docid": "7342445682608833064",
        "url": ""
    },
    {
        "title": "1975年，未婚妻在供销社工作后很快与我退亲，两年后她后悔不已",
        "docid": "7343168669515891238",
        "url": ""
    },
    {
        "title": "都说小王抠门，那小王佳音一个月赚多少钱",
        "docid": "7317922631775388200",
        "url": ""
    },
    {
        "title": "桃花剑神邓太阿剑术如何？他剑术通天，天上仙人无人敢与之一战",
        "docid": "7324665078576480803",
        "url": ""
    },
    {
        "title": "这是一部你可以看两遍，而且感觉截然不同的视频",
        "docid": "7343077437951410688",
        "url": ""
    },
    {
        "title": "孙悟空逝世后，菩提祖师愤怒至极",
        "docid": "7320942660947182089",
        "url": ""
    },
    {
        "title": "逆子深夜直播毙全家，完事后与女友共筑爱巢，“自由”4天",
        "docid": "7343855494861324835",
        "url": ""
    },
    {
        "title": "86年一个退伍女兵误把我当成小偷，揍了我一顿，后来她成了我媳妇",
        "docid": "7320439379389071908",
        "url": ""
    },
    {
        "title": "“西游怪谈大圣已死”西行路上被杀的妖魔全部都是孙悟空变的",
        "docid": "7317950802037834255",
        "url": ""
    },
    {
        "title": "难怪虚竹死后，无人敢去灵鹫宫抢夺秘籍，你看下一任宫主是谁？",
        "docid": "7339166125172933147",
        "url": ""
    },
    {
        "title": "孤女回村安葬父亲无人搭理，我爹携全家帮忙出殡，结局令人感动！",
        "docid": "7318012490880303657",
        "url": ""
    },
    {
        "title": "故事：狼群围困木厂窝棚半月，守窝棚的俩山东大汉，靠杀狼度日",
        "docid": "7316484469681357322",
        "url": ""
    },
    {
        "title": "儿时对邻居姐姐的一句玩笑话，长大了我娶你，后来真的娶了她",
        "docid": "7316783488798802443",
        "url": ""
    },
    {
        "title": "我弟985，弟媳初中毕业，都说弟媳配不上我弟，我弟却说他高攀了",
        "docid": "7325383300091609627",
        "url": ""
    },
    {
        "title": "船夫救落水尼姑，船上过夜后尼姑叮嘱：子时务必睡棺材",
        "docid": "7344348653799080488",
        "url": ""
    },
    {
        "title": "千年蛇妖好心救白蛇，吞出元神金丹为其续命，白蛇报恩嫁给蛇郎君",
        "docid": "7323131608112988724",
        "url": ""
    },
    {
        "title": "我上高中那年，同学总让我去她家帮忙，现在我每年春节都去她家",
        "docid": "7328272679809696265",
        "url": ""
    },
    {
        "title": "小姑的生活被人羡慕，她一辈子的经历告诉我：自私的女人命更好",
        "docid": "7342788726512796171",
        "url": ""
    },
    {
        "title": "别跟“下力的人”过不去",
        "docid": "7342281795011871242",
        "url": ""
    },
    {
        "title": "二郎神他的师父是谁，为何让西天如来佛祖，玉皇大帝都要避让三分",
        "docid": "7318932598888071689",
        "url": ""
    },
    {
        "title": "古代志怪故事：程君友，扈生",
        "docid": "7343435359612666405",
        "url": ""
    },
    {
        "title": "睡前神话故事——油菜花仙子",
        "docid": "7342481954748776999",
        "url": ""
    },
    {
        "title": "今天相亲了一个富二代，简直太油腻",
        "docid": "7343877966495990309",
        "url": ""
    },
    {
        "title": "老汉看守瓜田，夜里女子来偷瓜，老汉对她说：你随便吃",
        "docid": "7344354659542827583",
        "url": ""
    },
    {
        "title": "到了端午节，兄弟姐妹一起吃顿饭就会明白，最好是各过各的日子",
        "docid": "7344387935158682127",
        "url": ""
    },
    {
        "title": "捕快去妈祖庙抓人，没想到妈祖娘娘居然显灵了",
        "docid": "7311993607904068130",
        "url": ""
    },
    {
        "title": "你捡到过最贵重的东西是什么？网友：我都说了评论区都是人才",
        "docid": "7344618732033065472",
        "url": ""
    },
    {
        "title": "年初三给父亲上坟，看到一个熟悉的身影，解开了我多年的疑惑",
        "docid": "7334755965969629748",
        "url": ""
    },
    {
        "title": "我回了一趟娘家，从娘家回来后心里难受的睡不着觉",
        "docid": "7323202016892338688",
        "url": ""
    },
    {
        "title": "民间故事：8个壮汉竟抬不起一口棺材，真相是棺材铺老板动了手脚",
        "docid": "7332755995426636338",
        "url": ""
    },
    {
        "title": "敬佩！公爹临终前坚定拒绝，他是明智清醒的老人，衬托儿女的狭隘",
        "docid": "7326730312581677607",
        "url": ""
    },
    {
        "title": "民间故事：刽子手逛街，见母羊流泪下跪求助，他一念之仁救了自己",
        "docid": "7344596200664072730",
        "url": ""
    },
    {
        "title": "聊斋故事:鬼村",
        "docid": "7318964451401597466",
        "url": ""
    },
    {
        "title": "我，35岁东北女孩，放弃北京户口到英国教中国舞，老外说我是仙女",
        "docid": "7311099182675395082",
        "url": ""
    },
    {
        "title": "她做保姆这些年－豪门生活之好友意见（973）",
        "docid": "7342140004094968361",
        "url": ""
    },
    {
        "title": "民间故事：小偷刑满释放，溜进城隍庙偷供品，城隍爷神像活过来",
        "docid": "7344301382889259560",
        "url": ""
    },
    {
        "title": "那年除夕，我捡回一流浪男孩，从此，他成了我和我妈的终身依靠",
        "docid": "7336774667493048870",
        "url": ""
    },
    {
        "title": "老汉帮工一年，仅得木棍一根，木棍吐人言：帮我有厚报",
        "docid": "7344573730221310518",
        "url": ""
    },
    {
        "title": "战友突然去世，剩下十岁儿子我们五人轮流抚养，七年后三家退出",
        "docid": "7329067078961775104",
        "url": ""
    },
    {
        "title": "民间故事：猎户想要猎白鹿，山神庙上三炷香，山神：白鹿是我坐骑",
        "docid": "7344290827302748712",
        "url": ""
    },
    {
        "title": "1994年，我拒绝相亲，和穷男友私奔，现在我给父母在省城买房",
        "docid": "7327097976462115340",
        "url": ""
    },
    {
        "title": "一男子捡到玉佩卖了三十万，二十年后，发现戴在儿子脖子上",
        "docid": "7337589617895637544",
        "url": ""
    },
    {
        "title": "她做保姆这些年－豪门生活之绝处逢生（957）",
        "docid": "7336066369412350503",
        "url": ""
    },
    {
        "title": "民间故事：蛇桥",
        "docid": "7344533118164058674",
        "url": ""
    },
    {
        "title": "一条鱼总在岸边游，石匠欲要下河捞，道士说，那不是鱼",
        "docid": "7344626908551840268",
        "url": ""
    },
    {
        "title": "儿子想换大房需要60万，我掏70万买套小的，老伴不懂，邻居夸我精",
        "docid": "7344632548549050919",
        "url": ""
    },
    {
        "title": "故事：表姐退婚，我嫁给了家世衰败的落魄公子，却意外成丞相夫人",
        "docid": "7344051533367034403",
        "url": ""
    },
    {
        "title": "东北人有多会夸人？网友：我长得真一般，你猜他夸我啥？",
        "docid": "7344658832423158307",
        "url": ""
    },
    {
        "title": "男子收废品捡到古董碗卖了八万，三个月后，发现在他老爹家里",
        "docid": "7344624365914718754",
        "url": ""
    },
    {
        "title": "书生上山祭祖，好心扶正别人的墓碑，道姑：你真是糊涂",
        "docid": "7344617300202750491",
        "url": ""
    },
    {
        "title": "#七界传说 六院风云 化解误会# 修真奇缘#",
        "docid": "7344505533552198163",
        "url": ""
    },
    {
        "title": "儿媳古庙求子，被坏道士打晕带到后殿，道士：跪下赔罪",
        "docid": "7344641062083838505",
        "url": ""
    },
    {
        "title": "一家茅房正对着人家大门，县令路过道：此地必有蹊跷",
        "docid": "7344626485313045055",
        "url": ""
    },
    {
        "title": "老邻居近亿的资产说没就没了，真实事例！",
        "docid": "7340191675110687284",
        "url": ""
    },
    {
        "title": "神隐凤渊，从凤皇到天帝再到上神， 如何成为仙界无可争议的帝君",
        "docid": "7319819471856910902",
        "url": ""
    },
    {
        "title": "阔别8年的战友来看我，我花5000招待，他走后，提醒我看枕头下",
        "docid": "7322407074485453353",
        "url": ""
    },
    {
        "title": "男子上山葬父，墓地却被大蛇霸占，道士说它是在救你们",
        "docid": "7343853785397822015",
        "url": ""
    },
    {
        "title": "《夺金枝》#甜文#古代",
        "docid": "7344562705648435752",
        "url": ""
    },
    {
        "title": "书生上门求亲，被管家打断一条腿，道士说：这是好事呀",
        "docid": "7344644090694353447",
        "url": ""
    },
    {
        "title": "表妹自打成了拆迁户，走路姿势都变了，有件事想求我帮忙我没答应",
        "docid": "7344224292705632806",
        "url": ""
    },
    {
        "title": "两个小孩弄伤了一只黄鼠，当晚两个孩子接连遭了报应",
        "docid": "7344634394092864012",
        "url": ""
    },
    {
        "title": "收拾房子的那天我从粱上打扫出来一堆灰突突的东西",
        "docid": "7317615712921567796",
        "url": ""
    },
    {
        "title": "漂泊归途：谭长根的故事——从流浪者到家的温暖",
        "docid": "7344225533552575026",
        "url": ""
    },
    {
        "title": "世间最恐怖的事，就是自己吓自己！",
        "docid": "7328404944628367924",
        "url": ""
    },
    {
        "title": "底层家庭的囚徒困境（深度好文）",
        "docid": "7320607739158331913",
        "url": ""
    },
    {
        "title": "女儿送了一条好烟，父亲舍不得抽，过年时打开烟崩溃大哭",
        "docid": "7344596602218201663",
        "url": ""
    },
    {
        "title": "大舅病了，我取了五万元送过去，病房门口听到舅妈的话我改了主意",
        "docid": "7331587473254154764",
        "url": ""
    },
    {
        "title": "男要午，女要子，我是正午，我哥是半夜！怪不得我脾气坏！",
        "docid": "7314949677877871144",
        "url": ""
    },
    {
        "title": "表妹结婚大姨给2000，我结婚大姨给1000，退休后大姨想让我去陪她",
        "docid": "7338347192677335603",
        "url": ""
    },
    {
        "title": "少年意外拔出尘封的宝剑，从此走上武学巅峰",
        "docid": "7343760691558122010",
        "url": ""
    },
    {
        "title": "我一直坚信“吃亏是福”这话是对的，事实证明所吃的亏都换来福报",
        "docid": "7315990558323950130",
        "url": ""
    },
    {
        "title": "老汉耕地，不小心挖穿员外祖坟，员外不怒反喜送黄金",
        "docid": "7344579286978232886",
        "url": ""
    },
    {
        "title": "《北京奇闻》 短故事一篇！",
        "docid": "7318371308851429903",
        "url": ""
    },
    {
        "title": "民间故事：为争家业，阴险人巧设局中局，不料螳螂捕蝉，黄雀在后",
        "docid": "7344585555415908903",
        "url": ""
    },
    {
        "title": "身为纽约警察，满脑子邪恶想法，制定烹饪计划，成为汉尼拔",
        "docid": "7269259720194523705",
        "url": ""
    },
    {
        "title": "📖铭：泽泽寻找，老福特🔎",
        "docid": "7344610959018689043",
        "url": ""
    },
    {
        "title": "山西200年地主大院，老地主竟被打死，美丽女儿嫁给老光棍！",
        "docid": "7322392078426735131",
        "url": ""
    },
    {
        "title": "三名女子先后失踪，嫌疑人被抓后轻声说道“她们被我化了”",
        "docid": "7344667737136005666",
        "url": ""
    },
    {
        "title": "夫妻夜话，不想隔墙有耳，丈夫将计就计，揪出背后李鬼",
        "docid": "7344679465496183333",
        "url": ""
    },
    {
        "title": "民间故事：羊倌想要发家致富，山神赐他金毛羊，十年后仍旧没富",
        "docid": "7344281882219233832",
        "url": ""
    },
    {
        "title": "民间故事:黑白无常戏瓜农",
        "docid": "7344632910256865830",
        "url": ""
    },
    {
        "title": "才女出上联“张长弓，骑奇马，三更作战”，书生对下联，一战成名",
        "docid": "7317886792550695443",
        "url": ""
    },
    {
        "title": "我跟县委书记下乡遇到父亲没有停车，被骂当官忘本觉得很委屈",
        "docid": "7320916202673553932",
        "url": ""
    },
    {
        "title": "这样的青青草原谁还敢踏足？？！#画画 #脑洞大开 #灵魂画手",
        "docid": "7344277760699073058",
        "url": ""
    },
    {
        "title": "当齐道临看到石昊成为荒天帝时，居然差点被吓了个半死",
        "docid": "7344640941443809827",
        "url": ""
    },
    {
        "title": "从坟地里出来的人，往村里走去，结果引出了怪案",
        "docid": "7344658741159395894",
        "url": ""
    },
    {
        "title": "民间故事：丫鬟被罚夜间洗衣，听见二人对话，她躲在地窖逃过一劫",
        "docid": "7344585343057969716",
        "url": ""
    },
    {
        "title": "拆迁赔了80万，因为一箱葡萄让我偷偷藏起钱，带老伴头也不回离开",
        "docid": "7344604524088492570",
        "url": ""
    },
    {
        "title": "民间故事：女子为了救母，偷走了神仙的仙草，却惹来了杀身之祸",
        "docid": "7344359882575282729",
        "url": ""
    },
    {
        "title": "两个愚蠢的毛贼拦路打劫，不曾想阴差阳错破了奇案！",
        "docid": "7344634641804624403",
        "url": ""
    },
    {
        "title": "男子请人挖水井，小儿子说下面卧着一条龙，三个月后看见巨龙飞升",
        "docid": "7344623782206177807",
        "url": ""
    },
    {
        "title": "男子救水鬼，夜归时被水鬼拽入坟墓，他说你出去必死",
        "docid": "7344387618135638554",
        "url": ""
    },
    {
        "title": "书生去赶考，请三位秀才喝酒，秀才：你要记住三道试题",
        "docid": "7344619694492025394",
        "url": ""
    },
    {
        "title": "民间妖怪故事",
        "docid": "7343975647666307584",
        "url": ""
    },
    {
        "title": "《宋江日记》之三十九",
        "docid": "7344321566056235535",
        "url": ""
    },
    {
        "title": "带孙整整三年，上午卧病在床，下午被儿子送回老家，大妈：都怪我",
        "docid": "7344630289567941132",
        "url": ""
    },
    {
        "title": "古代四大美女故事之一～贵妃醉酒",
        "docid": "7344592554161242651",
        "url": ""
    },
    {
        "title": "历史中真正的牛魔王原型！",
        "docid": "7312729875872711183",
        "url": ""
    },
    {
        "title": "#小说推荐 #抖音故事 #评分9.5分以上的小说 #古风小说",
        "docid": "7344259722708845056",
        "url": ""
    },
    {
        "title": "体光长老：前生老修行，今生花花公子哥",
        "docid": "7344476124099019302",
        "url": ""
    },
    {
        "title": "民间故事(木匠斗法)",
        "docid": "7320044865507557898",
        "url": ""
    },
    {
        "title": "刺猬讨口封，单身汉说像人，刺猬：你的妻子大你59岁",
        "docid": "7344670929277977129",
        "url": ""
    },
    {
        "title": "中国文学研究的开拓者  现代文学研究的奠基人王瑶  平遥道备村人",
        "docid": "7344462004247069199",
        "url": ""
    },
    {
        "title": "四九城大老虎，康师傅都怕他，却被骗20余年",
        "docid": "7314984184253317668",
        "url": ""
    },
    {
        "title": "倒霉的小伙两次阴差阳错躲过土匪的绑架，好人有好报",
        "docid": "7344660641061470761",
        "url": ""
    },
    {
        "title": "经典文章诵读，《吃面》，作者：贾平凹",
        "docid": "7317837171170542107",
        "url": ""
    },
    {
        "title": "邻居厕所盖在我家门口，父亲不阻止还帮忙，后来明白他的大智若愚",
        "docid": "7344643164332114470",
        "url": ""
    },
    {
        "title": "他为母寻药，路遇美姑娘搭讪，不图美色得到狐仙相助",
        "docid": "7344658946248442409",
        "url": ""
    },
    {
        "title": "一男子翻出天然玛瑙卖了十万，不久后，发现在女朋友家的桌子上",
        "docid": "7344614696609169958",
        "url": ""
    },
    {
        "title": "老板娘解释海鲜为何如此安静，让人哭笑不得",
        "docid": "7344597481055240719",
        "url": ""
    },
    {
        "title": "同房后，女子嘱咐未婚夫来提亲，未婚夫：那根本不是我",
        "docid": "7344675611459961398",
        "url": ""
    },
    {
        "title": "天尊带弟子下凡，装乞丐遭人追打，唯有小童出手送馒头",
        "docid": "7344677837942653466",
        "url": ""
    },
    {
        "title": "民间故事：屠夫杀猪连断三刀，隔日离奇暴毙，道士：割开肚子看看",
        "docid": "7321728322055537162",
        "url": ""
    },
    {
        "title": "民间故事：男子欺辱寡妇，寡妇装疯报恩，她说：一不做二不休",
        "docid": "7327293359570174515",
        "url": ""
    },
    {
        "title": "去老公舅舅家吊丧，我和老公一人开一辆车",
        "docid": "7340153527471751695",
        "url": ""
    },
    {
        "title": "好物分享｜静安的围城——矛盾无处不在（103）",
        "docid": "7343803645034529316",
        "url": ""
    },
    {
        "title": "三男二女乘船过河，途中没了踪影，隔日五头小猪降生了",
        "docid": "7344632921631785483",
        "url": ""
    },
    {
        "title": "民间故事：落魄书生偶得奇遇，一夜间才华横溢，成就状元传奇",
        "docid": "7344620139872338432",
        "url": ""
    },
    {
        "title": "书生深夜看戏，醒来身处乱葬岗，道士：准备后事吧",
        "docid": "7344655128617976383",
        "url": ""
    },
    {
        "title": "性格直爽口无遮拦的语文老师。",
        "docid": "7344490191106949647",
        "url": ""
    },
    {
        "title": "两条大鱼在水面打架，渔夫射中一条，因而成为当地富户",
        "docid": "7344636072665973311",
        "url": ""
    },
    {
        "title": "她做保姆这些年－豪门生活之烂醉如泥（979）",
        "docid": "7344631446935749183",
        "url": ""
    },
    {
        "title": "一猿一鹤随主人修行，主人成仙，白鹤却在人间历经磨难",
        "docid": "7344627391316410891",
        "url": ""
    },
    {
        "title": "我给村里一位独居老人包了六年饺子，没想到的是如今他女儿来找我",
        "docid": "7327590762743398964",
        "url": ""
    },
    {
        "title": "#持续更新中 1 叶qiao一觉睡醒穿成了万人迷小说里的工具人二师姐",
        "docid": "7344553513059353128",
        "url": ""
    },
    {
        "title": "民间故事：书生桥上摆摊卖字，收摊时河中鲤鱼跃起：帮我写个字",
        "docid": "7344292064965771816",
        "url": ""
    },
    {
        "title": "神奇山谷传说",
        "docid": "7344539992280334911",
        "url": ""
    },
    {
        "title": "中国最后一位赶尸匠，亲自演示赶尸过程，揭开恐怖职业背后的秘密",
        "docid": "7337224489572237839",
        "url": ""
    },
    {
        "title": "我飞3000多公里去看远嫁女儿，女婿却冷漠对待，回家时更无人送行",
        "docid": "7324591502431355392",
        "url": ""
    }
]