[
    {
        "title": "美军被中俄超越很着急，超高声速武器屡屡失败，“暗鹰”又被推迟",
        "docid": "7309767929896272410",
        "url": "https://www.ixigua.com/7309767929896272410"
    },
    {
        "title": "问界M9底盘实测曝光，又一次遥遥领先",
        "docid": "7310150358238822963",
        "url": "https://www.ixigua.com/7310150358238822963"
    },
    {
        "title": "一场“赌上一切”的战争：巴勒斯坦人不反抗，等待他们的只有灭亡",
        "docid": "7287788189408821779",
        "url": "https://www.ixigua.com/7287788189408821779"
    },
    {
        "title": "邱贻可女儿撞到王楚钦，紧急刹车，陪孙颖莎离场，被韩国人盯着看",
        "docid": "7310091558853411365",
        "url": "https://www.ixigua.com/7310091558853411365"
    },
    {
        "title": "卧底!辽宁借将吴昌泽13.9秒致命回场违例,葬送吉林好局送10连败",
        "docid": "7310243341835305535",
        "url": ""
    },
    {
        "title": "大搞消费积分返利模式的荟花集团被质疑以传销方式进行非法集资",
        "docid": "7310248388526735881",
        "url": ""
    },
    {
        "title": "中国需要缅甸和平稳定，民地武对缅北不可或缺",
        "docid": "7310164459136221708",
        "url": "https://www.ixigua.com/7310164459136221708"
    },
    {
        "title": "蔡磊对话尹烨，渐冻症基因检测有重大突破",
        "docid": "7291717042036539941",
        "url": "https://www.ixigua.com/7291717042036539941"
    },
    {
        "title": "看我怎么用3.0的子线，拿捏这里的大鲢鳙",
        "docid": "7280841682425315898",
        "url": "https://www.ixigua.com/7280841682425315898"
    },
    {
        "title": "明明开打还说不是！白宫引军方不满！",
        "docid": "7309220574193156645",
        "url": "https://www.ixigua.com/7309220574193156645"
    },
    {
        "title": "撕掉司机超限证还耍无赖的执法人员，终于老实道歉了",
        "docid": "7310155210935632393",
        "url": "https://www.ixigua.com/7310155210935632393"
    },
    {
        "title": "果敢同盟军攻打老街，展开巷战，有了神秘的重装武器",
        "docid": "7310036023482941963",
        "url": "https://www.ixigua.com/7310036023482941963"
    },
    {
        "title": "俄乌战场暴露生存窘境，坦克将继续当万金油，还是脱胎换骨？",
        "docid": "7309370984140636672",
        "url": "https://www.ixigua.com/7309370984140636672"
    },
    {
        "title": "承认反攻失败，乌高官态度大变，让泽连斯基当背锅侠，乌面临内乱",
        "docid": "7308994406068650559",
        "url": "https://www.ixigua.com/7308994406068650559"
    },
    {
        "title": "三大消息：美国德州闹独立！战机护航普京出行！泽连斯基对手被杀",
        "docid": "7309809536880247311",
        "url": "https://www.ixigua.com/7309809536880247311"
    },
    {
        "title": "谁让你们是央企！8岁男孩翻进变电站遭电击截肢，家属索赔100万！",
        "docid": "7310212559817802252",
        "url": "https://www.ixigua.com/7310212559817802252"
    },
    {
        "title": "被查者（674）黑龙江副省长王一新受查：海南农垦和山西反腐深入",
        "docid": "7310127728965976627",
        "url": "https://www.ixigua.com/7310127728965976627"
    },
    {
        "title": "为什么黄金价格屡创新高",
        "docid": "7309650150450954767",
        "url": "https://www.ixigua.com/7309650150450954767"
    },
    {
        "title": "美中程导弹部队派往关岛的可能性多大？会否存在其他部署地点？",
        "docid": "7309719712173130294",
        "url": "https://www.ixigua.com/7309719712173130294"
    },
    {
        "title": "五代机四亮点升级! 美称陆六代机是最大威胁",
        "docid": "7280036749378748967",
        "url": "https://www.ixigua.com/7280036749378748967"
    },
    {
        "title": "歼-35现身福建舰甲板：骂了沈飞10多年的人，时间不多了",
        "docid": "7310251594417701413",
        "url": "https://www.ixigua.com/7310251594417701413"
    },
    {
        "title": "老头追打孙子，编导生一看这不灵感来了吗",
        "docid": "7286830768490611258",
        "url": "https://www.ixigua.com/7286830768490611258"
    },
    {
        "title": "小伙戏里戏外都是内涵，勇气值拉满",
        "docid": "7285275862579184139",
        "url": "https://www.ixigua.com/7285275862579184139"
    },
    {
        "title": "猛男火车上英雄救美，这也太帅了吧",
        "docid": "7281593730979594789",
        "url": "https://www.ixigua.com/7281593730979594789"
    },
    {
        "title": "万物皆可避风塘！这道酥香脆爽的粤式下饭菜鲜味满分！",
        "docid": "7278891070409638461",
        "url": "https://www.ixigua.com/7278891070409638461"
    },
    {
        "title": "以军急于推进在加沙南部行动，双方尚未进入真正短兵相接阶段",
        "docid": "7309445621579153959",
        "url": "https://www.ixigua.com/7309445621579153959"
    },
    {
        "title": "尹正气呼呼的样子太可爱了，这小嘴一撅简直封神",
        "docid": "7291551472695640639",
        "url": "https://www.ixigua.com/7291551472695640639"
    },
    {
        "title": "少爷写血书救老婆，族长却坚持要将她沉入江中",
        "docid": "7282326725525307941",
        "url": "https://www.ixigua.com/7282326725525307941"
    },
    {
        "title": "不出意外的话会出意外！林朝夕穿越过去成孤儿",
        "docid": "7277147031913628194",
        "url": "https://www.ixigua.com/7277147031913628194"
    },
    {
        "title": "我被杀猪盘骗走407万，老公想着买桶汽油轻生",
        "docid": "7309545256804942377",
        "url": "https://www.ixigua.com/7309545256804942377"
    },
    {
        "title": "说唱就唱，独属于傻弟弟的任性",
        "docid": "7292988986354565695",
        "url": "https://www.ixigua.com/7292988986354565695"
    },
    {
        "title": "被俄苏35碾压，乌抱怨米格29太差，盼F16尽快到手，一举改变战局",
        "docid": "7309735091377439270",
        "url": "https://www.ixigua.com/7309735091377439270"
    },
    {
        "title": "【精游日本】徜徉在“结缘寺”的得失之间",
        "docid": "7310279719113753099",
        "url": ""
    },
    {
        "title": "北京街头（一三五）大型批发市场：注水牛肉大张旗鼓卖，谁在监管",
        "docid": "7278203857274929699",
        "url": "https://www.ixigua.com/7278203857274929699"
    },
    {
        "title": "淄博市原副市长刘荣喜被双开:和不法商人勾肩搭背？",
        "docid": "7310268038152978978",
        "url": "https://www.ixigua.com/7310268038152978978"
    },
    {
        "title": "煤气罐自己可能也想到，有生之年竟然还能做炮弹使用！",
        "docid": "7310037061191336463",
        "url": "https://www.ixigua.com/7310037061191336463"
    },
    {
        "title": "大湾区直飞新西兰，经济舱也能躺着飞",
        "docid": "7288140424458764854",
        "url": "https://www.ixigua.com/7288140424458764854"
    },
    {
        "title": "美国衰退了？基地被炸70次，军舰在红海遇袭，拜登不敢大动作报复",
        "docid": "7309741428010451492",
        "url": "https://www.ixigua.com/7309741428010451492"
    },
    {
        "title": "加沙地道是如何建成的？以色列严格限制下的“人力工程”",
        "docid": "7297608122946814491",
        "url": "https://www.ixigua.com/7297608122946814491"
    },
    {
        "title": "栏杆断裂，是劲大？还是太渣？信任危机\n护栏护不住，就别叫护栏",
        "docid": "7295701478403113535",
        "url": "https://www.ixigua.com/7295701478403113535"
    },
    {
        "title": "同一个世界同一堵墙，这边人间炼狱那边音乐节狂欢，遇害者无辜吗",
        "docid": "7288240556663276088",
        "url": "https://www.ixigua.com/7288240556663276088"
    },
    {
        "title": "台军斥巨资在全岛打造15座鱼叉雄风反舰导弹阵地，有何险恶用心",
        "docid": "7300168374913499675",
        "url": "https://www.ixigua.com/7300168374913499675"
    },
    {
        "title": "以色列“内战”打响？如果内塔尼亚胡下台，巴以会不会停火？",
        "docid": "7310179775421612579",
        "url": "https://www.ixigua.com/7310179775421612579"
    },
    {
        "title": "中国经济看数据：中欧班列稳增，小布什弟弟感慨中国崩溃论仍盛行",
        "docid": "7309394463473238554",
        "url": "https://www.ixigua.com/7309394463473238554"
    },
    {
        "title": "父亲中风、脑淤血，母亲尿毒症、肾功能衰竭，我被杀猪盘骗407万",
        "docid": "7309546003919536690",
        "url": "https://www.ixigua.com/7309546003919536690"
    },
    {
        "title": "发言人：联合国秘书长是不会辞职的！",
        "docid": "7309927058363122230",
        "url": "https://www.ixigua.com/7309927058363122230"
    },
    {
        "title": "还是来了，冯德莱恩到访北京，启程前对中国表态了，措辞不同",
        "docid": "7309780281576292900",
        "url": "https://www.ixigua.com/7309780281576292900"
    },
    {
        "title": "12.5万人战死，1.6万装备被毁，乌反攻损失惨重，北约1年白干了",
        "docid": "7307890267875934756",
        "url": "https://www.ixigua.com/7307890267875934756"
    },
    {
        "title": "大妈可真生猛！偷走榴莲后嫌不熟，竟跑回店里要退款",
        "docid": "7287136567544513024",
        "url": "https://www.ixigua.com/7287136567544513024"
    },
    {
        "title": "张军谈安理会推迟投票：某成员国有意见",
        "docid": "7310247065853002279",
        "url": "https://www.ixigua.com/7310247065853002279"
    },
    {
        "title": "路“坑”人，填坑慢就是不作为",
        "docid": "7293679631553528320",
        "url": "https://www.ixigua.com/7293679631553528320"
    },
    {
        "title": "野蛮执法何时休，货车司机证件被执法人员当场撕毁，简直胡作非为",
        "docid": "7310124257525432867",
        "url": "https://www.ixigua.com/7310124257525432867"
    },
    {
        "title": "【谢寒冰｜新闻秘辛】冰哥带你了解节目幕后你所不知道的秘密",
        "docid": "7307933514693870120",
        "url": "https://www.ixigua.com/7307933514693870120"
    },
    {
        "title": "人工智能第三代来临，今后的发展方向是什么？开发任务依旧严峻",
        "docid": "7289693373080961594",
        "url": "https://www.ixigua.com/7289693373080961594"
    },
    {
        "title": "笑不活了，刚通网的44岁的郁美净，竟然开始吐槽别人来的晚了！",
        "docid": "7278998723450012219",
        "url": "https://www.ixigua.com/7278998723450012219"
    },
    {
        "title": "女明星化身思想开导师，竟拿自己举例子勇气十足",
        "docid": "7283831531846500918",
        "url": "https://www.ixigua.com/7283831531846500918"
    },
    {
        "title": "太神了！哈兰德头顶脚踢连续攻门 大马丁精彩两连扑",
        "docid": "7309674948136534582",
        "url": "https://www.ixigua.com/7309674948136534582"
    },
    {
        "title": "数字经济时代跟我们有什么关系？通俗易懂的解释来了！",
        "docid": "7289642961787322917",
        "url": "https://www.ixigua.com/7289642961787322917"
    },
    {
        "title": "坐720℃穿越飞船，在“元宇宙”中感受盛世圆明园，英国女孩哭了",
        "docid": "7281395095201382952",
        "url": "https://www.ixigua.com/7281395095201382952"
    },
    {
        "title": "11.98万起，和D-MAX同源，T30探险家最大卖点是比D-MAX便宜？",
        "docid": "7310035969141375026",
        "url": "https://www.ixigua.com/7310035969141375026"
    },
    {
        "title": "国家法律不让烧，地方政府限制烧，\n烧秸秆，四种都对的说法",
        "docid": "7296804635153695259",
        "url": "https://www.ixigua.com/7296804635153695259"
    },
    {
        "title": "姚洋：把中国的债务和美国相比，是牛头不对马嘴",
        "docid": "7278507400372421120",
        "url": "https://www.ixigua.com/7278507400372421120"
    },
    {
        "title": "叶檀：我的癌细胞活性基本消失，但在脊柱上有个肿块11月可能手术",
        "docid": "7294690669333840447",
        "url": "https://www.ixigua.com/7294690669333840447"
    },
    {
        "title": "面对10国发难，朝方回应：侵犯太空资源被视为宣战，中方明确表态",
        "docid": "7309024394222207524",
        "url": "https://www.ixigua.com/7309024394222207524"
    },
    {
        "title": "UFO真实存在实证来了？从犹太人手中抢来的飞碟残片？",
        "docid": "7299726187704779290",
        "url": "https://www.ixigua.com/7299726187704779290"
    },
    {
        "title": "建行浙江省分行原资深副经理李晓虹接受调查:金融腐败咋破题？",
        "docid": "7309726850316993024",
        "url": "https://www.ixigua.com/7309726850316993024"
    },
    {
        "title": "河北“最大烂尾楼”：被誉为石家庄“城市之窗”，如今复活成泡影",
        "docid": "7296412949680390695",
        "url": "https://www.ixigua.com/7296412949680390695"
    },
    {
        "title": "美国把中国当朋友还是什么？从可欺的对象变可怕对手，你同意吗？",
        "docid": "7284260739655664189",
        "url": "https://www.ixigua.com/7284260739655664189"
    },
    {
        "title": "干扰朝鲜卫星将视为宣战？美国乌克兰政策失败！普京宣布大幅扩军",
        "docid": "7307949010470306304",
        "url": "https://www.ixigua.com/7307949010470306304"
    },
    {
        "title": "12月第一周新能源SUV销量榜前十，理想占三席，9款都是国产车",
        "docid": "7310015310160020008",
        "url": ""
    },
    {
        "title": "深宫怨妇！为侯友宜助选，柯文哲开台直播，吓坏柯粉",
        "docid": "7310177885611655695",
        "url": "https://www.ixigua.com/7310177885611655695"
    },
    {
        "title": "三大消息：美防长威胁与俄开战！土耳其要买中国战机？美使馆遭袭",
        "docid": "7310212114465948200",
        "url": "https://www.ixigua.com/7310212114465948200"
    },
    {
        "title": "以色列第一次发布哈马斯投降画面 传达什么信息？",
        "docid": "7310039267773219364",
        "url": "https://www.ixigua.com/7310039267773219364"
    },
    {
        "title": "联合国秘书长援引宪章第99条，凸显冲突严重性和安理会效率不足",
        "docid": "7309743612211528244",
        "url": "https://www.ixigua.com/7309743612211528244"
    },
    {
        "title": "男子捡到学生手机，向失主索要千元，不给钱就刷机，警方给出建议",
        "docid": "7308641875844891188",
        "url": "https://www.ixigua.com/7308641875844891188"
    },
    {
        "title": "年底“价格战”越打越凶：上汽大众至高5.8万，哪吒S官降3万",
        "docid": "7309407116819972627",
        "url": ""
    },
    {
        "title": "联合国秘书长发飙了，拿出“最强力工具”，以色列代表：你，辞职",
        "docid": "7310044874034823680",
        "url": ""
    },
    {
        "title": "要“面子”也要“里子”，选问界M9还是奔驰E？",
        "docid": "7309656132128080395",
        "url": ""
    },
    {
        "title": "迪拜：风浪越大，鱼越贵",
        "docid": "7297433672985100815",
        "url": ""
    },
    {
        "title": "严为民：是大转折，敢于下手！",
        "docid": "7309719958123545123",
        "url": ""
    },
    {
        "title": "有人把讨钱写进了遗嘱，818名诺亚投资人的艰难四年",
        "docid": "7309791858228822568",
        "url": ""
    },
    {
        "title": "湖北这2个学位授权点被撤销：华师、三峡大学",
        "docid": "7309377852854616591",
        "url": ""
    },
    {
        "title": "渐行渐远的自己",
        "docid": "7309883576614044194",
        "url": ""
    },
    {
        "title": "全新Singer ACS，可以越野的保时捷911，带三把锁",
        "docid": "7309816147728433674",
        "url": ""
    },
    {
        "title": "天下最鲜嫩的蔬菜：豌豆尖",
        "docid": "7309688811070505507",
        "url": ""
    },
    {
        "title": "星娱乐悉尼赌场如无法顺利重获经营牌照或遭关闭",
        "docid": "7309670744584487475",
        "url": ""
    },
    {
        "title": "缅北木姐至曼德勒、仰光至妙瓦底车费太贵！民众：能去就不错了",
        "docid": "7309801146641072694",
        "url": ""
    },
    {
        "title": "沈阳浑南区实验小学举办“雅阅未来 书香溢彩”读书交流分享会",
        "docid": "7310035371013063207",
        "url": ""
    },
    {
        "title": "【区议会选举】四公务员团体发联合声明 全力支持区选 呼吁踊跃投票",
        "docid": "7310118264288526883",
        "url": ""
    },
    {
        "title": "国产新晋MPV到底有多少？ | 四万说车",
        "docid": "7309750755316154931",
        "url": ""
    },
    {
        "title": "象棋神少帅：2023象甲淘汰赛第二轮 王禹博巅峰对决王天一 超神杀",
        "docid": "7309392530687296026",
        "url": "https://www.ixigua.com/7309392530687296026"
    },
    {
        "title": "为啥说曾毅是“地上说唱皇帝”？梵音Rap一开口，感觉被超度了",
        "docid": "7289383726230798885",
        "url": "https://www.ixigua.com/7289383726230798885"
    },
    {
        "title": "美国军用无人机专家：你们这么搞没法玩了！",
        "docid": "7307940872338244133",
        "url": "https://www.ixigua.com/7307940872338244133"
    },
    {
        "title": "美国参议员指控，中国大蒜构成重大国家安全风险",
        "docid": "7310378344565146131",
        "url": ""
    },
    {
        "title": "大庆杏南第二小学：举行国学吟诵教育活动，营造书香校园良好氛围",
        "docid": "7310376352010764835",
        "url": ""
    },
    {
        "title": "江西2.2亿元大奖诞生地：两家彩票店相隔3公里 一家国庆前才开业",
        "docid": "7309718191004254783",
        "url": "https://www.ixigua.com/7309718191004254783"
    },
    {
        "title": "撕膜提车，爽！小杨第一辆MPV为啥选择它？",
        "docid": "7309821836999524391",
        "url": "https://www.ixigua.com/7309821836999524391"
    },
    {
        "title": "王波明激辩刘纪鹏： “一股独大”是股市之痛吗？(上）",
        "docid": "7291604104718221862",
        "url": "https://www.ixigua.com/7291604104718221862"
    },
    {
        "title": "72小时内，美德法接连对华出招，崔天凯：中国不会成为另一个美国",
        "docid": "7309067077611225640",
        "url": "https://www.ixigua.com/7309067077611225640"
    },
    {
        "title": "对美亮剑，令世界见识中国先进武器，让美反华盟友预感下场可悲",
        "docid": "7300391655398441498",
        "url": "https://www.ixigua.com/7300391655398441498"
    },
    {
        "title": "杜旭东的路，是自己堵死的！",
        "docid": "7304960986359235122",
        "url": "https://www.ixigua.com/7304960986359235122"
    },
    {
        "title": "缅北政府军遭同盟军重创，中缅边境情况紧急，解放军已做两手准备",
        "docid": "7309378149400183333",
        "url": "https://www.ixigua.com/7309378149400183333"
    },
    {
        "title": "美女被一个娃娃气得暴怒，怒气冲冲跑出来竟跑了个空",
        "docid": "7283820942952759847",
        "url": "https://www.ixigua.com/7283820942952759847"
    },
    {
        "title": "委内瑞拉和圭亚那领土争端升级，委已向边境派兵，双方会开战吗？",
        "docid": "7309828913172546088",
        "url": "https://www.ixigua.com/7309828913172546088"
    },
    {
        "title": "家务男团评价傅首尔的衣服，越说越离谱可还行",
        "docid": "7279230387195544064",
        "url": "https://www.ixigua.com/7279230387195544064"
    },
    {
        "title": "电影《河边的错误》走进北大，陈鲁豫对话余华魏书钧朱一龙",
        "docid": "7291564503735632442",
        "url": "https://www.ixigua.com/7291564503735632442"
    },
    {
        "title": "郭斌心疼笑笑，和王楠打嘴仗，王楠训老公：心情不好给你们一锅端",
        "docid": "7292445433165840906",
        "url": "https://www.ixigua.com/7292445433165840906"
    },
    {
        "title": "伍佰被苏州上了一课，全程无划水，苏州专治各种——摸鱼",
        "docid": "7282787254051963431",
        "url": "https://www.ixigua.com/7282787254051963431"
    },
    {
        "title": "就像三蹦子别卡车！菲破船碰擦我舰前几秒，船员疑似慌忙躲进船舱",
        "docid": "7292804602758595082",
        "url": "https://www.ixigua.com/7292804602758595082"
    },
    {
        "title": "渐冻症斗士蔡磊，如今点击只能靠脚，除了睡觉基本都在办公室",
        "docid": "7291717656804229682",
        "url": "https://www.ixigua.com/7291717656804229682"
    },
    {
        "title": "王楠儿子没吃完饭转身就走，被富豪老爸叫回吃干净，成笑笑好榜样",
        "docid": "7278822738779865661",
        "url": "https://www.ixigua.com/7278822738779865661"
    },
    {
        "title": "【浩歌】第1次吃农家大锅饭，日本友人有被“香”到！",
        "docid": "7277877143332192808",
        "url": "https://www.ixigua.com/7277877143332192808"
    },
    {
        "title": "这菜每年都吃不够，太下饭！",
        "docid": "7308901342486430258",
        "url": "https://www.ixigua.com/7308901342486430258"
    },
    {
        "title": "日本领空不归日本管？美军这座菩萨日本算是送不走了！",
        "docid": "7309707221816836619",
        "url": "https://www.ixigua.com/7309707221816836619"
    },
    {
        "title": "巴黎传来一个坏消息",
        "docid": "7308651835856945718",
        "url": "https://www.ixigua.com/7308651835856945718"
    },
    {
        "title": "笑笑游上海想买礼物，富豪爸爸嫌贵假装不买，和小贩砍价斗智斗勇",
        "docid": "7305675575698391602",
        "url": "https://www.ixigua.com/7305675575698391602"
    },
    {
        "title": "怀特30分波尔津吉斯复出砍21分，绿军胜尼克斯",
        "docid": "7310424569217712681",
        "url": ""
    },
    {
        "title": "当年叛逃者垂垂老矣！这女孩弃保不归，为美西方反华输入一滴新血",
        "docid": "7310392466589499916",
        "url": ""
    },
    {
        "title": "哦，故乡的折耳根……",
        "docid": "7310405277738697252",
        "url": ""
    },
    {
        "title": "班凯罗24分魔术32分大胜送活塞19连败",
        "docid": "7310416852092846644",
        "url": ""
    },
    {
        "title": "晚上睡觉嘴巴“干干”的？不一定是缺水，小心这3种疾病",
        "docid": "7292035081693512231",
        "url": ""
    },
    {
        "title": "安理会决议又被美国否决 联合国为何拿加沙战争没啥办法？",
        "docid": "7310379667994132992",
        "url": ""
    },
    {
        "title": "怨声载道！柯文哲人设大变成怨妇，怨气满满别怪选民辜负！",
        "docid": "7310409244493365779",
        "url": ""
    },
    {
        "title": "智人也自扰",
        "docid": "7310301715004178982",
        "url": ""
    },
    {
        "title": "1.6亿元一艘，47节的美舰低价甩卖，台岛想买6艘，解放军更放心了",
        "docid": "7310405118988567094",
        "url": ""
    },
    {
        "title": "【区议会选举】海关关长：与内地海关协调 确保投票日口岸人流畅顺",
        "docid": "7310220626210587171",
        "url": ""
    },
    {
        "title": "女子星巴克喝咖啡，却要求店员赶走外卖员，店方做法让网友点赞",
        "docid": "7307959468883608075",
        "url": "https://www.ixigua.com/7307959468883608075"
    },
    {
        "title": "王波明对话刘纪鹏：两位老兵“刨根问底”中国股市",
        "docid": "7289009027856630272",
        "url": "https://www.ixigua.com/7289009027856630272"
    },
    {
        "title": "实测长安启源A07能耗，一年省下一部华为新手机，家用太舒适",
        "docid": "7310158867441614898",
        "url": "https://www.ixigua.com/7310158867441614898"
    },
    {
        "title": "首例方程豹豹5“自燃”？",
        "docid": "7310230820883071026",
        "url": "https://www.ixigua.com/7310230820883071026"
    },
    {
        "title": "女飞人韦永丽：同龄人在参加全国赛时我还在为伙食费发愁",
        "docid": "7285738489331581481",
        "url": "https://www.ixigua.com/7285738489331581481"
    },
    {
        "title": "清华博士玛丽安：大学老师的社会地位不足以弥补她收入的缺失",
        "docid": "7300789730659336739",
        "url": "https://www.ixigua.com/7300789730659336739"
    },
    {
        "title": "陕西70岁农民哽咽道歉，求你们别买我们家猕猴桃了，原因令人心酸",
        "docid": "7277493355704123943",
        "url": "https://www.ixigua.com/7277493355704123943"
    },
    {
        "title": "香酥可口🤩好吃到渣都不剩❗️老广家常菜绝了❗️",
        "docid": "7304890910523785728",
        "url": "https://www.ixigua.com/7304890910523785728"
    },
    {
        "title": "宝藏大省 江西",
        "docid": "7288511035634352703",
        "url": "https://www.ixigua.com/7288511035634352703"
    },
    {
        "title": "陈思诚：明白我们到底为什么活着，你就不会受困当下的得失",
        "docid": "7301733366963896844",
        "url": "https://www.ixigua.com/7301733366963896844"
    },
    {
        "title": "佟丽娅跳新疆舞火热开场，简直美到心坎里了",
        "docid": "7278870531145728551",
        "url": "https://www.ixigua.com/7278870531145728551"
    },
    {
        "title": "在缅北诈骗集团，里面的大佬夸我天生适合干诈骗",
        "docid": "7282443131797111348",
        "url": "https://www.ixigua.com/7282443131797111348"
    },
    {
        "title": "乌克兰高层内讧加剧，被泽连斯基针对后，扎卢日内找美国告状",
        "docid": "7309357896045855266",
        "url": "https://www.ixigua.com/7309357896045855266"
    },
    {
        "title": "破案了！莫伊塞斯染红完整版来了！他到底冤不冤",
        "docid": "7295638955800658442",
        "url": "https://www.ixigua.com/7295638955800658442"
    },
    {
        "title": "婚姻陋习有多可怕？保时捷婚车被上40把锁，开1把锁就要给1条烟",
        "docid": "7309842327772758567",
        "url": "https://www.ixigua.com/7309842327772758567"
    },
    {
        "title": "老妈突击检查，女儿着急忙慌清理男友的战场",
        "docid": "7296372817606640162",
        "url": "https://www.ixigua.com/7296372817606640162"
    },
    {
        "title": "恶霸赶来北京搞破坏，少爷被诬陷偷档案给日本人",
        "docid": "7287600262032982562",
        "url": "https://www.ixigua.com/7287600262032982562"
    },
    {
        "title": "北约差点爆发内战，英媒披露重磅消息：约翰逊曾计划突袭荷兰",
        "docid": "7309364511054496268",
        "url": "https://www.ixigua.com/7309364511054496268"
    },
    {
        "title": "中国月壤“太独特”，NASA递交申请，想要中国赠送，中方有言在先",
        "docid": "7308634419718259239",
        "url": "https://www.ixigua.com/7308634419718259239"
    },
    {
        "title": "朔尔茨确实不行，“德国制造”神话破灭，已经去工业化",
        "docid": "7310448727330701858",
        "url": ""
    },
    {
        "title": "不堪回首！1949年3月，一个外国人拍摄的“老广州”",
        "docid": "7286687462913524279",
        "url": ""
    },
    {
        "title": "美国的新天方夜谭：延长台海冲突，让解放军的速战速决变持久战",
        "docid": "7310457942649520640",
        "url": ""
    },
    {
        "title": "周末打“虎”，河北省纪委“内鬼”副书记陈玉祥被查！",
        "docid": "7310395554402861622",
        "url": ""
    },
    {
        "title": "双轨并行，明日齐举步！",
        "docid": "7310452080731488777",
        "url": ""
    },
    {
        "title": "乌克兰内讧升级，泽连斯基越级指挥，乌军总司令被架空，军队乱了",
        "docid": "7309697951993954842",
        "url": "https://www.ixigua.com/7309697951993954842"
    },
    {
        "title": "金鸡奖中的人情世故，在何赛飞获奖那一刻，现出了原形",
        "docid": "7298687657519874599",
        "url": "https://www.ixigua.com/7298687657519874599"
    },
    {
        "title": "事不关己高高挂起！香港人对时政失去兴趣，社会能恢复往日生机？",
        "docid": "7284086547207586367",
        "url": "https://www.ixigua.com/7284086547207586367"
    },
    {
        "title": "金店开业一周，老板每天取走百万现金，无人光顾流水却高达千万",
        "docid": "7288974674485379624",
        "url": "https://www.ixigua.com/7288974674485379624"
    },
    {
        "title": "乒乓球冠军张怡宁，谈到她在香港的生活：吃喝、天气我都很习惯！",
        "docid": "7305751342302429736",
        "url": "https://www.ixigua.com/7305751342302429736"
    },
    {
        "title": "坐客司马南工作室很荣幸！2年前约定终实现",
        "docid": "7299451495831994943",
        "url": "https://www.ixigua.com/7299451495831994943"
    },
    {
        "title": "怀疑幕后黑手 官官相护 操控舆论“鲶鱼”事件 实话实说又如何",
        "docid": "7279034288161423872",
        "url": "https://www.ixigua.com/7279034288161423872"
    },
    {
        "title": "安理会加沙决议遭否 抗议者堵门联合国总部",
        "docid": "7310395661248102947",
        "url": "https://www.ixigua.com/7310395661248102947"
    },
    {
        "title": "500万广告灯箱被偷，10年后发现城管是真凶！法院回应：管不了！",
        "docid": "7294622087690486335",
        "url": "https://www.ixigua.com/7294622087690486335"
    },
    {
        "title": "游戏界最大骗局？发售1天差评如潮！浩劫前夕为何引发众怒？",
        "docid": "7310454235915616822",
        "url": "https://www.ixigua.com/7310454235915616822"
    },
    {
        "title": "战场训练场无坚不摧，官场审讯室铁骨铮铮！",
        "docid": "7286068564438712851",
        "url": "https://www.ixigua.com/7286068564438712851"
    },
    {
        "title": "注册制尚未真正“市场化”，需对监管制度进行改革",
        "docid": "7294199562619748900",
        "url": "https://www.ixigua.com/7294199562619748900"
    },
    {
        "title": "自己不战，不会有人为了你而战",
        "docid": "7280153384496300583",
        "url": "https://www.ixigua.com/7280153384496300583"
    },
    {
        "title": "酸辣鲜甜的清新Brunch！当甜虾牛油果遇到法式吐司会有怎样惊喜？",
        "docid": "7290034927830041100",
        "url": "https://www.ixigua.com/7290034927830041100"
    },
    {
        "title": "美国男子掰断兵马俑手指，竟审了六年还不用坐牢！",
        "docid": "7279119665874666040",
        "url": "https://www.ixigua.com/7279119665874666040"
    },
    {
        "title": "勇士失误28比9！科尔：打得不像冠军球队",
        "docid": "7310470259817890313",
        "url": ""
    },
    {
        "title": "郭松民 | 臣妾主义的前世今生",
        "docid": "7310448870663012883",
        "url": ""
    },
    {
        "title": "泽连斯基梦碎？匈牙利称很多国家反对，应删除乌克兰入盟谈判议题",
        "docid": "7310112948326760975",
        "url": "https://www.ixigua.com/7310112948326760975"
    },
    {
        "title": "苍天饶过谁！白所成儿子女儿坐飞机逃跑被炸死，白家的报应来了",
        "docid": "7302373394572378678",
        "url": "https://www.ixigua.com/7302373394572378678"
    },
    {
        "title": "高端局！天才和天才的对决，裴之直接拜老林为师",
        "docid": "7277529890147336758",
        "url": "https://www.ixigua.com/7277529890147336758"
    },
    {
        "title": "钞能力太强了，富二代求爱直接包楼变魔术",
        "docid": "7279379871103615547",
        "url": "https://www.ixigua.com/7279379871103615547"
    },
    {
        "title": "清华女博士抑郁后转型做占星师，月入3万",
        "docid": "7300787998625366563",
        "url": "https://www.ixigua.com/7300787998625366563"
    },
    {
        "title": "又靓又能打!李月汝狂砍23+9+3贝西克塔斯25分大胜,连续5场砍下20+",
        "docid": "7310481282721595967",
        "url": ""
    },
    {
        "title": "陕西学者齐声唤贤原创“一日一词”：“一令纸”您读得准吗？",
        "docid": "7310482584742740518",
        "url": ""
    },
    {
        "title": "灾难面前，企业要扮演怎样的角色？",
        "docid": "7278288967852950074",
        "url": "https://www.ixigua.com/7278288967852950074"
    },
    {
        "title": "姐姐为保护妹妹被恶霸杀害，少爷随老婆浪迹天涯",
        "docid": "7282715819958764051",
        "url": "https://www.ixigua.com/7282715819958764051"
    },
    {
        "title": "陕西学者齐声唤贤原创“一日一词”：“令姓”的“令”有一音3调",
        "docid": "7310479745458946598",
        "url": ""
    },
    {
        "title": "“曼哈顿计划”唯一女科学家，为何《奥本海默》却对她只字未提？",
        "docid": "7292244771044033035",
        "url": "https://www.ixigua.com/7292244771044033035"
    },
    {
        "title": "闺蜜投奔鬼子当汉奸，女特工求她，下秒闺蜜做法关系决裂！",
        "docid": "7278293283414278714",
        "url": "https://www.ixigua.com/7278293283414278714"
    },
    {
        "title": "轻松唱唱，没有压力，这种状态最好。",
        "docid": "7288241186454635071",
        "url": "https://www.ixigua.com/7288241186454635071"
    },
    {
        "title": "缅甸政府对缅北够狠的！政治经济文化恶毒三策",
        "docid": "7309396732297773595",
        "url": "https://www.ixigua.com/7309396732297773595"
    },
    {
        "title": "女子被杀猪盘骗走407万，截止目前仅追回10多万",
        "docid": "7309545713451401765",
        "url": "https://www.ixigua.com/7309545713451401765"
    },
    {
        "title": "架空扎卢日内，泽连斯基开始采取行动，直接向更低级军官下达命令",
        "docid": "7309398340351820327",
        "url": "https://www.ixigua.com/7309398340351820327"
    },
    {
        "title": "蔡磊：我们在与生命时间赛跑。尹烨：我陪着您跑，背着您跑",
        "docid": "7291718791497515571",
        "url": "https://www.ixigua.com/7291718791497515571"
    },
    {
        "title": "一个失利接着一个失利，一次道歉接着一次道歉\n姚明应该辞职吗？",
        "docid": "7286788667115471360",
        "url": "https://www.ixigua.com/7286788667115471360"
    },
    {
        "title": "福克斯末节23分国王力克太阳，布克14中10砍28+7+7",
        "docid": "7310447095331176970",
        "url": ""
    },
    {
        "title": "带两个+号更强！这领克轿车开着太爽了 能合法上路的赛车？",
        "docid": "7294085152005849650",
        "url": "https://www.ixigua.com/7294085152005849650"
    },
    {
        "title": "电影《傍晚向日葵》：人生最后，你选择在哪结束，如何打通生死",
        "docid": "7308256528787014183",
        "url": "https://www.ixigua.com/7308256528787014183"
    },
    {
        "title": "酱香拿铁、酒心巧克力、冰激凌、三甲医院有钱！茅台上演狂想曲",
        "docid": "7280138198909616698",
        "url": "https://www.ixigua.com/7280138198909616698"
    },
    {
        "title": "酥脆鲜嫩青花鱼和粒粒弹牙蒜香炒饭的组合！简单高级感初冬暖食！",
        "docid": "7299678868553040421",
        "url": "https://www.ixigua.com/7299678868553040421"
    },
    {
        "title": "【区议会选举】选前之夜七台联播西九大汇演 近百位歌手艺人参与",
        "docid": "7310221505051869736",
        "url": ""
    },
    {
        "title": "物资匮乏！“缺”字当选台年度代表字，暴露民进党当局施政不力",
        "docid": "7310494042071155239",
        "url": ""
    },
    {
        "title": "台湾名嘴：大陆90%的网友赞同\"武力台湾\"，网友说一说你们的想法",
        "docid": "7308641769258746419",
        "url": "https://www.ixigua.com/7308641769258746419"
    },
    {
        "title": "李开复谈年轻时如何做选择，为啥80年代读冷门专业AI？",
        "docid": "7297152901385257487",
        "url": "https://www.ixigua.com/7297152901385257487"
    },
    {
        "title": "货拉拉今年第三次被约谈，一次次挑战监管底线的原因曝光",
        "docid": "7310477706519380515",
        "url": "https://www.ixigua.com/7310477706519380515"
    },
    {
        "title": "办迷笛， 政府确实很拼；偷钱财，村民的确很猛\n南阳，怎么说你好",
        "docid": "7287169008502047271",
        "url": "https://www.ixigua.com/7287169008502047271"
    },
    {
        "title": "名人名著读后感1500字",
        "docid": "7310517376716522020",
        "url": ""
    },
    {
        "title": "一亮点看诗言一（七绝）",
        "docid": "7310516836117103119",
        "url": ""
    },
    {
        "title": "乌陆军司令是俄罗斯人，俄战场指挥是乌克兰人",
        "docid": "7310508877210976795",
        "url": "https://www.ixigua.com/7310508877210976795"
    },
    {
        "title": "预备党员思想汇报",
        "docid": "7310524218864124457",
        "url": ""
    },
    {
        "title": "一圣诞节辨析一（七绝）",
        "docid": "7310515960082186802",
        "url": ""
    },
    {
        "title": "一基辛格遗言一（七绝）",
        "docid": "7310516478397317672",
        "url": ""
    },
    {
        "title": "男子捡到“流浪”狗，警方要求送回2次遭拒，被认定盗窃拘留13天",
        "docid": "7310500623579873804",
        "url": "https://www.ixigua.com/7310500623579873804"
    },
    {
        "title": "想逼中国签不平等条约？欧盟不满对华贸易逆差，向中方下达通牒",
        "docid": "7309795683484697097",
        "url": "https://www.ixigua.com/7309795683484697097"
    },
    {
        "title": "笑喷!郭艾伦戴金丝眼镜场边观战辽篮,吃面包一不留神把防腐剂吃了",
        "docid": "7310467000483054121",
        "url": ""
    },
    {
        "title": "世界工厂从中国转移到印度、越南后，为何留不住年轻人了？",
        "docid": "7287847055589179945",
        "url": "https://www.ixigua.com/7287847055589179945"
    },
    {
        "title": "台湾谣言大陆没靠背？大陆高铁品质比台湾高铁还高！",
        "docid": "7277893980225241657",
        "url": "https://www.ixigua.com/7277893980225241657"
    },
    {
        "title": "东北大妈跪地索要20万！大衣哥拒绝后反遭怒怼：你还有人情味吗？",
        "docid": "7310514424681333287",
        "url": "https://www.ixigua.com/7310514424681333287"
    },
    {
        "title": "雅万高铁是印尼名片，但印尼还远远不够",
        "docid": "7303471413514633791",
        "url": "https://www.ixigua.com/7303471413514633791"
    },
    {
        "title": "允许美军进驻，瑞典迈出最危险一步，或将造成严重后果",
        "docid": "7310498918339772954",
        "url": "https://www.ixigua.com/7310498918339772954"
    },
    {
        "title": "中两亿多大奖事件：须“异地调查”，须强力机关介入，回应舆情",
        "docid": "7309900327900316212",
        "url": "https://www.ixigua.com/7309900327900316212"
    },
    {
        "title": "古今职场一个理：韩愈给皇帝上奏表（提点小意见），差点搭上小命",
        "docid": "7261234079051416103",
        "url": ""
    },
    {
        "title": "一加12快闪活动如期而至！早晨7点就开始排队，抢先入手就是香！",
        "docid": "7310537339875852809",
        "url": ""
    },
    {
        "title": "缅甸经常缺油，存点拉点汽油可以吗？违法；此地加油要先开证明",
        "docid": "7310537877979775499",
        "url": ""
    },
    {
        "title": "又一场战争要爆发？委内瑞拉进入全面备战状态，圭亚那向美国求助",
        "docid": "7310522962829181459",
        "url": "https://www.ixigua.com/7310522962829181459"
    },
    {
        "title": "司机疲劳驾驶，让乘客帮忙开车！发生车祸后，法院判司机赔60万！",
        "docid": "7310529795312812556",
        "url": "https://www.ixigua.com/7310529795312812556"
    },
    {
        "title": "歼-16挂载霹雳17亮相，射程超400公里，F-22一样可以拿下",
        "docid": "7309446125411369526",
        "url": "https://www.ixigua.com/7309446125411369526"
    },
    {
        "title": "电影《沉默笔录》：呼喊和细雨中归于平凡，世纪末小镇青年成熟史",
        "docid": "7308239788614615587",
        "url": "https://www.ixigua.com/7308239788614615587"
    },
    {
        "title": "最新的代差：        六代机凭啥碾压五代机？",
        "docid": "7307607077336449575",
        "url": "https://www.ixigua.com/7307607077336449575"
    },
    {
        "title": "它真让人意想不到，竟然还……",
        "docid": "7310511046442254857",
        "url": "https://www.ixigua.com/7310511046442254857"
    },
    {
        "title": "乌克兰发动2次针对俄西伯利亚铁路破坏性袭击，想达到什么目的？",
        "docid": "7308954615054565938",
        "url": "https://www.ixigua.com/7308954615054565938"
    },
    {
        "title": "忍无可忍，135艘中国船只涌入牛轭礁，关键时刻，美军舰营救失败",
        "docid": "7309030728548024872",
        "url": "https://www.ixigua.com/7309030728548024872"
    },
    {
        "title": "直播Q&A 基辛格去世，美国还会有中间人士吗？",
        "docid": "7308265057916289563",
        "url": "https://www.ixigua.com/7308265057916289563"
    },
    {
        "title": "缅甸东枝市液化气短缺，价格飙升，家庭主妇要“崩溃”",
        "docid": "7310539131909128767",
        "url": ""
    },
    {
        "title": "中美军事对话仍未重启，白宫甩锅给中国，称因中方没有任命新防长",
        "docid": "7310541394525831743",
        "url": ""
    },
    {
        "title": "中国开放市场重组供应链 ，意大利却退出一带一路？",
        "docid": "7310523373824672297",
        "url": "https://www.ixigua.com/7310523373824672297"
    },
    {
        "title": "苹果排骨｜有空气炸锅的冲！不放油的酥烂脱骨！",
        "docid": "7291167080559477284",
        "url": "https://www.ixigua.com/7291167080559477284"
    },
    {
        "title": "美国巨额对乌援款受阻，奥斯汀只好画“大饼”，称不给钱就出战",
        "docid": "7310538579045384744",
        "url": "https://www.ixigua.com/7310538579045384744"
    },
    {
        "title": "手握400万发炮弹，俄组建5个重炮旅，1天打2万发，乌死伤惨重",
        "docid": "7310522807702520383",
        "url": "https://www.ixigua.com/7310522807702520383"
    },
    {
        "title": "华为你慢点走，神话故事快不够，这波又杀疯了！",
        "docid": "7279457396760838692",
        "url": "https://www.ixigua.com/7279457396760838692"
    },
    {
        "title": "乌克兰承认反攻失败后，北约秘书长告知成员国：做好坏消息的准备",
        "docid": "7308636137533211176",
        "url": "https://www.ixigua.com/7308636137533211176"
    },
    {
        "title": "还记得曾火遍全国的《童话》吗？光良时隔18年再唱，听哭了！",
        "docid": "7291216329175106089",
        "url": "https://www.ixigua.com/7291216329175106089"
    },
    {
        "title": "泰国是全球最大人口贩卖中心，中国伤残乞丐背后或有恐怖故事",
        "docid": "7305348661905621545",
        "url": "https://www.ixigua.com/7305348661905621545"
    },
    {
        "title": "货车司机投诉通行证被执法人员撕烂 收费站涉事人员登门道歉",
        "docid": "7310111039981683237",
        "url": "https://www.ixigua.com/7310111039981683237"
    },
    {
        "title": "月薪1800去上海交大做保安，还要求研究生学历？别拿误读传播焦虑",
        "docid": "7310214593992491572",
        "url": "https://www.ixigua.com/7310214593992491572"
    },
    {
        "title": "象棋神少帅：2023象甲冠军赛第一轮 王天一力挽狂澜 杭州险平四川",
        "docid": "7310550127842689576",
        "url": "https://www.ixigua.com/7310550127842689576"
    },
    {
        "title": "逛云南菜场！吃见手青！大理的日常到底有多美好？！",
        "docid": "7281177568420725306",
        "url": "https://www.ixigua.com/7281177568420725306"
    },
    {
        "title": "你看懂中美竞争的实质，就明白该不该考公务员",
        "docid": "7287089420304384569",
        "url": "https://www.ixigua.com/7287089420304384569"
    },
    {
        "title": "“救市工具”为什么接连失效？王波明：关键是对未来经济缺乏信心",
        "docid": "7293457946455999028",
        "url": "https://www.ixigua.com/7293457946455999028"
    },
    {
        "title": "核污水冲击下的日料店",
        "docid": "7286311565530563131",
        "url": "https://www.ixigua.com/7286311565530563131"
    },
    {
        "title": "从不敢让领导坐，到不需要人来飞，中国无人直升机有多牛？",
        "docid": "7293848151444685322",
        "url": "https://www.ixigua.com/7293848151444685322"
    },
    {
        "title": "老公知眼红，举报丁讲师，这帮人润美国，也算是帮我们排毒养颜了",
        "docid": "7310161706095985164",
        "url": ""
    },
    {
        "title": "巴以一直没彻底停火的原因出现！俄乌的动作在其中很关键",
        "docid": "7310533270708748836",
        "url": "https://www.ixigua.com/7310533270708748836"
    },
    {
        "title": "被骗到缅北第一天我就被打了，我哥在旁边无能为力",
        "docid": "7282442884798743059",
        "url": "https://www.ixigua.com/7282442884798743059"
    },
    {
        "title": "好物分享｜马斯克有多牛？生了9个孩子，每天3亿美元进账，经营私人火箭公司",
        "docid": "7310564524388516386",
        "url": "https://www.ixigua.com/7310564524388516386"
    },
    {
        "title": "已持续一个月，俄军三路反攻，到底都取得了哪些战果？",
        "docid": "7310563678683431474",
        "url": "https://www.ixigua.com/7310563678683431474"
    },
    {
        "title": "中国侦察兵黑豹突击队，惊险超过加里森敢死队！",
        "docid": "7299394986863395354",
        "url": "https://www.ixigua.com/7299394986863395354"
    },
    {
        "title": "每周石评 | 谁成功克服了人口危机难题？",
        "docid": "7290433301586641448",
        "url": "https://www.ixigua.com/7290433301586641448"
    },
    {
        "title": "朝天门大桥建成14年了，但轨道层的那两车道，一直未能通车，这个",
        "docid": "7309456331638112780",
        "url": "https://www.ixigua.com/7309456331638112780"
    },
    {
        "title": "英国将首次与9个欧洲伙伴国组成“联合反应部队”，对俄海上监视",
        "docid": "7308974596785766946",
        "url": "https://www.ixigua.com/7308974596785766946"
    },
    {
        "title": "将军把媳妇绑上车，谁料媳妇张嘴就是国粹",
        "docid": "7289056405208859191",
        "url": "https://www.ixigua.com/7289056405208859191"
    },
    {
        "title": "不要挑拨群体地域矛盾，中国人要团结一致向前",
        "docid": "7302757055834784256",
        "url": "https://www.ixigua.com/7302757055834784256"
    },
    {
        "title": "太像詹姆斯了！桑普森顶开马尚，起飞隔人暴扣",
        "docid": "7309492608391348771",
        "url": "https://www.ixigua.com/7309492608391348771"
    },
    {
        "title": "想钱想疯了？人行道变停车场设卡收费，电动车出入必须扫码付费！",
        "docid": "7308382526706287143",
        "url": "https://www.ixigua.com/7308382526706287143"
    },
    {
        "title": "超七成美国人认为，中美在5年内会开战！美军高层称已做好准备",
        "docid": "7308310321167827471",
        "url": "https://www.ixigua.com/7308310321167827471"
    },
    {
        "title": "华为余承东:我并不想做华为代言人",
        "docid": "7283336699638186557",
        "url": "https://www.ixigua.com/7283336699638186557"
    },
    {
        "title": "你这个婆娘脑壳有点矿#四川方言 #搞笑 @赵小雪",
        "docid": "7294522710414230054",
        "url": "https://www.ixigua.com/7294522710414230054"
    },
    {
        "title": "尹正这小嘴一撅，真的可爱到我了",
        "docid": "7288314379832361529",
        "url": "https://www.ixigua.com/7288314379832361529"
    },
    {
        "title": "一个月赚够14万才能免生活费，一盘土豆丝要88块没钱上厕所都没纸",
        "docid": "7282444821803827764",
        "url": "https://www.ixigua.com/7282444821803827764"
    },
    {
        "title": "结的越来越少，离的越来越多\n婚姻，越来越不招人待见",
        "docid": "7280163899293630995",
        "url": "https://www.ixigua.com/7280163899293630995"
    },
    {
        "title": "莫兰德太皮了！摔倒后顺势解开了篮下摄影师的鞋带",
        "docid": "7310225831727465010",
        "url": "https://www.ixigua.com/7310225831727465010"
    },
    {
        "title": "用在移动端，类似麒麟9000S的芯片，美国本土有公司可以量产吗？",
        "docid": "7277280634140262972",
        "url": "https://www.ixigua.com/7277280634140262972"
    },
    {
        "title": "贵州习水防尘彩钢棚垮塌，6人遇难：结构不科学？防护不到位？",
        "docid": "7310585639232733707",
        "url": "https://www.ixigua.com/7310585639232733707"
    },
    {
        "title": "命硬！红魔血脉再度为腾哈格续命",
        "docid": "7309634668175983141",
        "url": "https://www.ixigua.com/7309634668175983141"
    },
    {
        "title": "是时候拆解“美西方”了",
        "docid": "7309839405249167923",
        "url": "https://www.ixigua.com/7309839405249167923"
    },
    {
        "title": "【番外】墨脱森林里的巨型十大功劳",
        "docid": "7288244539481915939",
        "url": "https://www.ixigua.com/7288244539481915939"
    },
    {
        "title": "每周石评 | 李光耀也有看走眼的时候",
        "docid": "7281891040653804043",
        "url": "https://www.ixigua.com/7281891040653804043"
    },
    {
        "title": "炫富有多可恶？它是对草根情感的消费及伤害",
        "docid": "7307618827502780979",
        "url": "https://www.ixigua.com/7307618827502780979"
    }
]