[
    {
        "title": "雷蒙多称中国不是朋友后，中方对美送出大麦订单，购买量创新高",
        "docid": "7309478901335376421",
        "url": ""
    },
    {
        "title": "解放军加速建造核潜艇，另一条路也没放弃，一型潜艇改出4个样子",
        "docid": "7307167780011246107",
        "url": ""
    },
    {
        "title": "欧冠奖金榜：7队超6000万！皇马第1，曼联4800万排第13",
        "docid": "7307031018870178331",
        "url": ""
    },
    {
        "title": "女人有了这3大表现，妇科病可能已经很严重，别再拖了",
        "docid": "7281082756761797175",
        "url": ""
    },
    {
        "title": "这家超市招工，录取比例是10:1，只因扫厕所的基本工资是4800元",
        "docid": "7297377879321543204",
        "url": ""
    },
    {
        "title": "安徽马鞍山博望区：文化赋能 环境助力 跑出乡村振兴加速度",
        "docid": "7309490181827510822",
        "url": ""
    },
    {
        "title": "“云舞东海——云龙子大师东京风水书法展”开幕",
        "docid": "7309385218237366818",
        "url": ""
    },
    {
        "title": "缅甸克耶军证实：联军占领克耶邦与掸邦交界区的Mobye分镇",
        "docid": "7309431842334212618",
        "url": ""
    },
    {
        "title": "千钧一发！国民党想赢要抓住重点，把重心瞄准民进党拉中间选票！",
        "docid": "7308614431964332598",
        "url": ""
    },
    {
        "title": "服务好不好，请你提意见！湘潭殡仪馆党建业务两结合促发展",
        "docid": "7309307973199872563",
        "url": ""
    },
    {
        "title": "朔州市第二小学校举行“我最喜爱的一本书”主题演讲比赛",
        "docid": "7309419306092134947",
        "url": ""
    },
    {
        "title": "菲欲凑40艘船冲击仁爱礁，解放军开展实训，演练打击敌武装渔船",
        "docid": "7309068229371265574",
        "url": ""
    },
    {
        "title": "徐小明：不变应万变",
        "docid": "7296726523846033930",
        "url": ""
    },
    {
        "title": "缅甸边境激战导致千人被困，粮食短缺求援无门",
        "docid": "7309427920840442418",
        "url": ""
    },
    {
        "title": "解密被罢免的省人大代表｜新闻实战",
        "docid": "7308952067098296882",
        "url": ""
    },
    {
        "title": "让人瞠目结舌的一幕",
        "docid": "7307397447955857939",
        "url": ""
    },
    {
        "title": "缅甸孟都边贸口岸进出口贸易数据大揭秘，新线路带来哪些变化？",
        "docid": "7309049266847236634",
        "url": ""
    },
    {
        "title": "2023数学国赛东北高中表现如何？两人进入国集，可划分三个档次！",
        "docid": "7308645073800266290",
        "url": ""
    },
    {
        "title": "张裕的忧伤，一醉不能方休？",
        "docid": "7293806246007095848",
        "url": ""
    },
    {
        "title": "战火缓解！缅甸敏比亚地区恢复往日热闹景象",
        "docid": "7308677694349771273",
        "url": ""
    },
    {
        "title": "元旦节前，部分退休人员养老金重算补差，记得做2件事，关系收入",
        "docid": "7307888633070813737",
        "url": ""
    },
    {
        "title": "好强是性格 | 做事讲原则——一种不同的态度",
        "docid": "7308725199284126223",
        "url": ""
    },
    {
        "title": "广湛高铁珠三角枢纽机场段首座隧道顺利贯通",
        "docid": "7309519284013728307",
        "url": ""
    },
    {
        "title": "叙利亚总统夫人：“你们的国家很美！”说说我在叙利亚见的人和事",
        "docid": "7282217783906124300",
        "url": ""
    },
    {
        "title": "刀郎先生暂别江湖潜心去搞创作",
        "docid": "7309508622634517001",
        "url": ""
    },
    {
        "title": "中建二局三公司与苏交科集团股份有限公司签署战略合作协议",
        "docid": "7309525216445678131",
        "url": ""
    },
    {
        "title": "让每个学生都“超有成就感”！这位北京市优秀班主任用了这个大招",
        "docid": "7309371427810066980",
        "url": ""
    },
    {
        "title": "美国大学校长的风骨",
        "docid": "7309481369363923495",
        "url": ""
    },
    {
        "title": "国外人形机器人团队大盘点",
        "docid": "7309372848236282402",
        "url": ""
    },
    {
        "title": "象棋神少帅：2023象甲淘汰赛一 蒋融冰VS莫梓健 上海6:2广东晋级",
        "docid": "7309063201272889896",
        "url": "https://www.ixigua.com/7309063201272889896"
    },
    {
        "title": "据说，两位大佬谈得是换电标准化！",
        "docid": "7306725027557146651",
        "url": "https://www.ixigua.com/7306725027557146651"
    },
    {
        "title": "当乐坛前辈第一次听周深唱歌，瞬间失去表情管理，集体惊讶！",
        "docid": "7291982193311220275",
        "url": "https://www.ixigua.com/7291982193311220275"
    },
    {
        "title": "来中国12年“第一次”就这样没了？！罗定，低成本快乐长膘的城市",
        "docid": "7276670569700033081",
        "url": "https://www.ixigua.com/7276670569700033081"
    },
    {
        "title": "看上了别克昂科威，别着急下手，先看看视频再决定",
        "docid": "7309046693247811621",
        "url": "https://www.ixigua.com/7309046693247811621"
    },
    {
        "title": "张宇：唯一只唱老婆写歌的歌手，华语乐坛“苦情王子”，首首经典",
        "docid": "7290851413822079503",
        "url": "https://www.ixigua.com/7290851413822079503"
    },
    {
        "title": "交通运输部发文推进自动驾驶，商用车先行，司机饭碗不保？",
        "docid": "7308991498580656166",
        "url": "https://www.ixigua.com/7308991498580656166"
    },
    {
        "title": "原来这些“神曲”都是伍佰写的？十多年过去了，仍是经典！",
        "docid": "7281581993911910931",
        "url": "https://www.ixigua.com/7281581993911910931"
    },
    {
        "title": "选秀成名火遍全国，却被公司雪藏十年，原来这些歌都是陈楚生唱的",
        "docid": "7281575317037285945",
        "url": "https://www.ixigua.com/7281575317037285945"
    },
    {
        "title": "《时光音乐会》十大“封神”现场，堪称华乐教科书，全程高能！",
        "docid": "7299385988588306953",
        "url": "https://www.ixigua.com/7299385988588306953"
    },
    {
        "title": "世界最贵的绳子!揭秘航母战机降落\"拦阻索\"中国制!帅化民蔡正元评",
        "docid": "7307123044659986955",
        "url": "https://www.ixigua.com/7307123044659986955"
    },
    {
        "title": "求网红别再毁歌了，《奢香夫人》唱成靡靡之音，原唱听了想打人",
        "docid": "7289365572679270951",
        "url": "https://www.ixigua.com/7289365572679270951"
    },
    {
        "title": "航母阻拦索一根150万美元 曾遭暗讽\"做不出来\" 揭密河北钢索厂",
        "docid": "7308304903926252043",
        "url": "https://www.ixigua.com/7308304903926252043"
    },
    {
        "title": "四年磨一剑！第三届中国中医药新媒体传播峰会来啦",
        "docid": "7309297545581691401",
        "url": ""
    },
    {
        "title": "黄霄云“杀疯”了！原曲电脑合成的《人鱼之歌》，竟被她唱出来了",
        "docid": "7304217026216755764",
        "url": "https://www.ixigua.com/7304217026216755764"
    },
    {
        "title": "原来普通美国人的篮球水平是这样的",
        "docid": "7293348859189821991",
        "url": "https://www.ixigua.com/7293348859189821991"
    },
    {
        "title": "林园：别怂，好日子要来了",
        "docid": "7307272620075024937",
        "url": "https://www.ixigua.com/7307272620075024937"
    },
    {
        "title": "一首歌“逆天改命”，巅峰时突然消失，如今靠一首歌再次翻红",
        "docid": "7298281173426700851",
        "url": "https://www.ixigua.com/7298281173426700851"
    },
    {
        "title": "亲历者讲述缅北逃亡被追杀全过程",
        "docid": "7282407540363788815",
        "url": "https://www.ixigua.com/7282407540363788815"
    },
    {
        "title": "被郑丽文抓到证据，直呛日本派来的？被质询官员当场瑟瑟发抖！",
        "docid": "7309043885710901810",
        "url": "https://www.ixigua.com/7309043885710901810"
    },
    {
        "title": "离开滤镜就原形毕露，这几位偶像明星，尬吹颜值羞不羞？",
        "docid": "7291612772129833512",
        "url": "https://www.ixigua.com/7291612772129833512"
    },
    {
        "title": "三个玄机？！探秘日本房产市场火热的背后你该知道什么！",
        "docid": "7309368663423844891",
        "url": "https://www.ixigua.com/7309368663423844891"
    },
    {
        "title": "平地风雷：中国垂直起降战机的历史、传奇与突破！",
        "docid": "7309330322779587111",
        "url": ""
    },
    {
        "title": "美国计划5年内半导体“去中国化”？终将落空",
        "docid": "7309145852193276470",
        "url": "https://www.ixigua.com/7309145852193276470"
    },
    {
        "title": "“关系户”硬演“影视美人”，满屏都是富二代，内娱没人了吗？",
        "docid": "7295691106421998114",
        "url": "https://www.ixigua.com/7295691106421998114"
    },
    {
        "title": "认识30年的德国发小来中国找我啦！首站重庆美食",
        "docid": "7308916511853249059",
        "url": "https://www.ixigua.com/7308916511853249059"
    },
    {
        "title": "二手玫瑰在《乐夏》杀疯了，《仙儿》唢呐一响，嗨翻全场！",
        "docid": "7293812859233829413",
        "url": "https://www.ixigua.com/7293812859233829413"
    },
    {
        "title": "不同国家的“哀乐”差别这么大？中国最庄重，非洲最离谱！",
        "docid": "7296773108197753353",
        "url": "https://www.ixigua.com/7296773108197753353"
    },
    {
        "title": "千万不能让00后太早上班，看看亚运会BGM放的啥？这谁顶得住",
        "docid": "7287140284780315192",
        "url": "https://www.ixigua.com/7287140284780315192"
    },
    {
        "title": "童言无忌，小孩哥也有烦恼",
        "docid": "7297790115698049563",
        "url": "https://www.ixigua.com/7297790115698049563"
    },
    {
        "title": "丰田与其他越野车区别，中国武器需要引以为鉴",
        "docid": "7309058659424829978",
        "url": "https://www.ixigua.com/7309058659424829978"
    },
    {
        "title": "蔡磊×叶檀，一场生与死的对谈",
        "docid": "7294657885517447716",
        "url": "https://www.ixigua.com/7294657885517447716"
    },
    {
        "title": "为凑房租，以军士兵端机枪抢超市，月入3000和哈马斯玩什么命啊？",
        "docid": "7307430504108818970",
        "url": "https://www.ixigua.com/7307430504108818970"
    },
    {
        "title": "明明开打还说不是！白宫引军方不满！",
        "docid": "7309220574193156645",
        "url": "https://www.ixigua.com/7309220574193156645"
    },
    {
        "title": "实测阿维塔12续航，居然跑了600多公里，你还满意吗？",
        "docid": "7307511872469598760",
        "url": "https://www.ixigua.com/7307511872469598760"
    },
    {
        "title": "承认了!美军武发展成本飙升 两因素恐令哨兵弹道飞弹沦废铁",
        "docid": "7308662552479662607",
        "url": "https://www.ixigua.com/7308662552479662607"
    },
    {
        "title": "近十年火爆全网的男女对唱，最后一首太离谱了，你都听过几首？",
        "docid": "7283780272267624996",
        "url": "https://www.ixigua.com/7283780272267624996"
    },
    {
        "title": "金主爸爸雷军坐镇节目，马东作为正方直接认输",
        "docid": "7288516402481201664",
        "url": "https://www.ixigua.com/7288516402481201664"
    },
    {
        "title": "18万8彩礼当事人：男生不比女生低一等，为啥平白无故给这么多钱",
        "docid": "7305094915061449235",
        "url": "https://www.ixigua.com/7305094915061449235"
    },
    {
        "title": "终于来淄博吃烧烤了 王炳忠在此“留”下英雄泪",
        "docid": "7276127811276898875",
        "url": "https://www.ixigua.com/7276127811276898875"
    },
    {
        "title": "坐全欧洲最大最豪华的大巴，翻越阿尔卑斯山是种怎样的体验？",
        "docid": "7285554239877677603",
        "url": "https://www.ixigua.com/7285554239877677603"
    },
    {
        "title": "你绝对想不到，欧文如此坦白（一）",
        "docid": "7283368991475630631",
        "url": "https://www.ixigua.com/7283368991475630631"
    },
    {
        "title": "台湾人跟大陆人互相敌视!?【小编提问中】",
        "docid": "7290826352213787191",
        "url": "https://www.ixigua.com/7290826352213787191"
    },
    {
        "title": "来中国12年终于吃到正宗大东北美食了！",
        "docid": "7288190181960745512",
        "url": "https://www.ixigua.com/7288190181960745512"
    },
    {
        "title": "不愧是前数学天才，赌神老林大展身手",
        "docid": "7281962246413451815",
        "url": "https://www.ixigua.com/7281962246413451815"
    },
    {
        "title": "降息周期、美元跌，2024游资往哪里跑?",
        "docid": "7308316662267118090",
        "url": "https://www.ixigua.com/7308316662267118090"
    },
    {
        "title": "蒙语的杀伤力有多强？玲花一开口瞬间注入灵魂，太惊艳了！",
        "docid": "7287884269257491002",
        "url": "https://www.ixigua.com/7287884269257491002"
    },
    {
        "title": "物价高，燃油高！缅北八莫民众出行难、生活难，样样难",
        "docid": "7309048818774180361",
        "url": ""
    },
    {
        "title": "中国经济看数据：中欧班列稳增，小布什弟弟感慨中国崩溃论仍盛行",
        "docid": "7309394463473238554",
        "url": "https://www.ixigua.com/7309394463473238554"
    },
    {
        "title": "蔡磊对话尹烨，渐冻症基因检测有重大突破",
        "docid": "7291717042036539941",
        "url": "https://www.ixigua.com/7291717042036539941"
    },
    {
        "title": "歼20战术优势 极端战场下机弹分离成关键 帅化民点评",
        "docid": "7290474774696821285",
        "url": "https://www.ixigua.com/7290474774696821285"
    },
    {
        "title": "员工好心帮助美女反被骂，竟还被骂上热搜太离谱",
        "docid": "7284563061594292796",
        "url": "https://www.ixigua.com/7284563061594292796"
    },
    {
        "title": "这就是德国国格？德国驻华大使馆官微多次发疯",
        "docid": "7309078115756868106",
        "url": "https://www.ixigua.com/7309078115756868106"
    },
    {
        "title": "对华封锁高科技，美国突然变脸，索要中国月球土壤，理由冠冕堂皇",
        "docid": "7309061235662815756",
        "url": "https://www.ixigua.com/7309061235662815756"
    },
    {
        "title": "在学历面前，宁可让孩子恨一时好过恨一世#言之有理#",
        "docid": "7294530219103552039",
        "url": "https://www.ixigua.com/7294530219103552039"
    },
    {
        "title": "恒大许老板倒台后，为什么没有人相信团长白珊珊？",
        "docid": "7296782764991644223",
        "url": "https://www.ixigua.com/7296782764991644223"
    },
    {
        "title": "希望我这个赛段的经历能够鼓励到每一个朋友",
        "docid": "7308764306177262130",
        "url": "https://www.ixigua.com/7308764306177262130"
    },
    {
        "title": "《最炫民族风》成心肺复苏指定用曲？医学生：跟着节奏考满分！",
        "docid": "7282704022870590004",
        "url": "https://www.ixigua.com/7282704022870590004"
    },
    {
        "title": "山温水暖趣贺州，跟我赴一场温泉之旅吧#秋冬游广西正是好时节",
        "docid": "7309060975667118630",
        "url": "https://www.ixigua.com/7309060975667118630"
    },
    {
        "title": "从迟到舞会到嫁给王子？女孩帮助陌生人竟是一生幸运转折！",
        "docid": "7289614399793267263",
        "url": "https://www.ixigua.com/7289614399793267263"
    },
    {
        "title": "五代机四亮点升级! 美称陆六代机是最大威胁",
        "docid": "7280036749378748967",
        "url": "https://www.ixigua.com/7280036749378748967"
    },
    {
        "title": "游泳池见死不救，再到保安不让孩子避雨，\n缺德，总是拧巴着",
        "docid": "7292226610390893094",
        "url": "https://www.ixigua.com/7292226610390893094"
    },
    {
        "title": "情况越来越糟糕，乌克兰公开威胁西方，准备向俄罗斯投降？",
        "docid": "7308633889055261225",
        "url": "https://www.ixigua.com/7308633889055261225"
    },
    {
        "title": "明明是国外的曲子，却常年霸占我国各大商场，哪首让你印象深刻？",
        "docid": "7307562530812101172",
        "url": "https://www.ixigua.com/7307562530812101172"
    },
    {
        "title": "为了捍卫国家利益而作战的人，必须挺！谈谈我敬佩的两位大陆学者",
        "docid": "7307645101734527488",
        "url": "https://www.ixigua.com/7307645101734527488"
    },
    {
        "title": "备受关注！法国首次宣布试射新型弹道导弹，与美俄核能力不同在哪",
        "docid": "7306758919253131828",
        "url": "https://www.ixigua.com/7306758919253131828"
    },
    {
        "title": "敏昂莱关键性转变，缅北问题不能一直打，中国的话，缅方听进去了",
        "docid": "7309296437660320296",
        "url": ""
    },
    {
        "title": "世界真的变了！",
        "docid": "7309478915549168182",
        "url": ""
    },
    {
        "title": "尘封档案（三）40年前承德合影照，映照同村战友人生发光一刻！",
        "docid": "7309315989416509992",
        "url": ""
    },
    {
        "title": "祁连归来不看山",
        "docid": "7309617856382042643",
        "url": ""
    },
    {
        "title": "女子打工还清10年房贷，房子却成了别人的，法院给出协调方案",
        "docid": "7278204129078411817",
        "url": "https://www.ixigua.com/7278204129078411817"
    },
    {
        "title": "象棋神少帅：2023象甲淘汰赛 第一轮 孙勇征中计 张学潮扳回一城",
        "docid": "7309083716470374912",
        "url": "https://www.ixigua.com/7309083716470374912"
    },
    {
        "title": "7机独立飞7000公里!歼-10C秀身手沙特埃及眼睛亮了帅化民蔡正元评",
        "docid": "7300834000321380898",
        "url": "https://www.ixigua.com/7300834000321380898"
    },
    {
        "title": "“手工脸”演员是如何毁剧的？快要笑抽了",
        "docid": "7297187617093714432",
        "url": "https://www.ixigua.com/7297187617093714432"
    },
    {
        "title": "为啥说曾毅是“地上说唱皇帝”？梵音Rap一开口，感觉被超度了",
        "docid": "7289383726230798885",
        "url": "https://www.ixigua.com/7289383726230798885"
    },
    {
        "title": "回归常态还是硬着陆？SOFR预告美元流动性吃紧",
        "docid": "7309470706922848768",
        "url": "https://www.ixigua.com/7309470706922848768"
    },
    {
        "title": "对获胜不再抱希望，乌克兰年轻人撑不住了，支持向俄罗斯妥协",
        "docid": "7309395124558463507",
        "url": "https://www.ixigua.com/7309395124558463507"
    },
    {
        "title": "好物分享｜821国六车，刷程序惹的祸2/2",
        "docid": "7309330046492082703",
        "url": "https://www.ixigua.com/7309330046492082703"
    },
    {
        "title": "歼-16挂载霹雳17亮相，射程超400公里，F-22一样可以拿下",
        "docid": "7309446125411369526",
        "url": "https://www.ixigua.com/7309446125411369526"
    },
    {
        "title": "乌克兰高层内讧加剧，被泽连斯基针对后，扎卢日内找美国告状",
        "docid": "7309357896045855266",
        "url": "https://www.ixigua.com/7309357896045855266"
    },
    {
        "title": "72小时内，美德法接连对华出招，崔天凯：中国不会成为另一个美国",
        "docid": "7309067077611225640",
        "url": "https://www.ixigua.com/7309067077611225640"
    },
    {
        "title": "英王无声抗议其首相！乌攻守异位问题大了！",
        "docid": "7308856740022321683",
        "url": "https://www.ixigua.com/7308856740022321683"
    },
    {
        "title": "杜旭东的路，是自己堵死的！",
        "docid": "7304960986359235122",
        "url": "https://www.ixigua.com/7304960986359235122"
    },
    {
        "title": "生不出小孩，韩国生育率跌至0.7，3关键因素，男女对立首当其冲",
        "docid": "7309027550666654243",
        "url": "https://www.ixigua.com/7309027550666654243"
    },
    {
        "title": "耻辱一战曼城全场仅2脚射门，三冠王为何打不了强强对话？#曼城",
        "docid": "7309616612263821833",
        "url": "https://www.ixigua.com/7309616612263821833"
    },
    {
        "title": "以色列首套“铁束”防空系统投入使用，有何特点？",
        "docid": "7306760759407706634",
        "url": "https://www.ixigua.com/7306760759407706634"
    },
    {
        "title": "全球最大核动力集装箱船震撼发布，中国核动力航母还会远吗？",
        "docid": "7309438455153754662",
        "url": "https://www.ixigua.com/7309438455153754662"
    },
    {
        "title": "美国承认策动乌克兰政变！美军机过航台湾海峡！立陶宛挑衅中方",
        "docid": "7309467884374688296",
        "url": "https://www.ixigua.com/7309467884374688296"
    },
    {
        "title": "王波明激辩刘纪鹏： “一股独大”是股市之痛吗？(上）",
        "docid": "7291604104718221862",
        "url": "https://www.ixigua.com/7291604104718221862"
    },
    {
        "title": "坐客司马南工作室很荣幸！2年前约定终实现",
        "docid": "7299451495831994943",
        "url": "https://www.ixigua.com/7299451495831994943"
    },
    {
        "title": "美国军用无人机专家：你们这么搞没法玩了！",
        "docid": "7307940872338244133",
        "url": "https://www.ixigua.com/7307940872338244133"
    },
    {
        "title": "乌克兰发动2次针对俄西伯利亚铁路破坏性袭击，想达到什么目的？",
        "docid": "7308954615054565938",
        "url": "https://www.ixigua.com/7308954615054565938"
    },
    {
        "title": "忍无可忍，135艘中国船只涌入牛轭礁，关键时刻，美军舰营救失败",
        "docid": "7309030728548024872",
        "url": "https://www.ixigua.com/7309030728548024872"
    },
    {
        "title": "马尔代夫的成功，给全球做了示范，赶走美国驻军，要先做三件事",
        "docid": "7309322831005958667",
        "url": ""
    },
    {
        "title": "湖北这2个学位授权点被撤销：华师、三峡大学",
        "docid": "7309377852854616591",
        "url": ""
    },
    {
        "title": "象棋神少帅：2023象甲淘汰赛第二轮 申鹏飞刀抽车 22回合斩孟繁睿",
        "docid": "7309376645256479258",
        "url": "https://www.ixigua.com/7309376645256479258"
    },
    {
        "title": "还有人认识临沂大姐吗？评论区扣个1啊哈哈哈！#波波笑剧场",
        "docid": "7276797864875917881",
        "url": "https://www.ixigua.com/7276797864875917881"
    },
    {
        "title": "电动车的里程焦虑要结束了？懂车帝冬测超充测试结果公布！",
        "docid": "7309443985595891749",
        "url": "https://www.ixigua.com/7309443985595891749"
    },
    {
        "title": "渐冻症斗士蔡磊，如今点击只能靠脚，除了睡觉基本都在办公室",
        "docid": "7291717656804229682",
        "url": "https://www.ixigua.com/7291717656804229682"
    },
    {
        "title": "女飞人韦永丽：同龄人在参加全国赛时我还在为伙食费发愁",
        "docid": "7285738489331581481",
        "url": "https://www.ixigua.com/7285738489331581481"
    },
    {
        "title": "要“面子”也要“里子”，选问界M9还是奔驰E？",
        "docid": "7309656132128080395",
        "url": ""
    },
    {
        "title": "【墨缘杂谈】一2023大雪",
        "docid": "7309651497074082342",
        "url": ""
    },
    {
        "title": "架空扎卢日内，泽连斯基开始采取行动，直接向更低级军官下达命令",
        "docid": "7309398340351820327",
        "url": "https://www.ixigua.com/7309398340351820327"
    },
    {
        "title": "王楠儿子没吃完饭转身就走，被富豪老爸叫回吃干净，成笑笑好榜样",
        "docid": "7278822738779865661",
        "url": "https://www.ixigua.com/7278822738779865661"
    },
    {
        "title": "金鸡奖中的人情世故，在何赛飞获奖那一刻，现出了原形",
        "docid": "7298687657519874599",
        "url": "https://www.ixigua.com/7298687657519874599"
    },
    {
        "title": "世界工厂从中国转移到印度、越南后，为何留不住年轻人了？",
        "docid": "7287847055589179945",
        "url": "https://www.ixigua.com/7287847055589179945"
    },
    {
        "title": "老人偷鸡蛋猝死，家属索赔38万：退休工资5000，偷个鸡蛋怎么了？",
        "docid": "7305782038353838646",
        "url": "https://www.ixigua.com/7305782038353838646"
    },
    {
        "title": "破案了！莫伊塞斯染红完整版来了！他到底冤不冤",
        "docid": "7295638955800658442",
        "url": "https://www.ixigua.com/7295638955800658442"
    },
    {
        "title": "苍天饶过谁！白所成儿子女儿坐飞机逃跑被炸死，白家的报应来了",
        "docid": "7302373394572378678",
        "url": "https://www.ixigua.com/7302373394572378678"
    },
    {
        "title": "伍佰被苏州上了一课，全程无划水，苏州专治各种——摸鱼",
        "docid": "7282787254051963431",
        "url": "https://www.ixigua.com/7282787254051963431"
    },
    {
        "title": "老妈突击检查，女儿着急忙慌清理男友的战场",
        "docid": "7296372817606640162",
        "url": "https://www.ixigua.com/7296372817606640162"
    },
    {
        "title": "怀疑幕后黑手 官官相护 操控舆论“鲶鱼”事件 实话实说又如何",
        "docid": "7279034288161423872",
        "url": "https://www.ixigua.com/7279034288161423872"
    },
    {
        "title": "乌男人被打光了？女兵赴一线作战，俄军毫不手软，穿越机精准击毙",
        "docid": "7307509771324621323",
        "url": "https://www.ixigua.com/7307509771324621323"
    },
    {
        "title": "荷尔蒙旺盛的女人，一般有3个特征，自查看看",
        "docid": "7309307327273337359",
        "url": ""
    },
    {
        "title": "乒乓球冠军张怡宁，谈到她在香港的生活：吃喝、天气我都很习惯！",
        "docid": "7305751342302429736",
        "url": "https://www.ixigua.com/7305751342302429736"
    },
    {
        "title": "注册制尚未真正“市场化”，需对监管制度进行改革",
        "docid": "7294199562619748900",
        "url": "https://www.ixigua.com/7294199562619748900"
    },
    {
        "title": "王波明对话刘纪鹏：两位老兵“刨根问底”中国股市",
        "docid": "7289009027856630272",
        "url": "https://www.ixigua.com/7289009027856630272"
    },
    {
        "title": "“房价有可能下来一半吗”王健林“这完全是太美好的想象”",
        "docid": "7308677078747415090",
        "url": "https://www.ixigua.com/7308677078747415090"
    },
    {
        "title": "自己不战，不会有人为了你而战",
        "docid": "7280153384496300583",
        "url": "https://www.ixigua.com/7280153384496300583"
    },
    {
        "title": "蔡磊：我们在与生命时间赛跑。尹烨：我陪着您跑，背着您跑",
        "docid": "7291718791497515571",
        "url": "https://www.ixigua.com/7291718791497515571"
    },
    {
        "title": "5-0！2-1！英超疯狂之夜：曼联救赎，曼城翻车，黑马进前3",
        "docid": "7309620330652516864",
        "url": ""
    },
    {
        "title": "中欧峰会前夕，冯德莱恩抱怨中国“赚大发”，无法容忍，她想多了",
        "docid": "7309668039748944447",
        "url": ""
    },
    {
        "title": "在所罗门插刀，美国吃了闭门羹，泼给中方的脏水，反淋湿美国自己",
        "docid": "7309662015155405375",
        "url": ""
    },
    {
        "title": "公务员入党转正申请书",
        "docid": "7309666000939565587",
        "url": ""
    },
    {
        "title": "泉州后城古厝，见证了一场世界实演 #琵琶 #乌德琴",
        "docid": "7309648393276490281",
        "url": "https://www.ixigua.com/7309648393276490281"
    },
    {
        "title": "在缅北诈骗集团，里面的大佬夸我天生适合干诈骗",
        "docid": "7282443131797111348",
        "url": "https://www.ixigua.com/7282443131797111348"
    },
    {
        "title": "会计个人年度工作总结",
        "docid": "7309664851289637439",
        "url": ""
    },
    {
        "title": "郭斌心疼笑笑，和王楠打嘴仗，王楠训老公：心情不好给你们一锅端",
        "docid": "7292445433165840906",
        "url": "https://www.ixigua.com/7292445433165840906"
    },
    {
        "title": "天下最鲜嫩的蔬菜：豌豆尖",
        "docid": "7309688811070505507",
        "url": ""
    },
    {
        "title": "探照灯好书11月十大中外类型小说发布",
        "docid": "7309680970670735909",
        "url": ""
    },
    {
        "title": "象棋神少帅：2023象甲淘汰赛第二轮 王禹博巅峰对决王天一 超神杀",
        "docid": "7309392530687296026",
        "url": "https://www.ixigua.com/7309392530687296026"
    },
    {
        "title": "女子星巴克喝咖啡，却要求店员赶走外卖员，店方做法让网友点赞",
        "docid": "7307959468883608075",
        "url": "https://www.ixigua.com/7307959468883608075"
    },
    {
        "title": "清华博士玛丽安：大学老师的社会地位不足以弥补她收入的缺失",
        "docid": "7300789730659336739",
        "url": "https://www.ixigua.com/7300789730659336739"
    },
    {
        "title": "伊朗教训美航母后，警告48小时可灭掉以色列，拜登担心什么来什么",
        "docid": "7309379357892739635",
        "url": "https://www.ixigua.com/7309379357892739635"
    },
    {
        "title": "战场训练场无坚不摧，官场审讯室铁骨铮铮！",
        "docid": "7286068564438712851",
        "url": "https://www.ixigua.com/7286068564438712851"
    },
    {
        "title": "宝藏大省 江西",
        "docid": "7288511035634352703",
        "url": "https://www.ixigua.com/7288511035634352703"
    },
    {
        "title": "还记得曾火遍全国的《童话》吗？光良时隔18年再唱，听哭了！",
        "docid": "7291216329175106089",
        "url": "https://www.ixigua.com/7291216329175106089"
    },
    {
        "title": "缅甸政府对缅北够狠的！政治经济文化恶毒三策",
        "docid": "7309396732297773595",
        "url": "https://www.ixigua.com/7309396732297773595"
    },
    {
        "title": "中国月壤“太独特”，NASA递交申请，想要中国赠送，中方有言在先",
        "docid": "7308634419718259239",
        "url": "https://www.ixigua.com/7308634419718259239"
    },
    {
        "title": "酸辣鲜甜的清新Brunch！当甜虾牛油果遇到法式吐司会有怎样惊喜？",
        "docid": "7290034927830041100",
        "url": "https://www.ixigua.com/7290034927830041100"
    },
    {
        "title": "华为崛起，某人如丧考妣，这下不得瑟了吧",
        "docid": "7276449585176773154",
        "url": "https://www.ixigua.com/7276449585176773154"
    },
    {
        "title": "美女被一个娃娃气得暴怒，怒气冲冲跑出来竟跑了个空",
        "docid": "7283820942952759847",
        "url": "https://www.ixigua.com/7283820942952759847"
    },
    {
        "title": "笑笑游上海想买礼物，富豪爸爸嫌贵假装不买，和小贩砍价斗智斗勇",
        "docid": "7305675575698391602",
        "url": "https://www.ixigua.com/7305675575698391602"
    },
    {
        "title": "学生写字慢成绩不好，老师竟用拳头殴打，导致小学生重度抑郁？",
        "docid": "7307187957634220571",
        "url": "https://www.ixigua.com/7307187957634220571"
    },
    {
        "title": "李开复谈年轻时如何做选择，为啥80年代读冷门专业AI？",
        "docid": "7297152901385257487",
        "url": "https://www.ixigua.com/7297152901385257487"
    },
    {
        "title": "全国首例？讹人老太被判刑？扶人者获赔6.8万？网友又被忽悠了",
        "docid": "7308646714192331305",
        "url": "https://www.ixigua.com/7308646714192331305"
    },
    {
        "title": "轻松唱唱，没有压力，这种状态最好。",
        "docid": "7288241186454635071",
        "url": "https://www.ixigua.com/7288241186454635071"
    },
    {
        "title": "钞能力太强了，富二代求爱直接包楼变魔术",
        "docid": "7279379871103615547",
        "url": "https://www.ixigua.com/7279379871103615547"
    },
    {
        "title": "终于把奇瑞干废了【下】",
        "docid": "7279039256352260649",
        "url": "https://www.ixigua.com/7279039256352260649"
    },
    {
        "title": "你这个婆娘脑壳有点矿#四川方言 #搞笑 @赵小雪",
        "docid": "7294522710414230054",
        "url": "https://www.ixigua.com/7294522710414230054"
    },
    {
        "title": "初秋游江宁石塘人家！智贤流连忘返",
        "docid": "7290154680855265849",
        "url": "https://www.ixigua.com/7290154680855265849"
    },
    {
        "title": "苹果排骨｜有空气炸锅的冲！不放油的酥烂脱骨！",
        "docid": "7291167080559477284",
        "url": "https://www.ixigua.com/7291167080559477284"
    },
    {
        "title": "Meta为Messenger和Facebook上的所有个人聊天和通话启动端到端加密",
        "docid": "7309727677869769226",
        "url": ""
    },
    {
        "title": "石药集团（1093.HK）：研发投入占比再创新高，创新兑现持续",
        "docid": "7309418909843702272",
        "url": ""
    },
    {
        "title": "渝北区金开大道筷子街老大火锅（江与城店）开业啦！",
        "docid": "7309722002322276876",
        "url": ""
    },
    {
        "title": "办迷笛， 政府确实很拼；偷钱财，村民的确很猛\n南阳，怎么说你好",
        "docid": "7287169008502047271",
        "url": "https://www.ixigua.com/7287169008502047271"
    },
    {
        "title": "500万广告灯箱被偷，10年后发现城管是真凶！法院回应：管不了！",
        "docid": "7294622087690486335",
        "url": "https://www.ixigua.com/7294622087690486335"
    },
    {
        "title": "惊现零元购？迷笛音乐节秒变音乐劫，到底谁砸了南阳的锅？",
        "docid": "7286412301191053824",
        "url": "https://www.ixigua.com/7286412301191053824"
    },
    {
        "title": "北约差点爆发内战，英媒披露重磅消息：约翰逊曾计划突袭荷兰",
        "docid": "7309364511054496268",
        "url": "https://www.ixigua.com/7309364511054496268"
    },
    {
        "title": "想买个紧凑型车，别克威朗怎么样，看视频了解下吧",
        "docid": "7309045166592458761",
        "url": "https://www.ixigua.com/7309045166592458761"
    },
    {
        "title": "2-1！曼联反扑：短短4天神奇变脸，小麦双响，距前4仅差3分",
        "docid": "7309608440790303247",
        "url": ""
    },
    {
        "title": "缅北政府军遭同盟军重创，中缅边境情况紧急，解放军已做两手准备",
        "docid": "7309378149400183333",
        "url": "https://www.ixigua.com/7309378149400183333"
    },
    {
        "title": "一个失利接着一个失利，一次道歉接着一次道歉\n姚明应该辞职吗？",
        "docid": "7286788667115471360",
        "url": "https://www.ixigua.com/7286788667115471360"
    },
    {
        "title": "乌克兰承认反攻失败后，北约秘书长告知成员国：做好坏消息的准备",
        "docid": "7308636137533211176",
        "url": "https://www.ixigua.com/7308636137533211176"
    },
    {
        "title": "好物分享｜解读阿信回信：俯视着表达“真诚”",
        "docid": "7309732124213871144",
        "url": "https://www.ixigua.com/7309732124213871144"
    },
    {
        "title": "两枚弹道导弹从也门境内射向美军舰，未击中目标或是故意而为",
        "docid": "7307186470539035199",
        "url": "https://www.ixigua.com/7307186470539035199"
    },
    {
        "title": "金店开业一周，老板每天取走百万现金，无人光顾流水却高达千万",
        "docid": "7288974674485379624",
        "url": "https://www.ixigua.com/7288974674485379624"
    },
    {
        "title": "新歌《我在康定遇佳人》将走唱响博鳌论坛",
        "docid": "7309730409917973043",
        "url": ""
    },
    {
        "title": "【浩歌】第1次吃农家大锅饭，日本友人有被“香”到！",
        "docid": "7277877143332192808",
        "url": "https://www.ixigua.com/7277877143332192808"
    },
    {
        "title": "28天，我被骗了407万",
        "docid": "7309542157830849043",
        "url": "https://www.ixigua.com/7309542157830849043"
    },
    {
        "title": "命硬！红魔血脉再度为腾哈格续命",
        "docid": "7309634668175983141",
        "url": "https://www.ixigua.com/7309634668175983141"
    },
    {
        "title": "闺蜜投奔鬼子当汉奸，女特工求她，下秒闺蜜做法关系决裂！",
        "docid": "7278293283414278714",
        "url": "https://www.ixigua.com/7278293283414278714"
    },
    {
        "title": "华为余承东:我并不想做华为代言人",
        "docid": "7283336699638186557",
        "url": "https://www.ixigua.com/7283336699638186557"
    },
    {
        "title": "对美亮剑，令世界见识中国先进武器，让美反华盟友预感下场可悲",
        "docid": "7300391655398441498",
        "url": "https://www.ixigua.com/7300391655398441498"
    },
    {
        "title": "就像三蹦子别卡车！菲破船碰擦我舰前几秒，船员疑似慌忙躲进船舱",
        "docid": "7292804602758595082",
        "url": "https://www.ixigua.com/7292804602758595082"
    },
    {
        "title": "事不关己高高挂起！香港人对时政失去兴趣，社会能恢复往日生机？",
        "docid": "7284086547207586367",
        "url": "https://www.ixigua.com/7284086547207586367"
    },
    {
        "title": "香酥可口🤩好吃到渣都不剩❗️老广家常菜绝了❗️",
        "docid": "7304890910523785728",
        "url": "https://www.ixigua.com/7304890910523785728"
    },
    {
        "title": "连一滴汤都不剩！这样做滑嫩的豆腐每个毛孔都吸足了鲜香！",
        "docid": "7286319514151879208",
        "url": "https://www.ixigua.com/7286319514151879208"
    },
    {
        "title": "山东一粮商用农药熏粮致邻家两男童身亡！农药熏过的粮食卖给谁吃",
        "docid": "7309043518280827418",
        "url": "https://www.ixigua.com/7309043518280827418"
    },
    {
        "title": "日本领空不归日本管？美军这座菩萨日本算是送不走了！",
        "docid": "7309707221816836619",
        "url": "https://www.ixigua.com/7309707221816836619"
    },
    {
        "title": "灵活多变的7座布局！静态体验传祺E8 会是奥德赛的对手？",
        "docid": "7281526317974192692",
        "url": "https://www.ixigua.com/7281526317974192692"
    },
    {
        "title": "电影《沉默笔录》：呼喊和细雨中归于平凡，世纪末小镇青年成熟史",
        "docid": "7308239788614615587",
        "url": "https://www.ixigua.com/7308239788614615587"
    },
    {
        "title": "电影《傍晚向日葵》：人生最后，你选择在哪结束，如何打通生死",
        "docid": "7308256528787014183",
        "url": "https://www.ixigua.com/7308256528787014183"
    },
    {
        "title": "库明加打完最后17分钟，科尔：之前不用他是没法10人轮转",
        "docid": "7309747390188143139",
        "url": ""
    },
    {
        "title": "大众汽车：经独立审查，没有发现新疆工厂存在“强迫劳动”",
        "docid": "7309748770940551692",
        "url": ""
    },
    {
        "title": "年底“价格战”越打越凶：上汽大众至高5.8万，哪吒S官降3万",
        "docid": "7309407116819972627",
        "url": ""
    },
    {
        "title": "淮安区政协组织委员视察民生实事工程",
        "docid": "7309745579570414131",
        "url": ""
    },
    {
        "title": "不会算账的人做了最“划算”的事 遂昌85岁教师12年资助33名大学生",
        "docid": "7309741519659991571",
        "url": ""
    },
    {
        "title": "国产新晋MPV到底有多少？ | 四万说车",
        "docid": "7309750755316154931",
        "url": ""
    },
    {
        "title": "中方向英国提出严正交涉！意大利退出“一带一路”！法国介入南海",
        "docid": "7309766956372984354",
        "url": "https://www.ixigua.com/7309766956372984354"
    },
    {
        "title": "华为你慢点走，神话故事快不够，这波又杀疯了！",
        "docid": "7279457396760838692",
        "url": "https://www.ixigua.com/7279457396760838692"
    },
    {
        "title": "江西2.2亿元大奖诞生地：两家彩票店相隔3公里 一家国庆前才开业",
        "docid": "7309718191004254783",
        "url": "https://www.ixigua.com/7309718191004254783"
    },
    {
        "title": "陈思诚：明白我们到底为什么活着，你就不会受困当下的得失",
        "docid": "7301733366963896844",
        "url": "https://www.ixigua.com/7301733366963896844"
    },
    {
        "title": "大仇不能不报！以军顶住国际压力，准备水淹地道，誓要毁灭哈马斯",
        "docid": "7309755311424963110",
        "url": "https://www.ixigua.com/7309755311424963110"
    },
    {
        "title": "三大消息：美军舰遭袭击！哈马斯指挥官被击毙！美国严重落后中国",
        "docid": "7308700828066546210",
        "url": "https://www.ixigua.com/7308700828066546210"
    },
    {
        "title": "英国将首次与9个欧洲伙伴国组成“联合反应部队”，对俄海上监视",
        "docid": "7308974596785766946",
        "url": "https://www.ixigua.com/7308974596785766946"
    },
    {
        "title": "3小时开400公里？方程豹油耗18升？官方数据出炉，姚18摊上事了！",
        "docid": "7308246576286138934",
        "url": "https://www.ixigua.com/7308246576286138934"
    },
    {
        "title": "血战9年终于获得惨胜，一天平均推进5米，俄军啃下重镇马林卡",
        "docid": "7308992988443902515",
        "url": "https://www.ixigua.com/7308992988443902515"
    },
    {
        "title": "老人抢、多人抢，抢就是抢，违法就要惩处\n别让丰收失去意义",
        "docid": "7296417524474708480",
        "url": "https://www.ixigua.com/7296417524474708480"
    },
    {
        "title": "清华女博士抑郁后转型做占星师，月入3万",
        "docid": "7300787998625366563",
        "url": "https://www.ixigua.com/7300787998625366563"
    },
    {
        "title": "小虎队陈志朋被爆偷税漏税，需补缴1000多万？员工又爆出更多猛料",
        "docid": "7307959340576145961",
        "url": "https://www.ixigua.com/7307959340576145961"
    },
    {
        "title": "股市为什么徘徊3000点？要从“市价减持国有股”说起",
        "docid": "7290871964862939684",
        "url": "https://www.ixigua.com/7290871964862939684"
    },
    {
        "title": "俄取得大捷，拿下赫罗莫沃居民点，乌最后补给被断，士兵向俄投降",
        "docid": "7309004079580054066",
        "url": "https://www.ixigua.com/7309004079580054066"
    },
    {
        "title": "缅甸木姐市从中国进口燃油，缓解战后能源短缺",
        "docid": "7309796775093830198",
        "url": ""
    },
    {
        "title": "海北风光电子日历",
        "docid": "7309796011894178358",
        "url": ""
    },
    {
        "title": "与时俱进！香港的数字化要急起直追，迎头赶上，才可以再创辉煌",
        "docid": "7309786312306131467",
        "url": ""
    },
    {
        "title": "缅甸战乱导致电力线路损坏，多个城镇陷入黑暗之中",
        "docid": "7309797630702731812",
        "url": ""
    },
    {
        "title": "化工行业一精英——记湖北鸿鑫化工有限公司副总经理赵小华",
        "docid": "7309776189772857896",
        "url": ""
    },
    {
        "title": "烟台市莱山区第五小学举行“文明班级”颁奖仪式",
        "docid": "7309774325224342035",
        "url": ""
    },
    {
        "title": "缅甸换汇政策的改变，引发美元、金市等“大动荡”！",
        "docid": "7309795162006422035",
        "url": ""
    },
    {
        "title": "2支中甲球队未提交准入审核材料 国安等多队被要求补充资料",
        "docid": "7309783928368333351",
        "url": ""
    },
    {
        "title": "太狠了！林葳24秒压哨三分命中，全场砍下41分",
        "docid": "7309492765736469030",
        "url": "https://www.ixigua.com/7309492765736469030"
    },
    {
        "title": "一个月赚够14万才能免生活费，一盘土豆丝要88块没钱上厕所都没纸",
        "docid": "7282444821803827764",
        "url": "https://www.ixigua.com/7282444821803827764"
    },
    {
        "title": "缅甸一周批复了77份建筑许可证",
        "docid": "7309801654331802166",
        "url": ""
    },
    {
        "title": "辛伟诚赶非法移民到卢旺达 揭穿不择手段双重标准真面目",
        "docid": "7309802318621639183",
        "url": "https://www.ixigua.com/7309802318621639183"
    },
    {
        "title": "绝不允许任泽平恒大破坏性经济增长",
        "docid": "7309786191317238308",
        "url": "https://www.ixigua.com/7309786191317238308"
    },
    {
        "title": "缅北木姐至曼德勒、仰光至妙瓦底车费太贵！民众：能去就不错了",
        "docid": "7309801146641072694",
        "url": ""
    },
    {
        "title": "想逼中国签不平等条约？欧盟不满对华贸易逆差，向中方下达通牒",
        "docid": "7309795683484697097",
        "url": "https://www.ixigua.com/7309795683484697097"
    },
    {
        "title": "把2万以军放进来打，以装甲车中弹殉爆，座舱燃烧士兵打不开车门",
        "docid": "7309800787796820515",
        "url": "https://www.ixigua.com/7309800787796820515"
    },
    {
        "title": "陕西70岁农民哽咽道歉，求你们别买我们家猕猴桃了，原因令人心酸",
        "docid": "7277493355704123943",
        "url": "https://www.ixigua.com/7277493355704123943"
    },
    {
        "title": "先把事情闹大再说！马尔代夫要求印军“回家”，戳中了莫迪的痛处",
        "docid": "7309080502030303744",
        "url": "https://www.ixigua.com/7309080502030303744"
    },
    {
        "title": "电视直播软件突然叫停 究竟原因何在 我们该怎样看电视",
        "docid": "7304232419036267062",
        "url": "https://www.ixigua.com/7304232419036267062"
    },
    {
        "title": "泰国是全球最大人口贩卖中心，中国伤残乞丐背后或有恐怖故事",
        "docid": "7305348661905621545",
        "url": "https://www.ixigua.com/7305348661905621545"
    },
    {
        "title": "叶檀对话蔡磊：你变好了，我希望你给我一个拥抱",
        "docid": "7294689707584127524",
        "url": "https://www.ixigua.com/7294689707584127524"
    },
    {
        "title": "以色列向红海部署战斗舰艇，或引发局势持续升级",
        "docid": "7309715460759650854",
        "url": "https://www.ixigua.com/7309715460759650854"
    },
    {
        "title": "1天7辆战车被炸，以军作战太拉胯，美给2个选择，要求速战速决",
        "docid": "7308643583379112488",
        "url": "https://www.ixigua.com/7308643583379112488"
    },
    {
        "title": "乌克兰内讧升级，泽连斯基越级指挥，乌军总司令被架空，军队乱了",
        "docid": "7309697951993954842",
        "url": "https://www.ixigua.com/7309697951993954842"
    },
    {
        "title": "【番外】墨脱森林里的巨型十大功劳",
        "docid": "7288244539481915939",
        "url": "https://www.ixigua.com/7288244539481915939"
    },
    {
        "title": "以色列主动放风将持续作战一年，不吹“终场哨”无法保障最终取胜",
        "docid": "7309033306821067276",
        "url": "https://www.ixigua.com/7309033306821067276"
    },
    {
        "title": "灾难面前，企业要扮演怎样的角色？",
        "docid": "7278288967852950074",
        "url": "https://www.ixigua.com/7278288967852950074"
    },
    {
        "title": "俄送来“大杀器”，伊朗底气大增，美智库呼吁美国撤军",
        "docid": "7307249347920560691",
        "url": "https://www.ixigua.com/7307249347920560691"
    },
    {
        "title": "每周石评 | 中美台海一战——中美运势走向的最大拐点",
        "docid": "7277417627562181177",
        "url": "https://www.ixigua.com/7277417627562181177"
    },
    {
        "title": "刘德华最不省心和最省心的亲人：姐姐烂赌绝交，弟弟争气很能赚钱",
        "docid": "7309803563004428838",
        "url": ""
    },
    {
        "title": "火箭主场，简直神了！",
        "docid": "7309828109900366362",
        "url": ""
    },
    {
        "title": "可以越野的保时捷911，全新Singer ACS，8个减震器，带三把锁",
        "docid": "7309816147728433674",
        "url": ""
    },
    {
        "title": "一沙龙的惊梦一（七绝）",
        "docid": "7309812795279819316",
        "url": ""
    },
    {
        "title": "【区议会选举】陈国基呼吁选出合适区议员 称公务员有责任支持区选",
        "docid": "7309826382098547234",
        "url": ""
    },
    {
        "title": "中牟县官渡镇强化村级纪检员业务培训 打通末梢监督最后“一公里”",
        "docid": "7309830462389158438",
        "url": ""
    },
    {
        "title": "比亚迪第600万辆电动车出厂！未来智慧化将领导车市",
        "docid": "7307148406856614412",
        "url": "https://www.ixigua.com/7307148406856614412"
    },
    {
        "title": "【区议会选举】4个模拟投票站5日起一连4日开放",
        "docid": "7309821882344440360",
        "url": ""
    },
    {
        "title": "【区议会选举】卓永兴落区宣传区选 贩商乐于响应政府呼吁投票",
        "docid": "7309826687725273640",
        "url": ""
    },
    {
        "title": "【区议会选举】廉署周日总动员驻守票站 胡英明：务求选举顺利进行",
        "docid": "7309825680056320564",
        "url": ""
    },
    {
        "title": "从敢死队到陈虎总编辑！上级一定要让下级服气",
        "docid": "7301227284701119014",
        "url": "https://www.ixigua.com/7301227284701119014"
    },
    {
        "title": "带两个+号更强！这领克轿车开着太爽了 能合法上路的赛车？",
        "docid": "7294085152005849650",
        "url": "https://www.ixigua.com/7294085152005849650"
    },
    {
        "title": "公路坦氪压顶测试造假？中汽公司发布声明回应，事件迎来反转",
        "docid": "7309742733164281865",
        "url": "https://www.ixigua.com/7309742733164281865"
    },
    {
        "title": "老汉刚走！老太又来了！大衣哥招谁惹谁了？有钱就该给穷人？",
        "docid": "7309819720214315561",
        "url": "https://www.ixigua.com/7309819720214315561"
    },
    {
        "title": "酱香拿铁、酒心巧克力、冰激凌、三甲医院有钱！茅台上演狂想曲",
        "docid": "7280138198909616698",
        "url": "https://www.ixigua.com/7280138198909616698"
    },
    {
        "title": "虾说：就你聪明，别人都人傻钱多",
        "docid": "7276651775988334655",
        "url": "https://www.ixigua.com/7276651775988334655"
    },
    {
        "title": "巴黎传来一个坏消息",
        "docid": "7308651835856945718",
        "url": "https://www.ixigua.com/7308651835856945718"
    },
    {
        "title": "只适合特定场景！预制菜不是“万能菜”，需谨慎看待！",
        "docid": "7279327541117059647",
        "url": "https://www.ixigua.com/7279327541117059647"
    },
    {
        "title": "安徽定远二龙回族乡：籽籽同心，共建宜居宜业和美乡村",
        "docid": "7309830696296825395",
        "url": ""
    },
    {
        "title": "是时候拆解“美西方”了",
        "docid": "7309839405249167923",
        "url": "https://www.ixigua.com/7309839405249167923"
    },
    {
        "title": "佟丽娅跳新疆舞火热开场，简直美到心坎里了",
        "docid": "7278870531145728551",
        "url": "https://www.ixigua.com/7278870531145728551"
    },
    {
        "title": "安徽淮北临涣镇：“皖”有一杯茶，可以解纠纷",
        "docid": "7308746980925260314",
        "url": ""
    },
    {
        "title": "安徽五河头铺镇陈台村：村民有句口头禅 “有事找老陈说”",
        "docid": "7309836342648029705",
        "url": ""
    },
    {
        "title": "委内瑞拉和圭亚那领土争端升级，委已向边境派兵，双方会开战吗？",
        "docid": "7309828913172546088",
        "url": "https://www.ixigua.com/7309828913172546088"
    },
    {
        "title": "中美芯片战结局已见分晓！华为炼造新王牌，美国小院高墙终会失败",
        "docid": "7307897692431057460",
        "url": "https://www.ixigua.com/7307897692431057460"
    },
    {
        "title": "颜丙涛带新婚妻子度蜜月，回怼网友恶意评论！坚持训练轰147惊艳",
        "docid": "7309667996417491493",
        "url": ""
    },
    {
        "title": "答网友：还在做节目的初衷？希望提供一个相对理性可讨论的平台！",
        "docid": "7308331144142029362",
        "url": "https://www.ixigua.com/7308331144142029362"
    },
    {
        "title": "你看懂中美竞争的实质，就明白该不该考公务员",
        "docid": "7287089420304384569",
        "url": "https://www.ixigua.com/7287089420304384569"
    },
    {
        "title": "想钱想疯了？人行道变停车场设卡收费，电动车出入必须扫码付费！",
        "docid": "7308382526706287143",
        "url": "https://www.ixigua.com/7308382526706287143"
    },
    {
        "title": "直播Q&A 基辛格去世，美国还会有中间人士吗？",
        "docid": "7308265057916289563",
        "url": "https://www.ixigua.com/7308265057916289563"
    },
    {
        "title": "英超4队追国米核心！张康阳赚麻了：0价引进，5000万都不卖",
        "docid": "7309821701838209536",
        "url": ""
    },
    {
        "title": "撕膜提车，爽！小杨第一辆MPV为啥选择它？",
        "docid": "7309821836999524391",
        "url": "https://www.ixigua.com/7309821836999524391"
    },
    {
        "title": "婚姻陋习有多可怕？保时捷婚车被上40把锁，开1把锁就要给1条烟",
        "docid": "7309842327772758567",
        "url": "https://www.ixigua.com/7309842327772758567"
    },
    {
        "title": "现代Staria孪生兄弟？理想MEGA",
        "docid": "7291211976871510075",
        "url": "https://www.ixigua.com/7291211976871510075"
    },
    {
        "title": "中超俱乐部求生存别找民企大佬，靠政府国企+靠自己才能长远#中超",
        "docid": "7309845867266212403",
        "url": "https://www.ixigua.com/7309845867266212403"
    },
    {
        "title": "高诗岩带伤上阵砍23分 下巴缝针贴胶布写数字1",
        "docid": "7309852679889977910",
        "url": "https://www.ixigua.com/7309852679889977910"
    },
    {
        "title": "城管酒后执法，还用二维码收罚款！质疑反被怼：喝瓶啤酒不算喝酒",
        "docid": "7309844613324341796",
        "url": "https://www.ixigua.com/7309844613324341796"
    },
    {
        "title": "考辛斯：詹姆斯想得到他能拿的每一个荣誉，成为史上最佳",
        "docid": "7309648399555527177",
        "url": ""
    },
    {
        "title": "林子祥，陈慧娴，容祖儿……到时见！",
        "docid": "7309433913393938944",
        "url": "https://www.ixigua.com/7309433913393938944"
    },
    {
        "title": "日本“失去的二十年”到底是谁偷走的？中国经济该吸取哪些教训？",
        "docid": "7307443599778841099",
        "url": "https://www.ixigua.com/7307443599778841099"
    },
    {
        "title": "美国男子掰断兵马俑手指，竟审了六年还不用坐牢！",
        "docid": "7279119665874666040",
        "url": "https://www.ixigua.com/7279119665874666040"
    },
    {
        "title": "中方刚呼吁停火，以军就使用新战术，关键时刻，美媒目光转向中国",
        "docid": "7309390013950198281",
        "url": "https://www.ixigua.com/7309390013950198281"
    }
]