[
    {
        "title": "美军头疼，俄军也头疼，立体防御已展开，依然被“狼群”追着咬",
        "docid": "7315754411186356751",
        "url": "https://www.ixigua.com/7315754411186356751"
    },
    {
        "title": "24小时内，物价飙涨100%，米莱开始豪赌，并把中国当“救命稻草”",
        "docid": "7313851934522540583",
        "url": "https://www.ixigua.com/7313851934522540583"
    },
    {
        "title": "开了800公里，给大家汇报下宝马XM到底是辆什么样的车？",
        "docid": "7293494230792536613",
        "url": "https://www.ixigua.com/7293494230792536613"
    },
    {
        "title": "隐藏学霸竟被人瞧不起，拿出实力直接打脸众人",
        "docid": "7286076860444869131",
        "url": "https://www.ixigua.com/7286076860444869131"
    },
    {
        "title": "中非混血 二代孙悦？冯傲的未来何去何从",
        "docid": "7315807082471588403",
        "url": ""
    },
    {
        "title": "魔鬼现身？",
        "docid": "7315807153175036452",
        "url": ""
    },
    {
        "title": "【年终4K巨献】一年67000公里进藏两趟半个中国，开国产车这一年",
        "docid": "7315410568087765530",
        "url": "https://www.ixigua.com/7315410568087765530"
    },
    {
        "title": "真就小号奔驰S级？试驾全新北京奔驰E级 后排表现是真的猛！",
        "docid": "7310612647442022951",
        "url": "https://www.ixigua.com/7310612647442022951"
    },
    {
        "title": "120万人向南加沙逃难，用马、驴或走路原始方式逃难，百姓无辜！",
        "docid": "7289676385889714745",
        "url": "https://www.ixigua.com/7289676385889714745"
    },
    {
        "title": "还有啥理由能不买？这岚图轿车可选插混 实力不输BBA！",
        "docid": "7291487147452793401",
        "url": "https://www.ixigua.com/7291487147452793401"
    },
    {
        "title": "泰国是全球最大人口贩卖中心，中国伤残乞丐背后或有恐怖故事",
        "docid": "7305348661905621545",
        "url": "https://www.ixigua.com/7305348661905621545"
    },
    {
        "title": "X-37B发射倒计时，美军突然喊停，问题突然暴露，3项任务不容有失",
        "docid": "7314872281656721960",
        "url": "https://www.ixigua.com/7314872281656721960"
    },
    {
        "title": "古特雷斯：以色列军事行动方式才是加沙人道问题的根源！",
        "docid": "7315627610766541349",
        "url": "https://www.ixigua.com/7315627610766541349"
    },
    {
        "title": "每周石评 | 台湾问题的解——北京vs.华盛顿",
        "docid": "7313813401032262153",
        "url": "https://www.ixigua.com/7313813401032262153"
    },
    {
        "title": "美国派特务连到台湾？逼台作战并装雷达，预防火箭军导弹打到美国",
        "docid": "7314249713706861090",
        "url": "https://www.ixigua.com/7314249713706861090"
    },
    {
        "title": "全新ID.7 VIZZON到店 有效长度约2米 探店看看真相如何？",
        "docid": "7315645218538127908",
        "url": "https://www.ixigua.com/7315645218538127908"
    },
    {
        "title": "坐客司马南工作室很荣幸！2年前约定终实现",
        "docid": "7299451495831994943",
        "url": "https://www.ixigua.com/7299451495831994943"
    },
    {
        "title": "印度也想插手南海问题",
        "docid": "7313859877279891980",
        "url": "https://www.ixigua.com/7313859877279891980"
    },
    {
        "title": "南京出租车有多黑？4公里要80，不打表还拒载！官方行为令人感动",
        "docid": "7314875450239648310",
        "url": "https://www.ixigua.com/7314875450239648310"
    },
    {
        "title": "世界工厂从中国转移到印度、越南后，为何留不住年轻人了？",
        "docid": "7287847055589179945",
        "url": "https://www.ixigua.com/7287847055589179945"
    },
    {
        "title": "胡塞武装不打嘴炮，红海上着火的不光是商船，美舰可能要出大洋相",
        "docid": "7315017433016697385",
        "url": "https://www.ixigua.com/7315017433016697385"
    },
    {
        "title": "人少了，生少了，不生了，没人生了\n人口，一个数据的四种解读",
        "docid": "7289395172000039484",
        "url": "https://www.ixigua.com/7289395172000039484"
    },
    {
        "title": "近九成用户希望电视像手机一样操作 提供更加智能的体验",
        "docid": "7314965896664089114",
        "url": "https://www.ixigua.com/7314965896664089114"
    },
    {
        "title": "秘书长啊 2024年了 你能看到希望吗？",
        "docid": "7315507895485858356",
        "url": "https://www.ixigua.com/7315507895485858356"
    },
    {
        "title": "【一品经典纪念周海媚】我们对海味最初印象都来自于这两部港剧",
        "docid": "7312666160821076499",
        "url": "https://www.ixigua.com/7312666160821076499"
    },
    {
        "title": "不断突破曼联底线的滕哈格，的确配不上继续留在红魔帅位了。",
        "docid": "7315806826678157824",
        "url": "https://www.ixigua.com/7315806826678157824"
    },
    {
        "title": "东方甄选CEO孙东旭和高途CEO陈向东，差的是格局",
        "docid": "7312769987167879699",
        "url": "https://www.ixigua.com/7312769987167879699"
    },
    {
        "title": "从不敢让领导坐，到不需要人来飞，中国无人直升机有多牛？",
        "docid": "7293848151444685322",
        "url": "https://www.ixigua.com/7293848151444685322"
    },
    {
        "title": "西方圣人与东方圣人的区别是什么？#道系青年 #圣人 #中华文化",
        "docid": "7315568445930930699",
        "url": "https://www.ixigua.com/7315568445930930699"
    },
    {
        "title": "俄战机带弹到北约家门口巡航遭“围殴”！宣布试射七枚洲际导弹",
        "docid": "7313865728044565044",
        "url": "https://www.ixigua.com/7313865728044565044"
    },
    {
        "title": "以前买马自达是“任性”，现在买马自达是“务实”？",
        "docid": "7314957530424148514",
        "url": "https://www.ixigua.com/7314957530424148514"
    },
    {
        "title": "红海之乱？碎片化的世界与美元危机",
        "docid": "7314320764335817252",
        "url": "https://www.ixigua.com/7314320764335817252"
    },
    {
        "title": "红海4天6起袭击，美国忍不下去了，要联合盟友对付胡塞武装",
        "docid": "7313819748414784010",
        "url": "https://www.ixigua.com/7313819748414784010"
    },
    {
        "title": "同时修行佛道儒三家文化会怎么样呢？#圣人 #道家文化 #道系青年",
        "docid": "7315750427319140864",
        "url": "https://www.ixigua.com/7315750427319140864"
    },
    {
        "title": "英国挑战普京底线！与乌克兰成盟友关系！欲当西方霸主击败莫斯科",
        "docid": "7315028238563836416",
        "url": "https://www.ixigua.com/7315028238563836416"
    },
    {
        "title": "尹烨：没有突然发生的肿瘤，只有突然发现的肿瘤",
        "docid": "7291719486498046464",
        "url": "https://www.ixigua.com/7291719486498046464"
    },
    {
        "title": "一波未平一波又起，女人和教授的秘密被揭开",
        "docid": "7288632662062236179",
        "url": "https://www.ixigua.com/7288632662062236179"
    },
    {
        "title": "“俄攻乌守”态势明显，西方显露疲态，但俄罗斯不想谈了",
        "docid": "7315039525884035610",
        "url": "https://www.ixigua.com/7315039525884035610"
    },
    {
        "title": "一镜到底：600毫米超长焦航拍C919飞越维港",
        "docid": "7313354442232103433",
        "url": "https://www.ixigua.com/7313354442232103433"
    },
    {
        "title": "敏感时刻，朝鲜进行“火星炮-18”试射应对美韩“延伸威慑战略”",
        "docid": "7315289890424521231",
        "url": "https://www.ixigua.com/7315289890424521231"
    },
    {
        "title": "老人抢、多人抢，抢就是抢，违法就要惩处\n别让丰收失去意义",
        "docid": "7296417524474708480",
        "url": "https://www.ixigua.com/7296417524474708480"
    },
    {
        "title": "轻声细语，道别时，跟娘说几句话❤",
        "docid": "7298753732181754407",
        "url": "https://www.ixigua.com/7298753732181754407"
    },
    {
        "title": "对话黄渤，很多家庭的两代关系是最熟悉的陌生人",
        "docid": "7305283275688739366",
        "url": "https://www.ixigua.com/7305283275688739366"
    },
    {
        "title": "他们在养老院过年，不愿意回家 ：不要任何事都去烦子女，没有用",
        "docid": "7312107674903314980",
        "url": "https://www.ixigua.com/7312107674903314980"
    },
    {
        "title": "红海传出一个危险信号，美国开启噩梦模式，中国这招赢得太漂亮",
        "docid": "7314869012247085602",
        "url": "https://www.ixigua.com/7314869012247085602"
    },
    {
        "title": "一个失利接着一个失利，一次道歉接着一次道歉\n姚明应该辞职吗？",
        "docid": "7286788667115471360",
        "url": "https://www.ixigua.com/7286788667115471360"
    },
    {
        "title": "为什么要搞大湾区？深入理解这个概念，就能看清中国未来发展！",
        "docid": "7297477601344520758",
        "url": "https://www.ixigua.com/7297477601344520758"
    },
    {
        "title": "从细节看侯友宜和赖清德品德的优与劣",
        "docid": "7307123903975916041",
        "url": "https://www.ixigua.com/7307123903975916041"
    },
    {
        "title": "贪官向女儿转移资金数千万，一次就塞好几十万，更多内幕被透露",
        "docid": "7282686818493923879",
        "url": "https://www.ixigua.com/7282686818493923879"
    },
    {
        "title": "可靠快速!200公里内准确击杀电磁軌道炮成新战争机器 吕礼诗评",
        "docid": "7313861159306822155",
        "url": "https://www.ixigua.com/7313861159306822155"
    },
    {
        "title": "世界首富警告：人工智能 5 年内威胁人类！我们该怎么办？",
        "docid": "7298236661857845798",
        "url": "https://www.ixigua.com/7298236661857845798"
    },
    {
        "title": "针对美国？朝鲜试射火星12型洲际导弹，俄罗斯表态帮助提高性能",
        "docid": "7314952972750815794",
        "url": "https://www.ixigua.com/7314952972750815794"
    },
    {
        "title": "赎罪？美国组团搞“红海护航”；中欧班列成了“香饽饽”",
        "docid": "7314665240250352165",
        "url": "https://www.ixigua.com/7314665240250352165"
    },
    {
        "title": "美英法战舰云集亚丁湾，美国称多国加入“反胡塞”联盟",
        "docid": "7315671190641574451",
        "url": "https://www.ixigua.com/7315671190641574451"
    },
    {
        "title": "《论持久战》解读 二 问题的根据7",
        "docid": "7315744505871729186",
        "url": "https://www.ixigua.com/7315744505871729186"
    },
    {
        "title": "帕纳美拉焕发青春，路特斯为何功不可没？",
        "docid": "7315238898291409442",
        "url": "https://www.ixigua.com/7315238898291409442"
    },
    {
        "title": "空警2000要退休了？卫星拍下三个“盘子”，解放军又在酝酿惊喜",
        "docid": "7315739430147326516",
        "url": "https://www.ixigua.com/7315739430147326516"
    },
    {
        "title": "周海媚曾经和吕良伟登记过，不想婚姻成为束缚。",
        "docid": "7311718069662188095",
        "url": "https://www.ixigua.com/7311718069662188095"
    },
    {
        "title": "这个邻国，要干一件大事",
        "docid": "7314186056931541504",
        "url": "https://www.ixigua.com/7314186056931541504"
    },
    {
        "title": "上周印象",
        "docid": "7302652503039377958",
        "url": "https://www.ixigua.com/7302652503039377958"
    },
    {
        "title": "1997年国庆的上海外滩，感受一下～认得出我么？#大有学问",
        "docid": "7285929169677091363",
        "url": "https://www.ixigua.com/7285929169677091363"
    },
    {
        "title": "三大消息：日本军援乌克兰！乌军指挥部被炸！中方批评美国航天局",
        "docid": "7315432994167390735",
        "url": "https://www.ixigua.com/7315432994167390735"
    },
    {
        "title": "我在养老院呆了2年，吃的药吸的烟，全是离婚17年的前妻买的",
        "docid": "7312107170387919398",
        "url": "https://www.ixigua.com/7312107170387919398"
    },
    {
        "title": "风力叶片被当跷跷板，是管理的疏忽？还是游客的无知？",
        "docid": "7290834733469499945",
        "url": "https://www.ixigua.com/7290834733469499945"
    },
    {
        "title": "赖教授与店猫午后时光",
        "docid": "7305863644359688704",
        "url": "https://www.ixigua.com/7305863644359688704"
    },
    {
        "title": "水皮对话林园：未来重点关注什么方向？",
        "docid": "7291218477438730764",
        "url": "https://www.ixigua.com/7291218477438730764"
    },
    {
        "title": "又来欺负老百姓？没有工作不能办卡！银行：配合警方打击电信诈骗",
        "docid": "7289728260295000616",
        "url": "https://www.ixigua.com/7289728260295000616"
    },
    {
        "title": "销量猛增近4000辆，16万的君威无人问津，13万的君威全是优点？",
        "docid": "7311995367229571595",
        "url": ""
    },
    {
        "title": "霍华德：如果不改变饮食，我会长成这样",
        "docid": "7289604365910901259",
        "url": ""
    },
    {
        "title": "日系车、德系车、美系车，值得买的3款SUV",
        "docid": "7313060310942794249",
        "url": ""
    },
    {
        "title": "胖女孩27岁还没男友，穿超短裙被奶奶嫌太短：你这大粗腿谁看得上",
        "docid": "7290478040914788875",
        "url": ""
    },
    {
        "title": "7次出演西门庆，被风月片耽误的实力派单立文，与刘德华再度搭档",
        "docid": "7304871332712284709",
        "url": ""
    },
    {
        "title": "知乎还是人才多，如果把古诗词里面的“马”都换成“狗”会如何？",
        "docid": "7297577628935356980",
        "url": ""
    },
    {
        "title": "乌克兰要增兵50万继续打！全球5场战争，最长的已经打了1143天",
        "docid": "7314858545076896310",
        "url": ""
    },
    {
        "title": "38岁从体制内辞职，我发现人生不是旷野",
        "docid": "7287759647795184184",
        "url": ""
    },
    {
        "title": "“睡前吃宵夜”和“饿肚子睡觉”，哪个更伤身？是时候知道了",
        "docid": "7305596769407451698",
        "url": ""
    },
    {
        "title": "郭宝昌拍摄《大宅门》:戏里所有的小角色为何全由大腕儿来串？",
        "docid": "7289037295528002084",
        "url": ""
    },
    {
        "title": "别慌，事情没那么糟糕",
        "docid": "7315939978079420980",
        "url": ""
    },
    {
        "title": "57岁周海媚去世，生前留下4亿遗产无人继承，网友：太突然了",
        "docid": "7312339275428217344",
        "url": ""
    },
    {
        "title": "做不了詹姆斯，那就做狄龙",
        "docid": "7303898163411911178",
        "url": ""
    },
    {
        "title": "睡觉前多摸摸这3个地方，让你入睡快、睡得香",
        "docid": "7313823971798483506",
        "url": ""
    },
    {
        "title": "太罕见了！发现13张彩色照片，这就是“万恶的旧社会”",
        "docid": "7289023695640085052",
        "url": ""
    },
    {
        "title": "价格杀手又营业了：仅售1.6万+的VOGE SR250GT首测报告",
        "docid": "7304498449977164298",
        "url": ""
    },
    {
        "title": "好有爱！蔡侑玎与郑思维儿子合影，球迷调侃：不会以为是妈妈吧",
        "docid": "7313854786569601576",
        "url": ""
    },
    {
        "title": "太罕见了！1956年的北京街头，居然是这个样子",
        "docid": "7311200295177241124",
        "url": ""
    },
    {
        "title": "1944年，一个德国女子进入中国，悄悄偷拍了12张照片",
        "docid": "7308703376844636710",
        "url": ""
    },
    {
        "title": "节育环一直不取出，会烂在肉里？建议这个时间段取出",
        "docid": "7287584496168337976",
        "url": ""
    },
    {
        "title": "76人一签一裁！双向合同引进小洛夫顿：恩比德率新15+3阵容冲冠",
        "docid": "7315874396953002559",
        "url": ""
    },
    {
        "title": "中国女篮女排女足男排男篮男足最新世界排名 亚运成绩2金1银2铜",
        "docid": "7287357579695735352",
        "url": ""
    },
    {
        "title": "1929年，日本间谍拍摄的黄山，为啥一个游客都没有？",
        "docid": "7314222642935710259",
        "url": ""
    },
    {
        "title": "国内将逐渐停止“心脏支架”手术，做完人就废了？讲出实情",
        "docid": "7308598482682561043",
        "url": ""
    },
    {
        "title": "从倒卖大米到走私火腿肠，嘴上对华说不的韩国，吃的其实比谁都香",
        "docid": "7314115750317556258",
        "url": ""
    },
    {
        "title": "港珠澳大桥，这个超级工程景点，门票只需188元，约吗？",
        "docid": "7315243716984177186",
        "url": ""
    },
    {
        "title": "052D 不入眼?沙特人点名055，解放军的非卖品，一艘颠覆中东武力",
        "docid": "7315291056067805734",
        "url": ""
    },
    {
        "title": "社保缴15和25年待遇差别有多大？养老金能拿多少？养老金计算公式",
        "docid": "7289964327870792228",
        "url": ""
    },
    {
        "title": "喝酒有这3种情况，你已经是“酗酒者”了，别死不承认",
        "docid": "7292020421216436747",
        "url": ""
    },
    {
        "title": "年纪越大越要多吃肉？尤其是这2种肉，别舍不得吃",
        "docid": "7303340566514123304",
        "url": ""
    },
    {
        "title": "波导股份的独特自救：手机中的战斗机是怎样活下来的？",
        "docid": "7314873027387621924",
        "url": ""
    },
    {
        "title": "为什么80年代令人怀念？看完这15张照片，心中有了答案",
        "docid": "7291141730530148920",
        "url": ""
    },
    {
        "title": "开会、开会、开会……",
        "docid": "7293357406325817908",
        "url": ""
    },
    {
        "title": "犹太复国主义：不得不提的三个人物",
        "docid": "7289283877959418387",
        "url": ""
    },
    {
        "title": "长寿并非是好事，活多少岁足够了？能达到这个岁数，算有福气",
        "docid": "7308914671824716327",
        "url": ""
    },
    {
        "title": "万恶的旧社会！12张罕见照片，来看“旧社会”长啥样？",
        "docid": "7295665175720395300",
        "url": ""
    },
    {
        "title": "太罕见了！1926年峨眉山老照片，一个游客都没有",
        "docid": "7302390228802241043",
        "url": ""
    },
    {
        "title": "1944年，一个英国人进入中国，悄悄偷拍了15张照片",
        "docid": "7308962185332425227",
        "url": ""
    },
    {
        "title": "1984年，一个美国小伙进入中国，悄悄偷拍了15张照片",
        "docid": "7303772935935066663",
        "url": ""
    },
    {
        "title": "走路锻炼虽然好，莫超过这一个数，老人还要注意这4点",
        "docid": "7306703122968117787",
        "url": ""
    },
    {
        "title": "茅台与五粮液身后，谁是白酒老三？",
        "docid": "7282679363970400779",
        "url": ""
    },
    {
        "title": "枭龙的江湖地位，成飞和巴铁都没料到，日本人一个建议，格局打开",
        "docid": "7314267548660040202",
        "url": ""
    },
    {
        "title": "王金平演讲暗示遭冷遇，朱立伦、侯友宜才知大事不妙，前去拜访",
        "docid": "7287165561157812790",
        "url": ""
    },
    {
        "title": "罕见老照片：旧社会的“大户人家”，是什么生活水平？",
        "docid": "7296782541732823562",
        "url": ""
    },
    {
        "title": "形势正在起变化",
        "docid": "7314454342004769291",
        "url": ""
    },
    {
        "title": "造低端车，上海人不擅长，但造中高端MPV，还真是他们长项",
        "docid": "7302398851595043363",
        "url": ""
    },
    {
        "title": "脖子、腋下长出“小肉粒”，不痛不痒？可能是这3样东西",
        "docid": "7296679965502833215",
        "url": ""
    },
    {
        "title": "2024款奇瑞小蚂蚁，新增单踏板模式，铝合金车架",
        "docid": "7296416560611246601",
        "url": ""
    },
    {
        "title": "阿托伐他汀天天吃，要牢记这4个细节，才能不伤身",
        "docid": "7309305861078663720",
        "url": ""
    },
    {
        "title": "2023款智己LS6，21000rpm镁合金电机，隧冷技术，车速可达280km/h",
        "docid": "7283801314223129149",
        "url": ""
    },
    {
        "title": "刘震云《塔铺 》",
        "docid": "7283327929839288868",
        "url": ""
    },
    {
        "title": "读书的重要性演讲稿",
        "docid": "7315358036988576296",
        "url": ""
    },
    {
        "title": "不管台岛政体如何，但这三个权力必须收回来，就是“完全统一”",
        "docid": "7286367027340542498",
        "url": ""
    },
    {
        "title": "1993年，一个美国人进入上海，悄悄偷拍了12张照片",
        "docid": "7309345391491760679",
        "url": ""
    },
    {
        "title": "常常在凌晨3、4点醒来？这3大“元凶”，别不在意",
        "docid": "7297799320429216283",
        "url": ""
    },
    {
        "title": "中印边境新动静，东西两个方向上，印度远火爬上高原，威慑解放军",
        "docid": "7294908876447924787",
        "url": ""
    },
    {
        "title": "喝茶时间有讲究，这3个时间段最佳，喝对了才养生",
        "docid": "7295986349897810468",
        "url": ""
    },
    {
        "title": "1600公里外齐射，目标解放军舰队，核潜艇前出台海，美军想简单了",
        "docid": "7310543454772494884",
        "url": ""
    },
    {
        "title": "不堪回首！1983年的“老郑州”，居然是这个样子",
        "docid": "7291577891681649209",
        "url": ""
    },
    {
        "title": "体重多少就算胖了？身高1.6米，体重多少合适？自己动手算算",
        "docid": "7283402311244890682",
        "url": ""
    },
    {
        "title": "给俄总统普京的私信",
        "docid": "7315840915782779404",
        "url": ""
    },
    {
        "title": "绝非巧合，中美同时发射航天器，美上将评干三件事，背后什么用意",
        "docid": "7313502791635321356",
        "url": ""
    },
    {
        "title": "太罕见了！一个日本间谍，100年前拍的绍兴老照片",
        "docid": "7295677912341332534",
        "url": ""
    },
    {
        "title": "最便宜的混动SUV！这五菱新车售8.98万起 不充电很耐用！",
        "docid": "7288147323099202109",
        "url": ""
    },
    {
        "title": "在13国代表面前，中式组合拳锤死印度S-400，巴空军练明白了",
        "docid": "7293473456170140196",
        "url": ""
    },
    {
        "title": "晚上睡觉总觉得口干？别小看！可能暗示这4种疾病",
        "docid": "7302637077231862308",
        "url": ""
    },
    {
        "title": "我在越南的村书记家做客",
        "docid": "7308662769350591003",
        "url": ""
    },
    {
        "title": "2024款星途凌云，7档双离合换8AT变速箱，新增防侧翻系统",
        "docid": "7283058476404752933",
        "url": ""
    },
    {
        "title": "太罕见了！1983年的“老昆明”，居然是这个样子",
        "docid": "7283832551138329103",
        "url": ""
    },
    {
        "title": "尿尿出现泡沫，是肾不好？或是这3种疾病“通知”",
        "docid": "7284447698407653899",
        "url": ""
    },
    {
        "title": "甘油三酯高了，该怎么办？只要不超这个数，可生活调理",
        "docid": "7302316924552167972",
        "url": ""
    },
    {
        "title": "首月销量104台，起亚EV5，新能源赛道能带起亚重回燃油车巅峰？",
        "docid": "7315352207535325733",
        "url": ""
    },
    {
        "title": "邱毅的复杂性是台湾政治生态复杂性的缩影",
        "docid": "7255511879966147124",
        "url": ""
    },
    {
        "title": "不堪回首！1983年的“老武汉”，居然是这个样子",
        "docid": "7283408600201249280",
        "url": ""
    },
    {
        "title": "这家超市招工，录取比例是10:1，只因扫厕所的基本工资是4800元",
        "docid": "7297377879321543204",
        "url": ""
    },
    {
        "title": "张裕的忧伤，一醉不能方休？",
        "docid": "7293806246007095848",
        "url": ""
    },
    {
        "title": "和捷途旅行者去山里撒野，一台优秀的“旅行搭子”真的很重要",
        "docid": "7298998915976954394",
        "url": ""
    },
    {
        "title": "近十年火爆全网的男女对唱，最后一首太离谱了，你都听过几首？",
        "docid": "7283780272267624996",
        "url": "https://www.ixigua.com/7283780272267624996"
    },
    {
        "title": "原来普通美国人的篮球水平是这样的",
        "docid": "7293348859189821991",
        "url": "https://www.ixigua.com/7293348859189821991"
    },
    {
        "title": "据说，两位大佬谈得是换电标准化！",
        "docid": "7306725027557146651",
        "url": "https://www.ixigua.com/7306725027557146651"
    },
    {
        "title": "张宇：唯一只唱老婆写歌的歌手，华语乐坛“苦情王子”，首首经典",
        "docid": "7290851413822079503",
        "url": "https://www.ixigua.com/7290851413822079503"
    },
    {
        "title": "2024全球经济展望，雷倩大解析！红海商船遭胡塞攻击，后续影响？",
        "docid": "7315290966901195279",
        "url": "https://www.ixigua.com/7315290966901195279"
    },
    {
        "title": "福特锐界L如何成为冬季出行利器？",
        "docid": "7315378144544817190",
        "url": "https://www.ixigua.com/7315378144544817190"
    },
    {
        "title": "问界M9还未上市就追尾，官方：因驾驶员误操作导致",
        "docid": "7315406263596023849",
        "url": "https://www.ixigua.com/7315406263596023849"
    },
    {
        "title": "中国“土嗨”横扫韩国？你永远想不到韩国人有多沉迷中国“神曲”",
        "docid": "7304956466367693323",
        "url": "https://www.ixigua.com/7304956466367693323"
    },
    {
        "title": "当乐坛前辈第一次听周深唱歌，瞬间失去表情管理，集体惊讶！",
        "docid": "7291982193311220275",
        "url": "https://www.ixigua.com/7291982193311220275"
    },
    {
        "title": "一首歌“逆天改命”，巅峰时突然消失，如今靠一首歌再次翻红",
        "docid": "7298281173426700851",
        "url": "https://www.ixigua.com/7298281173426700851"
    },
    {
        "title": "《时光音乐会》十大“封神”现场，堪称华乐教科书，全程高能！",
        "docid": "7299385988588306953",
        "url": "https://www.ixigua.com/7299385988588306953"
    },
    {
        "title": "我人生的两次离奇经历",
        "docid": "7316000912345104906",
        "url": ""
    },
    {
        "title": "认识30年的德国发小来中国找我啦！首站重庆美食",
        "docid": "7308916511853249059",
        "url": "https://www.ixigua.com/7308916511853249059"
    },
    {
        "title": "求网红别再毁歌了，《奢香夫人》唱成靡靡之音，原唱听了想打人",
        "docid": "7289365572679270951",
        "url": "https://www.ixigua.com/7289365572679270951"
    },
    {
        "title": "理想准备干掉奔驰？",
        "docid": "7315972333460520960",
        "url": "https://www.ixigua.com/7315972333460520960"
    },
    {
        "title": "离开滤镜就原形毕露，这几位偶像明星，尬吹颜值羞不羞？",
        "docid": "7291612772129833512",
        "url": "https://www.ixigua.com/7291612772129833512"
    },
    {
        "title": "越南偏向中美哪一方？搅局南海，菲有靠山？白宫不想被拖下水？",
        "docid": "7314296426077520394",
        "url": "https://www.ixigua.com/7314296426077520394"
    },
    {
        "title": "你绝对想不到，欧文如此坦白（一）",
        "docid": "7283368991475630631",
        "url": "https://www.ixigua.com/7283368991475630631"
    },
    {
        "title": "二手玫瑰在《乐夏》杀疯了，《仙儿》唢呐一响，嗨翻全场！",
        "docid": "7293812859233829413",
        "url": "https://www.ixigua.com/7293812859233829413"
    },
    {
        "title": "高喊“遥遥领先”的男人，是什么来头？",
        "docid": "7312413346639118887",
        "url": "https://www.ixigua.com/7312413346639118887"
    },
    {
        "title": "坐全欧洲最大最豪华的大巴，翻越阿尔卑斯山是种怎样的体验？",
        "docid": "7285554239877677603",
        "url": "https://www.ixigua.com/7285554239877677603"
    },
    {
        "title": "问界M9底盘实测曝光，又一次遥遥领先",
        "docid": "7310150358238822963",
        "url": "https://www.ixigua.com/7310150358238822963"
    },
    {
        "title": "黄霄云“杀疯”了！原曲电脑合成的《人鱼之歌》，竟被她唱出来了",
        "docid": "7304217026216755764",
        "url": "https://www.ixigua.com/7304217026216755764"
    },
    {
        "title": "大叔翻唱《我的天空》获赞1100万，惊艳全网，原唱：唱得比我好！",
        "docid": "7299015439827993098",
        "url": "https://www.ixigua.com/7299015439827993098"
    },
    {
        "title": "不同国家的“哀乐”差别这么大？中国最庄重，非洲最离谱！",
        "docid": "7296773108197753353",
        "url": "https://www.ixigua.com/7296773108197753353"
    },
    {
        "title": "30年发小胆够大！初来中国直接挑战重庆红油辣火锅",
        "docid": "7309809883635941914",
        "url": "https://www.ixigua.com/7309809883635941914"
    },
    {
        "title": "明星别虚报身高了，1米7比1米6还矮？同框就原形毕露",
        "docid": "7301266064687104564",
        "url": "https://www.ixigua.com/7301266064687104564"
    },
    {
        "title": "胡塞武装要向加沙派兵！美以迎来真正敌人！美国印太战略将失败",
        "docid": "7315425969827906082",
        "url": "https://www.ixigua.com/7315425969827906082"
    },
    {
        "title": "千万不能让00后太早上班，看看亚运会BGM放的啥？这谁顶得住",
        "docid": "7287140284780315192",
        "url": "https://www.ixigua.com/7287140284780315192"
    },
    {
        "title": "18万8彩礼当事人：男生不比女生低一等，为啥平白无故给这么多钱",
        "docid": "7305094915061449235",
        "url": "https://www.ixigua.com/7305094915061449235"
    },
    {
        "title": "太可爱！国羽世界冠军一岁儿子成“团宠”，被外国对手争相抱怀里",
        "docid": "7315334584814813750",
        "url": ""
    },
    {
        "title": "试驾萨博9-3 Sport Combi:试了一圈才知道，市场就喜欢欺负老实人",
        "docid": "7297152323607085577",
        "url": ""
    },
    {
        "title": "游泳池见死不救，再到保安不让孩子避雨，\n缺德，总是拧巴着",
        "docid": "7292226610390893094",
        "url": "https://www.ixigua.com/7292226610390893094"
    },
    {
        "title": "“曼哈顿计划”唯一女科学家，为何《奥本海默》却对她只字未提？",
        "docid": "7292244771044033035",
        "url": "https://www.ixigua.com/7292244771044033035"
    },
    {
        "title": "新西兰销冠？外国UP主带你打卡比亚迪总部",
        "docid": "7315305183163417088",
        "url": "https://www.ixigua.com/7315305183163417088"
    },
    {
        "title": "为帮董宇辉选女朋友，网友的心都操碎了，十大绯闻女友都有谁？",
        "docid": "7315441812519256602",
        "url": "https://www.ixigua.com/7315441812519256602"
    },
    {
        "title": "刚满十八，百万过渡选啥车",
        "docid": "7282296401634165263",
        "url": "https://www.ixigua.com/7282296401634165263"
    },
    {
        "title": "莫兰特复出场均28分6篮板9助攻，灰熊3连胜",
        "docid": "7316021881974047244",
        "url": ""
    },
    {
        "title": "笑喷!广厦球迷手持球衣:来指导还是你来吧!王博笑着给他签名",
        "docid": "7316013329087513127",
        "url": ""
    },
    {
        "title": "中国老年保健协会",
        "docid": "7316028392078361140",
        "url": ""
    },
    {
        "title": "稀土战威力大！澳要想清楚！",
        "docid": "7315849286741131786",
        "url": "https://www.ixigua.com/7315849286741131786"
    },
    {
        "title": "员工好心帮助美女反被骂，竟还被骂上热搜太离谱",
        "docid": "7284563061594292796",
        "url": "https://www.ixigua.com/7284563061594292796"
    },
    {
        "title": "全新雷克萨斯RX的品味格调都体现在哪？",
        "docid": "7315975174560579584",
        "url": "https://www.ixigua.com/7315975174560579584"
    },
    {
        "title": "磨剑30年，中国海军霜刃未试，红海上的新银河号，我看谁还敢造次",
        "docid": "7314895615513592355",
        "url": "https://www.ixigua.com/7314895615513592355"
    },
    {
        "title": "带两个+号更强！这领克轿车开着太爽了 能合法上路的赛车？",
        "docid": "7294085152005849650",
        "url": "https://www.ixigua.com/7294085152005849650"
    },
    {
        "title": "野生动物园之旅：福特领裕vs传祺GS8谁更适合带娃家庭",
        "docid": "7313909052999008778",
        "url": "https://www.ixigua.com/7313909052999008778"
    },
    {
        "title": "18万8彩礼退婚辞职旅行当事人：我对不起父母，想有个家有个孩子",
        "docid": "7305094618121503284",
        "url": "https://www.ixigua.com/7305094618121503284"
    },
    {
        "title": "丰田与其他越野车区别，中国武器需要引以为鉴",
        "docid": "7309058659424829978",
        "url": "https://www.ixigua.com/7309058659424829978"
    },
    {
        "title": "\"人类天堂变鬼城\"！碧桂园马来西亚森林城市，2000亿美元血本无归",
        "docid": "7315962300278506021",
        "url": "https://www.ixigua.com/7315962300278506021"
    },
    {
        "title": "男子把200多万的房子过户给女儿，竟遭恶意驱离，还是小棉袄吗？",
        "docid": "7315402256714007074",
        "url": "https://www.ixigua.com/7315402256714007074"
    },
    {
        "title": "我被杀猪盘骗走407万，老公想着买桶汽油轻生",
        "docid": "7309545256804942377",
        "url": "https://www.ixigua.com/7309545256804942377"
    },
    {
        "title": "孙颖莎撞开邱贻可，要求邱指坐在第一排，莎莎为何敢向师傅发火？",
        "docid": "7311599267620225546",
        "url": "https://www.ixigua.com/7311599267620225546"
    },
    {
        "title": "美国组建“八国联军”，当着解放军的面，要在也门打另一场战争？",
        "docid": "7314554633656107555",
        "url": "https://www.ixigua.com/7314554633656107555"
    },
    {
        "title": "中企“银河号”绕开红海 躲避胡塞武装 伊朗小伙伴影响全球航运",
        "docid": "7315974266250822182",
        "url": "https://www.ixigua.com/7315974266250822182"
    },
    {
        "title": "孙杨已被国家队舍弃，要出战国际大赛证明自己，可加入中国香港队",
        "docid": "7315833513952018984",
        "url": ""
    },
    {
        "title": "上市三个月仍风平浪静，新款帕拉丁，躲迷藏还是玩失踪？",
        "docid": "7316055158008496680",
        "url": ""
    },
    {
        "title": "对这家中企，印度又下黑手了",
        "docid": "7316041959020167717",
        "url": "https://www.ixigua.com/7316041959020167717"
    },
    {
        "title": "路“坑”人，填坑慢就是不作为",
        "docid": "7293679631553528320",
        "url": "https://www.ixigua.com/7293679631553528320"
    },
    {
        "title": "广西自治区原副主席刘宏武判刑15年:为啥从轻？",
        "docid": "7315485990175703592",
        "url": "https://www.ixigua.com/7315485990175703592"
    },
    {
        "title": "探索古代青铜文化，员工始终提不起兴趣上司想尽办法",
        "docid": "7284188505985679908",
        "url": "https://www.ixigua.com/7284188505985679908"
    },
    {
        "title": "被骗到缅北第一天我就被打了，我哥在旁边无能为力",
        "docid": "7282442884798743059",
        "url": "https://www.ixigua.com/7282442884798743059"
    },
    {
        "title": "少爷写血书救老婆，族长却坚持要将她沉入江中",
        "docid": "7282326725525307941",
        "url": "https://www.ixigua.com/7282326725525307941"
    },
    {
        "title": "【谢寒冰｜新闻秘辛】记者的独家消息都是哪里来的？真实性如何？",
        "docid": "7312770954668147236",
        "url": "https://www.ixigua.com/7312770954668147236"
    },
    {
        "title": "车管所有黄牛，公安厅下令马上侦查，黄牛幕后的黑手才是问题核心",
        "docid": "7315384722698764836",
        "url": "https://www.ixigua.com/7315384722698764836"
    },
    {
        "title": "跟我来选车 | 彰显个性，有他就有酷，北京新BJ40城市猎人版",
        "docid": "7316030291968328226",
        "url": "https://www.ixigua.com/7316030291968328226"
    },
    {
        "title": "立陶宛不想给“保护费”？德国一听不干了",
        "docid": "7315345848576148008",
        "url": "https://www.ixigua.com/7315345848576148008"
    },
    {
        "title": "超凡入圣的人是否存在呢？#道系青年 #中华文化 #圣人",
        "docid": "7315962479028470323",
        "url": "https://www.ixigua.com/7315962479028470323"
    },
    {
        "title": "【今日头条】河南牧业经济学院对高素质农民培训班优秀学员回访",
        "docid": "7316070069321269769",
        "url": ""
    },
    {
        "title": "为了填补火线，乌要动员海外男性，普京也没闲着，打响人口争夺战",
        "docid": "7316074087233618471",
        "url": "https://www.ixigua.com/7316074087233618471"
    },
    {
        "title": "7枚核导弹排队发射，俄方的善意，是提前24小时，将消息传给美军",
        "docid": "7315348458754277942",
        "url": "https://www.ixigua.com/7315348458754277942"
    },
    {
        "title": "乌克兰制裁中国企业，纯属病急乱投医，还影响自身战后重建",
        "docid": "7315388982626353674",
        "url": "https://www.ixigua.com/7315388982626353674"
    },
    {
        "title": "重启4年多后，美太空司令部已具备“全面作战能力”传递什么信息",
        "docid": "7315294862427980315",
        "url": "https://www.ixigua.com/7315294862427980315"
    },
    {
        "title": "医生一拳砸出股价暴跌，爱尔眼科集团连夜发声明",
        "docid": "7315358089723511334",
        "url": "https://www.ixigua.com/7315358089723511334"
    },
    {
        "title": "东风汽车公司原副总经理童东城接受调查:标志性人设的崩塌？",
        "docid": "7315487000801477172",
        "url": "https://www.ixigua.com/7315487000801477172"
    },
    {
        "title": "说唱就唱，独属于傻弟弟的任性",
        "docid": "7292988986354565695",
        "url": "https://www.ixigua.com/7292988986354565695"
    },
    {
        "title": "政治人物最大的能力是什么？郭正亮：争功诿过！",
        "docid": "7288381193576251965",
        "url": "https://www.ixigua.com/7288381193576251965"
    },
    {
        "title": "换AT胎你必须得注意这三个弊端",
        "docid": "7283359088938287650",
        "url": "https://www.ixigua.com/7283359088938287650"
    },
    {
        "title": "美国拉“二十国舰队”，8国匿名？匿名比无中生友还厉害",
        "docid": "7315619333789450764",
        "url": ""
    },
    {
        "title": "社会不公导致美国人变矮，1980年已开始贫富分裂，穷兵黩武奔疯狂",
        "docid": "7316086341203132937",
        "url": "https://www.ixigua.com/7316086341203132937"
    },
    {
        "title": "电影《拿破仑》：呈现非凡人生，给我哪些惊讶，有哪些现实启示",
        "docid": "7308261258300654099",
        "url": "https://www.ixigua.com/7308261258300654099"
    },
    {
        "title": "4家药企合谋！超高药价竟是国外几十倍，遭罚没超过12亿元！",
        "docid": "7316096520628437558",
        "url": "https://www.ixigua.com/7316096520628437558"
    },
    {
        "title": "瓦格纳老板被曝是俄高层暗杀！得到普京默认？俄真正掌权者露面",
        "docid": "7316091205874680354",
        "url": "https://www.ixigua.com/7316091205874680354"
    },
    {
        "title": "联大安理会，俄朝联手与美当面起冲突，关键时刻，中方明确表态",
        "docid": "7315730654204232244",
        "url": "https://www.ixigua.com/7315730654204232244"
    },
    {
        "title": "仅剩6天年满39岁：詹皇40+又成历史首人 满面怒气直言首场必胜之战",
        "docid": "7315998179974038042",
        "url": ""
    },
    {
        "title": "美核潜艇频繁入韩，提前试水？或是美韩“延伸威慑战略”既定步骤",
        "docid": "7314920736643088922",
        "url": "https://www.ixigua.com/7314920736643088922"
    },
    {
        "title": "动力轻快滤震优秀——山路试驾第二代长安X5PLUS",
        "docid": "7315764922497892876",
        "url": "https://www.ixigua.com/7315764922497892876"
    },
    {
        "title": "乌情报部门主管妻子被毒 乌克兰内讧？还是俄罗斯投毒？",
        "docid": "7315679418859389490",
        "url": "https://www.ixigua.com/7315679418859389490"
    },
    {
        "title": "生不出小孩，韩国生育率跌至0.7，3关键因素，男女对立首当其冲",
        "docid": "7309027550666654243",
        "url": "https://www.ixigua.com/7309027550666654243"
    },
    {
        "title": "水果摊主继承老人300万房产，对于“合约式”的养老，你怎么看？",
        "docid": "7313479376752869923",
        "url": "https://www.ixigua.com/7313479376752869923"
    },
    {
        "title": "节目丰，气氛浓",
        "docid": "7316110894138917385",
        "url": ""
    },
    {
        "title": "在学历面前，宁可让孩子恨一时好过恨一世#言之有理#",
        "docid": "7294530219103552039",
        "url": "https://www.ixigua.com/7294530219103552039"
    },
    {
        "title": "俄三架苏-34被打掉，飞行员营救必须重视",
        "docid": "7316102007796793883",
        "url": "https://www.ixigua.com/7316102007796793883"
    },
    {
        "title": "美媒眼红得快飙血了，看中国在俄赚到钱，美国人比自己亏钱还难受",
        "docid": "7315734664856109631",
        "url": "https://www.ixigua.com/7315734664856109631"
    },
    {
        "title": "临近大选，台湾民众怒吼，三党不及格，执政傲慢，劳工没保障!",
        "docid": "7316115721116156426",
        "url": "https://www.ixigua.com/7316115721116156426"
    },
    {
        "title": "哈以冲突外溢，伊朗也已加入战斗？以商船又遇袭，战线转至印海岸",
        "docid": "7316110305929626175",
        "url": "https://www.ixigua.com/7316110305929626175"
    },
    {
        "title": "事不关己高高挂起！香港人对时政失去兴趣，社会能恢复往日生机？",
        "docid": "7284086547207586367",
        "url": "https://www.ixigua.com/7284086547207586367"
    },
    {
        "title": "机器人现身乌东一线，如何应对未来战争风险？中国已占据天然优势",
        "docid": "7315730549249671719",
        "url": "https://www.ixigua.com/7315730549249671719"
    },
    {
        "title": "中国叫停465亿货币互换协议？阿根廷专家提醒：西方取代不了中国",
        "docid": "7315359132717056547",
        "url": "https://www.ixigua.com/7315359132717056547"
    },
    {
        "title": "三大消息：美俄可能断交！俄军遭重大损失！拜登或被禁止参选",
        "docid": "7315790011780203008",
        "url": "https://www.ixigua.com/7315790011780203008"
    },
    {
        "title": "时隔4年，中国再次购买波音客机，明明有C919，为何还买美国货？",
        "docid": "7315360011587813900",
        "url": "https://www.ixigua.com/7315360011587813900"
    },
    {
        "title": "乌克兰要破局？荷兰打强心剂，将援18架F16，但对俄不一定是坏事",
        "docid": "7316114313512092171",
        "url": "https://www.ixigua.com/7316114313512092171"
    },
    {
        "title": "尼日尔抗争奏效，法国已被迫撤军，但还有美军，独立之路任重道远",
        "docid": "7316105006065648182",
        "url": "https://www.ixigua.com/7316105006065648182"
    },
    {
        "title": "乌克兰取得重大战果！一日击落俄军三架苏34，俄军前线到底怎么了",
        "docid": "7316077891106636339",
        "url": "https://www.ixigua.com/7316077891106636339"
    },
    {
        "title": "做人不要独乐乐，而要众乐乐！今天搬家，走了一万二千多步，赞！",
        "docid": "7290220781101908521",
        "url": "https://www.ixigua.com/7290220781101908521"
    },
    {
        "title": "台湾人跟大陆人互相敌视!?【小编提问中】",
        "docid": "7290826352213787191",
        "url": "https://www.ixigua.com/7290826352213787191"
    },
    {
        "title": "美国把中国当朋友还是什么？从可欺的对象变可怕对手，你同意吗？",
        "docid": "7284260739655664189",
        "url": "https://www.ixigua.com/7284260739655664189"
    },
    {
        "title": "中国经济看数据，进口全球60%大豆，再次成为美国农产品最大市场",
        "docid": "7314226744201282085",
        "url": "https://www.ixigua.com/7314226744201282085"
    },
    {
        "title": "美国最强拳王维尔德暗示或退役，张志磊已无愧当今世界第一重炮手",
        "docid": "7316045562657391123",
        "url": ""
    },
    {
        "title": "乒乓球冠军张怡宁，谈到她在香港的生活：吃喝、天气我都很习惯！",
        "docid": "7305751342302429736",
        "url": "https://www.ixigua.com/7305751342302429736"
    },
    {
        "title": "匈牙利反对援乌激怒了欧盟，欧尔班搅局为帮普京还是受金钱驱动？",
        "docid": "7314581361094820415",
        "url": "https://www.ixigua.com/7314581361094820415"
    },
    {
        "title": "6国13年花费38亿美金仅做了一个人的基因组",
        "docid": "7291718594017264128",
        "url": "https://www.ixigua.com/7291718594017264128"
    },
    {
        "title": "道家的无与佛家的空有什么本质区别呢？#道系青年 #中华文化",
        "docid": "7316106529080508969",
        "url": "https://www.ixigua.com/7316106529080508969"
    },
    {
        "title": "判断形式主义的三个标尺",
        "docid": "7315369401463603751",
        "url": "https://www.ixigua.com/7315369401463603751"
    },
    {
        "title": "撮过汤圆再包饺子两岸交融 老铁齐聚喜迎冬至预祝新年",
        "docid": "7315762554603897398",
        "url": "https://www.ixigua.com/7315762554603897398"
    },
    {
        "title": "“饥饿疗法”真的能治疗癌症吗？",
        "docid": "7294691032795611675",
        "url": "https://www.ixigua.com/7294691032795611675"
    },
    {
        "title": "雅万高铁是印尼名片，但印尼还远远不够",
        "docid": "7303471413514633791",
        "url": "https://www.ixigua.com/7303471413514633791"
    },
    {
        "title": "大湾区直飞新西兰，经济舱也能躺着飞",
        "docid": "7288140424458764854",
        "url": "https://www.ixigua.com/7288140424458764854"
    },
    {
        "title": "大环境不好，我们应该怎么办？经济规律的四个阶段是重复出现的",
        "docid": "7283713669408653864",
        "url": "https://www.ixigua.com/7283713669408653864"
    },
    {
        "title": "断崖式滑坡！巴萨想甩掉35岁巨星：省2000万薪水，沙特接盘",
        "docid": "7316071980615762495",
        "url": ""
    },
    {
        "title": "“爱国者”创奇功!乌军击落三架SU-34,1.5吨钛合金为何不堪一击?",
        "docid": "7316122701700170279",
        "url": "https://www.ixigua.com/7316122701700170279"
    },
    {
        "title": "轻松唱唱，没有压力，这种状态最好。",
        "docid": "7288241186454635071",
        "url": "https://www.ixigua.com/7288241186454635071"
    },
    {
        "title": "乌发布战报，击落3架俄苏34，泽连斯基高调庆祝，但不排除有水分",
        "docid": "7316105112097653284",
        "url": "https://www.ixigua.com/7316105112097653284"
    },
    {
        "title": "无路可逃！40架无人机冲向乌战壕，火光冲天，尸体散落弹坑中",
        "docid": "7315342885988073993",
        "url": "https://www.ixigua.com/7315342885988073993"
    },
    {
        "title": "聊一下，问界M5智驾版，智驾的优缺点",
        "docid": "7316136438700081202",
        "url": "https://www.ixigua.com/7316136438700081202"
    },
    {
        "title": "俄乌局势又生变化！首批F-16战机抵乌，翻盘的机会终于来了？",
        "docid": "7316146381906543114",
        "url": "https://www.ixigua.com/7316146381906543114"
    },
    {
        "title": "中企摊上大事，多名高管被捕；“关门宰羊”，印度老套路",
        "docid": "7316153929803399720",
        "url": "https://www.ixigua.com/7316153929803399720"
    },
    {
        "title": "欢迎来到嘿福放阵营的唱跳time！王耀庆、张栋梁、张远、马晓龙",
        "docid": "7299392422897943067",
        "url": "https://www.ixigua.com/7299392422897943067"
    },
    {
        "title": "以军打巷战，战斗素养堪忧，坦克车长钻出炮塔，被哈马斯一枪撂倒",
        "docid": "7316104342711304739",
        "url": "https://www.ixigua.com/7316104342711304739"
    },
    {
        "title": "是警钟还是灾难？日本海域突然连续出现鱼群死亡，渔船寸步难行",
        "docid": "7313869053104390706",
        "url": "https://www.ixigua.com/7313869053104390706"
    },
    {
        "title": "C5运输机当保姆，给加油机反向授油，美军这一试验，让各国开了眼",
        "docid": "7315329704570192423",
        "url": "https://www.ixigua.com/7315329704570192423"
    },
    {
        "title": "尹正这小嘴一撅，真的可爱到我了",
        "docid": "7288314379832361529",
        "url": "https://www.ixigua.com/7288314379832361529"
    },
    {
        "title": "警察教科书式呵斥保安：“往后退，马路不归你们管”",
        "docid": "7287449015048733218",
        "url": "https://www.ixigua.com/7287449015048733218"
    },
    {
        "title": "公务员街头扫雪，专职举旗遭群众吐槽，算是形式主义吗？",
        "docid": "7315339394062221887",
        "url": "https://www.ixigua.com/7315339394062221887"
    },
    {
        "title": "最新的代差：        六代机凭啥碾压五代机？",
        "docid": "7307607077336449575",
        "url": "https://www.ixigua.com/7307607077336449575"
    },
    {
        "title": "你这个婆娘脑壳有点矿#四川方言 #搞笑 @赵小雪",
        "docid": "7294522710414230054",
        "url": "https://www.ixigua.com/7294522710414230054"
    },
    {
        "title": "老人偷鸡蛋猝死，家属索赔38万：退休工资5000，偷个鸡蛋怎么了？",
        "docid": "7305782038353838646",
        "url": "https://www.ixigua.com/7305782038353838646"
    },
    {
        "title": "一亿美金 杯水车薪 美国援乌有大变化？",
        "docid": "7315678061557613108",
        "url": "https://www.ixigua.com/7315678061557613108"
    },
    {
        "title": "马克龙获得这一“殊荣”，是“捡漏”；拜登报复莫迪",
        "docid": "7315715320403034687",
        "url": ""
    },
    {
        "title": "中方公布《中国禁止出口限制出口技术目录》，涉及稀土技术",
        "docid": "7316037160816083497",
        "url": "https://www.ixigua.com/7316037160816083497"
    },
    {
        "title": "重兵集结库皮扬斯克，俄取得战果，摧毁乌装甲车，打死车上指挥官",
        "docid": "7315981902371160587",
        "url": "https://www.ixigua.com/7315981902371160587"
    },
    {
        "title": "战场训练场无坚不摧，官场审讯室铁骨铮铮！",
        "docid": "7286068564438712851",
        "url": "https://www.ixigua.com/7286068564438712851"
    },
    {
        "title": "以色列装甲师师长表示：已控制加沙北部！他是在吹牛么？",
        "docid": "7315355164301492763",
        "url": "https://www.ixigua.com/7315355164301492763"
    },
    {
        "title": "每周石评 | 哪一位经济学家可以而且应该挑战凯恩斯？",
        "docid": "7288224868577837605",
        "url": "https://www.ixigua.com/7288224868577837605"
    }
]