[
    {
        "title": "印度叫板中方的底气，究竟来自哪里？",
        "docid": "7335654308614308361",
        "url": ""
    },
    {
        "title": "酒店风波：母子清晨求宿遇阻，服务与情理的碰撞",
        "docid": "7324317953611022900",
        "url": ""
    },
    {
        "title": "禁止新疆棉花后， 欧盟缺乏生产炮弹的火药，中国何罪之有",
        "docid": "7342403833546555904",
        "url": ""
    },
    {
        "title": "我德国发小初次体验中国高铁 行程1400公里比德国高铁便宜太多",
        "docid": "7325397839205859890",
        "url": ""
    },
    {
        "title": "西安男子买车，还没开走就降价1万7！销售屏蔽朋友圈，声称不知情",
        "docid": "7342895153943675455",
        "url": ""
    },
    {
        "title": "论文兄弟聚首，百岁山组合迎强援！吴海乐手伸太长拖南京城市后腿",
        "docid": "7343984575221629475",
        "url": ""
    },
    {
        "title": "值回票价：赛科龙RX600全网暂时唯一正儿八经测评",
        "docid": "7327601865884238374",
        "url": ""
    },
    {
        "title": "豆汁的兄弟？你敢吃吗？",
        "docid": "7324877442693202442",
        "url": ""
    },
    {
        "title": "两会代表关注：电视机成摆设，对老年人极不友好",
        "docid": "7343788234125771318",
        "url": ""
    },
    {
        "title": "湖南省委书记没有吹牛",
        "docid": "7343924474553188891",
        "url": ""
    },
    {
        "title": "只有对金门问题手起刀落，解决的干脆利落，台湾问题才能利落干脆",
        "docid": "7341944219856175652",
        "url": ""
    },
    {
        "title": "浙江，到底隐藏了多少实力",
        "docid": "7341955604488946186",
        "url": ""
    },
    {
        "title": "士兵要是有黑猩猩体能，武器差点对方都打不赢",
        "docid": "7327236611116040738",
        "url": ""
    },
    {
        "title": "讫无定论！朱立伦裁撤黄复兴党是违背国民党初衷？想争取年轻选票",
        "docid": "7343827294182310439",
        "url": ""
    },
    {
        "title": "只要10.98万！奇瑞iCAR 03优缺点分析",
        "docid": "7340895430345458215",
        "url": ""
    },
    {
        "title": "菲方要的2个亿，美国同意给，但中方直接挑明，这笔钱没那么好得",
        "docid": "7342800419300573735",
        "url": ""
    },
    {
        "title": "M1坦克被大量摧毁，俄军士兵感谢拜登，还要给其奖金合作共赢",
        "docid": "7342849747542016552",
        "url": ""
    },
    {
        "title": "解放军隐忍备战近30年，目标始终咬定一个，美军航母的下场已注定",
        "docid": "7342410586480984585",
        "url": ""
    },
    {
        "title": "弓评两会10：什么是城乡主流的养老方式？居家养老，谁来辅助？",
        "docid": "7343278353165582886",
        "url": ""
    },
    {
        "title": "妇女节特辑：对话58岁冻龄女神李若彤，一个人也可以过得精彩！",
        "docid": "7343853750555312681",
        "url": ""
    },
    {
        "title": "试驾长安猎手 用车成本直线下降 长城炮慌不慌？",
        "docid": "7314558217177170443",
        "url": ""
    },
    {
        "title": "“风暴阴影”为何打得准？德总理开始揭发英国，参与袭击俄大桥",
        "docid": "7341749034639426082",
        "url": ""
    },
    {
        "title": "看上了上汽MG7，别急着下手，来看个视频吧",
        "docid": "7343897467340980275",
        "url": ""
    },
    {
        "title": "更年轻更智能，北京现代翻身就看第十一代索纳塔了",
        "docid": "7343825349936939047",
        "url": ""
    },
    {
        "title": "真意外！索纳塔走起性能/操控路线了？",
        "docid": "7343891292910911526",
        "url": ""
    },
    {
        "title": "你以为的，并不是你以为的……",
        "docid": "7326470480871817737",
        "url": ""
    },
    {
        "title": "豪华品牌中大型纯点，空间配置不错，宝马i5值不值得卖",
        "docid": "7343894790162874404",
        "url": ""
    },
    {
        "title": "宁波野代驾乱象：3公里路程收费100元",
        "docid": "7316137857041793551",
        "url": ""
    },
    {
        "title": "马莱莱接安德烈头球摆渡破门！上海申花1比0青岛西海岸",
        "docid": "7343969640777384486",
        "url": ""
    },
    {
        "title": "陆地空客L380左右前大灯怎样？形似花生，有好事发生？女神节快乐",
        "docid": "7343802597746147339",
        "url": ""
    },
    {
        "title": "高速服务区男子阻止外来人员换轮胎遭警察质问：高速公路是你家的",
        "docid": "7313379688670347828",
        "url": ""
    },
    {
        "title": "卡梅伦对中国“指指点点”；记住，英国不再是百年前的帝国",
        "docid": "7343159269543625268",
        "url": ""
    },
    {
        "title": "美国在关岛有大动作！重压之下派出B-52，挂实弹“惦记”着我们",
        "docid": "7342418096517055027",
        "url": ""
    },
    {
        "title": "【足本】匈牙利外长：俄乌都赢不了 谈判吧！",
        "docid": "7343741076387627531",
        "url": ""
    },
    {
        "title": "海南虽然不大，可各市县的气候却不一样",
        "docid": "7318120152506171919",
        "url": ""
    },
    {
        "title": "曾在临沂5个区县任职，退休5年后被查的马崑，迎来第一份“罚单 ”",
        "docid": "7342896479684330010",
        "url": ""
    },
    {
        "title": "中国“任意拘押”？700万加元“堵嘴”，加拿大不打自招",
        "docid": "7343999878160187939",
        "url": ""
    },
    {
        "title": "请别尬吹了！《周处除三害》真没那么神！",
        "docid": "7343579929499681307",
        "url": ""
    },
    {
        "title": "世界网友对比中英卫兵，借新媒体增强我话语权",
        "docid": "7343917774550336040",
        "url": ""
    },
    {
        "title": "对钟某某的网络风暴正瓦解投资信心，资本真的除了罪恶就没个好？",
        "docid": "7344005159187546678",
        "url": ""
    },
    {
        "title": "杭州网约车纠纷：乘客恶语伤人，司机坚决维权",
        "docid": "7316883200532349492",
        "url": ""
    },
    {
        "title": "小姐姐170，别骗人了，站起来比一下吧#波波笑剧场 #搞笑",
        "docid": "7343962891692802600",
        "url": ""
    },
    {
        "title": "李开复：AI时代，不产生经济价值的工作会更重要",
        "docid": "7320530865661379122",
        "url": ""
    },
    {
        "title": "工作该选稳定的还是有挑战的？#言之有理#",
        "docid": "7317127440403595828",
        "url": ""
    },
    {
        "title": "2023年中国出生人口902万，如何跨越中等收入“生育陷阱”？",
        "docid": "7325008543814582795",
        "url": ""
    },
    {
        "title": "胡锡进气势汹汹的文章为何发出就删除了？",
        "docid": "7344015322670187019",
        "url": ""
    },
    {
        "title": "想买北京现代索纳塔，别急着下手，一起来看看它的优缺点吧",
        "docid": "7343895630995161098",
        "url": ""
    },
    {
        "title": "水军要毁掉理想MEGA？“证据”不足",
        "docid": "7343883019985535498",
        "url": ""
    },
    {
        "title": "长安UNI-Z静态体验，UNI系列喜迎新成员，你心动吗?",
        "docid": "7343833451881037850",
        "url": ""
    },
    {
        "title": "燃油车即将落幕？固态电池技术将突破，充一次电续航超一千公里",
        "docid": "7343912256729514021",
        "url": ""
    },
    {
        "title": "常吃大内秘方蟠桃丸，让乾隆活到89岁，后流入民间改为清宫寿桃丸",
        "docid": "7342472505129353743",
        "url": ""
    },
    {
        "title": "想买个B级车，选帕萨特还是迈腾，看个视频来了解一下吧",
        "docid": "7343896491829919785",
        "url": ""
    },
    {
        "title": "美军高超音速导弹试验屡出丑，改到关岛很勉强，为了中国更为了钱",
        "docid": "7343946919003193866",
        "url": ""
    },
    {
        "title": "吉利要掀翻燃油车市场！缤越龙腾版与缤瑞COOL龙腾版上市",
        "docid": "7343945040235855926",
        "url": ""
    },
    {
        "title": "因为抵制中国棉花，美欧害得乌军炮兵快断顿了，报应来得如此快？",
        "docid": "7343946513510744627",
        "url": ""
    },
    {
        "title": "马英九大赞台独赖幸媛开创两岸和平繁荣",
        "docid": "7343983451290534436",
        "url": ""
    },
    {
        "title": "理想汽车一鸣惊到了谁？",
        "docid": "7342765645400506914",
        "url": ""
    },
    {
        "title": "人民将推翻泽连斯基？乌克兰恐生内患，情报机构已经做出研判",
        "docid": "7343268800160399923",
        "url": ""
    },
    {
        "title": "快递新规出台后，快递员业务量猛增，30分钟的货，12小时才能送完",
        "docid": "7342437570623734322",
        "url": ""
    },
    {
        "title": "气愤！张志磊遭遇坏消息，泰森富里曝光一黑幕，打败帕克也是徒劳",
        "docid": "7343430345632793140",
        "url": ""
    },
    {
        "title": "台岛疯传大陆渔船\"惊天动地\"大规模直捣金门围台，虚实见真章?",
        "docid": "7344009021331866112",
        "url": ""
    },
    {
        "title": "TikTok：美国封禁TikTok等同于剥夺美国公民的宪法权利",
        "docid": "7343831590940525083",
        "url": ""
    },
    {
        "title": "灵均投资：部分自媒体恶意造谣，已向有关机关报案",
        "docid": "7343873360491725352",
        "url": ""
    },
    {
        "title": "萨里奇伤退 萨里奇受伤被钟晋宝替换下场",
        "docid": "7343967917576618533",
        "url": ""
    },
    {
        "title": "全国人大代表郭兴田 用“绿色工业化定制内装”激活10万亿家装市场",
        "docid": "7343876354582184463",
        "url": ""
    },
    {
        "title": "“中国太空威胁”？美高官发出警告，中俄将有大动作！",
        "docid": "7343879830536307211",
        "url": ""
    },
    {
        "title": "型格和飞度推出無限MUGEN版车型，量产官改，9.78万元起",
        "docid": "7343902091368202259",
        "url": ""
    },
    {
        "title": "知豆汽车起死回生，获得吉利和爱玛的资源，再次发力微型车市场",
        "docid": "7343885146099023911",
        "url": ""
    },
    {
        "title": "续航超1000km，综合油耗1.3L，长安猎手准备把皮卡市场水搅浑？",
        "docid": "7317575438484963892",
        "url": ""
    },
    {
        "title": "57岁泰森官宣复出！对阵27岁网红拳手，出场费或破吉尼斯世界纪录",
        "docid": "7343642382094762550",
        "url": ""
    },
    {
        "title": "来活了！“网红教授”郑强卸任不到3个月，接连受聘两所院校",
        "docid": "7343508798516331018",
        "url": ""
    },
    {
        "title": "抗日神剧不可信！真正的“鬼子进村”，其实是这个样子",
        "docid": "7337883152486072895",
        "url": ""
    },
    {
        "title": "路虎发现运动版，锻造铝合金悬挂，高功率2.0T+9AT轻混",
        "docid": "7314230042366870051",
        "url": ""
    },
    {
        "title": "瓦利耶娃近照曝光，禁赛后明显发福！脸上长肉了，要来中国捞金",
        "docid": "7342779494366806543",
        "url": ""
    },
    {
        "title": "安东尼儿子：保罗-乔治是历史最佳球员",
        "docid": "7340457000654094902",
        "url": ""
    },
    {
        "title": "2024年1—2月降价信息汇总",
        "docid": "7341718339313533459",
        "url": ""
    },
    {
        "title": "2024款Jeep复仇者，纯电小型SUV，带有雪地模式",
        "docid": "7327589326752612905",
        "url": ""
    },
    {
        "title": "2024款银河E8，MEMS固态激光雷达，8295芯片，自带无人机",
        "docid": "7325740205175063052",
        "url": ""
    },
    {
        "title": "80后女干部口出狂言“在乡镇谁能干过我”，现在答案来了",
        "docid": "7330468858023182883",
        "url": ""
    },
    {
        "title": "女子长得胖找不到对象，相亲多次不成功，父母干着急：不懒很能干",
        "docid": "7343533464937022006",
        "url": ""
    },
    {
        "title": "回顾龙年春晚上的失误集锦，有人兵荒马乱，有人快速解围",
        "docid": "7334143355904950824",
        "url": ""
    },
    {
        "title": "2025款雪佛兰探界者，第四代车型，尺寸加大，新增越野版本",
        "docid": "7331324381576299058",
        "url": ""
    },
    {
        "title": "妈妈，我和同学们一起去打NBA了",
        "docid": "7343113369618416137",
        "url": ""
    },
    {
        "title": "4年1亿！国王妖六狮子大开口 1因素让其信心满满",
        "docid": "7341585836921684495",
        "url": ""
    },
    {
        "title": "科普：开了18年自动挡，不再上当，AT耐操，DCT高效，CVT平顺！",
        "docid": "7326825845888041526",
        "url": ""
    },
    {
        "title": "价格战后，第一周销量出炉，比亚迪5款车型入围前十",
        "docid": "7343161530978320906",
        "url": ""
    },
    {
        "title": "富里公开贬低张志磊：他真人没有电视里那么强壮，貌似还有些笨拙",
        "docid": "7343500802906358322",
        "url": ""
    },
    {
        "title": "还有没有人能得40000分？有！",
        "docid": "7342070060351341067",
        "url": ""
    },
    {
        "title": "2025款凯迪拉克CT5-V黑翼，车速可达321km/h的轿车，钛合金进气阀",
        "docid": "7328591256618648090",
        "url": ""
    },
    {
        "title": "尊者和香港仔，《周处除三害》两大通缉犯谁演的？原来大有来头",
        "docid": "7342543670521922111",
        "url": ""
    },
    {
        "title": "不要被电视剧骗了！70年代的中国，其实是这个样子",
        "docid": "7341237381163041314",
        "url": ""
    },
    {
        "title": "特朗普已无人可挡，奥巴马妻子将取代拜登出战？正主给出回应",
        "docid": "7343508095945343527",
        "url": ""
    },
    {
        "title": "结婚16年3娃非亲生，女方离婚诉讼期间再生一娃，欺负人没完了？",
        "docid": "7317600595970376242",
        "url": ""
    },
    {
        "title": "美国搞了一个世界大新闻",
        "docid": "7341996993235812891",
        "url": ""
    },
    {
        "title": "燃擎315丨控的是成本苦的是买家，上汽大众深陷颗粒捕捉器泥沼",
        "docid": "7342776918661448219",
        "url": ""
    },
    {
        "title": "美国的计谋成功了？中国调停后，果敢同盟军却分兵多路，连克两城",
        "docid": "7313476279842767401",
        "url": ""
    },
    {
        "title": "当王楚钦喊孙颖莎全名，莎莎当场犀利反击，大头学乖，亲切喊莎莎",
        "docid": "7324900755968786953",
        "url": ""
    },
    {
        "title": "顾全:17年晒伤用错药导致角质层破坏脸部红肿 抑郁得我不想打球了",
        "docid": "7342091269914886691",
        "url": ""
    },
    {
        "title": "意媒：感谢张康阳，国米好老板！6年冲7冠，老破车变法拉利",
        "docid": "7342478602187571752",
        "url": ""
    },
    {
        "title": "《周处除三害》的台湾原型是如何伏法的？",
        "docid": "7343643812243259955",
        "url": ""
    },
    {
        "title": "意大利主动邀比亚迪设厂，结果遭到婉拒，西方为何打动不了中企？",
        "docid": "7340557564444213760",
        "url": ""
    },
    {
        "title": "抢在下台前，拜登特使找上中方，中美达成新共识，俄罗斯媒体紧盯",
        "docid": "7343451717440111142",
        "url": ""
    },
    {
        "title": "引进中方技术，阿塔还清4国欠款，把国内大油田，安心交给中国",
        "docid": "7332781193663873576",
        "url": ""
    },
    {
        "title": "62岁珍妮巴斯近照曝光，婚后瘦了好多！身材匀称，女人味十足",
        "docid": "7343926151847182848",
        "url": ""
    },
    {
        "title": "中国35个大中城市洗牌了？",
        "docid": "7343444627560645135",
        "url": ""
    },
    {
        "title": "全铝车身的捷豹为啥比同级别的宝马还重？",
        "docid": "7331976016212869658",
        "url": ""
    },
    {
        "title": "“金牛座”炸大桥，然后栽赃给英法，德国惹毛俄罗斯还得罪北约",
        "docid": "7342859471586886153",
        "url": ""
    },
    {
        "title": "孙颖莎想配这三人打混双，全是帅哥，一次当众邀请让王楚钦翻白眼",
        "docid": "7326837174082077193",
        "url": ""
    },
    {
        "title": "新加坡防长语出惊人，F-35已入乌境内参战",
        "docid": "7342072530393367078",
        "url": ""
    },
    {
        "title": "“过气歌手”才是永远的神，随口一唱就刷屏全网，碾压如今顶流！",
        "docid": "7312753990624936488",
        "url": ""
    },
    {
        "title": "传菲西部司令负伤，美方叫嚣着出头，气氛到位了，马科斯却犹豫了",
        "docid": "7343533523107824137",
        "url": ""
    },
    {
        "title": "局势升级，美军在关岛大动作！B-52挂实弹，想饱和打击我沿海地区",
        "docid": "7342847311489843722",
        "url": ""
    },
    {
        "title": "国产奔驰E级，车架底板加强，敏捷操控悬挂系统",
        "docid": "7313122254567817755",
        "url": ""
    },
    {
        "title": "三店实地调查证实，MEGA遭遇滑铁卢，气得李想一周不发微博？",
        "docid": "7343958763894538789",
        "url": ""
    },
    {
        "title": "重要报告！楼市有了新表述",
        "docid": "7343512553668379162",
        "url": ""
    },
    {
        "title": "蔡昉：想让年轻人多生孩子？学前教育应该由政府买单。",
        "docid": "7342762685769089588",
        "url": ""
    },
    {
        "title": "不堪一击，从美M1坦克登场20分钟就被击毁来看，西方武器神话不再",
        "docid": "7343566006129836563",
        "url": ""
    },
    {
        "title": "笑喷!易建联:15岁加盟宏远第一天被换上场首秀 李春江:我换错人了",
        "docid": "7318044984169939475",
        "url": ""
    },
    {
        "title": "富里带着老婆现场给帕克助威，毫不掩饰立场：不想看到张志磊取胜",
        "docid": "7344113424491840012",
        "url": ""
    },
    {
        "title": "孙颖莎撞开邱贻可，要求邱指坐在第一排，莎莎为何敢向师傅发火？",
        "docid": "7311599267620225546",
        "url": ""
    },
    {
        "title": "20年前的“童年神曲”质量多恐怖？随便一首都能“吊打”当今乐坛",
        "docid": "7327141994101539347",
        "url": ""
    },
    {
        "title": "自毁前程！这么不求上进，当什么MVP？",
        "docid": "7323074642255151668",
        "url": ""
    },
    {
        "title": "春蔚对话李国庆｜李国庆公开透露与前妻离婚过程，说分手见人品",
        "docid": "7318823971015623180",
        "url": ""
    },
    {
        "title": "马斯克质疑北约为何存在，引拉脱维亚总统回应：“原因是俄罗斯”",
        "docid": "7343511883212980771",
        "url": ""
    },
    {
        "title": "生错了年代？女子短跨集体爆种，吴艳妮创个人最佳却只排名第387",
        "docid": "7342526252089180683",
        "url": ""
    },
    {
        "title": "不要被电视剧骗了！真实的60年代，其实是这个样子",
        "docid": "7334679170691645952",
        "url": ""
    },
    {
        "title": "他是象棋传奇人物 打遍街边无敌手 跪求一败 真身国家大师 世界赛冠军",
        "docid": "7343480824840618515",
        "url": ""
    },
    {
        "title": "2023款雪佛兰探界者，强悍可靠，82%高强钢车架",
        "docid": "7316825416361132559",
        "url": ""
    },
    {
        "title": "“最听劝老板”靠刷评论区救活伞厂：听人劝，吃饱饭",
        "docid": "7327225264428188175",
        "url": ""
    },
    {
        "title": "奔驰叫停在华新电动车计划，德媒：欧洲电动车幻想正加速衰落",
        "docid": "7341758215165772303",
        "url": ""
    },
    {
        "title": "何小鹏提议半夜无人驾驶，我觉得是完美的商业模式",
        "docid": "7343553094980780595",
        "url": ""
    },
    {
        "title": "俄军再次击毁一辆美制M1坦克，与上次过程有何异同？",
        "docid": "7343509900867306024",
        "url": ""
    },
    {
        "title": "科普：为啥油车做不了智能驾驶和车机互联？非不想也，实不能也",
        "docid": "7319023660181635603",
        "url": ""
    },
    {
        "title": "俞敏洪：很多企业出问题，因为政府从友好支持转为强制参与 ​",
        "docid": "7338710882706752039",
        "url": ""
    },
    {
        "title": "解放军空战演练，歼20以17比0对阵风“剃光头”，印度的心态崩了",
        "docid": "7343524485247107647",
        "url": ""
    },
    {
        "title": "急需补充预警机的俄罗斯，看上了中国空警-500！",
        "docid": "7342693310156440076",
        "url": ""
    },
    {
        "title": "前排都是什么人在坐啊？又是被观众冒犯的一天#波波笑剧场 #搞笑",
        "docid": "7340622864837673472",
        "url": ""
    },
    {
        "title": "我在养老院呆了2年，吃的药吸的烟，全是离婚17年的前妻买的",
        "docid": "7312107170387919398",
        "url": ""
    },
    {
        "title": "篮网宣布本-西蒙斯赛季提前报销",
        "docid": "7343625898941563446",
        "url": ""
    },
    {
        "title": "“贪财”的哈利伯顿，终被物欲反噬",
        "docid": "7343098480266789439",
        "url": ""
    },
    {
        "title": "德比逆转，居然是詹姆斯生涯之最",
        "docid": "7340949860562879017",
        "url": ""
    },
    {
        "title": "象棋史上仇恨最大的两个人 手写誓杀对方 酿惨剧终身不语 却书怀钦佩",
        "docid": "7338025299387695670",
        "url": ""
    },
    {
        "title": "价格战开打后 第二周销量出炉：比亚迪销售近4万台，问界领先理想",
        "docid": "7342801462713942540",
        "url": ""
    },
    {
        "title": "轮到中方反脱钩美国？对美出口下降13.1%，雷蒙多：中美不是朋友",
        "docid": "7342803895536976394",
        "url": ""
    },
    {
        "title": "都说贾跃亭是PPT造车，那谁来解释下这台路跑的FF91",
        "docid": "7343544625632084514",
        "url": ""
    },
    {
        "title": "秦PLUS DM-i、长安启源A05、五菱星光、帝豪L HiP谁更值得买？",
        "docid": "7337884053989130790",
        "url": ""
    },
    {
        "title": "棋坛史上悲情人物，中计胡荣华遗憾终身，60岁仍拼搏全国冠军",
        "docid": "7340288014981677603",
        "url": ""
    },
    {
        "title": "日本都打不过，老乔真的尴尬了",
        "docid": "7339489353129001513",
        "url": ""
    },
    {
        "title": "燃擎315丨新势力频频遭遇破产危机，车主的权益该如何保障？",
        "docid": "7343548521808855579",
        "url": ""
    },
    {
        "title": "导弹故意打偏500米？无人机锁定泽连斯基车队，俄军突然停手了",
        "docid": "7344182508772573706",
        "url": ""
    },
    {
        "title": "美国推演的全面战争，让西方不安，解放军对美日，已有多手准备",
        "docid": "7342786983163085323",
        "url": ""
    },
    {
        "title": "对中国电动车进口不降反升，欧盟准备报复性征税，美议员立即附和",
        "docid": "7343522486207906304",
        "url": ""
    },
    {
        "title": "印度干五件事，拦截中方赴巴船只，中国不是软柿子，采取两项措施",
        "docid": "7342397728183632384",
        "url": ""
    },
    {
        "title": "A400M大运能有多先进？德国空军对中国人说不，一度爆发肢体冲突",
        "docid": "7340214808991498789",
        "url": ""
    },
    {
        "title": "反华的瑞典一票否决下，欧盟未能通过“脱钩”法案，让人意外",
        "docid": "7342105368136630793",
        "url": ""
    },
    {
        "title": "默认密码都不改？德国故意拉北约下水，机密泄露的“黑手”会是谁",
        "docid": "7343566349538738729",
        "url": ""
    },
    {
        "title": "万恶的旧社会，到底长啥样？原来跟电视剧不一样",
        "docid": "7342840681834086946",
        "url": ""
    },
    {
        "title": "地表最强防空系统 俄S-500拿高超音速飞弹练刀可追踪拦截蔡正元评",
        "docid": "7343459304328200754",
        "url": ""
    },
    {
        "title": "注意！摔倒了！",
        "docid": "7340256853743534602",
        "url": ""
    },
    {
        "title": "律师揭发广东一村主任月入6000但却21间楼地",
        "docid": "7340952534494839296",
        "url": ""
    },
    {
        "title": "嗅到不寻常！美企高管套现110亿美元，为何？接下来怎么操作？",
        "docid": "7342657003770085928",
        "url": ""
    },
    {
        "title": "张志磊完败帕克遭网友嘲讽：天天拍视频赚流量，这回你还嘚瑟不？",
        "docid": "7344189270321840666",
        "url": ""
    },
    {
        "title": "胡歌：我能走到今天离不开母亲的教育",
        "docid": "7325335567107883529",
        "url": ""
    },
    {
        "title": "太罕见了！1983年的“老天津”，居然是这个样子",
        "docid": "7336424392584364607",
        "url": ""
    },
    {
        "title": "拉力赛旁的领航员是摆设吗？下面看看他的高光时刻…#wrc拉力赛",
        "docid": "7320192137919332901",
        "url": ""
    },
    {
        "title": "翻山越岭，驱车2小时，今天带大家来看一棵存活了170多年的古树",
        "docid": "7340963721717482035",
        "url": ""
    },
    {
        "title": "印度文宣搞乌龙，大陆躺着也中枪？抢iPhone份额，印制取代中制？",
        "docid": "7342061184775881267",
        "url": ""
    },
    {
        "title": "德国小伙儿带你们领略大湾区黑科技深中通道",
        "docid": "7321460334076625408",
        "url": ""
    },
    {
        "title": "别人不说的我来说 比亚迪汉DM-i荣耀版抢先体验",
        "docid": "7340691553561772581",
        "url": ""
    },
    {
        "title": "中美这场较量，中国拿下世界第一，美军启动b计划，日韩接到求援",
        "docid": "7343130471078822441",
        "url": ""
    },
    {
        "title": "一镜到底：600毫米超长焦航拍C919飞越维港",
        "docid": "7313354442232103433",
        "url": ""
    },
    {
        "title": "盘点《繁花》里那些封神配乐，首首金曲，音乐响起满是回忆",
        "docid": "7323114781945758260",
        "url": ""
    },
    {
        "title": "冯远征：从演员到院长，特想当老师！为何看山还是山看水还是水？",
        "docid": "7337511847743980059",
        "url": ""
    },
    {
        "title": "太奇幻，何小鹏的低空飞行汽车在广州试飞，掠过一片好奇目光仰视",
        "docid": "7344211923703120420",
        "url": ""
    },
    {
        "title": "小托马斯32分4助攻5三分！G联赛首秀高分低效 自曝仍未放弃原因",
        "docid": "7344134486126707227",
        "url": ""
    },
    {
        "title": "一个人能作到什么地步请看陈文志的表演#不作死就不会死 #公务员",
        "docid": "7322409997067878927",
        "url": ""
    },
    {
        "title": "美国六代机露出峥嵘，像一枚菱形飞镖，全向隐身穿透中国防空网？",
        "docid": "7327986701345751562",
        "url": ""
    },
    {
        "title": "初二回娘家，女儿一定要带贵重手礼？还能带着婆婆回娘家！",
        "docid": "7332777484326765110",
        "url": ""
    },
    {
        "title": "作为第一批赴美留学生，40年前被美国的“大西瓜”震撼",
        "docid": "7324251654776160777",
        "url": ""
    },
    {
        "title": "最强大脑王昱珩：高中第一天老师对我作业的评价，让我决定混3年",
        "docid": "7317273161324888639",
        "url": ""
    },
    {
        "title": "行情：凯迪拉克CT4 2024年行情播报",
        "docid": "7343294988555878949",
        "url": ""
    },
    {
        "title": "每周石评 | 当代楚汉争雄，谁主沉浮？",
        "docid": "7332042307362882088",
        "url": ""
    },
    {
        "title": "演员任思齐：台湾没有彩礼这样的习俗，它是陋习",
        "docid": "7322885247333302847",
        "url": ""
    },
    {
        "title": "大陆五代机不用怕，美媒支招：台军只要有F-15EX，就能枪挑歼-20",
        "docid": "7344211243382997539",
        "url": ""
    },
    {
        "title": "好消息传了三波，生产线满负荷运转，想买运-20，得过解放军这关",
        "docid": "7323474296717312552",
        "url": ""
    },
    {
        "title": "“水哥”王昱珩：运气跟选择永远比努力重要",
        "docid": "7317125320959033895",
        "url": ""
    },
    {
        "title": "日产艾睿雅获2024年美国“TOP SAFETY PICK”",
        "docid": "7343070632537588260",
        "url": ""
    },
    {
        "title": "实锤了，我被iCAR03啪啪打脸！",
        "docid": "7340877002502734363",
        "url": ""
    },
    {
        "title": "燃擎315丨价格翻倍、余额不退，屠龙的充电桩怎么就成了恶龙",
        "docid": "7343546322663834162",
        "url": ""
    },
    {
        "title": "⼤陆国潮国⻛在台湾爆⽕，中华⽂脉再次拉近两岸！",
        "docid": "7336755470771847680",
        "url": ""
    },
    {
        "title": "全球最贵电动车什么样？体验劳斯莱斯闪灵",
        "docid": "7314275341987086858",
        "url": ""
    },
    {
        "title": "从演员到院长的冯远征，每天工作16小时，凌晨在卫生间背台词",
        "docid": "7337316072619508275",
        "url": ""
    },
    {
        "title": "担心引火烧身，东京前高官：台岛不应期待日本“协防”",
        "docid": "7343457680834708003",
        "url": ""
    },
    {
        "title": "NBA特训师眼中的杨瀚森",
        "docid": "7343571911550763571",
        "url": ""
    },
    {
        "title": "弓评两会21：贪官显得多了吗，腐败存量能否彻底清除，咋办？",
        "docid": "7344240626218730038",
        "url": ""
    },
    {
        "title": "俄罗斯大选倒计时，美国使馆突发警告：莫斯科将遭恐怖袭击",
        "docid": "7344244817624302134",
        "url": ""
    },
    {
        "title": "聊聊开国产车的这一年",
        "docid": "7312647861379383847",
        "url": ""
    },
    {
        "title": "台海恶化\"烟雾弥漫\"，大陆霹雳合围，台\"防长\"直言\"睡不好\"引惊慌",
        "docid": "7344222306761507367",
        "url": ""
    },
    {
        "title": "解决台湾问题，需要几艘航母？“唯武器论”想法很危险",
        "docid": "7343576187039711783",
        "url": ""
    },
    {
        "title": "5块2买95号汽油，6块7对外出售！武汉父子因非法经营，被刑事拘留",
        "docid": "7320244495542321718",
        "url": ""
    },
    {
        "title": "中国“任意拘押”？700万加元“堵嘴”，加拿大不打自招",
        "docid": "7343945304590942760",
        "url": ""
    },
    {
        "title": "清华教授称人口政策应该回归自由 不要指责年轻人不生娃",
        "docid": "7329474342063735336",
        "url": ""
    },
    {
        "title": "长相好还能赚钱 探店大拿V1 这款车值得拿捏吗？",
        "docid": "7312715288955798068",
        "url": ""
    },
    {
        "title": "大空间大沙发，东风日产探陆限时21.28万起",
        "docid": "7343188048118710291",
        "url": ""
    },
    {
        "title": "2024年，退休中人10年过渡期将结束，中人养老金会全部重算吗？",
        "docid": "7320191660733710882",
        "url": ""
    },
    {
        "title": "孩子的童年不应只有教室和厕所！委员谈小学生“厕所社交”",
        "docid": "7343185967093809718",
        "url": ""
    },
    {
        "title": "2024年有存款的家庭注意了，明年存款利率会怎样？",
        "docid": "7312689017546572328",
        "url": ""
    },
    {
        "title": "弓评两会15：国外养老有啥借鉴？长期护理险，能普及吗？",
        "docid": "7343440023196598835",
        "url": ""
    },
    {
        "title": "恢复双向奔赴的《国统纲领》，能否让两岸走的更近？",
        "docid": "7317894464624820746",
        "url": ""
    },
    {
        "title": "一己之力让特斯拉改名的人",
        "docid": "7344209187653550632",
        "url": ""
    },
    {
        "title": "美国不急法国急，扬言要向乌克兰派兵助战，马克龙到底唱哪一出？",
        "docid": "7343121664575914536",
        "url": ""
    },
    {
        "title": "我的科目三",
        "docid": "7315709580493718026",
        "url": ""
    },
    {
        "title": "开火权掌握在谁手里？台军发动“第一击”四个要件解读",
        "docid": "7344194571624137226",
        "url": ""
    },
    {
        "title": "莫迪政府野心很大；与印度“平起平坐”，中国何德何能？",
        "docid": "7343449763595485748",
        "url": ""
    },
    {
        "title": "联合国大会上，中方点名批评，美国态度变了，以色列嗅到危险信号",
        "docid": "7343418505423094309",
        "url": ""
    },
    {
        "title": "洋姜，别光腌咸菜！",
        "docid": "7316816761465569802",
        "url": ""
    },
    {
        "title": "解放军有名的好参谋长，能和电子地图较量的人",
        "docid": "7343585489221648950",
        "url": ""
    },
    {
        "title": "被严重低估的实用型MPV 试驾瑞风RF8",
        "docid": "7343942514585879049",
        "url": ""
    },
    {
        "title": "印度边境增兵1万，美媒大呼小叫，中方回应云淡风轻",
        "docid": "7344194880874234408",
        "url": ""
    },
    {
        "title": "美卫星拍摄江南厂福建舰涂装：三条弹射轨道清晰，停放一架歼-15",
        "docid": "7344239190789603855",
        "url": ""
    },
    {
        "title": "摩尔多瓦面临倾国之危！为保护“德左”，俄罗斯或择机扩大战争",
        "docid": "7342045424053944868",
        "url": ""
    },
    {
        "title": "蒙古国遭灾，第三邻国没一个吱声，蒙国总理感慨，还是中国最可靠",
        "docid": "7342756051898417727",
        "url": ""
    },
    {
        "title": "为什么说朔尔茨葬送了德国的未来",
        "docid": "7331628170292118027",
        "url": ""
    },
    {
        "title": "我来养老院2年，每月4500的退休金，谁管我，我把工资本给谁",
        "docid": "7312107392630850102",
        "url": ""
    },
    {
        "title": "福建挖泥船现身金门海域疏通航道！厦金两门率先为台海融合作榜样",
        "docid": "7344208657858757172",
        "url": ""
    },
    {
        "title": "“中国保温杯”火遍北美，哈尔斯新年不停产",
        "docid": "7343578697607447078",
        "url": ""
    },
    {
        "title": "MWC2024圆满落幕 华为无线获11项大奖 雷倩点评",
        "docid": "7343491868488892968",
        "url": ""
    },
    {
        "title": "中国退休人数将现峰值，一年退休多少人？对养老金有何影响？",
        "docid": "7323490949819531817",
        "url": ""
    },
    {
        "title": "世锦赛白忙活了！田联世界排名：吴艳妮仍然第52，印度名将创历史",
        "docid": "7343569443722887718",
        "url": ""
    },
    {
        "title": "杨毅：若库里5冠历史地位超越詹皇? 那科比邓肯5冠超过老詹了吗",
        "docid": "7340448455187726898",
        "url": ""
    },
    {
        "title": "太失望了！张志磊点数完败帕克，赛前盲目自信，二番战时间已定",
        "docid": "7344151492661608997",
        "url": ""
    },
    {
        "title": "高合高管喊话贾跃亭，欢迎回国拆车对峙",
        "docid": "7344201831020494900",
        "url": ""
    },
    {
        "title": "马伊琍谈吃苦：每个人都有自己跨不过去的沟壑",
        "docid": "7320681534342562343",
        "url": ""
    },
    {
        "title": "西方霸权统治结束了？苏杰生：中国和印度将重构世界秩序",
        "docid": "7343454317930332712",
        "url": ""
    },
    {
        "title": "美国船只接连遭导弹袭击！战斗力已经赶不上俄罗斯？暴露重大缺陷",
        "docid": "7343584130593980928",
        "url": ""
    },
    {
        "title": "开着加长大揽胜穿越雪原，体验old money的快乐",
        "docid": "7321581349603803689",
        "url": ""
    },
    {
        "title": "仰望U8全网轮胎首爆，有这个配置才能称得上是真正的越野车！",
        "docid": "7316727215457042442",
        "url": ""
    },
    {
        "title": "探店胜达旅行家综合优惠55000元，香不香",
        "docid": "7341232741096260150",
        "url": ""
    },
    {
        "title": "这艘船还是沉了，但更糟糕的事情还在继续",
        "docid": "7341930663035257395",
        "url": ""
    },
    {
        "title": "1973年，一个德国人进入中国，悄悄拍了14张照片",
        "docid": "7340474552461885990",
        "url": ""
    },
    {
        "title": "美国军方承认了一件事，原来打仗的目的是这个",
        "docid": "7344276126682579467",
        "url": ""
    },
    {
        "title": "中超-徐嘉敏超巨失误送礼 德尼奇扳平 河南队2-2梅州 皆2轮不胜",
        "docid": "7344271899909866003",
        "url": ""
    },
    {
        "title": "马航370失踪十周年，新的变数已经出现，这回能真相大白吗？",
        "docid": "7344198932790149669",
        "url": ""
    },
    {
        "title": "M1坦克2年到乌克兰，闪亮登场20分钟，面对俄军实属不堪一击",
        "docid": "7343176679201702463",
        "url": ""
    },
    {
        "title": "50吨煤车压瘪深蓝S7,车上人员安全逃生,车主第二天再买同款新车",
        "docid": "7344304091466350630",
        "url": ""
    },
    {
        "title": "太罕见了！1983年“老沈阳”，居然是这个样子",
        "docid": "7342365730664825344",
        "url": ""
    },
    {
        "title": "订了3000多，退了10000多！MEGA刚上市就被抛弃，理想真的凉了？",
        "docid": "7343465733491753484",
        "url": ""
    },
    {
        "title": "第四艘航母名字叫啥，这四个省热度最高，网友们猜到了吗？",
        "docid": "7343533190767870474",
        "url": ""
    },
    {
        "title": "评论区总看到网络兵王，我在特种部队都没见过",
        "docid": "7330949400653234740",
        "url": ""
    },
    {
        "title": "航拍江津猫山樱花园，重庆新晋网红地，真的太漂亮了",
        "docid": "7343414215803142683",
        "url": ""
    },
    {
        "title": "中国干涉大选？立陶宛太把自己当根葱，外交部回应",
        "docid": "7344308121861177890",
        "url": ""
    },
    {
        "title": "中国电车火遍全球，却给我们提了个醒？",
        "docid": "7342796075398332964",
        "url": ""
    },
    {
        "title": "50万级的“中国大G”，擅长的可不只有越野！",
        "docid": "7336389955616244265",
        "url": ""
    },
    {
        "title": "山西74岁老太放火烧毁44辆电瓶车！刑拘后放言：不让我收费继续烧",
        "docid": "7342402064200237631",
        "url": ""
    },
    {
        "title": "俄军实施“斩首”？泽连斯基高估了自己，普京完全没必要",
        "docid": "7344305331264651811",
        "url": ""
    },
    {
        "title": "蔚来最新财报，不出意料又亏了200多亿",
        "docid": "7343999872288161846",
        "url": ""
    },
    {
        "title": "美式神话彻底破灭！跨越三十年的复仇，美俄之间属于风水轮流转",
        "docid": "7344280586845946402",
        "url": ""
    },
    {
        "title": "仰望易四方泊车，不讲武德，哈哈哈哈#比亚迪智能化家底有多厚",
        "docid": "7324701678254195251",
        "url": ""
    },
    {
        "title": "韩国专家谈科技被中国反超：我大受震撼，感到难以置信的屈辱",
        "docid": "7343455243591746048",
        "url": ""
    },
    {
        "title": "猜车大挑战！15万级中大型纯电轿车",
        "docid": "7343152861745774642",
        "url": ""
    },
    {
        "title": "我第一次做了部成本很高的片（guang）子（gao）!",
        "docid": "7333508543984697892",
        "url": ""
    },
    {
        "title": "她的力量，坦克的力量，从700到300，感受一下",
        "docid": "7343992011071946791",
        "url": ""
    },
    {
        "title": "昊铂HT推出最新购车权益，能实现0元入手/0元用车？",
        "docid": "7344297732237950985",
        "url": ""
    },
    {
        "title": "曝光！太平洋传来消息，又有6艘中国渔船被“检查”，是美国干的",
        "docid": "7344273646027801140",
        "url": ""
    },
    {
        "title": "从“新闻联播”里的 “浆水酸菜”说起",
        "docid": "7343970918959071778",
        "url": ""
    },
    {
        "title": "姚明说2米10打外线的比比皆是，可除了杜兰特，你再找出来一个？",
        "docid": "7344301746053399074",
        "url": ""
    },
    {
        "title": "92岁老人摔倒，义工帮扶反被讹！家属说是肇事逃逸，监控太打脸！",
        "docid": "7340266902607888915",
        "url": ""
    },
    {
        "title": "日本，走出“失去的30年”",
        "docid": "7344291464002306614",
        "url": ""
    },
    {
        "title": "德国小伙儿尝试了大湾区澳门的桑奇生茶蛋",
        "docid": "7319858995097764352",
        "url": ""
    },
    {
        "title": "“重点科技”首次被华赶超，韩媒心拔凉，再不努力要被中国追上了",
        "docid": "7341748797951312419",
        "url": ""
    },
    {
        "title": "美军AGM-183A高超音速导弹现身关岛，有哪些要素值得关注？",
        "docid": "7343468137104933426",
        "url": ""
    },
    {
        "title": "欺软怕硬！大陆派疏浚船疏通航道，民进党只会逃避问题加甩锅！",
        "docid": "7344171942875857471",
        "url": ""
    },
    {
        "title": "英伟达大跌：市值蒸发超千亿美元 “木头姐”警告泡沫危险",
        "docid": "7344334776298734089",
        "url": ""
    },
    {
        "title": "中国国防预算增长7.2%，西方开始不安，让他们着急的还在后面",
        "docid": "7343455775643255296",
        "url": ""
    },
    {
        "title": "亚洲金融风暴后，濒临破产的招商局如何求生？",
        "docid": "7312743558187450880",
        "url": ""
    },
    {
        "title": "援助乌克兰会削弱自己？法国发援乌武器总清单，暴露虚弱本质",
        "docid": "7343917106208965154",
        "url": ""
    },
    {
        "title": "城乡差别",
        "docid": "7343244903227097650",
        "url": ""
    },
    {
        "title": "汪小菲：我唯一遗憾的没把孩子接回北京，我有民族情怀、家族情怀",
        "docid": "7330544757233582633",
        "url": ""
    },
    {
        "title": "“台独”“⽆耻”课纲荼毒⻘少年！区桂芝：⽗⺟们共同努⼒！",
        "docid": "7335696617905127973",
        "url": ""
    },
    {
        "title": "恭请“祖师爷”出山，绿皮车不惧雨雪严寒，带游子们回家",
        "docid": "7332090017277608457",
        "url": ""
    },
    {
        "title": "重构",
        "docid": "7321182075158004224",
        "url": ""
    },
    {
        "title": "600张假面，一位女性的无数可能",
        "docid": "7343963979292803647",
        "url": ""
    },
    {
        "title": "朝媒将侦察卫星和战术核潜艇下水称为“2023最大成果”，怎么看？",
        "docid": "7337596891947794995",
        "url": ""
    },
    {
        "title": "30年前的游戏厅有多乱？",
        "docid": "7320475484209611302",
        "url": ""
    },
    {
        "title": "为什么业内人士不投资成品酒，更看好基酒？",
        "docid": "7341236345857442344",
        "url": ""
    },
    {
        "title": "三亚市海边：这哥们是打鱼高手",
        "docid": "7316217998803468852",
        "url": ""
    },
    {
        "title": "1亩固碳17吨，一株植物凭什么叫嚣能源界？",
        "docid": "7324953145170199094",
        "url": ""
    },
    {
        "title": "论持久战，就地卧倒！",
        "docid": "7325718145786708495",
        "url": ""
    },
    {
        "title": "女的不配分土地？男的娶妻靠天价彩礼？蒋胜男提案“破局",
        "docid": "7342816051723239948",
        "url": ""
    },
    {
        "title": "两岸敌意爆升，台防务部门首长夜不成眠，两岸网友多留言解套之道",
        "docid": "7344225841192272393",
        "url": ""
    },
    {
        "title": "美国货轮在红海被命中，出现人员伤亡，拜登会派兵登陆也门吗？",
        "docid": "7344244275703775782",
        "url": ""
    },
    {
        "title": "终于出手了，中方不再警告，水炮顶在菲军脑门，炸出一条“大鱼”",
        "docid": "7344285174898950691",
        "url": ""
    },
    {
        "title": "工地惊魂：火海中的自救奇迹",
        "docid": "7318369199821160995",
        "url": ""
    },
    {
        "title": "“台独”课纲毒害学⽣，区桂芝振聋发聩：期待回响持续下去！",
        "docid": "7335695598756037130",
        "url": ""
    },
    {
        "title": "让国家“财政账本”变成百姓“幸福清单”",
        "docid": "7343831037556048418",
        "url": ""
    },
    {
        "title": "网友投稿：好心提醒反被推到，发生在高铁上的一幕",
        "docid": "7314475443560743439",
        "url": ""
    },
    {
        "title": "贾跃亭FF91的生产线，难道也是PPT画饼画出来的？",
        "docid": "7343544184147870243",
        "url": ""
    },
    {
        "title": "3月9日，人社部公布一个好消息，关系社保卡，挺重要，看看",
        "docid": "7344283310748910091",
        "url": ""
    },
    {
        "title": "新加坡防长透露，F-35早已在乌克兰参战，美军不会放弃这种机会",
        "docid": "7342072975564702218",
        "url": ""
    },
    {
        "title": "邱晓华：中国经济要再创“两大奇迹”，必须处理好这“四大关系”",
        "docid": "7335845515776655906",
        "url": ""
    },
    {
        "title": "指挥道德！一小艇对抗三艘海警船，这种事干的出来，难怪引起公愤",
        "docid": "7342112867014935050",
        "url": ""
    },
    {
        "title": "不要以为美国能帮他们！15轮还没谈出结果，留给台湾时间不多",
        "docid": "7342686017436320292",
        "url": ""
    },
    {
        "title": "前赌台主任与同乡三人落网",
        "docid": "7343514404064936457",
        "url": ""
    },
    {
        "title": "互联网无国界？美国公开抢劫Tik Tok，我们要以牙还牙",
        "docid": "7344344281622741544",
        "url": ""
    },
    {
        "title": "姚明:现代篮球2米10打一二三号位比比皆是 文班亚马2米26最夸张",
        "docid": "7344362987609850394",
        "url": ""
    },
    {
        "title": "从军事看以色列和日本，相隔万里居然这么相似？",
        "docid": "7322041927904428580",
        "url": ""
    },
    {
        "title": "惴惴不安！台湾防长邱国正坦言失眠，民进党政治路线是罪魁祸首",
        "docid": "7344247783257735699",
        "url": ""
    },
    {
        "title": "奇瑞全资控股入主东南汽车尘埃落定了，福州产奇瑞迈入新时期",
        "docid": "7344326476730548263",
        "url": ""
    },
    {
        "title": "太罕见了！100年前的“客家人”，居然是这个样子",
        "docid": "7343458198772630056",
        "url": ""
    },
    {
        "title": "美国帮蒙古练兵，中国为蒙古雪中送炭，蒙古再投机，就说不过去了",
        "docid": "7342034616959844905",
        "url": ""
    },
    {
        "title": "乌军炸毁俄西南部萨马拉州的铁路桥，有何用意？",
        "docid": "7344244344045437440",
        "url": ""
    }
]