[
    {
        "title": "值得铭记的一天！",
        "docid": "7332137262630765090",
        "url": ""
    },
    {
        "title": "得州州长趁乱飞去新德里，印度外长亲自接见，得印今年有大事要谈",
        "docid": "7330199822202470946",
        "url": "https://www.ixigua.com/7330199822202470946"
    },
    {
        "title": "还是人吗？暴雪致高速公路瘫痪，姐弟免费送热水，却被质疑为了钱",
        "docid": "7332138124803310143",
        "url": "https://www.ixigua.com/7332138124803310143"
    },
    {
        "title": "对抗全球变暖，以色列提议造太阳伞，但难度太大，还不如节能减排",
        "docid": "7332033765135286822",
        "url": "https://www.ixigua.com/7332033765135286822"
    },
    {
        "title": "马尔代夫的要求，印度有了应对之法，摆出大度姿态，换种方式驻军",
        "docid": "7332021591041114636",
        "url": "https://www.ixigua.com/7332021591041114636"
    },
    {
        "title": "泰勒·斯威夫特如何左右美国大选？拜登都得求她",
        "docid": "7331816686418395711",
        "url": "https://www.ixigua.com/7331816686418395711"
    },
    {
        "title": "中国侦察兵黑豹突击队，惊险超过加里森敢死队！",
        "docid": "7299394986863395354",
        "url": "https://www.ixigua.com/7299394986863395354"
    },
    {
        "title": "中国女篮最新消息！李月汝归队参训，最强豪阵出炉，4巨头冲奥",
        "docid": "7332021867902992930",
        "url": ""
    },
    {
        "title": "斜土街道敬老院2024龙年年夜饭喜迎新春",
        "docid": "7332142538045948443",
        "url": ""
    },
    {
        "title": "6座/7座可选，2.0T+9AT，东风日产探陆比揽巡值得推荐？",
        "docid": "7331307874817147433",
        "url": "https://www.ixigua.com/7331307874817147433"
    },
    {
        "title": "玩不转就掀桌子！印度透露“不喜欢”俄罗斯装备了，准备采取措施",
        "docid": "7329843518552310310",
        "url": "https://www.ixigua.com/7329843518552310310"
    },
    {
        "title": "一张嘴就对味儿了！张卫平篮球名人堂入堂仪式，开场就是一段评书",
        "docid": "7331766930870960640",
        "url": "https://www.ixigua.com/7331766930870960640"
    },
    {
        "title": "暴利又黑心？高速公路严重拥堵，农民卖开水泡面，10元1桶却被骂",
        "docid": "7332142054392201739",
        "url": "https://www.ixigua.com/7332142054392201739"
    },
    {
        "title": "丰田与其他越野车区别，中国武器需要引以为鉴",
        "docid": "7309058659424829978",
        "url": "https://www.ixigua.com/7309058659424829978"
    },
    {
        "title": "Vision Pro进入中国前，我戴着VR坐高铁旅行",
        "docid": "7331954241507951131",
        "url": "https://www.ixigua.com/7331954241507951131"
    },
    {
        "title": "奇瑞，别再蹚浑水",
        "docid": "7332136991188451878",
        "url": "https://www.ixigua.com/7332136991188451878"
    },
    {
        "title": "看看司马南是如何用三寸不烂之舌推广转基因的。",
        "docid": "7331810750261887538",
        "url": "https://www.ixigua.com/7331810750261887538"
    },
    {
        "title": "特殊时刻在特殊的海域，海军坚决护航祖国民船",
        "docid": "7332036829841588763",
        "url": "https://www.ixigua.com/7332036829841588763"
    },
    {
        "title": "【董哥｜美食地图】董哥私藏的10家台北烧饼店！！",
        "docid": "7329720977070391859",
        "url": "https://www.ixigua.com/7329720977070391859"
    },
    {
        "title": "这个葡萄牙老牌球队，为何如此衰败？",
        "docid": "7332136347677032971",
        "url": "https://www.ixigua.com/7332136347677032971"
    },
    {
        "title": "从军事看以色列和日本，相隔万里居然这么相似？",
        "docid": "7322041927904428580",
        "url": "https://www.ixigua.com/7322041927904428580"
    },
    {
        "title": "白所成也完蛋了，缅北四大家族气数已尽，台湾的诈骗犯还会远吗？",
        "docid": "7330546289291526666",
        "url": "https://www.ixigua.com/7330546289291526666"
    },
    {
        "title": "刚对伊朗动手，美英再袭胡塞武装，欧盟：中东是可能爆炸的锅炉",
        "docid": "7331993324322193960",
        "url": "https://www.ixigua.com/7331993324322193960"
    },
    {
        "title": "胡塞武装大打疲劳战术，美舰每天被无人机导弹攻击，二战以来罕见",
        "docid": "7332106267009221155",
        "url": "https://www.ixigua.com/7332106267009221155"
    },
    {
        "title": "美国中东基地按兵不动，从本土出动B-1B，舍近求远为一举三得",
        "docid": "7332083397202575922",
        "url": "https://www.ixigua.com/7332083397202575922"
    },
    {
        "title": "美国承认对华战略全面失败！中国不露声色获得完胜！美或转变战略",
        "docid": "7331333722194739746",
        "url": "https://www.ixigua.com/7331333722194739746"
    },
    {
        "title": "雅万高铁是印尼名片，但印尼还远远不够",
        "docid": "7303471413514633791",
        "url": "https://www.ixigua.com/7303471413514633791"
    },
    {
        "title": "哈马斯的三个风险正在扩散，以色列媒体对全球发出警告",
        "docid": "7331933916200665627",
        "url": "https://www.ixigua.com/7331933916200665627"
    },
    {
        "title": "美三航母集结，战斗态势“保台”？解放军随时进入战位，3招制敌",
        "docid": "7329693982492099123",
        "url": "https://www.ixigua.com/7329693982492099123"
    },
    {
        "title": "印度军舰集结红海，向外大秀肌肉，印度洋航线，中国要做最坏打算",
        "docid": "7332058956875072035",
        "url": "https://www.ixigua.com/7332058956875072035"
    },
    {
        "title": "北约“冷战以来最大规模演习”启动首次使用真实地理数据是何含义",
        "docid": "7329808736124568079",
        "url": "https://www.ixigua.com/7329808736124568079"
    },
    {
        "title": "中东局势急转直下，美国发动报复，一口气空袭85个伊朗系武装目标",
        "docid": "7331271286540206644",
        "url": "https://www.ixigua.com/7331271286540206644"
    },
    {
        "title": "散文 | 看见中国红",
        "docid": "7331377792459850275",
        "url": ""
    },
    {
        "title": "每周石评 | 当代楚汉争雄，谁主沉浮？",
        "docid": "7332042307362882088",
        "url": "https://www.ixigua.com/7332042307362882088"
    },
    {
        "title": "美军舰险些被导弹击沉！这水平还敢再穿越台海吗？没资格跟中俄斗",
        "docid": "7331314024846066191",
        "url": "https://www.ixigua.com/7331314024846066191"
    },
    {
        "title": "美国经济学家发出警告，美国经济正走向衰退！若不变革将“毁灭”",
        "docid": "7303461058717418036",
        "url": "https://www.ixigua.com/7303461058717418036"
    },
    {
        "title": "国家仇敌结局只有一个，大国核威慑外另有手段",
        "docid": "7324212666438943247",
        "url": "https://www.ixigua.com/7324212666438943247"
    },
    {
        "title": "7架歼-10一站抵达沙特，运油-20助力\"马拉松\"，亮相世界舞台",
        "docid": "7329856191994331675",
        "url": "https://www.ixigua.com/7329856191994331675"
    },
    {
        "title": "日本与七个域外国家签署《物资劳务相互提供协定》，威胁地区安全",
        "docid": "7330926681026527780",
        "url": "https://www.ixigua.com/7330926681026527780"
    },
    {
        "title": "NBA群星给大家拜年啦！大秀中文为你送上最真挚的祝福",
        "docid": "7331999907722723878",
        "url": "https://www.ixigua.com/7331999907722723878"
    },
    {
        "title": "美国内战风险上升，得州与美政府武装对峙，特朗普呼吁兵援",
        "docid": "7329765181519561226",
        "url": "https://www.ixigua.com/7329765181519561226"
    },
    {
        "title": "朝鲜首次试射的“火箭-3-31”战略巡航导弹，实力如何？",
        "docid": "7329805388777030183",
        "url": "https://www.ixigua.com/7329805388777030183"
    },
    {
        "title": "中俄将进行重要合作！防止外太空军备竞赛！对美国发出三大信号",
        "docid": "7330955412034421248",
        "url": "https://www.ixigua.com/7330955412034421248"
    },
    {
        "title": "爆发于1790年的法国密西西比股灾是人类历史上的第一次股灾",
        "docid": "7332183122261606952",
        "url": ""
    },
    {
        "title": "美国和印度在对华方面，算是一丘之貉吗？",
        "docid": "7330134744174166528",
        "url": "https://www.ixigua.com/7330134744174166528"
    },
    {
        "title": "美国真要内战？共和党再添一把火，3州出兵增援得州，逼拜登动武",
        "docid": "7331248994645082651",
        "url": "https://www.ixigua.com/7331248994645082651"
    },
    {
        "title": "运油20伴歼10飞沙特，十年前梦想今天是行动",
        "docid": "7329825297527341580",
        "url": "https://www.ixigua.com/7329825297527341580"
    },
    {
        "title": "我国成功发射吉利星座02组卫星 1箭11星 谁是“中国的马斯克”",
        "docid": "7331263498783523339",
        "url": "https://www.ixigua.com/7331263498783523339"
    },
    {
        "title": "俄军坠毁伊尔-76运输机究竟是否搭载乌军被俘人员？",
        "docid": "7329798204260942363",
        "url": "https://www.ixigua.com/7329798204260942363"
    },
    {
        "title": "“免费的不要钱”，雪天高速堵车村民翻山越岭，为司机暖心送物资",
        "docid": "7332008927669781028",
        "url": "https://www.ixigua.com/7332008927669781028"
    },
    {
        "title": "我来养老院2年，每月4500的退休金，谁管我，我把工资本给谁",
        "docid": "7312107392630850102",
        "url": "https://www.ixigua.com/7312107392630850102"
    },
    {
        "title": "生不出小孩，韩国生育率跌至0.7，3关键因素，男女对立首当其冲",
        "docid": "7309027550666654243",
        "url": "https://www.ixigua.com/7309027550666654243"
    },
    {
        "title": "暗杀专家竟在海关，小小印泥别有文章",
        "docid": "7326043418273153572",
        "url": "https://www.ixigua.com/7326043418273153572"
    },
    {
        "title": "福特烈马终于国产，相见恨晚的福特还能纵横吗？",
        "docid": "7332083439862334002",
        "url": ""
    },
    {
        "title": "美国第29届歌曲节歌唱大赛完美落幕",
        "docid": "7332203748531372583",
        "url": "https://www.ixigua.com/7332203748531372583"
    },
    {
        "title": "徐闻砸车，反转需要权威发声",
        "docid": "7332129334549414439",
        "url": "https://www.ixigua.com/7332129334549414439"
    },
    {
        "title": "是时候拆解“美西方”了",
        "docid": "7309839405249167923",
        "url": "https://www.ixigua.com/7309839405249167923"
    },
    {
        "title": "以前天天说中国游客不讨喜的美媒，又来怪中国人不出去玩了",
        "docid": "7331725493605138956",
        "url": "https://www.ixigua.com/7331725493605138956"
    },
    {
        "title": "从细节看侯友宜和赖清德品德的优与劣",
        "docid": "7307123903975916041",
        "url": "https://www.ixigua.com/7307123903975916041"
    },
    {
        "title": "严为民：如此低迷，情何以堪？",
        "docid": "7312747227888550437",
        "url": "https://www.ixigua.com/7312747227888550437"
    },
    {
        "title": "我90岁，来养老院8年了，之前在女儿面前老说身上疼，她就不乐意",
        "docid": "7312106815817253402",
        "url": "https://www.ixigua.com/7312106815817253402"
    },
    {
        "title": "美军主力投向中国周边，日本率先响应，解放军变阵，俄军开进南海",
        "docid": "7331244512368394752",
        "url": "https://www.ixigua.com/7331244512368394752"
    },
    {
        "title": "也门胡塞武装再次对美军舰动手，目标是远征基地舰，有何目的？",
        "docid": "7330848945268228643",
        "url": "https://www.ixigua.com/7330848945268228643"
    },
    {
        "title": "网友晒1997年产洗衣机，掀起老牌国货怀旧风",
        "docid": "7329832163572974120",
        "url": "https://www.ixigua.com/7329832163572974120"
    },
    {
        "title": "吴晓求：信心问题的背后，是如何定位资本市场",
        "docid": "7330184780782731791",
        "url": "https://www.ixigua.com/7330184780782731791"
    },
    {
        "title": "我在养老院呆了2年，吃的药吸的烟，全是离婚17年的前妻买的",
        "docid": "7312107170387919398",
        "url": "https://www.ixigua.com/7312107170387919398"
    },
    {
        "title": "岛内学美国炒作气球，实在是高估自己，真打起来根本用不上气球",
        "docid": "7330594747625112105",
        "url": "https://www.ixigua.com/7330594747625112105"
    },
    {
        "title": "民众党沉沦为\"金光党\"，柯文哲政治诈骗手段恶劣！选民心碎了",
        "docid": "7332108428397314612",
        "url": "https://www.ixigua.com/7332108428397314612"
    },
    {
        "title": "北京街头（一四三）整顿违规三四轮车，过渡期倒计时，我被认出",
        "docid": "7304888818505613878",
        "url": "https://www.ixigua.com/7304888818505613878"
    },
    {
        "title": "美援助乌克兰目的曝光，美海军太平洋舰队司令：可以帮助遏制中国",
        "docid": "7331617077385822729",
        "url": "https://www.ixigua.com/7331617077385822729"
    },
    {
        "title": "美国到底有何目的？限制中方留学生入境！抹黑中方进行黑客攻击",
        "docid": "7330602007574938152",
        "url": "https://www.ixigua.com/7330602007574938152"
    },
    {
        "title": "立院龙头大战\"天摇地动掀起大海啸\"，韩国瑜杀出重围碾压对手！",
        "docid": "7330557456144073256",
        "url": "https://www.ixigua.com/7330557456144073256"
    },
    {
        "title": "每周石评 | 第四次工业革命将会塑造哪一个世界强权？",
        "docid": "7316413209802932745",
        "url": "https://www.ixigua.com/7316413209802932745"
    },
    {
        "title": "墨尔本是一个你来过就忘不了的城市🗺️搭乘新加坡航空来一场说…",
        "docid": "7331357296322478644",
        "url": "https://www.ixigua.com/7331357296322478644"
    },
    {
        "title": "乌克兰开始暗杀俄飞行员！泽连斯基视察前线时，附近发生猛烈爆炸",
        "docid": "7332025273170772514",
        "url": "https://www.ixigua.com/7332025273170772514"
    },
    {
        "title": "这辆小面居然是法拉利设计师设计的 #小面 #货拉拉 #宾尼法利纳",
        "docid": "7300916534598173211",
        "url": "https://www.ixigua.com/7300916534598173211"
    },
    {
        "title": "华盛顿中美学生春节联欢会，美国小姐姐的民族舞竟然跳得这么好",
        "docid": "7329787194212942336",
        "url": "https://www.ixigua.com/7329787194212942336"
    },
    {
        "title": "詹杜库，终于当队友了",
        "docid": "7331653934409138725",
        "url": ""
    },
    {
        "title": "郑爽被曝在美国资产超2.3亿，中国债主跑到美国追债郑爽连夜逃跑",
        "docid": "7332072261090148875",
        "url": ""
    },
    {
        "title": "80后女干部口出狂言“在乡镇谁能干过我”，现在答案来了",
        "docid": "7330468858023182883",
        "url": ""
    },
    {
        "title": "德媒刊文：谁在害怕中国？",
        "docid": "7330018666790470184",
        "url": ""
    },
    {
        "title": "2025款凯迪拉克CT5-V黑翼，车速可达321km/h的轿车，钛合金进气阀",
        "docid": "7328591256618648090",
        "url": ""
    },
    {
        "title": "访华的日本代表团，回国后倒苦水，中方的晚宴，上了别国产生鱼片",
        "docid": "7331644576874463796",
        "url": ""
    },
    {
        "title": "被日本骗了？韩媒：号称“夺冠最大热门”的日本，其实只是纸老虎",
        "docid": "7331574867608912418",
        "url": ""
    },
    {
        "title": "死前互咬对方才是主犯，为了苟活互泼脏水，叶诚尘张波被执行死刑",
        "docid": "7330941776515809846",
        "url": ""
    },
    {
        "title": "哪来的反转？把祖坟刨出来，也改变不了奔驰加塞砸车的事实",
        "docid": "7332027154903663138",
        "url": ""
    },
    {
        "title": "中俄伊齐聚，听塔利班开了次会，开年的第一个误会，阿塔要当面解",
        "docid": "7329792985330532883",
        "url": ""
    },
    {
        "title": "拜登亲信坦白了，美国有一个对华终极计划，明里暗里持续了几十年",
        "docid": "7331645885682123327",
        "url": ""
    },
    {
        "title": "韩媒：亚洲下一代巨星之争 李刚仁完胜久保建英",
        "docid": "7331568867561701940",
        "url": ""
    },
    {
        "title": "分裂中国，美国都办不到的事情，日本也想试试？",
        "docid": "7332059490910798376",
        "url": ""
    },
    {
        "title": "美国24次推演台海冲突：持续3周，出兵速度成关键，日本作用巨大",
        "docid": "7331286272528974371",
        "url": ""
    },
    {
        "title": "特权阶层与弱民:社会公正的挑战",
        "docid": "7331535342161609225",
        "url": ""
    },
    {
        "title": "越遏制中国越坚挺，美国：改变中国没有取得成功，但这更值得警惕",
        "docid": "7330924924544025126",
        "url": ""
    },
    {
        "title": "电动车为啥不像燃油车那么强调底盘技术？",
        "docid": "7331588309208941093",
        "url": ""
    },
    {
        "title": "中国在缅甸获得完胜，摧毁电诈集团，租借皎漂港99年，印度很担忧",
        "docid": "7331701394510479910",
        "url": ""
    },
    {
        "title": "名存实亡？裕仁天皇是同性恋？当今天皇已无血统？",
        "docid": "7331271533383631400",
        "url": ""
    },
    {
        "title": "金砖正式扩容，网友：还差一步，需要驱逐一个成员国",
        "docid": "7331644903505936915",
        "url": ""
    },
    {
        "title": "2025款大众高尔夫GTi，增加15马力，evo4代EA888发动机",
        "docid": "7330596081191731766",
        "url": ""
    },
    {
        "title": "科普：为啥说插混的尽头是增程？越来越多的车企用增程原因何在？",
        "docid": "7303344614499435008",
        "url": ""
    },
    {
        "title": "一只猫的年度生活意见",
        "docid": "7331574096800842280",
        "url": ""
    },
    {
        "title": "月球安北斗，中国迈出第一步，货比三家的沙特，立刻给中方下订单",
        "docid": "7332042813410345499",
        "url": ""
    },
    {
        "title": "小瓦篮下出手14次却0罚球：魔术主帅明显不满 38分夜裁判又成亮点",
        "docid": "7331885539601285651",
        "url": ""
    },
    {
        "title": "郭松民 | 再谈“霸道总裁爱上我”",
        "docid": "7331654701924319783",
        "url": ""
    },
    {
        "title": "福州旧改的败笔，成了“最难卖的房子”！",
        "docid": "7331390638891500066",
        "url": ""
    },
    {
        "title": "愚昧至极！戴琪遭批！除贸易政策推不动外，也体现了美国肤色政治",
        "docid": "7330085822324539904",
        "url": ""
    },
    {
        "title": "伊朗系武装损失惨重，反击战从叙利亚打响，美军最大基地剧烈爆炸",
        "docid": "7331269818760446479",
        "url": ""
    },
    {
        "title": "2025款雪佛兰探界者，第四代车型，尺寸加大，新增越野版本",
        "docid": "7331324381576299058",
        "url": ""
    },
    {
        "title": "欧盟与东盟发布联合声明，关切南海局势，要求中菲遵守国际海洋法",
        "docid": "7331793528974148105",
        "url": ""
    },
    {
        "title": "2024年有存款的家庭注意了，明年存款利率会怎样？",
        "docid": "7312689017546572328",
        "url": ""
    },
    {
        "title": "为什么老伴走后，大多数独居的女人，都能长寿？有3个原因",
        "docid": "7312716757423424050",
        "url": ""
    },
    {
        "title": "阻止两岸统一，美国有了新办法？中国军工早已领先一步",
        "docid": "7331997995657232923",
        "url": ""
    },
    {
        "title": "这样写举报信：才能精准反映问题，赢得领导关注！",
        "docid": "7321777482796106266",
        "url": ""
    },
    {
        "title": "美3航母齐聚台海，中国公布福建舰全身照，国台办发出统一最强音",
        "docid": "7332073717248016946",
        "url": ""
    },
    {
        "title": "大陆优化涉台航线不到三天，美放话不许改变现状，台当局扬言反制",
        "docid": "7330849504461505050",
        "url": ""
    },
    {
        "title": "昆明救猫：背后利益究竟有多大？",
        "docid": "7331692365549224460",
        "url": ""
    },
    {
        "title": "美日模拟军演长达8天，首次将中国列为假想敌，中方反制有奇效",
        "docid": "7331990392994398731",
        "url": ""
    },
    {
        "title": "不为难别人 | 有志者事竟成",
        "docid": "7330247912599552552",
        "url": ""
    },
    {
        "title": "无视中方制裁，美企再参与对台军售，从武器看，美正试图突破底线",
        "docid": "7331794947118776841",
        "url": ""
    },
    {
        "title": "股价管理是市值管理的重要内容",
        "docid": "7332206527891259945",
        "url": ""
    },
    {
        "title": "深度解读：老上海人的超详细“年俗”清单（忙年篇）",
        "docid": "7331684211583222298",
        "url": ""
    },
    {
        "title": "再见，韩颋",
        "docid": "7301580241376608803",
        "url": ""
    },
    {
        "title": "福建舰公开侧面全身照后，这个特征碾压美军“福特”号航母",
        "docid": "7332295702443606582",
        "url": ""
    },
    {
        "title": "安康市场监管局党组书记 局长罗云忠督导检查春节前市场监管工作",
        "docid": "7331730268782772777",
        "url": ""
    },
    {
        "title": "两块OLED屏+酷睿Ultra！华硕新款双屏笔记本上架，对比友商好在哪",
        "docid": "7331682067597951524",
        "url": ""
    },
    {
        "title": "淮安市委书记史志军调研推进淮安大学创建工作",
        "docid": "7332281536647463434",
        "url": ""
    },
    {
        "title": "宁波野代驾乱象：3公里路程收费100元",
        "docid": "7316137857041793551",
        "url": ""
    },
    {
        "title": "广西北海民宿纠纷：游客遭遇困扰，呼吁合理解决",
        "docid": "7332113829041717775",
        "url": ""
    },
    {
        "title": "退位让贤！新进力量初生牛犊不怕虎，柯建铭嚣张跋扈必算总账",
        "docid": "7332295248950936104",
        "url": ""
    },
    {
        "title": "广西北海：女子狗肉店前泪诉，猫狗命运引关注",
        "docid": "7332130642144297506",
        "url": ""
    },
    {
        "title": "象棋神少帅：象甲赛 许银川练成归元神功 五行迷踪步 杀服孙浩宇",
        "docid": "7329343220906328639",
        "url": "https://www.ixigua.com/7329343220906328639"
    },
    {
        "title": "捷途旅行者将推新车型 纯电/非承载式车身SUV/明年上市",
        "docid": "7331573551587131442",
        "url": "https://www.ixigua.com/7331573551587131442"
    },
    {
        "title": "跨界运动燃油SUV，福特EVOS怎么样，看看它的表现",
        "docid": "7331673909160312844",
        "url": "https://www.ixigua.com/7331673909160312844"
    },
    {
        "title": "胡塞做大伊朗难以驾驭，小兵立大功，竟然打乱以色列拖延战略",
        "docid": "7332256205403849266",
        "url": "https://www.ixigua.com/7332256205403849266"
    },
    {
        "title": "象棋神少帅：2024新对局一 王天一遇火手判官 咄咄逼人 顺势反杀",
        "docid": "7331578732274483731",
        "url": "https://www.ixigua.com/7331578732274483731"
    },
    {
        "title": "彻底抛弃巴勒斯坦，西方国家终于找到借口了！",
        "docid": "7332116161217659432",
        "url": "https://www.ixigua.com/7332116161217659432"
    },
    {
        "title": "女子下跪讨债，大妈双手一摊表示没钱，网友：她的金镯子好耀眼",
        "docid": "7332036338901959187",
        "url": ""
    },
    {
        "title": "危急时刻，武契奇宣布好消息，大批中国造武器，源源不断运抵塞国",
        "docid": "7332304133112627749",
        "url": ""
    },
    {
        "title": "北大弑母案落下帷幕，吴谢宇被执行死刑，最高法发声：他毫无悔意",
        "docid": "7330568962528412196",
        "url": "https://www.ixigua.com/7330568962528412196"
    },
    {
        "title": "我被杀猪盘骗走407万，老公想着买桶汽油轻生",
        "docid": "7309545256804942377",
        "url": "https://www.ixigua.com/7309545256804942377"
    },
    {
        "title": "瑞风RF8 PHEV黑河极限低温试驾挑战",
        "docid": "7331671130296483891",
        "url": "https://www.ixigua.com/7331671130296483891"
    },
    {
        "title": "内讧大爆发，泽连斯基枪口朝内，配合西方指挥，要撤了乌军总司令",
        "docid": "7330936966965690917",
        "url": "https://www.ixigua.com/7330936966965690917"
    },
    {
        "title": "被捅破肠子只拘留10天？派出所：被害人不配合，我们也没办法！",
        "docid": "7317642748205793803",
        "url": "https://www.ixigua.com/7317642748205793803"
    },
    {
        "title": "五人确定出战三分大赛！揭秘全明星LED地板：NBA首次在玻璃上打球",
        "docid": "7332212321706033664",
        "url": ""
    },
    {
        "title": "“水哥”王昱珩：如果使劲回忆，我可以回忆到一岁甚至更早",
        "docid": "7317270879728206336",
        "url": "https://www.ixigua.com/7317270879728206336"
    },
    {
        "title": "自毁前程！这么不求上进，当什么MVP？",
        "docid": "7323074642255151668",
        "url": "https://www.ixigua.com/7323074642255151668"
    },
    {
        "title": "认识30年的德国发小来中国找我啦！首站重庆美食",
        "docid": "7308916511853249059",
        "url": "https://www.ixigua.com/7308916511853249059"
    },
    {
        "title": "大叔翻唱《我的天空》获赞1100万，惊艳全网，原唱：唱得比我好！",
        "docid": "7299015439827993098",
        "url": "https://www.ixigua.com/7299015439827993098"
    },
    {
        "title": "春节来啦！苏州评弹快闪联合国总部",
        "docid": "7331953601142587956",
        "url": "https://www.ixigua.com/7331953601142587956"
    },
    {
        "title": "上海一声令下，浦东机场的网约车集体下线，乘客排起长队等车",
        "docid": "7331321621812740659",
        "url": "https://www.ixigua.com/7331321621812740659"
    },
    {
        "title": "德国又乱了，工人要求每周工作35小时，但工资不能降低",
        "docid": "7332002696159166995",
        "url": ""
    },
    {
        "title": "18万8彩礼当事人：男生不比女生低一等，为啥平白无故给这么多钱",
        "docid": "7305094915061449235",
        "url": "https://www.ixigua.com/7305094915061449235"
    },
    {
        "title": "乒乓球冠军张怡宁，谈到她在香港的生活：吃喝、天气我都很习惯！",
        "docid": "7305751342302429736",
        "url": "https://www.ixigua.com/7305751342302429736"
    },
    {
        "title": "东北澡堂这么奢华，到底靠啥赚钱？",
        "docid": "7331677314012578338",
        "url": "https://www.ixigua.com/7331677314012578338"
    },
    {
        "title": "清华博士玛丽安：大学老师的社会地位不足以弥补她收入的缺失",
        "docid": "7300789730659336739",
        "url": "https://www.ixigua.com/7300789730659336739"
    },
    {
        "title": "最强大脑王昱珩：高中第一天老师对我作业的评价，让我决定混3年",
        "docid": "7317273161324888639",
        "url": "https://www.ixigua.com/7317273161324888639"
    },
    {
        "title": "清华女博士抑郁后转型做占星师，月入3万",
        "docid": "7300787998625366563",
        "url": "https://www.ixigua.com/7300787998625366563"
    },
    {
        "title": "2024款奥迪Q6，麦弗逊悬挂的豪车？横置前驱平台，VR6发动机",
        "docid": "7332044324290642443",
        "url": ""
    },
    {
        "title": "杀猪盘亲历者：你没被骗只是没遇到适合你的骗局",
        "docid": "7309547223950295564",
        "url": "https://www.ixigua.com/7309547223950295564"
    },
    {
        "title": "明明是国外的曲子，却常年霸占我国各大商场，哪首让你印象深刻？",
        "docid": "7307562530812101172",
        "url": "https://www.ixigua.com/7307562530812101172"
    },
    {
        "title": "孙颖莎撞开邱贻可，要求邱指坐在第一排，莎莎为何敢向师傅发火？",
        "docid": "7311599267620225546",
        "url": "https://www.ixigua.com/7311599267620225546"
    },
    {
        "title": "当联合国发言人不想回答佩洛西的“滚回中国”…",
        "docid": "7330742730026713600",
        "url": "https://www.ixigua.com/7330742730026713600"
    },
    {
        "title": "30年前的游戏厅有多乱？",
        "docid": "7320475484209611302",
        "url": "https://www.ixigua.com/7320475484209611302"
    },
    {
        "title": "父亲中风、脑淤血，母亲尿毒症、肾功能衰竭，我被杀猪盘骗407万",
        "docid": "7309546003919536690",
        "url": "https://www.ixigua.com/7309546003919536690"
    },
    {
        "title": "芜湖公路：全力备战低温雨雪天气",
        "docid": "7332326885995037218",
        "url": ""
    },
    {
        "title": "科幻春晚首篇小说！春节，宇宙中的龙都在做什么？| 2024科幻春晚",
        "docid": "7332317709499712052",
        "url": ""
    },
    {
        "title": "淮安区委编办：创新开设“编干编讲”课堂 把好队伍建设“方向盘”",
        "docid": "7332311964347040307",
        "url": ""
    },
    {
        "title": "“哈尔滨”侵华日军731部队遗址游客爆满中国人血脉终于唤醒了！",
        "docid": "7331517390691287563",
        "url": ""
    },
    {
        "title": "中新免签协议即将生效，港媒称比去香港容易，建议取消通行证制度",
        "docid": "7332023301344723506",
        "url": "https://www.ixigua.com/7332023301344723506"
    },
    {
        "title": "钛合金炮大量亮相高原，中印边境的火力天平，已完全倒向了解放军",
        "docid": "7327246402186052111",
        "url": "https://www.ixigua.com/7327246402186052111"
    },
    {
        "title": "喝酒只喝一茅五，揭秘国企”土皇帝“奢靡生活，这才叫系统腐败！",
        "docid": "7329799859672875530",
        "url": "https://www.ixigua.com/7329799859672875530"
    },
    {
        "title": "得州移民危机正撕裂美国！雷倩：红蓝州分裂不止好莱坞想象",
        "docid": "7332309041873420837",
        "url": "https://www.ixigua.com/7332309041873420837"
    },
    {
        "title": "浸大传理学院倡AI助力社会共融 专家探讨“人工智能赋权听障人士”",
        "docid": "7332341728600801827",
        "url": ""
    },
    {
        "title": "缅北莫宁垃圾场起火，燃烧时间长达2个月，居民叫苦连天：太臭了",
        "docid": "7331686444106465844",
        "url": ""
    },
    {
        "title": "爱心送温暖·助力过暖冬",
        "docid": "7332346089372172812",
        "url": ""
    },
    {
        "title": "被查者（718）招行原行长田惠宇死缓：5罪，涉5亿多，减轻处罚？",
        "docid": "7332286264592302607",
        "url": "https://www.ixigua.com/7332286264592302607"
    },
    {
        "title": "认识30年的德国发小被阳朔震撼到了！直接体验到油茶",
        "docid": "7329476739762455049",
        "url": "https://www.ixigua.com/7329476739762455049"
    },
    {
        "title": "川普不在非法移民翻六倍！难忍算计德州内讧，非法移民谁在得利",
        "docid": "7332281713294311946",
        "url": "https://www.ixigua.com/7332281713294311946"
    },
    {
        "title": "美还是想染指阿富汗！乌爆严重内讧！",
        "docid": "7331478751814877730",
        "url": "https://www.ixigua.com/7331478751814877730"
    },
    {
        "title": "限量独享匠心定制，全新奥迪RS 6 Avant GT全球首秀",
        "docid": "7332352359261127218",
        "url": ""
    },
    {
        "title": "多位教师发帖：“各种形式主义让我们苦不堪言”",
        "docid": "7331684173977780763",
        "url": "https://www.ixigua.com/7331684173977780763"
    },
    {
        "title": "实拍对比哈尔滨和武汉，同样是副省级城市，经济实力确实强悍",
        "docid": "7301855823427273268",
        "url": "https://www.ixigua.com/7301855823427273268"
    },
    {
        "title": "“歼20服役400架”，印度看清中印差距后，最大外援即将“下场”",
        "docid": "7328334076103164470",
        "url": "https://www.ixigua.com/7328334076103164470"
    },
    {
        "title": "不让网约车浦东机场揽客，空港出行却可以垄断！到底打了谁的脸？",
        "docid": "7331629270030582313",
        "url": "https://www.ixigua.com/7331629270030582313"
    },
    {
        "title": "山东16岁养女被配“阴婚”，这种恶习为何还没消失？",
        "docid": "7301641588868907572",
        "url": "https://www.ixigua.com/7301641588868907572"
    },
    {
        "title": "佛州等3州“兵援”得州，大型车队已经抵达，3件事让美国人愤怒",
        "docid": "7331648786676548105",
        "url": "https://www.ixigua.com/7331648786676548105"
    },
    {
        "title": "看得热泪盈眶！荆州万人高速公路人工大除冰",
        "docid": "7332287031034692148",
        "url": ""
    },
    {
        "title": "开了3年别克君威，有6句话要说",
        "docid": "7302628219163886115",
        "url": ""
    },
    {
        "title": "美媒：梅西开口，”感觉好多了”，“在香港不能参赛是运气不好”",
        "docid": "7332369616117383706",
        "url": ""
    },
    {
        "title": "纽兰每个细胞都写着残暴，她访问基辅，带来了不祥的征兆",
        "docid": "7332339865369313844",
        "url": ""
    },
    {
        "title": "不要避讳竞争，中美若连坦诚的对手都做不成，所谓交友更无从谈起",
        "docid": "7330881731521888783",
        "url": ""
    },
    {
        "title": "泽连斯基可能被废，乌克兰逼中国站队？菲律宾不领情，欧盟刷存在",
        "docid": "7331642929859428898",
        "url": ""
    },
    {
        "title": "学中美学不到精髓，韩国隐身机暴露重大缺陷，五代机降级成四代半",
        "docid": "7331321008726639138",
        "url": "https://www.ixigua.com/7331321008726639138"
    },
    {
        "title": "缅甸兑现承诺，深夜向中方移交电诈头目，中方点名：还有4人在逃",
        "docid": "7330162351833874955",
        "url": "https://www.ixigua.com/7330162351833874955"
    },
    {
        "title": "50万以内最好的车不可能是飞度",
        "docid": "7332079339640734249",
        "url": ""
    },
    {
        "title": "人世间最大的虚伪就是说着假话当真话，然后强迫旁人都信",
        "docid": "7332360116173472282",
        "url": ""
    },
    {
        "title": "1月销量56802台，广汽本田，竞争力虽有但今年压力依旧不小",
        "docid": "7332021763662299684",
        "url": ""
    },
    {
        "title": "加州州长尴尬亲历零元购，却束手无策！",
        "docid": "7331663727181333030",
        "url": "https://www.ixigua.com/7331663727181333030"
    },
    {
        "title": "2024年GDP增速多少合理？ 邱晓华：4.5%是底线，乐观点是5%",
        "docid": "7328223099434041890",
        "url": "https://www.ixigua.com/7328223099434041890"
    },
    {
        "title": "过去高速上涨，又经过几年的下跌，2024该买房了。2024将全面复苏",
        "docid": "7320849942481011252",
        "url": "https://www.ixigua.com/7320849942481011252"
    },
    {
        "title": "趁中方不在场，菲外长开危险首枪，南海斗争性质变了，山雨欲来",
        "docid": "7332360644018700839",
        "url": "https://www.ixigua.com/7332360644018700839"
    },
    {
        "title": "分裂与统一|从要求统一到拒绝统一，朝鲜半岛究竟发生了什么？",
        "docid": "7332366099704447488",
        "url": "https://www.ixigua.com/7332366099704447488"
    },
    {
        "title": "【日本文史漫笔】2024年初东京的这场大雪",
        "docid": "7332380686445937186",
        "url": ""
    },
    {
        "title": "全新宝马5系内饰大进化，豪华感提升，能让奔驰E级紧张？",
        "docid": "7332340628434452521",
        "url": "https://www.ixigua.com/7332340628434452521"
    },
    {
        "title": "外媒曝马斯克与董事会一起吸毒",
        "docid": "7332362853061492790",
        "url": "https://www.ixigua.com/7332362853061492790"
    },
    {
        "title": "压垮男方家庭的不止彩礼，还有房贷和车贷",
        "docid": "7305095064676631055",
        "url": "https://www.ixigua.com/7305095064676631055"
    },
    {
        "title": "河南信阳一体育设施坍塌，连夜被拆没了？谁决定的，销毁证据吗？",
        "docid": "7331761914504020480",
        "url": "https://www.ixigua.com/7331761914504020480"
    },
    {
        "title": "美国六代机露出峥嵘，像一枚菱形飞镖，全向隐身穿透中国防空网？",
        "docid": "7327986701345751562",
        "url": "https://www.ixigua.com/7327986701345751562"
    },
    {
        "title": "“水哥”王昱珩：运气跟选择永远比努力重要",
        "docid": "7317125320959033895",
        "url": "https://www.ixigua.com/7317125320959033895"
    },
    {
        "title": "江津区朱杨镇干干净净迎新春 文文明明过大年",
        "docid": "7332385518107886115",
        "url": ""
    },
    {
        "title": "撤换扎卢日内，泽连斯基已无路可走，最终下场或将很惨",
        "docid": "7332373905383883303",
        "url": "https://www.ixigua.com/7332373905383883303"
    },
    {
        "title": "2月10日大年初一19:30 我们在#东方卫视春晚# 不见不散！",
        "docid": "7332035021496123939",
        "url": "https://www.ixigua.com/7332035021496123939"
    },
    {
        "title": "仰望易四方泊车，不讲武德，哈哈哈哈#比亚迪智能化家底有多厚",
        "docid": "7324701678254195251",
        "url": "https://www.ixigua.com/7324701678254195251"
    },
    {
        "title": "乌克兰成功将游戏技术用于战场，事实证明它非常高效",
        "docid": "7332385119720145459",
        "url": "https://www.ixigua.com/7332385119720145459"
    },
    {
        "title": "山东豪横哥凌晨遇到消防员吃饭，言语霸气行动实在，令人动容",
        "docid": "7331332400602939938",
        "url": "https://www.ixigua.com/7331332400602939938"
    },
    {
        "title": "缅北电诈10条“大鱼”全被抓回国，个个不简单，中国是如何做到的",
        "docid": "7330089180002943498",
        "url": "https://www.ixigua.com/7330089180002943498"
    },
    {
        "title": "奇迹日！A股暴涨 中小盘风险释放趋于尾声 春节行情来了吗？",
        "docid": "7332388332368527908",
        "url": ""
    },
    {
        "title": "凄惨福州话（007）西方洗脑福州好词变詈语",
        "docid": "7332386559276614155",
        "url": ""
    },
    {
        "title": "大排量发动机+电机+小电池是新能源性能车的解决方案吗？",
        "docid": "7332396278833594889",
        "url": ""
    },
    {
        "title": "演员任思齐：台湾没有彩礼这样的习俗，它是陋习",
        "docid": "7322885247333302847",
        "url": "https://www.ixigua.com/7322885247333302847"
    },
    {
        "title": "依法维权不是挑衅！铐走实习律师辅警已被辞退，依法行政路还很长",
        "docid": "7331289255266845196",
        "url": "https://www.ixigua.com/7331289255266845196"
    },
    {
        "title": "DMO➕云辇P，雪地拖车滑溜溜！",
        "docid": "7331569020581184015",
        "url": "https://www.ixigua.com/7331569020581184015"
    },
    {
        "title": "邱晓华：经济改善需要“猛药”，市场改革需要信号",
        "docid": "7330842567288095295",
        "url": "https://www.ixigua.com/7330842567288095295"
    },
    {
        "title": "山东荣成市食药安办四措并举牢把校园食品安全关",
        "docid": "7332406188060967436",
        "url": ""
    },
    {
        "title": "日本不许改变东海现状，中国海警打破惯例，对日本飞机发出警告",
        "docid": "7332386448567435776",
        "url": "https://www.ixigua.com/7332386448567435776"
    },
    {
        "title": "亚洲金融风暴后，濒临破产的招商局如何求生？",
        "docid": "7312743558187450880",
        "url": "https://www.ixigua.com/7312743558187450880"
    },
    {
        "title": "大换代保时捷Panamera全球首拍：四座行政级大跑车的乐趣",
        "docid": "7304636711911785023",
        "url": "https://www.ixigua.com/7304636711911785023"
    },
    {
        "title": "美日航母齐待命，为“台湾有事”做准备，恰恰害了他们自己的人！",
        "docid": "7332402229544452658",
        "url": "https://www.ixigua.com/7332402229544452658"
    },
    {
        "title": "2024年哪款MPV值得买呢？中国汽车汽象购买指数出炉，腾势D9夺冠",
        "docid": "7332393193935536191",
        "url": "https://www.ixigua.com/7332393193935536191"
    },
    {
        "title": "1月MPV购买指数TOP10，国产车包揽前三，合资占据6席！",
        "docid": "7332408282172915723",
        "url": "https://www.ixigua.com/7332408282172915723"
    },
    {
        "title": "哈马斯统治进入垃圾时间，有5个迹象，为啥还有人说他们能翻盘？",
        "docid": "7332305078776562226",
        "url": "https://www.ixigua.com/7332305078776562226"
    },
    {
        "title": "西部最新排名：快船距第一仅0.5胜场 勇士差1胜场入附加赛 湖人第九",
        "docid": "7332360866786017833",
        "url": ""
    },
    {
        "title": "【域外随笔】从日本水户的“偕乐园”想到中国洛阳的“独乐园”",
        "docid": "7332407255930913314",
        "url": ""
    },
    {
        "title": "学中美学不到精髓，韩国隐身机暴露重大缺陷，五代机降级成四代半",
        "docid": "7331313268755399209",
        "url": ""
    },
    {
        "title": "2023消费未出现“报复性增长”，市场堵点到底是什么？",
        "docid": "7327634849303364159",
        "url": "https://www.ixigua.com/7327634849303364159"
    },
    {
        "title": "汪小菲：我唯一遗憾的没把孩子接回北京，我有民族情怀、家族情怀",
        "docid": "7330544757233582633",
        "url": "https://www.ixigua.com/7330544757233582633"
    },
    {
        "title": "印度耍赖，单方面篡改两国重要文件，遮遮掩掩不提撤军",
        "docid": "7331740059462926875",
        "url": "https://www.ixigua.com/7331740059462926875"
    },
    {
        "title": "金灿荣教授说美国很难搞掉胡塞武装，并笑谈伊朗日本",
        "docid": "7332280818020287026",
        "url": "https://www.ixigua.com/7332280818020287026"
    },
    {
        "title": "岁末天寒，老百姓大药房给春运加“温度”",
        "docid": "7332420772356817419",
        "url": ""
    },
    {
        "title": "墨尔本新建地铁隧道车站艺术作品曝光 出自五位澳洲知名艺术家",
        "docid": "7332410081084129832",
        "url": ""
    },
    {
        "title": "从韩国总统到阶下囚，朴槿惠出书讲狱中生活，心灰意冷不会再从政",
        "docid": "7332411934169367076",
        "url": "https://www.ixigua.com/7332411934169367076"
    },
    {
        "title": "春蔚对话汪小菲（下）|汪小菲",
        "docid": "7331647111202603558",
        "url": "https://www.ixigua.com/7331647111202603558"
    },
    {
        "title": "英国航母故障退演习，中国反复研究尔滨泼天富贵，大国兴衰几人察",
        "docid": "7332414817053082122",
        "url": "https://www.ixigua.com/7332414817053082122"
    },
    {
        "title": "中将反制欧贸易壁垒冯德来恩把欧农民搞毛",
        "docid": "7331478767753396776",
        "url": "https://www.ixigua.com/7331478767753396776"
    },
    {
        "title": "一问美袭击是否违反主权？联合国发言人就…",
        "docid": "7332193052108259840",
        "url": "https://www.ixigua.com/7332193052108259840"
    },
    {
        "title": "新华社消息｜新华社今天播发长篇通讯《万水千山 情深意长》",
        "docid": "7332432374883648041",
        "url": ""
    },
    {
        "title": "北京，动了！",
        "docid": "7332427357364011583",
        "url": ""
    },
    {
        "title": "20海里！815型舰怼到美航母脸上，美军声称无惧东风导弹打击",
        "docid": "7332416720155623936",
        "url": ""
    },
    {
        "title": "十国驻华大使探秘郎酒庄园 百年郎酒大开国际大门与世界同行",
        "docid": "7330543268605166091",
        "url": ""
    },
    {
        "title": "成锡忠：谁在摧毁联合国宪章的原则宗旨？",
        "docid": "7332424482466202151",
        "url": ""
    },
    {
        "title": "上周印象",
        "docid": "7302652503039377958",
        "url": "https://www.ixigua.com/7302652503039377958"
    },
    {
        "title": "英国更头疼的事情来了",
        "docid": "7332411328629637683",
        "url": "https://www.ixigua.com/7332411328629637683"
    },
    {
        "title": "美参议院公布移民与援乌法案，为何众议长称法案将“胎死腹中”？",
        "docid": "7332423275916165647",
        "url": "https://www.ixigua.com/7332423275916165647"
    },
    {
        "title": "缅甸餐馆暗藏卖淫窝点，7名女子落网，“挂羊头卖狗肉”行径曝光",
        "docid": "7332434938824131107",
        "url": ""
    },
    {
        "title": "一对天津退休老教师夫妻在海口养老的体会",
        "docid": "7318437142894625307",
        "url": ""
    },
    {
        "title": "陈思诚：明白我们到底为什么活着，你就不会受困当下的得失",
        "docid": "7301733366963896844",
        "url": "https://www.ixigua.com/7301733366963896844"
    },
    {
        "title": "男子乐山大佛头顶撒尿，网友骂声一片！景区：不知道咋上去的",
        "docid": "7330491954310545956",
        "url": "https://www.ixigua.com/7330491954310545956"
    },
    {
        "title": "6名缅北电诈头目移交我方，四大家族覆灭，电诈会就此消失吗？",
        "docid": "7330115112885289535",
        "url": "https://www.ixigua.com/7330115112885289535"
    },
    {
        "title": "乌军炸面包店杀数十平民，红海袭船持续不断，美日列中国为假想敌",
        "docid": "7332416458485563967",
        "url": "https://www.ixigua.com/7332416458485563967"
    },
    {
        "title": "缅甸这群人连人带火箭弹被查！官方：他们意图制造炸弹袭击",
        "docid": "7332437083317338624",
        "url": ""
    },
    {
        "title": "头等大事还没谈完，就想开新运输走廊，俄方就想让中国，能多买点",
        "docid": "7332390882853061132",
        "url": "https://www.ixigua.com/7332390882853061132"
    },
    {
        "title": "我被杀猪盘骗走407万身上一堆债，孩子想吃5块钱的热狗我都没钱买",
        "docid": "7309546292571537972",
        "url": "https://www.ixigua.com/7309546292571537972"
    },
    {
        "title": "没想到资本大佬们吵起来这么有意思！(中)",
        "docid": "7319519034209370639",
        "url": "https://www.ixigua.com/7319519034209370639"
    },
    {
        "title": "英国后院再起火，北爱尔兰领导人称将独立公投，英国要原地崩解？",
        "docid": "7332395584961446412",
        "url": "https://www.ixigua.com/7332395584961446412"
    },
    {
        "title": "加沙打不动了，以色列突然调转枪口，对约旦河西岸发动突袭",
        "docid": "7332403379870073356",
        "url": "https://www.ixigua.com/7332403379870073356"
    },
    {
        "title": "湖北高速堵点将抢通！极端暴雪遇上“最热”春运",
        "docid": "7332372747865522697",
        "url": "https://www.ixigua.com/7332372747865522697"
    },
    {
        "title": "三战要是打起来，跑哪儿都没用，波兰准备好和俄罗斯干仗",
        "docid": "7332451537827938843",
        "url": ""
    },
    {
        "title": "美军B-21量产，中国轰20也将登场，两大关键优势或超乎想象",
        "docid": "7332037015695475238",
        "url": ""
    },
    {
        "title": "马伊琍谈吃苦：每个人都有自己跨不过去的沟壑",
        "docid": "7320681534342562343",
        "url": "https://www.ixigua.com/7320681534342562343"
    },
    {
        "title": "波兰终于认清现实，说出西方不敢说的话，劝乌克兰放弃克里米亚",
        "docid": "7331654339905192460",
        "url": "https://www.ixigua.com/7331654339905192460"
    },
    {
        "title": "呼吁北约组建远征军，直接开赴乌克兰，英国到底意欲何为？",
        "docid": "7332411403158225460",
        "url": "https://www.ixigua.com/7332411403158225460"
    },
    {
        "title": "大陆今执行两起死刑！台湾社会9成支持死刑，但却求而不得",
        "docid": "7330230840389501476",
        "url": "https://www.ixigua.com/7330230840389501476"
    },
    {
        "title": "日美首次对华假想联演，英媒称开战先打福建舰",
        "docid": "7332452740683170338",
        "url": "https://www.ixigua.com/7332452740683170338"
    },
    {
        "title": "当一只银行股都能涨停，从此就成了“大明湖畔的夏雨荷”？",
        "docid": "7332395918383235610",
        "url": ""
    },
    {
        "title": "乌克兰人是否支持泽连斯基？乌大使直言：任何一个前总统无法达到",
        "docid": "7332049504482689599",
        "url": "https://www.ixigua.com/7332049504482689599"
    },
    {
        "title": "咱就看哪里不一样！全球首拍国产福特BRONCO烈马",
        "docid": "7329316261148492327",
        "url": "https://www.ixigua.com/7329316261148492327"
    },
    {
        "title": "李开复：为什么离开苹果回到中国？喜欢从0到1的突破",
        "docid": "7299354652230582819",
        "url": "https://www.ixigua.com/7299354652230582819"
    },
    {
        "title": "屈从美的下场！韩半导体将被中美日取代！",
        "docid": "7330739853182632475",
        "url": "https://www.ixigua.com/7330739853182632475"
    },
    {
        "title": "延期交付，四次道歉！3月，阿维塔12冲击交付8000台",
        "docid": "7332459356933324839",
        "url": "https://www.ixigua.com/7332459356933324839"
    },
    {
        "title": "“神秘”的天命打工车，春运堵车不用怕，这车车机能写PPT",
        "docid": "7332445825332674599",
        "url": "https://www.ixigua.com/7332445825332674599"
    },
    {
        "title": "分裂与统一|何亮亮：德国统一30年，为何东西德差异仍如此明显？",
        "docid": "7331640679497466383",
        "url": "https://www.ixigua.com/7331640679497466383"
    },
    {
        "title": "股市晚评：超级大阳线！",
        "docid": "7332389678940979739",
        "url": ""
    },
    {
        "title": "准备好银子 2024年四款MPV新车来袭 风行V9、红旗HQ9 PHEV领衔",
        "docid": "7332147672335401482",
        "url": ""
    },
    {
        "title": "陕西省国土整治中心召开2024年度工作会议",
        "docid": "7332472367111406121",
        "url": ""
    },
    {
        "title": "试驾阿维塔12：你们觉得“怪”的设计，偏偏是我最欣赏的地方",
        "docid": "7301655547596833280",
        "url": "https://www.ixigua.com/7301655547596833280"
    },
    {
        "title": "大陆再出手，优化M503航线，台湾为什么跳脚？",
        "docid": "7331632504271143476",
        "url": "https://www.ixigua.com/7331632504271143476"
    },
    {
        "title": "民进党如何诞生?统派与独派的创建!【小编提问中】",
        "docid": "7332383329708474920",
        "url": "https://www.ixigua.com/7332383329708474920"
    },
    {
        "title": "中国在南亚的布局，让印度按下葫芦浮起瓢，苏杰生对中国看法变了",
        "docid": "7330878564726014464",
        "url": "https://www.ixigua.com/7330878564726014464"
    },
    {
        "title": "平顶山市绿色产业促进会书画院举办“迎新春义写春联”活动",
        "docid": "7332477462083306010",
        "url": ""
    },
    {
        "title": "市场波动之际，关于兆科眼科-BNVK002上市进程的一些看法",
        "docid": "7332474907781120553",
        "url": ""
    },
    {
        "title": "德国小伙儿尝试了大湾区澳门的桑奇生茶蛋",
        "docid": "7319858995097764352",
        "url": "https://www.ixigua.com/7319858995097764352"
    },
    {
        "title": "每周石评 | 日本——从雁首变成了雁尾？",
        "docid": "7320127096632803840",
        "url": "https://www.ixigua.com/7320127096632803840"
    },
    {
        "title": "值回票价：赛科龙RX600全网暂时唯一正儿八经测评",
        "docid": "7327601865884238374",
        "url": "https://www.ixigua.com/7327601865884238374"
    },
    {
        "title": "美国阻挠中国统一的打法变了，新招数更狠毒，解放军能拦住吗？",
        "docid": "7332307138963997235",
        "url": "https://www.ixigua.com/7332307138963997235"
    },
    {
        "title": "崇拜神枪手是男人通病，不趋炎附势上将真英雄",
        "docid": "7328330194304172579",
        "url": "https://www.ixigua.com/7328330194304172579"
    },
    {
        "title": "老胡今天见证了，原来“救市”是这个样子的！",
        "docid": "7332484307182682660",
        "url": "https://www.ixigua.com/7332484307182682660"
    },
    {
        "title": "800V 3秒级的星途星纪元ES敢对标百万豪车？奇瑞是不是飘了？",
        "docid": "7313148222921245211",
        "url": "https://www.ixigua.com/7313148222921245211"
    },
    {
        "title": "实测阿维塔12续航，居然跑了600多公里，你还满意吗？",
        "docid": "7307511872469598760",
        "url": "https://www.ixigua.com/7307511872469598760"
    },
    {
        "title": "一起跟我去上海出趟差 #陈震沉浸式出差",
        "docid": "7326365976209916466",
        "url": "https://www.ixigua.com/7326365976209916466"
    },
    {
        "title": "日本试驾丰田小埃尔法Roomy 日本人是这么玩空间的",
        "docid": "7301532164783833615",
        "url": "https://www.ixigua.com/7301532164783833615"
    },
    {
        "title": "10万买插混，良心对比！长安启源A05、五菱星光和秦PLUS DM-i",
        "docid": "7314909425134174783",
        "url": "https://www.ixigua.com/7314909425134174783"
    },
    {
        "title": "俄罗斯对华第二扇门，俄多个地区争抢，“连接中国”成发展关键词",
        "docid": "7332415741481878025",
        "url": ""
    },
    {
        "title": "“五美”爱好者冉亚林和他的60万底线",
        "docid": "7332489179873526272",
        "url": ""
    },
    {
        "title": "厦门：网约车司机与乘客之间的矛盾激化",
        "docid": "7332495652997644835",
        "url": ""
    },
    {
        "title": "如果未来国足主帅选择一位日本教练，你能接受吗？#国足",
        "docid": "7332477186084962855",
        "url": "https://www.ixigua.com/7332477186084962855"
    },
    {
        "title": "河南暴雪高速通畅，湖北暴雪高速瘫痪！人的问题？还是雪的问题？",
        "docid": "7332480202964271627",
        "url": "https://www.ixigua.com/7332480202964271627"
    },
    {
        "title": "15-18万预算选家轿，横评长安启源A07、汉DM-i、凯美瑞、雅阁(上)",
        "docid": "7332484902069698587",
        "url": "https://www.ixigua.com/7332484902069698587"
    },
    {
        "title": "天津地铁上的一幕引发争执与思考",
        "docid": "7332488934746653199",
        "url": ""
    },
    {
        "title": "美国三艘核航母齐聚朝鲜半岛？雷倩：东北亚局势要比台海危险的多",
        "docid": "7330525374591599155",
        "url": "https://www.ixigua.com/7330525374591599155"
    },
    {
        "title": "哈尔滨高速惊现龟速并行集装箱货车",
        "docid": "7332498432214614528",
        "url": ""
    },
    {
        "title": "德国小伙儿带你们领略大湾区黑科技深中通道",
        "docid": "7321460334076625408",
        "url": "https://www.ixigua.com/7321460334076625408"
    },
    {
        "title": "松江车墩不仅有影视乐园 还有更好玩的！",
        "docid": "7311359401699312191",
        "url": "https://www.ixigua.com/7311359401699312191"
    },
    {
        "title": "周受资被美议员国籍连问！华尔街大咖演心痛，因比亚迪碾压特斯拉",
        "docid": "7330961823207948834",
        "url": "https://www.ixigua.com/7330961823207948834"
    },
    {
        "title": "1亩固碳17吨，一株植物凭什么叫嚣能源界？",
        "docid": "7324953145170199094",
        "url": "https://www.ixigua.com/7324953145170199094"
    },
    {
        "title": "书画学习园地 | 苏大椿(篆书)写春联(二)",
        "docid": "7332503068442886666",
        "url": "https://www.ixigua.com/7332503068442886666"
    },
    {
        "title": "哈马斯的一声枪响，迫使美国考虑重返中东，国运来了你挡都挡不住",
        "docid": "7330572735963529738",
        "url": "https://www.ixigua.com/7330572735963529738"
    }
]