[
    {
        "title": "厦门一月子中心突然停业  多名孕妇遭遇“月子”难题",
        "docid": "7313134250671374848",
        "url": ""
    },
    {
        "title": "支原体肺炎久咳不好，要想娃儿好彻底，一定要学会这个好方法",
        "docid": "7310135537502093859",
        "url": ""
    },
    {
        "title": "厕所历险记——春熙路实验幼儿园小二班课程故事",
        "docid": "7312844348436955698",
        "url": ""
    },
    {
        "title": "2岁女娃餐桌上给爸爸跳舞，父亲低头偷笑，下一秒遭女儿巴掌呼脸",
        "docid": "7285607946095395362",
        "url": "https://www.ixigua.com/7285607946095395362"
    },
    {
        "title": "美女分享怀孕前后对比，之前性感现在“胖若两人”，反差过于明显",
        "docid": "7312740547327132194",
        "url": "https://www.ixigua.com/7312740547327132194"
    },
    {
        "title": "清秋童话月 动物狂欢时——春熙路实验幼儿园中二班课程故事",
        "docid": "7312835406205633050",
        "url": ""
    },
    {
        "title": "可爱！萌娃在校晃头晃脑大口吃饭治愈老师：每次心情不好就会看他",
        "docid": "7287863630593262115",
        "url": "https://www.ixigua.com/7287863630593262115"
    },
    {
        "title": "姐姐半夜睡迷糊四处找被子，拉着20斤弟弟就往身上盖，妈妈笑喷！",
        "docid": "7310135115915461160",
        "url": "https://www.ixigua.com/7310135115915461160"
    },
    {
        "title": "宝宝早上趁爸妈睡觉，悄悄从床上爬下去玩，随后一幕惹爆笑",
        "docid": "7295571432275182095",
        "url": "https://www.ixigua.com/7295571432275182095"
    },
    {
        "title": "兄妹俩犯错被罚站妹妹求救哥哥无果，转身被吼手足无措，萌翻网友",
        "docid": "7298529088480903743",
        "url": "https://www.ixigua.com/7298529088480903743"
    },
    {
        "title": "一位爸爸告诉孩子，为什么要读书？",
        "docid": "7313222507685839387",
        "url": ""
    },
    {
        "title": "\"青年生育抉择：家庭压力与事业之间的平衡术\"",
        "docid": "7313218415215264275",
        "url": ""
    },
    {
        "title": "刘涛说孩子能让人看到希望",
        "docid": "7313222250440802866",
        "url": ""
    },
    {
        "title": "天津河西：关注困境孩子身心健康成长",
        "docid": "7313218633067397647",
        "url": ""
    },
    {
        "title": "妈妈用迟接孩子方式教育爱迟到儿子，网友：用“魔法”才能打败“魔法”！",
        "docid": "7289008251381989945",
        "url": ""
    },
    {
        "title": "百姓健康 | 想拥有一口好牙？儿童牙颌早期矫治要知道",
        "docid": "7313223343191736859",
        "url": ""
    },
    {
        "title": "宝宝100天家宴，没想到乌克兰小姨子酒量这么好，姐夫直呼喝不过",
        "docid": "7282975908360061501",
        "url": "https://www.ixigua.com/7282975908360061501"
    },
    {
        "title": "妈妈带孩子来玩人力过山车，妈妈玩命蹬自行车，都快蹬出火星子了",
        "docid": "7285909409077658164",
        "url": "https://www.ixigua.com/7285909409077658164"
    },
    {
        "title": "最后一脚惊着我了！儿子2岁8个月，每天带他踢20分钟",
        "docid": "7289955322117292563",
        "url": "https://www.ixigua.com/7289955322117292563"
    },
    {
        "title": "《天亮了》歌词简直就是巴勒斯坦的遭遇，小女孩一开口，瞬间泪奔",
        "docid": "7301252914306417190",
        "url": "https://www.ixigua.com/7301252914306417190"
    },
    {
        "title": "男孩偶遇白化病女孩被吓哭，妈妈笑着安慰一句话太暖：她是天使呀",
        "docid": "7281899698674369059",
        "url": "https://www.ixigua.com/7281899698674369059"
    },
    {
        "title": "宝宝胎动好似蹦迪，幅度太大脚底板都能看见，宝妈：我怀了个啥？",
        "docid": "7288591420221456937",
        "url": "https://www.ixigua.com/7288591420221456937"
    },
    {
        "title": "女子雨天骑车出门带娃取快递，回来时女儿举动让她愣住：来报恩的",
        "docid": "7290108252996993571",
        "url": "https://www.ixigua.com/7290108252996993571"
    },
    {
        "title": "这俩孩子把爸爸气死了，爸爸把失败的教育提现的淋漓尽致",
        "docid": "7303498370847506954",
        "url": "https://www.ixigua.com/7303498370847506954"
    },
    {
        "title": "萌娃从自家弄了条烟，去隔壁换吃的，店主一看名字吓得赶紧送回！",
        "docid": "7292313723463696959",
        "url": "https://www.ixigua.com/7292313723463696959"
    },
    {
        "title": "好家伙！全网最卷幼儿园，别人上学它上班，职业技能直接拉满！",
        "docid": "7309783587190997567",
        "url": "https://www.ixigua.com/7309783587190997567"
    },
    {
        "title": "萌娃边哭边吃孜然炒饭，完美诠释梨花带雨我见犹怜，萌化网友！",
        "docid": "7302252639763300883",
        "url": "https://www.ixigua.com/7302252639763300883"
    },
    {
        "title": "4个月宝宝尝试翻身翻不过去，气到喊出三个字全家笑翻：被逼急了",
        "docid": "7293736472388043291",
        "url": "https://www.ixigua.com/7293736472388043291"
    },
    {
        "title": "产房接生接到一半，护士纷纷开始倒水洗起了产房，网友瞬间懂了！",
        "docid": "7297522926645936681",
        "url": "https://www.ixigua.com/7297522926645936681"
    },
    {
        "title": "女孩做噩梦非要和妈妈一起睡，脸上表情令人心疼，爸爸无奈打地铺",
        "docid": "7289327133506306623",
        "url": "https://www.ixigua.com/7289327133506306623"
    },
    {
        "title": "不满足抓娃娃孩子改抓海鲜，5个币抓出上百元大龙虾，妈妈狂喜",
        "docid": "7299649216979468863",
        "url": "https://www.ixigua.com/7299649216979468863"
    },
    {
        "title": "这才是大学生该看的青年大学习！两分钟学会挖掘机，比蓝翔好多了",
        "docid": "7288649087480660495",
        "url": "https://www.ixigua.com/7288649087480660495"
    },
    {
        "title": "1岁萌娃和姑姑硬核斗嘴，孩子奶凶奶凶哒，姑姑萌凶萌凶哒",
        "docid": "7283408822415458852",
        "url": "https://www.ixigua.com/7283408822415458852"
    },
    {
        "title": "7月大宝宝不愿和奶奶睡哭闹不止，妈妈一抱就笑，尝试2次变脸超快",
        "docid": "7292242462826103311",
        "url": "https://www.ixigua.com/7292242462826103311"
    },
    {
        "title": "什么叫内心强大的父母",
        "docid": "7312993955778413094",
        "url": ""
    },
    {
        "title": "“我和妈去旅游，自己坐月子”飞机刚落地，妻子朋友圈晒出新丈夫",
        "docid": "7298131182712329981",
        "url": ""
    },
    {
        "title": "3岁走失萌娃有问必答，一本正经“胡说八道”。",
        "docid": "7301479472656876066",
        "url": "https://www.ixigua.com/7301479472656876066"
    },
    {
        "title": "当2岁宝宝听到胎动的声音，她会有啥反应？一番回忆把妈妈惊呆了",
        "docid": "7308279309373571638",
        "url": "https://www.ixigua.com/7308279309373571638"
    },
    {
        "title": "男子偷拍老婆跳“叮当”舞，镜头一转发现儿子早已露出痛苦面具",
        "docid": "7287402161820926527",
        "url": "https://www.ixigua.com/7287402161820926527"
    },
    {
        "title": "宝妈哄睡宝宝逐渐崩溃，失声痛哭宝宝来安慰，网友破防：感同身受",
        "docid": "7284453864521237026",
        "url": "https://www.ixigua.com/7284453864521237026"
    },
    {
        "title": "宝宝手里的火腿肠掉在地上，神操作笑翻众人，网友：不要打扰他！",
        "docid": "7295216152702255642",
        "url": "https://www.ixigua.com/7295216152702255642"
    },
    {
        "title": "三岁男孩被誉为《电梯战神》，原来是广西狼兵的孩子！",
        "docid": "7284826717238231591",
        "url": "https://www.ixigua.com/7284826717238231591"
    },
    {
        "title": "宝宝坐沙发上对准前方尿尿，呲出半米后把自己看呆，网友反应意外",
        "docid": "7295227496969175562",
        "url": "https://www.ixigua.com/7295227496969175562"
    },
    {
        "title": "天生反骨！宝宝一定要撅起脚指头，母子“杠上”谁都不服输",
        "docid": "7285228184088347195",
        "url": "https://www.ixigua.com/7285228184088347195"
    },
    {
        "title": "惊人的二八定律，很神奇的父子八大定律",
        "docid": "7313201705087713819",
        "url": ""
    },
    {
        "title": "3岁小女孩超爱黏着舅舅，嫉妒使宝爸面目全非：终究是“错付”了",
        "docid": "7284879211393876499",
        "url": "https://www.ixigua.com/7284879211393876499"
    },
    {
        "title": "又给整进屋啦家人们 不聊不行 聊完就有效果#西西贝贝的日常",
        "docid": "7303837749323235859",
        "url": "https://www.ixigua.com/7303837749323235859"
    },
    {
        "title": "14月大萌娃被爸妈“邮寄”回家，面对奶奶的热情，转身把爸妈出卖",
        "docid": "7310418740834337330",
        "url": "https://www.ixigua.com/7310418740834337330"
    },
    {
        "title": "萌娃看爹妈亲亲吃醋崩溃大哭，爸爸狡辩引网友爆笑，萌娃回答亮了",
        "docid": "7283832797683417660",
        "url": "https://www.ixigua.com/7283832797683417660"
    },
    {
        "title": "萌娃哭闹着不肯去上学，紧抓妈妈的裙子不放手：差点就走光了！",
        "docid": "7279996363423613475",
        "url": "https://www.ixigua.com/7279996363423613475"
    },
    {
        "title": "2岁男孩公平遗传爸妈长相，耳朵和眼睛各随爸妈一半，网友看呆",
        "docid": "7283819323418903098",
        "url": "https://www.ixigua.com/7283819323418903098"
    },
    {
        "title": "女子先于闺蜜们结婚生子，4个月宝宝成团宠：闺蜜们集体无痛当妈",
        "docid": "7295581787881898548",
        "url": "https://www.ixigua.com/7295581787881898548"
    },
    {
        "title": "全网最爱蹭饭的三胞胎姐妹！天天到隔壁王奶奶家蹭饭！",
        "docid": "7281569690315555362",
        "url": "https://www.ixigua.com/7281569690315555362"
    },
    {
        "title": "八岁的弟弟哄姐姐睡觉，爸爸进来在俩人的屁股上一人拍一下",
        "docid": "7301528188579447332",
        "url": "https://www.ixigua.com/7301528188579447332"
    },
    {
        "title": "12岁儿子模仿妈妈做家务，全程怒吼抱怨，宝妈事后反省：像疯子",
        "docid": "7295218084200055308",
        "url": "https://www.ixigua.com/7295218084200055308"
    },
    {
        "title": "妈妈身体不适，17个月宝宝独自看近1小时书，犯困找妈搂着就睡着",
        "docid": "7295559963613594123",
        "url": "https://www.ixigua.com/7295559963613594123"
    },
    {
        "title": "女儿长这么大还没穿过高跟鞋，于是妈妈偷偷给女儿买了一双",
        "docid": "7303740847760081419",
        "url": "https://www.ixigua.com/7303740847760081419"
    },
    {
        "title": "爸爸亲妈妈测试宝宝的反应，被宝宝狂扇耳光后再次测试，下秒高能",
        "docid": "7294111194598933027",
        "url": "https://www.ixigua.com/7294111194598933027"
    },
    {
        "title": "爸爸假装认错双胞胎,反复喊错姐妹名字让帮倒水,女儿们的反应乐翻",
        "docid": "7286640022739452468",
        "url": "https://www.ixigua.com/7286640022739452468"
    },
    {
        "title": "萌娃不听劝嘚瑟跳水渠，快速跳起自信往返几次成功，最后却笑不活",
        "docid": "7292568545253130752",
        "url": "https://www.ixigua.com/7292568545253130752"
    },
    {
        "title": "萌娃早产只有3斤多，父母害怕不敢碰，月嫂照顾半月后效果惊艳",
        "docid": "7302262374587695616",
        "url": "https://www.ixigua.com/7302262374587695616"
    },
    {
        "title": "护士抱新生儿出产房，家属1句话让她气愤不已：我不会把孩子给你",
        "docid": "7302342842444153383",
        "url": "https://www.ixigua.com/7302342842444153383"
    },
    {
        "title": "女儿早上啃玉米隔两粒啃一个坑，妈妈数落是不是闲的，龇牙后笑喷",
        "docid": "7281857677377045026",
        "url": "https://www.ixigua.com/7281857677377045026"
    },
    {
        "title": "小男孩在现场唱《爱我别走》，站在旁边的人表情亮了",
        "docid": "7280471135068619299",
        "url": "https://www.ixigua.com/7280471135068619299"
    },
    {
        "title": "萌宝坐床上安静玩，妈妈看到后吓一跳，哭着大喊",
        "docid": "7310139369669526068",
        "url": "https://www.ixigua.com/7310139369669526068"
    },
    {
        "title": "萌娃抢东西没抢过姐姐，怒气之下表演了京剧绝活僵尸摔：看着都疼",
        "docid": "7297423794216370726",
        "url": "https://www.ixigua.com/7297423794216370726"
    },
    {
        "title": "宝宝内裤夹屁沟妈妈看不下去，啪一声给他拽回来，声音太响逗乐人",
        "docid": "7312705311201526281",
        "url": "https://www.ixigua.com/7312705311201526281"
    },
    {
        "title": "宝妈晒出宝爸给宝宝脱裤子，你家的爸爸也是这样给孩子脱裤子的吗",
        "docid": "7285268538674283019",
        "url": "https://www.ixigua.com/7285268538674283019"
    },
    {
        "title": "妈妈坚信爸爸在家没做饭，女儿不信要打赌，进门后女儿表情亮了",
        "docid": "7285645028138222080",
        "url": "https://www.ixigua.com/7285645028138222080"
    },
    {
        "title": "亲戚住家里不走该怎么办？多亏网友出招，才能成功地送走他们",
        "docid": "7312705406151803442",
        "url": ""
    },
    {
        "title": "90后女子哭诉早起做早餐，孩子却不领情，网友笑喷：换我也吃不下",
        "docid": "7311179870544462355",
        "url": ""
    },
    {
        "title": "怀孕后，老公能整出啥让人哭笑不得的事儿？评论区笑不活了",
        "docid": "7308680268536119858",
        "url": ""
    },
    {
        "title": "养儿子的妈妈们，看完这些你们有没有后悔对儿子太好了？",
        "docid": "7311684259977134629",
        "url": ""
    },
    {
        "title": "我怀孕了，高级点怎么说",
        "docid": "7312448588419318306",
        "url": ""
    },
    {
        "title": "父母越能装孩子越强大，终身受益的19个小建议",
        "docid": "7312795190484861491",
        "url": ""
    },
    {
        "title": "生二胎以后是觉得圆满了，还是后悔了？",
        "docid": "7312678668151620150",
        "url": ""
    },
    {
        "title": "妈妈的7次撑腰，换来孩子一生抬头",
        "docid": "7312307080986526217",
        "url": ""
    },
    {
        "title": "醍醐灌顶，养女儿一定要养出“贵气感”要让她甩掉那些“廉价感”",
        "docid": "7308572265975906851",
        "url": ""
    },
    {
        "title": "1992年，河南教师因“超生”被开除，不料22年后，省里赔偿60万",
        "docid": "7312010330262143526",
        "url": ""
    },
    {
        "title": "外国人到了中国会打自己小孩吗？",
        "docid": "7312667182608335423",
        "url": ""
    },
    {
        "title": "孩子三次叛逆期，父母要知道",
        "docid": "7312785299770540554",
        "url": ""
    },
    {
        "title": "娶到这样的婆娘，真是倒了十八辈子大霉了！！！",
        "docid": "7312307877509677606",
        "url": ""
    },
    {
        "title": "17岁自闭症男孩，字迹堪比“印刷体”，自闭症都是天才？",
        "docid": "7305616146642846223",
        "url": ""
    },
    {
        "title": "怀孕有钱领‼️不止生育津贴，一共4笔，可别错过",
        "docid": "7310235460029202980",
        "url": ""
    },
    {
        "title": "女人生没生过孩子一眼就能看出来？3点不同很明显，自己对照一下",
        "docid": "7312700537123455522",
        "url": ""
    },
    {
        "title": "孕妈产检是连体婴儿，夫妻决定冒险生下来，出生后夫妻激动落泪！",
        "docid": "7298578460733344836",
        "url": ""
    },
    {
        "title": "你以为的胎动和实际上的胎动",
        "docid": "7287461619117261366",
        "url": ""
    },
    {
        "title": "父亲将儿子画的丑东西变3D",
        "docid": "7297464732989669903",
        "url": ""
    },
    {
        "title": "年轻人要正视一个事实：生不生二胎，20年后差别待遇大",
        "docid": "7294943162173309474",
        "url": ""
    },
    {
        "title": "21年黑龙江夫妻借22万做试管，生下双胞胎，一年后“噩梦”却发生",
        "docid": "7312714080903709236",
        "url": ""
    },
    {
        "title": "人到中年，最无力的事情就是眼睁睁地看着孩子越来越讨厌自己",
        "docid": "7312999389771924008",
        "url": ""
    },
    {
        "title": "1岁娃被喂成白血病！“三聚氰胺”又来了，就藏在饭碗里！",
        "docid": "7312696116314030626",
        "url": ""
    },
    {
        "title": "“不会请个保姆吗？”富人的傲慢狠狠刺痛穷人的无奈",
        "docid": "7312663197604446756",
        "url": ""
    },
    {
        "title": "泪目了！女子临终前安慰孩子，儿子趴在妈妈身上哭泣",
        "docid": "7312832065928987136",
        "url": ""
    },
    {
        "title": "千万注意！别再给孩子玩萝卜刀了，其中的危害你知道吗？",
        "docid": "7283796073154396711",
        "url": ""
    },
    {
        "title": "教育孩子，8点不能惯",
        "docid": "7313024684743000611",
        "url": ""
    },
    {
        "title": "“医生，我家孩子老把p写成q，汉字也经常写反，怎么办？” 医生坦言：这样的孩子其实很多",
        "docid": "7312246490217497128",
        "url": ""
    },
    {
        "title": "25岁女人赌上性命生儿子，连儿子一面都没见到就去世了，太可惜了",
        "docid": "7312414857532408331",
        "url": ""
    },
    {
        "title": "月子之仇能否可解？网友:我永远也忘不了她的所作所为",
        "docid": "7313061023651758626",
        "url": ""
    },
    {
        "title": "去做产检，穿得精致点还是土点好？一评论引起上万孕妈共鸣",
        "docid": "7303382655712739850",
        "url": ""
    },
    {
        "title": "为什么不能乱抠肚脐眼？原来肚脐眼连的根本不是肠子！涨知识了",
        "docid": "7283811948423365175",
        "url": ""
    },
    {
        "title": "三岁宝宝在家自己冲奶粉喝，还把奶瓶洗干净，妈妈：看完监控心酸酸的",
        "docid": "7312648070259442228",
        "url": ""
    },
    {
        "title": "男孩子的正确教育方式，父母才是孩子最好的老师！",
        "docid": "7313055225433506339",
        "url": ""
    },
    {
        "title": "网友:幼儿园手工作业都好厉害，可以开美展了。家长:脑细胞已耗尽",
        "docid": "7303741055160042021",
        "url": ""
    },
    {
        "title": "再穷也要给孩子隆重过的4个生日，父母千万别无所谓！赶紧记下来",
        "docid": "7297901657538593317",
        "url": ""
    },
    {
        "title": "为什么别人家的孩子那么乖巧 专家：没有最好，只有最适合",
        "docid": "7312835178996187659",
        "url": ""
    },
    {
        "title": "习惯睡午觉的孩子和从不睡午觉的孩子，智商差距很明显，别不在意",
        "docid": "7304612718219297307",
        "url": ""
    },
    {
        "title": "孩子为啥不发烧了，咳嗽越来越多？",
        "docid": "7300100523372511782",
        "url": ""
    },
    {
        "title": "“你个老六”！孩子满嘴网络梗，不是变坏了，而是在表达这个需求",
        "docid": "7309692354431451699",
        "url": ""
    },
    {
        "title": "为什么现在的女孩子都怕生孩子？",
        "docid": "7311698576043164194",
        "url": ""
    },
    {
        "title": "告诉孩子一个神奇的背书方法",
        "docid": "7312631302241600009",
        "url": ""
    },
    {
        "title": "95后产妇生下“雪人宝宝”，一家人吓坏了，医生却说“恭喜了”",
        "docid": "7308504516914184731",
        "url": ""
    },
    {
        "title": "你以为只有生孩子痛吗？还有一些痛只有她们才知道……",
        "docid": "7288884119814554169",
        "url": ""
    },
    {
        "title": "幼儿园招生难  行业探索“老幼同养”新模式",
        "docid": "7312902029360431643",
        "url": ""
    },
    {
        "title": "护眼第1名,不是胡萝卜而是它!几块钱一大袋,这么做营养还能再翻番",
        "docid": "7288858426610860580",
        "url": ""
    },
    {
        "title": "令人捧腹！45个睡着了的孩子，姿势百出，睡出新境界",
        "docid": "7307138383699690024",
        "url": ""
    },
    {
        "title": "婴儿睡觉时为什么看见妈妈在旁边就继续睡",
        "docid": "7298911844801135142",
        "url": ""
    },
    {
        "title": "家有男孩，有3个地方不能“穷养”，儿子长大后，会感谢你的大方",
        "docid": "7285240904510734863",
        "url": ""
    },
    {
        "title": "孩子出现呼吸问题，家长如何尽早发现？这两个方法请收藏！",
        "docid": "7313371433261285915",
        "url": ""
    },
    {
        "title": "只有一个孩子的父母，五十岁后，要给自己留几条退路",
        "docid": "7291864049397088807",
        "url": ""
    },
    {
        "title": "关于堕胎，一名妇科医生看见的",
        "docid": "7299711155680084506",
        "url": ""
    },
    {
        "title": "家里有老人带娃，有三句话不能反复当孩子面说，说多了娃容易不孝",
        "docid": "7313335445142864424",
        "url": ""
    },
    {
        "title": "草莓不能给孩子吃？儿科医生：孩子草莓吃多了，会有这几个危害！",
        "docid": "7312721016428642828",
        "url": ""
    },
    {
        "title": "把女儿养成玻璃心才醒悟，真正强大的孩子，一定要经历“瓶颈期”",
        "docid": "7310953619430392360",
        "url": ""
    },
    {
        "title": "跨越两千公里，他们的爱心源源不断",
        "docid": "7313362229129216562",
        "url": ""
    },
    {
        "title": "重庆渝北区：龙塔街道开展精神障碍社区康复系列活动",
        "docid": "7312735368301281802",
        "url": ""
    },
    {
        "title": "宝宝何时开始吃盐?很多家长不了解，营养师建议:这么大开始最合适",
        "docid": "7289636620611945000",
        "url": ""
    },
    {
        "title": "孕妈妈感冒咳嗽两周，咳出腹部巨大血肿",
        "docid": "7312978130560614951",
        "url": ""
    },
    {
        "title": "幼儿园该做哪些，别把时间都浪费了",
        "docid": "7312761812599341602",
        "url": ""
    },
    {
        "title": "研究建议：男性应在组建家庭前3个月戒酒",
        "docid": "7312737448634303013",
        "url": ""
    },
    {
        "title": "孩子不说话就是“社恐”吗？",
        "docid": "7312272690307220009",
        "url": ""
    },
    {
        "title": "真正智慧的中年人：把孩子当领导，把爱人当同事",
        "docid": "7309662863415640615",
        "url": ""
    },
    {
        "title": "第八届儿童发展国际研讨会召开：关注农村儿童的早期发展",
        "docid": "7313373767793787432",
        "url": ""
    },
    {
        "title": "支原体、流感……如何应对混合感染？一图读懂",
        "docid": "7298907303632814602",
        "url": ""
    },
    {
        "title": "12岁之前，这样给孩子立规矩，孩子早晚会感激你（特别家教1472期）",
        "docid": "7282294688466698763",
        "url": ""
    },
    {
        "title": "永州经开区：“萌娃”走进红门学消防",
        "docid": "7313089803979883045",
        "url": ""
    },
    {
        "title": "长治市人民医院：孕妇来院生孩子，准爸爸却命悬一线？",
        "docid": "7312631598703428105",
        "url": ""
    },
    {
        "title": "疾控中心最新提醒：比支原体肺炎更猛的病毒来了，娃越小越易感染",
        "docid": "7311237112614076939",
        "url": ""
    },
    {
        "title": "症状轻微可先居家治疗，密切观察孩子状态",
        "docid": "7312648917303198259",
        "url": ""
    },
    {
        "title": "2岁娃被瓜子卡喉 幸好送医及时",
        "docid": "7313368704920994340",
        "url": ""
    },
    {
        "title": "靠谱·善关心丨困境儿童冬日走访关爱进行时",
        "docid": "7312836468270039590",
        "url": ""
    },
    {
        "title": "山姆最值得买的美食 top 20！配料干净，有娃家庭无限回购",
        "docid": "7293795928581014067",
        "url": ""
    },
    {
        "title": "中国网小记者作品——乒乓球带给我快乐",
        "docid": "7312683876168778251",
        "url": ""
    },
    {
        "title": "灞桥区狄寨中心园小一班课程故事 金色的秋天",
        "docid": "7296837248023396901",
        "url": ""
    },
    {
        "title": "促进亲子关系、启发育儿思考…朱家角这场亲子读书会受欢迎！",
        "docid": "7313211956201505289",
        "url": ""
    },
    {
        "title": "孩子感染呼吸道疾病在家如何护理？康复期如何缓解咳嗽、流涕等症状......",
        "docid": "7312644106063528483",
        "url": ""
    },
    {
        "title": "和亲家母单独相处几天的感受，学会聊天儿。",
        "docid": "7283145689142477367",
        "url": ""
    },
    {
        "title": "孩子感染呼吸道疾病，何时该用退烧药，持续咳嗽怎么办，哪些情况需要去医院……家长要了解的知识点在这里",
        "docid": "7309845141970289189",
        "url": ""
    },
    {
        "title": "家长请收藏！冬季儿童常见呼吸道疾病防治手册",
        "docid": "7307379468539019815",
        "url": ""
    },
    {
        "title": "孩子过生日，别再只说生日快乐了，说这六句话就够了。",
        "docid": "7313176665688064562",
        "url": ""
    },
    {
        "title": "养育“高质量男孩”的三条黄金法则",
        "docid": "7313197323151213095",
        "url": ""
    },
    {
        "title": "存下“时间胶囊”，助力“精”彩人生再次启航",
        "docid": "7313393182216225280",
        "url": ""
    },
    {
        "title": "幼师完不成打卡任务，加班写材料还要被学校扣钱，辞职去当服务员",
        "docid": "7313395221285716532",
        "url": ""
    },
    {
        "title": "长庆湖滨花园幼儿园开展“防拐骗”安全演练",
        "docid": "7313386744873878027",
        "url": ""
    },
    {
        "title": "“我是医生，让我来！”",
        "docid": "7313391250999460402",
        "url": ""
    },
    {
        "title": "自然中的童话",
        "docid": "7313398073869795849",
        "url": ""
    },
    {
        "title": "我不许你还没给孩子准备这九种美味可口的早餐！简单又好吃！",
        "docid": "7287589128408678971",
        "url": ""
    },
    {
        "title": "孩子走路早晚和智商还有关系？儿科医生给出答案，你家多大会走路",
        "docid": "7291852289604633128",
        "url": ""
    },
    {
        "title": "争当“雷小锋”，启智润童心",
        "docid": "7313403660287935015",
        "url": ""
    },
    {
        "title": "孩子身上出现12个针眼？幼儿园其他小朋友也被扎过？警方介入",
        "docid": "7313381512983298597",
        "url": ""
    },
    {
        "title": "儿科医生苦口婆心：要想宝宝脾胃好，要做到“两坚持，三不做”！",
        "docid": "7291856621439861248",
        "url": ""
    },
    {
        "title": "枣庄市2家机构获评首批“省级规范化残疾儿童定点康复机构”",
        "docid": "7313388744357446183",
        "url": ""
    },
    {
        "title": "【孕妈日记3】让人“望而生畏”的糖耐，其实没那么可怕",
        "docid": "7312671826436588047",
        "url": ""
    },
    {
        "title": "控制孩子的体重，可以这么做",
        "docid": "7312711237291557411",
        "url": ""
    },
    {
        "title": "健康周刊 | 冬季水痘多发 科学“战痘”很重要",
        "docid": "7313377303672046091",
        "url": ""
    },
    {
        "title": "未来，虹口的幼儿园将……",
        "docid": "7313182310399623690",
        "url": ""
    },
    {
        "title": "妈妈，逆风我能行！",
        "docid": "7281269477353030155",
        "url": ""
    },
    {
        "title": "为何有宝宝8个月能走，有的迟迟不走?医生叹息：还需考虑这些因素",
        "docid": "7291541232055026228",
        "url": ""
    },
    {
        "title": "绘画《威武的企鹅》｜烟台中小学生“才艺秀”作品征集",
        "docid": "7313376754394137122",
        "url": ""
    },
    {
        "title": "入秋后带娃注意事项",
        "docid": "7283317415172211255",
        "url": ""
    },
    {
        "title": "专家：防范儿童呼吸道疾病交叉感染，免疫调节剂可增强免疫力",
        "docid": "7312670224707289636",
        "url": ""
    },
    {
        "title": "绘画《汉服设计》｜烟台中小学生“才艺秀”作品征集",
        "docid": "7313376753505108519",
        "url": ""
    },
    {
        "title": "警惕！呼吸道合胞病毒更容易“盯上”孩子 | 科普时间",
        "docid": "7305347479376052771",
        "url": ""
    },
    {
        "title": "#萌娃说起就起，啥也不扶，腿一支就站起来",
        "docid": "7282388769570128395",
        "url": ""
    },
    {
        "title": "连弹10首~1岁宝宝盲弹琴准确率接近百分百",
        "docid": "7312341227326800421",
        "url": ""
    },
    {
        "title": "网友被周岁宴小宝宝名字可爱到，一看父母就是“熊出没”忠实粉丝",
        "docid": "7310440019104875058",
        "url": ""
    },
    {
        "title": "网友：这是第一次当爹 没错了！",
        "docid": "7288506640066806332",
        "url": ""
    },
    {
        "title": "凡人微光｜暖暖“隔代亲”",
        "docid": "7311888809372500531",
        "url": ""
    },
    {
        "title": "父母的爱与照顾：女儿被“忘”在家上学的温馨故事",
        "docid": "7290360179323896355",
        "url": ""
    },
    {
        "title": "找寻写作业的乐趣：孩子们成长的奇妙探索",
        "docid": "7312354195670270491",
        "url": ""
    },
    {
        "title": "晰元成长日记：逗外公，娃娃是个调皮郎；访三乡，姨婆家里浪一浪",
        "docid": "7313302924585697829",
        "url": ""
    },
    {
        "title": "山东好景丨秋阳下享受童年的快乐时光",
        "docid": "7280323484570878521",
        "url": ""
    },
    {
        "title": "3岁胖娃偷溜到湖边钓鱼，妈妈发现后制止狠揍屁股，次日一幕亮了",
        "docid": "7294894529654555173",
        "url": "https://www.ixigua.com/7294894529654555173"
    },
    {
        "title": "亲子篮球对抗赛，父亲们“不讲武德”，打得孩子们直接怀疑人生",
        "docid": "7305584734204232243",
        "url": "https://www.ixigua.com/7305584734204232243"
    },
    {
        "title": "有没有对儿子特别失望的时候？差点毁娃，如今轻舟已过万重山",
        "docid": "7313155626497458739",
        "url": ""
    },
    {
        "title": "儿媳生孙子，请月嫂照顾三个月后儿子来要钱:您需要支付68000元",
        "docid": "7312870917149819404",
        "url": ""
    },
    {
        "title": "帮“星星孩子”走向未来 普陀区“青椒”志愿者每月送课上门",
        "docid": "7313434676666974747",
        "url": ""
    },
    {
        "title": "暖极了！幼儿园里多了“显眼包”",
        "docid": "7312718943876628992",
        "url": ""
    },
    {
        "title": "一次孕前检查的有效期有多久？",
        "docid": "7313414762971480585",
        "url": ""
    },
    {
        "title": "女儿试穿刚到的露背装，妈妈看不下去直呼“赶紧退了”，身材绝了",
        "docid": "7286323095835509304",
        "url": "https://www.ixigua.com/7286323095835509304"
    },
    {
        "title": "俩宝宝用十级婴语愉快交流，你来我往一旁家长看懵：谁来翻译一下",
        "docid": "7312660251512963584",
        "url": "https://www.ixigua.com/7312660251512963584"
    },
    {
        "title": "孕妇不能吃的蔬菜？需要谨慎选择食用",
        "docid": "7313221431318610459",
        "url": ""
    },
    {
        "title": "男孩看见爸爸拔罐红印误以被打，心疼抱住爸爸崩溃痛哭：打的真圆",
        "docid": "7289627446121660984",
        "url": "https://www.ixigua.com/7289627446121660984"
    },
    {
        "title": "一男孩把自己画成大花脸，被妈妈批评罚站，结果没忍住笑场跑了！",
        "docid": "7304842939912913427",
        "url": "https://www.ixigua.com/7304842939912913427"
    },
    {
        "title": "女儿爱掰爸爸的奔驰车标玩，身体后仰发力左右摇晃，妈妈反应真实",
        "docid": "7290029322277290535",
        "url": "https://www.ixigua.com/7290029322277290535"
    },
    {
        "title": "爸爸“罢工”被女儿三句话拿捏，妈妈看懵急得跺脚：我咋不管用？",
        "docid": "7306021250411954739",
        "url": "https://www.ixigua.com/7306021250411954739"
    },
    {
        "title": "三胞胎为抢一瓶奶大打出手，一旁宝妈淡定围观：让你们晚上熬我",
        "docid": "7283829443456893477",
        "url": "https://www.ixigua.com/7283829443456893477"
    },
    {
        "title": "父女见妈妈秀穿搭直夸好看，扭头一秒变脸吐槽，女儿神补刀太扎心",
        "docid": "7284853445494833720",
        "url": "https://www.ixigua.com/7284853445494833720"
    },
    {
        "title": "4岁女儿劝妈妈喊外婆姐姐，网友以为玩笑见真人打脸：一家子美人",
        "docid": "7303831195400766006",
        "url": "https://www.ixigua.com/7303831195400766006"
    },
    {
        "title": "宝宝睡觉被翻身的爸爸重压在身下，看到妈妈来了流下激动的泪水",
        "docid": "7288230190898283008",
        "url": "https://www.ixigua.com/7288230190898283008"
    },
    {
        "title": "坐月子第一天，睡觉时婆婆偷偷剪我头发，让她离开我家有错吗？",
        "docid": "7313241307885945407",
        "url": ""
    },
    {
        "title": "宝宝泡脚时妈妈过来加热水，随后一幕令网友兴奋：被可爱到了",
        "docid": "7294442895023538740",
        "url": "https://www.ixigua.com/7294442895023538740"
    },
    {
        "title": "网友拍摄家中双胞胎日常，一个啃屁股一个不动",
        "docid": "7310029415889666623",
        "url": "https://www.ixigua.com/7310029415889666623"
    },
    {
        "title": "两岁半宝宝自己找准音后弹《后来》，边弹边唱非常陶醉，网友酸了",
        "docid": "7286304215788749351",
        "url": "https://www.ixigua.com/7286304215788749351"
    },
    {
        "title": "“婴语”十级！双胞胎哥哥卡床缝向弟弟救助，无障碍交流萌化网友",
        "docid": "7287845376705593919",
        "url": "https://www.ixigua.com/7287845376705593919"
    },
    {
        "title": "姥爷逗外孙“又来我家蹭饭”，5岁孩子童言无忌，让老人心凉了",
        "docid": "7312420471734485514",
        "url": ""
    },
    {
        "title": "从小睡枕头和不睡枕头的孩子，将出现明显的差别，找对时机很重要",
        "docid": "7313442891719361062",
        "url": ""
    },
    {
        "title": "组图丨了不起的“小戏骨”",
        "docid": "7313461023556583936",
        "url": ""
    },
    {
        "title": "黄浦区儿童友好工作十大特色品牌：“慧成长·心相伴”伙伴计划",
        "docid": "7313455033134170624",
        "url": ""
    },
    {
        "title": "福州市鼓山中心幼儿园教育集团2023-2024学年市级开放活动",
        "docid": "7313461350582616616",
        "url": ""
    },
    {
        "title": "感触脉动 音爱而生  ——怀化市妇幼保健院成功举办“移动的音乐城堡”胎教音乐会活动",
        "docid": "7313468093135667747",
        "url": ""
    },
    {
        "title": "纪念宋庆龄诞辰130周年，《中国家庭教育与儿童发展蓝皮书》发布",
        "docid": "7313450723671654922",
        "url": ""
    },
    {
        "title": "“爱哭包”怎么变“乖宝宝”——别担心，儿童镇静给你安排得明明白白",
        "docid": "7312741026626978342",
        "url": ""
    },
    {
        "title": "新研究：控制一种脑干激素或有助防治孕吐",
        "docid": "7313468793924092416",
        "url": ""
    },
    {
        "title": "寒潮遇到流感，娃中招几率加倍！4个方，让娃暖洋洋，少感冒",
        "docid": "7313373746549932559",
        "url": ""
    },
    {
        "title": "母爱如海～妈妈去世前一晚还努力给熟睡的儿子盖被子",
        "docid": "7313458365290562058",
        "url": ""
    },
    {
        "title": "男子记录孕期中老婆走路样子，岔开腿甩膀子姿势霸气：孕妇扛把子",
        "docid": "7284885013127299618",
        "url": "https://www.ixigua.com/7284885013127299618"
    },
    {
        "title": "全家即将搬到新房，3岁女儿突然说自己以后没房子了：这是弟弟的",
        "docid": "7295254806791520819",
        "url": "https://www.ixigua.com/7295254806791520819"
    },
    {
        "title": "混血女孩纠正老外爸爸发音，被散装中文气到暴走，妈妈当场笑翻",
        "docid": "7304104604759753228",
        "url": "https://www.ixigua.com/7304104604759753228"
    },
    {
        "title": "今天来一个无剪辑版，实在不知道怎么剪了😂😂😂#人类幼崽",
        "docid": "7302026707165577780",
        "url": "https://www.ixigua.com/7302026707165577780"
    },
    {
        "title": "哥哥吃火腿肠时没抓稳掉了，妹妹“眼疾手快”抓手里：这出手速度",
        "docid": "7307066067229082163",
        "url": "https://www.ixigua.com/7307066067229082163"
    },
    {
        "title": "爸爸妈妈结婚，你为什么没有参加？看看萌娃们是怎么回答的吧！😅",
        "docid": "7307101580048728617",
        "url": "https://www.ixigua.com/7307101580048728617"
    },
    {
        "title": "10个月大萌娃看到大高个舅舅，当场呆住太可爱：她连大气都不敢出",
        "docid": "7284878592062947881",
        "url": "https://www.ixigua.com/7284878592062947881"
    },
    {
        "title": "六个月宝宝和12岁姑姑干仗，揪头发咬下巴折磨姑姑，奶凶奶凶的",
        "docid": "7286010398636638772",
        "url": "https://www.ixigua.com/7286010398636638772"
    },
    {
        "title": "舅舅生病不想吃饭4岁萌娃按头强喂 全程没有一个多余动作",
        "docid": "7285157246773035578",
        "url": "https://www.ixigua.com/7285157246773035578"
    },
    {
        "title": "6岁儿子语出惊人妈妈吓得当场愣住了！大家都怀疑你忘了喝孟婆汤",
        "docid": "7281488349641048634",
        "url": "https://www.ixigua.com/7281488349641048634"
    },
    {
        "title": "爸爸给腹中胎儿唱歌被两脚踢开 妈妈：他学美声的，当时一脸懵",
        "docid": "7295935210573529626",
        "url": "https://www.ixigua.com/7295935210573529626"
    },
    {
        "title": "宝妈在农村吃席被娃悉心照顾！又是夹菜又是眼神提示：太懂事了",
        "docid": "7308567669735686667",
        "url": "https://www.ixigua.com/7308567669735686667"
    },
    {
        "title": "哥哥拍身份证照片衣服不合适，只能现场脱下妹妹的衣服穿上",
        "docid": "7287778027449745932",
        "url": "https://www.ixigua.com/7287778027449745932"
    },
    {
        "title": "爸爸招惹儿子眼看就要惹哭，妈妈赶紧出手痛打爸爸两下，网友笑哭",
        "docid": "7310417843064046120",
        "url": "https://www.ixigua.com/7310417843064046120"
    },
    {
        "title": "爷爷抽烟被孙女“教育”，看到爷爷长相网友惊呆：还以为是爸爸",
        "docid": "7283760228590584380",
        "url": "https://www.ixigua.com/7283760228590584380"
    },
    {
        "title": "女子生完儿子被推出产房，满脸憔悴的望向丈夫，下秒对话令人心酸",
        "docid": "7282953173348811304",
        "url": "https://www.ixigua.com/7282953173348811304"
    },
    {
        "title": "“丧偶式育儿”变了吗？上海爸爸夜间带娃比例两年上升5%，持续高于全国水平",
        "docid": "7313479444113719842",
        "url": ""
    },
    {
        "title": "国家卫健委：北京等九大城市妇幼机构儿科呼吸道疾病每日平均门急诊量，3个多月来增长52%",
        "docid": "7313469745007886859",
        "url": ""
    },
    {
        "title": "“聆听冬语 心影相约”残疾人无障碍文化观影活动举办",
        "docid": "7313478548147192359",
        "url": ""
    },
    {
        "title": "呼和浩特又一早教机构突然停业 家长们蒙了！负责人联系不上 家长和员工如何维权",
        "docid": "7313480776950055487",
        "url": ""
    },
    {
        "title": "“喂喂喂足球队”——他们为什么踢球还得喊起来？",
        "docid": "7313485572852023843",
        "url": ""
    },
    {
        "title": "看过来！产后第6天月子餐食谱来啦→",
        "docid": "7313493682220024360",
        "url": ""
    },
    {
        "title": "国家卫健委：全国3岁以下儿童系统管理率、7岁以下儿童健康管理率均在90%以上",
        "docid": "7313491793251664394",
        "url": ""
    },
    {
        "title": "好奇心陷阱：培养孩子安全意识刻不容缓",
        "docid": "7313495627026153999",
        "url": ""
    },
    {
        "title": "如何让孩子少生病，即使生病也症状轻、康复快？",
        "docid": "7313484717678985762",
        "url": ""
    },
    {
        "title": "从天而降的工人叔叔遇上“监工”宝宝，一个很害羞，一个超开心",
        "docid": "7309721585055859215",
        "url": "https://www.ixigua.com/7309721585055859215"
    },
    {
        "title": "2岁女儿相中别人坐的椅子，家长以为要上手硬抢，下秒智商被碾压",
        "docid": "7307091716195451392",
        "url": "https://www.ixigua.com/7307091716195451392"
    },
    {
        "title": "21个月的宝宝爬铁围栏溜出去玩 妈妈发现后用编织袋将其挡住",
        "docid": "7291120226576368183",
        "url": "https://www.ixigua.com/7291120226576368183"
    },
    {
        "title": "爸爸整蛊萌娃把椅子拿走了！以为会摔个大跟头，结果出乎意料",
        "docid": "7287846224240050742",
        "url": "https://www.ixigua.com/7287846224240050742"
    },
    {
        "title": "来聊聊胚胎停育那些事儿",
        "docid": "7313428757174649344",
        "url": ""
    },
    {
        "title": "2岁萌娃用头作画“复刻”自己，最后把自己看傻：我头正方形的？",
        "docid": "7303797007754854922",
        "url": "https://www.ixigua.com/7303797007754854922"
    },
    {
        "title": "女儿在家一人分饰两角“打架”，妈妈暴怒欲打，看到最后却乐坏",
        "docid": "7285260004360356371",
        "url": "https://www.ixigua.com/7285260004360356371"
    },
    {
        "title": "姐姐晒舞蹈专业的妹妹，网友：我终于明白“亭亭玉立”的意境",
        "docid": "7306052242904515072",
        "url": "https://www.ixigua.com/7306052242904515072"
    },
    {
        "title": "爸爸起床一摸发现宝宝“失踪”，吓得弹射起身寻找，随后憋不住笑",
        "docid": "7283334113455997492",
        "url": "https://www.ixigua.com/7283334113455997492"
    },
    {
        "title": "93年妈妈晒三胎儿子，脚丫肉嘟嘟的连鞋都穿不上，网友一看却慌了",
        "docid": "7286292816920379943",
        "url": "https://www.ixigua.com/7286292816920379943"
    },
    {
        "title": "谁说的台上一分钟，台下十年功我一耳光呼死他！😡😡😡",
        "docid": "7308883125373764131",
        "url": "https://www.ixigua.com/7308883125373764131"
    },
    {
        "title": "山东幼儿园要求做灯笼，父亲拿酒盒扎一个，网友：建议直接进决赛",
        "docid": "7306355519663538722",
        "url": "https://www.ixigua.com/7306355519663538722"
    },
    {
        "title": "4岁萌娃带马儿进屋吃自己零食，妈妈：养了三四百匹，独宠这匹",
        "docid": "7286738710811542072",
        "url": "https://www.ixigua.com/7286738710811542072"
    },
    {
        "title": "孕妇分娩生出一个“球”，丈夫怀疑是“怪胎”，医生却道恭喜",
        "docid": "7313416070571016716",
        "url": ""
    },
    {
        "title": "为什么以前家家五六个孩子都能养，现在年轻人却一个都不想生？",
        "docid": "7313422646232891919",
        "url": ""
    },
    {
        "title": "在追寻幸福的路上，每个人都有古怪的一面：汉斯·雅尼什的童诗",
        "docid": "7313531053459653131",
        "url": ""
    },
    {
        "title": "浅谈：为什么很多从小在绘本里泡大的孩子在上学后却不会阅读？",
        "docid": "7313512142257455628",
        "url": ""
    },
    {
        "title": "锌是“聪明之根”，多给孩子吃高锌食物，注意力集中，上课更专心",
        "docid": "7312416606498931241",
        "url": ""
    },
    {
        "title": "兰州市城关区妇联开展“爱暖童心 筑梦成长”关爱活动",
        "docid": "7313545755913945634",
        "url": ""
    },
    {
        "title": "满城银装一夜来，枣幼温情爱守筑——枣园幼儿园破冰除雪活动",
        "docid": "7313539383877616155",
        "url": ""
    },
    {
        "title": "王培安：我国农村儿童早期发展整体滞后，1/3可能发育滞后",
        "docid": "7313533315984802323",
        "url": ""
    },
    {
        "title": "好爸爸都是这样和孩子交流的",
        "docid": "7313543921064706579",
        "url": ""
    },
    {
        "title": "认真“护苗”，他们邀请“黑猫警长”来到孩子身边",
        "docid": "7313508734486315530",
        "url": ""
    },
    {
        "title": "小儿推拿之孩子感冒不用愁，试试这个“发汗穴”！",
        "docid": "7313008965871649299",
        "url": ""
    },
    {
        "title": "（图表·漫画）［科技］防治孕吐新发现",
        "docid": "7313511443935724082",
        "url": ""
    },
    {
        "title": "无棣县水湾镇中心幼儿园开展消防安全应急演练",
        "docid": "7313530469050581519",
        "url": ""
    },
    {
        "title": "@宝爸妈们 协和儿科主任说补钙、发烧吃药、心理健康那些事",
        "docid": "7313512063844942388",
        "url": ""
    },
    {
        "title": "董宇辉就是人间清醒，教育孩子是一个多年来社会认知扭曲的过程",
        "docid": "7296510249165390351",
        "url": "https://www.ixigua.com/7296510249165390351"
    },
    {
        "title": "爸爸最喜欢说的一句话是什么？看看有没有同款爸爸😂#童言童语",
        "docid": "7304501146860093990",
        "url": "https://www.ixigua.com/7304501146860093990"
    },
    {
        "title": "天赋异禀！萌娃四驱用力丝滑转起二人转手绢",
        "docid": "7308943543409017395",
        "url": "https://www.ixigua.com/7308943543409017395"
    },
    {
        "title": "德艺双馨的Victoria Sudmmers和Sophia Knight之神车飞侠(大结局)",
        "docid": "7313136221302194724",
        "url": "https://www.ixigua.com/7313136221302194724"
    },
    {
        "title": "又菜又爱玩！萌娃扔摔炮吓到自己，小手自拍胸口安慰：吓死宝宝了",
        "docid": "7308624965631705610",
        "url": "https://www.ixigua.com/7308624965631705610"
    },
    {
        "title": "急需婴语翻译！安徽2萌娃秒变脸街头“吵架”，扯衣跺脚惹爆笑",
        "docid": "7310048232804418082",
        "url": "https://www.ixigua.com/7310048232804418082"
    },
    {
        "title": "保姆阿姨请假7天再返家，宝宝愣了两秒委屈大哭，下一秒全家吃醋",
        "docid": "7303368651992728105",
        "url": "https://www.ixigua.com/7303368651992728105"
    },
    {
        "title": "光之小镇出现漂亮的城堡，原来是小赛罗兄弟诞生了",
        "docid": "7298592883945407014",
        "url": "https://www.ixigua.com/7298592883945407014"
    },
    {
        "title": "实力坑爹！男孩带小伙伴抠掉爸爸车标，爸爸走近一看血压飙升",
        "docid": "7294881309673914917",
        "url": "https://www.ixigua.com/7294881309673914917"
    },
    {
        "title": "五块钱在学校门口买的鸡仔，被小男孩养下蛋，出去溜达时满眼宠溺",
        "docid": "7283330672477864459",
        "url": "https://www.ixigua.com/7283330672477864459"
    },
    {
        "title": "专家给出解决生育压力大的办法！评论区瞬间炸锅，网友：不可思议",
        "docid": "7313542202272137763",
        "url": ""
    },
    {
        "title": "妈妈一句口头禅，孩子优秀一辈子！",
        "docid": "7285927212858294819",
        "url": ""
    },
    {
        "title": "国家鼓励生娃，为何很多人不愿意生，原来忽视了8个现实问题",
        "docid": "7313531690558013992",
        "url": ""
    },
    {
        "title": "《卡卡的小卡车系列》｜每日一书",
        "docid": "7313551653213340196",
        "url": ""
    },
    {
        "title": "10年爱心接力，“嘉荷阿嫂”服务了500个特殊家庭",
        "docid": "7313564011025465895",
        "url": ""
    },
    {
        "title": "原来妈妈也知道尴尬",
        "docid": "7313398538778542611",
        "url": ""
    },
    {
        "title": "中国红基会“守护阳光童年——过敏性鼻炎儿童关爱”公益展览开幕",
        "docid": "7313545751265673728",
        "url": ""
    },
    {
        "title": "河北科学技术出版社《幼儿食育系列丛书》在北京首发，食育让孩子与土地、与生命建立连接",
        "docid": "7313556993539932709",
        "url": ""
    },
    {
        "title": "寒潮来袭 暖心行动丨她守护着一群智残孩子 一群人守护着她",
        "docid": "7313571809645920780",
        "url": ""
    }
]