[
    {
        "title": "给早产儿家长的8个建议|世界早产儿日",
        "docid": "7302456799003705906",
        "url": ""
    },
    {
        "title": "“潮州奴仔”创编童谣，幼儿园潮汕童谣教学有了新成果",
        "docid": "7302450015149507126",
        "url": ""
    },
    {
        "title": "小屁孩上来自我介绍，说出名字难倒众评委，真是要笑死了",
        "docid": "7275365247324521015",
        "url": "https://www.ixigua.com/7275365247324521015"
    },
    {
        "title": "异地两月后男子想和妻子一起睡，连哄带骗成功支开儿子，妻子看笑",
        "docid": "7292957369905414667",
        "url": "https://www.ixigua.com/7292957369905414667"
    },
    {
        "title": "女子月子11天吃掉20只鸡，娘家人见状又送来25只，好胃口让人折服",
        "docid": "7290753417306341888",
        "url": "https://www.ixigua.com/7290753417306341888"
    },
    {
        "title": "婆婆不在家的日子，90后父母如何带娃",
        "docid": "7299771578798047778",
        "url": "https://www.ixigua.com/7299771578798047778"
    },
    {
        "title": "全网最小的段子手姐弟，能演会说表情到位！爷爷遗传的搞笑基因",
        "docid": "7287147126700638757",
        "url": "https://www.ixigua.com/7287147126700638757"
    },
    {
        "title": "宝妈去洗澡让老公哄娃睡觉，出来一看顿时血压飙升，宝妈颜值亮了",
        "docid": "7300387653508301338",
        "url": "https://www.ixigua.com/7300387653508301338"
    },
    {
        "title": "女子坐月子婆婆每天炖鸡，月子过半还剩41只鸡，一旁老公表情亮了",
        "docid": "7278154324423737895",
        "url": "https://www.ixigua.com/7278154324423737895"
    },
    {
        "title": "孩子刚出生就要开始预防人贩子了！评论区的经历惊呆上万网友！",
        "docid": "7302270618311983650",
        "url": ""
    },
    {
        "title": "宝妈生第三胎又是个儿子，独自在产床上冷笑嘲讽：能不能换个性别",
        "docid": "7277420367587574331",
        "url": "https://www.ixigua.com/7277420367587574331"
    },
    {
        "title": "相差14岁姐姐给弟弟洗澡，弟弟用一首歌来感谢姐姐！",
        "docid": "7276137890801779259",
        "url": "https://www.ixigua.com/7276137890801779259"
    },
    {
        "title": "小尾巴动漫：沃夫一家参加装扮比赛 他们能赢吗？快来看看吧",
        "docid": "7291638369116193315",
        "url": "https://www.ixigua.com/7291638369116193315"
    },
    {
        "title": "90后姑姑和三岁侄子“打架”，全程互不相让把奶奶看懵，网友笑哭",
        "docid": "7281876531746767412",
        "url": "https://www.ixigua.com/7281876531746767412"
    },
    {
        "title": "五块钱在学校门口买的鸡仔，被小男孩养下蛋，出去溜达时满眼宠溺",
        "docid": "7283330672477864459",
        "url": "https://www.ixigua.com/7283330672477864459"
    },
    {
        "title": "宝宝坐飞机被漂亮空姐抱着，好奇张望后藏其怀里低笑，新手保护期",
        "docid": "7301894147374973466",
        "url": "https://www.ixigua.com/7301894147374973466"
    },
    {
        "title": "八岁的弟弟哄姐姐睡觉，爸爸进来在俩人的屁股上一人拍一下",
        "docid": "7301528188579447332",
        "url": "https://www.ixigua.com/7301528188579447332"
    },
    {
        "title": "6个月宝宝跋山涉水找爸妈，不停翻滚萌化网友：差点急的起来走了",
        "docid": "7294505139946455615",
        "url": "https://www.ixigua.com/7294505139946455615"
    },
    {
        "title": "辛普森一家：中国城在中国吗？预言未来",
        "docid": "7291518570612294144",
        "url": "https://www.ixigua.com/7291518570612294144"
    },
    {
        "title": "三胞胎不是在打架，就是准备打架中，网友：中间那个真是腹背受敌",
        "docid": "7272565681831281167",
        "url": "https://www.ixigua.com/7272565681831281167"
    },
    {
        "title": "虎妈育儿！应采儿用一句话，将朱丹引以为傲的教育观碾到渣都不剩",
        "docid": "7287529179891892755",
        "url": "https://www.ixigua.com/7287529179891892755"
    },
    {
        "title": "试管爸爸没有老婆，先有了孩子，有人觉得不如花钱先娶老婆，真傻",
        "docid": "7279279285251080723",
        "url": "https://www.ixigua.com/7279279285251080723"
    },
    {
        "title": "萌娃吃席被亲戚“敬酒”，下秒将双标演绎淋漓尽致：咋有两副面孔",
        "docid": "7279975043260482048",
        "url": "https://www.ixigua.com/7279975043260482048"
    },
    {
        "title": "儿子用玩具车教妈妈倒车入库，下一秒车看不下去了：就你叫方向盘",
        "docid": "7274842222154285622",
        "url": "https://www.ixigua.com/7274842222154285622"
    },
    {
        "title": "宝宝见爸爸回家大哭“诉苦”，手上一动作网友被逗乐：八成是装的",
        "docid": "7276033646774092346",
        "url": "https://www.ixigua.com/7276033646774092346"
    },
    {
        "title": "1岁多的哥哥穿着开裆裤，学着妈妈给3个月妹妹做操：宠妹狂魔上线",
        "docid": "7300395660904399399",
        "url": "https://www.ixigua.com/7300395660904399399"
    },
    {
        "title": "因为不好好喝奶被批评了几句，宝宝不肯转过头理妈妈",
        "docid": "7301588767473828391",
        "url": "https://www.ixigua.com/7301588767473828391"
    },
    {
        "title": "10个月宝宝突然站起来，妈妈激动抖腿后热泪盈眶：喜悦溢出屏幕",
        "docid": "7270787054164935179",
        "url": "https://www.ixigua.com/7270787054164935179"
    },
    {
        "title": "人贩子无处不在！这一幕太可怕了，要告诉孩子们提防陌生人！",
        "docid": "7284914449364812288",
        "url": "https://www.ixigua.com/7284914449364812288"
    },
    {
        "title": "苍龙对战蜘蛛哥斯拉，金刚与行星联手将其击败",
        "docid": "7270486475773477428",
        "url": "https://www.ixigua.com/7270486475773477428"
    },
    {
        "title": "沈阳姥爷怕外孙冷用力烧炕，宝宝无从下脚嗷嗷叫，脸上的表情亮了",
        "docid": "7292957268956414483",
        "url": "https://www.ixigua.com/7292957268956414483"
    },
    {
        "title": "奶猫大战三头飞龙，奶猫召唤火麒麟太可爱了",
        "docid": "7275286952654570020",
        "url": "https://www.ixigua.com/7275286952654570020"
    },
    {
        "title": "保姆阿姨请假7天再返家，宝宝愣了两秒委屈大哭，下一秒全家吃醋",
        "docid": "7290736109846430263",
        "url": "https://www.ixigua.com/7290736109846430263"
    },
    {
        "title": "宝宝想去角落拿手机，对妈妈“顶嘴”撒娇，老母亲怎么抵挡得住",
        "docid": "7278509216925811252",
        "url": "https://www.ixigua.com/7278509216925811252"
    },
    {
        "title": "6岁女儿被妈妈罚站直掉眼泪，一看颜值网友瞬间沦陷：她肯定没错",
        "docid": "7283334034288017978",
        "url": "https://www.ixigua.com/7283334034288017978"
    },
    {
        "title": "宝宝挨着妈妈睡觉，妈妈换位置后宝宝像开导航一般挪到妈妈身边！",
        "docid": "7278496866482782756",
        "url": "https://www.ixigua.com/7278496866482782756"
    },
    {
        "title": "统编版语文二年级上册：识字4 田家四季歌（精品课件+教案）",
        "docid": "7302420191718670848",
        "url": ""
    },
    {
        "title": "吸血鬼 vs 美人鱼 vs 凯蒂猫！ 监狱里的密室！",
        "docid": "7270809401081102911",
        "url": "https://www.ixigua.com/7270809401081102911"
    },
    {
        "title": "女子生完儿子被推出产房，满脸憔悴的望向丈夫，下秒对话令人心酸",
        "docid": "7282953173348811304",
        "url": "https://www.ixigua.com/7282953173348811304"
    },
    {
        "title": "女子教育女儿却被丈夫阻拦，紧紧护住小棉袄满眼心疼：生了俩儿子",
        "docid": "7272585988051108407",
        "url": "https://www.ixigua.com/7272585988051108407"
    },
    {
        "title": "独自带娃的一天，听说单身带娃不缺钱就是一个女人的巅峰状态",
        "docid": "7281942565270585913",
        "url": "https://www.ixigua.com/7281942565270585913"
    },
    {
        "title": "第一次带宝宝来看她的新房子，还没进门就欢喜得不得了，太可爱了",
        "docid": "7296301884892152331",
        "url": "https://www.ixigua.com/7296301884892152331"
    },
    {
        "title": "孩子的奥特曼金片，宝妈怀疑有黄金",
        "docid": "7301620256802341415",
        "url": "https://www.ixigua.com/7301620256802341415"
    },
    {
        "title": "模型车大件运输，现在玩具车这么厉害吗？",
        "docid": "7288680031277351424",
        "url": "https://www.ixigua.com/7288680031277351424"
    },
    {
        "title": "妈妈睡觉换位宝宝快速挪身旁，宝宝一个懒腰锁定目标：装导航了？",
        "docid": "7277420764171764260",
        "url": "https://www.ixigua.com/7277420764171764260"
    },
    {
        "title": "籼籼的语言天赋，6岁的萌娃说话方式，为何就能吸引万千粉丝关注",
        "docid": "7279357610178904576",
        "url": "https://www.ixigua.com/7279357610178904576"
    },
    {
        "title": "男孩当街疯狂哭闹打人，引众人围观，让妈妈害怕出门，原因很可笑",
        "docid": "7280485126432096822",
        "url": "https://www.ixigua.com/7280485126432096822"
    },
    {
        "title": "小女孩在台上表演，发现台下有人抽烟后反应太可爱：10后整顿社会",
        "docid": "7283697612115411516",
        "url": "https://www.ixigua.com/7283697612115411516"
    },
    {
        "title": "女儿早上啃玉米隔两粒啃一个坑，妈妈数落是不是闲的，龇牙后笑喷",
        "docid": "7281857677377045026",
        "url": "https://www.ixigua.com/7281857677377045026"
    },
    {
        "title": "爸爸给萌娃洗澡  妈妈记录， 萌娃的一个笑容萌化人心",
        "docid": "7272518909301883426",
        "url": "https://www.ixigua.com/7272518909301883426"
    },
    {
        "title": "第1集|阿凡提分鹅肉，结果把不好吃的鹅头分给国王！",
        "docid": "7302046091908743719",
        "url": "https://www.ixigua.com/7302046091908743719"
    },
    {
        "title": "爱吃青菜的大朋友小朋友",
        "docid": "7287897970757468730",
        "url": "https://www.ixigua.com/7287897970757468730"
    },
    {
        "title": "宝宝坐沙发上对准前方尿尿，呲出半米后把自己看呆，网友反应意外",
        "docid": "7295227496969175562",
        "url": "https://www.ixigua.com/7295227496969175562"
    },
    {
        "title": "胎儿在顺产中是如何娩出的呢？#科普 #顺产 #分娩 #宫缩 #原理",
        "docid": "7288554974479548947",
        "url": "https://www.ixigua.com/7288554974479548947"
    },
    {
        "title": "童年奢侈品，雷速登翼飞冲天遥控飞机你还记得吗？省流：没飞起来",
        "docid": "7276412858270024255",
        "url": "https://www.ixigua.com/7276412858270024255"
    },
    {
        "title": "可悠漫:文明乘坐地铁 沃夫学习给孕妇让座 不到处攀爬惹危险",
        "docid": "7290903258602832447",
        "url": "https://www.ixigua.com/7290903258602832447"
    },
    {
        "title": "美食动画：红色VS蓝色食物挑战，冰与火的交替，小蓝能完成任务？",
        "docid": "7281090753060110907",
        "url": "https://www.ixigua.com/7281090753060110907"
    },
    {
        "title": "原来这就是不偏心的好处？姐弟俩平时打架，关键时刻却担心对方",
        "docid": "7273408977630265913",
        "url": "https://www.ixigua.com/7273408977630265913"
    },
    {
        "title": "12岁儿子模仿妈妈做家务，全程怒吼抱怨，宝妈事后反省：像疯子",
        "docid": "7295218084200055308",
        "url": "https://www.ixigua.com/7295218084200055308"
    },
    {
        "title": "女子记录孩子“罪证”，坐车丢了一路白菜叶，不料妈妈刷到视频了",
        "docid": "7274138148173513274",
        "url": "https://www.ixigua.com/7274138148173513274"
    },
    {
        "title": "乌克兰媳妇说好不容易生了个混血宝宝，越来越像爸爸，混了个寂寞",
        "docid": "7299169418255270450",
        "url": "https://www.ixigua.com/7299169418255270450"
    },
    {
        "title": "宝宝要求爸爸在中国要说自己是中国人，在美国要说自己是美国人",
        "docid": "7290955906102395447",
        "url": "https://www.ixigua.com/7290955906102395447"
    },
    {
        "title": "闺女的作文没人性的家规，老师看了笑趴了，妈妈看了气坏了",
        "docid": "7289359953561813565",
        "url": "https://www.ixigua.com/7289359953561813565"
    },
    {
        "title": "2岁宝宝听音乐会默默流泪，妈妈一把抱住安慰",
        "docid": "7297081060876255782",
        "url": "https://www.ixigua.com/7297081060876255782"
    },
    {
        "title": "人工凹凸曼登场，赛鼓凹凸曼迟来的救援！（8）#原创动画 #二次元",
        "docid": "7292681795655926284",
        "url": "https://www.ixigua.com/7292681795655926284"
    },
    {
        "title": "萌娃跆拳道1打3完胜，沉着应战毫无畏惧，宝爸：以前他也是挨打的",
        "docid": "7285242018807153191",
        "url": "https://www.ixigua.com/7285242018807153191"
    },
    {
        "title": "开箱蛛丝发射器，据说能喷出电影里那种蛛丝？",
        "docid": "7271632120114741760",
        "url": "https://www.ixigua.com/7271632120114741760"
    },
    {
        "title": "7岁女孩学古筝两年弹出“金戈铁马”气势：“人筝合一”眼神坚毅",
        "docid": "7285268258993898003",
        "url": "https://www.ixigua.com/7285268258993898003"
    },
    {
        "title": "一岁女儿在家突然朝屋子四面行跪拜大礼，母亲：有点害怕",
        "docid": "7280719995267613196",
        "url": "https://www.ixigua.com/7280719995267613196"
    },
    {
        "title": "一八个月大宝宝为了吃奶，在妈妈面前卖惨，网友：萌翻了！",
        "docid": "7280713394057904674",
        "url": "https://www.ixigua.com/7280713394057904674"
    },
    {
        "title": "宝宝爬上爸爸肚子准备起跳，被爸爸预判  一把挡住",
        "docid": "7273636034192245300",
        "url": "https://www.ixigua.com/7273636034192245300"
    },
    {
        "title": "这幼儿园厨师长就是老大，撑起招生任务半边天，隔着屏幕流口水了",
        "docid": "7270057070853161532",
        "url": "https://www.ixigua.com/7270057070853161532"
    },
    {
        "title": "一岁小宝宝参加美食大赛，做出来的美食，竟连太阳公公都被吸引了",
        "docid": "7276411267777200701",
        "url": "https://www.ixigua.com/7276411267777200701"
    },
    {
        "title": "舅舅给外甥表演“隔空猛锤派大星”，每一拳都和动画片完美卡点",
        "docid": "7278901132599132726",
        "url": "https://www.ixigua.com/7278901132599132726"
    },
    {
        "title": "9个月宝宝突然会走路，爸妈大惊不敢相信！翻监控才发现事情经过",
        "docid": "7280009763784491578",
        "url": "https://www.ixigua.com/7280009763784491578"
    },
    {
        "title": "一拖二的我就是这样做饭的，哪有什么越大越好带，不同时期各种难",
        "docid": "7280825391416410643",
        "url": "https://www.ixigua.com/7280825391416410643"
    },
    {
        "title": "孩子的命是真大！这样的妈妈少点吧！",
        "docid": "7290359884703498752",
        "url": "https://www.ixigua.com/7290359884703498752"
    },
    {
        "title": "2023中国上海国际童书展“童”趣满满，一起重新认识这大且有趣的世界！",
        "docid": "7302454521425887763",
        "url": ""
    },
    {
        "title": "农村小爽弟弟的孩子就这样没了，这个家庭的天都塌了都接受不了！",
        "docid": "7302011255303176754",
        "url": "https://www.ixigua.com/7302011255303176754"
    },
    {
        "title": "萌娃上幼儿园，急匆匆地向车跑去。网友：说老实话，她怕赶不上车",
        "docid": "7281125113192251939",
        "url": "https://www.ixigua.com/7281125113192251939"
    },
    {
        "title": "最新一集：无敌妈妈手撕怪兽，脚踩大魔王",
        "docid": "7292313579963974185",
        "url": "https://www.ixigua.com/7292313579963974185"
    },
    {
        "title": "智商推理动画：谁说的对？",
        "docid": "7288151901026124288",
        "url": "https://www.ixigua.com/7288151901026124288"
    },
    {
        "title": "夫妻产前拍视频被医生叫走，丈夫一阵飞奔看懵众人：轮到他生了？",
        "docid": "7276335863397777961",
        "url": "https://www.ixigua.com/7276335863397777961"
    },
    {
        "title": "孩子问“亿”是最大单位吗，妈妈喋喋不休科普：原来亿真是小目标",
        "docid": "7278128391223116351",
        "url": "https://www.ixigua.com/7278128391223116351"
    },
    {
        "title": "男孩见父母楼道掐架，站一旁淡定围观沉默观看，下秒举动妈妈泪目",
        "docid": "7294877283121267210",
        "url": "https://www.ixigua.com/7294877283121267210"
    },
    {
        "title": "宝宝哭闹不止，家长把娃枕在猫咪背上竟秒入睡，猫咪的表情亮了",
        "docid": "7270344944131408423",
        "url": "https://www.ixigua.com/7270344944131408423"
    },
    {
        "title": "孩子参观博物馆时看到“妈妈”，爸爸一脸震惊，再三确认",
        "docid": "7287797719945445946",
        "url": "https://www.ixigua.com/7287797719945445946"
    },
    {
        "title": "女子拍到妈妈区别对待外孙孙子，故意推搡急哭小孩，瞬间内心复杂",
        "docid": "7274809384394785292",
        "url": "https://www.ixigua.com/7274809384394785292"
    },
    {
        "title": "宝妈对比孩子发量，结局让宝妈傻眼，网友：橡皮圈都比辫子粗",
        "docid": "7269597681100849727",
        "url": "https://www.ixigua.com/7269597681100849727"
    },
    {
        "title": "2岁萌娃打翻整瓶酱油，妈妈沿着脚印逐渐崩溃，走进卧室顿时傻眼",
        "docid": "7274843835060978235",
        "url": "https://www.ixigua.com/7274843835060978235"
    },
    {
        "title": "医生给新生宝宝做检查，让其握手反复快速提拉，一旁奶爸表情亮了",
        "docid": "7277818356550828602",
        "url": "https://www.ixigua.com/7277818356550828602"
    },
    {
        "title": "宝妈吐槽家里没地方睡，晒出1米8的大床后网友秒懂：甜蜜的负担！",
        "docid": "7295276934123618856",
        "url": "https://www.ixigua.com/7295276934123618856"
    },
    {
        "title": "月嫂合同到期，临走前做各种面食塞满冰箱，宝妈打开冰箱感动不已",
        "docid": "7279335064637768247",
        "url": "https://www.ixigua.com/7279335064637768247"
    },
    {
        "title": "萌娃在被窝玩捉迷藏露出小屁股，被妈妈戳后迅速捂屁股：被萌化了",
        "docid": "7295197550410203688",
        "url": "https://www.ixigua.com/7295197550410203688"
    },
    {
        "title": "女儿问爸爸有没有儿时视频，爸爸发来命名为“珍藏勿删”的压缩包",
        "docid": "7294114494388404788",
        "url": "https://www.ixigua.com/7294114494388404788"
    },
    {
        "title": "童心未泯学画画：亲子互动体验，放飞想象的翅膀",
        "docid": "7301940318834885132",
        "url": ""
    },
    {
        "title": "灞桥区席王街道中心学校中层干部大练兵席王街道中心幼儿园赛点活动",
        "docid": "7302397758479303231",
        "url": ""
    },
    {
        "title": "【周日预告】袁晶医生|哪些孕妈会早产？早产有什么影响？",
        "docid": "7302187746519450146",
        "url": ""
    },
    {
        "title": "妈妈分享跟宝宝对话，可爱表情萌翻众人，宝宝每说一下都抖一下肉",
        "docid": "7297075199533384218",
        "url": "https://www.ixigua.com/7297075199533384218"
    },
    {
        "title": "父亲带着自闭症儿子送外卖，意外发现儿子的惊人天赋",
        "docid": "7281107857184031267",
        "url": "https://www.ixigua.com/7281107857184031267"
    },
    {
        "title": "萌娃弄断妈妈的多肉，神操作逗坏网友，网友：满满的求生欲！",
        "docid": "7300094036281393705",
        "url": "https://www.ixigua.com/7300094036281393705"
    },
    {
        "title": "萌娃摸着自己圆滚滚的肚子，好奇的一把掀开",
        "docid": "7294465262492123674",
        "url": "https://www.ixigua.com/7294465262492123674"
    },
    {
        "title": "妈妈晒颜值超高的小宝宝，太漂亮了，这娃娃长得跟整容了一样",
        "docid": "7288610212259299852",
        "url": "https://www.ixigua.com/7288610212259299852"
    },
    {
        "title": "小男孩上课盯着女孩看，被小女孩一巴掌扇了过去",
        "docid": "7283677310627250722",
        "url": "https://www.ixigua.com/7283677310627250722"
    },
    {
        "title": "萌萌哒！广东萌娃看小鸭子爬楼，完美诠释了什么叫作“目瞪口呆”",
        "docid": "7294525897938305571",
        "url": "https://www.ixigua.com/7294525897938305571"
    },
    {
        "title": "女儿教爸爸轮滑被气的不行，狂怼老爸惹网友爆笑：我脑瓜子要疯了",
        "docid": "7279712155803484687",
        "url": "https://www.ixigua.com/7279712155803484687"
    },
    {
        "title": "狗生导师鲁叔，你们知道他的配音是谁吗？",
        "docid": "7299790134990668329",
        "url": "https://www.ixigua.com/7299790134990668329"
    },
    {
        "title": "宝宝“自动跟踪”妈妈位置睡觉，妈妈哭笑不得：装了定位器？",
        "docid": "7281838554823852585",
        "url": "https://www.ixigua.com/7281838554823852585"
    },
    {
        "title": "萌娃烤肠被小姨一口吃掉，瞬间变脸转身边跑边哭，去搬重量级救兵",
        "docid": "7291091261833314850",
        "url": "https://www.ixigua.com/7291091261833314850"
    },
    {
        "title": "男孩偶遇白化病女孩被吓哭，妈妈笑着安慰一句话太暖：她是天使呀",
        "docid": "7281899698674369059",
        "url": "https://www.ixigua.com/7281899698674369059"
    },
    {
        "title": "萌娃进厨房放走螃蟹反被围攻，缩在冬瓜上避难崩溃痛哭，妈妈爆笑",
        "docid": "7278517494464610875",
        "url": "https://www.ixigua.com/7278517494464610875"
    },
    {
        "title": "宝宝抓周嫌金手镯太碍事，摘下一把扔掉，随后抓起一物网友笑喷",
        "docid": "7277189813588263439",
        "url": "https://www.ixigua.com/7277189813588263439"
    },
    {
        "title": "爸妈未醒8个月宝宝不哭闹独自玩耍，亲妈妈一下后，爸爸反应亮了",
        "docid": "7285964288152470079",
        "url": "https://www.ixigua.com/7285964288152470079"
    },
    {
        "title": "4岁女孩对着电视自学舞蹈，扭腰翘臀舞姿娴熟，不料遭到亲妈吐槽",
        "docid": "7288592683952669238",
        "url": "https://www.ixigua.com/7288592683952669238"
    },
    {
        "title": "妈妈晒女儿和闺蜜儿子，手牵手散步累了背着走：青梅竹马的友情",
        "docid": "7296403005296149028",
        "url": "https://www.ixigua.com/7296403005296149028"
    },
    {
        "title": "妈妈骂完孩子后觉得是自己错了",
        "docid": "7272945016786551359",
        "url": "https://www.ixigua.com/7272945016786551359"
    },
    {
        "title": "男子产房外一直念叨生女孩，网友一看乐了：大家一起喊生男孩",
        "docid": "7274133113834471977",
        "url": "https://www.ixigua.com/7274133113834471977"
    },
    {
        "title": "小男孩在现场唱《爱我别走》，站在旁边的人表情亮了",
        "docid": "7280471135068619299",
        "url": "https://www.ixigua.com/7280471135068619299"
    },
    {
        "title": "不惯着！吃个早饭女儿作没3万的项链，妈妈用女儿小金库买金手镯",
        "docid": "7280794985501459005",
        "url": "https://www.ixigua.com/7280794985501459005"
    },
    {
        "title": "爸爸带女儿散步减肥，被女儿的一句话暖到：你变成什么样我都喜欢",
        "docid": "7278568594873516605",
        "url": "https://www.ixigua.com/7278568594873516605"
    },
    {
        "title": "爸爸工作调动去外地，2岁女儿睡前哭着找爸，母女坐6小时高铁奔赴",
        "docid": "7300016784449471010",
        "url": "https://www.ixigua.com/7300016784449471010"
    },
    {
        "title": "10个月的宝宝趁妈妈不注意，竟然偷偷独自下车，动作如此丝滑",
        "docid": "7301303545054429708",
        "url": "https://www.ixigua.com/7301303545054429708"
    },
    {
        "title": "妈妈放轻松，宝宝圆圆的头，呼之欲出咯~！#新生儿 #顺产 #宝宝",
        "docid": "7281202407764460088",
        "url": "https://www.ixigua.com/7281202407764460088"
    },
    {
        "title": "男孩不想斗舞被硬拉上场，音乐响起动作惊艳全场：没想到是王者",
        "docid": "7279630117214061071",
        "url": "https://www.ixigua.com/7279630117214061071"
    },
    {
        "title": "以前教育孩子：值得大家学习借鉴，现在教育孩子：打击式反面教材",
        "docid": "7283772162723611196",
        "url": "https://www.ixigua.com/7283772162723611196"
    },
    {
        "title": "为了制止2岁闺女吃手指，偷偷用柠檬汁给她洗手，结果能戒掉吗？",
        "docid": "7300024409707217449",
        "url": "https://www.ixigua.com/7300024409707217449"
    },
    {
        "title": "女孩表演遇舞伴捣乱，一边完成动作一边抽空揍舞伴，场面太好笑",
        "docid": "7293349008414769727",
        "url": "https://www.ixigua.com/7293349008414769727"
    },
    {
        "title": "妈妈拍下父女俩相处方式，硬生生处成了兄弟",
        "docid": "7277944822294708772",
        "url": "https://www.ixigua.com/7277944822294708772"
    },
    {
        "title": "原谅你了！小萌娃偷偷摸摸“拜老爷”，原因令人哭笑不得",
        "docid": "7294103233729921573",
        "url": "https://www.ixigua.com/7294103233729921573"
    },
    {
        "title": "宝宝闹脾气不愿意配合吃饭，90后宝妈索性自己吃光，宝宝反应亮了",
        "docid": "7283737074040046099",
        "url": "https://www.ixigua.com/7283737074040046099"
    },
    {
        "title": "曾仕强说：一个家庭里，子女常去这三个地方，长大会很有钱",
        "docid": "7301363623606206995",
        "url": ""
    },
    {
        "title": "看完你还敢让孩子把同学往家里带吗？",
        "docid": "7301261119791186432",
        "url": ""
    },
    {
        "title": "为啥双胞胎的东西都要一模一样，评论区宝妈们的回答无奈又好笑",
        "docid": "7297551241490891283",
        "url": ""
    },
    {
        "title": "同老公分房睡十七年了，但是昨天晚上我却专门把他喊回了主卧！",
        "docid": "7300052579336372736",
        "url": ""
    },
    {
        "title": "五万人在线崩溃，到底什么样的衣服才配得上全世界最漂亮的女人？",
        "docid": "7278890486457287187",
        "url": ""
    },
    {
        "title": "在产科一定要谨防新生儿被偷！网友的回复一个比一个炸，刷新三观",
        "docid": "7301736059703018047",
        "url": ""
    },
    {
        "title": "20分钟男孩眼珠被“熔化”，这东西每家都有，家长一定要高度警惕",
        "docid": "7290462887771128378",
        "url": ""
    },
    {
        "title": "一个家最大的灾难，不是贫穷，而是培养出一个媚俗又无知的孩子",
        "docid": "7289015112831549967",
        "url": ""
    },
    {
        "title": "夫妻之中，谁的基因决定了孩子的智商和长相？专家的回答很统一",
        "docid": "7283871713343013436",
        "url": ""
    },
    {
        "title": "孩子最讨厌的8种爸爸",
        "docid": "7270864646474007051",
        "url": ""
    },
    {
        "title": "你的孩子对你说过最毛骨悚然的话是什么",
        "docid": "7270807708943729186",
        "url": ""
    },
    {
        "title": "6旬奶奶跳广场舞泡吧，2年弄丢孙子4次，被儿子赶出家门后喊冤",
        "docid": "7272643183169913384",
        "url": ""
    },
    {
        "title": "美国34亿美元大窃案告破！中国移民自闭症后代作案！惊人内幕曝光",
        "docid": "7300743954579751474",
        "url": ""
    },
    {
        "title": "哈哈哈，有些父母看似情绪稳定，实际上早就疯了",
        "docid": "7301205269680243251",
        "url": ""
    },
    {
        "title": "每个孩子都应该看的，十张图揭秘出生的过程，感恩妈妈生下我们",
        "docid": "7271282516634386979",
        "url": ""
    },
    {
        "title": "看了咱们国家成为，生育率最低的国家之一，评论区都这么搞笑吗",
        "docid": "7276660305622221364",
        "url": ""
    },
    {
        "title": "宝妈亲历：生娃不只有痛，这两种“爽”感虽不好开口，却让人难忘",
        "docid": "7274213108209500712",
        "url": ""
    },
    {
        "title": "有大神预测：若新生人口无法实现逆转，2024年起将出现三大变化！",
        "docid": "7298999251987137050",
        "url": ""
    },
    {
        "title": "幼儿园孩子胡说八道有多离谱？完全是一本正经！家长真的注意了",
        "docid": "7296043942506725899",
        "url": ""
    },
    {
        "title": "“老东西，你吵到我看电视了”，孙子指着爷爷骂，妈妈反手一巴掌",
        "docid": "7289259724808553015",
        "url": ""
    },
    {
        "title": "吃1个它，等于5个苹果！是公认的“全科医生”，这么吃孩子蹭蹭长",
        "docid": "7301856256392970791",
        "url": ""
    },
    {
        "title": "一个人去别人家里，带这三样东西，就是低情商的表现",
        "docid": "7294646417464001059",
        "url": ""
    },
    {
        "title": "丈夫与父母一起欺负妻子，妻子怀孕不让吃菜，坐月子天天吃南瓜",
        "docid": "7290359242300047933",
        "url": ""
    },
    {
        "title": "中年妈妈崩溃实录：等男孩开窍，就像在等中彩票",
        "docid": "7302042838961930804",
        "url": ""
    },
    {
        "title": "为什么养孩子要三岁不离手、五岁不离眼？评论区的经历让人惊呆了",
        "docid": "7285698574632141372",
        "url": ""
    },
    {
        "title": "“生二胎后，越来越讨厌老大”，宝妈吐露心声，引起一众宝妈共鸣",
        "docid": "7270712913323721272",
        "url": ""
    },
    {
        "title": "神奇的父子八大定律",
        "docid": "7301951494696354316",
        "url": ""
    },
    {
        "title": "男孩生长发育顺序，家长存好了，别错过孩子长高！",
        "docid": "7300921510112543284",
        "url": ""
    },
    {
        "title": "给孩子撑腰的密码",
        "docid": "7278539063588700706",
        "url": ""
    },
    {
        "title": "注意！这真的不是玩具……",
        "docid": "7278613447221232191",
        "url": ""
    },
    {
        "title": "你以为的那些“坏习惯”，真的不用改！",
        "docid": "7298667196585099839",
        "url": ""
    },
    {
        "title": "天气越冷越该吃！它是公认的“脾胃修复剂”，孩子爱吃长得快",
        "docid": "7294431768173183503",
        "url": ""
    },
    {
        "title": "很多小孩从一出生就输了，别再相信那些“苦难是福”的毒鸡汤了！",
        "docid": "7302343840743178779",
        "url": ""
    },
    {
        "title": "孩子为啥不发烧了，咳嗽越来越多？",
        "docid": "7300100523372511782",
        "url": ""
    },
    {
        "title": "女人生孩子，“娘家人”要不要过来？几种情况离得再远都得请过来",
        "docid": "7287928266194223668",
        "url": ""
    },
    {
        "title": "外国妈妈：我为什么选择在中国抚养孩子",
        "docid": "7302366816872038964",
        "url": ""
    },
    {
        "title": "你身边有没有特别馋的人?馋和没教养是两码事",
        "docid": "7276659132563063337",
        "url": ""
    },
    {
        "title": "幼儿园孩子胡说八道有多离谱?完全是一本正经！看完评论区我呆住",
        "docid": "7296336382404985398",
        "url": ""
    },
    {
        "title": "男孩为什么这么费妈，终于找到原因了，原来真是有科学依据的",
        "docid": "7287787972160848399",
        "url": ""
    },
    {
        "title": "28岁妈妈，产检无异常，39周顺产一漂亮男宝，5个月后不敢抱",
        "docid": "7277874043787805241",
        "url": ""
    },
    {
        "title": "新生儿这么大，怎么从狭窄的产道生出来的？8张高清图告诉你",
        "docid": "7282210539856773672",
        "url": ""
    },
    {
        "title": "14年前湖南女子生下两斤“猴娃”，马戏团想花五万买下，如今怎样",
        "docid": "7290499330002371109",
        "url": ""
    },
    {
        "title": "白天出生和晚上出生的娃，哪个智商更高？科学的解释让人意外",
        "docid": "7296859929099502134",
        "url": ""
    },
    {
        "title": "人均5万，县城的天价月子中心，专门收割“小镇贵妇”",
        "docid": "7296776600664818212",
        "url": ""
    },
    {
        "title": "女娲造人出错了？科学家表示人类都是早产儿，足胎需要21个月",
        "docid": "7301973658254574132",
        "url": ""
    },
    {
        "title": "孙子过生日，爷爷包了一万红包，结果不到一天，一万变成了两万",
        "docid": "7298831675684264268",
        "url": ""
    },
    {
        "title": "如果你家孩子是个“显眼包”，恭喜你！这是好事",
        "docid": "7276625561848480316",
        "url": ""
    },
    {
        "title": "比水稻还古老的粮食,竟一直被忽略?大人孩子的理想食物,搅搅就行",
        "docid": "7283387237759320576",
        "url": ""
    },
    {
        "title": "领悟啥道理后你的人生从此轻松起来？网友：女人生娃前要明白这点",
        "docid": "7301324853507195427",
        "url": ""
    },
    {
        "title": "儿科医生遇到过哪些离谱的事件？真的有这么离谱吗？",
        "docid": "7275112238993064507",
        "url": ""
    },
    {
        "title": "女性最晚生二胎的年龄？超过这个岁数就不建议生了！",
        "docid": "7280086233949372943",
        "url": ""
    },
    {
        "title": "生男生女看孕肚到底准不准",
        "docid": "7283716665903383095",
        "url": ""
    },
    {
        "title": "为什么不能乱抠肚脐眼？原来肚脐眼连的根本不是肠子！涨知识了",
        "docid": "7283811948423365175",
        "url": ""
    },
    {
        "title": "老人带娃，带到多大最合适？过来人：最好到孩子这个年龄段要退出",
        "docid": "7290109856265110035",
        "url": ""
    },
    {
        "title": "头胎是女儿好还是儿子好？先生哪个差别很大，父母别小瞧了",
        "docid": "7292359651134521894",
        "url": ""
    },
    {
        "title": "娃多大开始认字好？过早易笨？过晚错过脑发育期！",
        "docid": "7298964974892991026",
        "url": ""
    },
    {
        "title": "无奈！医生妈妈终究选择放弃……",
        "docid": "7275883032777851427",
        "url": ""
    },
    {
        "title": "宝宝几个月头部就定型，睡不过来了？超过这个月份，就别再折腾了",
        "docid": "7298927968754090507",
        "url": ""
    },
    {
        "title": "不同思维的父母对待孩子的态度",
        "docid": "7298874235571896867",
        "url": ""
    },
    {
        "title": "多说些让孩子开心的话，可以治愈一生",
        "docid": "7289674409940746809",
        "url": ""
    },
    {
        "title": "一直想要个孩子，偏方说同房时候垫个枕头在屁股下有奇效",
        "docid": "7298899108880859682",
        "url": ""
    },
    {
        "title": "如果不生二宝呢？对面沉默了",
        "docid": "7301979187764789796",
        "url": ""
    },
    {
        "title": "一个孩子最大的幸福：童年被允许做这4件事",
        "docid": "7291842167423861289",
        "url": ""
    },
    {
        "title": "孩子穿过的衣服可以送人，但有3样东西最好别送，亲戚给你也别要",
        "docid": "7291263693806060073",
        "url": ""
    },
    {
        "title": "面对暴雨，广州主打的就是“情绪稳定”，这就是我爱广东的理由",
        "docid": "7276733354794598975",
        "url": ""
    },
    {
        "title": "既要个人自由与空间，又要老人带孩子？权利与义务应对等",
        "docid": "7288004475380384271",
        "url": ""
    },
    {
        "title": "山姆最值得买的美食 top 20！配料干净，有娃家庭无限回购",
        "docid": "7293795928581014067",
        "url": ""
    },
    {
        "title": "宝宝为什么喜欢“挖掘机”？看似简单的问题，其实暗示着心理学",
        "docid": "7274606549316944444",
        "url": ""
    },
    {
        "title": "40岁女子做试管婴儿喜得双胞胎，1年半后找上医生：早知道不生了",
        "docid": "7272288289326006818",
        "url": ""
    },
    {
        "title": "4种“乳名”不要再给孩子取了，不好听不说，还容易伤娃自尊",
        "docid": "7288999508795621888",
        "url": ""
    },
    {
        "title": "亲子间，一定要谈钱，而且要用这种方式谈",
        "docid": "7293350913941668352",
        "url": ""
    },
    {
        "title": "少问孩子\"要不要、好不好\"，换个方式和他说",
        "docid": "7293691630023115302",
        "url": ""
    },
    {
        "title": "主动学习的孩子原来是这么培养出来的",
        "docid": "7276288512872759845",
        "url": ""
    },
    {
        "title": "爽身粉致癌？藏在滑石粉背后的“元凶”",
        "docid": "7301982397485138484",
        "url": ""
    },
    {
        "title": "这6个特征大概率会遗传，快来看看孩子继承了你的哪些优良基因吧",
        "docid": "7279600921435210296",
        "url": ""
    },
    {
        "title": "1岁婴儿火车上18小时不吵不闹，母亲毫不关心，警察一看发现问题",
        "docid": "7280148160297714236",
        "url": ""
    },
    {
        "title": "戒不掉的奶嘴，换不掉的毛毯！孩子“恋物”的原因，父母根本没懂",
        "docid": "7276282451399000611",
        "url": ""
    },
    {
        "title": "男孩子脸上有这3种特征，将来很有福气，3种都有的家长偷着笑吧",
        "docid": "7276287819616829992",
        "url": ""
    },
    {
        "title": "孩子到了这个时候，就该“告别”尿不湿了，家长不要吝啬舍不得",
        "docid": "7286069290104144421",
        "url": ""
    },
    {
        "title": "惩罚孩子很管用的九个方法，不用打不用骂",
        "docid": "7271528652985516544",
        "url": ""
    },
    {
        "title": "超生二胎被罚款1.8万，25年后，这个超生的二胎娃成为江苏首富",
        "docid": "7302342459735147062",
        "url": ""
    },
    {
        "title": "哺乳期奶不够吃怎么办？",
        "docid": "7270695740744172091",
        "url": ""
    },
    {
        "title": "平时奶奶带孩子最多，女儿却跟妈妈最亲，找到原因后大伙都羡慕了",
        "docid": "7287569757590078007",
        "url": ""
    },
    {
        "title": "很后悔幼儿园三年，踩坑无数！",
        "docid": "7280876029072228927",
        "url": ""
    },
    {
        "title": "我也不想买啊！可是这些「带娃好物」又便宜又好用",
        "docid": "7299686226460983847",
        "url": ""
    },
    {
        "title": "如果你发现身边的亲人都很自私、没人情味儿，请坚持做这3件事",
        "docid": "7280409686292660794",
        "url": ""
    },
    {
        "title": "潍坊市产前筛查率达100％，从源头上降低出生缺陷发生风险",
        "docid": "7302076837977440804",
        "url": ""
    },
    {
        "title": "女儿的婚姻好不好，跟父亲的教养关系太大了",
        "docid": "7289290025798418996",
        "url": ""
    },
    {
        "title": "幼儿园小孩子要不要参加各种兴趣班？",
        "docid": "7275149652884718115",
        "url": ""
    },
    {
        "title": "壹线蹲点丨产科里的男医生",
        "docid": "7302615402268623372",
        "url": ""
    },
    {
        "title": "持续5年帮助生病同学，这名高中男孩获“潮州好人”",
        "docid": "7302649056256950820",
        "url": ""
    },
    {
        "title": "只有一个孩子的父母，五十岁后，要给自己留几条退路",
        "docid": "7291864049397088807",
        "url": ""
    },
    {
        "title": "16句“神回复”，搞定和孩子的沟通难题",
        "docid": "7295945322809917993",
        "url": ""
    },
    {
        "title": "原创IP“米米特特身体玩具书”亮相上海国际童书展",
        "docid": "7302642758630933028",
        "url": ""
    },
    {
        "title": "“暗示力量”有多可怕，有些话不要对孩子说",
        "docid": "7288574699511267895",
        "url": ""
    },
    {
        "title": "世界早产儿日丨助力“生命闯关” 呵护“早到的天使”",
        "docid": "7302296555724636672",
        "url": ""
    },
    {
        "title": "洗澡、游泳、藏猫猫……幼儿行为启蒙，读这套绘本就对啦！",
        "docid": "7302642278647218723",
        "url": ""
    },
    {
        "title": "用心服务，用爱呵护每一缕阳光，这个街道首个社区宝宝屋试运营！",
        "docid": "7302430742033220147",
        "url": ""
    },
    {
        "title": "支原体肺炎、咳嗽感冒和肺炎如何区分？学会这几招判断方法",
        "docid": "7294445173260583459",
        "url": ""
    },
    {
        "title": "产妇顺产后2—4小时要尽快排尿",
        "docid": "7302632647245906472",
        "url": ""
    },
    {
        "title": "全职妈妈伸手要钱卑微吗？网友回复：我家都是五十五十的给！",
        "docid": "7294099975695303187",
        "url": ""
    },
    {
        "title": "不欠祖国只欠父母？谬论！写给我未来的孩子，有国才有家。",
        "docid": "7277449648254550568",
        "url": ""
    },
    {
        "title": "要想宝宝脾胃好，要做到“两坚持，三不做”！（特别家教1484期）",
        "docid": "7289767879594164772",
        "url": ""
    },
    {
        "title": "惯子如杀子，10大溺爱行为要警惕；父母是孩子最好的老师",
        "docid": "7273850161288462884",
        "url": ""
    },
    {
        "title": "东莞光明眼科医院：准妈妈和新手妈妈能做近视手术吗？",
        "docid": "7302269986783953423",
        "url": ""
    },
    {
        "title": "24款超好吃的面条，做法简单又好吃！",
        "docid": "7293700353508573748",
        "url": ""
    },
    {
        "title": "启橙壳壳椅Pro安全座椅荣获G-Mark设计大奖",
        "docid": "7301979915027546650",
        "url": ""
    },
    {
        "title": "养育孩子少用表扬多用鼓励",
        "docid": "7277726182475481615",
        "url": ""
    },
    {
        "title": "注意了！这几项运动不利于孩子生长发育",
        "docid": "7280437037734511141",
        "url": ""
    },
    {
        "title": "孩子越来越强大，是妈妈把这些交给了他",
        "docid": "7269601804999901752",
        "url": ""
    },
    {
        "title": "山东姑娘李雪珂：身家过亿，未婚生下混血三胞胎，声称不需要男人",
        "docid": "7295678707397001782",
        "url": ""
    },
    {
        "title": "智商3岁“天才指挥家”舟舟，繁华逝去，谎言过后又是怎样的人生",
        "docid": "7269696092151743036",
        "url": ""
    },
    {
        "title": "子女有以下习惯，大多不会“孝顺”，父母要给自己留后路",
        "docid": "7279455137276609087",
        "url": ""
    },
    {
        "title": "妈妈请在我不开心的时候，这样爱我，好吗？",
        "docid": "7283304697291768335",
        "url": ""
    },
    {
        "title": "家庭最大的悲哀不是没钱，是父母六七十岁了，还在做这3件糊涂事",
        "docid": "7273293702813581884",
        "url": ""
    },
    {
        "title": "蟑螂飞进宝宝的耳朵，妈妈“两个拒绝”救了孩子，医生称赞高明",
        "docid": "7286354649429377595",
        "url": ""
    },
    {
        "title": "快来看看0-12个月的人类小幼崽都会干嘛吧！",
        "docid": "7297526763360420404",
        "url": ""
    },
    {
        "title": "避免孩子成为讨好型人格，常说这些话",
        "docid": "7290424573806985788",
        "url": ""
    },
    {
        "title": "坐月子错误观念大盘点",
        "docid": "7288597930310107689",
        "url": ""
    },
    {
        "title": "孩子“地包天”需重视，千万别错过最佳治疗时间",
        "docid": "7272945042544001571",
        "url": ""
    },
    {
        "title": "一个家庭富不起来的原因，是因为有以下16种情况",
        "docid": "7300164727232971273",
        "url": ""
    },
    {
        "title": "女孩患罕见病，4岁父亲入狱，妈妈靠她直播，吸粉200万当网红",
        "docid": "7290852436393361981",
        "url": ""
    },
    {
        "title": "孩子出不出色跟父亲关系很大，这些事妈妈不要管，交给爸爸来完成",
        "docid": "7288173578275897917",
        "url": ""
    },
    {
        "title": "生了，劝大家千万不要因为无知落下一身病！",
        "docid": "7278228278362980899",
        "url": ""
    },
    {
        "title": "11年前，最美女教师为救学生失去了双腿，收到1000多万捐款，如今她过得怎样了？",
        "docid": "7272545319781925412",
        "url": ""
    },
    {
        "title": "孙女上幼儿园一周，颠覆了我对幼教方面的认知",
        "docid": "7276795731158155830",
        "url": ""
    },
    {
        "title": "警惕！这个病毒专挑孩子“下手”，尚无特效药",
        "docid": "7277838882152956451",
        "url": ""
    },
    {
        "title": "产后喝这个汤太好了，太鲜太美味了！连喝两大碗！",
        "docid": "7280396266834608640",
        "url": ""
    },
    {
        "title": "如果过早让宝宝脱掉纸尿裤，对宝宝是有害的！这个时候最合适！",
        "docid": "7272383537310777895",
        "url": ""
    },
    {
        "title": "一定要教孩子会吵架：如果家有女儿，一定要这样鼓励她",
        "docid": "7281976796369928758",
        "url": ""
    },
    {
        "title": "幼儿园必背古诗100首～更新版",
        "docid": "7281580647112606219",
        "url": ""
    },
    {
        "title": "万万没想到，孩子刚生在产房就开始防人贩子了！来看网友亲身经历",
        "docid": "7302099366368592425",
        "url": ""
    },
    {
        "title": "希望80后不止我们夫妻俩，快40了还生个二胎来玩玩！评论区太扎心",
        "docid": "7300206552223646223",
        "url": ""
    },
    {
        "title": "如果当初没有马寅初的人口论，没有计划生育，中国将会怎样？",
        "docid": "7302647812842406400",
        "url": ""
    },
    {
        "title": "宝宝出生时“几斤几两”，暗示智商的高低？医生：最佳标准在这里",
        "docid": "7283056528800612920",
        "url": ""
    },
    {
        "title": "我家每周至少吃3次！护眼防便秘，不给宝宝吃就亏了！",
        "docid": "7271178619098219027",
        "url": ""
    },
    {
        "title": "39岁妈妈，10年生6娃，为省钱浴缸生子，逼疯公婆，却还想再生",
        "docid": "7274851216620864019",
        "url": ""
    },
    {
        "title": "又是羊水栓塞！南宁二胎妈妈命悬一线，幸好有他们",
        "docid": "7301665220911628839",
        "url": ""
    },
    {
        "title": "家有男孩，有3个地方不能“穷养”，儿子长大后，会感谢你的大方",
        "docid": "7285240904510734863",
        "url": ""
    },
    {
        "title": "重庆酉阳：“慧育中国•山村入户早教计划”为山区儿童打开“希望之窗”",
        "docid": "7301934979683074572",
        "url": ""
    },
    {
        "title": "丈夫陪妻子孕检，医生却故意将老公支走，医生的话让孕妇感动不已",
        "docid": "7298261089458849780",
        "url": ""
    },
    {
        "title": "大人总是把审美强加给孩子？看看这些真相，思考我们的行为",
        "docid": "7302691032314708534",
        "url": ""
    },
    {
        "title": "千万注意！别再给孩子玩萝卜刀了，其中的危害你知道吗？",
        "docid": "7283796073154396711",
        "url": ""
    },
    {
        "title": "家庭的松弛感会让孩子幸福感爆棚",
        "docid": "7294121683911410227",
        "url": ""
    },
    {
        "title": "读了这些后保证你不再吼孩子了",
        "docid": "7294993176933433867",
        "url": ""
    },
    {
        "title": "养育男孩千万不要硬碰硬",
        "docid": "7278865415009255975",
        "url": ""
    },
    {
        "title": "娃上小学后才清楚“公立”和“私立”幼儿园的差别，真后悔选错了",
        "docid": "7277126047647367691",
        "url": ""
    },
    {
        "title": "学生护眼灯怎么选？前十品牌都有谁？买错白花钱，更伤害孩子眼睛",
        "docid": "7302335790649213440",
        "url": ""
    },
    {
        "title": "减少妊娠纹，做一个美丽孕妈妈",
        "docid": "7302689586852184616",
        "url": ""
    },
    {
        "title": "这些不花钱的仪式感，却能治愈孩子的一生！家长保存收藏给孩子看",
        "docid": "7288505560864489984",
        "url": ""
    },
    {
        "title": "含钙量是牛奶的7倍，每天2块孩子长高个，妈妈不用愁！",
        "docid": "7281095536671736320",
        "url": ""
    },
    {
        "title": "秋后多吃这“白色食材”，越吃脾胃越舒服！幸福感超高",
        "docid": "7293011428637262388",
        "url": ""
    },
    {
        "title": "湖北女教师生下脑瘫儿被丈夫抛弃，培养儿子29年成为哈佛硕士",
        "docid": "7291128984371757608",
        "url": ""
    },
    {
        "title": "妈妈培养勇敢小孩这么说",
        "docid": "7281891213525991995",
        "url": ""
    },
    {
        "title": "孩子白天不咳晚上咳，吃止咳药也没用，一定要去查查是不是这个病",
        "docid": "7291513625016746557",
        "url": ""
    },
    {
        "title": "宝宝三岁后，多和他聊这7类话题，越聊越聪明！",
        "docid": "7288677363666616890",
        "url": ""
    },
    {
        "title": "为您服务 | “依法带娃”既是“家事”也是“国事”",
        "docid": "7301960719854453287",
        "url": ""
    },
    {
        "title": "我不许你还没给孩子准备这九种美味可口的早餐！简单又好吃！",
        "docid": "7287589128408678971",
        "url": ""
    },
    {
        "title": "长期处于“精神内耗”的孩子，身上有4个明显习惯，家长要注意了",
        "docid": "7269775493296177703",
        "url": ""
    },
    {
        "title": "中国老龄化问题的缩影!“计划生育”先进单位，出现消失的年轻化",
        "docid": "7291973315303244322",
        "url": ""
    },
    {
        "title": "揭秘宝宝吃奶的“神秘力量”，竟然能顶翻一头成年牛？",
        "docid": "7302094522572390922",
        "url": ""
    },
    {
        "title": "6岁女儿痴迷画蛇还拿了大奖，父母高调炫耀，朋友：赶紧报警吧",
        "docid": "7301819562297737768",
        "url": ""
    },
    {
        "title": "护眼第1名,不是胡萝卜而是它!几块钱一大袋,这么做营养还能再翻番",
        "docid": "7288858426610860580",
        "url": ""
    },
    {
        "title": "想怀孕怀不上，教你几个快速怀孕小技巧，收获一枚龙宝宝！",
        "docid": "7301987874231108133",
        "url": ""
    },
    {
        "title": "“儿大避母”避的是什么？",
        "docid": "7274755990732472843",
        "url": ""
    },
    {
        "title": "从备孕到怀孕，闯过这5关才算保胎成功",
        "docid": "7285286269897327123",
        "url": ""
    },
    {
        "title": "动不动就哭与忍住不哭的孩子，长大后3点差距很明显，你发现没？",
        "docid": "7277952939430396470",
        "url": ""
    },
    {
        "title": "父亲把女儿送到幼儿园，却在路上与女儿偶遇，父亲：我眼花了？",
        "docid": "7270091954686280203",
        "url": ""
    },
    {
        "title": "多鼓励女儿5个方面，她才能越来越强大",
        "docid": "7295913845619442195",
        "url": ""
    },
    {
        "title": "“和我妈同居一个月后，我抑郁了”：有些伤，连你自己都未必知道",
        "docid": "7275918084131734068",
        "url": ""
    },
    {
        "title": "经常挖鼻子的孩子，迟早要自食3种“恶果”，趁他们还小赶紧阻止",
        "docid": "7269666448044278287",
        "url": ""
    },
    {
        "title": "从小爱“咬指甲”的孩子，医生坦言：严重影响牙齿和口腔健康",
        "docid": "7300568041954902579",
        "url": ""
    },
    {
        "title": "一位妈妈火了，因为她的叮嘱太有水平了",
        "docid": "7282279224533467685",
        "url": ""
    },
    {
        "title": "6款宝宝饺子馅合集，荤素搭配附详细做法",
        "docid": "7285214096541319720",
        "url": ""
    },
    {
        "title": "万万没想到，孩子咳嗽不停居然是它惹的祸",
        "docid": "7300552934033556020",
        "url": ""
    },
    {
        "title": "秋天了，这九道蒸菜来了，清淡营养健康，好吃不上火，大家都爱吃",
        "docid": "7274128470371074599",
        "url": ""
    },
    {
        "title": "小儿积食，8大症状，教您解决，让孩子少生病，长高个！",
        "docid": "7287101959130251791",
        "url": ""
    },
    {
        "title": "是啥子决定娃儿的身高？华西专家说，反正不是补钙和打生长激素！",
        "docid": "7293132376807342601",
        "url": ""
    },
    {
        "title": "孩子睡觉满床滚，不一定是热的，也可能是在干这6件事",
        "docid": "7277776195528491581",
        "url": ""
    },
    {
        "title": "小心！家长这些行为， 会影响到宝宝的大脑发育！",
        "docid": "7288624870492013091",
        "url": ""
    },
    {
        "title": "孕妇吃火锅拉了一下凳子手指被切断，当事人：怀孕做不了手术，指头彻底没了，店长：我们没什么责任",
        "docid": "7302692879896478243",
        "url": ""
    },
    {
        "title": "爸爸哄小女儿喝药，“久攻不下”大女儿出手，就那点眼泪都不敢掉",
        "docid": "7302699351871144459",
        "url": ""
    },
    {
        "title": "一直“跟妈睡”和从不“跟妈睡”的孩子有何差别?长大会有啥影响",
        "docid": "7285991038177968659",
        "url": ""
    },
    {
        "title": "冬天多给孩子吃这5道菜，养脾胃，强免疫，长个子，赶紧安排上",
        "docid": "7298589609817522728",
        "url": ""
    },
    {
        "title": "孩子这样说话，说明他心理正在崩溃",
        "docid": "7300774322052858407",
        "url": ""
    },
    {
        "title": "宝宝长多高，看手就知道？这6个因素，才真正决定孩子将来身高",
        "docid": "7277533941714649654",
        "url": ""
    },
    {
        "title": "儿童不能佩戴“银手镯”，原来是因为这三点，妈妈们要注意了",
        "docid": "7271259196723741219",
        "url": ""
    },
    {
        "title": "养出内心强大的孩子，这位妈妈的做法太惊艳",
        "docid": "7272981109523284495",
        "url": ""
    },
    {
        "title": "注意！这种儿童厨具不是玩具……",
        "docid": "7279645127785316925",
        "url": ""
    },
    {
        "title": "什么才是真正的爱孩子？父母千万别语言暴力",
        "docid": "7291665283264381492",
        "url": ""
    },
    {
        "title": "孩子啥时候能吃盐？太早太晚都不好，家长要早知道，别弄错了",
        "docid": "7299028029626745379",
        "url": ""
    },
    {
        "title": "多给孩子喝这个汤，个子还能往上窜一窜，汤鲜味美，营养丰富！",
        "docid": "7269576719068332607",
        "url": ""
    },
    {
        "title": "又一儿童读物引争议，幼师发声：这样教孩子合适吗？",
        "docid": "7302703901281878566",
        "url": ""
    },
    {
        "title": "童装又出事！有中毒风险！十几块一件的衣服，还能买给宝宝穿吗？",
        "docid": "7287798762427810304",
        "url": ""
    },
    {
        "title": "妇产科医生：生完孩子后，妈妈“第1次”的时间别搞错",
        "docid": "7289952545542537789",
        "url": ""
    },
    {
        "title": "急救知识普及，从娃娃抓起",
        "docid": "7302585232778117668",
        "url": ""
    },
    {
        "title": "7年间给孩子买的书，最好的都在这了",
        "docid": "7271139707453653556",
        "url": ""
    },
    {
        "title": "儿科主任提醒家长：这些食物请端下餐桌，吃多了影响孩子生长发育",
        "docid": "7272566413758939685",
        "url": ""
    },
    {
        "title": "孩子的囟门到底什么时候闭合才正常？很多家长其实都搞错了",
        "docid": "7281483457400783418",
        "url": ""
    },
    {
        "title": "别让“下腰瘫”毁了孩子",
        "docid": "7302375824459104794",
        "url": ""
    },
    {
        "title": "中国53万儿童性早熟：“毁掉”孩子的并非豆浆炸鸡，家长该重视",
        "docid": "7301938529415053833",
        "url": ""
    },
    {
        "title": "女子剖腹产未经丈夫同意，产后12天丈夫提出离婚：怕疼别做女人",
        "docid": "7297054138918306367",
        "url": ""
    },
    {
        "title": "奶奶对娃的辅食很上心，导致肠坏死，这些错误的喂养方式要避开",
        "docid": "7270169448391361081",
        "url": ""
    },
    {
        "title": "要闻头条丨点亮特殊少年儿童新希望——探访永州市冷水滩区新希望特殊教育学校",
        "docid": "7302580668637217315",
        "url": ""
    },
    {
        "title": "孩子在幼儿园过的好不好，牢记八问八不问",
        "docid": "7277032048139928116",
        "url": ""
    },
    {
        "title": "入秋后给宝宝润肺就喝六款水果汤",
        "docid": "7292340542451515940",
        "url": ""
    },
    {
        "title": "六种水果蒸着吃，孩子少生病",
        "docid": "7302016558556316214",
        "url": ""
    },
    {
        "title": "我是二宝妈妈，边工作边带娃，每天坚持做到八件事，让生活变美好",
        "docid": "7302386977435992602",
        "url": ""
    },
    {
        "title": "孩子确诊支原体肺炎，如何做好居家护理？",
        "docid": "7297803375595553316",
        "url": ""
    },
    {
        "title": "“言”无止境 “语”你有约——株洲市荷塘区全区幼儿园语言领域教育活动专题教研",
        "docid": "7302713048971117075",
        "url": ""
    },
    {
        "title": "明明它这么营养，你却很少给孩子吃！天生的“补脑高手”",
        "docid": "7299257682069520934",
        "url": ""
    },
    {
        "title": "浙江女子因不想浪费丈夫基因，结婚13年生9个娃，只为凑齐12生肖",
        "docid": "7279630899128894015",
        "url": ""
    },
    {
        "title": "当下正是补肺黄金期，推荐这4种食物，补肺效果最好！",
        "docid": "7298679524504535571",
        "url": ""
    },
    {
        "title": "三位七旬老人哭诉：人老了，儿女出现这三种情况，比不孝顺还可怕",
        "docid": "7300815010878571035",
        "url": ""
    },
    {
        "title": "断子绝孙已成定局，官方穷尽办法也无奈，这个局该怎么破？",
        "docid": "7301672180021117480",
        "url": ""
    },
    {
        "title": "人体各部位成语大全！太齐全了，不收藏太可惜",
        "docid": "7295669895529185832",
        "url": ""
    },
    {
        "title": "和儿女相处，老人就要一不做二不休",
        "docid": "7283666246229492264",
        "url": ""
    },
    {
        "title": "父母若不狠心，很多教育都是无用的。",
        "docid": "7274753997398032908",
        "url": ""
    },
    {
        "title": "大兴路幼儿园萌娃赴龙王庙公园绿色实践",
        "docid": "7302640878777532978",
        "url": ""
    },
    {
        "title": "儿童餐，一周不重样食谱，长高长肉就靠它！",
        "docid": "7287430322298520104",
        "url": ""
    },
    {
        "title": "演员金晶怀孕！晒出孕期生活照，网友热烈祝福",
        "docid": "7302667229437575699",
        "url": ""
    },
    {
        "title": "为何说怀孕后最好不要参加别人的婚礼？孕妈真实经历：损人不利己",
        "docid": "7301681382470877696",
        "url": ""
    },
    {
        "title": "黄浦滨江，“小小暴走”！数百家庭倡导给生命两端同等关爱",
        "docid": "7302739920576201268",
        "url": ""
    },
    {
        "title": "广州市白云区棠景第四幼儿园2023学年秋季学期早操评比活动",
        "docid": "7302716579504996883",
        "url": ""
    },
    {
        "title": "孩子多大说话算正常?哪些情况说明语言发育迟缓？",
        "docid": "7268906592576700989",
        "url": ""
    },
    {
        "title": "孕妈必看，你想知道的早孕期胎儿NT检查",
        "docid": "7301864237721666048",
        "url": ""
    },
    {
        "title": "宜宾三江新区罗龙街道中心幼儿园开展教师心理减压系列活动",
        "docid": "7302634314875929099",
        "url": ""
    },
    {
        "title": "世界早产儿日｜呵护早产儿 母乳很重要",
        "docid": "7302724591607824930",
        "url": ""
    },
    {
        "title": "幼教圈不为人知，但对幼儿园宝妈很有价值的9条信息‼️",
        "docid": "7290866979051684364",
        "url": ""
    },
    {
        "title": "预防出生缺陷，不只是妈妈的事！",
        "docid": "7277944488298103335",
        "url": ""
    },
    {
        "title": "健康成长“不掉队”，石井街走进幼儿园开展体检筛查",
        "docid": "7302589480136032783",
        "url": ""
    },
    {
        "title": "为何会先兆流产？出现这种情况要警惕了",
        "docid": "7300830798570111524",
        "url": ""
    },
    {
        "title": "医生提醒:这几种食物，千万别再给宝宝吃了，小心会导致宝宝积食!",
        "docid": "7288962505379398178",
        "url": ""
    },
    {
        "title": "秋季怎么给孩子穿衣服，妈妈记住26°C穿衣法 ​​​",
        "docid": "7283628401053745723",
        "url": ""
    },
    {
        "title": "真如镇街道首家示范性幼儿园在这里！让儿童享受更优质的学前教育",
        "docid": "7302670305506427432",
        "url": ""
    },
    {
        "title": "消防“零”距离 · 安全伴“童”行—光明村中心幼儿园消防安全活动",
        "docid": "7302604343922917898",
        "url": ""
    },
    {
        "title": "手抄报模版图片",
        "docid": "7302667592777908788",
        "url": ""
    },
    {
        "title": "做大格局的妈妈：告诉女儿人生不必太用力",
        "docid": "7269755241703293459",
        "url": ""
    },
    {
        "title": "一个以为自己捡起来了，一个以为自己没拿好掉了，反应够快，不愧是搞笑担当！#舞蹈#现场演出",
        "docid": "7278976335966437923",
        "url": ""
    },
    {
        "title": "入秋后带娃注意事项",
        "docid": "7283317415172211255",
        "url": ""
    },
    {
        "title": "突然爆炸！女孩眼球瞬间破裂！保温杯千万别再这样用了",
        "docid": "7283407159885464099",
        "url": ""
    },
    {
        "title": "别再给孩子吃山楂条了，因为......",
        "docid": "7293892179729252916",
        "url": ""
    },
    {
        "title": "带娃出行 从儿童安全座椅“坐”起",
        "docid": "7301871691498816037",
        "url": ""
    },
    {
        "title": "点赞！“关爱残疾” 让他们生活无障“爱”",
        "docid": "7302714806594159119",
        "url": ""
    },
    {
        "title": "保障残疾人阅读权益，东城举办绘本阅读活动",
        "docid": "7302589476629479977",
        "url": ""
    },
    {
        "title": "灞桥区狄寨街道第二幼儿园10月喜收获园本课程汇报",
        "docid": "7302395643556217384",
        "url": ""
    },
    {
        "title": "南京特殊教育师范学院扎实开展大学生 心理健康教育",
        "docid": "7302393667338289699",
        "url": ""
    },
    {
        "title": "​“双争”光荣榜｜乔凤玲：做“温暖而幸福的教育”",
        "docid": "7302600987481670181",
        "url": ""
    },
    {
        "title": "我爱画画｜烟台中小学生“才艺秀”作品征集",
        "docid": "7302705137791828532",
        "url": ""
    },
    {
        "title": "妈妈为6岁女儿装扮西游记角色造型 网友感叹：每一套都很惊艳！",
        "docid": "7288602147967648291",
        "url": ""
    },
    {
        "title": "这位“飞行员爸爸”，点燃小朋友们的“科技梦”",
        "docid": "7301956876667814412",
        "url": ""
    },
    {
        "title": "孤独症孩子通过太阳判断时间，精确到几点几分。爸爸：想懂他的世界，但真的很难…",
        "docid": "7273857340288483874",
        "url": ""
    },
    {
        "title": "儿童呼吸道疾病进入高发季！专家：自行给孩子吃这种药不靠谱",
        "docid": "7301982861316571663",
        "url": ""
    },
    {
        "title": "妈妈用迟接孩子方式教育爱迟到儿子，网友：用“魔法”才能打败“魔法”！",
        "docid": "7289008251381989945",
        "url": ""
    },
    {
        "title": "两个月宝宝第一声就叫大姨，连叫三声把大姨激动坏了，网友：大姨不给个大红包说不过去",
        "docid": "7269976373019050530",
        "url": ""
    },
    {
        "title": "妻子三年给丈夫生了三个儿子，丈夫的颜值和发量直线下降，网友：生娃的是妻子，产后抑郁的是丈夫。",
        "docid": "7291486297930318371",
        "url": ""
    },
    {
        "title": "我只是小，又不是傻#萌娃#亲子",
        "docid": "7272950477929988648",
        "url": ""
    },
    {
        "title": "儿子对打扮后的妈妈说了好多暖心话：“我不一定吃你做的饭才能长高长大，但我希望你快乐”",
        "docid": "7275944585171042877",
        "url": ""
    },
    {
        "title": "浙江 广西多家医院关闭产科 停止孕产妇分娩服务 有医院妇产科医护人员称“分娩数量很少，继续干没有意义”",
        "docid": "7283729834420159016",
        "url": ""
    },
    {
        "title": "88年婆婆陪儿媳妇做产检 “自己还没整明白就做奶奶了” 网友：我和奶奶同年还没结婚",
        "docid": "7278968756729528868",
        "url": ""
    },
    {
        "title": "医生建议：千万不要因为能力有限只生一个孩子！网友的回复扎心了",
        "docid": "7302315942522978842",
        "url": ""
    },
    {
        "title": "独生子女证还有用吗2023 11 14",
        "docid": "7302225729658356224",
        "url": ""
    },
    {
        "title": "亿缕阳光｜有一种甜叫隔代亲",
        "docid": "7271476786750407225",
        "url": ""
    },
    {
        "title": "儿童居家雾化吸入治疗的注意事项",
        "docid": "7275898385537434152",
        "url": ""
    },
    {
        "title": "孩子总生病，是免疫力有问题吗？",
        "docid": "7301863689215574554",
        "url": ""
    },
    {
        "title": "59岁诞下双胞胎女儿的产妇：家里人气不旺，就搞两个人来玩玩，20年粮草已备齐",
        "docid": "7279284411035337252",
        "url": ""
    },
    {
        "title": "太可爱啦！从滑梯上滑下来，瞬间get“海胆头",
        "docid": "7302053712317678107",
        "url": ""
    },
    {
        "title": "孤独症者不只是“一个人”",
        "docid": "7275328150459007551",
        "url": ""
    },
    {
        "title": "宝宝带着独特的胎记出生，像是被上天精心打扮过一番。网友：为了见妈妈还特意画了个妆～",
        "docid": "7277166115984704058",
        "url": ""
    },
    {
        "title": "双胞胎猜糖果暖心谦让 看到游戏结局被治愈了",
        "docid": "7302043640723997222",
        "url": ""
    },
    {
        "title": "生育问题本质上是社会财富分配问题",
        "docid": "7302238913580515878",
        "url": ""
    },
    {
        "title": "商店镇开展“优生优育进万家”公益讲座暨“家庭健康指导员”培训",
        "docid": "7302782711041786420",
        "url": ""
    },
    {
        "title": "成都市发布儿童友好城市建设指标体系 倡导开展“儿童友好开放日”等公益服务",
        "docid": "7302767678027170323",
        "url": ""
    },
    {
        "title": "#萌娃说起就起，啥也不扶，腿一支就站起来",
        "docid": "7282388769570128395",
        "url": ""
    },
    {
        "title": "商店镇积极开展计划生育奖励扶助摸底工作",
        "docid": "7302782138141721128",
        "url": ""
    },
    {
        "title": "网友：这是第一次当爹 没错了！",
        "docid": "7288506640066806332",
        "url": ""
    },
    {
        "title": "妈妈发现女儿喜欢装睡，爸爸出了大招。她听得很仔细，理解得很透彻。#90后带娃#小棉袄#小情人",
        "docid": "7271530046890787368",
        "url": ""
    },
    {
        "title": "变形金刚人物之圈套，天生的暴力狂，帅是真的帅，死也死的惨",
        "docid": "7300242317632504354",
        "url": "https://www.ixigua.com/7300242317632504354"
    },
    {
        "title": "妈妈拿棍子追着男孩满村跑，男孩大哭遭村民围观嘲笑，细节亮了",
        "docid": "7272319125651718667",
        "url": "https://www.ixigua.com/7272319125651718667"
    },
    {
        "title": "3岁外甥吃饭时狂喊舅舅看美女，舅舅全程干饭不抬头：找个地缝钻",
        "docid": "7285981986412298808",
        "url": "https://www.ixigua.com/7285981986412298808"
    },
    {
        "title": "赖皮蛇生吞表弟这一集堪称童年阴影，愚忠没有好下场！",
        "docid": "7293828128915489320",
        "url": "https://www.ixigua.com/7293828128915489320"
    },
    {
        "title": "可以不爱，但不要伤害，汤姆在天堂看到了曾经的三只小猫！",
        "docid": "7276460340190282252",
        "url": "https://www.ixigua.com/7276460340190282252"
    },
    {
        "title": "这才叫真正的战甲！飞天遁地刀枪不入，还能变出各式各样的武器",
        "docid": "7280395380863599161",
        "url": "https://www.ixigua.com/7280395380863599161"
    },
    {
        "title": "看看当年动画的尺度，怪不得无法重制回归荧幕！！#太阳之子",
        "docid": "7293742069875802651",
        "url": "https://www.ixigua.com/7293742069875802651"
    },
    {
        "title": "难怪专家都说爸爸更适合带娃，让你哄睡没让你封印！效率也太高了",
        "docid": "7296395032012161572",
        "url": "https://www.ixigua.com/7296395032012161572"
    },
    {
        "title": "妈妈带孩子来玩人力过山车，妈妈玩命蹬自行车，都快蹬出火星子了",
        "docid": "7285909409077658164",
        "url": "https://www.ixigua.com/7285909409077658164"
    },
    {
        "title": "女生抱着男孩对视了几秒后，萌娃突然对着小姐姐嘴了一口",
        "docid": "7302321903690383883",
        "url": "https://www.ixigua.com/7302321903690383883"
    },
    {
        "title": "奶爸向几个月女儿秀健身后的肌肉，得意洋洋一秒崩溃：你嘲笑我？",
        "docid": "7294156206183186984",
        "url": "https://www.ixigua.com/7294156206183186984"
    },
    {
        "title": "萌娃商场遇小姐姐全程傻笑，扭头见妈妈后画风突变：大型双标现场",
        "docid": "7302600102747734563",
        "url": "https://www.ixigua.com/7302600102747734563"
    },
    {
        "title": "让听障孩子听见声音、开口讲话，曲阳路街道做了这件事……",
        "docid": "7302778592218841654",
        "url": ""
    },
    {
        "title": "2023年江苏省特殊体育教育发展论坛在宁举办",
        "docid": "7302796667735261736",
        "url": ""
    },
    {
        "title": "萌娃吃橘子酸出一串表情包",
        "docid": "7302777127936573986",
        "url": ""
    },
    {
        "title": "福五鼠终于开始打败战了，被铁锤鼠瓮中捉鳖#福五鼠 #国产动画",
        "docid": "7302735400802615844",
        "url": "https://www.ixigua.com/7302735400802615844"
    },
    {
        "title": "现在的孟婆汤真的是越来越水了，这是烧的连前世记忆都出来了吗。",
        "docid": "7273411569718198845",
        "url": "https://www.ixigua.com/7273411569718198845"
    },
    {
        "title": "抛开快进不讲，你就说顺不顺溜吧！",
        "docid": "7272564662930145804",
        "url": "https://www.ixigua.com/7272564662930145804"
    },
    {
        "title": "女儿让妈妈帮忙带两个娃，不料妈妈得知后瞬间崩溃：我生的吗？",
        "docid": "7279634631672988199",
        "url": "https://www.ixigua.com/7279634631672988199"
    },
    {
        "title": "逛学校旁小卖部买萝卜刀，各种款式来一把，宝妈玩得停不下来了",
        "docid": "7278965804647842339",
        "url": "https://www.ixigua.com/7278965804647842339"
    },
    {
        "title": "天生反骨！宝宝一定要撅起脚指头，母子“杠上”谁都不服输",
        "docid": "7284887740293284406",
        "url": "https://www.ixigua.com/7284887740293284406"
    },
    {
        "title": "黄渤海新区依云社区：解决职工家庭教育问题，助力社区营商环境提升",
        "docid": "7302795172042588691",
        "url": ""
    },
    {
        "title": "盘点鬼才逻辑的小朋友#逻辑鬼才 #语出惊人的熊孩子 #母子日常",
        "docid": "7284975470352564792",
        "url": "https://www.ixigua.com/7284975470352564792"
    },
    {
        "title": "新三角箭蜘蛛王经典对决，四驱车竞速竞技，激烈对抗三局两胜",
        "docid": "7269656127900647971",
        "url": "https://www.ixigua.com/7269656127900647971"
    },
    {
        "title": "全网最爱蹭饭的三胞胎姐妹！天天到隔壁王奶奶家蹭饭！",
        "docid": "7281569690315555362",
        "url": "https://www.ixigua.com/7281569690315555362"
    },
    {
        "title": "父子俩在商场目不转睛神同步，妈妈一看顿时血压飙升：看谁呢！",
        "docid": "7297424333876658714",
        "url": "https://www.ixigua.com/7297424333876658714"
    },
    {
        "title": "3岁胖娃偷溜到湖边钓鱼，妈妈发现后制止狠揍屁股，次日一幕亮了",
        "docid": "7294894529654555173",
        "url": "https://www.ixigua.com/7294894529654555173"
    },
    {
        "title": "女孩在学校疯狂干饭，老师质疑孩子在家没吃饭，妈妈拍视频证清白",
        "docid": "7278525410957394469",
        "url": "https://www.ixigua.com/7278525410957394469"
    },
    {
        "title": "儿子问妈妈有没有老公，原因让妈妈“气吐血”：你爸当年也这么说",
        "docid": "7279718702604517951",
        "url": "https://www.ixigua.com/7279718702604517951"
    },
    {
        "title": "幼儿园萌娃每天午觉酣睡不醒，老师淡定抬床挪一旁：交的住宿费",
        "docid": "7270802673594303028",
        "url": "https://www.ixigua.com/7270802673594303028"
    }
]