[
    {
        "title": "【幼儿教育】雨花区教育局幼儿园第七幼儿园开展家园节",
        "docid": "7306165132940427817",
        "url": ""
    },
    {
        "title": "福州一学校新校区亮相，总面积6235平方米！",
        "docid": "7306170589239083570",
        "url": ""
    },
    {
        "title": "锯橡皮、敲铅笔、在书上画画，娃的这些小动作都能无师自通呀！",
        "docid": "7306159373338804751",
        "url": ""
    },
    {
        "title": "最新研究 | 延迟断脐可使早产儿死亡风险降低至少三分之一",
        "docid": "7306164301990707724",
        "url": ""
    },
    {
        "title": "六种水果蒸着吃，孩子少生病！",
        "docid": "7303144650402071080",
        "url": ""
    },
    {
        "title": "三分饥与寒，为何能保小儿安？",
        "docid": "7305601929412198931",
        "url": ""
    },
    {
        "title": "为什么上一辈人总说孩子好带？评论区狠狠共情了",
        "docid": "7305941405275259455",
        "url": ""
    },
    {
        "title": "曾仕强教授说：“一个家庭最大的悲哀，不是没钱，而是子女30岁，还在做三件事。”",
        "docid": "7280085407352734208",
        "url": ""
    },
    {
        "title": "“儿子，儿媳怎么不辞职照顾我”儿子：她坐月子，你躲姐家带孩子",
        "docid": "7298550383195486492",
        "url": ""
    },
    {
        "title": "“中国人口第一县”两年关停95所幼儿园， 并非只因人口减少",
        "docid": "7306233603195699752",
        "url": ""
    },
    {
        "title": "「菏泽市“诗润万家”家庭亲子阅读活动微视频展播」《四季诗韵》——谭静家庭",
        "docid": "7306106043690402313",
        "url": ""
    },
    {
        "title": "你是从什么时候开始动摇只要一胎的决心，评论区的回复破防了",
        "docid": "7287747491305620022",
        "url": ""
    },
    {
        "title": "司马南：专家呼吁直接发钱！孩子出生少于尼日利亚，人口下滑严重",
        "docid": "7303825277333815849",
        "url": ""
    },
    {
        "title": "被社会毒打后才明白的道理！网友分享一个比一个震撼，醍醐灌顶",
        "docid": "7303813159406649896",
        "url": ""
    },
    {
        "title": "用不了20年，“一孩”和“二孩”家庭的差距就出来了，很真实",
        "docid": "7282677162602365500",
        "url": ""
    },
    {
        "title": "爸爸就是这样把我骗上了“985”",
        "docid": "7295549064631222818",
        "url": ""
    },
    {
        "title": "90后小伙从事催乳师，一年内服务800多位宝妈，每月稳赚30000",
        "docid": "7285979456521847357",
        "url": ""
    },
    {
        "title": "3岁识3000字6岁拿冠军，被网友嘲“伤仲永”，4年过去结果怎样？",
        "docid": "7305313666655158822",
        "url": ""
    },
    {
        "title": "11年前被父亲强迫，赤身在大雪中奔跑的4岁男孩，如今有何成就？",
        "docid": "7301224600510382655",
        "url": ""
    },
    {
        "title": "感慨！女子晒自己怀孕前后对比，从美人到大鼻子，简直判若两人",
        "docid": "7305636067574071818",
        "url": ""
    },
    {
        "title": "警惕人口战争！7亿人口时“嫌多”，14亿人口时“嫌少”，为什么",
        "docid": "7298539539033768460",
        "url": ""
    },
    {
        "title": "不懂就问，大家怀孕的时候也这样吗？",
        "docid": "7282690455501177378",
        "url": ""
    },
    {
        "title": "浙江女子因不想浪费丈夫基因，结婚13年生9个娃，只为凑齐12生肖",
        "docid": "7279630899128894015",
        "url": ""
    },
    {
        "title": "婴儿从小没有妈妈是什么体验？看哭了",
        "docid": "7303878106706625043",
        "url": ""
    },
    {
        "title": "隔代亲能有多亲？爷爷奶奶们变脸大比拼//画面感超强",
        "docid": "7280445625496338996",
        "url": ""
    },
    {
        "title": "什么样的父母养出了自卑的孩子？网友的回答很扎心！",
        "docid": "7281324760125358627",
        "url": ""
    },
    {
        "title": "当你用小孩的方式对待他，小孩的责任感噌噌往上涨",
        "docid": "7285175203029008933",
        "url": ""
    },
    {
        "title": "因妈妈姓氏太特殊，全家一致通过“随母姓”，网友：是我也随母姓",
        "docid": "7295635129622446601",
        "url": ""
    },
    {
        "title": "幼儿园必背古诗100首～更新版",
        "docid": "7281580647112606219",
        "url": ""
    },
    {
        "title": "孩子优秀不是逼出来的，是被你“套路”出来的",
        "docid": "7286328919740105273",
        "url": ""
    },
    {
        "title": "在产科一定要谨防新生儿被偷！网友的回复一个比一个炸，刷新三观",
        "docid": "7301736059703018047",
        "url": ""
    },
    {
        "title": "为什么被妈妈吼了不记仇，孩子还要求抱抱？原来这才是真相！",
        "docid": "7300767128276501033",
        "url": ""
    },
    {
        "title": "第一次生娃， 大家都不熟，更别说自称妈妈了",
        "docid": "7287541303779377664",
        "url": ""
    },
    {
        "title": "受精后1-36周胎宝在孕妈肚子经历了啥？一组图带你感受生命的神奇",
        "docid": "7290500469162557989",
        "url": ""
    },
    {
        "title": "一个家庭没有规矩比没文化更可怕，有出息的孩子都来自这5种家庭",
        "docid": "7292037546341728808",
        "url": ""
    },
    {
        "title": "允许孩子发脾气，孩子成长路上，遇到的问题都在这里，请仔细看看",
        "docid": "7297759425505722920",
        "url": ""
    },
    {
        "title": "生孩子时的朋友圈都怎么发？网友：文案拿了，下次生孩子用！",
        "docid": "7284035128391811618",
        "url": ""
    },
    {
        "title": "少问孩子\"要不要、好不好\"，换个方式和他说",
        "docid": "7293691630023115302",
        "url": ""
    },
    {
        "title": "“暗示力量”有多可怕，有些话不要对孩子说",
        "docid": "7288574699511267895",
        "url": ""
    },
    {
        "title": "这就是幼儿园手工作业的天花板吧 多少有点费家长了",
        "docid": "7280363908253090359",
        "url": ""
    },
    {
        "title": "父母存在的意义：别在小事上消耗孩子",
        "docid": "7287558844102820415",
        "url": ""
    },
    {
        "title": "放下个人素质，干掉无德亲戚！日常发疯的网友太解气了！",
        "docid": "7301213980335604276",
        "url": ""
    },
    {
        "title": "幼儿园孩子胡说八道有多离谱？完全是一本正经！家长真的注意了",
        "docid": "7296043942506725899",
        "url": ""
    },
    {
        "title": "年轻人不生育，一个家族绝了后意味着什么？",
        "docid": "7276734899078611468",
        "url": ""
    },
    {
        "title": "女人生孩子，“娘家人”要不要过来？几种情况离得再远都得请过来",
        "docid": "7287928266194223668",
        "url": ""
    },
    {
        "title": "孩子什么时候该打",
        "docid": "7280024701215326781",
        "url": ""
    },
    {
        "title": "官方公布生育数据，看看都是谁在“为国生娃”！",
        "docid": "7305308961950089728",
        "url": ""
    },
    {
        "title": "这病毒又要“杀”到！有人发烧+全身长泡，深圳娃可免费打疫苗",
        "docid": "7305980344505877003",
        "url": ""
    },
    {
        "title": "新国标奶粉里，这些成分正在消失，你家宝宝喝的奶粉里还有吗？",
        "docid": "7298521547499897378",
        "url": ""
    },
    {
        "title": "那些因为父母的无知，而耽误孩子一辈子的事情，看看有你吗",
        "docid": "7274808856017027584",
        "url": ""
    },
    {
        "title": "老人晚年的灾难，从帮忙带娃开始",
        "docid": "7281801547951129103",
        "url": ""
    },
    {
        "title": "白天出生和晚上出生的娃，哪个智商更高？科学的解释让人意外",
        "docid": "7296859929099502134",
        "url": ""
    },
    {
        "title": "你身边有没有特别馋的人?馋和没教养是两码事",
        "docid": "7276659132563063337",
        "url": ""
    },
    {
        "title": "怀孕每个月都做什么？一篇看明白！",
        "docid": "7294525457700045348",
        "url": ""
    },
    {
        "title": "这6个特征大概率会遗传，快来看看孩子继承了你的哪些优良基因吧",
        "docid": "7279600921435210296",
        "url": ""
    },
    {
        "title": "孩子命里有没有钱，和父亲的关系太大了",
        "docid": "7202812810999398915",
        "url": ""
    },
    {
        "title": "被新生女儿亲吻后，逝去的母亲竟睁开眼，与孩子产生四秒的对视！",
        "docid": "7280472347306377782",
        "url": ""
    },
    {
        "title": "为什么养孩子要三岁不离手、五岁不离眼？评论区的经历让人惊呆了",
        "docid": "7285698574632141372",
        "url": ""
    },
    {
        "title": "从备孕到怀孕，闯过这5关才算保胎成功",
        "docid": "7285286269897327123",
        "url": ""
    },
    {
        "title": "教育的最高境界：唤醒孩子的内驱力，10句彩虹屁夸出孩子内驱力",
        "docid": "7277072781160825355",
        "url": ""
    },
    {
        "title": "普通家庭如何带孩子过有意义的周末假期",
        "docid": "7303380887830266409",
        "url": ""
    },
    {
        "title": "被小朋友的思维方式惊呆了！评论区的宝宝简直是天使般的存在！",
        "docid": "7297574087591805459",
        "url": ""
    },
    {
        "title": "为啥双胞胎的东西都要一模一样，评论区宝妈们的回答无奈又好笑",
        "docid": "7297551241490891283",
        "url": ""
    },
    {
        "title": "小孩子的嘴：一种伤害性大且侮辱性强的童言无忌",
        "docid": "7303322470096880167",
        "url": ""
    },
    {
        "title": "20年，我培养出一个好养好带的自闭症儿子",
        "docid": "7291962719610503716",
        "url": ""
    },
    {
        "title": "俄罗斯全面落实鼓励生育措施",
        "docid": "7305894703848047155",
        "url": ""
    },
    {
        "title": "神奇的母子定律：惩罚孩子不打不骂不吼不叫的9个方法",
        "docid": "7292411394052407844",
        "url": ""
    },
    {
        "title": "养育男孩千万不要硬碰硬",
        "docid": "7278865415009255975",
        "url": ""
    },
    {
        "title": "第一胎是男孩，到底还要不要生二胎？听听过来人的建议",
        "docid": "7303477020334244403",
        "url": ""
    },
    {
        "title": "惯子如杀子，10大溺爱行为要警惕；父母是孩子最好的老师",
        "docid": "7273850161288462884",
        "url": ""
    },
    {
        "title": "多鼓励女儿5个方面，她才能越来越强大",
        "docid": "7295913845619442195",
        "url": ""
    },
    {
        "title": "宝宝几个月头部就定型，睡不过来了？超过这个月份，就别再折腾了",
        "docid": "7298927968754090507",
        "url": ""
    },
    {
        "title": "老人带娃，带到多大最合适？过来人：最好到孩子这个年龄段要退出",
        "docid": "7290109856265110035",
        "url": ""
    },
    {
        "title": "什么才是真正的爱孩子？父母千万别语言暴力",
        "docid": "7291665283264381492",
        "url": ""
    },
    {
        "title": "10个娃9个不愿在幼儿园拉便便！这些原因娃不说，但家长要知道",
        "docid": "7288530124251644416",
        "url": ""
    },
    {
        "title": "很后悔幼儿园三年，踩坑无数！",
        "docid": "7280876029072228927",
        "url": ""
    },
    {
        "title": "想要宝宝说话早！不要忘记每天一遍的早教顺口溜！",
        "docid": "7277071269600936508",
        "url": ""
    },
    {
        "title": "天呐！快四十岁才知道，原来那些学霸都是父母套路出来的",
        "docid": "7283470489262424611",
        "url": ""
    },
    {
        "title": "戾气重的妈妈真的很可怕，孩子要用一生为你买单",
        "docid": "7296299359283675663",
        "url": ""
    },
    {
        "title": "不愧是央视推荐，专为低幼儿童拍的纪录片！",
        "docid": "7294525739603493413",
        "url": ""
    },
    {
        "title": "一定要教孩子会吵架：如果家有女儿，一定要这样鼓励她",
        "docid": "7281976796369928758",
        "url": ""
    },
    {
        "title": "有钱人家的老公，都要尽量少去幼儿园接小孩，来自网友的提醒",
        "docid": "7291584942054621711",
        "url": ""
    },
    {
        "title": "山东姑娘李雪珂：身家过亿，未婚生下混血三胞胎，声称不需要男人",
        "docid": "7295678707397001782",
        "url": ""
    },
    {
        "title": "幼儿园必备的50个常识！快给娃收藏起来！",
        "docid": "7276987565276660243",
        "url": ""
    },
    {
        "title": "孩子爱吃的八道菜，我都给你找出来了，孩子不再挑食",
        "docid": "7275709376747274763",
        "url": ""
    },
    {
        "title": "蟑螂飞进宝宝的耳朵，妈妈“两个拒绝”救了孩子，医生称赞高明",
        "docid": "7286354649429377595",
        "url": ""
    },
    {
        "title": "“儿大避母”避的是什么？",
        "docid": "7274755990732472843",
        "url": ""
    },
    {
        "title": "怀孕是一瞬间还是好几天",
        "docid": "7291928687375614503",
        "url": ""
    },
    {
        "title": "妈妈请在我不开心的时候，这样爱我，好吗？",
        "docid": "7283304697291768335",
        "url": ""
    },
    {
        "title": "一位妈妈火了，因为她的叮嘱太有水平了",
        "docid": "7282279224533467685",
        "url": ""
    },
    {
        "title": "当孩子厌学缺乏动力时，给他们看纪录片，比任何说教都更加有效！",
        "docid": "7295174849104937487",
        "url": ""
    },
    {
        "title": "全职妈妈伸手要钱卑微吗？网友回复：我家都是五十五十的给！",
        "docid": "7294099975695303187",
        "url": ""
    },
    {
        "title": "女儿的婚姻好不好，跟父亲的教养关系太大了",
        "docid": "7289290025798418996",
        "url": ""
    },
    {
        "title": "孩子啥时候能吃盐？太早太晚都不好，家长要早知道，别弄错了",
        "docid": "7299028029626745379",
        "url": ""
    },
    {
        "title": "孩子到了这个时候，就该“告别”尿不湿了，家长不要吝啬舍不得",
        "docid": "7286069290104144421",
        "url": ""
    },
    {
        "title": "男孩为什么这么费妈，终于找到原因了，原来真是有科学依据的",
        "docid": "7287787972160848399",
        "url": ""
    },
    {
        "title": "宝宝为什么喜欢“挖掘机”？看似简单的问题，其实暗示着心理学",
        "docid": "7274606549316944444",
        "url": ""
    },
    {
        "title": "新生儿这么大，怎么从狭窄的产道生出来的？8张高清图告诉你",
        "docid": "7282210539856773672",
        "url": ""
    },
    {
        "title": "如果你家孩子是个“显眼包”，恭喜你！这是好事",
        "docid": "7276625561848480316",
        "url": ""
    },
    {
        "title": "娃多大开始认字好？过早易笨？过晚错过脑发育期！",
        "docid": "7298964974892991026",
        "url": ""
    },
    {
        "title": "孩子在幼儿园过的好不好，牢记八问八不问",
        "docid": "7277032048139928116",
        "url": ""
    },
    {
        "title": "千万不要让陌生人轻易靠近你的孩子，人心难防！！！",
        "docid": "7295001666238612003",
        "url": ""
    },
    {
        "title": "面对暴雨，广州主打的就是“情绪稳定”，这就是我爱广东的理由",
        "docid": "7276733354794598975",
        "url": ""
    },
    {
        "title": "幼儿园孩子胡说八道有多离谱?完全是一本正经！看完评论区我呆住",
        "docid": "7296336382404985398",
        "url": ""
    },
    {
        "title": "如果你常常把旧衣服送人，就会明白这三个真相",
        "docid": "7279380083733987859",
        "url": ""
    },
    {
        "title": "有大神预测：若新生人口无法实现逆转，2024年起将出现三大变化！",
        "docid": "7298999251987137050",
        "url": ""
    },
    {
        "title": "孩子被欺负，比起打回去，这5个方法才能解决根本问题",
        "docid": "7299656379806040603",
        "url": ""
    },
    {
        "title": "马女士举报消防支队老公孕期出轨，事后想撞死自己，结局大快人心",
        "docid": "7306087894622880319",
        "url": ""
    },
    {
        "title": "小心！家长这些行为， 会影响到宝宝的大脑发育！",
        "docid": "7288624870492013091",
        "url": ""
    },
    {
        "title": "医生提醒：这五类蔬菜，基本上都不会打农药，可以给孩子多吃一些",
        "docid": "7293059681793327650",
        "url": ""
    },
    {
        "title": "父母若不狠心，很多教育都是无用的。",
        "docid": "7274753997398032908",
        "url": ""
    },
    {
        "title": "产后喝这个汤太好了，太鲜太美味了！连喝两大碗！",
        "docid": "7280396266834608640",
        "url": ""
    },
    {
        "title": "和儿女相处，老人就要一不做二不休",
        "docid": "7283666246229492264",
        "url": ""
    },
    {
        "title": "女孩发育后还能长多高？家长注意这3点，让孩子长得更高更好",
        "docid": "7283071888920740386",
        "url": ""
    },
    {
        "title": "一周不重样! 孩子长高营养食谱（图片里有做法）",
        "docid": "7280340013655687691",
        "url": ""
    },
    {
        "title": "孩子生命线不能打",
        "docid": "7286423599979102720",
        "url": ""
    },
    {
        "title": "子女有以下习惯，大多不会“孝顺”，父母要给自己留后路",
        "docid": "7279455137276609087",
        "url": ""
    },
    {
        "title": "这些不花钱的仪式感，却能治愈孩子的一生！家长保存收藏给孩子看",
        "docid": "7288505560864489984",
        "url": ""
    },
    {
        "title": "尽量别给孩子吃，寄生虫最多的食物 ​​​",
        "docid": "7294055888989340187",
        "url": ""
    },
    {
        "title": "下奶汤排行榜前十名，月子餐必备汤，追奶不发慌，收藏早晚用得上",
        "docid": "7275686259686146623",
        "url": ""
    },
    {
        "title": "头胎是女儿好还是儿子好？先生哪个差别很大，父母别小瞧了",
        "docid": "7292359651134521894",
        "url": ""
    },
    {
        "title": "我退休金2000，儿媳坐月子我故意和女儿去旅游，儿子将我房子卖了",
        "docid": "7298675912768286950",
        "url": ""
    },
    {
        "title": "人口萎缩问题冲上热搜，狠狠引发年轻人共鸣：不想生出穷二代",
        "docid": "7306015782315672102",
        "url": ""
    },
    {
        "title": "十几岁的孩子是不是都这么吃饭？",
        "docid": "7306334568544518668",
        "url": ""
    },
    {
        "title": "宝宝到底要不要穿袜子？90%的人都搞错了，怪不得孩子爱生病！",
        "docid": "7293439154413634086",
        "url": ""
    },
    {
        "title": "一周不重样，儿童长高营养食谱（做法在图片里面）",
        "docid": "7279374244369596980",
        "url": ""
    },
    {
        "title": "孩子强烈感受到被爱的16个瞬间 ​​​",
        "docid": "7281842249208545849",
        "url": ""
    },
    {
        "title": "补脾超厉害的菜，比小米强多了，常吃补脾益胃，养神睡得香！",
        "docid": "7295324330924360192",
        "url": ""
    },
    {
        "title": "如果你发现身边的亲人都很自私、没人情味儿，请坚持做这3件事",
        "docid": "7280409686292660794",
        "url": ""
    },
    {
        "title": "24款超好吃的面条，做法简单又好吃！",
        "docid": "7293700353508573748",
        "url": ""
    },
    {
        "title": "一个学渣妈妈的自救：等你真的看见孩子，才明白摆烂的孩子有多难",
        "docid": "7289061610520445501",
        "url": ""
    },
    {
        "title": "妇产科医生：生完孩子后，妈妈“第1次”的时间别搞错",
        "docid": "7289952545542537789",
        "url": ""
    },
    {
        "title": "孩子要长高了的6个信号，家长们注意了",
        "docid": "7305996107904008744",
        "url": ""
    },
    {
        "title": "小朋友连吃了好几天了，真的营养又美味",
        "docid": "7279653199131984439",
        "url": ""
    },
    {
        "title": "这是我儿子家，我就要让他妹妹回来坐月子，儿媳：门锁马上安排上",
        "docid": "7298024895352860363",
        "url": ""
    },
    {
        "title": "妈妈培养勇敢小孩这么说",
        "docid": "7281891213525991995",
        "url": ""
    },
    {
        "title": "动不动就哭与忍住不哭的孩子，长大后3点差距很明显，你发现没？",
        "docid": "7277952939430396470",
        "url": ""
    },
    {
        "title": "孩子白天不咳晚上咳，吃止咳药也没用，一定要去查查是不是这个病",
        "docid": "7291513625016746557",
        "url": ""
    },
    {
        "title": "男孩子脸上有这3种特征，将来很有福气，3种都有的家长偷着笑吧",
        "docid": "7276287819616829992",
        "url": ""
    },
    {
        "title": "母亲子女从怀胎时就有互动：孩子来报恩还是报仇的，从孕吐来反映",
        "docid": "7303039642847396352",
        "url": ""
    },
    {
        "title": "惊人的追蛇定律：长大后不出色的孩子，跟父母的三种行为关系很大",
        "docid": "7301929302059811365",
        "url": ""
    },
    {
        "title": "人均5万，县城的天价月子中心，专门收割“小镇贵妇”",
        "docid": "7296776600664818212",
        "url": ""
    },
    {
        "title": "502胶水滴到孩子左眼，妈妈一分钟急救坑了娃，医生连连摇头",
        "docid": "7305653306348044811",
        "url": ""
    },
    {
        "title": "“社恐”父母如何教出“社牛”孩子？掌握这些方法，存在感拉升",
        "docid": "7283478926989460020",
        "url": ""
    },
    {
        "title": "“爹”和“爸”有啥区别？二字拆开才明白，难怪古人称父亲为爹爹",
        "docid": "7303158553593020962",
        "url": ""
    },
    {
        "title": "想让孩子长得更高，早上喝牛奶好还是晚上好？总算弄明白了",
        "docid": "7281477627713192504",
        "url": ""
    },
    {
        "title": "避免孩子成为讨好型人格，常说这些话",
        "docid": "7290424573806985788",
        "url": ""
    },
    {
        "title": "试管婴儿会有弊端？看完这些，很多夫妻还会不会反悔？",
        "docid": "7274417256883487271",
        "url": ""
    },
    {
        "title": "秋季必喝营养汤合集|养胃补钙好喝易学‼️",
        "docid": "7279262592730808889",
        "url": ""
    },
    {
        "title": "新生儿原来这么脆弱!!没生之前都不知道!",
        "docid": "7289017546261692980",
        "url": ""
    },
    {
        "title": "一直“跟妈睡”和从不“跟妈睡”的孩子有何差别?长大会有啥影响",
        "docid": "7285991038177968659",
        "url": ""
    },
    {
        "title": "为什么父母见不得自家孩子高兴？看完评论区网友的分享，太震撼了",
        "docid": "7300835090089902592",
        "url": ""
    },
    {
        "title": "宝妈亲历：生娃不只有痛，这两种“爽”感虽不好开口，却让人难忘",
        "docid": "7274213108209500712",
        "url": ""
    },
    {
        "title": "孕期你见过老公哪些奇葩行为？看完网友的吐槽，想忍住不笑都难！",
        "docid": "7304186348993823267",
        "url": ""
    },
    {
        "title": "幼儿园小孩子要不要参加各种兴趣班？",
        "docid": "7275149652884718115",
        "url": ""
    },
    {
        "title": "不同思维的父母对待孩子的态度",
        "docid": "7298874235571896867",
        "url": ""
    },
    {
        "title": "孩子患有轻微自闭症的9个症状表现，你知道几个？",
        "docid": "7286026102933029433",
        "url": ""
    },
    {
        "title": "超生罚款：一项曾经有功无过的政策",
        "docid": "7277773622709125692",
        "url": ""
    },
    {
        "title": "一天不换就有100亿细菌，怪不得孩子爱生病！这东西一定要天天换",
        "docid": "7304588474634830351",
        "url": ""
    },
    {
        "title": "快来看看0-12个月的人类小幼崽都会干嘛吧！",
        "docid": "7297526763360420404",
        "url": ""
    },
    {
        "title": "一个孩子最大的幸福：童年被允许做这4件事",
        "docid": "7291842167423861289",
        "url": ""
    },
    {
        "title": "给孩子撑腰的密码",
        "docid": "7278539063588700706",
        "url": ""
    },
    {
        "title": "一种“新式坐月子”兴起，老人不累，子女感恩，婆媳关系好",
        "docid": "7303757504566198818",
        "url": ""
    },
    {
        "title": "央视曾多次曝光“毒童鞋”！伤肾脏、可致儿童性早熟，家长需警惕",
        "docid": "7304594416281633314",
        "url": ""
    },
    {
        "title": "宝宝出生时“几斤几两”，暗示智商的高低？医生：最佳标准在这里",
        "docid": "7283056528800612920",
        "url": ""
    },
    {
        "title": "童装又出事！有中毒风险！十几块一件的衣服，还能买给宝宝穿吗？",
        "docid": "7287798762427810304",
        "url": ""
    },
    {
        "title": "女孩患罕见病，4岁父亲入狱，妈妈靠她直播，吸粉200万当网红",
        "docid": "7290852436393361981",
        "url": ""
    },
    {
        "title": "呼吸道疾病高发期，多用这6种食物给孩子煮汤喝，千万别大意了",
        "docid": "7304653965071745551",
        "url": ""
    },
    {
        "title": "两男恐惧？90后妈妈：“再生个男孩，这辈子就只能给银行打工了”",
        "docid": "7306389938780750351",
        "url": ""
    },
    {
        "title": "【周三预告】吕楠医生：女星称剖宫产“没感觉”，是真的吗？",
        "docid": "7306269719626105380",
        "url": ""
    },
    {
        "title": "中国老龄化问题的缩影!“计划生育”先进单位，出现消失的年轻化",
        "docid": "7291973315303244322",
        "url": ""
    },
    {
        "title": "五万人在线崩溃，到底什么样的衣服才配得上全世界最漂亮的女人？",
        "docid": "7278890486457287187",
        "url": ""
    },
    {
        "title": "为什么不能乱抠肚脐眼？原来肚脐眼连的根本不是肠子！涨知识了",
        "docid": "7283811948423365175",
        "url": ""
    },
    {
        "title": "四川1米2小伙独自抚养2岁女儿，妻子生下后孩子离开，被质疑剧本",
        "docid": "7306082320879551028",
        "url": ""
    },
    {
        "title": "闺女坐月子我去照顾，当得知外孙的名字后，我做了一个狠心的决定",
        "docid": "7298452514719409141",
        "url": ""
    },
    {
        "title": "请告诉孩子，不管房子有多大，家里这3个地方要保持干净！",
        "docid": "7284956408637194764",
        "url": ""
    },
    {
        "title": "16句“神回复”，搞定和孩子的沟通难题",
        "docid": "7295945322809917993",
        "url": ""
    },
    {
        "title": "山姆最值得买的美食 top 20！配料干净，有娃家庭无限回购",
        "docid": "7293795928581014067",
        "url": ""
    },
    {
        "title": "儿子确诊自闭症后，我的抑郁症不治而愈了",
        "docid": "7305619884845957667",
        "url": ""
    },
    {
        "title": "国家卫健委：社区要为3岁以下婴幼儿提供多形式照护服务",
        "docid": "7306116521493791272",
        "url": ""
    },
    {
        "title": "小孩流鼻血是什么原因？听听医生怎么说！",
        "docid": "7306386175500059170",
        "url": ""
    },
    {
        "title": "这个福利，只有独生子女才能尝遍！你们真的太幸福了！",
        "docid": "7277979457200210444",
        "url": ""
    },
    {
        "title": "既要个人自由与空间，又要老人带孩子？权利与义务应对等",
        "docid": "7288004475380384271",
        "url": ""
    },
    {
        "title": "20分钟男孩眼珠被“熔化”，这东西每家都有，家长一定要高度警惕",
        "docid": "7290462887771128378",
        "url": ""
    },
    {
        "title": "河北35岁孕妇冒险生下5胞胎，孩子长大她却说：我宁愿一个都不要",
        "docid": "7273694712803312188",
        "url": ""
    },
    {
        "title": "白萝卜是个宝，这样搭配吃，大人孩子少往医院跑！",
        "docid": "7278334525594239527",
        "url": ""
    },
    {
        "title": "坐月子错误观念大盘点",
        "docid": "7288597930310107689",
        "url": ""
    },
    {
        "title": "秋天吃芋头山药，护肝明目，养血健脾胃，做法简单！",
        "docid": "7290074484533592631",
        "url": ""
    },
    {
        "title": "白萝卜水是个“宝”，秋冬多吃，生病少！",
        "docid": "7300198204845818387",
        "url": ""
    },
    {
        "title": "彩色世界童话全集8《五颗豌豆》",
        "docid": "7306429791036244518",
        "url": ""
    },
    {
        "title": "“鹏橙”来了！关爱基金会为城乡儿童开启公益艺术之旅",
        "docid": "7305664966504743463",
        "url": ""
    },
    {
        "title": "父母的职业对孩子影响有多大？",
        "docid": "7304893007563080233",
        "url": ""
    },
    {
        "title": "孩子这样说话，说明他心理正在崩溃",
        "docid": "7300774322052858407",
        "url": ""
    },
    {
        "title": "“妈，让嫂子住车库，我要回娘家坐月子”“你太把自己当回事了”",
        "docid": "7298241267545902578",
        "url": ""
    },
    {
        "title": "养育孩子少用表扬多用鼓励",
        "docid": "7277726182475481615",
        "url": ""
    },
    {
        "title": "28岁骨头“脆”成方便面，她却说生娃的快乐我不懂？！",
        "docid": "7301612558728036879",
        "url": ""
    },
    {
        "title": "冬天多给孩子吃这5道菜，养脾胃，强免疫，长个子，赶紧安排上",
        "docid": "7298589609817522728",
        "url": ""
    },
    {
        "title": "含钙量是牛奶的7倍，每天2块孩子长高个，妈妈不用愁！",
        "docid": "7281095536671736320",
        "url": ""
    },
    {
        "title": "突然爆炸！女孩眼球瞬间破裂！保温杯千万别再这样用了",
        "docid": "7283407159885464099",
        "url": ""
    },
    {
        "title": "人类都是早产儿？科学家：怀孕21个月才足月，10月怀胎是被逼无奈",
        "docid": "7287193554915754551",
        "url": ""
    },
    {
        "title": "画面惊人！5岁女孩阑尾里全是寄生虫……这个坏习惯必须要改掉",
        "docid": "7304804574849253915",
        "url": ""
    },
    {
        "title": "全国首届正常分娩接产技能大赛落幕 四川广元市中心医院载誉归来",
        "docid": "7306424291434955314",
        "url": ""
    },
    {
        "title": "古代生娃有多痛苦，为啥要一直烧热水",
        "docid": "7306122074744603151",
        "url": ""
    },
    {
        "title": "好暖！妻子产前 丈夫给全家开会分配职责",
        "docid": "7305769050155598348",
        "url": ""
    },
    {
        "title": "冬天一碗汤，孩子个猛窜，简单方便，钙质是牛奶的几十倍，好吸收",
        "docid": "7306351486831919631",
        "url": ""
    },
    {
        "title": "4种“乳名”不要再给孩子取了，不好听不说，还容易伤娃自尊",
        "docid": "7288999508795621888",
        "url": ""
    },
    {
        "title": "秋季怎么给孩子穿衣服，妈妈记住26°C穿衣法 ​​​",
        "docid": "7283628401053745723",
        "url": ""
    },
    {
        "title": "彩色世界童话全集44《小金鱼》",
        "docid": "7306272384208650789",
        "url": ""
    },
    {
        "title": "支原体肺炎、咳嗽感冒和肺炎如何区分？学会这几招判断方法",
        "docid": "7294445173260583459",
        "url": ""
    },
    {
        "title": "婴儿真的很脆弱",
        "docid": "7289058911847367204",
        "url": ""
    },
    {
        "title": "妈妈也算仙子吧 经常做一些神奇的事情",
        "docid": "7306283774609015330",
        "url": ""
    },
    {
        "title": "闺蜜天天来我家帮哄孩子，4岁女儿1句“阿姨鞋带总开”我恍然大悟",
        "docid": "7298474425514417785",
        "url": ""
    },
    {
        "title": "男孩子这样养，他长大了会感谢你。这八句话必须由爸爸来告诉孩子",
        "docid": "7305412993922368000",
        "url": ""
    },
    {
        "title": "00后成为姐姐：新的困境与抗争脚本",
        "docid": "7304607547687092736",
        "url": ""
    },
    {
        "title": "大人小孩都爱吃的早餐饼，奶香山药饼，软糯香甜，又健脾养胃",
        "docid": "7276852761575506486",
        "url": ""
    },
    {
        "title": "慈溪市掌起镇阳光心贴心残疾人之家开展技能竞赛活动",
        "docid": "7306323738843218444",
        "url": ""
    },
    {
        "title": "戒不掉的奶嘴，换不掉的毛毯！孩子“恋物”的原因，父母根本没懂",
        "docid": "7276282451399000611",
        "url": ""
    },
    {
        "title": "幸福列车|小小世界 大大梦想——市未保中心开展读书观影活动",
        "docid": "7306440672611926539",
        "url": ""
    },
    {
        "title": "彩色世界童话全集40《小矮人多姆》",
        "docid": "7306278351176745510",
        "url": ""
    },
    {
        "title": "“推拿给娃退热”靠谱吗？沈阳儿科专家这么说",
        "docid": "7306302240195789322",
        "url": ""
    },
    {
        "title": "湖南计生协：构建计生特殊家庭精准帮扶工作机制",
        "docid": "7306443671829185034",
        "url": ""
    },
    {
        "title": "我80后，未婚在美国做试管生子，爸爸听后哭了，这事没法和亲戚说",
        "docid": "7303143940860690984",
        "url": ""
    },
    {
        "title": "打脸了！专家9年前的预测：一旦放开二胎，出生人口将会暴增！",
        "docid": "7281999580835824186",
        "url": ""
    },
    {
        "title": "比水稻还古老的粮食,竟一直被忽略?大人孩子的理想食物,搅搅就行",
        "docid": "7283387237759320576",
        "url": ""
    },
    {
        "title": "只有一个孩子的父母，五十岁后，要给自己留几条退路",
        "docid": "7291864049397088807",
        "url": ""
    },
    {
        "title": "宝宝三岁后，多和他聊这7类话题，越聊越聪明！",
        "docid": "7288677363666616890",
        "url": ""
    },
    {
        "title": "吸奶器，你用对了吗？| 科普时间",
        "docid": "7305347594371318324",
        "url": ""
    },
    {
        "title": "儿科医生遇到过哪些离谱的事件？真的有这么离谱吗？",
        "docid": "7275112238993064507",
        "url": ""
    },
    {
        "title": "彩色世界童话全集10《拇指姑娘》",
        "docid": "7306425452175163930",
        "url": ""
    },
    {
        "title": "孙女上幼儿园一周，颠覆了我对幼教方面的认知",
        "docid": "7276795731158155830",
        "url": ""
    },
    {
        "title": "孩子的囟门到底什么时候闭合才正常？很多家长其实都搞错了",
        "docid": "7281483457400783418",
        "url": ""
    },
    {
        "title": "冬天跟孩子一起做的20件幸福小事，带着孩子一起打卡吧｜精选",
        "docid": "7305384884607189539",
        "url": ""
    },
    {
        "title": "家有男孩，有3个地方不能“穷养”，儿子长大后，会感谢你的大方",
        "docid": "7285240904510734863",
        "url": ""
    },
    {
        "title": "6次剖宫产史！和济人“医”路护航高危孕妇化险",
        "docid": "7306363096547836416",
        "url": ""
    },
    {
        "title": "28岁妈妈，产检无异常，39周顺产一漂亮男宝，5个月后不敢抱",
        "docid": "7277874043787805241",
        "url": ""
    },
    {
        "title": "多说些让孩子开心的话，可以治愈一生",
        "docid": "7289674409940746809",
        "url": ""
    },
    {
        "title": "彩色世界童话全集36《绿胡子魔王》",
        "docid": "7306284900062429747",
        "url": ""
    },
    {
        "title": "上好节约这堂课！七彩明珠幼儿园开展知廉行廉活动",
        "docid": "7306387671415292442",
        "url": ""
    },
    {
        "title": "孩子睡觉满床滚，不一定是热的，也可能是在干这6件事",
        "docid": "7277776195528491581",
        "url": ""
    },
    {
        "title": "孩子半夜磨牙吱吱响，怎么办？| 科普时间",
        "docid": "7282650511629845055",
        "url": ""
    },
    {
        "title": "“河北福嫂”进京记②丨为母婴提供最专业的护理",
        "docid": "7306347526934888975",
        "url": ""
    },
    {
        "title": "从小爱“咬指甲”的孩子，有人坦言：长大后，多半逃不过两种结局",
        "docid": "7306397235397296649",
        "url": ""
    },
    {
        "title": "独留妻子在家坐月子，带全家5口7日游，住酒店才知卡里只剩250",
        "docid": "7298928897103674415",
        "url": ""
    },
    {
        "title": "成年人开始流行的“重新养自己”，能解决原生家庭问题？",
        "docid": "7305862059718115879",
        "url": ""
    },
    {
        "title": "“鼻吸能量棒”真能提神醒脑？",
        "docid": "7306422498030109235",
        "url": ""
    },
    {
        "title": "聊城一名孕妈生下十斤重胖儿子",
        "docid": "7306427198012277248",
        "url": ""
    },
    {
        "title": "蔡海炳获评福建省道德模范",
        "docid": "7306308159969165862",
        "url": ""
    },
    {
        "title": "出生时体重仅980克，在自贡市第四人民医院儿科新生儿室住院68天后——27周超早产儿健康出院",
        "docid": "7306303046999376435",
        "url": ""
    },
    {
        "title": "【村村有好戏·文明实践唱大戏】红岛街道宿流社区开设公益早教课，教新手爸妈科学育儿",
        "docid": "7306452412422930980",
        "url": ""
    },
    {
        "title": "宝宝好几天不拉粑粑，除了开塞露还有啥好办法？",
        "docid": "7306424023507042850",
        "url": ""
    },
    {
        "title": "儿童餐，一周不重样食谱，长高长肉就靠它！",
        "docid": "7287430322298520104",
        "url": ""
    },
    {
        "title": "吃1个它，等于5个苹果！是公认的“全科医生”，这么吃孩子蹭蹭长",
        "docid": "7301856256392970791",
        "url": ""
    },
    {
        "title": "如果马寅初没提出人口论，没有计划生育，我国如今会变成什么样？",
        "docid": "7306478685526442535",
        "url": ""
    },
    {
        "title": "湖南51岁幼师患癌离世捐献眼角膜，助两位年龄相仿的陌生人重见光明",
        "docid": "7306466940820931087",
        "url": ""
    },
    {
        "title": "潜质突出的儿童如何发现和识别",
        "docid": "7306258896128197135",
        "url": ""
    },
    {
        "title": "脑瘫患儿也能“正常”走路！手术让一家三姐弟走出康复困境",
        "docid": "7306420882414027318",
        "url": ""
    },
    {
        "title": "“点亮星声”音乐会温暖成都冬夜",
        "docid": "7306448326114230796",
        "url": ""
    },
    {
        "title": "生二胎不需要征求老大同意",
        "docid": "7306437284373529114",
        "url": ""
    },
    {
        "title": "幼教圈不为人知，但对幼儿园宝妈很有价值的9条信息‼️",
        "docid": "7290866979051684364",
        "url": ""
    },
    {
        "title": "近期高发、尚无疫苗、儿童易感染！紧急提醒",
        "docid": "7306388011783635475",
        "url": ""
    },
    {
        "title": "《胡萝卜幼儿园郊游日》| 每日一书",
        "docid": "7306392803083289142",
        "url": ""
    },
    {
        "title": "妈妈哄5个月萌娃睡觉，不料宝宝一动作逗笑妈妈：这么久你装的？",
        "docid": "7285997870799389221",
        "url": "https://www.ixigua.com/7285997870799389221"
    },
    {
        "title": "2岁萌娃打翻整瓶酱油，妈妈沿着脚印逐渐崩溃，走进卧室顿时傻眼",
        "docid": "7274843835060978235",
        "url": "https://www.ixigua.com/7274843835060978235"
    },
    {
        "title": "宝宝理完发被自己的发型“丑哭”，眼眶通红委屈噘嘴：还我头发！",
        "docid": "7302634964879671871",
        "url": "https://www.ixigua.com/7302634964879671871"
    },
    {
        "title": "萌娃在国外幼儿园拥有超高人气，进门就被男孩团团包围：颜值无敌",
        "docid": "7291455822905901609",
        "url": "https://www.ixigua.com/7291455822905901609"
    },
    {
        "title": "宝宝早上趁爸妈睡觉，悄悄从床上爬下去玩，随后一幕惹爆笑",
        "docid": "7295571432275182095",
        "url": "https://www.ixigua.com/7295571432275182095"
    },
    {
        "title": "萌娃走路意外学会前空翻，双手撑地向前轻松翻滚，动作呆萌逗乐人",
        "docid": "7274438633552249344",
        "url": "https://www.ixigua.com/7274438633552249344"
    },
    {
        "title": "宝宝再见一个月未见的爸爸，反复细看摸脸确认，认出后埋肩大哭",
        "docid": "7283751743588925986",
        "url": "https://www.ixigua.com/7283751743588925986"
    },
    {
        "title": "妈妈手把手教女儿做饭！鱼下锅吓得丢锅铲直接跑，网友：点外卖吧",
        "docid": "7295954081150534184",
        "url": "https://www.ixigua.com/7295954081150534184"
    },
    {
        "title": "妈妈没钱买菜让孩子交钱，殷实家底让人酸了，开保险箱细节满分",
        "docid": "7296686790160122422",
        "url": "https://www.ixigua.com/7296686790160122422"
    },
    {
        "title": "女儿教爸爸轮滑被气的不行，狂怼老爸惹网友爆笑：我脑瓜子要疯了",
        "docid": "7279712155803484687",
        "url": "https://www.ixigua.com/7279712155803484687"
    },
    {
        "title": "中国式家庭教育好窒息，可是…网友骂得太过了吧",
        "docid": "7306479566841856531",
        "url": ""
    },
    {
        "title": "看了咱们国家成为，生育率最低的国家之一，评论区都这么搞笑吗",
        "docid": "7276660305622221364",
        "url": ""
    },
    {
        "title": "一个家庭富不起来的原因，是因为有以下16种情况",
        "docid": "7300164727232971273",
        "url": ""
    },
    {
        "title": "巨巨…巨好吃莲藕虾滑饼真滴泰好吃啦！",
        "docid": "7305667229310779944",
        "url": ""
    },
    {
        "title": "一个以为自己捡起来了，一个以为自己没拿好掉了，反应够快，不愧是搞笑担当！#舞蹈#现场演出",
        "docid": "7278976335966437923",
        "url": ""
    },
    {
        "title": "注意了！这几项运动不利于孩子生长发育",
        "docid": "7280437037734511141",
        "url": ""
    },
    {
        "title": "为自闭症治疗提供新思路 上海科学家团队开发新系统改善孤独症小鼠核心症状",
        "docid": "7306318601408283188",
        "url": ""
    },
    {
        "title": "生孩子不痛？揭秘被“神话”的腹膜外剖宫产",
        "docid": "7306455858244780555",
        "url": ""
    },
    {
        "title": "孩子确诊支原体肺炎，如何做好居家护理？",
        "docid": "7297803375595553316",
        "url": ""
    },
    {
        "title": "峨眉山实验幼儿园：垃圾处理大揭秘，绿色环保我先行",
        "docid": "7306438723116335631",
        "url": ""
    },
    {
        "title": "长图｜家长们，孩子呼吸道感染，不一定非要去医院",
        "docid": "7306473840165863951",
        "url": ""
    },
    {
        "title": "微光公益三元里工作站揭牌",
        "docid": "7306374519198351872",
        "url": ""
    },
    {
        "title": "遇见星星工坊：点亮400个“星星的孩子” 助他们绽放光芒",
        "docid": "7306392627153306166",
        "url": ""
    },
    {
        "title": "笔尖绘廉、光盘行动……红升幼儿园持续推进清廉建设",
        "docid": "7306320695389274659",
        "url": ""
    },
    {
        "title": "黄江持续扩大慈善公益覆盖面，打造“爱在黄江”品牌",
        "docid": "7306483574218244649",
        "url": ""
    },
    {
        "title": "江西会昌：悦享运动 共筑航天梦",
        "docid": "7306350901697020451",
        "url": ""
    },
    {
        "title": "科学配置母婴室 建设生育友好型社会",
        "docid": "7306347532345688591",
        "url": ""
    },
    {
        "title": "孩子发烧要不要去医院？出现这几种情况应立即就医",
        "docid": "7306418050360918540",
        "url": ""
    },
    {
        "title": "收藏贴|湿疹要保湿？激素、抗生素咋涂才安全？保姆级治疗指南",
        "docid": "7306331113209872905",
        "url": ""
    },
    {
        "title": "浙江 广西多家医院关闭产科 停止孕产妇分娩服务 有医院妇产科医护人员称“分娩数量很少，继续干没有意义”",
        "docid": "7283729834420159016",
        "url": ""
    },
    {
        "title": "医院八卦千千万，妇产科能占一半，网友的评论，一个比一个毁三观",
        "docid": "7306383921393091112",
        "url": ""
    },
    {
        "title": "生孩子哪是生孩子！根本生了一个人质！生了一个困住自己的牢笼！",
        "docid": "7305052946952569353",
        "url": ""
    },
    {
        "title": "在美术馆里参加音乐节是什么体验？养眼又养耳！",
        "docid": "7306520398857290275",
        "url": ""
    },
    {
        "title": "240斤“胖妈妈”在济阳中医院产科顺利分娩",
        "docid": "7306404560758014490",
        "url": ""
    },
    {
        "title": "紧急大抢救！岳阳市中心医院上演生死时速",
        "docid": "7306045704194130482",
        "url": ""
    },
    {
        "title": "气血不足那就多喝这5种汤，也是女性产后修复常喝的汤！",
        "docid": "7306312052858110516",
        "url": ""
    },
    {
        "title": "30分钟内提供帮助！助力特殊儿童社区康复项目已服务儿童超1500人次",
        "docid": "7306514145741439515",
        "url": ""
    },
    {
        "title": "上央视！邀您倾听~",
        "docid": "7306447022789231131",
        "url": ""
    },
    {
        "title": "四岁脑瘫女孩重获“新生” ——广州市番禺区的帮扶团队在赫章县干了一件有意义的事",
        "docid": "7306487511021666852",
        "url": ""
    },
    {
        "title": "江苏省优质幼儿园，苏州+15！",
        "docid": "7306474814456971813",
        "url": ""
    },
    {
        "title": "在异国风沙之地，长宁医生守护母婴安全",
        "docid": "7306350193501520384",
        "url": ""
    },
    {
        "title": "贵州248万宝宝免费领近3000万营养包",
        "docid": "7306492526683439642",
        "url": ""
    },
    {
        "title": "这样学习急救，难怪孩子喜欢",
        "docid": "7306386828892946944",
        "url": ""
    },
    {
        "title": "孩子吐字不清长大就好了？舌系带治疗这事可没这么简单",
        "docid": "7306320433350394404",
        "url": ""
    },
    {
        "title": "如何增强儿童抵抗力？",
        "docid": "7306379557228085787",
        "url": ""
    },
    {
        "title": "学做“小猎人”，了解小动物",
        "docid": "7306365623633117708",
        "url": ""
    },
    {
        "title": "交流互鉴共发展 成都武侯五幼迎幼教同仁参观交流",
        "docid": "7306420504285086245",
        "url": ""
    },
    {
        "title": "健康“医”点通 呼吸道疾病进入高发期 专家支招儿童如何防治",
        "docid": "7306504358890553883",
        "url": ""
    },
    {
        "title": "长图｜流感、支原体、合胞病毒……怎么判断孩子感染了啥",
        "docid": "7306473833580511754",
        "url": ""
    },
    {
        "title": "江西东乡：趣味运动 筑梦航天",
        "docid": "7306420455760904744",
        "url": ""
    }
]