[
    {
        "title": "神奇的父子八大定律，惊人的二八定律",
        "docid": "7327306280199586339",
        "url": ""
    },
    {
        "title": "被社会毒打后才明白的道理！网友分享一个比一个震撼，醍醐灌顶",
        "docid": "7303813159406649896",
        "url": ""
    },
    {
        "title": "女孩姓“暴”，妈妈在线求助一个温柔的名字，被网友脑洞笑喷！",
        "docid": "7321926099858965027",
        "url": ""
    },
    {
        "title": "董宇辉:不要太在意孩子",
        "docid": "7306764080998679052",
        "url": ""
    },
    {
        "title": "段睿：我和蔡磊是同频的人，产检他不陪我去，他住院我也没去陪他",
        "docid": "7302692603408024101",
        "url": ""
    },
    {
        "title": "终于有人把珠算口诀，详细整理好了，千万要告诉孩子看完增加知识",
        "docid": "7325304733718135332",
        "url": ""
    },
    {
        "title": "陪孩子和挣钱哪个更重要，孩子最缺的是什么",
        "docid": "7327768967517635113",
        "url": ""
    },
    {
        "title": "孩子最讨厌的沟通方式：正话反说！",
        "docid": "7321265036373279241",
        "url": ""
    },
    {
        "title": "楼上熊孩子的噪音消停了，说说我的三步处理办法吧，或许能帮到你",
        "docid": "7319835607205855798",
        "url": ""
    },
    {
        "title": "长大后会没出息的孩子，家里大多有以下9个“穷习惯”",
        "docid": "7327176261758632448",
        "url": ""
    },
    {
        "title": "11年女植物人肚子变大，医生检查发现怀孕，丈夫坚持要孩子今如何",
        "docid": "7319432177832624652",
        "url": ""
    },
    {
        "title": "黄雅莉孕中期随夫游欧洲，称被老公宠成皇太后，王皓撞脸玄彬",
        "docid": "7328283753724314175",
        "url": ""
    },
    {
        "title": "一张“马脸”代代相传？父亲的基因太强大，子女有苦也说不出！",
        "docid": "7324129454744519218",
        "url": ""
    },
    {
        "title": "这四种父母最容易把孩子养成仇人，有一种妈妈懂得人性养孩子",
        "docid": "7315615484878766619",
        "url": ""
    },
    {
        "title": "春节给孩子压岁钱时，别忘了说这四句话",
        "docid": "7326808974936834586",
        "url": ""
    },
    {
        "title": "自查！五大“夺命”儿童玩具，家里有的赶快扔掉！",
        "docid": "7320203544429756966",
        "url": ""
    },
    {
        "title": "为什么要生孩子？这是我见过最好的答案",
        "docid": "7328048372957479443",
        "url": ""
    },
    {
        "title": "研究发现：长大后仍然“跟妈亲”的男孩，主要是妈妈做对了这3点",
        "docid": "7295247991634707007",
        "url": ""
    },
    {
        "title": "多鼓励女儿5个方面，她才能越来越强大",
        "docid": "7295913845619442195",
        "url": ""
    },
    {
        "title": "17岁自闭症男孩，字迹堪比“印刷体”，自闭症都是天才？",
        "docid": "7305616146642846223",
        "url": ""
    },
    {
        "title": "说了别娶俄罗斯美女！你看产前娜塔莎，产后娜大妈，这下尴尬了吧",
        "docid": "7327243669075984905",
        "url": ""
    },
    {
        "title": "父母两方的缺点都遗传到孩子身上是啥样?网友分享真是心酸又好笑",
        "docid": "7324500594713199104",
        "url": ""
    },
    {
        "title": "孩子刚出生就要开始预防人贩子了！评论区的经历惊呆上万网友！",
        "docid": "7302270618311983650",
        "url": ""
    },
    {
        "title": "男孩被100度热汤烫伤，妈妈60分钟处理救了娃，医生：不用治",
        "docid": "7326841433162695194",
        "url": ""
    },
    {
        "title": "你媳妇怀孕了，想吃榴莲，一个200多，以你现在的经济会买么？",
        "docid": "7306382833222730267",
        "url": ""
    },
    {
        "title": "孕期你见过老公哪些奇葩行为？看完网友的吐槽，想忍住不笑都难！",
        "docid": "7304186348993823267",
        "url": ""
    },
    {
        "title": "被小朋友的思维方式惊呆了！评论区的宝宝简直是天使般的存在！",
        "docid": "7297574087591805459",
        "url": ""
    },
    {
        "title": "孩子外貌在几岁“定型”？家长做好3件事，孩子长越好看",
        "docid": "7298908153972916755",
        "url": ""
    },
    {
        "title": "这6个特征大概率会遗传，快来看看孩子继承了你的哪些优良基因吧",
        "docid": "7297010998882632242",
        "url": ""
    },
    {
        "title": "去做产检，穿得精致点还是土点好？一评论引起上万孕妈共鸣",
        "docid": "7303382655712739850",
        "url": ""
    },
    {
        "title": "90后女子哭诉早起做早餐，孩子却不领情，网友笑喷：换我也吃不下",
        "docid": "7311179870544462355",
        "url": ""
    },
    {
        "title": "果然，还是老祖宗知道怎么哄孩子！看完网友评论，我瞬间醍醐灌顶",
        "docid": "7324562916236165670",
        "url": ""
    },
    {
        "title": "普通家庭如何低成本带孩子见世面？这次终于说清楚了！",
        "docid": "7327848924986556937",
        "url": ""
    },
    {
        "title": "如果头胎是女儿，必须生二胎，如果头胎是儿子，二胎可生可不生。",
        "docid": "7316181413689147919",
        "url": ""
    },
    {
        "title": "记住这个海姆立克急救法！关键时刻能救命",
        "docid": "7312000024349622794",
        "url": ""
    },
    {
        "title": "笑啊，怎么不笑了？爱他就生个娃吧，肉眼可见的憔悴了",
        "docid": "7313208377163940361",
        "url": ""
    },
    {
        "title": "生二胎那天，你们是怎么安排大宝的？看完网友评论，既心酸又无奈",
        "docid": "7319362383284421161",
        "url": ""
    },
    {
        "title": "董宇辉说:当孩子缺乏自律时，给他讲讲懒鸟效应",
        "docid": "7325223132347384331",
        "url": ""
    },
    {
        "title": "不论关系有多亲，去别人家都不能带这3样，这是基本礼貌，别不懂",
        "docid": "7296692124379071016",
        "url": ""
    },
    {
        "title": "我90后，为生娃花近10万检查费，被迫试管，其过程却是一部血泪史",
        "docid": "7303111768392335887",
        "url": ""
    },
    {
        "title": "没想到女孩怀孕期间激素的威力这么大!看完网友分享,小脑都萎缩了",
        "docid": "7321591200832979519",
        "url": ""
    },
    {
        "title": "“残奶”不排会致癌？宝妈们都担心死了，医生来告诉你真相！",
        "docid": "7322377422945911322",
        "url": ""
    },
    {
        "title": "每月1000元，全年无休，自闭症儿子在社区当环卫工三年半",
        "docid": "7327226857714385447",
        "url": ""
    },
    {
        "title": "男人越来越健康的9种好习惯，看完涨知识了！",
        "docid": "7327214684455617062",
        "url": ""
    },
    {
        "title": "孩子这样说话，说明他心理正在崩溃",
        "docid": "7300774322052858407",
        "url": ""
    },
    {
        "title": "水果蒸着吃，居然好处这么多！",
        "docid": "7323458829050692111",
        "url": ""
    },
    {
        "title": "真正的好父亲有哪些表现？",
        "docid": "7325717358646067775",
        "url": ""
    },
    {
        "title": "见过大世面的父母，会给子女这几样东西，很有格局",
        "docid": "7316750535573832203",
        "url": ""
    },
    {
        "title": "父亲的格局，决定家庭的方向；母亲的情绪，决定家庭的温度",
        "docid": "7324201141615886857",
        "url": ""
    },
    {
        "title": "当孩子说考砸了，父母不要再说“没关系”",
        "docid": "7326790820190667291",
        "url": ""
    },
    {
        "title": "草莓不能给孩子吃？儿科医生：孩子草莓吃多了，会有这几个危害！",
        "docid": "7312721016428642828",
        "url": ""
    },
    {
        "title": "顺产时痛得“撕心裂肺”，胎儿是啥“感受”呢？看完不禁笑出了声",
        "docid": "7319324663124132386",
        "url": ""
    },
    {
        "title": "知道隔代亲可你们太亲了：去世的奶奶梦里送饭票，一天一个猪肘子",
        "docid": "7327508700330213922",
        "url": ""
    },
    {
        "title": "指责型父母是孩子一生的灾难",
        "docid": "7326883916906955273",
        "url": ""
    },
    {
        "title": "烟火中的幼儿园火锅派对",
        "docid": "7327879366132908579",
        "url": ""
    },
    {
        "title": "响应了计划生育，又碰上鼓励生育，却又错过了生育年龄，尴尬不？",
        "docid": "7325948800068043300",
        "url": ""
    },
    {
        "title": "再穷也要给孩子隆重过的4个生日，父母千万别无所谓！赶紧记下来",
        "docid": "7297901657538593317",
        "url": ""
    },
    {
        "title": "一包普通的纸巾，让女儿感染了疾病，请谨慎购买这类便宜的纸巾",
        "docid": "7315251739186315839",
        "url": ""
    },
    {
        "title": "爸爸就是这样把我骗上了“985”",
        "docid": "7328153940451803674",
        "url": ""
    },
    {
        "title": "怀孕期间你的老公都做过什么，看完网友的回复我沉默了",
        "docid": "7320871111107985947",
        "url": ""
    },
    {
        "title": "孕期查出宝宝没有耳朵，妈妈心如刀割，最后坚持把孩子生了下来",
        "docid": "7302291402636198452",
        "url": ""
    },
    {
        "title": "儿子智障，自己被骗，却让女儿上交10年工资，如今61岁的她还好吗",
        "docid": "7322284270822195724",
        "url": ""
    },
    {
        "title": "宝宝出生后，医院为何要留下娃的脚印？医生不说但家长最好要知道",
        "docid": "7307955260482716211",
        "url": ""
    },
    {
        "title": "“博士爸爸质疑医生专业水平”被刷爆全网，揭露了多少父母的无知",
        "docid": "7321616705619411496",
        "url": ""
    },
    {
        "title": "昔日的“全国计划生育先进县”，如今几乎全是老人，这还只是缩影",
        "docid": "7317939577916883508",
        "url": ""
    },
    {
        "title": "放小孩自己玩房间秒变凶案现场！每一张都是宝妈的崩溃瞬间",
        "docid": "7316741556978041363",
        "url": ""
    },
    {
        "title": "经济学家郎咸平：如果大家都不生二胎，50年后中国剩下多少人？",
        "docid": "7297262914178712098",
        "url": ""
    },
    {
        "title": "事发泉州！女童拆快递时不慎刺伤眼 画面触目惊心",
        "docid": "7327830444186911266",
        "url": ""
    },
    {
        "title": "如果中国生育率继续降低，人口降至8亿，日子会更好过还是更难过",
        "docid": "7318732946188337675",
        "url": ""
    },
    {
        "title": "毁掉孩子的内驱力，从陪娃写作业开始！",
        "docid": "7328297295769109002",
        "url": ""
    },
    {
        "title": "家庭教育的十把刀",
        "docid": "7327838864201466403",
        "url": ""
    },
    {
        "title": "儿童餐，一周不重样的食谱，孩子能吃好几碗！快给孩子安排起来吧",
        "docid": "7322740166345474570",
        "url": ""
    },
    {
        "title": "一周不重样宝宝营养热汤面！",
        "docid": "7296279228885008896",
        "url": ""
    },
    {
        "title": "妈妈的7次撑腰，换来孩子一生抬头",
        "docid": "7312307080986526217",
        "url": ""
    },
    {
        "title": "一周不重样的儿童营养早餐，你还在为早上吃什么发愁吗？",
        "docid": "7302252647698956834",
        "url": ""
    },
    {
        "title": "收藏起来，千万别读错了，让孩子一起看看！",
        "docid": "7328083614632149516",
        "url": ""
    },
    {
        "title": "小宝宝这么大，怎么从妈妈狭窄的产道生出来？8张动图告诉你",
        "docid": "7323898570233397775",
        "url": ""
    },
    {
        "title": "妇产科的八卦能有多离谱？网友分享真的刷新三观！一个比一个炸裂",
        "docid": "7322030779016577545",
        "url": ""
    },
    {
        "title": "孩子何时换牙？换牙期需要注意什么？要做好两点以避免双排牙",
        "docid": "7324960699266957835",
        "url": ""
    },
    {
        "title": "家风家训，爱子七不责，整理得太经典了！值得一看",
        "docid": "7327576434095702540",
        "url": ""
    },
    {
        "title": "看了咱们国家成为全球生育率最低的国家之一，评论区都这么搞笑吗",
        "docid": "7317640159225299466",
        "url": ""
    },
    {
        "title": "\"黄雅莉欧洲行：孕期旅游变幸福皇太后，王皓酷似玄彬！\"",
        "docid": "7327972536258789907",
        "url": ""
    },
    {
        "title": "07年，内蒙6岁女孩因特殊能力，被特种部队破格录取，成最小军官",
        "docid": "7320910195894059571",
        "url": ""
    },
    {
        "title": "中国家庭之殇：53万儿童性早熟，“毁掉”孩子的不是炸鸡和豆浆",
        "docid": "7297105363357385270",
        "url": ""
    },
    {
        "title": "20岁生孩子vs30岁后生孩子，太真实了，妈妈看了想哭",
        "docid": "7312065026574107148",
        "url": ""
    },
    {
        "title": "95后产妇生下“雪人宝宝”，一家人吓坏了，医生却说“恭喜了”",
        "docid": "7308504516914184731",
        "url": ""
    },
    {
        "title": "有专家说，我们的国家得了一种病",
        "docid": "7306119614675927606",
        "url": ""
    },
    {
        "title": "试管婴儿寿命不过40、智商更低，还容易患癌?医生:没有一个是真的",
        "docid": "7312357515403362850",
        "url": ""
    },
    {
        "title": "一米八大男孩周末回家，都要去太奶奶的被窝睡一晚，男孩：不丢人",
        "docid": "7327989660478046756",
        "url": ""
    },
    {
        "title": "1992年，河南教师因“超生”被开除，不料22年后，省里赔偿60万",
        "docid": "7312010330262143526",
        "url": ""
    },
    {
        "title": "为何孩子越长大，越不爱去姥姥家？并非是“白眼狼”，原因很现实",
        "docid": "7309316018411930127",
        "url": ""
    },
    {
        "title": "神奇的父子8大定律：爸爸可以陪孩子做的7件事",
        "docid": "7327693465368838697",
        "url": ""
    },
    {
        "title": "你不知道的秘密 全球人口计划生育背后的推手 洛克菲勒家族",
        "docid": "7325104927855624755",
        "url": ""
    },
    {
        "title": "男孩子这样养，他长大了会感谢你。这八句话必须由爸爸来告诉孩子",
        "docid": "7305412993922368000",
        "url": ""
    },
    {
        "title": "不同思维的父母对待孩子的态度",
        "docid": "7298874235571896867",
        "url": ""
    },
    {
        "title": "孩子啥时候能吃盐？太早太晚都不好，家长要早知道，别弄错了",
        "docid": "7299028029626745379",
        "url": ""
    },
    {
        "title": "自律是父母“陪”出来的",
        "docid": "7326745573644648999",
        "url": ""
    },
    {
        "title": "千万别让孩子在三四岁的时候认字，遵循儿童发育规律，不拔苗助长",
        "docid": "7322278170856555017",
        "url": ""
    },
    {
        "title": "宝妈含泪告诫：如果可以，别轻易让姥姥带孩子",
        "docid": "7301208014735082035",
        "url": ""
    },
    {
        "title": "无效陪孩子比不陪孩子更伤孩子",
        "docid": "7296753706077422118",
        "url": ""
    },
    {
        "title": "湖南无臂妈妈：靠双腿哺乳，小6岁丈夫不离不弃，用坚强书写人生",
        "docid": "7319776442865320482",
        "url": ""
    },
    {
        "title": "常吃蒸菜，营养补得快，这四道蒸菜常吃，孩子身高的“加速器”",
        "docid": "7312761095188595226",
        "url": ""
    },
    {
        "title": "10年时间妈妈给女儿织了近百件毛衣，女儿：10年几乎没买过毛衣",
        "docid": "7317876524248482356",
        "url": ""
    },
    {
        "title": "2021年，高中学历父亲自学制药，救治绝症儿子，如今怎么样了？",
        "docid": "7324645312445202979",
        "url": ""
    },
    {
        "title": "千万不要吸食孩子的能量",
        "docid": "7322653965584204298",
        "url": ""
    },
    {
        "title": "11个“沙糖桔”惊动“专家”质疑带队幼师水平，评论区一片哗然",
        "docid": "7322579063736959515",
        "url": ""
    },
    {
        "title": "注意6个变矮行为，你家中招了吗。",
        "docid": "7326822672019669556",
        "url": ""
    },
    {
        "title": "宝宝几个月头部就定型，睡不过来了？超过这个月份，就别再折腾了",
        "docid": "7298927968754090507",
        "url": ""
    },
    {
        "title": "父亲将儿子画的丑东西变3D",
        "docid": "7297464732989669903",
        "url": ""
    },
    {
        "title": "一生仅有三岁智力，却被称为天才登上春晚，如今过上了怎样的生活",
        "docid": "7323788345463685668",
        "url": ""
    },
    {
        "title": "孩子出不出色，跟父母有很大的关系，特别是爸爸，请仔细看看",
        "docid": "7303026359444455936",
        "url": ""
    },
    {
        "title": "如果没有当初马寅初的人口论，没有计划生育，中国会变成什么样？",
        "docid": "7299356652736856628",
        "url": ""
    },
    {
        "title": "孩子要长高了的6个信号，家长们注意了",
        "docid": "7305996107904008744",
        "url": ""
    },
    {
        "title": "孩子长多高，看看这张表，你家孩子身高达标了吗？",
        "docid": "7299098637756383783",
        "url": ""
    },
    {
        "title": "多子女家庭，“最命好”的是老几？不是迷信，有科学依据",
        "docid": "7325357339677344283",
        "url": ""
    },
    {
        "title": "幼儿园老师不会告诉你的9个“幼儿园潜规则”！",
        "docid": "7327762397811393063",
        "url": ""
    },
    {
        "title": "程晓玥到婆家第二天女儿阳了，与老公带爱女看急诊，心疼到落泪",
        "docid": "7328333118707892776",
        "url": ""
    },
    {
        "title": "如果可以，尽量少跟孩子生些气吧，这是过来人的忠告",
        "docid": "7310182796549767720",
        "url": ""
    },
    {
        "title": "精美的手写，写给孩子们的成长手册，家长请细品！",
        "docid": "7314601086861115942",
        "url": ""
    },
    {
        "title": "吃1个它，等于5个苹果！是公认的“全科医生”，这么吃孩子蹭蹭长",
        "docid": "7301856256392970791",
        "url": ""
    },
    {
        "title": "3岁前该给孩子立的规矩，这是我见过最完整的，建议收藏",
        "docid": "7324198876049883667",
        "url": ""
    },
    {
        "title": "你以为的那些“坏习惯”，真的不用改！",
        "docid": "7298667196585099839",
        "url": ""
    },
    {
        "title": "当一个好爸爸的最低成本：做对这3件事",
        "docid": "7315214787011691049",
        "url": ""
    },
    {
        "title": "惊了！他说出了自闭症孩子大脑运行的方式",
        "docid": "7308944262014894603",
        "url": ""
    },
    {
        "title": "蒋丽莎：5年4胎从来不坐月子，如今38岁的她，老过54岁的丈夫",
        "docid": "7307575988261700131",
        "url": ""
    },
    {
        "title": "2个闺蜜离婚后，同居养娃：更幸福了",
        "docid": "7328214270523556402",
        "url": ""
    },
    {
        "title": "不想女儿唯唯诺诺、胆小爱哭，就看这10部能增强自信的纪录片！",
        "docid": "7301577857015267894",
        "url": ""
    },
    {
        "title": "越穷的家长，越喜欢在3件事上“装大方”，看看有你吗？尽早避雷",
        "docid": "7314250535610335744",
        "url": ""
    },
    {
        "title": "家长为什么不敢给孩子做雾化？看完这篇搞清楚了",
        "docid": "7298179227156070921",
        "url": ""
    },
    {
        "title": "孩子的基因遗传谁？终于有人整理好了，看完涨知识了。",
        "docid": "7328308130205778447",
        "url": ""
    },
    {
        "title": "允许孩子发脾气，孩子成长路上，遇到的问题都在这里，请仔细看看",
        "docid": "7297759425505722920",
        "url": ""
    },
    {
        "title": "11种宝宝急救方法，关键时刻能救命‼️快收藏",
        "docid": "7314563031818584615",
        "url": ""
    },
    {
        "title": "怀孕后，每周要做什么？",
        "docid": "7325793313703985675",
        "url": ""
    },
    {
        "title": "其实你的孩子不是懒，是能量太低了",
        "docid": "7297855803703394826",
        "url": ""
    },
    {
        "title": "看了跟妈妈说对不起的女儿我才明白：养育女儿的关键是情绪价值",
        "docid": "7295613212991504896",
        "url": ""
    },
    {
        "title": "收藏起来，没事跟孩子互动一下百科知识！",
        "docid": "7303391143437025801",
        "url": ""
    },
    {
        "title": "我发现了一个旺孩子的绝招！罗森塔尔效应！",
        "docid": "7320796627038880271",
        "url": ""
    },
    {
        "title": "一个看似普通的饭碗，成了孩子中毒的元凶，请家长小心这类产品",
        "docid": "7327110900941406783",
        "url": ""
    },
    {
        "title": "婴儿睡觉时为什么看见妈妈在旁边就继续睡",
        "docid": "7298911844801135142",
        "url": ""
    },
    {
        "title": "补脾超厉害的菜，比小米强多了，常吃补脾益胃，养神睡得香！",
        "docid": "7295324330924360192",
        "url": ""
    },
    {
        "title": "做个情绪稳定的父母，有些话真不要和孩子说 ​​​",
        "docid": "7295151614246076937",
        "url": ""
    },
    {
        "title": "浙江乡村医生六个孩子五个是博士，而他的育儿观却只有二十四个字",
        "docid": "7324607171278045736",
        "url": ""
    },
    {
        "title": "产检的时候 医生为什么要问是头胎还是二胎？",
        "docid": "7308695333226496551",
        "url": ""
    },
    {
        "title": "这些东西，不建议给孩子买，因为会用得停不下来",
        "docid": "7320255106857861686",
        "url": ""
    },
    {
        "title": "从小“把尿”和用“尿不湿”的孩子3个方面差距很大，家长别忽视",
        "docid": "7312409372171338275",
        "url": ""
    },
    {
        "title": "那些与幸福家庭孩子无法共情的瞬间，评论区扎心经历触动上万读者",
        "docid": "7296354925179847208",
        "url": ""
    },
    {
        "title": "咳嗽辨证，家长这些你一定要保存！",
        "docid": "7316088672884392459",
        "url": ""
    },
    {
        "title": "怀孕的每个月你的身体变化及注意事项",
        "docid": "7306693248196723238",
        "url": ""
    },
    {
        "title": "16句“神回复”，搞定和孩子的沟通难题",
        "docid": "7295945322809917993",
        "url": ""
    },
    {
        "title": "什么样的女人最容易怀孕？易孕的女人有这5个特征，赶快看看~",
        "docid": "7301900784034365988",
        "url": ""
    },
    {
        "title": "11只“小砂糖橘”园长的素颜和幼儿园的真实画面",
        "docid": "7324519036144845353",
        "url": ""
    },
    {
        "title": "永远不要帮着别人欺负你的孩子",
        "docid": "7328364048926753299",
        "url": ""
    },
    {
        "title": "金牌月嫂月子餐食谱！教完失业！",
        "docid": "7311167054722351679",
        "url": ""
    },
    {
        "title": "89年，2岁男孩因患小儿麻痹被抛弃，22年后夺金牌，父母前来相认",
        "docid": "7324582081533641252",
        "url": ""
    },
    {
        "title": "支原体肺炎康复后，不做好这件事，短期内还会二次感染！",
        "docid": "7304832103991411234",
        "url": ""
    },
    {
        "title": "孩子性启蒙怕尴尬，不知道怎么教--就看这几部动画片",
        "docid": "7320117058140701199",
        "url": ""
    },
    {
        "title": "当年计划生育政策那么紧，但我发现在医院上班的大多都是两个孩子",
        "docid": "7327955828668056099",
        "url": ""
    },
    {
        "title": "我广东妹子，嫁大10岁南非老公生下混血宝，现旅居南非品味慢生活",
        "docid": "7318574671769895439",
        "url": ""
    },
    {
        "title": "《No Nap》你家是不是也有不爱睡觉的小宝贝？",
        "docid": "7327600740544119331",
        "url": ""
    },
    {
        "title": "坐月子真的有必要去月子中心吗？",
        "docid": "7303464531051921939",
        "url": ""
    },
    {
        "title": "“妈妈，什么是教养”？这是我见过最完整的答案！",
        "docid": "7328069773806338612",
        "url": ""
    },
    {
        "title": "高知老人带娃是什么体验？网友：刚带半天，就吃上速效救心丸了",
        "docid": "7328312704584991251",
        "url": ""
    },
    {
        "title": "一个不刷牙的大爷亲了宝宝一口，宝宝不久因为感染去世了",
        "docid": "7297809518174683687",
        "url": ""
    },
    {
        "title": "孩子被欺负，比起打回去，这5个方法才能解决根本问题",
        "docid": "7299656379806040603",
        "url": ""
    },
    {
        "title": "“过河拆桥”，女儿才是爸爸的小棉袄，太有意思了！",
        "docid": "7328139161901220393",
        "url": ""
    },
    {
        "title": "还在纠结要不要生二胎？我以过来人的经验告诉你",
        "docid": "7295715077897486874",
        "url": ""
    },
    {
        "title": "两岁半宝宝满嘴烂牙，医生揪出罪魁祸首：妈妈的无知害了孩子",
        "docid": "7308954936962810377",
        "url": ""
    },
    {
        "title": "没耐心的父母养不出优秀的孩子。",
        "docid": "7328108201621307923",
        "url": ""
    },
    {
        "title": "老人为什么要带娃，这是我见过最好的答案",
        "docid": "7313778876973318671",
        "url": ""
    },
    {
        "title": "俄罗斯一孕妇和女儿在冰水里泡澡，她站出来的那一刻我小脑萎缩了",
        "docid": "7327463882019062309",
        "url": ""
    },
    {
        "title": "头胎是儿子和头胎是女儿是天壤之别！男人们的心里话太扎心了",
        "docid": "7326769821117415972",
        "url": ""
    },
    {
        "title": "顺产生孩子有多痛！一组3D图告诉你，妈妈太伟大，生而为人要感恩",
        "docid": "7322840641187267124",
        "url": ""
    },
    {
        "title": "生理期间这样吃，轻松远离经期不适！",
        "docid": "7321157401271927335",
        "url": ""
    },
    {
        "title": "李玫瑾：多跟孩子说这8句话，能让他改变很大，受益一生",
        "docid": "7320410847715607052",
        "url": ""
    },
    {
        "title": "教育男孩并不是打，用对方法最重要。值得一看",
        "docid": "7327725217567097370",
        "url": ""
    },
    {
        "title": "简单好用的退烧方法，家长一定要学会！",
        "docid": "7319740481104052736",
        "url": ""
    },
    {
        "title": "三位七旬老人哭诉：人老了，儿女出现这三种情况，比不孝顺还可怕",
        "docid": "7300815010878571035",
        "url": ""
    },
    {
        "title": "气血不足那就多喝这5种汤，也是女性产后修复常喝的汤！",
        "docid": "7306312052858110516",
        "url": ""
    },
    {
        "title": "学会放松",
        "docid": "7328346594666250789",
        "url": ""
    }
]