[
    {
        "title": "又给整进屋啦家人们 不聊不行 聊完就有效果#西西贝贝的日常",
        "docid": "7303837749323235859",
        "url": "https://www.ixigua.com/7303837749323235859"
    },
    {
        "title": "等你们长大有钱了送给爸爸什么礼物？一个二个还是都挺孝顺的",
        "docid": "7316353658860667427",
        "url": "https://www.ixigua.com/7316353658860667427"
    },
    {
        "title": "女孩突然转身看向镜头，瞬间被美到了，妈妈：女儿真的太美好了",
        "docid": "7324950157227721270",
        "url": "https://www.ixigua.com/7324950157227721270"
    },
    {
        "title": "解压动画：实验汽车粉碎脆软的废弃玩具，咔嚓咔嚓的声音，超减压",
        "docid": "7313005483458036274",
        "url": "https://www.ixigua.com/7313005483458036274"
    },
    {
        "title": "\\",
        "docid": "7336490925063209487",
        "url": "https://www.ixigua.com/7336490925063209487"
    },
    {
        "title": "宝宝过闸门时不料头被卡住，当场气炸站原地和闸门对峙：这事没完",
        "docid": "7318270001885610511",
        "url": "https://www.ixigua.com/7318270001885610511"
    },
    {
        "title": "gducjfjcjv",
        "docid": "7336480452108255756",
        "url": "https://www.ixigua.com/7336480452108255756"
    },
    {
        "title": "细节观察的都是到位 #西西贝贝的日常 #辅导作业#西贝脱皮玉米羹",
        "docid": "7319794770032329251",
        "url": "https://www.ixigua.com/7319794770032329251"
    },
    {
        "title": "坐月子餐：重塑健康与美丽的秘密武器",
        "docid": "7336601875283952165",
        "url": ""
    },
    {
        "title": "姐姐画一家四口却没画自己，宝妈担心仔细询问，下秒令人“笑崩”",
        "docid": "7336511874978185755",
        "url": "https://www.ixigua.com/7336511874978185755"
    },
    {
        "title": "汪汪队：贝贝本想执行拯救任务，却被坏人利用，结果会怎样呢？",
        "docid": "7319328010098868745",
        "url": "https://www.ixigua.com/7319328010098868745"
    },
    {
        "title": "剪纸动画：善良女孩救了一只小鲨鱼，获得了一套豪华鲨鱼海景房！",
        "docid": "7304077271013261834",
        "url": "https://www.ixigua.com/7304077271013261834"
    },
    {
        "title": "孩子们在客厅安静看电视，家长却被眼前一幕逗乐：怎么统一战线的",
        "docid": "7327217720531878441",
        "url": "https://www.ixigua.com/7327217720531878441"
    },
    {
        "title": "麦奇寻找纸飞机 不小心坐上了去幼儿园的校车…#萌鸡小队",
        "docid": "7308980223108710927",
        "url": "https://www.ixigua.com/7308980223108710927"
    },
    {
        "title": "积木人仔39",
        "docid": "7336544492905824805",
        "url": "https://www.ixigua.com/7336544492905824805"
    },
    {
        "title": "想成为蛋仔主播",
        "docid": "7336557774886994483",
        "url": "https://www.ixigua.com/7336557774886994483"
    },
    {
        "title": "小赛罗的脑袋上，被扣了一个花瓶，怎么也拿不下来！",
        "docid": "7303763450625425954",
        "url": "https://www.ixigua.com/7303763450625425954"
    },
    {
        "title": "拉布拉多警长儿童：神奇喷雾可以瞬间疗愈伤口？千万不要上当了！",
        "docid": "7307203789277430281",
        "url": "https://www.ixigua.com/7307203789277430281"
    },
    {
        "title": "原来挑食有可能不是娃的错...",
        "docid": "7333812131601023514",
        "url": "https://www.ixigua.com/7333812131601023514"
    },
    {
        "title": "变身龙战士星源逛玩具店，集齐6款绝招系列，兑换黄金玩具 #玩具",
        "docid": "7317554142308893223",
        "url": "https://www.ixigua.com/7317554142308893223"
    },
    {
        "title": "那个曾经骗了我许多眼泪的雪孩子，今年冬天还会回来吗？",
        "docid": "7313515129444762146",
        "url": "https://www.ixigua.com/7313515129444762146"
    },
    {
        "title": "“西游怪谈大圣已死”西行路上被杀的妖魔全部都是孙悟空变的",
        "docid": "7317950802037834255",
        "url": "https://www.ixigua.com/7317950802037834255"
    },
    {
        "title": "6",
        "docid": "7336523026127094282",
        "url": "https://www.ixigua.com/7336523026127094282"
    },
    {
        "title": "，",
        "docid": "7336486707002343963",
        "url": "https://www.ixigua.com/7336486707002343963"
    },
    {
        "title": "笑麻了，网友制作胖东来“景区”入园指南，真是能让人笑翻。",
        "docid": "7336342886138970624",
        "url": ""
    },
    {
        "title": "玩具店抽51包奥特曼CP卡片，竟然有神秘四奥，赛迦大头卡",
        "docid": "7313367928320033307",
        "url": "https://www.ixigua.com/7313367928320033307"
    },
    {
        "title": "灰太狼拥有世界上最苦的眼泪，指导老师余华...",
        "docid": "7333436228517233215",
        "url": "https://www.ixigua.com/7333436228517233215"
    },
    {
        "title": "汤姆家里来了一只远古老猫，就连斯派克都不是他的对手！",
        "docid": "7331714914446541348",
        "url": "https://www.ixigua.com/7331714914446541348"
    },
    {
        "title": "厉害了！聪明可爱的小猴子毕毕自己跑去菜地帮妈妈把菜摘回来！",
        "docid": "7324534077552656930",
        "url": "https://www.ixigua.com/7324534077552656930"
    },
    {
        "title": "究极赛迦！8个大隐藏布鲁可奥特曼合体！这也太顶了吧？",
        "docid": "7322740625168826880",
        "url": "https://www.ixigua.com/7322740625168826880"
    },
    {
        "title": "两岁萌娃为变美get新技能",
        "docid": "7336491512978473498",
        "url": "https://www.ixigua.com/7336491512978473498"
    },
    {
        "title": "这孩子胆真大",
        "docid": "7336568435561890344",
        "url": "https://www.ixigua.com/7336568435561890344"
    },
    {
        "title": "敢不敢把孩子排在家庭的最后一位？",
        "docid": "7336543213278216704",
        "url": ""
    },
    {
        "title": "你们说这是奇轮人，让烈焰和狂犀进行大比拼，猜猜看是谁赢了",
        "docid": "7313083915793760822",
        "url": "https://www.ixigua.com/7313083915793760822"
    },
    {
        "title": "清空玩具店布鲁可第10弹，隐藏欧布奥特曼，进化武器大师形态",
        "docid": "7312087186826854924",
        "url": "https://www.ixigua.com/7312087186826854924"
    },
    {
        "title": "贝乐虎启蒙动画《超级汽车》陪宝宝快乐成长：顽皮的碰碰车",
        "docid": "7310132456206959119",
        "url": "https://www.ixigua.com/7310132456206959119"
    },
    {
        "title": "吃坏肚子的霸王龙#动画 #恐龙动画 #动画小故事 #热门动画",
        "docid": "7318526855533986316",
        "url": "https://www.ixigua.com/7318526855533986316"
    },
    {
        "title": "超级赛亚人",
        "docid": "7336434635351523892",
        "url": "https://www.ixigua.com/7336434635351523892"
    },
    {
        "title": "√",
        "docid": "7336427491369681408",
        "url": "https://www.ixigua.com/7336427491369681408"
    },
    {
        "title": "这10条知识父母要替孩子保存",
        "docid": "7335301947152843283",
        "url": ""
    },
    {
        "title": "“女看前，男看后”：告诉孩子，找对象之前，这六个字一定要明白",
        "docid": "7336578459004600871",
        "url": ""
    },
    {
        "title": "护士将新生儿直接放在水龙头下冲洗，手法简单粗暴，比洗菜还随意",
        "docid": "7326097916748431872",
        "url": "https://www.ixigua.com/7326097916748431872"
    },
    {
        "title": "手绘:不同画风的王默，哪一个最美",
        "docid": "7312762746444415542",
        "url": "https://www.ixigua.com/7312762746444415542"
    },
    {
        "title": "妈妈一口把女儿的香肠全部吃掉，女儿带哭腔乞求再留点，网友笑喷",
        "docid": "7336134807229104655",
        "url": "https://www.ixigua.com/7336134807229104655"
    },
    {
        "title": "不信别的开始信上玄学了#西西贝贝的日常 #辅导作业 #双胞胎",
        "docid": "7322763087923118633",
        "url": "https://www.ixigua.com/7322763087923118633"
    },
    {
        "title": "喜欢我全开美颜还是全部开美颜不喜欢的包子我可以每天开美颜",
        "docid": "7336499745584022068",
        "url": "https://www.ixigua.com/7336499745584022068"
    },
    {
        "title": "洗澡澡",
        "docid": "7336362754774991398",
        "url": "https://www.ixigua.com/7336362754774991398"
    },
    {
        "title": "妈妈谎称要带女儿去打架，女儿果断回屋穿鞋满脸兴奋：有事她真上",
        "docid": "7327985062312575523",
        "url": "https://www.ixigua.com/7327985062312575523"
    },
    {
        "title": "只知道德华带孩子辛苦，但这回报他们是一点也不说啊#德华带娃",
        "docid": "7332776023500522038",
        "url": "https://www.ixigua.com/7332776023500522038"
    },
    {
        "title": "贝乐虎启蒙动画《超级汽车》陪宝宝快乐成长：迷你车大追捕",
        "docid": "7312748702102356480",
        "url": "https://www.ixigua.com/7312748702102356480"
    },
    {
        "title": "2岁宝宝半夜朝窗外喊妹妹，爸爸拉开窗帘却啥也看不见",
        "docid": "7318600184525652514",
        "url": "https://www.ixigua.com/7318600184525652514"
    },
    {
        "title": "地震来了，妈妈用身体保护了小宝",
        "docid": "7318602718841897472",
        "url": "https://www.ixigua.com/7318602718841897472"
    },
    {
        "title": "挑战用180个鞭炮炸矿泉水瓶 #放鞭炮",
        "docid": "7315333673346138664",
        "url": "https://www.ixigua.com/7315333673346138664"
    },
    {
        "title": "😂😂😂学学",
        "docid": "7336490397356851750",
        "url": "https://www.ixigua.com/7336490397356851750"
    },
    {
        "title": "开心^_^",
        "docid": "7336502000504603170",
        "url": "https://www.ixigua.com/7336502000504603170"
    },
    {
        "title": "怀孕的妈妈去体检，跟过去的小熊也跟着体验了一次体检的过程 #0",
        "docid": "7325567979956437531",
        "url": "https://www.ixigua.com/7325567979956437531"
    },
    {
        "title": "解压动画：彩虹橡胶球吓得大惊失色，实验车随时起动，如何帮帮它",
        "docid": "7311519442377114122",
        "url": "https://www.ixigua.com/7311519442377114122"
    },
    {
        "title": "君子报仇，四年不晚！萌娃：我等这一天已经很久了",
        "docid": "7328609875691471369",
        "url": "https://www.ixigua.com/7328609875691471369"
    },
    {
        "title": "萌娃背诗，你敢相信吗？这小家伙竟然能够背下这么长的诗句#萌娃",
        "docid": "7317946757646811700",
        "url": "https://www.ixigua.com/7317946757646811700"
    },
    {
        "title": "童年玩具的快乐！超力战队王连者DX超重合体阻绝王者美版对比日版",
        "docid": "7321196028726936098",
        "url": "https://www.ixigua.com/7321196028726936098"
    },
    {
        "title": "二次元美食，美味的超大冰山巧克力来了，好漂亮，看起来很有食欲",
        "docid": "7331646243292054056",
        "url": "https://www.ixigua.com/7331646243292054056"
    },
    {
        "title": "开心点就好啦",
        "docid": "7336452549534466575",
        "url": "https://www.ixigua.com/7336452549534466575"
    },
    {
        "title": "“孩子远比想象中更爱你，在孩子眼里妈妈就是全世界”",
        "docid": "7322013167746613800",
        "url": "https://www.ixigua.com/7322013167746613800"
    },
    {
        "title": "妈妈晒上课时的女儿有些人她坐在那里就是一副画",
        "docid": "7318214718853022223",
        "url": "https://www.ixigua.com/7318214718853022223"
    },
    {
        "title": "猴子联系两年半武术，不及伤到妖怪，前往海底借武器。",
        "docid": "7303813187537732147",
        "url": "https://www.ixigua.com/7303813187537732147"
    },
    {
        "title": "汪汪队儿童动画片，阿奇被抓走了#儿童动画 #少儿动画片推荐",
        "docid": "7305691653535171106",
        "url": "https://www.ixigua.com/7305691653535171106"
    },
    {
        "title": "我也希望她是个正常人，如果当初产检能检查出来",
        "docid": "7326906387853017626",
        "url": "https://www.ixigua.com/7326906387853017626"
    },
    {
        "title": "混血男孩开学前挑灯狂补作业，英国老爸坐一旁激情解说，网友看笑",
        "docid": "7305265435719664168",
        "url": "https://www.ixigua.com/7305265435719664168"
    },
    {
        "title": "汉服小公主，猜猜拜的哪路神仙？许的什么愿😂😂",
        "docid": "7336417201043276303",
        "url": "https://www.ixigua.com/7336417201043276303"
    },
    {
        "title": "有趣的小猴子：小猴子玩彩虹惊喜盲蛋，里面有小鱼，小螃蟹小鸭子",
        "docid": "7332313996433097279",
        "url": "https://www.ixigua.com/7332313996433097279"
    },
    {
        "title": "洛奇最终战胜了人类",
        "docid": "7312858575502737947",
        "url": "https://www.ixigua.com/7312858575502737947"
    },
    {
        "title": "浙江男幼师考核现场嘟嘴卖萌，台下考试老师笑出眼泪，行业天花板",
        "docid": "7305610295039558163",
        "url": "https://www.ixigua.com/7305610295039558163"
    },
    {
        "title": "快看！刚出生的小宝宝，肉肉的一团，好像胖胖的白萝卜",
        "docid": "7321586474460119591",
        "url": "https://www.ixigua.com/7321586474460119591"
    },
    {
        "title": "那些年背着妈妈偷偷买的玩具，丸子变水精灵，剪开能隐身？",
        "docid": "7317575540347666970",
        "url": "https://www.ixigua.com/7317575540347666970"
    },
    {
        "title": "记录自闭症孩子从出生到2岁的变化，你2岁之前一直觉得你是健康的",
        "docid": "7314339311770567168",
        "url": "https://www.ixigua.com/7314339311770567168"
    },
    {
        "title": "孩子的快乐",
        "docid": "7336505487501984291",
        "url": "https://www.ixigua.com/7336505487501984291"
    },
    {
        "title": "小宝宝洗澡澡",
        "docid": "7336457336602821172",
        "url": "https://www.ixigua.com/7336457336602821172"
    },
    {
        "title": "有趣的小猴子：小猴子和小鸭子一起入睡，会是怎样的奇妙体验？",
        "docid": "7324130415399141900",
        "url": "https://www.ixigua.com/7324130415399141900"
    },
    {
        "title": "大家猜猜这个顶级的漂移车架得多少钱？ #漂移车 #rc漂移车",
        "docid": "7319323886863155762",
        "url": "https://www.ixigua.com/7319323886863155762"
    },
    {
        "title": "儿童早教动画，惊喜蛋里有什么，快来看看吧！",
        "docid": "7303770353258463763",
        "url": "https://www.ixigua.com/7303770353258463763"
    },
    {
        "title": "奥特曼被困在异次元空间，泽塔求助奥特之王，终于把他们救出来了",
        "docid": "7331930287112192512",
        "url": "https://www.ixigua.com/7331930287112192512"
    },
    {
        "title": "中国带“长”的四个城市，你知道几个呢，快来告诉下她吧😂",
        "docid": "7329821074978570815",
        "url": "https://www.ixigua.com/7329821074978570815"
    },
    {
        "title": "汪汪队儿童动画片，都是小猫咪惹的祸#儿童动画 #少儿动画片推荐",
        "docid": "7303840487978074675",
        "url": "https://www.ixigua.com/7303840487978074675"
    },
    {
        "title": "bmc",
        "docid": "7336422985550692876",
        "url": "https://www.ixigua.com/7336422985550692876"
    },
    {
        "title": "熊孩子拿学费请舅舅吃大餐，淡定吃完告诉舅舅真相：蹭饭的慌了",
        "docid": "7334908318772625930",
        "url": "https://www.ixigua.com/7334908318772625930"
    },
    {
        "title": "鱼雷水雷，深水炸蛋",
        "docid": "7330545939137954339",
        "url": "https://www.ixigua.com/7330545939137954339"
    },
    {
        "title": "剪纸动画：邋遢女孩自制礼服惊艳派对全场，压倒众人成功入选王妃",
        "docid": "7311513891513893426",
        "url": "https://www.ixigua.com/7311513891513893426"
    },
    {
        "title": "儿童动画：为什么外星人绿豆会被小朋友们嫌弃？",
        "docid": "7327826193309237810",
        "url": "https://www.ixigua.com/7327826193309237810"
    },
    {
        "title": "新生儿到处找脐带，护士贴心给出“平替”，医生：难怪绕颈一周",
        "docid": "7326486757850284607",
        "url": "https://www.ixigua.com/7326486757850284607"
    },
    {
        "title": "奥特曼夜光战队，尝试很多次，终于实现了！",
        "docid": "7306082489645302310",
        "url": "https://www.ixigua.com/7306082489645302310"
    },
    {
        "title": "带娃",
        "docid": "7335690158149304859",
        "url": "https://www.ixigua.com/7335690158149304859"
    },
    {
        "title": "让高价母婴产品回归理性",
        "docid": "7336694551811260965",
        "url": ""
    },
    {
        "title": "戴拿闪光剑欧气拆卡，4盒豪华版奥特曼卡片，120倍欧气暴击",
        "docid": "7315055701322433060",
        "url": "https://www.ixigua.com/7315055701322433060"
    },
    {
        "title": "布鲁可拆盒 银河维克特利帅到爆炸",
        "docid": "7305264592631005736",
        "url": "https://www.ixigua.com/7305264592631005736"
    },
    {
        "title": "谁的爸爸最厉害呢？",
        "docid": "7304528937349186089",
        "url": "https://www.ixigua.com/7304528937349186089"
    },
    {
        "title": "小电池吃的很开心 电池妈妈却一口不吃 为什么呢",
        "docid": "7311689333612904972",
        "url": "https://www.ixigua.com/7311689333612904972"
    },
    {
        "title": "我们家小宝贝满月啦，按照越南习俗做仪式，抢购金子送女儿！",
        "docid": "7333440750149075497",
        "url": "https://www.ixigua.com/7333440750149075497"
    },
    {
        "title": "幼儿园里女孩靠在男孩肩头，男孩满脸不情愿表情萌翻，网友看傻眼",
        "docid": "7315237534496195113",
        "url": "https://www.ixigua.com/7315237534496195113"
    },
    {
        "title": "14岁男孩怒怼父亲：父亲痛心疾首，网友热议教育方式",
        "docid": "7336032110286864906",
        "url": ""
    },
    {
        "title": "父子俩齐心协力，种出一片大西瓜",
        "docid": "7332062111973311015",
        "url": "https://www.ixigua.com/7332062111973311015"
    },
    {
        "title": "妈妈问儿子试卷这么多洞怎么能打100分？",
        "docid": "7333033295128724008",
        "url": "https://www.ixigua.com/7333033295128724008"
    },
    {
        "title": "小河薄薄的冰层下面，发现一个火箭造型的玩具，竟然是个抓娃娃机",
        "docid": "7313111921069130277",
        "url": "https://www.ixigua.com/7313111921069130277"
    },
    {
        "title": "你绝对想不到宝宝的这一番操作，有很多大人都做不到",
        "docid": "7310452508525068838",
        "url": "https://www.ixigua.com/7310452508525068838"
    },
    {
        "title": "三胞胎宝宝为了瓶奶大打出手，妈妈淡定观赛：让你们晚上熬我",
        "docid": "7314497772584075787",
        "url": "https://www.ixigua.com/7314497772584075787"
    },
    {
        "title": "女儿感冒呼吸困难，弟弟抱着姐姐狂奔医院，妈妈看着背影感慨万分",
        "docid": "7331654077233857074",
        "url": "https://www.ixigua.com/7331654077233857074"
    },
    {
        "title": "定格动画#橡皮泥人绿泡泡#绿泡泡做披萨！ 定格动画",
        "docid": "7325966119960445476",
        "url": "https://www.ixigua.com/7325966119960445476"
    },
    {
        "title": "美食动画：彩虹朋友炫七彩食品，哪种才是它的最爱呢？",
        "docid": "7303716447820186121",
        "url": "https://www.ixigua.com/7303716447820186121"
    },
    {
        "title": "宝宝白天不醒晚上不睡，爸爸不停扒拉着熟睡中的宝宝，手势亮了！",
        "docid": "7321922343469580852",
        "url": "https://www.ixigua.com/7321922343469580852"
    },
    {
        "title": "小宝宝梦想成为超级英雄！穿上反浩克盔甲后竟不可思议！",
        "docid": "7322514756965761571",
        "url": "https://www.ixigua.com/7322514756965761571"
    },
    {
        "title": "过年回家小侄女跳舞",
        "docid": "7336515494683345434",
        "url": "https://www.ixigua.com/7336515494683345434"
    },
    {
        "title": "女儿趁爸爸休息时偷亲一口，爸爸脸上嫌弃心里乐开花：又没钱了？",
        "docid": "7318316447640322569",
        "url": "https://www.ixigua.com/7318316447640322569"
    },
    {
        "title": "请开始你的表演",
        "docid": "7336391856760357410",
        "url": "https://www.ixigua.com/7336391856760357410"
    },
    {
        "title": "孩子认生，不让陌生人抱。回头看，他姨比他还“害羞”",
        "docid": "7327128843293196826",
        "url": "https://www.ixigua.com/7327128843293196826"
    },
    {
        "title": "看完《热辣滚烫》，一定要告诉孩子",
        "docid": "7336534673520476708",
        "url": ""
    },
    {
        "title": "孕妇过年期间一定要警惕被人摸肚子！看完网友分享，我汗流浃背了",
        "docid": "7336063010798076435",
        "url": ""
    },
    {
        "title": "能毁掉孩子的六种爸爸",
        "docid": "7336346132978663962",
        "url": ""
    },
    {
        "title": "怀孕你花了多久怀上？看完网友的花式评论，真是旱的旱死涝的涝死",
        "docid": "7328583495977108002",
        "url": ""
    },
    {
        "title": "北京博士夫妻生下神童女儿，从小智商过人，医生建议送去精神病院",
        "docid": "7329827317650604583",
        "url": ""
    },
    {
        "title": "再说一遍，这类孩子不属于矮小，家长不用过度焦虑！",
        "docid": "7322396642290991652",
        "url": ""
    },
    {
        "title": "现在流行的“二胎随母姓”？过来人:等着不出10年，弊端就出现了",
        "docid": "7335839273800761892",
        "url": ""
    },
    {
        "title": "宋庆龄先生病逝前，留下的照片，身体虚弱，让人心疼！",
        "docid": "7334311998668374568",
        "url": ""
    },
    {
        "title": "孕妈们注意！怀孕真的可以和绝对不可以",
        "docid": "7335412239224128039",
        "url": ""
    },
    {
        "title": "2019年，安徽小伙带娃送餐，把6个月孩子放外卖箱，如今怎样了？",
        "docid": "7313866388224295424",
        "url": ""
    },
    {
        "title": "“经常挨打”和“从未被打”的孩子，20年后的差距，不是一般的大",
        "docid": "7336250785468252687",
        "url": ""
    },
    {
        "title": "中医：当你不给孩子吃这些，脾胃就好了一大半！",
        "docid": "7331584438305833491",
        "url": ""
    },
    {
        "title": "傻眼了！宝妈吐槽婆婆在客厅养小鸡，造成一片狼藉，网友：自找的",
        "docid": "7323123887917990438",
        "url": ""
    },
    {
        "title": "中国式逗娃有多可怕？网友：舅舅给侄子喝酒变成傻子了",
        "docid": "7335463674666353193",
        "url": ""
    },
    {
        "title": "泪目！过年回家的火车上，看到这样一家子人，瞬间眼泪就掉了出来",
        "docid": "7336424357319672356",
        "url": ""
    },
    {
        "title": "7岁女孩吃完自助，衣兜撑满，店员怀疑偷拿！翻开布兜，众人哭了",
        "docid": "7322406204629107251",
        "url": ""
    },
    {
        "title": "女生生孩子有多疼？！网友评论不敢看！",
        "docid": "7319479420870394422",
        "url": ""
    },
    {
        "title": "一个家庭向上走的12个核，超过6个要起飞",
        "docid": "7329680497649697332",
        "url": ""
    },
    {
        "title": "没想到女孩怀孕期间激素的威力这么大!看完网友分享,真切体会到了",
        "docid": "7327861873704010303",
        "url": ""
    },
    {
        "title": "未来3个月，建议多给孩子吃2种食材，助力提高免疫力，抵御寒冷",
        "docid": "7304945882368082484",
        "url": ""
    },
    {
        "title": "怀孕期间做出的离谱事情，什么奇葩要求都有，看完后小脑都萎缩了",
        "docid": "7330854158633058835",
        "url": ""
    },
    {
        "title": "小时候那批被打压式教育的人当爸妈了",
        "docid": "7329691501674480164",
        "url": ""
    },
    {
        "title": "社会进步了，四川被遗弃的是个女孩子，却没人再说重男轻女",
        "docid": "7321964045438173711",
        "url": ""
    },
    {
        "title": "就是现在，抓紧生孩子，几十年后你会对现在的自己说谢谢！",
        "docid": "7324970395281523212",
        "url": ""
    },
    {
        "title": "2009年，被丈夫抛弃挺着60公斤肚子的女人，如今活成了天使的模样",
        "docid": "7336138800127099427",
        "url": ""
    },
    {
        "title": "中国式逗娃有多可怕？网友：爷爷不经意的玩笑让一个家庭支离破碎",
        "docid": "7336025914603733519",
        "url": ""
    },
    {
        "title": "立春后千万别吃这20道菜，怕你娃长太高（上）",
        "docid": "7336136069089755702",
        "url": ""
    },
    {
        "title": "“人怕腊月死，更忌腊月生”，为何这样说？孩子在腊月出生不好吗",
        "docid": "7336198744188355107",
        "url": ""
    },
    {
        "title": "和孩子住对门的悲和喜、苦和乐。",
        "docid": "7317089003348623912",
        "url": ""
    },
    {
        "title": "原来忍痛想生个孩子是因为这样！看完网友经历分享，我泪眼汪汪",
        "docid": "7316352569910149683",
        "url": ""
    },
    {
        "title": "两口猕猴桃让7个月宝宝出现“断崖式衰老”，这些水果别做辅食",
        "docid": "7332516416035815962",
        "url": ""
    },
    {
        "title": "被吼大的孩子的性格缺陷",
        "docid": "7330581965928251904",
        "url": ""
    },
    {
        "title": "中国家庭亲戚关系图，终于有人整理清楚了，再忙也要收藏给孩子看",
        "docid": "7336657557592883775",
        "url": ""
    },
    {
        "title": "隔代亲有多夸张？鸡早上叫打扰到孙子睡觉，没过中午就进肚子了！",
        "docid": "7333510441030730240",
        "url": ""
    },
    {
        "title": "小女孩出生没有双手，网友的“生理期来了怎么办？”感动无数人！",
        "docid": "7314942107251212811",
        "url": ""
    },
    {
        "title": "有人当面严厉批评你的孩子，你会怎么做？这位母亲的回答好智慧！",
        "docid": "7309067192568398373",
        "url": ""
    },
    {
        "title": "坐月子，看看老公能不能伺候好",
        "docid": "7325785580444074515",
        "url": ""
    },
    {
        "title": "中国式逗娃有多可怕？网友：爷爷的一个玩笑搞的家破人亡",
        "docid": "7336192184821367311",
        "url": ""
    },
    {
        "title": "讲道理，发脾气，不如学会“反向育儿”，人生豁然开朗",
        "docid": "7336047944367604251",
        "url": ""
    },
    {
        "title": "孩子的大脑是靠“养”的，睡前记住“3要2不要”，孩子更聪明",
        "docid": "7310087295548523008",
        "url": ""
    },
    {
        "title": "如果你有女儿，别让她有“廉价感”",
        "docid": "7333835842395898419",
        "url": ""
    },
    {
        "title": "孩子若是这4生肖，父母偷着乐吧，未来前途无量！",
        "docid": "7333130118690505257",
        "url": ""
    },
    {
        "title": "越来越多的孩子被血病“盯上”，提醒：远离3种东西，别不当回事",
        "docid": "7332479387424342591",
        "url": ""
    },
    {
        "title": "除了“葬礼”，家长也尽量不要带孩子去这四个场所，还真不是迷信！",
        "docid": "7331924398075052570",
        "url": ""
    },
    {
        "title": "好爸爸都是这样和孩子交流的",
        "docid": "7313543921064706579",
        "url": ""
    },
    {
        "title": "我从不控制孩子玩手机，因为我相信这些话的力量",
        "docid": "7336498866520326706",
        "url": ""
    },
    {
        "title": "橘三岁，吃上锅包肉了！东北人跑到广西接着宠，大厨都带来了。",
        "docid": "7325819200839582271",
        "url": ""
    },
    {
        "title": "高人预测：不用10年，独生和二胎家庭差距就会显现，原因太扎心！",
        "docid": "7329811821392396800",
        "url": ""
    },
    {
        "title": "孩子发烧，要不要忌口鱼肉蛋奶？到底怎样吃才能恢复的更快？",
        "docid": "7311171821913801235",
        "url": ""
    },
    {
        "title": "25岁女人赌上性命生儿子，连儿子一面都没见到就去世了，太可惜了",
        "docid": "7312414857532408331",
        "url": ""
    },
    {
        "title": "过年而已，千万不要“傻大方”！自己吃亏孩子还跟着自卑",
        "docid": "7334256207277949459",
        "url": ""
    },
    {
        "title": "原来没有避风港的孩子是不期待过年回家的!看完网友分享感触良多",
        "docid": "7329789329255973415",
        "url": ""
    },
    {
        "title": "幼儿园不生病的秘密",
        "docid": "7331373711662875199",
        "url": ""
    },
    {
        "title": "一堆烂碗引发网友泪目：小时候打烂一个碗，感觉天要塌了！",
        "docid": "7332266667659493923",
        "url": ""
    },
    {
        "title": "因这事瘫痪的孩子已超1000人！医生提醒，这动作非常危险，别做",
        "docid": "7314958778360250916",
        "url": ""
    },
    {
        "title": "不要再带孩子看小猪佩奇了！这4部识字动画片，提前搞定学前600字",
        "docid": "7310114180517167625",
        "url": ""
    },
    {
        "title": "记住：只要儿子不尊重你，不把你当回事，就把你的母爱收起来吧",
        "docid": "7333654154289627689",
        "url": ""
    },
    {
        "title": "想要怀孕的姐妹，保护好子宫和卵巢，可增加怀孕几率",
        "docid": "7336135234376892962",
        "url": ""
    },
    {
        "title": "分娩最痛苦的不是产妇，而是新生儿？一般人都难以忍受",
        "docid": "7315352178011521551",
        "url": ""
    },
    {
        "title": "我竟然在很认真学习小朋友讲话，每一句都出乎意料，评论区好可爱",
        "docid": "7336700123084456474",
        "url": ""
    },
    {
        "title": "广西妈妈给儿子做的盒饭火了，网友：不建议这样吃，因为我没吃过",
        "docid": "7311707356214067766",
        "url": ""
    },
    {
        "title": "令人捧腹！45个睡着了的孩子，姿势百出，睡出新境界",
        "docid": "7307138383699690024",
        "url": ""
    },
    {
        "title": "孩子刚出生，不要让三种人抱，都是为了孩子好",
        "docid": "7336005448699019839",
        "url": ""
    },
    {
        "title": "小宝宝的年夜饭，寓意好又好看，美味又健康，氛围感满满！",
        "docid": "7318289291392778764",
        "url": ""
    },
    {
        "title": "3岁后幼儿园小朋友需要知道的70个常识",
        "docid": "7308235974926959142",
        "url": ""
    },
    {
        "title": "千万别再给孩子买这6类童鞋了",
        "docid": "7320917494112797210",
        "url": ""
    },
    {
        "title": "孕妇在孕晚期最后一个月，该做什么？做好这5件事安心待产！",
        "docid": "7311235010286174771",
        "url": ""
    },
    {
        "title": "李同光杨盈番外14：夫人孕吐严重，国公急得都不想要这小崽子了",
        "docid": "7325705556118618650",
        "url": ""
    },
    {
        "title": "孩子咳个不停，雾化确实有用，但许多家庭却用错了！",
        "docid": "7308947886325154344",
        "url": ""
    },
    {
        "title": "现在的孩子短视频控制下的无法自拔，就像中毒一样？",
        "docid": "7336532404611531314",
        "url": ""
    },
    {
        "title": "女人怀孕后，都那么重口味吗！网友评论太震惊，我鸡皮疙瘩起来了",
        "docid": "7336754348694946331",
        "url": ""
    },
    {
        "title": "18岁自闭症少年发工资请全家吃饭，妈妈：觉得很欣慰，努力没有白费",
        "docid": "7307463299245883941",
        "url": ""
    },
    {
        "title": "《麻辣滚烫》揭露的社会现实",
        "docid": "7336465217486111251",
        "url": ""
    },
    {
        "title": "家庭中的阴影：三种母亲行为对子女的伤害",
        "docid": "7336467053840335375",
        "url": ""
    },
    {
        "title": "快摸摸孩子背上的这个地方，如果是凸起的，赶紧去医院",
        "docid": "7314506981430166057",
        "url": ""
    },
    {
        "title": "终于有人把产后修复运动说明白了",
        "docid": "7328748242056036927",
        "url": ""
    },
    {
        "title": "幼儿感官差异与看屏幕时长有关",
        "docid": "7322235583353618980",
        "url": ""
    },
    {
        "title": "老公的继母带100个土鸡蛋和30只土鸡来照顾我坐月子，她女儿也来",
        "docid": "7312761830248727074",
        "url": ""
    },
    {
        "title": "每天学习一点点孕产知识，为我的小龙宝（月子里的错误经验）",
        "docid": "7336480898130739762",
        "url": ""
    },
    {
        "title": "50岁以后要明白：父母和子女之间的亲情有界限，父母要忌讳五件事",
        "docid": "7330278638140523023",
        "url": ""
    },
    {
        "title": "一位母亲告诉孩子读书的价值",
        "docid": "7336422553978061375",
        "url": ""
    },
    {
        "title": "小米粥煮的好， 孩子少往医院跑，建议收藏转发慢慢看！",
        "docid": "7319674511476392467",
        "url": ""
    },
    {
        "title": "孩子的差距到底是怎样被拉开的？看完这些你就明白了",
        "docid": "7310566064268804623",
        "url": ""
    },
    {
        "title": "追问｜“小蝌蚪”不太给力，一代二代试管婴儿技术哪个强？",
        "docid": "7335999330878849574",
        "url": ""
    },
    {
        "title": "女儿2胎请亲妈带外孙，听到父母说悄悄话，第二天就把母亲送回家",
        "docid": "7336490816414073396",
        "url": ""
    },
    {
        "title": "不可思议，居然这么多女人去谴责这个全职妈妈，真的不能共情吗？",
        "docid": "7330404414823531019",
        "url": ""
    },
    {
        "title": "口齿不清的训练方法：言语清晰的艺术与科学探索",
        "docid": "7336645296094708259",
        "url": ""
    },
    {
        "title": "每天一片钙就能防早产",
        "docid": "7330916220067578403",
        "url": ""
    },
    {
        "title": "看电视、玩手机……这份孩子的护眼小贴士请收好",
        "docid": "7336044597724267008",
        "url": ""
    },
    {
        "title": "家门口的好学校丨曹杨新村第三幼儿园",
        "docid": "7335002803552731659",
        "url": ""
    },
    {
        "title": "特殊团圆夜 新生“龙宝宝”来拜年",
        "docid": "7336737797530993202",
        "url": ""
    },
    {
        "title": "计划生育双女户和独女户家庭让人惊呆，羡慕的无法用语言形容",
        "docid": "7335067413606449702",
        "url": ""
    },
    {
        "title": "和自己的孩子关系处不好， 往往是这五种原因",
        "docid": "7327538594988655104",
        "url": ""
    },
    {
        "title": "乙流占比持续升高 专家建议家长这样应对",
        "docid": "7323024600382865935",
        "url": ""
    },
    {
        "title": "儿童友好再思考：一周城市生活",
        "docid": "7336146309806244403",
        "url": ""
    },
    {
        "title": "沉浸式体味中华传统文化，绘本展成假期遛娃宝地",
        "docid": "7335996961319027238",
        "url": ""
    },
    {
        "title": "已孕“小龙人”的准妈妈，送您一份早孕建册攻略",
        "docid": "7336779939695510050",
        "url": ""
    },
    {
        "title": "\"孩子们逐渐疏远姥姥家？解码背后的心理变化和家庭互动模式\"",
        "docid": "7336221100000707081",
        "url": ""
    },
    {
        "title": "小孩的嘴能有多大？看她吐出来的一瞬间，惊呆了。网友：还是挺危险的",
        "docid": "7311723349456683555",
        "url": ""
    },
    {
        "title": "我28岁，孕检异常，确诊急性白血病M3，女儿32周，就被剖腹了！",
        "docid": "7336545773083623951",
        "url": ""
    },
    {
        "title": "幼儿园老师直言：第一天上学不哭不闹的孩子，多半有这3大特点",
        "docid": "7336257294180549159",
        "url": ""
    },
    {
        "title": "传说中的“鲜掉眉毛”，说的就是它吧！还是健康饮食的优秀代表",
        "docid": "7334963285005238823",
        "url": ""
    },
    {
        "title": "闹大了，专家称年轻人不生娃思维是正确的冲上热搜，引发全网热议",
        "docid": "7326878474533241383",
        "url": ""
    },
    {
        "title": "别让牙齿成为孩子颜值的 “绊脚石”",
        "docid": "7336757859596223039",
        "url": ""
    },
    {
        "title": "她火上热搜，感动数亿网友的真相，原来竟是……",
        "docid": "7332414535535526439",
        "url": ""
    },
    {
        "title": "【豫健科普】孕前肛检，后“股”无忧",
        "docid": "7336742640622469682",
        "url": ""
    },
    {
        "title": "儿童福利院里的幸福年",
        "docid": "7336769694021517863",
        "url": ""
    },
    {
        "title": "孩子感染呼吸道疾病，鼻塞流鼻涕这样处理",
        "docid": "7321934834694111798",
        "url": ""
    },
    {
        "title": "神奇，哈尔滨的雪已到广州，终于知道哈尔滨送雪原因，评论区笑死",
        "docid": "7330251798089564684",
        "url": ""
    },
    {
        "title": "儿子再小也是个男人，捏住男性的几个弱点，对付他还不是手拿把掐",
        "docid": "7330064476127167013",
        "url": ""
    },
    {
        "title": "日本幼儿园要求父母参加活动时带上「吃饭家伙」，瞬间就绷不住了",
        "docid": "7335793736729182755",
        "url": ""
    },
    {
        "title": "（一） 底层家庭父母的特点",
        "docid": "7336751064584962600",
        "url": ""
    },
    {
        "title": "成长心理室丨压岁钱由谁支配，你站哪一方？",
        "docid": "7336798036016169484",
        "url": ""
    },
    {
        "title": "“静”享健康丨如何预防“节后肥”，教你6招来应对",
        "docid": "7336748361871540751",
        "url": ""
    },
    {
        "title": "奶奶拿出一万元压岁钱，让3岁萌娃磕头拜年，萌娃直呼: 不要了 根本花不完",
        "docid": "7334359541305655820",
        "url": ""
    },
    {
        "title": "保育员，说说你的教育故事",
        "docid": "7336738109259842084",
        "url": ""
    },
    {
        "title": "图表丨孩子感染呼吸道疾病在家如何护理？",
        "docid": "7309281271799562788",
        "url": ""
    },
    {
        "title": "新春健康提醒 | 浙大妇院陈丹青：孕期务必食物多样化",
        "docid": "7335999130004963859",
        "url": ""
    },
    {
        "title": "龙年故事听我说丨童心总动员",
        "docid": "7336052825388548617",
        "url": ""
    },
    {
        "title": "孩子们的“小作文”",
        "docid": "7336083481791119887",
        "url": ""
    },
    {
        "title": "2个月蹿个4cm，我就是用这个方子，改善了很多孩子脾虚瘦小体质",
        "docid": "7310435036070036008",
        "url": ""
    },
    {
        "title": "元旦假期家长带孩子出行和游玩时，有哪些安全注意事项？针对儿童防溺水、防跌落、防窒息等安全问题，有何建议和措施……权威解答来啦！",
        "docid": "7317822373368168986",
        "url": ""
    },
    {
        "title": "呼吸道疾病进入高发期 专家支招儿童如何防治",
        "docid": "7306498070576415232",
        "url": ""
    },
    {
        "title": "超可爱！妈妈拍下宝宝双手捧着脸睡觉的画面",
        "docid": "7304646701292585523",
        "url": ""
    },
    {
        "title": "朗朗上口！这首闽南童谣带你认识泉州世遗点",
        "docid": "7329438462170825270",
        "url": ""
    },
    {
        "title": "警惕！呼吸道合胞病毒更容易“盯上”孩子 | 科普时间",
        "docid": "7305347479376052771",
        "url": ""
    },
    {
        "title": "宝宝闹觉认舅舅 别人一抱就哭 舅舅接过 宝宝哭泣立马停止",
        "docid": "7325625923410166326",
        "url": ""
    },
    {
        "title": "怎样给小孩取名有利于他的学习和健康？",
        "docid": "7304259507037880859",
        "url": ""
    },
    {
        "title": "妈妈擦桌子宝宝一个举动害苦爸爸，终究为孩子扛下一切",
        "docid": "7307997604007150117",
        "url": ""
    },
    {
        "title": "关于孕产妇静脉血栓的预防保健，这些知识点要牢记丨健康智慧屋",
        "docid": "7336717265624351270",
        "url": ""
    },
    {
        "title": "家长请收藏！冬季儿童常见呼吸道疾病防治手册",
        "docid": "7307426350082834996",
        "url": ""
    },
    {
        "title": "河南双胎孕妈春节探亲遇早产 湖南妇幼速度护航母子平安",
        "docid": "7336766598164005388",
        "url": ""
    },
    {
        "title": "河南濮阳：妈妈跟女儿说要跟老公“离婚”。",
        "docid": "7317205334068609588",
        "url": ""
    },
    {
        "title": "如何正确观察宝宝大便",
        "docid": "7336591340882788916",
        "url": ""
    },
    {
        "title": "隔代亲！孙子找爷爷“要零用钱”，爷爷钱不够，带着孙子“坑”儿子",
        "docid": "7310849229684638245",
        "url": ""
    },
    {
        "title": "盲童顺子，以前不会用勺子，筷子用手抓，李爸爸耐心教！",
        "docid": "7336615819624858148",
        "url": ""
    },
    {
        "title": "“原点计划”推进社区家庭教育指导服务",
        "docid": "7336757016163303951",
        "url": ""
    },
    {
        "title": "高压锅爆炸女子爬出厨房，监控拍下家人的瞬间反应，让人感慨！",
        "docid": "7336786015191089674",
        "url": ""
    },
    {
        "title": "女孩天生没有双臂，爸爸教她用脚剥橘子，成功后的相视一笑令人动容",
        "docid": "7314955629708182025",
        "url": ""
    },
    {
        "title": "老师带小朋友们接力演唱《我的纸飞机》，唱进了谁的心坎里",
        "docid": "7307173703979287066",
        "url": ""
    },
    {
        "title": "坚守“医”线 喜迎龙宝！延安市中医医院产科迎来首个“龙宝宝”",
        "docid": "7336772009881862695",
        "url": ""
    },
    {
        "title": "春节分别时刻！爸爸外出务工女儿舍不得大哭，看哭了！",
        "docid": "7336497661924770319",
        "url": ""
    },
    {
        "title": "有一种爱叫做隔辈儿亲，重孙女回家偶遇太爷爷",
        "docid": "7304177218753364530",
        "url": ""
    },
    {
        "title": "炸裂！妈妈炸伤唯独儿子稳如泰山 评论：太子是不会在乎亲生母亲的",
        "docid": "7336071678860018187",
        "url": ""
    },
    {
        "title": "爸妈偷吃宵夜被萌娃撞见，妈妈急中生智将计就计哄娃乖乖睡觉。网友：幼儿园学历终究还是不够啊！",
        "docid": "7308868944511664675",
        "url": ""
    },
    {
        "title": "安庆市迎江区妇联积极开展寒假儿童关爱服务活动",
        "docid": "7336769668382229004",
        "url": ""
    },
    {
        "title": "姐姐直接喂弟弟吃干奶粉，弟弟一脸无辜地嚼着嘴里结块的奶粉，眼角的泪水是弟弟最后的倔强！",
        "docid": "7306033598602723874",
        "url": ""
    },
    {
        "title": "萌娃唱《小兔子乖乖》，网友：他要是开门，狼都得吓跑吧",
        "docid": "7306791457145274915",
        "url": ""
    },
    {
        "title": "凡人微光｜暖暖“隔代亲”",
        "docid": "7311888809372500531",
        "url": ""
    },
    {
        "title": "网友被周岁宴小宝宝名字可爱到，一看父母就是“熊出没”忠实粉丝",
        "docid": "7310440019104875058",
        "url": ""
    },
    {
        "title": "已被叫停10年，还有不少爸妈每天排队给娃做，别交智商税了！",
        "docid": "7336768355237642791",
        "url": ""
    },
    {
        "title": "立春后孩子长高，多吃这12道菜",
        "docid": "7336834056326627875",
        "url": ""
    },
    {
        "title": "妈妈生我们的时候都经历了什么",
        "docid": "7336828947591987750",
        "url": ""
    },
    {
        "title": "女孩独居8年，裤子两年未更换，参加变形计后命运齿轮重新转动",
        "docid": "7336814288235364876",
        "url": ""
    },
    {
        "title": "6岁孙子问我：“为什么要回那个又破又冷的老家过年？”我这样说",
        "docid": "7336230720068813353",
        "url": ""
    },
    {
        "title": "安徽406斤孕妇拒绝引产，赌命生二胎，孩子出生后，现状令人感叹",
        "docid": "7336818490206650880",
        "url": ""
    },
    {
        "title": "龙年大吉！开年第一本绘本，可以是龙的“百科全书”！",
        "docid": "7336836749153452556",
        "url": ""
    },
    {
        "title": "新春走基层|守护新生！滨州龙宝宝“龙”重登场",
        "docid": "7336832315127300643",
        "url": ""
    },
    {
        "title": "关爱背后，品质护童：揭秘护童护脊包的独特魅力|护童科技|护童桌椅",
        "docid": "7336833916915286538",
        "url": ""
    },
    {
        "title": "全民关注消防 生命安全至上丨 儿童居家消防安全提示",
        "docid": "7336839117872923163",
        "url": ""
    },
    {
        "title": "如何看待那些不去孕检、产检的宝妈呢？",
        "docid": "7336811040534987299",
        "url": ""
    },
    {
        "title": "视频丨“丁丁”问题无小事，妇幼外科解“男”题",
        "docid": "7336842184421392959",
        "url": ""
    },
    {
        "title": "再看以前“计划生育”的宣传，才发现说的都是大实话啊，句句真理",
        "docid": "7335771824984457764",
        "url": ""
    },
    {
        "title": "新年第一课丨教你居家自测脊柱侧弯！",
        "docid": "7336813713850368546",
        "url": ""
    },
    {
        "title": "孕晚期女职工面临压力，二胎妈妈疲惫不堪，丈夫反对辞职",
        "docid": "7336015370727375398",
        "url": ""
    },
    {
        "title": "支原体肺炎久咳不好，要想娃儿好彻底，一定要学会这个好方法",
        "docid": "7310135537502093859",
        "url": ""
    },
    {
        "title": "短视频丨“小雪团”向前冲",
        "docid": "7336783201077281314",
        "url": ""
    },
    {
        "title": "那些年背着妈妈偷偷买的玩具，疯狂弹跳抓土蛋，一不小心全没了",
        "docid": "7322389592626496012",
        "url": "https://www.ixigua.com/7322389592626496012"
    },
    {
        "title": "新华全媒+丨预防儿童呼吸道疾病，这些注意事项要牢记！",
        "docid": "7310580724804665919",
        "url": ""
    },
    {
        "title": "萌娃也不甘示弱人，才无处不在等你来发现",
        "docid": "7336743763521684022",
        "url": ""
    },
    {
        "title": "河北一爸爸端饺子投喂赖床的女儿，妈妈看不下去了：她都多大了",
        "docid": "7336789170940510746",
        "url": ""
    },
    {
        "title": "数学手抄报集锦",
        "docid": "7336128882988450343",
        "url": ""
    },
    {
        "title": "忧郁人群都在看！揭秘孤独症背后,一秒找到共鸣",
        "docid": "7336783908091019813",
        "url": ""
    },
    {
        "title": "原来这些洗脑全网的儿歌都是她唱的，随便一首都能“称霸”幼儿园",
        "docid": "7305367657455288873",
        "url": "https://www.ixigua.com/7305367657455288873"
    },
    {
        "title": "彝族梅葛三代传承人演绎和美之音",
        "docid": "7336789215629492748",
        "url": ""
    },
    {
        "title": "哥哥捏着妹妹的脸耐心辅导作业，眼神温柔亲密无间，网友羡慕不已",
        "docid": "7313801867967136319",
        "url": "https://www.ixigua.com/7313801867967136319"
    },
    {
        "title": "好可爱的小小土豆呀！零下二十度的天气被萌化了",
        "docid": "7319542288739205682",
        "url": "https://www.ixigua.com/7319542288739205682"
    },
    {
        "title": "女子晒自己孩子兴奋玩耍的视频，大家的注意力都在孩子的脸上",
        "docid": "7323778397749019151",
        "url": "https://www.ixigua.com/7323778397749019151"
    },
    {
        "title": "男孩子这样养，他长大了会感谢你。",
        "docid": "7336864603756036662",
        "url": ""
    },
    {
        "title": "一孕妇在网上爆料自己在泰国被丈夫推下悬崖，如今成百万网红",
        "docid": "7336848002906702348",
        "url": ""
    },
    {
        "title": "小朋友说话好特别！看这评论能净化我的心灵，原来这是儿童泛灵论",
        "docid": "7336840059997684243",
        "url": ""
    },
    {
        "title": "【成长进行时】许贞之两岁回眸",
        "docid": "7336846338409415194",
        "url": ""
    },
    {
        "title": "顺产后自然撕裂和侧切哪个恢复得快，该如何护理？注意这6个要点",
        "docid": "7336833039291056692",
        "url": ""
    },
    {
        "title": "宁阳县：坚持三个“到位” 做好生育奖扶特扶工作",
        "docid": "7336862648958681635",
        "url": ""
    },
    {
        "title": "父母都没有心脏病，却生了一个先心病的宝宝，该如何预防先心病",
        "docid": "7336532458299015731",
        "url": ""
    },
    {
        "title": "小鸭子嘎嘎嘎 拔萝卜 小白兔白又白 小兔子乖乖 小跳蛙宝宝儿歌",
        "docid": "7321124096706609701",
        "url": "https://www.ixigua.com/7321124096706609701"
    },
    {
        "title": "极致细节！电动齿轮联动！型模坊 擎天柱 合金成品-刘哥模玩",
        "docid": "7318194610658869799",
        "url": "https://www.ixigua.com/7318194610658869799"
    },
    {
        "title": "家长一定搞懂陪孩子写作业的底层逻辑！",
        "docid": "7336872246037774884",
        "url": ""
    },
    {
        "title": "#给家长的建议或忠告#",
        "docid": "7336774721226588722",
        "url": ""
    },
    {
        "title": "哪吒怀孕三年才生下，现实生活能做到吗？",
        "docid": "7336804125584032256",
        "url": ""
    },
    {
        "title": "抽动症，只需要调肝理脾，止抽真的很简单",
        "docid": "7336834222432551424",
        "url": ""
    },
    {
        "title": "汪汪动画：狗狗们集体受伤住院了，这是邪恶博士的圈套吗？",
        "docid": "7313027073298629154",
        "url": "https://www.ixigua.com/7313027073298629154"
    },
    {
        "title": "陪宝宝一起新品烟花大测评，每一款都让人惊呼，今天真是玩嗨了",
        "docid": "7328239320958140978",
        "url": "https://www.ixigua.com/7328239320958140978"
    },
    {
        "title": "植物大战僵尸动画：僵尸BOSS带着僵尸大军来袭，植物们能抵挡吗？",
        "docid": "7317834951423066639",
        "url": "https://www.ixigua.com/7317834951423066639"
    },
    {
        "title": "人间清醒的萌娃，博学多才早已超越很多成年人，网友：真是才女",
        "docid": "7320519326992171561",
        "url": "https://www.ixigua.com/7320519326992171561"
    },
    {
        "title": "小鸭子嘎嘎嘎 #儿歌 #儿歌100首最火 #0到3岁早教儿歌 #儿歌动画",
        "docid": "7310123725482000930",
        "url": "https://www.ixigua.com/7310123725482000930"
    },
    {
        "title": "汪汪动画：狗狗们集体变成四元素宝宝，对战邪恶博士能否获胜呢？",
        "docid": "7311532430219805199",
        "url": "https://www.ixigua.com/7311532430219805199"
    },
    {
        "title": "很火的舞蹈《科目三》奥特曼都会跳了，格丽乔唱改编版奥特之歌",
        "docid": "7320557447666467367",
        "url": "https://www.ixigua.com/7320557447666467367"
    },
    {
        "title": "火女孩嫌弃为她遮风挡雨的穷苦爸妈，在经历危险后才想起他们的好",
        "docid": "7336199748850090534",
        "url": "https://www.ixigua.com/7336199748850090534"
    },
    {
        "title": "宝宝贴着哥哥睡觉满头大汗，妈妈不放心掀被子懵了：睡姿太腻歪",
        "docid": "7326762727794442815",
        "url": "https://www.ixigua.com/7326762727794442815"
    },
    {
        "title": "人鱼小奥特曼海底冒险#奥特曼儿童动画片 #儿童动画 #益智动画",
        "docid": "7311673920351011328",
        "url": "https://www.ixigua.com/7311673920351011328"
    },
    {
        "title": "今天拆一份随心配",
        "docid": "7336872350811587107",
        "url": "https://www.ixigua.com/7336872350811587107"
    },
    {
        "title": "#熊出没##光头强##奥特曼##赛罗奥特曼#",
        "docid": "7336790311995671075",
        "url": "https://www.ixigua.com/7336790311995671075"
    },
    {
        "title": "江西幼师潜藏27年，警察公布真实身份后，幼儿园家长们后怕不已",
        "docid": "7336499970071429686",
        "url": ""
    },
    {
        "title": "今天一个家长带着孩子来拳馆玩，这个孩子平时很勇",
        "docid": "7310595425097449984",
        "url": "https://www.ixigua.com/7310595425097449984"
    },
    {
        "title": "男子记录孩子拍到这一幕“感觉是要推又不确定”，孩子家长已道歉",
        "docid": "7305290985167127052",
        "url": "https://www.ixigua.com/7305290985167127052"
    },
    {
        "title": "后来，杰瑞终究还是离开了！\n#治愈 #猫和老鼠 #杰瑞",
        "docid": "7303747735855825435",
        "url": "https://www.ixigua.com/7303747735855825435"
    },
    {
        "title": "好物分享｜简笔画小鸟。手抄报素材来咯",
        "docid": "7331291430755533323",
        "url": "https://www.ixigua.com/7331291430755533323"
    },
    {
        "title": "爸爸提着孩子玩“娃娃机”，结果1秒就撤笑翻网友：这是黑心老板",
        "docid": "7314151216769532479",
        "url": "https://www.ixigua.com/7314151216769532479"
    },
    {
        "title": "小时候咋这么丑呢",
        "docid": "7336657732549902887",
        "url": "https://www.ixigua.com/7336657732549902887"
    },
    {
        "title": "中国首例“试管婴儿”：被质疑活不过40岁，后来怀孕生下一个男孩",
        "docid": "7336754401647870491",
        "url": ""
    },
    {
        "title": "应城特殊教育学校一学生获省级荣誉",
        "docid": "7336896355711779363",
        "url": ""
    },
    {
        "title": "孕前准备全攻略：如何通过营养和生活方式科学迎接新生命",
        "docid": "7336876390773473833",
        "url": ""
    },
    {
        "title": "孩子肚子疼，哪种情况下可能是急性阑尾炎？",
        "docid": "7331583285652947482",
        "url": ""
    },
    {
        "title": "孕妇突发大出血 湖南省妇幼保健院快速抢救保平安",
        "docid": "7336898161217012224",
        "url": ""
    },
    {
        "title": "诈骗面",
        "docid": "7334180106472325682",
        "url": "https://www.ixigua.com/7334180106472325682"
    },
    {
        "title": "这看孩子的真虎啊。",
        "docid": "7333585618259804706",
        "url": "https://www.ixigua.com/7333585618259804706"
    },
    {
        "title": "萌娃被忘公园淡定等待，上下打量的眼神令亲妈愧疚：不让我省心",
        "docid": "7304160378861290047",
        "url": "https://www.ixigua.com/7304160378861290047"
    },
    {
        "title": "犀牛喝水的故事",
        "docid": "7315146893892256295",
        "url": "https://www.ixigua.com/7315146893892256295"
    },
    {
        "title": "在上班和上香之间，果断选择上船！  #奶龙 #奶龙和小七",
        "docid": "7310818732832948736",
        "url": "https://www.ixigua.com/7310818732832948736"
    },
    {
        "title": "这娃真把父母和网友都纷纷吓到了，前面吓坏父母，后面吓坏网友",
        "docid": "7321439302586466856",
        "url": "https://www.ixigua.com/7321439302586466856"
    },
    {
        "title": "爸爸在家一对一辅导女儿，看到一整面黑板墙惊呆，学习氛围引怒赞",
        "docid": "7315330710770975232",
        "url": "https://www.ixigua.com/7315330710770975232"
    },
    {
        "title": "这个小孩笑的也太有意思了",
        "docid": "7336742485412348450",
        "url": "https://www.ixigua.com/7336742485412348450"
    },
    {
        "title": "主播主播 快点盘点我",
        "docid": "7336573782214148645",
        "url": "https://www.ixigua.com/7336573782214148645"
    },
    {
        "title": "想让孩子情绪稳定，一定要多说这5句话",
        "docid": "7336127742020682259",
        "url": ""
    },
    {
        "title": "喝汤喝堵奶，产后应该这样喝汤！",
        "docid": "7336865077859172864",
        "url": ""
    },
    {
        "title": "成为妈妈后的必备指南，你准备好了吗？",
        "docid": "7336813456634970678",
        "url": ""
    },
    {
        "title": "社恐小朋友在海底捞过生日，躲在角落瑟瑟发抖：谁来救救我",
        "docid": "7326799315383353897",
        "url": "https://www.ixigua.com/7326799315383353897"
    },
    {
        "title": "4岁女儿劝妈妈喊外婆姐姐，网友以为玩笑见真人打脸：一家子美人",
        "docid": "7303831195400766006",
        "url": "https://www.ixigua.com/7303831195400766006"
    },
    {
        "title": "早教儿歌：小兔蹦蹦跳#0到3岁早教儿歌 #好玩的汤姆猫 #儿童动画",
        "docid": "7316397555401622031",
        "url": "https://www.ixigua.com/7316397555401622031"
    },
    {
        "title": "Q版《驯龙高手》会跳舞的飞龙你见过吗",
        "docid": "7311267928190485055",
        "url": "https://www.ixigua.com/7311267928190485055"
    },
    {
        "title": "小时候玩过吗",
        "docid": "7336562206404379163",
        "url": "https://www.ixigua.com/7336562206404379163"
    },
    {
        "title": "第八届全国检察“三微”优秀作品展播｜微动漫：西游记新传之个人信息保护",
        "docid": "7336402214220628495",
        "url": ""
    },
    {
        "title": "汪汪动画：误会重重，阿奇爸爸如何化解危机，展现智慧与勇气？",
        "docid": "7324153702720373286",
        "url": "https://www.ixigua.com/7324153702720373286"
    },
    {
        "title": "刚出生奇丑无比的宝宝，差点被扔掉，没想到后来越长越好看了",
        "docid": "7315638335412634153",
        "url": "https://www.ixigua.com/7315638335412634153"
    },
    {
        "title": "女大学生放假回家1人带6娃,娃是嫂子生的,“产后抑郁”是小姑得的",
        "docid": "7313853460897038882",
        "url": "https://www.ixigua.com/7313853460897038882"
    },
    {
        "title": "三人聚首的时候，现场一片泪奔，叶童说为什么你依然那么年轻",
        "docid": "7321166340268655158",
        "url": "https://www.ixigua.com/7321166340268655158"
    },
    {
        "title": "男人被埋沙滩，却意外目睹深海和陆地寄居蟹之间的大战",
        "docid": "7306478648616288808",
        "url": "https://www.ixigua.com/7306478648616288808"
    },
    {
        "title": "画个雪王",
        "docid": "7336868874824581672",
        "url": "https://www.ixigua.com/7336868874824581672"
    },
    {
        "title": "哇哦",
        "docid": "7336813314560754214",
        "url": "https://www.ixigua.com/7336813314560754214"
    },
    {
        "title": "新手爸妈必看！竟然可以领这么多生育补贴！ ​​​",
        "docid": "7336759588320444955",
        "url": ""
    },
    {
        "title": "两兄弟一个从小喝豆浆，一个从小喝牛奶，高中之后差距凸显",
        "docid": "7336575847782679066",
        "url": ""
    },
    {
        "title": "要告诉你的孩子：出门在外，要有这6个“防人”的心眼",
        "docid": "7336900015551463963",
        "url": ""
    },
    {
        "title": "要告诉你的孩子：出门在外，要有这6个“防人”的心眼",
        "docid": "7336915635684786729",
        "url": ""
    },
    {
        "title": "1972年，李敏坐月子时，母亲贺子珍前来探望，望着外孙，一脸宠溺",
        "docid": "7335865050152567315",
        "url": ""
    },
    {
        "title": "一个女人生生活成了千军万马，说的是你吗？",
        "docid": "7336859971373810213",
        "url": ""
    },
    {
        "title": "【夜读 · 散文】军人带娃记",
        "docid": "7336930338088321588",
        "url": ""
    },
    {
        "title": "产妇遭遇凶险羊水栓塞，医护展开2小时生命大营救",
        "docid": "7336911475372196415",
        "url": ""
    },
    {
        "title": "未来已来：人口断崖式下降，我们如何共渡难关？",
        "docid": "7336924849254023730",
        "url": ""
    },
    {
        "title": "怎么会有这么懂事的孩子，这是上辈子做了多少好事",
        "docid": "7336913584741876251",
        "url": ""
    },
    {
        "title": "南县三仙湖镇开展“把爱带回家 真情暖童心”关爱活动",
        "docid": "7336925552512680459",
        "url": ""
    },
    {
        "title": "没想到小灰灰黑化是因为他爸爸造成的的...",
        "docid": "7329135314176311860",
        "url": "https://www.ixigua.com/7329135314176311860"
    },
    {
        "title": "又打起来了家人们 #西西贝贝的日常 #双胞胎打架日常",
        "docid": "7314230782204051980",
        "url": "https://www.ixigua.com/7314230782204051980"
    },
    {
        "title": "汪汪队动画：小宝宝梦游历险记#卡通 #儿童 #汪汪队 #少儿#动漫",
        "docid": "7333920824753455616",
        "url": "https://www.ixigua.com/7333920824753455616"
    },
    {
        "title": "男主被精神污染拥有特殊能力竟是看不见家人#从红月开始动画开播",
        "docid": "7316423578734952975",
        "url": "https://www.ixigua.com/7316423578734952975"
    },
    {
        "title": "5th2元包，出了一张ur双人，欧气满满",
        "docid": "7336894197837857319",
        "url": "https://www.ixigua.com/7336894197837857319"
    },
    {
        "title": "黑盒伯莱塔玩具二代模型",
        "docid": "7336878309315183131",
        "url": "https://www.ixigua.com/7336878309315183131"
    },
    {
        "title": "汪汪队动画：狗宝宝听命于小丑女指挥#二次元 #儿童动画 #少儿",
        "docid": "7306262293258601023",
        "url": "https://www.ixigua.com/7306262293258601023"
    },
    {
        "title": "哥哥教妹妹跳舞，妹妹一点就通惹网友羡慕：果然天赋不是谁都有的",
        "docid": "7331333014674539062",
        "url": "https://www.ixigua.com/7331333014674539062"
    },
    {
        "title": "宝宝喜欢的热门儿歌精选《贝乐虎儿歌》：动物问答歌",
        "docid": "7307538876611068452",
        "url": "https://www.ixigua.com/7307538876611068452"
    },
    {
        "title": "布莱泽看守邪恶奥特曼，被毒液从后面偷袭，扔到了河水里！",
        "docid": "7336768631399219775",
        "url": "https://www.ixigua.com/7336768631399219775"
    },
    {
        "title": "哈哈",
        "docid": "7336910107013939763",
        "url": "https://www.ixigua.com/7336910107013939763"
    },
    {
        "title": "男娃看到女孩笑得合不拢嘴，紧紧抓住女孩妈妈不让走：遗传爸爸？",
        "docid": "7318235048665809460",
        "url": "https://www.ixigua.com/7318235048665809460"
    },
    {
        "title": "📷<记录美好时刻>🌷\n今天是泳池里的小可爱🧸\n变身一只快乐小鱼🐟",
        "docid": "7336882493943415306",
        "url": "https://www.ixigua.com/7336882493943415306"
    },
    {
        "title": "舞蹈生用袜子做的舞蹈鞋",
        "docid": "7336568304334537228",
        "url": "https://www.ixigua.com/7336568304334537228"
    },
    {
        "title": "4岁萌娃搭讪小姐姐为舅舅相亲，亮出身份后网友不淡定：高攀不起",
        "docid": "7318541147369013769",
        "url": "https://www.ixigua.com/7318541147369013769"
    },
    {
        "title": "《精灵梦叶罗丽》：国产动画又一巨作，烂的不能再烂了！",
        "docid": "7332315158938976777",
        "url": "https://www.ixigua.com/7332315158938976777"
    },
    {
        "title": "【羊村守护者8之心世界奇遇】首发正式预告！",
        "docid": "7310542381118718504",
        "url": "https://www.ixigua.com/7310542381118718504"
    },
    {
        "title": "我的世界方块轩动画《稀世珍宝之绝交二》",
        "docid": "7304983532659704335",
        "url": "https://www.ixigua.com/7304983532659704335"
    },
    {
        "title": "小鸡找妈妈，路遭臭蛋抢劫",
        "docid": "7317837917588554274",
        "url": "https://www.ixigua.com/7317837917588554274"
    },
    {
        "title": "这么多果汁，小朋友你们喜欢喝哪种呢？",
        "docid": "7336468203159814707",
        "url": "https://www.ixigua.com/7336468203159814707"
    },
    {
        "title": "日本的烂透了的育儿环境 受不了了 回国",
        "docid": "7329913495774822927",
        "url": "https://www.ixigua.com/7329913495774822927"
    }
]