[
    {
        "title": "3岁前该给孩子立的规矩，这是我见过最完整的，建议收藏",
        "docid": "7324198876049883667",
        "url": ""
    },
    {
        "title": "小孩子的嘴：一种伤害性大且侮辱性强的童言无忌",
        "docid": "7303322470096880167",
        "url": ""
    },
    {
        "title": "宝宝高热惊厥会烧坏脑子吗？正常情况下不会，家长如何应急处理？",
        "docid": "7325314809296175668",
        "url": ""
    },
    {
        "title": "陌生人敲门怎么办！#轻漫计划 #充能计划",
        "docid": "7310436602319372827",
        "url": "https://www.ixigua.com/7310436602319372827"
    },
    {
        "title": "又生气又不敢  西西： 你歹否儿了 哈哈哈#西西贝贝的日常",
        "docid": "7300498118347325987",
        "url": "https://www.ixigua.com/7300498118347325987"
    },
    {
        "title": "小宝宝梦想成为超级英雄！穿上反浩克盔甲后竟不可思议！",
        "docid": "7322514756965761571",
        "url": "https://www.ixigua.com/7322514756965761571"
    },
    {
        "title": "李玫瑾：孩子有这6个表现说明你教育好",
        "docid": "7296055731793592859",
        "url": "https://www.ixigua.com/7296055731793592859"
    },
    {
        "title": "又给整进屋啦家人们 不聊不行 聊完就有效果#西西贝贝的日常",
        "docid": "7303837749323235859",
        "url": "https://www.ixigua.com/7303837749323235859"
    },
    {
        "title": "4岁女娃高铁上自信表演，对坐3位大哥一脸痴汉笑：又骗我生闺女",
        "docid": "7324529666507833896",
        "url": "https://www.ixigua.com/7324529666507833896"
    },
    {
        "title": "爸爸在家一对一辅导女儿，看到一整面黑板墙惊呆，学习氛围引怒赞",
        "docid": "7315330710770975232",
        "url": "https://www.ixigua.com/7315330710770975232"
    },
    {
        "title": "女幼师坐在台下给小朋友们领舞，满脸认真动作超可爱，网友被美翻",
        "docid": "7311997032573764123",
        "url": "https://www.ixigua.com/7311997032573764123"
    },
    {
        "title": "可爱萌娃送去奶奶家1周，父母去接时差点认不出：白富美变土肥圆",
        "docid": "7292230788056089088",
        "url": "https://www.ixigua.com/7292230788056089088"
    },
    {
        "title": "男子晒妻子产后的精神状态，唇红齿白皮肤吹弹可破，颜值让人惊艳",
        "docid": "7293352273542185526",
        "url": "https://www.ixigua.com/7293352273542185526"
    },
    {
        "title": "爸爸洗澡出来看到女儿睁着眼，走近一看瞬间惊呆：还有这种操作？",
        "docid": "7302972877064634921",
        "url": "https://www.ixigua.com/7302972877064634921"
    },
    {
        "title": "有趣的小猴子：馋嘴小猴梦到美味的彩虹蛋糕，它能吃到吗？",
        "docid": "7307057174851944979",
        "url": "https://www.ixigua.com/7307057174851944979"
    },
    {
        "title": "有趣的小猴子：趣味惊喜盲蛋大拆箱，小猴子会开出什么惊喜呢？",
        "docid": "7294841137611997735",
        "url": "https://www.ixigua.com/7294841137611997735"
    },
    {
        "title": "一天一个入狱小技巧之可以使用的乐高武器合集",
        "docid": "7309788634603848246",
        "url": "https://www.ixigua.com/7309788634603848246"
    },
    {
        "title": "当车胎没气了怎么办，看二狗的操作 #动画 #动画解说 #搞笑",
        "docid": "7324717151288623653",
        "url": "https://www.ixigua.com/7324717151288623653"
    },
    {
        "title": "太难了，男人和女人都难#母女日常 #懂事的孩子",
        "docid": "7322732608192774668",
        "url": "https://www.ixigua.com/7322732608192774668"
    },
    {
        "title": "“原来饺子可以不是肉馅的”事件曝光多少父母畸形的爱",
        "docid": "7325391245063979558",
        "url": ""
    },
    {
        "title": "爸爸想要测试一下儿子的智商，结果让人意想不到...",
        "docid": "7320440181059027475",
        "url": "https://www.ixigua.com/7320440181059027475"
    },
    {
        "title": "从没见过这么偏心的母亲，本是同根生，奈何没人疼。#小贝流浪记",
        "docid": "7303108069163500086",
        "url": "https://www.ixigua.com/7303108069163500086"
    },
    {
        "title": "四胎未满月又生五胎，生肉直接喂孩子，95后宝妈的生活有多窒息？",
        "docid": "7302007328075678246",
        "url": "https://www.ixigua.com/7302007328075678246"
    },
    {
        "title": "当2岁宝宝听到胎动的声音，她会有啥反应？一番回忆把妈妈惊呆了",
        "docid": "7308279309373571638",
        "url": "https://www.ixigua.com/7308279309373571638"
    },
    {
        "title": "爆！太炸裂了！299块值吗？！我必须立刻拥有！捷德奥特曼居然…",
        "docid": "7316706238497358399",
        "url": "https://www.ixigua.com/7316706238497358399"
    },
    {
        "title": "姐姐半夜睡迷糊四处找被子，拉着20斤弟弟就往身上盖，妈妈笑喷！",
        "docid": "7310135115915461160",
        "url": "https://www.ixigua.com/7310135115915461160"
    },
    {
        "title": "活该岳云鹏一直大红大紫，被自闭症孩子叫爸爸后，他的反应好暖心",
        "docid": "7322025323883823631",
        "url": "https://www.ixigua.com/7322025323883823631"
    },
    {
        "title": "叫前夫过来煮饭给两个小孩吃，木头前夫看到我快下班就开溜了，哎",
        "docid": "7320795617234682431",
        "url": "https://www.ixigua.com/7320795617234682431"
    },
    {
        "title": "兄妹俩犯错被罚站妹妹求救哥哥无果，转身被吼手足无措，萌翻网友",
        "docid": "7298529088480903743",
        "url": "https://www.ixigua.com/7298529088480903743"
    },
    {
        "title": "爸爸妈妈结婚，你为什么没有参加？看看萌娃们是怎么回答的吧！😅",
        "docid": "7307101580048728617",
        "url": "https://www.ixigua.com/7307101580048728617"
    },
    {
        "title": "宝宝半夜爬进狗窝睡觉，怎料狗狗的反应，连妈妈都看愣了",
        "docid": "7303838538288923163",
        "url": "https://www.ixigua.com/7303838538288923163"
    },
    {
        "title": "又菜又爱玩！萌娃扔摔炮吓到自己，小手自拍胸口安慰：吓死宝宝了",
        "docid": "7308624965631705610",
        "url": "https://www.ixigua.com/7308624965631705610"
    },
    {
        "title": "小奥特曼明白了不能捡外面的东西吃#奥特曼儿童动画片 #儿童动画",
        "docid": "7314129953451475491",
        "url": "https://www.ixigua.com/7314129953451475491"
    },
    {
        "title": "劲爆战士陀螺全合金版本，用的还是大攻击环，这岂不是无敌？",
        "docid": "7309793019740291621",
        "url": "https://www.ixigua.com/7309793019740291621"
    },
    {
        "title": "外国小孩来中国后，英语只考28分气坏妈妈",
        "docid": "7306070116133765668",
        "url": "https://www.ixigua.com/7306070116133765668"
    },
    {
        "title": "女孩表演遇舞伴捣乱，一边完成动作一边抽空揍舞伴，场面太好笑",
        "docid": "7293349008414769727",
        "url": "https://www.ixigua.com/7293349008414769727"
    },
    {
        "title": "后妈坐月子女孩帮忙照顾弟弟，默默埋头吃饭没一句怨言，画面破防",
        "docid": "7318225709338460681",
        "url": "https://www.ixigua.com/7318225709338460681"
    },
    {
        "title": "宝妈半夜被一脚踹脸惊醒，看见罪魁祸首生无可恋调侃：幸好没整过",
        "docid": "7302294780359705088",
        "url": "https://www.ixigua.com/7302294780359705088"
    },
    {
        "title": "二次元美食，美味琥珀糖吃过瘾，漂亮的黄色系，一起吃吧",
        "docid": "7299322228041384488",
        "url": "https://www.ixigua.com/7299322228041384488"
    },
    {
        "title": "小鸭子嘎嘎嘎 拔萝卜 小白兔白又白 小兔子乖乖 小跳蛙宝宝儿歌",
        "docid": "7321124096706609701",
        "url": "https://www.ixigua.com/7321124096706609701"
    },
    {
        "title": "隔辈亲，宝宝和爷爷是一个模子里刻出来的吧",
        "docid": "7310488434794201626",
        "url": "https://www.ixigua.com/7310488434794201626"
    },
    {
        "title": "宝妈厕所没纸求救一岁萌宝，娃屁颠晃悠返回网友惊：不会说但都懂",
        "docid": "7324945922328199731",
        "url": "https://www.ixigua.com/7324945922328199731"
    },
    {
        "title": "小朋友参加泼水节被团团围住，网友：太不厚道了，专挑小的下手",
        "docid": "7322646239769133631",
        "url": "https://www.ixigua.com/7322646239769133631"
    },
    {
        "title": "熟睡中的女儿被爸爸拿一把肉串“唤醒”，反应太可爱：眼睛放光！",
        "docid": "7301943368291418650",
        "url": "https://www.ixigua.com/7301943368291418650"
    },
    {
        "title": "02年女生嫁大11岁男友，挺大肚子洗衣倒尿桶，老公半瘫替她坐月子",
        "docid": "7323161634825110042",
        "url": "https://www.ixigua.com/7323161634825110042"
    },
    {
        "title": "娘蜂也不是好惹的哦！CS01甲壳虫单挑小杂兵",
        "docid": "7324667495452213775",
        "url": "https://www.ixigua.com/7324667495452213775"
    },
    {
        "title": "萌娃遭“绑架”被爸爸狂亲，妈妈吐槽像小猪拱白菜：都亲秃噜皮了",
        "docid": "7303794092192825897",
        "url": "https://www.ixigua.com/7303794092192825897"
    },
    {
        "title": "奶奶纹了嘴唇在恢复期，怕儿子发现用手捂着，疯狂给孙女使眼色",
        "docid": "7297519450616660515",
        "url": "https://www.ixigua.com/7297519450616660515"
    },
    {
        "title": "宝妈吐槽家里没地方睡，晒出1米8的大床后网友秒懂：甜蜜的负担！",
        "docid": "7293705143499883019",
        "url": "https://www.ixigua.com/7293705143499883019"
    },
    {
        "title": "残疾30多年，办残疾证医生告诉我8000元就能治好…多么戏剧的人生",
        "docid": "7292472296411759156",
        "url": "https://www.ixigua.com/7292472296411759156"
    },
    {
        "title": "实力坑爹！男孩带小伙伴抠掉爸爸车标，爸爸走近一看血压飙升",
        "docid": "7294881309673914917",
        "url": "https://www.ixigua.com/7294881309673914917"
    },
    {
        "title": "汪汪队立大功：天天被博士变成美人鱼失去自由，阿奇能解除魔咒？",
        "docid": "7308915531715707427",
        "url": "https://www.ixigua.com/7308915531715707427"
    },
    {
        "title": "这孩子太能抬杠了，整的我都无语啦，不过她说的还挺押韵",
        "docid": "7312755356587950603",
        "url": "https://www.ixigua.com/7312755356587950603"
    },
    {
        "title": "儿子问妈妈为什么她的胸前那么鼓，妈妈解答获怒赞：正确教育方式",
        "docid": "7302269404623209000",
        "url": "https://www.ixigua.com/7302269404623209000"
    },
    {
        "title": "宝宝手里的火腿肠掉在地上，神操作笑翻众人，网友：不要打扰他！",
        "docid": "7295216152702255642",
        "url": "https://www.ixigua.com/7295216152702255642"
    },
    {
        "title": "难道真有前世今生？7个月大宝宝天生会“绣花”还熟练蹭头油",
        "docid": "7309327249701306915",
        "url": "https://www.ixigua.com/7309327249701306915"
    },
    {
        "title": "工作人员对宝宝屁股爱不释手，QQ弹弹的样子，网友：好想捏一把",
        "docid": "7297156341871673907",
        "url": "https://www.ixigua.com/7297156341871673907"
    },
    {
        "title": "1岁半宝宝上早托班独自干饭，动作娴熟乖巧可爱，网友却心疼了",
        "docid": "7293416224640205338",
        "url": "https://www.ixigua.com/7293416224640205338"
    },
    {
        "title": "相差11岁兄妹相爱相杀，妹妹求助无果后暴力“发战”：又菜又爱玩",
        "docid": "7295206833101210175",
        "url": "https://www.ixigua.com/7295206833101210175"
    },
    {
        "title": "宝宝白天不醒晚上不睡，爸爸不停扒拉着熟睡中的宝宝，手势亮了！",
        "docid": "7321922343469580852",
        "url": "https://www.ixigua.com/7321922343469580852"
    },
    {
        "title": "《西游漫记》：为了搞到1000万，猴哥骑着白龙马参加摩托车大赛",
        "docid": "7325351252400243210",
        "url": "https://www.ixigua.com/7325351252400243210"
    },
    {
        "title": "宝宝在医院听到其他小朋友哭，宝宝：这环境我不嚎两声不合群啊",
        "docid": "7301228052653179455",
        "url": "https://www.ixigua.com/7301228052653179455"
    },
    {
        "title": "妈妈无意间拍到儿子跳中国舞，妈妈：从来没学过",
        "docid": "7306430246839026215",
        "url": "https://www.ixigua.com/7306430246839026215"
    },
    {
        "title": "宝宝安静必作妖，萌娃一个人在窗台一动不动，宝妈一看结果吓一跳",
        "docid": "7308991854019052051",
        "url": "https://www.ixigua.com/7308991854019052051"
    },
    {
        "title": "14岁男孩回到家，发现竟多了个刚出生的亲妹妹，反应让宝妈泪奔",
        "docid": "7307164099320742452",
        "url": "https://www.ixigua.com/7307164099320742452"
    },
    {
        "title": "自闭症少女目睹凶案反被嫌疑，却不知她智商高达180《证人》",
        "docid": "7314995793679942144",
        "url": "https://www.ixigua.com/7314995793679942144"
    },
    {
        "title": "有趣的小猴子：小猴子开神奇的宠物盲盒，得到许多小鸭子和小金鱼",
        "docid": "7305943285179417097",
        "url": "https://www.ixigua.com/7305943285179417097"
    },
    {
        "title": "幼儿园里女孩靠在男孩肩头，男孩满脸不情愿表情萌翻，网友看傻眼",
        "docid": "7315237534496195113",
        "url": "https://www.ixigua.com/7315237534496195113"
    },
    {
        "title": "小男孩边哭边拉二胡，妈妈神“补刀”：就这样，把感情拉进去",
        "docid": "7305652699607859752",
        "url": "https://www.ixigua.com/7305652699607859752"
    },
    {
        "title": "14个月宝宝每晚找哥哥亲吻，一路小跑熟门熟路爬上床，瞬间被萌化",
        "docid": "7303428520397505034",
        "url": "https://www.ixigua.com/7303428520397505034"
    },
    {
        "title": "长发vs星期三舞会换装挑战，彩虹花瓣裙vs黑色星光裙，哪个更漂亮",
        "docid": "7298176113207935542",
        "url": "https://www.ixigua.com/7298176113207935542"
    },
    {
        "title": "经典儿歌：屁屁童谣",
        "docid": "7304169250845884954",
        "url": "https://www.ixigua.com/7304169250845884954"
    },
    {
        "title": "浙江男幼师考核现场嘟嘴卖萌，台下考试老师笑出眼泪，行业天花板",
        "docid": "7305610295039558163",
        "url": "https://www.ixigua.com/7305610295039558163"
    },
    {
        "title": "萌娃打针时被激发语言功能，口出狂言瞬间惊呆父母：还是河南话？",
        "docid": "7293766263078126114",
        "url": "https://www.ixigua.com/7293766263078126114"
    },
    {
        "title": "一龙三凤四胞胎趴在妈妈背上，个个虎头虎脑不哭也不闹，网友羡慕",
        "docid": "7318673365865071114",
        "url": "https://www.ixigua.com/7318673365865071114"
    },
    {
        "title": "护士给新生儿检查原始反射，一旁奶奶吓出表情包：像是在拎小鸡崽",
        "docid": "7311243675915256346",
        "url": "https://www.ixigua.com/7311243675915256346"
    },
    {
        "title": "文文啥时候能学会用筷子吃饭，姥姥落后的观点和无知宠爱害了孩子",
        "docid": "7325025293867991578",
        "url": ""
    },
    {
        "title": "妈妈问小男孩“曲奇饼干好吃吗”，小男孩：“你不用说我懂你",
        "docid": "7324623334602342912",
        "url": "https://www.ixigua.com/7324623334602342912"
    },
    {
        "title": "大象把小女孩宠成了小公主，坚持三年送她去上学，这样的画面治愈",
        "docid": "7319792061564060186",
        "url": "https://www.ixigua.com/7319792061564060186"
    },
    {
        "title": "1岁萌娃因为爷爷不给买零食，回家不服气用婴语激烈吵架：奶凶！",
        "docid": "7297066530515681811",
        "url": "https://www.ixigua.com/7297066530515681811"
    },
    {
        "title": "混血女儿问爸爸是不是老外，爸爸停止嗦粉忙否认，随后回答引怒赞",
        "docid": "7316353101408141863",
        "url": "https://www.ixigua.com/7316353101408141863"
    },
    {
        "title": "1个月大女儿跟爸爸温柔对视，憋一肚子话等不及说出口：心都化了",
        "docid": "7324113060795253275",
        "url": "https://www.ixigua.com/7324113060795253275"
    },
    {
        "title": "萌宝坐床上安静玩，妈妈看到后吓一跳，哭着大喊",
        "docid": "7310139369669526068",
        "url": "https://www.ixigua.com/7310139369669526068"
    },
    {
        "title": "“快点快点快点”！产妇一阵咳嗽，医护22小时生死营救",
        "docid": "7325583094361424447",
        "url": ""
    },
    {
        "title": "梅河口市公立幼儿园取消寒暑假，家长假期带娃不再难！",
        "docid": "7325473612340560435",
        "url": ""
    },
    {
        "title": "4岁女儿劝妈妈喊外婆姐姐，网友以为玩笑见真人打脸：一家子美人",
        "docid": "7303831195400766006",
        "url": "https://www.ixigua.com/7303831195400766006"
    },
    {
        "title": "小狗狗发现了奥特曼是假的#奥特曼动画片儿童3-6岁 #儿童动画",
        "docid": "7315995827401720374",
        "url": "https://www.ixigua.com/7315995827401720374"
    },
    {
        "title": "猴子抢走了女孩的气球，正暗自高兴时，意外的事情发生了",
        "docid": "7296782600130331190",
        "url": "https://www.ixigua.com/7296782600130331190"
    },
    {
        "title": "用15种颜色的彩泥制作史莱姆，汪汪队立大功手工玩具",
        "docid": "7307214663555973659",
        "url": "https://www.ixigua.com/7307214663555973659"
    },
    {
        "title": "剪纸动画：邋遢女孩自制礼服惊艳派对全场，压倒众人成功入选王妃",
        "docid": "7311513891513893426",
        "url": "https://www.ixigua.com/7311513891513893426"
    },
    {
        "title": "被社会毒打后才明白的道理！网友分享一个比一个震撼，醍醐灌顶",
        "docid": "7303813159406649896",
        "url": ""
    },
    {
        "title": "孩子一生的黄金八年，管晚了会内疚一辈子",
        "docid": "7324664976533438995",
        "url": ""
    },
    {
        "title": "11年女植物人肚子变大，医生检查发现怀孕，丈夫坚持要孩子今如何",
        "docid": "7319432177832624652",
        "url": ""
    },
    {
        "title": "来报恩的孩子，身上都有6大特征，对照一下。值得好好看看！",
        "docid": "7325076999645725236",
        "url": ""
    },
    {
        "title": "什么样的女人最容易怀孕？易孕的女人有这5个特征，赶快看看~",
        "docid": "7301900784034365988",
        "url": ""
    },
    {
        "title": "你以为的那些“坏习惯”，真的不用改！",
        "docid": "7298667196585099839",
        "url": ""
    },
    {
        "title": "17岁自闭症男孩，字迹堪比“印刷体”，自闭症都是天才？",
        "docid": "7305616146642846223",
        "url": ""
    },
    {
        "title": "当孩子厌学缺乏动力时，给他们看纪录片，比任何说教都更加有效！",
        "docid": "7295174849104937487",
        "url": ""
    },
    {
        "title": "7岁女孩吃完自助，衣兜撑满，店员怀疑偷拿！翻开布兜，众人哭了",
        "docid": "7322406204629107251",
        "url": ""
    },
    {
        "title": "做试管婴儿的女性到底有多“遭罪”？了解后才知道，女性的伟大！",
        "docid": "7296012298236494390",
        "url": ""
    },
    {
        "title": "7岁女娃患阴道炎，查到原因医生都惊了！这4种习惯，千万给娃戒",
        "docid": "7324586597360976418",
        "url": ""
    },
    {
        "title": "没想到女孩怀孕期间激素的威力这么大!看完网友分享,小脑都萎缩了",
        "docid": "7321591200832979519",
        "url": ""
    },
    {
        "title": "宝宝出生时“几斤几两”，暗示智商的高低？坦言：标准答案在这里",
        "docid": "7319795200346767891",
        "url": ""
    },
    {
        "title": "独生子女户养老困难，怎能说是计划生育政策造成的？不合逻辑",
        "docid": "7317917286105793051",
        "url": ""
    },
    {
        "title": "金牌月嫂月子餐食谱！教完失业！",
        "docid": "7311167054722351679",
        "url": ""
    },
    {
        "title": "天气越冷越该吃！它是公认的“脾胃修复剂”，孩子爱吃长得快",
        "docid": "7294431768173183503",
        "url": ""
    },
    {
        "title": "11只“小砂糖橘”园长的素颜和幼儿园的真实画面",
        "docid": "7324519036144845353",
        "url": ""
    },
    {
        "title": "顺产生孩子有多痛！一组3D图告诉你，妈妈太伟大，生而为人要感恩",
        "docid": "7322840641187267124",
        "url": ""
    },
    {
        "title": "草莓不能给孩子吃？儿科医生：孩子草莓吃多了，会有这几个危害！",
        "docid": "7312721016428642828",
        "url": ""
    },
    {
        "title": "11种宝宝急救方法，关键时刻能救命‼️快收藏",
        "docid": "7314563031818584615",
        "url": ""
    },
    {
        "title": "“老家回不起了”引发共鸣 网友:越穷的父母 越会花孩子的钱挣面子",
        "docid": "7324701624356700682",
        "url": ""
    },
    {
        "title": "最小的“小沙糖橘”清亦妹妹为什么这么勇敢，父母的做法值得学习",
        "docid": "7323090473831711271",
        "url": ""
    },
    {
        "title": "为何孩子越长大，越不爱去姥姥家？并非是“白眼狼”，原因很现实",
        "docid": "7309316018411930127",
        "url": ""
    },
    {
        "title": "研究发现：长大后仍然“跟妈亲”的男孩，主要是妈妈做对了这3点",
        "docid": "7295247991634707007",
        "url": ""
    },
    {
        "title": "医生提醒：这五类蔬菜，基本上都不会打农药，可以给孩子多吃一些",
        "docid": "7293059681793327650",
        "url": ""
    },
    {
        "title": "不论关系有多亲，去别人家都不能带这3样，这是基本礼貌，别不懂",
        "docid": "7296692124379071016",
        "url": ""
    },
    {
        "title": "这样培养男孩，他会越来越强大。",
        "docid": "7305022830650720777",
        "url": ""
    },
    {
        "title": "自查！五大“夺命”儿童玩具，家里有的赶快扔掉！",
        "docid": "7320203544429756966",
        "url": ""
    },
    {
        "title": "生理期间这样吃，轻松远离经期不适！",
        "docid": "7321157401271927335",
        "url": ""
    },
    {
        "title": "孩子感冒发烧遇到支原体肺炎要注意，它可不是小感冒！",
        "docid": "7306119161905054242",
        "url": ""
    },
    {
        "title": "中国首例5胞胎，如今21年过去，父亲已劳累去世，母亲苦尽甘来！",
        "docid": "7324898999273374208",
        "url": ""
    },
    {
        "title": "女孩姓“暴”，妈妈在线求助一个温柔的名字，被网友脑洞笑喷！",
        "docid": "7321926099858965027",
        "url": ""
    },
    {
        "title": "当一个好爸爸的最低成本：做对这3件事",
        "docid": "7315214787011691049",
        "url": ""
    },
    {
        "title": "2021年，高中学历父亲自学制药，救治绝症儿子，如今怎么样了？",
        "docid": "7324645312445202979",
        "url": ""
    },
    {
        "title": "心理学家：和父亲关系不好的孩子，长大以后容易有这四种“缺陷”",
        "docid": "7296359194558120489",
        "url": ""
    },
    {
        "title": "补脾超厉害的菜，比小米强多了，常吃补脾益胃，养神睡得香！",
        "docid": "7295324330924360192",
        "url": ""
    },
    {
        "title": "明明它这么营养，你却很少给孩子吃！天生的“补脑高手”",
        "docid": "7299257682069520934",
        "url": ""
    },
    {
        "title": "山姆最值得买的美食 top 20！配料干净，有娃家庭无限回购",
        "docid": "7293795928581014067",
        "url": ""
    },
    {
        "title": "从女孩到母亲，她们“经历”了啥？男生了解下",
        "docid": "7307154443844305443",
        "url": ""
    },
    {
        "title": "小宝宝这么大，怎么从妈妈狭窄的产道生出来？8张动图告诉你",
        "docid": "7323898570233397775",
        "url": ""
    },
    {
        "title": "别人还穿高定时，杨幂穿上了孤独症孩子制作的礼服，格局太大了！",
        "docid": "7323958125143671359",
        "url": ""
    },
    {
        "title": "怀孕期间你的老公都做过什么，看完网友的回复我沉默了",
        "docid": "7320871111107985947",
        "url": ""
    },
    {
        "title": "“42元巨款过生日”冲上热搜，评论区里满屏的精英傲慢，真恶毒！",
        "docid": "7323585316789453375",
        "url": ""
    },
    {
        "title": "“博士爸爸质疑医生专业水平”被刷爆全网，揭露了多少父母的无知",
        "docid": "7321616705619411496",
        "url": ""
    },
    {
        "title": "怀孕后干过什么离谱的事？90后是真“逆天”，个个脑子不太好使了",
        "docid": "7303737199185855026",
        "url": ""
    },
    {
        "title": "90后女子哭诉早起做早餐，孩子却不领情，网友笑喷：换我也吃不下",
        "docid": "7311179870544462355",
        "url": ""
    },
    {
        "title": "昔日的“全国计划生育先进县”，如今几乎全是老人，这还只是缩影",
        "docid": "7317939577916883508",
        "url": ""
    },
    {
        "title": "感慨！女子晒自己怀孕前后对比，从美人到大鼻子，简直判若两人",
        "docid": "7305636067574071818",
        "url": ""
    },
    {
        "title": "爸爸就是这样把我骗上了“985”",
        "docid": "7295549064631222818",
        "url": ""
    },
    {
        "title": "你生孩子的时候老公在干啥？评论区网友的经历笑死我了",
        "docid": "7297881440979583527",
        "url": ""
    },
    {
        "title": "一个家庭没有“规矩”，比没文化更可怕，一定要告诉孩子这些规矩",
        "docid": "7325422773701132826",
        "url": ""
    },
    {
        "title": "妇产科的八卦能有多离谱？网友分享真的刷新三观！一个比一个炸裂",
        "docid": "7322030779016577545",
        "url": ""
    },
    {
        "title": "再穷也要给孩子隆重过的4个生日，父母千万别无所谓！赶紧记下来",
        "docid": "7297901657538593317",
        "url": ""
    },
    {
        "title": "父母要学会装弱、装傻、装憨、装愣，孩子就会越来越强大！",
        "docid": "7325454051225731647",
        "url": ""
    },
    {
        "title": "孩子何时换牙？换牙期需要注意什么？要做好两点以避免双排牙",
        "docid": "7324960699266957835",
        "url": ""
    },
    {
        "title": "从拖拉到主动学，一定要先激发孩子的内驱力，特别是这5个小技巧",
        "docid": "7299087931728626186",
        "url": ""
    },
    {
        "title": "孩子有这3种“特征”，暗示将来能成大器，父母可以偷着乐了",
        "docid": "7320197461699019279",
        "url": ""
    },
    {
        "title": "为什么你和孩子的关系很差劲？很多家长都不明白这4个心理学影响",
        "docid": "7292763636060258835",
        "url": ""
    },
    {
        "title": "不管你的孩子养多大了，都要和他们聊一聊“底线”，这才是财富",
        "docid": "7294652443915321891",
        "url": ""
    },
    {
        "title": "带孩子见世面，到底“见”什么？这是我听过最好的答案",
        "docid": "7323945548896764416",
        "url": ""
    },
    {
        "title": "3岁识3000字6岁拿冠军，被网友嘲“伤仲永”，4年过去结果怎样？",
        "docid": "7305313666655158822",
        "url": ""
    },
    {
        "title": "收藏起来，没事跟孩子互动一下百科知识！",
        "docid": "7303391143437025801",
        "url": ""
    },
    {
        "title": "培养孩子自信的七句话，助力成长与成功！",
        "docid": "7325439577081446964",
        "url": ""
    },
    {
        "title": "孩子身高是随父亲还是母亲？都别乱猜了，专家早已经公布了真相！",
        "docid": "7325340220365439526",
        "url": ""
    },
    {
        "title": "正在带孙子的50后60后，咱们就认清这3点，保准家里没矛盾",
        "docid": "7321115230606754341",
        "url": ""
    },
    {
        "title": "一周不重样的儿童营养早餐，你还在为早上吃什么发愁吗？",
        "docid": "7302252647698956834",
        "url": ""
    },
    {
        "title": "未来3个月，建议多给孩子吃2种食材，助力提高免疫力，抵御寒冷",
        "docid": "7304945882368082484",
        "url": ""
    },
    {
        "title": "十娃九脾虚，要想孩子体质好，常喝这些汤，健脾祛湿！",
        "docid": "7294800081340121610",
        "url": ""
    },
    {
        "title": "孩子为啥不发烧了，咳嗽越来越多？",
        "docid": "7300100523372511782",
        "url": ""
    },
    {
        "title": "爸爸与孩子之间，妈妈与孩子之间，神奇的定律",
        "docid": "7325582319111143975",
        "url": ""
    },
    {
        "title": "“橘三岁”回南宁后感冒流鼻涕，一心想吃锅包肉，爸爸竟喊她阿妹",
        "docid": "7323461732533322267",
        "url": ""
    },
    {
        "title": "全职妈妈伸手要钱卑微吗？网友回复：我家都是五十五十的给！",
        "docid": "7294099975695303187",
        "url": ""
    },
    {
        "title": "为什么上一辈人总说孩子好带？评论区狠狠共情了",
        "docid": "7305941405275259455",
        "url": ""
    },
    {
        "title": "千万别让孩子在三四岁的时候认字，遵循儿童发育规律，不拔苗助长",
        "docid": "7322278170856555017",
        "url": ""
    },
    {
        "title": "兄弟姐妹中，排行第几的孩子最孝顺？答案很一致，你家是不是这样",
        "docid": "7323045726051762751",
        "url": ""
    },
    {
        "title": "怀孕每个月都做什么？一篇看明白！",
        "docid": "7294525457700045348",
        "url": ""
    },
    {
        "title": "做个情绪稳定的父母，有些话真不要和孩子说 ​​​",
        "docid": "7295151614246076937",
        "url": ""
    },
    {
        "title": "关于堕胎，一名妇科医生看见的",
        "docid": "7299711155680084506",
        "url": ""
    },
    {
        "title": "医生提醒：孩子老舔嘴唇，家长一定要注意了，小心是得了这种病！",
        "docid": "7323016275331269130",
        "url": ""
    },
    {
        "title": "孩子确诊支原体肺炎，如何做好居家护理？",
        "docid": "7297803375595553316",
        "url": ""
    },
    {
        "title": "受精后1-36周胎宝在孕妈肚子全纪实",
        "docid": "7307568602356957750",
        "url": ""
    },
    {
        "title": "无效陪孩子比不陪孩子更伤孩子",
        "docid": "7296753706077422118",
        "url": ""
    },
    {
        "title": "成年人用安睡裤是智商税么？网友的评论是幸福！",
        "docid": "7292685715677708863",
        "url": ""
    },
    {
        "title": "毁掉宝宝的专注力，只要这8件事就够了！",
        "docid": "7309357137761813046",
        "url": ""
    },
    {
        "title": "孩子被欺负，比起打回去，这5个方法才能解决根本问题",
        "docid": "7299656379806040603",
        "url": ""
    },
    {
        "title": "允许孩子发脾气，孩子成长路上，遇到的问题都在这里，请仔细看看",
        "docid": "7297759425505722920",
        "url": ""
    },
    {
        "title": "孩子要长高了的6个信号，家长们注意了",
        "docid": "7305996107904008744",
        "url": ""
    },
    {
        "title": "宝妈含泪告诫：如果可以，别轻易让姥姥带孩子",
        "docid": "7301208014735082035",
        "url": ""
    },
    {
        "title": "惊了！他说出了自闭症孩子大脑运行的方式",
        "docid": "7308944262014894603",
        "url": ""
    },
    {
        "title": "尽量别给孩子吃，寄生虫最多的食物 ​​​",
        "docid": "7294055888989340187",
        "url": ""
    },
    {
        "title": "一生仅有三岁智力，却被称为天才登上春晚，如今过上了怎样的生活",
        "docid": "7323788345463685668",
        "url": ""
    },
    {
        "title": "外国人到了中国会打自己小孩吗？",
        "docid": "7312667182608335423",
        "url": ""
    },
    {
        "title": "蒋丽莎：5年4胎从来不坐月子，如今38岁的她，老过54岁的丈夫",
        "docid": "7307575988261700131",
        "url": ""
    },
    {
        "title": "家里再不景气，也要带孩子去这7座城市",
        "docid": "7323354028291752486",
        "url": ""
    },
    {
        "title": "20岁生孩子vs30岁后生孩子，太真实了，妈妈看了想哭",
        "docid": "7312065026574107148",
        "url": ""
    },
    {
        "title": "孩子出不出色，跟父母有很大的关系，特别是爸爸，请仔细看看",
        "docid": "7303026359444455936",
        "url": ""
    },
    {
        "title": "神奇的母子定律：惩罚孩子不打不骂不吼不叫的9个方法",
        "docid": "7292411394052407844",
        "url": ""
    },
    {
        "title": "年轻人要正视一个事实：生不生二胎，20年后差别待遇大",
        "docid": "7294943162173309474",
        "url": ""
    },
    {
        "title": "女生怀孕时的要求多能有多离谱？看完网友分享，一个比一个逆天",
        "docid": "7312265781461762612",
        "url": ""
    },
    {
        "title": "去做产检，穿得精致点还是土点好？一评论引起上万孕妈共鸣",
        "docid": "7303382655712739850",
        "url": ""
    },
    {
        "title": "反正人长得漂亮，穿衣服就很任性，走在大街上也不用怕尴尬了",
        "docid": "7323819741167370779",
        "url": ""
    },
    {
        "title": "1992年，河南教师因“超生”被开除，不料22年后，省里赔偿60万",
        "docid": "7312010330262143526",
        "url": ""
    },
    {
        "title": "吃1个它，等于5个苹果！是公认的“全科医生”，这么吃孩子蹭蹭长",
        "docid": "7301856256392970791",
        "url": ""
    },
    {
        "title": "有专家说，我们的国家得了一种病",
        "docid": "7306119614675927606",
        "url": ""
    },
    {
        "title": "孩子经常晚睡，会少长10厘米？究竟几点睡算晚睡？",
        "docid": "7315234186690920971",
        "url": ""
    },
    {
        "title": "魏新：这些东西，小时候不能吃",
        "docid": "7324955352066245129",
        "url": ""
    },
    {
        "title": "胎儿从4周至40周的发育过程",
        "docid": "7316781217213645338",
        "url": ""
    },
    {
        "title": "沉浸在自我感动中的父母有多窒息？评论区狠狠共鸣了",
        "docid": "7309823600373432851",
        "url": ""
    },
    {
        "title": "常吃蒸菜，营养补得快，这四道蒸菜常吃，孩子身高的“加速器”",
        "docid": "7312761095188595226",
        "url": ""
    },
    {
        "title": "咳嗽不想吃药?分享6个止咳食疗方！",
        "docid": "7294223456969835019",
        "url": ""
    },
    {
        "title": "娃一写字就会过敏昏死，宝妈哭着求救？网友：1秒帮其找到解药",
        "docid": "7320104504912052799",
        "url": ""
    },
    {
        "title": "孕期你见过老公哪些奇葩行为？看完网友的吐槽，想忍住不笑都难！",
        "docid": "7304186348993823267",
        "url": ""
    },
    {
        "title": "现在的爷爷奶奶能有多叛逆？网友：我爸把我奶奶从公安局捞出来",
        "docid": "7312007155442352692",
        "url": ""
    },
    {
        "title": "07年，内蒙6岁女孩因特殊能力，被特种部队破格录取，成最小军官",
        "docid": "7320910195894059571",
        "url": ""
    },
    {
        "title": "少问孩子\"要不要、好不好\"，换个方式和他说",
        "docid": "7293691630023115302",
        "url": ""
    },
    {
        "title": "被小朋友的思维方式惊呆了！评论区的宝宝简直是天使般的存在！",
        "docid": "7297574087591805459",
        "url": ""
    },
    {
        "title": "女人怀孕生育冷知识暴击！这些都是真的吗？看完网友分享大开眼界",
        "docid": "7323870000081912372",
        "url": ""
    },
    {
        "title": "生二胎那天，你们是怎么安排大宝的？看完网友评论，既心酸又无奈",
        "docid": "7319362383284421161",
        "url": ""
    },
    {
        "title": "原来宝宝不会自己睡觉，是因为不足月，哪吒才是足月儿！",
        "docid": "7323866783642157622",
        "url": ""
    },
    {
        "title": "孩子刚出生就要开始预防人贩子了！评论区的经历惊呆上万网友！",
        "docid": "7302270618311983650",
        "url": ""
    },
    {
        "title": "这6个特征大概率会遗传，快来看看孩子继承了你的哪些优良基因吧",
        "docid": "7297010998882632242",
        "url": ""
    },
    {
        "title": "在产科一定要谨防新生儿被偷！网友的回复一个比一个炸，刷新三观",
        "docid": "7301736059703018047",
        "url": ""
    },
    {
        "title": "笑啊，怎么不笑了？爱他就生个娃吧，肉眼可见的憔悴了",
        "docid": "7313208377163940361",
        "url": ""
    },
    {
        "title": "两岁半宝宝满嘴烂牙，医生揪出罪魁祸首：妈妈的无知害了孩子",
        "docid": "7308954936962810377",
        "url": ""
    },
    {
        "title": "人到中年后才发现：早生孩子和晚生孩子的差别真的挺大的，看看吧",
        "docid": "7305765081463276041",
        "url": ""
    },
    {
        "title": "还在纠结要不要生二胎？我以过来人的经验告诉你",
        "docid": "7295715077897486874",
        "url": ""
    },
    {
        "title": "不愧是央视推荐，专为低幼儿童拍的纪录片！",
        "docid": "7294525739603493413",
        "url": ""
    },
    {
        "title": "因妈妈姓氏太特殊，全家一致通过“随母姓”，网友：是我也随母姓",
        "docid": "7295635129622446601",
        "url": ""
    },
    {
        "title": "不同思维的父母对待孩子的态度",
        "docid": "7298874235571896867",
        "url": ""
    },
    {
        "title": "孩子被开水烫伤，妈妈“一小时急救”被全家怒骂，却被医生夸奖",
        "docid": "7299349338445136418",
        "url": ""
    },
    {
        "title": "孩子啥时候能吃盐？太早太晚都不好，家长要早知道，别弄错了",
        "docid": "7299028029626745379",
        "url": ""
    },
    {
        "title": "中国家庭之殇：53万儿童性早熟，“毁掉”孩子的不是炸鸡和豆浆",
        "docid": "7297105363357385270",
        "url": ""
    },
    {
        "title": "董宇辉说:当孩子缺乏自律时，给他讲讲懒鸟效应",
        "docid": "7325223132347384331",
        "url": ""
    },
    {
        "title": "“医生，我家孩子老把p写成q，汉字也经常写反，怎么办？” 医生坦言：这样的孩子其实很多",
        "docid": "7312246490217497128",
        "url": ""
    },
    {
        "title": "新国标奶粉里，这些成分正在消失，你家宝宝喝的奶粉里还有吗？",
        "docid": "7298521547499897378",
        "url": ""
    },
    {
        "title": "一包普通的纸巾，让女儿感染了疾病，请谨慎购买这类便宜的纸巾",
        "docid": "7315251739186315839",
        "url": ""
    },
    {
        "title": "09年，她带两岁儿子洗澡竟洗出一身病，孩子如今怎样？",
        "docid": "7324585114934034996",
        "url": ""
    },
    {
        "title": "浙江乡村医生六个孩子五个是博士，而他的育儿观却只有二十四个字",
        "docid": "7324607171278045736",
        "url": ""
    },
    {
        "title": "幼儿园孩子胡说八道有多离谱？完全是一本正经！老师真是太可怜了",
        "docid": "7297132753869521445",
        "url": ""
    },
    {
        "title": "无锡孩子送给“换肺女孩”雯雯“特别礼物”",
        "docid": "7325652202339762700",
        "url": ""
    },
    {
        "title": "终于有人把珠算口诀，详细整理好了，千万要告诉孩子看完增加知识",
        "docid": "7325304733718135332",
        "url": ""
    },
    {
        "title": "怀孕有钱领‼️不止生育津贴，一共4笔，可别错过",
        "docid": "7310235460029202980",
        "url": ""
    },
    {
        "title": "闹大了！“生孩子不收钱”冲上热搜，我却被网友评论笑死了！",
        "docid": "7324975048174076431",
        "url": ""
    },
    {
        "title": "湖南无臂妈妈：靠双腿哺乳，小6岁丈夫不离不弃，用坚强书写人生",
        "docid": "7319776442865320482",
        "url": ""
    },
    {
        "title": "育儿专家教你最全抚触，1000天初生免疫力 ！收藏起来吧",
        "docid": "7325693463017243174",
        "url": ""
    },
    {
        "title": "爷爷届带娃天花板，但凡这种爷爷多一点，生育率只高不降",
        "docid": "7312333479973667365",
        "url": ""
    },
    {
        "title": "为什么被妈妈吼了不记仇，孩子还要求抱抱？原来这才是真相！",
        "docid": "7300767128276501033",
        "url": ""
    },
    {
        "title": "8岁孩子跳断第四根跳绳，他确诊特发性矮小之后一个人的“长征”",
        "docid": "7310984006345196042",
        "url": ""
    },
    {
        "title": "为什么奶奶带孩子，不会崩溃。妈妈带娃就做饭都难，经常崩溃呢。",
        "docid": "7322711322322584105",
        "url": ""
    },
    {
        "title": "千万不要吸食孩子的能量",
        "docid": "7322653965584204298",
        "url": ""
    },
    {
        "title": "不想女儿唯唯诺诺、胆小爱哭，就看这10部能增强自信的纪录片！",
        "docid": "7301577857015267894",
        "url": ""
    },
    {
        "title": "养一个老人花不了多少钱，但为什么都不愿意跟老人住？答案太扎心",
        "docid": "7295333753021415945",
        "url": ""
    },
    {
        "title": "孩子长多高，看看这张表，你家孩子身高达标了吗？",
        "docid": "7299098637756383783",
        "url": ""
    },
    {
        "title": "多鼓励女儿5个方面，她才能越来越强大",
        "docid": "7295913845619442195",
        "url": ""
    },
    {
        "title": "智商只有三岁的“天才指挥家”丹丹，只是一个持续23年谎言",
        "docid": "7325273321829548595",
        "url": ""
    },
    {
        "title": "父亲教我的识人术",
        "docid": "7305783248188260900",
        "url": ""
    },
    {
        "title": "婴儿睡觉时为什么看见妈妈在旁边就继续睡",
        "docid": "7298911844801135142",
        "url": ""
    },
    {
        "title": "和孩子住对门的悲和喜、苦和乐。",
        "docid": "7317089003348623912",
        "url": ""
    },
    {
        "title": "我90后，为生娃花近10万检查费，被迫试管，其过程却是一部血泪史",
        "docid": "7303111768392335887",
        "url": ""
    },
    {
        "title": "男孩子这样养，他长大了会感谢你。这八句话必须由爸爸来告诉孩子",
        "docid": "7305412993922368000",
        "url": ""
    },
    {
        "title": "一张“马脸”代代相传？父亲的基因太强大，子女有苦也说不出！",
        "docid": "7324129454744519218",
        "url": ""
    },
    {
        "title": "穿得越多越感冒！儿科医生：生病少的孩子，都靠这个“穿衣秘笈”",
        "docid": "7310465275064222242",
        "url": ""
    },
    {
        "title": "家长为什么不敢给孩子做雾化？看完这篇搞清楚了",
        "docid": "7298179227156070921",
        "url": ""
    },
    {
        "title": "退休北大老教授带娃：只是天天和孙子玩贴纸，却让孩子越来越聪明",
        "docid": "7310588813779370546",
        "url": ""
    },
    {
        "title": "被爱会长出血肉，这位妈妈说的太好了！",
        "docid": "7316735141500469769",
        "url": ""
    },
    {
        "title": "13年前，冒死生下双胞胎女儿的60岁失独母亲，如今丈夫也去世了",
        "docid": "7310135625351725609",
        "url": ""
    },
    {
        "title": "全面放开计划生育，年轻人少生不生又为何？",
        "docid": "7324980048627876364",
        "url": ""
    },
    {
        "title": "2023人口继续负增长：鼓励生育，要让年轻人生得起，养得起才行！",
        "docid": "7325080948423344694",
        "url": ""
    },
    {
        "title": "一份平平无奇的早餐食谱，竟让孩子们平均长高10厘米？",
        "docid": "7309781448352596516",
        "url": ""
    },
    {
        "title": "10万多的课一节都没上！杭州一早教机构未开业就预售，被指“收款上百万元后失联”",
        "docid": "7324962117373837876",
        "url": ""
    },
    {
        "title": "一周不重样宝宝营养热汤面！",
        "docid": "7296279228885008896",
        "url": ""
    },
    {
        "title": "令人捧腹！45个睡着了的孩子，姿势百出，睡出新境界",
        "docid": "7307138383699690024",
        "url": ""
    },
    {
        "title": "孩子的睡姿可能暗示不同的性格，如果娃是第4种，那就要恭喜你了",
        "docid": "7322259976402272768",
        "url": ""
    },
    {
        "title": "支原体还没走，“新病毒”又扎堆儿来，有孩子的父母可要费心了",
        "docid": "7300197941170831909",
        "url": ""
    },
    {
        "title": "天护耀世，合创未来——孕婴世界X合生元派星天护奶粉闪耀上市！",
        "docid": "7325715661157761555",
        "url": ""
    },
    {
        "title": "有手就能画！教你简单风景画",
        "docid": "7321235488072057384",
        "url": ""
    },
    {
        "title": "生育的细节⑱｜长相、收入、家庭、房产，研究剖析现代择偶偏好",
        "docid": "7325676313027658240",
        "url": ""
    },
    {
        "title": "女性生没生过孩子,看这3个\"不同\"一眼看穿,瞒是瞒不住的",
        "docid": "7316443742720918066",
        "url": ""
    },
    {
        "title": "独吃12个南瓜，2017年一儿媳月子餐引发婆媳矛盾，婆婆哭诉养不起",
        "docid": "7325327123110707727",
        "url": ""
    },
    {
        "title": "妈妈每天六点起床做早餐，一周七天换着花样吃！朋友问：还缺娃吗",
        "docid": "7298585099770004020",
        "url": ""
    },
    {
        "title": "董宇辉:不要太在意孩子",
        "docid": "7306764080998679052",
        "url": ""
    },
    {
        "title": "孩子性启蒙怕尴尬，不知道怎么教--就看这几部动画片",
        "docid": "7320117058140701199",
        "url": ""
    },
    {
        "title": "早餐吃它胜过10倍牛奶！高钙高蛋白，既漂亮又好吃，鲜嫩金黄",
        "docid": "7325359922793710132",
        "url": ""
    },
    {
        "title": "我80后，未婚在美国做试管生子，爸爸听后哭了，这事没法和亲戚说",
        "docid": "7303143940860690984",
        "url": ""
    },
    {
        "title": "冬天养脾胃，吃它不比山药差！做法简单的小点心，少油少糖糯叽叽",
        "docid": "7324864335426322955",
        "url": ""
    },
    {
        "title": "为何2024年出生人口可能重回1000万？",
        "docid": "7323375554034745890",
        "url": ""
    },
    {
        "title": "小儿脾胃调理！ ​",
        "docid": "7321190973781049866",
        "url": ""
    },
    {
        "title": "为了省钱你们做过哪些丧心病狂的事（之二）",
        "docid": "7325419052938478143",
        "url": ""
    },
    {
        "title": "孩子几岁戒掉尿不湿最合适？太早太晚都不好",
        "docid": "7316490858374169099",
        "url": ""
    },
    {
        "title": "史上最全的植物形态图解，野外认识药材用的着",
        "docid": "7299969858782265882",
        "url": ""
    },
    {
        "title": "女生生孩子有多疼？！网友评论不敢看！",
        "docid": "7319479420870394422",
        "url": ""
    },
    {
        "title": "95后产妇生下“雪人宝宝”，一家人吓坏了，医生却说“恭喜了”",
        "docid": "7308504516914184731",
        "url": ""
    },
    {
        "title": "惊人的慢马定律：长大后有出息的孩子，接纳了父母的三种教育方式",
        "docid": "7234359417267995170",
        "url": ""
    },
    {
        "title": "11个“沙糖桔”惊动“专家”质疑带队幼师水平，评论区一片哗然",
        "docid": "7322579063736959515",
        "url": ""
    },
    {
        "title": "父亲将儿子画的丑东西变3D",
        "docid": "7297464732989669903",
        "url": ""
    },
    {
        "title": "咳嗽辨证，家长这些你一定要保存！",
        "docid": "7316088672884392459",
        "url": ""
    },
    {
        "title": "我发现了一个旺孩子的绝招！罗森塔尔效应！",
        "docid": "7320796627038880271",
        "url": ""
    },
    {
        "title": "没事多和孩子聊聊这些，孩子变化会很惊人！",
        "docid": "7319281118329520678",
        "url": ""
    },
    {
        "title": "胖猫咪线稿，教你简单画！",
        "docid": "7321991034341392948",
        "url": ""
    },
    {
        "title": "普通家庭如何带孩子过有意义的周末假期",
        "docid": "7303380887830266409",
        "url": ""
    },
    {
        "title": "妈妈，什么是教养，这是我见过最完整的答案",
        "docid": "7321340733527589415",
        "url": ""
    },
    {
        "title": "这3种娃其实是“假聪明”，长大后很难有所作为，父母别瞎高兴",
        "docid": "7315010680292704831",
        "url": ""
    },
    {
        "title": "其实你的孩子不是懒，是能量太低了",
        "docid": "7297855803703394826",
        "url": ""
    },
    {
        "title": "那些与幸福家庭孩子无法共情的瞬间，评论区扎心经历触动上万读者",
        "docid": "7296354925179847208",
        "url": ""
    },
    {
        "title": "幼儿园趣味识字，边玩还能培养孩子专注力",
        "docid": "7325730178766963211",
        "url": ""
    },
    {
        "title": "孩子身上有这种表现，暗示他的内心很挫败，家长需重视！",
        "docid": "7325730438860669449",
        "url": ""
    },
    {
        "title": "6岁儿童中有45%失去远视储备！有你家孩子吗？",
        "docid": "7324843484660793882",
        "url": ""
    },
    {
        "title": "妈妈，我想玩手机，你的回应很重要！",
        "docid": "7324915339337433636",
        "url": ""
    },
    {
        "title": "不要被“人口红利”误导我们的思想",
        "docid": "7325671063080354340",
        "url": ""
    },
    {
        "title": "孕23周，我的儿子死于美国医疗",
        "docid": "7298971453112943139",
        "url": ""
    },
    {
        "title": "孩子这样说话，说明他心理正在崩溃",
        "docid": "7300774322052858407",
        "url": ""
    },
    {
        "title": "要第三胎却怀三胞胎，生产困难重重，该如何保住这些娃娃？",
        "docid": "7325747908933206566",
        "url": ""
    },
    {
        "title": "出生胎龄仅23周：哥伦比亚女婴在中国成功救治",
        "docid": "7325450585044566554",
        "url": ""
    },
    {
        "title": "永远不要帮着别人欺负你的孩子",
        "docid": "7325434169822396978",
        "url": ""
    },
    {
        "title": "幼儿园阶段真的有必要给孩子报一大堆兴趣班吗？",
        "docid": "7325704814137016847",
        "url": ""
    },
    {
        "title": "把女儿养成玻璃心才醒悟，真正强大的孩子，一定要经历“瓶颈期”",
        "docid": "7310953619430392360",
        "url": ""
    },
    {
        "title": "老公的继母带100个土鸡蛋和30只土鸡来照顾我坐月子，她女儿也来",
        "docid": "7312761830248727074",
        "url": ""
    },
    {
        "title": "在医院妇产科工作的表嫂说，今年的新生儿数量越来越少了！",
        "docid": "7310027134511661606",
        "url": ""
    },
    {
        "title": "为何娃上幼儿园总生病，还要拖很久？老师不明说，家长要心里有数",
        "docid": "7300391845308269075",
        "url": ""
    },
    {
        "title": "到底是国产大牌奶粉引发婴儿健康危机，还是家长固执己见令人担忧",
        "docid": "7324946298900120127",
        "url": ""
    },
    {
        "title": "请遵医嘱：医生让禁水禁食，偷偷喝水，人没了",
        "docid": "7325742305640448553",
        "url": ""
    },
    {
        "title": "气血不足那就多喝这5种汤，也是女性产后修复常喝的汤！",
        "docid": "7306312052858110516",
        "url": ""
    },
    {
        "title": "从小爱“咬指甲”的孩子，医生坦言：严重影响牙齿和口腔健康",
        "docid": "7300568041954902579",
        "url": ""
    },
    {
        "title": "孩子生下来发现是“舟状头”，有人说睡睡就好了，其实这是一种病",
        "docid": "7293816814725972543",
        "url": ""
    },
    {
        "title": "你养的孩子是否爱你，看这一点，一目了然",
        "docid": "7323158502372229686",
        "url": ""
    },
    {
        "title": "娃多大开始认字好？过早易笨？过晚错过脑发育期！",
        "docid": "7298964974892991026",
        "url": ""
    },
    {
        "title": "广州知名早教机构突然闭店引预缴费会员不满，相关部门介入调解",
        "docid": "7325751670661923354",
        "url": ""
    },
    {
        "title": "武汉这所幼儿园为6岁孩子办画展",
        "docid": "7325745795918086710",
        "url": ""
    },
    {
        "title": "了解孕妇“上怀”和“下怀”的区别，让你的孕期更顺利！",
        "docid": "7325679275544691235",
        "url": ""
    },
    {
        "title": "白衣天使“极限”创造“神奇”，6月大胎儿在子宫里成功手术",
        "docid": "7323489780065419786",
        "url": ""
    },
    {
        "title": "真的有被这些父母的教育方式惊艳到！原来教育孩子可以这么温柔",
        "docid": "7325713914648773147",
        "url": ""
    },
    {
        "title": "全国60周岁及以上老年人口占总人口比例已接近20% 专家称鼓励生育才能解决人口问题",
        "docid": "7324205303405429283",
        "url": ""
    },
    {
        "title": "女儿是吸收妈妈的情绪长大的",
        "docid": "7315413198004961802",
        "url": ""
    },
    {
        "title": "中国牛娃“标配”!这份顶级新闻报刊,全面助力6-12岁孩子的阅读写作",
        "docid": "7325625307845820928",
        "url": ""
    },
    {
        "title": "今年起海南提高多项计划生育家庭特别扶助标准",
        "docid": "7325669505404158479",
        "url": ""
    },
    {
        "title": "事半功倍的教育",
        "docid": "7325608407393337896",
        "url": ""
    },
    {
        "title": "3岁以下宝宝不宜穿羽绒服",
        "docid": "7325013901349863972",
        "url": ""
    },
    {
        "title": "十日谈 | 郦亮：远远欣赏女儿读书的背影",
        "docid": "7325698766038712847",
        "url": ""
    },
    {
        "title": "孩子感染呼吸道疾病，鼻塞流鼻涕这样处理",
        "docid": "7321934834694111798",
        "url": ""
    },
    {
        "title": "带孩子学习！能让他语文弯道超车的纪录片",
        "docid": "7325681955352527371",
        "url": ""
    },
    {
        "title": "这套长青藤国际大奖小说系列：斩获无数国际大奖，把世界放在孩子的书架上！",
        "docid": "7325640755626820137",
        "url": ""
    },
    {
        "title": "叛逆期：每个孩子都要经历的阶段",
        "docid": "7325428747858362891",
        "url": ""
    },
    {
        "title": "《啊，幸福》这套绘本，让我看到了幸福的不同模样",
        "docid": "7325704628639777332",
        "url": ""
    },
    {
        "title": "新生儿护理8问：睡着不拍嗝、不能躺喂、便秘、宝宝冷、安抚奶嘴",
        "docid": "7325734788487643702",
        "url": ""
    },
    {
        "title": "寒假将至，一定要教会孩子的保命技巧",
        "docid": "7325031843068264987",
        "url": ""
    },
    {
        "title": "孩子骨龄大，病根在内热！教你2招除内热、强体质，孩子多长10cm",
        "docid": "7317939009270333963",
        "url": ""
    },
    {
        "title": "幼儿园“小金主”频繁出击：继200克黄金后，又递“表白”纸条！",
        "docid": "7322800944440492571",
        "url": ""
    },
    {
        "title": "妈妈擦桌子宝宝一个举动害苦爸爸，终究为孩子扛下一切",
        "docid": "7307997604007150117",
        "url": ""
    },
    {
        "title": "石家庄：进一步完善管理平台减轻家庭负担 为3岁以下婴幼儿提供高质量照护服务",
        "docid": "7325678621849715210",
        "url": ""
    },
    {
        "title": "4岁男孩写瘦金体惊呆网友，“不像是刚学会的，像是没忘干净的”",
        "docid": "7315683364647010855",
        "url": "https://www.ixigua.com/7315683364647010855"
    },
    {
        "title": "橘三岁回家后饭菜落差有点大？其实，这才是南方孩子吃饭时的样子",
        "docid": "7323950652597010994",
        "url": ""
    },
    {
        "title": "“快快快！”武汉一产妇咳嗽一声，20多名医护紧张抢救6小时......",
        "docid": "7325779770762166820",
        "url": ""
    },
    {
        "title": "白萝卜水有什么作用？为啥说萝卜水让你带好娃！",
        "docid": "7321589962267558440",
        "url": ""
    },
    {
        "title": "冬季“食”劲吃，健脾胃，消食助眠，4种做法健康美味​",
        "docid": "7325051620902617609",
        "url": ""
    },
    {
        "title": "震撼曝光：宝宝长牙疼痛背后藏着的秘密！",
        "docid": "7324937962574053928",
        "url": ""
    },
    {
        "title": "孩子感染呼吸道疾病，如何用药？用什么药？一图看懂",
        "docid": "7310393610657546762",
        "url": ""
    },
    {
        "title": "学习就像是打仗一样，想要赢得漂亮，就要常跟孩子说这些“硬话”",
        "docid": "7323570749195682338",
        "url": ""
    },
    {
        "title": "孩子犯错不要急问题二：你的感受如何？",
        "docid": "7325605619430392357",
        "url": ""
    },
    {
        "title": "制香囊、做艾条、磨香粉、做食材…… “生态药园”里 萌娃变身小药童",
        "docid": "7325624590825570867",
        "url": ""
    },
    {
        "title": "空军爸爸走进幼儿园 与孩子们共筑强国梦",
        "docid": "7325604375580508712",
        "url": ""
    },
    {
        "title": "孩子出生时越大越健康？孕期如何控制体重呢？来听听专家怎么说！",
        "docid": "7325352610381283878",
        "url": ""
    },
    {
        "title": "又萌又酷！南京幼儿园萌娃汇报展演太精彩",
        "docid": "7325778240726057481",
        "url": ""
    },
    {
        "title": "松江区35所学校获评“上海市家庭教育工作示范校”荣誉称号",
        "docid": "7325754962145722891",
        "url": ""
    },
    {
        "title": "宝宝在家调皮捣蛋，口香糖黏到头发上怎么办？最后保全了她的头发",
        "docid": "7324599116695208482",
        "url": ""
    },
    {
        "title": "太让人心疼到颤抖！小女孩在幼儿园午睡过后，再也没能醒过来！",
        "docid": "7325053852351365632",
        "url": "https://www.ixigua.com/7325053852351365632"
    },
    {
        "title": "谁说的台上一分钟，台下十年功我一耳光呼死他！😡😡😡",
        "docid": "7308883125373764131",
        "url": "https://www.ixigua.com/7308883125373764131"
    },
    {
        "title": "这个时候连空气都是静止的。生怕他抓不到",
        "docid": "7324976286609670671",
        "url": "https://www.ixigua.com/7324976286609670671"
    },
    {
        "title": "以为是个悲情故事，转头的一瞬间反转了",
        "docid": "7321929321978069538",
        "url": "https://www.ixigua.com/7321929321978069538"
    },
    {
        "title": "“残奶”不排会致癌？宝妈们都担心死了，医生来告诉你真相！",
        "docid": "7322377422945911322",
        "url": ""
    },
    {
        "title": "幼儿园孩子突发高烧惊厥，老师下跪拦车那一幕，看哭多少网友",
        "docid": "7325796832642302464",
        "url": ""
    },
    {
        "title": "滨城区北海新城幼儿园开展疯狂扑克牌主题展示活动",
        "docid": "7325704642103345727",
        "url": ""
    },
    {
        "title": "“幸福花儿”爱心公益行动走进儿童福利院，为孩子们送去“幸福能量包”",
        "docid": "7325718558615896628",
        "url": ""
    },
    {
        "title": "北京一自闭症男子走失21天，警方：最后现身河北固安，正寻找",
        "docid": "7324973126348374569",
        "url": ""
    },
    {
        "title": "香！这所幼儿园邀家长共寻记忆中的“年味”",
        "docid": "7325797649008230952",
        "url": ""
    },
    {
        "title": "江门这所学校门前，有个特别的迎春花市",
        "docid": "7325686702318748187",
        "url": ""
    },
    {
        "title": "山东特殊教育职业学院获批2项山东省职业教育教学改革研究项目",
        "docid": "7325643996762669631",
        "url": ""
    },
    {
        "title": "老人如果懂三七定律，和儿女相处就不难",
        "docid": "7317067439945466368",
        "url": ""
    },
    {
        "title": "日照经开区汉中路幼儿园开展“大寒‘食’节 ‘育’见美好”食育课程",
        "docid": "7325690100703101480",
        "url": ""
    },
    {
        "title": "给山区老人和孩子送去冬日温暖，和清爱心公益行走进湘西龙山",
        "docid": "7325812153087640118",
        "url": ""
    },
    {
        "title": "提高女性生育支持力度，市妇联建议优化社保和税收政策，推进弹性工作制",
        "docid": "7325797378118795802",
        "url": ""
    },
    {
        "title": "南昌孤独症儿童的新春汇演：给“星星的孩子”更多舞台",
        "docid": "7325801874614731283",
        "url": ""
    },
    {
        "title": "感受生命的神奇：受精后1－36周，胎宝是如何成长的？",
        "docid": "7325506656954057227",
        "url": ""
    },
    {
        "title": "快乐不是因为拥有的多，而是计较的少！",
        "docid": "7325646340204216883",
        "url": ""
    },
    {
        "title": "“特殊儿童”的冬季运动会：乐享体育、笑对人生",
        "docid": "7325629741422133786",
        "url": ""
    },
    {
        "title": "昆明爱尔眼科医院助多名角膜盲症患者重拾“光明”",
        "docid": "7325788733499474470",
        "url": ""
    },
    {
        "title": "2023全国残障青少儿艺术双年展颁奖典礼暨汇报演出在京举行",
        "docid": "7325749908374487587",
        "url": ""
    },
    {
        "title": "产后焦虑：如何面对这个隐形挑战",
        "docid": "7325377113065472524",
        "url": ""
    },
    {
        "title": "中国父母和他们的孩子",
        "docid": "7325622947933061644",
        "url": ""
    },
    {
        "title": "拖累孩子体质的六大原因揭秘",
        "docid": "7325640775487078939",
        "url": ""
    },
    {
        "title": "二胎，真的是给老大生个伴儿吗？",
        "docid": "7325808218565837350",
        "url": ""
    },
    {
        "title": "因为民俗：踩生 ，我和老公闹了别扭",
        "docid": "7325633538362147380",
        "url": ""
    },
    {
        "title": "鄄城县凤凰镇中心幼儿园“禁止燃放从我做起”安全教育活动",
        "docid": "7325736623730508339",
        "url": ""
    },
    {
        "title": "出生当日即手术！胎儿十二指肠梗阻 医生“螺蛳壳内做道场”",
        "docid": "7325617254593282599",
        "url": ""
    },
    {
        "title": "上海陈佩秋公益基金会发起这场募捐，关爱云南困境儿童",
        "docid": "7325777176614912575",
        "url": ""
    },
    {
        "title": "河北顺平：30名听障人士重回“有声”世界",
        "docid": "7325756464747266575",
        "url": ""
    },
    {
        "title": "期末考试来了，怎么吃更健脑？可给孩子多吃粗杂粮→",
        "docid": "7325636690243256886",
        "url": ""
    },
    {
        "title": "合肥市长江路幼儿园教育集团参加庐阳区幼儿园“倾听 尊重 指导”研讨活动",
        "docid": "7325730330928153140",
        "url": ""
    },
    {
        "title": "曹晔荣获“2023中国家庭健康守门人”称号",
        "docid": "7325692729709740554",
        "url": ""
    }
]