[
    {
        "title": "周琦社媒致敬易建联：感恩并肩作战",
        "docid": "7317999637301641791",
        "url": ""
    },
    {
        "title": "15年，东北小伙娶1.97米女篮巨人，公婆很喜欢：为儿媳拆掉房门！",
        "docid": "7317108460867371546",
        "url": ""
    },
    {
        "title": "“赤脚跑者”韩丽茹：不喜欢跑步，但热爱马拉松",
        "docid": "7317823029805957647",
        "url": ""
    },
    {
        "title": "CBA第23轮比赛，广东对战浙江广厦，周琦伤停，易建联球衣退役",
        "docid": "7317936314257637903",
        "url": ""
    },
    {
        "title": "湖人大胜黄蜂！詹眉+八村垒轰60分，替补齐虐菜，仅普林斯崩盘",
        "docid": "7317888569782272550",
        "url": ""
    },
    {
        "title": "NBA各支球队的天之骄子，盘点NBA西部15支球队的历史第一人",
        "docid": "7301868154303791657",
        "url": ""
    },
    {
        "title": "世界冠军朱雨玲：26岁患癌淡出乒乓一线，28岁逆袭成为大学副教授",
        "docid": "7296736158954963497",
        "url": ""
    },
    {
        "title": "国王在没进季后赛的16年里，干过的10件笨事！",
        "docid": "7313151902135534120",
        "url": ""
    },
    {
        "title": "上次单场不到10分已是17年前，这一纪录也许永远无法被改写",
        "docid": "7315772848025797129",
        "url": ""
    },
    {
        "title": "叼个哨子胡吹！CBA再现奇葩吹罚，三分投篮遭垫脚看录像却不罚球",
        "docid": "7317530697579659795",
        "url": ""
    },
    {
        "title": "男篮前国手娶女篮第一美女，晒一家三口大合照，夫妻都是联赛冠军",
        "docid": "7294881340770501131",
        "url": ""
    },
    {
        "title": "传奇归来！记者：沙欣1月回归多特任助教，下赛季成为主教练",
        "docid": "7317940005912232487",
        "url": ""
    },
    {
        "title": "张志磊拒绝对阵重量级拳坛新星：他还要打两场练练，现在为时尚早",
        "docid": "7317883348712882700",
        "url": ""
    },
    {
        "title": "前女篮队长苗立杰：33岁退役嫁给1米78军官，36岁生女儿后又复出",
        "docid": "7301231412227965477",
        "url": ""
    },
    {
        "title": "四川队1胜21负很丢人，唯一输给他们的球队更丢人，是谁送温暖？",
        "docid": "7317858007503913487",
        "url": ""
    },
    {
        "title": "平平无奇的78910？这四个人放现在，还真没几支队伍招架得住！",
        "docid": "7292341806233354787",
        "url": ""
    },
    {
        "title": "康复神速、表现优异！丁霞再获波兰媒体称赞，进入联赛最佳阵容！",
        "docid": "7317520709209883145",
        "url": ""
    },
    {
        "title": "退役后穷困潦倒的十大足球明星",
        "docid": "7317679963778531903",
        "url": ""
    },
    {
        "title": "荷甲金靴多水货？01年至10年荷甲金靴大盘点，谁是真水货？",
        "docid": "7301652636678472255",
        "url": ""
    },
    {
        "title": "媒体人徐江：中超若能首发五外援，结局就是国足水平继续下滑！",
        "docid": "7317917081512215076",
        "url": ""
    },
    {
        "title": "打麻将必输的两个暗示，前人总结的普遍规律，了解后可以应对",
        "docid": "7312348504146346546",
        "url": ""
    },
    {
        "title": "乔尔杰维奇时代终结：中国男篮未来何去何从？",
        "docid": "7317872399397962249",
        "url": ""
    },
    {
        "title": "太恐怖！辽三线小城竟是中国乒乓洞天福地！20年狂产12世界名将！",
        "docid": "7317407593067217448",
        "url": ""
    },
    {
        "title": "独行侠队23-24赛季球员定妆照",
        "docid": "7286347958289941011",
        "url": ""
    },
    {
        "title": "28连败创历史！波神35分，塔图姆31+10，绿军加时逆转活塞",
        "docid": "7318007906732261907",
        "url": ""
    },
    {
        "title": "戈登受伤原本悲伤竟然让人想笑？圣诞节被狗咬伤，简直匪夷所思",
        "docid": "7317949869417677350",
        "url": ""
    },
    {
        "title": "媒体人：王博今天下半场的排兵布阵体现了他的高情商 是条汉子",
        "docid": "7318012234301653541",
        "url": ""
    },
    {
        "title": "朱芳雨无心插柳柳成荫，广东队捡到宝！收获一大争冠拼图",
        "docid": "7317564261248156199",
        "url": ""
    },
    {
        "title": "近10年主帅转会收入榜：西蒙尼10.7亿欧居首，瓜帅第三",
        "docid": "7297831369202483747",
        "url": ""
    },
    {
        "title": "乒乓球总决赛！国乒7朵金花-奖金排行榜",
        "docid": "7313548934881002018",
        "url": ""
    },
    {
        "title": "3王牌狂轰67+9！广东双枪独当一面，威姆斯一节封神，新隐患出现",
        "docid": "7317877546677289508",
        "url": ""
    },
    {
        "title": "探长：王博这种“无声的抗议”缺少体育精神 精彩对决戛然而止",
        "docid": "7318012199661011466",
        "url": ""
    },
    {
        "title": "展望2024：欧洲杯、美洲杯、奥运会，期待又一个体育盛夏",
        "docid": "7317957746048123433",
        "url": ""
    },
    {
        "title": "点赞！恒大再送10人赴西班牙留洋，15岁国少混血队长升1队踢中甲",
        "docid": "7317885808130654739",
        "url": ""
    },
    {
        "title": "94梦二之殇，三个野兽前锋都是天才，却巅峰期集体坠落",
        "docid": "7302339707306820148",
        "url": ""
    },
    {
        "title": "（体育·年终稿）新华社体育部评出2023年国际体育十大新闻之五：篮球世界杯德国队全胜夺冠",
        "docid": "7317850837680701988",
        "url": ""
    },
    {
        "title": "马文革定居国外15年，一通电话让他放弃高薪回国，令人敬佩！",
        "docid": "7298698546210341413",
        "url": ""
    },
    {
        "title": "体坛年度人物·丁立人：首位来自中国的国象世界棋王 | 新黄河年终策划",
        "docid": "7317908832632603177",
        "url": ""
    },
    {
        "title": "她会是第二个安洗莹吗？",
        "docid": "7317827374668694052",
        "url": ""
    },
    {
        "title": "无腿女孩钱红艳，4岁失去双腿爬进国家队，如今再一次为国出征!",
        "docid": "7289758083613000226",
        "url": ""
    },
    {
        "title": "NBA球员人气排名：杜兰特第六，库里第四，科比第三，第一无悬念",
        "docid": "7318016002242069033",
        "url": ""
    },
    {
        "title": "🏀培根28分 王哲林24+13 高诗岩16分 上海击败山东",
        "docid": "7318012203973149184",
        "url": ""
    },
    {
        "title": "英超最新积分榜：红军42分重回第1，红魔3-2逆转维拉第6，纽卡第8",
        "docid": "7317927972563206707",
        "url": ""
    },
    {
        "title": "年度中国篮球人物总结：男篮4人失意杨瀚森成曙光 韩旭李月汝获赞",
        "docid": "7317936313980699136",
        "url": ""
    },
    {
        "title": "卧龙凤雏，2021届乐透秀职业生涯胜率排行，状元榜眼断档领先",
        "docid": "7313528096526107172",
        "url": ""
    },
    {
        "title": "\"灾难性轮败！年龄之殇让北京主帅遭遇重创，输球与年龄有关系？",
        "docid": "7318040636693905972",
        "url": ""
    },
    {
        "title": "新年大战：篮板被爆，防守被崩，北京北汽被彻底打花",
        "docid": "7318016604611101224",
        "url": ""
    },
    {
        "title": "梦百合出新世冠概率大幅提升，党毅飞、李轩豪进四强",
        "docid": "7318002637642121737",
        "url": ""
    },
    {
        "title": "CBA见证历史：争冠队18分逆风翻盘，12连胜谁能终结？",
        "docid": "7318055794468536884",
        "url": ""
    },
    {
        "title": "山东省政府通报表扬杭州第19届亚运会有功个人和集体，都有谁？",
        "docid": "7317896875049419303",
        "url": ""
    },
    {
        "title": "年终稿｜2023年中国体育健儿获165个世界冠军、创20项世界纪录",
        "docid": "7317937397197931018",
        "url": ""
    },
    {
        "title": "周琦替身亮相，不是第四外援，朱芳雨火眼金睛！",
        "docid": "7317564199490732556",
        "url": ""
    },
    {
        "title": "CBA排名形成4个档次广东辽宁第一档，上海等7队第二档，3队垫底",
        "docid": "7317930181635965480",
        "url": ""
    },
    {
        "title": "体坛震撼：男乒世界冠军逆境中崛起，决胜局却遭惨败",
        "docid": "7317999272698348032",
        "url": ""
    },
    {
        "title": "22场外战全胜选手为什么不被国乒教练组重用？问题出在哪？",
        "docid": "7317828359302447651",
        "url": ""
    },
    {
        "title": "官宣：巴特勒因小腿伤势缺席今日战勇士",
        "docid": "7317790233108595237",
        "url": ""
    },
    {
        "title": "澳门斯诺克大师邀请赛马克·威廉姆斯夺冠",
        "docid": "7318048980209173033",
        "url": ""
    },
    {
        "title": "傅家俊2比6利索夫斯基",
        "docid": "7317780069416436264",
        "url": ""
    },
    {
        "title": "乌戈调教下的转型奇迹：前毒瘤球员转二号位，全面激活辽宁后卫线",
        "docid": "7317477691194786330",
        "url": ""
    },
    {
        "title": "CBA实力分档！五大豪强成夺冠热门，三支球队基本无缘季后赛！",
        "docid": "7317878300863414795",
        "url": ""
    },
    {
        "title": "（体育·年终稿）新华社体育部评出2023年国际体育十大新闻之十：维斯塔潘第三次赢得F1年度车手总冠军",
        "docid": "7317857393705075212",
        "url": ""
    },
    {
        "title": "女排名将马蕴雯，退役后嫁美国教练，被宠成小公主，如今怎样？",
        "docid": "7290466924683706914",
        "url": ""
    },
    {
        "title": "4-22-0英超疯狂一夜：阿森纳主场翻车，热刺惨败，曼联跌第7",
        "docid": "7317954718767366656",
        "url": ""
    },
    {
        "title": "（体育·年终稿）新华社体育部评出2023年国际体育十大新闻之八：2028年奥运会新增五个大项",
        "docid": "7317854222563705380",
        "url": ""
    },
    {
        "title": "王哲林领航：上海队在激战中力克山东，展现球队韧性！",
        "docid": "7318048748947489331",
        "url": ""
    },
    {
        "title": "从黑又硬变成全能战士，跟瓜迪奥拉八字不合，时也命也？",
        "docid": "7317884866815951372",
        "url": ""
    },
    {
        "title": "王治郅成就非凡：首位实现CBA800盖帽的篮球巨星",
        "docid": "7317634176923402761",
        "url": ""
    },
    {
        "title": "初中辍学走出大山，当月嫂、干保洁......嫁到水乡学划桨板，拿奖牌，成老板！逆袭人生她全靠“划水”",
        "docid": "7303345071921889792",
        "url": ""
    },
    {
        "title": "时代的终结：为什么F1在2010年禁止加油",
        "docid": "7317452127360631305",
        "url": ""
    },
    {
        "title": "CBA不养闲人！杨学增下狠手，山西裁掉王汝恒，山东四川或接手",
        "docid": "7317976217389892105",
        "url": ""
    },
    {
        "title": "女篮名将郑海霞：坐拥大校军衔，嫁给1米9街道临时工，现状如何？",
        "docid": "7306323035831845391",
        "url": ""
    },
    {
        "title": "斯诺克147分有多少奖金，你知道吗？",
        "docid": "7305411142564774411",
        "url": ""
    },
    {
        "title": "CBA惊天逆转秀！新疆队从绝望到辉煌，18分落后逆袭胜22分！",
        "docid": "7318028253569171979",
        "url": ""
    },
    {
        "title": "李梦荣获2023最佳女篮运动员，中国篮球胜与败，比尔伤愈引发期待",
        "docid": "7317863988526744083",
        "url": ""
    },
    {
        "title": "女排教父陈忠和发妻去世后，二婚迎娶女徒弟，李东红：我心甘情愿",
        "docid": "7290491025863361036",
        "url": ""
    },
    {
        "title": "“网球天后”李娜：嫁大2岁姜山，34岁生2胎，结婚16年不下厨",
        "docid": "7288665503294800399",
        "url": ""
    },
    {
        "title": "火箭表现不佳要交易球员，教练及时调整使状态回暖 虽败但未来可期",
        "docid": "7317931708966502912",
        "url": ""
    },
    {
        "title": "打麻将记住“二三三法则”，再也不怕搓麻不胡牌。",
        "docid": "7311140742377161251",
        "url": ""
    },
    {
        "title": "青春像沙漠一样绚烂！ 从草根到巅峰！易建联的励志人生！青春再见",
        "docid": "7318023346443305499",
        "url": ""
    },
    {
        "title": "盘点那些被取消掉的奥运项目，有放风筝、热气球，甚至有手枪决斗",
        "docid": "7287337011155845684",
        "url": ""
    },
    {
        "title": "中国奥运史上含金量最高的十枚金牌，看看这是不是你心中的名次",
        "docid": "7317924373715894821",
        "url": ""
    },
    {
        "title": "莫名其妙又被冷冻在了板凳席上，勇士锋线新星的境遇真是太糟了？",
        "docid": "7316803451449705000",
        "url": ""
    },
    {
        "title": "杨瀚森空中飞人秀！青岛横扫广州，连胜三场不停歇！",
        "docid": "7318055159291724329",
        "url": ""
    },
    {
        "title": "世界足坛有三个球队，参加世界杯次数都超过10次，但成绩一直平庸",
        "docid": "7288258689142751802",
        "url": ""
    },
    {
        "title": "元旦春节期间，武汉这些地方免费！",
        "docid": "7317453037629686335",
        "url": ""
    },
    {
        "title": "“瓦尔加斯离天津，400万打水漂？土耳其的批评是什么意思？”",
        "docid": "7317884754152555048",
        "url": ""
    },
    {
        "title": "麻将永恒经典法则：赢在前十局，牢记在心你将经常取胜！",
        "docid": "7295223225531843122",
        "url": ""
    },
    {
        "title": "​刚刚结束的这项亚洲比赛中国队夺得4金4银，其中2金3银来自杭州这所高中！",
        "docid": "7317903834134348329",
        "url": ""
    },
    {
        "title": "说完直接走了！王博赛后：比赛我不评了 祝阿联退役生活越来越好",
        "docid": "7318012168618672667",
        "url": ""
    },
    {
        "title": "0-2！国足爆大冷，热身赛国足不敌阿曼队！下一场对阵中国香港",
        "docid": "7318060441626788361",
        "url": ""
    },
    {
        "title": "从17岁退役球衣到20岁身价1.8亿，大英帝星变金球奖先生需要多久",
        "docid": "7317928660479230498",
        "url": ""
    },
    {
        "title": "封闭热身赛国足0-2阿曼，下半场阿拉维、加萨尼先后破门",
        "docid": "7318068410582761996",
        "url": ""
    },
    {
        "title": "关键表现获闵指导大赞！刘晓宇:需要这种胜利去积攒信心 ！",
        "docid": "7317514935230398986",
        "url": ""
    },
    {
        "title": "媒体的双标🤔哈姆达拉沙特联19年57球无人关注，C罗年度射手王被大肆报道",
        "docid": "7317958298329104934",
        "url": ""
    },
    {
        "title": "葡媒晒IFFHS年度最佳球员排名，C罗评论笑哭+捂眼睛表情",
        "docid": "7318011910073369100",
        "url": ""
    },
    {
        "title": "🏀余嘉豪24+13 吴前16+5 翟晓川11+12 浙江37分大胜北京",
        "docid": "7318008022902063643",
        "url": ""
    },
    {
        "title": "球坛震撼狂轰51分爆砍50分NBA质疑他，他却力压约基奇登顶联盟第1",
        "docid": "7318023969180418610",
        "url": ""
    },
    {
        "title": "韩国队主帅克林斯曼前后四次提及孙准浩 并为他发声",
        "docid": "7317940057862734370",
        "url": ""
    },
    {
        "title": "重回广东，赵睿4字回应，郭艾伦抢戏易建联，18+17悍将驰援广东",
        "docid": "7317551625013723659",
        "url": ""
    },
    {
        "title": "年仅20岁！贝林厄姆的惊人实力震撼世界足坛！",
        "docid": "7286294406762791458",
        "url": ""
    },
    {
        "title": "CBA第22轮最佳球员！张镇麟砍30分，广东小将破纪录，林葳大爆发",
        "docid": "7317852250246775311",
        "url": ""
    },
    {
        "title": "姚明祝福易建联",
        "docid": "7318027326800314919",
        "url": ""
    },
    {
        "title": "浙江队狂飙风暴：北京队不敌余嘉豪，耻辱的37分大逆转！",
        "docid": "7318050902022652457",
        "url": ""
    },
    {
        "title": "重情！郭士强广州塔设宴款待辽篮全队，派广州队大巴接送昔日弟子",
        "docid": "7317466231890788876",
        "url": ""
    },
    {
        "title": "斯诺克2场焦点战！丁俊晖终结者冲4连胜，傅家俊剑指2大纪录！",
        "docid": "7317514825679061514",
        "url": ""
    },
    {
        "title": "啊这？面对全替补广厦 广东第四节2分钟连续5次犯规拉满",
        "docid": "7318007060749206070",
        "url": ""
    },
    {
        "title": "别再模仿詹姆斯、杜兰特，该找条新路了！",
        "docid": "7317996104921006631",
        "url": ""
    },
    {
        "title": "NBA西部最新排名太阳反超勇士，火箭湖人战绩持平，独行侠下跌",
        "docid": "7317941731562029568",
        "url": ""
    },
    {
        "title": "他曾是国足头号射手，与空姐妻子离婚，独自抚养儿子后重返球坛",
        "docid": "7310071883641209344",
        "url": ""
    },
    {
        "title": "广东队调整外援：解约+签新援？新疆队全面压制考验广东队！",
        "docid": "7317881061328060969",
        "url": ""
    },
    {
        "title": "能认识他这位球员的，应该是很资深的篮球迷",
        "docid": "7314659828071825959",
        "url": ""
    },
    {
        "title": "奇怪为什么要让莫兰德运球过半场？乌戈：郭士强把我逼上梁山",
        "docid": "7317523992028480026",
        "url": ""
    },
    {
        "title": "热身赛-国足下半场连丢2球，0-2负于阿曼！下一场过招中国香港",
        "docid": "7318065333733065242",
        "url": ""
    },
    {
        "title": "NBA绰号是动物的球星有多强？这5人若一队 三连冠都不难",
        "docid": "7318061306941047315",
        "url": ""
    },
    {
        "title": "辽宁97-85福建：惊现六大不可思议 印证三点不争事实 两人获最佳",
        "docid": "7318060968569995776",
        "url": ""
    },
    {
        "title": "抗议裁判！广厦五上五下致敬杜锋，王博全华班不懂人情世故",
        "docid": "7318054170987872809",
        "url": ""
    },
    {
        "title": "辽宁97-85逆转福建 球员评价：6人优秀，2人及格，2人崩盘",
        "docid": "7318048632178147850",
        "url": ""
    },
    {
        "title": "NBA30支球队logo历史演变，奇才更换14次，一球队至今没有更换",
        "docid": "7294885333458698788",
        "url": ""
    },
    {
        "title": "吴大叔打麻将30年，总结5句话传授给儿子，打麻将把把胡关键",
        "docid": "7306853759894913548",
        "url": ""
    },
    {
        "title": "短短30年，黄河鲤鱼就从河南人餐桌上的家常菜，到基本绝迹了",
        "docid": "7314649827269755427",
        "url": ""
    },
    {
        "title": "太吓人了！杀人后继续打比赛！NBA中锋完蛋了",
        "docid": "7317895689147695679",
        "url": ""
    },
    {
        "title": "陈冠希越来越本山化了！一家三口看NBA，妻女状态佳，他皱纹抢镜",
        "docid": "7317552344689312265",
        "url": ""
    },
    {
        "title": "“就算我挥金如土，钱也用不完”，盘点NBA最富有5大球星",
        "docid": "7284904942791279159",
        "url": ""
    },
    {
        "title": "一场竟然30次助攻！NBA单场助攻次数排行榜：第一让人意想不到！",
        "docid": "7316530366796366370",
        "url": ""
    },
    {
        "title": "\"百米飞人\"博尔特：娶嫩模生仨孩，腹肌变啤酒肚，每年能领400万",
        "docid": "7311164055727948351",
        "url": ""
    },
    {
        "title": "泰伦卢真的是一位大神，不服不行！",
        "docid": "7298244003580445184",
        "url": ""
    },
    {
        "title": "为何说不要羡慕詹姆斯和杜兰特亿万资产？我用6张照片给你答案",
        "docid": "7292997467971813929",
        "url": ""
    },
    {
        "title": "“我不打球，只能回去继承亿万家产”，盘点NBA5大富二代",
        "docid": "7313018140449899034",
        "url": ""
    },
    {
        "title": "美国人坦言：中国不可怕，可怕的是凌晨三点钟中国街道上还全是人",
        "docid": "7317838861496058403",
        "url": ""
    },
    {
        "title": "我是狼，是匹头狼，不是你们口中的水货状元！",
        "docid": "7291973977101484580",
        "url": ""
    },
    {
        "title": "不可思议的象棋比赛作弊，什么叫肛珠作弊？",
        "docid": "7316805220271489562",
        "url": ""
    },
    {
        "title": "在大咖眼中，丁俊晖没有世锦赛冠军，就没有人选他",
        "docid": "7306810598162285090",
        "url": ""
    },
    {
        "title": "你没看错，NBA这5人真可以把球衣穿成紧身衣 锡安手臂像充气",
        "docid": "7287810493379543587",
        "url": ""
    },
    {
        "title": "看了杜兰特臂展，艾弗森手掌，你就明白 为何NBA几乎被黑人统治",
        "docid": "7312666227724829234",
        "url": ""
    },
    {
        "title": "如果还有普通人幻想能打NBA，给他看这7张照片 看完就梦碎了",
        "docid": "7299032572762276402",
        "url": ""
    },
    {
        "title": "“魔皇神佛鲨”并非战无不胜，这5人要是组队 绝对能与之一战",
        "docid": "7302636791377560083",
        "url": ""
    },
    {
        "title": "11届选秀谁挣得多？汤普森2.7亿，欧文3.5亿，伦纳德太强了",
        "docid": "7317241102325957130",
        "url": ""
    },
    {
        "title": "看见这张脸你就想揍他一顿，可你不得不承认他是一个天才！",
        "docid": "7300218277605671461",
        "url": ""
    },
    {
        "title": "体操女神张豆豆：凭挺胸照走红，拒绝进娱乐圈，与孙杨结成夫妻",
        "docid": "7314948469407220258",
        "url": ""
    },
    {
        "title": "戈登悬停空接炸扣 但先摸了篮筐！这球是干扰球吗？",
        "docid": "7293695888600711732",
        "url": ""
    },
    {
        "title": "同样是推轮胎，对比詹姆斯 易建联 约基奇 周琦 就知差距多大",
        "docid": "7288149267175440948",
        "url": ""
    },
    {
        "title": "多大仇？赵睿摊牌广东，断杜锋朱芳雨念头？打感情牌没用回不去了",
        "docid": "7317828596507410959",
        "url": ""
    },
    {
        "title": "“花滑女神”李子君：和羽生结弦、樊振东传绯闻，最后闪嫁富二代",
        "docid": "7314859501738476032",
        "url": ""
    },
    {
        "title": "重排NBA新世纪后5大球星，杜兰特落选 库里垫底 榜首没悬念",
        "docid": "7310810779358773801",
        "url": ""
    },
    {
        "title": "NBA球星心中的女神，揭秘球员们的梦中情人",
        "docid": "7317187116973392384",
        "url": ""
    },
    {
        "title": "这射术太夸张！凯恩搓射死角瞬间：帕夫洛维奇抱头，4人高举双手",
        "docid": "7315439245773701672",
        "url": ""
    },
    {
        "title": "马拉松“兔子”没工资，为什么还遭“哄抢”？",
        "docid": "7293132689304486426",
        "url": ""
    },
    {
        "title": "江湖传说的钱得了怕什么事？高富帅的帕森斯，伤病大合同的代表",
        "docid": "7317520449624932904",
        "url": ""
    },
    {
        "title": "辽篮为什么能称霸cba并不是因为有郭艾伦和赵继伟而是有韩德君！",
        "docid": "7285306452384825891",
        "url": ""
    },
    {
        "title": "一人在场输17分！一人在场赢15分！杜锋该放弃了，朱芳雨别等了！",
        "docid": "7318076357043487244",
        "url": ""
    },
    {
        "title": "盘点拜仁队史最贵签约TOP5|凯恩第1，负心汉第2，金玟哉榜上有名",
        "docid": "7303798167449944611",
        "url": ""
    },
    {
        "title": "足球解说员贺伟：感恩在央视遭冷遇的5年，让我变成了“诗人”",
        "docid": "7315658957719585330",
        "url": ""
    },
    {
        "title": "43岁于嘉容貌变苍老，跑步被疑是“元凶”？网友热议不断！",
        "docid": "7316448795876049442",
        "url": ""
    },
    {
        "title": "拿30000分需要多久？乔丹960场 科比1180场 詹姆斯呢？",
        "docid": "7311531046820954633",
        "url": ""
    },
    {
        "title": "38岁以上单场拿40+5+5有多难？NBA近40年仅4人做到，1人单场51分",
        "docid": "7316552608104055331",
        "url": ""
    },
    {
        "title": "旧王已死，新王当立！这10大25岁以下球星正在挑战詹姆斯的王座",
        "docid": "7294639905744126464",
        "url": ""
    },
    {
        "title": "09届谁赚到最多？哈登3.3亿，德罗赞2.5亿，看到库里我服了",
        "docid": "7317592886009528882",
        "url": ""
    },
    {
        "title": "郭士强妻子现身观战辽篮，女儿显眼像老叔，赵继伟+丛明晨被赞",
        "docid": "7317497335733322281",
        "url": ""
    },
    {
        "title": "退役巡演有多难？翻遍现役NBA 仅2人能实现 杜兰特落选",
        "docid": "7303435043018539583",
        "url": ""
    },
    {
        "title": "看了NBA球星衰老速度，我才相信 他们是在透支健康赚钱",
        "docid": "7298187116524716581",
        "url": ""
    },
    {
        "title": "赵睿祸从口出！广东队球迷怒批其反骨仔，宏远队工作人员不留情面",
        "docid": "7317828513384383030",
        "url": ""
    },
    {
        "title": "18分已成奢望！维金斯11中4&三分3中0 得到11分2篮板4助攻",
        "docid": "7317884906330194484",
        "url": ""
    },
    {
        "title": "奥卡福：究竟得罪了谁？出道即巅峰却被球队雪藏，最后被时代淘汰",
        "docid": "7317276387407774208",
        "url": ""
    },
    {
        "title": "詹姆斯只要选秀就是100%状元？你错了，遇到这3人他也得靠边站",
        "docid": "7307827011337208335",
        "url": ""
    },
    {
        "title": "恭喜李梦！祝贺中国女篮！FIBA官方公布：荣获亚洲最佳女篮运动员",
        "docid": "7317929052869575207",
        "url": ""
    },
    {
        "title": "球星卡（NBA）：除中国外，打过NBA正赛的亚洲球员，欢迎补充！",
        "docid": "7300939945152266763",
        "url": ""
    },
    {
        "title": "高效！八村塁28分钟12中7贡献17分4板 正负值+34冠绝全场",
        "docid": "7317889528604787236",
        "url": ""
    },
    {
        "title": "听起来挺惨！39岁高中文凭带仨娃 只能干体力活维持生计😂",
        "docid": "7310111088035693075",
        "url": ""
    },
    {
        "title": "志田千阳，大堀彩，黄雅琼，谁才是你心目中的羽坛女神？",
        "docid": "7293023039023858213",
        "url": ""
    },
    {
        "title": "孙颖莎落选10佳起争论！全年17冠，却不及王楚钦4冠，被批不公平",
        "docid": "7317906723547955723",
        "url": ""
    },
    {
        "title": "从焦作走出的男篮国手：与前妻因财产纠纷闹上法庭，二婚迎娶博士",
        "docid": "7316025584239493672",
        "url": ""
    },
    {
        "title": "不愧是我看上的！滕哈赫赛后拥抱霍伊伦，将后者的头揽进胸口",
        "docid": "7317142601566568998",
        "url": ""
    },
    {
        "title": "55岁乒乓奥运冠军乔红近况：邓亚萍队友，50岁结婚，已老到认不出",
        "docid": "7316439627609621030",
        "url": ""
    },
    {
        "title": "乒乓球旋转球的秘密：如何看出对方是上旋还是下旋",
        "docid": "7292407432142242314",
        "url": ""
    },
    {
        "title": "多诺万：鲍尔膝伤疼痛已消除 明年1月可以开始跑步",
        "docid": "7318193939389956646",
        "url": ""
    },
    {
        "title": "大反转!阿森纳开场心理防线崩塌，即使不断调整，结果也板上钉钉",
        "docid": "7317931612145582592",
        "url": ""
    },
    {
        "title": "“只要我愿意，48分钟可以不休息”，盘点NBA5大体力怪",
        "docid": "7296017009073029686",
        "url": ""
    },
    {
        "title": "太有才了！东契奇嘲笑布克😂 圣诞节版本🎅",
        "docid": "7316819271835992602",
        "url": ""
    },
    {
        "title": "她是乌克兰艺体冠军，为爱放弃国籍嫁到中国，37岁生二胎仍似少女",
        "docid": "7295660621230850610",
        "url": ""
    },
    {
        "title": "985理工男分析鸽武缘：打架他真不行！",
        "docid": "7311299548205908491",
        "url": ""
    },
    {
        "title": "3年前以为这5人会统治NBA，如今回头看 全都看走眼了",
        "docid": "7303386479332606518",
        "url": ""
    },
    {
        "title": "为何说肌肉男跟奥尼尔合影是自取其辱，我看了这10张照片才明白",
        "docid": "7294883030341255721",
        "url": ""
    },
    {
        "title": "如果不开天眼，“魔皇神佛鲨”一起选秀 顺位该怎排？詹皇垫底",
        "docid": "7308559075049259555",
        "url": ""
    },
    {
        "title": "🔥你认同吗？美媒发布过去20年每年最强双人组 ​​​",
        "docid": "7308555555310699042",
        "url": ""
    },
    {
        "title": "宏远大家庭合影！易建联C位 吴迪抢眼 陈海涛三儿子现身 李春江大笑",
        "docid": "7318175165177676338",
        "url": ""
    },
    {
        "title": "问界M9价格柯洁九边称贵了，不考虑普通人，卢克文不同意吵起来了",
        "docid": "7317846076659089932",
        "url": ""
    },
    {
        "title": "王星昊，沮丧中8强迎战韩曾第一人，晋级依旧举步维艰！",
        "docid": "7317781894836355603",
        "url": ""
    },
    {
        "title": "最伤害球队的中锋！连罚球也不会罚，关键时刻4罚不中，葬送胜利",
        "docid": "7316822998471115264",
        "url": ""
    },
    {
        "title": "“亚洲蝶后”周雅菲：嫁给CBA二婚男，如今儿女双全堪称人生赢家",
        "docid": "7317594991038677555",
        "url": ""
    },
    {
        "title": "NBA2023年十大转会，快船成大赢家太阳连老本都赔了",
        "docid": "7317533849364349459",
        "url": ""
    },
    {
        "title": "男篮名宿李楠：妻子43岁为他生娃，儿子征战CBA，49岁赋闲在家",
        "docid": "7312758868960920103",
        "url": ""
    },
    {
        "title": "公然抗议！CBA广厦老板不满裁判，提前16分钟放弃比赛，将遭处罚",
        "docid": "7318188267717919259",
        "url": ""
    },
    {
        "title": "都是雷霆新星，切特和当年杜兰特谁更强？一数据对比很残酷",
        "docid": "7318185072199713307",
        "url": ""
    },
    {
        "title": "👀锅从天上来？哈登被乔治的背传吓一跳 冷静后怒射三分",
        "docid": "7317143913012314658",
        "url": ""
    },
    {
        "title": "“你这样打，40岁就得坐轮椅”，盘点NBA打法最伤身体5大球星",
        "docid": "7308956620058182179",
        "url": ""
    },
    {
        "title": "为何常规赛是恩比德的强项，而到了季后赛就变成了拉垮？",
        "docid": "7317663818435379751",
        "url": ""
    },
    {
        "title": "美媒列出最伟大的十个球衣号码中，最强的五人阵容，哪组最弱",
        "docid": "7288164353243693568",
        "url": ""
    },
    {
        "title": "体操皇后刘璇：我的孩子九岁前不准吃糖，四岁前不准吃盐",
        "docid": "7307827435779834409",
        "url": ""
    },
    {
        "title": "真尽力了！过去五场康宁汉姆场均33分7.4助三分命中率50%",
        "docid": "7318125066380771877",
        "url": ""
    },
    {
        "title": "一节定乾坤！马刺首节打出38-14冲击波 并将优势保持到最后",
        "docid": "7317884908398346787",
        "url": ""
    },
    {
        "title": "央视前“名嘴”段暄向体育总局原高官行贿逾950万元",
        "docid": "7318220054531703296",
        "url": ""
    },
    {
        "title": "“准备一卡车的钱来签我”，地表最强175的跌宕人生",
        "docid": "7307098647525638691",
        "url": ""
    },
    {
        "title": "😲有点意外！本赛季詹姆斯三分命中率41.3% 库里41%",
        "docid": "7318122767612690980",
        "url": ""
    },
    {
        "title": "0-2！中国男足又输了，锋线群集体哑火，亚洲杯前景堪忧！",
        "docid": "7318065006145208872",
        "url": ""
    },
    {
        "title": "叶问：前半生富家少爷，后半生瘾君子，一生却极少动武的一代宗师",
        "docid": "7316804904603959820",
        "url": ""
    },
    {
        "title": "广东106-95逆转广厦，来看赛后杜锋与王博说了什么？",
        "docid": "7318079587525591590",
        "url": ""
    },
    {
        "title": "😮1米8也能扣！沃特斯抢断快下 面对空篮单手劈扣",
        "docid": "7318008588319031823",
        "url": ""
    },
    {
        "title": "无力回天！范弗里特16投9中砍下33分10助 三分12投8中！",
        "docid": "7318224903525761599",
        "url": ""
    },
    {
        "title": "“我除了脑子不够用，其它天赋都是顶配”，说的就是NBA这5人",
        "docid": "7310789708345344566",
        "url": ""
    },
    {
        "title": "CBA警告处分！四川队MC讽刺张镇麟后续：下次主场仍会放这首歌",
        "docid": "7317930025699803700",
        "url": ""
    },
    {
        "title": "本赛季打没身价的五大球星，60分先生难堪大任，废柴自暴自弃",
        "docid": "7305582602092708363",
        "url": ""
    },
    {
        "title": "本赛季联盟球队分档：4队已经开始摆烂，5队成总冠军有力争夺者！",
        "docid": "7318175589775589928",
        "url": ""
    },
    {
        "title": "奥尼尔97年加盟湖人，到2000年夺冠，中间这3年季后赛都输给了谁",
        "docid": "7309835652131275279",
        "url": ""
    },
    {
        "title": "四大巨星加盟沙特球队的前后薪水对比",
        "docid": "7293795710045192713",
        "url": ""
    },
    {
        "title": "他是民国第一功夫高手，徒手制服四条藏獒，一招放翻霍元甲",
        "docid": "7308995542276342311",
        "url": ""
    },
    {
        "title": "蒂格：我曾和乔治4个月不说话 是小黑豆让我们重新开始沟通",
        "docid": "7318018369704215077",
        "url": ""
    },
    {
        "title": "祖巴茨15+20哈登16分13助攻，快船胜灰熊送莫兰特首败",
        "docid": "7318260289311523338",
        "url": ""
    },
    {
        "title": "太秀了！易建联退役夜重返赛场 单打徐杰转身暴扣，点燃球迷热情",
        "docid": "7318219894279914019",
        "url": ""
    },
    {
        "title": "不比不知道，一比吓一跳！26张对比图，感受一下差距",
        "docid": "7311582822547292706",
        "url": ""
    },
    {
        "title": "NBA历史上替补得分最多的5位球员，路威第一，克6第二",
        "docid": "7312060207818179124",
        "url": ""
    },
    {
        "title": "😭扎心！76人本赛季已三胜活塞 甚至已高于活塞的总胜场数",
        "docid": "7318142730553852425",
        "url": ""
    },
    {
        "title": "中国百年一遇的运动员排行榜前十位",
        "docid": "7316742588101935653",
        "url": ""
    },
    {
        "title": "篮球名将朱芳雨：一婚娶体操女神生两个儿子，二婚娶富家千金",
        "docid": "7300083264076235276",
        "url": ""
    },
    {
        "title": "不满判罚？广厦连续3次被吹后王博选择5上5下 直接全华班上阵",
        "docid": "7318003326397530660",
        "url": ""
    },
    {
        "title": "恭喜！又赢了！9胜0负！最强之人已在阵中！",
        "docid": "7317754366234984971",
        "url": ""
    },
    {
        "title": "虽败犹荣！17中15轰30+12刷新得分纪录，洛佩斯的心态都被打崩了",
        "docid": "7318212726848307764",
        "url": ""
    },
    {
        "title": "大加索尔一家近照：退役4年儿女双全，已满头白发，妻子太漂亮",
        "docid": "7318208026178175525",
        "url": ""
    },
    {
        "title": "😤这就是顶级防守吗？哈登连续切球盖帽！",
        "docid": "7318231332625416758",
        "url": ""
    },
    {
        "title": "22张“活久见”的对比图，不比不知道，一比吓一跳！",
        "docid": "7317874833977688611",
        "url": ""
    },
    {
        "title": "钓鱼江湖座次排名",
        "docid": "7294170473532211766",
        "url": ""
    },
    {
        "title": "前男篮国手王治郅：与共患难前妻离婚，再婚娶广西卫视美女主持人",
        "docid": "7307926763760353830",
        "url": ""
    },
    {
        "title": "冲突！孙铭徽不满被张皓嘉放倒推了一把 后者再度推倒孙铭徽",
        "docid": "7317999531981832739",
        "url": ""
    },
    {
        "title": "库里：我单赛季最高2375分，乔丹：我3041分，张伯伦：麻烦让一让",
        "docid": "7310561009319461391",
        "url": ""
    },
    {
        "title": "郭晶晶真会生！三个孩子都继承了奶奶的美貌！",
        "docid": "7310613926457721394",
        "url": ""
    },
    {
        "title": "必须承认，NBA现役这5个纪录 哪怕再过30年也破不了",
        "docid": "7302643816111047207",
        "url": ""
    },
    {
        "title": "2-0！英冠领头羊又杀疯了：甩开第三多达11分，重返英超势不可挡",
        "docid": "7318146701783613964",
        "url": ""
    },
    {
        "title": "2014年800斤相扑之王娶娇妻，婚后1年逝世，妻继承巨额遗产未再婚",
        "docid": "7314228288724075071",
        "url": ""
    },
    {
        "title": "从“乒乓王子”到“跌落神坛”，张继科终究活成了一个“笑话”",
        "docid": "7285349236710162978",
        "url": ""
    },
    {
        "title": "曾经的国青三巨头，两个已成CBA边缘人，最不被看好的反而成材",
        "docid": "7316749205207728675",
        "url": ""
    },
    {
        "title": "四川小伙赵睿在俄军中究竟经历了什么？",
        "docid": "7315396478594335259",
        "url": ""
    },
    {
        "title": "比尔回归，太阳四将20+分，这是王者归来还是昙花一现？",
        "docid": "7318259061664006692",
        "url": ""
    },
    {
        "title": "真能熬！易建联都退役了，可选秀顺位在他面前的，还有三人打主力",
        "docid": "7318229283250651688",
        "url": ""
    },
    {
        "title": "率队取胜！马克西26中13&罚球15中14爆砍42分4板4助",
        "docid": "7318225411438281256",
        "url": ""
    },
    {
        "title": "玩笑话？保利尼奥：在中国给我找个俱乐部，我就不回去了",
        "docid": "7318037644540625420",
        "url": ""
    },
    {
        "title": "后卫拿DPOY有多难？NBA至今仅6人做到，84钻石一代2人上榜",
        "docid": "7315003479934730752",
        "url": ""
    },
    {
        "title": "詹姆斯icon的10个绰号，哪个更好听？",
        "docid": "7318235978287825460",
        "url": ""
    },
    {
        "title": "王仕鹏致敬易建联：20年的缘份 你的荣耀时刻 感谢一路有你",
        "docid": "7318183098187842058",
        "url": ""
    },
    {
        "title": "完美表现！哈登再中三分再次打停灰熊 半节时间得分已上双",
        "docid": "7318232624542138907",
        "url": ""
    },
    {
        "title": "“泥鳅钓鱼”为何会被禁止？它的危害有多大？真能钓空一个水库？",
        "docid": "7296054128315335207",
        "url": ""
    },
    {
        "title": "男篮马健近况：54岁非常强壮，妻子是日本美女，儿女双全很幸福",
        "docid": "7312084111840100927",
        "url": ""
    },
    {
        "title": "还能这么吹😲詹姆斯总得分+总助攻已超过60000次 历史唯一",
        "docid": "7318175815060193792",
        "url": ""
    },
    {
        "title": "细数NBA历史上得分最多的九对父子兵！",
        "docid": "7308746614364209683",
        "url": ""
    },
    {
        "title": "纪录就是拿来打破的，但是NBA这5个纪录只能接近 破不了",
        "docid": "7287035760124199464",
        "url": ""
    },
    {
        "title": "NBA球员至少10次单场50+有多难？现役仅5人做到，杜兰特第5",
        "docid": "7291505712793272891",
        "url": ""
    },
    {
        "title": "足球明星汽车大比拼，C罗19辆总价1.78亿，抵不过梅西一辆车",
        "docid": "7285181318495814181",
        "url": ""
    },
    {
        "title": "老里谈锡伯杜：我把球队防守完全交给他 训练时我就离开球馆",
        "docid": "7318014204236136998",
        "url": ""
    },
    {
        "title": "生不逢时！基里连科：假如他生在小球时代，成就将无可限量",
        "docid": "7286118922791780876",
        "url": ""
    },
    {
        "title": "哈登作为历史第一双能卫 09年选秀仅排第3，那前2都是谁？",
        "docid": "7302689997604274729",
        "url": ""
    },
    {
        "title": "NBA历史十大雷人数据，只有你想不到没有他们做不到",
        "docid": "7290477265564156416",
        "url": ""
    },
    {
        "title": "你钓鱼的时候遇到过什么离谱事？网友：一女的披头散发朝我跑过来",
        "docid": "7317466511852618274",
        "url": ""
    },
    {
        "title": "杜锋：下半场我们找回了状态 如果今晚输球将会是一种遗憾",
        "docid": "7318013688219517492",
        "url": ""
    },
    {
        "title": "上海男篮逆转山东！高诗岩16分，王哲林24+13刘铮16+8+7！",
        "docid": "7318206964478083647",
        "url": ""
    },
    {
        "title": "曾是女排队长，家境殷实长相明艳，还在奥运会夺冠，如今却被骂惨",
        "docid": "7294257708222661174",
        "url": ""
    },
    {
        "title": "从10秒61到9秒83，全国男子100米纪录变迁了14次，用了43年",
        "docid": "7290163637527200308",
        "url": ""
    },
    {
        "title": "CBA资讯速递，逍遥王愿意出山，杨学增裁掉老将，李春江返回广东",
        "docid": "7318230085327372815",
        "url": ""
    },
    {
        "title": "蔡斯·巴丁格生涯简历",
        "docid": "7279447679657116212",
        "url": ""
    },
    {
        "title": "中国男篮94黄金一代：巩晓彬娶空姐，吴乃群二婚，胡卫东走上仕途",
        "docid": "7317948332209914402",
        "url": ""
    },
    {
        "title": "前女排最美队长近况：家财万贯富2代，嫁郎平助教，今官至副院长",
        "docid": "7305949191250018856",
        "url": ""
    },
    {
        "title": "央视把孙颖莎王楚钦放进2023画卷里 还是央妈会宠！休斯顿夺冠入画",
        "docid": "7318013501300081190",
        "url": ""
    },
    {
        "title": "红牌走你😎不好意思掏错了😅😅😅",
        "docid": "7317385595096023590",
        "url": ""
    },
    {
        "title": "意甲最新积分榜：国米1-1仍居榜首，佛罗伦萨1-0升第4，拉齐奥3-1",
        "docid": "7318078038758113803",
        "url": ""
    },
    {
        "title": "太阳队的挑战与希望：比尔的伤病、复出与球队前景",
        "docid": "7318210574566064666",
        "url": ""
    },
    {
        "title": "不是巨星都不好意思打铁，乔丹2309次，科比2485次，詹姆斯多少次",
        "docid": "7318294496922698251",
        "url": ""
    },
    {
        "title": "篮球界的新战役！76人客场逆转火箭，马克西刷爆记分板！",
        "docid": "7318250118577193513",
        "url": ""
    },
    {
        "title": "0: 2阿曼，王大雷丢球，男足输球罪人揪出，低迷闹脾气真不应该！",
        "docid": "7318244273575658025",
        "url": ""
    },
    {
        "title": "阿里纳斯谈拉塞尔：出手少于15次就别打首发了 让里夫斯试试吧",
        "docid": "7318311980895650344",
        "url": ""
    },
    {
        "title": "世界冠军入籍中国，被韩国人大骂“叛徒”，背后真相到底是什么？",
        "docid": "7293481031003931170",
        "url": ""
    },
    {
        "title": "梦百合杯8强赛三位世冠出局，小将刘宇航首进本赛打进4强",
        "docid": "7318215563757781541",
        "url": ""
    },
    {
        "title": "11分大胜！广厦男篮不服判罚消极比赛，姚明与易建联尽收眼底！",
        "docid": "7318184383881118271",
        "url": ""
    },
    {
        "title": "CBA球星7-12名：赵睿排第七，曾凡博王哲林入围，程帅澎靠后",
        "docid": "7291032465324474920",
        "url": ""
    },
    {
        "title": "艾伦复出13+4+8全队帮找状态，辽宁97-85击败福建豪取7连胜",
        "docid": "7318193418637935113",
        "url": ""
    },
    {
        "title": "3米开外无人！辽宁传导球给到空位的郭艾伦 后者命中赛季首个三分",
        "docid": "7318000854694150675",
        "url": ""
    },
    {
        "title": "1-3到0-2！国足又崩了，创3大耻辱，杨帅带队被打，三大金靴乏力",
        "docid": "7318264877247382031",
        "url": ""
    },
    {
        "title": "刘国梁卸任，何潇接任领队，中国国乒迎来新变革",
        "docid": "7317892008977302053",
        "url": ""
    },
    {
        "title": "男篮巩晓彬近况：54岁依旧很帅，财富自由，儿子拜师伊巴卡",
        "docid": "7314693437947855423",
        "url": ""
    },
    {
        "title": "大雷丢2球沪媒齐高潮！弃用颜骏凌！鲁媒揭秘：换他丢4球",
        "docid": "7318250441291465266",
        "url": ""
    },
    {
        "title": "英超巅峰之夜：利物浦2-0登顶 第3惨遭大逆转 曼联3-2绝杀重返前6",
        "docid": "7317199949073089074",
        "url": ""
    },
    {
        "title": "最新破百榜：火箭领跑，小特或反超31冠王，丁俊晖第7争夺激烈",
        "docid": "7318268578308997684",
        "url": ""
    },
    {
        "title": "太阳4人得分上20，杜兰特进化！布克狂轰35+7，比尔复出6分7助攻",
        "docid": "7318250797647987241",
        "url": ""
    },
    {
        "title": "腿腿生风 拳拳到肉 ！NBA历史五大球场冲突：欧文暴揍大鸟",
        "docid": "7302089060020126223",
        "url": ""
    },
    {
        "title": "哈登大师级击地助攻乔治劈扣后龇牙咧嘴庆祝 乔治单节已拿10分",
        "docid": "7318251153894933028",
        "url": ""
    },
    {
        "title": "38岁奥运冠军菲尔普斯：苍老憔悴似60岁，在家人的陪伴下病情好转",
        "docid": "7300856710774735375",
        "url": ""
    },
    {
        "title": "NBA现役执教胜率最高的主教练是谁？波波维奇胜率64.1%排名第三",
        "docid": "7305351785517105675",
        "url": ""
    },
    {
        "title": "21世纪最惨的，足球运动员！",
        "docid": "7309037041306599972",
        "url": ""
    },
    {
        "title": "盘点女子篮坛十大美女（国际版）：中国两人入选",
        "docid": "7304628093409411619",
        "url": ""
    },
    {
        "title": "曾令旭谈比尔提前复出：是太阳神医厉害 还是杜兰特急眼有效果了",
        "docid": "7318222283024351783",
        "url": ""
    },
    {
        "title": "不稳定！威少末节连续失误造险 全场9中6拿到14分6板6助",
        "docid": "7318263555592405530",
        "url": ""
    },
    {
        "title": "中国篮球丑陋一幕！姚明遭遇大尴尬，广厦老板怒冲到场边抗议判罚",
        "docid": "7318291267190964786",
        "url": ""
    },
    {
        "title": "别看NBA天赋怪那么多，但是只有这5人达到“非人类”级别",
        "docid": "7300791613792780809",
        "url": ""
    },
    {
        "title": "每个人都说他狂，没有人敢喷他菜！",
        "docid": "7317582202278265407",
        "url": ""
    },
    {
        "title": "CBA联赛现场摆设沙发合适吗？",
        "docid": "7315814690758771226",
        "url": ""
    },
    {
        "title": "1946年NBA成立至今，10支球队至今0冠，谁能率先打破无冠魔咒？",
        "docid": "7313905536133857827",
        "url": ""
    },
    {
        "title": "🙈我一下他们就瞎打！哈登后三节0球 但组织优先16分13助3帽",
        "docid": "7318263550378754572",
        "url": ""
    },
    {
        "title": "高效！科菲首发6中5&三分4中3贡献13分0失误 正负值+23全场最高",
        "docid": "7318263492468507174",
        "url": ""
    },
    {
        "title": "狂轰16连胜！联盟第一势不可挡，布朗31+10+6，巴恩斯空砍30+10+5",
        "docid": "7318226477219381800",
        "url": ""
    },
    {
        "title": "帕森斯：从高富帅沦落到合同骗子",
        "docid": "7301611970472559155",
        "url": ""
    },
    {
        "title": "国乒12名退役球员职位：刘国梁最高，刘诗雯前途好，马琳任主教练",
        "docid": "7290989753019761213",
        "url": ""
    },
    {
        "title": "库里背身上篮后摔倒 裁判吹罚他假摔！",
        "docid": "7315992822635692563",
        "url": ""
    },
    {
        "title": "打麻将手气差时有N种方法翻盘，你却选择最没用的一种",
        "docid": "7299700436868121127",
        "url": ""
    },
    {
        "title": "火箭127-131惜败76人 球员评价：1人完美，4人及格，4人崩盘",
        "docid": "7318250000985866792",
        "url": ""
    },
    {
        "title": "浙江广厦最大的悲剧，就是被广东男篮逆转的时候，连招呼都不会打",
        "docid": "7318218927862317603",
        "url": ""
    },
    {
        "title": "太阳本赛季是否还有机会夺冠？球队阵容配置失衡，战斗力不值一提",
        "docid": "7316152541753426442",
        "url": ""
    },
    {
        "title": "郑智之子郑子一入选国家队：从传承到奋斗，追逐世界顶尖足球梦想",
        "docid": "7317847947675796019",
        "url": ""
    },
    {
        "title": "美媒将有史以来收入最高的25名控球后卫划分成五档，库里非独一档",
        "docid": "7294975456833471016",
        "url": ""
    },
    {
        "title": "“郭晶晶好闺蜜”吴敏霞：拒绝霍启山后，转头嫁给了一个普通男人",
        "docid": "7302741891752657460",
        "url": ""
    },
    {
        "title": "尼克斯被魔术施法！小瓦班双星闪耀，兰德尔空有悲歌",
        "docid": "7318246573929906729",
        "url": ""
    },
    {
        "title": "NBA历史十大选秀败笔：选秀前皆大欢喜，选秀后怨声载道！",
        "docid": "7317803180434211382",
        "url": ""
    },
    {
        "title": "被冷落35年，全联盟仅剩黄蜂未打过圣诞大战",
        "docid": "7316463981772849704",
        "url": ""
    },
    {
        "title": "“灭绝式”暴力锚鱼，可视锚鱼器为何成为禁器？",
        "docid": "7316187494406570550",
        "url": ""
    },
    {
        "title": "穆铁柱去世15年妻儿现状：儿女都不高都是上班族，妻子不再住平房",
        "docid": "7298294716347695653",
        "url": ""
    },
    {
        "title": "比尔谈复出：很高兴能够上场打球&终结比赛 这就是我所关心的",
        "docid": "7318250622510514742",
        "url": ""
    },
    {
        "title": "CBA最新积分榜：辽宁第2，广东第4，新疆第1，北京第9，山东第13",
        "docid": "7318174663044104741",
        "url": ""
    },
    {
        "title": "重庆麻将馆日日爆满，座无虚席，整天“泡”在里面的人靠啥谋生？",
        "docid": "7307911230377755173",
        "url": ""
    },
    {
        "title": "王曼昱头像更换事件背后的深层思考：公众人物的影响力与责任",
        "docid": "7318267703968612873",
        "url": ""
    },
    {
        "title": "少林第一内功，远胜易筋经、九阳、金刚，古往今来只有两人练成",
        "docid": "7304991710630036002",
        "url": ""
    },
    {
        "title": "手脏！CBA巨星铁肘猛砸对手脖子，惨叫响彻球馆，名记：什么仇？",
        "docid": "7317474167128048164",
        "url": ""
    },
    {
        "title": "足坛历史上最令人惋惜的四大天才，原本被寄予厚望却遭遇无奈陨落",
        "docid": "7308352971128128015",
        "url": ""
    },
    {
        "title": "谁的含金量更高？上海球队包揽两冠：海港联赛夺冠，申花夺足协杯",
        "docid": "7305337798087672370",
        "url": ""
    },
    {
        "title": "联盟中哪些球员是非卖品，永远不会被摆上货架",
        "docid": "7312762808063066678",
        "url": ""
    },
    {
        "title": "易建联决定退役内幕，原因揭秘！与周琦有关吗？杜锋曾试图挽留 ！",
        "docid": "7318251577687720502",
        "url": ""
    },
    {
        "title": "桃李满天下！盘点杜克名帅老K教练十大爱徒：塔图姆传承希尔",
        "docid": "7309003876479582758",
        "url": ""
    },
    {
        "title": "冰上最凄美情侣：11岁携手冰场，夺冠无数，28岁他倒在她怀里去世",
        "docid": "7291876348636054027",
        "url": ""
    },
    {
        "title": "恭喜广东龙狮官宣大手笔签约，崔永熙陈盈骏确认，球迷大声欢呼！",
        "docid": "7317187619031384614",
        "url": ""
    },
    {
        "title": "男篮名将郭士强:一生坎坷，因聚少离多而离婚，如今二婚恩爱幸福",
        "docid": "7295633392799384115",
        "url": ""
    },
    {
        "title": "小林光一与木谷礼子的婚姻堪称完美，为何当初木谷实并不看好？",
        "docid": "7315569295025652236",
        "url": ""
    },
    {
        "title": "巨星断崖下滑全揭秘：C·罗化身007逆袭的机会有多大？",
        "docid": "7318069748128940598",
        "url": ""
    },
    {
        "title": "贺希宁炮轰全明星赛，郭艾伦欲和阿联争辉，李梦蝉联亚洲年度最佳",
        "docid": "7318263999903089192",
        "url": ""
    },
    {
        "title": "👀多精彩？国足人士感慨阿曼世界波：这种球丢分也没啥可说的",
        "docid": "7318218322972000783",
        "url": ""
    },
    {
        "title": "出生于山西太原的双胞胎——堪称为是CBA赛场上一道靓丽的风景线",
        "docid": "7315359629616333321",
        "url": ""
    },
    {
        "title": "恭喜，女排福将刘晓彤从清华毕业，和小三岁老公结婚，人生赢家！",
        "docid": "7318210795958010380",
        "url": ""
    },
    {
        "title": "单节11+3+4！朱八签下关键先生，上演18分大逆转，夺冠关键拼图！",
        "docid": "7318236421234999843",
        "url": ""
    },
    {
        "title": "广东男篮逆转战胜浙江广厦，放大10倍后看细节，原因清晰可见",
        "docid": "7318215963109982760",
        "url": ""
    },
    {
        "title": "刘国梁又开始提建议、提要求？只强调2点，马龙“原地”完成任务",
        "docid": "7318280102545293843",
        "url": ""
    },
    {
        "title": "津门虎离队人员名单确定，个个都是自由身大鱼，两人或打包去鲁能",
        "docid": "7317852021216887359",
        "url": ""
    },
    {
        "title": "NBA今日里程碑： 哈登16+4+13+3升至历史第16位！凯尔特人 23连胜",
        "docid": "7318199531483988520",
        "url": ""
    },
    {
        "title": "14分完胜！三巨头合体迎首胜！杜兰特做嫁衣，戈登7三分成奇兵",
        "docid": "7318239958027207180",
        "url": ""
    },
    {
        "title": "NBA西部排行榜:雷霆26分大胜掘金第2,快船第4,国王逆转&太阳大胜",
        "docid": "7318261346058256935",
        "url": ""
    },
    {
        "title": "39岁的老詹 生日快乐",
        "docid": "7318068921805062708",
        "url": ""
    },
    {
        "title": "\"足坛新星诞生：17岁米利荣获纽卡月度最佳球员！\"",
        "docid": "7318334682498597391",
        "url": ""
    },
    {
        "title": "职业化后大连足球本土球员最佳阵容",
        "docid": "7307891750826557979",
        "url": ""
    },
    {
        "title": "中国军团3人出战！丁俊晖无缘，张安达遇强敌，00后大战奥沙利文",
        "docid": "7318262806381019648",
        "url": ""
    },
    {
        "title": "不满！吴金贵质问申花董事长：谁做的换帅决定？",
        "docid": "7317514780561113638",
        "url": ""
    },
    {
        "title": "29岁汪顺和27岁叶诗文：青梅竹马，彼此互为偶像，一起冲击巴黎",
        "docid": "7318315226083050019",
        "url": ""
    },
    {
        "title": "联合杯中国队爆冷获胜 郑钦文斩杀世界第7大满贯冠军 排名新高NO.12",
        "docid": "7318247568637854235",
        "url": ""
    },
    {
        "title": "广东男篮106-95广厦男篮：6大不可思议，3个不争事实，周琦复出",
        "docid": "7318294850540356096",
        "url": ""
    },
    {
        "title": "乒坛名将丁松：父亲早逝，他退役后离婚，现在人生稳定",
        "docid": "7317213325778076187",
        "url": ""
    },
    {
        "title": "（体育）网球——联合杯小组赛：中国队胜捷克队",
        "docid": "7318273289687237155",
        "url": ""
    },
    {
        "title": "国足0-2完败阿曼！2023年正式收官：11场4胜2平5负，曾逆转泰国",
        "docid": "7318194599116423734",
        "url": ""
    },
    {
        "title": "金牌游泳教练金炜：娶弟子为妻子，和妻子定居国外，并有了孩子",
        "docid": "7291596421881659913",
        "url": ""
    },
    {
        "title": "阿根廷版的程咬金，三斧头稳准狠，以后估计就再也没有以后了",
        "docid": "7317957871466054171",
        "url": ""
    },
    {
        "title": "张镇麟领衔全胜，CBA摊牌之战，冠军队失利，王芳保持沉默",
        "docid": "7318281813024260619",
        "url": ""
    },
    {
        "title": "奥运金牌有多值钱呢？说出来怕你不信，竟然还有人拿来拍卖",
        "docid": "7309407742702273050",
        "url": ""
    },
    {
        "title": "“金C”永成往昔？吴昌泽在吉林加速坠落，与张镇麟江湖永别！",
        "docid": "7318185279855018496",
        "url": ""
    },
    {
        "title": "CBA争冠热门因不满裁判肆意吹罚，在姚明面前放弃比赛，故意输球",
        "docid": "7318299330358788648",
        "url": ""
    },
    {
        "title": "浙江广厦竟然不敌广东男篮，真实原因曝光，球迷发声令人心酸",
        "docid": "7318305444273914403",
        "url": ""
    },
    {
        "title": "女排名将陈招娣：因癌离世10年，如今女儿活成了她想要的模样",
        "docid": "7310570633384673829",
        "url": ""
    },
    {
        "title": "幸福的烦恼，日本国家队的五位边缘国脚，放在亚洲哪国都是主力",
        "docid": "7286663335159349760",
        "url": ""
    },
    {
        "title": "世界上最好的足球老板！",
        "docid": "7286423507473351223",
        "url": ""
    }
]