[
    {
        "title": "牌面上来了！C罗“依偎”在拳王张志磊身旁，尽显娇羞~",
        "docid": "7343105751315382834",
        "url": ""
    },
    {
        "title": "姚明父母：72岁父亲一头白发，75岁母亲驼背，希望姚明生二胎",
        "docid": "7328356740905452066",
        "url": ""
    },
    {
        "title": "19岁韩乒女神有多喜欢23岁王楚钦，申欲斌：王楚钦是我的欧巴",
        "docid": "7311633182339154469",
        "url": ""
    },
    {
        "title": "姚明：中国篮球目前出现的低谷，某种程度是因为八一队的衰落",
        "docid": "7343544756012237364",
        "url": ""
    },
    {
        "title": "6岁小女孩天赋惊呆央视网！800米比大学生还强，4项纪录一人包揽",
        "docid": "7332058021582864950",
        "url": ""
    },
    {
        "title": "2004年亚洲杯中国-伊朗，孙继海改打前锋，曼城名宿依然降维打击",
        "docid": "7324638224725475875",
        "url": ""
    },
    {
        "title": "什么是摧枯拉朽一样的进攻？三R组合击溃阿根廷防线",
        "docid": "7328365148598043136",
        "url": ""
    },
    {
        "title": "震撼画面曝光：中国80岁高僧国外表演遭嘲笑，随即五体投地！",
        "docid": "7320035978205364776",
        "url": ""
    },
    {
        "title": "北美最强初中生，女版“哈登”海莉范丽丝，打球有多强？",
        "docid": "7319833753499468288",
        "url": ""
    },
    {
        "title": "小女孩满头大汗也咬着牙坚持训练，孩子毅力超越常人！",
        "docid": "7319422357775647268",
        "url": ""
    },
    {
        "title": "这才叫篮球艺术！优雅背身、无解急停，97年迈克尔乔丹太完美了！",
        "docid": "7338720562606408229",
        "url": ""
    },
    {
        "title": "焕发第二春！56岁皮蓬恋上26岁超模，甩乔丹儿子未婚妻几条街",
        "docid": "7343507404417679887",
        "url": ""
    },
    {
        "title": "NBA各球星39岁同期生涯得分对比！",
        "docid": "7342680630570205734",
        "url": ""
    },
    {
        "title": "詹姆斯绝平三分有没有踩线？放大回看：站定没踩，起跳踩了1毫米",
        "docid": "7318602803898122762",
        "url": ""
    },
    {
        "title": "33岁16+6+5，导演2秒绝杀波澜不惊！辽篮没放他走，就提前3连冠了",
        "docid": "7343455097844318746",
        "url": ""
    },
    {
        "title": "体操冠军桑兰：比赛摔成瘫痪，事后索赔18亿美元，如今成人生赢家",
        "docid": "7337937603930669619",
        "url": ""
    },
    {
        "title": "阿泰回忆姚明火箭轶事（上）称09火箭是他效力过最好的球队",
        "docid": "7313155189412889140",
        "url": ""
    },
    {
        "title": "变向不减速！扣篮不挂筐！这可能是你没见过的国际赛场上的#罗斯",
        "docid": "7315012972089836095",
        "url": ""
    },
    {
        "title": "快船逆转火箭！多人致敬申京，伦纳德抱范乔丹，哈登批火箭毛巾",
        "docid": "7343458872474501672",
        "url": ""
    },
    {
        "title": "利雅得大师赛收官，奖金排行出炉，火箭230万第1，丁俊晖23万第9",
        "docid": "7343385247637635584",
        "url": ""
    },
    {
        "title": "里程碑！勇士125-90雄鹿，谁是本场比赛的功臣，数据不会说谎！",
        "docid": "7343494802853888563",
        "url": ""
    },
    {
        "title": "火箭嘲讽塞尔比：没人愿意排在他后面出场，太拖拉；司机卡特力挺",
        "docid": "7343542905875546674",
        "url": ""
    },
    {
        "title": "刘国栋：打球不如弟弟刘国梁，却打造一支与中国队抗衡的海外兵团",
        "docid": "7313815823792128562",
        "url": ""
    },
    {
        "title": "🤔说好的要提前习惯没有姆巴佩，结果欧冠场场踢满90分钟？",
        "docid": "7343063319936631296",
        "url": ""
    },
    {
        "title": "他获得8个NBA总冠军，3个FMVP，唯独没有MVP",
        "docid": "7312286493530456630",
        "url": ""
    },
    {
        "title": "散打王柳海龙武功有多高？当众两拳打碎八层木板，成龙见他都害怕",
        "docid": "7332372271677309474",
        "url": ""
    },
    {
        "title": "骨气！柯洁，力压第一人，年内首冠！",
        "docid": "7343435359612650021",
        "url": ""
    },
    {
        "title": "🙏吓到了！比永博在替补席突然仰面倒下 但未出现严重健康问题",
        "docid": "7343487236840915496",
        "url": ""
    },
    {
        "title": "全红婵惊艳瞬间！摄影师神捕捉，网友：“降龙十八张”名不虚传！",
        "docid": "7342535376101294643",
        "url": ""
    },
    {
        "title": "乔治曝光快船计划！力保3-4名首轮避开湖勇 一数据2月以来联盟最差",
        "docid": "7342997295266497034",
        "url": ""
    },
    {
        "title": "马琳世锦赛惹众怒，盘点女队近四任主教练，他并不是最差的！",
        "docid": "7342709889989018164",
        "url": ""
    },
    {
        "title": "比斯诺克难度更高！俄式台球比赛决赛，网友：是个体力活",
        "docid": "7313151348458684963",
        "url": ""
    },
    {
        "title": "放眼整个国家队，就这一句拉开单打，现在CBA谁有这个气质啊",
        "docid": "7341380575934186035",
        "url": ""
    },
    {
        "title": "托尼贾巅峰时期有多强？导演：全亚洲没一个打得过他",
        "docid": "7326545666736554507",
        "url": ""
    },
    {
        "title": "NBA史上臀部最大的球员TOP10，詹姆斯勉强上榜，榜首天下无敌",
        "docid": "7319763154551259700",
        "url": ""
    },
    {
        "title": "天使面孔恶魔心！韩国排球美女李多英，甜美外表下藏着惊人真面目",
        "docid": "7322409917317677568",
        "url": ""
    },
    {
        "title": "曼市德比之后更加确信自弗格森退休后只有一位主教练是合格的",
        "docid": "7342489585970168354",
        "url": ""
    },
    {
        "title": "稳定性的🐐！詹姆斯四个万分场次依次是368、358、381、368",
        "docid": "7341960408158192166",
        "url": ""
    },
    {
        "title": "拳手被击败后不服和裁判打起来，结局可想而知，有的裁判真不好惹",
        "docid": "7320785781025571343",
        "url": ""
    },
    {
        "title": "妈妈斗地主，自配最强记牌器，网友：妈妈是懂外挂的",
        "docid": "7310434389664956943",
        "url": ""
    },
    {
        "title": "卧虎藏龙！民间大神翻袋哥打147不费吹灰之力，火箭来都得扔二百",
        "docid": "7338614496606454306",
        "url": ""
    },
    {
        "title": "律师警告瓦利耶娃到中国参加演出可能产生的后果，关键看表演性质",
        "docid": "7343514060350603828",
        "url": ""
    },
    {
        "title": "33分钟轰38分11板！李月汝该庆幸她老了：女篮42岁老将太猛了！",
        "docid": "7343507864369119744",
        "url": ""
    },
    {
        "title": "直到看到了这一幕才明白 为什么孙颖莎会是祖国的骄傲",
        "docid": "7326861767635534376",
        "url": ""
    },
    {
        "title": "勇士将缩减轮换阵容，科尔准备全力培养新内线，一人将被彻底弃用",
        "docid": "7343547123898253875",
        "url": ""
    },
    {
        "title": "浙江女生做撑杆练习看傻周围人,原来是国家田径队运动员徐慧琴",
        "docid": "7317446765450363411",
        "url": ""
    },
    {
        "title": "全红婵采访笑疯了！模仿陈芋汐喊口号，一番话直接让记者懵圈",
        "docid": "7323476921608569383",
        "url": ""
    },
    {
        "title": "萌娃边哭边练球，拍拍精准打中， 网友：打球是本能，哭只是助兴",
        "docid": "7335334831020048907",
        "url": ""
    },
    {
        "title": "不愧是传奇拳王！泰森自曝泡妞经历，相处一下午，就拿下19岁少女",
        "docid": "7327603034044367370",
        "url": ""
    },
    {
        "title": "大罗过你100遍都不重复的 这才是前锋技术的天花板",
        "docid": "7341698276393779724",
        "url": ""
    },
    {
        "title": "“小罗人球合一的证据！”",
        "docid": "7313200673728922112",
        "url": ""
    },
    {
        "title": "防守大师梅威瑟的躲闪，站在那里不还手，让你打你都打不到！",
        "docid": "7315015286824895015",
        "url": ""
    },
    {
        "title": "超重磅级别拳击大战，男女大力士齐上阵，全部都是炸裂KO",
        "docid": "7339904340137771555",
        "url": ""
    },
    {
        "title": "天妒英才！美媒评被伤病毁掉的10大天才：姚明7罗伊5 麦迪仅排第3",
        "docid": "7339908186818036239",
        "url": ""
    },
    {
        "title": "不想给郭艾伦打下手，叉腰防守态度散漫，骗走辽宁队200万美元",
        "docid": "7341229011790119424",
        "url": ""
    },
    {
        "title": "TJD：偷师了格里芬对字母哥的防守策略",
        "docid": "7343525072608854579",
        "url": ""
    },
    {
        "title": "叶问之子咏春多厉害？真功夫让陈道明起立鼓掌，甄子丹只有学的份",
        "docid": "7326029516940411431",
        "url": ""
    },
    {
        "title": "伦纳德不在时哈登撑不起场面？对面抬手就是规，哈登独木难支",
        "docid": "7315949906731418124",
        "url": ""
    },
    {
        "title": "聚焦｜打了16局球卷走25万英镑 奥沙利文单赛季总奖金历史第一",
        "docid": "7343452883998032424",
        "url": ""
    },
    {
        "title": "NBA球员与普通人打架实力差距多大？看锡安真实打架经历就知道！",
        "docid": "7341743406734901769",
        "url": ""
    },
    {
        "title": "孙颖莎炸毛了 拍子冒烟，白球炸飞！小肚皮一露，战斗就结束",
        "docid": "7320534657869611560",
        "url": ""
    },
    {
        "title": "足球史上最热血的比赛!全场12次改写比分，阿森纳0-4到7-5大逆转",
        "docid": "7313474711047176723",
        "url": ""
    },
    {
        "title": "中国姑娘这弯道，比博尔特和苏炳添还要帅，一个人拉出4米的优势",
        "docid": "7317587528192950819",
        "url": ""
    },
    {
        "title": "职业拳手八角笼对战三名业余拳手",
        "docid": "7334198995423593012",
        "url": ""
    },
    {
        "title": "巴克利搞笑调侃乔丹 ，你身边有这样的朋友？ #NBA创作营赢豪礼",
        "docid": "7326108951110648347",
        "url": ""
    },
    {
        "title": "57岁泰森官宣复出！对阵27岁网红拳手，出场费或破吉尼斯世界纪录",
        "docid": "7343642382094762550",
        "url": ""
    },
    {
        "title": "“极左派”的功利：“练废”的黄紫昌，中国足球没有救世主",
        "docid": "7343242365907485225",
        "url": ""
    },
    {
        "title": "烟酒不离身却拿下59块金牌，如今61岁的曹燕华现状如何？",
        "docid": "7311549218362327604",
        "url": ""
    },
    {
        "title": "“体操女皇”程菲：25岁退役，身材走样，如今父亲只求嫁个好人家",
        "docid": "7329838493654778379",
        "url": ""
    },
    {
        "title": "为何欧洲人比亚洲人更加强壮？并非只是天生，后天改变也很重要",
        "docid": "7337590859875172874",
        "url": ""
    },
    {
        "title": "张曼源小姐姐打球视频",
        "docid": "7324521606272041509",
        "url": ""
    },
    {
        "title": "棋圣聂卫平长子：改日本国籍，娶日本妻子，坚决不让混血儿子姓聂",
        "docid": "7342760485839864357",
        "url": ""
    },
    {
        "title": "勇士125-90大胜雄鹿 球员评分：3人完美、7人达标、1人不及格。",
        "docid": "7343401459804963379",
        "url": ""
    },
    {
        "title": "销量惨淡！全明星装备太尴尬，老板发声：周琦球衣一件没卖出",
        "docid": "7343576898833809960",
        "url": ""
    },
    {
        "title": "钓友钓到“大家伙”，出场气势十足！网友：这是啥？",
        "docid": "7310403536029024783",
        "url": ""
    },
    {
        "title": "她曾是体操女神， 退役后与大51岁的干爹谈恋爱， 媒人竟是她爸爸！",
        "docid": "7343152457012511273",
        "url": ""
    },
    {
        "title": "完败！湖人不敌国王，勇士收大礼直冲前六，NBA西部排名再变！",
        "docid": "7343472202656055844",
        "url": ""
    },
    {
        "title": "奥运冠军许昕综艺节目惨遭四个姐姐调戏，贡献爆笑场面！",
        "docid": "7313100814225146380",
        "url": ""
    },
    {
        "title": "唐斯膝盖半月板撕裂 无限期缺阵",
        "docid": "7343626402480849419",
        "url": ""
    },
    {
        "title": "山东六旬大爷一双铁手名扬天下，“大力金刚掌”再现江湖震惊四座",
        "docid": "7337635465988276787",
        "url": ""
    },
    {
        "title": "男子钓到河豚，不小心摸到河豚“痒痒肉”，直接漏了气",
        "docid": "7342341611294032411",
        "url": ""
    },
    {
        "title": "NBA疯狂一夜：突发！两大全明星赛季报销，西部第一遭重创！",
        "docid": "7343669398999384615",
        "url": ""
    },
    {
        "title": "再见总冠军！西部第1轰然倒下，2.2亿先生半月板撕裂！格局被打破",
        "docid": "7343638946263826984",
        "url": ""
    },
    {
        "title": "勇士125-90雄鹿，克里斯-保罗职业生涯数据更新",
        "docid": "7343489374270538294",
        "url": ""
    },
    {
        "title": "蒙克拒绝国王3300万美元的提前续约合同，赛季结束恐怕要分道扬镳",
        "docid": "7342068659365528098",
        "url": ""
    },
    {
        "title": "逆转！伦纳德28+6，申京23+19，快船暴露短板，哈登不能再固执",
        "docid": "7343432781156024843",
        "url": ""
    },
    {
        "title": "再见了，东契奇欧文！拒绝2换1大交易！人家以湖人身份拿完总冠军",
        "docid": "7343117897097298469",
        "url": ""
    },
    {
        "title": "拳王邹市明：打拳是世界第一，但是在家是倒数第一，今生最怕老婆",
        "docid": "7320161280294453769",
        "url": ""
    },
    {
        "title": "2009-2024！大连人官方：俱乐部未通过联赛准入，宣告解散！",
        "docid": "7325040155314766362",
        "url": ""
    },
    {
        "title": "“如果我健康，联盟会被我统治”，盘点NBA5大被伤病毁掉球星",
        "docid": "7336454667385455144",
        "url": ""
    },
    {
        "title": "内内一家近照：继承亿万家产，老婆很漂亮，3个儿子都打球",
        "docid": "7319379251323732489",
        "url": ""
    },
    {
        "title": "NBA历史最自律的五位球星都是谁？詹姆斯榜首，第二是他昔日队友",
        "docid": "7342807131714159113",
        "url": ""
    },
    {
        "title": "肖恩马里昂，那个如同僵尸打摆罚篮的糙汉，居然买下一支球队",
        "docid": "7324326288347710002",
        "url": ""
    },
    {
        "title": "13岁相识，追求13年终修成正果！竟然有NBA球员也能从一而终！",
        "docid": "7342320830372200970",
        "url": ""
    },
    {
        "title": "CBA全明星太尴尬！球迷几乎没有，灯光不敢开，媒体领导区人最多",
        "docid": "7341696075146936847",
        "url": ""
    },
    {
        "title": "看了杜兰特臂展，艾弗森手掌，你就明白 为何NBA几乎被黑人统治",
        "docid": "7312666227724829234",
        "url": ""
    },
    {
        "title": "07年詹姆斯27+6+6进决赛仅二阵，加内特22+12三阵，一阵都是谁？",
        "docid": "7337209967742632457",
        "url": ""
    },
    {
        "title": "7秒65破世界纪录夺冠！这速度太恐怖！吴艳妮大为震撼：看到差距",
        "docid": "7342300118592487955",
        "url": ""
    },
    {
        "title": "小加索尔宣布退役！20年职业生涯荣誉一览，一次总冠军也算圆满了",
        "docid": "7330320644921508402",
        "url": ""
    },
    {
        "title": "看了科比手掌，詹姆斯脚趾，罗斯膝盖，你就不会羡慕他们高薪了",
        "docid": "7320458888166539795",
        "url": ""
    },
    {
        "title": "加内特当年第5顺位被选中，他前面4人成就如何？森林狼被状元坑了",
        "docid": "7322447227899675136",
        "url": ""
    },
    {
        "title": "人物志-魏群：盘点国足史上第一硬汉的叱咤风云史",
        "docid": "7314682278465208841",
        "url": ""
    },
    {
        "title": "当被问到在中国，有没有看到潜力新人？韦德一句话让球迷扎心了",
        "docid": "7342379899421770275",
        "url": ""
    },
    {
        "title": "恩人!顾全:深圳老板让我们买车不能超过30万 买房随便买还给打折",
        "docid": "7341707460463723023",
        "url": ""
    },
    {
        "title": "男篮马健近况：54岁非常强壮，妻子是日本美女，儿女双全很幸福",
        "docid": "7312084111840100927",
        "url": ""
    },
    {
        "title": "NBA最以假乱真5大P图，易建联身材似灭霸 杜兰特有麒麟臂",
        "docid": "7342337767554613799",
        "url": ""
    },
    {
        "title": "03年全明星赛乔丹为何拒绝麦迪和艾弗森，接受了卡特让出的首发？",
        "docid": "7320533059236069929",
        "url": ""
    },
    {
        "title": "图集：易建联球衣退役仪式 潘玮柏张一山苏炳添观战",
        "docid": "7318004500236796455",
        "url": ""
    },
    {
        "title": "从被女友抛弃，到被女明星疯狂示爱，CBA弃将完美演绎逆袭人生",
        "docid": "7325728373878112822",
        "url": ""
    },
    {
        "title": "日本帝王级牛郎与梅西合影：谢谢你对我的身份没有偏见👍",
        "docid": "7332710484086374951",
        "url": ""
    },
    {
        "title": "看了NBA球星衰老速度 你就不会羡慕他们高薪了，詹姆斯似老翁",
        "docid": "7319702043000717878",
        "url": ""
    },
    {
        "title": "“我不打球，只能回去继承亿万家产”，盘点NBA5大富二代",
        "docid": "7313018140449899034",
        "url": ""
    },
    {
        "title": "艾弗森生涯唯一一个MVP含金量多高？看看前5就知道 鲨科佛皆为陪衬",
        "docid": "7322071287009444404",
        "url": ""
    },
    {
        "title": "帕奎奥也来炫富！豪车数量不次于梅威瑟，价值数百万，您喜欢哪款",
        "docid": "7318163930302513714",
        "url": ""
    },
    {
        "title": "还得是你啊！NBA官方为詹姆斯制作的40000分海报 颇具质感👑",
        "docid": "7341965538756821519",
        "url": ""
    },
    {
        "title": "恭喜！和菲律宾妻子婚三年后，36岁的林书豪被曝即将当爸爸！",
        "docid": "7339390216253620736",
        "url": ""
    },
    {
        "title": "谁该上去，谁该下来，75大里面名不副实的球星有谁！",
        "docid": "7312083534741815846",
        "url": ""
    },
    {
        "title": "詹姆斯肌肉被誉为球员天花板，为何几乎看不到腹肌和胸肌？",
        "docid": "7331571073495859750",
        "url": ""
    },
    {
        "title": "NBA那些搞笑瞬间，你有笑么？",
        "docid": "7340456168013365801",
        "url": ""
    },
    {
        "title": "朱芳雨真有女人缘！全明星赛和四位CBA美女老总热聊，朱总笑开花",
        "docid": "7343062795401462308",
        "url": ""
    },
    {
        "title": "😲帅啊！最后时刻 张镇麟复刻卡特反身360炸扣点燃全场！",
        "docid": "7342135610276495883",
        "url": ""
    },
    {
        "title": "太刺激了！拿3亿替朋友养老婆孩子！这就是NBA未来新门面",
        "docid": "7341382242545009193",
        "url": ""
    },
    {
        "title": "钓鱼佬在地球上真是无处不在啊！看完网友分享我大受震撼，确实牛",
        "docid": "7337965953877295679",
        "url": ""
    },
    {
        "title": "她曾是体操女神， 退役后与大51岁的干爹谈恋爱！ 媒人竟是她爸爸！",
        "docid": "7342427903852937738",
        "url": ""
    },
    {
        "title": "奥运冠军陈若琳，退役后更漂亮了，已是国家队教练，31岁仍单身",
        "docid": "7341582555852882441",
        "url": ""
    },
    {
        "title": "看了李春江“徒弟们”的职业生涯，才知道他为什么敢这么狂",
        "docid": "7318599163044839986",
        "url": ""
    },
    {
        "title": "05年保罗第4顺位被选中，排他前面3人成就如何？状元榜眼低于预期",
        "docid": "7322770879367889443",
        "url": ""
    },
    {
        "title": "一不小心在福建拍到了“课本封面”",
        "docid": "7342699018427826714",
        "url": ""
    },
    {
        "title": "重庆麻将馆日日爆满，座无虚席，整天“泡”在里面的人靠啥谋生？",
        "docid": "7310502892203721255",
        "url": ""
    },
    {
        "title": "马什本：与基德争抢30岁女演员毁掉大好前程，退役后身价几十亿",
        "docid": "7343484552889270794",
        "url": ""
    },
    {
        "title": "你可能不信，NBA创办至今 从替补逆袭成巨星 也就5人",
        "docid": "7314490357906506274",
        "url": ""
    },
    {
        "title": "😤追梦转发个人历史第七人数据：恨我&但我就是优秀 事实如此",
        "docid": "7324042241230651904",
        "url": ""
    },
    {
        "title": "巨人安德雷：一口气喝156罐啤酒，去世后骨灰重量惊人，高达15斤",
        "docid": "7342714884074766885",
        "url": ""
    },
    {
        "title": "惨叫声响遍球馆！膝盖变形，韧带撕裂！这个废人动作真的过分了！",
        "docid": "7314188803210789391",
        "url": ""
    },
    {
        "title": "她曾是体操女神， 退役后与大51岁的干爹谈恋爱！ 媒人竟是她爸爸！",
        "docid": "7343219319705371172",
        "url": ""
    },
    {
        "title": "世界第一女巨人来自中国安徽，穿78码鞋子，一顿吃6碗炒面",
        "docid": "7323937577411658255",
        "url": ""
    },
    {
        "title": "拿五双有多难？NBA创办至今就1人做到 文班亚马存希望",
        "docid": "7331234689644167689",
        "url": ""
    },
    {
        "title": "东契奇连续5场砍得分30+三双追平威少并列历史第1 独行侠力擒热火",
        "docid": "7343813691634123302",
        "url": ""
    },
    {
        "title": "不比不知道，一比吓一跳！26张对比图，感受一下差距",
        "docid": "7311582822547292706",
        "url": ""
    },
    {
        "title": "09届选秀谁挣得多？卢比奥1.4亿，格里芬2.6亿，库里哈登太强了",
        "docid": "7315034032071459339",
        "url": ""
    },
    {
        "title": "运动员收入历史前50，乔丹263亿第一，梅西詹姆斯居然都没C罗高！",
        "docid": "7322766746350387747",
        "url": ""
    },
    {
        "title": "许昕：人生中最幸运的不是拿了奥运冠军，而是娶到了大2岁的姚彦",
        "docid": "7333120231956808201",
        "url": ""
    },
    {
        "title": "跑步圈的神秘现象：跑步的人，都是中年男人！",
        "docid": "7324525610695655955",
        "url": ""
    },
    {
        "title": "为什么孙颖莎会让伊藤美诚有那样的表情？最好的对手还是走散了",
        "docid": "7341252643588997666",
        "url": ""
    },
    {
        "title": "他，可能是《外来媳妇本地郎》里最大咖的客串演员，可惜早已去世",
        "docid": "7312749231813886490",
        "url": ""
    },
    {
        "title": "“仅得43分”出处！艾弗森晒2007年科比疯狂得分数据：曼巴永存",
        "docid": "7328693873399054863",
        "url": ""
    },
    {
        "title": "加内特一家近照：退役办节目，越来越有型，离婚找小16岁女友",
        "docid": "7324860649635643955",
        "url": ""
    },
    {
        "title": "美国250斤猛男变性后爆改外貌，隆胸化妆间减肌成苗条辣妹",
        "docid": "7325464740476961320",
        "url": ""
    },
    {
        "title": "震惊世界：从初中辍学打工妹到问鼎世界冠军，这个00后只用了五年",
        "docid": "7343542855421608486",
        "url": ""
    },
    {
        "title": "85年马龙仅第13顺位被选中，他前面12人都是谁？生涯成就如何",
        "docid": "7331216106239328779",
        "url": ""
    },
    {
        "title": "原来他已去世16年，80年代齐名李连杰，走后儿子将奶奶告上法庭",
        "docid": "7332047561337078308",
        "url": ""
    },
    {
        "title": "冰上最凄美情侣：11岁携手冰场，夺冠无数，28岁他倒在她怀里去世",
        "docid": "7315232746669179455",
        "url": ""
    },
    {
        "title": "大器晚成陈一冰，3夺奥运金牌，美丽妻子高他6cm，退役转型成功",
        "docid": "7332462076050719258",
        "url": ""
    },
    {
        "title": "笑麻了！“渝D显眼面包车外挂1米大鱼”冲上热搜，被评论区笑死",
        "docid": "7342431223433904659",
        "url": ""
    },
    {
        "title": "煤老板之子梁靖崑：节俭，不爱奢侈品，方博：他和伊藤美诚挺般配",
        "docid": "7343550252265587211",
        "url": ""
    },
    {
        "title": "正经吃货！朱芳雨吃到了沈阳人都找不到美味，吃完了还有专业点评",
        "docid": "7319695738106462730",
        "url": ""
    },
    {
        "title": "🤣利拉德——史上第一位得分第二的冠军😁",
        "docid": "7336774659884909075",
        "url": ""
    },
    {
        "title": "同样是1000个三分，库里27岁做到，科比32岁，东契奇创纪录",
        "docid": "7311888333566394916",
        "url": ""
    },
    {
        "title": "13个赛季以上从未缺席季后赛的10大球员，现役球员哈登光荣上榜",
        "docid": "7322751975216071222",
        "url": ""
    },
    {
        "title": "从NBA退役后还有钱领！王治郅62岁后每年70万，姚明，易建联呢？",
        "docid": "7319034070682731027",
        "url": ""
    },
    {
        "title": "历史第4！詹姆斯胜场超越斯托克顿，他能超越邓肯1001胜吗？",
        "docid": "7343049882175013403",
        "url": ""
    },
    {
        "title": "双标！阿里纳斯：你们要詹姆斯去拿冠军 而39岁乔丹仅仅打打球而已",
        "docid": "7343817356839256639",
        "url": ""
    },
    {
        "title": "历史上收入最高运动员榜🤑C罗19亿美元第3，梅西16亿美元第6",
        "docid": "7343637718695854618",
        "url": ""
    },
    {
        "title": "男篮名宿张卫平近况，离婚又再婚，定居美国，73岁还没退休",
        "docid": "7329107706097877513",
        "url": ""
    },
    {
        "title": "​姚明：我贪腐？我可以肯定的说，他不会为钱所动！",
        "docid": "7324896261646156315",
        "url": ""
    },
    {
        "title": "重排NBA新世纪后5大球星，杜兰特落选 库里垫底 榜首没悬念",
        "docid": "7310810779358773801",
        "url": ""
    },
    {
        "title": "他曾是全美第一高中生，为120万卖掉状元身份，年仅26岁无奈退役",
        "docid": "7343632870139068968",
        "url": ""
    },
    {
        "title": "为什么长江禁渔十年，却不禁止个人钓鱼？原来其中暗藏玄机",
        "docid": "7330576606131962431",
        "url": ""
    },
    {
        "title": "🤔后悔不？老鹰2018年选中东契奇但与独行侠交易换来特雷-杨",
        "docid": "7328604421296800271",
        "url": ""
    },
    {
        "title": "杜兰特35分阿伦26分奎克利空砍21+9+17 太阳力克猛龙",
        "docid": "7343840949250753078",
        "url": ""
    },
    {
        "title": "“我才刚出汗，你已经累趴了”，盘点NBA公认的5大体力怪",
        "docid": "7319695252154270227",
        "url": ""
    },
    {
        "title": "周星驰晒照：与赵丽娜李佳悦合照，邀加入新作！两人转其照片回应",
        "docid": "7342573721762169344",
        "url": ""
    },
    {
        "title": "2K能力值更新：亚历山大+1、库里-1！共21人能力值90以上",
        "docid": "7343784100815340041",
        "url": ""
    },
    {
        "title": "最佳防守球员非她莫属，可却迷失在TT的怀里！",
        "docid": "7337894481301373490",
        "url": ""
    },
    {
        "title": "差点100%投篮命中率！再见了，郭艾伦！中国男篮看不上的第一控卫",
        "docid": "7315091769903989284",
        "url": ""
    },
    {
        "title": "剩余20场比赛，约基奇拿到怎样的数据，才能保证场均三双？",
        "docid": "7343590355558875682",
        "url": ""
    },
    {
        "title": "联盟第一玻璃人？7年重伤12次，一身的天赋却无法兑现...",
        "docid": "7342140520733016610",
        "url": ""
    },
    {
        "title": "😡湖人管理层：你这个图越长 我这个心越烦",
        "docid": "7338696096992641573",
        "url": ""
    },
    {
        "title": "同一届选秀出现两个MVP有多难？历史仅有5次做到，03白金一代无缘",
        "docid": "7326914847457673728",
        "url": ""
    },
    {
        "title": "闹大了！获奖感言用英文发言上热搜，世界冠军陈芋汐遭网友们怒喷",
        "docid": "7343061825128317475",
        "url": ""
    },
    {
        "title": "2年缺席121场比赛 拿走蔡老板7300万的吸血鬼 明夏还有球队要吗",
        "docid": "7343037373963485736",
        "url": ""
    },
    {
        "title": "成都男神李伯清，另一个身份—皇家贝里斯足球俱乐部的主席",
        "docid": "7320826589963420211",
        "url": ""
    },
    {
        "title": "24年过去了，才发现连续两届奥运男篮8强的刘炜是21世纪最强后卫",
        "docid": "7340859163914289715",
        "url": ""
    },
    {
        "title": "甘肃美女习武30年登上央视，看呆老外，800w网友点赞：文化膨胀！",
        "docid": "7322757672879571466",
        "url": ""
    },
    {
        "title": "妻子晒性感泳衣照，库尔图瓦：😍😍我是最幸运的人",
        "docid": "7328948664276550178",
        "url": ""
    },
    {
        "title": "“影帝”斯科拉：曾是姚明队友，娶1米6娇妻生4个儿子，现状如何",
        "docid": "7319316339057820198",
        "url": ""
    },
    {
        "title": "乔丹之后，NBA有几位超巨？满打满算就4人 杜兰特落选",
        "docid": "7335024828938289699",
        "url": ""
    },
    {
        "title": "秦门多儒将，肖门杀四方，教练肖战带出来的徒弟，全员都是狠人！",
        "docid": "7311700345536496163",
        "url": ""
    },
    {
        "title": "状元、榜眼必有一水？细数近三十年NBA的前两顺位新秀（1993）",
        "docid": "7322381093746459177",
        "url": ""
    },
    {
        "title": "有毒的“淡水鱼王”，曾经卖到8000一条，如今却吓退无数钓鱼佬！",
        "docid": "7314557256320975414",
        "url": ""
    },
    {
        "title": "钱不好挣吗？错。我家对面的麻将馆每天都是人来人往",
        "docid": "7316177996527108623",
        "url": ""
    },
    {
        "title": "一生无法战胜同一人，乒乓名将的“喊话”走心到黯然伤神！",
        "docid": "7330519484228256266",
        "url": ""
    },
    {
        "title": "中国男篮胡金秋：放弃上学赚钱打篮球养妈妈，娶初恋生双胞胎儿子",
        "docid": "7314622217965355558",
        "url": ""
    },
    {
        "title": "库里15分伤退克莱替补25分 德罗赞33+8公牛擒勇士获3连胜",
        "docid": "7343826516549124660",
        "url": ""
    },
    {
        "title": "合肥牌桌上肮脏一幕：友情与信任的双重背叛",
        "docid": "7338430855234404904",
        "url": ""
    },
    {
        "title": "GOAT之争丨网友评论詹姆斯vs乔丹：詹姆斯只能用Excel击败乔丹",
        "docid": "7329787366229426688",
        "url": ""
    },
    {
        "title": "日本网友：希望张本美和离开日乒！平野美宇：我上也打不过陈梦",
        "docid": "7340086474425336357",
        "url": ""
    },
    {
        "title": "孙颖莎是陈梦带大的孩子 记者问 你会收拾莎莎么 陈梦：不会 她收拾我",
        "docid": "7324239428737286691",
        "url": ""
    },
    {
        "title": "各年代最高年薪:20年代布朗6500万 10年代库里3700万 80年代300万",
        "docid": "7343613509546459667",
        "url": ""
    },
    {
        "title": "约基奇32+12+11大号三双 布朗空砍41+13 掘金拒绝逆转险胜凯尔特人",
        "docid": "7343859235207332387",
        "url": ""
    },
    {
        "title": "全屯子都知道他叫疯狗，可是没有人不羡慕他如花似玉的女朋友！",
        "docid": "7339692464183362057",
        "url": ""
    },
    {
        "title": "中国女排惠若琪：嫁矮5.5厘米北大博士，婚礼现场郎平泪崩祝福",
        "docid": "7340811056614572559",
        "url": ""
    },
    {
        "title": "逆转！东契奇35+11，巴特勒12中6，打破三双纪录，登顶历史第一",
        "docid": "7343804725957198390",
        "url": ""
    },
    {
        "title": "随着勇士输3分，太阳胜7分猛龙，森林狼赢2分，狂野西部最新排名",
        "docid": "7343800662050292235",
        "url": ""
    },
    {
        "title": "保罗15+4+5，克莱25+2，库里打铁，勇士122-125不敌公牛！",
        "docid": "7343852867083862591",
        "url": ""
    },
    {
        "title": "巨星？在NBA历史上只有这7位拥有终身代言合同的才算真正的巨星！",
        "docid": "7343794765529629222",
        "url": ""
    },
    {
        "title": "风尘四侠各有选秀模板，功成名就的他们 是否超越了模板？",
        "docid": "7336443240914862592",
        "url": ""
    },
    {
        "title": "小萨31+17+9致命暴扣，福克斯33+5+5六犯，国王131：129力克马刺",
        "docid": "7343819352850448896",
        "url": ""
    },
    {
        "title": "太痛心了，李老师打麻将连打一天一夜，就这样走了",
        "docid": "7343422012373107250",
        "url": ""
    },
    {
        "title": "盘点联盟因身高拉低天赋上限的三位球星",
        "docid": "7343160727424975396",
        "url": ""
    },
    {
        "title": "不声不响中，北控男篮完成了李代桃僵，其中闵鹿蕾居功至伟！",
        "docid": "7342907319548068402",
        "url": ""
    },
    {
        "title": "爆砍130分，新疆队末节翻盘！对不起了辽宁，联赛第1再起悬念",
        "docid": "7343638914277704233",
        "url": ""
    },
    {
        "title": "利拉德生涯三分追平米勒NBA历史第四 🚆库里第一&哈登第三",
        "docid": "7343495503159509540",
        "url": ""
    },
    {
        "title": "那个因为颜值高，被富婆倒追的奥运冠军，后来过得怎么样？",
        "docid": "7310537981616816680",
        "url": ""
    },
    {
        "title": "哪队最舍得花钱？联盟近20年各队总薪资排名：仅4队超过20亿",
        "docid": "7324977360758604300",
        "url": ""
    },
    {
        "title": "23个鲜为人知的怪异事实，无不令人称奇",
        "docid": "7340832628876509759",
        "url": ""
    },
    {
        "title": "“K宝”瓦利耶娃，被国家队除名！服用了60种药物和补充剂",
        "docid": "7343819285116043787",
        "url": ""
    },
    {
        "title": "不可思议的象棋比赛作弊，什么叫肛珠作弊？",
        "docid": "7316805220271489562",
        "url": ""
    },
    {
        "title": "6队哄抢！打了8年，无名小卒化身控场大师，你终获全联盟的青睐",
        "docid": "7343055836573237810",
        "url": ""
    },
    {
        "title": "历史第1！联盟第1！无惧岁月无惧风，NBA最不可思议球星诞生",
        "docid": "7341236720803168787",
        "url": ""
    },
    {
        "title": "😂眼睛瞪圆！女记者采访“调戏”贝林厄姆：你想和我一起回家吗？",
        "docid": "7343775548436660772",
        "url": ""
    },
    {
        "title": "05、07赛季夺冠，志在三连冠的马刺为何在06年失利？当时输给了谁",
        "docid": "7311642974251663887",
        "url": ""
    },
    {
        "title": "她是体操冠军，带着44亿逃亡美国，被叫回却装病不回",
        "docid": "7343900210592580132",
        "url": ""
    },
    {
        "title": "4年1亿的维金斯，勇士亏大了！同等价位，可签5个更强的球员！",
        "docid": "7343516263517651456",
        "url": ""
    },
    {
        "title": "291.6磅！张志磊创下最高体重纪录，超出对手44磅，帕克247.6磅",
        "docid": "7343767389999333951",
        "url": ""
    },
    {
        "title": "雷霆前7位球员薪水排名，而霍姆格伦的薪水，原来还在新秀合同",
        "docid": "7338047664225337908",
        "url": ""
    },
    {
        "title": "北京奥运会后姚明与林浩时隔16年重逢 林浩：如老友见面，他对我说“小伙加油”",
        "docid": "7343214367972819492",
        "url": ""
    },
    {
        "title": "爱德华兹炮轰麦迪没荣誉？麦迪的这5个荣誉吊打华子",
        "docid": "7342865360468722213",
        "url": ""
    },
    {
        "title": "1141500英镑！奥沙利文刷新赛季个人奖金纪录，特鲁姆普成背景帝",
        "docid": "7343388364441141800",
        "url": ""
    },
    {
        "title": "17岁的莎拉波娃第一次夺得大满贯冠军，2004温网决赛对阵小威",
        "docid": "7316414238057202214",
        "url": ""
    },
    {
        "title": "女子短跑职业选手400米大战足球明星 那么到底谁更快？",
        "docid": "7326103080041349659",
        "url": ""
    },
    {
        "title": "有视频为证能摸到篮板上沿，放眼全世界也就这两人！",
        "docid": "7336878853711004172",
        "url": ""
    },
    {
        "title": "目前见过最精彩的枪术视频,老一辈武术家真正做到了人枪合一",
        "docid": "7313399207333888521",
        "url": ""
    },
    {
        "title": "麦迪：建议NBA全明星举办1V1斗牛，单败淘汰制&冠军奖金100万",
        "docid": "7337607392828228105",
        "url": ""
    },
    {
        "title": "🤣伊巴卡简直离谱！NBA球员喝“口服液” 名场面合集",
        "docid": "7343834961054941731",
        "url": ""
    },
    {
        "title": "太阳120-113战胜猛龙！谁是赢球的最大功臣！数据不会说谎！",
        "docid": "7343563570057478691",
        "url": ""
    },
    {
        "title": "篮球名将朱芳雨：一婚娶体操女神生两个儿子，二婚娶富家千金",
        "docid": "7320510208487457314",
        "url": ""
    },
    {
        "title": "如今的文班亚马能否媲美新秀邓肯？看完这组数据你会有答案吗？",
        "docid": "7343667733625635363",
        "url": ""
    },
    {
        "title": "甘肃美女习武30年登央视，看呆老外，800多万网友点赞：文化自信",
        "docid": "7326891780807688758",
        "url": ""
    },
    {
        "title": "确定了！半月板撕裂！西部第一遭遇毁灭性打击",
        "docid": "7343648942632059426",
        "url": ""
    },
    {
        "title": "我认真了！约基奇多次内线强凿 18中11&10罚全中砍32分12板11助",
        "docid": "7343861368917230143",
        "url": ""
    },
    {
        "title": "自媒体晒约基奇儿时肥照：湖人被这家伙拿捏了😭😭",
        "docid": "7341980192946029094",
        "url": ""
    },
    {
        "title": "窒息对抗！约基奇32+12+11&布朗空砍41+13，掘金115：109力克绿军",
        "docid": "7343818306702590498",
        "url": ""
    },
    {
        "title": "赛季报销！57场拿走1亿美元！再见了，NBA第一诈骗犯",
        "docid": "7343790777472631305",
        "url": ""
    },
    {
        "title": "跟这两种老师学外语，球员更愿意搭档谁？揭秘申京的私人翻译！",
        "docid": "7343539552953025076",
        "url": ""
    },
    {
        "title": "2-2补时绝平！42岁阿隆索激情庆祝：35场不败狂轰101球",
        "docid": "7343811992522080777",
        "url": ""
    },
    {
        "title": "陈梦大战樊振东，性别大战趣味十足，两位打的也是丝毫不手软啊",
        "docid": "7320979508398391848",
        "url": ""
    },
    {
        "title": "太残暴了，第一次见正负值50加的！奥尼尔看了都自愧不如啊",
        "docid": "7323980157910254090",
        "url": ""
    },
    {
        "title": "俄罗斯出手！瓦利耶娃（K宝）已被国家队除名。",
        "docid": "7343650059323540008",
        "url": ""
    },
    {
        "title": "NBA5大非人类肌肉，威少的胸肌 詹皇的大腿 奥尼尔的手臂",
        "docid": "7320441033568322067",
        "url": ""
    },
    {
        "title": "在加拿大攻读化学博士的中国男生，参加搏击比赛被前职业选手打成植物人",
        "docid": "7341282262798877199",
        "url": ""
    },
    {
        "title": "闹大了！世界冠军陈宇汐获奖感言全程英文，网友一句话直戳人心",
        "docid": "7343102635534533183",
        "url": ""
    },
    {
        "title": "库里受伤！勇士122-125公牛，本场谁是罪魁祸首，数据不会说谎！",
        "docid": "7343856769728545314",
        "url": ""
    },
    {
        "title": "她远走新加坡成世界冠军，使刘诗雯抱憾一生，至今仍掏钱对抗国乒",
        "docid": "7343815282898698790",
        "url": ""
    },
    {
        "title": "再见总冠军！西部第1轰然倒下！2.2亿先生半月板撕裂！格局被打破",
        "docid": "7343864794137100809",
        "url": ""
    },
    {
        "title": "不用再受湖人主场的窝囊气！快船终于要解脱了",
        "docid": "7342382460514517545",
        "url": ""
    },
    {
        "title": "鸟山明去世！球迷曾多次在场内打出《龙珠》TIFO",
        "docid": "7343833128392049191",
        "url": ""
    },
    {
        "title": "NBA现在顶薪已经烂大街，真配得上5000万年薪 就5人",
        "docid": "7320861597424632335",
        "url": ""
    },
    {
        "title": "女子用木棍敲晕一条鱼，钓鱼的人都沉默了",
        "docid": "7340095390957437475",
        "url": ""
    },
    {
        "title": "一拳把杜锋打晕的外援，曾砍下60分29个篮板，来CBA时闹了场乌龙",
        "docid": "7343625183229477427",
        "url": ""
    },
    {
        "title": "格威：很高兴加入一支真正想获胜&每个人都触球的球队",
        "docid": "7334751088408871436",
        "url": ""
    },
    {
        "title": "爸爸下围棋斗不过女儿急眼，趁其不备偷棋子秒被抓，下一幕爆笑",
        "docid": "7311204670645469711",
        "url": ""
    },
    {
        "title": "中国军人与外国军人比赛，中国军人发生重大失误，最后逆转夺冠！",
        "docid": "7314180979856245288",
        "url": ""
    },
    {
        "title": "#陈梦 天杀的 我一眼就认出了这是我老公",
        "docid": "7337172981267104306",
        "url": ""
    },
    {
        "title": "“那年是他的巅峰末期，依然可以把大鸟打成小鸡”#易建联",
        "docid": "7338352519615250979",
        "url": ""
    },
    {
        "title": "字母哥有多会过日子？球馆内免费水全打包回家，把钱存进50家银行",
        "docid": "7313939795544113698",
        "url": ""
    },
    {
        "title": "范志毅高峰正面对冲 身体对抗和节奏拉满 诠释速度爆发力完美结合",
        "docid": "7328992857149145663",
        "url": ""
    },
    {
        "title": "黄磊：退役后不考虑上个大学吗？惠若琪：大哥，我现在是研究生！",
        "docid": "7327476667172323859",
        "url": ""
    },
    {
        "title": "奥尼尔被姚明骗了三年，以为他不会说英文，姚明在台下忍不住笑了",
        "docid": "7329758938285638156",
        "url": ""
    },
    {
        "title": "中国足坛有多乱？赵本山投资5000万没见过股东，仅半年就潦草收场",
        "docid": "7314558120246968870",
        "url": ""
    },
    {
        "title": "当詹姆斯在野球场被人挑衅1v1斗牛，这哥们后果有多惨？",
        "docid": "7337727225028051507",
        "url": ""
    },
    {
        "title": "浓眉模仿火箭队谁？逗得身旁老詹哈哈大笑，第一排球迷都绷不住了",
        "docid": "7330888014169637416",
        "url": ""
    },
    {
        "title": "NBA最新积分榜！勇士负公牛第9，森林狼1，掘金3，太阳6，独行侠8",
        "docid": "7343848299092689434",
        "url": ""
    },
    {
        "title": "黑人颜值天花板，NBA最美女记者，ESPN当家花旦。",
        "docid": "7322792485980209727",
        "url": ""
    },
    {
        "title": "如果南斯拉夫当初没有解体！现在最强美国男篮打得过他们吗？",
        "docid": "7341357038728905231",
        "url": ""
    },
    {
        "title": "泥洼老师一个让马龙崩溃的男人，独创意识流不伤身打法",
        "docid": "7315717924029891126",
        "url": ""
    },
    {
        "title": "国足的漂亮妻子们：球踢得差，奈何太赚钱，老婆个个美如天仙",
        "docid": "7330566132912538123",
        "url": ""
    },
    {
        "title": "步行者老大魔咒！从格兰杰到乔治再到哈利伯顿，没人能躲过这诅咒",
        "docid": "7322269180332343823",
        "url": ""
    },
    {
        "title": "最神奇的一场体操巅峰之战，中国小将直接吓坏各国选手",
        "docid": "7331190508708233755",
        "url": ""
    },
    {
        "title": "NBA5大最强麒麟臂球星，奥尼尔手臂似充气 詹姆斯似外星人",
        "docid": "7327568765792010815",
        "url": ""
    },
    {
        "title": "面无表情的擦肩而过 但是我装的 #欧文 #杜兰特 #伤感剪辑",
        "docid": "7320302809570607656",
        "url": ""
    },
    {
        "title": "NBA太太团，渡边雄太的老婆也许是大多人审美的标杆吧！",
        "docid": "7312712477895033344",
        "url": ""
    },
    {
        "title": "梦之队詹姆斯走步？老詹满脸问号，求鉴定！瓜哥居然笑了",
        "docid": "7343149822767333897",
        "url": ""
    },
    {
        "title": "篮球运动员打球时摔倒，摔在啦啦队中间，网友：这是计算过！",
        "docid": "7324900140530336266",
        "url": ""
    },
    {
        "title": "NBA史上仅有10人总得分超过28000，詹姆斯用了1033场，那乔丹呢",
        "docid": "7335233861481153065",
        "url": ""
    },
    {
        "title": "奥沙利文着急回家，反复放水输不了，一气之下球停袋口转身就走。",
        "docid": "7325034697590440448",
        "url": ""
    },
    {
        "title": "乔衫欢乐斗地主，看了牌嘚瑟着要加注，结果被实力打脸",
        "docid": "7341583548203467298",
        "url": ""
    },
    {
        "title": "福原爱东北话跟菜摊老板砍价，口音太讨喜了！福原爱飙东北话",
        "docid": "7333168677598167603",
        "url": ""
    },
    {
        "title": "当詹姆斯突然坐到你身边,球迷表情绷不住了",
        "docid": "7323051767992844863",
        "url": ""
    },
    {
        "title": "山寨克莱如何溜进勇士球馆？竟一路畅通直接进场馆，还上场投篮",
        "docid": "7336164115733774900",
        "url": ""
    },
    {
        "title": "詹姆斯二儿子球技肉眼可见的进步，二皇子的称呼果然名不虚传",
        "docid": "7320245484135088679",
        "url": ""
    },
    {
        "title": "周星驰晒合影！新片将邀请她俩出演！",
        "docid": "7343040178837062196",
        "url": ""
    },
    {
        "title": "后继有人！内特罗宾逊的儿子是这样打球的！#内特罗宾逊",
        "docid": "7335025870522089994",
        "url": ""
    },
    {
        "title": "棋圣聂卫平长子：改日本国籍，娶日本妻子，坚决不让混血儿子姓聂",
        "docid": "7342164728728519218",
        "url": ""
    },
    {
        "title": "一场公园女篮比赛差点演变成选美大赛",
        "docid": "7337566518068281882",
        "url": ""
    },
    {
        "title": "塔图姆关键时刻命中率32.6% 在最少出手45次的球员中排名倒一",
        "docid": "7343804525691732514",
        "url": ""
    },
    {
        "title": "鲜明反差 女篮李梦身高182体重90KG,男篮赵继伟身高183体重79KG",
        "docid": "7340517170025120267",
        "url": ""
    },
    {
        "title": "男子钓上3斤多野生大黄鱼，通体金光闪闪：低于2万元就吃掉",
        "docid": "7314909047914758691",
        "url": ""
    },
    {
        "title": "男子夜钓时感觉脚边有动静，用抄网捞上来头灯一照吓懵：赶紧下去",
        "docid": "7313853414461735436",
        "url": ""
    },
    {
        "title": "丁俊晖的妻子张元元，40多岁依旧韵味十足，难怪与潘晓婷没好上！",
        "docid": "7343870948967825954",
        "url": ""
    },
    {
        "title": "足球巨星：拉莫斯的奢华生活和巨额财富揭秘！",
        "docid": "7326103806742200883",
        "url": ""
    },
    {
        "title": "总决赛命中超50记三分有多难？历史仅6人做到，克莱86个排第三！",
        "docid": "7343420905865265704",
        "url": ""
    },
    {
        "title": "史蒂芬森有多厉害?这些操作也就他能做出来!",
        "docid": "7340104286631625231",
        "url": ""
    },
    {
        "title": "15岁已经2米01！阿里纳斯儿子穿训练跑鞋轰51分！真像他爸！",
        "docid": "7328747774558929427",
        "url": ""
    },
    {
        "title": "将镜头越拉越远，礼貌的告别……#dou来nba",
        "docid": "7326789168057549375",
        "url": ""
    },
    {
        "title": "体操舞者汤加丽：从金牌舞者到人体模特，艺术追求背后的争议",
        "docid": "7334881117327065654",
        "url": ""
    }
]