[
    {
        "title": "😤追梦转发个人历史第七人数据：恨我&但我就是优秀 事实如此",
        "docid": "7324042241230651904",
        "url": ""
    },
    {
        "title": "尘埃落定！郭艾伦17点40自宣登上央视春晚+感叹 晚上20点不见不散",
        "docid": "7333544707014476340",
        "url": ""
    },
    {
        "title": "1946年NBA成立至今，10支球队至今0冠，谁能率先打破无冠魔咒？",
        "docid": "7313905536133857827",
        "url": ""
    },
    {
        "title": "工业大摸底：钓鱼佬硬生生把鱼竿厂逼成军工供应商，公司老总懵了",
        "docid": "7314285761526858276",
        "url": ""
    },
    {
        "title": "哈登作为历史第一双能卫 09年选秀仅排第3，那前2都是谁？",
        "docid": "7302689997604274729",
        "url": ""
    },
    {
        "title": "🙌防守悍将！官方：雄鹿正式交易得到贝弗利！",
        "docid": "7333426386784600612",
        "url": ""
    },
    {
        "title": "《世界名画》：詹姆斯此刻内心在想些什么？",
        "docid": "7303564582205882907",
        "url": ""
    },
    {
        "title": "詹姆斯：掘金比我们投进了更多的球 他们因此获得了胜利",
        "docid": "7333494461038936615",
        "url": ""
    },
    {
        "title": "身体单薄的国产金左脚，因性格问题被国足弃用，却因性格逃过大劫",
        "docid": "7333586519238001206",
        "url": ""
    },
    {
        "title": "杭州体育局：阿根廷足球队3月杭州友谊赛取消",
        "docid": "7333601122597552690",
        "url": ""
    },
    {
        "title": "正式达成！一夜三笔交易，湖人重启谈判，两支争冠球队恐难有作为",
        "docid": "7333525052837184037",
        "url": ""
    },
    {
        "title": "马龙：阿隆-戈登是我们本场防守最佳球员 小波特防守也很棒",
        "docid": "7333475809040220706",
        "url": ""
    },
    {
        "title": "吉新鹏：中国羽坛首位男单奥运冠军，25岁无奈退役，娶打工妹被嘲",
        "docid": "7318218790897107508",
        "url": ""
    },
    {
        "title": "广东宏远五虎上将退役后都在干什么？杜4朱8留守，陈6王7易9呢",
        "docid": "7314008870857523724",
        "url": ""
    },
    {
        "title": "全明星技巧赛：哈利伯顿东道主队 爱德华兹状元队 杨全明星队",
        "docid": "7333379924923154978",
        "url": ""
    },
    {
        "title": "😅富尼耶终于被尼克斯交易！武器打趣：富尼耶现在状态 自由！",
        "docid": "7333300391808959002",
        "url": ""
    },
    {
        "title": "记者：第一次看到写“众所周知”的原因，再见了，梅球王",
        "docid": "7333601543058457142",
        "url": ""
    },
    {
        "title": "一将无能，累死三军！",
        "docid": "7333554297134809638",
        "url": ""
    },
    {
        "title": "只有NBA老球迷才知道，这位巨星到底是谁？",
        "docid": "7322090342823051787",
        "url": ""
    },
    {
        "title": "宋主席没说错，建国前和初，男足并不差，曾经拿到9连冠和3个冠军",
        "docid": "7316118761734488602",
        "url": ""
    },
    {
        "title": "不可思议的象棋比赛作弊，什么叫肛珠作弊？",
        "docid": "7316805220271489562",
        "url": ""
    },
    {
        "title": "足球巨星:迪马利亚的辉煌职业生涯和奢华生活！",
        "docid": "7328089532442722854",
        "url": ""
    },
    {
        "title": "中超热点！河南队豪华引援曝光，十大新援引爆球迷狂热！",
        "docid": "7333577452440093223",
        "url": ""
    },
    {
        "title": "世界足坛历史最佳阵容（一阵～五阵）",
        "docid": "7302276197927633448",
        "url": ""
    },
    {
        "title": "王楚钦新春发文有深意？配图马上被网友扒了个底朝天",
        "docid": "7333569149140124186",
        "url": ""
    },
    {
        "title": "霍启刚：对梅西未出场非常失望，香港市民应得到道歉",
        "docid": "7331824047044477503",
        "url": ""
    },
    {
        "title": "欧洲足坛疯狂夜：德布劳内为曼城抢得宝贵3分，豪取9连胜",
        "docid": "7333517423154627106",
        "url": ""
    },
    {
        "title": "大手笔！曝NBA级超外加盟新疆男篮，特莱斯被放弃，邱彪不留情面",
        "docid": "7333411238157959721",
        "url": ""
    },
    {
        "title": "李梦、韩旭领衔中国女篮阵容，春节期间为奥运席位而战",
        "docid": "7332748267446616588",
        "url": ""
    },
    {
        "title": "压哨！曝勇士将约瑟夫送到步行者 换回次轮签+现金",
        "docid": "7333381641651601972",
        "url": ""
    },
    {
        "title": "足球规则重大变化？未来或加入蓝牌处罚，球员离场10分钟",
        "docid": "7333522038185476642",
        "url": ""
    },
    {
        "title": "加盟独行侠！PJ-华盛顿转发官宣推特：🉑🉑",
        "docid": "7333417036036489767",
        "url": ""
    },
    {
        "title": "为何NBA几乎是被黑人球员统治？我用5张照片 告诉你原因",
        "docid": "7328231387084096019",
        "url": ""
    },
    {
        "title": "哈姆谈科比将拥有三座雕像：他当之无愧 我对他有特别的感觉",
        "docid": "7333413513261646388",
        "url": ""
    },
    {
        "title": "女神伊一：奔跑的人生，就是平平淡淡地坚持！",
        "docid": "7320127049207956003",
        "url": ""
    },
    {
        "title": "背后的故事：特首握手遭拒、梅西悠闲散步和主办方撤回资助",
        "docid": "7333600126277042688",
        "url": ""
    },
    {
        "title": "NBA榜眼的成材率也太吓人了吧，二十多年就出了一个巨星",
        "docid": "7301164103626752531",
        "url": ""
    },
    {
        "title": "他曾是国足头号射手，与空姐妻子离婚，独自抚养儿子，47岁仍单身",
        "docid": "7332364919633576484",
        "url": ""
    },
    {
        "title": "🤔美媒对比罚球出手数：掘金7-22湖人 而掘金赢了8分",
        "docid": "7333472836356866601",
        "url": ""
    },
    {
        "title": "末节真尽力了！海斯末节多次拼下前场板&全场贡献9分6板1助1断2帽",
        "docid": "7333471478266216979",
        "url": ""
    },
    {
        "title": "官宣：阿根廷队3月来华比赛取消",
        "docid": "7333621529684804133",
        "url": ""
    },
    {
        "title": "刘美君入选，张常宁无缘，中国女排22人集训名单预测",
        "docid": "7332784889173082624",
        "url": ""
    },
    {
        "title": "（游泳世锦赛）（25）花样游泳——中国队获集体自由自选冠军",
        "docid": "7333613606548095526",
        "url": ""
    },
    {
        "title": "官方：2026年世界杯将于6月11日开幕，7月19日闭幕",
        "docid": "7331867835104297510",
        "url": ""
    },
    {
        "title": "CBA本赛季最“失意”的十名“上将”",
        "docid": "7332505835932811791",
        "url": ""
    },
    {
        "title": "NBA选秀不会选怎么办，那就跟在森林狼后面选吧",
        "docid": "7301172836486398518",
        "url": ""
    },
    {
        "title": "土豪线上的球队不能签乔哈丁威迪洛瑞小莫等球员：勇士快船在列",
        "docid": "7333327731188580879",
        "url": ""
    },
    {
        "title": "Woj：东契奇对交易得到PJ-华盛顿非常热情 这能帮球队走得更远",
        "docid": "7333386131918094875",
        "url": ""
    },
    {
        "title": "除夕夜国乒包饺子！孙颖莎有模有样，王曼昱、王楚钦明显喝大了",
        "docid": "7333595338231939635",
        "url": ""
    },
    {
        "title": "💌孙杨晒与妻子张豆豆合照：愿大家所求皆如愿，所行皆坦途",
        "docid": "7333510887548649984",
        "url": ""
    },
    {
        "title": "杭州体育局：鉴于众所周知的原因，阿根廷足球队3月份来杭州友谊赛取消",
        "docid": "7333600857742721575",
        "url": ""
    },
    {
        "title": "交易汇总：太阳7换2，勇士压哨2换1，贝弗利被交易，湖人太意外",
        "docid": "7333383278432436747",
        "url": ""
    },
    {
        "title": "106-117！哈登19+8难救主，快船不敌鹈鹕4连胜终结，让出西部榜首",
        "docid": "7333440167073940022",
        "url": ""
    },
    {
        "title": "闹大了！美国CNN都看不下去了，梅西无奈道歉，可日本他又被打脸",
        "docid": "7332612084389429760",
        "url": ""
    },
    {
        "title": "李晓旭晒全家欢！儿子张大嘴展兴奋，妻子开心，全家和睦过大年！",
        "docid": "7333500795930886706",
        "url": ""
    },
    {
        "title": "最近状态正盛！迪文岑佐近6场场均贡献29.1分4.3篮板4助攻",
        "docid": "7333433626714964520",
        "url": ""
    },
    {
        "title": "徐杰女友晒二人合照：一月的照片二月发吧🫥",
        "docid": "7332726800725951016",
        "url": ""
    },
    {
        "title": "掘金队114-106湖人队 本场比赛：4大不可思议，3个不争事实。",
        "docid": "7333524262726763035",
        "url": ""
    },
    {
        "title": "为什么NBA不好看了",
        "docid": "7312647588497408553",
        "url": ""
    },
    {
        "title": "为啥有些人打麻将总输？这不经意间4个习惯，钱可能就进了别人兜",
        "docid": "7317167251680117282",
        "url": ""
    },
    {
        "title": "朱大娘：打麻将38年从未败过，只因这8招，不外传技巧",
        "docid": "7333437786818921011",
        "url": ""
    },
    {
        "title": "这个国家曾很富有，却因举办奥运会欠下100亿债务，还了整整十年",
        "docid": "7322008784136815145",
        "url": ""
    },
    {
        "title": "奥尼尔谈克莱：时间老人对谁都一样 除了还搁那儿扣篮的某人",
        "docid": "7332754069355872768",
        "url": ""
    },
    {
        "title": "被迫三节打卡！字母哥14中7得到17分3板7助3失误 正负值-18",
        "docid": "7333437758834852362",
        "url": ""
    },
    {
        "title": "田亮女儿获网球世界排名暂列2822位，体二代中表现最优秀未来可期",
        "docid": "7331376072044315155",
        "url": ""
    },
    {
        "title": "历史父子档得分TOP9：科比父子与水花父子包揽前三",
        "docid": "7307766961268638245",
        "url": ""
    },
    {
        "title": "那个因为颜值高，被富婆倒追的奥运冠军，后来过得怎么样？",
        "docid": "7309810490673578547",
        "url": ""
    },
    {
        "title": "“亚洲第一中锋”尹志强：宠了米雪26年，一生未婚未育，53岁病逝",
        "docid": "7330916675207987721",
        "url": ""
    },
    {
        "title": "快哭了？日本出局后，森保一受访数次哽咽！遭狂喷：无能，快下课",
        "docid": "7331373423945663011",
        "url": ""
    },
    {
        "title": "NBA35岁后单场得分30+次数排行榜！第一名你能想到是谁吗？",
        "docid": "7299084415781749248",
        "url": ""
    },
    {
        "title": "2021年，仙女湖一条134斤的大青鱼被人钓走后，湖里大青鱼还有吗",
        "docid": "7296315944555774474",
        "url": ""
    },
    {
        "title": "😈库明加今日9个进球7个是扣篮 一场扣篮数顶库里一年！",
        "docid": "7333520470057140755",
        "url": ""
    },
    {
        "title": "中产的游戏：滑一次雪到底有多“烧钱”？",
        "docid": "7333678487275930112",
        "url": ""
    },
    {
        "title": "两届奥运冠军冼东妹，有新职",
        "docid": "7333551090585567784",
        "url": ""
    },
    {
        "title": "注册球员仅6500人？卡塔尔足球何以走向亚洲之巅",
        "docid": "7333562241520927267",
        "url": ""
    },
    {
        "title": "Woj：猛龙送出施罗德+杨 从篮网得到丁维迪",
        "docid": "7333375542026109481",
        "url": ""
    },
    {
        "title": "刘大娘：打麻将口袋里放7粒米，30年麻将经验从未输过，太旺了",
        "docid": "7332097969506124297",
        "url": ""
    },
    {
        "title": "CBA控卫风云榜！孙铭徽爆砍40分，得分王坐稳江山",
        "docid": "7333532860512551424",
        "url": ""
    },
    {
        "title": "1支中甲，2支中乙！江西首现3支职业队，10万小县城或现同城德比",
        "docid": "7332662660619616780",
        "url": ""
    },
    {
        "title": "龙腾狮舞孟菲斯尽显中国元素，NBA赛场欢庆中国年",
        "docid": "7333473586516525583",
        "url": ""
    },
    {
        "title": "湖人达成交易截止日前目标！感谢拉塞尔的牺牲，你再次拯救了湖人",
        "docid": "7333401189666947635",
        "url": ""
    },
    {
        "title": "3笔大交易达成！森林狼如愿以偿，活塞得意大利炮，绿军继续捡漏",
        "docid": "7333472800495370803",
        "url": ""
    },
    {
        "title": "前女篮队长苗立杰：33岁退役嫁给1米78军官，36岁生女儿后又复出",
        "docid": "7301231412227965477",
        "url": ""
    },
    {
        "title": "杭州体育局：阿根廷国家队3月来华比赛取消",
        "docid": "7333618820046750219",
        "url": ""
    },
    {
        "title": "詹姆斯-哈登：NBA历史上最全能的得分手？",
        "docid": "7333571278105772607",
        "url": ""
    },
    {
        "title": "1000胜有多难？NBA至今3人做到 詹姆斯成现役天花板",
        "docid": "7303791433268544036",
        "url": ""
    },
    {
        "title": "“郭晶晶好闺蜜”吴敏霞：拒绝霍启山后，转头嫁给了一个普通男人",
        "docid": "7302741891752657460",
        "url": ""
    },
    {
        "title": "女排名将赵蕊蕊：身高1米97，想找比自己高的男友，至今仍单身",
        "docid": "7303491396537860642",
        "url": ""
    },
    {
        "title": "三镇离队外援现状！鄂媒：8人离开三镇被哄抢，最典型的是泰山",
        "docid": "7333444944927228479",
        "url": ""
    },
    {
        "title": "皇马对阵赫罗纳大名单：维尼修斯、吕迪格在列，纳乔缺席",
        "docid": "7333587104482165275",
        "url": ""
    },
    {
        "title": "速度真快！马尚刚离队，朱芳雨锁四五号位摇摆人，属空间型内线！",
        "docid": "7332744224133087782",
        "url": ""
    },
    {
        "title": "19年国羽名宿患癌离世，曾弃绿卡卖别墅回国效力，逝前留下2遗愿",
        "docid": "7332418028833210918",
        "url": ""
    },
    {
        "title": "傅海峰：真是羽坛的第一个卫冕男子双奥运冠军的运动员",
        "docid": "7330894355596952115",
        "url": ""
    },
    {
        "title": "曼联重回正轨，三大变化，弃用亿元先生，滕哈格找到最佳阵容！",
        "docid": "7333221719085777444",
        "url": ""
    },
    {
        "title": "打麻将掌握“三不打”“三不碰”原则，可以轻松赢牌。",
        "docid": "7303705537764786703",
        "url": ""
    },
    {
        "title": "揭秘了！米兰冬奥吉祥物是一对“龙凤胎”",
        "docid": "7333556300272124435",
        "url": ""
    },
    {
        "title": "一辆独轮车，一摞白瓷碗，这个女人从山西“骑”到了NBA。",
        "docid": "7324362215442792979",
        "url": ""
    },
    {
        "title": "湖人三连榜眼选中的三名球员如今身在何方",
        "docid": "7305994578698453556",
        "url": ""
    },
    {
        "title": "打下122分，掀翻北控队！西热怒吼宣泄，同曦杀进季后赛不是梦",
        "docid": "7333512133767971362",
        "url": ""
    },
    {
        "title": "女排阵容已定！李盈莹迎来老搭档，三位新生代要上位，张常宁悬了",
        "docid": "7331308585219588617",
        "url": ""
    },
    {
        "title": "杨毅谈老里永不失业：快船斯特林事件中 他成为联盟的黑人领袖",
        "docid": "7332830888495251968",
        "url": ""
    },
    {
        "title": "2018年，前女足国脚张欧影病逝美国：临终前丈夫为其换上7号球衣",
        "docid": "7300973460556202534",
        "url": ""
    },
    {
        "title": "法国队展现东道主风范，奥运女篮资格赛中国赛区首战",
        "docid": "7333467520239829530",
        "url": ""
    },
    {
        "title": "你们相信吗？打麻将不需要技术和运气就能赢",
        "docid": "7316198134215213594",
        "url": ""
    },
    {
        "title": "阿根廷博主：中国人不理解梅西因伤缺阵，他们不配看梅西比赛",
        "docid": "7333633435623850532",
        "url": ""
    },
    {
        "title": "李娜和姜山的爱情故事，14岁就喜欢上姜山，因为他让我相信爱情",
        "docid": "7325338254541570579",
        "url": ""
    },
    {
        "title": "2023收入最高运动员：C罗第一，篮球勒布朗第一，足篮各4人进前10",
        "docid": "7333315982594671116",
        "url": ""
    },
    {
        "title": "94梦二之殇，三个野兽前锋都是天才，却巅峰期集体坠落",
        "docid": "7302339707306820148",
        "url": ""
    },
    {
        "title": "斯波的逆袭：1995年-热火录像协调员 2024年-历史教练最大合同",
        "docid": "7322305749643510313",
        "url": ""
    },
    {
        "title": "穆铁柱去世13年妻儿现状：儿女都不高都是上班族，妻子不再住平房",
        "docid": "7318330361279742498",
        "url": ""
    },
    {
        "title": "冰雪运动走红，眼科医生：玩雪、看雪，都需要警惕“雪盲症”",
        "docid": "7333586769721901595",
        "url": ""
    },
    {
        "title": "15年，东北小伙娶1.97米女篮巨人，公婆很喜欢：为儿媳拆掉房门！",
        "docid": "7317108460867371546",
        "url": ""
    },
    {
        "title": "糖糖：CBA啦啦队的璀璨明珠，神似孟子义，无数球迷心中的女神",
        "docid": "7333133853822829107",
        "url": ""
    },
    {
        "title": "伦纳德、詹姆斯和杜兰特，不看荣誉，只谈实力，这三人如何排名？",
        "docid": "7332398344205189642",
        "url": ""
    },
    {
        "title": "看看射手榜第一名和第二名差几个球，就知道欧洲哪个联赛最无聊了",
        "docid": "7331610056284570166",
        "url": ""
    },
    {
        "title": "世界杯上零进球的四大巨星",
        "docid": "7321006014097130022",
        "url": ""
    },
    {
        "title": "2024奥运门票倒计时！明日女篮大战法国队!若取胜将直取奥运门票",
        "docid": "7333570479825027638",
        "url": ""
    },
    {
        "title": "“亚洲蝶后”周雅菲：嫁给CBA二婚男，如今儿女双全堪称人生赢家",
        "docid": "7317594991038677555",
        "url": ""
    },
    {
        "title": "\"谷爱凌，从雪道到商业巨头：新晋保时捷全球代言人\"",
        "docid": "7332774833618485823",
        "url": ""
    },
    {
        "title": "CBA最大赢家出世，新疆不幸落榜，黑马来了",
        "docid": "7332423159154688527",
        "url": ""
    },
    {
        "title": "33岁刘诗雯大秀傲人身材，生活自律定期锻炼，相貌越来越漂亮！",
        "docid": "7333133824572228147",
        "url": ""
    },
    {
        "title": "毛剑卿：梅西每次都是选择有钱的球队，他的性格让他成不了球王，也无法代表阿根廷足球",
        "docid": "7332761255440384524",
        "url": ""
    },
    {
        "title": "C罗中国行道歉视频再上热搜，球迷：不愧是逆境之王，这都能翻盘",
        "docid": "7333117035754766883",
        "url": ""
    },
    {
        "title": "唆使小球员“照着人踢”，处罚来了",
        "docid": "7333414664203944502",
        "url": ""
    },
    {
        "title": "笑麻了，全红婵2天拿2金牌冲上热搜，我却笑死在了网友评论区",
        "docid": "7333117229711753780",
        "url": ""
    },
    {
        "title": "欧米尔·阿西克生涯简历",
        "docid": "7322044797882401280",
        "url": ""
    },
    {
        "title": "890万，再见火箭！休城选错了核心，他在天赋态度方面都不达标",
        "docid": "7333504689142514228",
        "url": ""
    },
    {
        "title": "C罗点赞球迷喊“梅西”起哄：这份心胸与气度就远胜梅西！",
        "docid": "7333582181246190116",
        "url": ""
    },
    {
        "title": "高度自律NBA退役球星和放纵型球星对比，后者不敢直视。",
        "docid": "7307122550880961087",
        "url": ""
    },
    {
        "title": "33岁刘诗雯大秀傲人身材，生活自律定期锻炼，相貌越来越漂亮！",
        "docid": "7331352989925605923",
        "url": ""
    },
    {
        "title": "低配版布里奇斯！恭喜湖人迎来3D锋线，对掘金又多了一份胜算",
        "docid": "7333425470542889481",
        "url": ""
    },
    {
        "title": "NBA面相最老实的人也被戴绿帽子，老婆养脱衣舞男，还花的自己钱",
        "docid": "7300905970455282195",
        "url": ""
    },
    {
        "title": "“只要我愿意，我能打1到5号位”，NBA真有4人敢这样说",
        "docid": "7328278964445741622",
        "url": ""
    },
    {
        "title": "腿腿生风 拳拳到肉 ！NBA历史五大球场冲突：欧文暴揍大鸟",
        "docid": "7302089060020126223",
        "url": ""
    },
    {
        "title": "斯诺克147杆数排行榜、满分杆全记录，囧哥第5杆，福德两成背景板",
        "docid": "7332477086911398409",
        "url": ""
    },
    {
        "title": "TJD：勒布朗是我最喜欢的球员之一 威少是我的最爱",
        "docid": "7330046392037524004",
        "url": ""
    },
    {
        "title": "“我才刚出汗，你已经累趴了”，盘点NBA公认的5大体力怪",
        "docid": "7319695252154270227",
        "url": ""
    },
    {
        "title": "好消息啊！能交易！有人要威金斯",
        "docid": "7332322098507039247",
        "url": ""
    },
    {
        "title": "4年1.28亿美金！4年1.2亿美金！海沃德步步为营，乔丹却别无选择",
        "docid": "7332127688045740578",
        "url": ""
    },
    {
        "title": "当邓肯退役后，没人再拿波波维奇对比禅师，这就是差距",
        "docid": "7315214350191559222",
        "url": ""
    },
    {
        "title": "NBA未来5年，超巨必在这5人中产生",
        "docid": "7332365339248214579",
        "url": ""
    },
    {
        "title": "为梅西投票107名队长：凯恩、姆巴佩、萨拉赫、孙兴慜、吴曦在列",
        "docid": "7324463666093933096",
        "url": ""
    },
    {
        "title": "盘点国足的漂亮妻子们：球踢得差，奈何太赚钱，老婆个个花枝招展",
        "docid": "7329030572565611048",
        "url": ""
    },
    {
        "title": "最美门将登上“浪姐”舞台，退役后的她是记者也是模特、博主、歌手……",
        "docid": "7333145706355671603",
        "url": ""
    },
    {
        "title": "巴黎奥运奖牌亮相",
        "docid": "7333190501673239077",
        "url": ""
    },
    {
        "title": "比鲤鱼还难吃？钓鱼佬眼中最难吃的5种鱼，白给都不想要",
        "docid": "7332138728569700898",
        "url": ""
    },
    {
        "title": "外国网友是如何看待梅西香港之行的？丝毫不意外，这就是他的嘴脸",
        "docid": "7332859998362419750",
        "url": ""
    },
    {
        "title": "随着现代足球的发展 这三种类型的球员几乎已经绝迹了",
        "docid": "7329891430556877362",
        "url": ""
    },
    {
        "title": "看了郭艾伦韩德君的微信交流，才发现辽篮请回杨鸣执教的真正原因",
        "docid": "7333082670471512627",
        "url": ""
    },
    {
        "title": "詹姆斯绝平三分有没有踩线？放大回看：站定没踩，起跳踩了1毫米",
        "docid": "7318602803898122762",
        "url": ""
    },
    {
        "title": "两耳不闻球场事！小洛佩斯在雄鹿场边看书看了一整场",
        "docid": "7333438774002647588",
        "url": ""
    },
    {
        "title": "马布里评梅西缺阵：拿钱不出场太疯狂 原以为贝克汉姆懂这里文化",
        "docid": "7333151387989312035",
        "url": ""
    },
    {
        "title": "NBA史上臀部最大的球员TOP10，詹姆斯勉强上榜，榜首天下无敌",
        "docid": "7319763154551259700",
        "url": ""
    },
    {
        "title": "谢杏芳与林丹现身香港，两人恩爱如初，一切仿佛回到了从前！",
        "docid": "7332599662748254772",
        "url": ""
    },
    {
        "title": "明星与豪门阶级差，刘嘉玲夫妻逃不出底层，霍启刚一句话撼动两界",
        "docid": "7332775550358553123",
        "url": ""
    },
    {
        "title": "这璀璨的板凳！03年皇马中国行，下场休息的劳尔 小贝 菲戈 大罗",
        "docid": "7332790145009123859",
        "url": ""
    },
    {
        "title": "肖恩马里昂，那个如同僵尸打摆罚篮的糙汉，居然买下一支球队",
        "docid": "7324326288347710002",
        "url": ""
    },
    {
        "title": "奥莱报：阿根廷3月份两场热身赛地点更改首选美国",
        "docid": "7333736403760824895",
        "url": ""
    },
    {
        "title": "快船哥们四个里，对冠军最无所谓就是泡椒，最需要大合同也是泡椒",
        "docid": "7333477916610708022",
        "url": ""
    },
    {
        "title": "明明只是球队二号球星，作用却比当家球星更重要的五位球星！",
        "docid": "7333018789858132491",
        "url": ""
    },
    {
        "title": "被誉为乌克兰最美冠军，为爱改变国籍嫁到中国，37岁生二胎很圆满",
        "docid": "7331325420148949539",
        "url": ""
    },
    {
        "title": "几年前他从未想过能打NBA，但现在他是联盟最强五人组成员",
        "docid": "7333024691294192147",
        "url": ""
    },
    {
        "title": "意外！他突然承认有中国血统",
        "docid": "7311593297070359080",
        "url": ""
    },
    {
        "title": "赵继伟晒喜庆迎春照：2024🧨欢天喜地过大年🎉祝大家新年快乐",
        "docid": "7333622248403649035",
        "url": ""
    },
    {
        "title": "江苏队历届主教练执教胜率如何？",
        "docid": "7320618630918472226",
        "url": ""
    },
    {
        "title": "TA：阿根廷足协未取消与尼日利亚＆科特迪瓦比赛 考虑其他地方",
        "docid": "7333664178042831360",
        "url": ""
    },
    {
        "title": "多哈世锦赛中国跳水队收获一金一铜",
        "docid": "7331774021644190219",
        "url": ""
    },
    {
        "title": "马龙：幸福喽！爱妻二儿三餐四季，马主任生活上也是“全满贯”",
        "docid": "7332284984226497078",
        "url": ""
    },
    {
        "title": "鹈鹕江湖再起！麦科勒姆飙分超神表现 鹰眼24秒逆袭快船",
        "docid": "7333180161044906536",
        "url": ""
    },
    {
        "title": "“常青树”凯文-威利斯，效力21载，45岁还复出",
        "docid": "7310119498249339427",
        "url": ""
    },
    {
        "title": "丢了，丢了，中国足坛又传丑闻，球员群殴教练后逃逸，警方已介入",
        "docid": "7332139873165459978",
        "url": ""
    },
    {
        "title": "现在的火箭，很像弗朗西斯单核带队最出色的那年",
        "docid": "7301105659917976116",
        "url": ""
    },
    {
        "title": "香港特区政府是否会拒绝梅西入境？香港入境处处长回应",
        "docid": "7333160850242880035",
        "url": ""
    },
    {
        "title": "高敏、伏明霞、郭晶晶、陈若琳，四代“跳水女皇”谁最强？",
        "docid": "7301288400294838819",
        "url": ""
    },
    {
        "title": "38岁奥运冠军菲尔普斯：苍老憔悴似60岁，在家人的陪伴下病情好转",
        "docid": "7300856710774735375",
        "url": ""
    },
    {
        "title": "五大联赛加中超球队队标，“赛亚人版”，真的帅",
        "docid": "7321633645809156634",
        "url": ""
    },
    {
        "title": "奥预赛最新战报：81比75，欧洲黑马爆大冷，匈牙利女篮逆转日本",
        "docid": "7333566967095755274",
        "url": ""
    },
    {
        "title": "教科书操作！男子打球时“心肌梗塞”， 温州00后大学生救下一条命",
        "docid": "7333450330346455563",
        "url": ""
    },
    {
        "title": "开拓者：夏普成功接受手术 六周后进行重新评估",
        "docid": "7333743918837793292",
        "url": ""
    },
    {
        "title": "中国花滑冠军夫妻近况：赵宏博头发斑白，申雪保养得当、风姿不减",
        "docid": "7324636655741927977",
        "url": ""
    },
    {
        "title": "梅西事件所引发的连锁反应",
        "docid": "7333112035716186639",
        "url": ""
    },
    {
        "title": "当年，踢中卫的范志毅临时改踢前锋为何能夺得95年甲A金靴？",
        "docid": "7307464385910702630",
        "url": ""
    },
    {
        "title": "不好找对象？中国女篮名将持续单身，2.01米重200斤，确实",
        "docid": "7333277821651370537",
        "url": ""
    },
    {
        "title": "\"除夕夜国乒的别样庆生：王曼昱生日会现场直击\"",
        "docid": "7333615204082745907",
        "url": ""
    },
    {
        "title": "刘璇育儿比教练还严格:儿子4岁前不吃一粒盐，9岁前不吃糖",
        "docid": "7323786868825702947",
        "url": ""
    },
    {
        "title": "“乒坛大魔王”邓亚萍，丈夫身居高位，儿子成绩让她意外",
        "docid": "7329694633750168118",
        "url": ""
    },
    {
        "title": "NBA截止日交易及后续裁员汇总",
        "docid": "7333512022045295167",
        "url": ""
    },
    {
        "title": "下一个崔永熙？广厦第6巨头进国家队，风头超孙铭徽，老乔敢用人",
        "docid": "7333427722749805091",
        "url": ""
    },
    {
        "title": "打破奥拉朱旺3830盖帽纪录有多难？让我们来深入探讨一下！",
        "docid": "7333747688447787555",
        "url": ""
    },
    {
        "title": "名人跑马拉松大比拼：你能超越他们的成绩吗？",
        "docid": "7333123220692255283",
        "url": ""
    },
    {
        "title": "21世纪NBA十大MVP排行榜：科比仅列第九，杜兰特第六，詹姆斯第二",
        "docid": "7326044989745070618",
        "url": ""
    },
    {
        "title": "特雷杨37+12奥孔古21+8 老鹰胜费城",
        "docid": "7333803560435728905",
        "url": ""
    },
    {
        "title": "他单手抓篮球就如我单手抓橙子，盘点NBA的大手怪。乔丹字母奥胖",
        "docid": "7319053967248982578",
        "url": ""
    },
    {
        "title": "梅西风波后首次更新社媒，是一条啤酒广告",
        "docid": "7333628441533399591",
        "url": ""
    },
    {
        "title": "港媒：梅西在日本赛场健步如飞，霍启山促请主办方给球迷一个交代",
        "docid": "7333018284150948352",
        "url": ""
    },
    {
        "title": "媒体人：别急着准备来看阿根廷杭州行，这不是猜测而是...",
        "docid": "7332839912208876041",
        "url": ""
    },
    {
        "title": "结束了！太阳7换2！雷霆4换1！最无趣的NBA交易截止日",
        "docid": "7333565208777392666",
        "url": ""
    },
    {
        "title": "怂了？梅西大批粉丝脱粉，被霍启刚怒批后，首度解释未参赛原因",
        "docid": "7333109399122362892",
        "url": ""
    },
    {
        "title": "身高只有1.6米，比普通人还矮的博格斯，为何能在NBA打14年？",
        "docid": "7323010805254537728",
        "url": ""
    },
    {
        "title": "足球前锋的十大类型",
        "docid": "7327283054278574646",
        "url": ""
    },
    {
        "title": "奥卡福：究竟得罪了谁？出道即巅峰却被球队雪藏，最后被时代淘汰",
        "docid": "7317276387407774208",
        "url": ""
    },
    {
        "title": "不出意外的话，巴黎奥运会的最强五人首发球员，来看看都有谁",
        "docid": "7332111307363058191",
        "url": ""
    },
    {
        "title": "90后江苏小伙做面包得世界冠军，获奖面包有400个配件，主题为疯狂动物城",
        "docid": "7301514656043090466",
        "url": ""
    },
    {
        "title": "85年马龙仅第13顺位被选中，他前面12人都是谁？生涯成就如何",
        "docid": "7331216106239328779",
        "url": ""
    },
    {
        "title": "\"中国足球的骄傲：王霜英超首秀成绩斐然\"",
        "docid": "7333612042379493898",
        "url": ""
    },
    {
        "title": "梅西香港友谊赛排场太大！李泽楷何超琼名流云集",
        "docid": "7331998850179220031",
        "url": ""
    },
    {
        "title": "每体：恩佐想离开切尔西并渴望效力巴萨，通过经纪人向巴萨自荐",
        "docid": "7333684531502809611",
        "url": ""
    },
    {
        "title": "她曾自认实力不输王楠，却被王楠退役前给上了一课，错失上位良机",
        "docid": "7307902296699060790",
        "url": ""
    },
    {
        "title": "拼命三郎“范德彪”，杀不死他的会让他更强大",
        "docid": "7331682213794775591",
        "url": ""
    },
    {
        "title": "36分、34分、27分、25分！CBA最被低估的后卫，24岁未来可期",
        "docid": "7332197349898568230",
        "url": ""
    },
    {
        "title": "44岁前女篮队长隋菲菲：曾和王治郅传绯闻，坐拥上校军衔却仍单身",
        "docid": "7301118656304857627",
        "url": ""
    },
    {
        "title": "足球解说员贺伟：感恩在央视遭冷遇的5年，让我变成了“诗人”",
        "docid": "7315658957719585330",
        "url": ""
    },
    {
        "title": "奥尼尔97年加盟湖人，到2000年夺冠，中间这3年季后赛都输给了谁",
        "docid": "7309835652131275279",
        "url": ""
    },
    {
        "title": "他暴打成龙，脚踹李连杰，把拳王周比利打到送医院",
        "docid": "7301289276518531594",
        "url": ""
    },
    {
        "title": "都说钓鱼佬除了鱼，什么都能钓起来？",
        "docid": "7314549994760061450",
        "url": ""
    },
    {
        "title": "老公生日，买辆捷安特 ATX8送给他",
        "docid": "7302709035764072979",
        "url": ""
    },
    {
        "title": "诺维茨基14次参加全明星赛，都是替补",
        "docid": "7330832533665727010",
        "url": ""
    },
    {
        "title": "亚洲的贝克汉姆？既拿助攻王，两个妻子同一个屋檐，妥妥赢家",
        "docid": "7332378645920858674",
        "url": ""
    },
    {
        "title": "阿根廷国家队3月份要来中国。球迷：支持霍家、马岛是英国的",
        "docid": "7332736913415160360",
        "url": ""
    },
    {
        "title": "逢4不打7是什么意思，麻将高手这样解释，很简单",
        "docid": "7312320063963595298",
        "url": ""
    },
    {
        "title": "湖人鹈鹕上半场共轰下161分 创联盟近10年上半场得分新高！",
        "docid": "7333830622027612687",
        "url": ""
    },
    {
        "title": "梅西要来北京比赛？北京足协声明",
        "docid": "7333838098873319986",
        "url": ""
    },
    {
        "title": "西热力江带家人在泰国过年，妻子太抢眼，儿女双全，和威姆斯合影",
        "docid": "7333785798082363915",
        "url": ""
    },
    {
        "title": "25岁“最性感运动员”惹关注，月薪700欧，却也敢拒绝六位数合同",
        "docid": "7333518401581236771",
        "url": ""
    },
    {
        "title": "凯尔·科沃尔生涯简历",
        "docid": "7267534377511698944",
        "url": ""
    },
    {
        "title": "羽坛名将李宗伟：36岁患癌喉咙全烂，花1000万续命，如今怎样了？",
        "docid": "7313777827474948643",
        "url": ""
    },
    {
        "title": "成都男神李伯清，另一个身份—皇家贝里斯足球俱乐部的主席",
        "docid": "7320826589963420211",
        "url": ""
    },
    {
        "title": "🤔后悔不？老鹰2018年选中东契奇但与独行侠交易换来特雷-杨",
        "docid": "7328604421296800271",
        "url": ""
    },
    {
        "title": "倪夏莲真是一个奇迹，入籍卢森堡，在丈夫帮助下60岁还能拿冠军！",
        "docid": "7331148615462699571",
        "url": ""
    },
    {
        "title": "腹股沟受伤后的6位世界级球星：有人坚持上场，有人休战数周，有人长期被困扰",
        "docid": "7333137377071809034",
        "url": ""
    },
    {
        "title": "蔡斯·巴丁格生涯简历",
        "docid": "7279447679657116212",
        "url": ""
    },
    {
        "title": "“泥鳅钓鱼”为何会被禁止？它的危害有多大？真能钓空一个水库？",
        "docid": "7302695534182466074",
        "url": ""
    },
    {
        "title": "女排名帅陈忠和：再婚娶女排弟子为妻，如今已经退休携妻回归家庭",
        "docid": "7314172335500968500",
        "url": ""
    },
    {
        "title": "22届选秀前三杰表现如何，哪一个未来上限更高呢？",
        "docid": "7331406376641757707",
        "url": ""
    },
    {
        "title": "男篮名宿李楠：妻子43岁为他生娃，儿子征战CBA，49岁赋闲在家",
        "docid": "7312758868960920103",
        "url": ""
    },
    {
        "title": "男篮巩晓彬近况：54岁依旧很帅，财富自由，儿子拜师伊巴卡",
        "docid": "7314693437947855423",
        "url": ""
    },
    {
        "title": "没想到😂中日韩最后只有韩国没进亚洲杯决赛🤣",
        "docid": "7333144217642369545",
        "url": ""
    },
    {
        "title": "NBA西部排名又乱了！爵士甩开火箭，5-7名竞争激烈，快船创新纪录",
        "docid": "7331976641339490828",
        "url": ""
    },
    {
        "title": "盘点世界体坛15神颜（中国外）",
        "docid": "7309355423814451762",
        "url": ""
    },
    {
        "title": "人生赢家!50岁谢晖二婚迎娶34岁俄罗斯超模,育有1子1女生活甜蜜",
        "docid": "7333114459000881701",
        "url": ""
    },
    {
        "title": "追梦网球赛场：中国选手张之臻郑钦文徐一璠的挑战与希望",
        "docid": "7333849113160761906",
        "url": ""
    },
    {
        "title": "谁说胖子注定被NBA淘汰？这5位胖子若组队 可以直接颁奖了",
        "docid": "7302272342104130084",
        "url": ""
    },
    {
        "title": "揭秘，谁才是莎莎和大头之间的第三者",
        "docid": "7333100475551646248",
        "url": ""
    },
    {
        "title": "多诺万：卡鲁索是联盟最有价值的球员之一 想得到他必须付出代价",
        "docid": "7333645267335578131",
        "url": ""
    },
    {
        "title": "在大咖眼中，丁俊晖没有世锦赛冠军，就没有人选他",
        "docid": "7306810598162285090",
        "url": ""
    },
    {
        "title": "😋詹姆斯手不停球穿针扔给拉塞尔 自己都陶醉了~",
        "docid": "7328961066606625331",
        "url": ""
    },
    {
        "title": "极兔速递危机：梅西事件背后的深远影响",
        "docid": "7333459120466690575",
        "url": ""
    },
    {
        "title": "他是民国第一功夫高手，徒手制服四条藏獒，一招放翻霍元甲",
        "docid": "7308995542276342311",
        "url": ""
    },
    {
        "title": "2.36米巨人鲍喜顺：不听医生劝告执意生下儿子，今生活幸福美满",
        "docid": "7326825824949191218",
        "url": ""
    },
    {
        "title": "香港特区政府称对梅西没出场比赛极度失望，港媒：可能扣减1600万赞助款项",
        "docid": "7331722851349250595",
        "url": ""
    },
    {
        "title": "美媒交易设想：快船送出塔克海兰德等三将+1首轮从篮网换来电风扇",
        "docid": "7331992526670889491",
        "url": ""
    },
    {
        "title": "貂大衣搭黑墨镜！火箭新星申京展现自己酷拽一面😎",
        "docid": "7333759269936169507",
        "url": ""
    },
    {
        "title": "6连胜+25场不败！国米太强了，吊打罗马，意甲70亿对决，目标60分",
        "docid": "7333741661090038299",
        "url": ""
    },
    {
        "title": "官宣：活塞已经裁掉达尼洛-加里纳利",
        "docid": "7333829280059523634",
        "url": ""
    },
    {
        "title": "“关键先生”王仕鹏：娶海归娇妻生一子，如今和易建联一起做生意",
        "docid": "7327196703806013993",
        "url": ""
    },
    {
        "title": "不是首钢，马尚官宣去处，名记举报新疆外援，周琦自嘲大番薯",
        "docid": "7333772206445167138",
        "url": ""
    },
    {
        "title": "媒体人：与其为梅西分裂 不如多培养和梅西差距小一些的高水平球员",
        "docid": "7333642736640033295",
        "url": ""
    },
    {
        "title": "NBA也有“矮壮篮板怪”？看看海耶斯为何可以成为姚明的首席替补",
        "docid": "7321751343403123219",
        "url": ""
    },
    {
        "title": "央视春晚，玩转篮球！无与伦比，太帅了！",
        "docid": "7333677957027856932",
        "url": ""
    },
    {
        "title": "麻将胡牌口诀！",
        "docid": "7320916721592844810",
        "url": ""
    },
    {
        "title": "王媛媛回农村老家过年，大长腿成亮点，没拿联赛最佳太遗憾",
        "docid": "7333744010823909928",
        "url": ""
    },
    {
        "title": "湖人宝藏！拉塞尔单人逆转14-5震撼全场",
        "docid": "7333839073251525147",
        "url": ""
    },
    {
        "title": "惨叫声响遍球馆！膝盖变形，韧带撕裂！这个废人动作真的过分了！",
        "docid": "7314188803210789391",
        "url": ""
    },
    {
        "title": "【女篮奥运资格赛】中国女篮大年初一迎战强敌法国队，首发阵容",
        "docid": "7333738048368575003",
        "url": ""
    },
    {
        "title": "灰熊19岁菜鸟打破科比保持27年的纪录，赛后获得一份4年长约",
        "docid": "7333743506802393639",
        "url": ""
    },
    {
        "title": "秦凯与何姿：跳水台上的神仙眷侣",
        "docid": "7333029954097021494",
        "url": ""
    },
    {
        "title": "历史第1，库里愈老愈妖！格林也脱胎换骨，勇士能否涅槃重生？",
        "docid": "7333834056179794472",
        "url": ""
    },
    {
        "title": "名记：湖人被认为是签下丁维迪的热门球队之一",
        "docid": "7333744081077584411",
        "url": ""
    },
    {
        "title": "女篮奥预赛-李梦21分韩旭低迷仅4分 中国队32分不敌法国遭遇首败",
        "docid": "7333908838900335116",
        "url": ""
    },
    {
        "title": "“不是特别重”胡卫东谈当年体能训练：100公斤连续蹲100次 蹲2组",
        "docid": "7332288905029059107",
        "url": ""
    },
    {
        "title": "荆州市出台每人每天限钓40斤鱼等规定，实施一年后情况如何？",
        "docid": "7319298454705635876",
        "url": ""
    },
    {
        "title": "太恐怖！辽三线城市竟是中国乒乓洞天福地！20年狂产12世界名将！",
        "docid": "7317407593067217448",
        "url": ""
    },
    {
        "title": "少林五拳/虎拳",
        "docid": "7329397515802722866",
        "url": ""
    },
    {
        "title": "10胜10KO全靠兴奋剂？肌肉暴涨一拳就休克，吃药后的KO有多恐怖",
        "docid": "7333151000376689187",
        "url": ""
    },
    {
        "title": "女篮未来核心，应重点培养以下5人，李青阳领衔，以00后为主",
        "docid": "7331695789225591347",
        "url": ""
    },
    {
        "title": "莱恩·安德森生涯简历",
        "docid": "7294657817208816143",
        "url": ""
    },
    {
        "title": "乌克兰“暗黑女神”：艾米丽·布鲁姆，肢体柔软曾当过体操运动员",
        "docid": "7333781311884640806",
        "url": ""
    },
    {
        "title": "太阳官宣！8换2大交易！球队薪资+奢侈税高达2.54亿！",
        "docid": "7333609745322099234",
        "url": ""
    },
    {
        "title": "哪个导演想出的炸裂节目？张镇麟在辽视春晚大秀扣篮",
        "docid": "7333316490307207714",
        "url": ""
    },
    {
        "title": "爆冷！约基奇23+8+7,小萨17+10+10三双到手,掘金不敌国王！",
        "docid": "7333849470985372187",
        "url": ""
    },
    {
        "title": "排球女神惠若琪：27岁开启第二段人生，婚后变得更像小女人",
        "docid": "7313044326731547187",
        "url": ""
    },
    {
        "title": "中国2岁弃婴被收养，美国养母把她养成体操冠军，称不会回国寻亲",
        "docid": "7322406290012537395",
        "url": ""
    },
    {
        "title": "战绩堪忧陷入附加赛区威胁！76人4人20+仍告负，过去9场两次4连败",
        "docid": "7333837394011308584",
        "url": ""
    },
    {
        "title": "队记：艾顿刚来开拓者的头几个月总是在迟到和发脾气",
        "docid": "7333694028866929204",
        "url": ""
    },
    {
        "title": "不是首钢，马尚官宣去处，名记举报新疆外援，周琦自嘲大番薯",
        "docid": "7333880250381992463",
        "url": ""
    },
    {
        "title": "进攻盛宴！湖人战鹈鹕上半场爆砍87分高居队史第二",
        "docid": "7333840348994650659",
        "url": ""
    },
    {
        "title": "【女篮奥运资格赛】中国女篮大年初一迎战强敌法国队，首发阵容",
        "docid": "7333900107815060006",
        "url": ""
    },
    {
        "title": "后卫拿DPOY有多难？NBA至今仅6人做到，84钻石一代2人上榜",
        "docid": "7315003479934730752",
        "url": ""
    },
    {
        "title": "中国正能量3：马保国，武德宗师格局大，他人笑我我笑他人看不穿",
        "docid": "7330480778524574234",
        "url": ""
    },
    {
        "title": "💥名场面！乌度卡关键时刻两罚不中 成全科比极限压哨绝杀",
        "docid": "7308631844214391323",
        "url": ""
    },
    {
        "title": "重庆麻将馆日日爆满，座无虚席，整天“泡”在里面的人靠啥谋生？",
        "docid": "7307911230377755173",
        "url": ""
    },
    {
        "title": "单赛季有三支球队60胜有多难？历史至今仅有5次，98年4队取得60胜",
        "docid": "7324198778058719794",
        "url": ""
    },
    {
        "title": "NBA今日里程碑:詹皇21+4+14狂刷纪录！特雷-杨37+12赛季助攻王",
        "docid": "7333580047041135119",
        "url": ""
    },
    {
        "title": "可惜空砍了！美媒：上次约基奇打国王轰出36分13板14助攻0失误",
        "docid": "7333789455343927823",
        "url": ""
    },
    {
        "title": "21世纪最惨的，足球运动员！",
        "docid": "7309037041306599972",
        "url": ""
    },
    {
        "title": "3-0横扫，1-1爆冷，2-0完胜！多特5场4胜，马赛翻车，贝蒂斯赢了",
        "docid": "7333758376545354303",
        "url": ""
    },
    {
        "title": "钓鱼佬的意志有多恐怖？网友的钓鱼经历令我佩服",
        "docid": "7301284725610627596",
        "url": ""
    },
    {
        "title": "CBA5大顶级中锋！周琦第二，韩德君垫底",
        "docid": "7330892790731194915",
        "url": ""
    },
    {
        "title": "中国蹦床队邱铮、张欣欣总台春晚“跃龙门”",
        "docid": "7333863041915781683",
        "url": ""
    },
    {
        "title": "22岁6000万！哈维德科钦点，新亚亚图雷？巴萨只肯报价4000万",
        "docid": "7333815610822197796",
        "url": ""
    },
    {
        "title": "董方卓晒与C罗交流照片：还是这个男人有担当！不怂不掩饰👍",
        "docid": "7332867970911797772",
        "url": ""
    },
    {
        "title": "史上最伟大10位顶级运动员出炉！乔丹、泰森上榜，德约科维奇落榜",
        "docid": "7333834375958168099",
        "url": ""
    },
    {
        "title": "球星卡（NBA）：除中国外，打过NBA正赛的亚洲球员，欢迎补充！",
        "docid": "7300939945152266763",
        "url": ""
    },
    {
        "title": "有毒的“淡水鱼王”，曾经卖到8000一条，如今却吓退无数钓鱼佬！",
        "docid": "7314557256320975414",
        "url": ""
    },
    {
        "title": "最有骨气的女乒冠军！被开除只因谈恋爱，被开除后拒绝为他国效力",
        "docid": "7311628121864880649",
        "url": ""
    },
    {
        "title": "阿根廷记者：由于外部组织原因，阿根廷在中国的友谊赛将被取消",
        "docid": "7333654022450741771",
        "url": ""
    },
    {
        "title": "波杰姆5战50分40板30助且不超过2失误 过去40年首人",
        "docid": "7333787353456607785",
        "url": ""
    },
    {
        "title": "球迷热议梅西INS：在美国最大体育赛事的广告中不说一句英语",
        "docid": "7333851811050586633",
        "url": ""
    },
    {
        "title": "“仅得43分”出处！艾弗森晒2007年科比疯狂得分数据：曼巴永存",
        "docid": "7328693873399054863",
        "url": ""
    },
    {
        "title": "史上五大最无争议的金球奖",
        "docid": "7329844740877304361",
        "url": ""
    },
    {
        "title": "极兔对梅西举动并非官方，蒙牛和库迪受称赞，网友留言说明问题",
        "docid": "7333753936932979238",
        "url": ""
    },
    {
        "title": "韩国财阀千金倒追中国冠军，不顾父母反对嫁到中国，如今怎么样？",
        "docid": "7329440628629504548",
        "url": ""
    },
    {
        "title": "梅西问题上升到国家尊严问题！到底是过度夸张，还是合情合理？",
        "docid": "7333040003569975859",
        "url": ""
    },
    {
        "title": "“影帝”斯科拉：曾是姚明队友，娶1米6娇妻生4个儿子，现状如何",
        "docid": "7319316339057820198",
        "url": ""
    },
    {
        "title": "首发五虎全部20+！湖人5人得分20+ 队史近40年首次",
        "docid": "7333849325489013283",
        "url": ""
    },
    {
        "title": "💜💛敬请收藏！湖人官方分享八张精美科比手机壁纸",
        "docid": "7332985113241780736",
        "url": ""
    },
    {
        "title": "2024年2月10日央视体育频道节目预告",
        "docid": "7331975295082086939",
        "url": ""
    },
    {
        "title": "乒乓球入奥36年，9届奥运会产35位奥运冠军，仅7个外国人，都是谁",
        "docid": "7333069525384348179",
        "url": ""
    },
    {
        "title": "女篮奥预赛-波多黎各险胜新西兰 携手中国队提前一轮进军巴黎奥运",
        "docid": "7333946077999252020",
        "url": ""
    },
    {
        "title": "詹姆斯：丁威迪能组织 能担任持球手和射手",
        "docid": "7333858508351701540",
        "url": ""
    },
    {
        "title": "5年1.63亿美金！5年1.97亿美金！NBA最矮双枪合体，他们又要搅局",
        "docid": "7333034193036804623",
        "url": ""
    },
    {
        "title": "盘点女子篮坛十大美女（国际版）：中国两人入选",
        "docid": "7304628093409411619",
        "url": ""
    },
    {
        "title": "连续三届围甲都是名不副实的MVP",
        "docid": "7333813545043706422",
        "url": ""
    },
    {
        "title": "体操兄弟李小双李大双，两人头发都已花白，结婚多年都没有孩子",
        "docid": "7306758166975611428",
        "url": ""
    },
    {
        "title": "正负值+39全场最高！克劳德7中1拿到5分3助",
        "docid": "7333809272926683674",
        "url": ""
    },
    {
        "title": "👀有戏！丁威迪湖人VIP区观战 佩林卡作陪！",
        "docid": "7333825399652319755",
        "url": ""
    },
    {
        "title": "女篮奥预赛中法战评分：一将满分五人不合格，后卫线支离破碎",
        "docid": "7333916426774364698",
        "url": ""
    },
    {
        "title": "奥运资格赛：中国女篮全面哑火，李梦及格，韩旭表现不佳仅得4分",
        "docid": "7333924174366868002",
        "url": ""
    },
    {
        "title": "尤塔·莱尔丹：荷兰的速度滑冰女神，北京冬奥会的网红",
        "docid": "7331400244803961380",
        "url": ""
    },
    {
        "title": "蒂亚戈+坎特？巴西新一代中场大妖，未来锁定国家队席位？",
        "docid": "7332868827162575386",
        "url": ""
    },
    {
        "title": "破天荒！日本教练首次担任中国国字号球队主教练",
        "docid": "7332483485258629647",
        "url": ""
    },
    {
        "title": "网球王子张德培13岁长女罕露脸，身高1.75米像母亲，已是网球健将",
        "docid": "7331557652461290034",
        "url": ""
    },
    {
        "title": "乔尔杰维奇又出昏招，这3名球员能够入选国家队实在太荒唐",
        "docid": "7333064848513532468",
        "url": ""
    },
    {
        "title": "CBA劳模！赵继伟春节仅三天假期，陪妻子逛街+理发 年初三去国家队",
        "docid": "7333384076277154356",
        "url": ""
    },
    {
        "title": "力挺梅西硬刚网友？陷“不缺资源”传闻，极兔官方回应",
        "docid": "7333898919649116698",
        "url": ""
    },
    {
        "title": "郭艾伦晒与韩德君聊天截图：从不讲感情的开始抒情了 无语啊🙄",
        "docid": "7332882428123529766",
        "url": ""
    },
    {
        "title": "“你这样打，40岁就得坐轮椅”，盘点NBA打法最伤身体5大球星",
        "docid": "7308956620058182179",
        "url": ""
    },
    {
        "title": "6连胜+25场不败！国米太强了，吊打罗马，意甲70亿对决，目标60分",
        "docid": "7333904634912096819",
        "url": ""
    },
    {
        "title": "名宿张卫平委婉批评姚明和王芳，指出国家队聘请教练的一大错误",
        "docid": "7332665795274736169",
        "url": ""
    },
    {
        "title": "盘点历届NBA全明星票王 詹姆斯可谓是无敌的存在",
        "docid": "7329071503130788393",
        "url": ""
    },
    {
        "title": "世界泳联锦标赛：中国组合夺得花样游泳混双自由自选金牌",
        "docid": "7333927466173481499",
        "url": ""
    },
    {
        "title": "👀12月30日比尔复出后太阳进攻效率联盟第二 快船微弱优势居首",
        "docid": "7333701691742814735",
        "url": ""
    },
    {
        "title": "梅西“害惨”阿根廷球队？损失至少3600万元，上一次赚得盆满钵满",
        "docid": "7333924158491132426",
        "url": ""
    },
    {
        "title": "中国女篮为何狂输手下败将32分？六大劣势非常明显，输得太难看",
        "docid": "7333914550154215988",
        "url": ""
    },
    {
        "title": "梅西日本行的普通门票最便宜约合人民币241元，最贵人民币2173元",
        "docid": "7332144515086090764",
        "url": ""
    },
    {
        "title": "前国乒冠军倪夏莲：1991年入籍欧洲小国，700平别墅养花种菜",
        "docid": "7328693303690527242",
        "url": ""
    },
    {
        "title": "与世运同行｜2024四川省“最美绿道”系列赛兴隆湖新春环湖跑开跑",
        "docid": "7333903323558838825",
        "url": ""
    },
    {
        "title": "中国斯诺克球员：英国训练买菜都是捡最便宜的",
        "docid": "7312831735342727720",
        "url": ""
    },
    {
        "title": "23年前那个失去双腿、靠半个篮球走路的4岁女孩，今替国出征残奥",
        "docid": "7325715372714230287",
        "url": ""
    },
    {
        "title": "乒坛国手王涛：退役荣升少将，感谢蔡振华重用，人到中年更爱发妻",
        "docid": "7332411686743425571",
        "url": ""
    }
]