[
    {
        "title": "历史仅4人做到，为什么NBA得分后卫不好拿到MVP？看科比就知道了",
        "docid": "7339534870747578915",
        "url": ""
    },
    {
        "title": "太可爱了！韩国女乒美少女遇见偶像波尔，激动捂嘴一脸娇羞",
        "docid": "7346851865113641522",
        "url": ""
    },
    {
        "title": "恋爱脑的名门之女，终于喜结良缘！",
        "docid": "7337973658876609061",
        "url": ""
    },
    {
        "title": "郑思维的腰真的厉害，一般偷他后场很难成功",
        "docid": "7330305300173423119",
        "url": ""
    },
    {
        "title": "独一无二！约基奇现象级表现，教练解读文班与之差异，各有其魅力",
        "docid": "7346901947263287842",
        "url": ""
    },
    {
        "title": "大满贯：3金2银！国乒16日赛程！陈幸同说2-0领先孙颖莎不真实",
        "docid": "7346710229431714304",
        "url": ""
    },
    {
        "title": "太逗了！梁靖崑大战波尔打到双膝跪下，引发解说爆笑，场面欢乐",
        "docid": "7346629157754765876",
        "url": ""
    },
    {
        "title": "当詹姆斯在野球场被人挑衅1v1斗牛，这哥们后果有多惨？",
        "docid": "7337727225028051507",
        "url": ""
    },
    {
        "title": "云南小伙撞脸科比，在高人指点下半月涨粉50万 网友：大哥你回来了",
        "docid": "7346511872864059958",
        "url": ""
    },
    {
        "title": "纳什一家近照，50岁不当教练，二婚妻子小16岁，5个孩子很幸福",
        "docid": "7328951477350203914",
        "url": ""
    },
    {
        "title": "不跳vs暴跳！😲约基奇超高抛射 越过文班极致封盖",
        "docid": "7346869319558496768",
        "url": ""
    },
    {
        "title": "科比的努力，卡特的弹跳，麦迪的天赋，艾弗森的速度",
        "docid": "7346871540538999307",
        "url": ""
    },
    {
        "title": "马龙：如果没有张继科，马龙会娶刘诗雯吗？",
        "docid": "7346930173269131814",
        "url": ""
    },
    {
        "title": "完胜！太阳五虎79+41，弩机21篮板，湖人收大礼，西部第6即将易主",
        "docid": "7346750964931494419",
        "url": ""
    },
    {
        "title": "叶问之子咏春多厉害？真功夫让陈道明起立鼓掌，甄子丹只有学的份",
        "docid": "7326029516940411431",
        "url": ""
    },
    {
        "title": "有视频为证能摸到篮板上沿，放眼全世界也就这两人！",
        "docid": "7336878853711004172",
        "url": ""
    },
    {
        "title": "王哲林17+9李弘权17+13 杨瀚森14中4独木难支上海轻取青岛获6连胜",
        "docid": "7346927919039791668",
        "url": ""
    },
    {
        "title": "18分钟19+5！周琦为什么打得这么好？周琦说出了心里话",
        "docid": "7344597190108545555",
        "url": ""
    },
    {
        "title": "甘肃美女习武30年登央视，看呆老外，800多万网友怒赞：中国功夫",
        "docid": "7329816189302161955",
        "url": ""
    },
    {
        "title": "恭喜球哥！获得恢复高级别篮球活动医疗许可！他真要创造医学奇迹",
        "docid": "7344907800700568102",
        "url": ""
    },
    {
        "title": "出生于山西太原的双胞胎——堪称为是CBA赛场上一道靓丽的风景线",
        "docid": "7315359629616333321",
        "url": ""
    },
    {
        "title": "从焦作走出的男篮国手：与前妻因财产纠纷闹上法庭，二婚迎娶博士",
        "docid": "7316025584239493672",
        "url": ""
    },
    {
        "title": "全是烂账！凯恩又没了！曼联将支付高达1.58亿英镑欠账！",
        "docid": "7346773585781867042",
        "url": ""
    },
    {
        "title": "NBA历史十大最强防守球员：想进球？没门！防到你怀疑人生！",
        "docid": "7346874108224930316",
        "url": ""
    },
    {
        "title": "李铁，在央视反腐大片中，不穿囚服，不剃光头，是有优待吗？",
        "docid": "7321757149133062682",
        "url": ""
    },
    {
        "title": "王艺迪打疯了！被李隼的话语刺激到，4-0横扫陈幸同，决战王曼昱",
        "docid": "7346903675531264522",
        "url": ""
    },
    {
        "title": "全红婵采访笑疯了！模仿陈芋汐喊口号，一番话直接让记者懵圈",
        "docid": "7323476921608569383",
        "url": ""
    },
    {
        "title": "台球神童横空出世，9岁就开打职业比赛，给对手看的目瞪口呆!",
        "docid": "7332074238406296075",
        "url": ""
    },
    {
        "title": "“看似扭捏实则拿捏。”小伙伴被女孩的这一套武术表演惊呆了！",
        "docid": "7342793253089411620",
        "url": ""
    },
    {
        "title": "不愧是传奇拳王！泰森自曝泡妞经历，相处一下午，就拿下19岁少女",
        "docid": "7327603034044367370",
        "url": ""
    },
    {
        "title": "拳手被击败后不服和裁判打起来，结局可想而知，有的裁判真不好惹",
        "docid": "7320785781025571343",
        "url": ""
    },
    {
        "title": "史上最任性裁判！教练扔白毛巾投降 裁判竟扔了回去 结果成就经典",
        "docid": "7323579947992384027",
        "url": ""
    },
    {
        "title": "后继有人！内特罗宾逊的儿子是这样打球的！#内特罗宾逊",
        "docid": "7335025870522089994",
        "url": ""
    },
    {
        "title": "孙颖莎学坏后有多搞笑，背后给陈梦一脚，还一本正经忽悠伊藤美诚",
        "docid": "7324174375031308815",
        "url": ""
    },
    {
        "title": "防守大师梅威瑟的躲闪，站在那里不还手，让你打你都打不到！",
        "docid": "7315015286824895015",
        "url": ""
    },
    {
        "title": "奥尼尔自曝热火时期打队友！科比：这事我熟！扣篮王：挨打的是我",
        "docid": "7346164101980095016",
        "url": ""
    },
    {
        "title": "难怪网友不承认向佐是武打明星，打拳击屡次犯规，最后还打不过！",
        "docid": "7343542872392860172",
        "url": ""
    },
    {
        "title": "4-1！王曼昱顶住压力，逆转陈梦晋级决赛，国乒奥运单打竞争有变",
        "docid": "7346874239154274868",
        "url": ""
    },
    {
        "title": "中国历史第一控卫孙悦去野球场，你认为他能砍下多少分？#孙悦",
        "docid": "7344734177889092136",
        "url": ""
    },
    {
        "title": "太炸裂了！全校通报！必须全校通报！#扣篮 #篮球",
        "docid": "7326566618631242250",
        "url": ""
    },
    {
        "title": "王楚钦：让我躺在地上歇歇",
        "docid": "7346650945130185254",
        "url": ""
    },
    {
        "title": "国乒有福了，王励勤走马上任，喜获新职务，喊话樊振东",
        "docid": "7346794513488233010",
        "url": ""
    },
    {
        "title": "奥沙利文最疯狂一局，领先94分对手不认输，火箭当场发飙吓坏裁判",
        "docid": "7313722595189195273",
        "url": ""
    },
    {
        "title": "😍这两米的大长腿！李月汝社媒晒照游玩巴塞罗那",
        "docid": "7346857722589037082",
        "url": ""
    },
    {
        "title": "当詹姆斯突然坐到你身边,球迷表情绷不住了",
        "docid": "7323051767992844863",
        "url": ""
    },
    {
        "title": "一场公园女篮比赛差点演变成选美大赛",
        "docid": "7337566518068281882",
        "url": ""
    },
    {
        "title": "在世界特警挑战赛上，来自俄罗斯的AKHMAT战队，让我们看清了现实",
        "docid": "7337620044035129892",
        "url": ""
    },
    {
        "title": "摸高404cm的埃希奥古是如何进行扣篮训练的",
        "docid": "7321721118929682970",
        "url": ""
    },
    {
        "title": "笑不活了，杨威双胞胎女儿在家上学，我却笑死在网友评论区",
        "docid": "7346484605920231987",
        "url": ""
    },
    {
        "title": "网友怒问周继红：陈芋汐为何缺席柏林世界杯",
        "docid": "7346524789714027058",
        "url": ""
    },
    {
        "title": "😡非常炸裂！迈克-布朗进场贴面暴怒狂喷裁判 被连吹两T驱逐！",
        "docid": "7324140181060207144",
        "url": ""
    },
    {
        "title": "河南大叔自练咏春拳走红网络，拳法打出残影，墙都能打破，太强了",
        "docid": "7321307352895455781",
        "url": ""
    },
    {
        "title": "浓眉模仿火箭队谁？逗得身旁老詹哈哈大笑，第一排球迷都绷不住了",
        "docid": "7330888014169637416",
        "url": ""
    },
    {
        "title": "乔衫欢乐斗地主，看了牌嘚瑟着要加注，结果被实力打脸",
        "docid": "7341583548203467298",
        "url": ""
    },
    {
        "title": "宏远抵达四川！上百名女球迷为胡明轩接机，杜锋晒小胡和球迷合影",
        "docid": "7346863304037368339",
        "url": ""
    },
    {
        "title": "突然发现，本赛季欧冠，诞生新冠军的概率，为二十年来最高",
        "docid": "7346774597037081107",
        "url": ""
    },
    {
        "title": "新疆96-108惨败广州 球员评分：2人完美、4人达标、5人不及格",
        "docid": "7346956758621291043",
        "url": ""
    },
    {
        "title": "每日NBA球星上脚球鞋【3月14日】",
        "docid": "7346416671751455266",
        "url": ""
    },
    {
        "title": "Lowe：布伦森是个铁人 我不知道他怎么才能不入选最佳阵容",
        "docid": "7346949199462203913",
        "url": ""
    },
    {
        "title": "你转身那一刻，我就知道回不到以前了。",
        "docid": "7325007928811848233",
        "url": ""
    },
    {
        "title": "他2岁因病被抛弃，23岁成全国冠军，最后亲生父母前来相认",
        "docid": "7328344838926238242",
        "url": ""
    },
    {
        "title": "盘点NBA不得分却作用巨大的球星：0分28篮板上榜，榜首无争议！",
        "docid": "7317102232783241728",
        "url": ""
    },
    {
        "title": "4-0！王艺迪完胜陈幸同，与王曼昱会师决赛，赛后情绪低迷拒庆祝",
        "docid": "7346903906876604969",
        "url": ""
    },
    {
        "title": "国乒今日6战全胜！陈梦王曼昱夺第3冠，梁靖崑王楚钦打败外协强敌",
        "docid": "7346922017842627083",
        "url": ""
    },
    {
        "title": "“乔丹看了流泪，格林看了崩溃，近距离感受菲律宾野球文化”",
        "docid": "7343909448555889161",
        "url": ""
    },
    {
        "title": "从人见人爱到负面新闻缠身，福原爱是怎么把一手好牌打烂的？",
        "docid": "7346833252029579788",
        "url": ""
    },
    {
        "title": "冠军落难！李小鹏竟救不了李安琪，同林鸟如今分飞东西",
        "docid": "7346790140469117451",
        "url": ""
    },
    {
        "title": "英格兰新国家队名单公布，戴尔、沃德-普劳斯两将落选引发争议",
        "docid": "7346229706779558454",
        "url": ""
    },
    {
        "title": "短短30年，黄河鲤鱼就从河南人餐桌上的家常菜，到基本绝迹了",
        "docid": "7314649827269755427",
        "url": ""
    },
    {
        "title": "国乒教练有多双标，对待女儿和逆子两个样，马龙见刘国梁一秒变脸",
        "docid": "7324232248755454464",
        "url": ""
    },
    {
        "title": "年度最佳装逼凝视！杰伦晃倒对手+提前转头庆祝三分",
        "docid": "7346439913627353640",
        "url": ""
    },
    {
        "title": "中国篮球大揭秘：运营一支CBA球队，一年要投入多少？",
        "docid": "7327210711204594210",
        "url": ""
    },
    {
        "title": "地表最强的矮个子球员罗杰斯打球到底有多强？身高仅仅只有157",
        "docid": "7313872671815827977",
        "url": ""
    },
    {
        "title": "葡萄牙大名单公布！38岁球王领衔，5大亿元巨星坐镇，姆巴佩慌了",
        "docid": "7346827958285369875",
        "url": ""
    },
    {
        "title": "最新消息！WTT新加坡大满贯决赛对阵出炉，国乒谁能单打夺冠？",
        "docid": "7346931172871733794",
        "url": ""
    },
    {
        "title": "拉塞尔绝杀雄鹿，看看63岁的老板珍妮阿姨靠在詹姆斯肩上，真少女",
        "docid": "7344271958349251098",
        "url": ""
    },
    {
        "title": "詹姆斯二儿子球技肉眼可见的进步，二皇子的称呼果然名不虚传",
        "docid": "7320245484135088679",
        "url": ""
    },
    {
        "title": "李连杰与胡坚强对打，实战能力相当强，几招将对方打倒在地",
        "docid": "7328301391867281958",
        "url": ""
    },
    {
        "title": "金球奖最新赔率：贝林厄姆继续领跑，哈兰德掉至第四，梅西第五",
        "docid": "7346784250487898624",
        "url": ""
    },
    {
        "title": "体操冠军桑兰：17岁摔成高位截瘫，事后索赔18亿美元，今现状如何",
        "docid": "7340587777736311335",
        "url": ""
    },
    {
        "title": "辽篮为什么打不过广东队？赵继伟忍不住说出心里话，说得很实在",
        "docid": "7346739486467899919",
        "url": ""
    },
    {
        "title": "太恐怖！辽三线城市竟是中国乒乓洞天福地！20年狂产12世界名将！",
        "docid": "7317407593067217448",
        "url": ""
    },
    {
        "title": "李隼宣布王艺迪退出奥运竞争，透露奥运名单，网友出现三种声音！",
        "docid": "7346856203152146984",
        "url": ""
    },
    {
        "title": "奥沙利文有多调皮？给潘晓婷做斯诺克，将9球打成了人情世故",
        "docid": "7330950956865192474",
        "url": ""
    },
    {
        "title": "5-2！英格兰第一中锋踢疯了！距榜首7分，拜仁争冠还有希望",
        "docid": "7347012745788768806",
        "url": ""
    },
    {
        "title": "篮球运动员打球时摔倒，摔在啦啦队中间，网友：这是计算过！",
        "docid": "7324900140530336266",
        "url": ""
    },
    {
        "title": "打完辽宁才知道，广东裁掉布鲁克斯，实际上是在下一盘大棋！",
        "docid": "7346847409601118759",
        "url": ""
    },
    {
        "title": "来论｜佛山有望成为具有全球影响力的城市",
        "docid": "7346266318461338166",
        "url": ""
    },
    {
        "title": "米兰双雄的起源，为何国际米兰要从AC米兰分家出走呢？",
        "docid": "7315090890220208680",
        "url": ""
    },
    {
        "title": "张镇麟回应激励小高：高光时不要骄傲自满 低谷时也不能否定自己",
        "docid": "7316917430381445695",
        "url": ""
    },
    {
        "title": "23年前那个失去双腿、靠半个篮球走路的4岁女孩，今替国出征残奥",
        "docid": "7325715372714230287",
        "url": ""
    },
    {
        "title": "现今联盟为什么没有这种矮个子球员？#篮球技巧",
        "docid": "7346914333084877327",
        "url": ""
    },
    {
        "title": "NBA这5人看起来瘦 其实是一身腱子肉，林书豪麒麟臂不输黑人",
        "docid": "7320821686616637986",
        "url": ""
    },
    {
        "title": "“花滑女神”李子君：和羽生结弦、樊振东传绯闻，最后闪嫁富二代",
        "docid": "7314859501738476032",
        "url": ""
    },
    {
        "title": "太幸福了😍一女球迷与C罗握手，C罗还帮忙哄她儿子别哭",
        "docid": "7326894497928135194",
        "url": ""
    },
    {
        "title": "哈登与乔治同是技术不行，怎么风评完全不一样？乔治好歹有防守",
        "docid": "7346837500708618789",
        "url": ""
    },
    {
        "title": "湖人球员下班都开什么豪车？拉塞尔300万迈凯伦，那詹姆斯呢？",
        "docid": "7319036969189802536",
        "url": ""
    },
    {
        "title": "盘点NBA球星的那些搞笑瞬间，东契奇真是又帅又会撩啊！#詹姆斯",
        "docid": "7320609128898888246",
        "url": ""
    },
    {
        "title": "巅峰麦迪你见过吗？46分超级三双，魔术特雷西麦克格雷迪最强一战",
        "docid": "7337167480571626035",
        "url": ""
    },
    {
        "title": "纪录延续！新月2-1达马克豪取29连胜 新月补时绝杀&联赛12分领跑",
        "docid": "7347071003341767220",
        "url": ""
    },
    {
        "title": "跟这两种老师学外语，球员更愿意搭档谁？揭秘申京的私人翻译！",
        "docid": "7343539552953025076",
        "url": ""
    },
    {
        "title": "3月16NBA西部战报 排名 太阳平第6 掘金又叒叕超雷霆升第1 鹈鹕胜快船",
        "docid": "7346755695364063771",
        "url": ""
    },
    {
        "title": "冰上情侣携手走过14年，退役后不再往来，无意外今生不会再有交集",
        "docid": "7346479236884234803",
        "url": ""
    },
    {
        "title": "波波：文班模仿不了约基奇 后者是独一无二的",
        "docid": "7346893933038895670",
        "url": ""
    },
    {
        "title": "“亚洲蝶后”周雅菲：嫁给CBA二婚男，如今儿女双全堪称人生赢家",
        "docid": "7317594991038677555",
        "url": ""
    },
    {
        "title": "让杜兰特歇歇吧！太阳对阵黄蜂：杜兰特拉垮，布克、比尔中规中矩",
        "docid": "7346773688257233448",
        "url": ""
    },
    {
        "title": "新加坡大满贯：恭喜王曼昱，逆转陈梦闯进女单决赛！国乒男双夺冠",
        "docid": "7346850920778465811",
        "url": ""
    },
    {
        "title": "是否是明智之举？医生警告拳王泰森：可能遭受脑血管破裂",
        "docid": "7346898520638603795",
        "url": ""
    },
    {
        "title": "西甲-维尼修斯双响巴尔韦德助攻戴帽 皇马4-2以10分领跑+23轮不败",
        "docid": "7347084676349182476",
        "url": ""
    },
    {
        "title": "足总杯-曼城2-0纽卡斯尔晋级四强 B席梅开二度",
        "docid": "7347091676265005631",
        "url": ""
    },
    {
        "title": "哪些省份没有CBA篮球队",
        "docid": "7336740975475245608",
        "url": ""
    },
    {
        "title": "体操兄弟李小双李大双，两人头发都已花白，结婚多年都没有孩子",
        "docid": "7337238509545636364",
        "url": ""
    },
    {
        "title": "“滴滴代罚”？！周琦连续2场逃避罚球，看杜峰如何解决",
        "docid": "7346500010684645897",
        "url": ""
    },
    {
        "title": "2020年马拉多纳的生命最后：对侄子留下遗言，下葬时心脏被摘除",
        "docid": "7317980728015847988",
        "url": ""
    },
    {
        "title": "一女孩热衷钓鱼，一钓就是一上午，看到工具网友惊呼这是高手",
        "docid": "7336813851578630694",
        "url": ""
    },
    {
        "title": "神仙打架！马龙林高远挽救赛点3-2夺男双冠军，胖头组合3连冠梦碎",
        "docid": "7346876153585779237",
        "url": ""
    },
    {
        "title": "不打了！生涯结束！再见了，NBA状元郎",
        "docid": "7340502181889638927",
        "url": ""
    },
    {
        "title": "老子比不过，儿子也比不过，乔丹二儿子大学篮球数据碾压布朗尼",
        "docid": "7345406485440201252",
        "url": ""
    },
    {
        "title": "😂胖胖刷数据？约基奇大比分领先提裤子上场 勾了一个又下去了",
        "docid": "7344583712509526564",
        "url": ""
    },
    {
        "title": "95年总决赛奥拉朱旺场均32.8分11.5板5.5助攻，奥尼尔表现如何？",
        "docid": "7328044472258855424",
        "url": ""
    },
    {
        "title": "93年从巅峰乔丹手里抢走MVP的巴克利，打出了什么表现？不输乔丹",
        "docid": "7328049806700741120",
        "url": ""
    },
    {
        "title": "上限乔丹，下限科比的NBA闯祸王，却成了辽宁队最好欺负的外援",
        "docid": "7345827712734839333",
        "url": ""
    },
    {
        "title": "NBA最强坦克身材阵容都有谁？奥尼尔像绿巨人 詹姆斯似非人类",
        "docid": "7316002161912087052",
        "url": ""
    },
    {
        "title": "年龄没写反👀38岁的鲁尼和45岁的费迪南德...",
        "docid": "7344556646766903848",
        "url": ""
    },
    {
        "title": "美媒预测退役名宿若在当今联盟场均得分：乔丹42.2分 奥尼尔转发",
        "docid": "7346857690948289059",
        "url": ""
    },
    {
        "title": "99年艾弗森仅26.8分就拿到得分王创67年来最低，那年发生了什么",
        "docid": "7323782890998186507",
        "url": ""
    },
    {
        "title": "看了这5张照片我才明白，1米83的艾弗森为何能当状元！",
        "docid": "7330464501710062107",
        "url": ""
    },
    {
        "title": "真能熬！易建联都退役了，可选秀顺位在他面前的，还有三人打主力",
        "docid": "7317080366500577855",
        "url": ""
    },
    {
        "title": "德罗赞会逆袭库里&哈登，成为2009届选秀球员唯一30000分先生吗？",
        "docid": "7346420637101294095",
        "url": ""
    },
    {
        "title": "奥运冠军郭跃：被开除后，转型金融很成功，退役后长发很漂亮",
        "docid": "7345060214301688360",
        "url": ""
    },
    {
        "title": "后卫拿DPOY有多难？NBA至今仅6人做到，84钻石一代2人上榜",
        "docid": "7315003479934730752",
        "url": ""
    },
    {
        "title": "广州恒大不易！C罗证明：不是谁花钱多，谁的牌大，谁就能夺亚冠",
        "docid": "7345660056668537394",
        "url": ""
    },
    {
        "title": "体操女神张豆豆：凭挺胸照走红，拒绝进娱乐圈，与孙杨结成夫妻",
        "docid": "7332302141551395343",
        "url": ""
    },
    {
        "title": "乐福单场最高31个篮板，你知道约基奇姚明和奥尼尔多少吗？",
        "docid": "7331911900592161317",
        "url": ""
    },
    {
        "title": "美媒评NBA历年门面球员：奥尼尔5年，乔丹9年，而他连续14年",
        "docid": "7339902687527305763",
        "url": ""
    },
    {
        "title": "情人眼里出西施，他虽是天王巨星，但对待爱情真的是好样的！",
        "docid": "7340216362126230026",
        "url": ""
    },
    {
        "title": "能被三支球队退役球衣有多难？NBA仅4人做到，老詹有望成为第5位",
        "docid": "7339171694604534308",
        "url": ""
    },
    {
        "title": "单个季后赛拿700分有多难？历史仅6人，库里最高621分、老詹呢？",
        "docid": "7339432274435392040",
        "url": ""
    },
    {
        "title": "全红婵领奖请人吃饭！但不认识对方！全妹：我知道你是中国人！",
        "docid": "7345735073045627401",
        "url": ""
    },
    {
        "title": "姚明打了8年NBA，砍下9247分，那他5年CBA拿了多少分？",
        "docid": "7325985922477621797",
        "url": ""
    },
    {
        "title": "曾经有过哪些意外之财？网友：手滑买了5000德国输，结果翻了15倍",
        "docid": "7345295683169157672",
        "url": ""
    },
    {
        "title": "人都叫他皇阿玛！他有多强？代表三支球队拿冠军，妻子貌美如花！",
        "docid": "7340206021644157490",
        "url": ""
    },
    {
        "title": "梅威瑟：我的儿子都不打拳，但是我的孙子 ，将来也许会是拳王！",
        "docid": "7345661807308767770",
        "url": ""
    },
    {
        "title": "盘点四代“国乒第一美女”：陈梦丰满身材取胜，钱天一颜值取胜！",
        "docid": "7345395542908158504",
        "url": ""
    },
    {
        "title": "退役后变漂亮的四位国乒女将：张怡宁嫁得好，李晓霞最幸福！",
        "docid": "7343603511952753193",
        "url": ""
    },
    {
        "title": "意大利由盛转衰的标志性射手——当年不算啥，现在看，近十年最佳",
        "docid": "7340206460254945801",
        "url": ""
    },
    {
        "title": "2014年800斤相扑之王娶娇妻，结婚后1年逝世，妻子继承巨额财产",
        "docid": "7327916684156240425",
        "url": ""
    },
    {
        "title": "最违和照片之——他是赤木刚宪的原型！也是90年代最悲情的中锋！",
        "docid": "7343572434324505097",
        "url": ""
    },
    {
        "title": "06总决赛韦德场均35分，奥尼尔只有13分，为何不被认可是单核夺冠",
        "docid": "7320807197162979881",
        "url": ""
    },
    {
        "title": "太阳正式签下35岁老将小托马斯冲击季后赛",
        "docid": "7347112717955629607",
        "url": ""
    },
    {
        "title": "乔丹：我的跟腱28厘米，麦迪：我31厘米，他：麻烦让一让",
        "docid": "7317910577496687114",
        "url": ""
    },
    {
        "title": "为什么02-03赛季最佳一阵被称为历史最强？都有谁？",
        "docid": "7339337637922112052",
        "url": ""
    },
    {
        "title": "别看他不是巨星！其实他才是真正的人生赢家！",
        "docid": "7337876219372847654",
        "url": ""
    },
    {
        "title": "美媒将单赛季得分2500分以上的球员，分成五个等级",
        "docid": "7341790302887494178",
        "url": ""
    },
    {
        "title": "马龙：18岁“龙嫂”夏露出手稳准狠，拿下“天花板”级老公",
        "docid": "7335242827121050149",
        "url": ""
    },
    {
        "title": "众所周知詹姆斯肌肉强悍，但是遇到这5人 他也得叫声哥",
        "docid": "7345303424227115529",
        "url": ""
    },
    {
        "title": "奥运冠军叶诗文，16岁大满贯，如今清华毕业，28岁越来越美",
        "docid": "7341213717826191909",
        "url": ""
    },
    {
        "title": "​“想让我破产，比拿100分都难”！盘点NBA十大永远不会破产球星",
        "docid": "7344727044406444582",
        "url": ""
    },
    {
        "title": "2020届选秀重排！哈利、贝恩狂升，前三无悬念！",
        "docid": "7340285732285710900",
        "url": ""
    },
    {
        "title": "史上十大意外的全明星首发：科比打6场，姚明5场，威金斯运气贼好",
        "docid": "7328465878624764456",
        "url": ""
    },
    {
        "title": "豪门狂欢夜！凯恩破61年纪录，拜仁5:2，皇马4:1，曼城挺进半决赛",
        "docid": "7347006595747889690",
        "url": ""
    },
    {
        "title": "NBA这些谣言明明早就已经辟谣了，但至今还有很多人深信不疑",
        "docid": "7328717653193982491",
        "url": ""
    },
    {
        "title": "巨星？在NBA历史上只有这7位拥有终身代言合同的才算真正的巨星！",
        "docid": "7343794765529629222",
        "url": ""
    },
    {
        "title": "“让我罚球等于送分”，盘点NBA6大神射手，库里反超纳什",
        "docid": "7338968410699448841",
        "url": ""
    },
    {
        "title": "库里31分詹姆斯空砍40+8+9 勇士力克湖人超越对手上升西部第9",
        "docid": "7347156788721156662",
        "url": ""
    },
    {
        "title": "美媒评选NBA历史最佳防守阵容，邓肯落选！",
        "docid": "7331284426011853312",
        "url": ""
    },
    {
        "title": "差点被奥尼尔“毁掉”的男人，如果球商在线，麦基可以统治联盟！",
        "docid": "7336591939296707083",
        "url": ""
    },
    {
        "title": "被誉为乌克兰最美冠军，为爱改变国籍嫁到中国，37岁生二胎很圆满",
        "docid": "7331325420148949539",
        "url": ""
    },
    {
        "title": "被姚明抱上奥运，在汶川地震连救两人，立志考清华的他如今怎样了",
        "docid": "7321215885895844404",
        "url": ""
    },
    {
        "title": "单赛季拿2800分有多难？翻遍NBA仅6人做到 哈登上榜 1人单季4029分",
        "docid": "7322027778847588916",
        "url": ""
    },
    {
        "title": "NBA冷知识大放送！这些桃色新闻比卡戴珊还抢镜，你敢窥探吗？",
        "docid": "7341178131467895332",
        "url": ""
    },
    {
        "title": "1946年NBA成立至今，10支球队至今0冠，谁能率先打破无冠魔咒？",
        "docid": "7313905536133857827",
        "url": ""
    },
    {
        "title": "姚明的体型有多不真实？泳池里像绿巨人 奥尼尔站身边显娇小",
        "docid": "7326006168487690767",
        "url": ""
    },
    {
        "title": "狼王口中的历史第一大前锋！“冰箱”麦克海尔究竟有多强？",
        "docid": "7341425069438698022",
        "url": ""
    },
    {
        "title": "三加时！原帅自己当波什+雷-阿伦 抢到前场板后撤步底角三分绝平",
        "docid": "7345482869924184627",
        "url": ""
    },
    {
        "title": "盘点本赛季三分球最准的十位球员，库里30名开外杜兰特终找到帮手",
        "docid": "7343945086046781993",
        "url": ""
    },
    {
        "title": "孙龙夺中国短道第100枚世锦赛金牌 林孝埈首夺世锦赛男子500米冠军",
        "docid": "7347103086806139403",
        "url": ""
    },
    {
        "title": "宋主席没说错，建国前和初，男足并不差，曾经拿到9连冠和3个冠军",
        "docid": "7316118761734488602",
        "url": ""
    },
    {
        "title": "被一个数字戏弄的天才！“无齿之徒”兰德里是如何逆风翻盘的",
        "docid": "7337319394408956435",
        "url": ""
    },
    {
        "title": "🐐历史最远的压哨绝杀：格拉汉姆61英尺狙杀雷霆⚡",
        "docid": "7340479848554889780",
        "url": ""
    },
    {
        "title": "摸篮板上沿并非遥不可及，NBA有4人无限接近 詹姆斯上榜",
        "docid": "7336391463271957032",
        "url": ""
    },
    {
        "title": "火箭队队史纪录大全，哈登奥拉朱旺包揽了所有的队史纪录",
        "docid": "7319033715664110091",
        "url": ""
    },
    {
        "title": "韩德君妻子朱悦荧：放弃职业模特照顾家庭，韩德君宠溺无比！",
        "docid": "7341201580559122959",
        "url": ""
    },
    {
        "title": "常规赛+季后赛总得分前五都是谁？詹姆斯第一，难怪科比地位高",
        "docid": "7343911451927282210",
        "url": ""
    },
    {
        "title": "英超四大水货前锋，三人已为自己正名，只剩亿元先生，无人问津",
        "docid": "7332116048101081619",
        "url": ""
    },
    {
        "title": "苏炳添9秒83亚洲记录在世界是什么地位，盘点六大洲百米记录。",
        "docid": "7333129985240203814",
        "url": ""
    },
    {
        "title": "4-2，0-3！足坛疯狂一夜:皇马23轮不败，热刺爆大冷，曼城进四强",
        "docid": "7347028418019492391",
        "url": ""
    },
    {
        "title": "身高只有1.6米，比普通人还矮的博格斯，为何能在NBA打14年？",
        "docid": "7323010805254537728",
        "url": ""
    },
    {
        "title": "柳承敏疑表不满：中国拿走大满贯总奖金近1/3，其他的喝汤都不够",
        "docid": "7347103851993956873",
        "url": ""
    },
    {
        "title": "詹姆斯2011年花650万入股利物浦，13年赚了多少？网友：难以置信",
        "docid": "7344997727170003492",
        "url": ""
    },
    {
        "title": "吹罚一场比赛等于普通人两月工资，看看NBA裁判们的工资水平",
        "docid": "7319350191402893864",
        "url": ""
    },
    {
        "title": "吹杨晒术后恢复照：熬过来了 第一次做手术希望也是最后一次🙏",
        "docid": "7340459755695325722",
        "url": ""
    },
    {
        "title": "重磅！国乒总教练李隼官宣：王艺迪已不适合继续参与奥运单打竞争",
        "docid": "7346867788713329167",
        "url": ""
    },
    {
        "title": "世界杯上零进球的四大巨星",
        "docid": "7321006014097130022",
        "url": ""
    },
    {
        "title": "别看NBA那么多亿万富翁破产了，但这5人永远不会，詹皇、一哥上榜",
        "docid": "7340204999902822924",
        "url": ""
    },
    {
        "title": "42岁夸梅·布朗：不再记恨乔丹和奇才，赚6400万美元够养一儿三女",
        "docid": "7345002128807379483",
        "url": ""
    },
    {
        "title": "单赛季前50场得分30+场次排名前五的球员：乔丹、亚历山大、哈登",
        "docid": "7332193366551134770",
        "url": ""
    },
    {
        "title": "中超:九队曾夺冠，诸侯今争霸，五年冠五队，龙年归哪队？",
        "docid": "7345392894968431116",
        "url": ""
    },
    {
        "title": "国乒威武！新加坡大满贯赛：大包大揽，五项冠军全收！",
        "docid": "7347023769715720754",
        "url": ""
    },
    {
        "title": "单节独得32分有多难？NBA仅6人达成，甜瓜上榜，乐福险破克莱纪录",
        "docid": "7320534812178170431",
        "url": ""
    },
    {
        "title": "库里4000记三分和杜兰特30000分，谁可以更快完成？",
        "docid": "7341006491291255315",
        "url": ""
    },
    {
        "title": "公路车越来越多｜为什么骑山地车的越来越少",
        "docid": "7322389529497862697",
        "url": ""
    },
    {
        "title": "美媒评选各时代goat，谁才是货真价实的统治者？",
        "docid": "7327544691975799296",
        "url": ""
    },
    {
        "title": "为何NBA几乎是被黑人球员统治？我用5张照片 告诉你原因",
        "docid": "7328231387084096019",
        "url": ""
    },
    {
        "title": "湖人又遭重创！浓眉眼睛被打肿提前离场，医学专家担忧视网膜脱落",
        "docid": "7347165814253961755",
        "url": ""
    },
    {
        "title": "天使面孔恶魔心！韩国排球美女李多英，甜美外表下藏着惊人真面目",
        "docid": "7322409917317677568",
        "url": ""
    },
    {
        "title": "NBA史上臀部最大的球员TOP10，詹姆斯勉强上榜，榜首天下无敌",
        "docid": "7319763154551259700",
        "url": ""
    },
    {
        "title": "万分之一机会下拍到的25个罕见画面，晚一秒都无法拍到！",
        "docid": "7329903261367386635",
        "url": ""
    },
    {
        "title": "运动员历史总收入排行榜公布：乔丹高居榜首，前50名中仅有4名足球运动员",
        "docid": "7344981721048187402",
        "url": ""
    },
    {
        "title": "单赛季3000分有多难？NBA历史仅2人做到 东契奇有望",
        "docid": "7321567216133325352",
        "url": ""
    },
    {
        "title": "盘点中国体坛四大美女：刘湘身材丰腴还开放，吴敏霞因老公做网红",
        "docid": "7346854139836416562",
        "url": ""
    },
    {
        "title": "百米飞人博尔特现状：退役7年生3个孩子，每年400万美元领一辈子",
        "docid": "7336868796310782479",
        "url": ""
    },
    {
        "title": "切尔西流失的四大现役天才",
        "docid": "7342340871864123940",
        "url": ""
    },
    {
        "title": "15年，东北小伙娶1.97米女篮巨人，公婆很喜欢：为儿媳拆掉房门！",
        "docid": "7317108460867371546",
        "url": ""
    },
    {
        "title": "她曾是体操女神， 退役后与大51岁的干爹谈恋爱！ 媒人竟是她爸爸！",
        "docid": "7343174600350057014",
        "url": ""
    },
    {
        "title": "笑抽了李梦手拿AD钙奶现编顺口溜，网友：宗馥莉赶快请她代言",
        "docid": "7346130212683317760",
        "url": ""
    },
    {
        "title": "郭晶晶退役10年再现经典跳水动作，霍启刚一脸崇拜：我老婆真厉害",
        "docid": "7330501904982213156",
        "url": ""
    },
    {
        "title": "1.8亿欧登顶！最新英超巨星身价榜，恩佐第九，曼城六人上榜",
        "docid": "7346875523798139419",
        "url": ""
    },
    {
        "title": "笑不活了，“吴艳妮8秒11夺冠”冲上热搜，我却笑死在网友评论区",
        "docid": "7345799382183264777",
        "url": ""
    },
    {
        "title": "为什么奥运会裁判报分时把 1:0 读作one love？",
        "docid": "7344253747826229771",
        "url": ""
    },
    {
        "title": "盘点联盟因身高拉低天赋上限的三位球星",
        "docid": "7343160727424975396",
        "url": ""
    },
    {
        "title": "棋圣聂卫平长子：改日本国籍，娶日本妻子，坚决不让混血儿子姓聂",
        "docid": "7341698407217955354",
        "url": ""
    },
    {
        "title": "赢球不可怕缺谁谁尴尬！快船胜公牛海兰德一战封神，哈登瑟瑟发抖",
        "docid": "7346874095067644479",
        "url": ""
    },
    {
        "title": "阿奴诺比效率联盟第一！细数联盟历史十大顶级3D球员！",
        "docid": "7328350802031084084",
        "url": ""
    },
    {
        "title": "王曼昱打疯了！大满贯赛连扳4局逆转陈梦，晋级女单决赛争冠军",
        "docid": "7346862611784417846",
        "url": ""
    },
    {
        "title": "在曼城效力时间不超过一年的十大知名球星：世界最佳右后卫在列",
        "docid": "7334178349566591538",
        "url": ""
    },
    {
        "title": "巅峰皮尔斯能打爆詹姆斯吗？69次交手告诉你答案，没对比就没伤害",
        "docid": "7317507812098474535",
        "url": ""
    },
    {
        "title": "盘点全明星赛后下滑最大的20名球星，布克上榜，哈利伯顿高居第4",
        "docid": "7345107194558005772",
        "url": ""
    },
    {
        "title": "她19岁战胜张怡宁，26岁被开除，如今进军金融、娱乐圈变女神",
        "docid": "7345378693189239334",
        "url": ""
    },
    {
        "title": "国际足坛历史十大门将，雅辛领衔毫无争议，卡西利亚斯排名第九",
        "docid": "7336125662598038070",
        "url": ""
    },
    {
        "title": "都说钓鱼佬除了鱼，什么都能钓起来？",
        "docid": "7314549994760061450",
        "url": ""
    },
    {
        "title": "意大利历史足坛最佳十一人，布冯、托蒂都只能当替补",
        "docid": "7343144193726005794",
        "url": ""
    },
    {
        "title": "从中国“抢走”乒乓球世界冠军最多的十位名将。女子仅一人上榜",
        "docid": "7330580289166557732",
        "url": ""
    },
    {
        "title": "湖人众将为詹姆斯三分被取消鸣不平，里弗斯：为何可以这样操作？",
        "docid": "7347170233657934376",
        "url": ""
    },
    {
        "title": "凯尔·科沃尔生涯简历",
        "docid": "7267534377511698944",
        "url": ""
    },
    {
        "title": "福原爱江宏杰突然宣布和解！",
        "docid": "7346538676668645940",
        "url": ""
    },
    {
        "title": "2023届NBA新秀前十名的最新排名，勇士，火箭笑了",
        "docid": "7344595585812972059",
        "url": ""
    },
    {
        "title": "一拳把杜锋打晕的外援，曾砍下60分29个篮板，来CBA时闹了场乌龙",
        "docid": "7343625183229477427",
        "url": ""
    },
    {
        "title": "沈佳妮：体操运动员跨行当演员，30岁嫁29岁朱亚文生两女被当成宝",
        "docid": "7327534814755455525",
        "url": ""
    },
    {
        "title": "生涯20个赛季有多难？NBA历史仅有10人做到，老詹有望冲击第一",
        "docid": "7332762893488063015",
        "url": ""
    },
    {
        "title": "男篮巩晓彬近况：54岁依旧很帅，财富自由，儿子拜师伊巴卡",
        "docid": "7314693437947855423",
        "url": ""
    },
    {
        "title": "这韩乒长公主能处！可盐可甜，又纯又欲，战力不菲，不遭人烦",
        "docid": "7329902186748936756",
        "url": ""
    },
    {
        "title": "谷爱凌是借精生子的结果？原来她是这样的冠军",
        "docid": "7347123225773589001",
        "url": ""
    },
    {
        "title": "王治郅妻子主持春晚！一身红裙惊艳全场，倾国倾城，简直太美了…",
        "docid": "7346062231576085044",
        "url": ""
    },
    {
        "title": "浓眉伤退库里复出，湖人121-128勇士，谁的责任？数据不会骗人！",
        "docid": "7346929727015338511",
        "url": ""
    },
    {
        "title": "3月17NBA西部排名更新 火箭5连胜 雷霆赢球升榜首 湖人勇士互换排位",
        "docid": "7346931150503346738",
        "url": ""
    },
    {
        "title": "GOAT之争丨网友评论詹姆斯vs乔丹：詹姆斯只能用Excel击败乔丹",
        "docid": "7329787366229426688",
        "url": ""
    },
    {
        "title": "随着勇士128:121湖人/雷霆118:112灰熊,NBA太激烈,最新排行榜如下",
        "docid": "7347152355521020467",
        "url": ""
    },
    {
        "title": "21岁那个意气风发的陈梦 颜值实力并存 是多少人梦寐以求的少年哇？",
        "docid": "7315328139712905743",
        "url": ""
    },
    {
        "title": "在CBA拿10000分有多难？历史仅5人做到，2位外援3位男篮巨星",
        "docid": "7325973599830180389",
        "url": ""
    },
    {
        "title": "湖人 121-128不敌勇士，本场比赛4大不可思议，3个不争事实！",
        "docid": "7347159763191104052",
        "url": ""
    },
    {
        "title": "强如麦迪当年选秀仅第9顺位被选中，前面8人是谁，第一荣誉碾压",
        "docid": "7335063413334704655",
        "url": ""
    },
    {
        "title": "布伦森连续砍下40+ 成尼克斯队史第四人",
        "docid": "7347233662766809652",
        "url": ""
    },
    {
        "title": "广东宏远五虎上将退役后都在干什么？杜4朱8留守，陈6王7易9呢",
        "docid": "7314008870857523724",
        "url": ""
    },
    {
        "title": "大满贯17日赛程出炉！王曼昱“硬刚”王艺迪，梁靖崑迎奥运良机！",
        "docid": "7347040308015743542",
        "url": ""
    },
    {
        "title": "4-2，5-2！足坛悲喜夜！曼城晋级，皇马大胜拜仁开杀戒，热刺爆冷",
        "docid": "7347046664424702502",
        "url": ""
    },
    {
        "title": "大堀彩和志田千阳谁更漂亮谁更可爱？",
        "docid": "7343907226270122496",
        "url": ""
    },
    {
        "title": "女子用红绳绑鸡肉钓鱼，居然真有大鱼上钩，钓鱼的都沉默了",
        "docid": "7322716345601262118",
        "url": ""
    },
    {
        "title": "女篮最伟大五大球星：李梦韩旭竟全部落选，王思雨仅排第五名",
        "docid": "7316854773637153306",
        "url": ""
    },
    {
        "title": "娜后首人！中国金花逆袭，八破发惊艳法网，强势挺进IW赛八强",
        "docid": "7346400091730723347",
        "url": ""
    },
    {
        "title": "刺记：TJD隔扣文班前 右手扒拉文班手臂 应该是进攻犯规",
        "docid": "7345312571194524201",
        "url": ""
    },
    {
        "title": "女排名将周苏红，10年前被全家逼迫离婚，改嫁富豪后怎样了",
        "docid": "7329406844999991843",
        "url": ""
    },
    {
        "title": "世界足坛十大背叛者。菲戈荣登榜首，实至名归？",
        "docid": "7335034974745444902",
        "url": ""
    },
    {
        "title": "盘点国际足坛历史上，各国家队大型赛事中的最近五座冠军球队",
        "docid": "7335337348734943780",
        "url": ""
    },
    {
        "title": "秦门多儒将，肖门杀四方，教练肖战带出来的徒弟，全员都是狠人",
        "docid": "7346907334305710628",
        "url": ""
    },
    {
        "title": "“体操女皇”程菲：25岁退役，身材走样，如今父亲只求嫁个好人家",
        "docid": "7329838493654778379",
        "url": ""
    },
    {
        "title": "😡🤬ESPN解说怒喷连续三次不走表：简直是耻辱！！",
        "docid": "7347162825648914984",
        "url": ""
    },
    {
        "title": "湖勇大战爆砍41分8篮板9助攻！詹姆斯511工程倒计时全纪录！",
        "docid": "7347146771413369354",
        "url": ""
    },
    {
        "title": "正式签约！扬言打爆詹姆斯！NBA第一疯子杀回来了",
        "docid": "7346803833256886799",
        "url": ""
    },
    {
        "title": "詹姆斯空砍40分！湖人主场不敌勇士，先“崩盘”的竟是计时器",
        "docid": "7347180626116379174",
        "url": ""
    },
    {
        "title": "7输外战的王艺迪被取消竞争资格，6输外战的王楚钦、马龙却能继续",
        "docid": "7347147016557888011",
        "url": ""
    },
    {
        "title": "快船众将遇美女运营拍摄：伦纳德插兜快步走，哈登社牛祖巴茨反拍",
        "docid": "7330646995343770147",
        "url": ""
    },
    {
        "title": "王皓的心声：厨子的命也太好了，今晚我也要出去喝点小酒！",
        "docid": "7347125153043644968",
        "url": ""
    },
    {
        "title": "问心无愧？大满贯赛再起争议，王曼昱被扣1分，帮国际乒联想办法",
        "docid": "7347049414378209827",
        "url": ""
    },
    {
        "title": "当邓肯退役后，没人再拿波波维奇对比禅师，这就是差距",
        "docid": "7315214350191559222",
        "url": ""
    },
    {
        "title": "后不后悔？24岁想要800万，被湖人一口拒绝，26岁身价涨到8000万",
        "docid": "7346445399399416354",
        "url": ""
    },
    {
        "title": "随着新疆爆冷不敌广州、上海战胜青岛，CBA最新排名及形势如下！",
        "docid": "7346974499444687394",
        "url": ""
    },
    {
        "title": "倪夏莲真是一个奇迹，入籍卢森堡，在丈夫帮助下60岁还能拿冠军！",
        "docid": "7331148615462699571",
        "url": ""
    },
    {
        "title": "40分8板9助！就在今天，一项由乔丹保持的NBA纪录被老詹达成了",
        "docid": "7347167454789141055",
        "url": ""
    },
    {
        "title": "欧冠8强诞生死亡半区：皇马拜仁曼城全在！巴萨乐开花：保送决赛",
        "docid": "7346509103256175116",
        "url": ""
    },
    {
        "title": "2-0！挺进半决赛，曼城刷爆3大纪录！3线争冠：8强，4强，落后1分",
        "docid": "7347062241705017897",
        "url": ""
    },
    {
        "title": "“悲情英雄”李宗伟，为治癌花936万续命，流泪称：抗癌太痛苦了",
        "docid": "7322431734841688615",
        "url": ""
    },
    {
        "title": "桃李满天下！盘点杜克名帅老K教练十大爱徒：塔图姆传承希尔",
        "docid": "7309003876479582758",
        "url": ""
    },
    {
        "title": "釜山世乒赛，中日观众现场跳舞battle，一生要强的中国女人！",
        "docid": "7339378459581350411",
        "url": ""
    },
    {
        "title": "张伟丽举起300多斤的奥尼尔，奥尼尔很是惊讶，格斗女王名不虚传",
        "docid": "7329407498854367753",
        "url": ""
    },
    {
        "title": "面无表情的擦肩而过 但是我装的 #欧文 #杜兰特 #伤感剪辑",
        "docid": "7320302809570607656",
        "url": ""
    },
    {
        "title": "初见乔丹什么感受？詹姆斯秒变迷弟还爆粗：不敢相信能见到黑耶稣",
        "docid": "7327932951424369204",
        "url": ""
    },
    {
        "title": "17岁的莎拉波娃第一次夺得大满贯冠军，2004温网决赛对阵小威",
        "docid": "7316414238057202214",
        "url": ""
    },
    {
        "title": "答案转身回头的瞬间 一定是把韦德看成了科比#科比 #艾弗森",
        "docid": "7343247491749544463",
        "url": ""
    },
    {
        "title": "北美最强初中生，女版“哈登”海莉范丽丝，打球有多强？",
        "docid": "7319833753499468288",
        "url": ""
    },
    {
        "title": "09届四大球星是否已超越自己的选秀模板？库里碾压，状元已无机会",
        "docid": "7320093832057225767",
        "url": ""
    },
    {
        "title": "12场比赛骗走265万美元，摆了中国篮协一道，也搞乱了整个CBA",
        "docid": "7342020220158116391",
        "url": ""
    },
    {
        "title": "随着皇马4-2大胜，赫罗纳0-1输球，狂野西甲最新积分榜排名如下！",
        "docid": "7347101417057944079",
        "url": ""
    },
    {
        "title": "这鱼不起眼，营养极高！比鲫鱼营养，比鲤鱼鲜，刺少肉厚营养高",
        "docid": "7341284927889654284",
        "url": ""
    },
    {
        "title": "NBA现役超巨有几人？翻遍全联盟 也就5人 其他最多算巨星",
        "docid": "7316348800711311911",
        "url": ""
    },
    {
        "title": "男子钓鱼时遇见，鱼群被海浪给冲上礁石，钓什么鱼，直接去捡了",
        "docid": "7341279246167310858",
        "url": ""
    },
    {
        "title": "女生因男友只顾打台球，淡定藏球坐一旁憋笑围观，男友反应逗乐人",
        "docid": "7322008201837150783",
        "url": ""
    },
    {
        "title": "滑雪员滑到顶峰一跃而下，跳下后才发现是深坑，下秒瞬间消失雪中",
        "docid": "7327471635664110117",
        "url": ""
    },
    {
        "title": "新加坡大满贯女单决赛-王曼昱4-1王艺迪夺冠 两位姑娘都很棒！",
        "docid": "7347301330332992054",
        "url": ""
    },
    {
        "title": "第一次与科比相遇，当初才17岁的瓦妮莎究竟有多美？",
        "docid": "7332459026372641299",
        "url": ""
    },
    {
        "title": "艾弗森生涯唯一一个MVP含金量多高？看看前5就知道 鲨科佛皆为陪衬",
        "docid": "7322071287009444404",
        "url": ""
    },
    {
        "title": "“除非我故意败家，若不然钱根本用不完”，NBA5人敢这样说",
        "docid": "7341979699322618431",
        "url": ""
    },
    {
        "title": "如果你是老板，你是投资乔丹还是詹姆斯？",
        "docid": "7317582899539395098",
        "url": ""
    },
    {
        "title": "贝克汉姆长子：入赘犹太富豪家族吃软饭！3周年发美女老婆赤身照",
        "docid": "7346845413511578138",
        "url": ""
    },
    {
        "title": "被王楚钦轻取，谁注意勒布伦举动，刘国梁早有预言，大头没做错",
        "docid": "7347137137122624039",
        "url": ""
    },
    {
        "title": "奥尼尔的说唱什么水平？#奥尼尔VS郑肯",
        "docid": "7346900889455886911",
        "url": ""
    },
    {
        "title": "正式下课！NBA首个1亿先生！再见了，姚明队友",
        "docid": "7347156255686885923",
        "url": ""
    },
    {
        "title": "退役才7年，38岁奥运冠军菲尔普斯，瘦似60岁老人，发生了什么？",
        "docid": "7318264152500273699",
        "url": ""
    },
    {
        "title": "随着湖人不敌勇士、国王不敌尼克斯，西部最新排名及形势如下！",
        "docid": "7347184024555569698",
        "url": ""
    },
    {
        "title": "15岁已经2米01！阿里纳斯儿子穿训练跑鞋轰51分！真像他爸！",
        "docid": "7328747774558929427",
        "url": ""
    },
    {
        "title": "这就是国内顶级球员的运球水平吗，只能说还有很长的路要走",
        "docid": "7317922419082658338",
        "url": ""
    },
    {
        "title": "精神小伙打不过女学员 女学员：喜欢叫？#拳击🥊 #歹徒兴奋拳",
        "docid": "7316068635301610036",
        "url": ""
    },
    {
        "title": "两人下五子棋，一直下到地上还未分出胜负",
        "docid": "7325259889654759976",
        "url": ""
    },
    {
        "title": "初中生打球极像库里，三分神准打爆年级赛",
        "docid": "7332118121345450507",
        "url": ""
    },
    {
        "title": "太用心了！网友整理了，孙颖莎和王楚钦从出生到23岁的照片集合",
        "docid": "7344053019334066739",
        "url": ""
    },
    {
        "title": "马龙：他的人生彻底击败张继科，而张继科败在了性格",
        "docid": "7326047645745611291",
        "url": ""
    },
    {
        "title": "静静的欣赏就好 #乒乓球",
        "docid": "7327320229015781898",
        "url": ""
    },
    {
        "title": "恭喜王楚钦！恭喜梁靖崑！国乒两大克星爆冷出局，王皓如释重负",
        "docid": "7346124417660994082",
        "url": ""
    },
    {
        "title": "生涯至少2400次抢断有多难？翻遍NBA历史仅5人做到，老詹差143次",
        "docid": "7345397574284640783",
        "url": ""
    },
    {
        "title": "网友拍下春季运动会，洒脱热烈而美好，这大概就是青春的样子吧",
        "docid": "7343128764781429275",
        "url": ""
    },
    {
        "title": "NBA中场秀的GOAT，看呆一众美国人民！",
        "docid": "7337518592772997686",
        "url": ""
    },
    {
        "title": "快船被鹈鹕凿沉！三内线形同虚设！一人难替哈登 泰伦卢黔驴技穷了",
        "docid": "7346890060882608674",
        "url": ""
    },
    {
        "title": "弗格37分赵继伟16+12+5 张镇麟付豪命中关键三分辽宁险胜天津",
        "docid": "7347296698970194484",
        "url": ""
    },
    {
        "title": "贝尔新东家首秀16+9周琦10+7 广东轻取四川送对手14连败",
        "docid": "7347308532742292022",
        "url": ""
    },
    {
        "title": "吃饭睡觉打保罗！重装坦克德隆威廉姆斯为何突然消失在球迷的视野",
        "docid": "7318703828407255591",
        "url": ""
    },
    {
        "title": "NBA今日里程碑：詹姆斯40+8+9刷十纪录！拉塞尔23+13自1996后首人",
        "docid": "7347116555207033355",
        "url": ""
    },
    {
        "title": "詹姆斯：我第一次打全明星在1968年 和大帅&J博士一队 77满脸问号",
        "docid": "7337240602444595722",
        "url": ""
    },
    {
        "title": "把俩阿姨逗笑！詹姆斯与珍妮谈笑风生被多次摸手臂：詹嫂要吃醋了",
        "docid": "7344271347943473679",
        "url": ""
    },
    {
        "title": "小孩哥：最不屑的表情，转最快的魔方",
        "docid": "7317080150296920612",
        "url": ""
    },
    {
        "title": "她是体操女神，拒绝身价过亿的前夫资助，36岁肤白貌美至今未婚",
        "docid": "7342832146534810139",
        "url": ""
    },
    {
        "title": "“我以为詹姆斯是来辅佐我的”，被群嘲的里基戴维斯后来去哪了？",
        "docid": "7330905390386922038",
        "url": ""
    },
    {
        "title": "宣布和解，江宏杰已接到孩子离开日本，网友：最终女方承担了所有",
        "docid": "7347153231249736207",
        "url": ""
    },
    {
        "title": "奖杯很大！王楚钦孙颖莎看了都惊讶，然而奖金减少，很尴尬啊",
        "docid": "7346868102564676146",
        "url": ""
    },
    {
        "title": "什么是摧枯拉朽一样的进攻？三R组合击溃阿根廷防线",
        "docid": "7328365148598043136",
        "url": ""
    },
    {
        "title": "随着现代足球的发展 这三种类型的球员几乎已经绝迹了",
        "docid": "7329891430556877362",
        "url": ""
    },
    {
        "title": "NBA一刻",
        "docid": "7324853512938979840",
        "url": ""
    },
    {
        "title": "张伯伦尘封57年纪录！要被25岁二轮秀打破？难度不输单场100分",
        "docid": "7345845342523294262",
        "url": ""
    },
    {
        "title": "2024多哈世锦赛，伊朗跳水运动员塔吉·阿斯卡里",
        "docid": "7334597811641680411",
        "url": ""
    },
    {
        "title": "足总杯-帕尔默传射斯特林失点 切尔西补时连入两球 4-2绝杀莱斯特城",
        "docid": "7347340048787898914",
        "url": ""
    },
    {
        "title": "肌肉再强也别跟奥尼尔合影，因为拍出来看了 你真的会想哭",
        "docid": "7337504964203332134",
        "url": ""
    },
    {
        "title": "拉塞尔一家近照，被交易4次，27岁赚1.7亿，超模女友很漂亮",
        "docid": "7339832780819628571",
        "url": ""
    },
    {
        "title": "大满贯奖金榜:王楚钦7.4万美元第1,王曼昱第2,孙颖莎6,樊振东11",
        "docid": "7347187776565117490",
        "url": ""
    },
    {
        "title": "鱼从池子里蹦出来，女子一脚踢回池中，国足不能没有你！",
        "docid": "7344156993990427147",
        "url": ""
    },
    {
        "title": "萌娃边哭边练球，拍拍精准打中， 网友：打球是本能，哭只是助兴",
        "docid": "7335334831020048907",
        "url": ""
    },
    {
        "title": "又帅又飒！女生百米决赛翻筋斗过终点，全场炸裂！",
        "docid": "7314582961897243176",
        "url": ""
    },
    {
        "title": "萌娃练习跳水惊艳全场",
        "docid": "7329413256010072626",
        "url": ""
    },
    {
        "title": "机器？只有获得过4个得分王的球星才算得分机器！仅有4人做到过！",
        "docid": "7345799281838113306",
        "url": ""
    },
    {
        "title": "24年前，那个夺奥运金牌后，连国旗都找不到的王丽萍，现状如何？",
        "docid": "7321902919325041206",
        "url": ""
    },
    {
        "title": "为何霍华德没进75大巨星，库里、詹姆斯早已洞悉了其中的秘密",
        "docid": "7347200613501288994",
        "url": ""
    },
    {
        "title": "“保罗第一次进入总决赛”#保罗",
        "docid": "7345488271993995812",
        "url": ""
    },
    {
        "title": "😲全球职业球队市值排行：勇士估值82.8亿美元 全球第2！",
        "docid": "7338245634463564322",
        "url": ""
    },
    {
        "title": "【爆燃】詹姆斯首战震撼入位，NBA新星竟让全场惊呼",
        "docid": "7345085340190769698",
        "url": ""
    },
    {
        "title": "山寨克莱如何溜进勇士球馆？竟一路畅通直接进场馆，还上场投篮",
        "docid": "7336164115733774900",
        "url": ""
    },
    {
        "title": "NBA历史最远进球！普通人想复制，又有多难？",
        "docid": "7332740362823598601",
        "url": ""
    }
]