[
    {
        "title": "中国女排巨星朱婷，比赛奖金全部拿来还清家债，家人为她操碎婚事",
        "docid": "7330563235869606415",
        "url": ""
    },
    {
        "title": "刷新历史第一神迹库里8记三分轰37+8+7超詹皇 单节15分拯救勇士",
        "docid": "7330504303443984911",
        "url": ""
    },
    {
        "title": "卫冕冠军爆冷遭淘汰，男双独苗再进一步，混双无缘争冠｜赛事速递",
        "docid": "7330601428518044200",
        "url": ""
    },
    {
        "title": "中超终于迎来一位大牌外援锋霸，身价高达500万欧元，已敲定东家",
        "docid": "7330555443594805794",
        "url": ""
    },
    {
        "title": "太牛掰了，从0-3到5-4大逆转，中国名将绝杀世界冠军",
        "docid": "7330516104856764940",
        "url": ""
    },
    {
        "title": "斯诺克爆大冷！中国新星打疯了，5-4绝杀逆转，连灭2大世界冠军",
        "docid": "7330503058646123008",
        "url": ""
    },
    {
        "title": "打麻将过程中绝对不能做的四件事，谨记在心方能避免输牌！",
        "docid": "7327979467593400872",
        "url": ""
    },
    {
        "title": "听说你要蝉联MVP？库里砍下37分，恩比德14分7篮板",
        "docid": "7330522010130383371",
        "url": ""
    },
    {
        "title": "杜峰太信任他，才导致广东队的惨败，他不离开输球会更多",
        "docid": "7330518740943274531",
        "url": ""
    },
    {
        "title": "国足选帅杀出大黑马，3大优势力压一众候选者，郑智是他昔日爱将",
        "docid": "7330508507621392911",
        "url": ""
    },
    {
        "title": "快船125-109奇才，伦纳德和哈登就是无解的组合",
        "docid": "7330505701460804106",
        "url": ""
    },
    {
        "title": "2-1甩开曼城3分 阿森纳紧追利物浦 热苏斯助攻+零度角破门封神",
        "docid": "7330201489610654227",
        "url": ""
    },
    {
        "title": "NBA：赛场爆冷，勇士战胜费城，上演逆风翻盘",
        "docid": "7330519216091103807",
        "url": ""
    },
    {
        "title": "火箭惨败鹈鹕！格林暴砍31分，2新秀展价值，申京史密斯攻守崩盘",
        "docid": "7330545813589950991",
        "url": ""
    },
    {
        "title": "格林打服黑子！白魔真香！火箭内线被爆 主场惨败鹈鹕 2人该负全责",
        "docid": "7330463973932188179",
        "url": ""
    },
    {
        "title": "中国斯诺克球员：英国训练买菜都是捡最便宜的",
        "docid": "7312831735342727720",
        "url": ""
    },
    {
        "title": "恩比德出事了! NBA官方突发介入! 真得好好查查了...",
        "docid": "7330178191937946112",
        "url": ""
    },
    {
        "title": "哈登25+9+4帽！伦纳德31+9+4断，威少9+3+7，快船大胜奇才！",
        "docid": "7330541121154089524",
        "url": ""
    },
    {
        "title": "不懂就问，NBA拿下四双的球员都有谁？文班亚马成现役之光",
        "docid": "7330619260924117519",
        "url": ""
    },
    {
        "title": "太阳一战创3大耻辱纪录！布克两战106分全输球，杜兰特主动揽责",
        "docid": "7329725539861201419",
        "url": ""
    },
    {
        "title": "伦纳德为啥是快船实力强劲的最大资本？快船定海神针，攻防一体",
        "docid": "7330503864447320587",
        "url": ""
    },
    {
        "title": "施之皓：一婚娶“乒乓女皇”曹燕华，二婚娶弟子李楠，今怎样了",
        "docid": "7328756238979285519",
        "url": ""
    },
    {
        "title": "2位幸运的陕西男人，他们都娶了“跳水皇后”，太幸福了",
        "docid": "7319083269549736457",
        "url": ""
    },
    {
        "title": "打脸败家教练和老总！又1位广东弃将砍14分，比0分的张皓嘉强多了",
        "docid": "7330518953724330530",
        "url": ""
    },
    {
        "title": "差点100%投篮命中率！再见了，郭艾伦！中国男篮看不上的第一控卫",
        "docid": "7315091769903989284",
        "url": ""
    },
    {
        "title": "什么档次和我交易？穆雷全场24分9助2断；水拉11中3取9分5助",
        "docid": "7330472117559034387",
        "url": ""
    },
    {
        "title": "他正式宣布：转型当演员",
        "docid": "7329819386800341531",
        "url": ""
    },
    {
        "title": "太欺负人，湖人与老鹰的比赛后，这一战打出了三个可笑的事实！",
        "docid": "7330535319927931427",
        "url": ""
    },
    {
        "title": "太离谱了！杨毅捧哏看衰哈登：和拉塞尔数据一样，薪资还高于人家",
        "docid": "7330150059679744527",
        "url": ""
    },
    {
        "title": "NBA现役球星个人单场得分前十，哈登，詹姆斯排倒数，卢卡创新高",
        "docid": "7328780241718051365",
        "url": ""
    },
    {
        "title": "明明就又能得分又能防守，然而这样的球员却在湖人无法得到重用？",
        "docid": "7330519339856265791",
        "url": ""
    },
    {
        "title": "6-4！亚洲杯狂欢夜：世界第91创历史，日本漏洞突出，伊朗险爆冷",
        "docid": "7330439891144606242",
        "url": ""
    },
    {
        "title": "再见雄鹿！别了29队！利拉德突然亲承生涯下一站",
        "docid": "7330525407751455286",
        "url": ""
    },
    {
        "title": "因一个女人的出现,郭晶晶斩断与田亮的情缘,当年到底发生了什么",
        "docid": "7330449935898362402",
        "url": ""
    },
    {
        "title": "浙江胜青岛！两帅无感情握手，程帅澎暴汗，盖利淡定，杨瀚森开心",
        "docid": "7330633774931264039",
        "url": ""
    },
    {
        "title": "奖金815万郑钦文首进澳网决赛创神迹：升世界第7，老爸激情庆祝",
        "docid": "7328334728573698599",
        "url": ""
    },
    {
        "title": "10人伊朗队绝境爆发，6-4取胜晋级亚洲杯八强，将迎亚洲巅峰对决",
        "docid": "7330131656215724579",
        "url": ""
    },
    {
        "title": "中国男篮未来核心应重点培养以下8人，张镇麟领衔，以00后为主",
        "docid": "7330475558176178707",
        "url": ""
    },
    {
        "title": "中国选手3胜3负，世界第14爆冷出局16强决出6席，top16仅剩5位",
        "docid": "7330505246285873705",
        "url": ""
    },
    {
        "title": "我不是水货！榜眼米勒砍29+7+3，场均15.1分新秀中仅次于状元文班",
        "docid": "7330474363051213348",
        "url": ""
    },
    {
        "title": "西部排名又乱了：火箭双喜临门，湖人遭遇魔鬼赛程，勇士剑指前十",
        "docid": "7330513123276800531",
        "url": ""
    },
    {
        "title": "62岁知名港星斯文扫地，恶意踢人还引以为豪，曾在球场上参与群殴",
        "docid": "7300825013245362715",
        "url": ""
    },
    {
        "title": "球队中仅有1位全明星带队夺冠有多难？NBA历史仅5次，乔丹上榜！",
        "docid": "7330503490206728719",
        "url": ""
    },
    {
        "title": "丘索维金娜回国后，心心念念中国国货，好友朗朗直接豪爽送一车",
        "docid": "7299040996191584779",
        "url": ""
    },
    {
        "title": "格林落选美国男篮大名单是否有待商榷？并非不可或缺，英才辈出",
        "docid": "7330556912386343443",
        "url": ""
    },
    {
        "title": "核心缺阵原形毕露，内线复出如虎添翼，库里37分正负值高达26",
        "docid": "7330509330380751372",
        "url": ""
    },
    {
        "title": "恩比德14分8失误再次伤退库里37分，库明加连续7场20+手到擒来",
        "docid": "7330511172648878631",
        "url": ""
    },
    {
        "title": "迪文岑佐9记三分无缘今日最佳球员，因为库里爆砍37+8+7再创纪录",
        "docid": "7330504131985490471",
        "url": ""
    },
    {
        "title": "“她们腿长，胸大，裙子够短，肯定有人看！”",
        "docid": "7322665126329614888",
        "url": ""
    },
    {
        "title": "里弗斯上任，雄鹿耻辱两连败，猪脑战术竟还甩锅字母，可笑至极！",
        "docid": "7330533847354327587",
        "url": ""
    },
    {
        "title": "上海一家星巴克成为“围棋迷”据点",
        "docid": "7328920982763225641",
        "url": ""
    },
    {
        "title": "年薪只需150万！伊万科维奇：想执教中国队，有信心闯入世界杯！",
        "docid": "7330551271223034403",
        "url": ""
    },
    {
        "title": "看着都疼 库明加坐压恩比德左腿，网友：怎么敢带伤打勇士",
        "docid": "7330514422425387560",
        "url": ""
    },
    {
        "title": "💢大乱斗！雷霆赢下卡位战升西部第二 快船坐上第三！！",
        "docid": "7330471194900267520",
        "url": ""
    },
    {
        "title": "阿奴诺比效率联盟第一！细数联盟历史十大顶级3D球员！",
        "docid": "7328350802031084084",
        "url": ""
    },
    {
        "title": "国足将迎来新归化中锋？只有24岁曾效力切尔西，谭龙因此主力难",
        "docid": "7330581746826199606",
        "url": ""
    },
    {
        "title": "天使面孔恶魔心！韩国排球美女李多英，甜美外表下藏着惊人真面目",
        "docid": "7322409917317677568",
        "url": ""
    },
    {
        "title": "强如韦德只能屈尊第五，“03白金一代”到底有哪些大神？",
        "docid": "7330163859120243200",
        "url": ""
    },
    {
        "title": "意难平！太阳新三巨头出战场次已超越篮网三巨头",
        "docid": "7330470697346744867",
        "url": ""
    },
    {
        "title": "当年雷霆三少得分能力究竟多猛？单赛季超过2500分，大帝机会渺茫",
        "docid": "7330287727587394057",
        "url": ""
    },
    {
        "title": "戴维斯杯中斯大战一触即发，张之臻领衔中国男网最强阵容出战",
        "docid": "7330543866191856155",
        "url": ""
    },
    {
        "title": "不可思议！替补20分钟14罚球，辽宁冠军外援独一档，CBA裁判纵容",
        "docid": "7330337813780742691",
        "url": ""
    },
    {
        "title": "打麻将掌握“三不打”“三不碰”原则，可以轻松赢牌。",
        "docid": "7303705537764786703",
        "url": ""
    },
    {
        "title": "从濒临退役，被嘲笑14投0中，到20投16中，邱彪重塑新“西热”",
        "docid": "7328830900639482379",
        "url": ""
    },
    {
        "title": "仅剩两人幸存NBA，2010年选秀到底怎么了？",
        "docid": "7305763949403259446",
        "url": ""
    },
    {
        "title": "印度6个蟊贼偷走2200枚奖牌，本以为是纯金制成，结果每块只值19元",
        "docid": "7330545399100424740",
        "url": ""
    },
    {
        "title": "他曾是国足头号射手，与空姐妻子离婚，独自抚养儿子后重返球坛",
        "docid": "7310071883641209344",
        "url": ""
    },
    {
        "title": "赵继伟口含纱布头戴面罩！约沙克被夹臂差点失控，山东被逆转大败",
        "docid": "7330512939713217060",
        "url": ""
    },
    {
        "title": "培根29分引领风骚，上海主场强势拿下广州，连胜纪录再添一笔！",
        "docid": "7330677021783392820",
        "url": ""
    },
    {
        "title": "CBA最新积分榜：新疆第1辽宁第2，广东广厦同时输球，江苏垫底",
        "docid": "7330502274126676495",
        "url": ""
    },
    {
        "title": "孔大爷打麻将28年，总结7句经典麻将绝招给侄子，打麻将胡牌关键",
        "docid": "7314538028309971496",
        "url": ""
    },
    {
        "title": "官宣！广州男篮补强成功，27岁外援加盟，郭士强重燃季后赛希望",
        "docid": "7330591263709954571",
        "url": ""
    },
    {
        "title": "只差253分神级纪录就在眼前，前无古人后无来者，老詹略显疲态",
        "docid": "7330535528716763688",
        "url": ""
    },
    {
        "title": "夺冠热门意外倒下，联盟最被高估的二人组5换1交易遭受巨大损失！",
        "docid": "7330672755760808488",
        "url": ""
    },
    {
        "title": "正式官宣！足协签约新帅，是中国球迷的老熟人，年薪不如扬科维奇",
        "docid": "7330686655894176265",
        "url": ""
    },
    {
        "title": "谁来终结勇士队73连胜的传奇纪录？",
        "docid": "7330630835953680937",
        "url": ""
    },
    {
        "title": "央视乒乓赛事直播解说，有人敢说乱说胡说，有人一说就想踹死他",
        "docid": "7330176530109399552",
        "url": ""
    },
    {
        "title": "中国男篮未来核心应重点培养以下8人，张镇麟领衔，以00后为主",
        "docid": "7330153331949781538",
        "url": ""
    },
    {
        "title": "剥夺联赛资格！云南赛季投入超8000万，刚引进李金羽、穆谢奎",
        "docid": "7330498742808216079",
        "url": ""
    },
    {
        "title": "德国大师赛爆冷！世界冠军惨遭逆转绝杀，中国军团一胜两负遭重创",
        "docid": "7330567410931270196",
        "url": ""
    },
    {
        "title": "田亮16岁女儿夺冠，下一站成为郑钦文? 再次证明网球只属富二代",
        "docid": "7330511825873666600",
        "url": ""
    },
    {
        "title": "小萨20 26多强：队史首人 本季首人 生涯纪录 打爆DPO",
        "docid": "7330324019469713939",
        "url": ""
    },
    {
        "title": "太乱了！8强出炉，上届冠亚军全被淘汰，夺冠热门0-2爆大冷也出局",
        "docid": "7330562868750828073",
        "url": ""
    },
    {
        "title": "2020年马拉多纳的生命最后：对侄子留下遗言，下葬时心脏被摘除",
        "docid": "7317980728015847988",
        "url": ""
    },
    {
        "title": "吉新鹏：中国羽坛首位男单奥运冠军，25岁无奈退役，娶打工妹被嘲",
        "docid": "7318218790897107508",
        "url": ""
    },
    {
        "title": "世界第1奥沙利文赞他能夺世锦赛冠军，5-1夺2连胜",
        "docid": "7330549673398551051",
        "url": ""
    },
    {
        "title": "火箭队队史纪录大全，哈登奥拉朱旺包揽了所有的队史纪录",
        "docid": "7319033715664110091",
        "url": ""
    },
    {
        "title": "盘点NBA总亚军数排名前五的球队",
        "docid": "7317167087758344739",
        "url": ""
    },
    {
        "title": "江苏女排给排协出了一道难题",
        "docid": "7328771128725094951",
        "url": ""
    },
    {
        "title": "国足换帅有变！足协敲定方向，极端情况：61岁名帅上任，球迷叫好",
        "docid": "7328968842246799887",
        "url": ""
    },
    {
        "title": "为什么说快船实力超群鲜有对手？鹈鹕雷霆绿军不足为惧，夺冠可期",
        "docid": "7329780910508032553",
        "url": ""
    },
    {
        "title": "3-1！英超卫冕冠军大爆发，双杀弱旅，豪取8连胜，哈兰德王者归来",
        "docid": "7330528235107533327",
        "url": ""
    },
    {
        "title": "最新战报！斯诺克16强已出其六，中国2位00后均5-1，90后名将3-5",
        "docid": "7330571759189901864",
        "url": ""
    },
    {
        "title": "男足亚洲杯8强出炉一支第四档球队创造奇迹；伊朗点杀压轴晋级",
        "docid": "7330527181203948032",
        "url": ""
    },
    {
        "title": "129-0、115-12，世界第1奥沙利文赞他能获世锦赛冠军，5-1夺2连胜",
        "docid": "7330502798846722575",
        "url": ""
    },
    {
        "title": "请别再把麻将的基本功当成你打麻将的主要手段，怪不得你经常输",
        "docid": "7313019813503762982",
        "url": ""
    },
    {
        "title": "福原爱首场直播带货额不足2.5万 观看人次超74万",
        "docid": "7330584426193568265",
        "url": ""
    },
    {
        "title": "🤩帅气卡通照吸睛！惠特摩尔INS晒照：生活之路",
        "docid": "7330264769691238923",
        "url": ""
    },
    {
        "title": "打麻将四不碰战术，都是惨痛教训，了解后可以避免！",
        "docid": "7329482330228720168",
        "url": ""
    },
    {
        "title": "第21次，河南功夫小子再次征战央视春晚",
        "docid": "7329836322729083455",
        "url": ""
    },
    {
        "title": "3-1！英超卫冕冠军大爆发，双杀弱旅，豪取8连胜，哈兰德王者归来",
        "docid": "7330507880245985811",
        "url": ""
    },
    {
        "title": "CBA第36轮积分榜！广东排名第五，辽宁爆冷输球，第一名豪取5连胜",
        "docid": "7329711161967002153",
        "url": ""
    },
    {
        "title": "追光丨这场青藏高原“村超”，为什么球场是歪的？",
        "docid": "7330509427881460261",
        "url": ""
    },
    {
        "title": "10莱万陷球荒，哈维神换人，18岁天才处子球，巴萨止住连败",
        "docid": "7330526226693620239",
        "url": ""
    },
    {
        "title": "哈登25+9+5再破纪录：超越乔丹！",
        "docid": "7330585438317232640",
        "url": ""
    },
    {
        "title": "杨瀚森27分虽努力，浙江队三连胜的故事，余嘉豪26+9+5+5成焦点",
        "docid": "7330654800163619380",
        "url": ""
    },
    {
        "title": "2018年，前女足国脚张欧影病逝美国：临终前丈夫为其换上7号球衣",
        "docid": "7300973460556202534",
        "url": ""
    },
    {
        "title": "奥运冠军的家庭地位：吴敏霞下跪敬茶与郭晶晶受公公尊重背后原因",
        "docid": "7329716533083882021",
        "url": ""
    },
    {
        "title": "外媒评选足坛历史上关键先生最佳阵容，实力+运气踢谁不能赢？",
        "docid": "7330145830537708071",
        "url": ""
    },
    {
        "title": "乒乓球直拍是如何没落的",
        "docid": "7299019276634915343",
        "url": ""
    },
    {
        "title": "完败詹姆斯20+9，特雷杨26+13，拉塞尔尴尬，附加赛格局逆变",
        "docid": "7330509134095925823",
        "url": ""
    },
    {
        "title": "打麻将必胜绝技，摸到烂牌不要慌，学会这三招可以转败为胜。",
        "docid": "7324154934004826676",
        "url": ""
    },
    {
        "title": "梅西替补出场C罗伤缺 中超旧将戴帽 利雅得胜利6-0横扫迈阿密国际",
        "docid": "7330756311409377855",
        "url": ""
    },
    {
        "title": "惠特莫尔是否是23届新秀人中龙凤？篮球之路坎坷，轻舟已过万重山",
        "docid": "7330291308508168714",
        "url": ""
    },
    {
        "title": "中性名彻底沦为笑柄！新赛季已有4队更换队名：多队1年3换！",
        "docid": "7330434566563971619",
        "url": ""
    },
    {
        "title": "庄则栋生命最后时刻：临死前曾说想安乐死，国画大师范增为其作画",
        "docid": "7306104737698005513",
        "url": ""
    },
    {
        "title": "世界体坛七大可能永远无法打破的记录：最牢固的是谁？",
        "docid": "7289011392932495930",
        "url": ""
    },
    {
        "title": "新疆103-87击败江苏 球员评分：3人完美，4人及格，4人拉胯",
        "docid": "7330617428873183753",
        "url": ""
    },
    {
        "title": "打麻将一定要知道“五打五留”战术，掌握好了胡牌不是问题。",
        "docid": "7306299140886282804",
        "url": ""
    },
    {
        "title": "惠特莫尔天赋出众为什么选秀顺位暴跌？火箭煞费苦心，得偿所愿",
        "docid": "7330540995903750691",
        "url": ""
    },
    {
        "title": "高度自律NBA退役球星和放纵型球星对比，后者不敢直视。",
        "docid": "7307122550880961087",
        "url": ""
    },
    {
        "title": "史上五大最无争议的金球奖",
        "docid": "7329844740877304361",
        "url": ""
    },
    {
        "title": "不比不知道，一比吓一跳！26张对比图，感受一下差距",
        "docid": "7311582822547292706",
        "url": ""
    },
    {
        "title": "“只要我愿意，我能打1到5号位”，NBA真有4人敢这样说",
        "docid": "7328278964445741622",
        "url": ""
    },
    {
        "title": "奥尼尔97年加盟湖人，到2000年夺冠，中间这3年季后赛都输给了谁",
        "docid": "7309835652131275279",
        "url": ""
    },
    {
        "title": "女篮最伟大5名球员：李梦韩旭竟全部落选，王思雨仅排第五名",
        "docid": "7320538216057324047",
        "url": ""
    },
    {
        "title": "肖恩马里昂，那个如同僵尸打摆罚篮的糙汉，居然买下一支球队",
        "docid": "7324326288347710002",
        "url": ""
    },
    {
        "title": "看了照片才知道，NBA这5人身高水分那么大 杜兰特最离谱",
        "docid": "7303370148231152182",
        "url": ""
    },
    {
        "title": "英超-4-3！曼联补时遭绝平后反绝杀狼队 霍伊伦传射 梅努97分钟破门",
        "docid": "7330768825002050087",
        "url": ""
    },
    {
        "title": "郑钦文商业前景一片大好，她完美凑齐了所有正面要素",
        "docid": "7329061456828678696",
        "url": ""
    },
    {
        "title": "李凯尔球迷票143397+3张球员票 总分与狄龙并列西部前场第23",
        "docid": "7328228857936019968",
        "url": ""
    },
    {
        "title": "世界杯上零进球的四大巨星",
        "docid": "7321006014097130022",
        "url": ""
    },
    {
        "title": "足坛最伟大的10号，三位球王入选，小罗垫底",
        "docid": "7303558734872609291",
        "url": ""
    },
    {
        "title": "快船125-109奇才，伦纳德和哈登就是无解的组合",
        "docid": "7330531494164808227",
        "url": ""
    },
    {
        "title": "亚洲杯1/4决赛：大厦将倾，韩国魂惊澳大利亚",
        "docid": "7330429482416751138",
        "url": ""
    },
    {
        "title": "送走四位主力以为摆烂！少帅却带进前十，CBA弱旅终于熬出头",
        "docid": "7330558278604603919",
        "url": ""
    },
    {
        "title": "重磅转会！官方：7冠王汉密尔顿赛季末离队 2025年正式加盟法拉利",
        "docid": "7330711043464954405",
        "url": ""
    },
    {
        "title": "“仅得43分”出处！艾弗森晒2007年科比疯狂得分数据：曼巴永存",
        "docid": "7328693873399054863",
        "url": ""
    },
    {
        "title": "哈登25+9+4帽！伦纳德31+9+4断，威少9+3+7，快船大胜奇才！",
        "docid": "7330559110121407012",
        "url": ""
    },
    {
        "title": "CBA“顶薪混子”！身材走样、表现惨淡，输球后竟悠闲喝啤酒？",
        "docid": "7329817666284208703",
        "url": ""
    },
    {
        "title": "我心目中的象棋最强四位王者。",
        "docid": "7328993125840749096",
        "url": ""
    },
    {
        "title": "历史第1人！中国男网一哥书写传奇历史，一纪录载入112年澳网史册",
        "docid": "7330638102740337163",
        "url": ""
    },
    {
        "title": "打球不如你，教人打球我老大，说一下历史最佳NBA教练，禅师榜首",
        "docid": "7314163538669601334",
        "url": ""
    },
    {
        "title": "CBA本赛季最让人失望的十位顶薪球员",
        "docid": "7328971690951623205",
        "url": ""
    },
    {
        "title": "月最佳球员：东西部月最佳球员出炉 布克&米切尔分别当选",
        "docid": "7330780777304572453",
        "url": ""
    },
    {
        "title": "足协原主席陈戌源巨贪8103万元，是什么概念？上万网友发声谴责！",
        "docid": "7329524080187916836",
        "url": ""
    },
    {
        "title": "蔡斯·巴丁格生涯简历",
        "docid": "7279447679657116212",
        "url": ""
    },
    {
        "title": "老公生日，买辆捷安特 ATX8送给他",
        "docid": "7302709035764072979",
        "url": ""
    },
    {
        "title": "“常青树”凯文-威利斯，效力21载，45岁还复出",
        "docid": "7310119498249339427",
        "url": ""
    },
    {
        "title": "NBA现役执教胜率最高的主教练是谁？波波维奇胜率64.1%排名第三",
        "docid": "7305351785517105675",
        "url": ""
    },
    {
        "title": "日本男足惊曝主力国脚伊东纯也性侵丑闻，主教练回应无法答复",
        "docid": "7330564595231408655",
        "url": ""
    },
    {
        "title": "欧米尔·阿西克生涯简历",
        "docid": "7322044797882401280",
        "url": ""
    },
    {
        "title": "卖淫、陪溜冰，暗访KTV“冰妹”，“刺激”之后的身心堕落",
        "docid": "7304776253930832419",
        "url": ""
    },
    {
        "title": "为何NBA几乎是被黑人球员统治？我用5张照片 告诉你原因",
        "docid": "7329417663049073215",
        "url": ""
    },
    {
        "title": "惨叫声响遍球馆！膝盖变形，韧带撕裂！这个废人动作真的过分了！",
        "docid": "7314188803210789391",
        "url": ""
    },
    {
        "title": "一场竟然30次助攻！NBA单场助攻次数排行榜：第一让人意想不到！",
        "docid": "7316530366796366370",
        "url": ""
    },
    {
        "title": "触目惊心！WWE老板麦克马洪被控性侵&性交易，曾在受害者头上排泄",
        "docid": "7328679662534607399",
        "url": ""
    },
    {
        "title": "羽坛名将李宗伟：36岁患癌喉咙全烂，花1000万续命，如今怎样了？",
        "docid": "7317201305422889483",
        "url": ""
    },
    {
        "title": "胖虎，19年被力捧，如今打出该有的成绩了吗？",
        "docid": "7304688957026402843",
        "url": ""
    },
    {
        "title": "身高只有1.6米，比普通人还矮的博格斯，为何能在NBA打14年？",
        "docid": "7323010805254537728",
        "url": ""
    },
    {
        "title": "女神伊一：奔跑的人生，就是平平淡淡地坚持！",
        "docid": "7320127049207956003",
        "url": ""
    },
    {
        "title": "曝热火准备交易！再见了，巴特勒？可能又将改变NBA争冠格局",
        "docid": "7330644393130508852",
        "url": ""
    },
    {
        "title": "“我才刚出汗，你已经累趴了”，盘点NBA公认的5大体力怪",
        "docid": "7319695252154270227",
        "url": ""
    },
    {
        "title": "NBA面相最老实的人也被戴绿帽子，老婆养脱衣舞男，还花的自己钱",
        "docid": "7300905970455282195",
        "url": ""
    },
    {
        "title": "当邓肯退役后，没人再拿波波维奇对比禅师，这就是差距",
        "docid": "7315214350191559222",
        "url": ""
    },
    {
        "title": "现役只有3位主教练永远不愁工作，里弗斯算一个！",
        "docid": "7329113405279781376",
        "url": ""
    },
    {
        "title": "男篮名宿张卫平近况，离婚又再婚，定居美国，73岁还没退休",
        "docid": "7329107706097877513",
        "url": ""
    },
    {
        "title": "“你这样打，40岁就得坐轮椅”，盘点NBA打法最伤身体5大球星",
        "docid": "7308956620058182179",
        "url": ""
    },
    {
        "title": "詹眉缺阵里夫斯32分+7记3分创生涯新高 湖人6人得分上双擒凯尔特人",
        "docid": "7330781204151255592",
        "url": ""
    },
    {
        "title": "93年从巅峰乔丹手里抢走MVP的巴克利，打出了什么表现？不输乔丹",
        "docid": "7328049806700741120",
        "url": ""
    },
    {
        "title": "腿腿生风 拳拳到肉 ！NBA历史五大球场冲突：欧文暴揍大鸟",
        "docid": "7302089060020126223",
        "url": ""
    },
    {
        "title": "噩耗！他，凌晨去世，中国体坛传奇逝世，韩乔生悲痛：天堂安息",
        "docid": "7330091481677529641",
        "url": ""
    },
    {
        "title": "36岁丁俊晖现状：迎娶富二代、坐拥千万豪宅，他的父亲赌赢了",
        "docid": "7300837086784045620",
        "url": ""
    },
    {
        "title": "中非混血儿多次打破校运会纪录：我觉得自己是中国人，我长大要为中国争光",
        "docid": "7305958325802582539",
        "url": ""
    },
    {
        "title": "男篮陈江华近况：亲自教双胞胎儿子打球，妻子逆龄生长越来越好看",
        "docid": "7321539244488032807",
        "url": ""
    },
    {
        "title": "时光荏苒！詹姆斯首次在老鹰主场比赛时 特雷-杨年仅5岁👦",
        "docid": "7330059946710778405",
        "url": ""
    },
    {
        "title": "盘点世界体坛15神颜（中国外）",
        "docid": "7309355423814451762",
        "url": ""
    },
    {
        "title": "太阳耻辱一败众生相：杜兰特提前离场三巨头失望透顶 冠军教头黑脸",
        "docid": "7329332911302345267",
        "url": ""
    },
    {
        "title": "16年前，2.36米巨人鲍喜顺不听医生劝告执意生下儿子，如今怎么样",
        "docid": "7325298349278724644",
        "url": ""
    },
    {
        "title": "盘点国足的漂亮妻子们：球踢得差，奈何太赚钱，老婆个个花枝招展",
        "docid": "7329030572565611048",
        "url": ""
    },
    {
        "title": "重庆麻将馆日日爆满，座无虚席，整天“泡”在里面的人靠啥谋生？",
        "docid": "7307911230377755173",
        "url": ""
    },
    {
        "title": "打的好不如选的好：离开波特兰第一年，利拉德当上全明星首发",
        "docid": "7329770743884710415",
        "url": ""
    },
    {
        "title": "15分大胜！豪取8连胜冲上第三！东部大变天，勇士旧将狂飙9三分",
        "docid": "7330812318873797183",
        "url": ""
    },
    {
        "title": "09届选秀谁挣得多？卢比奥1.4亿，格里芬2.6亿，库里哈登太强了",
        "docid": "7315034032071459339",
        "url": ""
    },
    {
        "title": "你可能不信，NBA创办至今 从替补逆袭成巨星 也就5人",
        "docid": "7314490357906506274",
        "url": ""
    },
    {
        "title": "媒体人：说陈戌源贪污30亿的说法被转多次，惩恶扬善不能胡编不是",
        "docid": "7329448791139172902",
        "url": ""
    },
    {
        "title": "体操兄弟李小双李大双，两人头发都已花白，结婚多年都没有孩子",
        "docid": "7306758166975611428",
        "url": ""
    },
    {
        "title": "太阳一战创3大耻辱纪录！布克两战106分全输球，杜兰特主动揽责",
        "docid": "7329358688542818831",
        "url": ""
    },
    {
        "title": "状元、榜眼必有一水？细数近三十年NBA的前两顺位新秀（1993）",
        "docid": "7322381093746459177",
        "url": ""
    },
    {
        "title": "卧槽！+280！赢麻了！活该他拿大合同！",
        "docid": "7329045659162575371",
        "url": ""
    },
    {
        "title": "张怡宁：闪婚嫁给袁立前任，生下一儿一女，结婚14年被宠成宝",
        "docid": "7302239082594239028",
        "url": ""
    },
    {
        "title": "海兰德评价恩比德受伤：这都赖那个规则 哎🗑️",
        "docid": "7330801790285431337",
        "url": ""
    },
    {
        "title": "同样是28000分，杜兰特用了17年，乔丹13年，科比和老詹",
        "docid": "7329949528130454070",
        "url": ""
    },
    {
        "title": "4换1！火箭达成交易！亚当斯正式联手申京",
        "docid": "7330793456480616986",
        "url": ""
    },
    {
        "title": "科比和韦德生涯交手20次，谁的表现更出色？数据不会说谎",
        "docid": "7300223660265046547",
        "url": ""
    },
    {
        "title": "西部替补！莱昂纳德时隔三年重返全明星 生涯第6次入选",
        "docid": "7330791398393840154",
        "url": ""
    },
    {
        "title": "真成肉马儿了？内马尔参加罗马里奥生日派对，身材发福明显",
        "docid": "7329327451765621299",
        "url": ""
    },
    {
        "title": "NBA现在顶薪已经烂大街，真配得上5000万年薪 就5人",
        "docid": "7320861597424632335",
        "url": ""
    },
    {
        "title": "我是里弗斯，NBA混子教练，人类被逆转精华，最擅长的是找工作",
        "docid": "7329096998425641512",
        "url": ""
    },
    {
        "title": "比布朗尼强！15岁小阿里纳斯2米01，场均35分，名校抢着要",
        "docid": "7329321490904580646",
        "url": ""
    },
    {
        "title": "春晚彩排成明星“照妖镜”，谁没素质，谁真诚待人，简直一目了然",
        "docid": "7330097405029007923",
        "url": ""
    },
    {
        "title": "离婚7年后，再看刘翔和葛天各自境遇，一个天一个地差距太明显",
        "docid": "7330576538406076943",
        "url": ""
    },
    {
        "title": "NBA75大巨星里只有19人没有拿过总冠军，看看他们都是谁？",
        "docid": "7316117261117571619",
        "url": ""
    },
    {
        "title": "她是女篮颜值担当，被传未婚先孕退出国家队？退役之后解锁新身份",
        "docid": "7330206367019450914",
        "url": ""
    },
    {
        "title": "美媒列出NBA7个时代最佳阵容，乔科詹魔库领衔，哪个时代最强？",
        "docid": "7329318532951605800",
        "url": ""
    },
    {
        "title": "詹姆斯戴维斯缺阵 湖人客场力克凯尔特人",
        "docid": "7330847338065953319",
        "url": ""
    },
    {
        "title": "经历金元，蔡振华为何能全身而退？看他弃用三人秒懂，两爱好曝光",
        "docid": "7330836994572337699",
        "url": ""
    },
    {
        "title": "09届四大球星是否已超越自己的选秀模板？库里碾压，状元已无机会",
        "docid": "7320093832057225767",
        "url": ""
    },
    {
        "title": "特拉维斯和泰勒在酋长队在季后赛中战胜乌鸦队进入超级碗后接吻",
        "docid": "7329320839500104202",
        "url": ""
    },
    {
        "title": "“影帝”斯科拉：曾是姚明队友，娶1米6娇妻生4个儿子，现状如何",
        "docid": "7319316339057820198",
        "url": ""
    },
    {
        "title": "“体操女皇”程菲：25岁退役，身材走样，如今父亲只求嫁个好人家",
        "docid": "7329838493654778379",
        "url": ""
    },
    {
        "title": "詹姆斯绝平三分有没有踩线？放大回看：站定没踩，起跳踩了1毫米",
        "docid": "7318602803898122762",
        "url": ""
    },
    {
        "title": "勇士力克76人，库里37分，距离前十仅15胜场差，西部格局再变",
        "docid": "7330510187842830863",
        "url": ""
    },
    {
        "title": "7秒58！中国跨栏再获世界冠军，新星闪耀，与刘翔长相十分相似！",
        "docid": "7329393633391051315",
        "url": ""
    },
    {
        "title": "月最佳教练：锡伯杜&泰伦卢分别当选月最佳教练",
        "docid": "7330780876998967834",
        "url": ""
    },
    {
        "title": "史上十大意外的全明星首发：科比打6场，姚明5场，威金斯运气贼好",
        "docid": "7328465878624764456",
        "url": ""
    },
    {
        "title": "英媒爆料胖子李赌球禁赛12年后复出，希金斯：张开双臂欢迎他回来",
        "docid": "7330815670873293364",
        "url": ""
    },
    {
        "title": "为什么长江禁渔十年，却不禁止个人钓鱼？原来其中暗藏玄机",
        "docid": "7330576606131962431",
        "url": ""
    },
    {
        "title": "20场比赛场均0分，依旧稳坐钓鱼台，因为他是杜峰的外甥",
        "docid": "7330808597036909056",
        "url": ""
    },
    {
        "title": "罗伯逊：奥沙利文技术角度打得很差，他只是更擅长利用对手的错误",
        "docid": "7330834114054504996",
        "url": ""
    },
    {
        "title": "如果你是老板，你是投资乔丹还是詹姆斯？",
        "docid": "7317582899539395098",
        "url": ""
    },
    {
        "title": "单场81分，甚至100分的纪录都要被破了？",
        "docid": "7330151349864202752",
        "url": ""
    },
    {
        "title": "父母的骄傲！张本兄妹夺2金2银，一家4口晒奖牌，日本乒坛要变天",
        "docid": "7330513964503630375",
        "url": ""
    },
    {
        "title": "CBA排名又乱了：浙江三连胜升第三 6-9名竞争激烈 广东跌落到第五",
        "docid": "7330758067652395520",
        "url": ""
    },
    {
        "title": "船奇大战感人一幕！登威齐劝老将，让他上场打球，球迷高喊他名字",
        "docid": "7330878240866763264",
        "url": ""
    },
    {
        "title": "破案了！武磊在联赛进球如麻，为何在国家队却一球难进？",
        "docid": "7329138750989271562",
        "url": ""
    },
    {
        "title": "朱芳雨这个总经理太失败！广东男篮愧对这3位球员",
        "docid": "7330529530299679232",
        "url": ""
    },
    {
        "title": "杜兰特！35岁狂轰下28000分，杜兰特能打破科比33643纪录吗？",
        "docid": "7330157803346231843",
        "url": ""
    },
    {
        "title": "2换1！2场狂输42分！交易宣告失败",
        "docid": "7328431567125152291",
        "url": ""
    },
    {
        "title": "无詹无眉无问题！湖人客场挑落联盟第一凯尔特人 送其主场第三败",
        "docid": "7330834043925316148",
        "url": ""
    },
    {
        "title": "武尊伤的竟然这么重！无法想象是怎么坚持的",
        "docid": "7329735923745243657",
        "url": ""
    },
    {
        "title": "渴望与遗憾😌郑钦文赛后走过冠军奖杯，转头满眼都是渴望与遗憾",
        "docid": "7328723014525534746",
        "url": ""
    },
    {
        "title": "河北女篮之光：郭子瑄引发热议,身材修长颜值爆表 这样的谁不爱呢",
        "docid": "7328655480023450150",
        "url": ""
    },
    {
        "title": "单赛季有三支球队60胜有多难？历史至今仅有5次，98年4队取得60胜",
        "docid": "7324198778058719794",
        "url": ""
    },
    {
        "title": "痛心！中国拳击泰斗级人物王国钧去世",
        "docid": "7328615169196884514",
        "url": ""
    },
    {
        "title": "NBA惨遭大逆转，混子球队露馅赛季真实实力遭曝光！",
        "docid": "7330667572389790223",
        "url": ""
    },
    {
        "title": "CBA最大乱象！联盟第一居然没有国手，这究竟尴尬了谁？",
        "docid": "7330831296258474496",
        "url": ""
    },
    {
        "title": "五大联赛加中超球队队标，“赛亚人版”，真的帅",
        "docid": "7321633645809156634",
        "url": ""
    },
    {
        "title": "藏族草根球队打进足协杯正赛！球员筹钱参赛坐34小时绿皮硬座，队长：希望球队在正赛中创造奇迹",
        "docid": "7330839615387009551",
        "url": ""
    },
    {
        "title": "莱恩·安德森生涯简历",
        "docid": "7294657817208816143",
        "url": ""
    },
    {
        "title": "惊！她背景这么强的吗？",
        "docid": "7330803125856616999",
        "url": ""
    },
    {
        "title": "美国250斤猛男变性后爆改外貌，隆胸化妆间减肌成苗条辣妹",
        "docid": "7325464740476961320",
        "url": ""
    },
    {
        "title": "曝热火准备交易！再见了，巴特勒？可能又将改变NBA争冠格局",
        "docid": "7330819028900446735",
        "url": ""
    },
    {
        "title": "3年前以为这5人会统治NBA，如今回头看 全都看走眼了",
        "docid": "7303386479332606518",
        "url": ""
    },
    {
        "title": "一场0-6让梅西不敢相信，苏亚雷斯灾难级表现，揪出头号罪人",
        "docid": "7330775703664984613",
        "url": ""
    },
    {
        "title": "罗伯逊：奥沙利文技术角度打得很差，他只是更擅长利用对手的错误",
        "docid": "7330815677244654080",
        "url": ""
    },
    {
        "title": "3-1！亚洲杯无悬念一战！日本进8强造极端现象：3大小组头名1轮游",
        "docid": "7330804587550589452",
        "url": ""
    },
    {
        "title": "拿30000分需要多久？乔丹960场 科比1180场 詹姆斯呢？",
        "docid": "7311531046820954633",
        "url": ""
    },
    {
        "title": "CBA最惨冲冠球队季后赛没打伤病满营，七八人轮换靠四人末节逆转",
        "docid": "7330530499376677391",
        "url": ""
    },
    {
        "title": "足球记忆：彭伟军——惨遭倒摘牌制度逼迫，当打之年无奈选择退役",
        "docid": "7298657867937956415",
        "url": ""
    },
    {
        "title": "拜仁慕尼黑太仓足球学校训练场地提档升级",
        "docid": "7329832517920440851",
        "url": ""
    },
    {
        "title": "艾弗森生涯唯一一个MVP含金量多高？看看前5就知道 鲨科佛皆为陪衬",
        "docid": "7322071287009444404",
        "url": ""
    },
    {
        "title": "随着湖人爆冷击败绿军、爵士不敌76人，西部最新排名及形势如下！",
        "docid": "7330883485173219875",
        "url": ""
    },
    {
        "title": "帕森斯：从高富帅沦落到合同骗子",
        "docid": "7301611970472559155",
        "url": ""
    },
    {
        "title": "“魔皇神佛鲨”并非战无不胜，这5人要是组队 绝对能与之一战",
        "docid": "7302636791377560083",
        "url": ""
    },
    {
        "title": "杜兰特得到1164分，库里1129分，那么哈登呢？",
        "docid": "7330904012705022505",
        "url": ""
    },
    {
        "title": "中国男篮胡金秋：放弃上学赚钱打篮球养妈妈，娶初恋生双胞胎儿子",
        "docid": "7314622217965355558",
        "url": ""
    },
    {
        "title": "世界足坛历史最佳阵容（一阵～五阵）",
        "docid": "7302276197927633448",
        "url": ""
    },
    {
        "title": "21世纪最惨的，足球运动员！",
        "docid": "7309037041306599972",
        "url": ""
    },
    {
        "title": "凯尔·科沃尔生涯简历",
        "docid": "7267534377511698944",
        "url": ""
    },
    {
        "title": "前津门虎外援维塔诺夫加盟比利时球队贝弗伦，曾为津门虎出场14次",
        "docid": "7330778684644786722",
        "url": ""
    },
    {
        "title": "重磅转会！官方：7冠王汉密尔顿赛季末离队 2025年正式加盟法拉利",
        "docid": "7330828256910066216",
        "url": ""
    },
    {
        "title": "“改变”拯救休斯敦火箭",
        "docid": "7329772949496447507",
        "url": ""
    },
    {
        "title": "雷霆险胜掘金，升至西部第二！亚历山大34+7+5，西部前四激烈争夺",
        "docid": "7330844414346592780",
        "url": ""
    },
    {
        "title": "44岁前女篮队长隋菲菲：曾和王治郅传绯闻，坐拥上校军衔却仍单身",
        "docid": "7301118656304857627",
        "url": ""
    },
    {
        "title": "里夫斯为什么会是湖人非卖品？防守端表现一言难尽，如今神奇不再",
        "docid": "7330536905840280079",
        "url": ""
    },
    {
        "title": "桃李满天下！盘点杜克名帅老K教练十大爱徒：塔图姆传承希尔",
        "docid": "7309003876479582758",
        "url": ""
    },
    {
        "title": "火箭重磅交易！亚当斯离队背后隐情揭秘，海王加盟引篮球圈热议！",
        "docid": "7330892465861755428",
        "url": ""
    },
    {
        "title": "中国花滑冠军夫妻近况：赵宏博头发斑白，申雪保养得当、风姿不减",
        "docid": "7324636655741927977",
        "url": ""
    },
    {
        "title": "冯潇霆：上届亚洲杯如果没进8强回来有特殊措施，我不能说！",
        "docid": "7329801485242663464",
        "url": ""
    },
    {
        "title": "德国大师赛8强诞生！汤姆福德爆冷出局！罗伯逊止步！徐思遭绝杀",
        "docid": "7330771536506716724",
        "url": ""
    },
    {
        "title": "当年刘翔倒在起跑线上，只因听了美国医生的话？无中国医生参与？",
        "docid": "7317939068262924815",
        "url": ""
    },
    {
        "title": "我国体坛4位著名的超级帅哥：惊艳过时光，现在人生状况如何？",
        "docid": "7311975975259062821",
        "url": ""
    },
    {
        "title": "足坛历史最无解球员阵容：MSN+典礼中场组合+米兰后防线",
        "docid": "7311678263955816996",
        "url": ""
    },
    {
        "title": "CBA这两对双胞胎兄弟，你们更喜欢哪对呢？",
        "docid": "7315732844583010854",
        "url": ""
    },
    {
        "title": "4换1！交易正式达成！全明星后卫离队！",
        "docid": "7330892509658841612",
        "url": ""
    },
    {
        "title": "16年安徽男子确诊肺癌晚期，后不听医嘱自救，61场马拉松延续生命",
        "docid": "7308686071276077606",
        "url": ""
    },
    {
        "title": "一场比赛保一生荣华富贵？印度43岁冠军载誉回国，如同追星现场！",
        "docid": "7330472579814326784",
        "url": ""
    },
    {
        "title": "56岁郑海霞近况：双腿弯曲无法长时间行走，结婚多年留有巨大遗憾",
        "docid": "7321573771423613450",
        "url": ""
    },
    {
        "title": "盘点五大烧钱的贵族体育运动：个个都是普通人的假上帝",
        "docid": "7329680515307536911",
        "url": ""
    },
    {
        "title": "足球前锋的十大类型",
        "docid": "7327283054278574646",
        "url": ""
    },
    {
        "title": "打麻将总是输，你可能犯了六个错误",
        "docid": "7316351985727930934",
        "url": ""
    },
    {
        "title": "球队中仅有1位全明星带队夺冠有多难？NBA历史仅5次，乔丹上榜",
        "docid": "7330062389259616768",
        "url": ""
    },
    {
        "title": "泰伦卢真的是一位大神，不服不行！",
        "docid": "7298244003580445184",
        "url": ""
    },
    {
        "title": "田亮16岁女儿夺冠，下一站成为郑钦文？再次证明网球只属富二代",
        "docid": "7330830166245081635",
        "url": ""
    },
    {
        "title": "排球女神惠若琪：27岁开启第二段人生，婚后变得更像小女人",
        "docid": "7313044326731547187",
        "url": ""
    },
    {
        "title": "“只要不受伤，我可以一直打”，NBA现役5大铁人是真的猛",
        "docid": "7330860441020826123",
        "url": ""
    },
    {
        "title": "签字费赚麻了！拜仁中锋今夏自由身离队 职业生涯转会费仅5万欧",
        "docid": "7330835697966268943",
        "url": ""
    },
    {
        "title": "雷霆险胜掘金升第二！亚历山大34+7+5 西部前四一团乱争夺惨烈",
        "docid": "7330873999830778408",
        "url": ""
    },
    {
        "title": "他获得8个NBA总冠军，3个FMVP，唯独没有MVP",
        "docid": "7312286493530456630",
        "url": ""
    },
    {
        "title": "从27位到41位！杨瀚森轰27+12顺位却急速暴跌，快连周琦都不如了",
        "docid": "7330817978927972898",
        "url": ""
    },
    {
        "title": "赛季至今，东契奇155记三分球特雷杨137记，那么塔图姆和库里呢？",
        "docid": "7330863658517529107",
        "url": ""
    },
    {
        "title": "单核夺冠有多难，NBA至今就出现过4次",
        "docid": "7330886746508640787",
        "url": ""
    },
    {
        "title": "为什么说快船将力压掘金成功突围西部？阵容深厚无比，剑指总冠军",
        "docid": "7330923171299983882",
        "url": ""
    },
    {
        "title": "曾是CCTV5的常客，他因病去世……网友：太不舍！",
        "docid": "7328738526944723510",
        "url": ""
    },
    {
        "title": "祝贺！斯诺克世界冠军双喜临门，锁定137万额外大奖，冲击第27冠",
        "docid": "7330881837629653516",
        "url": ""
    },
    {
        "title": "冠军在望，她惊艳了众人",
        "docid": "7330500533247197748",
        "url": ""
    },
    {
        "title": "首胜，1-0豪门！上海申花爆大冷，于汉超“收大礼”，掀翻4亿强阵",
        "docid": "7330785983711560207",
        "url": ""
    },
    {
        "title": "韩国女千金倒追中国冠军，不顾父母反对嫁到中国，如今成全职妈妈",
        "docid": "7301616343864984073",
        "url": ""
    },
    {
        "title": "亚当斯加盟火箭！他的名字也登上了全美热搜第二位！",
        "docid": "7330793717869445668",
        "url": ""
    },
    {
        "title": "体操皇后刘璇：我的孩子九岁前不准吃糖，四岁前不准吃盐",
        "docid": "7307827435779834409",
        "url": ""
    },
    {
        "title": "围棋界的巨大损失，李英镐逝世，享年49岁",
        "docid": "7329329743839822345",
        "url": ""
    },
    {
        "title": "布克入选全明星！比尔转推祝贺：很容易的决定！",
        "docid": "7330923220360495627",
        "url": ""
    },
    {
        "title": "12胜3负23胜5负，王朝终结者梦回巅峰，哈登是最大的幕后推手",
        "docid": "7330865416023392807",
        "url": ""
    },
    {
        "title": "快船大胜奇才！小卡+哈登轰66分，3配角齐爆，普拉姆利助力一波流",
        "docid": "7330842920318779923",
        "url": ""
    },
    {
        "title": "郑建坪：生女郑钦文，打造第二个“李娜”，天价培养费超2000万",
        "docid": "7330925509390008867",
        "url": ""
    },
    {
        "title": "伦纳德为什么是快船实力强劲的最大资本？快船定海神针，攻防一体",
        "docid": "7330189414100599306",
        "url": ""
    },
    {
        "title": "NBA今日里程碑 哈登25+9+5超乔丹 杜兰特33+5+8 进球超 帕里什",
        "docid": "7330853516179145268",
        "url": ""
    },
    {
        "title": "反转！中国澳网双冠王改口愿意出战巴黎奥运，放话要自己决定搭档",
        "docid": "7330896354753102351",
        "url": ""
    },
    {
        "title": "快船距离登顶西部第一是否为时不远？最新西部排名，森林狼居首",
        "docid": "7330893220408279563",
        "url": ""
    },
    {
        "title": "曝国足主帅下课！父亲过世都没回家，球迷：不怨他，谁带都这熊样",
        "docid": "7330600065725645350",
        "url": ""
    },
    {
        "title": "足球巨星:迪马利亚的辉煌职业生涯和奢华生活！",
        "docid": "7328089532442722854",
        "url": ""
    },
    {
        "title": "湖人名宿沃西调侃：我认为我们找到了本赛季剩余比赛的首发阵容",
        "docid": "7330836094944330275",
        "url": ""
    },
    {
        "title": "NBA新赛季球员积分榜大盘点，哈登的积分你知道了吗？",
        "docid": "7330708334732919315",
        "url": ""
    },
    {
        "title": "最没谋略的少帅！血拼广东却连输两场，4名主力受伤，冠军又没了",
        "docid": "7330850631416168972",
        "url": ""
    },
    {
        "title": "奥运冠军杨倩的教练发文向宁波市体育局讨薪，浙江省体育局回应",
        "docid": "7330955216978149927",
        "url": ""
    },
    {
        "title": "恩比德重伤发怒“反告”联盟，要求联盟还他一个清白",
        "docid": "7330924433064231476",
        "url": ""
    },
    {
        "title": "逆转亚历山大34+7+5，掘金五虎74+34，里程碑诞生 西部第二易主",
        "docid": "7330871534493434380",
        "url": ""
    },
    {
        "title": "NBA今日里程碑：哈登25+9+5超乔丹！杜兰特33+5+8 进球超 帕里什",
        "docid": "7330941977053397523",
        "url": ""
    },
    {
        "title": "船奇大战感人一幕！登威齐劝老将，让他上场打球，球迷高喊他名字",
        "docid": "7330912298795647527",
        "url": ""
    },
    {
        "title": "世界体坛五大“独孤求败”：他们的存在，让对手生无可恋",
        "docid": "7298964023968596506",
        "url": ""
    },
    {
        "title": "湖人114-105轻取凯尔特人，获胜第一功臣：里弗斯7记三分砍下32分",
        "docid": "7330826300900459044",
        "url": ""
    },
    {
        "title": "他曾是国足头号射手，与空姐妻子离婚，独自抚养儿子，47岁仍单身",
        "docid": "7330903574500983335",
        "url": ""
    },
    {
        "title": "意外！他突然承认有中国血统",
        "docid": "7311593297070359080",
        "url": ""
    },
    {
        "title": "太高调了！张镇麟开超400万奔驰，对比胡明轩开保时捷，领先太多",
        "docid": "7330917667303965223",
        "url": ""
    },
    {
        "title": "TJD：勒布朗是我最喜欢的球员之一 威少是我的最爱",
        "docid": "7330046392037524004",
        "url": ""
    },
    {
        "title": "38岁奥运冠军菲尔普斯：苍老憔悴似60岁，在家人的陪伴下病情好转",
        "docid": "7300856710774735375",
        "url": ""
    },
    {
        "title": "NBA巅峰战绩：哈登25+9+5赛胜乔丹！杜兰特33+5+8球超帕里什！",
        "docid": "7330839759348122175",
        "url": ""
    },
    {
        "title": "湖人114-105战胜绿军 球员评分：4人满分，2人及格，2人崩盘",
        "docid": "7330843053873381942",
        "url": ""
    },
    {
        "title": "6-4亚洲杯狂欢夜：世界第91创历史日本漏洞突出，伊朗险爆冷",
        "docid": "7330869796197843519",
        "url": ""
    },
    {
        "title": "约内斯库：三分大赛 我会从NBA的三分线来投篮！",
        "docid": "7330072268581716492",
        "url": ""
    },
    {
        "title": "\"NBA全明星赛替补阵容大揭秘：星光璀璨，实力爆表！\"",
        "docid": "7330867915433984523",
        "url": ""
    },
    {
        "title": "NBA今日里程碑：哈登25+9+5超乔丹！杜兰特33+5+8 进球超 帕里什",
        "docid": "7330936073947955764",
        "url": ""
    },
    {
        "title": "无敌是多么寂寞，约基奇从不关心球队排名，夺冠真的很容易？",
        "docid": "7330907114543743507",
        "url": ""
    },
    {
        "title": "🤔后悔不？老鹰2018年选中东契奇但与独行侠交易换来特雷-杨",
        "docid": "7328604421296800271",
        "url": ""
    },
    {
        "title": "94梦二之殇，三个野兽前锋都是天才，却巅峰期集体坠落",
        "docid": "7302339707306820148",
        "url": ""
    },
    {
        "title": "2024年NBA全明星首发揭晓：詹姆斯刷新纪录，东西部群星璀璨！",
        "docid": "7328215995544306216",
        "url": ""
    },
    {
        "title": "不认识的鱼可别乱吃，广西男子钓获一条斑点鲶鱼，险些酿成大错",
        "docid": "7314499235079029300",
        "url": ""
    },
    {
        "title": "美媒：西部第9的湖人两位全明星 第5的国王没有全明星",
        "docid": "7330792771407577600",
        "url": ""
    },
    {
        "title": "叶一茜骄傲晒女儿奖牌！公开森碟训练照，肌肉发达被晒得黑白分明",
        "docid": "7330913360780968511",
        "url": ""
    },
    {
        "title": "3年5400万，压哨加盟太阳！意外被摆上货架，KD争冠你才是",
        "docid": "7330868861321200155",
        "url": ""
    },
    {
        "title": "叶一茜骄傲晒女儿奖牌！公开森碟训练照，肌肉发达被晒得黑白分明",
        "docid": "7330894039803478554",
        "url": ""
    },
    {
        "title": "半路出家打篮球 进了NBA还成巨星，历史上真有5人做到了",
        "docid": "7328647032632033804",
        "url": ""
    },
    {
        "title": "伤不起！西蒙斯刚复出就倒了 真是NBA资本家的头号公敌",
        "docid": "7330845598460953140",
        "url": ""
    },
    {
        "title": "神迹再现！爆砍50+且0失误有多难？乔丹4次，马克西超越科比！",
        "docid": "7330914481964712483",
        "url": ""
    },
    {
        "title": "世体：贝林厄姆在一次防守过后骂格林伍德为“强奸犯”",
        "docid": "7330787992795169280",
        "url": ""
    },
    {
        "title": "看格林无限期禁赛有感，想起了当年的乔丹皮蓬和罗德曼",
        "docid": "7312337763003744778",
        "url": ""
    },
    {
        "title": "英超首秀来了，王霜海外踢疯了，各种喂饼，热刺主帅给予高度评价",
        "docid": "7329902020586914331",
        "url": ""
    },
    {
        "title": "疯狂座驾大PK：辽篮张镇麟开400万奔驰，队友保时捷，震撼对决！",
        "docid": "7330922771775488547",
        "url": ""
    },
    {
        "title": "生命只剩最后一年，埃里克森决定去看很多球赛",
        "docid": "7330894295324557836",
        "url": ""
    },
    {
        "title": "说出来你可能不信，NBA新世纪后 算得上进攻万花筒就5人",
        "docid": "7330895791114371638",
        "url": ""
    },
    {
        "title": "NBA现役球星全勤大统计，詹姆斯20年1次全勤，库里14年0次全勤。",
        "docid": "7330900382342578727",
        "url": ""
    },
    {
        "title": "成都男神李伯清，另一个身份—皇家贝里斯足球俱乐部的主席",
        "docid": "7320826589963420211",
        "url": ""
    },
    {
        "title": "迈阿密国际0-6惨败遭遇3连败，4场季前赛丢11球进3球3场被零封",
        "docid": "7330729143342039586",
        "url": ""
    },
    {
        "title": "现在的火箭，很像弗朗西斯单核带队最出色的那年",
        "docid": "7301105659917976116",
        "url": ""
    }
]