[
    {
        "title": "麦迪：建议NBA全明星举办1V1斗牛，单败淘汰制&冠军奖金100万",
        "docid": "7337607392828228105",
        "url": ""
    },
    {
        "title": "看了NBA球星衰老速度 你就不会羡慕他们高薪了，詹姆斯似老翁",
        "docid": "7319702043000717878",
        "url": ""
    },
    {
        "title": "高度自律NBA退役球星和放纵型球星对比，后者不敢直视。",
        "docid": "7307122550880961087",
        "url": ""
    },
    {
        "title": "内内一家近照：继承亿万家产，老婆很漂亮，3个儿子都打球",
        "docid": "7319379251323732489",
        "url": ""
    },
    {
        "title": "表面是演员，实际是“国际反恐专家”！这位老戏骨，隐藏的好深",
        "docid": "7336815766773596710",
        "url": ""
    },
    {
        "title": "连胜终结！太阳113-123独行侠，本场谁是罪魁祸首，数据不会说谎",
        "docid": "7338607812655989263",
        "url": ""
    },
    {
        "title": "精准打击！莱昂纳德连续单打命中 率队轰出一波10-0打停雷霆",
        "docid": "7338603308124406272",
        "url": ""
    },
    {
        "title": "美国250斤猛男变性后爆改外貌，隆胸化妆间减肌成苗条辣妹",
        "docid": "7325464740476961320",
        "url": ""
    },
    {
        "title": "若鸟不弱！妻子纪录片透露：若日尼奥回来后摄制组全部出去一小时",
        "docid": "7338739701697970729",
        "url": ""
    },
    {
        "title": "NBA现在顶薪已经烂大街，真配得上5000万年薪 就5人",
        "docid": "7320861597424632335",
        "url": ""
    },
    {
        "title": "格林14中3还先发？阿门22+5创新高状态火热 休媒：距超巨只差跳投",
        "docid": "7338638869711225378",
        "url": ""
    },
    {
        "title": "中非混血儿多次打破校运会纪录：我觉得自己是中国人，我长大要为中国争光",
        "docid": "7305958325802582539",
        "url": ""
    },
    {
        "title": "广东队投资人陈海涛怒了，朱芳雨全面抵制孟铎，CBA联赛再出新规",
        "docid": "7338596389448221199",
        "url": ""
    },
    {
        "title": "打麻将控制下家的两大绝招，是成为高手的必学战略",
        "docid": "7335346952638300723",
        "url": ""
    },
    {
        "title": "NBA西部最新积分榜：快船第3，独行侠7连胜，勇士128-110湖人",
        "docid": "7338685362736382464",
        "url": ""
    },
    {
        "title": "李铁执教时，4名归化12强赛平均出场335分钟，蒋光太首发6场最多",
        "docid": "7322712584485585408",
        "url": ""
    },
    {
        "title": "22年前因\"人体裸模\"一脱成名，被丈夫抛弃的汤加丽，如今后悔吗",
        "docid": "7337892407449158178",
        "url": ""
    },
    {
        "title": "威少可恨！快船惨败雷霆，西部格局巨变，3人要负全责 4人虽败犹荣",
        "docid": "7338625279126323766",
        "url": ""
    },
    {
        "title": "美女记者周玲安现场采访王鹤棣后晒照：炸裂🔥",
        "docid": "7336432404388676132",
        "url": ""
    },
    {
        "title": "中国“卡戴珊”，才华和美貌并存的周玲安",
        "docid": "7338234072793399848",
        "url": ""
    },
    {
        "title": "“进攻我不行，打架第一名”，盘点NBA最能打架5人组",
        "docid": "7309789674438984231",
        "url": ""
    },
    {
        "title": "09届四大球星是否已超越自己的选秀模板？库里碾压，状元已无机会",
        "docid": "7320093832057225767",
        "url": ""
    },
    {
        "title": "“我不打球，只能回去继承亿万家产”，盘点NBA5大富二代",
        "docid": "7313018140449899034",
        "url": ""
    },
    {
        "title": "🐷老里莫慌！🐶贝弗利首秀就是一场大胜 撕咬12分钟打卡下班",
        "docid": "7333809025961919011",
        "url": ""
    },
    {
        "title": "江宏杰称对福原爱的仇恨已放下，不再为难她，计划找新的女朋友",
        "docid": "7337996557067010601",
        "url": ""
    },
    {
        "title": "姚明：北京奥运闭幕时喝醉了，觉得不止青春甚至人生都结束了",
        "docid": "7338815827291947574",
        "url": ""
    },
    {
        "title": "灾难级表现！施罗德7中1仅得4分2篮板2助 正负值-30全场最低",
        "docid": "7338619789373571618",
        "url": ""
    },
    {
        "title": "詹姆斯19次全明星赛得到426分，那库里和杜兰特得了多少分",
        "docid": "7336544960843416098",
        "url": ""
    },
    {
        "title": "世乒赛爆出大冷门，国乒头号劲敌0-3出局，四支中国队登上领奖台",
        "docid": "7338789132686393894",
        "url": ""
    },
    {
        "title": "1995年后，后卫球员扣篮次数排名：",
        "docid": "7338119695666807346",
        "url": ""
    },
    {
        "title": "火力凶猛！勇士连续4场得分125+ 队史近35年首次",
        "docid": "7338667218336662042",
        "url": ""
    },
    {
        "title": "🤯🤯🤯皇马下赛季若能排出这一套首发，能拿哪些冠军？",
        "docid": "7336396366513668617",
        "url": ""
    },
    {
        "title": "网友吐槽布朗蒙眼扣篮：NBA&WNBA历史最烂扣篮 别邀请这老黑了",
        "docid": "7336866886368281151",
        "url": ""
    },
    {
        "title": "03年全明星赛乔丹为何拒绝麦迪和艾弗森，接受了卡特让出的首发？",
        "docid": "7320533059236069929",
        "url": ""
    },
    {
        "title": "詹姆斯肌肉被誉为球员天花板，为何几乎看不到腹肌和胸肌？",
        "docid": "7331571073495859750",
        "url": ""
    },
    {
        "title": "攻防一体！NBA历史仅2人生涯拿到得分王+MVP+DPOY，科比老詹无缘",
        "docid": "7338310802262819347",
        "url": ""
    },
    {
        "title": "运动员收入历史前50，乔丹263亿第一，梅西詹姆斯居然都没C罗高！",
        "docid": "7322766746350387747",
        "url": ""
    },
    {
        "title": "蹦床公主何雯娜签约辛巴，成公司主播，穿国家队服带货引网友热议",
        "docid": "7337876545224426024",
        "url": ""
    },
    {
        "title": "历史父子档得分TOP9：科比父子与水花父子包揽前三",
        "docid": "7307766961268638245",
        "url": ""
    },
    {
        "title": "看了杜兰特臂展，艾弗森手掌，你就明白 为何NBA几乎被黑人统治",
        "docid": "7312666227724829234",
        "url": ""
    },
    {
        "title": "5000万，耻辱性报价！拜仁巨星太作，皇马再三压价，巴萨被羞辱",
        "docid": "7338642070662365732",
        "url": ""
    },
    {
        "title": "知情人：刘翔长期在国外，靠终身合同养老，与二婚妻子计划要孩子",
        "docid": "7338672667588903478",
        "url": ""
    },
    {
        "title": "两年蒸发2000多亿市值，李宁的大败局才刚刚开始",
        "docid": "7338727393361936930",
        "url": ""
    },
    {
        "title": "联盟最准之人！6年命中率超6成，曾让勇士垂涎的马刺精品",
        "docid": "7309719681375437346",
        "url": ""
    },
    {
        "title": "天津小伙娶乌克兰美女，因战火花光所有积蓄，带老丈人一家回中国",
        "docid": "7326738638019396146",
        "url": ""
    },
    {
        "title": "斯波的逆袭：1995年-热火录像协调员 2024年-历史教练最大合同",
        "docid": "7322305749643510313",
        "url": ""
    },
    {
        "title": "“穿衣显瘦，脱衣有肉”说的就是NBA这5人 库里也有麒麟臂",
        "docid": "7337855738821378579",
        "url": ""
    },
    {
        "title": "NBA历史十大加拿大球员🍁第一无悬念 与乔丹合砍57分之人列第9",
        "docid": "7337581777336779300",
        "url": ""
    },
    {
        "title": "征服麦当娜，惜败卡门，他才是nba最强的男人！",
        "docid": "7337981527500669477",
        "url": ""
    },
    {
        "title": "体操冠军桑兰：比赛摔成瘫痪，事后索赔18亿美元，如今成人生赢家",
        "docid": "7337937603930669619",
        "url": ""
    },
    {
        "title": "男篮马健近况：54岁非常强壮，妻子是日本美女，儿女双全很幸福",
        "docid": "7312084111840100927",
        "url": ""
    },
    {
        "title": "诺维茨基14次参加全明星赛，都是替补",
        "docid": "7330832533665727010",
        "url": ""
    },
    {
        "title": "难了呀😰！快船剩余29场常规赛并列联盟最多 7次背靠背联盟最多",
        "docid": "7338627038955569664",
        "url": ""
    },
    {
        "title": "她曾自认实力不输王楠，却被王楠退役前给上了一课，错失上位良机",
        "docid": "7307902296699060790",
        "url": ""
    },
    {
        "title": "穆帅被解雇后，罗马混子队长不演了！7场独造7球，全力辅佐德罗西",
        "docid": "7338686102695854607",
        "url": ""
    },
    {
        "title": "👍管理层有东西！森林狼排名西部第一 且还未到奢侈税起征线",
        "docid": "7338564875607802368",
        "url": ""
    },
    {
        "title": "揭秘女骑友的真实生活！",
        "docid": "7337514595390784063",
        "url": ""
    },
    {
        "title": "刘翔凭借终身合同过上悠闲生活，与二婚妻子即将迎来新生命。",
        "docid": "7338394224520299046",
        "url": ""
    },
    {
        "title": "姚明罕见失态！男篮大功臣，未来10年核心，名记：下一个王治郅！",
        "docid": "7338663929012650508",
        "url": ""
    },
    {
        "title": "\"全红婵哥哥北京陪妹妹春节游长城，网友：大哥好暖心\"",
        "docid": "7338264083734479394",
        "url": ""
    },
    {
        "title": "马龙：幸福喽！爱妻二儿三餐四季，马主任生活上也是“全满贯”",
        "docid": "7332284984226497078",
        "url": ""
    },
    {
        "title": "R.I.P.🙏火箭名宿罗伯特-雷德逝世 享年68岁",
        "docid": "7337933859486794292",
        "url": ""
    },
    {
        "title": "单赛季3000分有多难？NBA历史仅2人做到 东契奇有望",
        "docid": "7321567216133325352",
        "url": ""
    },
    {
        "title": "女排名帅陈忠和：再婚娶女排弟子为妻，如今已经退休携妻回归家庭",
        "docid": "7314172335500968500",
        "url": ""
    },
    {
        "title": "谁该上去，谁该下来，75大里面名不副实的球星有谁！",
        "docid": "7312083534741815846",
        "url": ""
    },
    {
        "title": "大兄弟能归化吗？吧友集体五星评克雷桑：带我们去美加墨吧，雷桑",
        "docid": "7337643838259151375",
        "url": ""
    },
    {
        "title": "原来他已去世16年，80年代齐名李连杰，走后儿子将奶奶告上法庭",
        "docid": "7332047561337078308",
        "url": ""
    },
    {
        "title": "“常青树”凯文-威利斯，效力21载，45岁还复出",
        "docid": "7310119498249339427",
        "url": ""
    },
    {
        "title": "跳水冠军王克楠：郭晶晶的初恋，车祸早逝，遗孀单身替他养父母",
        "docid": "7338749340866871820",
        "url": ""
    },
    {
        "title": "美媒列NBA球队冲冠实力等级：湖勇四档，太阳三档，第一档仅1队",
        "docid": "7338337336801575465",
        "url": ""
    },
    {
        "title": "体育界的“五朵金花”，她们个个美若天仙，技能超群",
        "docid": "7337487204962943488",
        "url": ""
    },
    {
        "title": "诺瓦克：他是姚明最信任的外线，只偏爱投三分，生错年代的神射手",
        "docid": "7338429405775987200",
        "url": ""
    },
    {
        "title": "快船107-129惨败雷霆，球员评分：小卡优秀、哈登良好、威少低迷",
        "docid": "7338595724805964299",
        "url": ""
    },
    {
        "title": "这次双厨狂喜，“田径刘亦菲”的汽车代言绝了！",
        "docid": "7338302127179760182",
        "url": ""
    },
    {
        "title": "NBA历史十大强队，每一支队伍都强的可怕！",
        "docid": "7336079830334816795",
        "url": ""
    },
    {
        "title": "联盟中哪些球员是非卖品，永远不会被摆上货架",
        "docid": "7312762808063066678",
        "url": ""
    },
    {
        "title": "中国2岁弃婴被收养，美国养母把她养成体操冠军，称不会回国寻亲",
        "docid": "7322406290012537395",
        "url": ""
    },
    {
        "title": "西甲最新工资帽：皇马7.27亿欧最多，巴萨降至2.04亿欧",
        "docid": "7337666571353342491",
        "url": ""
    },
    {
        "title": "穆铁柱的最后一天：在健身器材上蹬自行车，随后运动缓慢逐渐瘫倒",
        "docid": "7328708295785529871",
        "url": ""
    },
    {
        "title": "他曾是国足头号射手，与空姐妻子离婚，独自抚养儿子，47岁仍单身",
        "docid": "7332364919633576484",
        "url": ""
    },
    {
        "title": "“中国市场对NBA真的没有那么重要”，有些事实不得不承认！",
        "docid": "7338271811958440475",
        "url": ""
    },
    {
        "title": "突发噩耗！江苏女篮主教练离世",
        "docid": "7338571088449978895",
        "url": ""
    },
    {
        "title": "6比3和6比2完胜劲敌！郑钦文打出高光表现，未来夺大满贯希望大",
        "docid": "7338658267247297036",
        "url": ""
    },
    {
        "title": "西部乱成一锅粥：前四差距拉开：快船107-128不敌雷霆 球员评分！",
        "docid": "7338688940935283238",
        "url": ""
    },
    {
        "title": "亚冠射手榜遥遥领先C罗的山东锋霸 是目前最有资格被国足归化球员",
        "docid": "7337631936795525671",
        "url": ""
    },
    {
        "title": "2024年NBA全明星首发揭晓：詹姆斯刷新纪录，东西部群星璀璨！",
        "docid": "7328215995544306216",
        "url": ""
    },
    {
        "title": "巴萨工资6.39亿欧超工资帽4亿，皇马工资4.53亿欧仍有近3亿结余",
        "docid": "7337993103234040361",
        "url": ""
    },
    {
        "title": "姆巴佩来皇马，1亿巨星成“牺牲品”：要么坐板凳，要么离开",
        "docid": "7337933848795382299",
        "url": ""
    },
    {
        "title": "冼东妹，有新职",
        "docid": "7333555947866128931",
        "url": ""
    },
    {
        "title": "体操兄弟李小双和李大双，两人头发都已花白，结婚多年都没有孩子",
        "docid": "7338249070622245416",
        "url": ""
    },
    {
        "title": "一个6-2让亚冠大变天！2.4亿豪门给山东泰山一道无解题：夺冠难了",
        "docid": "7338813861883593242",
        "url": ""
    },
    {
        "title": "吹罚一场比赛等于普通人两月工资，看看NBA裁判们的工资水平",
        "docid": "7319350191402893864",
        "url": ""
    },
    {
        "title": "盘点NBA总亚军数排名前五的球队",
        "docid": "7317167087758344739",
        "url": ""
    },
    {
        "title": "塔图姆的模板与上限？",
        "docid": "7338384841219686939",
        "url": ""
    },
    {
        "title": "吉新鹏：中国羽坛首位男单奥运冠军，25岁无奈退役，娶打工妹被嘲",
        "docid": "7318218790897107508",
        "url": ""
    },
    {
        "title": "董瀚麟炮轰广东！曝光众多败人品行为，众人表达不可思议！",
        "docid": "7337138061622395401",
        "url": ""
    },
    {
        "title": "男篮李根：因财产与前妻开撕，二婚娶漂亮女博士，35岁终转型成功",
        "docid": "7337977544467333647",
        "url": ""
    },
    {
        "title": "太恐怖！辽三线城市竟是中国乒乓洞天福地！20年狂产12世界名将！",
        "docid": "7317407593067217448",
        "url": ""
    },
    {
        "title": "亚冠：中日韩分庭抗礼，利雅得双雄成功晋级，8强全员落位",
        "docid": "7338633065444573746",
        "url": ""
    },
    {
        "title": "1988年汉城奥运会：我国仅有5枚金牌入账，5位冠军如今怎样了？",
        "docid": "7320459377989812762",
        "url": ""
    },
    {
        "title": "卧虎藏龙！2023NBA新秀排行榜前十：文班稳坐第一，切特跌至第三",
        "docid": "7336574007082304039",
        "url": ""
    },
    {
        "title": "本赛季一鸣惊人的五大球星，米勒实至名归，波杰姆斯基华丽转身",
        "docid": "7337611152459022902",
        "url": ""
    },
    {
        "title": "盘点这些年被广东男篮抛弃的10位实力球员，周鹏赵睿让人意难平",
        "docid": "7336965166380646946",
        "url": ""
    },
    {
        "title": "亚洲团体赛：女团印度夺冠创历史，男团中国夺冠超预期",
        "docid": "7336941318767329842",
        "url": ""
    },
    {
        "title": "NBA5大非人类肌肉，威少的胸肌 詹皇的大腿 奥尼尔的手臂",
        "docid": "7320441033568322067",
        "url": ""
    },
    {
        "title": "西部排名榜大乱:狼榜首告急,小牛太阳换位,快船前6独败,湖勇差0.5",
        "docid": "7338680419062350347",
        "url": ""
    },
    {
        "title": "他和詹姆斯争球权，与欧文争老大，却为何28岁刚夺冠就立刻失业？",
        "docid": "7336947962579042868",
        "url": ""
    },
    {
        "title": "😲全球职业球队市值排行：勇士估值82.8亿美元 全球第2！",
        "docid": "7338245634463564322",
        "url": ""
    },
    {
        "title": "台球杆法白球点位图解笔记",
        "docid": "7325708366171488768",
        "url": ""
    },
    {
        "title": "意外！他突然承认有中国血统",
        "docid": "7311593297070359080",
        "url": ""
    },
    {
        "title": "一辆独轮车，一摞白瓷碗，这个女人从山西“骑”到了NBA。",
        "docid": "7324362215442792979",
        "url": ""
    },
    {
        "title": "😋詹姆斯手不停球穿针扔给拉塞尔 自己都陶醉了~",
        "docid": "7328961066606625331",
        "url": ""
    },
    {
        "title": "何美钿：可爱在性感面前并非一文不值，何况我的身材也不差",
        "docid": "7336432356531782155",
        "url": ""
    },
    {
        "title": "又是桃色瓜！未成年、贪污、强奸、贿赂， 信息量好大！",
        "docid": "7337651092681556543",
        "url": ""
    },
    {
        "title": "闹大了账号内容太辣眼！王诗玥发文柳鑫宇账号被盗，本人发声不认",
        "docid": "7337564121753633316",
        "url": ""
    },
    {
        "title": "李月汝在美国的年薪46万元，对比在中国和土耳其的年薪，肃然起敬",
        "docid": "7338253272664523316",
        "url": ""
    },
    {
        "title": "有好戏看了！继孟铎董瀚麟后，西热力江曾繁日也掺和广东的破事了",
        "docid": "7338042353943314985",
        "url": ""
    },
    {
        "title": "钓鱼能钓出什么诡异东西？网友分享让人感叹:什么都能钓除了鱼",
        "docid": "7310812104494367272",
        "url": ""
    },
    {
        "title": "单赛季拿2800分有多难？翻遍NBA仅6人做到 哈登上榜 1人单季4029分",
        "docid": "7322027778847588916",
        "url": ""
    },
    {
        "title": "詹姆斯最大的错，就是他比科比强",
        "docid": "7336465990660211215",
        "url": ""
    },
    {
        "title": "约基奇100%命中率砍下20+15板+15助 联盟近40年来首人",
        "docid": "7338648624026698251",
        "url": ""
    },
    {
        "title": "“我才刚出汗，你已经累趴了”，盘点NBA公认的5大体力怪",
        "docid": "7319695252154270227",
        "url": ""
    },
    {
        "title": "傻了吧！拒绝9换1大交易！都有人看不上MVP乔治",
        "docid": "7338331873716404745",
        "url": ""
    },
    {
        "title": "美媒为戈登鸣不平！8个50分扣篮历史第一，0冠引热议。",
        "docid": "7336977539938238991",
        "url": ""
    },
    {
        "title": "马龙：18岁“龙嫂”夏露出手稳准狠，拿下“天花板”级老公",
        "docid": "7335242827121050149",
        "url": ""
    },
    {
        "title": "完败！浓眉27+15，库里32+8，维金斯天神下凡，勇士替补奇兵诞生",
        "docid": "7338650678615294474",
        "url": ""
    },
    {
        "title": "勇士大胜湖人！库里轰32分，维金斯+TJD完美发挥，汤普森转型",
        "docid": "7338662549783183926",
        "url": ""
    },
    {
        "title": "太洒脱！知情人透露刘翔近况，他长期在国外旅游，收入来源曝光",
        "docid": "7337938100641219098",
        "url": ""
    },
    {
        "title": "93年从巅峰乔丹手里抢走MVP的巴克利，打出了什么表现？不输乔丹",
        "docid": "7328049806700741120",
        "url": ""
    },
    {
        "title": "被誉为乌克兰最美冠军，为爱改变国籍嫁到中国，37岁生二胎很圆满",
        "docid": "7331325420148949539",
        "url": ""
    },
    {
        "title": "NBA历史上替补得分最多的5位球员，路威第一，克6第二",
        "docid": "7312060207818179124",
        "url": ""
    },
    {
        "title": "后卫拿DPOY有多难？NBA至今仅6人做到，84钻石一代2人上榜",
        "docid": "7315003479934730752",
        "url": ""
    },
    {
        "title": "聂卫平长子：改日本国籍，娶日本妻子，还拒绝让儿子姓聂",
        "docid": "7332805947142521353",
        "url": ""
    },
    {
        "title": "连胜终结！湖人110-128勇士，本场谁是罪魁祸首，数据不会说谎！",
        "docid": "7338777741623296553",
        "url": ""
    },
    {
        "title": "2届扣篮王，迈克朗什么来头？曾效力湖人勇士，创NBA纪录",
        "docid": "7336888223845302818",
        "url": ""
    },
    {
        "title": "他不是乞丐，他是“流浪棋王”邓有邦，一个一生痴迷下棋的人",
        "docid": "7337028794756186624",
        "url": ""
    },
    {
        "title": "日本帝王级牛郎与梅西合影：谢谢你对我的身份没有偏见👍",
        "docid": "7332710484086374951",
        "url": ""
    },
    {
        "title": "从被女友抛弃，到被女明星疯狂示爱，CBA弃将完美演绎逆袭人生",
        "docid": "7325728373878112822",
        "url": ""
    },
    {
        "title": "当邓肯退役后，没人再拿波波维奇对比禅师，这就是差距",
        "docid": "7315214350191559222",
        "url": ""
    },
    {
        "title": "青岛小伙演绎现实版“热辣滚烫”，从250多斤减至150斤，找回更好的自己",
        "docid": "7338258037238759975",
        "url": ""
    },
    {
        "title": "妈妈！他们来真的了！广东靓仔来哈尔滨挑战划龙舟",
        "docid": "7323926163918144035",
        "url": ""
    },
    {
        "title": "打球不如你，教人打球我老大，说一下历史最佳NBA教练，禅师榜首",
        "docid": "7314163538669601334",
        "url": ""
    },
    {
        "title": "范志毅泪洒现场：我受之有愧！",
        "docid": "7338271303139000870",
        "url": ""
    },
    {
        "title": "👀本赛季罚球总净胜数：湖人+325断档第一 太阳+181第二",
        "docid": "7338639404850020927",
        "url": ""
    },
    {
        "title": "曝网红韩景枫与“羽坛女神”李谣恋爱！细节曝光，多次甜蜜搂抱",
        "docid": "7336592957102998054",
        "url": ""
    },
    {
        "title": "顶流姜涛与贝克汉姆、梅西合影！身高碾压，网友：你才是最大赢家",
        "docid": "7331937996927025683",
        "url": ""
    },
    {
        "title": "🤣利拉德——史上第一位得分第二的冠军😁",
        "docid": "7336774659884909075",
        "url": ""
    },
    {
        "title": "看了科比手掌，詹姆斯脚趾，罗斯膝盖，你就不会羡慕他们高薪了",
        "docid": "7320458888166539795",
        "url": ""
    },
    {
        "title": "别看他不是巨星！其实他才是真正的人生赢家！",
        "docid": "7337876219372847654",
        "url": ""
    },
    {
        "title": "05、07赛季夺冠，志在三连冠的马刺为何在06年失利？当时输给了谁",
        "docid": "7311642974251663887",
        "url": ""
    },
    {
        "title": "勇士最后一攻克莱弱侧空位张手要球 库里顶着防守强行三分不中",
        "docid": "7306779642646807055",
        "url": ""
    },
    {
        "title": "美媒评史上最无私五人：约基奇、魔术师、詹姆斯、保罗、斯托克顿",
        "docid": "7338317793735180815",
        "url": ""
    },
    {
        "title": "《飞驰人生2》里的魔鬼赛道在哪里？听听专业人士怎么说",
        "docid": "7335351172171514419",
        "url": ""
    },
    {
        "title": "仅剩两人幸存NBA，2010年选秀到底怎么了？",
        "docid": "7305763949403259446",
        "url": ""
    },
    {
        "title": "她3岁被弃，20岁获22个世界冠军，母亲后悔想认亲，结果怎样？",
        "docid": "7338319814395937317",
        "url": ""
    },
    {
        "title": "🤔后悔不？老鹰2018年选中东契奇但与独行侠交易换来特雷-杨",
        "docid": "7328604421296800271",
        "url": ""
    },
    {
        "title": "重庆麻将馆每日人满为患，座无虚席，泡在里面的人靠什么谋生？",
        "docid": "7311219647871812147",
        "url": ""
    },
    {
        "title": "19岁韩乒女神有多喜欢23岁王楚钦，申欲斌：王楚钦是我的欧巴",
        "docid": "7311633182339154469",
        "url": ""
    },
    {
        "title": "勇士老板拉科布：库里想要什么我全给，他让我赚了80亿美元！",
        "docid": "7338818693838783014",
        "url": ""
    },
    {
        "title": "2014年800斤相扑之王娶娇妻，婚后1年逝世，妻继承巨额遗产未再婚",
        "docid": "7314228288724075071",
        "url": ""
    },
    {
        "title": "史上最高年薪！勇士两年3500万续约主教练科尔",
        "docid": "7338998194443207208",
        "url": ""
    },
    {
        "title": "冬运会朱易团体两项垫底，继冬奥后再靠队友登领奖台",
        "docid": "7338366537852322331",
        "url": ""
    },
    {
        "title": "足球解说员贺伟：感恩在央视遭冷遇的5年，让我变成了“诗人”",
        "docid": "7315658957719585330",
        "url": ""
    },
    {
        "title": "拿30000分需要多久？乔丹960场 科比1180场 詹姆斯呢？",
        "docid": "7311531046820954633",
        "url": ""
    },
    {
        "title": "NBA成立78年至今，能够称得上王朝的，也就这5个，公牛王朝第二",
        "docid": "7336800168828387855",
        "url": ""
    },
    {
        "title": "破案了！王仕鹏退役仪式没办事出有因，董瀚麟的伪正直不必褒奖",
        "docid": "7337713461205729811",
        "url": ""
    },
    {
        "title": "欧米尔·阿西克生涯简历",
        "docid": "7322044797882401280",
        "url": ""
    },
    {
        "title": "重排NBA新世纪后5大球星，杜兰特落选 库里垫底 榜首没悬念",
        "docid": "7310810779358773801",
        "url": ""
    },
    {
        "title": "哪些省份没有CBA篮球队",
        "docid": "7336740975475245608",
        "url": ""
    },
    {
        "title": "2024最失望的球队！为了斑马赔上马刺五年的未来到底值不值得？",
        "docid": "7338261931482186280",
        "url": ""
    },
    {
        "title": "亚历山大谈大胜快船：我们的化学反应非常出色",
        "docid": "7338704315265106432",
        "url": ""
    },
    {
        "title": "赵继伟、胡明轩、崔永熙必须拿下，这五人打首发才能战胜日本队",
        "docid": "7338655401744810536",
        "url": ""
    },
    {
        "title": "排球之星转行打篮球，垂直弹跳98厘米！他曾演绎“白人也能飞”",
        "docid": "7307442647164289570",
        "url": ""
    },
    {
        "title": "交易后打得真不错！格威三分11投6中&4罚全中轰下24分2助攻",
        "docid": "7338649667729277440",
        "url": ""
    },
    {
        "title": "排面！前山东男篮队长东北游玩，杨鸣韩德君接驾，赵本山儿子作陪",
        "docid": "7336765145823150655",
        "url": ""
    },
    {
        "title": "“大魔王”复出倒计时：恩比德，76人乐观看待常规赛回归",
        "docid": "7338238634157572658",
        "url": ""
    },
    {
        "title": "重磅！官方：国足主帅扬科维奇下课 亚洲杯0进球小组赛耻辱出局",
        "docid": "7339004319150441011",
        "url": ""
    },
    {
        "title": "盘点女子篮坛十大美女（国际版）：中国两人入选",
        "docid": "7304628093409411619",
        "url": ""
    },
    {
        "title": "细数10位现役NBA球员，未来将进入名人堂",
        "docid": "7306149639214940722",
        "url": ""
    },
    {
        "title": "拳王邹市明：打拳是世界第一，但是在家是倒数第一，今生最怕老婆",
        "docid": "7320161280294453769",
        "url": ""
    },
    {
        "title": "中国花滑冠军夫妻近况：赵宏博头发斑白，申雪保养得当、风姿不减",
        "docid": "7324636655741927977",
        "url": ""
    },
    {
        "title": "NBA也有“矮壮篮板怪”？看看海耶斯为何可以成为姚明的首席替补",
        "docid": "7321751343403123219",
        "url": ""
    },
    {
        "title": "木村纱织、福原爱，日本两高人气美女，退役后婚姻与人生大不同",
        "docid": "7338242997189935653",
        "url": ""
    },
    {
        "title": "生日快乐！拉塞尔晒全家福以及豪车照片：感恩28岁",
        "docid": "7338802274061746725",
        "url": ""
    },
    {
        "title": "史密斯22+16杜兰特总得分超安东尼独享历史第9 太阳客场不敌火箭",
        "docid": "7338989178103251507",
        "url": ""
    },
    {
        "title": "工业大摸底：钓鱼佬硬生生把鱼竿厂逼成军工供应商，公司老总懵了",
        "docid": "7314285761526858276",
        "url": ""
    },
    {
        "title": "不要约吹东吹登吹了，只从INS粉丝数来看NBA最热球员，数据不说谎",
        "docid": "7338047492141498880",
        "url": ""
    },
    {
        "title": "NBA最强坦克身材阵容都有谁？奥尼尔像绿巨人 詹姆斯似非人类",
        "docid": "7316002161912087052",
        "url": ""
    },
    {
        "title": "为梅西投票107名队长：凯恩、姆巴佩、萨拉赫、孙兴慜、吴曦在列",
        "docid": "7324463666093933096",
        "url": ""
    },
    {
        "title": "同一届选秀出现两个MVP有多难？历史仅有5次做到，03白金一代无缘",
        "docid": "7326914847457673728",
        "url": ""
    },
    {
        "title": "史上十大意外的全明星首发：科比打6场，姚明5场，威金斯运气贼好",
        "docid": "7328465878624764456",
        "url": ""
    },
    {
        "title": "肖恩马里昂，那个如同僵尸打摆罚篮的糙汉，居然买下一支球队",
        "docid": "7324326288347710002",
        "url": ""
    },
    {
        "title": "心态崩了！1天800条交易！送我走吧，求求了",
        "docid": "7327865343152865827",
        "url": ""
    },
    {
        "title": "没帮手？东契奇再也没有借口了！都学学独行侠的补强思路吧！",
        "docid": "7337830820364829247",
        "url": ""
    },
    {
        "title": "里程碑！东契奇25岁前解锁1w分3k板3k助 历史第二人&比肩詹姆斯",
        "docid": "7329707376532128293",
        "url": ""
    },
    {
        "title": "盘点世界体坛15神颜（中国外）",
        "docid": "7309355423814451762",
        "url": ""
    },
    {
        "title": "央视、公安都报道过的“篮球女孩”，20多年过去，如今她怎样了？",
        "docid": "7330557504172081715",
        "url": ""
    },
    {
        "title": "他口中的最美丽的妻子，如今却成了他人的爱人！这哪说理去！",
        "docid": "7338809992994456115",
        "url": ""
    },
    {
        "title": "乒乓教父蔡振华：我这辈子最大幸运，是娶“没心没肺”的演员媳妇",
        "docid": "7338730840647631379",
        "url": ""
    },
    {
        "title": "快船101-95战胜灰熊，球员评分：曼恩回暖、哈登及格、乔治梦游",
        "docid": "7338965193399288374",
        "url": ""
    },
    {
        "title": "火密来评评：火箭众将的场上表现是不是和太太的颜值成反比",
        "docid": "7338638800895345204",
        "url": ""
    },
    {
        "title": "美媒：迈阿密国际态度明确，梅西只能在美洲杯和奥运会中二选一",
        "docid": "7338110010930594342",
        "url": ""
    },
    {
        "title": "谷爱凌一家美国过年！在唐人街狂欢，开豪车带外婆炸街，豪宅曝光",
        "docid": "7338691199605572146",
        "url": ""
    },
    {
        "title": "珠江“入侵王”终于被识破,原来我一直吃错了鱼!",
        "docid": "7331781431586259475",
        "url": ""
    },
    {
        "title": "日本队遗憾出局！张本智和赛后发言让人可怕，松岛辉空发言很遗憾",
        "docid": "7338985125881152034",
        "url": ""
    },
    {
        "title": "勇士老板拉科布：库里想要什么我全给，他让我赚了80亿美元！",
        "docid": "7338716134671434291",
        "url": ""
    },
    {
        "title": "WTA迪拜站｜卡林斯卡娅爆冷首进决赛 逼得世界第一怒摔球拍",
        "docid": "7338941303654203939",
        "url": ""
    },
    {
        "title": "元宵佳节来临🏮李凯尔给球迷出灯谜：🐉🌪️🍊🐘",
        "docid": "7338805324457148979",
        "url": ""
    },
    {
        "title": "字母哥33+13利拉德21+9+10 雄鹿力克森林狼终结对手4连胜",
        "docid": "7339030652559999498",
        "url": ""
    },
    {
        "title": "朱芳雨重拳出手！董瀚麟孟铎后悔晚了，曝广东男篮牵头：彻底封杀",
        "docid": "7338825318670795305",
        "url": ""
    },
    {
        "title": "国乒首战失败！王楚钦1-3不敌张禹珍！樊振东能否为队夺下首分?",
        "docid": "7339019360017072651",
        "url": ""
    },
    {
        "title": "梅西全场数据：1助攻，5脚关键传球，22次丢失球权，获评7.8分",
        "docid": "7338259125094236735",
        "url": ""
    },
    {
        "title": "百搭麻将公式，希望你不要学会！",
        "docid": "7323947627505566243",
        "url": ""
    },
    {
        "title": "四川长牌原来是这么玩的，你玩过吗？内含新手教学",
        "docid": "7338459467937956378",
        "url": ""
    },
    {
        "title": "他，可能是《外来媳妇本地郎》里最大咖的客串演员，可惜早已去世",
        "docid": "7312749231813886490",
        "url": ""
    },
    {
        "title": "大爆冷！6连杀郑钦文的斯瓦泰克输球摔拍子！胜者是资格赛大美女",
        "docid": "7338937370542260736",
        "url": ""
    },
    {
        "title": "詹皇30分连续1201场得分上双 浓眉28+13+两项里程碑湖人擒马刺",
        "docid": "7339009621250146879",
        "url": ""
    },
    {
        "title": "旧情复燃！布克再次遭遇“最佳防守球员”挑战，太阳危矣！",
        "docid": "7338950555198308904",
        "url": ""
    },
    {
        "title": "😨卡戴珊真就恐怖如斯？燃旧情的布克24中7疯狂打铁只得投25分",
        "docid": "7339010473633841715",
        "url": ""
    },
    {
        "title": "女篮最伟大五大球星：李梦韩旭竟全部落选，王思雨仅排第五名",
        "docid": "7316854773637153306",
        "url": ""
    },
    {
        "title": "确定了！是他",
        "docid": "7338225987203056180",
        "url": ""
    },
    {
        "title": "刘璇育儿比教练还严格:儿子4岁前不吃一粒盐，9岁前不吃糖",
        "docid": "7323786868825702947",
        "url": ""
    },
    {
        "title": "男篮巩晓彬近况：54岁依旧很帅，财富自由，儿子拜师伊巴卡",
        "docid": "7314693437947855423",
        "url": ""
    },
    {
        "title": "王涛为梅西扯上刘翔，网友：你老老实实跪着就完事了，别老叫唤",
        "docid": "7338386773779268150",
        "url": ""
    },
    {
        "title": "评论区炸了！哈尔滨冰雪大世界主持人左右哥61天工资曝光 被亏待了",
        "docid": "7338730519833952809",
        "url": ""
    },
    {
        "title": "离大谱！火箭114-110太阳，太阳深陷附加赛区不能自拔，布克迷失",
        "docid": "7339022147509486118",
        "url": ""
    },
    {
        "title": "追梦：我同意JJ的观点 老里每次接受采访都在找新借口",
        "docid": "7338925702395347468",
        "url": ""
    },
    {
        "title": "体操兄弟李小双李大双，两人头发都已花白，结婚多年都没有孩子",
        "docid": "7306758166975611428",
        "url": ""
    },
    {
        "title": "釜山男团半决赛|惊险刺激，中韩大战，大头1—3惜败张禹珍！",
        "docid": "7339024808288404008",
        "url": ""
    },
    {
        "title": "倪夏莲真是一个奇迹，入籍卢森堡，在丈夫帮助下60岁还能拿冠军！",
        "docid": "7331148615462699571",
        "url": ""
    },
    {
        "title": "出生于山西太原的双胞胎——堪称为是CBA赛场上一道靓丽的风景线",
        "docid": "7315359629616333321",
        "url": ""
    },
    {
        "title": "全明星三项大赛名单出炉，你觉得谁会拿下冠军？",
        "docid": "7336540022789210650",
        "url": ""
    },
    {
        "title": "世乒赛-樊振东两度挽狂澜 王楚钦拿下决胜盘 中国3-2逆转韩国进决赛",
        "docid": "7339038988949406260",
        "url": ""
    },
    {
        "title": "肌肉再强也别跟奥尼尔合影，因为拍出来看了 你真的会想哭",
        "docid": "7337504964203332134",
        "url": ""
    },
    {
        "title": "勇士97-84大胜黄蜂 球员评分：2人完美、6人达标、3人不及格。",
        "docid": "7334708128409764379",
        "url": ""
    },
    {
        "title": "江西钓友惊钓“黄辣丁之王”！1.2斤刷新赣江记录，网友争相抢购",
        "docid": "7338975913147335220",
        "url": ""
    },
    {
        "title": "09届选秀谁挣得多？卢比奥1.4亿，格里芬2.6亿，库里哈登太强了",
        "docid": "7315034032071459339",
        "url": ""
    },
    {
        "title": "担心曼联威胁吗？瓜帅：只有穆帅执教时他们才拿过第二，我关心自己",
        "docid": "7338797315576693263",
        "url": ""
    },
    {
        "title": "为何欧洲人比亚洲人更加强壮？并非只是天生，后天改变也很重要",
        "docid": "7337590859875172874",
        "url": ""
    },
    {
        "title": "真核！追梦回归首发后勇士9胜3负 进攻和防守效率皆排名联盟第五",
        "docid": "7338885127935738418",
        "url": ""
    },
    {
        "title": "专家建议上班第一天少干点活，“退钱哥”何胜发文：你别说，专家这个建议还挺靠谱",
        "docid": "7336773032797192730",
        "url": ""
    },
    {
        "title": "惠特摩尔15+3，杰伦格林糟弃用，火箭114-110击败太阳！",
        "docid": "7338977289663070731",
        "url": ""
    },
    {
        "title": "大爆冷！太阳110-114火箭，本场谁是罪魁祸首，数据不会说谎！",
        "docid": "7339007267394519589",
        "url": ""
    },
    {
        "title": "世乒赛樊振东大爆发！连续3-0横扫韩国，为国乒赢得关键之战",
        "docid": "7339060129410974243",
        "url": ""
    },
    {
        "title": "他获得8个NBA总冠军，3个FMVP，唯独没有MVP",
        "docid": "7312286493530456630",
        "url": ""
    },
    {
        "title": "樊振东顶住压力！3-0横扫韩国名将，世乒赛为中国队拿下关键分",
        "docid": "7339017703569146403",
        "url": ""
    },
    {
        "title": "“准备一卡车的钱来签我”，地表最强175的跌宕人生",
        "docid": "7307098647525638691",
        "url": ""
    },
    {
        "title": "联盟第一！从最差到最强进攻大队，詹眉承上启下，湖人完美蜕变",
        "docid": "7338069395580863030",
        "url": ""
    },
    {
        "title": "跪求机会！求着签底薪！心酸！好歹也是超级状元后卫",
        "docid": "7339016300817203731",
        "url": ""
    },
    {
        "title": "吊打！樊振东世乒赛爆发呐喊，3：0大胜韩国悍将，大比分改写1：1",
        "docid": "7339027939306193423",
        "url": ""
    },
    {
        "title": "央视锐评！傅园慧被勒索事件引争议，被罚3万，司机含泪悔不当初",
        "docid": "7336594457850135052",
        "url": ""
    },
    {
        "title": "杜兰特超越甜瓜 历史总得分榜排名升至第九位",
        "docid": "7339044622146814503",
        "url": ""
    },
    {
        "title": "《武林志》东方旭：82岁武术大师李俊峰，比徒弟李连杰看着更年轻",
        "docid": "7338991137484603943",
        "url": ""
    },
    {
        "title": "“影帝”斯科拉：曾是姚明队友，娶1米6娇妻生4个儿子，现状如何",
        "docid": "7319316339057820198",
        "url": ""
    },
    {
        "title": "🔥见证伟大！詹姆斯生涯总篮板已经达到11000个 现役第一！",
        "docid": "7332255500899238436",
        "url": ""
    },
    {
        "title": "日本男篮主帅：日本近年来从未击败过中国，我很期待这场比赛",
        "docid": "7338792994009580095",
        "url": ""
    },
    {
        "title": "火箭：感谢娜娜让我们赢了太阳！",
        "docid": "7339021514324328998",
        "url": ""
    },
    {
        "title": "本赛季最火爆冲突：巴特勒遭锁喉托布老六打架4人被驱逐 球迷卷入",
        "docid": "7339001713338352191",
        "url": ""
    },
    {
        "title": "把纪录提前967天🤯！20岁零51天文班亚马成历史最年轻5X5先生！",
        "docid": "7339045593589187110",
        "url": ""
    },
    {
        "title": "从西部第三跌到第八！国王仅用一年就走向衰落？布朗只学到了科尔",
        "docid": "7338076129221313033",
        "url": ""
    },
    {
        "title": "被姚明抱上奥运，在汶川地震连救两人，立志考清华的他如今怎样了",
        "docid": "7321215885895844404",
        "url": ""
    },
    {
        "title": "五大联赛加中超球队队标，“赛亚人版”，真的帅",
        "docid": "7321633645809156634",
        "url": ""
    },
    {
        "title": "伊万科维奇，任中国男足主教练",
        "docid": "7339010046132519434",
        "url": ""
    },
    {
        "title": "韦德：选秀前一天掘金叫我去试训 因为他们怕活塞会选甜瓜",
        "docid": "7338983666226053672",
        "url": ""
    },
    {
        "title": "体操女神张豆豆：凭挺胸照走红，拒绝进娱乐圈，与孙杨结成夫妻",
        "docid": "7332302141551395343",
        "url": ""
    },
    {
        "title": "杰弗森：现在的我（43岁）能打爆现在的乔丹（61岁）",
        "docid": "7338067829873361443",
        "url": ""
    },
    {
        "title": "杜兰特：讨论GOAT是很主观的 你随便问20人会选我或者麦迪、乔治",
        "docid": "7338740448883868200",
        "url": ""
    },
    {
        "title": "小加索尔宣布退役！20年职业生涯荣誉一览，一次总冠军也算圆满了",
        "docid": "7330320644921508402",
        "url": ""
    },
    {
        "title": "差点被奥尼尔“毁掉”的男人，如果球商在线，麦基可以统治联盟！",
        "docid": "7336591939296707083",
        "url": ""
    },
    {
        "title": "罕见“五双”！美高女篮球员单场砍下11分20板11助10断10帽",
        "docid": "7339063319682400807",
        "url": ""
    },
    {
        "title": "2连败杜兰特里程碑总得分超越安东尼排名NBA历史第9",
        "docid": "7338997066921902618",
        "url": ""
    },
    {
        "title": "姆巴佩到来皇马集齐“四大天王”，与曼城“四大金刚”谁更胜一筹",
        "docid": "7338705305091473931",
        "url": ""
    },
    {
        "title": "中国乒乓球霸主再现！釜山夺冠之路",
        "docid": "7338880142804009524",
        "url": ""
    },
    {
        "title": "韦世豪社媒发文：一个让我舍不得离开的城市，感谢一年的相遇",
        "docid": "7339011022822785570",
        "url": ""
    },
    {
        "title": "詹姆斯生涯历史记录，哪个最有可能被打破的历史记录！",
        "docid": "7336907571746357799",
        "url": ""
    },
    {
        "title": "体坛周报记者报道，中超霸主来了，全中超没有的踢法，很恐怖",
        "docid": "7339001004794446336",
        "url": ""
    },
    {
        "title": "7大陪练神龙，各有不同分工！最强陪练天团分别陪谁，都练什么？",
        "docid": "7328975700755825193",
        "url": ""
    },
    {
        "title": "他单手抓篮球就如我单手抓橙子，盘点NBA的大手怪。乔丹字母奥胖",
        "docid": "7319053967248982578",
        "url": ""
    },
    {
        "title": "大爱中国！阿德里安：中国人从不抱怨，有20多种汽车品牌！",
        "docid": "7307515784778383926",
        "url": ""
    },
    {
        "title": "对话｜在UFC赛场击倒对手后，外国观众对着他大喊“姚明”",
        "docid": "7338972262000853514",
        "url": ""
    },
    {
        "title": "惨烈！火爆冲突4人驱逐！拒绝19分大逆转，东部冠军强势逆袭",
        "docid": "7339017003443061288",
        "url": ""
    },
    {
        "title": "日本队遗憾出局！张本智和赛后发言让人可怕，松岛辉空发言很遗憾",
        "docid": "7339008244189135386",
        "url": ""
    },
    {
        "title": "不服不行！看到这组数据才懂詹姆斯的恐怖，乔丹、科比都不如他",
        "docid": "7338670568629240360",
        "url": ""
    },
    {
        "title": "随着雄鹿力克森林狼、热火战胜鹈鹕，东部最新排名及形势如下！",
        "docid": "7339065891118137871",
        "url": ""
    },
    {
        "title": "4岁开始打球，5岁获得全国少儿冠军，乒乓球“神童”令人叹服！",
        "docid": "7314539712386056719",
        "url": ""
    },
    {
        "title": "刘国栋：打球不如弟弟刘国梁，却打造一支与中国队抗衡的海外兵团",
        "docid": "7313815823792128562",
        "url": ""
    },
    {
        "title": "太爽了！央视居然用梅西羞辱球迷的方式，羞辱了梅西！C罗赢麻了",
        "docid": "7337578347566170665",
        "url": ""
    },
    {
        "title": "场均18分带队4战全胜！独行侠的溢价弃将成黄蜂救世主，1换5赚了",
        "docid": "7338936353457553947",
        "url": ""
    },
    {
        "title": "你以为她是集邮女，其实她只不过不想在家人面前，丢了面子！",
        "docid": "7339092549602132490",
        "url": ""
    },
    {
        "title": "热火与鹈鹕爆发大规模冲突，4人被驱逐，场面劲爆",
        "docid": "7338999071270765056",
        "url": ""
    },
    {
        "title": "火箭114-110击败太阳 球员评分：1人满分，4人达标，3人崩盘",
        "docid": "7339027009906934311",
        "url": ""
    },
    {
        "title": "国乒3-2极限逆袭!先灭日本再胜韩国!樊振东力挽2分王楚钦将功补过",
        "docid": "7339076401020224063",
        "url": ""
    },
    {
        "title": "男排汤淼近况：瘫痪16年，母亲妻子早已改嫁，试管女儿刚6岁",
        "docid": "7309410580056867368",
        "url": ""
    },
    {
        "title": "山东泰山通过这场恶战 涌现出了六位铁血战神",
        "docid": "7337643017890791988",
        "url": ""
    },
    {
        "title": "勇士最后1人？爵士同意交易，这赛季稳了！这可能是2024冠军阵容",
        "docid": "7338332366160740905",
        "url": ""
    },
    {
        "title": "国乒一哥爆发!樊振东3-0横扫完胜林仲勋扳回一分！振奋士气夺首分",
        "docid": "7339034102337389075",
        "url": ""
    },
    {
        "title": "史上五大最无争议的金球奖",
        "docid": "7329844740877304361",
        "url": ""
    },
    {
        "title": "大冷门！残阵76人掀翻东部第2！马克西爆砍24+7+5！哈里斯15+9+4",
        "docid": "7338968039779598863",
        "url": ""
    },
    {
        "title": "24年前，那个夺奥运金牌后，连国旗都找不到的王丽萍，现状如何？",
        "docid": "7321902919325041206",
        "url": ""
    },
    {
        "title": "久违！PJ-塔克在被DNP38场比赛后，本场代表快船队出战",
        "docid": "7338975685207409161",
        "url": ""
    },
    {
        "title": "灌篮大赛史上三次危机，麦克朗成了第三次危机救世主！",
        "docid": "7336855128214880807",
        "url": ""
    },
    {
        "title": "物欲横流的联盟，只有这三位坚守底线，这是他们如此稳定的原因！",
        "docid": "7337598255553184266",
        "url": ""
    },
    {
        "title": "美媒交易设想：快船送出塔克海兰德等三将+1首轮从篮网换来电风扇",
        "docid": "7331992526670889491",
        "url": ""
    },
    {
        "title": "活塞接了勇士的烫手山芋：怀斯曼，续约吃哑巴亏，不续约赔大了！",
        "docid": "7336536593568023074",
        "url": ""
    },
    {
        "title": "排球女神惠若琪：27岁开启第二段人生，婚后变得更像小女人",
        "docid": "7313044326731547187",
        "url": ""
    },
    {
        "title": "宋主席没说错，建国前和初，男足并不差，曾经拿到9连冠和3个冠军",
        "docid": "7316118761734488602",
        "url": ""
    },
    {
        "title": "21岁郑钦文在迪拜遭漫天嘘声，为何外国观众不喜欢她？肤色是关键",
        "docid": "7338689438140351003",
        "url": ""
    },
    {
        "title": "伦纳德不在时哈登撑不起场面？对面抬手就是规，哈登独木难支",
        "docid": "7315949906731418124",
        "url": ""
    },
    {
        "title": "万万没想到，打麻将还有万能公式，不会打麻将的你收藏起来看看吧",
        "docid": "7329574689897120296",
        "url": ""
    },
    {
        "title": "跟他比马龙确实没有任何优势了，釜山世乒赛这个问题也是被放大了",
        "docid": "7337972566055223808",
        "url": ""
    },
    {
        "title": "进步非常缓慢，这些NBA球员这么打下去真的不太行啊",
        "docid": "7338978143031706123",
        "url": ""
    },
    {
        "title": "她手握24个世界冠军，却在婚后47天被查出癌症，富豪丈夫举动感人",
        "docid": "7322760412511830563",
        "url": ""
    },
    {
        "title": "会打球！丁威迪全场6中0没有得分，但正负值与詹姆斯并列最高",
        "docid": "7339047884656017971",
        "url": ""
    },
    {
        "title": "这什么菜鸟？文班砍下27分10板8助5断5帽 昨日差1助攻达成5x5",
        "docid": "7339045604686955042",
        "url": ""
    },
    {
        "title": "文班亚马打破尘封20年的NBA纪录：勇士97-84战胜黄蜂 球员评分！",
        "docid": "7339072653569032754",
        "url": ""
    },
    {
        "title": "1946年NBA成立至今，10支球队至今0冠，谁能率先打破无冠魔咒？",
        "docid": "7313905536133857827",
        "url": ""
    },
    {
        "title": "中国男篮本次落选国家队的6位实力球员，来看看都有谁",
        "docid": "7337908919274586664",
        "url": ""
    },
    {
        "title": "细数NBA历史上得分最多的九对父子兵！",
        "docid": "7308746614364209683",
        "url": ""
    },
    {
        "title": "国足名宿黎兵：先娶空姐再娶歌星，54岁当教练，妻子美如少女",
        "docid": "7320989954334147099",
        "url": ""
    },
    {
        "title": "小贾巴里：我最后阶段超想罚球 我为那样的时刻做好了准备",
        "docid": "7339071317079163402",
        "url": ""
    },
    {
        "title": "（世乒赛）（2）乒乓球——女团决赛：中国队对阵日本队",
        "docid": "7339127516671803923",
        "url": ""
    },
    {
        "title": "半路出家打篮球 进了NBA还成巨星，历史上真有5人做到了",
        "docid": "7328647032632033804",
        "url": ""
    },
    {
        "title": "西方还妖魔化中国游泳吗？潘展乐夺冠后，世界泳联主席现场发声",
        "docid": "7336530769684496948",
        "url": ""
    },
    {
        "title": "国乒逆转韩国真的很艰难，央视给出细节，解说员爆出“家丑”",
        "docid": "7339105264127705600",
        "url": ""
    },
    {
        "title": "世乒赛决赛点爆中韩之争！韩媒：中国非无敌，朱世赫誓要不输0-3",
        "docid": "7339009521622450714",
        "url": ""
    },
    {
        "title": "国乒男团3∶2击败韩国队，晋级釜山世乒赛决赛",
        "docid": "7339078941799776804",
        "url": ""
    },
    {
        "title": "孙颖莎率先拿下一分，随后陈梦1:3被早田希娜反超！中国队1:1日本",
        "docid": "7339135485555589666",
        "url": ""
    },
    {
        "title": "🧐2月球员总正负值排名：华子居首欧文次席 库里077并列第四",
        "docid": "7338931905754104329",
        "url": ""
    },
    {
        "title": "重磅！中国足协：伊万科维奇出任中国国家男子足球队主教练！扬科维奇合同终止",
        "docid": "7339015421750067746",
        "url": ""
    },
    {
        "title": "暖心！全红婵哥哥来北京陪妹妹过春节、爬长城，网友：大哥真好",
        "docid": "7338038206191649330",
        "url": ""
    },
    {
        "title": "早田希娜谈决战国乒：对手也是人，被印度选手逼到3-2的比分",
        "docid": "7338822563118252583",
        "url": ""
    },
    {
        "title": "世乒赛男团名单诞生！法国队3-1晋级决赛，25日勒布伦兄弟战国乒",
        "docid": "7339093672652309026",
        "url": ""
    },
    {
        "title": "世乒赛爆出大冷门，国乒头号劲敌0-3出局，四支中国队登上领奖台",
        "docid": "7338999996471198208",
        "url": ""
    },
    {
        "title": "42岁卡卡友谊赛遭暴铲，差点受伤！肇事者是C罗死忠，被球迷狂喷",
        "docid": "7338950578233442825",
        "url": ""
    },
    {
        "title": "单节独得32分有多难？NBA仅6人达成，甜瓜上榜，乐福险破克莱纪录",
        "docid": "7320534812178170431",
        "url": ""
    },
    {
        "title": "凯尔·科沃尔生涯简历",
        "docid": "7267534377511698944",
        "url": ""
    },
    {
        "title": "世乒赛-孙颖莎独得2分 陈梦决胜盘翻盘 中国3-2逆转日本实现六连冠",
        "docid": "7339154519877567028",
        "url": ""
    },
    {
        "title": "拒绝爆冷！快船101-95灰熊，谁是本场比赛的功臣，数据不会说谎！",
        "docid": "7339001930070442530",
        "url": ""
    },
    {
        "title": "😤追梦转发个人历史第七人数据：恨我&但我就是优秀 事实如此",
        "docid": "7324042241230651904",
        "url": ""
    },
    {
        "title": "快船胜灰熊，赛后全员讨论会！哈登，伦纳德这样说！塔克登场！",
        "docid": "7339038900554007092",
        "url": ""
    },
    {
        "title": "王曼昱决赛前发文：为国出战义不容辞，我有能力有信心打决赛",
        "docid": "7339004473723830818",
        "url": ""
    },
    {
        "title": "前女排最美队长近况，离婚多年后，至今仍单身，开启了网络带货路",
        "docid": "7339005658966819380",
        "url": ""
    },
    {
        "title": "精彩大战!国乒3-2险胜韩国！樊振东连夺两分，王楚钦将功赎过",
        "docid": "7339073143815815743",
        "url": ""
    },
    {
        "title": "⚙️精密仪器！2024年小卡场均得到23.5分 命中率190俱乐部",
        "docid": "7338907231842353700",
        "url": ""
    },
    {
        "title": "不可思议的象棋比赛作弊，什么叫肛珠作弊？",
        "docid": "7316805220271489562",
        "url": ""
    },
    {
        "title": "釜山世乒赛男团3:2战胜韩国，你可以永远相信中国乒乓球队！",
        "docid": "7339035952825942582",
        "url": ""
    },
    {
        "title": "王曼昱现象的真像与事实！",
        "docid": "7338722774707683880",
        "url": ""
    },
    {
        "title": "小波特34+12约基奇三双 掘金大胜开拓者",
        "docid": "7339044615925842447",
        "url": ""
    },
    {
        "title": "英冠第2杀疯了：重返英超挡不住，掀翻领头羊+豪取9连胜",
        "docid": "7338967744613876274",
        "url": ""
    },
    {
        "title": "湖人一错再错！美媒评23届新秀5大黑马：火箭队捡大漏 勇士淘到宝",
        "docid": "7337955017237987878",
        "url": ""
    },
    {
        "title": "杜兰特再谈当年跟腱断裂，我听到腿部发出声响，以为职业生涯完了",
        "docid": "7338372109955924515",
        "url": ""
    },
    {
        "title": "中国足球是时候该醒醒了，王霜何罪之有？只是说了句实话就被攻击",
        "docid": "7339050437548802612",
        "url": ""
    }
]