[
    {
        "title": "\"宋轶新加坡家庭团聚：嫂子曝光高颜值合照，母亲气质惊艳！\"",
        "docid": "7329087390323147304",
        "url": ""
    },
    {
        "title": "当32岁肖战跟24岁张婧仪站在一起，我才彻底明白，什么叫顶级骨相",
        "docid": "7328963439400223242",
        "url": ""
    },
    {
        "title": "宋轶回新加坡探亲，抱娃照曝光，一家人原来这么厉害！",
        "docid": "7329082795882758697",
        "url": ""
    },
    {
        "title": "👀输广东的原因是什么？西热力江：我也想讲实话 不让讲怎么办",
        "docid": "7329144798215143987",
        "url": ""
    },
    {
        "title": "哎呦不错哦，周杰伦现身澳网男单决赛现场观战",
        "docid": "7329126542817264179",
        "url": ""
    },
    {
        "title": "梦幻联动🥰周杰伦连发两条社媒支持张之臻：去年看了哥们打美网",
        "docid": "7329058233036096010",
        "url": ""
    },
    {
        "title": "快船球星哈登表示：职业生涯末期只想夺冠",
        "docid": "7329084240346972683",
        "url": ""
    },
    {
        "title": "王者荣耀体验服更新：英雄和装备调整，带来更强大的战术选择",
        "docid": "7329089955652518419",
        "url": ""
    },
    {
        "title": "詹姆斯36+20+12献罚篮准绝杀 库里空砍46分 湖人双加时险胜勇士",
        "docid": "7329049358501282355",
        "url": ""
    },
    {
        "title": "特斯拉Cybertruck首次亮相中国，美国已上市、起售价43万人民币，中国交付时间待定",
        "docid": "7329083193208930879",
        "url": ""
    },
    {
        "title": "太拼了！谷爱凌带伤夺金，网友直呼心疼！",
        "docid": "7329137977169658406",
        "url": ""
    },
    {
        "title": "广西沃柑3毛钱一斤正主现身辟谣：视频被恶意剪辑，倒掉的是次果",
        "docid": "7328990397873619491",
        "url": ""
    },
    {
        "title": "朋友们，你知道什么叫“躺赚”吗？国足出局仍获二十万美金奖金！",
        "docid": "7329086080144294451",
        "url": ""
    },
    {
        "title": "妹妹8门课总分66分视频刷屏：重新审视分数与能力，叩问教育本质",
        "docid": "7329071563121934885",
        "url": ""
    },
    {
        "title": "都说吃过毛蛋人生才算完整，120个毛蛋一锅煎，俩侄子越吃越香",
        "docid": "7329064038258868770",
        "url": "https://www.ixigua.com/7329064038258868770"
    },
    {
        "title": "王者荣耀：碎片商店大更新！三款皮肤特效超燃，让你秒变焦点！",
        "docid": "7328698876972630543",
        "url": ""
    },
    {
        "title": "怪事年年有，今年特别多！#宝石老舅虹运mv",
        "docid": "7328959424859652645",
        "url": ""
    },
    {
        "title": "火爆冲突！考辛斯T1联赛情绪失控，脾气太大多次放倒CBA旧将",
        "docid": "7328992099859333695",
        "url": "https://www.ixigua.com/7328992099859333695"
    },
    {
        "title": "关键时刻还得靠老头#詹姆斯 #湖人",
        "docid": "7329012218249511433",
        "url": "https://www.ixigua.com/7329012218249511433"
    },
    {
        "title": "新郎到新娘家接亲，把南瓜皮削完才能进门，新郎急得都快哭了",
        "docid": "7329039466910843411",
        "url": "https://www.ixigua.com/7329039466910843411"
    },
    {
        "title": "来一趟长沙，不得打个卡嘛！可惜仅仅是打卡而已#全屋智能",
        "docid": "7328965154245837327",
        "url": "https://www.ixigua.com/7328965154245837327"
    },
    {
        "title": "证监会进一步加强融券业务监管 全面暂停限售股出借",
        "docid": "7329108266263249458",
        "url": "https://www.ixigua.com/7329108266263249458"
    },
    {
        "title": "老人过早年10个儿女齐聚磕头领红包，8个闺女各个如花似玉气质佳",
        "docid": "7328976794063897114",
        "url": "https://www.ixigua.com/7328976794063897114"
    },
    {
        "title": "孩子眼中的父亲，一个标准的80后，活得一塌糊涂，精彩又搞笑",
        "docid": "7328953390338163240",
        "url": ""
    },
    {
        "title": "闹大了吧！央媒、军媒集体发声，“战马行动”账号已封，大快人心",
        "docid": "7329132549090558464",
        "url": ""
    },
    {
        "title": "自然脸和硅胶脸的区别？42岁宋慧乔对比53岁俞飞鸿，差别一目了然",
        "docid": "7329101907581223465",
        "url": ""
    },
    {
        "title": "看到深圳街拍，才发现：满大街都是“派克服+鲨鱼裤”，保暖显瘦",
        "docid": "7328798708835942946",
        "url": ""
    },
    {
        "title": "西部排名又乱了：太阳创耻辱纪录，国王坐收渔利",
        "docid": "7329087965786243595",
        "url": ""
    },
    {
        "title": "快递员悄悄透露的8个内幕，一次性讲清楚了，收藏起来看看",
        "docid": "7328970921627402778",
        "url": ""
    },
    {
        "title": "古巨基回应小舅子欠债数百万：全家无能为力，岳父已断绝父子关系",
        "docid": "7329052032957694505",
        "url": ""
    },
    {
        "title": "东契奇73分刷新记录，却暴露事实？欧文可以走了？发生什么事情？",
        "docid": "7329083983948874255",
        "url": ""
    },
    {
        "title": "浓眉受伤引发轩然大波：格林笑中藏刀，湖人队将如何应对？",
        "docid": "7329151529850602047",
        "url": ""
    },
    {
        "title": "4大误判黑掉勇士，湖人凭空多加9秒！汤神库里吃大亏，裁判不装了",
        "docid": "7329136542780768809",
        "url": ""
    },
    {
        "title": "詹姆斯：第二加时最后时刻我找到角度突破 用欧洲步造了追梦犯规",
        "docid": "7329072653095027251",
        "url": ""
    },
    {
        "title": "[每日导读】吃感冒药后肝衰竭女孩找到肝源，涉事诊所：正常开药",
        "docid": "7328659655062798889",
        "url": ""
    },
    {
        "title": "王家卫炒的不是A股，是腔调",
        "docid": "7329137575556940325",
        "url": ""
    },
    {
        "title": "南方游客在沈阳早市买鱿鱼干被宰：10元/两。负责人怒斥：你砸我早市的碗，我就砸你的锅。现场退钱给游客",
        "docid": "7328929792399852032",
        "url": ""
    },
    {
        "title": "刘女士为自己相差13岁、相隔400公里的爱情勇敢发声！网友太羡慕",
        "docid": "7329021516875235876",
        "url": ""
    },
    {
        "title": "热搜第一！未满12岁男孩残忍杀害4岁女童后安然无恙！女童白死！",
        "docid": "7329159364256907776",
        "url": ""
    },
    {
        "title": "LV老板重夺全球首富",
        "docid": "7329138315289281036",
        "url": ""
    },
    {
        "title": "这孩子没白疼！萌娃第一次去参加婚礼，牵着新娘就要介绍给舅舅",
        "docid": "7329040267620745780",
        "url": "https://www.ixigua.com/7329040267620745780"
    },
    {
        "title": "湖北各市GDP含金量排名。#湖北 #湖北dou知道 #湖北gdp排名",
        "docid": "7329093869562724879",
        "url": "https://www.ixigua.com/7329093869562724879"
    },
    {
        "title": "恐怖！英国17岁小伙在候诊室，用自制喷火器连续朝他人头脸喷火，引发恐慌",
        "docid": "7329084495078883879",
        "url": "https://www.ixigua.com/7329084495078883879"
    },
    {
        "title": "恭喜湖人双加时战胜勇士。这场比赛看点太多了，真紧张啊最后",
        "docid": "7329011960865882639",
        "url": "https://www.ixigua.com/7329011960865882639"
    },
    {
        "title": "仓位才是核心！股市大部分时间都是在试错，将对的时候无限放大！",
        "docid": "7329048027874886198",
        "url": "https://www.ixigua.com/7329048027874886198"
    },
    {
        "title": "早高峰前车起步多次熄火...后车司机等到快崩溃，“连等三个红绿灯才走”",
        "docid": "7329084495201337867",
        "url": "https://www.ixigua.com/7329084495201337867"
    },
    {
        "title": "当代大学生的兼职日常，在后厨走个正步",
        "docid": "7328988827153465919",
        "url": "https://www.ixigua.com/7328988827153465919"
    },
    {
        "title": "2024年，华语乐坛迎来“分水岭”？",
        "docid": "7328975766526657064",
        "url": ""
    },
    {
        "title": "新综艺《盒子的猫》开录阵容强大，极限男人帮和跑男团合体",
        "docid": "7329016390571196978",
        "url": ""
    },
    {
        "title": "古巨基回应小舅子欠债数百万：全家无能为力，岳父已断绝父子关系",
        "docid": "7329058958096761354",
        "url": ""
    },
    {
        "title": "詹姆斯罚球神迹，勇士惊险告负 - NBA新排名引爆热议，哈登挑战极限",
        "docid": "7329149432123916863",
        "url": ""
    },
    {
        "title": "詹姆斯36分+20助+12篮板创历史 绝杀勇士",
        "docid": "7329176179590971904",
        "url": ""
    },
    {
        "title": "悲剧！阿姨擦玻璃从5楼摔下后续：伤势过重不治身亡，网友叹息",
        "docid": "7329150523746189876",
        "url": ""
    },
    {
        "title": "俄罗斯公开画面！",
        "docid": "7329041907965805075",
        "url": ""
    },
    {
        "title": "闹大了“央视评价《繁花》为孤品”冲上热搜，我却笑死在评论里",
        "docid": "7328240061597106707",
        "url": ""
    },
    {
        "title": "廉颇：关羽怎么玩？#关羽#国服关羽无情#无情不当人",
        "docid": "7329149743992013347",
        "url": "https://www.ixigua.com/7329149743992013347"
    },
    {
        "title": "法国赶海抓龙虾，4斤重巨大蓝色龙虾，做龙虾刺身甜脆",
        "docid": "7328731840536936997",
        "url": "https://www.ixigua.com/7328731840536936997"
    },
    {
        "title": "再嚣张跋扈的商家也要法治 #黄金回收 #鬼秤 #社会正能量",
        "docid": "7329059029475394084",
        "url": "https://www.ixigua.com/7329059029475394084"
    },
    {
        "title": "2024年新年伊始-上海房价开始暴跌",
        "docid": "7328727726579024419",
        "url": "https://www.ixigua.com/7328727726579024419"
    },
    {
        "title": "女孩爬山返程不愿意走路，家长用木棍抬起女孩大步下山，场面爆笑",
        "docid": "7329069062251217462",
        "url": "https://www.ixigua.com/7329069062251217462"
    },
    {
        "title": "正播澳大利亚VS印尼，最后3分钟踢疯了，4比0！中国男足看懵了！",
        "docid": "7329110596434330166",
        "url": "https://www.ixigua.com/7329110596434330166"
    },
    {
        "title": "又是开心的一天！感谢粉丝提的建议。#西藏 #旅行 #跟团",
        "docid": "7329029160611873292",
        "url": "https://www.ixigua.com/7329029160611873292"
    },
    {
        "title": "迪丽热巴写真，绝美",
        "docid": "7328739135471813131",
        "url": ""
    },
    {
        "title": "终于有人把世界黄金储蓄整理出来了，一起来看看吧！",
        "docid": "7329007269801607721",
        "url": ""
    },
    {
        "title": "意犹未尽😍！大加赞湖勇大战：难以置信的比赛 爱它的每一秒！",
        "docid": "7329080369066852898",
        "url": ""
    },
    {
        "title": "坚决反对郑智当过渡教练！国足战绩糟糕，宋凯或解雇扬科维奇职务",
        "docid": "7329132634183926299",
        "url": ""
    },
    {
        "title": "哎哟，不错哦！周杰伦现场观战澳网男单决赛，没带昆凌一起",
        "docid": "7329104224225493514",
        "url": ""
    },
    {
        "title": "据说朝鲜是“十无”国家，涨知识了，看了我好向往",
        "docid": "7329177895199588902",
        "url": ""
    },
    {
        "title": "美国军事力量衰退！哈马斯成功反制以色列军队，以军求饶撤军？",
        "docid": "7329181358104773159",
        "url": ""
    },
    {
        "title": "越闹越大！终于有人为俞敏洪发声了，董宇辉与孙东旭难抉择",
        "docid": "7329174724909613580",
        "url": ""
    },
    {
        "title": "父亲用铁锹给儿子新车硬核除雪 儿子：满车划痕但心里很暖",
        "docid": "7329036606520738342",
        "url": ""
    },
    {
        "title": "还嘲讽哈登吗？快船近26战4负，战绩正式反超76人：欧文神预言",
        "docid": "7329124720744497703",
        "url": "https://www.ixigua.com/7329124720744497703"
    },
    {
        "title": "《仙剑6》OST太炸了，把这些歌手请来玩“回忆杀”，网友：拿捏了",
        "docid": "7328312726000927251",
        "url": "https://www.ixigua.com/7328312726000927251"
    },
    {
        "title": "NBA春晚，湖勇大战窒息回合，建议收藏，每一回合玩的都是心跳！",
        "docid": "7329106114544009791",
        "url": "https://www.ixigua.com/7329106114544009791"
    },
    {
        "title": "两个宝宝跟妈妈玩躲猫猫，当妈妈找到那一刻，看到了幸福的具象化",
        "docid": "7329024620995346954",
        "url": "https://www.ixigua.com/7329024620995346954"
    },
    {
        "title": "这关羽不好当啊#高手过招",
        "docid": "7329171924017152538",
        "url": "https://www.ixigua.com/7329171924017152538"
    },
    {
        "title": "东莞辟谣打群架死几百人",
        "docid": "7329131438241284647",
        "url": "https://www.ixigua.com/7329131438241284647"
    },
    {
        "title": "特斯拉赛博皮卡空降重庆！现场直击～是你的梦中情车吗？",
        "docid": "7329169377906033192",
        "url": "https://www.ixigua.com/7329169377906033192"
    },
    {
        "title": "小寿星在火锅店过生日，被工作人员的热情吓得藏下桌子！",
        "docid": "7329061866927063604",
        "url": "https://www.ixigua.com/7329061866927063604"
    },
    {
        "title": "万花丛中过，片叶不沾身，有些人天生就是舞台的中心，恭喜你",
        "docid": "7329157187292299788",
        "url": "https://www.ixigua.com/7329157187292299788"
    },
    {
        "title": "爸爸吃了一块梨，因为一块梨，宝宝要“摘”她爸扁桃体",
        "docid": "7329039516038070803",
        "url": "https://www.ixigua.com/7329039516038070803"
    },
    {
        "title": "徐静雨怒喷科尔：全是矮子阵容！你自己上去打吧！#湖勇大战",
        "docid": "7329037507629482548",
        "url": "https://www.ixigua.com/7329037507629482548"
    },
    {
        "title": "男子追求已婚已孕女子被拒发恐吓短信，被处以行政拘留十日",
        "docid": "7329084491299979815",
        "url": "https://www.ixigua.com/7329084491299979815"
    },
    {
        "title": "学吴京？吴樾个人投资1500万拍摄《挡马夺刀》，首日票房仅19.4万",
        "docid": "7329060061530096191",
        "url": ""
    },
    {
        "title": "王者：安琪拉成为大赢家！龙限皮肤为何要选她，而不是其他法师？",
        "docid": "7329168591977513506",
        "url": ""
    },
    {
        "title": "学吴京？吴樾自掏腰包花1500万拍《挡马夺刀》，首日票房仅19.4万",
        "docid": "7329060021243822604",
        "url": ""
    },
    {
        "title": "丁佳宁谈詹姆斯最后一攻：明天裁判报告肯定走步 但当时肯定不吹",
        "docid": "7329135733687403062",
        "url": ""
    },
    {
        "title": "5-2大胜!2-0零封!英足总杯:沦为英超球队练习场，比赛结果一边倒!",
        "docid": "7329200546982904370",
        "url": ""
    },
    {
        "title": "（亚洲杯）足球——八分之一决赛：澳大利亚晋级",
        "docid": "7329149554593645090",
        "url": ""
    },
    {
        "title": "周杰伦昆凌现场观战澳网男单决赛：一场视觉与音乐的盛宴",
        "docid": "7329154129367319074",
        "url": ""
    },
    {
        "title": "一情侣争论让网友热议：煮饺子要加水还是不加水？",
        "docid": "7329112323950854683",
        "url": ""
    },
    {
        "title": "博主打假黄金鬼秤，77g黄金仅称出62g全程被录下，店老板怒摔辱骂",
        "docid": "7329112804466786842",
        "url": "https://www.ixigua.com/7329112804466786842"
    },
    {
        "title": "少27罚！库里直指湖人获利吐槽裁判：没让球员决定比赛让人沮丧",
        "docid": "7329085043941638656",
        "url": "https://www.ixigua.com/7329085043941638656"
    },
    {
        "title": "来看看大长沙春晚分会场的彩排😀#新年倒计时 #我的城市 #烟花秀",
        "docid": "7329161796173562405",
        "url": "https://www.ixigua.com/7329161796173562405"
    },
    {
        "title": "老奶奶在手机里下了各种极速版软件，每天用四台手机刷流量领红包",
        "docid": "7329066703755837992",
        "url": "https://www.ixigua.com/7329066703755837992"
    },
    {
        "title": "全美推特热搜前10 湖人和勇士占了5条&包括詹姆斯/追梦词条",
        "docid": "7329012592486302242",
        "url": ""
    },
    {
        "title": "特朗普演讲时出意外，保镖反应迅速！",
        "docid": "7329004329296527906",
        "url": "https://www.ixigua.com/7329004329296527906"
    },
    {
        "title": "台湾曾霸榜首几十年，如今GDP水平如何？台湾与中国各省市GD",
        "docid": "7327125699901424162",
        "url": "https://www.ixigua.com/7327125699901424162"
    },
    {
        "title": "篮球巨星的相遇：库里对40岁詹姆斯的敬畏！赛场上将擦出怎样火花",
        "docid": "7329158880557285927",
        "url": ""
    },
    {
        "title": "妻子骑车忘记带丈夫和孩子，丈夫还没上车坐好，妻子自己走了",
        "docid": "7329039365605491235",
        "url": "https://www.ixigua.com/7329039365605491235"
    },
    {
        "title": "男孩点烟花后跑到远处躲避， 怕妹妹跑不赢，直接拎着走",
        "docid": "7329011280398778895",
        "url": "https://www.ixigua.com/7329011280398778895"
    },
    {
        "title": "熊孩子在“静吧”来回奔跑吵闹，老板忍无可忍出声呵止，家长护犊心切气不过怒斥老板：“你的行为影响了武夷山的形象”",
        "docid": "7329084504050500150",
        "url": "https://www.ixigua.com/7329084504050500150"
    },
    {
        "title": "快船四巨头懂得牺牲，卢谈球队近期状态极佳",
        "docid": "7328928186304086540",
        "url": ""
    },
    {
        "title": "董宇辉，如果有人欺负你，还让你保持沉默，请眨眨你的双眼。",
        "docid": "7329036970897801780",
        "url": "https://www.ixigua.com/7329036970897801780"
    },
    {
        "title": "张卫健彩排意外坠地，钢琴直接砸到身上",
        "docid": "7329024758111797799",
        "url": ""
    },
    {
        "title": "吴尊一家看澳网为郑钦文加油 手持五星红旗合照",
        "docid": "7328965909727789609",
        "url": ""
    },
    {
        "title": "像科幻片一样，特斯拉赛博越野车“首秀”杭州，小伙带着“车模”打卡惨被买走",
        "docid": "7329108436334002722",
        "url": ""
    },
    {
        "title": "中国为了保护叙利亚有多刚？",
        "docid": "7329056522603790863",
        "url": "https://www.ixigua.com/7329056522603790863"
    },
    {
        "title": "外国人为了中国的秦始皇兵马俑吵翻了天:各个国家的史观太生动了",
        "docid": "7329161674316448293",
        "url": "https://www.ixigua.com/7329161674316448293"
    },
    {
        "title": "正播U20中国女足VS韩国，国人万万没想到，不可思议的比分诞生了",
        "docid": "7329054968508318247",
        "url": "https://www.ixigua.com/7329054968508318247"
    },
    {
        "title": "金融中心排名，前五已经不见香港了！滚滚长江东逝水",
        "docid": "7328984949514732073",
        "url": "https://www.ixigua.com/7328984949514732073"
    },
    {
        "title": "泰勒·斯威夫特AI不雅照被疯传！美国演员工会将立即采取行动",
        "docid": "7329041908523975179",
        "url": ""
    },
    {
        "title": "劣根性，郑钦文获得亚军武汉领导去上门祝贺，评论区的喷子高潮了",
        "docid": "7329082050982806016",
        "url": ""
    },
    {
        "title": "男子帮忙换轮胎被六个美女包围，妻子拍摄吐槽：没对我这么好过",
        "docid": "7329090518418326051",
        "url": ""
    },
    {
        "title": "网球贵族运动？体二代居多，郑钦文家庭条件不一般，2千万培养费",
        "docid": "7328962338835923466",
        "url": ""
    },
    {
        "title": "外媒报导中国人不见了？旅游收入断崖式下滑，被日韩网友评论笑死",
        "docid": "7329141698160443943",
        "url": ""
    },
    {
        "title": "霸者重装史诗级增强，王者荣耀体验服最新更新火爆来袭！",
        "docid": "7329052936380645927",
        "url": ""
    },
    {
        "title": "一对母子从上海骑行700公里回湖北过年，气温4摄氏度在路边露营，母亲：不想让他在家打游戏",
        "docid": "7328950676757987867",
        "url": ""
    },
    {
        "title": "连赵丽颖都救不了它！这一次，影版《花千骨》触到国人“底线”了",
        "docid": "7328596107444470323",
        "url": ""
    },
    {
        "title": "电影《养蜂人》内地总票房破9000万",
        "docid": "7329090190864335379",
        "url": ""
    },
    {
        "title": "热闹了！“8门成绩总分66分”冲上热搜！网友的神评笑不活了！",
        "docid": "7329084819336856104",
        "url": ""
    },
    {
        "title": "社保卡里的都是钱，可以取出来了，步骤方法都整理好了，收藏分享",
        "docid": "7329133369467208243",
        "url": ""
    },
    {
        "title": "行拘！男子追求已婚孕女子被拒发恐吓短信",
        "docid": "7328990661431017995",
        "url": ""
    },
    {
        "title": "云南女孩独闯东北，深夜哭诉引关注，我却在评论区笑麻了！",
        "docid": "7329098701472154147",
        "url": ""
    },
    {
        "title": "煮饺子中途要不要加水",
        "docid": "7329168727986455055",
        "url": ""
    },
    {
        "title": "男子回村后遭村狗狂吠挑衅，淡定吹一声口哨叫帮手，下秒画面高能",
        "docid": "7329017545992864283",
        "url": "https://www.ixigua.com/7329017545992864283"
    },
    {
        "title": "宋轶回新加坡探亲，抱娃照曝光，一家人原来这么厉害！",
        "docid": "7329082811384791588",
        "url": ""
    },
    {
        "title": "这一次，23岁的范丞丞，给内娱明星们释放出一个“危险”信号",
        "docid": "7328710809495159311",
        "url": ""
    },
    {
        "title": "末节不打是咋回事？亚历山大“三节打卡”&20中13砍31分5板4助",
        "docid": "7329261494997320232",
        "url": ""
    },
    {
        "title": "电影流浪地球2将于3月22日在日本上映！",
        "docid": "7329058501626855990",
        "url": ""
    },
    {
        "title": "2000000000000，是拼出来的！",
        "docid": "7329107521665385014",
        "url": ""
    },
    {
        "title": "上海证券报：关键是要有“买在无人问津处”的勇气",
        "docid": "7329280905955197491",
        "url": ""
    },
    {
        "title": "笑麻了，汪海林说好莱坞电影在中国全面遇冷冲上热搜，评论区炸了",
        "docid": "7329137693748068904",
        "url": ""
    },
    {
        "title": "古德温凌空斩+模仿C罗siuuuu庆祝  澳大利亚4-0印尼",
        "docid": "7329157118228070927",
        "url": "https://www.ixigua.com/7329157118228070927"
    },
    {
        "title": "两名高一男生因小事打架，老师罚两人抱在一起不许松开！",
        "docid": "7329005497636520467",
        "url": "https://www.ixigua.com/7329005497636520467"
    },
    {
        "title": "空仓近300天后入场做多，基金经理抢抓“加仓好时机”",
        "docid": "7329287126376333843",
        "url": ""
    },
    {
        "title": "笑麻了，河南发现1.07亿吨大油田冲上热搜，我却笑死在网友评论区",
        "docid": "7329079715766305315",
        "url": ""
    },
    {
        "title": "宋轶回新加坡探亲，抱娃照曝光，一家人原来这么厉害！",
        "docid": "7329071320808505908",
        "url": ""
    },
    {
        "title": "差距悬殊，孙颖莎两个冠军奖金30万，郑钦文一个亚军奖金800多万",
        "docid": "7329081611675517476",
        "url": ""
    },
    {
        "title": "陈立人和于轩一的婚纱照曝光！双方曾宣誓：要白头到老，共度风雨",
        "docid": "7329052696379146786",
        "url": ""
    },
    {
        "title": "6-4！三万人见证爆冷！昔日亚军轰然倒下 新军创历史闯进亚洲杯8强",
        "docid": "7329210673828250139",
        "url": ""
    },
    {
        "title": "储备多少财富才能满足养老需求？最新调查出炉",
        "docid": "7328987424875921959",
        "url": ""
    },
    {
        "title": "凡尔赛！卢：我们甚至没有打得特别好 当然小卡打得很棒",
        "docid": "7329009524411810358",
        "url": ""
    },
    {
        "title": "LPL春季赛线上没人看，线下更惨淡，上海主场观众寥寥无几",
        "docid": "7328999205098226203",
        "url": ""
    },
    {
        "title": "王者荣耀体验服更新：热门英雄遭削弱，亚瑟重做引发期待",
        "docid": "7329291581549249050",
        "url": ""
    },
    {
        "title": "大满贯2冠1亚开启王朝25岁郑钦文对手火力强，网友：新版小威",
        "docid": "7329086252773753396",
        "url": ""
    },
    {
        "title": "哈登接近梦想：快船19分大胜，对手探花级球员失色",
        "docid": "7329170655008784907",
        "url": ""
    },
    {
        "title": "鄂电红马甲发起“零点行动”消除变电站缺陷，保障汉南沌口片区可靠供电",
        "docid": "7329103028572406312",
        "url": ""
    },
    {
        "title": "二婚穷小子爱上白富美？精彩就在《大江大河3》",
        "docid": "7329076138742858292",
        "url": ""
    },
    {
        "title": "利好只能影响短线，关键还得看题材板块",
        "docid": "7329082589279715879",
        "url": ""
    },
    {
        "title": "0129盘前策略！",
        "docid": "7329114062531346996",
        "url": ""
    },
    {
        "title": "中国足球目前现状分析",
        "docid": "7329172335482733110",
        "url": "https://www.ixigua.com/7329172335482733110"
    },
    {
        "title": "永远要相信老祖宗的审美！中国传统纹样：",
        "docid": "7329003895442031131",
        "url": ""
    },
    {
        "title": "十年油价粗略统计，油价持续飙升，你怎么看？",
        "docid": "7329044496950395432",
        "url": ""
    },
    {
        "title": "闹大了！“国足出局仍获20万美元奖金”上热搜，评论区笑死",
        "docid": "7329307706823754255",
        "url": ""
    },
    {
        "title": "王霜英超首秀出战半小时，热刺女足0-2不敌曼城女足",
        "docid": "7329311877882888713",
        "url": ""
    },
    {
        "title": "“初中妹妹8门成绩66分，被哥哥吐槽”我却笑死在网友评论区",
        "docid": "7329211379175473702",
        "url": ""
    },
    {
        "title": "草莓摊主帮换轮胎，6位美女崇拜围观⋯妻子：他从未如此热心过！",
        "docid": "7329145135312126514",
        "url": ""
    },
    {
        "title": "两男生打架，被老师罚抱，结果抱出感情，网友：我想打班花",
        "docid": "7329057031607190079",
        "url": ""
    },
    {
        "title": "昆明动物园两只猫已抵达北京并网上征名，我在昆明文旅评论区笑拥",
        "docid": "7329282866599248434",
        "url": ""
    },
    {
        "title": "闹大了！谁“偷了”我的黄金？“鬼称”再现黄金市场！",
        "docid": "7329218043341554216",
        "url": ""
    },
    {
        "title": "【幻兽帕鲁】中期必抓的5只帕鲁！超实用强烈推荐！ #幻兽帕鲁",
        "docid": "7329043162989920818",
        "url": "https://www.ixigua.com/7329043162989920818"
    },
    {
        "title": "#dou来nba “快船可怕的不是吊打绿军",
        "docid": "7328999022457422399",
        "url": "https://www.ixigua.com/7328999022457422399"
    },
    {
        "title": "广州出发回湖北老家，一路上各种突发情况约束，回家的一刻最温",
        "docid": "7328658155809079835",
        "url": "https://www.ixigua.com/7328658155809079835"
    },
    {
        "title": "二哈在城里无精打采回村后活力满满，前后区别翻天覆地：释放天性",
        "docid": "7329069243717124620",
        "url": "https://www.ixigua.com/7329069243717124620"
    },
    {
        "title": "李娜在澳网冠军墙跟自己合影了#网球 #李娜 #澳网 #澳网2024",
        "docid": "7328974849127547403",
        "url": "https://www.ixigua.com/7328974849127547403"
    },
    {
        "title": "幻兽帕鲁帕鲁为何一夜火爆？这19点总结或许能解释清楚。",
        "docid": "7328999993371656739",
        "url": ""
    },
    {
        "title": "闹大了，外卖小哥吐槽外卖店铺脏乱差冲上热搜，引发全网热议",
        "docid": "7329147948485362228",
        "url": ""
    },
    {
        "title": "考辛斯化身控卫疯狂虐菜30分5篮板5助攻2抢断个人集锦！#考辛斯",
        "docid": "7329160467208176165",
        "url": "https://www.ixigua.com/7329160467208176165"
    },
    {
        "title": "澳网2024男单冠军辛纳获奖感言\n#网球 #网球集锦 #网球圈 #ATP",
        "docid": "7329132322509292051",
        "url": "https://www.ixigua.com/7329132322509292051"
    },
    {
        "title": "小米汽车还未交付，车圈三大忌一个不拉全犯了#小米su7 #小米汽车",
        "docid": "7328989678248395298",
        "url": "https://www.ixigua.com/7328989678248395298"
    },
    {
        "title": "2024尧坝驿东方神话奇境灯会，灯组进场安装中",
        "docid": "7328989841893851667",
        "url": "https://www.ixigua.com/7328989841893851667"
    },
    {
        "title": "【如龙8】大家应该都喜欢少妇是吧",
        "docid": "7328980242042159666",
        "url": "https://www.ixigua.com/7328980242042159666"
    },
    {
        "title": "古巨基回应小舅子欠债数百万：全家无能为力，岳父已断绝父子关系",
        "docid": "7329086021444862498",
        "url": ""
    },
    {
        "title": "郑希怡现身Twins演唱會 一家三口搞怪合照",
        "docid": "7329339535954166323",
        "url": ""
    },
    {
        "title": "詹俊：不明白拉什福德为何漠视纪律，塔吉克斯坦未来将成为国足心腹大患",
        "docid": "7329325824870613556",
        "url": ""
    },
    {
        "title": "世界钢铁协会：2023年全年全球粗钢产量18.882亿吨",
        "docid": "7329332100417618451",
        "url": ""
    },
    {
        "title": "肉马尔！内马尔现身罗马里奥生日会，身材明显发福走样",
        "docid": "7329316306262852108",
        "url": ""
    },
    {
        "title": "辛纳晒照庆祝澳网夺冠：永远不会停止战斗",
        "docid": "7329329675627414054",
        "url": ""
    },
    {
        "title": "闹大了！肇庆新娘被泼面粉后愤怒报警，整个广东都受牵连",
        "docid": "7328465171025068581",
        "url": ""
    },
    {
        "title": "标志性中投！杜兰特拿到生涯第28000分 NBA历史第十人！",
        "docid": "7329321979600126518",
        "url": ""
    },
    {
        "title": "女海王：她同时与十多位男士交往，真爱or爱情圈套？",
        "docid": "7329115131026506266",
        "url": ""
    },
    {
        "title": "王健林，不在年会上唱歌了",
        "docid": "7329334031999320613",
        "url": ""
    },
    {
        "title": "\"王楚然新加坡亮相：粉色蛋糕裙造型美如童话公主！\"",
        "docid": "7329053136365044250",
        "url": ""
    },
    {
        "title": "6-4！亚洲杯超级冷门：第4档鱼腩创历史，首次参赛进8强，太神奇",
        "docid": "7329316341951906367",
        "url": ""
    },
    {
        "title": "“缤纷香港”无人机灯光秀扮靓维港夜空",
        "docid": "7329323421715055141",
        "url": ""
    },
    {
        "title": "基金经理上演\"神操作\"！增减持\"游刃有余\"，也有定增项目\"割肉\"离场",
        "docid": "7329316782223933987",
        "url": ""
    },
    {
        "title": "闹大了，张馨予为昆明动物园“猴猫共处”事件发声，网友一片热议",
        "docid": "7329003201741718055",
        "url": ""
    },
    {
        "title": "游客手机掉落西湖意外拍下湖底景色",
        "docid": "7329099998326522408",
        "url": "https://www.ixigua.com/7329099998326522408"
    },
    {
        "title": "相差13岁姐弟恋妻子发声：我们很幸福 #相差13岁的夫妻 #爱情心理",
        "docid": "7329054656813138473",
        "url": "https://www.ixigua.com/7329054656813138473"
    },
    {
        "title": "王霜热刺首秀数据：2次关键传球，3次对抗成功2次，获评7.0分",
        "docid": "7329182587153302027",
        "url": ""
    },
    {
        "title": "外国教授：中国崛起不可怕，可怕的是他们的文字比耶稣还早3000年",
        "docid": "7328868979995312649",
        "url": "https://www.ixigua.com/7328868979995312649"
    },
    {
        "title": "香港法院向中国恒大发出清盘令，港股恒大系盘中停牌",
        "docid": "7329343366481904139",
        "url": "https://www.ixigua.com/7329343366481904139"
    },
    {
        "title": "泪目了！詹姆斯库里赛后拥抱致意 今天他们之中没有输家",
        "docid": "7329291878024053288",
        "url": "https://www.ixigua.com/7329291878024053288"
    },
    {
        "title": "毫无战意！杜兰特“里程悲”7次失误仅得15分 关键时刻频频隐身",
        "docid": "7329327918620885567",
        "url": ""
    },
    {
        "title": "裁判报告：最后时刻詹姆斯突破被追梦犯规为正确吹罚",
        "docid": "7329298130880037426",
        "url": ""
    },
    {
        "title": "胡可晒两个儿子合照，大儿子身高赶超妈妈，网友：羡慕和祝福",
        "docid": "7329331719650443776",
        "url": ""
    },
    {
        "title": "2023媒体眼中反感艺人top3，抽烟，事多古偶男主，没流量",
        "docid": "7328803650241823247",
        "url": ""
    },
    {
        "title": "胡可与俩帅气儿子合照，安吉身高成焦点",
        "docid": "7329337519819670042",
        "url": ""
    },
    {
        "title": "沈梦辰腰椎横突骨折，骨头永久断裂好不了，35岁的她还没怀孕生子",
        "docid": "7329340556201493029",
        "url": ""
    },
    {
        "title": "一个突发利好，A股却全面下跌！散户耐心等待，行情不同了",
        "docid": "7329351861172535827",
        "url": ""
    },
    {
        "title": "1.28娱乐瓜：周迅任嘉伦成毅 赵丽颖 张艺兴黄渤 热巴 刘诗诗 张颂文",
        "docid": "7329100113471750656",
        "url": ""
    },
    {
        "title": "亚洲男神言承旭47岁状态：脸上无医美，老了才能颜值不崩",
        "docid": "7329330794898604563",
        "url": ""
    },
    {
        "title": "21岁赵今麦拍吻戏太欲了，被吴磊抱着亲到害羞，这谁能顶得住",
        "docid": "7329049498129351178",
        "url": ""
    },
    {
        "title": "杨紫的“葡萄眼”是怎么炼成的？",
        "docid": "7329320410498171442",
        "url": ""
    },
    {
        "title": "王鹤棣《时尚芭莎》造型杀疯了！除了帅，这小子还能有啥出息",
        "docid": "7329316215573578290",
        "url": ""
    },
    {
        "title": "稳了！春晚第三次联排大咖云集，喜剧人全来齐了，还有意外惊喜",
        "docid": "7329345645960528434",
        "url": ""
    },
    {
        "title": "辛芷蕾现身央视春晚第三次联排",
        "docid": "7329286916871029299",
        "url": ""
    },
    {
        "title": "沈梦辰腰椎骨头断裂，她哭了！再来一次也不后悔拍武打，惹人心疼",
        "docid": "7329082736802005545",
        "url": ""
    },
    {
        "title": "“热辣滚烫”新风波，贾玲新片因抄袭和宣传引争议，粉丝情绪爆发",
        "docid": "7329346590253531659",
        "url": ""
    },
    {
        "title": "油价上涨警报拉响！2024年1月31日油价将迎来大涨",
        "docid": "7329137359411282441",
        "url": ""
    },
    {
        "title": "\"大江大河3女配指导：条件不符别尬演情妇，如何以教科书式撩汉\"",
        "docid": "7329059421806740002",
        "url": ""
    },
    {
        "title": "演？西部第一谁都不想坐，难道是因为不想对位湖人？怕被黑八？",
        "docid": "7329332010650976822",
        "url": ""
    },
    {
        "title": "A股午评:不出意外，下午（1月29日），更加凶猛的大暴雨要来了。",
        "docid": "7329349399942054412",
        "url": ""
    },
    {
        "title": "迪丽热巴身着碎金滚丝长裙现身活动现场",
        "docid": "7329309024036569637",
        "url": ""
    },
    {
        "title": "48岁林心如晒十年前后对比照庆生，容貌变化不大，漂亮迷人超养眼",
        "docid": "7329350852694098459",
        "url": ""
    },
    {
        "title": "26年后，这位“邵医首娃”回到出生地，成为一名医生",
        "docid": "7329345457941938714",
        "url": ""
    },
    {
        "title": "1.29午评，A股利好不断，个股跌成了股灾！周5我已提示风险高抛！",
        "docid": "7329336664986288649",
        "url": ""
    },
    {
        "title": "午评：利好不涨背后的真相。砸盘是为了吸筹！老手说和主力一起吸",
        "docid": "7329351923072139827",
        "url": ""
    },
    {
        "title": "6-4！亚洲杯爆大冷，4档鱼腩蜕变黑马进8强 全队狂欢，错怪国足了",
        "docid": "7329333629858415115",
        "url": ""
    },
    {
        "title": "非洲患儿母亲给湖北医生视频拜年",
        "docid": "7329319246742192667",
        "url": ""
    },
    {
        "title": "两项统一社会信用代码领域京津冀协同地方标准发布",
        "docid": "7329355757542818330",
        "url": ""
    },
    {
        "title": "笑麻了，热心肠丈夫帮美女司机换轮胎冲上热搜，我笑死在了评论区",
        "docid": "7329126064108880424",
        "url": ""
    },
    {
        "title": "格力电器2023年利润290亿元创历史新高，董明珠一高兴年终奖多发两个亿",
        "docid": "7329329496467866138",
        "url": ""
    },
    {
        "title": "太黑心！“博主打假黄金鬼秤77g变62g”上热搜，我却笑死在评论区",
        "docid": "7329299153635459636",
        "url": ""
    },
    {
        "title": "卡乔丹炸裂表现，东詹压倒西詹，东詹喜提头条，西詹继续被黑",
        "docid": "7329149798731448832",
        "url": ""
    },
    {
        "title": "太痛苦！俞敏洪分而治之，还是低估了董宇辉，老俞现在是骑虎难下",
        "docid": "7329378594949087784",
        "url": ""
    },
    {
        "title": "内娱吃得越来越差了！就这长相还能演古偶男主，脸像个惆怅的芒果",
        "docid": "7329337850485293606",
        "url": ""
    },
    {
        "title": "找谁说理去？郑钦文区区亚军就获800万奖金，孙颖莎冠军奖金才7万",
        "docid": "7329356970933207592",
        "url": ""
    },
    {
        "title": "董宇辉国货专场，亲自点名蜂花缺席，官方给出回答，惹网友爆笑！",
        "docid": "7329362786700706315",
        "url": ""
    },
    {
        "title": "泰勒·斯威夫特AI不雅照被疯传!美国演员工会发声",
        "docid": "7329021203703890484",
        "url": ""
    },
    {
        "title": "沈梦辰录节目意外腰椎横突骨折，骨头永久断裂无法痊愈！",
        "docid": "7329345672694481434",
        "url": ""
    },
    {
        "title": "这天起，“广东人最讨厌的天气”要来了……",
        "docid": "7329113143879320114",
        "url": ""
    },
    {
        "title": "宋慧乔亮相巴黎时装周，如果没有红色丝袜红鞋子多么简单大方啊！",
        "docid": "7329060847643329076",
        "url": ""
    },
    {
        "title": "\"张艺谋《主角》引发星光大战：周迅、赵丽颖、杨紫竞争女主！\"",
        "docid": "7329348662348562978",
        "url": ""
    },
    {
        "title": "在大的利好都会下跌，这就是融资市场A股，投资之耻A股。",
        "docid": "7329353967853453878",
        "url": ""
    },
    {
        "title": "电影《周处除三害》定档3月1日，阮经天出演现代版“周处”",
        "docid": "7329348397289538074",
        "url": ""
    },
    {
        "title": "泰勒·斯威夫特AI不雅照遭传播，美演员工会发表声明。",
        "docid": "7329055952790192703",
        "url": ""
    },
    {
        "title": "不应该啊？！太阳第四节遭遇长达8分钟进球荒 单节13-31被带走",
        "docid": "7329331780593779211",
        "url": ""
    },
    {
        "title": "网球只属富二代？从田亮女儿到郑钦文，培养郑钦文究竟需多少钱？",
        "docid": "7329354300906291739",
        "url": ""
    },
    {
        "title": "古力娜扎深V透视纱裙红毯礼服魅力美照，娇艳如花，时尚魅力！",
        "docid": "7329333137379705363",
        "url": ""
    },
    {
        "title": "真成肉马儿了？内马尔参加罗马里奥生日派对，身材发福明显",
        "docid": "7329327451765621299",
        "url": ""
    },
    {
        "title": "紧急通知：极寒以每秒17.2降南方，春节期间，59年不遇“冷冬”？",
        "docid": "7329362336396329513",
        "url": ""
    },
    {
        "title": "吴秀波公司被执行2.9亿元！",
        "docid": "7329375832965775907",
        "url": ""
    },
    {
        "title": "2023年“最火”的五部剧，《繁花》排在最后，你追过哪几部？",
        "docid": "7329087302473630243",
        "url": ""
    },
    {
        "title": "赵昭仪冷艳十足，黑色蕾丝裙如暗夜玫瑰繁花加身",
        "docid": "7329317780875559478",
        "url": ""
    },
    {
        "title": "谷爱凌将代表中国征战2026冬奥会",
        "docid": "7329061961126756899",
        "url": ""
    },
    {
        "title": "\"震撼NBA！杜兰特个人突破28000分壮举，太阳却遭受惨败\"",
        "docid": "7329361255113720358",
        "url": ""
    },
    {
        "title": "晚睡晚起但睡够时长，算熬夜吗？",
        "docid": "7329348346198491682",
        "url": ""
    },
    {
        "title": "记者：太阳全场23次失误，而且只进了4个三分，输了正常",
        "docid": "7329335660475744808",
        "url": ""
    },
    {
        "title": "深成指跌逾1% 光伏板块领跌",
        "docid": "7329340901737153076",
        "url": ""
    },
    {
        "title": "凌晨，“宇辉哭了”刷屏！“丈母娘”组团声援",
        "docid": "7329309501138879026",
        "url": ""
    },
    {
        "title": "山海：本周影响市场因素众多，看好黄金能绝地突破！",
        "docid": "7329346128187621940",
        "url": ""
    },
    {
        "title": "海陆重工：公司2023年新签订单金额32.75亿元",
        "docid": "7329363280127377971",
        "url": ""
    },
    {
        "title": "多名律师举报江西一法院女副院长，毕业论文严重抄袭，查重发现其硕士论文抄袭率超63%，其母校南京大学已介入调查#律师举报法院副院长论文抄袭",
        "docid": "7329071539448447514",
        "url": ""
    },
    {
        "title": "全家拉横幅庆祝，祖孙三代人首张奖状，我却笑死在网友评论区！",
        "docid": "7327991158192390667",
        "url": ""
    },
    {
        "title": "90后宝妈当寿衣模特，直言就是商品，网友辣评：看了都怕！",
        "docid": "7329149945028985356",
        "url": ""
    },
    {
        "title": "《狗剩快跑》口碑井喷，打了多少投资方的脸，史策这次又赌对了",
        "docid": "7329355721303507492",
        "url": ""
    },
    {
        "title": "沈梦辰腰椎横突骨折，骨头永久断裂好不了，35岁的她还没怀孕生子",
        "docid": "7329390371367076364",
        "url": ""
    },
    {
        "title": "董宇辉说：读书的意义，上班的意义，挣钱的意义，圈子真的很重要",
        "docid": "7329387459110830627",
        "url": ""
    },
    {
        "title": "董宇辉罕见袒露心声，提及风波欲言又止，俞敏洪评论区当晚沦陷",
        "docid": "7329382068252213797",
        "url": ""
    },
    {
        "title": "上海图书馆6万一把躺椅奢侈出圈？网友惊喜晒图，评论区却吵翻天",
        "docid": "7329392755095372322",
        "url": ""
    },
    {
        "title": "鹏鹏的智慧抉择：还原真相，意味着他将与董宇辉深度绑定",
        "docid": "7329372742393446924",
        "url": ""
    },
    {
        "title": "福原爱直播带货惨淡，直言会继续在中国发展，中国钱那么好挣吗？",
        "docid": "7329393027934781964",
        "url": ""
    },
    {
        "title": "连央视都发声了，宁静没有说错，36岁赵丽颖早就走上人生另一条路",
        "docid": "7329350837716189747",
        "url": ""
    },
    {
        "title": "西部排名又乱了：快船创神奇纪录，湖人逼近前八，前十基本确定",
        "docid": "7329387234409890358",
        "url": ""
    },
    {
        "title": "2023年上海市居民人均工资性收入53260元",
        "docid": "7329355689850470948",
        "url": ""
    },
    {
        "title": "《大江大河3》大结局：任遐迩怀孕，雷东宝瘫痪，杨逦坐牢",
        "docid": "7329383193512313380",
        "url": ""
    },
    {
        "title": "6-4！4-0！亚洲杯乱了，头号黑马诞生，首次参赛进8强！国足尴尬",
        "docid": "7329324482722759177",
        "url": ""
    },
    {
        "title": "仅收官19天，娱乐圈的残酷真相，已在“繁花三美”身上显现！",
        "docid": "7329386699996791335",
        "url": ""
    },
    {
        "title": "“巅峰传奇——李小龙纪念影展”在无锡启动",
        "docid": "7329382045632168463",
        "url": ""
    },
    {
        "title": "霉霉现身赛场为男友加油 亲吻庆祝胜利难掩甜蜜",
        "docid": "7329338225267311167",
        "url": ""
    },
    {
        "title": "A股：这市场气人啊，利好成了砸盘的借口，主力300亿丧心病狂跑路",
        "docid": "7329358642703516194",
        "url": ""
    },
    {
        "title": "药明康德再次跌停，股价创五年来新低，抄底的股民苦不堪言",
        "docid": "7329372626798428684",
        "url": ""
    },
    {
        "title": "仅收官20天，娱乐圈的残酷真相，已在“繁花三美”身上显现！",
        "docid": "7329347277561315891",
        "url": ""
    },
    {
        "title": "哈登INS晒今日穿搭：只说一件事 BANG！BANG！",
        "docid": "7329358843941503524",
        "url": ""
    },
    {
        "title": "范伟主演，苹果用iPhone拍摄了贺岁片《小蒜头》",
        "docid": "7329399568637297186",
        "url": ""
    },
    {
        "title": "笑晕了，董明珠宣布格力多发2亿年终奖，我要笑死在网友评论区里",
        "docid": "7329377758227218998",
        "url": ""
    },
    {
        "title": "闹大了！双手插兜打砸服装店的王某身份被扒，怪不得这么嚣张！",
        "docid": "7329384035552707087",
        "url": ""
    },
    {
        "title": "武汉与杭州\"硬刚\": 谁是中部与华东的GDP领头羊？",
        "docid": "7329364806216122920",
        "url": ""
    },
    {
        "title": "2024年返乡潮消失了，春运第3天，实拍武昌火车站、返乡的人多吗",
        "docid": "7329075771442954779",
        "url": "https://www.ixigua.com/7329075771442954779"
    },
    {
        "title": "杜兰特本赛季至今十佳球！每一球都让人感受到一股寒意",
        "docid": "7329353459566805515",
        "url": "https://www.ixigua.com/7329353459566805515"
    },
    {
        "title": "虽迟但到#与辉同行",
        "docid": "7329218855375962659",
        "url": "https://www.ixigua.com/7329218855375962659"
    },
    {
        "title": "陌生人突然到家里蹭饭，单亲妈妈爽快答应，说出3个字令人破防",
        "docid": "7329346298744996406",
        "url": "https://www.ixigua.com/7329346298744996406"
    },
    {
        "title": "回家难！31-5号湖南暴雪暴雨天气已定！连续六天！冷空气直逼湖南",
        "docid": "7329344610587902527",
        "url": ""
    },
    {
        "title": "2024美国总统大选时间表！特朗普大概率当选",
        "docid": "7329042415808725539",
        "url": ""
    },
    {
        "title": "\"杜兰特篮球传奇：NBA历史第四快28000分球员！\"",
        "docid": "7329393308462121508",
        "url": ""
    },
    {
        "title": "输不起？湖勇罚球43-16差距悬殊 科尔不满 库里赛后怒撕球衣",
        "docid": "7329391081970762274",
        "url": ""
    },
    {
        "title": "《王权：三国》评测：穿越到东汉末年，打不死只能让我更强大！",
        "docid": "7329035410318197284",
        "url": ""
    },
    {
        "title": "创业板指跌逾2% 下跌个股4500只",
        "docid": "7329342915019538985",
        "url": ""
    },
    {
        "title": "全场最高！若塔数据：7射1进球，1次关键传球，获评8.7分",
        "docid": "7329188485519114762",
        "url": ""
    },
    {
        "title": "福原爱首场直播带货额不足2.5万元，直播间140多万人都在看热闹，国乒“编外”的好感这么快就败光了吗",
        "docid": "7329377163235721763",
        "url": ""
    },
    {
        "title": "香港法院向中国恒大发出清盘令",
        "docid": "7329348048269034036",
        "url": ""
    },
    {
        "title": "“寻人启事2.0” 恩比德已经1540天没在掘金主场打过球了#恩比德",
        "docid": "7329144437764784640",
        "url": "https://www.ixigua.com/7329144437764784640"
    },
    {
        "title": "宝宝闹人，在爸爸怀里化身倔犟的鱼，快把电池扣了等会再安上！",
        "docid": "7329062050902311474",
        "url": "https://www.ixigua.com/7329062050902311474"
    },
    {
        "title": "率先晋级八强！古德温传射+致敬C罗！澳大利亚4-0大胜印尼",
        "docid": "7329124870841696806",
        "url": "https://www.ixigua.com/7329124870841696806"
    },
    {
        "title": "裁判报告这种东西基本上都是对湖人不利的。居心何在！#詹姆斯",
        "docid": "7329345988056449563",
        "url": "https://www.ixigua.com/7329345988056449563"
    },
    {
        "title": "徐静雨认怂：牢大不让叫那就叫浴霸！干净又卫生！老詹跳投美如画",
        "docid": "7329067322017219091",
        "url": "https://www.ixigua.com/7329067322017219091"
    },
    {
        "title": "澳大利亚球员古德温破门！澳大利亚3-0印度尼西亚！",
        "docid": "7329155351427678761",
        "url": "https://www.ixigua.com/7329155351427678761"
    },
    {
        "title": "大哥吐槽97年的洗衣机倒闭了结果被厂家刷到免费给大哥送洗衣机",
        "docid": "7328785406815158799",
        "url": ""
    },
    {
        "title": "5000单90秒售罄，身价倍涨！董宇辉到底说了什么，网友为情怀买单",
        "docid": "7329404079170781730",
        "url": ""
    },
    {
        "title": "慈善晚会惊现LV三公子，疑与Lisa有恋情并升温?",
        "docid": "7329321566574477876",
        "url": ""
    },
    {
        "title": "董宇辉国货专场，亲自点名蜂花缺席，官方给出回答，惹网友爆笑！",
        "docid": "7329404845310591507",
        "url": ""
    },
    {
        "title": "票房惨淡、央视痛批、导演道歉，2024电影圈第一个悲剧诞生了",
        "docid": "7329398810197967375",
        "url": ""
    },
    {
        "title": "今天股市的走势说明了什么？",
        "docid": "7329407997451993663",
        "url": ""
    },
    {
        "title": "郑钦文澳网夺亚再次证明：商业化体育项目不适合中国，足球也一样",
        "docid": "7329357003682218530",
        "url": ""
    },
    {
        "title": "特伦斯-罗斯：我退役了我就直说了 裁判毁了湖勇大战！",
        "docid": "7329411536508912164",
        "url": ""
    },
    {
        "title": "辛纳公子夺冠！展示奖杯写真，手拿奖杯奖金到账千万人民币",
        "docid": "7329414008786862628",
        "url": ""
    },
    {
        "title": "午评：两桶油大金融护住大盘，中小题材人间炼狱，下午怎么走？",
        "docid": "7329351515709112884",
        "url": ""
    },
    {
        "title": "郑钦文惨败惹争议!赛后落泪，被批赢得全是小角色，李娜发声鼓励",
        "docid": "7329403285956543026",
        "url": ""
    },
    {
        "title": "6-4！三万人见证爆冷！昔日亚军轰然倒下 新军创历史闯进亚洲杯8强",
        "docid": "7329416492780110390",
        "url": ""
    },
    {
        "title": "巴黎连丢两球遭扳平！布雷斯特球员脚后跟破门，模仿姆巴佩庆祝",
        "docid": "7329263641646236198",
        "url": ""
    },
    {
        "title": "霉霉的不雅照疯传，霉霉已起诉。但是要切断传播，非常难。",
        "docid": "7329406915007136290",
        "url": ""
    },
    {
        "title": "笑惨了！丈夫帮美女换轮胎，被6个美女围观，妻子的反应笑死我",
        "docid": "7329371735705633291",
        "url": ""
    },
    {
        "title": "泰勒·斯威夫特现身橄榄球比赛为男友助威 拥吻大秀恩爱",
        "docid": "7329339037419405865",
        "url": ""
    },
    {
        "title": "旭日旗事态升级：央媒军媒罕见发怒，爱国不是生意！战马行动封号",
        "docid": "7329407720967324175",
        "url": ""
    },
    {
        "title": "太感动！董宇辉抱着俞敏洪痛哭，评论区丈母娘感动的热泪盈眶。",
        "docid": "7329417286949896719",
        "url": ""
    },
    {
        "title": "NBA春晚真好看！加索尔：湖勇大战绝了 我很享受",
        "docid": "7329356073847177764",
        "url": ""
    },
    {
        "title": "专家建议：各回各家，夫妻分居型春节没什么不好，网友评论太精彩",
        "docid": "7329385983739429410",
        "url": ""
    },
    {
        "title": "笑不活了，社恐员工穿青蛙服表演各跳各的，我笑死在网友的评论区",
        "docid": "7329044787725517364",
        "url": ""
    },
    {
        "title": "吴晓波：我觉得厦门人生活在厦门是一件幸福的事",
        "docid": "7329127301822792242",
        "url": ""
    },
    {
        "title": "一家四口全被拐32年终团圆 陈启华：人贩子改变了全家命运",
        "docid": "7329340651235967523",
        "url": "https://www.ixigua.com/7329340651235967523"
    },
    {
        "title": "宇辉哭了，触景生情，可轻舟已过万重山。",
        "docid": "7329210225196532265",
        "url": "https://www.ixigua.com/7329210225196532265"
    },
    {
        "title": "听听董宇辉讲了些啥",
        "docid": "7329400415610077732",
        "url": "https://www.ixigua.com/7329400415610077732"
    },
    {
        "title": "极限挑战！在拉斯维加斯冬泳，抗击美国极寒天气！",
        "docid": "7329320571723776522",
        "url": "https://www.ixigua.com/7329320571723776522"
    },
    {
        "title": "女生自告奋勇模仿“丧尸”，动作夸张逼真至极，看完浑身直冒冷汗",
        "docid": "7329346273289437748",
        "url": "https://www.ixigua.com/7329346273289437748"
    },
    {
        "title": "当1岁多的宝宝对妈妈的工作产生了兴趣， 一句“甲烷”我懵了",
        "docid": "7329361465427952143",
        "url": "https://www.ixigua.com/7329361465427952143"
    },
    {
        "title": "跨越2000多公里，开半挂大车显眼包父亲空车载玩具奥特曼回家过年",
        "docid": "7329061882873152052",
        "url": "https://www.ixigua.com/7329061882873152052"
    },
    {
        "title": "人帅景美，欢迎来到坤坤的故乡 #蔡徐坤 #温州文旅",
        "docid": "7329324950274507316",
        "url": "https://www.ixigua.com/7329324950274507316"
    },
    {
        "title": "21岁赵今麦拍吻戏太欲了，被吴磊抱着亲到害羞，这谁能顶得住",
        "docid": "7329410655730418216",
        "url": ""
    },
    {
        "title": "婚恋市场风向变了！“四无女孩”反而成了香饽饽，男生抢着娶回家",
        "docid": "7329068889919390247",
        "url": ""
    },
    {
        "title": "沈梦辰腰椎横突骨折，骨头永久断裂好不了，35岁的她还没怀孕生子",
        "docid": "7329344725549433385",
        "url": ""
    },
    {
        "title": "霉霉吻了他！当着全世界的面！",
        "docid": "7329422118092079628",
        "url": ""
    },
    {
        "title": "学吴京?吴樾自掏腰包花1500万拍《挡马夺刀》,首日票房仅19.4万",
        "docid": "7329384481092387337",
        "url": ""
    },
    {
        "title": "今天为何大跌 市场为何不买账",
        "docid": "7329407985066066466",
        "url": ""
    },
    {
        "title": "闹大了！沈阳含泪买鱿鱼后续：眼尖网友发现猫腻，果然有问题！",
        "docid": "7329097151987057202",
        "url": ""
    },
    {
        "title": "明明周末有利好，怎么今天又跌了？",
        "docid": "7329419751757955618",
        "url": ""
    },
    {
        "title": "\"韩庚自曝：偶像光环下的心理挑战与逃离\"",
        "docid": "7329407752592278066",
        "url": ""
    },
    {
        "title": "董宇辉：如果有一天公司可以离开我，我将回到我熟悉的地方",
        "docid": "7329409275364491788",
        "url": ""
    },
    {
        "title": "俞敏洪最新回应疑寒了董宇辉的心，董宇辉未必会一忍再忍！",
        "docid": "7329404581094621731",
        "url": ""
    },
    {
        "title": "实探金宝贝深圳关停门店：闭店前2天仍促销，原地复课可行吗",
        "docid": "7329360605369090569",
        "url": ""
    },
    {
        "title": "电影《花千骨》上映4天票房不到500万，导演流泪道歉：很意外",
        "docid": "7329427155761267236",
        "url": ""
    },
    {
        "title": "武汉一动物园保安“另类驱赶”气球商贩引热议",
        "docid": "7329416794589594112",
        "url": ""
    },
    {
        "title": "男子打砸女服装店：全程恶行曝光，后续恐牢里过年，没人为他喊冤",
        "docid": "7329427791655944745",
        "url": ""
    },
    {
        "title": "周星驰入局微短剧  首部作品《金猪玉叶》5月上线",
        "docid": "7329430502597755444",
        "url": ""
    },
    {
        "title": "中央网信办启动“清朗·2024年春节网络环境整治”专项行动",
        "docid": "7329422140401484342",
        "url": ""
    },
    {
        "title": "四川88岁“游戏爷爷”创吉尼斯世界纪录，成为“最年长的B站游戏博主”",
        "docid": "7329420258853716531",
        "url": ""
    },
    {
        "title": "科目三上春晚你怎么看？",
        "docid": "7329415546691158563",
        "url": ""
    },
    {
        "title": "从金融的角度看看“繁花”",
        "docid": "7329423930761363995",
        "url": ""
    },
    {
        "title": "微评 | 谨防直播间“全网最低价”消费陷阱",
        "docid": "7329429644548080178",
        "url": ""
    },
    {
        "title": "导演大剧透！",
        "docid": "7329418398004232740",
        "url": ""
    },
    {
        "title": "上海钢联：今日电池级碳酸锂价格较上次持平，均价报9.75万元/吨",
        "docid": "7329367096087937590",
        "url": ""
    },
    {
        "title": "浙江路桥：十里长街大商圈盛大开街",
        "docid": "7329424539916616226",
        "url": ""
    },
    {
        "title": "董明珠宣布格力多发2亿年终奖冲上热搜！我却笑死在网友评论区",
        "docid": "7329398062063829519",
        "url": ""
    },
    {
        "title": "去年山东能源营收、净利润等指标均居省属企业第一",
        "docid": "7329438219421090344",
        "url": ""
    },
    {
        "title": "格力年会堪比春晚！表演节目竟有“我妈就是董明珠”",
        "docid": "7329412442818675252",
        "url": ""
    },
    {
        "title": "大暴冷！亚洲杯8强黑马塔吉克斯坦，逼平强队错怪国足？笑死了！",
        "docid": "7329359508042531364",
        "url": ""
    },
    {
        "title": "兵哥哥借用换衣间换装，店员上秒淡定下秒瞬间花痴，呲牙傻笑目送",
        "docid": "7329333117750084132",
        "url": "https://www.ixigua.com/7329333117750084132"
    },
    {
        "title": "不要担心踏空，市场永远不缺廉价的筹码",
        "docid": "7329417923515613746",
        "url": "https://www.ixigua.com/7329417923515613746"
    },
    {
        "title": "胖东来退休员工收到6箱春节福利：特别感动！从来没有被胖东来忘记",
        "docid": "7329336820544619071",
        "url": ""
    },
    {
        "title": "美国要爆发内战？中国网友幸灾乐祸",
        "docid": "7329412093605528118",
        "url": ""
    },
    {
        "title": "《繁花》品激情岁月，别再说躺平卷不动了，努力你也能当宝总",
        "docid": "7329161732889690659",
        "url": ""
    },
    {
        "title": "《要久久爱》深情对决：竹马VS精神导师，黄瀛子究竟更倾向谁？",
        "docid": "7329420559056536103",
        "url": ""
    },
    {
        "title": "“村BA”南北对抗精彩上演，篮球热火再燃中山沙溪",
        "docid": "7329428779988730402",
        "url": ""
    },
    {
        "title": "美国希望切断中方获取人工智能培训关键服务的主要途径，外交部回应",
        "docid": "7329428845147324967",
        "url": ""
    },
    {
        "title": "美海军招募困难降低门槛：高中没毕业也能入伍",
        "docid": "7329404335660663335",
        "url": ""
    },
    {
        "title": "双创指数再刷新低，个股涨跌中位数-3.25%",
        "docid": "7329426102424863295",
        "url": ""
    },
    {
        "title": "中字头股票和三一重工走势结构分析 1.28",
        "docid": "7329163255988388403",
        "url": ""
    },
    {
        "title": "江西板块29日主力净流出8.1亿元，赣锋锂业、江特电机居前",
        "docid": "7329419816199569972",
        "url": ""
    },
    {
        "title": "张桂华任湖北省农业农村厅厅长！曾是最年轻省级乡村振兴局局长",
        "docid": "7329345575260881448",
        "url": ""
    },
    {
        "title": "中国驻瑙鲁使馆29日举行复馆仪式",
        "docid": "7329422756582556200",
        "url": ""
    },
    {
        "title": "全国农产品批发市场猪肉平均价格较上周五上升1.2%",
        "docid": "7329409915196326440",
        "url": ""
    },
    {
        "title": "哭出圈的小女孩，被吉林宠上天，出租司机被找到，笑死在评论区",
        "docid": "7329337708374164009",
        "url": ""
    },
    {
        "title": "与辉同行团建蛋糕的形状引发热议",
        "docid": "7329177278330683945",
        "url": ""
    },
    {
        "title": "《繁花》又有后续，就在大年初一",
        "docid": "7329389072512991796",
        "url": ""
    },
    {
        "title": "《狗剩快跑》口碑井喷，打了多少投资方的脸，史策这次又赌对了",
        "docid": "7329428258758754835",
        "url": ""
    },
    {
        "title": "“像住在墓室，满墙都是兵马俑”，女子入住西安兵马俑酒店直呼氛围感拉满，酒店回应",
        "docid": "7329387142810059279",
        "url": ""
    },
    {
        "title": "微博热搜！宣布2月工资里或将增加这笔收入，网友听闻，我谢谢你",
        "docid": "7329406939228668431",
        "url": ""
    },
    {
        "title": "董宇辉泪洒联欢会现场，真因令人心疼，三个细节让人无比暖心",
        "docid": "7329441406785864228",
        "url": ""
    },
    {
        "title": "泰勒斯威夫特AI不雅照疯传，白宫新闻秘书、美国演员工会等发声",
        "docid": "7329424377915834890",
        "url": ""
    },
    {
        "title": "75岁秦煌自曝在深圳养小30岁情人，女方贤惠不拜金，曾赶都赶不走",
        "docid": "7329402817020772879",
        "url": ""
    },
    {
        "title": "泪崩了！母子4人回四川探亲，途中被人贩子拐卖， 32年后终于团聚",
        "docid": "7329391048298365480",
        "url": ""
    },
    {
        "title": "《繁花》大结局不过20天，就有专家发声怒批：剧情、演员都不过关",
        "docid": "7329395993287033356",
        "url": ""
    },
    {
        "title": "找谁说理去？郑钦文区区亚军就获800万奖金，孙颖莎冠军奖金才7万",
        "docid": "7329367431263273472",
        "url": ""
    },
    {
        "title": "周迅、赵丽颖、杨紫三女星角逐《主角》，谁能胜出？",
        "docid": "7329368364227576329",
        "url": ""
    },
    {
        "title": "沈梦辰录综艺受伤，腰椎骨断裂，网友却评论到怀孕会遭罪",
        "docid": "7329440505388352051",
        "url": ""
    },
    {
        "title": "网传广西果农宁愿倒掉沃柑也不卖？官方回应：别信",
        "docid": "7329127106477720116",
        "url": ""
    },
    {
        "title": "山西临汾一写字楼广告位贴出钱学森、邓稼先、李四光、钱三强的海报",
        "docid": "7329448701242638875",
        "url": ""
    },
    {
        "title": "48岁林心如晒十年前后对比照庆生，容貌变化不大，漂亮迷人超养眼",
        "docid": "7329440228723327525",
        "url": ""
    },
    {
        "title": "中国石油又大涨，个股的春天在哪里",
        "docid": "7329416772225237540",
        "url": ""
    },
    {
        "title": "潮评丨咖啡店被棋友“包场”，未尝不是一次机会",
        "docid": "7329404761739051559",
        "url": ""
    },
    {
        "title": "去年山东高速净赚124.7亿元，全年累计车流量9.3亿车次",
        "docid": "7329440791284236852",
        "url": ""
    },
    {
        "title": "加油！王霜第64分钟替补登场，英女超首秀对阵曼城女足！",
        "docid": "7329171249073488418",
        "url": ""
    },
    {
        "title": "锂电池概念29日主力净流出49.19亿元，天齐锂业、宁德时代居前",
        "docid": "7329423682533851711",
        "url": ""
    },
    {
        "title": "笑惨了！小学生得祖孙三代首张奖状，家长拉横幅，评论区笑死我",
        "docid": "7329445567636144694",
        "url": ""
    },
    {
        "title": "笑麻了，临近年关“租对象业务”又冲上热搜，我却笑死在评论区里",
        "docid": "7328694513692819979",
        "url": ""
    },
    {
        "title": "我今天第再次给证监会打去☎，看看他们是如何回应的？",
        "docid": "7329385581711753782",
        "url": "https://www.ixigua.com/7329385581711753782"
    },
    {
        "title": "英国男子在泰国爬29楼跳伞：不料降落伞没打开，当场身亡",
        "docid": "7329406497912422931",
        "url": "https://www.ixigua.com/7329406497912422931"
    },
    {
        "title": "看了吴磊、赵今麦令人尖叫的亲密戏，才知道他被赵露思“压榨",
        "docid": "7329340911124415012",
        "url": "https://www.ixigua.com/7329340911124415012"
    },
    {
        "title": "乘风破浪🚢快船众将奔赴克利夫兰 哈登对着镜头扮鬼脸心情大好",
        "docid": "7329312726264857126",
        "url": ""
    },
    {
        "title": "闹大了！传闻江苏某公司悬赏百万，征集福州某执法队长违法线索。",
        "docid": "7329329272211390988",
        "url": ""
    },
    {
        "title": "2024年1月29日，26.7万元本金炒股日常，行情大跌，账户小跌",
        "docid": "7329450998870229544",
        "url": ""
    },
    {
        "title": "笑麻了，河南发现1.07亿吨大油田冲上热搜，我却笑死在网友评论区",
        "docid": "7329459738675249698",
        "url": ""
    },
    {
        "title": "沸腾！ “足协原主席陈成源贪8103万受审”冲上热搜，引发全网热议",
        "docid": "7329455960182276620",
        "url": ""
    },
    {
        "title": "福原爱近况！开启内地直播带货，疑走投无路，遭日本网民全面抵制",
        "docid": "7329456949811380748",
        "url": ""
    },
    {
        "title": "俞敏洪最新回应，疑似寒了董宇辉的心，董宇辉未必会一忍再忍！",
        "docid": "7329450346462822963",
        "url": ""
    },
    {
        "title": "7秒58！中国跨栏再获世界冠军，新刘翔横空出世，2人长相十分相似",
        "docid": "7329440807176389131",
        "url": ""
    },
    {
        "title": "坐实两人恋情？LV三公子疑现身慈善晚会支持Lisa",
        "docid": "7329301106855756322",
        "url": ""
    },
    {
        "title": "上海闵行区一小区发生火灾，居委会：居民做饭时离开炉灶油锅未关，已完成对明火的扑救工作",
        "docid": "7329414107688845850",
        "url": ""
    },
    {
        "title": "韩庚自曝在韩抑郁经历，“当艺人不是通关游戏”",
        "docid": "7329460519672201767",
        "url": ""
    },
    {
        "title": "独家：范丞丞关晓彤王安宇新剧路透，学生模样满满年代感！",
        "docid": "7329168655756214824",
        "url": ""
    },
    {
        "title": "快船吊打绿凯引热议：6分钟21-0制胜 26战22胜太猛 反讽费城弃哈登",
        "docid": "7329399885286130188",
        "url": ""
    },
    {
        "title": "湖南这座城市，4任原市委书记落马！",
        "docid": "7329339452470854156",
        "url": ""
    },
    {
        "title": "车联网概念29日主力净流出26.39亿元，赛力斯、比亚迪居前",
        "docid": "7329422913520534055",
        "url": ""
    },
    {
        "title": "周一收评：今天收大绿盘，出乎大家意料，周二A股会继续走低吗？",
        "docid": "7329447075124068905",
        "url": ""
    },
    {
        "title": "财政部：2023年全国共销售彩票5796.96亿元，同比增长36.5%",
        "docid": "7329422556509864467",
        "url": ""
    },
    {
        "title": "高德打车回应“崩了”：经紧急修复，服务已全面恢复",
        "docid": "7329419729470046756",
        "url": ""
    },
    {
        "title": "中文在线收盘跌7.48%，主力资金净流出1.74亿元",
        "docid": "7329425993007940115",
        "url": ""
    },
    {
        "title": "香港恒生指数收涨0.78% 中国恒大跌超20%",
        "docid": "7329431318465430031",
        "url": ""
    },
    {
        "title": "A股彻底大崩盘，还有什么办法可以救A股？",
        "docid": "7329443208302494245",
        "url": "https://www.ixigua.com/7329443208302494245"
    },
    {
        "title": "男子在“思邈公园”卖假药，民警发现其为网上逃犯",
        "docid": "7329411196665659940",
        "url": ""
    },
    {
        "title": "全球最大锂矿山将采用月度定价 业内：可增强锂盐加工端成本计量的准确性",
        "docid": "7329455287521034787",
        "url": ""
    },
    {
        "title": "桂林旅游：预计2023年净利润约1600万元 同比扭亏为盈",
        "docid": "7329435669095694859",
        "url": ""
    },
    {
        "title": "中信博：预计2023年净利润同比增加约696.7%",
        "docid": "7329440836029628982",
        "url": ""
    },
    {
        "title": "横店影视：预计2023年净利润1.35亿元-1.8亿元 同比扭亏为盈",
        "docid": "7329441347046343203",
        "url": ""
    },
    {
        "title": "上期所对部分客户采取限制开仓监管措施",
        "docid": "7329422544774693376",
        "url": ""
    },
    {
        "title": "笑不活了，内马尔变肉马尔了，差点笑死在评论区里",
        "docid": "7329441835246666267",
        "url": ""
    },
    {
        "title": "以太坊：反弹承压，将开始下跌",
        "docid": "7329418162255512074",
        "url": ""
    },
    {
        "title": "董宇辉现身东方甄选联欢拜年会，触景生情，当场泪崩，中途退出",
        "docid": "7329452630059860480",
        "url": ""
    },
    {
        "title": "格力员工合唱“我妈董明珠” 现场让人看醉：董明珠爽翻",
        "docid": "7329455847938605603",
        "url": ""
    },
    {
        "title": "笑不活了！格力年会员工合唱“我妈董明珠”我笑死在网友评论区",
        "docid": "7329412775862731304",
        "url": ""
    },
    {
        "title": "哥哥带着妹妹放烟花，烟花一着，拎起妹妹开跑，众人哈哈大笑",
        "docid": "7329426902908109324",
        "url": "https://www.ixigua.com/7329426902908109324"
    },
    {
        "title": "坦克英雄即使集体增强，也不可能崛起！",
        "docid": "7329474032499098153",
        "url": "https://www.ixigua.com/7329474032499098153"
    },
    {
        "title": "其实特斯拉cybertruck并没有你想象中那么好，除此之外它一无是处",
        "docid": "7329393536783254051",
        "url": "https://www.ixigua.com/7329393536783254051"
    },
    {
        "title": "面包车礼让是对的？你看小轿车的雨刮器就知道怎么回事了",
        "docid": "7329164468003439141",
        "url": "https://www.ixigua.com/7329164468003439141"
    },
    {
        "title": "OK👌呀陈泽你也是给我乐到了……#陈泽 #陈泽直播回放",
        "docid": "7329139484003172899",
        "url": "https://www.ixigua.com/7329139484003172899"
    },
    {
        "title": "女儿放假第一天帮家里修车店补胎，动作熟练像是个“老师傅”",
        "docid": "7329369384110162495",
        "url": "https://www.ixigua.com/7329369384110162495"
    },
    {
        "title": "爱心友友在街猫猫屋投喂时，发现了只独耳猫，一开始有点耳朵",
        "docid": "7329459926525608484",
        "url": "https://www.ixigua.com/7329459926525608484"
    },
    {
        "title": "爸爸抱着孩子走路时不慎脚滑，孩子快要掉地上时“神反应”拉回",
        "docid": "7329426832804348443",
        "url": "https://www.ixigua.com/7329426832804348443"
    },
    {
        "title": "狗狗看到村里杀猪 害怕到直立站起来 狗狗：一会儿不会轮到我了吧",
        "docid": "7329387904193528335",
        "url": "https://www.ixigua.com/7329387904193528335"
    },
    {
        "title": "好不容易演个男主，连肥都舍不得减，难怪央视都看不下去了！",
        "docid": "7329426154874749452",
        "url": ""
    },
    {
        "title": "闹大了！77g黄金仅称出62g，博主打假鬼秤遭辱骂，整个杭州受牵连",
        "docid": "7329351706586645032",
        "url": ""
    },
    {
        "title": "夜市惊现天价鱿鱼：女摊主被网友扒出，背后故事让人咋舌！",
        "docid": "7329447911200227874",
        "url": ""
    },
    {
        "title": "21岁因车祸欠债9万元 他打5份工30个月全还了",
        "docid": "7329327117358023203",
        "url": ""
    },
    {
        "title": "反日情绪下，敏感话题让相关管理单位谨小慎微，使宵小有机可乘！",
        "docid": "7329462649975128628",
        "url": ""
    },
    {
        "title": "中国人的钱不好赚了？福原爱也直播带货了？带货额不足2.5万元",
        "docid": "7329429286820364840",
        "url": ""
    },
    {
        "title": "助攻6亿票房！它打造多部爆片，连王家卫都因它拍出章子怡名场面",
        "docid": "7329431509721547303",
        "url": ""
    },
    {
        "title": "国际大屠杀纪念日，以色列代表臭骂联合国是“纳粹”",
        "docid": "7329019451624489491",
        "url": ""
    },
    {
        "title": "美国航母逼近朝鲜，半岛局势骤然升温",
        "docid": "7329452006791430691",
        "url": ""
    },
    {
        "title": "闹大了！河南一男子举报纪委干部，40分钟男子就被警方从家里逮捕",
        "docid": "7329410899855458851",
        "url": ""
    },
    {
        "title": "小伙在公司年会上大醉却喜获一等奖，被架上台领奖，同事：中的是7000元手机",
        "docid": "7329457777364386356",
        "url": ""
    },
    {
        "title": "《繁花》剧组亮相东方卫视春晚，“宝总”与“汪小姐”惊喜重聚",
        "docid": "7329434999760142874",
        "url": ""
    },
    {
        "title": "《要久久爱》收视率走低，杨紫被批演技同质化，只能在古偶打转？",
        "docid": "7329343036062941734",
        "url": ""
    },
    {
        "title": "胡歌自述西藏青海行程，感受自然之美与公益的心动故事",
        "docid": "7329329265374855719",
        "url": ""
    },
    {
        "title": "《要久久爱》收视率走低，杨紫被批演技同质化，只能在古偶打转？",
        "docid": "7329341052216328739",
        "url": ""
    },
    {
        "title": "俄国家杜马二读通过没收财产法，增加补充条款",
        "docid": "7329452805709005322",
        "url": ""
    },
    {
        "title": "90后女神娜扎：从模特到荧幕收视女王，美丽不止于新疆风采！",
        "docid": "7326449804723585586",
        "url": "https://www.ixigua.com/7326449804723585586"
    },
    {
        "title": "当周深遇见范丞丞，猜歌名游戏仿佛拿了剧本，杨迪：范丞丞开挂了",
        "docid": "7329413004272468531",
        "url": "https://www.ixigua.com/7329413004272468531"
    },
    {
        "title": "男子租宝马后抵押套现21万挥霍，一夜暴富不是生活中的常态",
        "docid": "7329444752700195366",
        "url": ""
    },
    {
        "title": "腾达建设集团股份有限公司获得政府补助240万元",
        "docid": "7329443668916748815",
        "url": ""
    },
    {
        "title": "“新型婚礼”突然流行，揭露了婚姻的本质：“把我们俩的日子过好比什么都重要”",
        "docid": "7329345031507198483",
        "url": ""
    },
    {
        "title": "连央视都发声了，宁静没有说错，36岁赵丽颖早就走上人生另一条路",
        "docid": "7329449221919162914",
        "url": ""
    },
    {
        "title": "贾老板发新歌，布兰妮却登顶？粉丝集体复仇：姐，顶流，回归！",
        "docid": "7329177888379372051",
        "url": ""
    },
    {
        "title": "男子举报纪委干部40分钟后就被抓",
        "docid": "7329415750907691560",
        "url": ""
    },
    {
        "title": "徐娇又冲在一线了！发文骂于正心思歹毒！于正回应后评论区遭围攻",
        "docid": "7329471419019051559",
        "url": ""
    },
    {
        "title": "鹰潭中院女性副院长被律师实名举报论文造假，建议：先严查律师",
        "docid": "7329354820379263514",
        "url": ""
    },
    {
        "title": "杜兰特创历史记录！28000总得分，仅次于甜瓜",
        "docid": "7329355498782818868",
        "url": ""
    },
    {
        "title": "周星驰要拍短剧了！首部微短剧《金猪玉叶》预计5月上线，网友：就算收费也要看",
        "docid": "7329452142249935410",
        "url": ""
    },
    {
        "title": "才播6集，口碑炸了，网友：近年来唯一没快进还追平的年代剧",
        "docid": "7329335943100989993",
        "url": ""
    },
    {
        "title": "福原爱近况！开启内地直播带货，疑走投无路，遭日本网民全面抵制",
        "docid": "7329448487786086947",
        "url": ""
    },
    {
        "title": "《要久久爱》收视率走低，杨紫被批演技同质化，只能在古偶打转？",
        "docid": "7329439981246988852",
        "url": ""
    },
    {
        "title": "周迅赵丽颖杨紫争演张艺谋新剧女主,到底谁能夺得头筹？",
        "docid": "7329402484479918626",
        "url": ""
    },
    {
        "title": "娱乐脱口秀 | 春节档没有武侠片？",
        "docid": "7329351264456753716",
        "url": ""
    },
    {
        "title": "英国拟禁售一次性电子烟，防止未成年人上瘾",
        "docid": "7329404825082806825",
        "url": ""
    },
    {
        "title": "男子入住四川一酒店摔倒后脑死亡，家属质疑防滑措施未到位，酒店回应",
        "docid": "7329418913959019008",
        "url": ""
    }
]