[
    {
        "title": "“断子绝孙”真的很可怕吗？",
        "docid": "7333954816282460683",
        "url": ""
    },
    {
        "title": "豪横！男子发文件袋大小红包！网友：大早刷到，心凉凉",
        "docid": "7333879008759071247",
        "url": ""
    },
    {
        "title": "女子一家人专程到郊区放烟花，没想到放的是电子烟花",
        "docid": "7333886029105431074",
        "url": "https://www.ixigua.com/7333886029105431074"
    },
    {
        "title": "幂姐又双叒叕一件新中式买得起系列",
        "docid": "7332665076614611475",
        "url": ""
    },
    {
        "title": "梅西事件再升级！贝克汉姆社媒发照片暗讽，欲与梅老板撇清关系",
        "docid": "7333962570238034441",
        "url": "https://www.ixigua.com/7333962570238034441"
    },
    {
        "title": "兰溪市旅游开发有限公司携各景区给大家拜年 龙年新春",
        "docid": "7333795184087564800",
        "url": "https://www.ixigua.com/7333795184087564800"
    },
    {
        "title": "娱乐爆料：赵丽颖，刘诗诗张云龙，热巴，贾玲，刘谦",
        "docid": "7333854628473569832",
        "url": ""
    },
    {
        "title": "哈哈哈",
        "docid": "7333888125082845732",
        "url": ""
    },
    {
        "title": "越闹越大！发完压岁钱后年终奖没了冲上热搜！网友：建议取消",
        "docid": "7333886011061420579",
        "url": ""
    },
    {
        "title": "孙女追问奶奶为什么要结婚，奶奶想都没想立马回答：真是人间清醒",
        "docid": "7332799784099283493",
        "url": "https://www.ixigua.com/7332799784099283493"
    },
    {
        "title": "湖北下冻雨车被撞了，私了要求别人赔了1000，回家后发现亏大了",
        "docid": "7333472114940477989",
        "url": "https://www.ixigua.com/7333472114940477989"
    },
    {
        "title": "吕德华新年送福利，帮助幸运粉丝表白！",
        "docid": "7333656113356898842",
        "url": "https://www.ixigua.com/7333656113356898842"
    },
    {
        "title": "河南省级非物质文化遗产高跷#非遗展示 #龙年 #河南高跷",
        "docid": "7333674441982870070",
        "url": "https://www.ixigua.com/7333674441982870070"
    },
    {
        "title": "小伙老家买了649块钱烟花，十几种一次放过瘾，村里人的烟花自由",
        "docid": "7333890940476031540",
        "url": "https://www.ixigua.com/7333890940476031540"
    },
    {
        "title": "被福建的年味震撼到了！除夕夜无人机烟花秀太绝了！#福州烟花秀",
        "docid": "7333821229940769306",
        "url": "https://www.ixigua.com/7333821229940769306"
    },
    {
        "title": "浪漫有很多种，比如回家过年，枯树开花，亲人团聚#乡村守护人",
        "docid": "7333684040811479592",
        "url": "https://www.ixigua.com/7333684040811479592"
    },
    {
        "title": "[2024央视春晚]歌曲《让幸福飞起来》演唱：王阳黄轩杨幂毛晓彤",
        "docid": "7333653615741633043",
        "url": "https://www.ixigua.com/7333653615741633043"
    },
    {
        "title": "#热巴 #新疆是个好地方  #迪丽热巴美神降临  最美石榴花",
        "docid": "7333822141949248015",
        "url": "https://www.ixigua.com/7333822141949248015"
    },
    {
        "title": "#龙年新春 龙年第一天，柳州交警给您拜年啦！",
        "docid": "7333895543812751883",
        "url": "https://www.ixigua.com/7333895543812751883"
    },
    {
        "title": "梅西更新Ins晒出一家人合照",
        "docid": "7333970360054612531",
        "url": ""
    },
    {
        "title": "六龙同行！见者发财！#王者荣耀 #王者龙年限定皮肤",
        "docid": "7333698572820578850",
        "url": "https://www.ixigua.com/7333698572820578850"
    },
    {
        "title": "爆哭！贾玲《热辣滚烫》一定要看到彩蛋：人只活一次，没有不可能",
        "docid": "7333986640731488831",
        "url": ""
    },
    {
        "title": "红包新风尚：小额压岁钱回归真意，拒绝攀比，让年味更纯粹",
        "docid": "7333799919876129332",
        "url": ""
    },
    {
        "title": "春节期间，如何预防春季腹泻？",
        "docid": "7333898772373996043",
        "url": ""
    },
    {
        "title": "热搜爆了！贾玲暴瘦100斤，首次公开正脸照！",
        "docid": "7333848722360713740",
        "url": ""
    },
    {
        "title": "大广西的除夕烟花秀，广西老表说第二，还有人敢说第一吗",
        "docid": "7333760998383780415",
        "url": "https://www.ixigua.com/7333760998383780415"
    },
    {
        "title": "迈阿密中国香港行主办方：将为观众提供50%的退款",
        "docid": "7333839269838848564",
        "url": ""
    },
    {
        "title": "云南网警辟谣“男子收养5岁女孩”：为吸粉编造假信息，行拘",
        "docid": "7333875891850183183",
        "url": ""
    },
    {
        "title": "《热辣滚烫》票房井喷，打了多少资方的脸，贾玲又赌对了",
        "docid": "7333876417903706662",
        "url": ""
    },
    {
        "title": "巴黎 x 周杰伦，打造龙年独家设计球衣！今晚穿联名中文球衣登场",
        "docid": "7333928573529293362",
        "url": ""
    },
    {
        "title": "祝大朋友们龙马精神、事业有成，祝小朋友们，身体健康、生龙活虎",
        "docid": "7333809257223651879",
        "url": ""
    },
    {
        "title": "“有人约我温州顶峰见”，广西78岁老太跨越1300公里到温州见网友，却在机场困住了",
        "docid": "7333802836003652159",
        "url": "https://www.ixigua.com/7333802836003652159"
    },
    {
        "title": "王者龙腾四海活动，全部保底450#王者龙腾四海活动 #王者龙年限定",
        "docid": "7334011268917166604",
        "url": "https://www.ixigua.com/7334011268917166604"
    },
    {
        "title": "mvp榜更新了，看看你喜欢的球星排在第几！#科怀伦纳德",
        "docid": "7333856992609436186",
        "url": "https://www.ixigua.com/7333856992609436186"
    },
    {
        "title": "龙年行大运！快船总冠军！！",
        "docid": "7333954753992983049",
        "url": "https://www.ixigua.com/7333954753992983049"
    },
    {
        "title": "马斯克发博贺新年，配的特斯拉海报用Chinese New Year",
        "docid": "7333859539970130459",
        "url": "https://www.ixigua.com/7333859539970130459"
    },
    {
        "title": "东方春晚：岳云鹏陈楚生跨界合作《一封家书》，绕口令属实烫嘴！",
        "docid": "7333945013547729418",
        "url": "https://www.ixigua.com/7333945013547729418"
    },
    {
        "title": "奥运资格赛-李梦21分 \n韩旭4分5板\n中国32分惨败法国！",
        "docid": "7333925659884028435",
        "url": "https://www.ixigua.com/7333925659884028435"
    },
    {
        "title": "热巴春晚跳舞摔跤了，但是更加添加了春晚不同的角色",
        "docid": "7333931022725480994",
        "url": "https://www.ixigua.com/7333931022725480994"
    },
    {
        "title": "在美国🇺🇸过年🧧 年夜饭仪式感也必须拉🈵 ㊗️大家新年快乐",
        "docid": "7333843017528246824",
        "url": "https://www.ixigua.com/7333843017528246824"
    },
    {
        "title": "闹大了！农民因10元泡面而惨遭网暴后续：小仙女后悔不已",
        "docid": "7333881160873329167",
        "url": ""
    },
    {
        "title": "习俗不同，我们这过年不用把年兽炸死，这是打仗还是放炮？太刺激",
        "docid": "7333942826860003850",
        "url": ""
    },
    {
        "title": "春节村晚小品《装修》完整版 #上热门 #春晚 #小品 #央视龙年春晚",
        "docid": "7333919912278262335",
        "url": "https://www.ixigua.com/7333919912278262335"
    },
    {
        "title": "“泼天的富贵”轮到长沙了吗？初一的长沙人从众",
        "docid": "7333951089648009763",
        "url": "https://www.ixigua.com/7333951089648009763"
    },
    {
        "title": "我给各位拜年，给日本拜山",
        "docid": "7333949999040070184",
        "url": "https://www.ixigua.com/7333949999040070184"
    },
    {
        "title": "南昌龙年新春烟花晚会，见者好运，祝大家新年快乐！#南昌烟花秀",
        "docid": "7333961569858126373",
        "url": "https://www.ixigua.com/7333961569858126373"
    },
    {
        "title": "国家：各省禁放！ 广西：他说的是省，我是自治区 #广西烟花",
        "docid": "7333822495277580800",
        "url": "https://www.ixigua.com/7333822495277580800"
    },
    {
        "title": "#上热门话题🔥🔥🔥热点榜  #刘涛春晚再现妈祖扮相",
        "docid": "7333839581621682725",
        "url": "https://www.ixigua.com/7333839581621682725"
    },
    {
        "title": "迎新年，为什么广西可以放烟花？一评论引起上万读者共鸣",
        "docid": "7333974347914265139",
        "url": ""
    },
    {
        "title": "王者新春：20款新皮肤的上架，曹操限定皮肤，亚瑟变帅气小哥",
        "docid": "7333979149369164297",
        "url": ""
    },
    {
        "title": "湖南璀璨烟花，湖北高冷安静？网友评论笑的我肚疼。",
        "docid": "7333871375125971490",
        "url": ""
    },
    {
        "title": "完了吧闹大了！杭州正式取消阿根廷比赛，梅西账号更新了！",
        "docid": "7333967552290292263",
        "url": ""
    },
    {
        "title": "反转！游客被骂穷光蛋后续：大理回应，更多细节曝光，评论区炸锅",
        "docid": "7333921589903327782",
        "url": ""
    },
    {
        "title": "龙年春晚，让网友们极度尴尬的三个场面",
        "docid": "7333869442721792552",
        "url": ""
    },
    {
        "title": "人潮涌动，大年初一现疯狂求佛潮，是到了求佛的时候了？",
        "docid": "7333862749220504103",
        "url": ""
    },
    {
        "title": "《第二十条》真的好看，又有笑点又有泪点",
        "docid": "7333843269664965135",
        "url": "https://www.ixigua.com/7333843269664965135"
    },
    {
        "title": "白鹿上身本来就很丰满了，这背背佳一带感觉就很好看了，真的不错",
        "docid": "7333200791442407963",
        "url": ""
    },
    {
        "title": "妈妈思维前卫是一种什么体验？网友：又是羡慕的一天",
        "docid": "7333836524326945343",
        "url": ""
    },
    {
        "title": "被年轻人吸完的甘蔗，看着让我害怕",
        "docid": "7333972869539988022",
        "url": ""
    },
    {
        "title": "龙不再翻译为dragon而是loong？这个话题热搜第一，网",
        "docid": "7333506744859558412",
        "url": ""
    },
    {
        "title": "最新！破5亿！今年春节档是沈腾、贾玲之间的对决？",
        "docid": "7333741267173736971",
        "url": ""
    },
    {
        "title": "春节压岁钱，花光了我的年终奖，期待过年，也怕过年",
        "docid": "7333898482019385871",
        "url": ""
    },
    {
        "title": "热辣滚烫，看见不一样的贾玲！#终于看到瘦了的贾玲了",
        "docid": "7333826376812003867",
        "url": "https://www.ixigua.com/7333826376812003867"
    },
    {
        "title": "惯子如杀子！人民日报推荐，儿童家务年龄对照表！",
        "docid": "7333898425978749476",
        "url": ""
    },
    {
        "title": "终于有人把磕头的规矩，整理出来了，收藏起来看看吧",
        "docid": "7333919533281296906",
        "url": ""
    },
    {
        "title": "春晚后台抢先看，再就业男团，繁花杨幂刘诗诗朱一龙檀健次周深等",
        "docid": "7333887140251894281",
        "url": ""
    },
    {
        "title": "恕我孤陋寡闻！各种奇葩对联来了，有没有想对号入座的？😁👍",
        "docid": "7333748834269528627",
        "url": ""
    },
    {
        "title": "宁浩：在中国电影里找一条中间路线",
        "docid": "7333880022404842036",
        "url": ""
    },
    {
        "title": "越闹越大！梅西事件蔓延全球关注！外国网友群起愤怒！外媒抨击！",
        "docid": "7333860568035557951",
        "url": ""
    },
    {
        "title": "笑死了！尼格买提复盘穿帮全过程，导致刘谦含泪“离开”春晚舞台",
        "docid": "7333888911011807755",
        "url": ""
    },
    {
        "title": "\"曝光！00后男子入赘8年，惊艳女友家族，引爆家庭传奇！\"",
        "docid": "7333989240566579746",
        "url": ""
    },
    {
        "title": "新疆女孩热巴温暖诠释春晚零下7度挑战寒冬央视春晚上演会场震撼",
        "docid": "7333847284889010726",
        "url": ""
    },
    {
        "title": "笑哭了！沙溢怀疑是假玲，观众质疑AI换脸，乐莹一句话更让人泪目",
        "docid": "7333976177047487002",
        "url": ""
    },
    {
        "title": "河北兄弟拜年，磕头声响彻云霄，盆成“牺牲品”",
        "docid": "7333852768274530853",
        "url": ""
    },
    {
        "title": "绝对实力面前，不存在任何歪打正着！#王者荣耀#梦泪",
        "docid": "7333912746888528394",
        "url": "https://www.ixigua.com/7333912746888528394"
    },
    {
        "title": "在暴雪时分：殷果浴中索吻，林亦扬全剧尺度最大一幕出现，没眼看",
        "docid": "7333060254156096050",
        "url": "https://www.ixigua.com/7333060254156096050"
    },
    {
        "title": "第一次登上家乡台春晚",
        "docid": "7333961509469028904",
        "url": "https://www.ixigua.com/7333961509469028904"
    },
    {
        "title": "不是湖北高速不铲雪，而是近20度的高温还化不了4天前下的雪",
        "docid": "7333901407823364618",
        "url": "https://www.ixigua.com/7333901407823364618"
    },
    {
        "title": "毛晓彤晒央视后台年夜饭，评论区沦陷",
        "docid": "7333834653394305551",
        "url": ""
    },
    {
        "title": "简单记录2023的除夕夜。 简简单单 平安快乐  #拜个抖音年",
        "docid": "7333986550147351090",
        "url": ""
    },
    {
        "title": "贾玲被采访时遇到质问：能坚持这个样子下去吗？",
        "docid": "7333964951196959244",
        "url": ""
    },
    {
        "title": "在新龙年2024甲辰年大年初一的今天：那媒人叔叔又询问我情况",
        "docid": "7333850542181253672",
        "url": ""
    },
    {
        "title": "南来北往：汪新马燕高调大婚，马魁送神秘大礼，看呆在场所有人",
        "docid": "7333056191821513243",
        "url": "https://www.ixigua.com/7333056191821513243"
    },
    {
        "title": "《狂飙》过去6个月，疯狂流量变现的苏小玎已凉凉，高叶却被体谅",
        "docid": "7333820393314386471",
        "url": ""
    },
    {
        "title": "笑不活了！贾玲换微博头像，瘦出下颌线，我却要笑死在评论区里",
        "docid": "7334021750411330087",
        "url": ""
    },
    {
        "title": "江西南昌县：实施家庭购房补贴，单套最高补贴5万元",
        "docid": "7333957331141542415",
        "url": ""
    },
    {
        "title": "真的震撼！贾玲现身直播间，贾玲为角色先增重40斤再减重100斤",
        "docid": "7333959619049865762",
        "url": ""
    },
    {
        "title": "全球华人新春手机摄影大赛祝您春节快乐",
        "docid": "7333513689381306890",
        "url": ""
    },
    {
        "title": "贾玲暴瘦100斤，但以后她的路却不好走了？网友:“太陌生了！”",
        "docid": "7334023808753451557",
        "url": ""
    },
    {
        "title": "惊！女性完成了全球75％的无偿劳动成，网友竟然这么说",
        "docid": "7333863046450332169",
        "url": ""
    },
    {
        "title": "笑麻了，男子过年放鞭炮把供桌给崩了冲上热搜，我却笑死在评论区",
        "docid": "7333961062905348642",
        "url": ""
    },
    {
        "title": "闹大了！“年轻人过年越来越反感走亲戚”上热搜，评论区炸了锅！",
        "docid": "7333817763242492450",
        "url": ""
    },
    {
        "title": "《恭喜发财》#陈楚生 #声生不息 #春晚 #综艺 #声生不息家年华",
        "docid": "7333841557336654388",
        "url": "https://www.ixigua.com/7333841557336654388"
    },
    {
        "title": "东方春晚：宝总好皮！胡歌击鼓传花杀回马枪，唐嫣花送不出去啦",
        "docid": "7333958377510601225",
        "url": "https://www.ixigua.com/7333958377510601225"
    },
    {
        "title": "霍启对梅西粉丝的回怼令人叫绝#",
        "docid": "7333889602232680995",
        "url": "https://www.ixigua.com/7333889602232680995"
    },
    {
        "title": "这就是不愿意回老家的原因，就算大城市压力再大",
        "docid": "7333898794289299983",
        "url": "https://www.ixigua.com/7333898794289299983"
    },
    {
        "title": "#全世界都在过中国年 龙腾四海送吉祥，春风得意马蹄疾#春节快乐",
        "docid": "7333893999721349670",
        "url": "https://www.ixigua.com/7333893999721349670"
    },
    {
        "title": "中国电视剧年度盛典荣誉提名演员代表集体亮相",
        "docid": "7333971152332653075",
        "url": "https://www.ixigua.com/7333971152332653075"
    },
    {
        "title": "苏醒与小11岁廖语辰正式官宣！产子四年首晒合照 甜蜜搂肩夫妻相足",
        "docid": "7333953119430115852",
        "url": ""
    },
    {
        "title": "大年初二！黄江萌娃将亮相广东少儿春晚",
        "docid": "7334129033192079923",
        "url": ""
    },
    {
        "title": "流感患者注意 这6件事不建议做",
        "docid": "7334138073648841228",
        "url": ""
    },
    {
        "title": "飞驰人生2：沈腾教孙艺洲倒车这段，连看10遍不够，简直笑到肚疼",
        "docid": "7330195208300626441",
        "url": "https://www.ixigua.com/7330195208300626441"
    },
    {
        "title": "#皇马 #维尼修斯 这场球踢啊，踢出了“世界足球先生”的水准。",
        "docid": "7334048251785675298",
        "url": "https://www.ixigua.com/7334048251785675298"
    },
    {
        "title": "教育孩子的天花板，萌宝生活懒散，超级宝妈有秘宝#欢乐家长群",
        "docid": "7333837722282852873",
        "url": "https://www.ixigua.com/7333837722282852873"
    },
    {
        "title": "大年三十、一家三口都赖床不起，别人家都准备年夜饭，我们就睡觉",
        "docid": "7334033849653199412",
        "url": "https://www.ixigua.com/7334033849653199412"
    },
    {
        "title": "热搜第一！“龙”竟然应该翻译为loong？“龙”不再翻译为dragon",
        "docid": "7333947819176722982",
        "url": "https://www.ixigua.com/7333947819176722982"
    },
    {
        "title": "刘谦回来了！#给龙年新春加点戏 #全球共庆中国年",
        "docid": "7333815325940843043",
        "url": "https://www.ixigua.com/7333815325940843043"
    },
    {
        "title": "快船112-106战胜活塞 赢得龙年第一战#快船vs活塞#快船逆转活塞",
        "docid": "7334117538709635584",
        "url": "https://www.ixigua.com/7334117538709635584"
    },
    {
        "title": "假期开始#热辣滚烫 #好看电影推荐 #因为一个片段看了整部剧",
        "docid": "7333951610273399311",
        "url": "https://www.ixigua.com/7333951610273399311"
    },
    {
        "title": "2024年春节档票房破15亿：《飞驰人生2》与《热辣滚烫》排名前二",
        "docid": "7333912443875557903",
        "url": "https://www.ixigua.com/7333912443875557903"
    },
    {
        "title": "高速上看春晚，总算赶上了跨年烟花！！！ #福运龘龘 #春节自驾游",
        "docid": "7333923097542427155",
        "url": "https://www.ixigua.com/7333923097542427155"
    },
    {
        "title": "“汪小姐”唐嫣倾情演唱《偷心 》",
        "docid": "7333965415095697939",
        "url": "https://www.ixigua.com/7333965415095697939"
    },
    {
        "title": "杀人诛心！美媒：丁威迪本赛季投篮命中率联盟倒一 湖人赢麻了",
        "docid": "7334150178703753755",
        "url": ""
    },
    {
        "title": "东方春晚：郑恺自称《繁花》男主？魏总想当男主的心藏不住啦！",
        "docid": "7333957316833870336",
        "url": "https://www.ixigua.com/7333957316833870336"
    },
    {
        "title": "快船今日到场：登哥头顶小红帽笑容满面😁 小卡着阿里连帽衫",
        "docid": "7334061761802289690",
        "url": ""
    },
    {
        "title": "一岸之隔，湖南烟花璀璨，湖北高冷安静，差点笑死在网友的评论区",
        "docid": "7333809135219393064",
        "url": ""
    },
    {
        "title": "笑不活了！《热辣滚烫》全程高能，贾玲只有56公斤，评论区笑麻了",
        "docid": "7333925586194563636",
        "url": ""
    },
    {
        "title": "笑不活了，全球75%的家务由女性完成冲上热搜，评论区笑死我了",
        "docid": "7333942365222257162",
        "url": ""
    },
    {
        "title": "狂魔哥点评年夜饭，价值十几万的路易十三，狂魔当场认爹，笑不活",
        "docid": "7333980985765134898",
        "url": "https://www.ixigua.com/7333980985765134898"
    },
    {
        "title": "东方春晚：陈楚生跨界相声现挂让岳云鹏笑场，轮到小岳岳被逼疯了",
        "docid": "7333945520886383114",
        "url": "https://www.ixigua.com/7333945520886383114"
    },
    {
        "title": "0713圆梦春晚",
        "docid": "7333888895962546725",
        "url": "https://www.ixigua.com/7333888895962546725"
    },
    {
        "title": "他们三氛围感好强啊😂#我在抖音追剧 #在暴雪时分 #吴磊 #林亦扬",
        "docid": "7333929214913348136",
        "url": "https://www.ixigua.com/7333929214913348136"
    },
    {
        "title": "笑麻了，春晚尼格买提魔术穿帮冲上热搜，我却笑死在了网友评论区",
        "docid": "7333825751067886130",
        "url": ""
    },
    {
        "title": "到黄江·过大年｜麒麟醒狮大集合，黄江年味冲出屏幕啦",
        "docid": "7333974416290267675",
        "url": ""
    },
    {
        "title": "春节档电影初现格局，《热辣滚烫》首映破4亿，刘德华差点出局！",
        "docid": "7333794379544461864",
        "url": ""
    },
    {
        "title": "好震撼 山东千人拜年硬核现场，你还在梦中，山东人已经起床拜年了",
        "docid": "7333935138935407131",
        "url": ""
    },
    {
        "title": "笑喷了！开始走亲戚了，过年吃席的至暗时刻，笑死在网友评论区！",
        "docid": "7334121908873118249",
        "url": ""
    },
    {
        "title": "健康平安过龙年丨心情“放假”莫让胃“加班",
        "docid": "7334176809317679643",
        "url": ""
    },
    {
        "title": "太震撼了，贾玲减肥全记录，评论区炸了，贾玲瘦下来和张小斐好像",
        "docid": "7333916769091879439",
        "url": ""
    },
    {
        "title": "《飞驰人生2》票房突破5亿 豆瓣评分8.1",
        "docid": "7334160915019121162",
        "url": ""
    },
    {
        "title": "外国派红包习俗大不同：红包用白色？情侣之间也派？",
        "docid": "7332757027825484338",
        "url": ""
    },
    {
        "title": "外国人看中国春节放烟花、韩国人：春节是我们的韩国的",
        "docid": "7333908441183977993",
        "url": "https://www.ixigua.com/7333908441183977993"
    },
    {
        "title": "网友廊坊看电影偶遇赵丽颖本人，赵丽颖廊坊路演现场秒变乖乖女",
        "docid": "7333971798964470312",
        "url": "https://www.ixigua.com/7333971798964470312"
    },
    {
        "title": "广西的烟花有多震撼？#广西的烟花有多震撼 #禁止燃放 #过年",
        "docid": "7333951488505348623",
        "url": "https://www.ixigua.com/7333951488505348623"
    },
    {
        "title": "梅西事件发酵，百万玩家要求下架皮肤，王者1句话回应，太解气了",
        "docid": "7333908015207039500",
        "url": ""
    },
    {
        "title": "2024开年首部武侠动作片《目中无人2》震撼来袭#电影推荐",
        "docid": "7333875423518196259",
        "url": "https://www.ixigua.com/7333875423518196259"
    },
    {
        "title": "#刘涛春晚造型 #刘涛春晚再现“妈祖”扮相#刘涛 #福运龘龘",
        "docid": "7333858961252155941",
        "url": "https://www.ixigua.com/7333858961252155941"
    },
    {
        "title": "新春烟花晚会完美收官，你到现场了吗？#江西南昌",
        "docid": "7333980052452966950",
        "url": "https://www.ixigua.com/7333980052452966950"
    },
    {
        "title": "不回家过啦！今天过年直接掀桌咯！",
        "docid": "7333967911294091813",
        "url": ""
    },
    {
        "title": "\"《飞驰人生2》大年初一票房爆棚，13.66亿领跑春节档\"",
        "docid": "7334146410155115008",
        "url": ""
    },
    {
        "title": "服务·生活｜隔夜菜怎么吃？避免亚硝酸盐摄入过量",
        "docid": "7334177404615066149",
        "url": ""
    },
    {
        "title": "胡锡进点赞贾玲太牛了！是无数人励志的榜样！减肥全程视频曝光！",
        "docid": "7334184637294068261",
        "url": ""
    },
    {
        "title": "大理旅游被骂穷光蛋后续！文旅局怒批，网友却一边倒：摊主太冤了",
        "docid": "7334139400667906560",
        "url": ""
    },
    {
        "title": "闹大了！萧山赘婿婚介所爆满，媳妇:你赶紧去报名",
        "docid": "7334172523158110760",
        "url": ""
    },
    {
        "title": "精彩的比赛无需多言#太阳VS勇士 #库里绝杀太阳 #勇士战胜太阳",
        "docid": "7334207906235023881",
        "url": "https://www.ixigua.com/7334207906235023881"
    },
    {
        "title": "从“李白”到“杜甫”，同一个江湖#电影目中无人2",
        "docid": "7334205181372039689",
        "url": "https://www.ixigua.com/7334205181372039689"
    },
    {
        "title": "平台又上了有效弹幕龙年快乐",
        "docid": "7334168254421828133",
        "url": "https://www.ixigua.com/7334168254421828133"
    },
    {
        "title": "正月初一就走亲戚了，多少年的传统在挣钱面前也是完败！",
        "docid": "7333911060300825107",
        "url": "https://www.ixigua.com/7333911060300825107"
    },
    {
        "title": "中国烟花看广西，广西烟花看广西！万家烟花齐放时刻！",
        "docid": "7333867893220311586",
        "url": "https://www.ixigua.com/7333867893220311586"
    },
    {
        "title": "大年初一全国景区客流排名，浙江楠溪江排名第一，北上无上榜景区",
        "docid": "7334124286413668876",
        "url": ""
    },
    {
        "title": "阔别三年的春节篮球赛终于再次打响～你初一开门红#乡村篮球赛",
        "docid": "7333968418833891867",
        "url": ""
    },
    {
        "title": "河南周口一景区外堵车3小时，回应：有紧急预案，未发生事故",
        "docid": "7334213453231571468",
        "url": ""
    },
    {
        "title": "过年了也要注意了，以上几类红包注意切勿点开呀",
        "docid": "7334193497014452799",
        "url": ""
    },
    {
        "title": "更适合宁德人体质的拜年海报，我们替你准备好啦！",
        "docid": "7334005876963836428",
        "url": ""
    },
    {
        "title": "弩机说你没悔改？追梦：我不可能像他那样 安静的人赢不了😎",
        "docid": "7334213854005838386",
        "url": ""
    },
    {
        "title": "春晚任素汐的歌感动了全国人民，网友：除了她的颜其他全都是顶配",
        "docid": "7334211295736775194",
        "url": ""
    },
    {
        "title": "现在放电子烟花都这么讲究了吗？第一次听说还要特意驱车去郊区放",
        "docid": "7333990039543890458",
        "url": ""
    },
    {
        "title": "心疼，湖北一男孩儿因不愿给后妈拜年，被亲爸打得头破血流",
        "docid": "7334218802131616283",
        "url": ""
    },
    {
        "title": "笑麻了，萌娃过年收太多压岁钱直呼花不完冲上热搜，评论区笑不活",
        "docid": "7333928348367061504",
        "url": ""
    },
    {
        "title": "东方春晚：胡歌分享《繁花》中最浪漫的事，和唐嫣在天台展望未来",
        "docid": "7333978395535114802",
        "url": "https://www.ixigua.com/7333978395535114802"
    },
    {
        "title": "通知：全省禁放烟花 广西：已读不回 广西消防：放，尽管放",
        "docid": "7333965252846944802",
        "url": "https://www.ixigua.com/7333965252846944802"
    },
    {
        "title": "新年快乐！！！ 相信这一切终将过去 谣言终将被澄清#梅西",
        "docid": "7334159442491113984",
        "url": "https://www.ixigua.com/7334159442491113984"
    },
    {
        "title": "魅力春节：初一到初十，春节习俗大揭秘",
        "docid": "7334161017246581289",
        "url": "https://www.ixigua.com/7334161017246581289"
    },
    {
        "title": "#一起放烟花 #陪你一起过初一 #春节仪式感拉满了 越明年",
        "docid": "7333990700180046372",
        "url": "https://www.ixigua.com/7333990700180046372"
    },
    {
        "title": "❤️爱犬！球迷赠送克莱一幅Rocco画像",
        "docid": "7334140293702369826",
        "url": ""
    },
    {
        "title": "大年初一开门鞭炮家家响，这是烟气还是雾气，农村要控烟花爆竹不",
        "docid": "7333895894028255794",
        "url": "https://www.ixigua.com/7333895894028255794"
    },
    {
        "title": "李云霄一出场，仪态身段直接秒杀一众小花，原来真美人都在戏曲界",
        "docid": "7332894287857877543",
        "url": "https://www.ixigua.com/7332894287857877543"
    },
    {
        "title": "准到让人颤抖！库里2.11集锦 无解单挑三巨头+大心脏绝杀看懵死神",
        "docid": "7334198578287804962",
        "url": "https://www.ixigua.com/7334198578287804962"
    },
    {
        "title": "东方春晚：陈丽君鞠婧祎演绎越剧戏歌《游山恋》，好唯美！",
        "docid": "7333962157992313371",
        "url": "https://www.ixigua.com/7333962157992313371"
    },
    {
        "title": "杨紫:终于让我逮着机会演坏人了，谢谢贾玲姐对杨紫的认可",
        "docid": "7334026184226767387",
        "url": "https://www.ixigua.com/7334026184226767387"
    },
    {
        "title": "奶奶给孙子发了多少红包？评论区各种对比伤害。网友：根本花不完",
        "docid": "7333962555519992371",
        "url": ""
    },
    {
        "title": "反转？外媒把梅西缺阵的皮球，踢给官僚主义惹众怒！真相来了——",
        "docid": "7333999308557025792",
        "url": ""
    },
    {
        "title": "因梅西事件“相关回应”被热搜，极兔官方称系冒充官号者发布",
        "docid": "7334219090762482195",
        "url": ""
    },
    {
        "title": "磕给姥姥磕头😄😄要红包🤗🤗",
        "docid": "7334214910937186826",
        "url": ""
    },
    {
        "title": "这你信？贾玲瘦了100斤？经历什么？居然又一次打了资本的脸。",
        "docid": "7334053133007667751",
        "url": ""
    },
    {
        "title": "《热辣滚烫》反超《飞驰人生2》 登顶春节档实时票房榜，贾玲谈减肥成果：能不能保持无所谓，看心情",
        "docid": "7334205300591362596",
        "url": ""
    },
    {
        "title": "越闹越大！广东人的“红包规矩”引发网友热议，评论区笑死了！",
        "docid": "7334231378634048011",
        "url": ""
    },
    {
        "title": "笑不活了！《热辣滚烫》正式上映，贾玲瘦了一百斤，评论区笑死",
        "docid": "7333985659738292736",
        "url": ""
    },
    {
        "title": "笑麻了！贾玲减重100斤后首次公开露面，网友们却在评论区炸开锅",
        "docid": "7334200379502363162",
        "url": ""
    },
    {
        "title": "您家的压岁钱标准是多少？看看1988年的浙江，网友:比我现在都多",
        "docid": "7334169304617108019",
        "url": ""
    },
    {
        "title": "【新年视评】在相互祝福中感受浓浓年味",
        "docid": "7334279812909793831",
        "url": ""
    },
    {
        "title": "东方春晚：郑恺不知《繁花》何时杀青，遗憾未和王家卫好好告别",
        "docid": "7333959321753125391",
        "url": "https://www.ixigua.com/7333959321753125391"
    },
    {
        "title": "赢麻了！贾玲减肥100斤后现身人民日报直播间 气质判若两人！",
        "docid": "7334164376364188169",
        "url": ""
    },
    {
        "title": "笑死了，春晚主持人都在后台背词撒贝宁跟着音乐摇摆，妥妥的学霸",
        "docid": "7334169077604336164",
        "url": ""
    },
    {
        "title": "# 让我们谈谈今年春节：太反常了！",
        "docid": "7334008780571034152",
        "url": ""
    },
    {
        "title": "河南小伙花巨资350买烟花，点燃那一刻笑死网友！",
        "docid": "7334244612225237567",
        "url": ""
    },
    {
        "title": "难道这就是所有女婿来丈母娘家里的统一状态吗？评论区已笑疯了！",
        "docid": "7334240630538895899",
        "url": ""
    },
    {
        "title": "《热辣滚烫》正式上映，实名羡慕贾玲瘦了一百斤，评论区笑死",
        "docid": "7334012477640114740",
        "url": ""
    },
    {
        "title": "湖北是不喜欢放烟花吗？重新定义“南北差异”，湖南放烟花湖北看",
        "docid": "7334106489801638451",
        "url": ""
    },
    {
        "title": "闹大了！男孩不给后妈拜年 被亲爸暴打倒地不起 处理结果令人意外",
        "docid": "7334263184788390427",
        "url": ""
    },
    {
        "title": "笑不活了！女婿来丈母娘家的统一状态火了，网友破防，评论区笑死",
        "docid": "7334259792716268072",
        "url": ""
    },
    {
        "title": "笑麻了！郭晶晶给大家拜年了，引发网友称赞，评论区笑死",
        "docid": "7334138710239347237",
        "url": ""
    },
    {
        "title": "闹大了！警方回应：男孩不愿给后妈拜年被亲爸打破头！评论区炸锅",
        "docid": "7334246281683960320",
        "url": ""
    },
    {
        "title": "笑不活了，这是全国女婿回丈母娘家过年的统一姿势？笑死在评论区",
        "docid": "7333977747498353161",
        "url": ""
    },
    {
        "title": "太戳心窝了，外地女婿来丈母娘家的统一状态冲上热搜，评论区笑死",
        "docid": "7334238955443569186",
        "url": ""
    },
    {
        "title": "湖北荆州打麻将遭遇暴雪袭击",
        "docid": "7334104724783759899",
        "url": "https://www.ixigua.com/7334104724783759899"
    },
    {
        "title": "笑麻了，贾玲公主抱雷佳音，我却笑死在了网友评论区张飞爱笑",
        "docid": "7334292722100208182",
        "url": ""
    },
    {
        "title": "梅西若失去中国市场，会有多大损失#梅西",
        "docid": "7333985196251578931",
        "url": "https://www.ixigua.com/7333985196251578931"
    },
    {
        "title": "王者：你会把灵宝升到五档吗？普通玩家，我只建议你白嫖到四档！",
        "docid": "7333953334971597364",
        "url": ""
    },
    {
        "title": "球员诚挚致歉！约旦决赛失利，质疑裁判表现！",
        "docid": "7334225119700976182",
        "url": ""
    },
    {
        "title": "贾玲为角色增重40斤再减重100斤，“从来没质疑过自己能不能减重成功，只担心自己电影的表达会不会不准确”，减重是非常健康的，一个月8-10斤",
        "docid": "7334003658210083363",
        "url": ""
    },
    {
        "title": "董宇辉谈贾玲减肥变化，计划初一访谈热辣滚烫，因放假告吹",
        "docid": "7334241822329422399",
        "url": ""
    },
    {
        "title": "山东孔孟之乡：大年初一震撼拜年仪式 彰显“礼仪之邦”的深厚底蕴",
        "docid": "7334191465385640459",
        "url": ""
    },
    {
        "title": "越闹越大！广东人的“红包规矩”冲上热搜，这才是发红包的意义",
        "docid": "7334247848676033043",
        "url": ""
    },
    {
        "title": "闹大了！大理商贩大骂游客：穷光蛋，却获得网友们一致支持",
        "docid": "7334234560072761891",
        "url": ""
    },
    {
        "title": "大理通报女游客被骂“穷光蛋”冲上热搜，5块钱为何成退货大战？",
        "docid": "7334184774070469174",
        "url": ""
    },
    {
        "title": "外国友人拜大年｜日本友人大地郁朗：“日照人真诚友好，我感到很幸福，祝大家新年快乐”",
        "docid": "7334233968449585679",
        "url": ""
    },
    {
        "title": "闹大了！男孩因不给继母拜年被生父打的头破血流！生母心疼哭诉！",
        "docid": "7334300557378634250",
        "url": ""
    },
    {
        "title": "大年初一家人聚会菜没吃桌子炸了，哈哈一笑淡定举杯：第二顿开始",
        "docid": "7334212805300027945",
        "url": "https://www.ixigua.com/7334212805300027945"
    },
    {
        "title": "库里回答小吧采访：我就是龙年出生的🐉会在今年9月份来中国",
        "docid": "7334225556138885651",
        "url": "https://www.ixigua.com/7334225556138885651"
    },
    {
        "title": "时隔12年的广州春节烟花汇演，祝大家新年快乐  #广州#春节#烟花",
        "docid": "7333962982331777577",
        "url": "https://www.ixigua.com/7333962982331777577"
    },
    {
        "title": "“引发众怒”梅西，人设崩塌球王变哟西，网友：国家面前无偶像！",
        "docid": "7334279472214409780",
        "url": "https://www.ixigua.com/7334279472214409780"
    },
    {
        "title": "湖北恩施一男孩不愿给后妈拜年,被亲爸打破头!亲妈竟选择原谅...",
        "docid": "7334310559224955418",
        "url": "https://www.ixigua.com/7334310559224955418"
    },
    {
        "title": "春晚幕后曝光！主持人上台前都在紧张背台词，只有撒贝宁在......",
        "docid": "7334243478873997835",
        "url": "https://www.ixigua.com/7334243478873997835"
    },
    {
        "title": "勇士113:112击败太阳，库里奉献准绝杀，欢迎大家留言讨论！",
        "docid": "7334264917018706466",
        "url": "https://www.ixigua.com/7334264917018706466"
    },
    {
        "title": "外媒评C罗冬歇：一切都完美，唯独中国球迷不高兴！梅西比他更惨",
        "docid": "7334241369491571211",
        "url": "https://www.ixigua.com/7334241369491571211"
    },
    {
        "title": "那么好的天气当然要开着深蓝粗发啦！#深蓝s7 #我与汽车的日常",
        "docid": "7334209667792536127",
        "url": "https://www.ixigua.com/7334209667792536127"
    },
    {
        "title": "大户人家！云南一家43人吃年夜饭桌上摆了182碗菜：中间站起来夹",
        "docid": "7334269886530912780",
        "url": "https://www.ixigua.com/7334269886530912780"
    },
    {
        "title": "笑麻了，“女婿来丈母娘家的统一状态”冲上热搜，我笑死在评论区",
        "docid": "7334244411448476199",
        "url": ""
    },
    {
        "title": "笑麻了！贾玲首度公开减重100斤正脸照，我却笑死在网友的评论区",
        "docid": "7334118816168903205",
        "url": ""
    },
    {
        "title": "闹大了！男孩不愿给后妈拜年被打破头，引发网友热议，评论区炸了",
        "docid": "7334258214819332659",
        "url": ""
    },
    {
        "title": "甲辰龙年你在哪里过春节，怎么过好别样的大年春节",
        "docid": "7334279618339570176",
        "url": ""
    },
    {
        "title": "目中无人2︱第1集  谢苗携武侠新作炸裂开场",
        "docid": "7333981503108022847",
        "url": "https://www.ixigua.com/7333981503108022847"
    },
    {
        "title": "鲍威尔重伤乔治发威，快船主场逆转活塞！#哈登 #快船",
        "docid": "7334114292079591970",
        "url": "https://www.ixigua.com/7334114292079591970"
    },
    {
        "title": "春节档评分出来了，你最喜欢哪部？#春节档电影 #电影推荐",
        "docid": "7334201552716071476",
        "url": "https://www.ixigua.com/7334201552716071476"
    },
    {
        "title": "#好电影 #福西西 丞丞啊!你也是年纪轻轻就和沈腾老师",
        "docid": "7333986145216889379",
        "url": "https://www.ixigua.com/7333986145216889379"
    },
    {
        "title": "MV《流动的中国》",
        "docid": "7334237324022284827",
        "url": "https://www.ixigua.com/7334237324022284827"
    },
    {
        "title": "姚玉玲跟汪新分手了#南来北往",
        "docid": "7334277531203600935",
        "url": "https://www.ixigua.com/7334277531203600935"
    },
    {
        "title": "春节档4部电影口碑出炉，第一名斩获高分，《热辣滚烫》仅排第三",
        "docid": "7333993883849720331",
        "url": "https://www.ixigua.com/7333993883849720331"
    },
    {
        "title": "2024卫视央视春晚杀疯了！一晚诞生这十大封神现场，堪比神仙打架",
        "docid": "7334280819865092618",
        "url": "https://www.ixigua.com/7334280819865092618"
    },
    {
        "title": "没订婚该不该去男方家过年",
        "docid": "7334282489143280178",
        "url": ""
    },
    {
        "title": "大年初二回娘家，可愁坏了全国各地的女婿！",
        "docid": "7334209201591337472",
        "url": ""
    },
    {
        "title": "评论区笑死了，女生春节放烟花:不敢点找警察，孔雀开屏变炸屏",
        "docid": "7334187213070238262",
        "url": ""
    },
    {
        "title": "笑麻了，原来贾玲梦想练成张伟丽的样子，我却笑死在了网友评论区",
        "docid": "7333989339720614435",
        "url": ""
    },
    {
        "title": "闹大了，湖北恩施 18岁孩子因不愿向后妈拜年 被亲爸暴打 评论区炸了",
        "docid": "7334280969043952163",
        "url": ""
    },
    {
        "title": "儿子不愿给后妈拜年，竟被父亲打的头破血流！网友：父子关系断了",
        "docid": "7334252798177149491",
        "url": ""
    },
    {
        "title": "一大早，被朋友圈里的老外逗翻了…",
        "docid": "7334294735764554292",
        "url": ""
    },
    {
        "title": "儿子喜提新车开回家显摆，单亲妈妈上车满脸骄傲，看车标太晃眼",
        "docid": "7332805454797799955",
        "url": "https://www.ixigua.com/7332805454797799955"
    },
    {
        "title": "南来北往：结局马燕考上一本，嫁给亿万富豪，汪新最意想不到",
        "docid": "7333103370942710307",
        "url": "https://www.ixigua.com/7333103370942710307"
    },
    {
        "title": "南来北往：汪新受伤落终身残疾，马燕主动下嫁，马魁反应看呆众人",
        "docid": "7333057310774067712",
        "url": "https://www.ixigua.com/7333057310774067712"
    },
    {
        "title": "都说福建小孩的压岁钱多的离谱，揭秘普通福建小孩的压岁钱",
        "docid": "7333962316137890340",
        "url": "https://www.ixigua.com/7333962316137890340"
    },
    {
        "title": "广西人为什么要燃放烟花爆竹？#广西 #龙年大吉 #烟花爆竹闹新年",
        "docid": "7334246239690555916",
        "url": "https://www.ixigua.com/7334246239690555916"
    },
    {
        "title": "电舞飞扬 激情科目三 #喜迎春节",
        "docid": "7334192776948482610",
        "url": "https://www.ixigua.com/7334192776948482610"
    },
    {
        "title": "原来骑楼是这么来的#游学 #国际交流 #边玩边学",
        "docid": "7334264710961594895",
        "url": "https://www.ixigua.com/7334264710961594895"
    },
    {
        "title": "#磕头拜年仪式感 #这才是过年该有的气氛",
        "docid": "7334199382230860339",
        "url": "https://www.ixigua.com/7334199382230860339"
    }
]