[
    {
        "title": "以色列特拉维夫爆发了一场大规模的反政府抗议活动，",
        "docid": "7339552129339621928",
        "url": ""
    },
    {
        "title": "据美媒测算，特朗普在2024年总统选举南卡罗来纳州共和党初选中胜出",
        "docid": "7339544370536628736",
        "url": ""
    },
    {
        "title": "肯尼亚侨界庆祝元宵佳节",
        "docid": "7339547607674978853",
        "url": ""
    },
    {
        "title": "笑麻了，封神第一部法国上映一票难求，我却笑死在了网友评论区",
        "docid": "7339057141275787828",
        "url": ""
    },
    {
        "title": "闹大了！前女足国门赵丽娜，直播痛哭回应网友攻击",
        "docid": "7339447164014035466",
        "url": ""
    },
    {
        "title": "球迷：除了C罗之外最喜欢的球员是谁？加纳乔：梅西",
        "docid": "7339510428449489444",
        "url": ""
    },
    {
        "title": "正播世乒赛男团决赛！3比2 樊振东惊天逆转！王者归来 击溃勒布伦",
        "docid": "7339488406496281107",
        "url": ""
    },
    {
        "title": "炎亚纶又破防了？汪东城是懂得怎么气炎亚纶的",
        "docid": "7339471571679248896",
        "url": ""
    },
    {
        "title": "香港人如何鬧元宵？醒獅踏春精彩演繹越看越好看，最後絕絕子啊！",
        "docid": "7339208035170157119",
        "url": ""
    },
    {
        "title": "昨晚广州的元宵烟花最给力，肇庆这回要笑死我了",
        "docid": "7339506128546529830",
        "url": ""
    },
    {
        "title": "正播世乒赛颁奖典礼！中国队夺冠笑的像个孩子，国歌响起热泪盈眶",
        "docid": "7339533893307105842",
        "url": ""
    },
    {
        "title": "带你感受闽南人游神的热情 元宵迎灯热闹极了 街头街尾人潮聚集",
        "docid": "7339432611628417586",
        "url": ""
    },
    {
        "title": "现场！福建海警在厦金海域开展综合执法演练",
        "docid": "7339538821643665939",
        "url": ""
    },
    {
        "title": "县城没中产，我觉得你们说的是县城富豪",
        "docid": "7339377918088315432",
        "url": ""
    },
    {
        "title": "辅导作业真的需要勇气。",
        "docid": "7339385543962444298",
        "url": ""
    },
    {
        "title": "女孩视频记录父亲在自己上学路上撒盐融雪，网友指责女孩和父亲",
        "docid": "7339437465738052122",
        "url": ""
    },
    {
        "title": "比亚迪豪奖“宾利打人事件”中劝架车主：20万加终身免费维保!",
        "docid": "7339477091953967668",
        "url": ""
    },
    {
        "title": "笑不活了，湖北一大桥上有人撒百元大钞讨彩头，网友评论区笑死了",
        "docid": "7339361977405424154",
        "url": ""
    },
    {
        "title": "闹大了！干锅兔疑吃出猫牙齿，店家让顾客做鉴定，商家评论区沦陷",
        "docid": "7339495240132477503",
        "url": ""
    },
    {
        "title": "东北大妈拿砖头人肉占车位！叫嚣：你走了我就砸！随后砸人打耳光",
        "docid": "7339339162262618674",
        "url": ""
    },
    {
        "title": "温泉争议图片升级，真相难以接受监管局介入，网友意见不一",
        "docid": "7339435754931978790",
        "url": ""
    },
    {
        "title": "广州断桥事件接近尾声，船老板主动发声，网友敬重是条汉子，佩服",
        "docid": "7339546845938614811",
        "url": ""
    },
    {
        "title": "点赞：比亚迪对劝架车主奖励20万元，网友:比亚迪展现企业担当",
        "docid": "7339475847499268646",
        "url": ""
    },
    {
        "title": "闹大了 ！专家称90后七八十退休，广大网友都炸了",
        "docid": "7339530614653272627",
        "url": ""
    },
    {
        "title": "沥心沙大桥事故亲历者，王国梁行车记录仪曝光，现场画面让人揪心",
        "docid": "7339391227198243355",
        "url": ""
    },
    {
        "title": "##俄乌冲突 1……",
        "docid": "7339527868910993983",
        "url": ""
    },
    {
        "title": "天冷了，来一碗糯叽叽的酒酿汤圆暖暖身吧#酒酿圆子",
        "docid": "7339389247851495955",
        "url": ""
    },
    {
        "title": "云南旅游黑幕曝光！导游爆猛料，竟然是故意赶下车",
        "docid": "7339556508294119975",
        "url": ""
    },
    {
        "title": "网红之死引发关注：演出时被灌酒，家属等待道歉",
        "docid": "7339463619228451337",
        "url": ""
    },
    {
        "title": "有格局，阻止宾利车主的大哥找到了，比亚迪奖励20万，评论区点赞",
        "docid": "7339528729812910603",
        "url": ""
    },
    {
        "title": "闹大了！“宾利车主”捅人后续，比亚迪—奖励见义勇为男子20万！",
        "docid": "7339451387379548691",
        "url": ""
    },
    {
        "title": "张颂文新剧猎冰开播，毒王毒枭合作欲开拓还在市场直指金三角",
        "docid": "7339387411606012470",
        "url": ""
    },
    {
        "title": "老人被子女扶进养老院，浑身抗拒挣扎往出走，志愿者一句话太现实",
        "docid": "7339439085142213159",
        "url": ""
    },
    {
        "title": "男篮亚洲杯！中国Vs日本，周琦不敢信阿不都上演独战群雄惊艳全场",
        "docid": "7339419645444784650",
        "url": ""
    },
    {
        "title": "潮汕营标的天花板，溪口营蔗灯你有没有来#潮汕营标旗",
        "docid": "7339560777000419875",
        "url": ""
    },
    {
        "title": "新一轮寒潮来袭，湖北武汉遭遇暴雪冻雨，道路冰封难行",
        "docid": "7339521185010909707",
        "url": ""
    },
    {
        "title": "天气好了，气温低冰雪化不了，老板们都在铲马路上的冰，丢井里面",
        "docid": "7339373289325724199",
        "url": ""
    },
    {
        "title": "张学友假唱？张学友演唱会没开口就传出人声！网友说他不可能假唱",
        "docid": "7339494976861241868",
        "url": ""
    },
    {
        "title": "闹大了！四川美女校长微信群发90秒不雅视频？本人回应 ：手机丢了",
        "docid": "7339546983474086434",
        "url": ""
    },
    {
        "title": "四川一女校长在群里发不雅视频，下属看完炸锅，女校长:那不是我",
        "docid": "7339553431558210089",
        "url": ""
    },
    {
        "title": "教育界又出大瓜？四川一女校长微信群中发90秒不雅视频？",
        "docid": "7339576576713179667",
        "url": ""
    },
    {
        "title": "事件升级！赶下车事件女子怒骂：云南旅游你们玩不起！",
        "docid": "7339536803579691557",
        "url": ""
    },
    {
        "title": "笑麻！女校长否认发不雅视频,说是小偷发的，网友：真会找借口！",
        "docid": "7339574649573409306",
        "url": ""
    },
    {
        "title": "中国男队3:0法国，世乒赛11连冠，樊振东MVP，刘诗雯给韩国队颁奖",
        "docid": "7339541991154008576",
        "url": ""
    },
    {
        "title": "闹大了！网传女校长微信群发不良视频。女校长回应 小偷偷了我手机",
        "docid": "7339592623759393299",
        "url": ""
    },
    {
        "title": "正月不理发成“老皇历”，理发店生意红火人流爆棚",
        "docid": "7339498666203873803",
        "url": ""
    },
    {
        "title": "大格局，比亚迪对劝架车主奖励20万元，网友:我也想买比亚迪",
        "docid": "7339489972744880655",
        "url": ""
    },
    {
        "title": "不堪入目!女校长微信群发90秒不良视频，本人回应:手机被小偷偷了",
        "docid": "7339600911322366501",
        "url": ""
    },
    {
        "title": "大型纪录片《面试判官》持续为您播出 #大型纪录片 #无限超越班",
        "docid": "7339383691137221154",
        "url": ""
    },
    {
        "title": "猎冰：毒死整个鱼塘的鱼引来警察，才是张颂文对阿昌最狠的算计",
        "docid": "7339433146054050356",
        "url": ""
    },
    {
        "title": "宗庆后和法国达能的商战 #宗庆后  #娃哈哈 #商战 #民族企业",
        "docid": "7339561098519151138",
        "url": ""
    },
    {
        "title": "笑麻了，封神第一部法国上映一票难求，我却笑死在了网友评论区",
        "docid": "7339413626492895779",
        "url": ""
    },
    {
        "title": "2024年 W7 销量华为近排第六名，线下渠道的缺失是华为最大短板",
        "docid": "7339426102777119270",
        "url": ""
    },
    {
        "title": "女校长微信群发不雅视频？回应手机被偷，网友：贼偷手机发这个？",
        "docid": "7339586192654205452",
        "url": ""
    },
    {
        "title": "嚣张！宾利车主快速路上痛打宝马车主，竟是亲戚关系，评论区炸了",
        "docid": "7339484680997667347",
        "url": ""
    },
    {
        "title": "尼格买提没对上牌，带刀侍卫没刀硬提#大唐不夜城 #尼格买提",
        "docid": "7339541197310198326",
        "url": ""
    },
    {
        "title": "#南来北往#南来北往收官 #我在抖音追剧 #电视剧",
        "docid": "7339504982561194550",
        "url": ""
    },
    {
        "title": "“做一个善良的人比什么都重要”#黄子韬 #黄子韬演唱会",
        "docid": "7339581155538272779",
        "url": ""
    },
    {
        "title": "从一个普通人，成为中国首富，传奇的一生，70多岁还在掌舵，宗老",
        "docid": "7339442778536935970",
        "url": ""
    },
    {
        "title": "女校长微信发不雅视频",
        "docid": "7339581872949133876",
        "url": ""
    },
    {
        "title": "徐校长早上9点工作群发送不雅视频，有人提醒，他为什么不撤回",
        "docid": "7339579942432457243",
        "url": ""
    },
    {
        "title": "“反诈老陈”竞聘协警，言语之间满是后悔，网友评论区留言扎心了",
        "docid": "7339518827623236146",
        "url": ""
    },
    {
        "title": "哇哈哈的创始者宗庆后去世，众人惋惜",
        "docid": "7339564746293510695",
        "url": ""
    },
    {
        "title": "5部2024年最新高分热播国产剧推荐，真的每一部都超级好看！",
        "docid": "7339536596629127730",
        "url": ""
    },
    {
        "title": "这是能说的吗？河南卫视《上春山》格局文化全开，开挂式秒杀他人",
        "docid": "7339451089869570579",
        "url": ""
    },
    {
        "title": "痛悼宗庆后！市民自发前往娃哈哈门口送鲜花，还有人送来娃哈哈饮料",
        "docid": "7339444147608420891",
        "url": ""
    },
    {
        "title": "正月十六，寨内村与缶灶村关爷交接！#潮汕营老爷",
        "docid": "7339439258786071094",
        "url": ""
    },
    {
        "title": "方圆又要参加今年的游神啦 #又美又飒 #惊鸿一瞥 #潮汕女孩",
        "docid": "7339464484538614282",
        "url": ""
    },
    {
        "title": "杜兰特回击格林：冠军不是我唯一骄傲，底线惨痛反击",
        "docid": "7339361375346508338",
        "url": ""
    },
    {
        "title": "女校长“艳门”事件：手机店、小偷和90秒的不雅视频！",
        "docid": "7339594218715005474",
        "url": ""
    },
    {
        "title": "笑死了！被传发不雅视频的女校长回应了，网友发现猫腻，评论炸锅",
        "docid": "7339571421422912000",
        "url": ""
    },
    {
        "title": "闹大了！洛阳温泉图片争议后续：美团差评曝更多内情，这事不简单",
        "docid": "7339584395356979764",
        "url": ""
    },
    {
        "title": "2024款奔驰A级落地行情与用车成本参考#每天推荐好车 #dou是好车",
        "docid": "7339417405255254543",
        "url": ""
    },
    {
        "title": "#元宵节民间习俗活动 #人山人海太热闹了",
        "docid": "7339396726232941106",
        "url": ""
    },
    {
        "title": "杭州一宾利车主暴打宝马司机，持工具行凶打人，两人还是表兄弟！",
        "docid": "7339372725632549385",
        "url": ""
    },
    {
        "title": "闹大了！一女校长微信群发不良视频，为免社死回应：小偷偷了手机",
        "docid": "7339661458621497865",
        "url": ""
    },
    {
        "title": "感受白裤瑶的民族文化氛围，真的好有意思！#2024白裤瑶年街节",
        "docid": "7339402073835831862",
        "url": ""
    },
    {
        "title": "心痛，南京发生特大火灾死伤60多人，500多人无家可归你看",
        "docid": "7339484034567209484",
        "url": ""
    },
    {
        "title": "武汉杨泗港大桥江滩，十五年一遇天然滑雪场，孩子们的最爱……",
        "docid": "7339512695068197414",
        "url": ""
    },
    {
        "title": "宜昌元宵夜惊现撒钱狂欢：百元大钞如雨下，众人争抢“福气”",
        "docid": "7339357331223888447",
        "url": ""
    },
    {
        "title": "没有人能逃过上班的摧残！真的有种从主角变成NPC的感觉",
        "docid": "7339403749959565839",
        "url": ""
    },
    {
        "title": "外国网友加入“求爆改”队伍，“听劝”的风为啥越吹越盛了？",
        "docid": "7339319926915973683",
        "url": ""
    },
    {
        "title": "董宇辉说：当你的孩子缺乏自律时，一定要给他讲讲懒鸟效应！",
        "docid": "7339338769474077218",
        "url": ""
    },
    {
        "title": "EDG突发重大变故：JieJie摔倒无法上场，RNG迎来大满",
        "docid": "7339349028305715751",
        "url": ""
    },
    {
        "title": "房贷利率大幅降价，释放了哪些信号！#房贷利率下调",
        "docid": "7339550918863536675",
        "url": ""
    },
    {
        "title": "贾玲微博发声反击！《热辣滚烫》争议引燃公众热议",
        "docid": "7339428899299836442",
        "url": ""
    },
    {
        "title": "大结局马魁牺牲贾金龙被抓，汪新抓到了当年的那个人 #南来北往",
        "docid": "7339512800681099787",
        "url": ""
    },
    {
        "title": "挑战200元自助！和牛+车厘子随便炫，大胃王能吃多少？",
        "docid": "7339141173904966179",
        "url": ""
    },
    {
        "title": "宗庆后骑三轮车推销商品的老照片，每个成功人身后都有看不到艰辛",
        "docid": "7339517203736101414",
        "url": ""
    },
    {
        "title": "美国前总统特朗普当天在美国会晤了阿根廷总统米莱",
        "docid": "7339326005049459238",
        "url": ""
    },
    {
        "title": "耗时一天的AI电影，换个感觉看港片吧，第一集",
        "docid": "7339448983980999206",
        "url": ""
    },
    {
        "title": "17000后，今年房价肯定还会下跌，答案就在视频里，你看有道理吗",
        "docid": "7339500755717947930",
        "url": ""
    },
    {
        "title": "在武汉玩雪了吗？你们是这样玩的吗？",
        "docid": "7339332157099213353",
        "url": ""
    },
    {
        "title": "各地元宵各不同，自己家乡的元宵，不管怎么潦草，都觉得是极好。",
        "docid": "7339644960473514546",
        "url": ""
    },
    {
        "title": "每个学校都有一个唱歌很好听 成绩有很好的女孩子吧.",
        "docid": "7339551660760531456",
        "url": ""
    },
    {
        "title": "毒贩被美女搭讪险种仙人跳",
        "docid": "7339511545967477267",
        "url": ""
    },
    {
        "title": "千鼓闹元宵•万人逛年街，白裤瑶年街节，我们明年见！",
        "docid": "7339515828116816418",
        "url": ""
    },
    {
        "title": "#元宵节民间习俗活动 姐妹花彩带舞！#正月十六春节正式结束",
        "docid": "7339553689806242342",
        "url": ""
    },
    {
        "title": "670 亿市值！吉利之光：路特斯科技闪亮登陆纳斯达克",
        "docid": "7339546289417847337",
        "url": ""
    },
    {
        "title": "孙颖莎热泪盈眶，马琳赛后的精彩举动再次证明她才是MVP！",
        "docid": "7339525980375253555",
        "url": ""
    },
    {
        "title": "黄智雯首赴米兰时装周冒寒风街拍，对名牌包包意欲竟不及美食大？",
        "docid": "7339081268375716392",
        "url": ""
    },
    {
        "title": "朱芳雨：在广东队从没人早上约我喝酒 我也不知道是谁约的董瀚麟",
        "docid": "7339591859288752678",
        "url": ""
    },
    {
        "title": "越闹越大，日本核污水排海已满半年冲上热搜，评论区炸锅",
        "docid": "7339543286371926567",
        "url": ""
    },
    {
        "title": "四川某学校女校长微信群发90秒不雅视频后，蹩脚解释让人捧腹大笑",
        "docid": "7339544443135771187",
        "url": ""
    },
    {
        "title": "65岁可能是延迟退休调整后的最终结果，现实与理想的差距让人深思",
        "docid": "7339699240286863924",
        "url": ""
    },
    {
        "title": "日本为何越来越强，我们为何原地踏步，我们现在输得不仅是球队",
        "docid": "7339462138434028084",
        "url": ""
    },
    {
        "title": "中国男篮对日本，待到秋来九月八，马踏东京赏樱花#中国男篮",
        "docid": "7339418974754439699",
        "url": ""
    },
    {
        "title": "仅差74分！詹姆斯28+7+12再负KD！狂轰四记暴扣诠释不老传奇！",
        "docid": "7339695146298147368",
        "url": ""
    },
    {
        "title": "眼神能杀人😠恩佐离场时遭球迷嘲讽，想发火但又忍气吞声走了",
        "docid": "7339681971611664950",
        "url": ""
    },
    {
        "title": "终于有人把历年房贷利率走势图，整理出来了，快收藏看看。",
        "docid": "7339421148289090086",
        "url": ""
    },
    {
        "title": "父子俩赌气吃碳酸钡粉，父亲中毒，儿子在家中去世，父子太较真了",
        "docid": "7339376206925873699",
        "url": ""
    },
    {
        "title": "张学友演唱会险陷假唱风波：揭秘背后的真相",
        "docid": "7339668819822035456",
        "url": ""
    },
    {
        "title": "热议！专家提议 90后可能延迟到七八十岁退休！网友:社保还交吗？",
        "docid": "7339533353505194523",
        "url": ""
    },
    {
        "title": "歌神真假唱？真失误？张学友上海假唱争议，且看剩余60+巡回演唱",
        "docid": "7339486611219972617",
        "url": ""
    },
    {
        "title": "赵丽娜回应直播间崩溃大哭：我在慢慢学会接受孤独、无视质疑",
        "docid": "7339518478963655195",
        "url": ""
    },
    {
        "title": "南京火灾小区开始清理架空层电动车,居民:地下未完善不知去哪充电",
        "docid": "7339509795759915583",
        "url": ""
    },
    {
        "title": "正月十六拉保保，四川广汉保保节活动现场，",
        "docid": "7339390279113425417",
        "url": ""
    },
    {
        "title": "2024热播剧盘点：《南来北往》第3，《猎冰》第4，第一名无悬念！",
        "docid": "7339476633092358692",
        "url": ""
    },
    {
        "title": "#无限超越班 #徐若晗  好自然的演技啊！",
        "docid": "7339540979630015003",
        "url": ""
    },
    {
        "title": "下周一A股热点曝料：消息面热点及个股概念分类",
        "docid": "7339561884905177615",
        "url": ""
    },
    {
        "title": "元宵晚会沙溢带给我的欢乐，不亚于春晚上的小尼，评论区笑死了",
        "docid": "7339610587174896164",
        "url": ""
    },
    {
        "title": "深圳男子在家自割痔疮5年从三天一割变成一天三割，网友: 是个狠人",
        "docid": "7339481291563401769",
        "url": ""
    },
    {
        "title": "何炅主持双台元宵晚会疲态尽显，湖南台临时改顺序，戏曲节目获赞",
        "docid": "7339544011436507667",
        "url": ""
    },
    {
        "title": "杜兰特22+5+7，努尔基奇18+22+7，太阳123-113击败湖人！",
        "docid": "7339652227012821516",
        "url": ""
    },
    {
        "title": "今天米兰这一天，刘涛曾黎戚薇妆造全毁，腿短脸僵、身材臃肿不堪",
        "docid": "7339416687600681482",
        "url": ""
    },
    {
        "title": "双顶流同框！泰星Mai晒与肖战合照！",
        "docid": "7339478318100464155",
        "url": ""
    },
    {
        "title": "米兰这晚，汤唯惊艳，刘涛状态吓人，无滤镜暴露内娱明星真实状态",
        "docid": "7339373598798299684",
        "url": ""
    },
    {
        "title": "笑臃了！尼格买提时隔半个月终于对上了，我要笑死在评论区里",
        "docid": "7339430952752120355",
        "url": ""
    },
    {
        "title": "闹大了！宾利司机伤人事件双方系表兄弟，比亚迪奖励劝架车主20w",
        "docid": "7339449049063571977",
        "url": ""
    },
    {
        "title": "你偶遇他了吗？演员王迅来荆州了！",
        "docid": "7339392069292999207",
        "url": ""
    },
    {
        "title": "起猛了！这是咖啡宋？",
        "docid": "7339363270279037475",
        "url": ""
    },
    {
        "title": "笑到裂开！尼格买提时隔半个月终于对上了：我却被评论区笑死",
        "docid": "7339397492557562420",
        "url": ""
    },
    {
        "title": "湖北元宵节撒钱，看把全国网友急成什么样了？",
        "docid": "7339380158391943706",
        "url": ""
    },
    {
        "title": "这还叫「烂片」？那你该去洗洗眼睛了",
        "docid": "7339330050237547019",
        "url": ""
    },
    {
        "title": "后续来了！全网寻找的杭州高架桥劝架哥找到了，给律师大哥点赞！",
        "docid": "7339421146330579510",
        "url": ""
    },
    {
        "title": "笑掉大牙！在群里发90秒不雅视频的女校长称手机被盗，是小偷发的",
        "docid": "7339596187231633959",
        "url": ""
    },
    {
        "title": "戚薇回应时装周短发造型被吐槽",
        "docid": "7339431777401963049",
        "url": ""
    },
    {
        "title": "《南来北往》大结局，看到姚玉玲结局，网友纷纷喊话编剧出来挨打",
        "docid": "7339540915675202082",
        "url": ""
    },
    {
        "title": "尔冬升痛批朱梓骁：直播带货的样子都像一个鸡爪了",
        "docid": "7339521762264531507",
        "url": ""
    },
    {
        "title": "看懂曾志伟和郝蕾的争执就会明白：“姚安娜”们真的不多！",
        "docid": "7339500149498561087",
        "url": ""
    },
    {
        "title": "破天荒！催收公司为负债男子还清两万多债务",
        "docid": "7339412765729784360",
        "url": ""
    },
    {
        "title": "央视强推健康作息时间表适合摆烂者收藏",
        "docid": "7339554619712127522",
        "url": ""
    },
    {
        "title": "女儿结婚父亲不舍上前拥抱被拒 网友：爸爸的小棉袄秒变钢丝球",
        "docid": "7339724850891850251",
        "url": ""
    },
    {
        "title": "黄晓明发文，陈梦是我们的骄傲，你真的很棒，他俩竟是这种关系",
        "docid": "7339430835076203023",
        "url": ""
    },
    {
        "title": "湖北发布今明两日地质灾害预警",
        "docid": "7339524239575319080",
        "url": ""
    },
    {
        "title": "翻车现场笑料满满《柿柿如意》汤圆制作大揭秘！网友：快yue了！",
        "docid": "7339353498372276777",
        "url": ""
    },
    {
        "title": "连续9场破门！C罗社媒晒庆祝照：坚持到最后一刻，我们永不停歇",
        "docid": "7339659466310255131",
        "url": ""
    },
    {
        "title": "名场面！“双北”组合元宵同框猜灯谜，尼格买提的牌终于对上了",
        "docid": "7339455846353748515",
        "url": ""
    },
    {
        "title": "最新！武汉二七长江大桥解除管控",
        "docid": "7339372883904315914",
        "url": ""
    },
    {
        "title": "“正月理发死舅舅”？｜漫话漫画",
        "docid": "7339534715991015970",
        "url": ""
    },
    {
        "title": "贾玲发滑雪照，疑似回怼恶评，称：风好大，站在山顶的缘故吧",
        "docid": "7339470192944398898",
        "url": ""
    },
    {
        "title": "不能什么锅都让外卖员背",
        "docid": "7339725783029973519",
        "url": ""
    },
    {
        "title": "快递延误4天，致肉品发臭变质 律师：按实际损失赔偿！",
        "docid": "7339550230607577652",
        "url": ""
    },
    {
        "title": "要么在餐桌上，要么在菜单上，美国，失道寡助，必败！",
        "docid": "7339704105592046099",
        "url": ""
    },
    {
        "title": "新春走基层丨冰雪中温暖的“交通蓝”",
        "docid": "7339716802655863359",
        "url": ""
    },
    {
        "title": "震惊！女校长在378人群聊里发不雅视频！教育界到底怎么了",
        "docid": "7339564265726231040",
        "url": ""
    },
    {
        "title": "13岁小孩玩王者荣耀充值1.6w，被家长发现却说：那个号我不要了！",
        "docid": "7339388622560838171",
        "url": ""
    },
    {
        "title": "女校长回复不雅视频，被强烈质疑！有人教最靠谱应急回答，高手啊",
        "docid": "7339711807696699919",
        "url": ""
    },
    {
        "title": "女校长在群里发不雅视频？本人回应：前几天修手机，今天又遇小偷",
        "docid": "7339547730907693620",
        "url": ""
    },
    {
        "title": "闹元宵！湖北大桥上多人在疯狂撒钱，场面壮观，政府出面解释了",
        "docid": "7339419799396549155",
        "url": ""
    },
    {
        "title": "比亚迪仰望U9发布会前热个身，大家猜下价格多少？红色、紫色",
        "docid": "7339484942420607540",
        "url": ""
    },
    {
        "title": "猎冰：阿昌老婆叛变破坏了张颂文的出境计划，只能继续扮猪吃老虎",
        "docid": "7339460704140788287",
        "url": ""
    },
    {
        "title": "盘点宗庆后有多爱国？为升国旗倍感自豪，句句情怀不离国家",
        "docid": "7339582631123780148",
        "url": ""
    },
    {
        "title": "在纠结秦plus还是仰望U9的同学们，这下可以放心了",
        "docid": "7339547979332157967",
        "url": ""
    },
    {
        "title": "#宗庆后因为什么离开我们？#宗庆后得了什么病？#宗庆后得了肺癌",
        "docid": "7339509515559436826",
        "url": ""
    },
    {
        "title": "😳为什么变成我来投了？朱俊龙最后投完跳脚不解",
        "docid": "7339436231459176975",
        "url": ""
    },
    {
        "title": "甘肃网红杨老二去世，亲哥回应：给我弟灌酒的那些人于心可疼？",
        "docid": "7339551878273237554",
        "url": ""
    },
    {
        "title": "有高人预测，2024年可能出现的17个变化，看看准不准",
        "docid": "7339421123186000434",
        "url": ""
    },
    {
        "title": "韩国网友急了，称中国元宵节，抄袭韩国文化？",
        "docid": "7339718890089529908",
        "url": ""
    },
    {
        "title": "医疗界风暴肆虐韩国！25台手术取消，数千名医生集体辞职震撼全国",
        "docid": "7339738274996568628",
        "url": ""
    },
    {
        "title": "夺冠仅8天，《热辣滚烫》被赶下宝座，贾玲的百亿票房目标泡汤了",
        "docid": "7339384815856189990",
        "url": ""
    },
    {
        "title": "【南方人在东北购物被凶哭：地域差异引发的思考】",
        "docid": "7339452328375878184",
        "url": ""
    },
    {
        "title": "车厢都是悲伤开学的大学生，车厢里安静的可怕！网友评论笑不活了",
        "docid": "7339429983103975973",
        "url": ""
    },
    {
        "title": "今年1月赴华韩国游客超14万人次，同比增长908%",
        "docid": "7339730970989445632",
        "url": ""
    },
    {
        "title": "🔥联赛20场22球！马内造点C罗点射，连续9场正式比赛破门",
        "docid": "7339591627649974834",
        "url": ""
    },
    {
        "title": "笑麻了！全网都在看福建人咚咚咚，我却笑死在净炉手小杰的评论区",
        "docid": "7339451668675035658",
        "url": ""
    },
    {
        "title": "笑不活了，年轻人上班不愿意精致打扮冲上热搜，网友评论区笑死",
        "docid": "7339717639977648692",
        "url": ""
    },
    {
        "title": "笑麻了！13岁孩子玩《王者荣耀》偷充1万6，孩子回复肚子都笑疼了",
        "docid": "7339548748986810919",
        "url": ""
    },
    {
        "title": "越闹越大，女校长辩解回应群发不雅视频，我却笑死在了网友评论区",
        "docid": "7339728951084286464",
        "url": ""
    },
    {
        "title": "今日开学！| 西安、陕西将迎新一轮雨雪天气",
        "docid": "7339732720249373224",
        "url": ""
    },
    {
        "title": "笑不活了！景区演员道具刀没了于是开始真演，网友的评论要笑死了",
        "docid": "7339700063834391051",
        "url": ""
    },
    {
        "title": "零零后：不让孩子买贵的东西，可能真的毁了你的孩子。",
        "docid": "7339501926494536218",
        "url": ""
    },
    {
        "title": "闹大了！江西一地推行低价彩礼，评论区女性坐不住了",
        "docid": "7339730790022152731",
        "url": ""
    },
    {
        "title": "闹大了！老人偷拍裙底视频被抓，称是艺术照！评论区炸锅了！",
        "docid": "7339596207473377830",
        "url": ""
    },
    {
        "title": "又闹大了！四川一女校长工作群发不雅视频，是否本人？评论区炸了",
        "docid": "7339717403871379968",
        "url": ""
    },
    {
        "title": "贾玲《热辣滚烫》票房突破32亿，无疑是最大的赢家！",
        "docid": "7339725469996237375",
        "url": ""
    },
    {
        "title": "闹大了！宾利车主持械伤人！还拆除行车记录仪！现实版第二十条！",
        "docid": "7339405301625471497",
        "url": ""
    },
    {
        "title": "广州断桥涉事船只后续：老板裤衩子要赔光，一句话让网友直呼佩服",
        "docid": "7339445980217852442",
        "url": ""
    },
    {
        "title": "四川女校长泄露90秒不雅视频，事后称手机被偷窃，并不是本人",
        "docid": "7339733626265190924",
        "url": ""
    },
    {
        "title": "比亚迪仰望U9正式发布，来看一段U9的灯光秀及原地掉头！",
        "docid": "7339541613016056320",
        "url": ""
    },
    {
        "title": "女子跟好朋友嫁到一个村，两人先后怀孕差4个月：以后干啥都有伴",
        "docid": "7339408321360855603",
        "url": ""
    },
    {
        "title": "#南来北往 姚儿终究为自己的虚荣付出了代价！ #白敬亭 #刘冠麟 #",
        "docid": "7339515214515143168",
        "url": ""
    },
    {
        "title": "# #猎冰 #张颂文新剧猎冰#因为一个片段看了整部剧",
        "docid": "7339543085459866127",
        "url": ""
    },
    {
        "title": "仰望U9今上市，2秒级，极速309 #仰望u9 #抖音汽车 #比亚迪",
        "docid": "7339513828977476159",
        "url": ""
    },
    {
        "title": "闹大了！四川一学校群惊现90秒不雅视频，女校长：小偷偷了我手机",
        "docid": "7339573543745356339",
        "url": ""
    },
    {
        "title": "演唱会突发！张学友：再来一次……",
        "docid": "7339725527127360000",
        "url": ""
    },
    {
        "title": "福建游神的竞如首小哥哥",
        "docid": "7339517354575086120",
        "url": ""
    },
    {
        "title": "\"多校未找到巴黎遗失寒假作业的秦朗，秦朗舅舅改名删除视频\"",
        "docid": "7339383116886966818",
        "url": ""
    },
    {
        "title": "港娱顶流阿仪又出新作，化身手机ai女友！网友：核突报警！",
        "docid": "7339447322956284416",
        "url": ""
    },
    {
        "title": "笑麻了！为何年轻人上班不愿意精致打扮，我却笑晕在网友评论区里",
        "docid": "7339558290600444428",
        "url": ""
    },
    {
        "title": "笑不活了！景区演员道具刀没了，于是开始真演，让我笑死在评论区",
        "docid": "7339676804841587237",
        "url": ""
    },
    {
        "title": "笑喷了！原来是山东人，女子穿得太恶心被领导找谈话多次",
        "docid": "7339459688397816354",
        "url": ""
    },
    {
        "title": "开始懂了李白的浪漫！男子在庐山下拍摄到了令人陶醉的瀑布景象！",
        "docid": "7339706697595945512",
        "url": ""
    },
    {
        "title": "郝蕾怼朱梓骁：不能哪有钱就往哪去！导师说再吃下去就变成鸡爪了",
        "docid": "7339429127831355938",
        "url": ""
    },
    {
        "title": "和尚也爱女主播！四川一主持约女主播发生关系，佛教协会：开除！",
        "docid": "7339698610093441588",
        "url": ""
    },
    {
        "title": "32岁女孩面临“新型催生”，妈妈让女儿跳过结婚直接生娃",
        "docid": "7339361889073349154",
        "url": ""
    },
    {
        "title": "美国男演员泰勒·派瑞心里发慌：OpenAI的Sora将给人们带来失业潮",
        "docid": "7339504271324365312",
        "url": ""
    },
    {
        "title": "笑喷，为何年轻人上班穿搭越来越丑？网友的评论给我笑晕了",
        "docid": "7339693573970969138",
        "url": ""
    },
    {
        "title": "票房女王实至名归！马丽电影总票房超181亿！评论区沦陷了！",
        "docid": "7339432759624188427",
        "url": ""
    },
    {
        "title": "袁姗姗现身米兰时装周，坚挺的鼻子十分亮眼，笑死在网友评论区。",
        "docid": "7339714774399271462",
        "url": ""
    },
    {
        "title": "《飞驰人生2》票房破30亿，主演全员发诗！沈腾感人孙艺洲搞笑",
        "docid": "7339744250248331810",
        "url": ""
    },
    {
        "title": "任正非曾公开支持姚安娜搞文艺：小孩都是靠自己努力，不堵她的路",
        "docid": "7339751068936749580",
        "url": ""
    },
    {
        "title": "电影《白日之下》定档4月12日",
        "docid": "7339748336678847010",
        "url": ""
    },
    {
        "title": "尘埃落定？65岁或将成为延迟退休最终结果！你觉得合适吗？",
        "docid": "7339740484367778314",
        "url": ""
    },
    {
        "title": "王石变的更加温柔，成熟，有魅力老男人",
        "docid": "7339701928265351719",
        "url": ""
    },
    {
        "title": "笑喷了！釜山世乒赛观众席斗舞，实力不详，遇日则强！评论区笑死",
        "docid": "7339510847430984255",
        "url": ""
    },
    {
        "title": "江西高价彩礼谈判现场，最后敲定19万8，当场付一半定金秒变脸！",
        "docid": "7339520108416942643",
        "url": ""
    },
    {
        "title": "山东一女子因穿的太恶心被领导叫去谈话！网友评论：笑拥了！",
        "docid": "7339753490237178377",
        "url": ""
    },
    {
        "title": "周杰伦长沙演唱会定档，周边酒店涨价超4倍",
        "docid": "7339475576724128319",
        "url": ""
    },
    {
        "title": "职场“恶心穿搭”越来越普遍，何谓恶心穿搭？为何会有这种现象？",
        "docid": "7339755797855191579",
        "url": ""
    },
    {
        "title": "曝光！四川美女校长神秘失踪，90秒视频引人猜测，真相竟是？",
        "docid": "7339724436922630683",
        "url": ""
    },
    {
        "title": "笑麻了！为何年轻人上班不愿意精致打扮，笑死在00后网友的评论区",
        "docid": "7339749034850370063",
        "url": ""
    },
    {
        "title": "殷墟博物馆新馆正式开馆，3000多年人力车首次公开亮相",
        "docid": "7339736639587435044",
        "url": ""
    },
    {
        "title": "笑死了！女校长回应大群发90秒不雅视频，我却笑晕在网友评论区里",
        "docid": "7339573281772716563",
        "url": ""
    },
    {
        "title": "曼联发文悼念娃哈哈创始人宗庆后，双方曾合作推出球星纪念罐饮料",
        "docid": "7339764128174866959",
        "url": ""
    },
    {
        "title": "C罗在场上做出不雅动作，梅西将球踢向对方粉丝",
        "docid": "7339752750756708876",
        "url": ""
    },
    {
        "title": "清华博士AI教父李一舟的AI课卖了5,000万，是因为清华还是AI？",
        "docid": "7339747642689307155",
        "url": ""
    },
    {
        "title": "\"贝克汉姆发图疑讽梅西，足坛再掀波澜，两大巨星或将分道扬镳！\"",
        "docid": "7339741652917568011",
        "url": ""
    },
    {
        "title": "我也好想出去跑步啊",
        "docid": "7339412010192863756",
        "url": ""
    },
    {
        "title": "女校长的困境，不雅视频和手机被盗是巧合？还是另有隐情",
        "docid": "7339709501345595944",
        "url": ""
    },
    {
        "title": "童子身净炉手“小杰”爆火！全网都知道他单身！评论区笑料百出！",
        "docid": "7339707891126927883",
        "url": ""
    },
    {
        "title": "一球迷举标语：我卖了车来看梅西苏牙布斯克茨，请给我你们的球衣",
        "docid": "7339717546318840360",
        "url": ""
    },
    {
        "title": "宾利后续：表哥刑拘，杭州受牵连，比亚迪蹭热点，律师称先还房贷",
        "docid": "7339741238175859234",
        "url": ""
    },
    {
        "title": "尴尬！四川女校长群内发不雅视频？女校长回应了，网友不买账！",
        "docid": "7339746605496713755",
        "url": ""
    },
    {
        "title": "一代“宗”师的落幕，宗庆后留给世人的是：娃哈哈的创业精神",
        "docid": "7339483355199062554",
        "url": ""
    },
    {
        "title": "妻子第四胎终于生下儿子，丈夫下跪感谢。网友：真爱？假爱？",
        "docid": "7339720077287293475",
        "url": ""
    },
    {
        "title": "杭州一宾利司机打人详情！警方辟谣，网友都佩服",
        "docid": "7339756923195195938",
        "url": ""
    },
    {
        "title": "四川一女校长在群里发不雅视频，本人回应手机被偷，网友：不相信",
        "docid": "7339738365027254824",
        "url": ""
    },
    {
        "title": "社死！四川女校长群内发不雅视频？女校长回应来了，网友不买账！",
        "docid": "7339741794080670271",
        "url": ""
    },
    {
        "title": "闹大了！65岁成延迟退休调整最终结果？评论炸锅：那还交社保吗？",
        "docid": "7339545553011048975",
        "url": ""
    },
    {
        "title": "马云发挽联悼念宗庆后：人生搏击四十不晚，开拓者精神；创业千难夙夜求新，企业家本色",
        "docid": "7339718733386400265",
        "url": ""
    },
    {
        "title": "痛心!南京火灾后续:一对情侣遇难原计划结婚，父母至今无法接受",
        "docid": "7339765336465965620",
        "url": ""
    },
    {
        "title": "超无语！娃哈哈创始人宗庆后逝世，网友：不孝有三，无后为大。",
        "docid": "7339747541967340044",
        "url": ""
    },
    {
        "title": "古代人没有“五险一金”，能安度晚年吗？",
        "docid": "7339506341969003058",
        "url": ""
    },
    {
        "title": "很危险！合肥不少小区发现了",
        "docid": "7339736581655462434",
        "url": ""
    },
    {
        "title": "国乒釜山包揽男女团体冠军，马龙微博晒照：18年9冠，感谢支持",
        "docid": "7339732055560913471",
        "url": ""
    },
    {
        "title": "时间定了！油价即将调整",
        "docid": "7339771550654661135",
        "url": ""
    },
    {
        "title": "为什么有的人再吵也能睡着，有的人一点声音都会惊醒？",
        "docid": "7339156764208693775",
        "url": ""
    },
    {
        "title": "硬刚到底！不买五万手镯事件还没完，田女士曝出导游骂人怼人视频",
        "docid": "7339767140608360987",
        "url": ""
    },
    {
        "title": "观众愤怒！《热辣滚烫》成中国电影病态现象典型，艺术何在？",
        "docid": "7339607025627709963",
        "url": ""
    },
    {
        "title": "太变态！老人偷拍被抓，相册有6万多张女生照片，评论区炸锅了！",
        "docid": "7339726220780667433",
        "url": ""
    },
    {
        "title": "东北媳妇在广东被广东红包“震撼”到了，我很喜欢这里的文化",
        "docid": "7339704108317671987",
        "url": ""
    },
    {
        "title": "事态升级！比亚迪劝架车主找到了，身份果然不一般，全网热议",
        "docid": "7339489524420313652",
        "url": ""
    },
    {
        "title": "网红互联网上挥金如土众人追捧，赵丽娜在生活中缝缝补补却遭怒喷",
        "docid": "7339449185328775680",
        "url": ""
    },
    {
        "title": "点赞！比亚迪员工怒怼领导下班开会，领导全程冷漠脸，网友怒了！",
        "docid": "7339771051188060713",
        "url": ""
    },
    {
        "title": "心酸儿女硬拉送老人去养老院老人抗拒上了热搜？那么老人该去哪？",
        "docid": "7339768987284161063",
        "url": ""
    },
    {
        "title": "疑似猫牙？兔肉餐引发食安疑云，店家回应：去鉴定！别蒙我",
        "docid": "7339469722620232227",
        "url": ""
    },
    {
        "title": "龙年多地医院新生儿增长明显冲上热搜，引发热议，评论区笑死",
        "docid": "7339776400599204378",
        "url": ""
    },
    {
        "title": "娃哈哈创始人走了，我们再也没有娃哈哈喝了呀，怎么办？",
        "docid": "7339532655966405170",
        "url": ""
    },
    {
        "title": "女子生下四胎，丈夫看到性别顿时下跪磕头，女子感动泪奔！",
        "docid": "7339459082958471707",
        "url": ""
    },
    {
        "title": "郭晶晶受邀米兰时装周，堪称时尚界“清流”，简单自然不同凡响！",
        "docid": "7339709905672159763",
        "url": ""
    },
    {
        "title": "C罗或将受处罚！球迷高喊梅西惹怒C罗，做不雅动作予以回击被调查",
        "docid": "7339757082033570343",
        "url": ""
    },
    {
        "title": "宾利车主伤人后续：已被抓，劝架者奖励20万，网友：茶刀火了？",
        "docid": "7339502202261897747",
        "url": ""
    },
    {
        "title": "杭州宾利男长点心吧，可得好好感谢下黑衣大哥，不然必定牢底坐穿",
        "docid": "7339414337410449960",
        "url": ""
    },
    {
        "title": "标题：娃哈哈接班人宗馥莉：多重身份大揭秘，引领中国品牌新风潮",
        "docid": "7339756372013695522",
        "url": ""
    },
    {
        "title": "笑麻了，四川女校长微信群发不雅视频，本人回应了，评论区笑死了",
        "docid": "7339563897122406975",
        "url": ""
    },
    {
        "title": "闹大了，女老师网恋结果惨遭杀猪盘被骗400万，网友：你哪来的钱",
        "docid": "7339432106289971724",
        "url": ""
    },
    {
        "title": "江西推进婚俗改革，低彩礼夫妻，子女优先择校，江西人：不可能！",
        "docid": "7339750883087385151",
        "url": ""
    },
    {
        "title": "越闹越大！女校长群发90秒不雅视频，甩锅小偷，小偷：还我清白！",
        "docid": "7339750774211117609",
        "url": ""
    },
    {
        "title": "全国各地春节接待游客数量，你去这些地方旅游了吗？",
        "docid": "7339762287705932299",
        "url": ""
    },
    {
        "title": "为什么现在很多人卖房不通过中介了",
        "docid": "7339698608004268583",
        "url": ""
    },
    {
        "title": "重庆不需要神，因为重庆人民就很神 ​​​",
        "docid": "7339060998169281035",
        "url": ""
    },
    {
        "title": "又破纪录！杭州什么时候放晴回暖？就在这一天",
        "docid": "7339798268953805327",
        "url": ""
    },
    {
        "title": "笑不活了！爸爸送娃上学撂下就走，结果学校没开门，笑死在评论区",
        "docid": "7339753765995627035",
        "url": ""
    },
    {
        "title": "老人偷拍被抓！手机里有六万张女生照片，老人：这是艺术照啊！",
        "docid": "7339516022371746315",
        "url": ""
    },
    {
        "title": "老人重庆商场偷拍小女孩被抓，一声妹妹 6万张照片，真是毁三观",
        "docid": "7339553409509229068",
        "url": ""
    },
    {
        "title": "闹大了！重庆老人商场偷拍被抓，一声妹妹6万存照！评论区炸锅了",
        "docid": "7339776298060939803",
        "url": ""
    },
    {
        "title": "笑不活了！福建民俗请神明看电影，搞笑版:请神容易送神难！",
        "docid": "7339762403720544783",
        "url": ""
    },
    {
        "title": "宾利施暴，比亚迪躺赢。网友：这二十万广告费真值！",
        "docid": "7339559017649455616",
        "url": ""
    },
    {
        "title": "婚俗改革先行者江西崇义：彩礼最高3.9万元，女同志们不乐意了",
        "docid": "7339778321397563955",
        "url": ""
    },
    {
        "title": "越描越黑！女校长回应大群发90秒不雅视频，网友评论承包一天笑点",
        "docid": "7339785350849593892",
        "url": ""
    },
    {
        "title": "好事不留名！宾利车主悔恨不已，劝架车主比亚迪奖励20万元",
        "docid": "7339778122843341338",
        "url": ""
    },
    {
        "title": "不该跪？广东网红丈夫跪谢妻子第四胎生儿子，国外网友评论丑陋！",
        "docid": "7339783716014686730",
        "url": ""
    },
    {
        "title": "“宾利司机伤人事件”劝架车主获重奖：20万元+车辆终身免费维保",
        "docid": "7339572709308875316",
        "url": ""
    },
    {
        "title": "太炸裂！企业家说女性应伏低做小被怼，俞渝开口受称赞，高下立判",
        "docid": "7339447932652913186",
        "url": ""
    },
    {
        "title": "五门五座设计！宝骏悦也PLUS实车曝光：一季度有望上市",
        "docid": "7339767457936343561",
        "url": ""
    },
    {
        "title": "头部中3枪！台湾男子在泰国曼谷机场附近被杀抛尸！",
        "docid": "7339782133051425334",
        "url": ""
    },
    {
        "title": "宗庆后因肺癌去世！曾被资本玩弄，差点被吃掉？最后露面照片曝光",
        "docid": "7339615484729639461",
        "url": ""
    },
    {
        "title": "炸裂！女校长工作群里发不雅视频，内容不堪入目！回应了但没用",
        "docid": "7339754398752834058",
        "url": ""
    },
    {
        "title": "贾跃亭朋友圈怒斥高合汽车：“行业的耻辱”，创始人丁磊曾是乐视汽车联创",
        "docid": "7339758512735748608",
        "url": ""
    },
    {
        "title": "贾玲不忍了！《热辣滚烫》恶评如潮，贾玲忍不住发文暗讽人",
        "docid": "7339543006426759707",
        "url": ""
    },
    {
        "title": "希望他们每天都这么开心，永远不需要出警@消防员",
        "docid": "7339776380919759379",
        "url": ""
    },
    {
        "title": "农村自建房门头过宽挡路，遭邻居拿工具上门强拆，看全景事件反转",
        "docid": "7339447531866489385",
        "url": ""
    },
    {
        "title": "中国股市什么时候能站起来？来自英美争霸的启示",
        "docid": "7339770639940911625",
        "url": ""
    },
    {
        "title": "正播2月26日梅西！93分钟，1比1绝平！球王最牛进球！拯救迈阿密",
        "docid": "7339711974860816937",
        "url": ""
    },
    {
        "title": "马燕终于见到爸爸最后一面了，我爆哭！#南来北往  # #南来北往笑",
        "docid": "7339552029167223331",
        "url": ""
    },
    {
        "title": "看了第二十条，很感触，建议大家观看。法不能向不法让步！",
        "docid": "7339565094206079528",
        "url": ""
    },
    {
        "title": "刘诗诗现身米兰时装周，被男粉当场表白，场面尴尬引热议",
        "docid": "7339760105803481634",
        "url": ""
    },
    {
        "title": "男子车门把手遭到冻雨洗礼，用力按拳头砸都没反应，这下真隐藏了",
        "docid": "7339791077265637888",
        "url": ""
    },
    {
        "title": "越闹越大，女校长辩解回应群发不雅视频，我却笑死在了网友评论区",
        "docid": "7339589439788089891",
        "url": ""
    },
    {
        "title": "开播！国内首部文生视频AI动画片《千秋诗颂》今晚亮相总台综合频道",
        "docid": "7339799881974039080",
        "url": ""
    },
    {
        "title": "全部拉开！杜兰特疯狂单挑詹姆斯，各种神操作秀得对方找不着北",
        "docid": "7339708375791305227",
        "url": ""
    },
    {
        "title": "轩逸官降到6.98万了！真的要感谢比亚迪啊",
        "docid": "7339465960791343679",
        "url": ""
    },
    {
        "title": "烟火人家：李衣锦被周到爷爷奶奶骂没家教，孟明玮瞬间气炸了",
        "docid": "7339584383751455267",
        "url": ""
    },
    {
        "title": "世乒赛决赛中国男团！决胜局樊振东正手全面进攻，勒布伦绝望跪地",
        "docid": "7339524975919497763",
        "url": ""
    },
    {
        "title": "听到陈拾说不走了留下来…猫猫开心的掩饰不了一点耶…",
        "docid": "7339534027654857216",
        "url": ""
    },
    {
        "title": "他可是小日子球迷的仙道啊#中国男篮vs日本男篮 #无与伦比",
        "docid": "7339530014687396363",
        "url": ""
    },
    {
        "title": "全国劳动模范，全国五一劳动奖章获得者",
        "docid": "7339469872562176531",
        "url": ""
    },
    {
        "title": "武昌江滩 霰停了 冰粒停了",
        "docid": "7339540136528445979",
        "url": ""
    },
    {
        "title": "景区许愿池堆满无数现金，香烟瓜果各式各样，网友的算盘子打太响",
        "docid": "7339779425372013095",
        "url": ""
    },
    {
        "title": "英歌队小伙带妆吃饭整个五官都在用力，涂了口红的人都这么吃东西",
        "docid": "7339710650710819367",
        "url": ""
    },
    {
        "title": "仨小孩玩擦炮引发山火，公安机关对其监护人作出顶格处罚，罚款将近30万元",
        "docid": "7339474894297989672",
        "url": ""
    },
    {
        "title": "天呐，妈妈管得很严，晚上不让爸爸出门，文采过人，童言无忌",
        "docid": "7339464257748517386",
        "url": ""
    },
    {
        "title": "南京失火后续：居民回家寻贵重物，曝出房间照片，看完倒吸凉气",
        "docid": "7339716786461393434",
        "url": ""
    },
    {
        "title": "贾玲给雷佳音打电话“咱俩有床戏”，雷佳音：得了，这次又演渣男",
        "docid": "7339736355250913804",
        "url": ""
    },
    {
        "title": "因为一条视频，“网红鼻祖”papi酱公司被罚！",
        "docid": "7339801613496140327",
        "url": ""
    },
    {
        "title": "第74届柏林电影节闭幕，《空房间里的女人》《夏日句点》等5部华语片获好评",
        "docid": "7339814159321973260",
        "url": ""
    },
    {
        "title": "笑麻了！赴华韩国游客量增超900%，网友：不认为他们纯粹旅游！",
        "docid": "7339735620157506100",
        "url": ""
    },
    {
        "title": "梅西绝平球过程：梅西两次分球给阿尔巴，随后自己插上破门",
        "docid": "7339764680653423130",
        "url": ""
    },
    {
        "title": "社会 | 看电影成为新年俗",
        "docid": "7339803233507967522",
        "url": ""
    },
    {
        "title": "辣眼睛！培训学校女校长90秒不雅视频流出 本人第一时间回应",
        "docid": "7339704502372549159",
        "url": ""
    },
    {
        "title": "越闹越大! 不雅视频后续: 女校长回应来了，网友不买账，评论区炸裂",
        "docid": "7339798035024822795",
        "url": ""
    },
    {
        "title": "闹大了！梅西球迷挑衅，C罗做不雅动作回应！网友纷纷站队，笑死",
        "docid": "7339797583621784104",
        "url": ""
    },
    {
        "title": "闹大了！教育机构女校长不雅视频后续：公司不正规，教育局回应",
        "docid": "7339762274112438810",
        "url": ""
    },
    {
        "title": "C罗 涉不雅动作：回应球迷呼喊梅西，将受官方调查",
        "docid": "7339805181070639642",
        "url": ""
    },
    {
        "title": "王者陷阱！男孩偷偷花掉外婆一万六积蓄，自称人生无常大肠包小肠",
        "docid": "7339716731474149903",
        "url": ""
    },
    {
        "title": "网友们炸锅了！与高彩礼说拜拜，江西打响第一枪！",
        "docid": "7339800842893083136",
        "url": ""
    },
    {
        "title": "阿娇出 柜再添实锤?与皇甫圣华情人节同游沙特，被指酷似陈冠希",
        "docid": "7339727021486899727",
        "url": ""
    },
    {
        "title": "这回，女校长在300多人的群里散播不雅视频，差点被人揭得底朝天",
        "docid": "7339791959638278696",
        "url": ""
    },
    {
        "title": "被日本后卫打爆！CBA两届FMVP的赵继伟 为何一到FIBA赛场就不行？",
        "docid": "7339776186874216975",
        "url": ""
    },
    {
        "title": "梅西数据：打进绝平球，7次射门3射正，贡献2抢断，8.4分全场第2",
        "docid": "7339759505813193268",
        "url": ""
    },
    {
        "title": "笑麻了，江西崇义规定男方给彩礼不能超过3.9万，网友评论区笑死",
        "docid": "7339787266812166690",
        "url": ""
    },
    {
        "title": "C罗进球后被喊梅西后作出“不雅”手势？网友：就喜欢这种霸气",
        "docid": "7339766068531184154",
        "url": ""
    },
    {
        "title": "女子生3女儿又拼4胎，一番话让人心疼，丈夫回应令妻子泪崩",
        "docid": "7339784741165761024",
        "url": ""
    },
    {
        "title": "赵丽娜直播痛哭怒斥：我拿过亚洲杯冠军，退役接个代言怎么了",
        "docid": "7339820749114753547",
        "url": ""
    },
    {
        "title": "最新后续！四川美女校长工作群发不雅视频，网友：要细查女校长！",
        "docid": "7339764661966930467",
        "url": ""
    },
    {
        "title": "闹大了，离婚带婴儿回娘家，过节被哥哥赶走，我哭死在网友评论区",
        "docid": "7339790057362768435",
        "url": ""
    },
    {
        "title": "广东女子四胎生子出院时丈夫跪谢，网友评论区：是个女儿还跪吗？",
        "docid": "7339794067121324570",
        "url": ""
    },
    {
        "title": "劲爆！又见不雅视频，这次是四川女校长",
        "docid": "7339811915252007464",
        "url": ""
    },
    {
        "title": "闹大了!女校长微信百人群发不良视频公司疑似甩锅!教育局回应来了",
        "docid": "7339819969020166683",
        "url": ""
    },
    {
        "title": "新学期“龙”重启航 | 新黄河镜相",
        "docid": "7339798037357281832",
        "url": ""
    },
    {
        "title": "闹大了！延迟退休预调至65岁引热议：社保还有必要交吗？评论炸锅",
        "docid": "7339803586613969420",
        "url": ""
    },
    {
        "title": "江西推进婚俗改革：男方给女方彩礼不得超过3.9万元",
        "docid": "7339548439883661858",
        "url": ""
    },
    {
        "title": "火力分散☀️太阳首发五虎得分全部18+ 队史自2001年以来首次",
        "docid": "7339706682504905242",
        "url": ""
    },
    {
        "title": "这位49岁男演员因渐冻症去世，曾出演《惊奇队长》《星际迷航》",
        "docid": "7339839153284186664",
        "url": ""
    },
    {
        "title": "湖人113-123不敌太阳 球员评分：2人完美、4人达标、3人不及格",
        "docid": "7339536858344784399",
        "url": ""
    },
    {
        "title": "米兰这一夜，44岁汤唯告诉你，弱不禁风不叫美，珠圆玉润才有韵味",
        "docid": "7339837203151438351",
        "url": ""
    },
    {
        "title": "拉塞尔20+3+7，詹姆斯28+7+12，湖人113-123不敌太阳！",
        "docid": "7339654420478771766",
        "url": ""
    },
    {
        "title": "张颂文新剧《猎冰》首轮口碑出炉！观众的评价和打分都一针见血",
        "docid": "7339344129169556019",
        "url": ""
    },
    {
        "title": "华为之女姚安娜：横扫荧屏《猎冰》新星，开播不到3小时火爆全网",
        "docid": "7339833846978249251",
        "url": ""
    },
    {
        "title": "跪地感谢妻子生四胎男子回应质疑",
        "docid": "7339817531819328000",
        "url": ""
    },
    {
        "title": "“十四冬”花滑王诗玥/柳鑫宇冰舞夺金，加冕双冠王",
        "docid": "7339821790040523298",
        "url": ""
    },
    {
        "title": "《烟火人间》孙千 陈靖可同住一单元 梦想照进现实 疑似恋情曝光",
        "docid": "7339751516578120207",
        "url": ""
    },
    {
        "title": "时隔两年半传奇队长重回伯纳乌，托尼带水再现只是这次是解围😭",
        "docid": "7339668832342082063",
        "url": ""
    },
    {
        "title": "湿地公园监控夜间拍下不雅视频？警方已介入，律师：擅自将视频外泄涉嫌违法",
        "docid": "7339835691977015862",
        "url": ""
    },
    {
        "title": "新物料释出速度好快，肖战和文淇的新合照新鲜出炉，帅酷有型。",
        "docid": "7339547492881269275",
        "url": ""
    },
    {
        "title": "迪丽热巴以黑唇魔女的形象亮相让人难以忘怀",
        "docid": "7339684321462207013",
        "url": ""
    },
    {
        "title": "汤普森前12分钟轰23分！之后19分钟没有得分",
        "docid": "7339738062509048374",
        "url": ""
    },
    {
        "title": "刘国梁赶紧介入！樊振东在韩国受欺负，球迷担心在巴黎奥运会被整",
        "docid": "7339785152261898788",
        "url": ""
    },
    {
        "title": "女大学生独游峨眉山失联19日，母亲：她从监控消失的地方已找遍",
        "docid": "7339842509726024192",
        "url": ""
    },
    {
        "title": "偷拍多部私密视频在境外情色网站传播，“网黄者”涉两罪获刑！",
        "docid": "7339823096742511113",
        "url": ""
    },
    {
        "title": "徐杰躲球，程帅澎不敢接球！网暴张镇麟恶果出现，没人敢投绝杀了",
        "docid": "7339798583031595572",
        "url": ""
    },
    {
        "title": "😳湖人下半场0罚球 全场罚球比8-19落后太阳",
        "docid": "7339679417763054130",
        "url": ""
    },
    {
        "title": "网友反映白山一滑雪场发生事故，当地回应：系吊椅故障，离地面只有50厘米，已处理",
        "docid": "7339807218952339994",
        "url": ""
    },
    {
        "title": "被刘诗诗的穿搭惊艳了，米兰这天她穿“白色大长裙”，优雅又贵气",
        "docid": "7339740144980935202",
        "url": ""
    },
    {
        "title": "世乒赛夺冠后，马龙宣布生涯意外决定，樊振东遗憾，球迷心疼。",
        "docid": "7339789135672427042",
        "url": ""
    },
    {
        "title": "杨超越起诉义乌两家网店侵犯肖像权，案件即将开庭",
        "docid": "7339819560759722559",
        "url": ""
    },
    {
        "title": "西部大乱！快船输球跌至第四 太阳独行侠一升一降 湖人勇士展开厮杀",
        "docid": "7339771087439348278",
        "url": ""
    },
    {
        "title": "动容！陈梦孙颖莎夺冠后受访落泪：已拼尽了全力，我们为自己感动",
        "docid": "7339563087294415370",
        "url": ""
    },
    {
        "title": "《熊出没·逆转时空》成内地影史国产动画电影票房第二，仅次于《哪吒之魔童降世》",
        "docid": "7339840182642229810",
        "url": ""
    },
    {
        "title": "《封神》法国上映掀起热潮，外网：封神比漫威好看",
        "docid": "7339456018000314930",
        "url": ""
    },
    {
        "title": "国乒严阵以待静候日本挑战，张本美和：中国队5个人我都没赢过",
        "docid": "7339471568366109220",
        "url": ""
    },
    {
        "title": "中国球迷哀叹我们随时可能输给日本队,日媒这样评价中日女乒决赛",
        "docid": "7339534784995361321",
        "url": ""
    },
    {
        "title": "🚢一路退！快船跌至西部第四 掘金升到第三",
        "docid": "7339772180621886002",
        "url": ""
    },
    {
        "title": "小尼的牌对上了！热搜第一！何炅撒贝宁同框",
        "docid": "7339492107595383350",
        "url": ""
    },
    {
        "title": "大国重器甬舟号盾构机涂装“瑞龙”下线，将用于世界最长海底高铁隧道开挖掘进",
        "docid": "7339808285723476543",
        "url": ""
    },
    {
        "title": "南充一汽车拖人行驶？派出所：涉事司机和被拖行男子有纠纷",
        "docid": "7339798170504921611",
        "url": ""
    },
    {
        "title": "《大理寺少卿游》开播就槽声一片！任敏女扮男装遭炮轰，太不容易",
        "docid": "7339556769138426405",
        "url": ""
    },
    {
        "title": "男子醉驾致人死亡8年后再次醉驾，“马路杀手”开车上路当有预警机制",
        "docid": "7339838925974127119",
        "url": ""
    },
    {
        "title": "前国足主帅扬科维奇“下课”，笑死在网友的评论区了，哈哈哈",
        "docid": "7339493548401705472",
        "url": ""
    },
    {
        "title": "泪目！中国男篮88年来首负日本，队内MVP自责落泪，砍23+13尽全力",
        "docid": "7339510328838947391",
        "url": ""
    },
    {
        "title": "砍28+12湖人客场不敌太阳，持续记录更新老詹生涯常规赛数据排名",
        "docid": "7339707336107868687",
        "url": ""
    },
    {
        "title": "詹姆斯28+12杜兰特22+7 太阳主场力克湖人",
        "docid": "7339740615611384356",
        "url": ""
    },
    {
        "title": "😆3小时体验卡！勇士不敌掘金再掉第10 送湖人回到第9！",
        "docid": "7339735077942788634",
        "url": ""
    },
    {
        "title": "激荡职场！比亚迪员工惊爆下班怒怼领导，后续曝光引关注！",
        "docid": "7339738229379842560",
        "url": ""
    },
    {
        "title": "台湾男子在曼谷机场附近遭枪杀：系在逃通缉犯，疑遭仇杀",
        "docid": "7339794821001052706",
        "url": ""
    },
    {
        "title": "闹大了！女子上班穿搭太恶心被领导谈话上热搜，没想到也被网友骂",
        "docid": "7339831973298569728",
        "url": ""
    },
    {
        "title": "贾玲难道要黄了？评论区骂声一片，《热辣滚烫》纪录片悄然撤档",
        "docid": "7339832864873333275",
        "url": ""
    },
    {
        "title": "即日起！灵活就业人员可在武汉缴存住房公积金了",
        "docid": "7339820216886952488",
        "url": ""
    },
    {
        "title": "贾玲评论区沦陷：言论边界引发思考！纪录片停播，艺人言论何在？",
        "docid": "7339776178930172468",
        "url": ""
    },
    {
        "title": "当32岁肖战和20岁文淇站在一起，我才彻底明白，什么是顶级骨相",
        "docid": "7339844467505087028",
        "url": ""
    },
    {
        "title": "对不起，我弃剧了！《猎冰》张颂文都带不动这个“拖油瓶”",
        "docid": "7339829228218712617",
        "url": ""
    },
    {
        "title": "16天票房破30.61亿，沈腾定律要应验了，贾玲的年度冠军保不住？",
        "docid": "7339852707660366376",
        "url": ""
    },
    {
        "title": "布林肯露骨发言：“如果你不坐在餐桌上，你就会出现在菜单上”",
        "docid": "7339848901698077225",
        "url": ""
    },
    {
        "title": "你被人拖欠过工程款吗？网友：要么吃不上饭，要么寻衅滋事！",
        "docid": "7339853716478263817",
        "url": ""
    },
    {
        "title": "张安达第15局“怒摔球杆”，艾伦彻底乱了节奏，58-7扳回一局",
        "docid": "7339713950696800803",
        "url": ""
    },
    {
        "title": "本轮雨雪天气宣告结束",
        "docid": "7339863928867111436",
        "url": ""
    },
    {
        "title": "闹大了！江西一地新规: 彩礼不得超过3.9万，我却笑死在评论区里",
        "docid": "7339831050707157541",
        "url": ""
    },
    {
        "title": "小伙骑车被冻出冰块，脸是冷的评论区是暖的，好脏的商战！",
        "docid": "7339808139703239203",
        "url": ""
    },
    {
        "title": "江西彩礼30多万，现场谈判，紧张氛围胜过医保砍价",
        "docid": "7339751260498936332",
        "url": ""
    },
    {
        "title": "闹大了！女校长群内发不雅视频？女校长回应太离谱，网友不买账",
        "docid": "7339850667139482166",
        "url": ""
    },
    {
        "title": "赵世子“内胆”因长相走红，身高190颜值出众，遭女网友围观追捧",
        "docid": "7339839502971732520",
        "url": ""
    },
    {
        "title": "迷惑！女子被骗后竟加入诈骗组织 还与上家发展成情侣",
        "docid": "7339854315404034587",
        "url": ""
    },
    {
        "title": "央视元宵晚会收视断层第一！小尼挽尊，0713创收视高潮，有望破9",
        "docid": "7339739636401209908",
        "url": ""
    },
    {
        "title": "观众愤怒！《热辣滚烫》成中国电影病态现象典型，艺术何在？",
        "docid": "7339831970270249526",
        "url": ""
    },
    {
        "title": "二手衣物变“孤品”！直播间这样的衣服你敢买吗？",
        "docid": "7339763252731478543",
        "url": ""
    },
    {
        "title": "婚姻不是生意！相亲189次最终选择凑合结婚，意义何在？",
        "docid": "7339831296375800360",
        "url": ""
    },
    {
        "title": "尼日利亚奈拉年内贬值近70%，央行预计将大幅加息保汇率",
        "docid": "7339852217345901110",
        "url": ""
    },
    {
        "title": "斩获今年首球！梅西2005年至今连续20年取得进球",
        "docid": "7339758747898528310",
        "url": ""
    },
    {
        "title": "外媒：美国一男子偷听妻子电话后买卖股票获利",
        "docid": "7339857644091408950",
        "url": ""
    },
    {
        "title": "慢阻肺患者遭遇不同病毒“连击”！专家：专科专治很必要",
        "docid": "7339843926809362983",
        "url": ""
    },
    {
        "title": "广州“制衣村”迎招工潮，老板们称日薪低于500招不到工，务工人员:“一小时30块钱我看不上”",
        "docid": "7339796950029664807",
        "url": ""
    },
    {
        "title": "翻车了？C罗做不雅动作回应球迷喊梅西，网友：系惯犯，令人恶心",
        "docid": "7339811116421284406",
        "url": ""
    },
    {
        "title": "南京小区失火后续：居民回家寻金首饰，曝出房间照片，烧得只剩墙",
        "docid": "7339579833280053810",
        "url": ""
    },
    {
        "title": "猎冰：谁才是真正的大嫂？张颂文极限三选一，结局令人意外",
        "docid": "7339697268880212531",
        "url": ""
    },
    {
        "title": "女子实名举报被武汉一民警强奸 当地派出所回应",
        "docid": "7339880068950753802",
        "url": ""
    },
    {
        "title": "马云挽联悼念娃哈哈董事长宗庆后，网友直呼好文采！",
        "docid": "7339806319501132351",
        "url": ""
    },
    {
        "title": "榜一大哥挥金如土，直播间打赏千万？全国首例网络直播打赏洗钱犯罪系列案案情公布",
        "docid": "7339868032955269667",
        "url": ""
    },
    {
        "title": "即将关闭，哭天抢地，怪政府，怪中国，转战美国，能再翻身吗？",
        "docid": "7339879715077227060",
        "url": ""
    },
    {
        "title": "鄂州⇄武汉！恢复运营！",
        "docid": "7339721559143268903",
        "url": ""
    },
    {
        "title": "河南多地发生山火？官方辟谣：省域内未发生山火",
        "docid": "7339868593175429668",
        "url": ""
    },
    {
        "title": "崩溃了！前女足门将直播间大哭，都赚不到钱，接个代言怎么了",
        "docid": "7339527886934213160",
        "url": ""
    },
    {
        "title": "欧盟理事会通过即时支付相关法规",
        "docid": "7339869867950490175",
        "url": ""
    },
    {
        "title": "河南又放大招，元宵节民俗展示老物件火了，网友：创意没瓶颈期吗",
        "docid": "7339558167309107753",
        "url": ""
    },
    {
        "title": "闹大了！C罗赛后怒怼梅西球迷，网友直呼漂亮，评论区笑不活了！",
        "docid": "7339805723993424384",
        "url": ""
    },
    {
        "title": "笑麻了！福建人民请“神明”看电影冲上热搜，要被网友评论区笑死",
        "docid": "7339829006835073551",
        "url": ""
    },
    {
        "title": "闹大了！四川女校长工作群发不雅视频后续：照片被扒，遭学校起诉",
        "docid": "7339826909209182756",
        "url": ""
    },
    {
        "title": "女校长在微信群发布不雅视频，本人回应过于离谱，小偷要偷我手机",
        "docid": "7339729630234542633",
        "url": ""
    },
    {
        "title": "C罗将被官方调查？",
        "docid": "7339806693439980043",
        "url": ""
    },
    {
        "title": "笑晕了！女校长回应90秒不雅视频被群嘲，真容曝光，网友们炸锅了",
        "docid": "7339811210373841445",
        "url": ""
    },
    {
        "title": "商务部新闻发言人就美以涉俄因素制裁多家中国实体答记者问",
        "docid": "7339790998958211603",
        "url": ""
    },
    {
        "title": "教育局新动作曝光，俞敏洪秒回应！董宇辉下一步会怎样？",
        "docid": "7339870523201536538",
        "url": ""
    },
    {
        "title": "再反转！四川一女校长微信群发不雅视频，教育局介入，果然有问题",
        "docid": "7339843251827900939",
        "url": ""
    },
    {
        "title": "笑麻了！赴华韩国游客量增超900%，网友：不认为他们纯粹旅游！",
        "docid": "7339857683958317619",
        "url": ""
    },
    {
        "title": "金-卡戴珊儿子担任梅西球童，金卡发帖：他实现了梦想！",
        "docid": "7339848413519348243",
        "url": ""
    },
    {
        "title": "闹大了！四川女校长微信群发90秒不雅视频后续，教育局回应来了",
        "docid": "7339815137416905226",
        "url": ""
    },
    {
        "title": "孩子白血病晚期想回爷爷家，救护车因积雪被困村口，村民赶来破防",
        "docid": "7339722377191752230",
        "url": ""
    },
    {
        "title": "7月7日索吻日本女粉丝，C罗对待中日球迷差别巨大！",
        "docid": "7339820112960029221",
        "url": ""
    },
    {
        "title": "17000后，房价下跌对哪些人造成影响，300多万的房子跌到230万",
        "docid": "7339825288995734043",
        "url": ""
    },
    {
        "title": "老婆一句话，救了老公和奔驰GLC",
        "docid": "7339851307928257035",
        "url": ""
    },
    {
        "title": "儿子和女友情感破裂分手，妈妈认真帮忙分析原因，一句话戳中要害",
        "docid": "7339801360386720290",
        "url": ""
    },
    {
        "title": "23590辆！比亚迪晒出秦PLUS荣耀版上市首周成绩单",
        "docid": "7339722045648896575",
        "url": ""
    },
    {
        "title": "王石夫妇泰国下跪拜佛还愿，田朴珺脖颈纹身瞩目，3岁女儿疑随行",
        "docid": "7339819450092585524",
        "url": ""
    },
    {
        "title": "冲上热搜！古天乐辟谣！",
        "docid": "7339859596825068069",
        "url": ""
    },
    {
        "title": "还没开口已传人声?张学友中断演出，要求“再来一次”",
        "docid": "7339742775438508563",
        "url": ""
    },
    {
        "title": "10-8！斯诺克冠军诞生：80后名将顶住压力，球员锦标赛第二次捧杯",
        "docid": "7339713887791071796",
        "url": ""
    },
    {
        "title": "扮成游神的网红应该遭受唾骂吗？",
        "docid": "7339850818705064488",
        "url": ""
    },
    {
        "title": "法甲大争议：假摔变点球！球迷建议直接给巴黎颁奖",
        "docid": "7339858761198879267",
        "url": ""
    },
    {
        "title": "笑裂了，南来北往大结局，我却笑死在吉吉国王刘冠麟的网友评论区",
        "docid": "7339838051167928884",
        "url": ""
    },
    {
        "title": "C罗做不雅动作回应球迷喊梅西？引发热议！大家怎么看？",
        "docid": "7339844706501542438",
        "url": ""
    },
    {
        "title": "被球迷喊梅西C罗当众做出不雅动作回应将被官方调查？？",
        "docid": "7339835864686543370",
        "url": ""
    },
    {
        "title": "大爷偷拍被抓，手机6万张女生照片，网友质疑：这真的是艺术照！",
        "docid": "7339810347479597605",
        "url": ""
    },
    {
        "title": "越闹越大！女子上班穿太恶心被领导谈话上热搜，没成想也被网友骂",
        "docid": "7339747827142279719",
        "url": ""
    },
    {
        "title": "13年拼4胎，丈夫跪谢妻子大哭，全网热议，宗老爷子有知定会羡慕",
        "docid": "7339766969959514675",
        "url": ""
    },
    {
        "title": "祝贺！武磊第4次荣膺金球奖，于根伟获金帅奖、张琳艳女子金球奖",
        "docid": "7339868443606712882",
        "url": ""
    },
    {
        "title": "4-4！艾伦连追三局打出决赛悬念，张安达恐无缘球员锦标赛冠军",
        "docid": "7339730672040706575",
        "url": ""
    },
    {
        "title": "中国男篮为什么打不过日本队？阿不都沙拉木一席话直接戳中要害",
        "docid": "7339848198397198889",
        "url": ""
    },
    {
        "title": "痛心! 宗庆后去世后续：死亡原因被曝光，42岁单身女儿成继承人！",
        "docid": "7339806264123261476",
        "url": ""
    },
    {
        "title": "惊曝!女校长微信群发布不雅视频，回应不是本人发的，评论区笑死",
        "docid": "7339742708736639499",
        "url": ""
    },
    {
        "title": "笑喷了！福建人民请神仙看电影了，精神状态遥遥领先，好想去！",
        "docid": "7339797556957889064",
        "url": ""
    },
    {
        "title": "不堪入目！四川女校长微信工作群发90秒不雅视频，本人回应亮了",
        "docid": "7339555680145261071",
        "url": ""
    },
    {
        "title": "无奈啊！宾利事件劝架大哥称20万奖励先还房贷，网友评论扎心了！",
        "docid": "7339873095840760361",
        "url": ""
    },
    {
        "title": "马丽演技爆发，张译气得把手机扔了出去！",
        "docid": "7339864760919851560",
        "url": ""
    },
    {
        "title": "五男子手举“稻草龙”拜年：古老传统的现代演绎",
        "docid": "7339892837686903337",
        "url": ""
    },
    {
        "title": "闹大了！女校长本尊回应班级群里发不雅视频！本人信息被扒底朝天",
        "docid": "7339843782227001891",
        "url": ""
    },
    {
        "title": "丑衣服上班穿，还被老板叫去谈话，“恶心穿搭”成为潮流",
        "docid": "7339752589464699430",
        "url": ""
    },
    {
        "title": "重男轻女？男子回应给连生4胎妻子下跪，网友：你是跪自己的儿子",
        "docid": "7339839361896595968",
        "url": ""
    },
    {
        "title": "朱芳雨谈不敌日本：年轻球员要珍惜机会 我依然对中国队保持期待",
        "docid": "7339884569740771852",
        "url": ""
    },
    {
        "title": "人们被洗脑组织操控如同行尸走肉，阮经天以暴制暴太燃了",
        "docid": "7339742057281520167",
        "url": ""
    },
    {
        "title": "激动的心，颤抖的手～我证明了我是最好的自己！😭😭#大学生",
        "docid": "7339794946381546036",
        "url": ""
    },
    {
        "title": "“我是二公主”#纪录片 #麦克阿瑟 #猎冰 #猎冰姚安娜 #搞笑",
        "docid": "7339569403622588967",
        "url": ""
    },
    {
        "title": "著名导演炮轰贾玲：你拍电影只想着挣钱，永远比不上张艺谋",
        "docid": "7337703344540254783",
        "url": ""
    },
    {
        "title": "两名男子持加特林对着千年木质鼓楼扫射，国务院核定过，摊大事了",
        "docid": "7339763827283706408",
        "url": ""
    },
    {
        "title": "投资这两家公司者请速报案！渝中警方发布通告",
        "docid": "7339788765814669850",
        "url": ""
    },
    {
        "title": "从中国人不得入内到中国人允许入内！空客发布最新声明傲慢无礼！",
        "docid": "7339820959492751872",
        "url": ""
    },
    {
        "title": "黄圣依近日晒出与儿子们的合照，儿子们都遗传了妈妈的高颜值",
        "docid": "7339824240956850700",
        "url": ""
    },
    {
        "title": "元宵晚会沙溢带给我的欢乐，不亚于春晚上的小尼，评论区笑死了",
        "docid": "7339793508766990882",
        "url": ""
    },
    {
        "title": "失踪4姐弟凌晨被发现在芦苇丛睡觉，警察翻山遍野找了7个小时",
        "docid": "7339774089562931746",
        "url": ""
    },
    {
        "title": "六盘水：推进“以刑化债”，持续优化营商环境！",
        "docid": "7339826180557718070",
        "url": ""
    },
    {
        "title": "盘点萌娃家长想原地隐身的瞬间，你们还不出去是等着吃奶吗？哈哈",
        "docid": "7339757424171237928",
        "url": ""
    },
    {
        "title": "黄圣依晒俩儿子近照 12岁Andy又高又壮好似小大人",
        "docid": "7339781923176268327",
        "url": ""
    },
    {
        "title": "年轻人上班为什么不在打扮，终于理解妈妈的话",
        "docid": "7339741934472954403",
        "url": ""
    },
    {
        "title": "县城相亲沙龙：男生自我介绍完，女生离场一大半！",
        "docid": "7339788121233736229",
        "url": ""
    },
    {
        "title": "120急救人员拒绝抬病人上救护车称没有义务，医院：已赔礼道歉，涉事人员已停职",
        "docid": "7339894528142656041",
        "url": ""
    },
    {
        "title": "为什么许多家庭一到过年就争吵不断？网友：这大概就是家庭内耗吧",
        "docid": "7339797760839189007",
        "url": ""
    },
    {
        "title": "好家伙，53岁鲁豫和41岁贾玲同框，饿瘦和运动瘦的差距一目了然",
        "docid": "7339730951729611264",
        "url": ""
    },
    {
        "title": "闹大了！情侣把公园当酒店，不雅视频在网上疯传曝光，警方介入",
        "docid": "7339898152897757750",
        "url": ""
    },
    {
        "title": "2人发送招嫖信息，另外2人提供服务，从中抽取费用！西峰公安查处涉黄人员8人！",
        "docid": "7339671388795519514",
        "url": ""
    },
    {
        "title": "胖真的能救命！",
        "docid": "7339890276288758307",
        "url": ""
    },
    {
        "title": "事态升级！女企业家向政府讨欠款被批捕，多人牵连 网友呼中纪介入",
        "docid": "7339869593110233640",
        "url": ""
    },
    {
        "title": "泰勒·斯威夫特大电影延长上映至3月12日",
        "docid": "7339844428595724851",
        "url": ""
    },
    {
        "title": "娃哈哈是王力宏内地第一个广告 对宗老知恩图报 签约20年没涨代言费",
        "docid": "7339776862027186703",
        "url": ""
    },
    {
        "title": "董子健父女看演出，6岁大福表情严肃展强大气场，超像奶奶王京花",
        "docid": "7339751741065740809",
        "url": ""
    },
    {
        "title": "太炸裂了！张颂文老师元宵拍摄技术上热搜，身边的人是谁震撼全网",
        "docid": "7339780731742306851",
        "url": ""
    },
    {
        "title": "福建漳州一村庄多名男子推新娘闹元宵，村委会：是当地习俗，有人维持秩序",
        "docid": "7339829305842893323",
        "url": ""
    },
    {
        "title": "实锤了！王艺迪哭成泪人，莎梦拥抱安慰，她又何尝不想证明自己？",
        "docid": "7339854772196999695",
        "url": ""
    },
    {
        "title": "急寻！15岁哥哥和10岁弟弟失踪已一周，镇政府：警方已介入，正全力寻找",
        "docid": "7339899293995794994",
        "url": ""
    },
    {
        "title": "我们决战中国男乒！法驻华使馆报喜被笑喷：没人比法国更懂投降",
        "docid": "7339556365523927552",
        "url": ""
    },
    {
        "title": "百元之恋》和《热辣滚烫》本来就不是一个故事",
        "docid": "7339822046567858723",
        "url": ""
    },
    {
        "title": "上海市灵活就业人员养老保险缴费比例自3月1日起调整为20%",
        "docid": "7339728158901666304",
        "url": ""
    },
    {
        "title": "杭州一15岁女生“低价”买游戏账号被骗5000余元，警方：不要轻信“高价收购”和“低价充值”",
        "docid": "7339793722529841718",
        "url": ""
    },
    {
        "title": "《封神第一部：朝歌风云》法国一票难求，华语经典震撼来袭！",
        "docid": "7339570779468055055",
        "url": ""
    },
    {
        "title": "新娘坐火车去结婚给众乘客发喜糖：他们又让座又送祝福，我会记住一辈子",
        "docid": "7339898453528461858",
        "url": ""
    },
    {
        "title": "MVP为什么是孙颖莎樊振东，而不是王楚钦陈梦，一条理由无法反驳",
        "docid": "7339760415729205796",
        "url": ""
    },
    {
        "title": "冻久了的腊肉、香肠不能吃，容易致癌？是真的吗？告诉你答案",
        "docid": "7339866223108506146",
        "url": ""
    },
    {
        "title": "国乒逆转两人落泪！陈梦哭成泪人回应“绝杀”日本：真的非常紧张",
        "docid": "7339557770011951616",
        "url": ""
    },
    {
        "title": "对老东家不庆祝？梅西绝平，贝克汉姆未庆祝&两个儿子起身欢呼",
        "docid": "7339784501847015951",
        "url": ""
    },
    {
        "title": "雨雪又要来了！时间就在……",
        "docid": "7339910974704632374",
        "url": ""
    },
    {
        "title": "即日起 灵活就业人员可在汉缴存住房公积金",
        "docid": "7339817611816927755",
        "url": ""
    },
    {
        "title": "\"转卖菜获微利14元，男子遭罚10万元！故事背后的荒谬与无奈\"",
        "docid": "7339909969128849929",
        "url": ""
    },
    {
        "title": "\"无底线？东京电核再度排放污染水，海洋生态或面临灭顶之灾！\"",
        "docid": "7339901670958629439",
        "url": ""
    },
    {
        "title": "快讯：美国前总统特朗普被罚4.5亿美元",
        "docid": "7339368727697474059",
        "url": ""
    },
    {
        "title": "售卖盗版软件牟利，黑客数罪并罚获刑2年10个月！",
        "docid": "7339892248362123814",
        "url": ""
    },
    {
        "title": "《南来北往》收官，巅峰收视率赶超《狂飙》，姜妍成最大赢家",
        "docid": "7339812454170362383",
        "url": ""
    },
    {
        "title": "结婚人数回升，年轻人又愿意结婚了？",
        "docid": "7339444368921035299",
        "url": ""
    },
    {
        "title": "贵州少数民族女企业家马艺珈伊为讨工程款被拘留，引发社会关注",
        "docid": "7339831867069448723",
        "url": ""
    }
]