[
    {
        "title": "海峡公棚决赛遇艰辛 老鸽友赛将勇摘桂冠",
        "docid": "7307253296031498762",
        "url": ""
    },
    {
        "title": "花臂大佬狸花猫:我无敌，你们随意。海陆空小型动物克星#狸花猫",
        "docid": "7294480510167089698",
        "url": "https://www.ixigua.com/7294480510167089698"
    },
    {
        "title": "小猫咪在笼子里被雨淋湿，见到主人后，连比带划痛斥其出门不关窗",
        "docid": "7304864917243953679",
        "url": "https://www.ixigua.com/7304864917243953679"
    },
    {
        "title": "可可抢走一窝小鸡后，母鸡跟公鸡上门索要，结果闹出笑话#猫咪",
        "docid": "7281313912681824768",
        "url": "https://www.ixigua.com/7281313912681824768"
    },
    {
        "title": "猫咪和小主干架，每天大战好几回，网友：都说猫和孩子不能同时养",
        "docid": "7300801038171406887",
        "url": "https://www.ixigua.com/7300801038171406887"
    },
    {
        "title": "“狗狗我啊太卑微了，我也很害怕”#狗狗的心思都写在脸上了",
        "docid": "7302274496382272037",
        "url": "https://www.ixigua.com/7302274496382272037"
    },
    {
        "title": "大黑牛看到母牛兴奋过度从屋顶跳下去，直接把脊椎整断",
        "docid": "7296691919801811467",
        "url": "https://www.ixigua.com/7296691919801811467"
    },
    {
        "title": "送走了两个毛孩子，我再也不敢养宠物了",
        "docid": "7306319782452937255",
        "url": ""
    },
    {
        "title": "柴犬绝食一个月饿到贫血，兽医找不出原因，网友一句话就治好了！",
        "docid": "7290894387309969975",
        "url": "https://www.ixigua.com/7290894387309969975"
    },
    {
        "title": "神了！3萌娃偷玩游戏狗子机警望风，网友：一看就是“惯犯”",
        "docid": "7274117515104485949",
        "url": "https://www.ixigua.com/7274117515104485949"
    },
    {
        "title": "小狗从小被鸭妈妈带大，长大后小狗帮鸭妈妈带宝宝！治愈萌宠！",
        "docid": "7298700841308193318",
        "url": "https://www.ixigua.com/7298700841308193318"
    },
    {
        "title": "球丢了猫咪让爷爷帮忙找，老人趴地上与猫咪无障碍沟通，结局爆笑",
        "docid": "7296344230992511527",
        "url": "https://www.ixigua.com/7296344230992511527"
    },
    {
        "title": "柴犬每天来找女子玩，为此特地安装门铃及时开门，奇妙友谊太可爱",
        "docid": "7302678695662223911",
        "url": "https://www.ixigua.com/7302678695662223911"
    },
    {
        "title": "女子故意坐狗子最爱的玩具上，不料屁股一凉，瞬间笑不出来了",
        "docid": "7280807352570217023",
        "url": "https://www.ixigua.com/7280807352570217023"
    },
    {
        "title": "狗主醉酒遛金毛，回家发现牵错狗！#金毛 #卖萌 #萌宠 #汪星人",
        "docid": "7306706382840365618",
        "url": "https://www.ixigua.com/7306706382840365618"
    },
    {
        "title": "主人给金毛晒窝忘收回，晚上听到金毛委屈抽泣，还不忘回头看主人",
        "docid": "7298961528995349003",
        "url": "https://www.ixigua.com/7298961528995349003"
    },
    {
        "title": "男子野外钓鱼被丹顶鹤打劫，全程好吃好喝供着不敢吱声，网友笑哭",
        "docid": "7295278310563840524",
        "url": "https://www.ixigua.com/7295278310563840524"
    },
    {
        "title": "女子在厨房忙得不可开交，丈夫和狗子喝茶晒太阳，狗子表情亮了",
        "docid": "7294184217238635008",
        "url": "https://www.ixigua.com/7294184217238635008"
    },
    {
        "title": "女子偶遇一只陌生金毛，隔岸随口一喊，不料狗狗这样回应她",
        "docid": "7279267025300652580",
        "url": "https://www.ixigua.com/7279267025300652580"
    },
    {
        "title": "夫妻惬意躺沙发，看猫咪和乌龟较量，下一幕夫妻傻眼：它赢了！",
        "docid": "7292225486866874921",
        "url": "https://www.ixigua.com/7292225486866874921"
    },
    {
        "title": "狗狗嫌老人牵绳走路太慢不敢跑，自己将绳叼给年轻主人",
        "docid": "7297106425224888851",
        "url": "https://www.ixigua.com/7297106425224888851"
    },
    {
        "title": "以为好友去世猫咪不吃不喝，不料“诈尸”，猫咪反复确认网友笑疯",
        "docid": "7304164320710132259",
        "url": "https://www.ixigua.com/7304164320710132259"
    },
    {
        "title": "狗狗咬破染发膏洗不掉，主人索性将狗染成红色：出门被其他狗排挤",
        "docid": "7293390247671366183",
        "url": "https://www.ixigua.com/7293390247671366183"
    },
    {
        "title": "狗狗和女主人置气，趴在窗户口一天，主人表示这是误会但没法解释",
        "docid": "7274846295276126783",
        "url": "https://www.ixigua.com/7274846295276126783"
    },
    {
        "title": "男子夜钓遇猫咪卖萌讨鱼吃，吃完又来让网友笑喷：压力一下就来了",
        "docid": "7281938101285421622",
        "url": "https://www.ixigua.com/7281938101285421622"
    },
    {
        "title": "狗子过马路排队等红绿灯，变灯瞬间撒欢冲过斑马线：有素质的狗子",
        "docid": "7281966666807050788",
        "url": "https://www.ixigua.com/7281966666807050788"
    },
    {
        "title": "爸爸担心孩子回村没人玩，一个视频发过去，给爸爸整不会了",
        "docid": "7305587970747466252",
        "url": "https://www.ixigua.com/7305587970747466252"
    },
    {
        "title": "起猛了，这是一条狗一次梳出来的毛量",
        "docid": "7290129117562077755",
        "url": "https://www.ixigua.com/7290129117562077755"
    },
    {
        "title": "母鸡啄蜈蚣不料被反杀，昔日的零食竟成为强大对手，结局太悲催",
        "docid": "7304207990373122594",
        "url": "https://www.ixigua.com/7304207990373122594"
    },
    {
        "title": "男子开轿车喊狗子，狗子怎么也找不到人，狗：没想过你能开四个轮",
        "docid": "7285362711343890944",
        "url": "https://www.ixigua.com/7285362711343890944"
    },
    {
        "title": "美短猫小八，每天都雷打不动的出门遛弯，走路排面比老虎还要威风",
        "docid": "7280347462831702584",
        "url": "https://www.ixigua.com/7280347462831702584"
    },
    {
        "title": "猫咪一言不合就打鹦鹉！将鹦鹉头使劲往垃圾桶里按：你说服不服？",
        "docid": "7297443439170454056",
        "url": "https://www.ixigua.com/7297443439170454056"
    },
    {
        "title": "不是说建国后猫咪不许成精吗？",
        "docid": "7291613321684320768",
        "url": "https://www.ixigua.com/7291613321684320768"
    },
    {
        "title": "广东狗子帮主人捉老鼠，捉到后露傲娇的眼神，网友：太可爱了",
        "docid": "7285541437285630519",
        "url": "https://www.ixigua.com/7285541437285630519"
    },
    {
        "title": "狗子舔癞蛤蟆上瘾，整的满口沫子，事后满意离开还呕吐了",
        "docid": "7282601198304264767",
        "url": "https://www.ixigua.com/7282601198304264767"
    },
    {
        "title": "带社牛小狗去打疫苗，顺便洗个澡，看看它害不害怕打针？#哈士奇",
        "docid": "7276008453112660480",
        "url": "https://www.ixigua.com/7276008453112660480"
    },
    {
        "title": "金毛回村被狗子们围攻，凭一己之力力压3狗看呆主人：平时很温柔",
        "docid": "7300420264045740585",
        "url": "https://www.ixigua.com/7300420264045740585"
    },
    {
        "title": "橘猫尝试上墙第一次失败，不死心第二次挑战看懵黑猫：这就叫专业",
        "docid": "7283701087817859623",
        "url": "https://www.ixigua.com/7283701087817859623"
    },
    {
        "title": "女生看手机看到有趣的笑得合不拢嘴，拍拍小狗让小狗也来看",
        "docid": "7282974176066044455",
        "url": "https://www.ixigua.com/7282974176066044455"
    },
    {
        "title": "流浪狗看见有妈妈爱的宠物狗，彻底陷入了自卑，眼神让人心疼！",
        "docid": "7305804728741560870",
        "url": "https://www.ixigua.com/7305804728741560870"
    },
    {
        "title": "羊顶撞了老人被主人一顿暴揍，被踩脚下收拾完不服气，放开又挑衅",
        "docid": "7301494835322552868",
        "url": "https://www.ixigua.com/7301494835322552868"
    },
    {
        "title": "全网最卑微的铲屎官，因为给猫做了绝育手术被猫揍了整整13年！",
        "docid": "7288646726410633764",
        "url": "https://www.ixigua.com/7288646726410633764"
    },
    {
        "title": "小女孩在池边投喂胖锦鲤，时不时摸摸它的头",
        "docid": "7284447437543080463",
        "url": "https://www.ixigua.com/7284447437543080463"
    },
    {
        "title": "小鸭子掉进狗狗窝，结果和狗狗处成了家人：这是什么神仙组合",
        "docid": "7275249572417372683",
        "url": "https://www.ixigua.com/7275249572417372683"
    },
    {
        "title": "扳手测试鳄龟咬合力，它竟然连咬了三口，这真是碰上硬茬儿了",
        "docid": "7292238490299793931",
        "url": "https://www.ixigua.com/7292238490299793931"
    },
    {
        "title": "救命啊，农村猫天天海鲜自助，要吐了！",
        "docid": "7274937211966095872",
        "url": "https://www.ixigua.com/7274937211966095872"
    },
    {
        "title": "猫：没事，九条命还有一条",
        "docid": "7295602826074882570",
        "url": "https://www.ixigua.com/7295602826074882570"
    },
    {
        "title": "四百万粉丝猫咪“灼灼”坚信自己是只狗，全网十大爱聊天猫咪之二",
        "docid": "7306036401156719104",
        "url": "https://www.ixigua.com/7306036401156719104"
    },
    {
        "title": "狗子公园抢地盘发生“群殴”，金毛不惹事但也不怕事：急坏拉架的",
        "docid": "7289232650248651300",
        "url": "https://www.ixigua.com/7289232650248651300"
    },
    {
        "title": "宠物解说：一分钟看完猫的一生，你家猫多少岁了？",
        "docid": "7299921827126575625",
        "url": "https://www.ixigua.com/7299921827126575625"
    },
    {
        "title": "一条狗的使命，草原才是边牧的家！",
        "docid": "7304655564163220020",
        "url": "https://www.ixigua.com/7304655564163220020"
    },
    {
        "title": "邻居送来一只兔子，家中狗子和孩子都不淡定了，兔子的反应亮了！",
        "docid": "7276621433940214311",
        "url": "https://www.ixigua.com/7276621433940214311"
    },
    {
        "title": "盘点那些狗狗无言的爱，这个世界不能没有小狗#狗狗是生活的解药",
        "docid": "7286277918614159909",
        "url": "https://www.ixigua.com/7286277918614159909"
    },
    {
        "title": "猫狗做坏事被抓的尴尬瞬间",
        "docid": "7284935017103524371",
        "url": "https://www.ixigua.com/7284935017103524371"
    },
    {
        "title": "大头：网红拖地喵本喵，因为jio臭而爆红，网友：原来表情包是它",
        "docid": "7295972005168284214",
        "url": "https://www.ixigua.com/7295972005168284214"
    },
    {
        "title": "猫的眼力劲能有多差？你越忙越急，他越粘人！！",
        "docid": "7278681357956416035",
        "url": "https://www.ixigua.com/7278681357956416035"
    },
    {
        "title": "一只堪比座山雕的猫“大壮”",
        "docid": "7283438179523232317",
        "url": "https://www.ixigua.com/7283438179523232317"
    },
    {
        "title": "“一只猫能有多绿茶呢？”",
        "docid": "7275609926712427045",
        "url": "https://www.ixigua.com/7275609926712427045"
    },
    {
        "title": "小土狗的幼崽是最暖人心的存在~",
        "docid": "7292366528983499299",
        "url": "https://www.ixigua.com/7292366528983499299"
    },
    {
        "title": "狸花猫为什么会成为战力天花板！",
        "docid": "7305318793315222079",
        "url": "https://www.ixigua.com/7305318793315222079"
    },
    {
        "title": "最像女人的狗，生气的时候和人一模一样！每天学主人跷二郎腿！",
        "docid": "7294553902786183695",
        "url": "https://www.ixigua.com/7294553902786183695"
    },
    {
        "title": "为什么狸花猫被称为老虎的师傅，狸花猫：名气都是打出来的",
        "docid": "7301655060692337188",
        "url": "https://www.ixigua.com/7301655060692337188"
    },
    {
        "title": "还记得去年被小姐姐救回家的流浪狗“盼盼”吗，它现在真的好帅！",
        "docid": "7277038906293125644",
        "url": "https://www.ixigua.com/7277038906293125644"
    },
    {
        "title": "显眼包二驴又来比赛了，复读一年披挂上阵依旧败北",
        "docid": "7290177003393810944",
        "url": "https://www.ixigua.com/7290177003393810944"
    },
    {
        "title": "猫咪挠伤主人后直接装死，缩成一团不愿面对，主人扒拉半天不抬头",
        "docid": "7291511717015028236",
        "url": "https://www.ixigua.com/7291511717015028236"
    },
    {
        "title": "主人切菜狗狗凑近看热闹，下一秒被卡住脖子拖上案板：吓出表情包",
        "docid": "7288617082927710760",
        "url": "https://www.ixigua.com/7288617082927710760"
    },
    {
        "title": "家里突然来了一只大白狗，越养越奇怪，邻居都劝小哥赶紧将狗送走",
        "docid": "7305729808582279692",
        "url": "https://www.ixigua.com/7305729808582279692"
    },
    {
        "title": "猫咪打架能有多狠，生死看淡，不服就干！",
        "docid": "7301538056681882149",
        "url": "https://www.ixigua.com/7301538056681882149"
    },
    {
        "title": "我家有只羊以为自己是拉布拉多，网友：狗里狗气的太可爱了",
        "docid": "7276835111738442277",
        "url": "https://www.ixigua.com/7276835111738442277"
    },
    {
        "title": "比特犬不知天高地厚挑衅藏獒，场面一度失控，结局大快人心",
        "docid": "7306829193508028968",
        "url": "https://www.ixigua.com/7306829193508028968"
    },
    {
        "title": "主人生病住院狗子每天来看望，歪头靠胸前撒娇求摸，心都要融化了",
        "docid": "7304485549879132713",
        "url": "https://www.ixigua.com/7304485549879132713"
    },
    {
        "title": "狗狗做错事一脸心虚，眯着眼慢悠悠走向主人，一旁猫都看不下去了",
        "docid": "7284518494123754045",
        "url": "https://www.ixigua.com/7284518494123754045"
    },
    {
        "title": "女生投喂狗狗时夸它，兴奋得狗狗直跺脚：我是全世界最棒的狗狗",
        "docid": "7285582328204788279",
        "url": "https://www.ixigua.com/7285582328204788279"
    },
    {
        "title": "边牧区别对待家里猫咪和女主人，夫妻反复求证后笑不活：爱憎分明",
        "docid": "7285244680399225400",
        "url": "https://www.ixigua.com/7285244680399225400"
    },
    {
        "title": "猫咪占着鸡窝照看小鸡，鸡妈鸡爸站窝外一脸懵仿佛外人：你生的？",
        "docid": "7282969946521338403",
        "url": "https://www.ixigua.com/7282969946521338403"
    },
    {
        "title": "猫咪打疫苗扇医生一巴掌，出手迅速力道十足，医生反应亮了",
        "docid": "7296704657286496794",
        "url": "https://www.ixigua.com/7296704657286496794"
    },
    {
        "title": "猫:这鹦鹉太欠了",
        "docid": "7291625338047005224",
        "url": "https://www.ixigua.com/7291625338047005224"
    },
    {
        "title": "猫咪绝育回家疯狂嘶吼，弓起身体呈防备姿态主人傻眼：你怎么了？",
        "docid": "7281188651336368652",
        "url": "https://www.ixigua.com/7281188651336368652"
    },
    {
        "title": "女子敷面膜后没被狗子认出，眼神冰冷不停低吠警告，险被赶出家门",
        "docid": "7303749906773049895",
        "url": "https://www.ixigua.com/7303749906773049895"
    },
    {
        "title": "主人和猫咪互道晚安，猫老婆催促让其赶紧回窝，猫咪反应主人笑喷",
        "docid": "7303751170781413951",
        "url": "https://www.ixigua.com/7303751170781413951"
    },
    {
        "title": "男子捡到狗狗连夜寻找主人，看到狗狗的状态后网友笑喷：不想回家",
        "docid": "7300036586246177320",
        "url": "https://www.ixigua.com/7300036586246177320"
    },
    {
        "title": "猫如其名的大壮，被主人养的比亲儿子还白胖，把偏爱演绎到了极致",
        "docid": "7279233920623706639",
        "url": "https://www.ixigua.com/7279233920623706639"
    },
    {
        "title": "牧羊犬望着羊群想去“工作”，被主人按住后急眼：快让我去指挥！",
        "docid": "7285226430667948601",
        "url": "https://www.ixigua.com/7285226430667948601"
    },
    {
        "title": "盘点用猫薄荷洗澡猫咪的反应，真是让猫咪一秒就上头！#萌宠",
        "docid": "7278241839512027689",
        "url": "https://www.ixigua.com/7278241839512027689"
    },
    {
        "title": "凌晨4点卫生间着火，猫咪冒死叫醒女生，次日“新皮肤”逗笑网友",
        "docid": "7280046802840224296",
        "url": "https://www.ixigua.com/7280046802840224296"
    },
    {
        "title": "宝宝第一次见到小狗狗，看得出狗狗已经尽力让自己很可爱了",
        "docid": "7288234528139641385",
        "url": "https://www.ixigua.com/7288234528139641385"
    },
    {
        "title": "宠物解说：这两只可爱的猫咪，你更喜欢哪个？",
        "docid": "7276411322911162921",
        "url": "https://www.ixigua.com/7276411322911162921"
    },
    {
        "title": "宠物圈“大换血”，10种猫的最新价格，附上猫咪简介",
        "docid": "7275601259846042151",
        "url": ""
    },
    {
        "title": "猫咪乖乖坐在扶手箱内，不料主人误将猫头当挡挂：没点准头！",
        "docid": "7304954868823753268",
        "url": "https://www.ixigua.com/7304954868823753268"
    },
    {
        "title": "全网最治愈的小猫咪，流浪猫遇好心人成功逆袭，满眼充满了羡慕！",
        "docid": "7306325332297155109",
        "url": "https://www.ixigua.com/7306325332297155109"
    },
    {
        "title": "半夜汪汪队开会，狗子不顾主人呼喊加入其中，隔天上班暴露细节！",
        "docid": "7297069287951303220",
        "url": "https://www.ixigua.com/7297069287951303220"
    },
    {
        "title": "无毛猫躺灶头锅子睡觉，神似猪肚鸡主人生气盖锅盖",
        "docid": "7306372696630264329",
        "url": "https://www.ixigua.com/7306372696630264329"
    },
    {
        "title": "女子发烧烧迷糊了让狗狗去拿水，狗狗疯狂暗示自己被拴住了",
        "docid": "7276698302446469692",
        "url": "https://www.ixigua.com/7276698302446469692"
    },
    {
        "title": "主人抓鳄鱼狗子非要凑热闹，当场被反杀发出阵阵哀嚎：瞧把你能的",
        "docid": "7280792687874146831",
        "url": "https://www.ixigua.com/7280792687874146831"
    },
    {
        "title": "猫咪躲洗衣机里不出来，铲屎官淡定按下启动键，下一秒网友笑喷",
        "docid": "7284514944517669435",
        "url": "https://www.ixigua.com/7284514944517669435"
    },
    {
        "title": "主人假装要将猫咪赶出家门，猫咪的反应令人发笑，全身写满了抵抗",
        "docid": "7306340690072928818",
        "url": "https://www.ixigua.com/7306340690072928818"
    },
    {
        "title": "老人领养了一只小黑猫，猫咪每叫一声就会给他带来好运！",
        "docid": "7298909972060963364",
        "url": "https://www.ixigua.com/7298909972060963364"
    },
    {
        "title": "猫咪只喜欢跟妈妈睡，被男主人抱走后又跑回，不满哈气逗乐妈妈",
        "docid": "7286752834186379833",
        "url": "https://www.ixigua.com/7286752834186379833"
    },
    {
        "title": "猫：有个碎嘴子邻居是种什么体验",
        "docid": "7303443818500588067",
        "url": "https://www.ixigua.com/7303443818500588067"
    },
    {
        "title": "那些会照顾小孩的狗狗，万物皆有灵性，不是所有狗狗都是恶魔！",
        "docid": "7292742272457409064",
        "url": "https://www.ixigua.com/7292742272457409064"
    },
    {
        "title": "主动跟着女儿回家的小猫，被猫猫选中的孩子。",
        "docid": "7274091021540000315",
        "url": "https://www.ixigua.com/7274091021540000315"
    },
    {
        "title": "全网最聪明的鸭，不仅与主人无障碍交流，每天吵着要飞出去玩",
        "docid": "7279061552529932819",
        "url": "https://www.ixigua.com/7279061552529932819"
    },
    {
        "title": "动物界的“睡神”，睡着睡着就饿死了！一年中竟有九个月都在睡觉",
        "docid": "7306894529146405387",
        "url": ""
    },
    {
        "title": "死法很憋屈的动物: 躲过天敌后，却是杀害自己的凶手，心酸又好笑",
        "docid": "7296058700018483723",
        "url": ""
    },
    {
        "title": "这7种狗，一生只认一个主人，你家狗在其中吗？",
        "docid": "7271814600041988649",
        "url": ""
    },
    {
        "title": "这几只猫“寿命很短”，一旦养了，要加倍珍惜！",
        "docid": "7283787729320788492",
        "url": ""
    },
    {
        "title": "农村土狗为什么晚上不睡觉，白天也很少睡觉？土狗不会困？",
        "docid": "7276764305218241035",
        "url": ""
    },
    {
        "title": "金毛打架脸被撕烂一半，主人嫌弃把它卖掉，它还觉得是自己的错！",
        "docid": "7304891888233267753",
        "url": ""
    },
    {
        "title": "北京男子捡到乌龟，养7年才觉不对劲，警方得知后直接将其带走",
        "docid": "7307118399652364838",
        "url": ""
    },
    {
        "title": "流浪小奶狗“巴万”独闯特警队，后续怎么样了？",
        "docid": "7305332018148033039",
        "url": ""
    },
    {
        "title": "主人带狗子上班，它竟探头跟同事聊八卦：午餐吃什么？",
        "docid": "7280752593478287911",
        "url": ""
    },
    {
        "title": "顾客进店说怕狗，主人立马转达：拉布拉多满脸委屈进厕所关门",
        "docid": "7292347174271222291",
        "url": "https://www.ixigua.com/7292347174271222291"
    },
    {
        "title": "主人第一次学狗叫，狗子听到后惊讶“表情包”：终于开口说话了",
        "docid": "7303012326888702498",
        "url": "https://www.ixigua.com/7303012326888702498"
    },
    {
        "title": "狗狗每天偷溜出去玩，被男主现场抓包，狗狗反应太过真实",
        "docid": "7286786597352112681",
        "url": "https://www.ixigua.com/7286786597352112681"
    },
    {
        "title": "主人在上卫生间，猫咪通过门底挡板探出了头",
        "docid": "7275865685752807971",
        "url": "https://www.ixigua.com/7275865685752807971"
    },
    {
        "title": "饭桌上猫咪偷喝主人的水，小主人宠溺点头萌化网友：太有爱了吧",
        "docid": "7286707649008599610",
        "url": "https://www.ixigua.com/7286707649008599610"
    },
    {
        "title": "主人买猫爬架忘看尺寸，猫咪趁机报复性消费让网友笑喷：人不如猫",
        "docid": "7288600393134572088",
        "url": "https://www.ixigua.com/7288600393134572088"
    },
    {
        "title": "主人带绝育后的猫咪回家，四处乱窜吓得主人不敢动，网友不淡定了",
        "docid": "7279673670283625018",
        "url": "https://www.ixigua.com/7279673670283625018"
    },
    {
        "title": "主人分享自家瓦莱黑鼻羊的日常，网友评论：他怎么有两只！",
        "docid": "7283344600863867444",
        "url": "https://www.ixigua.com/7283344600863867444"
    },
    {
        "title": "万元级以上家庭饲养的高档鱼类及其养殖要点",
        "docid": "7307146144784728639",
        "url": ""
    },
    {
        "title": "盘点那些狗狗与主人的久别重逢，虽然狗狗不会说话",
        "docid": "7288623790165066301",
        "url": "https://www.ixigua.com/7288623790165066301"
    },
    {
        "title": "暴躁小猫在线打人！",
        "docid": "7276400777760145974",
        "url": "https://www.ixigua.com/7276400777760145974"
    },
    {
        "title": "就算整个世界背叛了你，小狗也不会！",
        "docid": "7280112887257891367",
        "url": "https://www.ixigua.com/7280112887257891367"
    },
    {
        "title": "外卖小哥送餐路上救了一只流浪猫，没想到长大后变成了梦中情猫！",
        "docid": "7300381662825841192",
        "url": "https://www.ixigua.com/7300381662825841192"
    },
    {
        "title": "《10斤猫咪9斤反骨1斤犟骨》",
        "docid": "7274167532955796005",
        "url": "https://www.ixigua.com/7274167532955796005"
    },
    {
        "title": "一只“护妈狂魔”的阿拉斯加，为抢妈妈每天和爸爸斗智斗勇！",
        "docid": "7305012476574499368",
        "url": "https://www.ixigua.com/7305012476574499368"
    },
    {
        "title": "第一次在猫狗脸上看到震惊的表情",
        "docid": "7306454019533832739",
        "url": "https://www.ixigua.com/7306454019533832739"
    },
    {
        "title": "女子搬回老家，每天都有只猫在窗外等候，意外发现在三年前就见过",
        "docid": "7294473067072324123",
        "url": "https://www.ixigua.com/7294473067072324123"
    },
    {
        "title": "导盲犬的温暖瞬间，有你才有光明你就是我的眼睛",
        "docid": "7307099573875540520",
        "url": "https://www.ixigua.com/7307099573875540520"
    },
    {
        "title": "大爷第一次带狗骑电动车，狗子害怕得嗷嗷叫逗乐路人：都吓结巴了",
        "docid": "7275592728388469302",
        "url": "https://www.ixigua.com/7275592728388469302"
    },
    {
        "title": "哈士奇，为什么不怕冷？",
        "docid": "7303503050969186855",
        "url": "https://www.ixigua.com/7303503050969186855"
    },
    {
        "title": "我感觉说边牧有八百个心眼子，都有点低估它的智商了！",
        "docid": "7284445814045278756",
        "url": "https://www.ixigua.com/7284445814045278756"
    },
    {
        "title": "小伙在狗贩子那买了一只神犬，啥话都能听懂，奶奶说10头猪也不换",
        "docid": "7295652837625692707",
        "url": "https://www.ixigua.com/7295652837625692707"
    },
    {
        "title": "作死的狗子趁着老虎睡着，一口将其封喉，下一秒请忍住不要笑",
        "docid": "7297146838447194650",
        "url": "https://www.ixigua.com/7297146838447194650"
    },
    {
        "title": "霍思燕家的骆驼太有灵性了！霍思燕一进门，就给霍思燕拿拖鞋穿！",
        "docid": "7281188952839553597",
        "url": "https://www.ixigua.com/7281188952839553597"
    },
    {
        "title": "金毛因没拿到喜糖拦住婚车队，主人：后来喜主给了喜糖狗子就走了",
        "docid": "7303737957238866483",
        "url": "https://www.ixigua.com/7303737957238866483"
    },
    {
        "title": "狗狗被猫欺负后上门讨说法，主人拿狗粮作为赔偿，猫咪反应惹爆笑",
        "docid": "7285990314752508468",
        "url": "https://www.ixigua.com/7285990314752508468"
    },
    {
        "title": "主人开门发现猫咪全都消失，一看墙上顿时气乐了：爬满“猫猫虫”",
        "docid": "7303776440921621001",
        "url": "https://www.ixigua.com/7303776440921621001"
    },
    {
        "title": "女子偶遇肥猫“钻洞”，专门用脚帮忙也无济于事，猫：我谢谢你",
        "docid": "7292250326751511067",
        "url": "https://www.ixigua.com/7292250326751511067"
    },
    {
        "title": "小猫咪突然停止舔毛盯着主人，抛媚眼舔舌头主人看呆：被油腻到了",
        "docid": "7277850559577915940",
        "url": "https://www.ixigua.com/7277850559577915940"
    },
    {
        "title": "男子街头与朋友握手，轮到狗子画风突变极度搞笑：是懂人情世故的",
        "docid": "7277873998392885819",
        "url": "https://www.ixigua.com/7277873998392885819"
    },
    {
        "title": "女生跟狗狗打招呼，狗子见状害羞得不知所措，反应萌化众人",
        "docid": "7287128455576355347",
        "url": "https://www.ixigua.com/7287128455576355347"
    },
    {
        "title": "铲屎官担心猫咪通过监控查看，结果看到这一幕笑不活了：哈哈哈",
        "docid": "7283299410631459364",
        "url": "https://www.ixigua.com/7283299410631459364"
    },
    {
        "title": "小狗被蜜蜂蛰，脸比身体都大肿成包子，一连串反应让人心疼又好笑",
        "docid": "7277849017889849892",
        "url": "https://www.ixigua.com/7277849017889849892"
    },
    {
        "title": "狗子和邻居狗打架，大胜归来一脸趾高气昂看着主人：还不炒俩菜去",
        "docid": "7295950027233427980",
        "url": "https://www.ixigua.com/7295950027233427980"
    },
    {
        "title": "猫咪不会叼孩子主人亲自用手示范，随后举动主人惊呆：要给我养？",
        "docid": "7282299370861494836",
        "url": "https://www.ixigua.com/7282299370861494836"
    },
    {
        "title": "猫咪凌晨电饭锅中熟睡搞懵主人：6个月大，平时就很调皮",
        "docid": "7294902766512636450",
        "url": "https://www.ixigua.com/7294902766512636450"
    },
    {
        "title": "猫咪不慎掉入蚊帐，主人在外疯狂撸猫，无可奈何的表情惹网友爆笑",
        "docid": "7291922929917690387",
        "url": "https://www.ixigua.com/7291922929917690387"
    },
    {
        "title": "猫被蜜蜂蛰主人帮忙，下秒猫咪变猪咪逗笑主人：这个家待不下去了",
        "docid": "7286389890495808063",
        "url": "https://www.ixigua.com/7286389890495808063"
    },
    {
        "title": "一千多柴犬偶遇四万多柴犬，两狗对比明显网友笑翻：高仿遇正品",
        "docid": "7277437529446416951",
        "url": "https://www.ixigua.com/7277437529446416951"
    },
    {
        "title": "猫咪发情被主人打伤，嘴角流血眼含热泪让人心疼惹众怒：太坏了",
        "docid": "7281904224320160310",
        "url": "https://www.ixigua.com/7281904224320160310"
    },
    {
        "title": "爷爷为讨孙女喜欢，大老远带来猫咪，接下来的举动网友直呼太高明",
        "docid": "7289279856284533282",
        "url": "https://www.ixigua.com/7289279856284533282"
    },
    {
        "title": "猫咪把袋鼠当成了大老鼠，跳上前就想锁喉，下一秒请憋住别笑",
        "docid": "7283410955168875060",
        "url": "https://www.ixigua.com/7283410955168875060"
    },
    {
        "title": "男子花了大价钱买的赛马，结果每天只会装死，演技还非常棒#狗狗",
        "docid": "7288230175681020451",
        "url": "https://www.ixigua.com/7288230175681020451"
    },
    {
        "title": "猫咪孵出一窝小鸡宝，结果摊上大事，公鸡母鸡索要抚养权压力山大",
        "docid": "7289111336309817910",
        "url": "https://www.ixigua.com/7289111336309817910"
    },
    {
        "title": "小猴子照顾黄牛全过程，它不但聪明，而且还很勤劳",
        "docid": "7304923084694716963",
        "url": "https://www.ixigua.com/7304923084694716963"
    },
    {
        "title": "帅不过三秒！大哥黄河岸边策马扬鞭，网友：结果和我想的一样",
        "docid": "7297805716704723467",
        "url": "https://www.ixigua.com/7297805716704723467"
    },
    {
        "title": "小主人爱当医生，狗子整个暑假都被迫演病人！网友：终于开学了！",
        "docid": "7274192837237801512",
        "url": "https://www.ixigua.com/7274192837237801512"
    },
    {
        "title": "两猫咪打架“薅头发”！一边哀嚎一边不愿撒手：看谁先动谁就输",
        "docid": "7281557785609929216",
        "url": "https://www.ixigua.com/7281557785609929216"
    },
    {
        "title": "狗子跟汪汪队开会遇主人，装不认识走开气势拉满，隔天刀疤变旺财",
        "docid": "7306794546917835264",
        "url": "https://www.ixigua.com/7306794546917835264"
    },
    {
        "title": "狗狗走丢6年后自己找回家，蹲在门口眼含热泪等待主人，主人泪崩",
        "docid": "7290447489927217722",
        "url": "https://www.ixigua.com/7290447489927217722"
    },
    {
        "title": "1岁半萌娃与猫咪玩耍，猫咪：坐下吧你，娃：这一次是猫先动的手",
        "docid": "7279669023640388108",
        "url": "https://www.ixigua.com/7279669023640388108"
    },
    {
        "title": "女子近视400多度，误把黑衣认成黑猫，猫咪目睹全程后一脸惊恐！",
        "docid": "7279328683435754040",
        "url": "https://www.ixigua.com/7279328683435754040"
    },
    {
        "title": "可能致命！神秘犬类呼吸道疾病，在这里蔓延！医生警告",
        "docid": "7307477858451063336",
        "url": ""
    },
    {
        "title": "谁能拒绝这么可爱的小狗呢，小土狗真的很可爱#中华田园犬",
        "docid": "7280544958040408637",
        "url": "https://www.ixigua.com/7280544958040408637"
    },
    {
        "title": "这狐狸快成精了吧，还会用尾巴诱惑人，感觉有点不正经！",
        "docid": "7304954229955920423",
        "url": "https://www.ixigua.com/7304954229955920423"
    },
    {
        "title": "狗子和小猪猪成为好友，万物皆有情！#跨越种族的友谊",
        "docid": "7303488243155403298",
        "url": "https://www.ixigua.com/7303488243155403298"
    },
    {
        "title": "最会带孩子的狗狗，帮主人带大三个孩子，孩子们把它当哥哥看待",
        "docid": "7288304727824007692",
        "url": "https://www.ixigua.com/7288304727824007692"
    },
    {
        "title": "从狗狗的笑容你就能看出来，被主人宠爱的它们能有多骄傲",
        "docid": "7279345987888513588",
        "url": "https://www.ixigua.com/7279345987888513588"
    },
    {
        "title": "一只威风凛凛的猫头鹰，和一只欠登爱挑事的猫咪，还能和谐的相处",
        "docid": "7295338785473036827",
        "url": "https://www.ixigua.com/7295338785473036827"
    },
    {
        "title": "金毛和一群狗子对骂，场面激烈多次咬到对方，主人强行劝架太搞笑",
        "docid": "7283744804029071906",
        "url": "https://www.ixigua.com/7283744804029071906"
    },
    {
        "title": "全网最爱笑的柴犬，把“鬼迷日眼”体现的淋漓尽致",
        "docid": "7285595348750303785",
        "url": "https://www.ixigua.com/7285595348750303785"
    },
    {
        "title": "哈士奇手贱故意推倒萌娃，眼神步伐透露出睿智，主人不制止反笑了",
        "docid": "7301515315505005090",
        "url": "https://www.ixigua.com/7301515315505005090"
    },
    {
        "title": "大鹅上秒还在水里嬉戏，下秒突然火急火燎往家冲，主人跟去看笑喷",
        "docid": "7287420479017746956",
        "url": "https://www.ixigua.com/7287420479017746956"
    },
    {
        "title": "女生想摸金毛又害怕，金毛小心翼翼低头主动靠近！",
        "docid": "7280710052195861033",
        "url": "https://www.ixigua.com/7280710052195861033"
    },
    {
        "title": "小土狗也可以很可爱",
        "docid": "7275288802371994169",
        "url": "https://www.ixigua.com/7275288802371994169"
    },
    {
        "title": "突然大降温，狗子直接钻进灶台里面取暖，被主人发现后模样太搞笑",
        "docid": "7287132241786995239",
        "url": "https://www.ixigua.com/7287132241786995239"
    },
    {
        "title": "女子路过发现一只肥猫被绳子拴住，好奇询问主人恍然大悟",
        "docid": "7276343865185927695",
        "url": "https://www.ixigua.com/7276343865185927695"
    },
    {
        "title": "女主人化疗，狗子第一次见没有头发的主人，一度哽咽...#宠物",
        "docid": "7276412178683396660",
        "url": "https://www.ixigua.com/7276412178683396660"
    },
    {
        "title": "金毛推着瘫痪的小主人逛商场走红，围观群众纷纷鼓掌加油：太暖了",
        "docid": "7301513014929424911",
        "url": "https://www.ixigua.com/7301513014929424911"
    },
    {
        "title": "鹦鹉骑着狗狗迎接主人下班，开门后瞬间被治愈，主人：没有训练过",
        "docid": "7280081826041987643",
        "url": "https://www.ixigua.com/7280081826041987643"
    },
    {
        "title": "喜欢小猫的德牧#德牧 #大型犬的温柔 #小动物们能有多治愈",
        "docid": "7298727290144293403",
        "url": "https://www.ixigua.com/7298727290144293403"
    },
    {
        "title": "调皮猫咪挂在栏杆无法自拔，主人淡定记录下全过程，猫咪：快救我",
        "docid": "7283758541444383268",
        "url": "https://www.ixigua.com/7283758541444383268"
    },
    {
        "title": "主人纳闷为啥玻璃上总有鸟屎，终于录下“罪证”，猫咪表情亮了！",
        "docid": "7302633380510859785",
        "url": "https://www.ixigua.com/7302633380510859785"
    },
    {
        "title": "猫咪被主人打了一下头瞬间翻脸 一直斜眼瞪主人笑翻网友",
        "docid": "7303777635165798931",
        "url": "https://www.ixigua.com/7303777635165798931"
    },
    {
        "title": "决斗吧！狗狗猛攻大水牛被顶翻也要上：我斗牛犬可不是白叫的",
        "docid": "7306377147496301091",
        "url": "https://www.ixigua.com/7306377147496301091"
    },
    {
        "title": "女生拿外卖被狗狗吓哭，泪眼婆娑跟狗说好话惹爆笑：真的超级凶",
        "docid": "7275601982407213603",
        "url": "https://www.ixigua.com/7275601982407213603"
    },
    {
        "title": "主人用奇招找狗子，不到3秒哈士奇自己跑回家，果然姜还是老的辣",
        "docid": "7303404479348245002",
        "url": "https://www.ixigua.com/7303404479348245002"
    },
    {
        "title": "现场监督！居民家中狗窝着火，狗子熏得黢黑一个动作逗笑消防员",
        "docid": "7279717302814278181",
        "url": "https://www.ixigua.com/7279717302814278181"
    },
    {
        "title": "聪明的边牧会用跑步机锻炼，猫咪又菜又爱玩还不讲道理：拖后腿！",
        "docid": "7300779017605644826",
        "url": "https://www.ixigua.com/7300779017605644826"
    },
    {
        "title": "暖心又反骨的金毛，天黑了会去接主人下班，没事还会惹主人生气",
        "docid": "7288673799590511115",
        "url": "https://www.ixigua.com/7288673799590511115"
    },
    {
        "title": "二哈想从洞中出来，猫咪一顿喵喵拳，接下来请忍住憋笑",
        "docid": "7301241433057886735",
        "url": "https://www.ixigua.com/7301241433057886735"
    },
    {
        "title": "男子低头玩手机，狗子跳上桌子，随后狗子和男子，开启了雷人一幕",
        "docid": "7281850046495064628",
        "url": "https://www.ixigua.com/7281850046495064628"
    },
    {
        "title": "仅用10秒小狗就丧了命，主人难以置信，镜头拍下惊险过程",
        "docid": "7278861069160809000",
        "url": "https://www.ixigua.com/7278861069160809000"
    },
    {
        "title": "爱宝找不到辉宝急哭了，辉宝回来后被爱宝教训，睿宝大气不敢喘",
        "docid": "7301693070003831322",
        "url": "https://www.ixigua.com/7301693070003831322"
    },
    {
        "title": "小狗被主人用锁链囚禁十九年！呱呱坠地一直锁到年迈，从没走过路",
        "docid": "7298607300967989823",
        "url": "https://www.ixigua.com/7298607300967989823"
    },
    {
        "title": "“这只傻猫真的要把我笑死了，哈哈哈！”",
        "docid": "7285892151739843127",
        "url": "https://www.ixigua.com/7285892151739843127"
    },
    {
        "title": "有的狗狗喂着喂着就长大了",
        "docid": "7300779648403964425",
        "url": "https://www.ixigua.com/7300779648403964425"
    },
    {
        "title": "金毛初次生崽把自己吓一跳，愣坐原地满脸疑惑：一用力就生出来了",
        "docid": "7282590775463019069",
        "url": "https://www.ixigua.com/7282590775463019069"
    },
    {
        "title": "说好的猫咪跳高比赛呢？一只比一只搞笑",
        "docid": "7275131446136668726",
        "url": "https://www.ixigua.com/7275131446136668726"
    },
    {
        "title": "主人假装接到朋友电话，故意说边牧不爱出去，看边牧着急的表情",
        "docid": "7281057839496626748",
        "url": "https://www.ixigua.com/7281057839496626748"
    },
    {
        "title": "嘲讽值拉满！女子腿意外受伤只能单脚走路，猫咪看后立马学习姿势",
        "docid": "7285987214645789240",
        "url": "https://www.ixigua.com/7285987214645789240"
    },
    {
        "title": "女子养的兔子像毛绒玩具，网友：这兔子咋长出狗的样子",
        "docid": "7303838204250522121",
        "url": "https://www.ixigua.com/7303838204250522121"
    },
    {
        "title": "摊上这么虎的妈妈，这狗子也是命大。",
        "docid": "7283814725350064696",
        "url": "https://www.ixigua.com/7283814725350064696"
    },
    {
        "title": "史上最难杀的狗，一年内大大小小经历了20多次意外，却依然活泼！",
        "docid": "7301234157420544524",
        "url": "https://www.ixigua.com/7301234157420544524"
    },
    {
        "title": "女子被路边狗凶了后，带上自己养的哈士奇去“报仇”",
        "docid": "7296704828544451112",
        "url": "https://www.ixigua.com/7296704828544451112"
    },
    {
        "title": "宋爷爷又叫错名字了，满脑子都是辉宝，一碗水端平太难啦",
        "docid": "7302768307244007999",
        "url": "https://www.ixigua.com/7302768307244007999"
    },
    {
        "title": "大爷围观爆米花机，没注意狗子害怕的瑟瑟发抖，一声爆破瞬间释然",
        "docid": "7288162277901992483",
        "url": "https://www.ixigua.com/7288162277901992483"
    },
    {
        "title": "小流浪猫通过自己的努力，让家猫接纳了自己，结局很暖心",
        "docid": "7296078761190294054",
        "url": "https://www.ixigua.com/7296078761190294054"
    },
    {
        "title": "这是一头猫，甚至是一辆猫。",
        "docid": "7289017875921437221",
        "url": "https://www.ixigua.com/7289017875921437221"
    },
    {
        "title": "从小养到大的大猫到底有多软萌，看完你羡慕了吗？",
        "docid": "7302687062573416969",
        "url": "https://www.ixigua.com/7302687062573416969"
    },
    {
        "title": "功夫狸花猫 上来就是踹腰子",
        "docid": "7277539233601389091",
        "url": "https://www.ixigua.com/7277539233601389091"
    },
    {
        "title": "没人在家，小猴子会怎么照顾自己呢？#神奇动物在抖音",
        "docid": "7289269302476309004",
        "url": "https://www.ixigua.com/7289269302476309004"
    },
    {
        "title": "这么奶凶的小狗，咬人一定很疼吧！",
        "docid": "7280854814743855671",
        "url": "https://www.ixigua.com/7280854814743855671"
    },
    {
        "title": "猫咪以百米冲刺的速度奔向自动喂食器，喵：好险！差点饿死！",
        "docid": "7291945478344835611",
        "url": "https://www.ixigua.com/7291945478344835611"
    },
    {
        "title": "“汪汪队行动！”云南警犬“安吉”查获鸦片3.79公斤获奖15公斤狗粮",
        "docid": "7307540398942208552",
        "url": ""
    },
    {
        "title": "狗狗迷路热心人按电梯逐层帮找家，最后找到狗狗主人送回家里",
        "docid": "7307525301037744690",
        "url": ""
    },
    {
        "title": "好玩，有趣，首届长沙乐潮宠博会开幕",
        "docid": "7307544302052327946",
        "url": ""
    },
    {
        "title": "猫咪与人类吵架情绪逐渐失控，叫声撕心裂肺，喵：怎么不学了！",
        "docid": "7302795178401038857",
        "url": "https://www.ixigua.com/7302795178401038857"
    },
    {
        "title": "这算是我2023见过最爱凑热闹的狗了 “让我看看是怎么个事”",
        "docid": "7307540670103798299",
        "url": ""
    },
    {
        "title": "那些倒霉的猫咪，来看看哪个最惨？",
        "docid": "7278301730444575289",
        "url": "https://www.ixigua.com/7278301730444575289"
    },
    {
        "title": "太治愈啦！一人一猫的归园田居生活 是你向往的吗？",
        "docid": "7307532263481688586",
        "url": ""
    },
    {
        "title": "趁鸡妈妈不在家偷走小鸡仔，没想到鸡妈妈却杀了个回马枪，笑喷了",
        "docid": "7278690282173006371",
        "url": "https://www.ixigua.com/7278690282173006371"
    },
    {
        "title": "小狐狸能有多黏人，自从养了它一点独处空间都没有",
        "docid": "7280004115697304123",
        "url": "https://www.ixigua.com/7280004115697304123"
    },
    {
        "title": "有些狗是真的狗，这打挨的一点不冤枉，被主人揍完是什么反应？",
        "docid": "7290756964265493028",
        "url": "https://www.ixigua.com/7290756964265493028"
    },
    {
        "title": "小猫咪能有多粘爸爸！猫爸不理都不行，这也太会撒娇了",
        "docid": "7276030434083865151",
        "url": "https://www.ixigua.com/7276030434083865151"
    },
    {
        "title": "猫咪舔毛发现自己被绝育，愣了几秒抬头一脸不相信：以后怎么做猫",
        "docid": "7281549097977250304",
        "url": "https://www.ixigua.com/7281549097977250304"
    },
    {
        "title": "金毛出门就被鸟追着啄已有半月之久，背后原因悲伤又好笑！",
        "docid": "7292240577611956746",
        "url": "https://www.ixigua.com/7292240577611956746"
    },
    {
        "title": "女子到外婆家，发现猫咪胖到认不出，网友：用猪饲料喂的吧",
        "docid": "7278955670588621364",
        "url": "https://www.ixigua.com/7278955670588621364"
    },
    {
        "title": "主人扒开狗洞让狗狗穿行，没想到狗子非常给面子，现场表演！",
        "docid": "7283698709353726483",
        "url": "https://www.ixigua.com/7283698709353726483"
    },
    {
        "title": "假装火腿肠是我的一根手指，边牧会吃吗？",
        "docid": "7285305571194962443",
        "url": "https://www.ixigua.com/7285305571194962443"
    },
    {
        "title": "猫咪踩到臭屁虫，想舔干净闻了几秒后差点当场去世：脚都不想要了",
        "docid": "7284883992552145420",
        "url": "https://www.ixigua.com/7284883992552145420"
    },
    {
        "title": "黑狗偷吃黄狗告状，被抓现场黑狗恼羞成怒惹爆笑：明显是分赃不均",
        "docid": "7276338938246726144",
        "url": "https://www.ixigua.com/7276338938246726144"
    },
    {
        "title": "男子上班时和猫咪挥手告别，猫咪的反应竟！",
        "docid": "7303076664731402771",
        "url": "https://www.ixigua.com/7303076664731402771"
    },
    {
        "title": "猫咪回村被大橘缠着！忍无可忍暴打对方一顿，大橘委屈眼泛泪花",
        "docid": "7285995055872279040",
        "url": "https://www.ixigua.com/7285995055872279040"
    },
    {
        "title": "喵喵队全体出动！辽宁盘锦一企业用40多只猫组队守粮仓",
        "docid": "7305771965460005402",
        "url": ""
    },
    {
        "title": "把失去妈妈的小奶猫放进狗窝，当狗狗发现它们后，你们都忍住别哭",
        "docid": "7296506259828802083",
        "url": "https://www.ixigua.com/7296506259828802083"
    },
    {
        "title": "姜爷爷看着爱宝：你也看见了，我没推她，是宝宝自己倒下的。",
        "docid": "7285543879858881058",
        "url": "https://www.ixigua.com/7285543879858881058"
    },
    {
        "title": "宠物解说：十只猫咪生活在富裕家庭，有九个被养的很肥？",
        "docid": "7287514907200160317",
        "url": "https://www.ixigua.com/7287514907200160317"
    },
    {
        "title": "只因主人做饭太慢，鹦鹉跑到厨房一顿训斥，全程嚣张到不行",
        "docid": "7293825975790502415",
        "url": "https://www.ixigua.com/7293825975790502415"
    },
    {
        "title": "狗子叼着一根树枝过桥，结果意外走红，网友：物理学得不如狗！",
        "docid": "7293819794431607333",
        "url": "https://www.ixigua.com/7293819794431607333"
    },
    {
        "title": "上次谁说让小猫吃活鱼来着，这不，来看看小猫怎么吃活鱼！！",
        "docid": "7284906358154265127",
        "url": "https://www.ixigua.com/7284906358154265127"
    },
    {
        "title": "狗子被嘎蛋骂了兽医五年，怎料造化弄狗仇人变主人，狗子很尴尬",
        "docid": "7301675202608366132",
        "url": "https://www.ixigua.com/7301675202608366132"
    },
    {
        "title": "11.20爱宝去吃饭了，姜爷爷陪睿宝辉宝玩，可爱度爆表了！",
        "docid": "7303465261993198106",
        "url": "https://www.ixigua.com/7303465261993198106"
    },
    {
        "title": "狗狗偷偷亲宝宝，没想到却被主人逮个正着，狗狗的反应笑得人肚疼",
        "docid": "7293510678994911779",
        "url": "https://www.ixigua.com/7293510678994911779"
    },
    {
        "title": "福二妹打了爱宝一巴掌，狗叫声颇有气势，看来比福宝还费妈",
        "docid": "7285988130329461311",
        "url": "https://www.ixigua.com/7285988130329461311"
    },
    {
        "title": "小猴子第一次带女朋友回家，就请她去吃大餐，整个过程幸福无比",
        "docid": "7287929733646385683",
        "url": "https://www.ixigua.com/7287929733646385683"
    },
    {
        "title": "当猫咪足够弱小，生气都显得可爱",
        "docid": "7278468165628396067",
        "url": "https://www.ixigua.com/7278468165628396067"
    },
    {
        "title": "主人被窝偷摸吃炸鸡，黑暗中狗脸探出吓一哆嗦：就给我吃一口",
        "docid": "7283684636876603967",
        "url": "https://www.ixigua.com/7283684636876603967"
    },
    {
        "title": "一米之外狗狗吠错主人，它自己感到很尴尬，估计要配一副眼镜戴了",
        "docid": "7284940903062438459",
        "url": "https://www.ixigua.com/7284940903062438459"
    },
    {
        "title": "缅因猫：我体型庞大，不代表我会霸凌其他猫",
        "docid": "7284607779376267837",
        "url": "https://www.ixigua.com/7284607779376267837"
    },
    {
        "title": "爸爸发现女儿的帽子有点奇怪，走近后一扒拉顿时笑喷：完美融合！",
        "docid": "7290380794114081337",
        "url": "https://www.ixigua.com/7290380794114081337"
    },
    {
        "title": "零下29度清晨，网友开门看到意外一幕，狗子：没想到吧 我还活着",
        "docid": "7306810753389232694",
        "url": "https://www.ixigua.com/7306810753389232694"
    },
    {
        "title": "全网最自责的鹦鹉主人！鹦鹉养成干尸！主人痛哭流涕！",
        "docid": "7289812755014484492",
        "url": "https://www.ixigua.com/7289812755014484492"
    },
    {
        "title": "主人给他起名叫加格，结果他不负众望每天和主人大战三百回合。",
        "docid": "7299049189793923638",
        "url": "https://www.ixigua.com/7299049189793923638"
    },
    {
        "title": "“让我看看你家供暖后的猫”",
        "docid": "7300574055282049586",
        "url": "https://www.ixigua.com/7300574055282049586"
    },
    {
        "title": "主人因工作把小布偶寄养在老家 用铁链栓着 经过商议决定带它回家",
        "docid": "7276386226737939004",
        "url": "https://www.ixigua.com/7276386226737939004"
    },
    {
        "title": "猫咪对小主人永远嫌弃又无奈，想咬又不敢咬，不耐烦了直接两巴掌",
        "docid": "7276411369350988348",
        "url": "https://www.ixigua.com/7276411369350988348"
    },
    {
        "title": "网友买来一条电动鱼鱼饵 入水的瞬间，惊呆了！",
        "docid": "7275614717953966626",
        "url": "https://www.ixigua.com/7275614717953966626"
    },
    {
        "title": "没眼看，真没眼看，好不容易养大了福宝，现在又来两个调皮蛋",
        "docid": "7282180597131412008",
        "url": "https://www.ixigua.com/7282180597131412008"
    },
    {
        "title": "狗：谢天谢地，他们终于上学了！",
        "docid": "7280206608653615627",
        "url": "https://www.ixigua.com/7280206608653615627"
    },
    {
        "title": "宠物解说：这些猫咪长大的样子，你觉得谁更可爱？",
        "docid": "7284299061090320896",
        "url": "https://www.ixigua.com/7284299061090320896"
    },
    {
        "title": "猫抓老鼠的高能时刻，这就是血脉压制么！",
        "docid": "7305342675870286370",
        "url": "https://www.ixigua.com/7305342675870286370"
    },
    {
        "title": "二哈9年带了3个孩子，结果女主扑通一声生了四胎，日子没法过了",
        "docid": "7289834473846866469",
        "url": "https://www.ixigua.com/7289834473846866469"
    },
    {
        "title": "一只爱顶嘴的鹦鹉，每天不是拆家就是和铲屎官斗嘴！简直成精了！",
        "docid": "7279735215529361981",
        "url": "https://www.ixigua.com/7279735215529361981"
    },
    {
        "title": "狗狗死活不吃药，当女主拿男主杀鸡儆猴后，狗狗的反应笑得人肚疼",
        "docid": "7284193816121180730",
        "url": "https://www.ixigua.com/7284193816121180730"
    },
    {
        "title": "花2200买的摆烂鸟，到家天天睡大觉",
        "docid": "7280111848567865917",
        "url": "https://www.ixigua.com/7280111848567865917"
    },
    {
        "title": "主人出去办事留狗狗在车内，二哈竟摇身一变成为“狗司机”",
        "docid": "7307540831291277833",
        "url": ""
    },
    {
        "title": "当奶牛猫见到离家56天的男主人，会有什么反应",
        "docid": "7287157965562479116",
        "url": "https://www.ixigua.com/7287157965562479116"
    },
    {
        "title": "羊驼认错主人跟着走，女子大喊没反应，拿出零食袋羊驼反应惹爆笑",
        "docid": "7283784964527620667",
        "url": "https://www.ixigua.com/7283784964527620667"
    },
    {
        "title": "被狗狗嫌弃的主人.一条有洁癖的金毛与毫无边界感的铲屎官",
        "docid": "7302653614563164735",
        "url": "https://www.ixigua.com/7302653614563164735"
    },
    {
        "title": "分手情侣为争夺金毛抚养权，居然上演了抢狗连续剧，堪称年度大戏",
        "docid": "7286417541767889444",
        "url": "https://www.ixigua.com/7286417541767889444"
    },
    {
        "title": "狗狗走丢大妈找半个村，拎狗回家一路教育拍打，网友：太没面子了",
        "docid": "7302276506003178035",
        "url": "https://www.ixigua.com/7302276506003178035"
    },
    {
        "title": "一年半没洗澡的猫能有多脏？你都洗掉色了！",
        "docid": "7288156213529805364",
        "url": "https://www.ixigua.com/7288156213529805364"
    },
    {
        "title": "猫咪坐在路口等狗狗回家，接下来的画面让人暖心，镜头拍下全过程",
        "docid": "7296131567762539023",
        "url": "https://www.ixigua.com/7296131567762539023"
    },
    {
        "title": "萨摩耶和人类的治愈瞬间，这大概就是人喜欢养萨摩耶的原因！",
        "docid": "7304284318481220136",
        "url": "https://www.ixigua.com/7304284318481220136"
    },
    {
        "title": "体重接近300斤的中亚猎狼犬对抗老虎",
        "docid": "7275722204485485113",
        "url": "https://www.ixigua.com/7275722204485485113"
    },
    {
        "title": "这头牛奇怪了，牛角长成一个乾坤圈，开价10万主人都不卖",
        "docid": "7291989214982636047",
        "url": "https://www.ixigua.com/7291989214982636047"
    },
    {
        "title": "俄罗斯女主人出远门回家，小黑豹还认识她吗？相见时的表情太逗了",
        "docid": "7283460964907745792",
        "url": "https://www.ixigua.com/7283460964907745792"
    },
    {
        "title": "宋宝各种夹子音叫辉宝：辉呀～!辉辉～！辉诶～～～",
        "docid": "7291667674956825124",
        "url": "https://www.ixigua.com/7291667674956825124"
    },
    {
        "title": "大雪天猫咪要出去玩，冻得龇牙咧嘴跑回来，躺在热炕头呼呼大睡",
        "docid": "7305909269507867151",
        "url": "https://www.ixigua.com/7305909269507867151"
    },
    {
        "title": "中华民族的猫咪绝不认输",
        "docid": "7291520804871733775",
        "url": "https://www.ixigua.com/7291520804871733775"
    },
    {
        "title": "给二哈嘴里塞把麦芽糖，把傻狗牙齿黏自闭了！太好笑了！",
        "docid": "7277045119465816610",
        "url": "https://www.ixigua.com/7277045119465816610"
    },
    {
        "title": "跑恩佐家门口叫嚣来了，是可忍熟不可忍，去放黑豹吧",
        "docid": "7291911481707528713",
        "url": "https://www.ixigua.com/7291911481707528713"
    },
    {
        "title": "狸花猫的反应速度是人的七倍，我们一起去看看",
        "docid": "7292683002323141155",
        "url": "https://www.ixigua.com/7292683002323141155"
    },
    {
        "title": "你能忍住不去打扰躺平的猫咪吗？",
        "docid": "7287751233673265679",
        "url": "https://www.ixigua.com/7287751233673265679"
    },
    {
        "title": "养狗的人什么时候觉得狗狗也爱着你？",
        "docid": "7307606993454383652",
        "url": ""
    },
    {
        "title": "中华田园犬的忠诚度 真的是超乎人类的想象",
        "docid": "7295366547487326735",
        "url": "https://www.ixigua.com/7295366547487326735"
    },
    {
        "title": "多么重情的狗狗，可惜它的主人不懂珍惜…",
        "docid": "7282337165713867318",
        "url": "https://www.ixigua.com/7282337165713867318"
    },
    {
        "title": "主人给狗子找了个广东的老婆，狗子高兴坏了，激动得汪汪叫",
        "docid": "7297232461438812681",
        "url": "https://www.ixigua.com/7297232461438812681"
    },
    {
        "title": "狗子多次暗示主人投喂被无视，无奈暴躁摔盆“示威”：快给我饭",
        "docid": "7302659027110986274",
        "url": "https://www.ixigua.com/7302659027110986274"
    },
    {
        "title": "宠物解说：这些狗长大后的样子，你喜欢谁？",
        "docid": "7287121416904933924",
        "url": "https://www.ixigua.com/7287121416904933924"
    },
    {
        "title": "体重200斤的巨型犬，大白熊1v11单挑狼群完胜，狗界金刚芭比！",
        "docid": "7280117195173331511",
        "url": "https://www.ixigua.com/7280117195173331511"
    },
    {
        "title": "萌娃每天和狗掐架，相爱相杀谁都不认输逗笑妈妈：一天不打都稀奇",
        "docid": "7278591635754058296",
        "url": "https://www.ixigua.com/7278591635754058296"
    },
    {
        "title": "识时务者为俊猫，猫：我不是害怕，我这是尊重！#猫咪的迷惑行为",
        "docid": "7296853282516173339",
        "url": "https://www.ixigua.com/7296853282516173339"
    },
    {
        "title": "小猫下楼梯想偷懒，主人助力直接“流”了下去，网友：真是液体",
        "docid": "7283701084768436770",
        "url": "https://www.ixigua.com/7283701084768436770"
    },
    {
        "title": "4只狗狗在主人指挥下跳水，结局搞笑引人深思",
        "docid": "7304174035636584979",
        "url": "https://www.ixigua.com/7304174035636584979"
    },
    {
        "title": "男子在养殖场发现老鼠。出动喵捕头上演秒杀，猫：多大事喊我？",
        "docid": "7304101585091559962",
        "url": "https://www.ixigua.com/7304101585091559962"
    },
    {
        "title": "猫咪第一次出门，没想到变伏地魔了，平时在家有多横",
        "docid": "7279729295814033977",
        "url": "https://www.ixigua.com/7279729295814033977"
    }
]