[
    {
        "title": "山羊喝水胡子被冻水槽边，主人正要准备帮忙，结果却令人出乎意外",
        "docid": "7317540669621764649",
        "url": "https://www.ixigua.com/7317540669621764649"
    },
    {
        "title": "主人带回家几只小鸡崽，还让德牧帮忙照顾，结局太搞笑了",
        "docid": "7307531694356693567",
        "url": "https://www.ixigua.com/7307531694356693567"
    },
    {
        "title": "宠物解说：十只奇葩的猫咪，有八个会睡在锅里？",
        "docid": "7312927759120990770",
        "url": "https://www.ixigua.com/7312927759120990770"
    },
    {
        "title": "猫咪凌晨电饭锅中熟睡搞懵主人：6个月大，平时就很调皮",
        "docid": "7294902766512636450",
        "url": "https://www.ixigua.com/7294902766512636450"
    },
    {
        "title": "主人让狗子玩跑步机,没想到狗子越跑越急眼，网友：该死的胜负欲",
        "docid": "7308552791570678309",
        "url": "https://www.ixigua.com/7308552791570678309"
    },
    {
        "title": "球丢了猫咪让爷爷帮忙找，老人趴地上与猫咪无障碍沟通，结局爆笑",
        "docid": "7296344230992511527",
        "url": "https://www.ixigua.com/7296344230992511527"
    },
    {
        "title": "\"7个迹象揭示你的狗狗是否幸福，让你成为最棒的主人！\"",
        "docid": "7318382329071223306",
        "url": ""
    },
    {
        "title": "和狗狗分别了四个月，居然不记得我了",
        "docid": "7318339958199026191",
        "url": "https://www.ixigua.com/7318339958199026191"
    },
    {
        "title": "猫崽是我带大的，它离不开我，一早上我睡觉找了我六次，我的宝啊",
        "docid": "7308293681755521563",
        "url": "https://www.ixigua.com/7308293681755521563"
    },
    {
        "title": "男主人回家土拨鼠委屈凑近，钻怀里告状，凭一个动作贡献精湛演技",
        "docid": "7315248146006442547",
        "url": "https://www.ixigua.com/7315248146006442547"
    },
    {
        "title": "狗屁太臭了，猫咪推着窝就走了！！#神奇动物在抖音",
        "docid": "7291261996488458752",
        "url": "https://www.ixigua.com/7291261996488458752"
    },
    {
        "title": "别看个子小，一点也不怂。",
        "docid": "7307202375096861203",
        "url": "https://www.ixigua.com/7307202375096861203"
    },
    {
        "title": "大橘猫被困25楼外沿10天，这完全是它找家的套路！",
        "docid": "7304973696639336998",
        "url": "https://www.ixigua.com/7304973696639336998"
    },
    {
        "title": "大闸蟹拌狗粮，这一顿太奢侈了吧！",
        "docid": "7292038834529763866",
        "url": "https://www.ixigua.com/7292038834529763866"
    },
    {
        "title": "在旅行途中，夫妻俩救助一只濒死的小金毛，结局感动无数网友！",
        "docid": "7310100205024576035",
        "url": "https://www.ixigua.com/7310100205024576035"
    },
    {
        "title": "凉山男孩参加传统赛马比赛，在外网惊呆老外",
        "docid": "7294591801267225097",
        "url": "https://www.ixigua.com/7294591801267225097"
    },
    {
        "title": "被拉布拉多带大的羊，网友：它根本不知道自己是只羊",
        "docid": "7307686386948112915",
        "url": "https://www.ixigua.com/7307686386948112915"
    },
    {
        "title": "全网最爱笑的柴犬，把“鬼迷日眼”体现的淋漓尽致",
        "docid": "7285595348750303785",
        "url": "https://www.ixigua.com/7285595348750303785"
    },
    {
        "title": "猫界天花板“大咪”",
        "docid": "7290489374368924175",
        "url": "https://www.ixigua.com/7290489374368924175"
    },
    {
        "title": "十只大老鼠把小土狗包围住，看着小狗已体力不支，它能坚持下去么",
        "docid": "7291200214571221519",
        "url": "https://www.ixigua.com/7291200214571221519"
    },
    {
        "title": "（考古）金虎:麻麻你别叫王雪来，我害怕",
        "docid": "7296057573252596260",
        "url": "https://www.ixigua.com/7296057573252596260"
    },
    {
        "title": "狗狗被长期拴在工地看门，脖子被勒的腐烂发臭，如今命运从此改变",
        "docid": "7307096098244559399",
        "url": "https://www.ixigua.com/7307096098244559399"
    },
    {
        "title": "宠物解说：十只胆大的猫咪，有九个不走寻常路？",
        "docid": "7304805484526371363",
        "url": "https://www.ixigua.com/7304805484526371363"
    },
    {
        "title": "猫咪因为主人嘴碎，一副生无可恋的表情！",
        "docid": "7295689988371874304",
        "url": "https://www.ixigua.com/7295689988371874304"
    },
    {
        "title": "世界上最勇敢的猫，真是惊呆了！这只小猫像狮子一样打败了一群牛",
        "docid": "7316453816827249190",
        "url": "https://www.ixigua.com/7316453816827249190"
    },
    {
        "title": "宠物解说：猫咪为什么冲刺前，喜欢扭屁股？",
        "docid": "7314362738602574374",
        "url": "https://www.ixigua.com/7314362738602574374"
    },
    {
        "title": "二哈被主人玩坏了！一言不合就开干，每天要和主人大战300回合！",
        "docid": "7311625246484890123",
        "url": "https://www.ixigua.com/7311625246484890123"
    },
    {
        "title": "猫老是抢狗的窝，主人无奈出面撮合，最终睡到了一起",
        "docid": "7312701602933146164",
        "url": "https://www.ixigua.com/7312701602933146164"
    },
    {
        "title": "小狗一开始不理我，看到有火腿肠瞬间变脸了！#农村土狗 #狗狗",
        "docid": "7293834824995996198",
        "url": "https://www.ixigua.com/7293834824995996198"
    },
    {
        "title": "男子花了大价钱买的赛马，结果每天只会装死，演技还非常棒#狗狗",
        "docid": "7288230175681020451",
        "url": "https://www.ixigua.com/7288230175681020451"
    },
    {
        "title": "主人准备离去猫咪自动上车，淡定调整好坐姿示意出发：得有多信任",
        "docid": "7290727617056277031",
        "url": "https://www.ixigua.com/7290727617056277031"
    },
    {
        "title": "你能忍住不去打扰躺平的猫咪吗？",
        "docid": "7287751233673265679",
        "url": "https://www.ixigua.com/7287751233673265679"
    },
    {
        "title": "狗子跟主人跑运输中途产崽，主人亲自下厨大鱼大肉伺候：这是家人",
        "docid": "7316076572640248372",
        "url": "https://www.ixigua.com/7316076572640248372"
    },
    {
        "title": "爸爸不让狗狗躺女儿腿上，被“恶狠狠”瞪30秒：这小棉袄漏风！",
        "docid": "7302635634332533284",
        "url": "https://www.ixigua.com/7302635634332533284"
    },
    {
        "title": "马儿不满骑在身上的女子，突然一个后空翻，镜头记录全过程",
        "docid": "7292703202254783026",
        "url": "https://www.ixigua.com/7292703202254783026"
    },
    {
        "title": "大学生上门喂猫？最后差点猫没了！",
        "docid": "7286675079969440293",
        "url": "https://www.ixigua.com/7286675079969440293"
    },
    {
        "title": "大鱼缸半夜突然爆裂，老板听见巨响立马出来查看，当场被气笑",
        "docid": "7309296447445271066",
        "url": "https://www.ixigua.com/7309296447445271066"
    },
    {
        "title": "男子抚摸小猫，手法太过娴熟，小猫直呼上瘾，堪比猫草！",
        "docid": "7300743140980294156",
        "url": "https://www.ixigua.com/7300743140980294156"
    },
    {
        "title": "主人用奇招找狗子，不到3秒哈士奇自己跑回家，果然姜还是老的辣",
        "docid": "7303404479348245002",
        "url": "https://www.ixigua.com/7303404479348245002"
    },
    {
        "title": "主人和猫咪互道晚安，猫老婆催促让其赶紧回窝，猫咪反应主人笑喷",
        "docid": "7303751170781413951",
        "url": "https://www.ixigua.com/7303751170781413951"
    },
    {
        "title": "原来不是中医没落了，而是老祖宗的手段都被狗子们学了去！",
        "docid": "7311931881078358540",
        "url": "https://www.ixigua.com/7311931881078358540"
    },
    {
        "title": "喵桑：你对速度一无所知！",
        "docid": "7309802027365466674",
        "url": "https://www.ixigua.com/7309802027365466674"
    },
    {
        "title": "爷爷为讨孙女喜欢，大老远带来猫咪，接下来的举动网友直呼太高明",
        "docid": "7289279856284533282",
        "url": "https://www.ixigua.com/7289279856284533282"
    },
    {
        "title": "小狗刚挖好的坑被海水填了，这可把狗狗气坏了，下一秒忍住不要笑",
        "docid": "7309779809809695259",
        "url": "https://www.ixigua.com/7309779809809695259"
    },
    {
        "title": "操碎了心！狗子叫主人起床想出门遛遛，1小时后主人赖床狗子叹气",
        "docid": "7306341516711199272",
        "url": "https://www.ixigua.com/7306341516711199272"
    },
    {
        "title": "2到5岁狗都嫌？萌娃“欺负”大狗踩完前脚踢后脚，狗狗无奈纵容",
        "docid": "7303393760564969993",
        "url": "https://www.ixigua.com/7303393760564969993"
    },
    {
        "title": "学校“学姐”在男生寝室产子，男生们悉心照顾，还给学姐开罐头",
        "docid": "7313435704137089551",
        "url": "https://www.ixigua.com/7313435704137089551"
    },
    {
        "title": "主人教训不听话的猫咪反被其瞪，眼神逗乐网友：这是有一百个不服",
        "docid": "7308561122959983119",
        "url": "https://www.ixigua.com/7308561122959983119"
    },
    {
        "title": "老公把猫当孩子疼，可劲惯，能宠着上天还不够，还要给扶着梯子",
        "docid": "7293500042965418534",
        "url": "https://www.ixigua.com/7293500042965418534"
    },
    {
        "title": "论小猫咪的手有多欠？喵：你要这么说我可来劲了！",
        "docid": "7313245266596463114",
        "url": "https://www.ixigua.com/7313245266596463114"
    },
    {
        "title": "猫咪一旦报恩起来，真的是太让人感动了，真是太有灵性了吧",
        "docid": "7287254219197940284",
        "url": "https://www.ixigua.com/7287254219197940284"
    },
    {
        "title": "猫咪能有啥坏心思？怕猫女生帮闺蜜喂猫，心态逐渐爆炸逗乐网友",
        "docid": "7293724851142361615",
        "url": "https://www.ixigua.com/7293724851142361615"
    },
    {
        "title": "主人给狗狗买了件新衣服，穿上后笑翻全场：带出去回头率一定很高",
        "docid": "7303061474711175690",
        "url": "https://www.ixigua.com/7303061474711175690"
    },
    {
        "title": "白狗偷溜出门跟黑狗约会，主人强行阻止还是晚一步，见狗崽太扎心",
        "docid": "7288168086836871715",
        "url": "https://www.ixigua.com/7288168086836871715"
    },
    {
        "title": "喵生震惊！邻居的猫跑女子家里，发现走错全程张着嘴巴难以置信",
        "docid": "7307450227961791026",
        "url": "https://www.ixigua.com/7307450227961791026"
    },
    {
        "title": "跟狗做朋友真不容易，动不动就被锁喉",
        "docid": "7293808640044040719",
        "url": "https://www.ixigua.com/7293808640044040719"
    },
    {
        "title": "聪明的边牧会用跑步机锻炼，猫咪又菜又爱玩还不讲道理：拖后腿！",
        "docid": "7300779017605644826",
        "url": "https://www.ixigua.com/7300779017605644826"
    },
    {
        "title": "男子帮狗子沙发下取玩具，狗子撅个大腚硬要往前凑：给你开个远光",
        "docid": "7292235102816633379",
        "url": "https://www.ixigua.com/7292235102816633379"
    },
    {
        "title": "狗子在路上就开始犯困！跑到狗窝“秒睡秒打鼾”：睡眠质量太羡慕",
        "docid": "7287846313150906880",
        "url": "https://www.ixigua.com/7287846313150906880"
    },
    {
        "title": "猫咪沉浸式看球，多次控场却险些跌下“球坛”：除了球员就它最忙",
        "docid": "7306018838918169151",
        "url": "https://www.ixigua.com/7306018838918169151"
    },
    {
        "title": "老鼠：小丑是我自己？",
        "docid": "7316829283459170852",
        "url": "https://www.ixigua.com/7316829283459170852"
    },
    {
        "title": "天下武功唯快不破，两只家犬围攻一只橘猫，结局令人意想不到",
        "docid": "7290487689168716303",
        "url": "https://www.ixigua.com/7290487689168716303"
    },
    {
        "title": "流浪狗为了让刚出生的孩子活下去，它叼着孩子挨家挨户求收留",
        "docid": "7316093325059031606",
        "url": "https://www.ixigua.com/7316093325059031606"
    },
    {
        "title": "谁家蜗牛用手吃饭啊，萌化了~",
        "docid": "7286109469888086567",
        "url": "https://www.ixigua.com/7286109469888086567"
    },
    {
        "title": "从小养到大的大猫到底有多软萌，看完你羡慕了吗？",
        "docid": "7302687062573416969",
        "url": "https://www.ixigua.com/7302687062573416969"
    },
    {
        "title": "原来狗爸爸也会偏心，每次小奶狗犯错狗爸都会让大儿子背锅！",
        "docid": "7293097790677352970",
        "url": "https://www.ixigua.com/7293097790677352970"
    },
    {
        "title": "家猫连续半年每天疯狂袭击女主人，兽医说出真相后，主人后悔不已",
        "docid": "7292267168090030603",
        "url": "https://www.ixigua.com/7292267168090030603"
    },
    {
        "title": "主人不在家快递显示“狗已签收”，回放监控后笑得肚子疼：比人精",
        "docid": "7288241834881450548",
        "url": "https://www.ixigua.com/7288241834881450548"
    },
    {
        "title": "买完菜回家发现我家狗满嘴都是血，我的女儿也不见了，我当场崩溃",
        "docid": "7318040835004891648",
        "url": "https://www.ixigua.com/7318040835004891648"
    },
    {
        "title": "我自己给小猫打针，好像把小猫脑子扎穿了。",
        "docid": "7296449780753170984",
        "url": "https://www.ixigua.com/7296449780753170984"
    },
    {
        "title": "全网报复心最强的狗狗，一般不记仇，因为它有仇当场就报。",
        "docid": "7303846351408890379",
        "url": "https://www.ixigua.com/7303846351408890379"
    },
    {
        "title": "猫咪板板正正睡姥姥身边，姿势一模一样网友看呆：怎么做到的？",
        "docid": "7288595691893424679",
        "url": "https://www.ixigua.com/7288595691893424679"
    },
    {
        "title": "一只成了精的猫！会算术，会配合小主人演戏！网友：比演员还专业",
        "docid": "7305736170263839269",
        "url": "https://www.ixigua.com/7305736170263839269"
    },
    {
        "title": "小猫咪模仿主人“五指开花”，被这小爪爪萌化了！",
        "docid": "7307906181564105267",
        "url": "https://www.ixigua.com/7307906181564105267"
    },
    {
        "title": "两只狗狗闹矛盾,各站一边互不理睬,一眼能看出谁是公的,谁是母的",
        "docid": "7302336099488104987",
        "url": "https://www.ixigua.com/7302336099488104987"
    },
    {
        "title": "把一只金丝熊养在水里，看着它捕鱼，是什么样的体验",
        "docid": "7312379984767615526",
        "url": "https://www.ixigua.com/7312379984767615526"
    },
    {
        "title": "狗子被宝妈喂喝多余的母乳，结果体重令人心惊：衣服都要炸了",
        "docid": "7296325321538830858",
        "url": "https://www.ixigua.com/7296325321538830858"
    },
    {
        "title": "翻脸比翻书还快的猫，爱撒娇爱吃醋，因为不带孩子被老婆暴揍！",
        "docid": "7286814696681210408",
        "url": "https://www.ixigua.com/7286814696681210408"
    },
    {
        "title": "狗狗正在看鬼片时，墙上突然现出一双手，狗子的反应太逗了",
        "docid": "7309409381417353738",
        "url": "https://www.ixigua.com/7309409381417353738"
    },
    {
        "title": "两只猫咪想打架主人劝阻，不料猫咪竟扒开主人的手：这事你别管",
        "docid": "7295273677208158735",
        "url": "https://www.ixigua.com/7295273677208158735"
    },
    {
        "title": "男孩搂着小狗就是不撒手，狗妈妈找准时机立马把娃叼走，亲妈无奈",
        "docid": "7309306492799484468",
        "url": "https://www.ixigua.com/7309306492799484468"
    },
    {
        "title": "暴躁仓鼠疯狂啃咬笼子，放入土缸立马老实",
        "docid": "7304149733029708303",
        "url": "https://www.ixigua.com/7304149733029708303"
    },
    {
        "title": "猫咪爬上床迅速的踹了主人一脚，气的主人直接拿着拖鞋追出去",
        "docid": "7288964995348759094",
        "url": "https://www.ixigua.com/7288964995348759094"
    },
    {
        "title": "我以为捡了只“老鼠”没想到这也太可爱了",
        "docid": "7302029541601542697",
        "url": "https://www.ixigua.com/7302029541601542697"
    },
    {
        "title": "狗狗在家中上蹿下跳，一脚踢掉主人长了两年的肾结石：回去加鸡腿",
        "docid": "7294879326863163967",
        "url": "https://www.ixigua.com/7294879326863163967"
    },
    {
        "title": "主人带萨摩耶去修毛，剪完主人哭笑不得，网友：这才是真正的狗熊",
        "docid": "7299296795682112052",
        "url": "https://www.ixigua.com/7299296795682112052"
    },
    {
        "title": "狗狗冷得直哆嗦，主人给它盖了床被子，竟然在狗狗身上看到了安逸",
        "docid": "7314520262694273548",
        "url": "https://www.ixigua.com/7314520262694273548"
    },
    {
        "title": "黑猫回家打不开门，被身后的橘猫狂扇巴掌，橘猫：你到底能不能行",
        "docid": "7311587166214324787",
        "url": "https://www.ixigua.com/7311587166214324787"
    },
    {
        "title": "柯基天天找金毛吵架，金毛从包容到忍无可忍，随后主人笑翻了",
        "docid": "7291538017188053504",
        "url": "https://www.ixigua.com/7291538017188053504"
    },
    {
        "title": "几千和几万的柴犬到底有什么区别？终于要揭秘了！",
        "docid": "7295675138757001740",
        "url": "https://www.ixigua.com/7295675138757001740"
    },
    {
        "title": "一只鹦鹉教另一只鹦鹉说话，教到最后气的直接飘脏话了",
        "docid": "7315625284865589812",
        "url": "https://www.ixigua.com/7315625284865589812"
    },
    {
        "title": "主人将3个狗崽送人，狗妈将最后1只崽藏起来，主人找到感触万分",
        "docid": "7300810823595721270",
        "url": "https://www.ixigua.com/7300810823595721270"
    },
    {
        "title": "狗狗躺被窝被女主人厉声训斥，叹口气后面无表情转过头，网友笑疯",
        "docid": "7292682925207487013",
        "url": "https://www.ixigua.com/7292682925207487013"
    },
    {
        "title": "主人搬家狗子以为不要它了，满脸悲伤眼巴巴看着，带去新家秒开心",
        "docid": "7310859094452568617",
        "url": "https://www.ixigua.com/7310859094452568617"
    },
    {
        "title": "主人给金毛晒窝忘收回，晚上听到金毛委屈抽泣，还不忘回头看主人",
        "docid": "7298961528995349003",
        "url": "https://www.ixigua.com/7298961528995349003"
    },
    {
        "title": "嘤嘤怪！江西一猫咪睡觉时喜欢躺主人怀里，网友：这也太可爱了！",
        "docid": "7307454259509854760",
        "url": "https://www.ixigua.com/7307454259509854760"
    },
    {
        "title": "罗威纳总是受尽各种欺负，好在主人心疼它，不然又被女孩骂哭",
        "docid": "7286085729817395723",
        "url": "https://www.ixigua.com/7286085729817395723"
    },
    {
        "title": "狗狗的玩具球掉水里了，看看狗狗是如何操作的！",
        "docid": "7304514094303085119",
        "url": "https://www.ixigua.com/7304514094303085119"
    },
    {
        "title": "主人用手拉住猫咪的爪爪，猫咪把手抽回来还嫌弃的擦了擦",
        "docid": "7308275186766184975",
        "url": "https://www.ixigua.com/7308275186766184975"
    },
    {
        "title": "猫养了三年当孩子宠着惯着，它带给我们的快乐远比我们给它的多",
        "docid": "7297230012460532234",
        "url": "https://www.ixigua.com/7297230012460532234"
    },
    {
        "title": "主人正在视频聊天，猫咪凑过来跟主人学说“晚安”",
        "docid": "7291552157931668003",
        "url": "https://www.ixigua.com/7291552157931668003"
    },
    {
        "title": "宠物医院“患者”不满医生，主动发起凶悍攻击，互殴画面萌翻了",
        "docid": "7310047671333585417",
        "url": "https://www.ixigua.com/7310047671333585417"
    },
    {
        "title": "猫咪嘴馋把自己吃成医院VIP，阎王：眼熟，常见到！",
        "docid": "7317120241014784522",
        "url": ""
    },
    {
        "title": "笑不活了！云南动物园鹦鹉骂游客走红网络，我却笑死在评论区",
        "docid": "7316788184342479379",
        "url": ""
    },
    {
        "title": "见过猫头鹰睡觉以后，我打算明天不去上班",
        "docid": "7314509540530405898",
        "url": ""
    },
    {
        "title": "55个中华田园犬品种，你喜欢哪一个",
        "docid": "7315810046905434659",
        "url": ""
    },
    {
        "title": "高智商动物不能当宠物？美国女子曾养了只黑猩猩，却害惨了闺蜜！",
        "docid": "7309355369292694042",
        "url": ""
    },
    {
        "title": "怪不得老一辈会说：“养猫不养十年”，原来是有道理的！",
        "docid": "7304214706170970643",
        "url": ""
    },
    {
        "title": "猫叔带你玩转功夫秘籍，笑喷保证！",
        "docid": "7317814027567088164",
        "url": ""
    },
    {
        "title": "冬天吃鱼，优先挑选这4种鱼，鱼贩：人工养殖不了，天冷了更肥美",
        "docid": "7318325152503726646",
        "url": ""
    },
    {
        "title": "随处可见的斑鸠能吃吗，究竟是害鸟还是益鸟，它到底会不会筑巢？",
        "docid": "7312761813014299190",
        "url": ""
    },
    {
        "title": "中华田园犬系列介绍（上）",
        "docid": "7291532451091005992",
        "url": ""
    },
    {
        "title": "猫科进化有多完美？祖先打败同时期霸主，还能在人类手里活下来！",
        "docid": "7311971162928808499",
        "url": ""
    },
    {
        "title": "挑战每天认识一种狗—泰迪",
        "docid": "7316715074729624104",
        "url": ""
    },
    {
        "title": "小猫可以坐下一趟车的",
        "docid": "7312342368374522404",
        "url": ""
    },
    {
        "title": "养龟最后的结局不止两个，可能会有四个！你的结局已经注定？",
        "docid": "7295760106867573275",
        "url": ""
    },
    {
        "title": "流浪狗在雨夜被收养，路上不停回头张望：能带上我的小熊吗？",
        "docid": "7304882790477431335",
        "url": ""
    },
    {
        "title": "忘记跟美容师说猫是卷毛猫了",
        "docid": "7315057907937067531",
        "url": ""
    },
    {
        "title": "农村夫妻俩好心养大两只小鸟，如今小鸟长大他们却犯了难，咋回事",
        "docid": "7315373863263945250",
        "url": ""
    },
    {
        "title": "养猫还能“治病”？长期养猫会给你带来这几个好处，早了解早受益",
        "docid": "7309013641821585955",
        "url": ""
    },
    {
        "title": "你了解马吗？看完这66种马，你差不多学会相马了",
        "docid": "7316399552478118454",
        "url": ""
    },
    {
        "title": "拍到了猫生的18张照片",
        "docid": "7314802676808892964",
        "url": ""
    },
    {
        "title": "十大最贵的马品种，你知道几个？",
        "docid": "7313189626758939174",
        "url": ""
    },
    {
        "title": "狗狗我啊，早就子宫蓄脓了，只是你不知道",
        "docid": "7295682093458129434",
        "url": ""
    },
    {
        "title": "布偶猫说“爱你”的7种表现，你错过了吗？",
        "docid": "7318325511179125285",
        "url": ""
    },
    {
        "title": "女子网购20条金鱼收到一坨冰，卖家称解冻了就能活",
        "docid": "7316431633258005033",
        "url": ""
    },
    {
        "title": "这算是我2023见过最爱凑热闹的狗了 “让我看看是怎么个事”",
        "docid": "7307540670103798299",
        "url": ""
    },
    {
        "title": "金毛和小鸡玩一口咬嘴里！主人将其打一顿，结果是误会：心鸡茶",
        "docid": "7294535798639362560",
        "url": "https://www.ixigua.com/7294535798639362560"
    },
    {
        "title": "2023.12.15被萌兰笑死了，屁屁有点冷，给自己披了个屁垫，",
        "docid": "7312651704057954879",
        "url": "https://www.ixigua.com/7312651704057954879"
    },
    {
        "title": "突然大降温，狗子直接钻进灶台里面取暖，被主人发现后模样太搞笑",
        "docid": "7287132241786995239",
        "url": "https://www.ixigua.com/7287132241786995239"
    },
    {
        "title": "金毛因没拿到喜糖拦住婚车队，主人：后来喜主给了喜糖狗子就走了",
        "docid": "7303737957238866483",
        "url": "https://www.ixigua.com/7303737957238866483"
    },
    {
        "title": "主人烙饼给狗狗吃，狗狗迟迟不敢下口，网友直呼：太像了！",
        "docid": "7300041111010509323",
        "url": "https://www.ixigua.com/7300041111010509323"
    },
    {
        "title": "放假在家的神兽，连狗都不放过要打架，第一次看到狗都跳起来打",
        "docid": "7317439456774980147",
        "url": "https://www.ixigua.com/7317439456774980147"
    },
    {
        "title": "狗子被迫协助主人摘橘子，用尽吃奶的力气拼命扒地，场面引人爆笑",
        "docid": "7288191261335355944",
        "url": "https://www.ixigua.com/7288191261335355944"
    },
    {
        "title": "捷克狼犬回村后彻底放飞，田里玩泥巴水主人气炸，崩溃怒吼惹爆笑",
        "docid": "7285990827799609875",
        "url": "https://www.ixigua.com/7285990827799609875"
    },
    {
        "title": "主人纳闷为啥玻璃上总有鸟屎，终于录下“罪证”，猫咪表情亮了！",
        "docid": "7302633380510859785",
        "url": "https://www.ixigua.com/7302633380510859785"
    },
    {
        "title": "仓鼠在地洞里生了一窝宝宝，一转眼就长大了，把它们抓出来看看",
        "docid": "7296717400962466356",
        "url": "https://www.ixigua.com/7296717400962466356"
    },
    {
        "title": "金毛出门就被鸟追着啄已有半月之久，背后原因悲伤又好笑！",
        "docid": "7292240577611956746",
        "url": "https://www.ixigua.com/7292240577611956746"
    },
    {
        "title": "猫:这鹦鹉太欠了",
        "docid": "7291625338047005224",
        "url": "https://www.ixigua.com/7291625338047005224"
    },
    {
        "title": "难怪那么多人喜欢中华田园犬，我现在知道原因了！#狗狗",
        "docid": "7291600257622901259",
        "url": "https://www.ixigua.com/7291600257622901259"
    },
    {
        "title": "PDD看换了7个主人的狗当场笑闷了，黑豹才是真正的厂长",
        "docid": "7304951398398067239",
        "url": "https://www.ixigua.com/7304951398398067239"
    },
    {
        "title": "显眼包二驴又来比赛了，复读一年披挂上阵依旧败北",
        "docid": "7290177003393810944",
        "url": "https://www.ixigua.com/7290177003393810944"
    },
    {
        "title": "仓鼠有了保护罩主动挑衅猫，甩开腿子昂首出击，样子太好玩儿",
        "docid": "7287786699269898809",
        "url": "https://www.ixigua.com/7287786699269898809"
    },
    {
        "title": "这狐狸快成精了吧，还会用尾巴诱惑人，感觉有点不正经！",
        "docid": "7304954229955920423",
        "url": "https://www.ixigua.com/7304954229955920423"
    },
    {
        "title": "全网最神经兮兮的哈士奇，明明是只狗，却走出了骏马的风采",
        "docid": "7290359023390425611",
        "url": "https://www.ixigua.com/7290359023390425611"
    },
    {
        "title": "猫咪到底喜欢吃生鱼还是熟鱼？？看完这个视频你就有答案了！！",
        "docid": "7295617743938650674",
        "url": "https://www.ixigua.com/7295617743938650674"
    },
    {
        "title": "鳗鱼躺鱼缸一动不动男子以为死亡，丢两条泥鳅入缸后，两秒高能",
        "docid": "7290366251359011367",
        "url": "https://www.ixigua.com/7290366251359011367"
    },
    {
        "title": "壁虎蜕皮累得精疲力尽，小哥于心不忍出手相助，壁虎露出满意微笑",
        "docid": "7287111895885021748",
        "url": "https://www.ixigua.com/7287111895885021748"
    },
    {
        "title": "哈士奇手贱故意推倒萌娃，眼神步伐透露出睿智，主人不制止反笑了",
        "docid": "7301515315505005090",
        "url": "https://www.ixigua.com/7301515315505005090"
    },
    {
        "title": "狗狗被主人训斥，萌娃下跪帮求饶，评论区里直接笑不活了",
        "docid": "7318573579434557989",
        "url": ""
    },
    {
        "title": "宋人爱猫太疯狂，连太子都要靠猫选，现代猫奴自愧不如",
        "docid": "7316374406590022178",
        "url": ""
    },
    {
        "title": "男子私自给女友的狗狗染色，女友回来都惊呆了，接下来憋住别笑",
        "docid": "7303472862709744155",
        "url": "https://www.ixigua.com/7303472862709744155"
    },
    {
        "title": "女子喂狗时害怕被咬到手，双方都很有礼貌：狗子在夸奖中迷失自我",
        "docid": "7285288575426691618",
        "url": "https://www.ixigua.com/7285288575426691618"
    },
    {
        "title": "主人吃冰棍猫咪好奇，尝了一口直接瞳孔地震，随后反应网友笑翻了",
        "docid": "7288535074318844456",
        "url": "https://www.ixigua.com/7288535074318844456"
    },
    {
        "title": "盘点不同颜色蝴蝶蛹的进化过程",
        "docid": "7299262093801292329",
        "url": "https://www.ixigua.com/7299262093801292329"
    },
    {
        "title": "狗子：在外面，请叫我丧彪！",
        "docid": "7307571919656583730",
        "url": "https://www.ixigua.com/7307571919656583730"
    },
    {
        "title": "小黑豹第一次看见下冰雹！吓得和罗威纳犬躲在一张毯子下",
        "docid": "7287902803752649272",
        "url": "https://www.ixigua.com/7287902803752649272"
    },
    {
        "title": "拆家猫被爸妈养了几天，居然被夸文静！？看了监控后，我悟了..",
        "docid": "7284414266847953442",
        "url": "https://www.ixigua.com/7284414266847953442"
    },
    {
        "title": "大鹅上秒还在水里嬉戏，下秒突然火急火燎往家冲，主人跟去看笑喷",
        "docid": "7287420479017746956",
        "url": "https://www.ixigua.com/7287420479017746956"
    },
    {
        "title": "宠物解说：适合学生养的小型萌宠，你喜欢哪个？",
        "docid": "7294957520328589850",
        "url": "https://www.ixigua.com/7294957520328589850"
    },
    {
        "title": "老家土狗大战比特犬，一个是实战练出来的，一个是不要命的！",
        "docid": "7303105011846906387",
        "url": "https://www.ixigua.com/7303105011846906387"
    },
    {
        "title": "豹子：我好像中计了",
        "docid": "7304623577834357285",
        "url": "https://www.ixigua.com/7304623577834357285"
    },
    {
        "title": "主人在买东西，小狗在身后疯狂的撕扯她的裙子玩，主人的表现亮了",
        "docid": "7316739382814507555",
        "url": "https://www.ixigua.com/7316739382814507555"
    },
    {
        "title": "顾客进店说怕狗，主人立马转达：拉布拉多满脸委屈进厕所关门",
        "docid": "7292347174271222291",
        "url": "https://www.ixigua.com/7292347174271222291"
    },
    {
        "title": "小姥姥：全网唯一一个，能与所有动物无障碍沟通的神人",
        "docid": "7301147305514631719",
        "url": "https://www.ixigua.com/7301147305514631719"
    },
    {
        "title": "女孩地铁上睡醒见身旁竟站着一只“老虎”，仔细一看笑喷了",
        "docid": "7311909693037740553",
        "url": "https://www.ixigua.com/7311909693037740553"
    },
    {
        "title": "隔壁边牧在门口撒尿，女孩不爽带自家狗去理论，激烈争吵现场爆笑",
        "docid": "7287794592378782267",
        "url": "https://www.ixigua.com/7287794592378782267"
    },
    {
        "title": "弟弟脚趾撞骨裂全家模仿，一看妈妈就是罪魁祸首，狗子出场成亮点",
        "docid": "7294463229793665599",
        "url": "https://www.ixigua.com/7294463229793665599"
    },
    {
        "title": "狗子假装打架，趁主人不注意狂炫炒粉抓都抓不住：好一招声东击西",
        "docid": "7295573528051941914",
        "url": "https://www.ixigua.com/7295573528051941914"
    },
    {
        "title": "女生用柯基幼崽暖脚，柯基满脸不敢置信：明天就窜稀拉你一屋",
        "docid": "7291546763402412598",
        "url": "https://www.ixigua.com/7291546763402412598"
    },
    {
        "title": "阉割狗子狂骂操刀医生，五年后仇人变主人！#田园犬 #土狗 #卖萌",
        "docid": "7301145537456439808",
        "url": "https://www.ixigua.com/7301145537456439808"
    },
    {
        "title": "假装火腿肠是我的一根手指，边牧会吃吗？",
        "docid": "7285305571194962443",
        "url": "https://www.ixigua.com/7285305571194962443"
    },
    {
        "title": "狗子打架输了躺医院哭个不停，主人：平时打它也这样哭",
        "docid": "7291111063376888379",
        "url": "https://www.ixigua.com/7291111063376888379"
    },
    {
        "title": "女主人用夹子音哄狗狗吃饭，没有哪个“男生”拒绝的了这种声音",
        "docid": "7309683724470354495",
        "url": "https://www.ixigua.com/7309683724470354495"
    },
    {
        "title": "为什么狸花猫被称为老虎的师傅，狸花猫：名气都是打出来的",
        "docid": "7301655060692337188",
        "url": "https://www.ixigua.com/7301655060692337188"
    },
    {
        "title": "如何低成本训狗",
        "docid": "7317288881777771045",
        "url": "https://www.ixigua.com/7317288881777771045"
    },
    {
        "title": "男孩让妈妈掀开被子有惊喜，想到有猫没想到居然有这么大一只",
        "docid": "7317566635336958479",
        "url": "https://www.ixigua.com/7317566635336958479"
    },
    {
        "title": "男子在动物园被鹦鹉骂，工作人员回应引爆笑，网友：字字诛心",
        "docid": "7318598736564240946",
        "url": ""
    },
    {
        "title": "猫咪乖乖坐在扶手箱内，不料主人误将猫头当挡挂：没点准头！",
        "docid": "7304954868823753268",
        "url": "https://www.ixigua.com/7304954868823753268"
    },
    {
        "title": "有鸭子已经让我震惊了！结果这鸭子还下蛋#赛格国际购物中心",
        "docid": "7302755562469622308",
        "url": "https://www.ixigua.com/7302755562469622308"
    },
    {
        "title": "小小的身体顶了张成熟的脸，藏狐反差萌，网友：难怪打不赢土拨鼠",
        "docid": "7298625312047399459",
        "url": "https://www.ixigua.com/7298625312047399459"
    },
    {
        "title": "中华民族的猫咪绝不认输",
        "docid": "7291520804871733775",
        "url": "https://www.ixigua.com/7291520804871733775"
    },
    {
        "title": "狗子夫妻生娃太多愁坏人，满地“金毛”主人拉全家开会：别再生了",
        "docid": "7311178070977839642",
        "url": "https://www.ixigua.com/7311178070977839642"
    },
    {
        "title": "猫咪不会叼孩子主人亲自用手示范，随后举动主人惊呆：要给我养？",
        "docid": "7285533630368219660",
        "url": "https://www.ixigua.com/7285533630368219660"
    },
    {
        "title": "湖北一男子骑电瓶车上路，背后载着狗子，狗竟把手搭在主人肩膀上",
        "docid": "7298215894625616411",
        "url": "https://www.ixigua.com/7298215894625616411"
    },
    {
        "title": "一只日常之一百五十七——㈠",
        "docid": "7317403154084135474",
        "url": ""
    },
    {
        "title": "金鱼头上长肿瘤，眼睛都睁不开，一怒之下男子亲自“操刀”",
        "docid": "7285653785169527350",
        "url": "https://www.ixigua.com/7285653785169527350"
    },
    {
        "title": "狗狗与人类幼崽：金毛像个老婶子一样坐在车里，结果下一秒翻车了",
        "docid": "7307460398028947994",
        "url": "https://www.ixigua.com/7307460398028947994"
    },
    {
        "title": "把仓鼠丢进一箱葵花籽中，下一秒仓鼠像疯了一样，大家忍住别笑",
        "docid": "7317564220508209700",
        "url": "https://www.ixigua.com/7317564220508209700"
    },
    {
        "title": "狗狗边牧替我玩了一把麻将，你不得不相信边牧的聪明",
        "docid": "7294156033843429903",
        "url": "https://www.ixigua.com/7294156033843429903"
    },
    {
        "title": "那些猫咪剃毛后的造型，来看看哪个最搞笑？",
        "docid": "7286037277082878523",
        "url": "https://www.ixigua.com/7286037277082878523"
    },
    {
        "title": "柴犬绝食一个月饿到贫血，兽医找不出原因，网友一句话就治好了！",
        "docid": "7290894387309969975",
        "url": "https://www.ixigua.com/7290894387309969975"
    },
    {
        "title": "今天我们吃苹果哦",
        "docid": "7294915317682307625",
        "url": "https://www.ixigua.com/7294915317682307625"
    },
    {
        "title": "狗狗毛太厚主人带它剃毛，剃完后大变样惊呆网友",
        "docid": "7318279531209425448",
        "url": "https://www.ixigua.com/7318279531209425448"
    },
    {
        "title": "全网年龄最小，脾气最大的小奶猫，网友：看这眼神绝对是逆子无疑",
        "docid": "7299366264332681782",
        "url": "https://www.ixigua.com/7299366264332681782"
    },
    {
        "title": "主人逗玩两只小鹰，鹰妈见状直接拉走男子，当妈了就是不一样",
        "docid": "7315342675941523979",
        "url": "https://www.ixigua.com/7315342675941523979"
    },
    {
        "title": "是宠物更是家人#狗狗 #这个世界不能没有小狗 #阿拉斯加",
        "docid": "7301626244234707490",
        "url": "https://www.ixigua.com/7301626244234707490"
    },
    {
        "title": "一家人坐在院子里看狗子摘石榴：一定要荣华富贵吗？健康快乐足矣",
        "docid": "7287776388826956300",
        "url": "https://www.ixigua.com/7287776388826956300"
    },
    {
        "title": "邻居阿姨提着肉路过，狗子一口抢走死不松口，主人赔偿表情惹爆笑",
        "docid": "7285992838012240396",
        "url": "https://www.ixigua.com/7285992838012240396"
    },
    {
        "title": "女子在厨房忙得不可开交，丈夫和狗子喝茶晒太阳，狗子表情亮了",
        "docid": "7294184217238635008",
        "url": "https://www.ixigua.com/7294184217238635008"
    },
    {
        "title": "盘点那些狗狗与主人的久别重逢，虽然狗狗不会说话",
        "docid": "7288623790165066301",
        "url": "https://www.ixigua.com/7288623790165066301"
    },
    {
        "title": "狗子过年回家，扛起做饭大责，狗心想这个家还是得靠我啊",
        "docid": "7317576209611784715",
        "url": "https://www.ixigua.com/7317576209611784715"
    },
    {
        "title": "主人用铁链栓住兔子，“是不是栓反了？”，狗子：没反 没反",
        "docid": "7286712304110928447",
        "url": "https://www.ixigua.com/7286712304110928447"
    },
    {
        "title": "主人问狗狗每天在哪儿看钓鱼，到达现场后主人惊呆：记得回家吃饭",
        "docid": "7294535520506511898",
        "url": "https://www.ixigua.com/7294535520506511898"
    },
    {
        "title": "“这只傻猫真的要把我笑死了，哈哈哈！”",
        "docid": "7285892151739843127",
        "url": "https://www.ixigua.com/7285892151739843127"
    },
    {
        "title": "主人很心痛！连电插排掉入鱼缸中，下一幕悲剧了！",
        "docid": "7306045960768258612",
        "url": "https://www.ixigua.com/7306045960768258612"
    },
    {
        "title": "主人正在杀鸡，小鸭子不小心看到了，下一秒憋住别笑！",
        "docid": "7300126548919910938",
        "url": "https://www.ixigua.com/7300126548919910938"
    },
    {
        "title": "警犬界的那些显眼包，好好的姑娘谁会叫大力",
        "docid": "7294239884271845929",
        "url": "https://www.ixigua.com/7294239884271845929"
    },
    {
        "title": "游客游玩，被鹦鹉骂了个狗血淋头#鹦鹉 #动物的迷惑行为 #鸟类",
        "docid": "7316170666196894247",
        "url": "https://www.ixigua.com/7316170666196894247"
    },
    {
        "title": "主人重逢失散3年狗狗，触碰瞬间狗子凶狠扭头，下一秒刀疤变旺财",
        "docid": "7297045807012774427",
        "url": "https://www.ixigua.com/7297045807012774427"
    },
    {
        "title": "给蜻蜓喂一个面包虫，没想到也能引发一场悲剧！这只蜻蜓怎么弄的",
        "docid": "7318004900821598729",
        "url": "https://www.ixigua.com/7318004900821598729"
    },
    {
        "title": "狗子和邻居狗打架，大胜归来一脸趾高气昂看着主人：还不炒俩菜去",
        "docid": "7295950027233427980",
        "url": "https://www.ixigua.com/7295950027233427980"
    },
    {
        "title": "狗狗咬破染发膏洗不掉，主人索性将狗染成红色：出门被其他狗排挤",
        "docid": "7293390247671366183",
        "url": "https://www.ixigua.com/7293390247671366183"
    },
    {
        "title": "手工大神制作金字塔宠物监狱，一共六层，仓鼠如何逃出？",
        "docid": "7292630424776344073",
        "url": "https://www.ixigua.com/7292630424776344073"
    },
    {
        "title": "大黑牛看到母牛兴奋过度从屋顶跳下去，直接把脊椎整断",
        "docid": "7296691919801811467",
        "url": "https://www.ixigua.com/7296691919801811467"
    },
    {
        "title": "狗子爱上槟榔，看见主人拿着就上前讨要！狗：一天不嚼就刺挠",
        "docid": "7294135161951060489",
        "url": "https://www.ixigua.com/7294135161951060489"
    },
    {
        "title": "“狗狗我啊太卑微了，我也很害怕”#狗狗的心思都写在脸上了",
        "docid": "7302274496382272037",
        "url": "https://www.ixigua.com/7302274496382272037"
    },
    {
        "title": "网友分享了自己家的狗子，穿上衣服后有种狼外婆的既视感",
        "docid": "7312660677846532660",
        "url": "https://www.ixigua.com/7312660677846532660"
    },
    {
        "title": "“这只猫让我足足笑了2分10秒！”",
        "docid": "7303352596503200294",
        "url": "https://www.ixigua.com/7303352596503200294"
    },
    {
        "title": "狗狗被电网电后，就和电网杠上了，下一秒请憋住别笑！",
        "docid": "7287886490346979895",
        "url": "https://www.ixigua.com/7287886490346979895"
    },
    {
        "title": "专业对口！男主人带着一群哈士奇进山干活，下一幕惊呆网友",
        "docid": "7285984474419397139",
        "url": "https://www.ixigua.com/7285984474419397139"
    },
    {
        "title": "97斤战神白起挑战95斤雷豹，现场血流成河惨不忍睹，差点丢掉狗命",
        "docid": "7317193436401140236",
        "url": "https://www.ixigua.com/7317193436401140236"
    },
    {
        "title": "分手情侣为争夺金毛抚养权，居然上演了抢狗连续剧，堪称年度大戏",
        "docid": "7286417541767889444",
        "url": "https://www.ixigua.com/7286417541767889444"
    },
    {
        "title": "主人假装睡着了！狗子鬼鬼祟祟观察，趁机一口咬走猪蹄结果搞笑了",
        "docid": "7291169030751289867",
        "url": "https://www.ixigua.com/7291169030751289867"
    },
    {
        "title": "猫咪喜欢抱着主人的头睡觉，把熟睡的主人硬生生热醒：这窒息的爱",
        "docid": "7311571771210727976",
        "url": "https://www.ixigua.com/7311571771210727976"
    },
    {
        "title": "狗子头撞了个大包，主人帮忙热敷忍不住笑了，掀开帕子网友笑翻了",
        "docid": "7287118532205085244",
        "url": "https://www.ixigua.com/7287118532205085244"
    },
    {
        "title": "女主人被猫绊倒求男友安慰，男友出来后猫咪也躺下：谁不会倒似的",
        "docid": "7317538728535458343",
        "url": "https://www.ixigua.com/7317538728535458343"
    },
    {
        "title": "我的哈吉咪今天出嫁了……",
        "docid": "7303581798360711715",
        "url": "https://www.ixigua.com/7303581798360711715"
    },
    {
        "title": "红隼夫妇霸占女主阳台，竟把这里当月子中心，受到款待后明年还来",
        "docid": "7309828222202413622",
        "url": "https://www.ixigua.com/7309828222202413622"
    },
    {
        "title": "猫的一天能有多忙？简直堪比上班啊",
        "docid": "7295939127566926355",
        "url": "https://www.ixigua.com/7295939127566926355"
    },
    {
        "title": "决一死战吧！臭女人！",
        "docid": "7294516717164692003",
        "url": "https://www.ixigua.com/7294516717164692003"
    },
    {
        "title": "全网最欠揍的羊！每天都在作死的边缘徘徊！网友：早晚成真烤串！",
        "docid": "7308325486986428968",
        "url": "https://www.ixigua.com/7308325486986428968"
    },
    {
        "title": "盘点那些年追过的网红狗狗，都是满满的回忆！",
        "docid": "7310548484648600099",
        "url": "https://www.ixigua.com/7310548484648600099"
    },
    {
        "title": "从警犬到打遍周围无敌犬的霸道街溜子，狗界霸总日常大家爱看吗？",
        "docid": "7303197622528016935",
        "url": "https://www.ixigua.com/7303197622528016935"
    },
    {
        "title": "女生投喂狗狗时夸它，兴奋得狗狗直跺脚：我是全世界最棒的狗狗",
        "docid": "7285582328204788279",
        "url": "https://www.ixigua.com/7285582328204788279"
    },
    {
        "title": "男友第一次来女生家喝多，狗狗看热闹不嫌事大低头打量，表情亮了",
        "docid": "7291577589645345314",
        "url": "https://www.ixigua.com/7291577589645345314"
    },
    {
        "title": "宝宝出生狗子开心求贴贴，两年后躲在旁不敢吱声，满脸愁容狗都嫌",
        "docid": "7315604154590691840",
        "url": "https://www.ixigua.com/7315604154590691840"
    },
    {
        "title": "狗子每天看主人砸榛子喂自己，竟也慢慢学会嗑榛子，一天能磕半斤",
        "docid": "7303386067401441807",
        "url": "https://www.ixigua.com/7303386067401441807"
    },
    {
        "title": "男子养的狐狸对猫温柔以待，对狗下死手得知原因：看我几分像从前",
        "docid": "7300781129572418067",
        "url": "https://www.ixigua.com/7300781129572418067"
    },
    {
        "title": "萌兰看到妹妹打架，忙得热火朝天！最后还掰棍子给妹妹！",
        "docid": "7308714579100926516",
        "url": "https://www.ixigua.com/7308714579100926516"
    },
    {
        "title": "第一次在猫脸上看到手忙脚乱，猫：看不过来，完全看不过来",
        "docid": "7299283524761485839",
        "url": "https://www.ixigua.com/7299283524761485839"
    },
    {
        "title": "跑恩佐家门口叫嚣来了，是可忍熟不可忍，去放黑豹吧",
        "docid": "7291911481707528713",
        "url": "https://www.ixigua.com/7291911481707528713"
    },
    {
        "title": "女孩教育边牧德牧前来帮忙，一人三狗吵的不可开交，网友笑喷",
        "docid": "7295580723350602280",
        "url": "https://www.ixigua.com/7295580723350602280"
    },
    {
        "title": "主人戒指不见猫咪帮找，翻找一番后爪子精准扒拉出：它竟然笑了！",
        "docid": "7290064470100542008",
        "url": "https://www.ixigua.com/7290064470100542008"
    },
    {
        "title": "男子每天投喂鸡蛋黄给看门狗，一人一狗在时间的洪流中逐渐默契",
        "docid": "7300376879532671523",
        "url": "https://www.ixigua.com/7300376879532671523"
    },
    {
        "title": "姐姐在弟弟家留宿一夜，16岁狗狗来回看十几趟，姐姐吐槽惹爆笑",
        "docid": "7310146136244191771",
        "url": "https://www.ixigua.com/7310146136244191771"
    },
    {
        "title": "碎嘴鹦鹉模仿主人睡前的私密对话，破事全被抖出来了：不学点好的",
        "docid": "7289312531078709812",
        "url": "https://www.ixigua.com/7289312531078709812"
    },
    {
        "title": "广西乡镇狗市，五黑犬要多少钱一只？这只五黑犬绝对物超所值",
        "docid": "7299616830383981071",
        "url": "https://www.ixigua.com/7299616830383981071"
    },
    {
        "title": "这只羊被狗带大现在它还不知道自己是只羊，狗干的事情它会抢着干",
        "docid": "7286705568994034236",
        "url": "https://www.ixigua.com/7286705568994034236"
    },
    {
        "title": "一只得了猫瘟的奶牛猫蹲在水坑里静静地等待死亡",
        "docid": "7309508850988777999",
        "url": "https://www.ixigua.com/7309508850988777999"
    },
    {
        "title": "小黑兔丝滑抢走垫子，小白兔一脸疑惑地看着，头一次看到兔子皱眉",
        "docid": "7307812894589223463",
        "url": "https://www.ixigua.com/7307812894589223463"
    },
    {
        "title": "猫的反应速度有多快，不愧是老虎的师傅#猫咪 #功夫猫",
        "docid": "7307971454782734902",
        "url": "https://www.ixigua.com/7307971454782734902"
    },
    {
        "title": "捡了一只浑身是病的猫，养着养着画风开始不对，它怎么越长越霸气",
        "docid": "7313943363487695411",
        "url": "https://www.ixigua.com/7313943363487695411"
    },
    {
        "title": "2斤重的黑鱼挑战33条食人鱼，谁能更胜一筹？#养鱼日记 #猛鱼",
        "docid": "7310142003223003687",
        "url": "https://www.ixigua.com/7310142003223003687"
    },
    {
        "title": "小黑狗被女生夸牙齿白，下秒女生一句话让它笑容消失：你咋骂人呢",
        "docid": "7293040136961884684",
        "url": "https://www.ixigua.com/7293040136961884684"
    },
    {
        "title": "今天帮一个山东的粉丝在农村寻到了一条五黑犬，把它给高兴坏了",
        "docid": "7286409765381472803",
        "url": "https://www.ixigua.com/7286409765381472803"
    },
    {
        "title": "主人第一次学狗叫，狗子听到后惊讶“表情包”：终于开口说话了",
        "docid": "7303012326888702498",
        "url": "https://www.ixigua.com/7303012326888702498"
    },
    {
        "title": "大爷围观爆米花机，没注意狗子害怕的瑟瑟发抖，一声爆破瞬间释然",
        "docid": "7288162277901992483",
        "url": "https://www.ixigua.com/7288162277901992483"
    },
    {
        "title": "今天我们吃大白菜哦",
        "docid": "7291208006690636300",
        "url": "https://www.ixigua.com/7291208006690636300"
    },
    {
        "title": "从一只猫身上验证膝跳反射。猫：哪个讨厌鬼整我波棱盖",
        "docid": "7293353069184549403",
        "url": "https://www.ixigua.com/7293353069184549403"
    },
    {
        "title": "惭愧！为了不让猫挠门，门口放了猫讨厌的橘子皮，没想到…",
        "docid": "7294265897827435048",
        "url": "https://www.ixigua.com/7294265897827435048"
    },
    {
        "title": "嘲讽值拉满！女子腿意外受伤只能单脚走路，猫咪看后立马学习姿势",
        "docid": "7285987214645789240",
        "url": "https://www.ixigua.com/7285987214645789240"
    },
    {
        "title": "上海展金鱼比赛，十二红蝶尾全场总冠军，确实漂亮！#水族",
        "docid": "7310803309030441483",
        "url": "https://www.ixigua.com/7310803309030441483"
    },
    {
        "title": "水獭见到主人吃披萨，立刻端来自己的小碗，接下来请忍住别笑！",
        "docid": "7291214063474835983",
        "url": "https://www.ixigua.com/7291214063474835983"
    },
    {
        "title": "《我是猫》：我们把猫当宠物，而在它们的眼中，我们原来是这样的",
        "docid": "7318688442815398409",
        "url": ""
    },
    {
        "title": "猫:我想睡一觉就这么难吗",
        "docid": "7301269197504381474",
        "url": "https://www.ixigua.com/7301269197504381474"
    },
    {
        "title": "萨摩耶和人类的治愈瞬间，这大概就是人喜欢养萨摩耶的原因！",
        "docid": "7304284318481220136",
        "url": "https://www.ixigua.com/7304284318481220136"
    },
    {
        "title": "哈哈别太离谱！猫老大为小弟出头，俩爷们一起被小母猫揍了..",
        "docid": "7300570745653396008",
        "url": "https://www.ixigua.com/7300570745653396008"
    },
    {
        "title": "最像女人的狗，生气的时候和人一模一样！每天学主人跷二郎腿！",
        "docid": "7294553902786183695",
        "url": "https://www.ixigua.com/7294553902786183695"
    },
    {
        "title": "女生跟狗狗打招呼，狗子见状害羞得不知所措，反应萌化众人",
        "docid": "7287128455576355347",
        "url": "https://www.ixigua.com/7287128455576355347"
    },
    {
        "title": "没想到以这种方式出圈，一狗出事全狗遭殃，金毛：我不要面子的吗",
        "docid": "7291970712464523776",
        "url": "https://www.ixigua.com/7291970712464523776"
    },
    {
        "title": "这调皮的儿子，亏了是我亲生的，要换做别人早一巴掌扇过去了",
        "docid": "7318570036803666432",
        "url": "https://www.ixigua.com/7318570036803666432"
    },
    {
        "title": "窗外闯入一对鸟夫妻来生蛋，没想到离开后，第二年又来了",
        "docid": "7309407127242867237",
        "url": "https://www.ixigua.com/7309407127242867237"
    },
    {
        "title": "主人买猫爬架忘看尺寸，猫咪趁机报复性消费让网友笑喷：人不如猫",
        "docid": "7288600393134572088",
        "url": "https://www.ixigua.com/7288600393134572088"
    },
    {
        "title": "一只和尚鹦鹉可以和主人日常对话真是聪明可爱",
        "docid": "7306832209560896034",
        "url": "https://www.ixigua.com/7306832209560896034"
    },
    {
        "title": "叛逆狗子跑楼梯间从1楼冲刺回家，主人在22楼找到笑昏：家住31楼",
        "docid": "7287779081264103955",
        "url": "https://www.ixigua.com/7287779081264103955"
    },
    {
        "title": "鹦鹉离家出走后，后悔了，站窗外敲玻璃叫：“麻麻~”",
        "docid": "7315284310502998569",
        "url": "https://www.ixigua.com/7315284310502998569"
    },
    {
        "title": "男孩带宠物鸟一起在食堂吃面！网友：这鸟是真的肥",
        "docid": "7312710002581209626",
        "url": "https://www.ixigua.com/7312710002581209626"
    },
    {
        "title": "全网最聪明的猫大咪被渣猫祸害，700万粉丝要给张铁柱做绝育！",
        "docid": "7304542068615938595",
        "url": "https://www.ixigua.com/7304542068615938595"
    },
    {
        "title": "哈士奇，为什么不怕冷？",
        "docid": "7303503050969186855",
        "url": "https://www.ixigua.com/7303503050969186855"
    },
    {
        "title": "猫咪被吓一跳的真实反应，直接原地起飞，一言不合就应激！#猫咪",
        "docid": "7286799951705834042",
        "url": "https://www.ixigua.com/7286799951705834042"
    },
    {
        "title": "猫咪雪天躲狗窝里睡大觉，被狗子发现拽出来扔的老远：是你窝吗？",
        "docid": "7309315488679952906",
        "url": "https://www.ixigua.com/7309315488679952906"
    },
    {
        "title": "德牧在船上看见一群海豚后，瞬间一跃而下，主人根本拦都拦不住",
        "docid": "7314228365177651775",
        "url": "https://www.ixigua.com/7314228365177651775"
    },
    {
        "title": "一回农村奶奶家，就跟家里的公鸡干架谁也不服谁，看完笑得肚子疼",
        "docid": "7305311513072370227",
        "url": "https://www.ixigua.com/7305311513072370227"
    },
    {
        "title": "大丰收，狗狗掰完玉米坐车上开心的回家",
        "docid": "7287030791324992063",
        "url": "https://www.ixigua.com/7287030791324992063"
    },
    {
        "title": "全网第一大胖猫—张煤球，被网友戏称为“一辆猫”“一摊猫”",
        "docid": "7311856817154294335",
        "url": "https://www.ixigua.com/7311856817154294335"
    },
    {
        "title": "爱宝找不到辉宝急哭了，辉宝回来后被爱宝教训，睿宝大气不敢喘",
        "docid": "7301693070003831322",
        "url": "https://www.ixigua.com/7301693070003831322"
    },
    {
        "title": "一只“护妈狂魔”的阿拉斯加，为抢妈妈每天和爸爸斗智斗勇！",
        "docid": "7305012476574499368",
        "url": "https://www.ixigua.com/7305012476574499368"
    },
    {
        "title": "翻新二手柯基，又是洗假狗的一天，太解压了",
        "docid": "7286483513170362943",
        "url": "https://www.ixigua.com/7286483513170362943"
    },
    {
        "title": "福宝的血脉压制给辉宝留下了阴影，回房后都迟迟没有缓过神来",
        "docid": "7316866869774942747",
        "url": "https://www.ixigua.com/7316866869774942747"
    },
    {
        "title": "大爷去银行取钱，让金毛帮忙看自行车，回来后笑的假牙都掉了",
        "docid": "7318661472665240073",
        "url": "https://www.ixigua.com/7318661472665240073"
    },
    {
        "title": "猫头鹰听到主人呼唤，激动地迈着小碎步就过来了，真的是太逗了！",
        "docid": "7304929833954804262",
        "url": "https://www.ixigua.com/7304929833954804262"
    },
    {
        "title": "你永远想不到，狗子都会带回来什么样的朋友#狗狗的友谊",
        "docid": "7313161317974868507",
        "url": "https://www.ixigua.com/7313161317974868507"
    },
    {
        "title": "小男孩给小马驹喂奶，站在一旁的马妈妈，举动让人感动不已",
        "docid": "7297146368718701091",
        "url": "https://www.ixigua.com/7297146368718701091"
    },
    {
        "title": "男子在破屋发现一群出生不久的小狗，没想到刚一见面就放大招！",
        "docid": "7300774355154403875",
        "url": "https://www.ixigua.com/7300774355154403875"
    },
    {
        "title": "小鸟展翅恨天低#看一遍笑一遍 #万万没想到 #这谁顶得住啊 #猫咪",
        "docid": "7305630930968936995",
        "url": "https://www.ixigua.com/7305630930968936995"
    },
    {
        "title": "男朋友第一次到女生家，猫咪一脸小心谨慎躲门后偷看，表情萌翻人",
        "docid": "7293792076280365594",
        "url": "https://www.ixigua.com/7293792076280365594"
    },
    {
        "title": "主人开门发现猫咪全都消失，一看墙上顿时气乐了：爬满“猫猫虫”",
        "docid": "7303776440921621001",
        "url": "https://www.ixigua.com/7303776440921621001"
    },
    {
        "title": "会吐口水的猫猫，每次打不过就吐口水，兽医：就是单纯没素质",
        "docid": "7303074155778441779",
        "url": "https://www.ixigua.com/7303074155778441779"
    },
    {
        "title": "半夜汪汪队开会，狗子不顾主人呼喊加入其中，隔天上班暴露细节！",
        "docid": "7297069287951303220",
        "url": "https://www.ixigua.com/7297069287951303220"
    },
    {
        "title": "四根猫条是你的极限，也是我的底线。",
        "docid": "7303485192541471242",
        "url": "https://www.ixigua.com/7303485192541471242"
    },
    {
        "title": "狗狗装潇洒送小主人，事后流泪哀怨看女主人：你一窝就一个还送走",
        "docid": "7303734300971631142",
        "url": "https://www.ixigua.com/7303734300971631142"
    },
    {
        "title": "狗子抓老鼠被夹伤，跑回家找主人帮忙，虽然疼但还是一脸“微笑”",
        "docid": "7298181519255241279",
        "url": "https://www.ixigua.com/7298181519255241279"
    },
    {
        "title": "7岁萨摩耶扶把手淡定骑车遛小孩，主人：它把自己当人了",
        "docid": "7292621282045231625",
        "url": "https://www.ixigua.com/7292621282045231625"
    }
]