[
    {
        "title": "你好，我这边有个贱要犯一下，麻烦你配合一下",
        "docid": "7336455219167167016",
        "url": "https://www.ixigua.com/7336455219167167016"
    },
    {
        "title": "这条视频里，绝对有你家猫的名字，没有的话，算我输😜#新手养猫",
        "docid": "7313510752629981759",
        "url": "https://www.ixigua.com/7313510752629981759"
    },
    {
        "title": "狗：做狗这么多年，还是你比较纯！",
        "docid": "7317586068784710163",
        "url": "https://www.ixigua.com/7317586068784710163"
    },
    {
        "title": "狸花猫软磨硬泡把德牧放倒，钻狗怀里晒太阳，狗皮褥子就是暖和",
        "docid": "7328403695400387091",
        "url": "https://www.ixigua.com/7328403695400387091"
    },
    {
        "title": "狗子咬坏好几把椅子！主人放大招凳腿“钉钉子”，狗子咬几口秒怂",
        "docid": "7336411024414900736",
        "url": "https://www.ixigua.com/7336411024414900736"
    },
    {
        "title": "姐妹俩那个已经先去了剩下他~他还有我我会吧你照顾长大~mua",
        "docid": "7337261952080871988",
        "url": "https://www.ixigua.com/7337261952080871988"
    },
    {
        "title": "马",
        "docid": "7337288868204872204",
        "url": "https://www.ixigua.com/7337288868204872204"
    },
    {
        "title": "短腿奶狗下楼梯翻车，整个身体前倾从高处翻滚下来，一旁黑狗看呆",
        "docid": "7316360598902702627",
        "url": "https://www.ixigua.com/7316360598902702627"
    },
    {
        "title": "饭桌上猫咪偷喝主人的水，小主人宠溺点头萌化网友：太有爱了吧",
        "docid": "7326765413961433637",
        "url": "https://www.ixigua.com/7326765413961433637"
    },
    {
        "title": "这没羞没臊的玩意儿啊",
        "docid": "7309864483332030985",
        "url": "https://www.ixigua.com/7309864483332030985"
    },
    {
        "title": "流浪汉带着流浪狗无家可归，暴风雪说来就来，干脆用大火烧穿山体",
        "docid": "7332657597101081151",
        "url": "https://www.ixigua.com/7332657597101081151"
    },
    {
        "title": "宠物解说：十只狗狗在这种地方玩，有八个掉落水中？",
        "docid": "7330237042242748978",
        "url": "https://www.ixigua.com/7330237042242748978"
    },
    {
        "title": "猫妈妈带娃",
        "docid": "7309801682224251392",
        "url": "https://www.ixigua.com/7309801682224251392"
    },
    {
        "title": "二哈突然尿血，瘫在地上奄奄一息一动不动，女主的魂儿都吓没了",
        "docid": "7315787935138349583",
        "url": "https://www.ixigua.com/7315787935138349583"
    },
    {
        "title": "骂它又听不懂打它又不改哎",
        "docid": "7337208446996972070",
        "url": "https://www.ixigua.com/7337208446996972070"
    },
    {
        "title": "4岁的金毛第一次接触异性狗，扭捏的样子特像第一次约会的我们",
        "docid": "7317518121902965248",
        "url": "https://www.ixigua.com/7317518121902965248"
    },
    {
        "title": "猫咪车内观察周边风景，乖乖站起瞪大眼不断吐舌，满脸的难以置信",
        "docid": "7333023843013001763",
        "url": "https://www.ixigua.com/7333023843013001763"
    },
    {
        "title": "今晚床上也没有我的位置吗",
        "docid": "7322337978339525120",
        "url": "https://www.ixigua.com/7322337978339525120"
    },
    {
        "title": "当虎头蜂遇上”蜂鸟“开战的胜算有多大？这次虎头蜂真的遇到对手",
        "docid": "7333831459641229863",
        "url": "https://www.ixigua.com/7333831459641229863"
    },
    {
        "title": "原来比奶牛猫更神经的，是它的的主人啊，分不清这是杂耍还是喜剧",
        "docid": "7332420955878851135",
        "url": "https://www.ixigua.com/7332420955878851135"
    },
    {
        "title": "女子给狗子投喂食物，结果狗子不为所动行为笑哭网友：真有骨气！",
        "docid": "7314582245170217507",
        "url": "https://www.ixigua.com/7314582245170217507"
    },
    {
        "title": "猫咪太懒让狗子驮着走，主人：一个窝里长大的 狗习惯了",
        "docid": "7317558542448198196",
        "url": "https://www.ixigua.com/7317558542448198196"
    },
    {
        "title": "23岁女子不顾家人反对，疯狂爱上一头公猪，各种行为难以置信",
        "docid": "7337223654624723491",
        "url": "https://www.ixigua.com/7337223654624723491"
    },
    {
        "title": "它大概心想，主人也许会过来看它一眼吧....",
        "docid": "7311183176985281024",
        "url": "https://www.ixigua.com/7311183176985281024"
    },
    {
        "title": "时隔一个月这公狗终于回来了，还知道有个家啊，一天天的气死人",
        "docid": "7320933413145215522",
        "url": "https://www.ixigua.com/7320933413145215522"
    },
    {
        "title": "嘲讽值拉满！女子腿意外受伤只能单脚走路，猫咪看后立马学习姿势",
        "docid": "7304095294152278543",
        "url": "https://www.ixigua.com/7304095294152278543"
    },
    {
        "title": "为何女都喜欢养大型犬 看完你就知道了",
        "docid": "7329111922278826507",
        "url": "https://www.ixigua.com/7329111922278826507"
    },
    {
        "title": "萨摩耶跟金毛掐架拉不开，被主人扇一巴掌秒静音，金毛反应成精了",
        "docid": "7329093489457627711",
        "url": "https://www.ixigua.com/7329093489457627711"
    },
    {
        "title": "小猴子去奶奶家过年，一开始它很害怕，熟悉后，逗得奶奶很开心",
        "docid": "7335653544131428874",
        "url": "https://www.ixigua.com/7335653544131428874"
    },
    {
        "title": "猫咪不睡觉炸毛哈人嘴里喊“欧嘞”，原来是察觉到地震，主人吓懵",
        "docid": "7317469151209980457",
        "url": "https://www.ixigua.com/7317469151209980457"
    },
    {
        "title": "狗狗每天陪着宝宝，看着长大很喜欢，可后来宝宝生病了",
        "docid": "7312357056571245067",
        "url": "https://www.ixigua.com/7312357056571245067"
    },
    {
        "title": "盘点动物睡着后的强制开机#猫咪  #狗狗 #动物 #强制开机",
        "docid": "7325513948332687908",
        "url": "https://www.ixigua.com/7325513948332687908"
    },
    {
        "title": "猫咪:主打一个玩～让鼠辈表演才艺，血脉压制让鼠辈生无可恋",
        "docid": "7321563572411367973",
        "url": "https://www.ixigua.com/7321563572411367973"
    },
    {
        "title": "小狗偷懒准备睡午觉，不料摸鱼被主人抓：小狗的眼神写满了求生欲",
        "docid": "7322798973667213865",
        "url": "https://www.ixigua.com/7322798973667213865"
    },
    {
        "title": "@吊德斯DioDeS",
        "docid": "7337229168549036544",
        "url": "https://www.ixigua.com/7337229168549036544"
    },
    {
        "title": "骨瘦如柴的狗狗因头被套住，食物就在面前却吃不到，结局暖心",
        "docid": "7311980625521541641",
        "url": "https://www.ixigua.com/7311980625521541641"
    },
    {
        "title": "男子喂四年的恶犬被刚来的老婆教训，狗子吓得赶紧逃走：母老虎！",
        "docid": "7315238304272613898",
        "url": "https://www.ixigua.com/7315238304272613898"
    },
    {
        "title": "小伙趁大爷收摊时买猫，从1000砍到300 大爷：我是收摊不是倒闭",
        "docid": "7305980681354641983",
        "url": "https://www.ixigua.com/7305980681354641983"
    },
    {
        "title": "狗狗利用地面滚动鸡蛋剥皮，主人：我剥它不吃，它就吃自己剥的",
        "docid": "7304860473868943926",
        "url": "https://www.ixigua.com/7304860473868943926"
    },
    {
        "title": "听我的这牌早胡了！猫咪陪主人打麻将，一上牌桌多次试图伸手摊牌",
        "docid": "7305972224362545699",
        "url": "https://www.ixigua.com/7305972224362545699"
    },
    {
        "title": "一碗猫，叠中叠！颜色越浅越排后！网友：下面那只居然是自愿的",
        "docid": "7324565548455428642",
        "url": "https://www.ixigua.com/7324565548455428642"
    },
    {
        "title": "孙女让奶奶把手放狗头上拍照，狗子：奶奶我头在这呢！",
        "docid": "7333091385966330403",
        "url": "https://www.ixigua.com/7333091385966330403"
    },
    {
        "title": "狗都嫌的年纪！狗子出门没回家小主人出门寻，回来一幕妈妈笑崩",
        "docid": "7329797433909903926",
        "url": "https://www.ixigua.com/7329797433909903926"
    },
    {
        "title": "男子香烟莫名变少，随后拍到狗狗偷烟上厕所，狗：不叼一根不得劲",
        "docid": "7325701042938511926",
        "url": "https://www.ixigua.com/7325701042938511926"
    },
    {
        "title": "只要你对它好，它会爱你胜过自己，会无所畏惧为你拼命",
        "docid": "7323203928588943923",
        "url": "https://www.ixigua.com/7323203928588943923"
    },
    {
        "title": "性格像狗的猫咪！主人吐糟猫天天要自己陪玩，看到游戏网友笑了",
        "docid": "7306341200800743976",
        "url": "https://www.ixigua.com/7306341200800743976"
    },
    {
        "title": "7只猫咪和主人看《猫和老鼠》！看得猫咪想冲上去帮忙：它太窝囊",
        "docid": "7311893188183392794",
        "url": "https://www.ixigua.com/7311893188183392794"
    },
    {
        "title": "医学生买实验兔，性格乖巧粘人，学生：已经不打算拿来做实验了",
        "docid": "7305596328804155945",
        "url": "https://www.ixigua.com/7305596328804155945"
    },
    {
        "title": "神奇！女子大雪中偶遇小松鼠，两小辫儿都冻凌乱了~",
        "docid": "7304162565637341705",
        "url": "https://www.ixigua.com/7304162565637341705"
    },
    {
        "title": "男子不敢看恐怖片，就强行让狗子代替他，随后狗子笑容瞬间僵硬",
        "docid": "7309690895971189260",
        "url": "https://www.ixigua.com/7309690895971189260"
    },
    {
        "title": "“这只猫...让我整整笑了2分48秒！”",
        "docid": "7305555920921035318",
        "url": "https://www.ixigua.com/7305555920921035318"
    },
    {
        "title": "耶，你勒是头一胎啊！",
        "docid": "7324235274111124018",
        "url": "https://www.ixigua.com/7324235274111124018"
    },
    {
        "title": "狗狗：有你是我的福气#万万没想到 #狗狗 #意不意外 #搞笑配音",
        "docid": "7326118290848383522",
        "url": "https://www.ixigua.com/7326118290848383522"
    },
    {
        "title": "两只金毛打架，主人拿铁锹都分不开，“大哥”一出场瞬间结束争斗",
        "docid": "7311983266251145747",
        "url": "https://www.ixigua.com/7311983266251145747"
    },
    {
        "title": "全网最爱臭美的狗狗，不打扮精致绝不出门，网友：比女朋友都墨迹",
        "docid": "7321660838128681487",
        "url": "https://www.ixigua.com/7321660838128681487"
    },
    {
        "title": "科目三之一狗一个大比兜😂😂😂😂 狗子们：啊…真得劲儿😝😝😝😝",
        "docid": "7313179338076062234",
        "url": "https://www.ixigua.com/7313179338076062234"
    },
    {
        "title": "当金毛遇上东北虎！前一秒疯狂挑衅后一秒腿软认怂：果然血脉压制",
        "docid": "7327239792537240079",
        "url": "https://www.ixigua.com/7327239792537240079"
    },
    {
        "title": "男子买70条埃及鱼苗养水桶里，佛系喂养3个月，如今模样出乎意料",
        "docid": "7313035133458579977",
        "url": "https://www.ixigua.com/7313035133458579977"
    },
    {
        "title": "猫咪一大早叫主人起床，最后却霸占了主人的被窝！",
        "docid": "7326878367985173003",
        "url": "https://www.ixigua.com/7326878367985173003"
    },
    {
        "title": "猫咪主动靠近女主人大肚子，前秒还犯困下一秒瞪圆眼：万物皆有灵",
        "docid": "7328347214915306036",
        "url": "https://www.ixigua.com/7328347214915306036"
    },
    {
        "title": "猫咪主动凑女主人嘴边亲亲，献吻前还懂得先摘掉眼镜：这谁能拒绝",
        "docid": "7337167814962348583",
        "url": "https://www.ixigua.com/7337167814962348583"
    },
    {
        "title": "4斤的猫咪用了3.9的力气打主人，网友：下的是死手呀",
        "docid": "7311234022313886243",
        "url": "https://www.ixigua.com/7311234022313886243"
    },
    {
        "title": "男子在路边投喂狗狗，狗：不能白吃你的，给你表演个才艺",
        "docid": "7314614391838933540",
        "url": "https://www.ixigua.com/7314614391838933540"
    },
    {
        "title": "猫妈妈怕小猫冷，把刚出生的小猫藏主人被窝里！",
        "docid": "7325029770541040164",
        "url": "https://www.ixigua.com/7325029770541040164"
    },
    {
        "title": "狗狗被主人450块卖掉，下一秒狗狗的反应，让主人顿时热泪盈眶！",
        "docid": "7336501206040511012",
        "url": "https://www.ixigua.com/7336501206040511012"
    },
    {
        "title": "全网体型最大的猫咪，体型堪比6岁孩子，远远看去就像一座门神",
        "docid": "7325802814498832931",
        "url": "https://www.ixigua.com/7325802814498832931"
    },
    {
        "title": "作死的狗狗趁着老虎睡着，一口将其封喉，下一秒请憋住不要笑",
        "docid": "7332792598425731610",
        "url": "https://www.ixigua.com/7332792598425731610"
    },
    {
        "title": "全网最圆滑最有心机的狗子，实力演绎见风使舵！#抖in萌宠计划",
        "docid": "7325021941474492964",
        "url": "https://www.ixigua.com/7325021941474492964"
    },
    {
        "title": "主人临时回老家忘带狗粮，狗狗2天狂炫5锅饭，大伯含泪煮米饭",
        "docid": "7316041847476847156",
        "url": "https://www.ixigua.com/7316041847476847156"
    },
    {
        "title": "印度公马与母马相遇，和欧洲的公马与母马相遇区别很大，格局差别",
        "docid": "7325958235096416808",
        "url": "https://www.ixigua.com/7325958235096416808"
    },
    {
        "title": "辉宝睿宝在爷爷身上练习爬树，爷爷终于向爱宝求助，爱宝反应亮啦",
        "docid": "7319327329379942966",
        "url": "https://www.ixigua.com/7319327329379942966"
    },
    {
        "title": "关于主人想摸猫咪被“揍”,猫咪：是时候找感觉了",
        "docid": "7336390049384432140",
        "url": "https://www.ixigua.com/7336390049384432140"
    },
    {
        "title": "猫猫第一次见小主人满脸的不可思议，笑死我了！#铲屎官的乐趣",
        "docid": "7307192340622508580",
        "url": "https://www.ixigua.com/7307192340622508580"
    },
    {
        "title": "佩戴定位器的蓝猫被偷，主人跨越 1600 公里终于找回！",
        "docid": "7315997091816768054",
        "url": "https://www.ixigua.com/7315997091816768054"
    },
    {
        "title": "一句“姐姐养你”，改变了这只狗狗的一生#狗狗 #流浪狗 #治愈",
        "docid": "7323149846464954918",
        "url": "https://www.ixigua.com/7323149846464954918"
    },
    {
        "title": "第一网红狗金毛路虎回归农村生活，远离城市喧嚣，归隐山林生活！",
        "docid": "7310979832102421055",
        "url": "https://www.ixigua.com/7310979832102421055"
    },
    {
        "title": "爸爸呼噜声太大被赶客厅，猫咪捂耳蜷缩睡觉。猫：没受过这委屈",
        "docid": "7335744263243858444",
        "url": "https://www.ixigua.com/7335744263243858444"
    },
    {
        "title": "看了监控才知道，狗平时比我还忙～😓#法斗 #傻狗的日常",
        "docid": "7318361682760663602",
        "url": "https://www.ixigua.com/7318361682760663602"
    },
    {
        "title": "女主人切掉狗子声带，只为了家里能安静一些，还斥责训犬师虐狗",
        "docid": "7314482778567868982",
        "url": "https://www.ixigua.com/7314482778567868982"
    },
    {
        "title": "盘点我国16种田园犬，不要看见就叫土狗啦，人家有名字的哟",
        "docid": "7322028234873733641",
        "url": "https://www.ixigua.com/7322028234873733641"
    },
    {
        "title": "女生看手机看到有趣的笑得合不拢嘴，拍拍小狗让小狗也来看",
        "docid": "7313083774382637577",
        "url": "https://www.ixigua.com/7313083774382637577"
    },
    {
        "title": "只要有人过，就不怕没活干",
        "docid": "7325695130004881957",
        "url": "https://www.ixigua.com/7325695130004881957"
    },
    {
        "title": "金毛猎犬被一只小猫占据他的床震惊了！",
        "docid": "7320536931241198130",
        "url": "https://www.ixigua.com/7320536931241198130"
    },
    {
        "title": "万万没想到，狗子也是懂人情世故的#宠物 #萌宠 #宠物家庭 #狗狗",
        "docid": "7305009017078678068",
        "url": "https://www.ixigua.com/7305009017078678068"
    },
    {
        "title": "小猫主动伸出爪子让铲屎官剪指甲，全程完美配合，网友：科幻片",
        "docid": "7318230233197314586",
        "url": "https://www.ixigua.com/7318230233197314586"
    },
    {
        "title": "男子蹲在地上打电话，狗狗看着不忍心怒抢女儿椅子：这才是狗腿子",
        "docid": "7310776583747273250",
        "url": "https://www.ixigua.com/7310776583747273250"
    },
    {
        "title": "猫咪惹了公鸡，这次悲剧了···",
        "docid": "7331682086501548559",
        "url": "https://www.ixigua.com/7331682086501548559"
    },
    {
        "title": "马犬回村后！狗子在城市没有的快乐回村后翻倍，终于释放天性啦",
        "docid": "7319118147922068002",
        "url": "https://www.ixigua.com/7319118147922068002"
    },
    {
        "title": "女主回娘家吃火锅，陪嫁的猫咪紧跟其后，这个活嫁妆真招人喜欢",
        "docid": "7308685931115250176",
        "url": "https://www.ixigua.com/7308685931115250176"
    },
    {
        "title": "猫咪听两个女生拌嘴，满脸疑惑。猫：CPU都快烧干了",
        "docid": "7336771781128421914",
        "url": "https://www.ixigua.com/7336771781128421914"
    },
    {
        "title": "盘点猫咪的倒霉瞬间",
        "docid": "7337344114674893364",
        "url": "https://www.ixigua.com/7337344114674893364"
    },
    {
        "title": "顾客送来一只灰泰迪洗澡，洗着洗着竟然掉色了，庆幸有视频作证！",
        "docid": "7310778745961644579",
        "url": "https://www.ixigua.com/7310778745961644579"
    },
    {
        "title": "成精了！狗狗护食被主人告知食品用途，狗狗听懂的神反应笑翻网友",
        "docid": "7314151309467189796",
        "url": "https://www.ixigua.com/7314151309467189796"
    },
    {
        "title": "笑疯了！原来小猫咪也有一颗闯荡江湖的心！网友：渣猫！",
        "docid": "7336894341422367259",
        "url": ""
    },
    {
        "title": "骗吃骗喝狗！江苏一狗子想方设法忽悠小朋友鸡蛋，被骂龇牙咧嘴",
        "docid": "7325361071601287714",
        "url": "https://www.ixigua.com/7325361071601287714"
    },
    {
        "title": "流浪狗看见有妈妈爱的宠物狗，彻底陷入了自卑，眼神让人心疼！",
        "docid": "7305804728741560870",
        "url": "https://www.ixigua.com/7305804728741560870"
    },
    {
        "title": "狗狗躲靠山怀里跟女主对骂，当它发现靠山也被揍后，都憋住别笑！",
        "docid": "7319123157976089103",
        "url": "https://www.ixigua.com/7319123157976089103"
    },
    {
        "title": "狗子在洗澡时主人抽空吃饭，回来后瞪大眼睛骂骂咧咧：你不愧疚吗",
        "docid": "7313826022410060329",
        "url": "https://www.ixigua.com/7313826022410060329"
    },
    {
        "title": "浙江一男子让朋友假扮小偷进屋，谁知金毛狗的反应让人哭笑不得",
        "docid": "7306765079997841960",
        "url": "https://www.ixigua.com/7306765079997841960"
    },
    {
        "title": "狗子趁主人加油头伸出窗外，加油站小姐姐顺势撸狗，狗子反应亮了",
        "docid": "7310773962001252915",
        "url": "https://www.ixigua.com/7310773962001252915"
    },
    {
        "title": "狗狗奔跑中怕追尾，来了一个冒烟脚刹，狗狗：你录下来没有哦",
        "docid": "7324634829885014568",
        "url": "https://www.ixigua.com/7324634829885014568"
    },
    {
        "title": "哈士奇和金毛打架输了，当街痛哭，主人手动捂嘴：你可别丢我脸了",
        "docid": "7322290131891651072",
        "url": "https://www.ixigua.com/7322290131891651072"
    },
    {
        "title": "今天生日，在家享受温馨的冬日假期。感谢夫人给了我一个舒适的家",
        "docid": "7335111597834273314",
        "url": "https://www.ixigua.com/7335111597834273314"
    },
    {
        "title": "南方小金豆实在太可爱，给尔滨人稀罕坏了",
        "docid": "7325734795865293352",
        "url": "https://www.ixigua.com/7325734795865293352"
    },
    {
        "title": "用颤抖的手，扣出猫猫的手。",
        "docid": "7315388864971932160",
        "url": "https://www.ixigua.com/7315388864971932160"
    },
    {
        "title": "主人碰了鸡妈妈一下，鸡崽崽突然就“散落了一地”",
        "docid": "7322727461061165603",
        "url": "https://www.ixigua.com/7322727461061165603"
    },
    {
        "title": "网友晒自己的“干”饭鸟 “不乐意一粒一粒吃，就爱吨吨吨的吃”",
        "docid": "7329311533278691880",
        "url": "https://www.ixigua.com/7329311533278691880"
    },
    {
        "title": "男子离家10个月后回来，以为猫咪会认不出，被它一系列动作整破防",
        "docid": "7324233834923295283",
        "url": "https://www.ixigua.com/7324233834923295283"
    },
    {
        "title": "笑发财了！为了不让旅客喂自己的拉布拉猪犬，老板可谓处心积虑！",
        "docid": "7334677405195452963",
        "url": ""
    },
    {
        "title": "蓝猫为什么越来越多人养了？网友：养了之后就不想换猫了",
        "docid": "7311898514923995660",
        "url": ""
    },
    {
        "title": "“这都是什么灵魂画手？！”哈哈哈给我笑傻了…",
        "docid": "7336453727580881423",
        "url": ""
    },
    {
        "title": "狗舔一口四肢截掉，猫舔一口全村吃席，动物的舌头有这么可怕吗？",
        "docid": "7336115137503642112",
        "url": ""
    },
    {
        "title": "北方退役警犬被南方小土豆领养回去后，举动惊人！笑死在评论区！",
        "docid": "7328801608567947839",
        "url": ""
    },
    {
        "title": "牧羊犬脖子上戴的防狼项圈，为什么会让狼群害怕？真可以防狼吗？",
        "docid": "7324641744778199552",
        "url": ""
    },
    {
        "title": "故宫的猫-帕帕，猪咪扑雪图",
        "docid": "7333969131949507083",
        "url": ""
    },
    {
        "title": "春节8天挣上万！“错峰打工”生意经",
        "docid": "7336815600008266259",
        "url": ""
    },
    {
        "title": "177种狗全图解，你最喜欢什么狗",
        "docid": "7335874849422262810",
        "url": ""
    },
    {
        "title": "女子网购4只小鸡给女儿当宠物，养了5个月后，一家人享用美味",
        "docid": "7328012188383265334",
        "url": ""
    },
    {
        "title": "中国人什么都敢吃，却从不吃这三种动物？是不敢，还是另有隐情",
        "docid": "7313865519973941810",
        "url": ""
    },
    {
        "title": "我，放弃央视工作，投资80万开宠物殡葬店，首月就盈利26000",
        "docid": "7318576273914380852",
        "url": ""
    },
    {
        "title": "盘点那些杀死主人的宠物",
        "docid": "7325337048242897419",
        "url": ""
    },
    {
        "title": "你吃的小鱼干，是足疗店退休的小鱼吗？",
        "docid": "7336366183236551209",
        "url": ""
    },
    {
        "title": "橘猫感到“孤单”的表现，中两个以上，主人应该多陪陪它",
        "docid": "7336503670114107954",
        "url": ""
    },
    {
        "title": "养猫人都知道猫咪的尾巴会说话",
        "docid": "7332021603846423052",
        "url": ""
    },
    {
        "title": "九种睡姿，看出猫咪对你的信任度！",
        "docid": "7336496544717832714",
        "url": ""
    },
    {
        "title": "我妈给猫买了条金项链！猫猫是亲生的，咱是垃圾桶捡的！",
        "docid": "7328272620180029967",
        "url": ""
    },
    {
        "title": "猫猫被宠坏的表现",
        "docid": "7336778516559626767",
        "url": ""
    },
    {
        "title": "420，把狗卖给狗贩后，老人回头对着笼里的狗道：你好好享福吧",
        "docid": "7329436975336342053",
        "url": ""
    },
    {
        "title": "【家有恶猫？】“安全揍猫术”的真相大揭秘，铲屎官必学！",
        "docid": "7326226112789365282",
        "url": ""
    },
    {
        "title": "狗是通人性的，但我不再养狗",
        "docid": "7319496491939381797",
        "url": ""
    },
    {
        "title": "人间不值得，但猫猫值得，毕竟小猫咪那么可爱",
        "docid": "7304190282953425447",
        "url": ""
    },
    {
        "title": "苏州人为什么称“鹅”为“白乌鬼”？",
        "docid": "7321531170209071668",
        "url": ""
    },
    {
        "title": "嘿，你知道吗？马、驴和骡子可是三种截然不同的动物呢！",
        "docid": "7313354579498828342",
        "url": ""
    },
    {
        "title": "伤害急诊增长三成 春节期间宠物应激反应增多",
        "docid": "7337134835162972735",
        "url": ""
    },
    {
        "title": "堵车状况不断！狗子路上生崽，主人措手不及笑死网友:走应急车道",
        "docid": "7336556576758661644",
        "url": ""
    },
    {
        "title": "笑麻了！春节返程狗子被堵高速哇哇大哭，我要被网友评论区笑死",
        "docid": "7336951715529228852",
        "url": ""
    },
    {
        "title": "笑哭！辽宁一女子让邻居照看狗狗，结果狗狗“拆家”等主人！",
        "docid": "7336757689277645362",
        "url": ""
    },
    {
        "title": "宠物解说：这些萌宠长大后的样子，你最喜欢哪只？",
        "docid": "7310501154499232295",
        "url": "https://www.ixigua.com/7310501154499232295"
    },
    {
        "title": "全网最聪明的边牧，不仅会打麻将，而且打法非同寻常，惊呆众人",
        "docid": "7334584938072637971",
        "url": "https://www.ixigua.com/7334584938072637971"
    },
    {
        "title": "猫咪玩具坏了，主人搞笑胡乱修补，完事后猫咪又急又嫌弃",
        "docid": "7327143259908768292",
        "url": "https://www.ixigua.com/7327143259908768292"
    },
    {
        "title": "女子救了一只猫悉心照顾，长大后猫常往家中抓鱼，跟踪后被吓到了",
        "docid": "7330970197694054939",
        "url": "https://www.ixigua.com/7330970197694054939"
    },
    {
        "title": "一只眼神犀利的可爱小猫咪“蒜头”",
        "docid": "7324261280439599650",
        "url": "https://www.ixigua.com/7324261280439599650"
    },
    {
        "title": "女生拍照被狗狗扯下裙子，头也不回跑走女生社死猛追，一看就老手",
        "docid": "7313755535055159844",
        "url": "https://www.ixigua.com/7313755535055159844"
    },
    {
        "title": "他在那里发疯",
        "docid": "7336897714543657472",
        "url": "https://www.ixigua.com/7336897714543657472"
    },
    {
        "title": "宋庄：火爆全网打架踹腰子的狸花猫，野性十足还聪明，好像小老虎",
        "docid": "7336144628322107915",
        "url": "https://www.ixigua.com/7336144628322107915"
    },
    {
        "title": "去兄弟家吃饭，她老婆这样打扮是不是有点不合适，哈哈好尴尬",
        "docid": "7337332801131463179",
        "url": ""
    },
    {
        "title": "​“福”鱼跃“龙门”西湖闹新春 福州金鱼展在晨曦广场开展",
        "docid": "7337491224565678592",
        "url": ""
    },
    {
        "title": "南昌记事｜和平鸽的城市",
        "docid": "7337486053764547123",
        "url": ""
    },
    {
        "title": "男子分享“撸鱼”体验，网友：见过撸猫撸狗，第一次见撸鱼的",
        "docid": "7328586985407414847",
        "url": "https://www.ixigua.com/7328586985407414847"
    },
    {
        "title": "女子在马路上发现一只龙猫，本以为是老鼠，隔天明白后发现还在",
        "docid": "7311752232750613001",
        "url": "https://www.ixigua.com/7311752232750613001"
    },
    {
        "title": "为什么那只狗是疯的？",
        "docid": "7336865883530527272",
        "url": "https://www.ixigua.com/7336865883530527272"
    },
    {
        "title": "母鸡啄蜈蚣不料被反杀，昔日的零食竟成为强大对手，结局太悲催",
        "docid": "7304207990373122594",
        "url": "https://www.ixigua.com/7304207990373122594"
    },
    {
        "title": "笑喷了！成都男子怕狗狗被香肠辣到只切一点，结果狗狗原地爆炸了",
        "docid": "7325275028705804854",
        "url": "https://www.ixigua.com/7325275028705804854"
    },
    {
        "title": "大橘猫被困25楼外沿10天，这完全是它找家的套路！",
        "docid": "7304973696639336998",
        "url": "https://www.ixigua.com/7304973696639336998"
    },
    {
        "title": "这只鹦鹉的智商和词汇量简直是惊为天人，他可以和人一样对话",
        "docid": "7320215793010377252",
        "url": "https://www.ixigua.com/7320215793010377252"
    },
    {
        "title": "黑猫回家打不开门，被身后的橘猫狂扇巴掌，橘猫：你到底能不能行",
        "docid": "7311587166214324787",
        "url": "https://www.ixigua.com/7311587166214324787"
    },
    {
        "title": "全网最灵活的大胖橘，每天只做三件事，吃饭，跑酷和挨揍！",
        "docid": "7323168189435609641",
        "url": "https://www.ixigua.com/7323168189435609641"
    },
    {
        "title": "猫咪烧烤店打架斗殴事件！！为了一个烤串，至于吗！！",
        "docid": "7317887096851857956",
        "url": "https://www.ixigua.com/7317887096851857956"
    },
    {
        "title": "狗子嫌老人溜自己太慢，疯狂暗示女子来溜，最后直接夺绳递给女子",
        "docid": "7319388344712954409",
        "url": "https://www.ixigua.com/7319388344712954409"
    },
    {
        "title": "买了两只仓鼠才发现，生意人套路真深，真是难以置信",
        "docid": "7337503952579248666",
        "url": ""
    },
    {
        "title": "猫咪不会叼孩子主人亲自用手示范，随后举动主人惊呆：要给我养？",
        "docid": "7320879518095901247",
        "url": "https://www.ixigua.com/7320879518095901247"
    },
    {
        "title": "泰酷辣～没想到在优衣库也能遇到猫咪试羽绒服，看来是真的冷了",
        "docid": "7313776120468505122",
        "url": "https://www.ixigua.com/7313776120468505122"
    },
    {
        "title": "狸花猫！听说你很能打？单手就能制服你！",
        "docid": "7305703882326606363",
        "url": "https://www.ixigua.com/7305703882326606363"
    },
    {
        "title": "田园狸花猫真的不好惹，狸花猫封神打架现场",
        "docid": "7332860133271306792",
        "url": "https://www.ixigua.com/7332860133271306792"
    },
    {
        "title": "老牛送屠宰场被宰前下跪求饶，哞哞哀嚎求放过，最终屠夫扔刀离去",
        "docid": "7315247379987300864",
        "url": "https://www.ixigua.com/7315247379987300864"
    },
    {
        "title": "男主人回家土拨鼠委屈凑近，钻怀里告状，凭一个动作贡献精湛演技",
        "docid": "7315248146006442547",
        "url": "https://www.ixigua.com/7315248146006442547"
    },
    {
        "title": "小猴子照顾黄牛全过程，它不但聪明，而且还很勤劳",
        "docid": "7304923084694716963",
        "url": "https://www.ixigua.com/7304923084694716963"
    },
    {
        "title": "网友分享了自己家的狗子，穿上衣服后有种狼外婆的既视感",
        "docid": "7312660677846532660",
        "url": "https://www.ixigua.com/7312660677846532660"
    },
    {
        "title": "打开窗户发现一对红隼夫妻，强行霸占花盆生娃，女主慷慨投喂",
        "docid": "7324436754432426546",
        "url": "https://www.ixigua.com/7324436754432426546"
    },
    {
        "title": "猫应激有多恐怖！主人被120拖走！猫疯狂咬人",
        "docid": "7324696649459040794",
        "url": "https://www.ixigua.com/7324696649459040794"
    },
    {
        "title": "窗外闯入一对鸟夫妻来生蛋，没想到离开后，第二年又来了",
        "docid": "7309407127242867237",
        "url": "https://www.ixigua.com/7309407127242867237"
    },
    {
        "title": "它是有多敏感，一碰就踩奶，一撸就哆嗦#潍坊 #萌宠 #撸猫",
        "docid": "7320069975577330215",
        "url": "https://www.ixigua.com/7320069975577330215"
    },
    {
        "title": "十只猫咪回村过年 九只爱烤火？还有一只钻进灶台不出来？#宠物",
        "docid": "7334668846269366836",
        "url": "https://www.ixigua.com/7334668846269366836"
    },
    {
        "title": "猫界使用率最高的名字,你家猫“重名”了吗？",
        "docid": "7317563195320467983",
        "url": "https://www.ixigua.com/7317563195320467983"
    },
    {
        "title": "全网最拽的猫，走起路来六亲不认，网友：一看就是家里有矿",
        "docid": "7332103805036823081",
        "url": "https://www.ixigua.com/7332103805036823081"
    },
    {
        "title": "“猫猫可以长的冷门，但不能邪门！”",
        "docid": "7328576003881009705",
        "url": "https://www.ixigua.com/7328576003881009705"
    },
    {
        "title": "主人伸脚猫咪不乐意，将脚猛塞被子里表情逗乐众人：霸道总裁喵？",
        "docid": "7313747087551070759",
        "url": "https://www.ixigua.com/7313747087551070759"
    },
    {
        "title": "狗子串门玩耍瞄准男子回家路线“打车”回家，上车前一幕逗笑网友",
        "docid": "7323783170254602752",
        "url": "https://www.ixigua.com/7323783170254602752"
    },
    {
        "title": "养了3年的鱼在池子里，把水放干后，掀开杂草一看哇哇大叫",
        "docid": "7337490613950317108",
        "url": ""
    },
    {
        "title": "作死！狸花猫18楼外沿绕圈捉迷藏！",
        "docid": "7332697526292152866",
        "url": "https://www.ixigua.com/7332697526292152866"
    },
    {
        "title": "宠物解说：这些猫咪抓鱼的名场面，你觉得哪只最搞笑？",
        "docid": "7305123692806144563",
        "url": "https://www.ixigua.com/7305123692806144563"
    },
    {
        "title": "白德牧豆豆发情，放她老公出来检查没想到意外......",
        "docid": "7334631803996602892",
        "url": "https://www.ixigua.com/7334631803996602892"
    },
    {
        "title": "恩佐点炮黑豹上，二愣小卡顾不上，整个豫西狗场彻底打乱套了",
        "docid": "7317567528534802963",
        "url": "https://www.ixigua.com/7317567528534802963"
    },
    {
        "title": "全网最有趣的猫，每天变着花样逗女主玩，网友：一惊一乍的好可爱",
        "docid": "7332726299380679209",
        "url": "https://www.ixigua.com/7332726299380679209"
    },
    {
        "title": "当城市狗狗第一次吃到剩饭香迷糊了，拉都拉不走？",
        "docid": "7335827193640256051",
        "url": "https://www.ixigua.com/7335827193640256051"
    },
    {
        "title": "猫咪不小心打翻桌上的水杯，手忙脚乱收拾现场，双手倒腾画面搞笑",
        "docid": "7337512222714921511",
        "url": "https://www.ixigua.com/7337512222714921511"
    },
    {
        "title": "大型鹦鹉开放后，猜猜谁将成为人气王？",
        "docid": "7336154075849392681",
        "url": ""
    },
    {
        "title": "主人摔腿后狗狗模仿其走路 主人：刚开始不信 最后发现它故意的",
        "docid": "7316451627496866323",
        "url": "https://www.ixigua.com/7316451627496866323"
    },
    {
        "title": "宠物解说：这些可爱的小型萌宠，你喜欢哪只？",
        "docid": "7307017844682654234",
        "url": "https://www.ixigua.com/7307017844682654234"
    },
    {
        "title": "就没有老人喂不胖的狗！带马犬回村，几天时间这家伙成功又胖了！",
        "docid": "7320975993806520847",
        "url": "https://www.ixigua.com/7320975993806520847"
    },
    {
        "title": "妈妈问我为什么赖床，我说都怪小猫咪#拿破仑猫 #米努特矮脚猫",
        "docid": "7312017810564055587",
        "url": "https://www.ixigua.com/7312017810564055587"
    },
    {
        "title": "狗子撒欢不归家，主人一个电话叫回，网友：村里唯一有电话的狗子",
        "docid": "7322758211025502747",
        "url": "https://www.ixigua.com/7322758211025502747"
    },
    {
        "title": "女孩地铁上睡醒见身旁竟站着一只“老虎”，仔细一看笑喷了",
        "docid": "7311909693037740553",
        "url": "https://www.ixigua.com/7311909693037740553"
    },
    {
        "title": "猫猫正在舔爪子，发现主人在偷拍 给了主人一个“wink”",
        "docid": "7327127186505204263",
        "url": "https://www.ixigua.com/7327127186505204263"
    },
    {
        "title": "小狗欢欢的成长历程：缘分天注定与多多的浅薄缘分只是过眼云烟",
        "docid": "7337526605725909554",
        "url": ""
    },
    {
        "title": "把一只金丝熊养在水里，看着它捕鱼，是什么样的体验",
        "docid": "7312379984767615526",
        "url": "https://www.ixigua.com/7312379984767615526"
    },
    {
        "title": "一只和尚鹦鹉可以和主人日常对话真是聪明可爱",
        "docid": "7306832209560896034",
        "url": "https://www.ixigua.com/7306832209560896034"
    },
    {
        "title": "全网公认智商为负的猫“驴得水”近亲烤鱼片吃猫砂，喝奶成弹簧精",
        "docid": "7332423780817437196",
        "url": "https://www.ixigua.com/7332423780817437196"
    },
    {
        "title": "宠物解说：不管是什么狗狗，让奶奶饲养都会很肥？",
        "docid": "7315114246222643766",
        "url": "https://www.ixigua.com/7315114246222643766"
    },
    {
        "title": "第一批回村的猫猫已经放开玩啦！#猫咪 #萌宠出道计划",
        "docid": "7326360853295399459",
        "url": "https://www.ixigua.com/7326360853295399459"
    },
    {
        "title": "男子喝醉在朋友家借住，结果猫咪不淡定了：单手撑在床边暗中观察",
        "docid": "7320437214721573410",
        "url": "https://www.ixigua.com/7320437214721573410"
    },
    {
        "title": "全网长得最像警长的奶牛猫，眼神坚定正气凛然，不苟言笑",
        "docid": "7309330419378291241",
        "url": "https://www.ixigua.com/7309330419378291241"
    },
    {
        "title": "主人吃变态辣火鸡面，二哈死活非要来一口，下一秒就被辣得翻白眼",
        "docid": "7319470077093347850",
        "url": "https://www.ixigua.com/7319470077093347850"
    },
    {
        "title": "猫咪在水中泡着等待死亡，而好心情侣不放弃最终救治了它 #猫咪",
        "docid": "7306539902986879499",
        "url": "https://www.ixigua.com/7306539902986879499"
    },
    {
        "title": "带二哈回老家三天，连人带狗被赶出家门！老家以后是回不去了！",
        "docid": "7336481694842782242",
        "url": "https://www.ixigua.com/7336481694842782242"
    },
    {
        "title": "妈妈去买菜，叮嘱狗狗照看小主人，回家一开门瞬间哭笑不得！",
        "docid": "7311336549621334565",
        "url": "https://www.ixigua.com/7311336549621334565"
    },
    {
        "title": "猫：生死看淡，不服就干！",
        "docid": "7321681284278551066",
        "url": "https://www.ixigua.com/7321681284278551066"
    },
    {
        "title": "宠物解说：十只奇葩的猫咪，有八个会睡在锅里？",
        "docid": "7312927759120990770",
        "url": "https://www.ixigua.com/7312927759120990770"
    },
    {
        "title": "人类与小鹿的双向奔赴，从相识到相知",
        "docid": "7337542688381927971",
        "url": "https://www.ixigua.com/7337542688381927971"
    },
    {
        "title": "分辨黑八哥鸟公母的方法",
        "docid": "7337533618485199400",
        "url": ""
    },
    {
        "title": "小女孩摸了一下比特犬，下一秒突然遭到撕咬，谁知更可怕的是女孩",
        "docid": "7324707009855816211",
        "url": "https://www.ixigua.com/7324707009855816211"
    },
    {
        "title": "金毛爸爸第一次见到儿子，一见面就疯了，反应也太可爱了！",
        "docid": "7333848856729223720",
        "url": "https://www.ixigua.com/7333848856729223720"
    },
    {
        "title": "烟嗓小奶猫第一次洗澡，狂舔洗澡水",
        "docid": "7326489730705850916",
        "url": "https://www.ixigua.com/7326489730705850916"
    },
    {
        "title": "主人假装要将猫咪赶出家门，猫咪的反应令人发笑，全身写满了抵抗",
        "docid": "7335358216765473299",
        "url": "https://www.ixigua.com/7335358216765473299"
    },
    {
        "title": "德牧在船上看见一群海豚后，瞬间一跃而下，主人根本拦都拦不住",
        "docid": "7314228365177651775",
        "url": "https://www.ixigua.com/7314228365177651775"
    },
    {
        "title": "女生半夜想起快递没拿，叫醒自家猫陪伴出门，猫咪都懵了！",
        "docid": "7317194983163822602",
        "url": "https://www.ixigua.com/7317194983163822602"
    },
    {
        "title": "二哈：你看我帅吗？拿脑子换的！",
        "docid": "7334134559862653494",
        "url": "https://www.ixigua.com/7334134559862653494"
    },
    {
        "title": "全网第一保姆狗“天哥”，帮铲屎官带娃带到崩溃#萌宠成精了",
        "docid": "7307964004817699363",
        "url": "https://www.ixigua.com/7307964004817699363"
    },
    {
        "title": "这是亲戚家的看门狗，我第一次来，居然是这反应",
        "docid": "7335425935401255459",
        "url": "https://www.ixigua.com/7335425935401255459"
    },
    {
        "title": "盘点一只奶萌猫咪的离奇剧场",
        "docid": "7323803585093993012",
        "url": "https://www.ixigua.com/7323803585093993012"
    },
    {
        "title": "加州旅馆的前奏一响，猫都觉得感伤#英短蓝白 #快看啊这是我的猫",
        "docid": "7325305657031131702",
        "url": "https://www.ixigua.com/7325305657031131702"
    },
    {
        "title": "不可能完成任务之 胖喵星人”我管你什么陷阱，我走我的“",
        "docid": "7330617171024085558",
        "url": "https://www.ixigua.com/7330617171024085558"
    },
    {
        "title": "小猫咪爱你入骨的表现有哪些？",
        "docid": "7327972421590401588",
        "url": ""
    },
    {
        "title": "过年留守的猫把家糟蹋了，网友的评论更是笑死！",
        "docid": "7336940797495018023",
        "url": ""
    },
    {
        "title": "小猫咪刚到家时候的样子，太可爱了吧#治愈系猫咪 #小奶猫",
        "docid": "7313381128314978879",
        "url": "https://www.ixigua.com/7313381128314978879"
    },
    {
        "title": "鹅群中出现一只另类，天天与鹅同吃同住，主人看后却乐坏了",
        "docid": "7324566818755084815",
        "url": "https://www.ixigua.com/7324566818755084815"
    },
    {
        "title": "狗在山洞产下一窝小狗，竟懂得回家找主人求助，帮忙带它孩子回家",
        "docid": "7312020729590252086",
        "url": "https://www.ixigua.com/7312020729590252086"
    },
    {
        "title": "全网最会带娃的昆明犬，七岁狗龄替主人带娃六年，狗狗无奈极了！",
        "docid": "7327141881140544009",
        "url": "https://www.ixigua.com/7327141881140544009"
    },
    {
        "title": "洗澡澡玩泡泡",
        "docid": "7337298076555706918",
        "url": "https://www.ixigua.com/7337298076555706918"
    },
    {
        "title": "小羊绝对是高手！跳上船的一刹那，竟然避开了栏杆，太帅了",
        "docid": "7329016614177735179",
        "url": "https://www.ixigua.com/7329016614177735179"
    },
    {
        "title": "和边牧打麻将 偷牌还打不过它#边牧 #边境牧羊犬 #边牧打麻将",
        "docid": "7307405661690823178",
        "url": "https://www.ixigua.com/7307405661690823178"
    },
    {
        "title": "女子宠物医院遇23岁猫咪，面对众人围观一脸淡定：看上去特别威武",
        "docid": "7337172106494509620",
        "url": "https://www.ixigua.com/7337172106494509620"
    },
    {
        "title": "城里的猫咪第一次回村，就被村里的猫咪欺负#上热门",
        "docid": "7335640397517062656",
        "url": "https://www.ixigua.com/7335640397517062656"
    },
    {
        "title": "准备买口铁锅把这玩意给炖了",
        "docid": "7324954695335117364",
        "url": "https://www.ixigua.com/7324954695335117364"
    },
    {
        "title": "扒开狐狸尾巴看看，为什么这么大，有什么不同！",
        "docid": "7307171243722342966",
        "url": "https://www.ixigua.com/7307171243722342966"
    },
    {
        "title": "论小猫咪的手有多欠？喵：你要这么说我可来劲了！",
        "docid": "7313245266596463114",
        "url": "https://www.ixigua.com/7313245266596463114"
    },
    {
        "title": "七仔:姨姨们还认识我么？我这一身炸裂糖霜，好可爱么！",
        "docid": "7327162028131516962",
        "url": "https://www.ixigua.com/7327162028131516962"
    },
    {
        "title": "猫咪的嫉妒心有多强，小猫因为没有新衣服打大猫！",
        "docid": "7332071460514726436",
        "url": "https://www.ixigua.com/7332071460514726436"
    },
    {
        "title": "小猫咪在笼子里被雨淋湿，见到主人后，连比带划痛斥其出门不关窗",
        "docid": "7327131555242246666",
        "url": "https://www.ixigua.com/7327131555242246666"
    },
    {
        "title": "哈基米第一次回老家，没想到它居然晕车了！",
        "docid": "7324268730861978124",
        "url": "https://www.ixigua.com/7324268730861978124"
    },
    {
        "title": "这种颜值的兔子我也是第一次见，太好看了",
        "docid": "7326479786686513703",
        "url": "https://www.ixigua.com/7326479786686513703"
    },
    {
        "title": "小鸡非要和小猫咪睡在一起，结果被小猫咪暴揍一顿，看一遍笑一遍",
        "docid": "7310993957381800488",
        "url": "https://www.ixigua.com/7310993957381800488"
    },
    {
        "title": "宠物解说：百元以内可以买的猫咪，你喜欢哪个？",
        "docid": "7336840685309723175",
        "url": "https://www.ixigua.com/7336840685309723175"
    },
    {
        "title": "网友路遇阿拉斯加想摸，小孩姐豪爽同意一把推上小狗：给我过去",
        "docid": "7327173768278311476",
        "url": "https://www.ixigua.com/7327173768278311476"
    },
    {
        "title": "狗狗当服务员养活3个孩子，挣的奶粉钱都放进存钱罐#万物皆有灵性",
        "docid": "7319473084199928330",
        "url": "https://www.ixigua.com/7319473084199928330"
    },
    {
        "title": "我们就一个猫崽，我就够惯它的，老公惯得更过，我们舍不得说一句",
        "docid": "7310899452385231386",
        "url": "https://www.ixigua.com/7310899452385231386"
    },
    {
        "title": "女子遇警犬非要查她，狗子眼神犀利超认真盯着她，大眼睛让人萌化",
        "docid": "7320106167902929448",
        "url": "https://www.ixigua.com/7320106167902929448"
    },
    {
        "title": "两只狗狗刚打完架，主人让它们亲个嘴手动和好",
        "docid": "7326755963448263209",
        "url": "https://www.ixigua.com/7326755963448263209"
    },
    {
        "title": "宠物博主的爱犬大年初一被表亲捉走吃掉，网友却都在说博主不争气",
        "docid": "7337388151159325193",
        "url": ""
    },
    {
        "title": "好像快打不过它了#这猫一看就是练家子 #猫咪的迷惑行为",
        "docid": "7328374941240263203",
        "url": "https://www.ixigua.com/7328374941240263203"
    },
    {
        "title": "过完年第一批等到主人的留守猫",
        "docid": "7336781035596120614",
        "url": "https://www.ixigua.com/7336781035596120614"
    },
    {
        "title": "这狗我已经忍到了极致 谁觉得它可怜 认为我不配养的 领走谢谢🙏",
        "docid": "7334870967962993189",
        "url": "https://www.ixigua.com/7334870967962993189"
    },
    {
        "title": "一只手欠的小猫咪“风车车”",
        "docid": "7313486045348430347",
        "url": "https://www.ixigua.com/7313486045348430347"
    },
    {
        "title": "母鸡暴打软萌猫咪连环踢！全程激烈花样百出，结局滑稽搞笑",
        "docid": "7327874625545863718",
        "url": "https://www.ixigua.com/7327874625545863718"
    },
    {
        "title": "铲屎官的乐趣",
        "docid": "7337560294220104231",
        "url": "https://www.ixigua.com/7337560294220104231"
    },
    {
        "title": "导盲犬珍妮，一路走好！",
        "docid": "7337620000930497058",
        "url": ""
    },
    {
        "title": "土狗大战野猪，场面一度失控，太精彩了。",
        "docid": "7324259754896720384",
        "url": ""
    },
    {
        "title": "自家羊“飞檐走壁”，羊圈成了摆设？#动物的迷惑行为 #自家羊",
        "docid": "7322686318121910822",
        "url": ""
    },
    {
        "title": "金毛每天出门去顺东西回来给女主人，只为报答女主人的收养之恩",
        "docid": "7321728790948905472",
        "url": ""
    },
    {
        "title": "散步时一只小奶狗迎面而来，憨憨的样子很可爱，不知道如何是好",
        "docid": "7319698437513937408",
        "url": ""
    },
    {
        "title": "狗狗以为大家都出去了没有带自己，气得发疯，转头发现还有人在家",
        "docid": "7319297405525066255",
        "url": ""
    },
    {
        "title": "小白咬住大黑狗发飙，突然意识到什么逐渐冷静下来",
        "docid": "7327944643344237096",
        "url": ""
    },
    {
        "title": "瞬间泪崩！主人发烧去山里打针，狗狗一路坎坷寻找",
        "docid": "7337577676771590667",
        "url": ""
    },
    {
        "title": "走失三年的狗狗在街上被认出，表情由惊恐逐渐变为喜悦",
        "docid": "7311642916370252300",
        "url": ""
    },
    {
        "title": "铲屎官放炮炸狗狗饭盆，当二哈看到自己报废的饭盆后，居然气哭了",
        "docid": "7331014240255509029",
        "url": ""
    },
    {
        "title": "我怀疑我家狗是人变的，一天天的话可多了，不信你们看",
        "docid": "7328227749100388898",
        "url": ""
    },
    {
        "title": "两只土狗切磋，场面太猛了，耳朵都被咬下了",
        "docid": "7324939662261387817",
        "url": ""
    },
    {
        "title": "小狗进门不到6小时就自己搭窝！咬着垫子往窝里拉，边拉边喊口号",
        "docid": "7328983886284161571",
        "url": ""
    },
    {
        "title": "全网最牛的狗狗卡点乐队，不管是什么风格的音乐他们都能卡点演奏",
        "docid": "7329095610958217739",
        "url": ""
    },
    {
        "title": "当猫咪调皮被打后，竟独自默默生闷气，这样子又可爱又好笑！",
        "docid": "7319065904980066850",
        "url": ""
    },
    {
        "title": "二哈发情非得跟主人一起睡，当它把被子掀开那一刻，你们都别笑！",
        "docid": "7313944673264304680",
        "url": ""
    },
    {
        "title": "小伙学狗叫挑逗狗，狗子几近崩溃，最后被吓得“魂不附体”！",
        "docid": "7310917287140295194",
        "url": ""
    },
    {
        "title": "风刮走宝宝爸爸没发现，狗子及时发现大叫提醒，宝妈看监控气炸了",
        "docid": "7313393815010837055",
        "url": ""
    },
    {
        "title": "带宠物猫回老家过年，猫躲灶里烤火，被烧了，毛焦了",
        "docid": "7336367553100431913",
        "url": ""
    },
    {
        "title": "主人抱着小猫打哈欠，小猫一头钻进嘴里查看：我得看看怎么回事",
        "docid": "7330822740247183923",
        "url": ""
    },
    {
        "title": "果然，猫和老鼠诚不欺我呀？！#猫和老鼠照进现实 #专治不开心",
        "docid": "7310427182390575666",
        "url": ""
    },
    {
        "title": "那些社恐的猫咪，来看看哪个最怂？",
        "docid": "7320936028997911091",
        "url": ""
    },
    {
        "title": "“也许救助一只流浪狗没什么，但对它来讲，你便是天使般的存在”",
        "docid": "7313079392962347555",
        "url": ""
    },
    {
        "title": "长这么大，头一次想扇一只鸭子",
        "docid": "7333157538931999286",
        "url": ""
    },
    {
        "title": "甲鱼被蚊子叮头肿成球，主人不忍放弃坚持救治，网友纷纷支招",
        "docid": "7311194003309855269",
        "url": ""
    },
    {
        "title": "猫咪踩到臭屁虫，想舔干净闻了几秒后差点当场去世：脚都不想要了",
        "docid": "7329728286476075561",
        "url": ""
    },
    {
        "title": "想不到这里会有这么多虫子！",
        "docid": "7337629504024347172",
        "url": ""
    },
    {
        "title": "原来这才是农村土狗喜欢叫旺财的真正原因！",
        "docid": "7326476293523177996",
        "url": ""
    },
    {
        "title": "猫狗大战开始喽，谁也不服谁！",
        "docid": "7315345539523707446",
        "url": ""
    },
    {
        "title": "猫咪想当妈妈，鸡妈妈又抢回了抚养权。猫咪很失望。",
        "docid": "7332789930269573682",
        "url": ""
    },
    {
        "title": "狗子迈着赴死步伐去洗澡，洗吹过后，被主人夸晕，成了傲娇的狗模",
        "docid": "7329127779507962402",
        "url": ""
    },
    {
        "title": "养狗就养这种不太聪明的狗，治愈不开心！",
        "docid": "7323028928023659045",
        "url": ""
    },
    {
        "title": "宠物解说：十只猫咪睡觉的姿势，有九个很奇怪？",
        "docid": "7330961071593521699",
        "url": ""
    },
    {
        "title": "宠物解说：十只狗狗看到辣条，有九个很喜欢吃？",
        "docid": "7335768769585349139",
        "url": ""
    },
    {
        "title": "“这只猫，让我笑了整整二分四十秒！”",
        "docid": "7324893801732899366",
        "url": ""
    },
    {
        "title": "女子发烧烧迷糊了让狗狗去拿水，狗狗疯狂暗示自己被拴住了",
        "docid": "7333058158337720873",
        "url": ""
    },
    {
        "title": "全网最欠揍的羊！每天都在作死的边缘徘徊！网友：早晚成真烤串！",
        "docid": "7308325486986428968",
        "url": ""
    },
    {
        "title": "爱宝的熊风回来了。",
        "docid": "7321962927014019610",
        "url": ""
    },
    {
        "title": "全网最爱遛弯儿的猫“小八”",
        "docid": "7323894913475543579",
        "url": ""
    },
    {
        "title": "你知道为什么老人养的猫， 都很乖巧懂事吗？#宠物 #猫咪",
        "docid": "7335408332745736714",
        "url": ""
    },
    {
        "title": "“这只狗，让我足足笑了2分33秒！”",
        "docid": "7321524702244798995",
        "url": ""
    },
    {
        "title": "去表姐家做客，她在睡觉忘了把东西收起来，也太尴尬了",
        "docid": "7337496152663015972",
        "url": ""
    },
    {
        "title": "你永远想不到，狗子都会带回来什么样的朋友#狗狗的友谊",
        "docid": "7313161317974868507",
        "url": ""
    },
    {
        "title": "猫咪手有多欠？真的是好奇心害死猫啊！",
        "docid": "7320190089291563557",
        "url": ""
    },
    {
        "title": "忠心狗狗在车站等主人三天两夜，受冻挨饿，只为迎接生病主人回家",
        "docid": "7332016100303241780",
        "url": ""
    },
    {
        "title": "把狗狗骗出去做“绝育”，当狗狗回到家那一刻，你们都憋住别笑！",
        "docid": "7318755163689681408",
        "url": ""
    },
    {
        "title": "主人偷偷回家时狗狗的反应，又快到过年回家的时候了",
        "docid": "7312038810941030952",
        "url": ""
    },
    {
        "title": "猫的速度是人类的七倍",
        "docid": "7317621429829763584",
        "url": ""
    },
    {
        "title": "狗：有时候真的挺想报警的！",
        "docid": "7325761557000880681",
        "url": ""
    },
    {
        "title": "比特犬大战野狼，火力全开将野狼活活咬死，野狼全程被碾压",
        "docid": "7322038065654923787",
        "url": ""
    },
    {
        "title": "还记得那个掉进大酱缸，把大妈气哭的狗狗吗 #狗狗",
        "docid": "7330997227969577522",
        "url": ""
    },
    {
        "title": "垃圾站里走出来的小猫，样子凶巴巴的，接触后才发现她格外的粘人",
        "docid": "7332026186471735808",
        "url": ""
    },
    {
        "title": "太狗了！狗子跑到另一狗狗面前炫耀零食，将“贱”字发挥淋漓尽致",
        "docid": "7328760045537493523",
        "url": ""
    },
    {
        "title": "两只狗狗坐在火堆旁烤火",
        "docid": "7325552781660684815",
        "url": ""
    },
    {
        "title": "猫咪不喜欢听课怎么办呢",
        "docid": "7331423326176608794",
        "url": ""
    },
    {
        "title": "小可爱",
        "docid": "7337532740117627407",
        "url": ""
    },
    {
        "title": "这种超治愈的宠物可能拥有人类再生的秘密？",
        "docid": "7337678458920944191",
        "url": ""
    },
    {
        "title": "偷偷给女儿买了小猫，她居然是这种反应",
        "docid": "7318295903268405796",
        "url": ""
    },
    {
        "title": "网友晒给自家无毛猫洗澡视频，第一眼以为是在洗白嫩嫩的小猪",
        "docid": "7313035545691554330",
        "url": ""
    },
    {
        "title": "仓鼠的破坏力究竟有多强？小小的身体蕴藏了巨大的能量",
        "docid": "7305036659916177930",
        "url": ""
    },
    {
        "title": "家里闯进外来生物，把冬眠的小乌龟给吃了，全家气愤围捕",
        "docid": "7317644499021693480",
        "url": ""
    },
    {
        "title": "斗鸡：村霸公鸡太嚣张，多次在我家门口耀武扬威",
        "docid": "7320200211207455266",
        "url": ""
    },
    {
        "title": "小女孩站在鱼缸面前疯狂挑衅，金龙鱼被“惹急”后，一举动太吓人",
        "docid": "7316439127564812836",
        "url": ""
    },
    {
        "title": "一只天生媚骨的小猫咪“小红子”",
        "docid": "7327230240902611465",
        "url": ""
    },
    {
        "title": "一年时间，狗子吃了我1000斤狗粮，还我一桶狗毛，亏大了！",
        "docid": "7320806185240789558",
        "url": ""
    },
    {
        "title": "大黄生了新的小狗，对待上一胎小狗的态度太搞笑了！#农村土狗",
        "docid": "7336894551556424192",
        "url": ""
    },
    {
        "title": "猫咪从来不允许任何人撸",
        "docid": "7335356906083222051",
        "url": ""
    },
    {
        "title": "第二百一十四集I梦中情猫被渣猫祸祸了 #猫咪 #猫咪的迷惑行为",
        "docid": "7332582036735001103",
        "url": ""
    },
    {
        "title": "不可思议！原来大猫真的会教育小猫，主人拍下全过程又惊又喜",
        "docid": "7323444544014713398",
        "url": ""
    },
    {
        "title": "小鸟太聪明还知道小主人快放学要回家吃饭",
        "docid": "7307583124643578408",
        "url": ""
    },
    {
        "title": "小姐姐收养的猫咪会为自己赚猫粮",
        "docid": "7329801110926361142",
        "url": ""
    },
    {
        "title": "小女孩趴在藏獒身上，结果发生了让人意外的一幕，镜头拍下全过程",
        "docid": "7337248812286771751",
        "url": ""
    },
    {
        "title": "等了60多天，小奶猫终于出生了！",
        "docid": "7324273772574769703",
        "url": ""
    },
    {
        "title": "金毛趁着二哈不在，偷偷的看二哈的孩子，满脸的幸福，母爱泛滥",
        "docid": "7311558717953180195",
        "url": ""
    },
    {
        "title": "狗狗把人类幼崽当成亲生的，竟还懂得哄他睡觉，真是比亲妈还亲啊",
        "docid": "7322126270198710799",
        "url": ""
    },
    {
        "title": "姜爷爷也太会带娃了吧，难怪爱宝这么放心 #爱宝双胞胎",
        "docid": "7325372694604710440",
        "url": ""
    }
]