[
    {
        "title": "女子凌晨起来喂奶，狗狗把自己最爱的鸡肉干送了过去，心意到了",
        "docid": "7345746969521979919",
        "url": ""
    },
    {
        "title": "狗子：有本事下来单挑啊，在车上算什么本事！",
        "docid": "7327564582308971020",
        "url": ""
    },
    {
        "title": "猫咪经常陪主人打麻将，一上牌桌满脸认真太逗乐：赌神都自愧不如",
        "docid": "7320838130612109865",
        "url": ""
    },
    {
        "title": "主人刚收拾好行李，结果小猫“严丝合缝”躺进行李箱，这造型？",
        "docid": "7345679131335459378",
        "url": ""
    },
    {
        "title": "第一批回村的猫猫已经放开玩啦！#猫咪 #萌宠出道计划",
        "docid": "7326360853295399459",
        "url": ""
    },
    {
        "title": "一位爱养鱼的李老板让我开了眼界#神奇动物在抖音 #万万没想到",
        "docid": "7321745535684379147",
        "url": ""
    },
    {
        "title": "小猫站在车内陪主人开车，目不转睛看路，这哈基米买的原来是站票",
        "docid": "7314130621415031323",
        "url": ""
    },
    {
        "title": "主人为了偷懒，用跑步机来遛狗，结果狗子也学会了敷衍了事！",
        "docid": "7338720492767871527",
        "url": ""
    },
    {
        "title": "猫咪霸占母鸡的鸡窝，当母鸡回到家那一刻，猫咪的反应笑得人肚疼",
        "docid": "7322854805364769295",
        "url": ""
    },
    {
        "title": "矮脚猫有多可爱，简直又搞笑又呆萌！",
        "docid": "7325188140396708415",
        "url": ""
    },
    {
        "title": "当猫遇上500只水球，全给它踩破！",
        "docid": "7328208612973609484",
        "url": ""
    },
    {
        "title": "宠物解说：十只手贱的猫咪，有八个喜欢玩风扇？",
        "docid": "7313605955541795368",
        "url": ""
    },
    {
        "title": "男子在菜市场与待宰狗狗投缘，花1500带它回家，返程一幕心酸",
        "docid": "7330521889129333282",
        "url": ""
    },
    {
        "title": "南方小金豆实在太可爱，给尔滨人稀罕坏了",
        "docid": "7325734795865293352",
        "url": ""
    },
    {
        "title": "米开朗基罗的最后三十年",
        "docid": "7345500377061999139",
        "url": ""
    },
    {
        "title": "刚刚出生12个小时的长颈鹿宝宝，还不适应自己的长脖子",
        "docid": "7345301356057788943",
        "url": ""
    },
    {
        "title": "时隔一个月这公狗终于回来了，还知道有个家啊，一天天的气死人",
        "docid": "7320933413145215522",
        "url": ""
    },
    {
        "title": "石川佳纯扑面而来#偶遇 #期待和最爱的人一起去看雪 #喜欢",
        "docid": "7329189957719818804",
        "url": ""
    },
    {
        "title": "主人示意狗狗睡觉，狗狗一脸敷衍，狗：凑活过呗，还能离咋滴",
        "docid": "7328241544577122854",
        "url": ""
    },
    {
        "title": "宠物解说：这些萌宠做染发后，你喜欢哪个？",
        "docid": "7330402756659773993",
        "url": ""
    },
    {
        "title": "主人让羊驼接诈骗电话，羊驼句句有回应，最后逐渐把骗子逼疯！",
        "docid": "7345801943211573812",
        "url": ""
    },
    {
        "title": "宠物解说：十只猫咪在公园看到这些鱼，有九个抓回去吃？",
        "docid": "7333145195413930536",
        "url": ""
    },
    {
        "title": "“这只狗子，让我足足笑了2分31秒！”",
        "docid": "7339323445374943782",
        "url": ""
    },
    {
        "title": "狗狗经历了4位主人， 只有最后一任最懂它， 唤醒野性成为狼王",
        "docid": "7321958176788742665",
        "url": ""
    },
    {
        "title": "猫咪为主人活捉3371个知了猴，身手敏捷爬树捕捉：没一口猫粮白吃",
        "docid": "7325302191840428594",
        "url": ""
    },
    {
        "title": "“狗狗与人类幼崽的治愈瞬间”",
        "docid": "7314941925872796199",
        "url": ""
    },
    {
        "title": "宠物都吃过哪些奇葩的食物，真是好气又好笑，哈哈哈哈",
        "docid": "7345397820720939530",
        "url": ""
    },
    {
        "title": "全网反应最快的马犬 它拥有像人一样的思维能力 网友:看出眼泪了",
        "docid": "7325951498502963722",
        "url": ""
    },
    {
        "title": "笑麻了！两只狗偷摸摸把切糕老板的车骑走后续，笑死在网友评论区",
        "docid": "7327581770784719395",
        "url": ""
    },
    {
        "title": "你敢信？！羊驼接诈骗电话 一个字怼懵骗子 网友笑翻了",
        "docid": "7345372343201710642",
        "url": ""
    },
    {
        "title": "小鸭子非要让猫咪抱着睡觉，猫咪也很会看孩子。",
        "docid": "7333230814807654921",
        "url": ""
    },
    {
        "title": "怪不得喜欢养大型犬，瞧瞧大狗给主人的安全感，难怪都抵挡不住",
        "docid": "7317981138369446410",
        "url": ""
    },
    {
        "title": "猫界课代表和它的哑巴同桌，一定要看到最后，草莓真的太可爱了～",
        "docid": "7340221866914939427",
        "url": ""
    },
    {
        "title": "这只小猫咪注意力有点不太集中！",
        "docid": "7322048235759993379",
        "url": ""
    },
    {
        "title": "成精了！狗狗护食被主人告知食品用途，狗狗听懂的神反应笑翻网友",
        "docid": "7314151309467189796",
        "url": ""
    },
    {
        "title": "主人装死看猫咪啥反应，结果猫咪两眼一翻也死了，主人：我去",
        "docid": "7319799828781728290",
        "url": ""
    },
    {
        "title": "一只狗无忧无虑的乡村生活，打工人着实羡慕。#狗狗 #拉布拉多",
        "docid": "7322763639096934912",
        "url": ""
    },
    {
        "title": "狸花猫叫开窗户进来的目的只为从门出去！",
        "docid": "7345863633379000886",
        "url": ""
    },
    {
        "title": "女子家被陌生狗子入侵，进屋就叼起玩具开启巡视模式：它很自来熟",
        "docid": "7345762431479906831",
        "url": ""
    },
    {
        "title": "玩够了 自己跑来找我撒娇",
        "docid": "7317649121953874468",
        "url": ""
    },
    {
        "title": "猫咪:主打一个玩～让鼠辈表演才艺，血脉压制让鼠辈生无可恋",
        "docid": "7321563572411367973",
        "url": ""
    },
    {
        "title": "一只带娃比亲妈还上心的金毛！对孩子过分宠溺如同奶奶！",
        "docid": "7325008298774626851",
        "url": ""
    },
    {
        "title": "母鸡暴打软萌猫咪连环踢！全程激烈花样百出，结局滑稽搞笑",
        "docid": "7327874625545863718",
        "url": ""
    },
    {
        "title": "原来比奶牛猫更神经的，是它的的主人啊，分不清这是杂耍还是喜剧",
        "docid": "7332420955878851135",
        "url": ""
    },
    {
        "title": "给你们看看我的叫醒服务，每天是有多准时多敬业。全勤奖都是它的",
        "docid": "7324294617678283304",
        "url": ""
    },
    {
        "title": "主人正在杀鸡，小鸭子不小心看到了，下一秒憋住别笑！",
        "docid": "7332746440110375436",
        "url": ""
    },
    {
        "title": "恶霸犬竟然全身带12伏电压，网友分析原因让人哭笑不得！",
        "docid": "7343203903200690703",
        "url": ""
    },
    {
        "title": "只要你对它好，它会爱你胜过自己，会无所畏惧为你拼命",
        "docid": "7323203928588943923",
        "url": ""
    },
    {
        "title": "自己的孩子自己管 好聪明的狗狗",
        "docid": "7326500117245231656",
        "url": ""
    },
    {
        "title": "主人给兔子洗澡，中途接了个电话，回来就看到这一幕！",
        "docid": "7324227858954617395",
        "url": ""
    },
    {
        "title": "小主人被大鹅“欺负”，狗狗一下就火了，接下来笑翻众人",
        "docid": "7325974553862406666",
        "url": ""
    },
    {
        "title": "那些猫咪抓鱼名场面，来看看谁才是猫界得抓鱼大师",
        "docid": "7337629342794514994",
        "url": ""
    },
    {
        "title": "今天的猫烫手",
        "docid": "7319862981473501696",
        "url": ""
    },
    {
        "title": "狸花猫作为猫界一哥，究竟有哪些魅力？#宠物猫#狸花猫",
        "docid": "7322407476156957203",
        "url": ""
    },
    {
        "title": "大鹅每天帮助主人干活，形影不离，网友:前世相欠，今生来相报！",
        "docid": "7333381259365876262",
        "url": ""
    },
    {
        "title": "哈士奇和金毛打架输了，当街痛哭，主人手动捂嘴：你可别丢我脸了",
        "docid": "7322290131891651072",
        "url": ""
    },
    {
        "title": "妈妈看监控才发现原来孩子半夜醒来，都是猫咪陪着她",
        "docid": "7345392152551588371",
        "url": ""
    },
    {
        "title": "不可能完成任务之 胖喵星人”我管你什么陷阱，我走我的“",
        "docid": "7330617171024085558",
        "url": ""
    },
    {
        "title": "对于养狗的人来说，这就是回家的意义吧！",
        "docid": "7328354078894293541",
        "url": ""
    },
    {
        "title": "宠物解说：十只猫咪的长相，有九个很奇怪？",
        "docid": "7338023926100689417",
        "url": ""
    },
    {
        "title": "爱宝的熊风回来了。",
        "docid": "7321962927014019610",
        "url": ""
    },
    {
        "title": "阳台外传来吵架声，两只狗子探出头听八卦，狗子：我看看怎么个事",
        "docid": "7345054457048236544",
        "url": ""
    },
    {
        "title": "宠物解说：公猫摘除蛋蛋的四大变化，你知道吗？",
        "docid": "7327738854889554471",
        "url": ""
    },
    {
        "title": "下雨后小猫在外面玩，突然下雪了，猫咪的反应太搞笑！",
        "docid": "7312750039682679347",
        "url": ""
    },
    {
        "title": "猫咪吃饱了要主人抱抱，一直拜拜像个宝宝！",
        "docid": "7329846562866070027",
        "url": ""
    },
    {
        "title": "“这只猫害我足足笑了两分二十三秒！”",
        "docid": "7313373330654888463",
        "url": ""
    },
    {
        "title": "被遗弃的流浪猫逆袭金虎斑，还化身为外卖小哥形影不离的移动挂件",
        "docid": "7321694683217723954",
        "url": ""
    },
    {
        "title": "宠物解说：十只猫第一次听到鞭炮的反应，有九个被吓得不轻？",
        "docid": "7334553659764081204",
        "url": ""
    },
    {
        "title": "女子半夜不敢独自上厕所，金毛再困都会陪她：永远没有起床气",
        "docid": "7327488943379710504",
        "url": ""
    },
    {
        "title": "主人投食洒在地上又捡回，“洁癖”狗狗一举动令其崩溃：以牙还牙",
        "docid": "7344891029339767337",
        "url": ""
    },
    {
        "title": "“这只猫，让我笑了整整二分四十秒！”",
        "docid": "7324893801732899366",
        "url": ""
    },
    {
        "title": "狗子戴面具吓唬大黄狗，结果直接被吓到起飞，画面太逗了",
        "docid": "7337964876939461161",
        "url": ""
    },
    {
        "title": "表演中枪#这猫有点子技术在身上 #网友",
        "docid": "7338292685285163560",
        "url": ""
    },
    {
        "title": "主人带130斤狗狗爬山减肥，结果爬到一半狗子口吐白沫",
        "docid": "7345307558967509504",
        "url": ""
    },
    {
        "title": "萌娃和猫咪挤沙发，猫咪被惹怒“暴打”萌娃，网友：“欺猫太甚”",
        "docid": "7315297302414328370",
        "url": ""
    },
    {
        "title": "你知道为什么别的猫都打不过狸花猫吗？因为它骂得脏，下手狠？",
        "docid": "7345316569821807123",
        "url": ""
    },
    {
        "title": "狗狗：谁还没点脾气呢！",
        "docid": "7323162642615697961",
        "url": ""
    },
    {
        "title": "田园狸花猫真的不好惹，狸花猫封神打架现场",
        "docid": "7332860133271306792",
        "url": ""
    },
    {
        "title": "两只土狗切磋，场面太猛了，耳朵都被咬下了",
        "docid": "7324939662261387817",
        "url": ""
    },
    {
        "title": "小狗对待狸花猫和三花猫的区别",
        "docid": "7340465339274265088",
        "url": ""
    },
    {
        "title": "小女孩趴在藏獒身上，结果发生了让人意外的一幕，镜头拍下全过程",
        "docid": "7342430637359530531",
        "url": ""
    },
    {
        "title": "爸妈养的土狗，我半年后再见它是什么样的反应？",
        "docid": "7324666623690965556",
        "url": ""
    },
    {
        "title": "狗狗出门就装不认识主人，还变着法地想离家出走，网友：白养了！",
        "docid": "7316033701144920587",
        "url": ""
    },
    {
        "title": "太幸运了！拍到这么精彩的瞬间！原声实录，窗前一只大可爱养吗？",
        "docid": "7336557593621594678",
        "url": ""
    },
    {
        "title": "全网最难杀的狗子，历经20多次大小事故却依然活蹦乱跳",
        "docid": "7327251995663237695",
        "url": ""
    },
    {
        "title": "小猫白天温顺乖巧，一到深夜就疯狂攻击撕咬主人，这猫还能要吗",
        "docid": "7316497177131614720",
        "url": ""
    },
    {
        "title": "狗子把猫咪当成猎物，场面精彩",
        "docid": "7327634558382572067",
        "url": ""
    },
    {
        "title": "盘点那些被制裁的猫咪 #猫咪的迷惑行为 #手欠的猫 #猫咪",
        "docid": "7322786605130613258",
        "url": ""
    },
    {
        "title": "它玩了十分钟，我看了十分钟#猫咪 #我镜头下的小猫",
        "docid": "7322027576589976103",
        "url": ""
    },
    {
        "title": "猫：生死看淡，不服就干！",
        "docid": "7321681284278551066",
        "url": ""
    },
    {
        "title": "天降布偶砸破雨棚，邻居：不抓就推下去摔死“？",
        "docid": "7323090481263411727",
        "url": ""
    },
    {
        "title": "难怪这么多人喜欢养乌龟，原来养乌龟不仅可以转运，还能招财！",
        "docid": "7344563201570718248",
        "url": ""
    },
    {
        "title": "随笔｜亲爱的抱抱",
        "docid": "7345402463811633716",
        "url": ""
    },
    {
        "title": "千万别当着猫的面，开鲱鱼罐头！猫脸都臭扭曲了..",
        "docid": "7332210519660724788",
        "url": ""
    },
    {
        "title": "狗子落水，同伴来呼救，主人越想越不对：咋下去的？",
        "docid": "7345659972803527207",
        "url": ""
    },
    {
        "title": "黄鼠狼：你看我像人还是像神！",
        "docid": "7326083418419593738",
        "url": ""
    },
    {
        "title": "农历几月出生的狗，子孙满堂个个事业有成，注定富贵荣华一生？",
        "docid": "7331198413465289257",
        "url": ""
    },
    {
        "title": "女主人正拿锅煮泡面吃 ，猫咪竟把自己宝宝放锅里",
        "docid": "7317453500609200694",
        "url": ""
    },
    {
        "title": "不讲武德的狸花猫，打架专往腰子上踹，狠起来连主人一起打",
        "docid": "7323875172237509172",
        "url": ""
    },
    {
        "title": "终于把它推到了，倒下的那一刻好解压",
        "docid": "7340856539584528950",
        "url": ""
    },
    {
        "title": "《当事狗强烈要求删除此视频》",
        "docid": "7326497846579069494",
        "url": ""
    },
    {
        "title": "自从养了狗，外公外婆每天都在厨房练功",
        "docid": "7343525422191084073",
        "url": ""
    },
    {
        "title": "那些社恐的猫咪，来看看哪个最怂？",
        "docid": "7320936028997911091",
        "url": ""
    },
    {
        "title": "大叔用蜡烛封住蛋蛋 竟孵出小鸡！长大变成红冠黑白羽的大公鸡！",
        "docid": "7322442198984131113",
        "url": ""
    },
    {
        "title": "狸花猫收到个比自己还大的玩具，激动的找不到北了",
        "docid": "7329487291997651491",
        "url": ""
    },
    {
        "title": "笑不活了！走丢的阿拉斯加在街上大哭后续：我笑晕在咪咪评论区！",
        "docid": "7328954248400486912",
        "url": ""
    },
    {
        "title": "狸花猫的生存能力有多强？网友：老祖宗选出来的猫就是不一般",
        "docid": "7319428209823580682",
        "url": ""
    },
    {
        "title": "狗子以为咬掉了主人的“手”，差点吓尿：下辈子怎么赎罪都想好了",
        "docid": "7318778648230969891",
        "url": ""
    },
    {
        "title": "果然猫科动物都一样！再大也是猫～",
        "docid": "7327942981662130728",
        "url": ""
    },
    {
        "title": "“土狗”才是血统最高贵的狗？为何养过土狗后，就不会养其他狗了",
        "docid": "7321610778325680679",
        "url": ""
    },
    {
        "title": "55个中华田园犬品种，你喜欢哪一个",
        "docid": "7315810046905434659",
        "url": ""
    },
    {
        "title": "游客被鹦鹉骂了？园方：正在矫正！网友：别矫正了，门票会爆卖的",
        "docid": "7317550676283261474",
        "url": ""
    },
    {
        "title": "第一批回村的猫已经开始上桌，换身衣服、找好猫砂地、飞檐走壁",
        "docid": "7327155682262958627",
        "url": ""
    },
    {
        "title": "南方小土豆抱白狐激动大喊我读书养你啊，主人说快还我，太吓人了",
        "docid": "7320782611570360859",
        "url": ""
    },
    {
        "title": "吸烟有害吗？48只狗被英国烟草公司做实验，三年每天抽100根烟",
        "docid": "7313126819140829736",
        "url": ""
    },
    {
        "title": "4种“跌落神坛”的狗，逐渐淡出中国，劝你谨慎饲养！",
        "docid": "7317179200443073061",
        "url": ""
    },
    {
        "title": "金毛走丢主人焦急发帖求助，结果评论区还原了狗子纸醉金迷的一天",
        "docid": "7327886100196901412",
        "url": ""
    },
    {
        "title": "为什么大量人类喜欢猫？因猫咪不论你贫富，一视同仁拿你当奴隶！",
        "docid": "7325736991248302626",
        "url": ""
    },
    {
        "title": "买鲈鱼时，挑“大肚子”还是“小肚子”的？差别很大，搞懂了再买",
        "docid": "7318281504327549440",
        "url": ""
    },
    {
        "title": "“不咬人”的6种狗，家里有娃也很适合养！",
        "docid": "7333945889087898124",
        "url": ""
    },
    {
        "title": "见过猫头鹰睡觉以后，我打算明天不去上班",
        "docid": "7314509540530405898",
        "url": ""
    },
    {
        "title": "狗狗幼崽VS长大后",
        "docid": "7331290146144567848",
        "url": ""
    },
    {
        "title": "养猫人vs养狗人，看一万遍都扎心的程度！",
        "docid": "7326456000050102834",
        "url": ""
    },
    {
        "title": "故宫的猫-帕帕，猪咪扑雪图",
        "docid": "7333969131949507083",
        "url": ""
    },
    {
        "title": "忘记跟美容师说猫是卷毛猫了",
        "docid": "7315057907937067531",
        "url": ""
    },
    {
        "title": "破防了！去世的宠物会与你不断重逢，网友：眼睛尿尿了！",
        "docid": "7322737288516485684",
        "url": ""
    },
    {
        "title": "打狗要带感情",
        "docid": "7324218998340452873",
        "url": ""
    },
    {
        "title": "狗子因脸太长被疯狂玩梗，就不能尊重每一根狗狗吗？！",
        "docid": "7320490438761251337",
        "url": ""
    },
    {
        "title": "羊驼接诈骗电话只会“嗯”，骗子被气得怒挂电话？假的",
        "docid": "7345024477409231394",
        "url": ""
    },
    {
        "title": "笑晕了！猫咪藏起来有多难找？网友：那天差点疯了！",
        "docid": "7340308193799176730",
        "url": ""
    },
    {
        "title": "拍到了猫生的18张照片",
        "docid": "7314802676808892964",
        "url": ""
    },
    {
        "title": "感觉狗的风评渐渐不如猫了，为什么？网友：养猫太省心！",
        "docid": "7332741471654887971",
        "url": ""
    },
    {
        "title": "绑架猫老大的儿子，结果被对方找上门…网友：看它这面相你药丸！",
        "docid": "7345315255888888354",
        "url": ""
    },
    {
        "title": "十大最漂亮的猫——有你心仪的吗？",
        "docid": "7316582118887539252",
        "url": ""
    },
    {
        "title": "2012年男子捡到“乌龟”，喂养7年发觉异样，警方赶到后将龟带走",
        "docid": "7341265022687068722",
        "url": ""
    },
    {
        "title": "笑麻了，回南天最大的受害者是小猫，真的忍不住笑",
        "docid": "7343582499404186147",
        "url": ""
    },
    {
        "title": "钓鱼人公认最好吃的7种淡水鱼，味道好营养价值高，你吃过几种?",
        "docid": "7322391992867226163",
        "url": ""
    },
    {
        "title": "女子网购4只小鸡给女儿当宠物，养了5个月后，一家人享用美味",
        "docid": "7328012188383265334",
        "url": ""
    },
    {
        "title": "女孩和爷爷诉苦考试压力大，爷爷便挑了只胖胖的小土狗去探望！",
        "docid": "7345438409974071808",
        "url": ""
    },
    {
        "title": "家里十天没有人，两只猫咪怎么办",
        "docid": "7333024067311731209",
        "url": ""
    },
    {
        "title": "笑发财了！在猫咖里赎猫，刻在骨子里的救风尘！",
        "docid": "7335704354449900032",
        "url": ""
    },
    {
        "title": "猫咪喜欢你的10种表现",
        "docid": "7322766282213311002",
        "url": ""
    },
    {
        "title": "“妹子的裤子好个性啊，不知道的人还以为是你自己画上去的呢！”",
        "docid": "7345385972768883240",
        "url": ""
    },
    {
        "title": "猫亲近的人，都是灵魂很轻的人",
        "docid": "7329820602037076532",
        "url": ""
    },
    {
        "title": "你了解马吗？看完这66种马，你差不多学会相马了",
        "docid": "7316399552478118454",
        "url": ""
    },
    {
        "title": "养猫久了才知道，为什么“养猫不养公”，过来人的经验",
        "docid": "7329880284328067594",
        "url": ""
    },
    {
        "title": "养狗久了才知道，狗狗见到你就“立起来抓裤脚”，原来是这意思！",
        "docid": "7336518453664154175",
        "url": ""
    },
    {
        "title": "一个内蒙古小县城，却是中国最大猫砂基地，世界上占有重要地位",
        "docid": "7323971989348418075",
        "url": ""
    },
    {
        "title": "世界上最贵的十只狗，每一只都价格不菲",
        "docid": "7318571364268048931",
        "url": ""
    },
    {
        "title": "“一女子脱了球衣打篮球遭吐槽，男生：我们没法安心比赛了”哈哈",
        "docid": "7346007366502105640",
        "url": ""
    },
    {
        "title": "卧铺车厢的“美女”引发热议：请尊重公共空间注意个人形象与行为",
        "docid": "7345331262204248585",
        "url": ""
    },
    {
        "title": "“比狗还忠诚”的五种猫，心里只有你，养它错不了！",
        "docid": "7316734879047598629",
        "url": ""
    },
    {
        "title": "临清有一世上独一无二的特产——临清狮猫。",
        "docid": "7320123513891979839",
        "url": ""
    },
    {
        "title": "狗的寿命是多少年？为何狗临死前都会离家出走？它们在害怕什么？",
        "docid": "7317155391043961385",
        "url": ""
    },
    {
        "title": "女主人打架站上风狗子偷笑，下秒见其吃亏立马帮忙：我陪嫁有目的",
        "docid": "7315676848397124150",
        "url": ""
    },
    {
        "title": "养猫后才懂的事，第一张直接破防了！内容过于真实",
        "docid": "7321557966430159399",
        "url": ""
    },
    {
        "title": "朋友借我八千块一直不还我，直到我发给她这张照片:)",
        "docid": "7346019995383513634",
        "url": ""
    },
    {
        "title": "吃草就长肉，繁殖能力超强，兔肉为何不是人类主要肉类来源",
        "docid": "7317976755615072787",
        "url": ""
    },
    {
        "title": "一生只认一个主人的四种猫，比狗还忠诚！",
        "docid": "7318724087499457039",
        "url": ""
    },
    {
        "title": "随处可见的斑鸠能吃吗，究竟是害鸟还是益鸟，它到底会不会筑巢？",
        "docid": "7312761813014299190",
        "url": ""
    },
    {
        "title": "给老婆发短信，误发给了女房东，女房东秒回：这个月房租不要了",
        "docid": "7345277528631869986",
        "url": ""
    },
    {
        "title": "免费领养品种猫，我成了最大的冤种",
        "docid": "7345312279694574091",
        "url": ""
    },
    {
        "title": "最理想的人际关系，就像人跟猫的关系",
        "docid": "7327477997169263123",
        "url": ""
    },
    {
        "title": "猫咪的瞳孔颜色决定性格，看看你家猫咪啥性格",
        "docid": "7325584220120957475",
        "url": ""
    },
    {
        "title": "山西1家3口隐居大山处，养5只狗，耕田种地自得其乐，整年不出山",
        "docid": "7320184670221124130",
        "url": ""
    },
    {
        "title": "当你不想合群的时候，学一学猫的智慧，就知道怎么做了",
        "docid": "7237316747018240523",
        "url": ""
    },
    {
        "title": "男子喝醉在朋友家借住，结果猫咪不淡定了：单手撑在床边暗中观察",
        "docid": "7320437214721573410",
        "url": ""
    },
    {
        "title": "猫为什么总是爱看窗外？他是想出门玩吗？",
        "docid": "7344675575359046159",
        "url": ""
    },
    {
        "title": "男子分享“撸鱼”体验，网友：见过撸猫撸狗，第一次见撸鱼的",
        "docid": "7328586985407414847",
        "url": ""
    },
    {
        "title": "男子用3年成功将带鱼养鱼缸，国内水族馆未成功过，朋友举动暖心",
        "docid": "7345751182092173833",
        "url": ""
    },
    {
        "title": "养一只猫跟养两只猫绝对不一样，猫界原来是这样相处的",
        "docid": "7339729524076069391",
        "url": ""
    },
    {
        "title": "江苏大爷带狗买爆米花，站主人旁边后腿瑟瑟发抖，炮响后反应亮了",
        "docid": "7333033102056358452",
        "url": ""
    },
    {
        "title": "两只猫咪互看对方不顺眼，言语试探后出拳速度太惊人，下一幕爆笑",
        "docid": "7343481446276792869",
        "url": ""
    },
    {
        "title": "一只哈尔滨的松鼠冲上热搜，这松鼠怎么有些潦草？笑死在评论区了",
        "docid": "7321961161669444137",
        "url": ""
    },
    {
        "title": "矮脚猫挑衅笼子里的豹猫，下一秒被扯住疯狂挨揍，结局惨痛惹爆笑",
        "docid": "7341284031071584779",
        "url": ""
    },
    {
        "title": "饭桌上猫咪偷喝主人的水，小主人宠溺点头萌化网友：太有爱了吧",
        "docid": "7326765413961433637",
        "url": ""
    },
    {
        "title": "原来猫咪的江湖追捕令是这么来的，狸花猫猎杀时刻，评论区笑麻了",
        "docid": "7337962413515506211",
        "url": ""
    },
    {
        "title": "厉害了！羊驼凭借一己之力逼疯电信诈骗登上热搜，评论区笑不活",
        "docid": "7344896537111790091",
        "url": ""
    },
    {
        "title": "狸花猫都是这么聪明的吗？看完网友分享，老祖宗严选果然严谨！",
        "docid": "7338616966200066594",
        "url": ""
    },
    {
        "title": "两猫咪打架“薅头发”！一边哀嚎一边不愿撒手：看谁先动谁就输",
        "docid": "7320803166809752101",
        "url": ""
    },
    {
        "title": "人老了，在生气的时候，看看猫的智慧，就不气了",
        "docid": "7343417160481735203",
        "url": ""
    },
    {
        "title": "新华全媒+丨汗血马背上的萌宝骑手",
        "docid": "7345249557019787810",
        "url": ""
    },
    {
        "title": "早上在公园发现的，是不是发生了一场大战？哈哈哈很激烈啊！",
        "docid": "7345732574309958196",
        "url": ""
    },
    {
        "title": "港人养一只宠物平均花费68万元",
        "docid": "7346002437511168563",
        "url": ""
    },
    {
        "title": "关于燕子的10个有趣冷知识，你知道几个？",
        "docid": "7326525243789574691",
        "url": ""
    },
    {
        "title": "主人分享自家瓦莱黑鼻羊的日常，网友评论：他怎么有两只！",
        "docid": "7323822675812418098",
        "url": ""
    },
    {
        "title": "回家不带猫咪，猫主子留守6天，喵：看我的眼神，确定要留守吗",
        "docid": "7331950229367538228",
        "url": ""
    },
    {
        "title": "买鲫鱼时，别只会挑大小！水产老板：牢记4点，好鲫鱼一挑一个准",
        "docid": "7315408576133546496",
        "url": ""
    },
    {
        "title": "当金毛遇上东北虎！前一秒疯狂挑衅后一秒腿软认怂：果然血脉压制",
        "docid": "7327239792537240079",
        "url": ""
    },
    {
        "title": "小羊为了喝水，拼命努力挂在水槽边镜头一转有卧龙的地方必有凤雏",
        "docid": "7325700721377346084",
        "url": ""
    },
    {
        "title": "世界上最富有的狗：身价高达24亿，住豪宅坐豪车，身边美女如云",
        "docid": "7337663333329338934",
        "url": ""
    },
    {
        "title": "“这只狗，让我足足笑了2分33秒！”",
        "docid": "7321524702244798995",
        "url": ""
    },
    {
        "title": "狗狗难免会犯错，适当的教训可以但是不要伤害",
        "docid": "7320808870811550208",
        "url": ""
    },
    {
        "title": "七仔:姨姨们还认识我么？我这一身炸裂糖霜，好可爱么！",
        "docid": "7327162028131516962",
        "url": ""
    },
    {
        "title": "猫老是抢狗的窝，主人无奈出面撮合，最终睡到了一起",
        "docid": "7312701602933146164",
        "url": ""
    },
    {
        "title": "网友买来一条电动鱼鱼饵 入水的瞬间，惊呆了！",
        "docid": "7321561812067156490",
        "url": ""
    },
    {
        "title": "猫咪在房间后空翻，不小心把床单勾破了，立马翻身用屁股盖住证据",
        "docid": "7346052363964203547",
        "url": ""
    },
    {
        "title": "狗都嫌的年纪！狗子出门没回家小主人出门寻，回来一幕妈妈笑崩",
        "docid": "7329797433909903926",
        "url": ""
    },
    {
        "title": "猫咪小时候VS猫咪长大后",
        "docid": "7324540828176171554",
        "url": ""
    },
    {
        "title": "女生半夜想起快递没拿，叫醒自家猫陪伴出门，猫咪都懵了！",
        "docid": "7317194983163822602",
        "url": ""
    },
    {
        "title": "金毛咬窗帘被教育，主人一掌接着一掌狗子满脸硬气，表情逗乐众人",
        "docid": "7337520649071821327",
        "url": ""
    },
    {
        "title": "爸爸回家故意不抱宝宝，双胞胎萌娃急得飞速爬来：就差站起来了！",
        "docid": "7316871673289179658",
        "url": ""
    },
    {
        "title": "网友买两只“孔雀”回家，不料养着养着越来越怪，结果出人意料!",
        "docid": "7344668128804078132",
        "url": ""
    },
    {
        "title": "猫猫正在舔爪子，发现主人在偷拍 给了主人一个“wink”",
        "docid": "7327127186505204263",
        "url": ""
    },
    {
        "title": "女子发烧烧迷糊了让狗狗去拿水，狗狗疯狂暗示自己被拴住了",
        "docid": "7333058158337720873",
        "url": ""
    },
    {
        "title": "猫咪主动往女孩怀里钻，“谁能拒绝一只小可爱呢”",
        "docid": "7340098715396670002",
        "url": ""
    },
    {
        "title": "狗子打架赢了兴奋的跳着回家，隔着屏幕都能感受到嚣张！",
        "docid": "7339379706933969460",
        "url": ""
    },
    {
        "title": "主人“推推”小猫咪让它去睡觉了，没想到愣是一动不动",
        "docid": "7316789794997010998",
        "url": ""
    },
    {
        "title": "女子喂狗时害怕被咬到手，双方都很有礼貌：狗子在夸奖中迷失自我",
        "docid": "7342051400463876634",
        "url": ""
    },
    {
        "title": "山羊用头撞石头，猫蹲在旁边冷眼旁观，下一秒“飞来横祸”",
        "docid": "7340916823283466815",
        "url": ""
    },
    {
        "title": "猫咪走独木桥掉下水里，爬起来从头再走一遍，笑死我了",
        "docid": "7332059304830501410",
        "url": ""
    },
    {
        "title": "宝宝靠在狗狗身上，突然放了个屁，狗狗接下来的动作笑坏了爸妈！",
        "docid": "7326863936068944399",
        "url": ""
    },
    {
        "title": "是鼠都归猫管！同体型下，猫咪战斗力爆表",
        "docid": "7323964045449822754",
        "url": ""
    },
    {
        "title": "小狗被抓住了一脸不服气，原因很搞笑！#农村土狗 #狗狗",
        "docid": "7325375536073867828",
        "url": ""
    },
    {
        "title": "狗狗以为大家都出去了没有带自己，气得发疯，转头发现还有人在家",
        "docid": "7319297405525066255",
        "url": ""
    },
    {
        "title": "长这么大，头一次想扇一只鸭子",
        "docid": "7333157538931999286",
        "url": ""
    },
    {
        "title": "“把男友买的榴莲喂了狗，他气炸了”上热搜，网友评论区吵翻天",
        "docid": "7345468044556452402",
        "url": ""
    },
    {
        "title": "免费领养品种猫，我成了最大的冤种",
        "docid": "7345378790577127990",
        "url": ""
    },
    {
        "title": "金毛叼回孔明灯赶紧关上门，动作慌张一气呵成，下秒主人却乐开花",
        "docid": "7318659441535124002",
        "url": ""
    },
    {
        "title": "小猫咬了主人后，猫妈妈得知后当场拖出小猫，当着主人面教育",
        "docid": "7326802064712040987",
        "url": ""
    },
    {
        "title": "猫猫被宠坏的表现",
        "docid": "7336778516559626767",
        "url": ""
    },
    {
        "title": "毛毛:全网独一无二的睡袋猫 它绝对是猫中学霸，凭借成精表演走红",
        "docid": "7316002903691362843",
        "url": ""
    },
    {
        "title": "猫咪车内观察周边风景，乖乖站起瞪大眼不断吐舌，满脸的难以置信",
        "docid": "7333023843013001763",
        "url": ""
    },
    {
        "title": "有多少孩子的童年是狗狗陪伴中长大的！",
        "docid": "7315034219905253940",
        "url": ""
    },
    {
        "title": "这只狸花猫因为太过凶残，被主人判它拉车劳改",
        "docid": "7343560030601347584",
        "url": ""
    },
    {
        "title": "但凡慢一秒都是对饭的不尊重：原来真有和表情包一模一样的狗狗",
        "docid": "7339840609483489855",
        "url": ""
    },
    {
        "title": "“最美丈母娘火了，女婿表示也很无奈”，哈哈这丈母娘也太年轻了",
        "docid": "7346080032705544719",
        "url": ""
    },
    {
        "title": "老人养“凤凰”4年，专家发现时已超40只，竟是“牢底坐穿鸟”？",
        "docid": "7345790401293107752",
        "url": ""
    },
    {
        "title": "原来这才是农村土狗喜欢叫旺财的真正原因！",
        "docid": "7326476293523177996",
        "url": ""
    },
    {
        "title": "一条流浪狗的逆袭，送出去一块面包换来一生荣华富贵：你只管善良",
        "docid": "7329820482537161242",
        "url": ""
    },
    {
        "title": "何种情况下宠物需要用到高压氧舱？动物高压氧舱不属于医疗设备",
        "docid": "7346087216361488933",
        "url": ""
    },
    {
        "title": "羊驼接诈骗电话，骗子被“嗯嗯嗯”逼崩溃，网友：这才是反诈高手",
        "docid": "7345413315314647586",
        "url": ""
    },
    {
        "title": "小狗第一次喝可乐，兴奋到跑来跑去，狗子：给你表演个欲罢不能",
        "docid": "7321685938651071014",
        "url": ""
    },
    {
        "title": "笑不活了，爷爷送了我一只陪考小狗，我却笑死网友评论里",
        "docid": "7345447523601203751",
        "url": ""
    },
    {
        "title": "狗狗看电视剧模仿大臣跪拜，网友：上辈子至少是个三品",
        "docid": "7319345562145423899",
        "url": ""
    },
    {
        "title": "亲爱的抱抱",
        "docid": "7345252454084264463",
        "url": ""
    },
    {
        "title": "太可爱鸟！鹦鹉撕纸试图插上“羽毛”变孔雀？",
        "docid": "7346101186720514601",
        "url": ""
    },
    {
        "title": "挑战每天认识一种狗—柴犬",
        "docid": "7314620731672248832",
        "url": ""
    },
    {
        "title": "猫的速度是人类的七倍",
        "docid": "7317621429829763584",
        "url": ""
    },
    {
        "title": "金毛爸爸第一次见到儿子，一见面就疯了，反应也太可爱了！",
        "docid": "7333848856729223720",
        "url": ""
    },
    {
        "title": "狗市上一位特别的卖狗人，他的狗从来不会让你失望，精品小黄狗",
        "docid": "7331901685771534857",
        "url": ""
    },
    {
        "title": "女子救下一只黑猫，谁知越养越上头，太吓人了",
        "docid": "7340462411893670411",
        "url": ""
    },
    {
        "title": "狗子走石墩落水，游客边笑边让路，主人：进景区逗游客来了",
        "docid": "7332310544315220521",
        "url": ""
    },
    {
        "title": "猫咪推倒电视机想嫁祸给狗子，两狗识破其诡计立马开窗逃跑",
        "docid": "7323026486070346303",
        "url": ""
    },
    {
        "title": "猫咪报仇从不过夜，受到欺负就反抗#猫：你什么意思",
        "docid": "7320022304623329829",
        "url": ""
    },
    {
        "title": "柴犬照顾小宝宝走红，比亲妈还上心啊！暖哭了",
        "docid": "7345303022471381514",
        "url": ""
    },
    {
        "title": "狗子串门玩耍瞄准男子回家路线“打车”回家，上车前一幕逗笑网友",
        "docid": "7323783170254602752",
        "url": ""
    },
    {
        "title": "猫咪踩到臭屁虫，想舔干净闻了几秒后差点当场去世：脚都不想要了",
        "docid": "7329728286476075561",
        "url": ""
    },
    {
        "title": "笑喷了，男子让羊驼接听诈骗电话！全程一个嗯，骗子心态都炸了",
        "docid": "7345320726200779299",
        "url": ""
    },
    {
        "title": "捡来的流浪猫把家里的猫打了个遍，家猫敢怒不敢言，要不扔了？",
        "docid": "7330241111116251659",
        "url": ""
    },
    {
        "title": "永远都会奔向我的宝宝！！🥹 天啊小短腿直接飞起来啦",
        "docid": "7314973032152629796",
        "url": ""
    },
    {
        "title": "惊险！浙江一猫咪爬到阳台被子上晒太阳，女子发现后惊出一身冷汗",
        "docid": "7342048515193111076",
        "url": ""
    },
    {
        "title": "被男子尾随惊慌失措闯进路边店里！狗狗发现异常集体冲门口狂吠",
        "docid": "7329708465432855049",
        "url": ""
    },
    {
        "title": "来看看猫咪勇斗郊狼八大名场面，勇敢又护主的猫咪值得被爱",
        "docid": "7328791341885260340",
        "url": ""
    },
    {
        "title": "张煤球：全网第一大胖猫，每天各种方法偷吃偷喝！",
        "docid": "7314953584091595327",
        "url": ""
    },
    {
        "title": "邻居家吵架狗子竟然爬墙围观邻居吵架",
        "docid": "7343466077197697575",
        "url": ""
    },
    {
        "title": "宠物解说：盘点全网十大最妖娆的猫，你喜欢哪个？",
        "docid": "7338362798538162740",
        "url": ""
    },
    {
        "title": "下完崽的狗子要给女主人吃奶，露出肚皮就往她嘴边凑：给我个面子",
        "docid": "7326405786614432275",
        "url": ""
    },
    {
        "title": "福仔，我国唯一的柯基警犬，可爱又威武",
        "docid": "7346033376715014692",
        "url": ""
    },
    {
        "title": "破防了！女子领养小狗时，被流浪狗妈妈握住了手！现已母子团圆",
        "docid": "7339780103158956584",
        "url": ""
    },
    {
        "title": "猫咪看电视太认真，双脚直立目不转睛超可爱，网友：一麻袋给套走",
        "docid": "7341281783172596259",
        "url": ""
    },
    {
        "title": "最调皮的拉布拉多犬，每天都顺不同的东西回家，搞得全村人追",
        "docid": "7325670298429162038",
        "url": ""
    },
    {
        "title": "猫咪被拴在门口挂牌示众，网友找主人询问，得知原因后：罚轻了",
        "docid": "7343864462187102735",
        "url": ""
    },
    {
        "title": "雪天把狗忘在阳台，半夜一开门，狗：律师来之前我不会说一句话！",
        "docid": "7317108497148166708",
        "url": ""
    },
    {
        "title": "原来养狗也有“段位”，敢养第七种的，才是王者！",
        "docid": "7340918057458041398",
        "url": ""
    },
    {
        "title": "过年买鱼买肉，这4种白送也不要！甲醛、重金属超标，还会致癌",
        "docid": "7332369213157425691",
        "url": ""
    },
    {
        "title": "过年买鱼时，尽量挑这6种鱼买，便宜又好吃，别被鱼贩子给骗了",
        "docid": "7325728344573018663",
        "url": ""
    },
    {
        "title": "中国传说中的“三界第一神犬”，如今地位不保？总被认成外国犬！",
        "docid": "7329815867079344659",
        "url": ""
    },
    {
        "title": "河南一家人在院里放烟花，狗狗叼起烟花往外跑，舍身救主感动全网",
        "docid": "7334335782213321279",
        "url": ""
    },
    {
        "title": "相伴14年的狗子走了，临了的那一刻和人一样，小腿腿划向空中！",
        "docid": "7336848687198470691",
        "url": ""
    },
    {
        "title": "笑喷！猫咪抓破沙发，90岁奶奶亲自上阵为其“上课”，小表情亮了",
        "docid": "7327131546757333556",
        "url": ""
    },
    {
        "title": "笑不活了，狗在囧途，毛孩子随主人回家过年了，我却被评论区笑死",
        "docid": "7331027643057390089",
        "url": ""
    },
    {
        "title": "小鸟在我家窗外筑巢9年多不飞走，每天给大米小米吃，能听懂人话",
        "docid": "7334291060849377801",
        "url": ""
    },
    {
        "title": "2023老人和哈基米的治愈瞬间",
        "docid": "7319060115099910666",
        "url": ""
    },
    {
        "title": "女子养了两只猫，出去玩了一圈后，发现耳朵掉了",
        "docid": "7327708351326847528",
        "url": ""
    },
    {
        "title": "狗都嫌的年纪！狗子出门没回家小主人出门寻，回来一幕妈妈笑崩",
        "docid": "7333522824516567604",
        "url": ""
    },
    {
        "title": "山东一小猫一步步逼近主人，先是嗅了几下，随后一举动惊呆众人",
        "docid": "7341993463464133155",
        "url": ""
    },
    {
        "title": "过完年第一批等到主人的留守猫",
        "docid": "7336781035596120614",
        "url": ""
    },
    {
        "title": "狗狗和主人深情合唱，开口便惊艳全场，网友：它是懂音乐的！",
        "docid": "7343529064680358436",
        "url": ""
    },
    {
        "title": "退役警犬听到电视播升旗，凑近坐下表情严肃，听到\"敬礼\"动作泪目",
        "docid": "7340154973583311412",
        "url": ""
    },
    {
        "title": "女子蹲地和小狗玩耍，不料狗妈妈一把将小狗带走，表情亮了",
        "docid": "7328327619974595135",
        "url": ""
    },
    {
        "title": "当朋友问我周末为什么都不出门，我给她发去了这个视频。",
        "docid": "7313528811444765219",
        "url": ""
    },
    {
        "title": "为啥“公狗”越来越少人养？事实证明：养过就怕了！",
        "docid": "7346107904111510031",
        "url": ""
    },
    {
        "title": "你们小时候玩过吗，孩子们的大宠物，万物皆有灵性",
        "docid": "7327829160884339250",
        "url": ""
    },
    {
        "title": "小姐姐驾车发现疑似走失四年的狗狗，四年了它竟然还认得我",
        "docid": "7341280159086936588",
        "url": ""
    },
    {
        "title": "主人忘记跟狗狗说今天不干活，狗狗守了一早上 听完脸都黑了",
        "docid": "7344568219421639177",
        "url": ""
    },
    {
        "title": "猫咪应激反应抓破主人的脸，眼神忧愁一脸无辜：你还养我吗",
        "docid": "7331687715643064842",
        "url": ""
    },
    {
        "title": "狗子被媳妇暴揍躺医院大哭哀嚎，哭出防空警报般的委屈，主人笑喷",
        "docid": "7322257714502238757",
        "url": ""
    },
    {
        "title": "江苏小伙和狗“神对话”逗乐全网，狗子气到跳脚：你在狗叫什么！",
        "docid": "7312773875782287887",
        "url": ""
    },
    {
        "title": "猫猫想吃车厘子被主人制止后的眼神绝了",
        "docid": "7345414708583498267",
        "url": ""
    },
    {
        "title": "比特犬大战野狼，火力全开将野狼活活咬死，野狼全程被碾压",
        "docid": "7322038065654923787",
        "url": ""
    },
    {
        "title": "男孩买2只豚鼠养出100多只豚鼠 网友：年纪轻轻就当上了养殖老板",
        "docid": "7343923003732394533",
        "url": ""
    },
    {
        "title": "看到这只猫，终于明白菩提老祖，为啥那么喜欢孙悟空了",
        "docid": "7318670747201700387",
        "url": ""
    },
    {
        "title": "金渐层打架输了和主人告状，委屈大叫一副可怜模样，对手出场秒懂",
        "docid": "7327960912407560758",
        "url": ""
    },
    {
        "title": "一头被妈妈嫌弃的小毛驴，和狗狗一起长大，现在它不觉得它是头驴",
        "docid": "7327243460996497954",
        "url": ""
    },
    {
        "title": "那些一肚子坏水的猫咪，来看看哪个最缺德？",
        "docid": "7320276294368363034",
        "url": ""
    },
    {
        "title": "狗子过年回家，扛起做饭大责，狗心想这个家还是得靠我啊",
        "docid": "7317576209611784715",
        "url": ""
    },
    {
        "title": "男子路边吃烧烤，发现狗子被绑在一起",
        "docid": "7324169190636683816",
        "url": ""
    },
    {
        "title": "用颤抖的手，扣出猫猫的手。",
        "docid": "7315388864971932160",
        "url": ""
    },
    {
        "title": "狗界有一种说法：只要和鸭屁股侠对视三秒，就能得到一袋子鸭屁股",
        "docid": "7343947716462346761",
        "url": ""
    },
    {
        "title": "带城里狗子回农村过年，这精神状态完全判若两狗～",
        "docid": "7333601061141709322",
        "url": ""
    },
    {
        "title": "别闹，上班呢！西园寺调皮小猫走红，“狮口掏球”逗乐游客",
        "docid": "7339383689371255332",
        "url": ""
    },
    {
        "title": "狗狗为什么摇尾巴？生物学家们这样说",
        "docid": "7327087389699342874",
        "url": ""
    },
    {
        "title": "天冷后狗都不想早起",
        "docid": "7339142565239161353",
        "url": ""
    },
    {
        "title": "还记得这个和猫打架的小女孩吗？这张图片曾刷屏了无数评论区",
        "docid": "7331268818389926434",
        "url": ""
    },
    {
        "title": "喜逢转运竹，龙年走好运",
        "docid": "7334948615187612172",
        "url": ""
    },
    {
        "title": "网友晒自己的“干”饭鸟 “不乐意一粒一粒吃，就爱吨吨吨的吃”",
        "docid": "7329311533278691880",
        "url": ""
    },
    {
        "title": "小姐姐不开心的时候，被一只突然出现的狗狗哄的又哭又笑",
        "docid": "7340943263375589898",
        "url": ""
    },
    {
        "title": "任何小狗都抵不住“嘬嘬嘬”诱惑，大狗：这只能骗涉世未深的小狗",
        "docid": "7318267453153215015",
        "url": ""
    },
    {
        "title": "猫的反应速度是人的多少倍？",
        "docid": "7346159605480686134",
        "url": ""
    },
    {
        "title": "狗子送主人上班后依偎在墙角安静去世，主人找到它后泪崩：20年了",
        "docid": "7333163261069787667",
        "url": ""
    },
    {
        "title": "重庆一女子到外婆家，发现猫咪胖到认不出，网友：用猪饲料喂的吧",
        "docid": "7319415148375081484",
        "url": ""
    },
    {
        "title": "喜鹊报喜，喜事连连！2024，家喜人喜事事皆喜，财喜福喜连连到喜",
        "docid": "7345853814106423843",
        "url": ""
    },
    {
        "title": "女子制止羊驼亲自己老公，茶里茶气的羊驼转头一脸嘲讽：管得着吗",
        "docid": "7342753717529248266",
        "url": ""
    },
    {
        "title": "宠物解说：狗狗舔人的四大好处，你知道吗？",
        "docid": "7334256093688201782",
        "url": ""
    },
    {
        "title": "关于麻雀的10个有趣冷知识，你知道几个？",
        "docid": "7325763101633397263",
        "url": ""
    },
    {
        "title": "家里一个猫，一家人宠，惯的坏坏滴，没办法，它会讨人爱呀！",
        "docid": "7319118016078479910",
        "url": ""
    },
    {
        "title": "狗：有时候真的挺想报警的！",
        "docid": "7325761557000880681",
        "url": ""
    },
    {
        "title": "宠物医院高压氧舱事故受害女顾客昨晚去世 母公司新瑞鹏全国布局近2000家宠物医院",
        "docid": "7346175468401361417",
        "url": ""
    },
    {
        "title": "当《哈利·波特》中的魔法宠物“海德薇”走进现实……",
        "docid": "7346166102763946506",
        "url": ""
    },
    {
        "title": "女子给狗子投喂食物，结果狗子不为所动行为笑哭网友：真有骨气！",
        "docid": "7314582245170217507",
        "url": ""
    },
    {
        "title": "小猫居然真的会托梦，这是什么玄学？看完网友们的分享细思极恐",
        "docid": "7339035176967848488",
        "url": ""
    },
    {
        "title": "太可爱了！优雅永不过时！网友拍摄到一只大鹅上演“冰上芭蕾”（来源：@动物园园长 ）",
        "docid": "7316887728866820648",
        "url": ""
    },
    {
        "title": "全网最聪明的羊驼，爱向男主人告状，会撒娇，还会保护小主人",
        "docid": "7341747990069805587",
        "url": ""
    },
    {
        "title": "“让我看看你家猫回村后的样子”",
        "docid": "7327131072356057610",
        "url": ""
    },
    {
        "title": "小狗跑15公里看望狗妈妈，陪伴妈妈待一会儿又启程返家：经常来",
        "docid": "7344944791152493082",
        "url": ""
    },
    {
        "title": "猫咪睡醒尾巴断了惊呆主人，猫咪毫不在乎：这下舔尾巴不用回头了",
        "docid": "7346097907487113737",
        "url": ""
    },
    {
        "title": "主人将母狗饭钵埋了只鸡腿， 网友：母爱是世界上最伟大的",
        "docid": "7338755334271894068",
        "url": ""
    },
    {
        "title": "狗的寿命是多少年？为何狗临死前都会离家出走？它们在害怕什么？",
        "docid": "7316456675006104101",
        "url": ""
    },
    {
        "title": "一月狗看金房，二月狗上高墙，三月狗入贵门，属狗几月最好命？",
        "docid": "7340186304099402277",
        "url": ""
    },
    {
        "title": "挑战每天认识一种狗—雪纳瑞",
        "docid": "7323130547981697551",
        "url": ""
    },
    {
        "title": "狗是通人性的，但我不再养狗",
        "docid": "7319496491939381797",
        "url": ""
    },
    {
        "title": "动物或传播疾病，已致人死亡！请做好相关防范→",
        "docid": "7346177772811436580",
        "url": ""
    },
    {
        "title": "如果你也想听一听小精灵之家的故事",
        "docid": "7346118834329453091",
        "url": ""
    },
    {
        "title": "废墟中的“生命雷达”：搜救犬到底有多厉害？",
        "docid": "7314171606375596581",
        "url": ""
    },
    {
        "title": "我为狗盆发声😂😂😂",
        "docid": "7335761066703782411",
        "url": ""
    },
    {
        "title": "猫咪“跳楼”半路返回，喵：没有命给我“折腾”了",
        "docid": "7331713276360950323",
        "url": ""
    },
    {
        "title": "主人发现小猫在门口盯着自己看，表情中透露着“诡计多端”",
        "docid": "7342830383920382483",
        "url": ""
    },
    {
        "title": "猫咪发现窗外有人在擦玻璃，搞笑的一幕发生了，简直蠢萌可爱极了",
        "docid": "7327188508383117876",
        "url": ""
    },
    {
        "title": "主人和猫咪打斗猫咪一拳难敌四手！网友：举着爪爪是最后的倔强了",
        "docid": "7343530522326827530",
        "url": ""
    },
    {
        "title": "金毛初次生崽把自己吓一跳，愣坐原地满脸疑惑：一用力就生出来了",
        "docid": "7329435933005218323",
        "url": ""
    },
    {
        "title": "猫猫：没有人替我发声吗？",
        "docid": "7315738266727580200",
        "url": ""
    },
    {
        "title": "狗子贱嗖嗖模仿内涵主人，眼睛一眯下秒成功挨揍：没一个巴掌冤枉",
        "docid": "7344607929330467368",
        "url": ""
    },
    {
        "title": "主人摔腿后狗狗模仿其走路 主人：刚开始不信 最后发现它故意的",
        "docid": "7316451627496866323",
        "url": ""
    },
    {
        "title": "女子遇警犬非要查她，狗子眼神犀利超认真盯着她，大眼睛让人萌化",
        "docid": "7320106167902929448",
        "url": ""
    },
    {
        "title": "电梯里有人放屁，狗狗用眼神疯狂暗示主人是谁放的",
        "docid": "7345785757908337192",
        "url": ""
    },
    {
        "title": "家里花瓶打碎了，把狗狗叫来审问，一眼能看出来是谁干的",
        "docid": "7341346729511518758",
        "url": ""
    },
    {
        "title": "狗子模仿短腿柯基走路，伤害性不大，侮辱性极强！",
        "docid": "7327477881481724450",
        "url": ""
    },
    {
        "title": "壹点探警丨一只萌犬成长为警犬需要几步？",
        "docid": "7346217436875637299",
        "url": ""
    },
    {
        "title": "原来有的马跑起来是顺拐的，网友：四条腿各跑各的",
        "docid": "7345650277791793698",
        "url": ""
    },
    {
        "title": "宝宝出生狗子开心求贴贴，两年后躲在旁不敢吱声，满脸愁容狗都嫌",
        "docid": "7315604154590691840",
        "url": ""
    },
    {
        "title": "猫咪拐了一窝小鸡紧搂着不放，鸡夫妇前来讨亲生崽：这是你的吗",
        "docid": "7320109215069307446",
        "url": ""
    },
    {
        "title": "女子遛1千的柴犬偶遇4万的柴犬，两只狗对比明显笑喷：高仿遇正品",
        "docid": "7332508984106680858",
        "url": ""
    },
    {
        "title": "女子动物园看到两只狐狸，本以为够胖了，直到看到第三只！",
        "docid": "7324666561611235881",
        "url": ""
    },
    {
        "title": "鹦鹉离家出走后，后悔了，站窗外敲玻璃叫：“麻麻~”",
        "docid": "7315284310502998569",
        "url": ""
    },
    {
        "title": "男子蹲地拍苍蝇喂麻雀，用手一指麻雀蹦蹦跳跳跑来吃：这默契绝了",
        "docid": "7325302345615540771",
        "url": ""
    },
    {
        "title": "小黄：换车这么大的事怎么不和我商量一下",
        "docid": "7314862406457524736",
        "url": ""
    },
    {
        "title": "小狗混在小猪里面吃奶，多少有点心虚",
        "docid": "7313005808222994963",
        "url": ""
    },
    {
        "title": "叛逆狗子咬烂男子身份证，挨了一个实心耳光后出门补办：私人恩怨",
        "docid": "7323047523822928434",
        "url": ""
    },
    {
        "title": "主人训练小狗时，从狗妈眼神中看出对自己孩子望子成龙的期待",
        "docid": "7344574888428077605",
        "url": ""
    },
    {
        "title": "回家过年大作战：喵汪一路欢笑一路爱！ #狗狗 #狗狗回家过年",
        "docid": "7330448055033922057",
        "url": ""
    },
    {
        "title": "女子出嫁当天化完妆吓傻狗子，看着女子靠近瑟瑟发抖：脸都吓黄了",
        "docid": "7342757807071953443",
        "url": ""
    },
    {
        "title": "主人吃冰棍猫咪好奇，尝了一口直接瞳孔地震，随后反应网友笑翻了",
        "docid": "7326411009161101860",
        "url": ""
    },
    {
        "title": "狗狗喝水后主动擦嘴，网友：其实它并不渴，就是为了一声好狗",
        "docid": "7338636278583591461",
        "url": ""
    },
    {
        "title": "猫咪睡醒尾巴断了惊呆主人，猫咪毫不在乎：这下舔尾巴不用回头了",
        "docid": "7339348997150081551",
        "url": ""
    },
    {
        "title": "你可以永远相信老祖宗严选，古代贵族身份的象征，尊重刻在骨子里",
        "docid": "7343853124262003211",
        "url": ""
    },
    {
        "title": "盘点不同猫咪的过冬方式，北方猫有地暖，南方猫真的太难了！",
        "docid": "7317201105228661258",
        "url": ""
    },
    {
        "title": "还有人记得“无耳街霸狗”的吗",
        "docid": "7313405462374777363",
        "url": ""
    },
    {
        "title": "全网最怂的藏獒，本是世界猛犬的祖先",
        "docid": "7314633704939848255",
        "url": ""
    },
    {
        "title": "女子社交平台发视频“求助”，家里猫咪一天都是这个状态正常吗",
        "docid": "7346048922172949019",
        "url": ""
    },
    {
        "title": "狸花猫：放心，我就摸摸，不吃你",
        "docid": "7322456429376471564",
        "url": ""
    },
    {
        "title": "狗狗不小心打碎了镜子，跟主人对视之后，默默地自觉进到笼子里",
        "docid": "7345747004183708171",
        "url": ""
    },
    {
        "title": "断奶第一天的小虎宝宝。",
        "docid": "7330864855220421170",
        "url": ""
    }
]