[
    {
        "title": "老鼠上桌偷吃 主人向自家猫求救，网友：想到了开头没想到结尾",
        "docid": "7342780891833631270",
        "url": ""
    },
    {
        "title": "怀疑狗生！边牧生下纯黑狗宝宝，躲一旁不愿承认，网友：墨太足了",
        "docid": "7342465576390001152",
        "url": ""
    },
    {
        "title": "当你突然叫小狗名字，网友：吴广进 很抱歉已这种方式认识你",
        "docid": "7314560248595874319",
        "url": ""
    },
    {
        "title": "就没有老人喂不胖的狗！带马犬回村，几天时间这家伙成功又胖了！",
        "docid": "7320975993806520847",
        "url": ""
    },
    {
        "title": "羊驼遇上哈士奇被成功带沟里，气得疯狂吐口水：动物界的爱恨情仇",
        "docid": "7321644740230382095",
        "url": ""
    },
    {
        "title": "大鹅知道主人要杀它，泪流满面，主人暖心安慰：不杀了，不杀了",
        "docid": "7336775223763141130",
        "url": ""
    },
    {
        "title": "七仔知道乐乐在小窗口，突然跳上窗台吓唬乐乐，太可爱了吧！",
        "docid": "7324989972451656201",
        "url": ""
    },
    {
        "title": "二月二龙抬头，狗狗也要理理发。不过这表情是无奈还是满意呢？",
        "docid": "7345308696802984500",
        "url": ""
    },
    {
        "title": "狸花猫：不服就干，不是去干架就是去干架的路上，干就完了！",
        "docid": "7322780346666517003",
        "url": ""
    },
    {
        "title": "橘猫大战狸花，步步紧逼，最后出丑了#猫咪 #这猫一看就是练家子",
        "docid": "7341650615921017379",
        "url": ""
    },
    {
        "title": "组图｜萌犬入列！山东省公安厅警犬训练基地为8市配发36头优质警犬",
        "docid": "7346224156024832552",
        "url": ""
    },
    {
        "title": "小女孩扮演医生给小狗看病，网友：我们县城都没有这么先进的设备",
        "docid": "7343893345385021971",
        "url": ""
    },
    {
        "title": "男子接到诈骗电话，让宠物羊驼接听后骗子被气炸，场面惹人爆笑",
        "docid": "7344926914416968228",
        "url": ""
    },
    {
        "title": "女子上班忘关电热毯，回家看到的一幕，简直不要太搞笑了",
        "docid": "7345388204180275722",
        "url": ""
    },
    {
        "title": "主人带130斤的狗子爬山减肥：它爬不动，我们背不动",
        "docid": "7345328740345315890",
        "url": ""
    },
    {
        "title": "嫉妒使小猫面目全非！猫：放她下来 我要撕烂她的脸",
        "docid": "7327181726206460416",
        "url": ""
    },
    {
        "title": "从野生斑鸠来窗户搭窝后，一年半的时间，鸠妈能听懂我讲的人话了",
        "docid": "7322386891943182882",
        "url": ""
    },
    {
        "title": "开车12小时，带猫去东北过年！哑巴变话唠了，非得一直抱着..",
        "docid": "7333234749832364596",
        "url": ""
    },
    {
        "title": "猫咪走失三天毫无音讯，主人在冻库发现后哭笑不得：眼睛都哭肿了",
        "docid": "7318228246511354379",
        "url": ""
    },
    {
        "title": "狸花猫妈妈抓了只大老鼠！没想到自己三个毛孩争抢起来，互不相让",
        "docid": "7343461660839182859",
        "url": ""
    },
    {
        "title": "就没有爷爷奶奶养不乖的宠物，直接把稀有养泛滥，怎么说服它俩的",
        "docid": "7336494289003741706",
        "url": ""
    },
    {
        "title": "两只猫咪要干架，主人想劝架反被推开，猫猫：你先等会嗷",
        "docid": "7346112050671649299",
        "url": ""
    },
    {
        "title": "女生备考压力大，爷爷从老家带小狗陪伴孙女",
        "docid": "7345347121840980518",
        "url": ""
    },
    {
        "title": "2024狗狗回家过年糗事合集",
        "docid": "7331707731084378676",
        "url": ""
    },
    {
        "title": "狗子大雨天被拴室外淋湿，主人：后来从它身边过再也没摇过尾巴",
        "docid": "7324521212179120674",
        "url": ""
    },
    {
        "title": "两岁宝宝正在喂鸡，接下来请大家憋住别笑，镜头记录搞笑画面",
        "docid": "7314977460012253748",
        "url": ""
    },
    {
        "title": "重庆的猫猫吃干辣椒面，网友：打败99%的广东人",
        "docid": "7346069582244741684",
        "url": ""
    },
    {
        "title": "边牧调教金毛，金毛都急出母语了，网友：为啥不说母语要说中文？",
        "docid": "7333109652588069402",
        "url": ""
    },
    {
        "title": "温暖又感人！狗狗小海棠的故事 #感人  #小狗 #心软的神",
        "docid": "7334656294600737332",
        "url": ""
    },
    {
        "title": "大爷只是在散步，可是这枚小狗应该是在跑马拉松",
        "docid": "7338599209366782501",
        "url": ""
    },
    {
        "title": "叛逆狗子跑楼梯间从1楼冲刺回家，主人在22楼找到笑昏：家住31楼",
        "docid": "7337213247327896104",
        "url": ""
    },
    {
        "title": "小猫和金毛一起长大，相依相恋！",
        "docid": "7316999576265687586",
        "url": ""
    },
    {
        "title": "狗子：“每年一到过年，总有回村的人来抢我饭碗”#新年 #炸狗盆",
        "docid": "7329358705064378919",
        "url": ""
    },
    {
        "title": "狸花猫丧彪又干架了，这回找上天敌老鹰了，猫咪打的过老鹰吗",
        "docid": "7322860962825175564",
        "url": ""
    },
    {
        "title": "主人分食不平等，黄狗含泪自杀",
        "docid": "7329800856918819328",
        "url": ""
    },
    {
        "title": "两只猫咪第一次看见人类幼崽，小心翼翼的模样太好笑，好治愈啊！",
        "docid": "7320514364274901556",
        "url": ""
    },
    {
        "title": "宠物解说：十只狗狗看到辣条，有九个很喜欢吃？",
        "docid": "7335768769585349139",
        "url": ""
    },
    {
        "title": "萨摩耶跟金毛掐架拉不开，被主人扇一巴掌秒静音，金毛反应成精了",
        "docid": "7315330420424311307",
        "url": ""
    },
    {
        "title": "主人帮白狗拆夹子，听到叫声黄狗误以为要伤害白狗，竟上前咬主人",
        "docid": "7346057704957280805",
        "url": ""
    },
    {
        "title": "女生躺在沙发上睡午觉，“家人”们轮流陪伴：家里会喘气的都爱你",
        "docid": "7343898101134524967",
        "url": ""
    },
    {
        "title": "男子买70条埃及鱼苗养水桶里，佛系喂养3个月，如今模样出乎意料",
        "docid": "7313035133458579977",
        "url": ""
    },
    {
        "title": "人类幼崽VS猫咪幼崽，场面十分治愈，网友：萌化众人！",
        "docid": "7326172542362878475",
        "url": ""
    },
    {
        "title": "猫咪想当妈妈，鸡妈妈又抢回了抚养权。猫咪很失望。",
        "docid": "7332789930269573682",
        "url": ""
    },
    {
        "title": "周末晚上一家三口各忙各的 ，狗狗：我怎么这么好看！",
        "docid": "7346102313926263332",
        "url": ""
    },
    {
        "title": "男子生病住院十几天，狗狗担心地一夜白头，男子难以置信感动无比",
        "docid": "7319319453081010700",
        "url": ""
    },
    {
        "title": "女子想逗站在后座的狗子，不料狗主人也同时回头，下秒解释更尴尬",
        "docid": "7346119572958741027",
        "url": ""
    },
    {
        "title": "都冒火星子了",
        "docid": "7345706174064362035",
        "url": ""
    },
    {
        "title": "就在杨浦滨江，“上海宠物时装周”火热来袭",
        "docid": "7346149117104538139",
        "url": ""
    },
    {
        "title": "都说翘嘴喜欢吃虾，那就试试吧…#养鱼日志 #水族 #原生鱼",
        "docid": "7344650221987004968",
        "url": ""
    },
    {
        "title": "第一批回村过年的猫猫都这么怕冷的吗😂太搞笑了",
        "docid": "7331706256006709787",
        "url": ""
    },
    {
        "title": "猫咪找女朋友出去两三天，回来就是这个样子，担心它也不舍的割蛋",
        "docid": "7312959490674917928",
        "url": ""
    },
    {
        "title": "全网嘴最欠的猫，每天都要假咬男主，几十口来回后迅速装睡！",
        "docid": "7316903578625540627",
        "url": ""
    },
    {
        "title": "小猫咪可以治愈所有的不开心！",
        "docid": "7324647157523612200",
        "url": ""
    },
    {
        "title": "小鸟在我家窗外9年多不飞走，给大米小米吃，家里发生很多吉祥事",
        "docid": "7320970734120600101",
        "url": ""
    },
    {
        "title": "全网骂脏话最多的拉布拉多，每天被主人坑惨了！#狗狗",
        "docid": "7329075591955939840",
        "url": ""
    },
    {
        "title": "姜爷爷给双胞胎称体重笑出了大鹅的声音 #姜爷爷 #爱宝双胞胎",
        "docid": "7339876120545722918",
        "url": ""
    },
    {
        "title": "全网最有性子的猫，摔门，撂脸子！网友：原来猫也有叛逆期",
        "docid": "7333159715792880140",
        "url": ""
    },
    {
        "title": "宋庄：火爆全网打架踹腰子的狸花猫，野性十足还聪明，好像小老虎",
        "docid": "7336144628322107915",
        "url": ""
    },
    {
        "title": "德牧在船上看见一群海豚后，瞬间一跃而下，主人根本拦都拦不住",
        "docid": "7314228365177651775",
        "url": ""
    },
    {
        "title": "猫咪的嫉妒心有多强，小猫因为没有新衣服打大猫！",
        "docid": "7332071460514726436",
        "url": ""
    },
    {
        "title": "“这只奶牛猫，害我笑了足足两分钟！”",
        "docid": "7345646019004727818",
        "url": ""
    },
    {
        "title": "今天来到宠物店看到一只碎嘴猫，有人翻译一下吗🌝#猫咪 #原创",
        "docid": "7338975816665006631",
        "url": ""
    },
    {
        "title": "傻狍子挠痒痒，竟然会飞机耳，可爱极了",
        "docid": "7321217917473948214",
        "url": ""
    },
    {
        "title": "主人防止狗狗恋爱自制装备，塑料桶配钉子防御拉满，一看部位秒懂",
        "docid": "7343876299876172328",
        "url": ""
    },
    {
        "title": "我家猫好像把我当它孩子了？！",
        "docid": "7322731172982293044",
        "url": ""
    },
    {
        "title": "那些过年放炮的狗狗们，看了很治愈 #狗狗 #治愈 #过年放炮",
        "docid": "7330179925548204581",
        "url": ""
    },
    {
        "title": "主人抱狗狗看有多重，玩笑说卖它进饭馆，狗狗吓得嘴皮子直哆嗦",
        "docid": "7345649603897164298",
        "url": ""
    },
    {
        "title": "爸爸呼噜声太大被赶客厅，猫咪捂耳蜷缩睡觉。猫：没受过这委屈",
        "docid": "7335744263243858444",
        "url": ""
    },
    {
        "title": "洒水车作业狗狗撒欢狂追戏水，主人：追了一条街，它很喜欢玩水",
        "docid": "7343835425246544419",
        "url": ""
    },
    {
        "title": "小猫咪使出撒娇“杀手锏”，字正腔圆叫出“妈妈”惊呆主人",
        "docid": "7321204875776885274",
        "url": ""
    },
    {
        "title": "最后一批回村的马狗！闪电知道回村消息，一路精神超开心像个孩子",
        "docid": "7332463749586125312",
        "url": ""
    },
    {
        "title": "海参的逃生术",
        "docid": "7313463943534641705",
        "url": ""
    },
    {
        "title": "姜爷爷也太会带娃了吧，难怪爱宝这么放心 #爱宝双胞胎",
        "docid": "7325372694604710440",
        "url": ""
    },
    {
        "title": "小奶猫第一次见到爸爸直接失控了，主人拦都拦不住！",
        "docid": "7337995867896414731",
        "url": ""
    },
    {
        "title": "好像快打不过它了#这猫一看就是练家子 #猫咪的迷惑行为",
        "docid": "7328374941240263203",
        "url": ""
    },
    {
        "title": "柴犬欺负三个月大的流浪狗小黑，小白挺身而出霸气保护小黑",
        "docid": "7344928521497772578",
        "url": ""
    },
    {
        "title": "骗吃骗喝狗！江苏一狗子想方设法忽悠小朋友鸡蛋，被骂龇牙咧嘴",
        "docid": "7325361071601287714",
        "url": ""
    },
    {
        "title": "小猫咪的脑子里到底在想什么！",
        "docid": "7322040841881682466",
        "url": ""
    },
    {
        "title": "这是亲戚家的看门狗，我第一次来，居然是这反应",
        "docid": "7335425935401255459",
        "url": ""
    },
    {
        "title": "它是全网混的最惨的狗，也是全网最把自己当人的狗，网友：绝了",
        "docid": "7330993646470169098",
        "url": ""
    },
    {
        "title": "带着狗狗和猫咪一起回家过年~ #过年回家的狗子 #猫咪 #回家过年",
        "docid": "7326152799501320739",
        "url": ""
    },
    {
        "title": "女子捡到一只长相奇特的生物，结果越长越可爱，她都舍不得放生",
        "docid": "7325645169058349620",
        "url": ""
    },
    {
        "title": "狗狗会忘了好久没见的主人吗",
        "docid": "7322442479113306658",
        "url": ""
    },
    {
        "title": "这是一只被大风吹落的幼鹰，被善良的人家收养了，它生活得很快乐",
        "docid": "7334032477964632586",
        "url": ""
    },
    {
        "title": "球丢了猫咪让爷爷帮忙找，老人趴地上与猫咪无障碍沟通，结局爆笑",
        "docid": "7314139429990629888",
        "url": ""
    },
    {
        "title": "主人发现自家公狗半夜领回一只小狗，狗：离婚了，分给我一个孩子",
        "docid": "7343825561308889635",
        "url": ""
    },
    {
        "title": "主人拿铁丝挂肉系狗脖子上，本想拿小狗逗乐，下秒反被侮辱智商",
        "docid": "7344588424621490700",
        "url": ""
    },
    {
        "title": "猫咪想打架主人阻拦，猫咪拉开主人的手，猫咪：我把它打完再陪你",
        "docid": "7343855605176861218",
        "url": ""
    },
    {
        "title": "主人和猫咪玩捉迷藏结果一个响屁暴露了自己的位置",
        "docid": "7345793100222038528",
        "url": ""
    },
    {
        "title": "傻狍子：听说你到处跟人说我死了？",
        "docid": "7330912655802434100",
        "url": ""
    },
    {
        "title": "看到了这一幕，养猫的和不养猫的都沉默了",
        "docid": "7345299929944097330",
        "url": ""
    },
    {
        "title": "土狗打架挨揍，主人爆改威慑皮肤！#卖萌 #萌宠",
        "docid": "7324177656809783834",
        "url": ""
    },
    {
        "title": "150元托人买只中华田园犬，狗狗和主人初次见面竟然这样的反应",
        "docid": "7314190560263307828",
        "url": ""
    },
    {
        "title": "狗子迈着赴死步伐去洗澡，洗吹过后，被主人夸晕，成了傲娇的狗模",
        "docid": "7329127779507962402",
        "url": ""
    },
    {
        "title": "一只鹦鹉教另一只鹦鹉说话，它好像急的要一头攮死他",
        "docid": "7314172151493067304",
        "url": ""
    },
    {
        "title": "宝宝哭闹不止家长手足无措，无意放猫背上竟秒睡，猫咪表情惹爆笑",
        "docid": "7335659461677318694",
        "url": ""
    },
    {
        "title": "狗子在洗澡时主人抽空吃饭，回来后瞪大眼睛骂骂咧咧：你不愧疚吗",
        "docid": "7313826022410060329",
        "url": ""
    },
    {
        "title": "都是幼崽！萌娃和狗子玩耍被“碰瓷”差点急哭，狗子秒懂改撒娇",
        "docid": "7331657748067254784",
        "url": ""
    },
    {
        "title": "主人爬上门和小猫捉迷藏",
        "docid": "7346129959808664105",
        "url": ""
    },
    {
        "title": "全网最灵活的大胖橘，每天只做三件事，吃饭，跑酷和挨揍！",
        "docid": "7323168189435609641",
        "url": ""
    },
    {
        "title": "大黄长得很好看，结果它的孩子一个比一个搞笑！#中华田园犬",
        "docid": "7322398173538976306",
        "url": ""
    },
    {
        "title": "这迷你版的无人机真好玩，就是有点废小米",
        "docid": "7325718509919732260",
        "url": ""
    },
    {
        "title": "一只堪称“喵界杨贵妃”的小猫咪“小卷”",
        "docid": "7344223418630046247",
        "url": ""
    },
    {
        "title": "这俩货一个聪明伶俐一个身手敏捷，他们两个配合默契整天闯祸。",
        "docid": "7345471282123244042",
        "url": ""
    },
    {
        "title": "这种颜值的兔子我也是第一次见，太好看了",
        "docid": "7326479786686513703",
        "url": ""
    },
    {
        "title": "雪天猫咪舔爪子被冻护栏上，小姐姐上前捂爪营救，下一秒看懵众人",
        "docid": "7314586240278495796",
        "url": ""
    },
    {
        "title": "笑麻了！城市猫咪走农村泥路“骂骂咧咧”，网友：猫有洁癖实锤了",
        "docid": "7335863466324771362",
        "url": ""
    },
    {
        "title": "女子养的兔子像毛绒玩具，网友：这兔子咋长出狗的样子",
        "docid": "7337178578070700563",
        "url": ""
    },
    {
        "title": "老公回家四天，狗狗已经把他当亲人了，之前没见过面，太奇妙了",
        "docid": "7331004693542437376",
        "url": ""
    },
    {
        "title": "我找了它两个小时，它在冰箱上看热闹！",
        "docid": "7313837537427096104",
        "url": ""
    },
    {
        "title": "喂了一周的猫妈放下戒心 把小猫叼到小姐姐家里 可事情没那么简单",
        "docid": "7342853029458412041",
        "url": ""
    },
    {
        "title": "5个月前在田边捞的10颗鱼卵，孵化出4条小鱼，没想到现在长成这样",
        "docid": "7332742836778959423",
        "url": ""
    },
    {
        "title": "或许对于老人而言，毛孩子不仅仅是宠物，更像是一家人",
        "docid": "7329825388228674060",
        "url": ""
    },
    {
        "title": "母鸡想找小猫睡觉，打了一架，",
        "docid": "7334992988889842203",
        "url": ""
    },
    {
        "title": "小水獭把女孩当成了妈妈，像极了妈宝男！#可爱到爆炸💥 #水獭",
        "docid": "7313911056102457865",
        "url": ""
    },
    {
        "title": "宠物解说：十只猫咪吃饭的方式，有八个很奇葩？",
        "docid": "7321451346496848447",
        "url": ""
    },
    {
        "title": "主人出门10天，把土狗关家里吃10天狗粮，突然回来狗子什么反应？",
        "docid": "7336598025101378048",
        "url": ""
    },
    {
        "title": "鸡误把摔炮当食物，吃一口炸一个停不下来，鸡：好吃到爆炸",
        "docid": "7317565621825176079",
        "url": ""
    },
    {
        "title": "回家过年的小猫被土猫一天打三顿，小猫：他出招方式怎么不一样",
        "docid": "7334015656251425299",
        "url": ""
    },
    {
        "title": "笑发财了！为了不让旅客喂自己的拉布拉猪犬，老板可谓处心积虑！",
        "docid": "7334677405195452963",
        "url": ""
    },
    {
        "title": "“最通人性”的5种狗，你对它好，它用一生报答你哦！",
        "docid": "7328309532839756299",
        "url": ""
    },
    {
        "title": "千万别跟猫“同睡”，不是胡说，而是过来人的教训！",
        "docid": "7336362842138067491",
        "url": ""
    },
    {
        "title": "《猫咪的决策过程》",
        "docid": "7317594709088584207",
        "url": ""
    },
    {
        "title": "177种狗全图解，你最喜欢什么狗",
        "docid": "7335874849422262810",
        "url": ""
    },
    {
        "title": "挑战每天认识一种狗—边牧",
        "docid": "7314925286800851456",
        "url": ""
    },
    {
        "title": "为什么都是城市里的狗咬人？农村狗不咬人，是因为农村狗更聪明？",
        "docid": "7318782970603930121",
        "url": ""
    },
    {
        "title": "15种好看的鱼类（观赏鱼）介绍",
        "docid": "7323779219925221903",
        "url": ""
    },
    {
        "title": "灵魂画手画的寻猫启事有多真实？网友：以为抽象，结果写实！",
        "docid": "7337941561529467444",
        "url": ""
    },
    {
        "title": "养一只猫和两只猫有什么区别？过来人：差别超乎你想象！",
        "docid": "7324872934051447331",
        "url": ""
    },
    {
        "title": "笑死我了！狸花猫的生存能力有多强？网友：主打野生，养大就跑了",
        "docid": "7321742051291726373",
        "url": ""
    },
    {
        "title": "别不信，养龟还真的能转运",
        "docid": "7344380155671888436",
        "url": ""
    },
    {
        "title": "牧羊犬脖子上戴的防狼项圈，为什么会让狼群害怕？真可以防狼吗？",
        "docid": "7324641744778199552",
        "url": ""
    },
    {
        "title": "我妈给猫买了条金项链！猫猫是亲生的，咱是垃圾桶捡的！",
        "docid": "7328272620180029967",
        "url": ""
    },
    {
        "title": "猫咪这几个特征，说明是“旺家猫”，错不了",
        "docid": "7316374896282681882",
        "url": ""
    },
    {
        "title": "等车听到奶猫叫，翻垃圾翻出两只没睁眼奶猫，还是麒麟尾，招财！",
        "docid": "7345373428150927924",
        "url": ""
    },
    {
        "title": "17年河南一农民捡到只凶鸟，竟价值600多万，专家：幸好没放生",
        "docid": "7345675310144520756",
        "url": ""
    },
    {
        "title": "鱼肚子里的一层“黑膜”是什么？是“脏东西吗”？到底能不能吃？",
        "docid": "7317563528276214324",
        "url": ""
    },
    {
        "title": "中国人什么都敢吃，却从不吃这三种动物？是不敢，还是另有隐情",
        "docid": "7313865519973941810",
        "url": ""
    },
    {
        "title": "弟弟房间发现的，他今年才15岁，还有救吗？真的太尴尬了哈哈",
        "docid": "7345721530977075747",
        "url": ""
    },
    {
        "title": "小猫咪爱你入骨的表现有哪些？",
        "docid": "7327972421590401588",
        "url": ""
    },
    {
        "title": "挑战每天认识一种狗—泰迪",
        "docid": "7316715074729624104",
        "url": ""
    },
    {
        "title": "为证明香烟无害，48只狗狗每天吸入100支香烟，3年吸了上万支，结局如何？",
        "docid": "7315650914554462771",
        "url": ""
    },
    {
        "title": "那些成年后还能近身的大熊猫们",
        "docid": "7325336048467362313",
        "url": ""
    },
    {
        "title": "公母猫绝育的区别",
        "docid": "7325320452938596916",
        "url": ""
    },
    {
        "title": "你养的什么猫？",
        "docid": "7320862949923897894",
        "url": ""
    },
    {
        "title": "心软的神：流浪狗蹭吃麻辣烫，三个月后变化惊人，老板令人泪目！",
        "docid": "7341256077293781519",
        "url": ""
    },
    {
        "title": "狗狗身上有这6个特征就是“旺家狗”，占的越多，越有福气！",
        "docid": "7329795540902806056",
        "url": ""
    },
    {
        "title": "【家有恶猫？】“安全揍猫术”的真相大揭秘，铲屎官必学！",
        "docid": "7326226112789365282",
        "url": ""
    },
    {
        "title": "猫咪为啥一定要陪你上厕所",
        "docid": "7339096852245250560",
        "url": ""
    },
    {
        "title": "130斤狗狗被主人带去爬山减肥！结果画风突变",
        "docid": "7344894955607048756",
        "url": ""
    },
    {
        "title": "狗的寿命是多少年？为何狗临死前都会离家出走？它们在害怕什么？",
        "docid": "7314952295232389667",
        "url": ""
    },
    {
        "title": "一只萌犬成长为警犬需要几步？",
        "docid": "7346227587477176843",
        "url": ""
    },
    {
        "title": "被人遗忘的中国猛犬！比藏獒更猛更聪明的藏狮，还有几个人认识？",
        "docid": "7340573136213656116",
        "url": ""
    },
    {
        "title": "女生拍照被狗狗扯下裙子，头也不回跑走女生社死猛追，一看就老手",
        "docid": "7313755535055159844",
        "url": ""
    },
    {
        "title": "猫咪打疫苗扇医生一巴掌，出手迅速力道十足，医生反应亮了",
        "docid": "7315302184755823113",
        "url": ""
    },
    {
        "title": "男子下班回家后累到不行，往沙发上一坐猫咪主动递烟：猫条没白吃",
        "docid": "7318578811472183818",
        "url": ""
    },
    {
        "title": "女子半夜发觉腿上有东西在爬，掀开被子被惊呆：猫咪生了一窝小猫",
        "docid": "7325705702620529152",
        "url": ""
    },
    {
        "title": "小主人被打，猫咪明明怕得要命还要实力护主：我不允许你打她！",
        "docid": "7327502085262737920",
        "url": ""
    },
    {
        "title": "猫是通过什么方式认人的，闻气味还是看人",
        "docid": "7326513291340661288",
        "url": ""
    },
    {
        "title": "终于知道大家为什么要养两只猫了",
        "docid": "7326791407128134155",
        "url": ""
    },
    {
        "title": "猫咪为什么每天早上叫你起床？养久了才知道，它是想告诉你这些",
        "docid": "7344271210596893194",
        "url": ""
    },
    {
        "title": "毕业后自主创业？00后的她在金山开了家仓鼠店",
        "docid": "7346396698014417442",
        "url": ""
    },
    {
        "title": "苏州人为什么称“鹅”为“白乌鬼”？",
        "docid": "7321531170209071668",
        "url": ""
    },
    {
        "title": "哈士奇和金毛打架输了，当街痛哭，主人手动捂嘴：你可别丢我脸了",
        "docid": "7322290131891651072",
        "url": ""
    },
    {
        "title": "得知孙女备考压力大，安徽一爷爷带着小狗看望：是家里最胖的一只",
        "docid": "7345726461011182114",
        "url": ""
    },
    {
        "title": "女子把猫咪留老家，俩月后一召唤就过来，眼神貌似混成了村霸",
        "docid": "7316063451430781467",
        "url": ""
    },
    {
        "title": "昨天狗子在小区被欺负了，今天请来了靠山，嘚瑟的路都不会走了",
        "docid": "7332644650777313826",
        "url": ""
    },
    {
        "title": "小女孩站在鱼缸面前疯狂挑衅，金龙鱼被“惹急”后，一举动太吓人",
        "docid": "7316439127564812836",
        "url": ""
    },
    {
        "title": "猫咪打架输给主人很不服，躲到床尾口吐芬芳，网友：七不服八不忿",
        "docid": "7316746370398978586",
        "url": ""
    },
    {
        "title": "笑死了！狸花猫性格到底有多野？网友：养大就跑，怎么劝都不回家",
        "docid": "7344647644897133056",
        "url": ""
    },
    {
        "title": "国内10大本土猫",
        "docid": "7337621429569438243",
        "url": ""
    },
    {
        "title": "狗狗冷得直哆嗦，主人给它盖了床被子，竟然在狗狗身上看到了安逸",
        "docid": "7314520262694273548",
        "url": ""
    },
    {
        "title": "男子骗老婆出去劳作，结果被发现在河边钓鱼，隔壁钓友反应亮了",
        "docid": "7313419473430512138",
        "url": ""
    },
    {
        "title": "男子在路边投喂狗狗，狗：不能白吃你的，给你表演个才艺",
        "docid": "7314614391838933540",
        "url": ""
    },
    {
        "title": "猫咪外出找小母猫玩耍，蹑手蹑脚跨过主人：我慢一点就看不见我",
        "docid": "7335270095888843275",
        "url": ""
    },
    {
        "title": "家猫遇野生兔狲，双方都静止不动小心试探，兔狲：这不会是老虎吧",
        "docid": "7338649047714791986",
        "url": ""
    },
    {
        "title": "网红猫尿尿：全网最机智的猫圈粉1000多万，网友：这猫要进化了",
        "docid": "7324657775097676327",
        "url": ""
    },
    {
        "title": "小朋友趴在地上和狗狗吵架，棋逢对手不分胜负",
        "docid": "7341316563481395712",
        "url": ""
    },
    {
        "title": "猫咪主动靠近女主人大肚子，前秒还犯困下一秒瞪圆眼：万物皆有灵",
        "docid": "7328347214915306036",
        "url": ""
    },
    {
        "title": "“上床睡”，在狗狗内心，原来有这些含义",
        "docid": "7345388932349035008",
        "url": ""
    },
    {
        "title": "阿拉斯加走丢在街上大哭，好心阿姨一边安抚一边帮其报警",
        "docid": "7328960221773038143",
        "url": ""
    },
    {
        "title": "宝宝和狗狗就吵得不可开交，网友：别劝架，双方都骂得很难听",
        "docid": "7324892951803658752",
        "url": ""
    },
    {
        "title": "女生回家第1天放牛把牛放丢，一人一狗尴尬对视后，狗狗举动亮了",
        "docid": "7321272544991183411",
        "url": ""
    },
    {
        "title": "可爱的小羊羔看到主人靠近，立马发怒想顶主人，下一秒忍住别笑",
        "docid": "7342384960742883877",
        "url": ""
    },
    {
        "title": "小羊绝对是高手！跳上船的一刹那，竟然避开了栏杆，太帅了",
        "docid": "7329016614177735179",
        "url": ""
    },
    {
        "title": "姥姥给猫咪洗脑争夺抚养权，猫咪听得一脸认真，无障碍交流惹爆笑",
        "docid": "7321204322623193640",
        "url": ""
    },
    {
        "title": "男子用鞭炮炸狗盆不顾狗子劝阻，狗子：这是人干的事吗",
        "docid": "7331286882947039782",
        "url": ""
    },
    {
        "title": "狗狗犯错被主人训斥，背对主人伤心抽泣：隔着屏幕都能感受到委屈",
        "docid": "7320457206280192531",
        "url": ""
    },
    {
        "title": "小狗一边打瞌睡一边烤火，努力用小脚维持平衡太可爱了",
        "docid": "7327229414813794826",
        "url": ""
    },
    {
        "title": "130斤狗狗被主人带去爬山减肥，爬不动后被抬下山，画风遭群嘲……",
        "docid": "7344711844126310947",
        "url": ""
    },
    {
        "title": "狗的寿命是多少年？为何狗临死前都会离家出走？它们在害怕什么？",
        "docid": "7315624209911349769",
        "url": ""
    },
    {
        "title": "壹点探警丨一只萌犬成长为警犬需要几步？",
        "docid": "7346219340389368331",
        "url": ""
    },
    {
        "title": "狗狗到点出门自己遛自己，主人喂养14年毫不担心：回家都很准时",
        "docid": "7341238448499458612",
        "url": ""
    },
    {
        "title": "这玩意儿喂熟了，比狗子看家护院还要生猛",
        "docid": "7315603567132443172",
        "url": ""
    },
    {
        "title": "小猫主动伸出爪子让铲屎官剪指甲，全程完美配合，网友：科幻片",
        "docid": "7318230233197314586",
        "url": ""
    },
    {
        "title": "小女孩喂水獭吃泥鳅，太治愈啦",
        "docid": "7338324362811933196",
        "url": ""
    },
    {
        "title": "男子带130斤狗爬山，爬到一半狗子累瘫趴地，被“抬猪式”抬下山",
        "docid": "7345015762606064191",
        "url": ""
    },
    {
        "title": "男孩让妈妈掀开被子有惊喜，想到有猫没想到居然有这么大一只",
        "docid": "7317566635336958479",
        "url": ""
    },
    {
        "title": "小金毛剃完毛回家后一直照镜子，转头后无奈的表情令人笑喷！",
        "docid": "7315986942292656677",
        "url": ""
    },
    {
        "title": "俗话说“老狗不死家”，土狗临死前为何要离开家？它在害怕什么？",
        "docid": "7319699050637328930",
        "url": ""
    },
    {
        "title": "女子买猫问老板：“它拆不拆家”？老板一句话笑翻了",
        "docid": "7332082118878888457",
        "url": ""
    },
    {
        "title": "鹦鹉独自在房间里“自嗨”，当发现被拍后，瞬间像变了只鸟",
        "docid": "7336022350321844746",
        "url": ""
    },
    {
        "title": "一碗猫，叠中叠！颜色越浅越排后！网友：下面那只居然是自愿的",
        "docid": "7324565548455428642",
        "url": ""
    },
    {
        "title": "最喜欢看电视的猫，手机平板，电视机轮流着看，主人不给看就生气",
        "docid": "7320166662761218596",
        "url": ""
    },
    {
        "title": "一群熊孩子将狗埋土里！边撒土还边“哭丧”，狗子的表现引爆笑",
        "docid": "7328621121320780288",
        "url": ""
    },
    {
        "title": "猫咪扇猴子一巴掌，猴子被气得火冒三丈，接下来一幕精彩了！",
        "docid": "7329408358388236810",
        "url": ""
    },
    {
        "title": "狗狗白天放羊累坏了，晚上直接钻进被窝沉沉睡去",
        "docid": "7329783344885924392",
        "url": ""
    },
    {
        "title": "小狗偷懒准备睡午觉，不料摸鱼被主人抓：小狗的眼神写满了求生欲",
        "docid": "7322798973667213865",
        "url": ""
    },
    {
        "title": "狗狗独自溜出去玩，被萌娃霸气逮回满脸不服气，称人家还没玩够呢",
        "docid": "7315728014145552907",
        "url": ""
    },
    {
        "title": "狗咬断插座被电晕，30秒后活蹦乱跳，主人：来不及悲伤它就好了",
        "docid": "7340941141825323560",
        "url": ""
    },
    {
        "title": "女主人正拿锅煮泡面吃 ，猫咪竟把自己宝宝放锅里",
        "docid": "7317453500609200694",
        "url": ""
    },
    {
        "title": "狗狗偷偷将家中的兔子推入池塘，主人调监控一看不敢信：才养1天",
        "docid": "7328680865758708250",
        "url": ""
    },
    {
        "title": "柴犬被女生亲亲嘴角咧耳朵根，镜头一转对男生反差爆笑：离我远点",
        "docid": "7317911745115357711",
        "url": ""
    },
    {
        "title": "主人临时回老家忘带狗粮，狗狗2天狂炫5锅饭，大伯含泪煮米饭",
        "docid": "7316041847476847156",
        "url": ""
    },
    {
        "title": "猫咪帮主人铺床单，它是真的很认真在帮忙，网友：送孩子去上学吧",
        "docid": "7344617521506419209",
        "url": ""
    },
    {
        "title": "女子失业回家痛哭，狗狗在一旁也快碎了",
        "docid": "7342790152944943668",
        "url": ""
    },
    {
        "title": "狗子多次暗示主人投喂被无视，无奈暴躁摔盆“示威”：快给我饭",
        "docid": "7335656221506011659",
        "url": ""
    },
    {
        "title": "大爷去银行取钱，让金毛帮忙看自行车，回来后笑的假牙都掉了",
        "docid": "7318661472665240073",
        "url": ""
    },
    {
        "title": "小白咬住大黑狗发飙，突然意识到什么逐渐冷静下来",
        "docid": "7327944643344237096",
        "url": ""
    },
    {
        "title": "养狸花猫，那你可得掂量掂量",
        "docid": "7337847525804016191",
        "url": ""
    },
    {
        "title": "古有“单女不养狗”的说法，只是封建糟粕，还是古人的大有深意？",
        "docid": "7317493952557711926",
        "url": ""
    },
    {
        "title": "网友路遇阿拉斯加想摸，小孩姐豪爽同意一把推上小狗：给我过去",
        "docid": "7327173768278311476",
        "url": ""
    },
    {
        "title": "主人和狗狗酷爱土味DJ，一人一狗在车内摇头晃脑满脸沉醉，嗨起来",
        "docid": "7324899780109599259",
        "url": ""
    },
    {
        "title": "主人假装要宰狗狗，狗狗起身后立马表忠心",
        "docid": "7322308132817142299",
        "url": ""
    },
    {
        "title": "猫咪挠伤主人后直接装死，缩成一团不愿面对，主人扒拉半天不抬头",
        "docid": "7343897871001125391",
        "url": ""
    },
    {
        "title": "猫咪哄老婆睡觉，主人在一旁偷看，下一秒被猫咪盯着",
        "docid": "7342809629115875876",
        "url": ""
    },
    {
        "title": "猫成精了！主人喂饭前要求索吻，小猫无障碍交流：赶紧亲完给肉",
        "docid": "7313769700515807785",
        "url": ""
    },
    {
        "title": "男主人回家土拨鼠委屈凑近，钻怀里告状，凭一个动作贡献精湛演技",
        "docid": "7315248146006442547",
        "url": ""
    },
    {
        "title": "小狗隔空和对面4只狗狗吵架。主人：对面一只只的冒出来，很搞笑",
        "docid": "7338979996624650802",
        "url": ""
    },
    {
        "title": "130斤狗狗被主人带去爬山减肥，爬不动后被抬下山，画风遭群嘲",
        "docid": "7344663468761301539",
        "url": ""
    },
    {
        "title": "“萌新”入列！山东36头警犬顺利毕业",
        "docid": "7346410418635670068",
        "url": ""
    },
    {
        "title": "主人拍自己猫也做出反应，打在我身 痛在猫心",
        "docid": "7345636112104325641",
        "url": ""
    },
    {
        "title": "主人从洗手间出来后，发现猫咪代替他参加会议，镜头记录搞笑过程",
        "docid": "7340917142612607525",
        "url": ""
    },
    {
        "title": "家里多了个宝宝，两只猫咪的反应太好笑，还成了全职小保姆！",
        "docid": "7317970066828427811",
        "url": ""
    },
    {
        "title": "猫咪不睡觉炸毛哈人嘴里喊“欧嘞”，原来是察觉到地震，主人吓懵",
        "docid": "7317469151209980457",
        "url": ""
    },
    {
        "title": "网友晒自家小猫吃饭，评论：它好像一个礼貌的小孩",
        "docid": "7344206248348221991",
        "url": ""
    },
    {
        "title": "猫咪天天捣鼓主人养的金鱼，主人：拦都拦不住，反正它也不吃",
        "docid": "7325278433146372634",
        "url": ""
    },
    {
        "title": "女子在家找猫一整天未果被气哭，发现后猫咪睡得正香，表情气人",
        "docid": "7313384725249753636",
        "url": ""
    },
    {
        "title": "男子和巨型贵宾坐一起，体型还比不过一只狗，双方都挺不好意思",
        "docid": "7315703139968287282",
        "url": ""
    },
    {
        "title": "松鼠：我不是你能惹得起的！",
        "docid": "7328715623016595968",
        "url": ""
    },
    {
        "title": "鹅群中出现一只另类，天天与鹅同吃同住，主人看后却乐坏了",
        "docid": "7324566818755084815",
        "url": ""
    },
    {
        "title": "猫见到你就“打滚”，就是“喜欢你”？那你可真误会它了！",
        "docid": "7345450757594350132",
        "url": ""
    },
    {
        "title": "小姐姐抱金毛打麻将，用狗头蹭牌找运气，下一秒其他三人傻了！",
        "docid": "7314113259097817615",
        "url": ""
    },
    {
        "title": "女子遛狗遇到柴犬，玩了一会儿柴犬的电话响了，转身回家逗乐众人",
        "docid": "7335662914654863899",
        "url": ""
    },
    {
        "title": "猫咪不会叼孩子主人亲自用手示范，随后举动主人惊呆：要给我养？",
        "docid": "7320879518095901247",
        "url": ""
    },
    {
        "title": "在三花猫眼里，狸花猫到底有多帅？#猫咪 #萌宠出道计划",
        "docid": "7339825981709877760",
        "url": ""
    },
    {
        "title": "狗：做狗这么多年，还是你比较纯！",
        "docid": "7317586068784710163",
        "url": ""
    },
    {
        "title": "主人把社恐狗狗躲藏的窗帘换成纱网友：原来他在里面还是挺开朗的",
        "docid": "7345375986965611017",
        "url": ""
    },
    {
        "title": "当女孩以为狗狗也可以给自己买零食网友：别为难狗叔 狗叔也没钱",
        "docid": "7324893878518022683",
        "url": ""
    },
    {
        "title": "蓝猫回村老被其他猫咪打，主人不放心跟踪“破案”，都是你自找的",
        "docid": "7319098606035272232",
        "url": ""
    },
    {
        "title": "主人把肉饼扔狗盆里转头就走，老公回来发现搞笑一幕：不如饿死它",
        "docid": "7336411172582883879",
        "url": ""
    },
    {
        "title": "男子总是招惹家中的狗狗，狗子见到男子边骂边关门",
        "docid": "7329788878611874314",
        "url": ""
    },
    {
        "title": "主人从狗狗身边走过没有理它，狗狗立马跑过来求摸摸",
        "docid": "7336770859106992667",
        "url": ""
    },
    {
        "title": "狗子撒欢不归家，主人一个电话叫回，网友：村里唯一有电话的狗子",
        "docid": "7322758211025502747",
        "url": ""
    },
    {
        "title": "猛兽变“萌”兽！临沂动植物园90后女饲养员和她的“大猫”们",
        "docid": "7346452814782251554",
        "url": ""
    },
    {
        "title": "起猛了！看见兔子走路了，这小玩意怎么狗里狗气的",
        "docid": "7337957549293240843",
        "url": ""
    },
    {
        "title": "主人重逢失散3年狗狗，触碰瞬间狗子凶狠扭头，下一秒刀疤变旺财",
        "docid": "7327492968398225920",
        "url": ""
    },
    {
        "title": "可爱！猫咪第一次进入沙漠，以为是自己的猫砂盆，忙得不可开交",
        "docid": "7315581199278309922",
        "url": ""
    },
    {
        "title": "“4句谚语教你选好狗”，不是胡说，老祖宗经验之谈",
        "docid": "7345387359229231631",
        "url": ""
    },
    {
        "title": "萌娃和猫咪挤沙发，猫咪被惹怒“暴打”萌娃，网友：“欺猫太甚”",
        "docid": "7315297302414328370",
        "url": ""
    },
    {
        "title": "主人下雨当天忘记收狗，狗狗盯着主人嘴都气歪了：你还记得我呀！",
        "docid": "7336489534764843556",
        "url": ""
    },
    {
        "title": "30斤的狗29斤反骨！狗子一定要将后脚踩车后座上，主人和它杠上",
        "docid": "7313427045286216255",
        "url": ""
    },
    {
        "title": "男子回家发现宠物狗躺在床上十分妖娆，看到狗狗的姿势网友笑翻了",
        "docid": "7315606127914254859",
        "url": ""
    },
    {
        "title": "男子带鹦鹉同桌吃火锅，“手拿把掐”举止十分优雅，邻桌顾客看懵",
        "docid": "7313825403259322914",
        "url": ""
    },
    {
        "title": "这是坐拥700万粉丝的田园猫，简直就是猫中模范 #猫咪",
        "docid": "7330224379328594482",
        "url": ""
    },
    {
        "title": "狗狗：在外面没人敢这样对我！网友哦：忍忍还有千八百天就上学了",
        "docid": "7327636899303653938",
        "url": ""
    },
    {
        "title": "这玩意儿喂熟了比狗子看家护院还要生猛",
        "docid": "7321547485720085046",
        "url": ""
    },
    {
        "title": "身怀绝技的猫咪，猫：老虎只学到了一些皮毛而已#猫咪",
        "docid": "7325008126581834278",
        "url": ""
    },
    {
        "title": "主人就出差3个月，秀气的狗子就被奶奶养成毛毛虫，真是太萌了",
        "docid": "7332419488895205924",
        "url": ""
    },
    {
        "title": "狗狗乖乖跟来河边洗澡，网友：洗衣粉是洗毛，洗洁精洗溢出来的油",
        "docid": "7341669116354724352",
        "url": ""
    },
    {
        "title": "鹦鹉骑着狗狗迎接主人下班，开门后瞬间被治愈，主人：没有训练过",
        "docid": "7339009514496066085",
        "url": ""
    },
    {
        "title": "孙女让奶奶把手放狗头上拍照，狗子：奶奶我头在这呢！",
        "docid": "7333091385966330403",
        "url": ""
    },
    {
        "title": "壹点探警丨一只萌犬成长为警犬需要几步？",
        "docid": "7346216857504580111",
        "url": ""
    },
    {
        "title": "网友拍到狗狗在吵架，火力全开震惊现场，看到真相的我笑出猪声",
        "docid": "7325254379446108708",
        "url": ""
    },
    {
        "title": "130斤狗狗被主人带去爬山减肥，爬不动后被抬下山，画风遭群嘲",
        "docid": "7344674206929732150",
        "url": ""
    },
    {
        "title": "密码锁没电男子指挥猫咪开门，配合超默契上演开锁大戏：成精了",
        "docid": "7326004455433273893",
        "url": ""
    },
    {
        "title": "狗子吃饭嫌弃太干自己加水，动作熟练一旁主人看懵：成精了？",
        "docid": "7331219659875680806",
        "url": ""
    },
    {
        "title": "八种犬型最大的猛犬排名，藏獒位列第五，世界上最大的狗有多大？",
        "docid": "7316390582019162674",
        "url": ""
    },
    {
        "title": "男子花200元网购金毛，到货拆开之后傻眼了",
        "docid": "7319100368603120138",
        "url": ""
    },
    {
        "title": "笑疯了！谁家没个陪读猫啊，一大堆欢乐和图片晒出来！",
        "docid": "7346483926305440292",
        "url": ""
    },
    {
        "title": "吃烤肉，服务员不停地问你“换纸不”，实际是在暗示你，不懂会笑",
        "docid": "7346489563944403490",
        "url": ""
    },
    {
        "title": "俩猫配合的天衣无缝",
        "docid": "7325422246846333466",
        "url": ""
    },
    {
        "title": "笑死我了！原来猫界竟然还有江湖追捕令，狸花猫这下有用武之地了",
        "docid": "7338246800983540224",
        "url": ""
    },
    {
        "title": "主人假装要将猫咪赶出家门，猫咪的反应令人发笑，全身写满了抵抗",
        "docid": "7335358216765473299",
        "url": ""
    },
    {
        "title": "今天的猫烫手",
        "docid": "7319862981473501696",
        "url": ""
    },
    {
        "title": "小狗刚挖好的坑被海水填了，这可把狗狗气坏了，下一秒忍住不要笑",
        "docid": "7332739526856540687",
        "url": ""
    },
    {
        "title": "养狗到底好不好？科学依据告诉你，看完你还想养吗？",
        "docid": "7345749594325647907",
        "url": ""
    },
    {
        "title": "金毛叼回孔明灯赶紧关上门，动作慌张一气呵成，下秒主人却乐开花",
        "docid": "7319334745530663436",
        "url": ""
    },
    {
        "title": "妈妈给女儿扎的小辫子，被猫咪误认为是逗猫棒",
        "docid": "7320800967900234276",
        "url": ""
    },
    {
        "title": "狗子被主人骂，跑20多公里投奔主人女儿，把毛孩子委屈的",
        "docid": "7316086736747299366",
        "url": ""
    },
    {
        "title": "男子离家10个月后回来，以为猫咪会认不出，被它一系列动作整破防",
        "docid": "7324233834923295283",
        "url": ""
    },
    {
        "title": "百元宠物绝育团购，隐性消费下套“铲屎官”",
        "docid": "7346464846096925193",
        "url": ""
    },
    {
        "title": "二哈时隔半年再见主人，一人一狗都愣住了",
        "docid": "7346165791244419636",
        "url": ""
    },
    {
        "title": "太治愈了！猫咪乖乖陪小主人写作业，猫咪：再不写完我要睡着了",
        "docid": "7344660264052228662",
        "url": ""
    },
    {
        "title": "猫咪一言不合就打鹦鹉！将鹦鹉头使劲往垃圾桶里按：你说服不服？",
        "docid": "7325277830907232806",
        "url": ""
    },
    {
        "title": "狗狗买橘子遇坑，霸道摊主拒绝退货，狗狗躺倒赖着不走",
        "docid": "7326951209770680886",
        "url": ""
    },
    {
        "title": "大年三十，我家的猫居然带着女朋友来吃饭，猫的爱情原来是这样滴",
        "docid": "7333935329570980386",
        "url": ""
    },
    {
        "title": "女子养的锦鲤中有一条“显眼包”，网友：感觉它好快乐啊",
        "docid": "7346039462993855026",
        "url": ""
    },
    {
        "title": "都八个月大了，还跟个街溜子似的，被饲养员妈妈拽着尾巴打一顿！",
        "docid": "7321603159250436620",
        "url": ""
    },
    {
        "title": "这只鹦鹉的智商和词汇量简直是惊为天人，他可以和人一样对话",
        "docid": "7320215793010377252",
        "url": ""
    },
    {
        "title": "主人动手打狗，为啥狗狗从不反抗？兽医直言：你在狗眼中是这样的",
        "docid": "7315728743845233189",
        "url": ""
    },
    {
        "title": "狗子落水，同伴来呼救，主人越想越不对：咋下去的？",
        "docid": "7345659972803527207",
        "url": ""
    },
    {
        "title": "自家羊“飞檐走壁”，羊圈成了摆设？#动物的迷惑行为 #自家羊",
        "docid": "7322686318121910822",
        "url": ""
    },
    {
        "title": "老公回家过年了，和家里土狗初次相处，狗子居然求抱抱画面太搞笑",
        "docid": "7329888859650294272",
        "url": ""
    },
    {
        "title": "外形奇特、饲养简单，异宠带给年轻人不一样的饲养体验",
        "docid": "7346533258315792922",
        "url": ""
    },
    {
        "title": "黄牛得知被卖在家门前跪地不起，主人反悔拒卖喊它起身，下秒破防",
        "docid": "7336500619454513716",
        "url": ""
    },
    {
        "title": "猫咪从鱼摊上偷鱼吃，得手后先给女朋友吃，被两只猫塞了满嘴狗粮",
        "docid": "7314175646987452969",
        "url": ""
    },
    {
        "title": "男子逗小狗玩，激发了小狗凶狠的基因，小狗：讨厌没有边界的人类",
        "docid": "7322304623053079081",
        "url": ""
    },
    {
        "title": "狗子太胖把车坐塌，主人让它挪一下位置，结果狗狗挪了一下屁股",
        "docid": "7343534896553722394",
        "url": ""
    },
    {
        "title": "小狗对待狸花猫和三花猫的区别",
        "docid": "7340465339274265088",
        "url": ""
    },
    {
        "title": "女子救了一只猫悉心照顾，长大后猫常往家中抓鱼，跟踪后被吓到了",
        "docid": "7330970197694054939",
        "url": ""
    },
    {
        "title": "什么都敢吃的中国人，为什么唯独不吃这五种动物？是真的不能吃？",
        "docid": "7314923866328384063",
        "url": ""
    },
    {
        "title": "笑晕！猫猫被小孩惊吓以后开始蹲点反击，网友这猫太记仇了",
        "docid": "7320049284911464960",
        "url": ""
    },
    {
        "title": "猫咪偷吃挂在绳上晾晒的香肠，网友惊呼：这是真功夫，不是三脚猫",
        "docid": "7316391414311748105",
        "url": ""
    },
    {
        "title": "坚决不能“放生”的动物，三种很常见，一种“危害”极强",
        "docid": "7318747933351313955",
        "url": ""
    },
    {
        "title": "两只小猫截然不同的吃相，网友：“挖掘机和扫地机”",
        "docid": "7313796025276662283",
        "url": ""
    },
    {
        "title": "大肥猪喝下两瓶16度的啤酒后，才知道酒有多可怕，请憋住别笑！",
        "docid": "7340581846750757410",
        "url": ""
    },
    {
        "title": "老外养了一头驴，从小跟狗长大被带偏，结果画风成了这样",
        "docid": "7332345896354939403",
        "url": ""
    },
    {
        "title": "全网最拽的猫，走起路来六亲不认，网友：一看就是家里有矿",
        "docid": "7332103805036823081",
        "url": ""
    },
    {
        "title": "狗和猫刚吵完架，狗子已经呼呼大睡，猫还在生气",
        "docid": "7343909851472986650",
        "url": ""
    },
    {
        "title": "流浪狗脸上插满豪猪的刺 遇好心人救治并收养",
        "docid": "7346462267224883724",
        "url": ""
    },
    {
        "title": "跟主人对骂的猫咪，奶凶奶凶的嚣张极了",
        "docid": "7339013110734914084",
        "url": ""
    },
    {
        "title": "狗子一手带大的孩子去上学了，狗子情绪崩溃，在家大哭",
        "docid": "7337190643741295140",
        "url": ""
    },
    {
        "title": "可以合法饲养的笼鸟就这十种，基本都是来自国外",
        "docid": "7340942520232182326",
        "url": ""
    },
    {
        "title": "鱼池漂浮物与沉淀物处理技巧",
        "docid": "7346480523818648064",
        "url": ""
    },
    {
        "title": "免费领养套路多！当心背上“猫贷”",
        "docid": "7346529849923699251",
        "url": ""
    },
    {
        "title": "一只鹦鹉教另一只鹦鹉说话，教到最后气的直接飘脏话了",
        "docid": "7315625284865589812",
        "url": ""
    },
    {
        "title": "全网癖好最奇葩的猫，每天睡觉前都要咬主人鼻子才躺下",
        "docid": "7330878977772847670",
        "url": ""
    },
    {
        "title": "小猫站在车内陪主人开车，目不转睛看路，这哈基米买的原来是站票",
        "docid": "7314130621415031323",
        "url": ""
    },
    {
        "title": "妈妈看监控才发现原来孩子半夜醒来，都是猫咪陪着她",
        "docid": "7345392152551588371",
        "url": ""
    },
    {
        "title": "网友拍下楼道小猫“喵喵”，好一个“字正腔圆”的猫叫",
        "docid": "7315627107220029988",
        "url": ""
    },
    {
        "title": "可爱小奶狗如何练成霸气警犬，记者揭秘→",
        "docid": "7346484546042462772",
        "url": ""
    },
    {
        "title": "小主人出生后，猫咪是操碎了心，看完你还想养猫吗？",
        "docid": "7343561805073449481",
        "url": ""
    },
    {
        "title": "“回村后的小狗生活真的太快乐了”",
        "docid": "7336435340859605531",
        "url": ""
    },
    {
        "title": "狗狗：有你是我的福气#万万没想到 #狗狗 #意不意外 #搞笑配音",
        "docid": "7326118290848383522",
        "url": ""
    },
    {
        "title": "“有些小猫咪天生就是来笑死你的！”",
        "docid": "7342677365371175433",
        "url": ""
    },
    {
        "title": "猫狗狭路相逢，都用上战术了！惹完狗子又去惹鸡",
        "docid": "7324989312365003302",
        "url": ""
    },
    {
        "title": "猫咪路边贪玩 竟然忘记自己是来接女主人回娘家的了#治愈猫咪",
        "docid": "7314176963734995507",
        "url": ""
    },
    {
        "title": "一只橘猫连续五年独自乘车去公园，背后原因让人都不忍心驱赶它",
        "docid": "7328259622907675155",
        "url": ""
    },
    {
        "title": "动物脸上看到恨铁不成钢，猫咪陪孩子写作业，一瞬间仿佛老妈上身",
        "docid": "7319436599895261711",
        "url": ""
    },
    {
        "title": "你知道为什么别的猫都打不过狸花猫吗？因为它骂得脏，下手狠？",
        "docid": "7345316569821807123",
        "url": ""
    },
    {
        "title": "猫咪低头舔毛下秒突然去世，僵硬倒地瞬间主人看哭：陪了我4年多",
        "docid": "7314136687901147683",
        "url": ""
    },
    {
        "title": "小鸭子偷懒不游非要妈妈背，下一秒妈妈的举动，大家憋住别笑",
        "docid": "7322776029481665050",
        "url": ""
    },
    {
        "title": "主人晚上下班回家，狗狗飞奔跳到身上迎接，这一蹦全是爱与信任",
        "docid": "7318676954603848229",
        "url": ""
    },
    {
        "title": "宠物解说：这些长相神奇的串串猫，你想养哪只？",
        "docid": "7317200389479399973",
        "url": ""
    },
    {
        "title": "小红子：猫界最温顺可爱的起司猫，天生媚骨，网友：我的梦中情猫",
        "docid": "7335747475594347020",
        "url": ""
    },
    {
        "title": "狗狗被新主人收养，在新家开心撒娇，网友直呼：太可爱了！",
        "docid": "7325048630933455394",
        "url": ""
    },
    {
        "title": "笑到停不下来的猫兄弟！一只学霸，一只学渣，真是太有爱了！",
        "docid": "7328398227962036787",
        "url": ""
    },
    {
        "title": "宠物解说：这些冷门的奇怪宠物，你喜欢哪只？",
        "docid": "7340607958512271911",
        "url": ""
    },
    {
        "title": "猫咪第一次见小主人吓得后仰炸毛，站在床边战战兢兢：我不要带娃",
        "docid": "7315667524492722725",
        "url": ""
    },
    {
        "title": "那些两副面孔的猫咪，来看看哪个最离谱？",
        "docid": "7317189752254693914",
        "url": ""
    },
    {
        "title": "这就是养猫的意义吧！世界破破烂烂，小猫缝缝补补！",
        "docid": "7321676113934025235",
        "url": ""
    },
    {
        "title": "狗子弥留之际向田野走去，主人悄悄跟随，用尽力气后还是倒下了",
        "docid": "7316827698171478562",
        "url": ""
    },
    {
        "title": "能打赢狸花猫的，只有被拴住的狸花猫",
        "docid": "7314511779785245225",
        "url": ""
    },
    {
        "title": "全网最聪明的边牧，不仅会打麻将，而且打法非同寻常，惊呆众人",
        "docid": "7334584938072637971",
        "url": ""
    },
    {
        "title": "马犬回村后！狗子在城市没有的快乐回村后翻倍，终于释放天性啦",
        "docid": "7319118147922068002",
        "url": ""
    },
    {
        "title": "矮脚猫有多可爱，简直又搞笑又呆萌！",
        "docid": "7325188140396708415",
        "url": ""
    },
    {
        "title": "女子晒自家“李逵”猫咪打哈欠，一张嘴像要把人吃掉：不刮胡子？",
        "docid": "7313825846920217129",
        "url": ""
    },
    {
        "title": "全网最会带娃的金毛犬，带娃比亲妈还要上心，像极了爷爷奶奶的爱",
        "docid": "7333624764022161929",
        "url": ""
    },
    {
        "title": "全网最会唱歌的猫咪“七脉”，一只学啥都会的学霸猫#猫咪 #可爱",
        "docid": "7323104178514068031",
        "url": ""
    },
    {
        "title": "家里安装扫地机器人，怎料让猫咪发现后，下一秒请大家憋住别笑！",
        "docid": "7320547768588894747",
        "url": ""
    },
    {
        "title": "主人让羊驼接诈骗电话，羊驼句句有回应，最后逐渐把骗子逼疯！",
        "docid": "7345801943211573812",
        "url": ""
    },
    {
        "title": "主人带绝育后的猫咪回家，四处乱窜吓得主人不敢动，网友不淡定了",
        "docid": "7338267129503810082",
        "url": ""
    },
    {
        "title": "猫咪经常陪主人打麻将，一上牌桌满脸认真太逗乐：赌神都自愧不如",
        "docid": "7320838130612109865",
        "url": ""
    },
    {
        "title": "给猫咪绝育它会记仇吗？要不要演戏？",
        "docid": "7346518171886928394",
        "url": ""
    },
    {
        "title": "你知道为什么老人养的猫， 都很乖巧懂事吗？#宠物 #猫咪",
        "docid": "7335408332745736714",
        "url": ""
    },
    {
        "title": "第二百一十四集I梦中情猫被渣猫祸祸了 #猫咪 #猫咪的迷惑行为",
        "docid": "7332582036735001103",
        "url": ""
    },
    {
        "title": "最牛中华田园犬，没事就欺负狮子老虎。#狗狗 #动物园",
        "docid": "7330119956157825586",
        "url": ""
    },
    {
        "title": "对着猫咪屁屁吹口气你就能成为他最好的朋友？#猫咪的迷惑行为",
        "docid": "7319096776756527670",
        "url": ""
    },
    {
        "title": "男子喂四年的恶犬被刚来的老婆教训，狗子吓得赶紧逃走：母老虎！",
        "docid": "7315238304272613898",
        "url": ""
    },
    {
        "title": "猫：七步之内，统统拿下！",
        "docid": "7330938108483437096",
        "url": ""
    },
    {
        "title": "主人刚收拾好行李，结果小猫“严丝合缝”躺进行李箱，这造型？",
        "docid": "7345679131335459378",
        "url": ""
    },
    {
        "title": "作死的狗狗趁着老虎睡着，一口将其封喉，下一秒请憋住不要笑",
        "docid": "7332792598425731610",
        "url": ""
    },
    {
        "title": "“狗狗与人类幼崽的治愈瞬间”",
        "docid": "7314941925872796199",
        "url": ""
    },
    {
        "title": "给你按按就当赔罪了！下次还尿床！",
        "docid": "7344335800827707942",
        "url": ""
    },
    {
        "title": "一只能和驴得水并称卧龙凤雏的新晋网红智障猫-烤鱼片！",
        "docid": "7345813157811585563",
        "url": ""
    },
    {
        "title": "主人正在杀鸡，小鸭子不小心看到了，下一秒憋住别笑！",
        "docid": "7332746440110375436",
        "url": ""
    },
    {
        "title": "田园功夫猫",
        "docid": "7338967907743105577",
        "url": ""
    },
    {
        "title": "宠物解说：十只猫咪在公园看到这些鱼，有九个抓回去吃？",
        "docid": "7333145195413930536",
        "url": ""
    }
]