[
    {
        "title": "所有养猫人梦寐以求的猫粮单！6个国家40多款猫粮详解！太全了",
        "docid": "7346114005473985033",
        "url": ""
    },
    {
        "title": "狗粮配料表随心写，包装袋上只有净含量是真的！宠物食品之乡为何充斥着“掺石粉”“掺羽毛粉”的劣质粮？",
        "docid": "7346422973470884393",
        "url": ""
    },
    {
        "title": "女子遇警犬非要查她，狗子眼神犀利超认真盯着她，大眼睛让人萌化",
        "docid": "7320106167902929448",
        "url": ""
    },
    {
        "title": "兔子最能忍痛！如果叫出声了说明他很害怕很痛苦！",
        "docid": "7319871839038079527",
        "url": ""
    },
    {
        "title": "一千多柴犬偶遇四万多柴犬，两狗对比明显网友笑翻：高仿遇正品？",
        "docid": "7345021780119978508",
        "url": ""
    },
    {
        "title": "带着狗狗和猫咪一起回家过年~ #过年回家的狗子 #猫咪 #回家过年",
        "docid": "7326152799501320739",
        "url": ""
    },
    {
        "title": "电梯里有人放屁，狗狗用眼神疯狂暗示主人是谁放的",
        "docid": "7345785757908337192",
        "url": ""
    },
    {
        "title": "主人拿铁丝挂肉系狗脖子上，本想拿小狗逗乐，下秒反被侮辱智商",
        "docid": "7344588424621490700",
        "url": ""
    },
    {
        "title": "佩戴定位器的蓝猫被偷，主人跨越 1600 公里终于找回！",
        "docid": "7315997091816768054",
        "url": ""
    },
    {
        "title": "女子养的兔子像毛绒玩具，网友：这兔子咋长出狗的样子",
        "docid": "7337178578070700563",
        "url": ""
    },
    {
        "title": "断奶第一天的小虎宝宝。",
        "docid": "7330864855220421170",
        "url": ""
    },
    {
        "title": "闹大了，央视点名“黑心宠物粮涉事企业”网友评论区炸锅了！",
        "docid": "7346831450668499456",
        "url": ""
    },
    {
        "title": "狸花猫：放心，我就摸摸，不吃你",
        "docid": "7322456429376471564",
        "url": ""
    },
    {
        "title": "原来有的马跑起来是顺拐的，网友：四条腿各跑各的",
        "docid": "7345650277791793698",
        "url": ""
    },
    {
        "title": "全网最灵活的大胖橘，每天只做三件事，吃饭，跑酷和挨揍！",
        "docid": "7323168189435609641",
        "url": ""
    },
    {
        "title": "来看看猫咪勇斗郊狼八大名场面，勇敢又护主的猫咪值得被爱",
        "docid": "7328791341885260340",
        "url": ""
    },
    {
        "title": "据说，猫的避障能力都很强！网友：你跟洪金宝有一拼",
        "docid": "7344926384143860261",
        "url": ""
    },
    {
        "title": "宠物解说：盘点全网十大最妖娆的猫，你喜欢哪个？",
        "docid": "7338362798538162740",
        "url": ""
    },
    {
        "title": "狗子迈着赴死步伐去洗澡，洗吹过后，被主人夸晕，成了傲娇的狗模",
        "docid": "7329127779507962402",
        "url": ""
    },
    {
        "title": "柴犬欺负三个月大的流浪狗小黑，小白挺身而出霸气保护小黑",
        "docid": "7344928521497772578",
        "url": ""
    },
    {
        "title": "猫猫舔爪子结果被冻护栏上，小姐姐握爪爪解救后，主打一个叛逆",
        "docid": "7314504177202233908",
        "url": ""
    },
    {
        "title": "一只成精了的小八嘎，每天串门回家都要给主人八卦各种新鲜事！",
        "docid": "7337981710787609127",
        "url": ""
    },
    {
        "title": "宝宝出生狗子开心求贴贴，两年后躲在旁不敢吱声，满脸愁容狗都嫌",
        "docid": "7320431974995526159",
        "url": ""
    },
    {
        "title": "那些过年放炮的狗狗们，看了很治愈 #狗狗 #治愈 #过年放炮",
        "docid": "7330179925548204581",
        "url": ""
    },
    {
        "title": "当猫遇上500只水球，全给它踩破！",
        "docid": "7328208612973609484",
        "url": ""
    },
    {
        "title": "小猫和金毛一起长大，相依相恋！",
        "docid": "7316999576265687586",
        "url": ""
    },
    {
        "title": "当你突然叫小狗名字，网友：吴广进 很抱歉已这种方式认识你",
        "docid": "7314560248595874319",
        "url": ""
    },
    {
        "title": "主人带尿床猫咪做绝育，猫咪眼角含泪表情满是怨恨：你给我等着",
        "docid": "7327230089249489442",
        "url": ""
    },
    {
        "title": "鸡误把摔炮当食物，吃一口炸一个停不下来，鸡：好吃到爆炸",
        "docid": "7317565621825176079",
        "url": ""
    },
    {
        "title": "主人防止狗狗恋爱自制装备，塑料桶配钉子防御拉满，一看部位秒懂",
        "docid": "7343876299876172328",
        "url": ""
    },
    {
        "title": "女子查监控被眼前一幕惊呆，老太半夜挨家挨户唱歌，狗子反应迷惑",
        "docid": "7315642302251139599",
        "url": ""
    },
    {
        "title": "妈妈去买菜，叮嘱狗狗照看小主人，回家一开门瞬间哭笑不得！",
        "docid": "7321665804855214642",
        "url": ""
    },
    {
        "title": "这只憨憨让我笑了两分五十七秒！#猫 #猫咪 #萌宠出道计划",
        "docid": "7335830720457212457",
        "url": ""
    },
    {
        "title": "天降布偶砸破雨棚，邻居：不抓就推下去摔死“？",
        "docid": "7323090481263411727",
        "url": ""
    },
    {
        "title": "萌娃跟着狗子出门玩耍，结果半道上双双睡着，妈妈赶来直接笑翻",
        "docid": "7331288487729693199",
        "url": ""
    },
    {
        "title": "第一批回村过年的猫猫都这么怕冷的吗😂太搞笑了",
        "docid": "7331706256006709787",
        "url": ""
    },
    {
        "title": "主人发现自家公狗半夜领回一只小狗，狗：离婚了，分给我一个孩子",
        "docid": "7343825561308889635",
        "url": ""
    },
    {
        "title": "全网体型最大的猫咪，体型堪比6岁孩子，远远看去就像一座门神",
        "docid": "7325802814498832931",
        "url": ""
    },
    {
        "title": "小猫咪可以治愈所有的不开心！",
        "docid": "7324647157523612200",
        "url": ""
    },
    {
        "title": "猫吃鱼为什么不怕鱼刺？画面放慢100倍，答案一目了然",
        "docid": "7318600182927458851",
        "url": ""
    },
    {
        "title": "恶霸犬竟然全身带12伏电压，网友分析原因让人哭笑不得！",
        "docid": "7343203903200690703",
        "url": ""
    },
    {
        "title": "一只堪称“喵界杨贵妃”的小猫咪“小卷”",
        "docid": "7344223418630046247",
        "url": ""
    },
    {
        "title": "主人爬上门和小猫捉迷藏",
        "docid": "7346129959808664105",
        "url": ""
    },
    {
        "title": "猫咪吃饱了要主人抱抱，一直拜拜像个宝宝！",
        "docid": "7329846562866070027",
        "url": ""
    },
    {
        "title": "女子社交平台发视频“求助”，家里猫咪一天都是这个状态正常吗",
        "docid": "7346048922172949019",
        "url": ""
    },
    {
        "title": "全网最有性子的猫，摔门，撂脸子！网友：原来猫也有叛逆期",
        "docid": "7333159715792880140",
        "url": ""
    },
    {
        "title": "猫咪因为下雨天不能出去玩，殴打小兔泄愤",
        "docid": "7346804582934282804",
        "url": ""
    },
    {
        "title": "狗子把猫咪当成猎物，场面精彩",
        "docid": "7327634558382572067",
        "url": ""
    },
    {
        "title": "狗子戴面具吓唬大黄狗，结果直接被吓到起飞，画面太逗了",
        "docid": "7337964876939461161",
        "url": ""
    },
    {
        "title": "猫咪为主人活捉3371个知了猴，身手敏捷爬树捕捉：没一口猫粮白吃",
        "docid": "7325302191840428594",
        "url": ""
    },
    {
        "title": "猫咪醒了继续装睡，赖在主人身上不走，小戏精又萌又可爱",
        "docid": "7326396728067195431",
        "url": ""
    },
    {
        "title": "宠物解说：网红狗的干架名场面，你觉得哪只最老实？",
        "docid": "7327580243207258643",
        "url": ""
    },
    {
        "title": "女子捡到一只长相奇特的生物，结果越长越可爱，她都舍不得放生",
        "docid": "7325645169058349620",
        "url": ""
    },
    {
        "title": "姜爷爷给双胞胎称体重笑出了大鹅的声音 #姜爷爷 #爱宝双胞胎",
        "docid": "7339876120545722918",
        "url": ""
    },
    {
        "title": "土狗打架挨揍，主人爆改威慑皮肤！#卖萌 #萌宠",
        "docid": "7324177656809783834",
        "url": ""
    },
    {
        "title": "这是亲戚家的看门狗，我第一次来，居然是这反应",
        "docid": "7335425935401255459",
        "url": ""
    },
    {
        "title": "当猫咪尝试新奇食物时，是什么样的表情 #猫咪",
        "docid": "7327998831147909672",
        "url": ""
    },
    {
        "title": "狗狗当服务员养活3个孩子，挣的奶粉钱都放进存钱罐#万物皆有灵性",
        "docid": "7319473084199928330",
        "url": ""
    },
    {
        "title": "昨天狗子在小区被欺负了，今天请来了靠山，嘚瑟的路都不会走了",
        "docid": "7324893174186148393",
        "url": ""
    },
    {
        "title": "猫猫：没有人替我发声吗？",
        "docid": "7315738266727580200",
        "url": ""
    },
    {
        "title": "这迷你版的无人机真好玩，就是有点废小米",
        "docid": "7325718509919732260",
        "url": ""
    },
    {
        "title": "矮脚猫挑衅笼子里的豹猫，下一秒被扯住疯狂挨揍，结局惨痛惹爆笑",
        "docid": "7346762150347538985",
        "url": ""
    },
    {
        "title": "猫咪跟母鸡打架，回来时一身鸡毛",
        "docid": "7344765010386059827",
        "url": ""
    },
    {
        "title": "只要你对它好，它会爱你胜过自己，会无所畏惧为你拼命",
        "docid": "7323203928588943923",
        "url": ""
    },
    {
        "title": "爱宝的熊风回来了。",
        "docid": "7321962927014019610",
        "url": ""
    },
    {
        "title": "主人忘记跟狗狗说今天不干活，狗狗守了一早上 听完脸都黑了",
        "docid": "7344568219421639177",
        "url": ""
    },
    {
        "title": "狗都嫌的年纪！狗子出门没回家小主人出门寻，回来一幕妈妈笑崩",
        "docid": "7333522824516567604",
        "url": ""
    },
    {
        "title": "破防了！女子领养小狗时，被流浪狗妈妈握住了手！现已母子团圆",
        "docid": "7339780103158956584",
        "url": ""
    },
    {
        "title": "主人生病住院，狗狗独自来看望",
        "docid": "7346120626676957711",
        "url": ""
    },
    {
        "title": "萌娃坐地大哭狗子和猫猫反应截然不同，猫猫：这都是让狗给惯的！",
        "docid": "7337945936435511823",
        "url": ""
    },
    {
        "title": "终于理解盯着鱼缸一瞅大半天的人了，尊敬的金鱼女士，秒变螺旋桨",
        "docid": "7343851714430435859",
        "url": ""
    },
    {
        "title": "5个月前在田边捞的10颗鱼卵，孵化出4条小鱼，没想到现在长成这样",
        "docid": "7332742836778959423",
        "url": ""
    },
    {
        "title": "这只小猫咪注意力有点不太集中！",
        "docid": "7322048235759993379",
        "url": ""
    },
    {
        "title": "猫咪烧烤店打架斗殴事件！！为了一个烤串，至于吗！！",
        "docid": "7317887096851857956",
        "url": ""
    },
    {
        "title": "猫：生死看淡，不服就干！",
        "docid": "7321681284278551066",
        "url": ""
    },
    {
        "title": "一只带娃比亲妈还上心的金毛！对孩子过分宠溺如同奶奶！",
        "docid": "7325008298774626851",
        "url": ""
    },
    {
        "title": "母鸡暴打软萌猫咪连环踢！全程激烈花样百出，结局滑稽搞笑",
        "docid": "7327874625545863718",
        "url": ""
    },
    {
        "title": "这是全网最像狗奴才的边牧初一，网友：它就是传说中的狗奴才嘛！",
        "docid": "7326767582688739852",
        "url": ""
    },
    {
        "title": "七仔知道乐乐在小窗口，突然跳上窗台吓唬乐乐，太可爱了吧！",
        "docid": "7324989972451656201",
        "url": ""
    },
    {
        "title": "小鸭子非要让猫咪抱着睡觉，猫咪也很会看孩子。",
        "docid": "7333230814807654921",
        "url": ""
    },
    {
        "title": "小偷来家里把人类幼崽偷走，二哈看到后的反应太搞笑了！",
        "docid": "7342662854287622708",
        "url": ""
    },
    {
        "title": "“泰迪”低至白菜价，网友：缺点太多，再便宜也不敢养！",
        "docid": "7329811228556526132",
        "url": ""
    },
    {
        "title": "狗狗趴邻居门口等伙伴，开门瞬间狗狗相见恨晚：像极小时候的我们",
        "docid": "7346055029268152844",
        "url": ""
    },
    {
        "title": "狗子路过带崽的番鸭，全程自卑减速通过，狗：不敢看，根本不敢看",
        "docid": "7320129039594127924",
        "url": ""
    },
    {
        "title": "狗子走石墩落水，游客边笑边让路，主人：进景区逗游客来了",
        "docid": "7332310544315220521",
        "url": ""
    },
    {
        "title": "主人逗玩两只小鹰，鹰妈见状直接拉走男子，当妈了就是不一样",
        "docid": "7315342675941523979",
        "url": ""
    },
    {
        "title": "但凡慢一秒都是对饭的不尊重：原来真有和表情包一模一样的狗狗",
        "docid": "7339840609483489855",
        "url": ""
    },
    {
        "title": "每天对主人的一举一动充满关切，纳闷，操心的猫咪",
        "docid": "7322640456205599251",
        "url": ""
    },
    {
        "title": "小黑被欺负，叫来全村的狗围堵仇家",
        "docid": "7330550105680347683",
        "url": ""
    },
    {
        "title": "二哈在家话太多，遭到猫咪抽嘴巴子！主人：一个手欠一个嘴欠",
        "docid": "7331576012176065062",
        "url": ""
    },
    {
        "title": "萌宠医疗险“历险记”：“免费”驱虫福利，卡住退保险",
        "docid": "7346505134501986857",
        "url": ""
    },
    {
        "title": "羊驼遇上哈士奇被成功带沟里，气得疯狂吐口水：动物界的爱恨情仇",
        "docid": "7321644740230382095",
        "url": ""
    },
    {
        "title": "女生打开卧室灯，发现老公好好的枕头不躺， 非得躺在狗子身上",
        "docid": "7314562838301770277",
        "url": ""
    },
    {
        "title": "那些社恐的猫咪，来看看哪个最怂？",
        "docid": "7320936028997911091",
        "url": ""
    },
    {
        "title": "“用最烂的东西做最贵的粮”……记者调查宠物粮市场乱象→",
        "docid": "7346509067696882226",
        "url": ""
    },
    {
        "title": "人仗狗势见过了，但你见过人仗猫势吗",
        "docid": "7321685060519166490",
        "url": ""
    },
    {
        "title": "喜鹊报喜，喜事连连！2024，家喜人喜事事皆喜，财喜福喜连连到喜",
        "docid": "7345853814106423843",
        "url": ""
    },
    {
        "title": "大妈带狗狗去跳广场舞，结果音乐响起后，众人都被狗子的舞技折服",
        "docid": "7343882209532576307",
        "url": ""
    },
    {
        "title": "猫咪能接受舔菊花，但却不一定接受臭脚丫",
        "docid": "7333678529534100007",
        "url": ""
    },
    {
        "title": "今天来到宠物店看到一只碎嘴猫，有人翻译一下吗🌝#猫咪 #原创",
        "docid": "7338975816665006631",
        "url": ""
    },
    {
        "title": "羡慕哭了！唯一能rua到帕帕的人",
        "docid": "7322321660907323938",
        "url": ""
    },
    {
        "title": "我家猫被流浪猫，拽出去揍了一顿，瞬间老了10岁！",
        "docid": "7339136639883149874",
        "url": ""
    },
    {
        "title": "或许对于老人而言，毛孩子不仅仅是宠物，更像是一家人",
        "docid": "7329825388228674060",
        "url": ""
    },
    {
        "title": "灵魂画手画的寻猫启事有多真实？网友：以为抽象，结果写实！",
        "docid": "7337941561529467444",
        "url": ""
    },
    {
        "title": "笑死我了！狸花猫的生存能力有多强？网友：主打野生，养大就跑了",
        "docid": "7321742051291726373",
        "url": ""
    },
    {
        "title": "贪吃的鹦鹉与辣椒派对",
        "docid": "7346082258639421986",
        "url": ""
    },
    {
        "title": "为什么都是城市里的狗咬人？农村狗不咬人，是因为农村狗更聪明？",
        "docid": "7318782970603930121",
        "url": ""
    },
    {
        "title": "“最通人性”的5种狗，你对它好，它用一生报答你哦！",
        "docid": "7328309532839756299",
        "url": ""
    },
    {
        "title": "丈夫深夜和朋友喝酒撸串，妻子到现场跳舞助兴，丈夫：我跟你回家",
        "docid": "7346537112310759975",
        "url": ""
    },
    {
        "title": "那些成年后还能近身的大熊猫们",
        "docid": "7325336048467362313",
        "url": ""
    },
    {
        "title": "毕业后自主创业？00后的她在金山开了家仓鼠店",
        "docid": "7346396698014417442",
        "url": ""
    },
    {
        "title": "养狗到底好不好？科学依据告诉你，看完你还想养吗？",
        "docid": "7345749594325647907",
        "url": ""
    },
    {
        "title": "狗的寿命是多少年？为何狗临死前都会离家出走？它们在害怕什么？",
        "docid": "7314952295232389667",
        "url": ""
    },
    {
        "title": "南北方老鼠差距有多大？网友：难怪“一只耳”要到南方找舅舅报仇",
        "docid": "7346620845437059593",
        "url": ""
    },
    {
        "title": "130斤狗狗被主人带去爬山减肥！结果画风突变",
        "docid": "7344894955607048756",
        "url": ""
    },
    {
        "title": "笑死我了！原来猫界竟然还有江湖追捕令，狸花猫这下有用武之地了",
        "docid": "7338246800983540224",
        "url": ""
    },
    {
        "title": "养一只猫和两只猫有什么区别？过来人：差别超乎你想象！",
        "docid": "7324872934051447331",
        "url": ""
    },
    {
        "title": "女子买猫问老板：“它拆不拆家”？老板一句话笑翻了",
        "docid": "7332082118878888457",
        "url": ""
    },
    {
        "title": "我妈给猫买了条金项链！猫猫是亲生的，咱是垃圾桶捡的！",
        "docid": "7328272620180029967",
        "url": ""
    },
    {
        "title": "猫咪打疫苗扇医生一巴掌，出手迅速力道十足，医生反应亮了",
        "docid": "7315302184755823113",
        "url": ""
    },
    {
        "title": "《猫咪的决策过程》",
        "docid": "7317594709088584207",
        "url": ""
    },
    {
        "title": "狗狗偷偷将家中的兔子推入池塘，主人调监控一看不敢信：才养1天",
        "docid": "7328680865758708250",
        "url": ""
    },
    {
        "title": "牧羊犬脖子上戴的防狼项圈，为什么会让狼群害怕？真可以防狼吗？",
        "docid": "7324641744778199552",
        "url": ""
    },
    {
        "title": "“跟老公住酒店，浴室的东西让我脸红了，这是干嘛用的呀？”哈哈",
        "docid": "7347099324523807272",
        "url": ""
    },
    {
        "title": "什么都敢吃的中国人，为什么唯独不吃这五种动物？是真的不能吃？",
        "docid": "7314923866328384063",
        "url": ""
    },
    {
        "title": "笑疯了！谁家没个陪读猫啊，一大堆欢乐和图片晒出来！",
        "docid": "7346483926305440292",
        "url": ""
    },
    {
        "title": "千万别跟猫“同睡”，不是胡说，而是过来人的教训！",
        "docid": "7336362842138067491",
        "url": ""
    },
    {
        "title": "女子把猫咪留老家，俩月后一召唤就过来，眼神貌似混成了村霸",
        "docid": "7316063451430781467",
        "url": ""
    },
    {
        "title": "国内10大本土猫",
        "docid": "7337621429569438243",
        "url": ""
    },
    {
        "title": "“萌新”入列！山东36头警犬顺利毕业",
        "docid": "7346410418635670068",
        "url": ""
    },
    {
        "title": "外形奇特、饲养简单，异宠带给年轻人不一样的饲养体验",
        "docid": "7346533258315792922",
        "url": ""
    },
    {
        "title": "177种狗全图解，你最喜欢什么狗",
        "docid": "7335874849422262810",
        "url": ""
    },
    {
        "title": "猫咪扇猴子一巴掌，猴子被气得火冒三丈，接下来一幕精彩了！",
        "docid": "7329408358388236810",
        "url": ""
    },
    {
        "title": "鱼肚子里的一层“黑膜”是什么？是“脏东西吗”？到底能不能吃？",
        "docid": "7317563528276214324",
        "url": ""
    },
    {
        "title": "小猫咪爱你入骨的表现有哪些？",
        "docid": "7327972421590401588",
        "url": ""
    },
    {
        "title": "为证明香烟无害，48只狗狗每天吸入100支香烟，3年吸了上万支，结局如何？",
        "docid": "7315650914554462771",
        "url": ""
    },
    {
        "title": "心软的神：流浪狗蹭吃麻辣烫，三个月后变化惊人，老板令人泪目！",
        "docid": "7341256077293781519",
        "url": ""
    },
    {
        "title": "15种好看的鱼类（观赏鱼）介绍",
        "docid": "7323779219925221903",
        "url": ""
    },
    {
        "title": "男子在路边投喂狗狗，狗：不能白吃你的，给你表演个才艺",
        "docid": "7314614391838933540",
        "url": ""
    },
    {
        "title": "小主人被打，猫咪明明怕得要命还要实力护主：我不允许你打她！",
        "docid": "7327502085262737920",
        "url": ""
    },
    {
        "title": "坚决不能“放生”的动物，三种很常见，一种“危害”极强",
        "docid": "7318747933351313955",
        "url": ""
    },
    {
        "title": "被人遗忘的中国猛犬！比藏獒更猛更聪明的藏狮，还有几个人认识？",
        "docid": "7340573136213656116",
        "url": ""
    },
    {
        "title": "挑战每天认识一种狗—边牧",
        "docid": "7314925286800851456",
        "url": ""
    },
    {
        "title": "俗话说“老狗不死家”，土狗临死前为何要离开家？它在害怕什么？",
        "docid": "7319699050637328930",
        "url": ""
    },
    {
        "title": "大爷去银行取钱，让金毛帮忙看自行车，回来后笑的假牙都掉了",
        "docid": "7318661472665240073",
        "url": ""
    },
    {
        "title": "男子下班回家后累到不行，往沙发上一坐猫咪主动递烟：猫条没白吃",
        "docid": "7318578811472183818",
        "url": ""
    },
    {
        "title": "猫猫的头被当成汽车挂挡，猫：咋地？每次挂档前我先给车磕一个",
        "docid": "7327974062016496163",
        "url": ""
    },
    {
        "title": "猫咪帮主人铺床单，它是真的很认真在帮忙，网友：送孩子去上学吧",
        "docid": "7344617521506419209",
        "url": ""
    },
    {
        "title": "狗子被主人骂，跑20多公里投奔主人女儿，把毛孩子委屈的",
        "docid": "7316086736747299366",
        "url": ""
    },
    {
        "title": "家猫遇野生兔狲，双方都静止不动小心试探，兔狲：这不会是老虎吧",
        "docid": "7338649047714791986",
        "url": ""
    },
    {
        "title": "女生回家第1天放牛把牛放丢，一人一狗尴尬对视后，狗狗举动亮了",
        "docid": "7321272544991183411",
        "url": ""
    },
    {
        "title": "一碗猫，叠中叠！颜色越浅越排后！网友：下面那只居然是自愿的",
        "docid": "7324565548455428642",
        "url": ""
    },
    {
        "title": "主人和狗狗酷爱土味DJ，一人一狗在车内摇头晃脑满脸沉醉，嗨起来",
        "docid": "7324899780109599259",
        "url": ""
    },
    {
        "title": "密码锁没电男子指挥猫咪开门，配合超默契上演开锁大戏：成精了",
        "docid": "7326004455433273893",
        "url": ""
    },
    {
        "title": "这玩意儿喂熟了，比狗子看家护院还要生猛",
        "docid": "7315603567132443172",
        "url": ""
    },
    {
        "title": "松鼠：我不是你能惹得起的！",
        "docid": "7328715623016595968",
        "url": ""
    },
    {
        "title": "小狗一边打瞌睡一边烤火，努力用小脚维持平衡太可爱了",
        "docid": "7327229414813794826",
        "url": ""
    },
    {
        "title": "网红猫尿尿：全网最机智的猫圈粉1000多万，网友：这猫要进化了",
        "docid": "7324657775097676327",
        "url": ""
    },
    {
        "title": "在三花猫眼里，狸花猫到底有多帅？#猫咪 #萌宠出道计划",
        "docid": "7339825981709877760",
        "url": ""
    },
    {
        "title": "主人临时回老家忘带狗粮，狗狗2天狂炫5锅饭，大伯含泪煮米饭",
        "docid": "7316041847476847156",
        "url": ""
    },
    {
        "title": "网友晒自家小猫吃饭，评论：它好像一个礼貌的小孩",
        "docid": "7344206248348221991",
        "url": ""
    },
    {
        "title": "狗狗每次回家都要找门卫开门，狗子:不是身高的问题,这是一个态度",
        "docid": "7346139346518573631",
        "url": ""
    },
    {
        "title": "一群熊孩子将狗埋土里！边撒土还边“哭丧”，狗子的表现引爆笑",
        "docid": "7328621121320780288",
        "url": ""
    },
    {
        "title": "笑死了！狸花猫性格到底有多野？网友：养大就跑，怎么劝都不回家",
        "docid": "7344647644897133056",
        "url": ""
    },
    {
        "title": "女子半夜发觉腿上有东西在爬，掀开被子被惊呆：猫咪生了一窝小猫",
        "docid": "7325705702620529152",
        "url": ""
    },
    {
        "title": "狗狗冷得直哆嗦，主人给它盖了床被子，竟然在狗狗身上看到了安逸",
        "docid": "7314520262694273548",
        "url": ""
    },
    {
        "title": "猫咪外出找小母猫玩耍，蹑手蹑脚跨过主人：我慢一点就看不见我",
        "docid": "7335270095888843275",
        "url": ""
    },
    {
        "title": "柴犬被女生亲亲嘴角咧耳朵根，镜头一转对男生反差爆笑：离我远点",
        "docid": "7317911745115357711",
        "url": ""
    },
    {
        "title": "鹦鹉独自在房间里“自嗨”，当发现被拍后，瞬间像变了只鸟",
        "docid": "7336022350321844746",
        "url": ""
    },
    {
        "title": "等车听到奶猫叫，翻垃圾翻出两只没睁眼奶猫，还是麒麟尾，招财！",
        "docid": "7345373428150927924",
        "url": ""
    },
    {
        "title": "狗狗白天放羊累坏了，晚上直接钻进被窝沉沉睡去",
        "docid": "7329783344885924392",
        "url": ""
    },
    {
        "title": "小猫主动伸出爪子让铲屎官剪指甲，全程完美配合，网友：科幻片",
        "docid": "7318230233197314586",
        "url": ""
    },
    {
        "title": "主人假装要将猫咪赶出家门，猫咪的反应令人发笑，全身写满了抵抗",
        "docid": "7335358216765473299",
        "url": ""
    },
    {
        "title": "狗狗到点出门自己遛自己，主人喂养14年毫不担心：回家都很准时",
        "docid": "7341238448499458612",
        "url": ""
    },
    {
        "title": "大年三十，我家的猫居然带着女朋友来吃饭，猫的爱情原来是这样滴",
        "docid": "7333935329570980386",
        "url": ""
    },
    {
        "title": "壹点探警丨一只萌犬成长为警犬需要几步？",
        "docid": "7346219340389368331",
        "url": ""
    },
    {
        "title": "男主人回家土拨鼠委屈凑近，钻怀里告状，凭一个动作贡献精湛演技",
        "docid": "7315248146006442547",
        "url": ""
    },
    {
        "title": "别不信，养龟还真的能转运",
        "docid": "7344380155671888436",
        "url": ""
    },
    {
        "title": "大肥猪喝下两瓶16度的啤酒后，才知道酒有多可怕，请憋住别笑！",
        "docid": "7340581846750757410",
        "url": ""
    },
    {
        "title": "主人从洗手间出来后，发现猫咪代替他参加会议，镜头记录搞笑过程",
        "docid": "7340917142612607525",
        "url": ""
    },
    {
        "title": "小女孩喂水獭吃泥鳅，太治愈啦",
        "docid": "7338324362811933196",
        "url": ""
    },
    {
        "title": "你知道为什么别的猫都打不过狸花猫吗？因为它骂得脏，下手狠？",
        "docid": "7345316569821807123",
        "url": ""
    },
    {
        "title": "狗狗走失被带到派出所，绝活频出令民警十分惊叹：可惜你不是警犬",
        "docid": "7346752439862690345",
        "url": ""
    },
    {
        "title": "宝宝和狗狗就吵得不可开交，网友：别劝架，双方都骂得很难听",
        "docid": "7324892951803658752",
        "url": ""
    },
    {
        "title": "猫咪打架输给主人很不服，躲到床尾口吐芬芳，网友：七不服八不忿",
        "docid": "7316746370398978586",
        "url": ""
    },
    {
        "title": "女子救了一只猫悉心照顾，长大后猫常往家中抓鱼，跟踪后被吓到了",
        "docid": "7330970197694054939",
        "url": ""
    },
    {
        "title": "狗：做狗这么多年，还是你比较纯！",
        "docid": "7317586068784710163",
        "url": ""
    },
    {
        "title": "主人假装要宰狗狗，狗狗起身后立马表忠心",
        "docid": "7322308132817142299",
        "url": ""
    },
    {
        "title": "男子给乌龟吃冰棒，一口咬下去，下秒千万憋住别笑啊！",
        "docid": "7346865816840700468",
        "url": ""
    },
    {
        "title": "网友路遇阿拉斯加想摸，小孩姐豪爽同意一把推上小狗：给我过去",
        "docid": "7327173768278311476",
        "url": ""
    },
    {
        "title": "这只鹦鹉的智商和词汇量简直是惊为天人，他可以和人一样对话",
        "docid": "7320215793010377252",
        "url": ""
    },
    {
        "title": "男子用鞭炮炸狗盆不顾狗子劝阻，狗子：这是人干的事吗",
        "docid": "7331286882947039782",
        "url": ""
    },
    {
        "title": "小朋友趴在地上和狗狗吵架，棋逢对手不分胜负",
        "docid": "7341316563481395712",
        "url": ""
    },
    {
        "title": "主人“推推”小猫咪让它去睡觉了，没想到愣是一动不动",
        "docid": "7316789794997010998",
        "url": ""
    },
    {
        "title": "主人就出差3个月，秀气的狗子就被奶奶养成毛毛虫，真是太萌了",
        "docid": "7332419488895205924",
        "url": ""
    },
    {
        "title": "狗狗犯错被主人训斥，背对主人伤心抽泣：隔着屏幕都能感受到委屈",
        "docid": "7320457206280192531",
        "url": ""
    },
    {
        "title": "50只鹦鹉、18种爬宠、60种标本……活体昆虫展进商场",
        "docid": "7347169579741037096",
        "url": ""
    },
    {
        "title": "小狗偷懒准备睡午觉，不料摸鱼被主人抓：小狗的眼神写满了求生欲",
        "docid": "7322798973667213865",
        "url": ""
    },
    {
        "title": "当女孩以为狗狗也可以给自己买零食网友：别为难狗叔 狗叔也没钱",
        "docid": "7324893878518022683",
        "url": ""
    },
    {
        "title": "马犬回村后！狗子在城市没有的快乐回村后翻倍，终于释放天性啦",
        "docid": "7319118147922068002",
        "url": ""
    },
    {
        "title": "猫咪从鱼摊上偷鱼吃，得手后先给女朋友吃，被两只猫塞了满嘴狗粮",
        "docid": "7314175646987452969",
        "url": ""
    },
    {
        "title": "家里多了个宝宝，两只猫咪的反应太好笑，还成了全职小保姆！",
        "docid": "7317970066828427811",
        "url": ""
    },
    {
        "title": "作死的狗狗趁着老虎睡着，一口将其封喉，下一秒请憋住不要笑",
        "docid": "7332792598425731610",
        "url": ""
    },
    {
        "title": "主人重逢失散3年狗狗，触碰瞬间狗子凶狠扭头，下一秒刀疤变旺财",
        "docid": "7327492968398225920",
        "url": ""
    },
    {
        "title": "男子回家发现宠物狗躺在床上十分妖娆，看到狗狗的姿势网友笑翻了",
        "docid": "7315606127914254859",
        "url": ""
    },
    {
        "title": "男子离家10个月后回来，以为猫咪会认不出，被它一系列动作整破防",
        "docid": "7324233834923295283",
        "url": ""
    },
    {
        "title": "猫咪偷了一窝小鸡，小鸡家长上门质问你看看这是你的崽吗",
        "docid": "7317902558675403275",
        "url": ""
    },
    {
        "title": "妈妈给女儿扎的小辫子，被猫咪误认为是逗猫棒",
        "docid": "7320800967900234276",
        "url": ""
    },
    {
        "title": "猫咪路边贪玩 竟然忘记自己是来接女主人回娘家的了#治愈猫咪",
        "docid": "7314176963734995507",
        "url": ""
    },
    {
        "title": "狗子一手带大的孩子去上学了，狗子情绪崩溃，在家大哭",
        "docid": "7337190643741295140",
        "url": ""
    },
    {
        "title": "记录中国特有的人类大迁移——“春运回家记”心酸一幕，尴尬瞬间",
        "docid": "7347135899500675624",
        "url": ""
    },
    {
        "title": "可爱小奶狗如何练成霸气警犬，记者揭秘→",
        "docid": "7346484546042462772",
        "url": ""
    },
    {
        "title": "狗子多次暗示主人投喂被无视，无奈暴躁摔盆“示威”：快给我饭",
        "docid": "7335656221506011659",
        "url": ""
    },
    {
        "title": "动物脸上看到恨铁不成钢，猫咪陪孩子写作业，一瞬间仿佛老妈上身",
        "docid": "7319436599895261711",
        "url": ""
    },
    {
        "title": "自家羊“飞檐走壁”，羊圈成了摆设？#动物的迷惑行为 #自家羊",
        "docid": "7322686318121910822",
        "url": ""
    },
    {
        "title": "身怀绝技的猫咪，猫：老虎只学到了一些皮毛而已#猫咪",
        "docid": "7325008126581834278",
        "url": ""
    },
    {
        "title": "可以合法饲养的笼鸟就这十种，基本都是来自国外",
        "docid": "7340942520232182326",
        "url": ""
    },
    {
        "title": "跟主人对骂的猫咪，奶凶奶凶的嚣张极了",
        "docid": "7339013110734914084",
        "url": ""
    },
    {
        "title": "春游正当时，见到这些小动物千万要当心！",
        "docid": "7347122769643127323",
        "url": ""
    },
    {
        "title": "全网最拽的猫，走起路来六亲不认，网友：一看就是家里有矿",
        "docid": "7332103805036823081",
        "url": ""
    },
    {
        "title": "萌娃和猫咪挤沙发，猫咪被惹怒“暴打”萌娃，网友：“欺猫太甚”",
        "docid": "7315297302414328370",
        "url": ""
    },
    {
        "title": "猫咪不会叼孩子主人亲自用手示范，随后举动主人惊呆：要给我养？",
        "docid": "7320879518095901247",
        "url": ""
    },
    {
        "title": "主人晚上下班回家，狗狗飞奔跳到身上迎接，这一蹦全是爱与信任",
        "docid": "7318676954603848229",
        "url": ""
    },
    {
        "title": "小姐姐抱金毛打麻将，用狗头蹭牌找运气，下一秒其他三人傻了！",
        "docid": "7314113259097817615",
        "url": ""
    },
    {
        "title": "猫咪天天捣鼓主人养的金鱼，主人：拦都拦不住，反正它也不吃",
        "docid": "7325278433146372634",
        "url": ""
    },
    {
        "title": "小狗刚挖好的坑被海水填了，这可把狗狗气坏了，下一秒忍住不要笑",
        "docid": "7332739526856540687",
        "url": ""
    },
    {
        "title": "男主出差一个月，让老妈帮忙照顾二哈，结果一进门悔得肠子都青了",
        "docid": "7346865567061508623",
        "url": ""
    },
    {
        "title": "狗狗被新主人收养，在新家开心撒娇，网友直呼：太可爱了！",
        "docid": "7325048630933455394",
        "url": ""
    },
    {
        "title": "老公回家过年了，和家里土狗初次相处，狗子居然求抱抱画面太搞笑",
        "docid": "7329888859650294272",
        "url": ""
    },
    {
        "title": "小金毛剃完毛回家后一直照镜子，转头后无奈的表情令人笑喷！",
        "docid": "7315986942292656677",
        "url": ""
    },
    {
        "title": "狗狗独自溜出去玩，被萌娃霸气逮回满脸不服气，称人家还没玩够呢",
        "docid": "7315728014145552907",
        "url": ""
    },
    {
        "title": "狗子撒欢不归家，主人一个电话叫回，网友：村里唯一有电话的狗子",
        "docid": "7322758211025502747",
        "url": ""
    },
    {
        "title": "第一次在猫脸上看到手忙脚乱，猫：看不过来 完全看不过来",
        "docid": "7345734242812297755",
        "url": ""
    },
    {
        "title": "俩猫配合的天衣无缝",
        "docid": "7325422246846333466",
        "url": ""
    },
    {
        "title": "猫咪一言不合就打鹦鹉！将鹦鹉头使劲往垃圾桶里按：你说服不服？",
        "docid": "7325277830907232806",
        "url": ""
    },
    {
        "title": "太治愈了！猫咪乖乖陪小主人写作业，猫咪：再不写完我要睡着了",
        "docid": "7344660264052228662",
        "url": ""
    },
    {
        "title": "比男朋友还要贴心得阿拉斯加，更是被被称为狗界第一霸道总裁",
        "docid": "7323908612467327539",
        "url": ""
    },
    {
        "title": "小狗隔空和对面4只狗狗吵架。主人：对面一只只的冒出来，很搞笑",
        "docid": "7338979996624650802",
        "url": ""
    },
    {
        "title": "男子香烟莫名变少，随后拍到狗狗偷烟上厕所，狗：不叼一根不得劲",
        "docid": "7325701042938511926",
        "url": ""
    },
    {
        "title": "男子在菜市场与待宰狗狗投缘，花1500带它回家，返程一幕心酸",
        "docid": "7330521889129333282",
        "url": ""
    },
    {
        "title": "男子逗小狗玩，激发了小狗凶狠的基因，小狗：讨厌没有边界的人类",
        "docid": "7322304623053079081",
        "url": ""
    },
    {
        "title": "主人动手打狗，为啥狗狗从不反抗？兽医直言：你在狗眼中是这样的",
        "docid": "7315728743845233189",
        "url": ""
    },
    {
        "title": "这是坐拥700万粉丝的田园猫，简直就是猫中模范 #猫咪",
        "docid": "7330224379328594482",
        "url": ""
    },
    {
        "title": "都八个月大了，还跟个街溜子似的，被饲养员妈妈拽着尾巴打一顿！",
        "docid": "7321603159250436620",
        "url": ""
    },
    {
        "title": "一只表情丰富的金毛，第一次从一只金毛脸上看出了尴尬和无奈",
        "docid": "7329129580315279872",
        "url": ""
    },
    {
        "title": "主人带绝育后的猫咪回家，四处乱窜吓得主人不敢动，网友不淡定了",
        "docid": "7338267129503810082",
        "url": ""
    },
    {
        "title": "宠物解说：这些冷门的奇怪宠物，你喜欢哪只？",
        "docid": "7340607958512271911",
        "url": ""
    },
    {
        "title": "全网混得最惨的狗子，也是最把自己当人的狗，网友：太喜欢了",
        "docid": "7338688376280711719",
        "url": ""
    },
    {
        "title": "原来主人“抱猫”时，在猫眼中，不是因为爱它！",
        "docid": "7343523168868729378",
        "url": ""
    },
    {
        "title": "黄牛得知被卖在家门前跪地不起，主人反悔拒卖喊它起身，下秒破防",
        "docid": "7336500619454513716",
        "url": ""
    },
    {
        "title": "猫咪偷吃挂在绳上晾晒的香肠，网友惊呼：这是真功夫，不是三脚猫",
        "docid": "7316391414311748105",
        "url": ""
    },
    {
        "title": "女子遛狗遇到柴犬，玩了一会儿柴犬的电话响了，转身回家逗乐众人",
        "docid": "7335662914654863899",
        "url": ""
    },
    {
        "title": "笑晕！猫猫被小孩惊吓以后开始蹲点反击，网友这猫太记仇了",
        "docid": "7320049284911464960",
        "url": ""
    },
    {
        "title": "十只猫咪回村过年 九只爱烤火？还有一只钻进灶台不出来？#宠物",
        "docid": "7334668846269366836",
        "url": ""
    },
    {
        "title": "主人趁二哈睡着给它剃毛，二哈醒来后大闹，主人笑得直不起腰",
        "docid": "7346516355614507572",
        "url": ""
    },
    {
        "title": "狗嘴被牛皮黏住，歪着嘴求助主人爆笑不止：差点以为下巴脱臼了",
        "docid": "7346116647905657381",
        "url": ""
    },
    {
        "title": "猫咪第一次见小主人吓得后仰炸毛，站在床边战战兢兢：我不要带娃",
        "docid": "7315667524492722725",
        "url": ""
    },
    {
        "title": "主人把肉饼扔狗盆里转头就走，老公回来发现搞笑一幕：不如饿死它",
        "docid": "7336411172582883879",
        "url": ""
    },
    {
        "title": "女主人正拿锅煮泡面吃 ，猫咪竟把自己宝宝放锅里",
        "docid": "7317453500609200694",
        "url": ""
    },
    {
        "title": "孙女让奶奶把手放狗头上拍照，狗子：奶奶我头在这呢！",
        "docid": "7333091385966330403",
        "url": ""
    },
    {
        "title": "小狗对待狸花猫和三花猫的区别",
        "docid": "7340465339274265088",
        "url": ""
    },
    {
        "title": "狗子太胖把车坐塌，主人让它挪一下位置，结果狗狗挪了一下屁股",
        "docid": "7343534896553722394",
        "url": ""
    },
    {
        "title": "主人示意狗狗睡觉，狗狗一脸敷衍，狗：凑活过呗，还能离咋滴",
        "docid": "7328241544577122854",
        "url": ""
    },
    {
        "title": "猫咪挠伤主人后直接装死，缩成一团不愿面对，主人扒拉半天不抬头",
        "docid": "7343897871001125391",
        "url": ""
    },
    {
        "title": "狗子弥留之际向田野走去，主人悄悄跟随，用尽力气后还是倒下了",
        "docid": "7316827698171478562",
        "url": ""
    },
    {
        "title": "狗狗乖乖跟来河边洗澡，网友：洗衣粉是洗毛，洗洁精洗溢出来的油",
        "docid": "7341669116354724352",
        "url": ""
    },
    {
        "title": "猫咪不睡觉炸毛哈人嘴里喊“欧嘞”，原来是察觉到地震，主人吓懵",
        "docid": "7317469151209980457",
        "url": ""
    },
    {
        "title": "金毛生了一窝崽主人哭笑不得 这可咋整 家里啥条件呀",
        "docid": "7343502157372949033",
        "url": ""
    },
    {
        "title": "南方小金豆实在太可爱，给尔滨人稀罕坏了",
        "docid": "7325734795865293352",
        "url": ""
    },
    {
        "title": "自家驴子从小调皮还咬人，主人为它挂上帆布袋练习拖货",
        "docid": "7346764682792796683",
        "url": ""
    },
    {
        "title": "主人发现起火，第一反应赶紧救狗，镜头拉近后才发现！",
        "docid": "7347171852743246363",
        "url": ""
    },
    {
        "title": "今天的猫烫手",
        "docid": "7319862981473501696",
        "url": ""
    },
    {
        "title": "“按揭狗”“带病猫”……宠物消费如何避“坑”？",
        "docid": "7347229814937584143",
        "url": ""
    },
    {
        "title": "从人类基因样本中测出犬种结果 国外宠物基因检测遭质疑",
        "docid": "7346502466046902823",
        "url": ""
    },
    {
        "title": "一只身手不凡的猫咪，被称为“功夫凶猫”，放个屁都能一杆进洞",
        "docid": "7322460698133725715",
        "url": ""
    },
    {
        "title": "主人让羊驼接诈骗电话，羊驼句句有回应，最后逐渐把骗子逼疯！",
        "docid": "7345801943211573812",
        "url": ""
    },
    {
        "title": "能打赢狸花猫的，只有被拴住的狸花猫",
        "docid": "7314511779785245225",
        "url": ""
    },
    {
        "title": "被狼袭击的坎高犬满血归来，组团上山，对咬伤它的狼发起挑战",
        "docid": "7346069527047701043",
        "url": ""
    },
    {
        "title": "主人把社恐狗狗躲藏的窗帘换成纱网友：原来他在里面还是挺开朗的",
        "docid": "7345375986965611017",
        "url": ""
    },
    {
        "title": "“狗狗与人类幼崽的治愈瞬间”",
        "docid": "7314941925872796199",
        "url": ""
    },
    {
        "title": "为什么说动物不能混养，看完你就知道了，哈哈哈",
        "docid": "7340209396867465791",
        "url": ""
    },
    {
        "title": "狗狗：在外面没人敢这样对我！网友哦：忍忍还有千八百天就上学了",
        "docid": "7327636899303653938",
        "url": ""
    },
    {
        "title": "儿子很忙不能总在我跟前，他的猫成了我最亲密的陪伴，比儿子还亲",
        "docid": "7326572772380672549",
        "url": ""
    },
    {
        "title": "小奶猫从小和兔子长大被带偏，不会走猫步全程蹦着走：智商感人",
        "docid": "7346854977874166298",
        "url": ""
    },
    {
        "title": "姥姥给猫咪洗脑争夺抚养权，猫咪听得一脸认真，无障碍交流惹爆笑",
        "docid": "7321204322623193640",
        "url": ""
    },
    {
        "title": "当代年轻猫现状：社恐，只想回老家种地",
        "docid": "7329775789509968425",
        "url": ""
    },
    {
        "title": "全网公认智商为负的猫“驴得水”近亲烤鱼片吃猫砂，喝奶成弹簧精",
        "docid": "7332423780817437196",
        "url": ""
    },
    {
        "title": "猫咪这几个特征，说明是“旺家猫”，错不了",
        "docid": "7316374896282681882",
        "url": ""
    },
    {
        "title": "一只鹦鹉教另一只鹦鹉说话，教到最后气的直接飘脏话了",
        "docid": "7315625284865589812",
        "url": ""
    },
    {
        "title": "向上吧，“新”人⑥宠托师：放心出门吧！你的爱宠我来守护",
        "docid": "7346235009562411532",
        "url": ""
    },
    {
        "title": "主人正在杀鸡，小鸭子不小心看到了，下一秒憋住别笑！",
        "docid": "7332746440110375436",
        "url": ""
    },
    {
        "title": "千万别当着猫的面，开鲱鱼罐头！猫脸都臭扭曲了..",
        "docid": "7332210519660724788",
        "url": ""
    },
    {
        "title": "男子和巨型贵宾坐一起，体型还比不过一只狗，双方都挺不好意思",
        "docid": "7315703139968287282",
        "url": ""
    },
    {
        "title": "小羊绝对是高手！跳上船的一刹那，竟然避开了栏杆，太帅了",
        "docid": "7329016614177735179",
        "url": ""
    },
    {
        "title": "请问一下这个车落地要多少钱！！！",
        "docid": "7346958753826292265",
        "url": ""
    },
    {
        "title": "自己的孩子自己管 好聪明的狗狗",
        "docid": "7326500117245231656",
        "url": ""
    },
    {
        "title": "小红子：猫界最温顺可爱的起司猫，天生媚骨，网友：我的梦中情猫",
        "docid": "7335747475594347020",
        "url": ""
    },
    {
        "title": "这是全网最爹宝的狗狗不拆，不拆每天都是：嗨，爹地！！",
        "docid": "7323427873879294474",
        "url": ""
    },
    {
        "title": "全网最会带娃的金毛犬，带娃比亲妈还要上心，像极了爷爷奶奶的爱",
        "docid": "7333624764022161929",
        "url": ""
    },
    {
        "title": "“回村后的小狗生活真的太快乐了”",
        "docid": "7336435340859605531",
        "url": ""
    },
    {
        "title": "全网癖好最奇葩的猫，每天睡觉前都要咬主人鼻子才躺下",
        "docid": "7330878977772847670",
        "url": ""
    },
    {
        "title": "全网最聪明的边牧，不仅会打麻将，而且打法非同寻常，惊呆众人",
        "docid": "7334584938072637971",
        "url": ""
    },
    {
        "title": "鹅群中出现一只另类，天天与鹅同吃同住，主人看后却乐坏了",
        "docid": "7324566818755084815",
        "url": ""
    },
    {
        "title": "猫咪主动靠近女主人大肚子，前秒还犯困下一秒瞪圆眼：万物皆有灵",
        "docid": "7328347214915306036",
        "url": ""
    },
    {
        "title": "下完崽的狗子硬要给主人喂奶，主人满脸尴尬不停推拒：多见外啊！",
        "docid": "7339356717559317029",
        "url": ""
    },
    {
        "title": "鹦鹉骑着狗狗迎接主人下班，开门后瞬间被治愈，主人：没有训练过",
        "docid": "7339009514496066085",
        "url": ""
    },
    {
        "title": "这就是养猫的意义吧！世界破破烂烂，小猫缝缝补补！",
        "docid": "7321676113934025235",
        "url": ""
    },
    {
        "title": "那些两副面孔的猫咪，来看看哪个最离谱？",
        "docid": "7317189752254693914",
        "url": ""
    },
    {
        "title": "太狗了！狗子跑到另一狗狗面前炫耀零食，将“贱”字发挥淋漓尽致",
        "docid": "7328760045537493523",
        "url": ""
    },
    {
        "title": "主人给大狗戴绳小狗急眼，站起来骂骂咧咧说起人话，女子当场傻眼",
        "docid": "7347230511984542223",
        "url": ""
    },
    {
        "title": "小猫站在车内陪主人开车，目不转睛看路，这哈基米买的原来是站票",
        "docid": "7314130621415031323",
        "url": ""
    },
    {
        "title": "你养的什么猫？",
        "docid": "7320862949923897894",
        "url": ""
    },
    {
        "title": "养狸花猫，那你可得掂量掂量",
        "docid": "7337847525804016191",
        "url": ""
    },
    {
        "title": "全网最会唱歌的猫咪“七脉”，一只学啥都会的学霸猫#猫咪 #可爱",
        "docid": "7323104178514068031",
        "url": ""
    },
    {
        "title": "古有“单女不养狗”的说法，只是封建糟粕，还是古人的大有深意？",
        "docid": "7317493952557711926",
        "url": ""
    },
    {
        "title": "流浪狗脸上插满豪猪的刺 遇好心人救治并收养",
        "docid": "7346462267224883724",
        "url": ""
    },
    {
        "title": "公母猫绝育的区别",
        "docid": "7325320452938596916",
        "url": ""
    },
    {
        "title": "惩罚猫猫的正确方法",
        "docid": "7343180364758073890",
        "url": ""
    },
    {
        "title": "蓝猫回村老被其他猫咪打，主人不放心跟踪“破案”，都是你自找的",
        "docid": "7319098606035272232",
        "url": ""
    },
    {
        "title": "矮脚猫有多可爱，简直又搞笑又呆萌！",
        "docid": "7325188140396708415",
        "url": ""
    },
    {
        "title": "猫咪因咬充电线被主人教育，猫咪的表情绝了",
        "docid": "7346831252936196623",
        "url": ""
    },
    {
        "title": "爱猫离家出走三天寻宠团队寻找，找到后主人崩溃痛哭：它的脖圈呢",
        "docid": "7319331631075066420",
        "url": ""
    },
    {
        "title": "给大家看看我养的小孩🐱",
        "docid": "7333195565502562828",
        "url": ""
    },
    {
        "title": "猫狗狭路相逢，都用上战术了！惹完狗子又去惹鸡",
        "docid": "7324989312365003302",
        "url": ""
    },
    {
        "title": "最牛中华田园犬，没事就欺负狮子老虎。#狗狗 #动物园",
        "docid": "7330119956157825586",
        "url": ""
    },
    {
        "title": "猫丢了，千万别让狸花猫帮忙找，那等于是发布了江湖追杀令！",
        "docid": "7318325766083904054",
        "url": ""
    },
    {
        "title": "把鱤鱼和鳜鱼放一起，打造1个国产猛鱼缸，结果很快就发生意外了",
        "docid": "7321572207002550836",
        "url": ""
    },
    {
        "title": "猫咪总爱贴在主人脸上，男子：睡午觉那是痴心妄想",
        "docid": "7347200439034577435",
        "url": ""
    },
    {
        "title": "金毛叼回孔明灯赶紧关上门，动作慌张一气呵成，下秒主人却乐开花",
        "docid": "7319334745530663436",
        "url": ""
    },
    {
        "title": "小猫下楼梯想偷懒，主人助力直接“流”了下去，网友：真是液体",
        "docid": "7343091972959109683",
        "url": ""
    },
    {
        "title": "奇迹发生！老人养的一只“凤凰”繁殖，被称为“牢底坐穿鸟”！",
        "docid": "7347183705527714340",
        "url": ""
    },
    {
        "title": "宝宝靠在狗狗身上放了个屁，怎料下一秒狗狗的举动，让爸妈笑翻了",
        "docid": "7320530053886902799",
        "url": ""
    },
    {
        "title": "全网最欠收拾的山羊，每天在挑战主人的忍耐度，迟早被做成烤全羊",
        "docid": "7319839610228933146",
        "url": ""
    },
    {
        "title": "宠物“免费领养” 是福利还是套路？",
        "docid": "7347294272548356608",
        "url": ""
    },
    {
        "title": "网友拍下楼道小猫“喵喵”，好一个“字正腔圆”的猫叫",
        "docid": "7315627107220029988",
        "url": ""
    },
    {
        "title": "“有些小猫咪天生就是来笑死你的！”",
        "docid": "7342677365371175433",
        "url": ""
    },
    {
        "title": "一位爱养鱼的李老板让我开了眼界#神奇动物在抖音 #万万没想到",
        "docid": "7321745535684379147",
        "url": ""
    },
    {
        "title": "“这狗子，害我笑了整整两分二十八秒！”",
        "docid": "7344912587375116810",
        "url": ""
    },
    {
        "title": "哈士奇和金毛打架输了，当街痛哭，主人手动捂嘴：你可别丢我脸了",
        "docid": "7322290131891651072",
        "url": ""
    },
    {
        "title": "主人被窝偷摸吃炸鸡，黑暗中狗脸探出吓一哆嗦：就给我吃一口",
        "docid": "7342410689040646691",
        "url": ""
    },
    {
        "title": "弟弟脚趾撞骨裂全家模仿，一看妈妈就是罪魁祸首，狗子出场成亮点",
        "docid": "7347202855725433344",
        "url": ""
    },
    {
        "title": "一只橘猫连续五年独自乘车去公园，背后原因让人都不忍心驱赶它",
        "docid": "7328259622907675155",
        "url": ""
    },
    {
        "title": "笑到停不下来的猫兄弟！一只学霸，一只学渣，真是太有爱了！",
        "docid": "7328398227962036787",
        "url": ""
    },
    {
        "title": "男子喝多了打呼噜，狗狗动作太真实了，女主人：笑不活！",
        "docid": "7339431524045062710",
        "url": ""
    },
    {
        "title": "可爱！猫咪第一次进入沙漠，以为是自己的猫砂盆，忙得不可开交",
        "docid": "7315581199278309922",
        "url": ""
    },
    {
        "title": "猫咪下崽儿主人给熬鱼汤补身体，猫猫喝着喝着感动得落泪",
        "docid": "7345001406207951398",
        "url": ""
    },
    {
        "title": "猫咪偷吃女孩15元买的麻薯，女孩哭着质问猫咪：一盒麻薯才有多少",
        "docid": "7325648542314922536",
        "url": ""
    },
    {
        "title": "狗子偷吃主人晾外边的香肠，男子路过抓包非要告状，狗子破口大骂",
        "docid": "7320811935791612426",
        "url": ""
    },
    {
        "title": "刚刚出生12个小时的长颈鹿宝宝，还不适应自己的长脖子",
        "docid": "7345301356057788943",
        "url": ""
    },
    {
        "title": "于正和王家卫之间到底差了多少？和郭敬明之间的区别又是什么？",
        "docid": "7347025289396208155",
        "url": ""
    },
    {
        "title": "追猫小主人天天想要贴贴，狸花猫表示很无奈#猫和宝宝的日常",
        "docid": "7332728134644531751",
        "url": ""
    },
    {
        "title": "猫咪偷吃鱼被主人发现，鱼尾露在嘴巴外面，猫：这是我舌头你信吗",
        "docid": "7347139951450194466",
        "url": ""
    },
    {
        "title": "时隔一个月这公狗终于回来了，还知道有个家啊，一天天的气死人",
        "docid": "7320933413145215522",
        "url": ""
    },
    {
        "title": "狗狗：有你是我的福气#万万没想到 #狗狗 #意不意外 #搞笑配音",
        "docid": "7326118290848383522",
        "url": ""
    },
    {
        "title": "猫咪经常陪主人打麻将，一上牌桌满脸认真太逗乐：赌神都自愧不如",
        "docid": "7320838130612109865",
        "url": ""
    },
    {
        "title": "全网最神的哈士奇！会蹬三轮车，会撩妹！#动物的迷惑行为",
        "docid": "7336898161140892195",
        "url": ""
    },
    {
        "title": "狗狗身上有这6个特征就是“旺家狗”，占的越多，越有福气！",
        "docid": "7329795540902806056",
        "url": ""
    },
    {
        "title": "猫咪发现自家狗子被欺负，气势汹汹冲上去干架！",
        "docid": "7316418978606383643",
        "url": ""
    },
    {
        "title": "主人买了个机械恐龙回家，猫咪走路变成了这样的，忍住别笑",
        "docid": "7324132547800072767",
        "url": ""
    },
    {
        "title": "阿拉斯加走丢在街上大哭，好心阿姨一边安抚一边帮其报警",
        "docid": "7328960221773038143",
        "url": ""
    },
    {
        "title": "狗狗“告别”，一般会出现5大征兆！你却傻傻不知道！",
        "docid": "7327941959430717988",
        "url": ""
    },
    {
        "title": "狗和鸡打完架后，看到主人把鸡宰了，下一秒狗狗的行为逗笑全家人",
        "docid": "7346500127001707042",
        "url": ""
    },
    {
        "title": "家里安装扫地机器人，怎料让猫咪发现后，下一秒请大家憋住别笑！",
        "docid": "7320547768588894747",
        "url": ""
    },
    {
        "title": "狗狗的治愈瞬间，今天的不开心就到此为止吧#狗狗治愈系  #萨摩耶",
        "docid": "7315346223920218659",
        "url": ""
    },
    {
        "title": "老外养了一头驴，从小跟狗长大被带偏，结果画风成了这样",
        "docid": "7332345896354939403",
        "url": ""
    },
    {
        "title": "网友分享自己家猫咪剃毛过程，没有吵闹，但是表情感觉有点问题",
        "docid": "7345013399094460928",
        "url": ""
    },
    {
        "title": "家里狗狗出去遛弯，竟背回来一群小家伙，女主人见后差点尖叫",
        "docid": "7332736186978402866",
        "url": ""
    },
    {
        "title": "猫咪偷吃外卖箱里的东西，外卖小哥批评教育，猫咪：我知错了！",
        "docid": "7346430438291800591",
        "url": ""
    },
    {
        "title": "狗子在家轻撩女主人的秀发，女主人温柔对视害羞红脸：比男人会撩",
        "docid": "7346764513900757542",
        "url": ""
    },
    {
        "title": "全网最黏人的狸花猫，见过人吸猫的，猫咪吸人的还是第一次见",
        "docid": "7346574416077128219",
        "url": ""
    },
    {
        "title": "猫咪低头舔毛下秒突然去世，僵硬倒地瞬间主人看哭：陪了我4年多",
        "docid": "7314136687901147683",
        "url": ""
    },
    {
        "title": "玩够了 自己跑来找我撒娇",
        "docid": "7317649121953874468",
        "url": ""
    },
    {
        "title": "这牛太聪明了，放手就跑到场外，让对手跟别的牛打",
        "docid": "7346417934400487970",
        "url": ""
    },
    {
        "title": "对着猫咪屁屁吹口气你就能成为他最好的朋友？#猫咪的迷惑行为",
        "docid": "7319096776756527670",
        "url": ""
    },
    {
        "title": "小鸭子偷懒不游非要妈妈背，下一秒妈妈的举动，大家憋住别笑",
        "docid": "7322776029481665050",
        "url": ""
    },
    {
        "title": "“这只奶牛猫，害我笑了足足两分钟！”",
        "docid": "7345646019004727818",
        "url": ""
    },
    {
        "title": "猫咪为什么每天早上叫你起床？养久了才知道，它是想告诉你这些",
        "docid": "7344271210596893194",
        "url": ""
    },
    {
        "title": "狗子在楼道下崽，男子煎鸡蛋投喂，没想到狗子吃完反应亮了！",
        "docid": "7341947477009891890",
        "url": ""
    },
    {
        "title": "家里花瓶打碎了，把狗狗叫来审问，一眼能看出来是谁干的",
        "docid": "7341346729511518758",
        "url": ""
    },
    {
        "title": "猫：七步之内，统统拿下！",
        "docid": "7330938108483437096",
        "url": ""
    },
    {
        "title": "主人买了个充气猫，橘猫看到后当场发飙，下一秒请忍住别笑！",
        "docid": "7323762331115389467",
        "url": ""
    },
    {
        "title": "女子指挥狗子呲牙，狗子在恶霸和可怜间收放自如，网友：狗届影帝",
        "docid": "7347160409683690024",
        "url": ""
    },
    {
        "title": "田园功夫猫",
        "docid": "7338967907743105577",
        "url": ""
    },
    {
        "title": "堪称全网最搞笑的鹦鹉，它不仅能够模仿人说话，还会与人开玩笑！",
        "docid": "7322540970057138700",
        "url": ""
    },
    {
        "title": "狸花猫作为猫界一哥，究竟有哪些魅力？#宠物猫#狸花猫",
        "docid": "7322407476156957203",
        "url": ""
    },
    {
        "title": "妈妈看监控才发现原来孩子半夜醒来，都是猫咪陪着她",
        "docid": "7345392152551588371",
        "url": ""
    },
    {
        "title": "宠物解说：十只猫咪学习捕猎，有九个都成功了？",
        "docid": "7337260299780948506",
        "url": ""
    }
]